# prime 19
# degree 2
# input variables 2
# output variables 7
# p = 19
# n = 7
# smalldomain p^m 361
# domain p^n 893871739
#	 p^2 = 361
#	 p^3 = 6859
#	 p^4 = 130321
#	 p^5 = 2476099
#	 p^6 = 47045881
#	 p^7 = 893871739
# dimension of the chunk  54
# number of the chunk  391 of 508 blocks
# functions to test 54
# startcode = 21114  :: endcode = 21168:: fdomain = 54
# 0.564594secs	# 0 balance functions. Density 0
