# prime 19
# degree 2
# input variables 2
# output variables 4
# reload computed balance functions from file balance-161of512-p19d2m2-debug.log
# p = 19
# n = 4
# smalldomain p^m 361
# domain p^n 130321
#	 p^2 = 361
#	 p^3 = 6859
#	 p^4 = 130321
#	 p^5 = 2476099
opening file : balance-161of512-p19d2m2-debug.log
reloading for step2...
8703		 # 	collision with: 0 6 0 0  and 2 6 0 0 
 # max = 116
0.047442secs	116 23
