# prime 19
# degree 2
# input variables 2
# output variables 3
# reload computed balance functions from file balance-446of512-p19d2m2-debug.log
# p = 19
# n = 3
# smalldomain p^m 361
# domain p^n 6859
#	 p^2 = 361
#	 p^3 = 6859
#	 p^4 = 130321
#	 p^5 = 2476099
opening file : balance-446of512-p19d2m2-debug.log
reloading for step2...
24122		 # 	collision with: 14 2 0  and 14 4 0 
 # max = 90
24123		 # 	collision with: 5 2 0  and 3 4 0 
 # max = 90
0.0120591secs	90 33
