# prime 19
# degree 2
# input variables 2
# output variables 3
# reload computed balance functions from file balance-171of512-p19d2m2-debug.log
# p = 19
# n = 3
# smalldomain p^m 361
# domain p^n 6859
#	 p^2 = 361
#	 p^3 = 6859
#	 p^4 = 130321
#	 p^5 = 2476099
opening file : balance-171of512-p19d2m2-debug.log
reloading for step2...
9234		 # 	collision with: 9 2 0  and 10 2 0 
 # max = 48
9235		 # 	collision with: 4 5 0  and 4 7 0 
 # max = 137
0.0134267secs	137 37
