# prime 19
# degree 2
# input variables 2
# output variables 5
# reload computed balance functions from file balance-212of512-p19d2m2-debug.log
# p = 19
# n = 5
# smalldomain p^m 361
# domain p^n 2476099
#	 p^2 = 361
#	 p^3 = 6859
#	 p^4 = 130321
#	 p^5 = 2476099
opening file : balance-212of512-p19d2m2-debug.log
reloading for step2...
11470		 # 	collision with: 6 0 0 0 0  and 6 2 0 0 0 
 # max = 44
11471		 # 	collision with: 16 0 0 0 0  and 13 2 0 0 0 
 # max = 51
0.017316secs	51 19
