# prime 19
# degree 2
# input variables 2
# output variables 3
# reload computed balance functions from file balance-385of512-p19d2m2-debug.log
# p = 19
# n = 3
# smalldomain p^m 361
# domain p^n 6859
#	 p^2 = 361
#	 p^3 = 6859
#	 p^4 = 130321
#	 p^5 = 2476099
opening file : balance-385of512-p19d2m2-debug.log
reloading for step2...
20794		 # 	collision with: 5 5 0  and 14 7 0 
 # max = 147
20795		 # 	collision with: 5 0 0  and 7 0 0 
 # max = 147
0.0197801secs	147 30
