# prime 19
# degree 2
# input variables 2
# output variables 3
# reload computed balance functions from file balance-218of512-p19d2m2-debug.log
# p = 19
# n = 3
# smalldomain p^m 361
# domain p^n 6859
#	 p^2 = 361
#	 p^3 = 6859
#	 p^4 = 130321
#	 p^5 = 2476099
opening file : balance-218of512-p19d2m2-debug.log
reloading for step2...
2.0785e-05secs	0 0
