# prime 11
# degree 2
# input variables 3
# output variables 7
# p = 11
# n = 7
# smalldomain p^m 1331
# domain p^n 19487171
#	 p^2 = 121
#	 p^3 = 1331
#	 p^4 = 14641
#	 p^5 = 161051
#	 p^6 = 1771561
#	 p^7 = 19487171
#	 p^8 = 214358881
#	 p^9 = 2357947691
# dimension of the chunk  6000
# number of the chunk  14 of 12991 blocks
# functions to test 6000
# startcode = 84000  :: endcode = 90000:: fdomain = 6000
84004
84006
84013
84015
84053
84055
84064
84066
84109
84124
84126
84140
84161
84163
84197
84199
84200
84202
84216
84218
84220
84222
84224
84226
84228
84230
84232
84234
84236
84238
84240
84242
84244
84246
84248
84250
84252
84256
84258
84276
84278
84281
84283
84317
84336
84338
84352
84354
84369
84371
84412
84414
84425
84465
84467
84472
84474
84488
84497
84499
84537
84539
84548
84550
84593
84595
84608
84610
84624
84626
84645
84647
84681
84683
84684
84686
84700
84702
84704
84706
84708
84710
84712
84714
84716
84718
84720
84722
84724
84726
84728
84730
84732
84734
84736
84738
84740
84760
84762
84765
84767
84801
84803
84820
84822
84836
84853
84855
84896
84898
84909
84911
84949
84951
84956
84958
84972
84974
84981
84983
85021
85023
85032
85034
85077
85079
85092
85094
85108
85110
85129
85131
85165
85167
85168
85170
85190
85194
85198
85202
85206
85210
85214
85218
85222
85226
85250
85255
85295
85314
85334
85367
85398
85411
85418
85482
85491
85502
85535
85566
85586
85607
85647
85650
85668
85670
85672
85676
85678
85680
85682
85684
85686
85688
85690
85692
85694
85696
85698
85700
85702
85704
85706
85708
85710
85732
85734
85737
85739
85777
85779
85796
85816
85818
85833
85835
85849
85851
85880
85882
85893
85895
85900
85902
85964
85966
85973
85975
85984
85986
86017
86019
86033
86035
86048
86050
86068
86070
86089
86091
86129
86131
86132
86134
86152
86154
86156
86158
86160
86164
86166
86168
86170
86172
86174
86176
86178
86180
86182
86184
86186
86188
86190
86192
86194
86216
86218
86221
86223
86261
86263
86280
86282
86300
86302
86317
86319
86333
86335
86364
86377
86379
86384
86386
86448
86450
86457
86459
86468
86470
86501
86503
86517
86519
86532
86534
86552
86554
86573
86575
86613
86615
86616
86618
86636
86638
86640
86642
86644
86646
86648
86652
86654
86656
86658
86660
86662
86664
86666
86668
86670
86672
86674
86676
86678
86700
86702
86705
86707
86745
86747
86764
86766
86784
86786
86801
86803
86817
86819
86848
86850
86861
86863
86868
86870
86932
86941
86943
86952
86954
86985
86987
87001
87003
87016
87018
87036
87038
87057
87059
87097
87099
87100
87102
87120
87122
87124
87126
87128
87130
87132
87134
87136
87140
87142
87144
87146
87148
87150
87152
87154
87156
87158
87160
87162
87184
87186
87189
87191
87229
87231
87248
87250
87268
87270
87285
87287
87301
87303
87332
87334
87345
87347
87352
87354
87416
87418
87425
87427
87436
87438
87469
87471
87485
87487
87500
87520
87522
87541
87581
87584
87586
87604
87606
87608
87610
87612
87614
87616
87618
87620
87622
87624
87628
87630
87632
87634
87636
87638
87640
87642
87644
87646
87668
87670
87673
87675
87713
87715
87732
87734
87752
87754
87769
87771
87785
87816
87818
87829
87831
87836
87838
87900
87902
87909
87920
87922
87953
87955
87969
87971
87984
87986
88004
88006
88025
88027
88065
88067
88068
88088
88090
88092
88094
88096
88098
88100
88102
88104
88106
88108
88110
88112
88116
88118
88120
88122
88124
88126
88128
88130
88152
88157
88159
88197
88199
88216
88218
88236
88238
88253
88255
88269
88271
88300
88302
88313
88320
88322
88384
88386
88393
88395
88404
88406
88437
88453
88455
88468
88470
88488
88490
88509
88511
88549
88551
88552
88554
88572
88574
88576
88578
88580
88582
88584
88586
88588
88590
88592
88594
88596
88598
88600
88604
88606
88608
88610
88612
88614
88636
88638
88641
88681
88700
88702
88720
88737
88739
88753
88755
88784
88786
88797
88799
88804
88806
88868
88870
88877
88879
88888
88890
88921
88923
88937
88939
88952
88954
88972
88974
88993
88995
89033
89035
89036
89038
89056
89058
89060
89062
89064
89066
89068
89070
89072
89074
89076
89078
89080
89082
89084
89086
89088
89092
89094
89096
89098
89120
89122
89125
89127
89165
89167
89184
89186
89204
89206
89221
89223
89237
89239
89268
89270
89281
89283
89288
89352
89354
89361
89363
89372
89374
89405
89407
89421
89423
89436
89438
89456
89458
89477
89479
89517
89519
89520
89522
89540
89542
89544
89546
89548
89550
89552
89554
89556
89558
89560
89562
89564
89566
89568
89570
89572
89574
89576
89580
89582
89604
89606
89609
89611
89649
89651
89668
89670
89688
89690
89705
89707
89721
89723
89752
89754
89765
89767
89772
89774
89836
89838
89845
89847
89856
89889
89891
89905
89907
89920
89922
89940
89942
89961
89963
# 604.992secs	# 692 balance functions. Density 0.115333
