# prime 11
# degree 2
# input variables 3
# output variables 7
# p = 11
# n = 7
# smalldomain p^m 1331
# domain p^n 19487171
#	 p^2 = 121
#	 p^3 = 1331
#	 p^4 = 14641
#	 p^5 = 161051
#	 p^6 = 1771561
#	 p^7 = 19487171
#	 p^8 = 214358881
#	 p^9 = 2357947691
# dimension of the chunk  6000
# number of the chunk  2640 of 12991 blocks
# functions to test 6000
# startcode = 15840000  :: endcode = 15846000:: fdomain = 6000
15840057
15840059
15840081
15840083
15840089
15840091
15840105
15840107
15840133
15840135
15840161
15840163
15840185
15840187
15840209
15840211
15840293
15840295
15840303
15840352
15840354
15840449
15840451
15840457
15840459
15840541
15840543
15840565
15840567
15840573
15840589
15840591
15840617
15840619
15840645
15840647
15840669
15840693
15840695
15840777
15840779
15840785
15840787
15840836
15840838
15840933
15840935
15840941
15840943
15841025
15841027
15841049
15841051
15841057
15841059
15841075
15841103
15841129
15841131
15841153
15841155
15841177
15841179
15841261
15841263
15841269
15841271
15841320
15841322
15841417
15841419
15841425
15841427
15841533
15841535
15841541
15841543
15841557
15841585
15841587
15841613
15841615
15841639
15841661
15841663
15841745
15841747
15841753
15841755
15841804
15841806
15841901
15841903
15841909
15841911
15841993
15841995
15842019
15842025
15842027
15842041
15842043
15842069
15842071
15842097
15842121
15842123
15842229
15842231
15842237
15842239
15842288
15842290
15842385
15842387
15842393
15842395
15842477
15842479
15842501
15842503
15842511
15842525
15842527
15842553
15842555
15842583
15842605
15842607
15842629
15842631
15842713
15842715
15842721
15842723
15842772
15842774
15842869
15842871
15842877
15842879
15842961
15842963
15842985
15842993
15842995
15843009
15843011
15843037
15843065
15843067
15843089
15843091
15843113
15843115
15843197
15843199
15843205
15843207
15843256
15843258
15843355
15843361
15843363
15843445
15843447
15843469
15843471
15843477
15843479
15843493
15843495
15843521
15843523
15843549
15843551
15843573
15843575
15843597
15843599
15843683
15843689
15843691
15843740
15843742
15843837
15843839
15843845
15843847
15843929
15843931
15843953
15843955
15843961
15843963
15843977
15843979
15844005
15844007
15844033
15844035
15844057
15844059
15844081
15844083
15844165
15844173
15844175
15844345
15844347
15844349
15844351
15844409
15844411
15844441
15844443
15844449
15844451
15844457
15844459
15844521
15844523
15844529
15844531
15844537
15844539
15844569
15844571
15844629
15844631
15844633
15844635
15844708
15844710
15844829
15844831
15844833
15844835
15844895
15844925
15844927
15844933
15844935
15844941
15844943
15845005
15845007
15845013
15845015
15845023
15845053
15845055
15845113
15845115
15845117
15845119
15845192
15845194
15845313
15845315
15845317
15845319
15845377
15845379
15845409
15845411
15845417
15845425
15845427
15845489
15845491
15845497
15845499
15845505
15845537
15845539
15845597
15845599
15845601
15845603
15845676
15845678
15845797
15845799
15845801
15845803
15845861
15845863
15845893
15845895
15845903
15845909
15845911
15845975
15845981
15845983
15845989
15845991
# 714.63secs	# 298 balance functions. Density 0.0496667
