# prime 11
# degree 2
# input variables 3
# output variables 7
# p = 11
# n = 7
# smalldomain p^m 1331
# domain p^n 19487171
#	 p^2 = 121
#	 p^3 = 1331
#	 p^4 = 14641
#	 p^5 = 161051
#	 p^6 = 1771561
#	 p^7 = 19487171
#	 p^8 = 214358881
#	 p^9 = 2357947691
# dimension of the chunk  6000
# number of the chunk  2582 of 12991 blocks
# functions to test 6000
# startcode = 15492000  :: endcode = 15498000:: fdomain = 6000
15492000
15492002
15492020
15492022
15492025
15492027
15492029
15492031
15492032
15492034
15492056
15492058
15492084
15492086
15492104
15492124
15492126
15492148
15492150
15492168
15492170
15492188
15492190
15492216
15492218
15492240
15492242
15492245
15492247
15492249
15492251
15492252
15492254
15492274
15492308
15492310
15492319
15492332
15492336
15492338
15492353
15492355
15492356
15492358
15492369
15492371
15492389
15492391
15492405
15492407
15492420
15492422
15492426
15492441
15492443
15492448
15492450
15492484
15492486
15492504
15492506
15492509
15492515
15492516
15492518
15492540
15492542
15492568
15492570
15492588
15492590
15492608
15492632
15492634
15492652
15492654
15492672
15492674
15492700
15492702
15492724
15492726
15492729
15492731
15492735
15492736
15492756
15492758
15492792
15492794
15492801
15492803
15492816
15492818
15492822
15492837
15492933
15492935
15492969
15492971
15493029
15493031
15493049
15493051
15493069
15493071
15493097
15493113
15493141
15493143
15493161
15493163
15493181
15493183
15493241
15493243
15493277
15493279
15493324
15493326
15493417
15493419
15493453
15493455
15493513
15493515
15493533
15493535
15493553
15493555
15493581
15493583
15493597
15493599
15493625
15493627
15493645
15493647
15493665
15493667
15493725
15493727
15493761
15493763
15493808
15493810
15493903
15493937
15493939
15493997
15493999
15494017
15494019
15494037
15494039
15494065
15494067
15494081
15494083
15494109
15494111
15494129
15494131
15494149
15494151
15494211
15494245
15494247
15494292
15494294
15494385
15494387
15494421
15494423
15494481
15494483
15494501
15494503
15494521
15494523
15494549
15494551
15494565
15494567
15494593
15494613
15494615
15494633
15494635
15494693
15494695
15494729
15494776
15494778
15494869
15494871
15494905
15494965
15494967
15494985
15494987
15495007
15495033
15495035
15495051
15495077
15495079
15495097
15495099
15495117
15495177
15495179
15495213
15495215
15495260
15495262
15495353
15495355
15495389
15495391
15495449
15495451
15495471
15495489
15495491
15495517
15495519
15495533
15495535
15495561
15495563
15495581
15495603
15495661
15495663
15495697
15495699
15495744
15495746
15495837
15495839
15495873
15495875
15495935
15495953
15495973
15495975
15496001
15496003
15496017
15496019
15496045
15496047
15496067
15496085
15496087
15496145
15496147
15496181
15496183
15496228
15496230
15496321
15496323
15496357
15496359
15496417
15496437
15496439
15496457
15496459
15496487
15496501
15496503
15496531
15496549
15496551
15496569
15496571
15496629
15496665
15496667
15496712
15496714
15496805
15496841
15496843
15496901
15496903
15496921
15496923
15496941
15496969
15496971
15496985
15496987
15497013
15497015
15497033
15497035
15497053
15497055
15497113
15497115
15497149
15497151
15497196
15497198
15497289
15497291
15497327
15497385
15497387
15497405
15497407
15497425
15497427
15497453
15497455
15497469
15497471
15497497
15497499
15497517
15497519
15497537
15497539
15497597
15497599
15497635
15497680
15497682
15497773
15497775
15497809
15497811
15497869
15497871
15497889
15497891
15497909
15497911
15497937
15497939
15497953
15497955
15497981
15497983
# 783.064secs	# 348 balance functions. Density 0.058
