# prime 11
# degree 2
# input variables 3
# output variables 7
# p = 11
# n = 7
# smalldomain p^m 1331
# domain p^n 19487171
#	 p^2 = 121
#	 p^3 = 1331
#	 p^4 = 14641
#	 p^5 = 161051
#	 p^6 = 1771561
#	 p^7 = 19487171
#	 p^8 = 214358881
#	 p^9 = 2357947691
# dimension of the chunk  6000
# number of the chunk  695 of 12991 blocks
# functions to test 6000
# startcode = 4170000  :: endcode = 4176000:: fdomain = 6000
4170016
4170018
4170025
4170027
4170059
4170090
4170116
4170118
4170141
4170143
4170144
4170146
4170148
4170150
4170152
4170154
4170156
4170158
4170160
4170164
4170166
4170168
4170170
4170172
4170174
4170176
4170178
4170180
4170182
4170184
4170186
4170193
4170216
4170218
4170233
4170235
4170244
4170246
4170309
4170311
4170316
4170318
4170344
4170346
4170361
4170363
4170372
4170374
4170377
4170379
4170441
4170444
4170446
4170457
4170459
4170472
4170502
4170511
4170541
4170543
4170572
4170574
4170600
4170602
4170625
4170627
4170628
4170630
4170632
4170634
4170636
4170638
4170640
4170642
4170644
4170646
4170648
4170650
4170652
4170654
4170656
4170658
4170660
4170662
4170664
4170668
4170670
4170677
4170679
4170700
4170702
4170717
4170719
4170728
4170793
4170795
4170800
4170802
4170828
4170830
4170845
4170847
4170856
4170858
4170861
4170863
4170925
4170927
4170928
4170930
4170943
4170958
4170984
4170986
4170993
4170995
4171025
4171027
4171056
4171058
4171084
4171086
4171109
4171111
4171112
4171114
4171116
4171118
4171120
4171122
4171124
4171128
4171130
4171132
4171134
4171136
4171138
4171140
4171142
4171144
4171146
4171148
4171150
4171152
4171154
4171161
4171163
4171184
4171186
4171201
4171203
4171212
4171214
4171277
4171279
4171284
4171286
4171312
4171314
4171329
4171331
4171340
4171342
4171345
4171347
4171411
4171414
4171425
4171427
4171440
4171442
4171468
4171477
4171479
4171509
4171511
4171540
4171542
4171568
4171570
4171593
4171595
4171596
4171598
4171600
4171602
4171604
4171606
4171608
4171610
4171612
4171614
4171616
4171618
4171620
4171622
4171624
4171626
4171628
4171632
4171634
4171636
4171638
4171645
4171647
4171668
4171670
4171685
4171687
4171696
4171698
4171761
4171763
4171768
4171796
4171798
4171813
4171815
4171826
4171831
4171893
4171895
4171896
4171898
4171909
4171911
4171924
4171926
4171952
4171954
4171961
4171963
4171993
4171995
4172024
4172026
4172052
4172054
4172077
4172079
4172080
4172082
4172084
4172086
4172088
4172092
4172094
4172096
4172098
4172100
4172102
4172104
4172106
4172108
4172110
4172112
4172114
4172116
4172118
4172120
4172122
4172129
4172131
4172152
4172154
4172169
4172171
4172180
4172182
4172245
4172247
4172252
4172254
4172282
4172299
4172308
4172310
4172313
4172315
4172377
4172379
4172380
4172382
4172393
4172395
4172408
4172410
4172436
4172438
4172445
4172447
4172477
4172479
4172508
4172536
4172538
4172561
4172563
4172564
4172566
4172568
4172570
4172572
4172574
4172576
4172578
4172580
4172582
4172584
4172586
4172588
4172590
4172592
4172596
4172598
4172600
4172602
4172604
4172606
4172613
4172615
4172636
4172638
4172653
4172655
4172664
4172666
4172731
4172738
4172764
4172781
4172783
4172792
4172794
4172797
4172861
4172863
4172864
4172866
4172877
4172879
4172892
4172894
4172920
4172922
4172929
4172931
4172961
4172963
4172992
4172994
4173020
4173022
4173045
4173048
4173050
4173052
4173056
4173058
4173060
4173062
4173064
4173066
4173068
4173070
4173072
4173074
4173076
4173078
4173080
4173082
4173084
4173086
4173088
4173090
4173097
4173099
4173120
4173122
4173139
4173150
4173213
4173215
4173220
4173222
4173248
4173250
4173265
4173267
4173276
4173278
4173281
4173283
4173345
4173347
4173348
4173350
4173361
4173363
4173376
4173378
4173404
4173406
4173413
4173415
4173445
4173447
4173476
4173478
4173504
4173529
4173531
4173532
4173534
4173536
4173538
4173540
4173542
4173544
4173546
4173548
4173550
4173552
4173554
4173556
4173560
4173562
4173564
4173566
4173568
4173570
4173572
4173574
4173583
4173606
4173621
4173632
4173634
4173697
4173704
4173706
4173732
4173734
4173749
4173751
4173760
4173765
4173767
4173829
4173831
4173832
4173834
4173845
4173847
4173860
4173862
4173888
4173890
4173897
4173899
4173929
4173931
4173960
4173962
4173988
4173990
4174013
4174015
4174022
4174026
4174030
4174034
4174038
4174042
4174046
4174050
4174054
4174058
4174080
4174082
4174101
4174103
4174133
4174135
4174144
4174146
4174157
4174159
4174164
4174166
4174201
4174203
4174228
4174230
4174248
4174250
4174253
4174255
4174309
4174311
4174312
4174314
4174332
4174334
4174361
4174363
4174396
4174398
4174405
4174407
4174416
4174418
4174429
4174431
4174461
4174463
4174480
4174482
4174500
4174502
4174504
4174506
4174508
4174510
4174512
4174514
4174516
4174518
4174520
4174524
4174526
4174528
4174530
4174532
4174534
4174536
4174538
4174540
4174542
4174564
4174566
4174585
4174587
4174617
4174619
4174628
4174630
4174641
4174643
4174648
4174650
4174685
4174687
4174712
4174714
4174732
4174737
4174739
4174793
4174796
4174798
4174816
4174818
4174845
4174847
4174880
4174882
4174889
4174891
4174900
4174902
4174913
4174915
4174966
4174984
4174986
4174988
4174990
4174992
4174994
4174996
4174998
4175000
4175002
4175004
4175006
4175008
4175010
4175012
4175014
4175016
4175018
4175020
4175022
4175024
4175048
4175050
4175069
4175071
4175101
4175112
4175114
4175125
4175127
4175132
4175134
4175169
4175171
4175196
4175198
4175216
4175218
4175221
4175223
4175277
4175279
4175280
4175282
4175300
4175302
4175329
4175331
4175364
4175366
4175373
4175386
4175399
4175429
4175431
4175448
4175468
4175470
4175472
4175474
4175476
4175478
4175480
4175482
4175484
4175488
4175490
4175492
4175494
4175496
4175498
4175500
4175502
4175504
4175506
4175508
4175510
4175532
4175534
4175553
4175555
4175585
4175587
4175596
4175598
4175609
4175611
4175616
4175618
4175653
4175655
4175680
4175700
4175702
4175705
4175707
4175761
4175763
4175764
4175766
4175784
4175786
4175813
4175815
4175850
4175859
4175868
4175870
4175881
4175883
4175913
4175915
4175932
4175934
4175952
4175954
4175956
4175958
4175960
4175962
4175964
4175966
4175968
4175970
4175972
4175974
4175976
4175978
4175980
4175982
4175984
4175986
4175988
4175992
4175994
# 777.974secs	# 709 balance functions. Density 0.118167
