# prime 11
# degree 2
# input variables 3
# output variables 7
# p = 11
# n = 7
# smalldomain p^m 1331
# domain p^n 19487171
#	 p^2 = 121
#	 p^3 = 1331
#	 p^4 = 14641
#	 p^5 = 161051
#	 p^6 = 1771561
#	 p^7 = 19487171
#	 p^8 = 214358881
#	 p^9 = 2357947691
# dimension of the chunk  6000
# number of the chunk  1382 of 12991 blocks
# functions to test 6000
# startcode = 8292000  :: endcode = 8298000:: fdomain = 6000
8292013
8292015
8292117
8292149
8292151
8292157
8292159
8292189
8292191
8292293
8292295
8292341
8292343
8292369
8292371
8292372
8292374
8292385
8292387
8292405
8292421
8292423
8292449
8292451
8292497
8292499
8292601
8292603
8292633
8292635
8292641
8292643
8292673
8292777
8292779
8292825
8292827
8292853
8292855
8292856
8292858
8292869
8292871
8292889
8292891
8292905
8292907
8292933
8292935
8292981
8292983
8293085
8293087
8293119
8293125
8293127
8293159
8293261
8293263
8293309
8293311
8293337
8293339
8293340
8293342
8293355
8293373
8293375
8293389
8293391
8293417
8293419
8293465
8293467
8293569
8293571
8293601
8293603
8293609
8293611
8293641
8293643
8293745
8293747
8293793
8293795
8293821
8293823
8293824
8293826
8293837
8293839
8293857
8293859
8293875
8293901
8293903
8293949
8293951
8294053
8294055
8294085
8294087
8294093
8294095
8294125
8294127
8294229
8294231
8294279
8294305
8294308
8294310
8294321
8294323
8294341
8294343
8294357
8294359
8294385
8294433
8294435
8294537
8294539
8294569
8294571
8294577
8294579
8294609
8294611
8294713
8294761
8294763
8294789
8294791
8294848
8294850
8294860
8294862
8294884
8294886
8294904
8294906
8294919
8294933
8294935
8294937
8294939
8294952
8294954
8294960
8294962
8294969
8294971
8294972
8294974
8294976
8294978
8294981
8294983
8295028
8295030
8295044
8295046
8295068
8295070
8295084
8295086
8295101
8295103
8295133
8295135
8295136
8295138
8295140
8295142
8295152
8295154
8295160
8295162
8295177
8295179
8295181
8295183
8295199
8295208
8295210
8295228
8295230
8295252
8295254
8295264
8295266
8295276
8295278
8295332
8295334
8295344
8295346
8295368
8295370
8295388
8295390
8295401
8295417
8295419
8295421
8295423
8295436
8295438
8295446
8295453
8295455
8295456
8295460
8295462
8295465
8295467
8295512
8295514
8295528
8295552
8295554
8295568
8295570
8295585
8295617
8295619
8295620
8295622
8295624
8295626
8295636
8295638
8295646
8295661
8295663
8295665
8295667
8295681
8295683
8295692
8295694
8295712
8295714
8295736
8295738
8295748
8295750
8295760
8295762
8295816
8295818
8295828
8295830
8295852
8295854
8295872
8295874
8295885
8295887
8295901
8295903
8295905
8295907
8295920
8295922
8295928
8295930
8295937
8295939
8295940
8295942
8295944
8295946
8295949
8295951
8295996
8295998
8296014
8296036
8296038
8296054
8296069
8296071
8296101
8296103
8296104
8296106
8296108
8296110
8296120
8296128
8296130
8296145
8296147
8296149
8296151
8296165
8296167
8296176
8296178
8296196
8296198
8296220
8296232
8296234
8296244
8296246
8296300
8296312
8296314
8296338
8296356
8296358
8296369
8296371
8296385
8296387
8296389
8296391
8296404
8296406
8296412
8296414
8296421
8296423
8296424
8296426
8296428
8296433
8296435
8296480
8296482
8296496
8296498
8296520
8296522
8296536
8296538
8296553
8296555
8296585
8296587
8296588
8296590
8296592
8296594
8296604
8296606
8296612
8296614
8296629
8296633
8296635
8296649
8296651
8296662
8296680
8296682
8296704
8296706
8296716
8296718
8296728
8296730
8296786
8296796
8296798
8296820
8296822
8296840
8296842
8296853
8296855
8296869
8296871
8296873
8296875
8296888
8296890
8296896
8296898
8296907
8296908
8296910
8296912
8296914
8296917
8296919
8296964
8296980
8296982
8297004
8297006
8297020
8297022
8297037
8297039
8297071
8297072
8297074
8297076
8297078
8297088
8297090
8297096
8297098
8297113
8297115
8297117
8297119
8297133
8297135
8297144
8297146
8297164
8297190
8297200
8297202
8297212
8297214
8297268
8297270
8297280
8297282
8297304
8297306
8297324
8297326
8297337
8297339
8297355
8297357
8297359
8297372
8297380
8297382
8297389
8297391
8297394
8297396
8297398
8297401
8297448
8297450
8297464
8297466
8297488
8297490
8297504
8297506
8297521
8297523
8297553
8297555
8297558
8297560
8297562
8297572
8297574
8297580
8297582
8297599
8297601
8297617
8297619
8297628
8297648
8297650
8297672
8297674
8297684
8297686
8297696
8297698
8297752
8297754
8297764
8297766
8297788
8297790
8297808
8297821
8297823
8297837
8297843
8297856
8297858
8297864
8297866
8297873
8297875
8297876
8297878
8297882
8297885
8297887
8297932
8297934
8297948
8297950
8297972
8297974
8297988
8297990
# 1666.26secs	# 506 balance functions. Density 0.0843333
