# prime 11
# degree 2
# input variables 3
# output variables 7
# p = 11
# n = 7
# smalldomain p^m 1331
# domain p^n 19487171
#	 p^2 = 121
#	 p^3 = 1331
#	 p^4 = 14641
#	 p^5 = 161051
#	 p^6 = 1771561
#	 p^7 = 19487171
#	 p^8 = 214358881
#	 p^9 = 2357947691
# dimension of the chunk  6000
# number of the chunk  933 of 12991 blocks
# functions to test 6000
# startcode = 5598000  :: endcode = 5604000:: fdomain = 6000
5598004
5598006
5598057
5598059
5598064
5598066
5598082
5598107
5598137
5598139
5598140
5598142
5598189
5598191
5598200
5598202
5598216
5598229
5598231
5598276
5598278
5598281
5598283
5598313
5598315
5598336
5598338
5598352
5598354
5598361
5598363
5598385
5598387
5598412
5598414
5598428
5598430
5598432
5598434
5598436
5598438
5598440
5598442
5598444
5598446
5598448
5598450
5598452
5598454
5598456
5598458
5598460
5598462
5598464
5598468
5598470
5598473
5598475
5598488
5598490
5598541
5598543
5598548
5598550
5598564
5598566
5598589
5598591
5598621
5598623
5598624
5598626
5598673
5598675
5598684
5598700
5598702
5598713
5598715
5598760
5598762
5598765
5598767
5598799
5598822
5598836
5598838
5598845
5598847
5598869
5598871
5598896
5598898
5598912
5598914
5598916
5598918
5598920
5598922
5598924
5598926
5598928
5598930
5598932
5598936
5598938
5598940
5598942
5598944
5598946
5598948
5598950
5598952
5598954
5598957
5598959
5598972
5598974
5599027
5599034
5599048
5599050
5599073
5599075
5599105
5599107
5599108
5599157
5599159
5599168
5599170
5599184
5599186
5599197
5599244
5599246
5599249
5599251
5599281
5599283
5599304
5599306
5599320
5599322
5599329
5599353
5599355
5599380
5599382
5599396
5599398
5599400
5599404
5599406
5599408
5599410
5599412
5599414
5599416
5599418
5599420
5599422
5599424
5599426
5599428
5599430
5599432
5599434
5599436
5599438
5599441
5599443
5599456
5599458
5599509
5599511
5599516
5599518
5599532
5599557
5599559
5599589
5599591
5599592
5599594
5599641
5599643
5599652
5599654
5599668
5599670
5599681
5599683
5599730
5599735
5599765
5599767
5599788
5599790
5599804
5599806
5599813
5599815
5599837
5599839
5599864
5599866
5599880
5599882
5599884
5599886
5599888
5599890
5599892
5599894
5599896
5599898
5599900
5599902
5599904
5599906
5599908
5599910
5599912
5599916
5599918
5599920
5599922
5599927
5599942
5599993
5599995
5600000
5600016
5600018
5600041
5600043
5600073
5600075
5600076
5600078
5600125
5600127
5600136
5600138
5600152
5600154
5600165
5600167
5600212
5600214
5600217
5600219
5600249
5600251
5600272
5600274
5600288
5600290
5600297
5600299
5600321
5600323
5600348
5600350
5600364
5600366
5600368
5600370
5600372
5600374
5600376
5600378
5600380
5600384
5600386
5600388
5600390
5600392
5600394
5600396
5600398
5600400
5600402
5600404
5600406
5600409
5600411
5600424
5600477
5600479
5600484
5600486
5600500
5600502
5600525
5600527
5600557
5600560
5600562
5600609
5600611
5600620
5600622
5600638
5600651
5600696
5600698
5600701
5600703
5600733
5600756
5600758
5600772
5600774
5600781
5600783
5600805
5600807
5600832
5600834
5600854
5600858
5600862
5600866
5600870
5600874
5600878
5600882
5600886
5600890
5600896
5600898
5600925
5600927
5600937
5600939
5600944
5600946
5600992
5600994
5601017
5601019
5601037
5601039
5601040
5601042
5601077
5601079
5601088
5601090
5601136
5601138
5601149
5601151
5601184
5601186
5601189
5601191
5601209
5601211
5601232
5601234
5601245
5601247
5601280
5601282
5601301
5601303
5601328
5601330
5601332
5601334
5601336
5601338
5601340
5601342
5601344
5601346
5601348
5601350
5601352
5601354
5601356
5601358
5601360
5601364
5601366
5601368
5601370
5601372
5601374
5601380
5601409
5601411
5601421
5601423
5601428
5601430
5601476
5601478
5601501
5601503
5601521
5601523
5601524
5601526
5601563
5601574
5601620
5601622
5601633
5601635
5601668
5601670
5601673
5601675
5601693
5601695
5601716
5601718
5601729
5601731
5601764
5601766
5601785
5601787
5601812
5601814
5601816
5601818
5601820
5601822
5601824
5601826
5601828
5601832
5601834
5601836
5601838
5601840
5601842
5601844
5601846
5601848
5601850
5601852
5601854
5601856
5601858
5601864
5601866
5601893
5601905
5601907
5601912
5601960
5601962
5601985
5601987
5602005
5602007
5602008
5602010
5602045
5602047
5602056
5602058
5602104
5602106
5602117
5602119
5602152
5602154
5602157
5602159
5602177
5602179
5602200
5602202
5602213
5602215
5602248
5602250
5602271
5602298
5602300
5602302
5602304
5602306
5602308
5602310
5602312
5602314
5602316
5602318
5602320
5602322
5602324
5602326
5602328
5602330
5602332
5602334
5602336
5602338
5602340
5602348
5602350
5602377
5602379
5602389
5602391
5602396
5602398
5602444
5602469
5602471
5602491
5602494
5602529
5602540
5602542
5602588
5602590
5602601
5602603
5602636
5602638
5602641
5602643
5602661
5602663
5602684
5602686
5602697
5602732
5602734
5602753
5602755
5602780
5602782
5602784
5602786
5602788
5602790
5602792
5602794
5602796
5602798
5602800
5602802
5602804
5602806
5602808
5602812
5602814
5602816
5602818
5602820
5602822
5602824
5602826
5602832
5602834
5602861
5602863
5602873
5602875
5602880
5602882
5602928
5602930
5602953
5602955
5602973
5602975
5602976
5603013
5603015
5603024
5603026
5603072
5603074
5603085
5603087
5603120
5603122
5603125
5603145
5603168
5603170
5603183
5603218
5603237
5603239
5603264
5603266
5603268
5603270
5603272
5603274
5603276
5603280
5603282
5603284
5603286
5603288
5603290
5603292
5603294
5603296
5603298
5603300
5603302
5603304
5603306
5603308
5603310
5603316
5603318
5603345
5603347
5603357
5603359
5603364
5603366
5603414
5603439
5603457
5603459
5603460
5603462
5603497
5603499
5603508
5603556
5603558
5603569
5603571
5603604
5603606
5603609
5603611
5603629
5603631
5603652
5603654
5603665
5603667
5603700
5603702
5603721
5603723
5603748
5603750
5603752
5603754
5603756
5603758
5603760
5603762
5603764
5603766
5603768
5603770
5603772
5603774
5603776
5603778
5603780
5603782
5603784
5603786
5603788
5603792
5603794
5603800
5603802
5603829
5603831
5603841
5603843
5603848
5603850
5603896
5603898
5603921
5603923
5603941
5603943
5603944
5603946
5603981
5603983
5603992
5603994
# 1663.42secs	# 697 balance functions. Density 0.116167
