# prime 11
# degree 2
# input variables 3
# output variables 7
# p = 11
# n = 7
# smalldomain p^m 1331
# domain p^n 19487171
#	 p^2 = 121
#	 p^3 = 1331
#	 p^4 = 14641
#	 p^5 = 161051
#	 p^6 = 1771561
#	 p^7 = 19487171
#	 p^8 = 214358881
#	 p^9 = 2357947691
# dimension of the chunk  6000
# number of the chunk  499 of 12991 blocks
# functions to test 6000
# startcode = 2994000  :: endcode = 3000000:: fdomain = 6000
2994009
2994011
2994024
2994026
2994028
2994030
2994032
2994034
2994036
2994038
2994040
2994042
2994044
2994046
2994048
2994052
2994054
2994056
2994058
2994060
2994062
2994064
2994066
2994085
2994087
2994100
2994102
2994125
2994127
2994132
2994134
2994164
2994166
2994189
2994191
2994237
2994239
2994240
2994261
2994263
2994272
2994274
2994304
2994306
2994317
2994319
2994338
2994389
2994412
2994414
2994444
2994446
2994453
2994455
2994476
2994478
2994493
2994495
2994508
2994510
2994512
2994514
2994516
2994520
2994522
2994524
2994526
2994528
2994530
2994532
2994534
2994536
2994538
2994540
2994542
2994544
2994546
2994548
2994550
2994569
2994571
2994584
2994586
2994609
2994611
2994616
2994618
2994648
2994650
2994673
2994675
2994721
2994723
2994724
2994726
2994745
2994747
2994756
2994790
2994803
2994820
2994822
2994825
2994827
2994873
2994875
2994896
2994898
2994928
2994930
2994937
2994939
2994960
2994962
2994977
2994979
2994992
2994994
2994996
2994998
2995000
2995002
2995004
2995006
2995008
2995010
2995012
2995014
2995016
2995018
2995020
2995022
2995024
2995026
2995028
2995032
2995034
2995053
2995055
2995068
2995070
2995093
2995095
2995100
2995102
2995132
2995134
2995157
2995159
2995205
2995207
2995208
2995210
2995231
2995242
2995272
2995285
2995287
2995304
2995306
2995309
2995311
2995357
2995359
2995380
2995382
2995412
2995414
2995421
2995423
2995444
2995446
2995461
2995463
2995476
2995478
2995480
2995482
2995484
2995486
2995488
2995490
2995492
2995494
2995496
2995500
2995502
2995504
2995506
2995508
2995510
2995512
2995514
2995516
2995518
2995537
2995539
2995552
2995554
2995577
2995579
2995584
2995586
2995616
2995618
2995641
2995694
2995713
2995715
2995724
2995726
2995756
2995758
2995769
2995771
2995788
2995793
2995795
2995841
2995843
2995864
2995866
2995896
2995898
2995905
2995907
2995928
2995930
2995945
2995947
2995960
2995962
2995964
2995968
2995970
2995972
2995974
2995976
2995978
2995980
2995982
2995984
2995986
2995988
2995990
2995992
2995994
2995996
2995998
2996000
2996002
2996021
2996023
2996036
2996038
2996061
2996068
2996070
2996102
2996127
2996173
2996175
2996176
2996178
2996197
2996199
2996208
2996210
2996240
2996242
2996253
2996272
2996274
2996277
2996279
2996325
2996327
2996348
2996380
2996382
2996389
2996391
2996412
2996414
2996429
2996431
2996444
2996446
2996448
2996450
2996452
2996454
2996456
2996458
2996460
2996462
2996464
2996466
2996468
2996470
2996472
2996474
2996476
2996480
2996482
2996484
2996486
2996505
2996507
2996520
2996522
2996547
2996554
2996584
2996586
2996609
2996611
2996657
2996659
2996660
2996662
2996681
2996683
2996692
2996694
2996724
2996726
2996737
2996739
2996756
2996758
2996761
2996763
2996809
2996811
2996832
2996834
2996864
2996873
2996875
2996896
2996898
2996913
2996928
2996930
2996932
2996934
2996936
2996938
2996940
2996942
2996944
2996948
2996950
2996952
2996954
2996956
2996958
2996960
2996962
2996964
2996966
2996968
2996970
2996991
2997006
2997029
2997031
2997036
2997038
2997068
2997070
2997093
2997095
2997141
2997143
2997144
2997146
2997165
2997167
2997176
2997178
2997208
2997210
2997221
2997223
2997240
2997242
2997245
2997247
2997293
2997295
2997316
2997318
2997348
2997350
2997357
2997359
2997380
2997397
2997399
2997418
2997422
2997426
2997430
2997434
2997438
2997442
2997446
2997450
2997454
2997461
2997463
2997476
2997478
2997533
2997535
2997540
2997542
2997560
2997562
2997585
2997587
2997621
2997623
2997624
2997626
2997633
2997635
2997644
2997646
2997677
2997679
2997708
2997710
2997728
2997730
2997733
2997735
2997769
2997771
2997792
2997794
2997812
2997814
2997821
2997823
2997876
2997878
2997893
2997895
2997896
2997898
2997900
2997902
2997904
2997906
2997908
2997910
2997912
2997914
2997916
2997918
2997920
2997922
2997924
2997928
2997930
2997932
2997934
2997936
2997938
2997945
2997947
2997960
2997962
2998017
2998024
2998026
2998044
2998046
2998069
2998071
2998105
2998107
2998108
2998117
2998119
2998128
2998130
2998161
2998163
2998192
2998194
2998212
2998214
2998217
2998219
2998253
2998255
2998276
2998278
2998296
2998298
2998305
2998307
2998362
2998379
2998380
2998382
2998384
2998386
2998388
2998390
2998392
2998396
2998398
2998400
2998402
2998404
2998406
2998408
2998410
2998412
2998414
2998416
2998418
2998420
2998422
2998429
2998431
2998444
2998446
2998501
2998503
2998508
2998510
2998528
2998530
2998553
2998589
2998591
2998592
2998594
2998601
2998612
2998614
2998645
2998647
2998676
2998678
2998696
2998698
2998701
2998703
2998737
2998739
2998760
2998782
2998791
2998844
2998846
2998861
2998863
2998864
2998866
2998868
2998870
2998872
2998874
2998876
2998878
2998880
2998882
2998884
2998886
2998888
2998890
2998892
2998894
2998896
2998898
2998900
2998902
2998904
2998913
2998915
2998928
2998985
2998987
2998992
2998994
2999012
2999014
2999037
2999039
2999073
2999075
2999076
2999078
2999085
2999087
2999096
2999098
2999129
2999131
2999160
2999162
2999180
2999182
2999185
2999187
2999223
2999246
2999264
2999266
2999273
2999275
2999328
2999330
2999345
2999347
2999348
2999350
2999352
2999354
2999356
2999358
2999360
2999362
2999364
2999366
2999368
2999370
2999372
2999376
2999378
2999380
2999382
2999384
2999386
2999388
2999390
2999397
2999412
2999414
2999469
2999471
2999476
2999478
2999496
2999498
2999521
2999523
2999557
2999560
2999562
2999569
2999571
2999580
2999613
2999615
2999644
2999646
2999666
2999671
2999705
2999707
2999728
2999730
2999748
2999750
2999757
2999759
2999812
2999814
2999829
2999831
2999832
2999834
2999836
2999838
2999840
2999844
2999846
2999848
2999850
2999852
2999854
2999856
2999858
2999860
2999862
2999864
2999866
2999868
2999870
2999872
2999874
2999881
2999883
2999896
2999898
2999953
2999955
2999960
2999962
2999980
2999982
# 777.06secs	# 709 balance functions. Density 0.118167
