# prime 11
# degree 2
# input variables 3
# output variables 7
# p = 11
# n = 7
# smalldomain p^m 1331
# domain p^n 19487171
#	 p^2 = 121
#	 p^3 = 1331
#	 p^4 = 14641
#	 p^5 = 161051
#	 p^6 = 1771561
#	 p^7 = 19487171
#	 p^8 = 214358881
#	 p^9 = 2357947691
# dimension of the chunk  6000
# number of the chunk  1353 of 12991 blocks
# functions to test 6000
# startcode = 8118000  :: endcode = 8124000:: fdomain = 6000
8118001
8118003
8118017
8118019
8118024
8118026
8118038
8118060
8118062
8118065
8118067
8118068
8118070
8118096
8118098
8118100
8118102
8118132
8118134
8118208
8118210
8118212
8118214
8118240
8118242
8118245
8118247
8118250
8118265
8118267
8118272
8118274
8118284
8118286
8118293
8118295
8118320
8118322
8118333
8118335
8118337
8118339
8118348
8118350
8118356
8118358
8118380
8118412
8118414
8118436
8118438
8118444
8118446
8118457
8118459
8118461
8118463
8118472
8118474
8118485
8118487
8118501
8118503
8118508
8118520
8118522
8118544
8118546
8118549
8118551
8118554
8118580
8118582
8118584
8118586
8118616
8118618
8118692
8118694
8118698
8118724
8118726
8118729
8118731
8118732
8118734
8118749
8118751
8118756
8118758
8118768
8118770
8118777
8118804
8118817
8118819
8118823
8118832
8118834
8118840
8118842
8118864
8118866
8118896
8118898
8118920
8118922
8118928
8118930
8118941
8118943
8118947
8118956
8118958
8118969
8118971
8118985
8118987
8118992
8118994
8119004
8119028
8119030
8119033
8119036
8119038
8119064
8119066
8119070
8119121
8119123
8119125
8119127
8119173
8119175
8119185
8119187
8119215
8119325
8119327
8119349
8119351
8119381
8119383
8119405
8119407
8119519
8119545
8119547
8119557
8119559
8119584
8119586
8119605
8119607
8119609
8119611
8119657
8119659
8119671
8119697
8119809
8119833
8119835
8119865
8119867
8119889
8119891
8120001
8120003
8120029
8120031
8120043
8120068
8120070
8120089
8120091
8120093
8120095
8120141
8120143
8120153
8120155
8120181
8120183
8120293
8120295
8120319
8120349
8120351
8120375
8120485
8120487
8120513
8120515
8120525
8120527
8120552
8120554
8120573
8120575
8120577
8120625
8120627
8120637
8120639
8120665
8120667
8120777
8120779
8120801
8120803
8120833
8120835
8120857
8120859
8120969
8120971
8120997
8120999
8121009
8121036
8121038
8121057
8121059
8121063
8121109
8121111
8121121
8121149
8121151
8121261
8121263
8121285
8121317
8121319
8121341
8121343
8121453
8121455
8121481
8121483
8121493
8121495
8121520
8121522
8121541
8121543
8121545
8121547
8121593
8121595
8121605
8121607
8121633
8121635
8121745
8121747
8121769
8121771
8121801
8121803
8121825
8121827
8121937
8121939
8121965
8121967
8121977
8121979
8122004
8122006
8122025
8122027
8122029
8122031
8122077
8122079
8122089
8122091
8122117
8122119
8122229
8122231
8122253
8122255
8122285
8122287
8122309
8122311
8122421
8122423
8122449
8122451
8122461
8122463
8122488
8122490
8122511
8122513
8122515
8122561
8122563
8122573
8122575
8122601
8122603
8122713
8122715
8122737
8122739
8122769
8122793
8122795
8122905
8122907
8122933
8122945
8122947
8122972
8122974
8122993
8122997
8122999
8123045
8123057
8123059
8123085
8123087
8123197
8123199
8123221
8123223
8123253
8123255
8123277
8123279
8123389
8123391
8123417
8123419
8123429
8123431
8123456
8123458
8123477
8123479
8123481
8123483
8123529
8123531
8123541
8123543
8123569
8123571
8123683
8123705
8123707
8123739
8123761
8123763
8123873
8123875
8123901
8123903
8123913
8123915
8123940
8123942
8123961
8123963
8123965
8123967
# 1228.06secs	# 373 balance functions. Density 0.0621667
