# prime 11
# degree 2
# input variables 3
# output variables 7
# p = 11
# n = 7
# smalldomain p^m 1331
# domain p^n 19487171
#	 p^2 = 121
#	 p^3 = 1331
#	 p^4 = 14641
#	 p^5 = 161051
#	 p^6 = 1771561
#	 p^7 = 19487171
#	 p^8 = 214358881
#	 p^9 = 2357947691
# dimension of the chunk  6000
# number of the chunk  1967 of 12991 blocks
# functions to test 6000
# startcode = 11802000  :: endcode = 11808000:: fdomain = 6000
11802028
11802029
11802056
11802057
11802084
11802085
11802156
11802157
11802184
11802185
11802212
11802213
11802284
11802285
11802287
11802312
11802313
11802340
11802341
11802342
11802412
11802413
11802440
11802441
11802443
11802512
11802513
11802540
11802541
11802568
11802569
11802640
11802641
11802668
11802669
11802696
11802697
11802768
11802769
11802771
11802796
11802797
11802824
11802825
11802826
11802896
11802897
11802924
11802925
11802927
11802996
11802997
11803024
11803025
11803052
11803053
11803124
11803125
11803152
11803153
11803180
11803181
11803252
11803253
11803280
11803281
11803317
11803345
11803357
11803359
11803361
11803363
11803411
11803533
11803535
11803541
11803543
11803605
11803607
11803613
11803615
11803739
11803785
11803787
11803789
11803791
11803792
11803794
11803801
11803803
11803829
11803831
11803843
11803845
11803847
11803893
11804017
11804019
11804025
11804027
11804089
11804091
11804097
11804099
11804221
11804223
11804271
11804273
11804275
11804276
11804278
11804285
11804287
11804313
11804315
11804325
11804327
11804329
11804331
11804377
11804379
11804503
11804509
11804511
11804575
11804581
11804583
11804705
11804707
11804753
11804755
11804757
11804759
11804760
11804762
11804769
11804771
11804797
11804799
11804809
11804811
11804813
11804815
11804861
11804863
11804985
11804987
11804993
11804995
11805057
11805065
11805189
11805191
11805237
11805239
11805241
11805243
11805244
11805246
11805253
11805255
11805283
11805293
11805295
11805297
11805299
11805345
11805347
11805469
11805471
11805477
11805479
11805541
11805543
11805549
11805551
11805673
11805675
11805721
11805723
11805725
11805727
11805728
11805730
11805737
11805739
11805765
11805767
11805777
11805779
11805781
11805783
11805829
11805831
11805953
11805955
11805961
11805963
11806025
11806027
11806033
11806035
11806157
11806159
11806205
11806209
11806212
11806214
11806221
11806223
11806249
11806251
11806261
11806265
11806313
11806315
11806437
11806439
11806445
11806447
11806509
11806511
11806517
11806519
11806641
11806643
11806689
11806691
11806693
11806695
11806696
11806698
11806707
11806733
11806735
11806745
11806747
11806749
11806751
11806797
11806799
11806921
11806923
11806929
11806931
11806993
11806995
11807001
11807003
11807125
11807127
11807173
11807175
11807177
11807179
11807180
11807182
11807189
11807191
11807217
11807219
11807229
11807231
11807233
11807235
11807281
11807283
11807405
11807413
11807477
11807479
11807485
11807487
11807609
11807611
11807657
11807659
11807661
11807663
11807664
11807666
11807673
11807675
11807701
11807703
11807713
11807715
11807717
11807719
11807765
11807767
11807889
11807891
11807899
11807961
11807963
11807971
# 976.824secs	# 297 balance functions. Density 0.0495
