# prime 11
# degree 2
# input variables 3
# output variables 7
# p = 11
# n = 7
# smalldomain p^m 1331
# domain p^n 19487171
#	 p^2 = 121
#	 p^3 = 1331
#	 p^4 = 14641
#	 p^5 = 161051
#	 p^6 = 1771561
#	 p^7 = 19487171
#	 p^8 = 214358881
#	 p^9 = 2357947691
# dimension of the chunk  6000
# number of the chunk  920 of 12991 blocks
# functions to test 6000
# startcode = 5520000  :: endcode = 5526000:: fdomain = 6000
5520004
5520006
5520020
5520022
5520024
5520026
5520028
5520030
5520032
5520034
5520036
5520038
5520040
5520042
5520044
5520046
5520048
5520050
5520052
5520054
5520056
5520058
5520060
5520080
5520082
5520105
5520109
5520111
5520140
5520142
5520156
5520158
5520165
5520167
5520203
5520218
5520273
5520275
5520276
5520278
5520292
5520294
5520297
5520299
5520352
5520354
5520369
5520405
5520407
5520412
5520417
5520419
5520428
5520430
5520465
5520467
5520488
5520490
5520504
5520506
5520508
5520510
5520512
5520514
5520516
5520518
5520520
5520522
5520524
5520528
5520530
5520532
5520534
5520536
5520538
5520540
5520542
5520544
5520546
5520564
5520566
5520589
5520591
5520595
5520626
5520640
5520642
5520649
5520651
5520685
5520687
5520700
5520757
5520759
5520760
5520762
5520776
5520778
5520781
5520783
5520836
5520838
5520853
5520855
5520889
5520891
5520896
5520898
5520901
5520903
5520912
5520914
5520949
5520951
5520972
5520974
5520994
5520998
5521002
5521006
5521010
5521014
5521018
5521022
5521026
5521030
5521037
5521039
5521056
5521058
5521080
5521082
5521093
5521095
5521148
5521150
5521157
5521159
5521172
5521174
5521201
5521203
5521237
5521239
5521240
5521242
5521264
5521266
5521269
5521271
5521305
5521307
5521332
5521334
5521349
5521351
5521356
5521358
5521413
5521415
5521424
5521426
5521448
5521450
5521469
5521471
5521472
5521474
5521476
5521478
5521480
5521482
5521484
5521486
5521488
5521490
5521492
5521494
5521496
5521500
5521502
5521504
5521506
5521508
5521510
5521512
5521514
5521521
5521523
5521540
5521542
5521564
5521566
5521577
5521579
5521632
5521641
5521643
5521656
5521658
5521685
5521687
5521721
5521723
5521724
5521726
5521748
5521750
5521753
5521755
5521789
5521791
5521816
5521818
5521833
5521835
5521840
5521842
5521899
5521910
5521932
5521934
5521953
5521955
5521956
5521958
5521960
5521964
5521966
5521968
5521970
5521972
5521974
5521976
5521978
5521980
5521982
5521984
5521986
5521988
5521990
5521992
5521994
5521996
5521998
5522005
5522007
5522024
5522026
5522048
5522050
5522061
5522063
5522116
5522118
5522125
5522127
5522140
5522142
5522169
5522171
5522205
5522207
5522208
5522210
5522232
5522237
5522239
5522275
5522302
5522317
5522319
5522324
5522326
5522381
5522383
5522392
5522394
5522416
5522418
5522437
5522439
5522440
5522442
5522444
5522446
5522448
5522450
5522452
5522454
5522456
5522458
5522460
5522462
5522464
5522466
5522468
5522472
5522474
5522476
5522478
5522480
5522482
5522489
5522491
5522508
5522510
5522532
5522534
5522545
5522600
5522602
5522609
5522611
5522624
5522626
5522653
5522655
5522691
5522694
5522716
5522718
5522721
5522723
5522757
5522784
5522786
5522801
5522803
5522808
5522810
5522865
5522867
5522876
5522900
5522902
5522921
5522923
5522924
5522926
5522928
5522930
5522932
5522936
5522938
5522940
5522942
5522944
5522946
5522948
5522950
5522952
5522954
5522956
5522958
5522960
5522962
5522964
5522966
5522973
5522975
5522992
5523016
5523018
5523029
5523031
5523086
5523095
5523108
5523110
5523137
5523139
5523173
5523175
5523176
5523178
5523200
5523202
5523205
5523241
5523243
5523268
5523270
5523285
5523287
5523292
5523294
5523349
5523351
5523360
5523362
5523384
5523386
5523405
5523407
5523408
5523410
5523412
5523414
5523416
5523418
5523420
5523422
5523424
5523426
5523428
5523430
5523432
5523434
5523436
5523438
5523440
5523444
5523446
5523448
5523450
5523478
5523500
5523502
5523513
5523515
5523568
5523570
5523577
5523592
5523621
5523623
5523657
5523659
5523660
5523662
5523684
5523686
5523689
5523691
5523725
5523727
5523752
5523754
5523769
5523771
5523776
5523778
5523833
5523835
5523844
5523846
5523868
5523870
5523889
5523891
5523892
5523894
5523896
5523898
5523900
5523902
5523904
5523908
5523910
5523912
5523914
5523916
5523918
5523920
5523922
5523924
5523926
5523928
5523930
5523932
5523934
5523941
5523943
5523960
5523962
5523984
5523986
5523997
5523999
5524052
5524054
5524061
5524063
5524076
5524078
5524105
5524107
5524141
5524143
5524144
5524146
5524168
5524170
5524173
5524175
5524209
5524211
5524236
5524253
5524260
5524262
5524317
5524319
5524328
5524330
5524354
5524376
5524378
5524380
5524382
5524384
5524386
5524388
5524390
5524392
5524394
5524396
5524398
5524400
5524402
5524404
5524406
5524408
5524410
5524412
5524416
5524418
5524425
5524427
5524444
5524446
5524468
5524470
5524481
5524483
5524536
5524538
5524545
5524547
5524560
5524562
5524589
5524591
5524625
5524628
5524630
5524652
5524654
5524657
5524659
5524693
5524695
5524720
5524722
5524739
5524746
5524801
5524803
5524812
5524814
5524836
5524857
5524859
5524860
5524862
5524864
5524866
5524868
5524870
5524872
5524874
5524876
5524880
5524882
5524884
5524886
5524888
5524890
5524892
5524894
5524896
5524898
5524900
5524902
5524909
5524911
5524928
5524930
5524952
5524965
5524967
5525020
5525022
5525029
5525031
5525044
5525046
5525073
5525109
5525111
5525112
5525114
5525138
5525143
5525177
5525179
5525204
5525206
5525221
5525223
5525228
5525230
5525285
5525296
5525298
5525320
5525322
5525341
5525343
5525344
5525346
5525348
5525350
5525352
5525354
5525356
5525358
5525360
5525362
5525364
5525366
5525368
5525370
5525372
5525374
5525376
5525378
5525380
5525382
5525384
5525393
5525395
5525412
5525414
5525436
5525438
5525449
5525451
5525504
5525506
5525513
5525515
5525530
5525559
5525593
5525595
5525596
5525620
5525622
5525625
5525627
5525661
5525663
5525688
5525690
5525705
5525707
5525712
5525714
5525769
5525771
5525780
5525782
5525804
5525806
5525825
5525827
5525828
5525830
5525832
5525834
5525836
5525838
5525840
5525842
5525844
5525846
5525848
5525852
5525854
5525856
5525858
5525860
5525862
5525864
5525866
5525868
5525870
5525877
5525879
5525896
5525898
5525922
5525935
5525988
5525990
5525997
5525999
# 1086.13secs	# 709 balance functions. Density 0.118167
