# prime 11
# degree 2
# input variables 3
# output variables 7
# p = 11
# n = 7
# smalldomain p^m 1331
# domain p^n 19487171
#	 p^2 = 121
#	 p^3 = 1331
#	 p^4 = 14641
#	 p^5 = 161051
#	 p^6 = 1771561
#	 p^7 = 19487171
#	 p^8 = 214358881
#	 p^9 = 2357947691
# dimension of the chunk  6000
# number of the chunk  506 of 12991 blocks
# functions to test 6000
# startcode = 3036000  :: endcode = 3042000:: fdomain = 6000
3036016
3036018
3036037
3036039
3036051
3036086
3036108
3036110
3036125
3036127
3036132
3036134
3036136
3036138
3036140
3036142
3036144
3036146
3036148
3036150
3036152
3036154
3036156
3036158
3036160
3036162
3036164
3036166
3036168
3036170
3036172
3036185
3036187
3036200
3036202
3036224
3036226
3036261
3036263
3036273
3036275
3036292
3036294
3036313
3036315
3036316
3036318
3036373
3036375
3036384
3036386
3036408
3036421
3036423
3036476
3036478
3036481
3036483
3036502
3036523
3036533
3036535
3036568
3036570
3036592
3036594
3036609
3036611
3036616
3036618
3036620
3036622
3036624
3036626
3036628
3036630
3036632
3036634
3036636
3036638
3036640
3036644
3036646
3036648
3036650
3036652
3036654
3036656
3036658
3036669
3036671
3036684
3036686
3036708
3036710
3036745
3036747
3036757
3036759
3036776
3036778
3036797
3036799
3036800
3036802
3036857
3036859
3036868
3036870
3036892
3036894
3036905
3036907
3036962
3036967
3036984
3037005
3037007
3037017
3037052
3037054
3037076
3037078
3037093
3037100
3037102
3037104
3037106
3037108
3037112
3037114
3037116
3037118
3037120
3037122
3037124
3037126
3037128
3037130
3037132
3037134
3037136
3037138
3037140
3037142
3037153
3037155
3037168
3037170
3037192
3037194
3037229
3037231
3037241
3037243
3037260
3037262
3037281
3037284
3037286
3037341
3037343
3037352
3037354
3037378
3037444
3037446
3037449
3037451
3037468
3037470
3037489
3037491
3037501
3037503
3037536
3037538
3037560
3037577
3037579
3037584
3037586
3037588
3037590
3037592
3037594
3037596
3037598
3037600
3037602
3037604
3037606
3037608
3037610
3037612
3037614
3037616
3037618
3037620
3037624
3037626
3037637
3037639
3037652
3037676
3037678
3037713
3037715
3037725
3037727
3037744
3037746
3037765
3037767
3037768
3037770
3037838
3037860
3037862
3037873
3037875
3037928
3037930
3037933
3037952
3037954
3037973
3037975
3037985
3037987
3038020
3038022
3038044
3038046
3038061
3038063
3038068
3038070
3038072
3038074
3038076
3038078
3038080
3038082
3038084
3038086
3038088
3038092
3038094
3038096
3038098
3038100
3038102
3038104
3038106
3038108
3038110
3038121
3038136
3038138
3038160
3038162
3038197
3038209
3038211
3038228
3038251
3038254
3038309
3038311
3038320
3038322
3038344
3038346
3038357
3038359
3038412
3038414
3038417
3038419
3038436
3038438
3038457
3038459
3038469
3038471
3038504
3038506
3038528
3038530
3038545
3038547
3038552
3038554
3038556
3038560
3038562
3038564
3038566
3038568
3038570
3038572
3038574
3038576
3038578
3038580
3038582
3038584
3038586
3038588
3038590
3038592
3038594
3038605
3038607
3038620
3038622
3038644
3038646
3038681
3038683
3038695
3038714
3038733
3038735
3038736
3038738
3038793
3038795
3038804
3038828
3038830
3038841
3038843
3038896
3038898
3038901
3038903
3038920
3038922
3038941
3038943
3038953
3038955
3038988
3038990
3039012
3039014
3039029
3039031
3039036
3039038
3039040
3039042
3039044
3039046
3039048
3039050
3039052
3039054
3039056
3039058
3039060
3039062
3039064
3039066
3039068
3039072
3039074
3039076
3039078
3039089
3039091
3039104
3039106
3039130
3039167
3039177
3039179
3039196
3039198
3039217
3039219
3039220
3039222
3039277
3039279
3039288
3039290
3039312
3039314
3039325
3039327
3039380
3039385
3039387
3039404
3039406
3039425
3039427
3039437
3039439
3039472
3039474
3039496
3039498
3039513
3039515
3039520
3039522
3039524
3039526
3039528
3039530
3039532
3039534
3039536
3039540
3039542
3039544
3039546
3039548
3039550
3039552
3039554
3039556
3039558
3039560
3039562
3039575
3039590
3039612
3039614
3039649
3039651
3039661
3039663
3039680
3039682
3039701
3039703
3039704
3039706
3039761
3039763
3039772
3039774
3039796
3039798
3039809
3039811
3039864
3039866
3039869
3039871
3039888
3039890
3039909
3039911
3039921
3039923
3039956
3039980
3039982
3039997
3039999
3040010
3040014
3040018
3040022
3040026
3040030
3040034
3040038
3040042
3040046
3040060
3040062
3040089
3040091
3040109
3040116
3040118
3040153
3040155
3040172
3040174
3040181
3040183
3040184
3040186
3040229
3040231
3040240
3040242
3040296
3040298
3040309
3040311
3040313
3040315
3040352
3040354
3040364
3040366
3040385
3040387
3040420
3040422
3040429
3040449
3040451
3040476
3040478
3040488
3040490
3040492
3040494
3040496
3040498
3040500
3040502
3040504
3040506
3040508
3040510
3040512
3040514
3040516
3040520
3040522
3040524
3040526
3040528
3040530
3040544
3040546
3040573
3040575
3040593
3040595
3040600
3040602
3040637
3040639
3040656
3040658
3040665
3040667
3040668
3040670
3040713
3040715
3040724
3040726
3040780
3040782
3040793
3040795
3040797
3040799
3040836
3040848
3040850
3040869
3040871
3040904
3040906
3040913
3040915
3040935
3040962
3040972
3040974
3040976
3040978
3040980
3040982
3040984
3040988
3040990
3040992
3040994
3040996
3040998
3041000
3041002
3041004
3041006
3041008
3041010
3041012
3041014
3041028
3041030
3041057
3041059
3041077
3041079
3041084
3041086
3041121
3041123
3041140
3041149
3041152
3041154
3041197
3041199
3041208
3041210
3041264
3041266
3041277
3041279
3041281
3041283
3041320
3041322
3041332
3041334
3041353
3041355
3041390
3041399
3041417
3041444
3041446
3041456
3041458
3041460
3041462
3041464
3041466
3041468
3041470
3041472
3041474
3041476
3041478
3041480
3041482
3041484
3041486
3041488
3041490
3041492
3041494
3041496
3041512
3041514
3041541
3041543
3041561
3041563
3041568
3041570
3041605
3041607
3041624
3041626
3041633
3041635
3041636
3041638
3041681
3041683
3041692
3041694
3041748
3041750
3041761
3041763
3041765
3041767
3041804
3041806
3041818
3041839
3041872
3041874
3041881
3041883
3041901
3041903
3041928
3041940
3041942
3041944
3041946
3041948
3041950
3041952
3041954
3041956
3041958
3041960
3041962
3041964
3041968
3041970
3041972
3041974
3041976
3041978
3041980
3041982
3041996
3041998
# 743.171secs	# 709 balance functions. Density 0.118167
