# prime 11
# degree 2
# input variables 3
# output variables 7
# p = 11
# n = 7
# smalldomain p^m 1331
# domain p^n 19487171
#	 p^2 = 121
#	 p^3 = 1331
#	 p^4 = 14641
#	 p^5 = 161051
#	 p^6 = 1771561
#	 p^7 = 19487171
#	 p^8 = 214358881
#	 p^9 = 2357947691
# dimension of the chunk  6000
# number of the chunk  2419 of 12991 blocks
# functions to test 6000
# startcode = 14514000  :: endcode = 14520000:: fdomain = 6000
14514001
14514003
14514005
14514007
14514033
14514035
14514049
14514051
14514105
14514107
14514129
14514131
14514192
14514194
14514281
14514283
14514301
14514303
14514381
14514383
14514397
14514399
14514425
14514427
14514429
14514431
14514485
14514487
14514489
14514491
14514517
14514519
14514533
14514535
14514589
14514591
14514613
14514615
14514676
14514678
14514765
14514767
14514785
14514787
14514865
14514867
14514881
14514883
14514909
14514913
14514915
14514969
14514971
14514973
14514975
14515001
14515003
14515017
14515073
14515075
14515097
14515099
14515160
14515162
14515249
14515251
14515269
14515271
14515349
14515351
14515365
14515367
14515393
14515395
14515397
14515399
14515453
14515455
14515457
14515459
14515485
14515487
14515501
14515503
14515557
14515559
14515581
14515583
14515644
14515646
14515733
14515735
14515753
14515755
14515833
14515835
14515849
14515877
14515879
14515881
14515937
14515939
14515941
14515943
14515969
14515971
14515985
14515987
14516041
14516043
14516065
14516067
14516128
14516130
14516217
14516219
14516237
14516239
14516317
14516319
14516333
14516335
14516361
14516363
14516365
14516367
14516421
14516425
14516427
14516453
14516469
14516471
14516525
14516527
14516549
14516551
14516612
14516614
14516701
14516703
14516721
14516723
14516801
14516803
14516817
14516819
14516845
14516847
14516849
14516851
14516905
14516907
14516909
14516911
14516937
14516939
14516953
14516955
14517009
14517011
14517033
14517035
14517096
14517098
14517185
14517187
14517205
14517207
14517285
14517301
14517303
14517329
14517331
14517333
14517335
14517389
14517391
14517393
14517421
14517423
14517437
14517439
14517493
14517495
14517517
14517519
14517580
14517582
14517669
14517671
14517689
14517691
14517769
14517771
14517785
14517787
14517813
14517815
14517817
14517819
14517873
14517875
14517877
14517879
14517905
14517907
14517921
14517923
14517977
14517979
14518001
14518003
14518064
14518066
14518153
14518155
14518173
14518175
14518253
14518255
14518269
14518271
14518297
14518299
14518301
14518303
14518357
14518359
14518361
14518363
14518389
14518391
14518405
14518407
14518461
14518485
14518487
14518550
14518551
14518610
14518611
14518670
14518671
14518686
14518687
14518746
14518747
14518806
14518807
14518822
14518823
14518882
14518883
14518942
14518943
14518958
14518959
14519018
14519019
14519032
14519034
14519035
14519094
14519095
14519154
14519155
14519170
14519171
14519230
14519231
14519290
14519291
14519306
14519307
14519366
14519367
14519426
14519427
14519442
14519443
14519502
14519503
14519516
14519518
14519519
14519578
14519579
14519638
14519639
14519654
14519655
14519714
14519715
14519774
14519775
14519790
14519791
14519850
14519851
14519910
14519911
14519926
14519927
14519986
14519987
# 776.574secs	# 305 balance functions. Density 0.0508333
