# prime 11
# degree 2
# input variables 3
# output variables 7
# p = 11
# n = 7
# smalldomain p^m 1331
# domain p^n 19487171
#	 p^2 = 121
#	 p^3 = 1331
#	 p^4 = 14641
#	 p^5 = 161051
#	 p^6 = 1771561
#	 p^7 = 19487171
#	 p^8 = 214358881
#	 p^9 = 2357947691
# dimension of the chunk  6000
# number of the chunk  29 of 12991 blocks
# functions to test 6000
# startcode = 174000  :: endcode = 180000:: fdomain = 6000
174017
174019
174025
174027
174052
174072
174074
174093
174136
174138
174149
174151
174153
174155
174156
174158
174213
174220
174222
174240
174242
174244
174246
174248
174250
174252
174254
174256
174258
174260
174264
174266
174268
174270
174272
174274
174276
174278
174280
174282
174304
174306
174313
174315
174329
174331
174368
174370
174377
174379
174388
174390
174433
174435
174452
174454
174472
174474
174501
174503
174509
174511
174536
174538
174556
174558
174577
174579
174620
174622
174633
174635
174637
174639
174640
174642
174697
174699
174704
174724
174726
174728
174730
174732
174734
174736
174738
174740
174742
174744
174746
174748
174750
174752
174756
174758
174760
174762
174764
174766
174788
174790
174797
174799
174813
174815
174852
174854
174861
174863
174872
174917
174919
174936
174938
174956
174958
174985
174987
174993
175020
175022
175040
175042
175061
175063
175104
175106
175117
175121
175123
175124
175126
175181
175183
175188
175190
175208
175210
175212
175214
175216
175218
175220
175222
175224
175226
175228
175230
175232
175234
175236
175238
175240
175242
175244
175248
175250
175272
175274
175281
175283
175297
175299
175336
175338
175345
175347
175356
175358
175401
175403
175420
175422
175440
175442
175469
175471
175477
175479
175504
175506
175524
175545
175547
175588
175590
175601
175603
175605
175608
175610
175665
175667
175672
175674
175698
175702
175706
175710
175714
175718
175722
175726
175730
175734
175751
175811
175831
175907
175935
175983
176011
176087
176107
176167
176176
176178
176180
176182
176184
176186
176188
176192
176194
176196
176198
176200
176202
176204
176206
176208
176210
176212
176214
176216
176218
176220
176222
176233
176264
176266
176293
176295
176308
176310
176313
176315
176352
176354
176389
176391
176396
176398
176417
176419
176440
176442
176465
176467
176484
176486
176493
176495
176528
176530
176569
176571
176572
176574
176589
176591
176616
176618
176649
176651
176660
176662
176664
176666
176668
176670
176672
176674
176676
176678
176680
176682
176684
176688
176690
176692
176694
176696
176698
176700
176702
176704
176706
176717
176719
176748
176750
176777
176779
176792
176794
176797
176799
176836
176838
176873
176875
176880
176882
176901
176903
176924
176926
176949
176968
176970
176977
176979
177012
177014
177053
177055
177056
177058
177073
177075
177100
177102
177133
177135
177144
177146
177148
177150
177152
177154
177156
177158
177160
177162
177164
177166
177168
177170
177172
177174
177176
177178
177180
177184
177186
177188
177190
177201
177203
177232
177234
177261
177263
177276
177278
177281
177283
177320
177322
177357
177364
177366
177385
177387
177408
177410
177433
177435
177452
177454
177461
177463
177496
177498
177537
177539
177540
177542
177557
177559
177584
177586
177617
177619
177628
177630
177632
177636
177638
177640
177642
177644
177646
177648
177650
177652
177654
177656
177658
177660
177662
177664
177666
177668
177670
177672
177674
177685
177687
177716
177718
177745
177747
177760
177762
177765
177804
177806
177841
177843
177848
177850
177869
177871
177892
177894
177917
177919
177936
177938
177945
177947
177980
177982
178021
178023
178024
178026
178041
178043
178068
178070
178101
178103
178112
178114
178116
178118
178120
178122
178124
178126
178128
178132
178134
178136
178138
178140
178142
178144
178146
178148
178150
178152
178154
178156
178158
178169
178171
178200
178202
178229
178231
178244
178246
178249
178251
178288
178290
178325
178327
178332
178334
178353
178355
178376
178378
178401
178403
178420
178422
178429
178431
178464
178466
178505
178507
178508
178510
178525
178552
178554
178585
178587
178596
178598
178600
178602
178604
178606
178608
178610
178612
178614
178616
178618
178620
178622
178624
178628
178630
178632
178634
178636
178638
178640
178642
178653
178655
178684
178686
178713
178728
178730
178733
178735
178772
178774
178809
178811
178816
178818
178837
178839
178860
178862
178885
178887
178904
178906
178913
178915
178948
178950
178989
178991
178992
178994
179009
179011
179036
179038
179069
179071
179080
179082
179084
179086
179088
179090
179092
179094
179096
179098
179100
179102
179104
179106
179108
179110
179112
179114
179116
179118
179120
179124
179126
179137
179139
179168
179170
179197
179199
179212
179214
179217
179219
179256
179258
179293
179295
179300
179302
179321
179323
179344
179346
179369
179371
179388
179390
179397
179399
179432
179434
179473
179476
179478
179493
179495
179520
179522
179553
179555
179564
179566
179568
179570
179572
179576
179578
179580
179582
179584
179586
179588
179590
179592
179594
179596
179598
179600
179602
179604
179606
179608
179610
179621
179623
179652
179654
179681
179683
179696
179698
179701
179703
179740
179742
179777
179779
179784
179786
179805
179807
179828
179830
179853
179855
179872
179874
179881
179916
179918
179957
179959
179960
179962
179977
179979
# 626.892secs	# 692 balance functions. Density 0.115333
