# prime 11
# degree 2
# input variables 3
# output variables 7
# p = 11
# n = 7
# smalldomain p^m 1331
# domain p^n 19487171
#	 p^2 = 121
#	 p^3 = 1331
#	 p^4 = 14641
#	 p^5 = 161051
#	 p^6 = 1771561
#	 p^7 = 19487171
#	 p^8 = 214358881
#	 p^9 = 2357947691
# dimension of the chunk  6000
# number of the chunk  1765 of 12991 blocks
# functions to test 6000
# startcode = 10590000  :: endcode = 10596000:: fdomain = 6000
10590025
10590153
10590155
10590165
10590167
10590205
10590207
10590217
10590219
10590345
10590347
10590363
10590389
10590391
10590404
10590406
10590417
10590437
10590439
10590449
10590451
10590465
10590467
10590509
10590511
10590639
10590649
10590651
10590701
10590703
10590829
10590831
10590845
10590847
10590873
10590875
10590888
10590890
10590901
10590903
10590921
10590923
10590933
10590935
10590949
10590951
10590993
10590995
10591121
10591123
10591133
10591135
10591173
10591175
10591185
10591187
10591313
10591315
10591329
10591331
10591357
10591359
10591372
10591374
10591385
10591387
10591407
10591417
10591419
10591433
10591435
10591477
10591479
10591605
10591607
10591617
10591619
10591657
10591659
10591669
10591797
10591799
10591813
10591815
10591841
10591843
10591856
10591858
10591869
10591871
10591889
10591891
10591901
10591903
10591917
10591919
10591961
10591963
10592089
10592091
10592101
10592103
10592141
10592143
10592153
10592155
10592281
10592283
10592297
10592299
10592325
10592327
10592340
10592342
10592353
10592355
10592373
10592375
10592385
10592387
10592401
10592403
10592445
10592447
10592573
10592575
10592585
10592587
10592625
10592627
10592637
10592639
10592765
10592767
10592781
10592783
10592809
10592811
10592824
10592826
10592839
10592857
10592859
10592869
10592871
10592885
10592887
10592929
10592931
10593057
10593069
10593071
10593109
10593111
10593121
10593123
10593249
10593251
10593265
10593267
10593293
10593295
10593308
10593310
10593321
10593323
10593341
10593343
10593353
10593355
10593369
10593371
10593413
10593415
10593541
10593543
10593553
10593555
10593593
10593595
10593605
10593607
10593733
10593735
10593749
10593751
10593777
10593779
10593792
10593794
10593805
10593807
10593825
10593837
10593839
10593853
10593855
10593897
10593899
10594025
10594027
10594077
10594079
10594091
10594217
10594219
10594233
10594235
10594261
10594263
10594276
10594278
10594289
10594291
10594309
10594311
10594323
10594337
10594339
10594381
10594383
10594509
10594511
10594521
10594523
10594561
10594563
10594573
10594575
10594701
10594717
10594747
10594828
10594830
10594840
10594842
10594852
10594854
10594867
10594876
10594878
10594893
10594897
10594899
10594912
10594914
10594920
10594922
10594941
10594943
10594944
10594946
10594948
10594950
10594953
10594955
10594984
10594986
10595012
10595014
10595036
10595038
10595064
10595066
10595097
10595099
10595100
10595102
10595104
10595106
10595109
10595111
10595113
10595128
10595130
10595136
10595138
10595153
10595155
10595172
10595174
10595187
10595196
10595198
10595208
10595210
10595220
10595222
10595244
10595246
10595312
10595314
10595324
10595326
10595336
10595338
10595349
10595360
10595362
10595377
10595379
10595381
10595383
10595396
10595398
10595404
10595406
10595425
10595427
10595428
10595430
10595432
10595434
10595437
10595468
10595470
10595498
10595520
10595522
10595550
10595581
10595583
10595584
10595586
10595588
10595590
10595593
10595595
10595597
10595599
10595612
10595620
10595622
10595637
10595639
10595656
10595669
10595671
10595680
10595682
10595692
10595694
10595704
10595706
10595728
10595730
10595796
10595798
10595810
10595820
10595822
10595833
10595835
10595844
10595846
10595861
10595863
10595865
10595867
10595880
10595882
10595888
10595890
10595909
10595911
10595912
10595914
10595916
10595918
10595923
10595952
10595954
10595980
# 1275.51secs	# 373 balance functions. Density 0.0621667
