# prime 11
# degree 2
# input variables 3
# output variables 7
# p = 11
# n = 7
# smalldomain p^m 1331
# domain p^n 19487171
#	 p^2 = 121
#	 p^3 = 1331
#	 p^4 = 14641
#	 p^5 = 161051
#	 p^6 = 1771561
#	 p^7 = 19487171
#	 p^8 = 214358881
#	 p^9 = 2357947691
# dimension of the chunk  6000
# number of the chunk  2088 of 12991 blocks
# functions to test 6000
# startcode = 12528000  :: endcode = 12534000:: fdomain = 6000
12528008
12528016
12528018
12528037
12528039
12528040
12528042
12528044
12528046
12528051
12528080
12528082
12528108
12528110
12528132
12528134
12528160
12528162
12528193
12528195
12528196
12528198
12528200
12528207
12528209
12528211
12528224
12528226
12528232
12528234
12528249
12528268
12528270
12528281
12528283
12528292
12528294
12528304
12528306
12528318
12528340
12528342
12528408
12528410
12528420
12528422
12528432
12528434
12528445
12528447
12528458
12528473
12528475
12528477
12528479
12528492
12528494
12528500
12528521
12528523
12528524
12528526
12528528
12528530
12528533
12528535
12528564
12528566
12528592
12528594
12528616
12528618
12528644
12528677
12528679
12528680
12528682
12528684
12528686
12528689
12528691
12528693
12528695
12528708
12528710
12528716
12528718
12528733
12528735
12528752
12528754
12528765
12528767
12528778
12528788
12528790
12528800
12528802
12528824
12528826
12528892
12528894
12528904
12528906
12528916
12528918
12528929
12528931
12528940
12528942
12528957
12528959
12528961
12528963
12528978
12528984
12528986
12529005
12529007
12529008
12529010
12529012
12529014
12529017
12529019
12529048
12529050
12529076
12529078
12529100
12529102
12529128
12529130
12529161
12529163
12529164
12529166
12529168
12529170
12529173
12529175
12529177
12529179
12529194
12529200
12529202
12529217
12529219
12529236
12529249
12529251
12529260
12529262
12529272
12529274
12529284
12529308
12529310
12529376
12529378
12529388
12529400
12529402
12529413
12529415
12529424
12529426
12529441
12529447
12529460
12529462
12529468
12529470
12529489
12529492
12529494
12529498
12529501
12529503
12529532
12529534
12529560
12529562
12529584
12529612
12529614
12529645
12529647
12529648
12529650
12529654
12529657
12529659
12529663
12529676
12529678
12529684
12529686
12529701
12529703
12529720
12529722
12529733
12529735
12529744
12529746
12529756
12529758
12529768
12529770
12529792
12529794
12529860
12529862
12529872
12529874
12529884
12529897
12529899
12529908
12529910
12529925
12529927
12529929
12529931
12529944
12529946
12529952
12529954
12529973
12529975
12529976
12529978
12529980
12529985
12529987
12530018
12530044
12530046
12530070
12530096
12530098
12530129
12530131
12530132
12530134
12530136
12530138
12530141
12530143
12530145
12530147
12530160
12530162
12530168
12530170
12530185
12530187
12530204
12530206
12530217
12530219
12530228
12530230
12530240
12530242
12530252
12530254
12530276
12530278
12530344
12530346
12530356
12530358
12530368
12530370
12530381
12530383
12530392
12530394
12530409
12530411
12530413
12530415
12530428
12530430
12530436
12530438
12530457
12530459
12530460
12530462
12530464
12530466
12530469
12530471
12530500
12530502
12530530
12530552
12530554
12530582
12530613
12530615
12530616
12530620
12530622
12530625
12530627
12530629
12530631
12530644
12530646
12530652
12530654
12530669
12530671
12530688
12530690
12530701
12530703
12530712
12530724
12530726
12530736
12530738
12530760
12530762
12530828
12530830
12530840
12530842
12530852
12530854
12530865
12530867
12530876
12530878
12530895
12530897
12530899
12530912
12530914
12530920
12530922
12530941
12530943
12530946
12530948
12530950
12530953
12530955
12530984
12530986
12531012
12531036
12531038
12531064
12531066
12531097
12531099
12531102
12531104
12531106
12531109
12531113
12531128
12531130
12531136
12531138
12531155
12531172
12531174
12531185
12531187
12531196
12531198
12531208
12531220
12531222
12531244
12531246
12531312
12531324
12531326
12531336
12531338
12531349
12531351
12531360
12531377
12531379
12531381
12531383
12531396
12531398
12531406
12531425
12531427
12531428
12531430
12531432
12531434
12531437
12531439
12531468
12531470
12531496
12531498
12531520
12531522
12531548
12531550
12531581
12531583
12531584
12531586
12531588
12531590
12531593
12531595
12531597
12531599
12531612
12531614
12531622
12531637
12531639
12531656
12531658
12531669
12531671
12531680
12531682
12531692
12531694
12531704
12531706
12531728
12531730
12531796
12531798
12531808
12531810
12531822
12531833
12531835
12531844
12531846
12531861
12531863
12531865
12531867
12531880
12531882
12531888
12531890
12531909
12531911
12531912
12531914
12531916
12531918
12531921
12531923
12531952
12531980
12531982
12532004
12532006
12532032
12532034
12532065
12532067
12532068
12532070
12532072
12532074
12532077
12532079
12532081
12532083
12532096
12532104
12532106
12532121
12532123
12532142
12532153
12532155
12532164
12532166
12532176
12532178
12532188
12532190
12532212
12532214
12532282
12532292
12532294
12532304
12532306
12532317
12532319
12532328
12532330
12532345
12532347
12532349
12532364
12532366
12532372
12532374
12532395
12532396
12532400
12532402
12532405
12532407
12532436
12532438
12532464
12532466
12532488
12532490
12532516
12532518
12532551
12532552
12532554
12532556
12532558
12532561
12532563
12532565
12532567
12532580
12532582
12532588
12532605
12532607
12532624
12532626
12532637
12532648
12532650
12532662
12532672
12532674
12532740
12532742
12532760
12532762
12532784
12532786
12532807
12532824
12532826
12532828
12532830
12532833
12532835
12532841
12532843
12532844
12532846
12532872
12532874
12532881
12532883
12532901
12532903
12532908
12532910
12532916
12532918
12532928
12532930
12532960
12532962
12532992
12532994
12533004
12533006
12533012
12533014
12533021
12533023
12533041
12533043
12533048
12533050
12533076
12533078
12533081
12533083
12533089
12533091
12533092
12533094
12533096
12533098
12533119
12533136
12533138
12533160
12533162
12533180
12533182
12533224
12533226
12533244
12533246
12533289
12533308
12533312
12533314
12533317
12533319
12533325
12533327
12533328
12533330
12533356
12533358
12533365
12533367
12533385
12533387
12533392
12533394
12533400
12533402
12533412
12533414
12533444
12533446
12533476
12533478
12533488
12533490
12533496
12533498
12533505
12533507
12533525
12533527
12533532
12533534
12533560
12533562
12533565
12533567
12533573
12533575
12533576
12533578
12533582
12533601
12533603
12533620
12533622
12533644
12533646
12533664
12533666
12533708
12533710
12533728
12533730
12533752
12533754
12533773
12533775
12533792
12533794
12533796
12533798
12533801
12533803
12533811
12533812
12533814
12533849
12533869
12533876
12533884
12533886
12533896
12533898
12533928
12533930
12533960
12533962
12533972
12533974
12533982
12533989
12533991
# 1118.87secs	# 700 balance functions. Density 0.116667
