# prime 11
# degree 2
# input variables 3
# output variables 7
# p = 11
# n = 7
# smalldomain p^m 1331
# domain p^n 19487171
#	 p^2 = 121
#	 p^3 = 1331
#	 p^4 = 14641
#	 p^5 = 161051
#	 p^6 = 1771561
#	 p^7 = 19487171
#	 p^8 = 214358881
#	 p^9 = 2357947691
# dimension of the chunk  6000
# number of the chunk  2520 of 12991 blocks
# functions to test 6000
# startcode = 15120000  :: endcode = 15126000:: fdomain = 6000
15120077
15120079
15120093
15120095
15120165
15120167
15120201
15120203
15120205
15120207
15120212
15120214
15120228
15120230
15120237
15120239
15120252
15120254
15120264
15120266
15120305
15120307
15120316
15120318
15120320
15120322
15120333
15120335
15120344
15120346
15120368
15120370
15120412
15120414
15120420
15120422
15120428
15120430
15120436
15120438
15120480
15120482
15120504
15120506
15120517
15120519
15120528
15120530
15120532
15120534
15120545
15120547
15120584
15120586
15120596
15120598
15120601
15120603
15120613
15120615
15120620
15120622
15120636
15120638
15120644
15120646
15120649
15120651
15120685
15120687
15120689
15120691
15120696
15120698
15120712
15120714
15120721
15120736
15120738
15120748
15120750
15120789
15120791
15120800
15120806
15120817
15120819
15120828
15120830
15120852
15120854
15120896
15120898
15120904
15120906
15120912
15120914
15120920
15120964
15120966
15120988
15120990
15121001
15121012
15121014
15121018
15121029
15121031
15121068
15121070
15121080
15121082
15121085
15121087
15121097
15121099
15121104
15121106
15121120
15121122
15121128
15121130
15121135
15121169
15121171
15121173
15121175
15121180
15121182
15121196
15121205
15121207
15121220
15121222
15121232
15121234
15121273
15121275
15121284
15121286
15121288
15121290
15121301
15121303
15121312
15121314
15121336
15121338
15121380
15121382
15121390
15121396
15121406
15121448
15121450
15121472
15121474
15121485
15121487
15121496
15121498
15121500
15121502
15121513
15121515
15121552
15121554
15121564
15121566
15121569
15121571
15121581
15121583
15121588
15121590
15121604
15121606
15121612
15121614
15121617
15121619
15121653
15121655
15121659
15121664
15121666
15121680
15121682
15121689
15121691
15121704
15121706
15121718
15121757
15121759
15121768
15121770
15121772
15121774
15121785
15121787
15121796
15121798
15121820
15121822
15121864
15121866
15121872
15121874
15121880
15121882
15121888
15121890
15121932
15121934
15121956
15121969
15121971
15121980
15121982
15121984
15121986
15121997
15122036
15122050
15122053
15122055
15122067
15122072
15122074
15122088
15122090
15122096
15122098
15122101
15122103
15122137
15122139
15122141
15122143
15122148
15122166
15122173
15122175
15122188
15122200
15122202
15122243
15122252
15122254
15122256
15122258
15122269
15122271
15122280
15122282
15122304
15122306
15122348
15122350
15122356
15122358
15122364
15122366
15122372
15122374
15122416
15122418
15122440
15122442
15122455
15122464
15122466
15122468
15122470
15122481
15122483
15122520
15122522
15122532
15122534
15122537
15122539
15122549
15122551
15122556
15122558
15122574
15122580
15122582
15122585
15122621
15122623
15122625
15122632
15122634
15122648
15122650
15122657
15122659
15122672
15122674
15122684
15122686
15122725
15122727
15122736
15122738
15122740
15122742
15122753
15122755
15122766
15122788
15122832
15122834
15122840
15122842
15122848
15122850
15122856
15122858
15122902
15122924
15122926
15122937
15122939
15122948
15122952
15122954
15122965
15122967
15123004
15123006
15123016
15123018
15123021
15123023
15123033
15123035
15123040
15123042
15123056
15123058
15123064
15123066
15123069
15123071
15123105
15123109
15123111
15123116
15123118
15123132
15123134
15123141
15123143
15123156
15123158
15123168
15123170
15123209
15123211
15123220
15123222
15123224
15123237
15123239
15123248
15123250
15123274
15123316
15123318
15123324
15123326
15123332
15123334
15123340
15123342
15123384
15123410
15123421
15123423
15123432
15123434
15123436
15123438
15123449
15123451
15123488
15123490
15123500
15123502
15123505
15123517
15123519
15123524
15123526
15123540
15123542
15123548
15123550
15123553
15123555
15123589
15123591
15123593
15123595
15123602
15123616
15123618
15123625
15123627
15123640
15123642
15123652
15123654
15123693
15123695
15123704
15123706
15123708
15123710
15123723
15123732
15123734
15123756
15123758
15123800
15123802
15123808
15123810
15123816
15123818
15123824
15123826
15123868
15123870
15123892
15123894
15123905
15123907
15123916
15123918
15123920
15123922
15123935
15123972
15123974
15123984
15123989
15123991
15124001
15124003
15124010
15124024
15124032
15124034
15124037
15124039
15124073
15124075
15124077
15124079
15124084
15124086
15124100
15124102
15124111
15124126
15124136
15124177
15124188
15124190
15124192
15124194
15124205
15124207
15124216
15124240
15124242
15124284
15124286
15124292
15124294
15124300
15124302
15124308
15124310
15124352
15124354
15124376
15124378
15124389
15124391
15124400
15124402
15124404
15124406
15124417
15124419
15124458
15124468
15124470
15124475
15124485
15124487
15124492
15124494
15124508
15124510
15124516
15124518
15124521
15124523
15124559
15124561
15124563
15124568
15124570
15124584
15124586
15124593
15124595
15124608
15124610
15124620
15124622
15124661
15124663
15124672
15124674
15124676
15124678
15124689
15124691
15124700
15124702
15124724
15124726
15124770
15124776
15124786
15124792
15124794
15124836
15124838
15124860
15124862
15124873
15124875
15124884
15124886
15124888
15124890
15124901
15124903
15124940
15124942
15124952
15124954
15124957
15124959
15124969
15124971
15124976
15124992
15124994
15125000
15125002
15125005
15125007
15125041
15125043
15125045
15125047
15125052
15125054
15125068
15125070
15125077
15125079
15125092
15125094
15125104
15125106
15125145
15125147
15125158
15125160
15125162
15125173
15125184
15125186
15125208
15125210
15125252
15125260
15125262
15125268
15125270
15125276
15125278
15125320
15125322
15125344
15125346
15125357
15125359
15125370
15125372
15125385
15125387
15125424
15125426
15125436
15125438
15125441
15125443
15125453
15125460
15125462
15125476
15125478
15125501
15125503
15125513
15125515
15125532
15125556
15125558
15125565
15125567
15125569
15125571
15125580
15125584
15125586
15125628
15125633
15125635
15125653
15125655
15125656
15125658
15125676
15125684
15125686
15125712
15125714
15125724
15125772
15125784
15125786
15125812
15125814
15125820
15125840
15125842
15125845
15125847
15125865
15125867
15125868
15125912
15125914
15125916
15125929
15125931
15125933
15125935
15125940
15125942
15125964
15125968
15125970
15125985
15125987
15125997
15125999
# 789.753secs	# 680 balance functions. Density 0.113333
