# prime 11
# degree 2
# input variables 3
# output variables 7
# p = 11
# n = 7
# smalldomain p^m 1331
# domain p^n 19487171
#	 p^2 = 121
#	 p^3 = 1331
#	 p^4 = 14641
#	 p^5 = 161051
#	 p^6 = 1771561
#	 p^7 = 19487171
#	 p^8 = 214358881
#	 p^9 = 2357947691
# dimension of the chunk  6000
# number of the chunk  2404 of 12991 blocks
# functions to test 6000
# startcode = 14424000  :: endcode = 14430000:: fdomain = 6000
14424000
14424002
14424041
14424043
14424053
14424055
14424064
14424066
14424072
14424074
14424084
14424086
14424104
14424106
14424133
14424135
14424136
14424138
14424148
14424150
14424153
14424155
14424168
14424170
14424177
14424179
14424205
14424207
14424229
14424231
14424232
14424234
14424244
14424246
14424249
14424251
14424276
14424278
14424296
14424298
14424308
14424310
14424316
14424329
14424331
14424341
14424343
14424380
14424382
14424384
14424386
14424400
14424402
14424416
14424448
14424450
14424464
14424466
14424480
14424482
14424484
14424486
14424525
14424527
14424537
14424539
14424548
14424550
14424556
14424558
14424568
14424570
14424588
14424590
14424617
14424619
14424620
14424622
14424632
14424634
14424637
14424639
14424652
14424654
14424661
14424663
14424689
14424691
14424713
14424715
14424716
14424718
14424728
14424730
14424733
14424735
14424760
14424762
14424780
14424782
14424792
14424800
14424802
14424813
14424815
14424825
14424827
14424864
14424868
14424870
14424884
14424886
14424900
14424902
14424932
14424934
14424948
14424950
14424964
14424966
14424968
14424970
14425009
14425011
14425021
14425032
14425034
14425040
14425042
14425052
14425054
14425072
14425074
14425101
14425103
14425104
14425106
14425116
14425118
14425121
14425136
14425138
14425145
14425147
14425173
14425175
14425197
14425199
14425200
14425202
14425212
14425217
14425219
14425244
14425246
14425264
14425266
14425276
14425278
14425284
14425286
14425297
14425299
14425309
14425311
14425348
14425350
14425352
14425354
14425368
14425384
14425386
14425416
14425418
14425432
14425434
14425448
14425450
14425452
14425454
14425493
14425495
14425505
14425507
14425516
14425518
14425524
14425526
14425536
14425538
14425556
14425558
14425585
14425587
14425588
14425590
14425600
14425602
14425605
14425607
14425620
14425622
14425629
14425631
14425657
14425659
14425681
14425683
14425684
14425686
14425696
14425698
14425701
14425703
14425728
14425730
14425748
14425750
14425760
14425762
14425768
14425770
14425781
14425783
14425793
14425795
14425832
14425834
14425836
14425838
14425852
14425854
14425868
14425870
14425900
14425902
14425916
14425932
14425934
14425936
14425938
14425977
14425979
14425989
14425991
14426000
14426002
14426008
14426010
14426020
14426022
14426040
14426042
14426069
14426071
14426072
14426084
14426086
14426089
14426091
14426104
14426106
14426113
14426115
14426141
14426143
14426165
14426168
14426170
14426180
14426182
14426185
14426187
14426212
14426214
14426232
14426234
14426244
14426246
14426252
14426254
14426265
14426277
14426279
14426316
14426318
14426320
14426322
14426336
14426338
14426352
14426354
14426384
14426386
14426400
14426402
14426416
14426418
14426420
14426461
14426463
14426473
14426475
14426484
14426486
14426492
14426504
14426506
14426524
14426526
14426553
14426555
14426556
14426558
14426568
14426570
14426573
14426575
14426588
14426590
14426597
14426599
14426625
14426627
14426649
14426651
14426652
14426654
14426664
14426666
14426669
14426671
14426696
14426698
14426716
14426718
14426728
14426730
14426736
14426738
14426749
14426751
14426761
14426763
14426800
14426802
14426804
14426806
14426820
14426822
14426836
14426838
14426868
14426884
14426886
14426900
14426902
14426904
14426906
14426945
14426947
14426957
14426959
14426968
14426976
14426978
14426988
14426990
14427008
14427010
14427037
14427039
14427040
14427042
14427052
14427054
14427057
14427059
14427072
14427074
14427081
14427083
14427109
14427111
14427133
14427135
14427136
14427138
14427148
14427150
14427153
14427155
14427180
14427182
14427200
14427202
14427212
14427214
14427220
14427222
14427233
14427235
14427245
14427247
14427284
14427286
14427288
14427304
14427306
14427320
14427322
14427352
14427354
14427368
14427370
14427384
14427386
14427388
14427390
14427429
14427431
14427441
14427443
14427452
14427454
14427460
14427462
14427472
14427492
14427494
14427521
14427523
14427524
14427526
14427536
14427538
14427541
14427543
14427556
14427558
14427565
14427593
14427595
14427617
14427619
14427620
14427622
14427632
14427634
14427637
14427664
14427684
14427686
14427696
14427698
14427704
14427706
14427717
14427719
14427729
14427731
14427768
14427770
14427772
14427774
14427788
14427790
14427804
14427806
14427836
14427838
14427852
14427854
14427868
14427870
14427872
14427874
14427913
14427915
14427925
14427927
14427936
14427938
14427944
14427946
14427956
14427958
14427976
14427978
14428005
14428007
14428008
14428010
14428020
14428025
14428027
14428131
14428255
14428259
14428267
14428299
14428315
14428347
14428355
14428359
14428439
14428524
14428526
14428613
14428629
14428631
14428737
14428739
14428741
14428743
14428749
14428751
14428781
14428783
14428797
14428799
14428829
14428831
14428837
14428839
14428841
14428843
14428921
14428923
14428949
14428951
14429008
14429010
14429097
14429099
14429113
14429115
14429221
14429223
14429225
14429227
14429233
14429235
14429265
14429267
14429281
14429283
14429313
14429315
14429321
14429323
14429325
14429327
14429405
14429407
14429433
14429435
14429492
14429494
14429581
14429583
14429597
14429599
14429705
14429707
14429709
14429711
14429717
14429719
14429749
14429765
14429767
14429797
14429799
14429805
14429807
14429809
14429889
14429891
14429917
14429919
14429976
14429978
# 773.191secs	# 583 balance functions. Density 0.0971667
