# prime 11
# degree 2
# input variables 3
# output variables 7
# p = 11
# n = 7
# smalldomain p^m 1331
# domain p^n 19487171
#	 p^2 = 121
#	 p^3 = 1331
#	 p^4 = 14641
#	 p^5 = 161051
#	 p^6 = 1771561
#	 p^7 = 19487171
#	 p^8 = 214358881
#	 p^9 = 2357947691
# dimension of the chunk  22000
# number of the chunk  3276 of 3543 blocks
# functions to test 22000
# startcode = 72072000  :: endcode = 72094000:: fdomain = 22000
72072065
72072067
72072085
72072087
72072117
72072119
72072129
72072131
72072195
72072201
72072203
72072243
72072249
72072251
72072313
72072315
72072325
72072327
72072357
72072359
72072377
72072379
72072440
72072442
72072549
72072551
72072569
72072571
72072603
72072613
72072615
72072677
72072685
72072725
72072727
72072733
72072735
72072799
72072809
72072811
72072841
72072843
72072861
72072863
72072924
72072926
72073033
72073035
72073053
72073055
72073085
72073097
72073161
72073163
72073169
72073171
72073209
72073211
72073217
72073219
72073281
72073283
72073293
72073295
72073325
72073327
72073345
72073347
72073408
72073410
72073519
72073537
72073539
72073569
72073571
72073581
72073583
72073645
72073647
72073653
72073655
72073693
72073695
72073701
72073703
72073765
72073767
72073777
72073779
72073811
72073829
72073831
72073892
72073894
72074001
72074003
72074023
72074053
72074055
72074065
72074067
72074129
72074131
72074137
72074139
72074177
72074179
72074185
72074187
72074249
72074251
72074261
72074263
72074293
72074295
72074315
72074376
72074378
72074485
72074487
72074505
72074507
72074537
72074539
72074549
72074551
72074613
72074615
72074621
72074623
72074661
72074663
72074669
72074671
72074733
72074745
72074777
72074779
72074797
72074799
72074860
72074862
72074969
72074971
72074989
72074991
72075021
72075023
72075035
72075097
72075099
72075105
72075107
72075145
72075153
72075217
72075219
72075231
72075261
72075263
72075281
72075283
72075344
72075346
72075453
72075455
72075473
72075475
72075505
72075507
72075517
72075519
72075581
72075583
72075591
72075629
72075631
72075639
72075701
72075703
72075713
72075715
72075745
72075747
72075765
72075767
72075828
72075830
72075937
72075957
72075989
72075991
72076001
72076003
72076065
72076067
72076073
72076075
72076113
72076115
72076121
72076123
72076185
72076187
72076197
72076199
72076229
72076231
72076249
72076251
72076333
72076337
72076357
72076359
72076365
72076367
72076372
72076374
72076392
72076394
72076428
72076430
72076432
72076434
72076448
72076450
72076464
72076466
72076497
72076499
72076500
72076502
72076508
72076510
72076513
72076515
72076536
72076538
72076568
72076570
72076584
72076586
72076616
72076618
72076641
72076643
72076644
72076646
72076652
72076654
72076657
72076659
72076688
72076690
72076704
72076706
72076720
72076722
72076724
72076726
72076753
72076755
72076760
72076762
72076780
72076782
72076789
72076791
72076796
72076798
72076817
72076819
72076821
72076823
72076841
72076843
72076849
72076851
72076856
72076858
72076876
72076878
72076912
72076914
72076916
72076918
72076932
72076934
72076948
72076950
72076981
72076983
72076984
72076986
72076992
72076994
72076997
72076999
72077022
72077052
72077054
72077070
72077100
72077102
72077125
72077127
72077128
72077130
72077136
72077138
72077141
72077143
72077172
72077174
72077188
72077190
72077204
72077208
72077237
72077239
72077244
72077246
72077264
72077266
72077273
72077275
72077280
72077282
72077301
72077303
72077305
72077307
72077325
72077327
72077333
72077335
72077342
72077360
72077362
72077396
72077398
72077400
72077402
72077416
72077418
72077432
72077434
72077465
72077467
72077468
72077470
72077476
72077478
72077481
72077483
72077504
72077506
72077536
72077538
72077552
72077554
72077584
72077586
72077609
72077612
72077620
72077625
72077656
72077658
72077672
72077674
72077688
72077690
72077692
72077694
72077721
72077723
72077730
72077748
72077750
72077757
72077759
72077764
72077766
72077785
72077787
72077789
72077791
72077811
72077817
72077819
72077824
72077826
72077844
72077846
72077880
72077882
72077884
72077886
72077900
72077902
72077916
72077918
72077949
72077951
72077954
72077960
72077962
72077965
72077967
72077988
72078020
72078036
72078038
72078068
72078070
72078093
72078095
72078098
72078104
72078106
72078109
72078111
72078140
72078142
72078156
72078158
72078172
72078174
72078176
72078178
72078205
72078207
72078212
72078214
72078232
72078234
72078243
72078248
72078250
72078269
72078271
72078275
72078293
72078295
72078301
72078303
72078308
72078310
72078328
72078330
72078364
72078366
72078370
72078384
72078400
72078433
72078435
72078436
72078438
72078444
72078446
72078449
72078451
72078472
72078474
72078504
72078506
72078520
72078522
72078552
72078554
72078577
72078579
72078580
72078582
72078588
72078590
72078593
72078595
72078624
72078626
72078640
72078642
72078656
72078658
72078662
72078689
72078691
72078696
72078698
72078716
72078718
72078725
72078727
72078732
72078734
72078753
72078755
72078757
72078759
72078777
72078785
72078792
72078812
72078848
72078850
72078852
72078854
72078868
72078870
72078886
72078917
72078919
72078920
72078922
72078928
72078930
72078935
72078956
72078958
72078988
72078990
72079004
72079006
72079036
72079038
72079061
72079063
72079064
72079066
72079072
72079074
72079079
72079108
72079110
72079126
72079140
72079142
72079144
72079146
72079173
72079175
72079180
72079182
72079200
72079202
72079209
72079211
72079216
72079218
72079237
72079239
72079241
72079243
72079261
72079263
72079269
72079271
72079276
72079278
72079296
72079298
72079332
72079334
72079336
72079338
72079354
72079368
72079370
72079403
72079404
72079406
72079412
72079414
72079417
72079419
72079440
72079442
72079472
72079474
72079488
72079490
72079520
72079522
72079547
72079548
72079550
72079556
72079558
72079561
72079563
72079594
72079608
72079610
72079624
72079626
72079628
72079630
72079657
72079664
72079684
72079693
72079700
72079702
72079723
72079725
72079727
72079745
72079747
72079753
72079755
72079760
72079762
72079780
72079782
72079818
72079820
72079822
72079836
72079838
72079852
72079854
72079885
72079887
72079888
72079890
72079896
72079898
72079901
72079903
72079924
72079926
72079956
72079958
72079972
72079974
72080004
72080006
72080029
72080031
72080032
72080034
72080040
72080042
72080045
72080047
72080076
72080092
72080110
72080112
72080114
72080141
72080143
72080148
72080150
72080168
72080170
72080177
72080179
72080184
72080186
72080205
72080207
72080209
72080211
72080229
72080231
72080239
72080244
72080246
72080264
72080266
72080300
72080302
72080304
72080306
72080320
72080322
72080336
72080338
72080369
72080371
72080372
72080374
72080382
72080385
72080387
72080408
72080410
72080440
72080442
72080456
72080488
72080513
72080515
72080516
72080518
72080526
72080529
72080531
72080560
72080562
72080576
72080578
72080592
72080594
72080596
72080598
72080627
72080632
72080634
72080652
72080654
72080661
72080663
72080668
72080670
72080689
72080691
72080693
72080695
72080713
72080715
72080721
72080723
72080728
72080730
72080750
72080784
72080786
72080788
72080790
72080804
72080806
72080820
72080822
72080853
72080856
72080864
72080869
72080892
72080894
72080924
72080926
72080940
72080942
72080972
72080974
72080997
72080999
72081000
72081002
72081008
72081010
72081013
72081015
72081044
72081046
72081060
72081062
72081076
72081078
72081080
72081082
72081109
72081111
72081116
72081118
72081138
72081145
72081147
72081152
72081154
72081173
72081175
72081177
72081179
72081197
72081199
72081205
72081207
72081212
72081214
72081232
72081234
72081268
72081272
72081288
72081290
72081304
72081306
72081337
72081339
72081340
72081342
72081348
72081350
72081353
72081355
72081376
72081378
72081410
72081424
72081426
72081458
72081481
72081483
72081484
72081486
72081492
72081494
72081497
72081499
72081528
72081530
72081544
72081546
72081560
72081562
72081564
72081566
72081593
72081595
72081600
72081602
72081620
72081622
72081629
72081631
72081753
72081755
72081757
72081759
72081769
72081771
72081793
72081795
72081869
72081871
72081885
72081887
72081917
72081919
72081933
72081935
72081989
72081991
72082009
72082011
72082045
72082047
72082049
72082051
72082120
72082122
72082237
72082239
72082241
72082243
72082253
72082255
72082277
72082279
72082355
72082369
72082371
72082403
72082417
72082419
72082473
72082475
72082493
72082495
72082529
72082533
72082604
72082606
72082721
72082723
72082725
72082727
72082737
72082739
72082761
72082763
72082837
72082839
72082853
72082855
72082885
72082887
72082901
72082903
72082957
72082959
72082977
72082979
72083013
72083015
72083017
72083019
72083088
72083090
72083207
72083209
72083211
72083221
72083223
72083245
72083247
72083321
72083337
72083369
72083371
72083385
72083387
72083441
72083443
72083461
72083463
72083499
72083501
72083503
72083572
72083574
72083689
72083691
72083693
72083695
72083705
72083805
72083807
72083821
72083823
72083853
72083855
72083869
72083871
72083927
72083945
72083947
72083981
72083983
72083985
72083987
72084056
72084058
72084173
72084175
72084177
72084179
72084189
72084191
72084213
72084215
72084289
72084291
72084305
72084307
72084337
72084339
72084353
72084355
72084409
72084411
72084429
72084431
72084465
72084467
72084469
72084471
72084540
72084542
72084657
72084659
72084661
72084663
72084673
72084675
72084697
72084699
72084773
72084775
72084789
72084791
72084821
72084823
72084837
72084839
72084893
72084895
72084913
72084915
72084949
72084951
72084953
72084955
72085024
72085026
72085141
72085143
72085145
72085147
72085159
72085181
72085183
72085257
72085259
72085273
72085275
72085305
72085307
72085321
72085323
72085377
72085433
72085435
72085437
72085439
72085508
72085510
72085625
72085627
72085631
72085641
72085643
72085665
72085667
72085741
72085743
72085757
72085759
72085789
72085805
72085861
72085863
72085881
72085883
72085917
72085919
72085923
72085992
72085994
72086109
72086111
72086113
72086115
72086125
72086127
72086149
72086151
72086225
72086227
72086241
72086243
72086273
72086275
72086289
72086291
72086345
72086347
72086365
72086367
72086401
72086403
72086405
72086407
72086476
72086478
72086593
72086597
72086609
72086611
72086633
72086635
72086709
72086711
72086727
72086757
72086759
72086775
72086829
72086831
72086849
72086851
72086885
72086887
72086889
72086891
72086960
72086961
72087008
72087009
72087056
72087057
72087104
72087105
72087152
72087153
72087200
72087201
72087248
72087249
72087296
72087297
72087344
72087345
72087392
72087393
72087440
72087441
72087444
72087445
72087446
72087492
72087493
72087540
72087541
72087588
72087589
72087636
72087637
72087684
72087685
72087732
72087733
72087780
72087781
72087828
72087829
72087876
72087877
72087924
72087925
72087928
72087929
72087930
72087976
72087977
72088024
72088025
72088072
72088073
72088120
72088121
72088168
72088169
72088216
72088217
72088264
72088265
72088312
72088313
72088360
72088361
72088408
72088409
72088412
72088413
72088414
72088460
72088461
72088508
72088509
72088556
72088557
72088604
72088605
72088652
72088653
72088700
72088701
72088748
72088749
72088796
72088797
72088844
72088845
72088892
72088893
72088896
72088897
72088898
72088944
72088945
72088992
72088993
72089040
72089041
72089088
72089089
72089136
72089137
72089184
72089185
72089232
72089233
72089280
72089281
72089328
72089329
72089376
72089377
72089380
72089381
72089382
72089428
72089429
72089476
72089477
72089524
72089525
72089572
72089573
72089620
72089621
72089668
72089669
72089716
72089717
72089764
72089765
72089812
72089813
72089860
72089861
72089864
72089865
72089866
72089912
72089913
72089960
72089961
72090008
72090009
72090056
72090057
72090104
72090105
72090152
72090153
72090200
72090201
72090248
72090249
72090296
72090297
72090344
72090345
72090348
72090349
72090350
72090396
72090397
72090444
72090445
72090492
72090493
72090540
72090541
72090588
72090589
72090636
72090637
72090684
72090685
72090732
72090733
72090780
72090781
72090828
72090829
72090832
72090833
72090834
72090880
72090881
72090928
72090929
72090976
72090977
72091024
72091025
72091072
72091073
72091120
72091121
72091168
72091169
72091216
72091217
72091264
72091265
72091312
72091313
72091316
72091317
72091318
72091364
72091365
72091412
72091413
72091460
72091461
72091508
72091509
72091556
72091557
72091604
72091605
72091652
72091653
72091700
72091701
72091748
72091749
72091796
72091797
72091800
72091801
72091802
72091848
72091849
72091896
72091897
72091944
72091945
72091992
72091993
72092040
72092041
72092088
72092089
72092136
72092137
72092184
72092185
72092232
72092233
72092280
72092281
72092289
72092291
72092325
72092327
72092328
72092330
72092332
72092345
72092347
72092361
72092363
72092372
72092374
72092380
72092416
72092418
72092428
72092460
72092462
72092476
72092485
72092487
72092497
72092499
72092504
72092506
72092524
72092548
72092550
72092572
72092592
72092594
72092601
72092603
72092613
72092615
72092620
72092636
72092638
72092668
72092680
72092682
72092716
72092724
72092726
72092737
72092739
72092753
72092755
72092764
72092768
72092770
72092773
72092809
72092811
72092812
72092814
72092818
72092829
72092831
72092845
72092847
72092856
72092858
72092864
72092866
72092900
72092902
72092912
72092914
72092944
72092946
72092960
72092962
72092969
72092971
72092981
72092983
72092988
72092990
72093008
72093010
72093032
72093034
72093056
72093058
72093076
72093078
72093085
72093087
72093097
72093099
72093104
72093106
72093120
72093122
72093152
72093154
72093164
72093166
72093200
72093202
72093221
72093223
72093237
72093239
72093248
72093250
72093252
72093254
72093259
72093293
72093295
72093296
72093298
72093300
72093302
72093313
72093315
72093329
72093331
72093340
72093342
72093350
72093384
72093386
72093396
72093398
72093428
72093430
72093444
72093446
72093453
72093465
72093467
72093472
72093474
72093492
72093494
72093516
72093518
72093540
72093542
72093560
72093562
72093569
72093571
72093581
72093583
72093588
72093590
72093604
72093606
72093636
72093638
72093684
72093686
72093692
72093694
72093705
72093707
72093721
72093723
72093732
72093734
72093736
72093738
72093741
72093743
72093777
72093779
72093780
72093782
72093784
72093786
72093797
72093813
72093815
72093824
72093826
72093832
72093834
72093868
72093870
72093882
72093912
72093914
72093928
72093930
72093937
72093939
72093951
72093956
72093958
72093976
72093978
# 1300.99secs	# 1538 balance functions. Density 0.0699091
