# prime 11
# degree 2
# input variables 3
# output variables 7
# p = 11
# n = 7
# smalldomain p^m 1331
# domain p^n 19487171
#	 p^2 = 121
#	 p^3 = 1331
#	 p^4 = 14641
#	 p^5 = 161051
#	 p^6 = 1771561
#	 p^7 = 19487171
#	 p^8 = 214358881
#	 p^9 = 2357947691
# dimension of the chunk  6000
# number of the chunk  1379 of 12991 blocks
# functions to test 6000
# startcode = 8274000  :: endcode = 8280000:: fdomain = 6000
8274032
8274034
8274052
8274054
8274080
8274082
8274084
8274086
8274105
8274136
8274138
8274141
8274149
8274151
8274152
8274154
8274173
8274175
8274180
8274182
8274188
8274190
8274197
8274199
8274208
8274210
8274242
8274248
8274282
8274293
8274295
8274300
8274302
8274308
8274310
8274317
8274319
8274336
8274338
8274341
8274343
8274349
8274351
8274352
8274354
8274385
8274387
8274404
8274406
8274408
8274410
8274436
8274456
8274458
8274464
8274466
8274516
8274538
8274564
8274566
8274568
8274570
8274589
8274591
8274620
8274622
8274625
8274627
8274633
8274636
8274638
8274659
8274664
8274666
8274672
8274674
8274681
8274683
8274692
8274694
8274724
8274726
8274732
8274734
8274764
8274766
8274784
8274786
8274792
8274794
8274801
8274803
8274820
8274822
8274825
8274827
8274833
8274835
8274836
8274838
8274869
8274871
8274888
8274890
8274892
8274920
8274922
8274942
8274948
8274950
8275000
8275002
8275020
8275022
8275048
8275050
8275052
8275054
8275073
8275075
8275104
8275106
8275109
8275111
8275119
8275120
8275122
8275141
8275143
8275148
8275150
8275158
8275165
8275167
8275176
8275178
8275208
8275210
8275216
8275218
8275248
8275250
8275261
8275263
8275268
8275278
8275285
8275287
8275304
8275309
8275311
8275319
8275320
8275322
8275353
8275355
8275372
8275374
8275376
8275378
8275404
8275406
8275424
8275426
8275432
8275434
8275484
8275486
8275504
8275506
8275534
8275536
8275557
8275559
8275588
8275590
8275593
8275595
8275601
8275603
8275604
8275606
8275625
8275627
8275632
8275634
8275640
8275642
8275649
8275651
8275660
8275662
8275692
8275694
8275700
8275702
8275732
8275734
8275745
8275747
8275752
8275754
8275760
8275769
8275771
8275788
8275790
8275793
8275795
8275801
8275803
8275804
8275806
8275837
8275839
8275858
8275860
8275862
8275888
8275890
8275908
8275910
8275916
8275918
8275968
8275970
8275988
8275990
8276016
8276018
8276020
8276022
8276041
8276043
8276074
8276077
8276079
8276085
8276087
8276088
8276090
8276109
8276111
8276116
8276118
8276124
8276126
8276133
8276135
8276144
8276146
8276176
8276178
8276184
8276186
8276216
8276229
8276231
8276236
8276238
8276244
8276246
8276253
8276274
8276277
8276279
8276285
8276287
8276288
8276321
8276323
8276340
8276342
8276344
8276346
8276372
8276374
8276392
8276394
8276400
8276402
8276452
8276454
8276472
8276474
8276500
8276502
8276504
8276506
8276525
8276527
8276556
8276561
8276563
8276569
8276571
8276574
8276593
8276600
8276602
8276608
8276610
8276617
8276619
8276628
8276660
8276662
8276668
8276670
8276700
8276702
8276713
8276715
8276720
8276722
8276728
8276730
8276737
8276739
8276756
8276758
8276761
8276763
8276769
8276771
8276774
8276805
8276807
8276824
8276826
8276828
8276830
8276856
8276858
8276876
8276878
8276884
8276886
8276936
8276938
8276956
8276958
8276984
8276986
8276990
8277009
8277011
8277040
8277042
8277045
8277047
8277053
8277055
8277056
8277058
8277077
8277079
8277084
8277092
8277094
8277101
8277103
8277112
8277114
8277144
8277146
8277152
8277154
8277184
8277186
8277197
8277199
8277204
8277206
8277212
8277214
8277221
8277223
8277240
8277242
8277245
8277247
8277253
8277255
8277256
8277258
8277289
8277291
8277308
8277314
8277340
8277342
8277360
8277362
8277368
8277370
8277420
8277422
8277440
8277442
8277468
8277470
8277472
8277474
8277493
8277495
8277524
8277526
8277531
8277537
8277539
8277540
8277561
8277563
8277570
8277576
8277585
8277587
8277596
8277598
8277628
8277630
8277636
8277638
8277668
8277670
8277681
8277683
8277690
8277696
8277698
8277705
8277707
8277724
8277726
8277731
8277737
8277739
8277740
8277742
8277773
8277775
8277792
8277794
8277796
8277798
8277824
8277826
8277844
8277846
8277852
8277854
8277906
8277924
8277926
8277952
8277956
8277958
8277977
8277979
8278008
8278010
8278013
8278015
8278021
8278023
8278024
8278026
8278045
8278047
8278052
8278054
8278060
8278062
8278080
8278082
8278112
8278114
8278120
8278122
8278152
8278154
8278165
8278167
8278172
8278174
8278180
8278182
8278191
8278208
8278210
8278213
8278221
8278223
8278224
8278226
8278257
8278259
8278276
8278278
8278280
8278282
8278310
8278328
8278336
8278338
8278388
8278390
8278408
8278436
8278438
8278440
8278442
8278461
8278463
8278492
8278494
8278497
8278499
8278505
8278507
8278508
8278510
8278529
8278531
8278536
8278538
8278544
8278546
8278553
8278555
8278566
8278596
8278606
8278636
8278638
8278649
8278651
8278656
8278658
8278664
8278666
8278673
8278675
8278692
8278694
8278697
8278699
8278705
8278708
8278710
8278741
8278760
8278762
8278764
8278766
8278792
8278794
8278812
8278814
8278825
8278827
8278861
8278863
8278873
8278875
8278893
8278895
8278947
8279041
8279043
8279045
8279047
8279085
8279087
8279125
8279127
8279227
8279277
8279279
8279297
8279299
8279304
8279306
8279309
8279311
8279345
8279347
8279357
8279359
8279377
8279379
8279429
8279525
8279527
8279531
8279571
8279609
8279709
8279711
8279761
8279763
8279781
8279783
8279788
8279790
8279795
8279829
8279831
8279841
8279843
8279861
8279863
8279913
8279915
# 1708.2secs	# 615 balance functions. Density 0.1025
