# prime 11
# degree 2
# input variables 3
# output variables 7
# p = 11
# n = 7
# smalldomain p^m 1331
# domain p^n 19487171
#	 p^2 = 121
#	 p^3 = 1331
#	 p^4 = 14641
#	 p^5 = 161051
#	 p^6 = 1771561
#	 p^7 = 19487171
#	 p^8 = 214358881
#	 p^9 = 2357947691
# dimension of the chunk  22000
# number of the chunk  3020 of 3543 blocks
# functions to test 22000
# startcode = 66440000  :: endcode = 66462000:: fdomain = 22000
66440013
66440015
66440017
66440019
66440132
66440134
66440143
66440169
66440293
66440295
66440297
66440299
66440309
66440311
66440345
66440347
66440381
66440383
66440413
66440441
66440443
66440449
66440451
66440497
66440499
66440501
66440503
66440616
66440618
66440625
66440627
66440653
66440655
66440777
66440779
66440781
66440783
66440793
66440795
66440829
66440831
66440865
66440867
66440897
66440899
66440925
66440927
66440933
66440935
66440981
66440983
66440985
66440987
66441100
66441102
66441109
66441111
66441137
66441139
66441261
66441263
66441265
66441267
66441277
66441279
66441313
66441315
66441349
66441351
66441381
66441383
66441409
66441411
66441417
66441419
66441465
66441467
66441469
66441471
66441584
66441586
66441593
66441623
66441745
66441747
66441749
66441751
66441761
66441763
66441797
66441799
66441833
66441865
66441867
66441893
66441895
66441901
66441903
66441949
66441951
66441953
66441955
66442068
66442070
66442077
66442079
66442105
66442107
66442229
66442231
66442233
66442235
66442245
66442281
66442283
66442317
66442319
66442349
66442351
66442377
66442379
66442385
66442387
66442433
66442435
66442437
66442552
66442554
66442561
66442563
66442589
66442591
66442713
66442715
66442717
66442719
66442729
66442731
66442767
66442801
66442803
66442833
66442835
66442863
66442869
66442871
66442917
66442919
66442921
66442923
66443036
66443038
66443045
66443047
66443073
66443075
66443199
66443201
66443203
66443213
66443215
66443249
66443251
66443285
66443287
66443317
66443319
66443345
66443347
66443353
66443405
66443407
66443565
66443567
66443585
66443592
66443594
66443600
66443602
66443620
66443622
66443625
66443627
66443633
66443635
66443636
66443638
66443672
66443674
66443692
66443694
66443708
66443710
66443720
66443722
66443744
66443746
66443748
66443750
66443771
66443803
66443820
66443822
66443824
66443826
66443848
66443850
66443860
66443862
66443876
66443878
66443896
66443898
66443932
66443934
66443937
66443939
66443945
66443947
66443948
66443950
66443961
66443963
66443968
66443970
66443976
66443978
66443985
66444004
66444006
66444049
66444051
66444069
66444071
66444076
66444078
66444086
66444104
66444106
66444109
66444111
66444119
66444120
66444122
66444156
66444158
66444176
66444178
66444192
66444194
66444204
66444206
66444228
66444230
66444232
66444253
66444255
66444285
66444287
66444304
66444306
66444308
66444310
66444332
66444334
66444344
66444346
66444360
66444362
66444380
66444416
66444418
66444421
66444423
66444431
66444432
66444434
66444445
66444447
66444452
66444454
66444462
66444469
66444471
66444488
66444490
66444533
66444535
66444553
66444555
66444560
66444562
66444568
66444570
66444588
66444590
66444593
66444595
66444601
66444603
66444606
66444640
66444642
66444660
66444662
66444676
66444678
66444688
66444690
66444712
66444716
66444718
66444737
66444739
66444769
66444771
66444788
66444790
66444792
66444794
66444816
66444818
66444828
66444830
66444844
66444846
66444864
66444866
66444900
66444902
66444905
66444907
66444913
66444915
66444918
66444929
66444931
66444936
66444938
66444944
66444953
66444955
66444972
66444974
66445019
66445037
66445039
66445044
66445046
66445052
66445054
66445072
66445074
66445077
66445079
66445085
66445087
66445088
66445126
66445144
66445146
66445160
66445162
66445172
66445196
66445198
66445200
66445202
66445221
66445223
66445253
66445255
66445272
66445274
66445276
66445278
66445300
66445302
66445312
66445314
66445330
66445348
66445350
66445384
66445386
66445389
66445391
66445397
66445399
66445400
66445402
66445413
66445415
66445420
66445422
66445428
66445430
66445439
66445456
66445458
66445501
66445503
66445521
66445523
66445528
66445530
66445536
66445538
66445556
66445558
66445561
66445563
66445569
66445572
66445574
66445608
66445610
66445628
66445630
66445646
66445656
66445658
66445680
66445682
66445684
66445686
66445705
66445707
66445737
66445756
66445758
66445760
66445762
66445786
66445796
66445798
66445812
66445814
66445832
66445834
66445868
66445870
66445873
66445875
66445881
66445883
66445884
66445897
66445899
66445904
66445912
66445914
66445921
66445923
66445940
66445942
66445985
66446005
66446007
66446012
66446014
66446020
66446022
66446040
66446042
66446045
66446047
66446053
66446055
66446056
66446058
66446092
66446094
66446112
66446128
66446130
66446140
66446142
66446166
66446168
66446170
66446189
66446191
66446221
66446223
66446242
66446244
66446246
66446268
66446270
66446280
66446296
66446298
66446316
66446318
66446352
66446354
66446357
66446359
66446365
66446368
66446370
66446381
66446383
66446388
66446390
66446396
66446398
66446405
66446407
66446424
66446426
66446469
66446471
66446489
66446491
66446496
66446498
66446504
66446506
66446524
66446526
66446529
66446537
66446539
66446540
66446542
66446576
66446578
66446596
66446598
66446612
66446624
66446626
66446648
66446650
66446654
66446673
66446675
66446705
66446707
66446724
66446726
66446730
66446752
66446754
66446764
66446766
66446780
66446800
66446802
66446836
66446838
66446841
66446843
66446849
66446851
66446852
66446854
66446865
66446872
66446874
66446880
66446882
66446889
66446891
66446908
66446910
66446953
66446955
66446973
66446975
66446980
66446982
66446988
66447008
66447013
66447015
66447021
66447023
66447024
66447026
66447060
66447062
66447080
66447082
66447096
66447098
66447110
66447132
66447134
66447136
66447138
66447157
66447189
66447191
66447208
66447210
66447212
66447214
66447236
66447238
66447250
66447264
66447266
66447284
66447286
66447320
66447322
66447325
66447333
66447335
66447336
66447338
66447349
66447351
66447356
66447358
66447364
66447366
66447373
66447375
66447392
66447394
66447437
66447439
66447459
66447464
66447466
66447472
66447474
66447492
66447494
66447497
66447499
66447505
66447507
66447508
66447510
66447544
66447546
66447566
66447580
66447582
66447592
66447594
66447616
66447618
66447620
66447622
66447641
66447643
66447673
66447675
66447692
66447694
66447696
66447698
66447720
66447732
66447734
66447748
66447750
66447770
66447804
66447809
66447811
66447817
66447819
66447820
66447822
66447835
66447840
66447842
66447848
66447850
66447857
66447859
66447876
66447878
66447921
66447923
66447941
66447943
66447948
66447956
66447958
66447978
66447981
66447983
66447989
66447991
66447992
66447994
66448028
66448030
66448048
66448050
66448064
66448066
66448076
66448078
66448100
66448102
66448104
66448106
66448125
66448127
66448157
66448159
66448176
66448178
66448180
66448204
66448206
66448216
66448218
66448232
66448234
66448252
66448254
66448290
66448293
66448295
66448301
66448303
66448304
66448306
66448317
66448319
66448324
66448326
66448332
66448334
66448341
66448343
66448360
66448362
66448405
66448407
66448425
66448427
66448434
66448440
66448442
66448460
66448462
66448467
66448473
66448475
66448476
66448478
66448512
66448532
66448534
66448548
66448550
66448560
66448562
66448584
66448586
66448588
66448590
66448609
66448611
66448641
66448643
66448660
66448664
66448666
66448688
66448690
66448700
66448702
66448716
66448718
66448736
66448738
66448772
66448774
66448779
66448785
66448787
66448788
66448790
66448801
66448803
66448810
66448816
66448818
66448825
66448827
66448849
66448851
66448885
66448887
66448997
66449017
66449019
66449037
66449039
66449041
66449043
66449095
66449127
66449177
66449179
66449181
66449183
66449201
66449203
66449221
66449328
66449330
66449333
66449335
66449369
66449371
66449481
66449483
66449501
66449503
66449521
66449523
66449525
66449527
66449577
66449579
66449609
66449611
66449661
66449663
66449665
66449667
66449685
66449687
66449705
66449707
66449812
66449814
66449817
66449819
66449853
66449855
66449967
66449985
66449987
66450005
66450007
66450009
66450011
66450061
66450063
66450093
66450095
66450145
66450147
66450149
66450151
66450171
66450189
66450191
66450296
66450298
66450301
66450339
66450449
66450451
66450469
66450471
66450489
66450493
66450495
66450545
66450547
66450577
66450579
66450629
66450631
66450633
66450635
66450653
66450655
66450673
66450675
66450780
66450782
66450785
66450787
66450821
66450823
66450933
66450935
66450953
66450973
66450975
66450979
66451029
66451031
66451061
66451113
66451115
66451119
66451137
66451139
66451157
66451159
66451264
66451266
66451269
66451271
66451305
66451307
66451417
66451419
66451437
66451439
66451457
66451459
66451461
66451463
66451513
66451515
66451545
66451547
66451597
66451601
66451603
66451621
66451623
66451641
66451643
66451748
66451750
66451753
66451755
66451789
66451791
66451901
66451903
66451921
66451923
66451941
66451943
66451945
66451997
66451999
66452029
66452031
66452081
66452083
66452085
66452087
66452105
66452107
66452125
66452127
66452232
66452234
66452237
66452239
66452273
66452275
66452385
66452387
66452405
66452407
66452427
66452429
66452431
66452481
66452513
66452515
66452567
66452569
66452571
66452589
66452609
66452611
66452716
66452718
66452723
66452757
66452869
66452871
66452889
66452891
66452909
66452911
66452913
66452915
66452965
66452967
66452997
66452999
66453049
66453051
66453053
66453073
66453075
66453093
66453095
66453200
66453202
66453205
66453207
66453241
66453243
66453353
66453355
66453375
66453393
66453395
66453397
66453399
66453449
66453451
66453481
66453483
66453533
66453535
66453537
66453539
66453557
66453559
66453579
66453684
66453686
66453689
66453691
66453725
66453727
66453837
66453839
66453857
66453859
66453877
66453879
66453881
66453883
66453933
66453935
66453965
66453967
66454017
66454019
66454021
66454023
66454041
66454043
66454061
66454063
66454185
66454187
66454197
66454199
66454305
66454307
66454313
66454315
66454349
66454351
66454377
66454419
66454451
66454489
66454517
66454519
66454553
66454555
66454561
66454563
66454652
66454654
66454669
66454671
66454681
66454683
66454789
66454791
66454797
66454799
66454835
66454861
66454863
66454901
66454903
66454933
66454935
66454975
66455001
66455003
66455037
66455039
66455045
66455047
66455136
66455138
66455155
66455165
66455273
66455275
66455281
66455283
66455317
66455319
66455345
66455347
66455385
66455387
66455417
66455419
66455457
66455459
66455485
66455521
66455523
66455529
66455531
66455620
66455622
66455637
66455639
66455649
66455651
66455757
66455759
66455765
66455767
66455801
66455803
66455829
66455831
66455869
66455871
66455901
66455903
66455941
66455943
66455969
66455971
66456005
66456007
66456013
66456104
66456106
66456121
66456123
66456133
66456135
66456241
66456243
66456249
66456251
66456285
66456287
66456313
66456315
66456353
66456355
66456385
66456425
66456427
66456453
66456455
66456489
66456497
66456499
66456588
66456590
66456605
66456607
66456617
66456619
66456727
66456733
66456735
66456769
66456771
66456797
66456799
66456837
66456839
66456869
66456871
66456909
66456911
66456937
66456939
66456975
66456981
66456983
66457072
66457074
66457089
66457091
66457101
66457103
66457209
66457211
66457219
66457253
66457255
66457281
66457283
66457321
66457323
66457353
66457355
66457393
66457395
66457421
66457423
66457457
66457459
66457467
66457556
66457558
66457573
66457575
66457585
66457587
66457693
66457695
66457701
66457737
66457739
66457765
66457767
66457805
66457837
66457839
66457877
66457879
66457905
66457907
66457941
66457943
66457949
66457951
66458040
66458042
66458057
66458059
66458069
66458071
66458177
66458185
66458187
66458221
66458223
66458249
66458251
66458289
66458291
66458321
66458323
66458361
66458363
66458389
66458391
66458425
66458427
66458433
66458435
66458524
66458526
66458541
66458555
66458661
66458663
66458669
66458671
66458705
66458733
66458735
66458773
66458775
66458805
66458807
66458845
66458847
66458873
66458875
66458909
66458911
66458917
66458919
66459008
66459010
66459025
66459027
66459037
66459039
66459145
66459147
66459153
66459155
66459189
66459191
66459219
66459257
66459259
66459289
66459291
66459329
66459331
66459359
66459393
66459395
66459401
66459403
66459505
66459507
66459525
66459527
66459625
66459627
66459641
66459643
66459681
66459683
66459693
66459695
66459743
66459775
66459821
66459823
66459833
66459835
66459845
66459847
66459873
66459875
66459976
66459978
66459989
66460011
66460109
66460111
66460125
66460127
66460165
66460167
66460177
66460179
66460225
66460227
66460257
66460259
66460305
66460307
66460317
66460319
66460329
66460331
66460357
66460460
66460462
66460473
66460475
66460493
66460495
66460593
66460595
66460609
66460611
66460649
66460651
66460661
66460663
66460709
66460711
66460741
66460743
66460789
66460791
66460801
66460803
66460813
66460815
66460841
66460843
66460944
66460946
66460957
66460959
66460977
66460979
66461077
66461079
66461095
66461133
66461135
66461145
66461147
66461193
66461195
66461225
66461227
66461273
66461275
66461285
66461287
66461299
66461325
66461327
66461428
66461430
66461441
66461443
66461461
66461463
66461561
66461563
66461577
66461579
66461617
66461629
66461631
66461677
66461679
66461709
66461757
66461759
66461769
66461771
66461781
66461783
66461809
66461811
66461912
66461914
66461925
66461927
66461945
66461947
# 1430.78secs	# 1437 balance functions. Density 0.0653182
