# prime 11
# degree 2
# input variables 3
# output variables 7
# p = 11
# n = 7
# smalldomain p^m 1331
# domain p^n 19487171
#	 p^2 = 121
#	 p^3 = 1331
#	 p^4 = 14641
#	 p^5 = 161051
#	 p^6 = 1771561
#	 p^7 = 19487171
#	 p^8 = 214358881
#	 p^9 = 2357947691
# dimension of the chunk  6000
# number of the chunk  2228 of 12991 blocks
# functions to test 6000
# startcode = 13368000  :: endcode = 13374000:: fdomain = 6000
13368000
13368005
13368007
13368008
13368010
13368042
13368044
13368046
13368080
13368082
13368160
13368162
13368164
13368166
13368196
13368198
13368201
13368203
13368204
13368206
13368225
13368227
13368232
13368234
13368244
13368246
13368253
13368255
13368257
13368259
13368268
13368270
13368284
13368286
13368297
13368299
13368304
13368306
13368326
13368364
13368366
13368386
13368389
13368391
13368393
13368395
13368404
13368406
13368420
13368422
13368437
13368439
13368444
13368446
13368456
13368458
13368465
13368467
13368484
13368486
13368489
13368492
13368494
13368524
13368528
13368530
13368585
13368587
13368589
13368591
13368609
13368641
13368643
13368687
13368789
13368791
13368809
13368811
13368849
13368851
13368869
13368871
13368975
13369005
13369017
13369019
13369048
13369050
13369069
13369071
13369073
13369075
13369093
13369095
13369125
13369169
13369273
13369275
13369293
13369295
13369333
13369335
13369353
13369355
13369457
13369459
13369489
13369491
13369501
13369503
13369532
13369534
13369553
13369557
13369559
13369577
13369579
13369611
13369653
13369655
13369757
13369759
13369777
13369779
13369817
13369837
13369839
13369941
13369943
13369975
13369985
13369987
13370016
13370018
13370037
13370039
13370043
13370061
13370063
13370093
13370095
13370137
13370139
13370241
13370243
13370261
13370263
13370301
13370303
13370321
13370323
13370425
13370427
13370457
13370459
13370469
13370471
13370500
13370502
13370521
13370523
13370525
13370527
13370545
13370547
13370577
13370579
13370621
13370623
13370725
13370727
13370747
13370785
13370787
13370909
13370911
13370941
13370943
13370953
13370955
13370984
13370986
13371005
13371007
13371009
13371011
13371029
13371031
13371061
13371063
13371105
13371107
13371209
13371211
13371229
13371231
13371269
13371271
13371289
13371291
13371393
13371395
13371425
13371427
13371437
13371439
13371468
13371470
13371489
13371491
13371493
13371495
13371513
13371515
13371545
13371547
13371589
13371591
13371693
13371695
13371713
13371715
13371753
13371755
13371773
13371775
13371877
13371879
13371909
13371911
13371921
13371923
13371952
13371954
13371973
13371975
13371977
13371979
13371997
13371999
13372029
13372031
13372073
13372075
13372197
13372199
13372239
13372257
13372259
13372361
13372363
13372393
13372395
13372405
13372407
13372436
13372438
13372459
13372461
13372463
13372481
13372483
13372513
13372515
13372557
13372559
13372661
13372663
13372681
13372683
13372721
13372723
13372741
13372743
13372845
13372847
13372877
13372879
13372889
13372891
13372920
13372922
13372941
13372943
13372945
13372967
13372997
13372999
13373041
13373043
13373145
13373147
13373165
13373205
13373207
13373225
13373227
13373329
13373331
13373361
13373363
13373375
13373404
13373406
13373425
13373427
13373429
13373431
13373449
13373451
13373481
13373483
13373525
13373527
13373629
13373631
13373649
13373651
13373689
13373691
13373709
13373711
13373813
13373845
13373847
13373857
13373944
13373946
13373952
13373954
# 912.084secs	# 330 balance functions. Density 0.055
