# prime 11
# degree 2
# input variables 3
# output variables 7
# p = 11
# n = 7
# smalldomain p^m 1331
# domain p^n 19487171
#	 p^2 = 121
#	 p^3 = 1331
#	 p^4 = 14641
#	 p^5 = 161051
#	 p^6 = 1771561
#	 p^7 = 19487171
#	 p^8 = 214358881
#	 p^9 = 2357947691
# dimension of the chunk  6000
# number of the chunk  2676 of 12991 blocks
# functions to test 6000
# startcode = 16056000  :: endcode = 16062000:: fdomain = 6000
16056000
16056002
16056024
16056026
16056052
16056054
16056080
16056082
16056092
16056094
16056097
16056099
16056101
16056103
16056106
16056148
16056150
16056156
16056158
16056181
16056183
16056189
16056191
16056204
16056206
16056208
16056210
16056216
16056218
16056229
16056231
16056249
16056251
16056268
16056270
16056272
16056274
16056289
16056291
16056320
16056322
16056330
16056372
16056374
16056377
16056379
16056381
16056383
16056384
16056386
16056396
16056398
16056424
16056426
16056452
16056454
16056476
16056478
16056484
16056486
16056508
16056510
16056536
16056538
16056564
16056576
16056578
16056581
16056583
16056585
16056587
16056588
16056590
16056632
16056634
16056642
16056665
16056667
16056675
16056688
16056690
16056692
16056694
16056700
16056702
16056713
16056715
16056733
16056735
16056752
16056754
16056758
16056773
16056775
16056781
16056783
16056804
16056806
16056812
16056814
16056856
16056858
16056861
16056863
16056867
16056868
16056870
16056880
16056882
16056908
16056910
16056936
16056938
16056960
16056962
16056968
16056970
16056992
16056994
16057020
16057022
16057048
16057050
16057060
16057062
16057065
16057071
16057072
16057074
16057116
16057124
16057126
16057149
16057151
16057157
16057159
16057172
16057174
16057178
16057289
16057291
16057297
16057369
16057371
16057389
16057391
16057425
16057427
16057441
16057443
16057457
16057459
16057473
16057475
16057509
16057511
16057529
16057531
16057601
16057609
16057611
16057668
16057670
16057773
16057781
16057783
16057853
16057855
16057873
16057875
16057909
16057911
16057925
16057927
16057941
16057943
16057957
16057959
16057993
16057995
16058013
16058015
16058085
16058087
16058093
16058095
16058152
16058154
16058257
16058259
16058267
16058337
16058339
16058357
16058359
16058393
16058395
16058409
16058411
16058425
16058427
16058441
16058443
16058477
16058479
16058497
16058499
16058569
16058571
16058579
16058636
16058638
16058741
16058743
16058749
16058751
16058821
16058823
16058841
16058843
16058877
16058879
16058893
16058909
16058911
16058925
16058927
16058961
16058981
16058983
16059053
16059055
16059061
16059063
16059120
16059122
16059225
16059227
16059233
16059235
16059305
16059307
16059325
16059327
16059361
16059363
16059379
16059393
16059395
16059411
16059445
16059447
16059465
16059467
16059537
16059539
16059545
16059547
16059604
16059606
16059709
16059711
16059717
16059719
16059789
16059811
16059845
16059861
16059863
16059877
16059879
16059893
16059895
16059929
16059931
16059951
16060021
16060023
16060029
16060031
16060088
16060090
16060193
16060195
16060201
16060203
16060275
16060293
16060295
16060329
16060331
16060345
16060347
16060361
16060363
16060377
16060415
16060433
16060505
16060507
16060513
16060515
16060572
16060574
16060677
16060679
16060685
16060687
16060757
16060759
16060777
16060779
16060815
16060829
16060831
16060847
16060861
16060863
16060897
16060899
16060917
16060919
16060989
16060991
16060997
16060999
16061056
16061058
16061161
16061163
16061169
16061171
16061241
16061243
16061261
16061297
16061299
16061313
16061315
16061329
16061345
16061347
16061381
16061383
16061401
16061403
16061473
16061475
16061481
16061483
16061540
16061542
16061647
16061653
16061655
16061725
16061727
16061745
16061747
16061781
16061783
16061797
16061799
16061813
16061815
16061829
16061831
16061865
16061867
16061885
16061887
16061959
16061965
16061967
# 826.86secs	# 374 balance functions. Density 0.0623333
