# prime 11
# degree 2
# input variables 3
# output variables 7
# p = 11
# n = 7
# smalldomain p^m 1331
# domain p^n 19487171
#	 p^2 = 121
#	 p^3 = 1331
#	 p^4 = 14641
#	 p^5 = 161051
#	 p^6 = 1771561
#	 p^7 = 19487171
#	 p^8 = 214358881
#	 p^9 = 2357947691
# dimension of the chunk  22000
# number of the chunk  2959 of 3543 blocks
# functions to test 22000
# startcode = 65098000  :: endcode = 65120000:: fdomain = 22000
65098000
65098002
65098061
65098063
65098064
65098066
65098068
65098070
65098075
65098092
65098094
65098109
65098111
65098113
65098115
65098128
65098148
65098150
65098162
65098184
65098212
65098214
65098221
65098223
65098232
65098234
65098252
65098254
65098265
65098267
65098276
65098278
65098296
65098298
65098316
65098318
65098344
65098346
65098368
65098370
65098382
65098400
65098402
65098417
65098419
65098421
65098423
65098436
65098438
65098457
65098459
65098460
65098462
65098464
65098466
65098471
65098484
65098486
65098545
65098547
65098548
65098550
65098552
65098554
65098557
65098559
65098576
65098578
65098593
65098597
65098599
65098612
65098614
65098632
65098634
65098644
65098646
65098670
65098696
65098698
65098705
65098707
65098716
65098718
65098736
65098738
65098749
65098760
65098762
65098780
65098782
65098802
65098828
65098830
65098852
65098854
65098864
65098866
65098884
65098886
65098901
65098903
65098905
65098907
65098920
65098941
65098943
65098944
65098946
65098948
65098953
65098955
65098968
65098970
65099029
65099032
65099034
65099036
65099038
65099041
65099043
65099060
65099062
65099077
65099079
65099081
65099083
65099096
65099098
65099116
65099118
65099128
65099152
65099154
65099180
65099182
65099189
65099191
65099200
65099202
65099222
65099233
65099235
65099244
65099246
65099266
65099284
65099312
65099314
65099336
65099338
65099348
65099350
65099368
65099370
65099385
65099389
65099391
65099404
65099406
65099425
65099427
65099428
65099430
65099432
65099434
65099437
65099439
65099452
65099454
65099513
65099515
65099516
65099518
65099520
65099522
65099525
65099527
65099544
65099546
65099561
65099563
65099565
65099580
65099582
65099600
65099602
65099612
65099614
65099636
65099638
65099664
65099673
65099675
65099686
65099704
65099706
65099717
65099719
65099730
65099748
65099750
65099768
65099770
65099796
65099798
65099820
65099832
65099834
65099852
65099854
65099869
65099871
65099873
65099875
65099888
65099890
65099909
65099911
65099912
65099914
65099916
65099918
65099921
65099936
65099938
65099997
65099999
65100000
65100004
65100006
65100009
65100011
65100028
65100045
65100047
65100049
65100051
65100064
65100066
65100084
65100086
65100096
65100098
65100120
65100122
65100150
65100157
65100168
65100170
65100188
65100190
65100201
65100203
65100212
65100214
65100232
65100234
65100252
65100254
65100282
65100304
65100306
65100316
65100318
65100336
65100338
65100353
65100355
65100357
65100372
65100374
65100393
65100395
65100396
65100398
65100400
65100402
65100405
65100407
65100420
65100422
65100483
65100484
65100486
65100488
65100490
65100493
65100495
65100512
65100514
65100529
65100531
65100533
65100535
65100548
65100550
65100570
65100580
65100582
65100604
65100606
65100632
65100634
65100641
65100643
65100652
65100654
65100672
65100674
65100685
65100687
65100696
65100698
65100716
65100718
65100736
65100738
65100764
65100790
65100800
65100802
65100820
65100837
65100839
65100841
65100843
65100856
65100858
65100879
65100880
65100882
65100884
65100886
65100889
65100891
65100904
65100906
65100965
65100967
65100968
65100970
65100972
65100977
65100979
65100996
65100998
65101013
65101015
65101017
65101019
65101034
65101052
65101054
65101064
65101066
65101088
65101090
65101116
65101118
65101125
65101127
65101136
65101138
65101156
65101158
65101169
65101171
65101180
65101182
65101200
65101220
65101222
65101248
65101250
65101272
65101274
65101284
65101286
65101304
65101306
65101321
65101323
65101325
65101327
65101342
65101361
65101363
65101364
65101366
65101368
65101370
65101373
65101375
65101388
65101390
65101449
65101451
65101454
65101456
65101458
65101461
65101463
65101480
65101482
65101499
65101501
65101503
65101516
65101518
65101536
65101548
65101550
65101572
65101574
65101600
65101602
65101609
65101611
65101620
65101622
65101640
65101642
65101653
65101655
65101664
65101684
65101686
65101704
65101706
65101732
65101734
65101756
65101758
65101768
65101770
65101788
65101790
65101807
65101809
65101811
65101824
65101826
65101845
65101847
65101850
65101852
65101854
65101857
65101859
65101925
65101927
65101928
65101930
65101948
65101950
65101953
65101955
65101973
65101975
65101980
65101982
65101984
65101986
65101993
65101995
65102012
65102014
65102040
65102042
65102052
65102054
65102088
65102090
65102095
65102108
65102110
65102120
65102122
65102139
65102152
65102154
65102164
65102166
65102184
65102186
65102220
65102222
65102232
65102234
65102260
65102262
65102281
65102283
65102288
65102290
65102292
65102294
65102301
65102303
65102321
65102323
65102324
65102326
65102344
65102346
65102349
65102351
65102356
65102358
65102409
65102411
65102412
65102414
65102432
65102434
65102437
65102439
65102457
65102459
65102464
65102468
65102470
65102477
65102479
65102496
65102498
65102524
65102526
65102536
65102538
65102572
65102574
65102577
65102579
65102592
65102594
65102606
65102621
65102623
65102636
65102638
65102650
65102668
65102670
65102704
65102706
65102716
65102718
65102744
65102746
65102765
65102767
65102772
65102774
65102776
65102778
65102785
65102787
65102805
65102807
65102808
65102810
65102828
65102833
65102835
65102840
65102842
65102893
65102898
65102916
65102918
65102921
65102923
65102943
65102948
65102950
65102952
65102954
65102961
65102963
65102980
65102982
65103008
65103010
65103020
65103022
65103056
65103061
65103063
65103076
65103078
65103088
65103090
65103105
65103107
65103120
65103122
65103132
65103134
65103152
65103154
65103188
65103190
65103200
65103202
65103228
65103230
65103251
65103256
65103260
65103262
65103269
65103271
65103289
65103291
65103294
65103312
65103314
65103317
65103319
65103324
65103326
65103377
65103379
65103380
65103382
65103400
65103402
65103405
65103425
65103427
65103432
65103434
65103436
65103438
65103445
65103464
65103466
65103492
65103494
65103504
65103506
65103542
65103545
65103547
65103560
65103562
65103572
65103574
65103589
65103591
65103604
65103616
65103618
65103636
65103638
65103674
65103684
65103712
65103714
65103733
65103735
65103740
65103742
65103744
65103746
65103753
65103755
65103773
65103775
65103776
65103778
65103796
65103798
65103801
65103803
65103808
65103810
65103861
65103863
65103864
65103866
65103884
65103886
65103889
65103891
65103909
65103911
65103916
65103918
65103922
65103929
65103931
65103948
65103950
65103976
65103978
65103988
65103990
65104024
65104026
65104029
65104031
65104044
65104046
65104056
65104058
65104073
65104088
65104090
65104100
65104102
65104120
65104122
65104156
65104168
65104170
65104196
65104217
65104219
65104224
65104226
65104230
65104237
65104257
65104259
65104260
65104262
65104280
65104282
65104285
65104287
65104292
65104294
65104347
65104348
65104350
65104368
65104370
65104373
65104375
65104393
65104395
65104400
65104402
65104404
65104406
65104413
65104415
65104434
65104460
65104462
65104472
65104474
65104508
65104510
65104513
65104515
65104528
65104530
65104540
65104542
65104557
65104559
65104572
65104574
65104584
65104604
65104606
65104640
65104642
65104654
65104680
65104682
65104701
65104703
65104708
65104710
65104712
65104714
65104721
65104723
65104743
65104744
65104764
65104766
65104769
65104771
65104776
65104778
65104829
65104831
65104832
65104834
65104852
65104859
65104877
65104879
65104884
65104886
65104888
65104890
65104897
65104899
65104916
65104918
65104946
65104956
65104958
65104992
65104994
65104997
65104999
65105012
65105024
65105026
65105041
65105043
65105056
65105058
65105068
65105070
65105088
65105090
65105124
65105126
65105136
65105138
65105166
65105185
65105187
65105192
65105194
65105196
65105198
65105205
65105207
65105225
65105227
65105228
65105230
65105248
65105250
65105255
65105260
65105262
65105313
65105315
65105316
65105318
65105336
65105338
65105341
65105343
65105361
65105370
65105372
65105374
65105381
65105383
65105400
65105428
65105430
65105440
65105476
65105478
65105481
65105496
65105498
65105508
65105510
65105525
65105527
65105540
65105542
65105552
65105554
65105572
65105574
65105608
65105610
65105620
65105622
65105648
65105650
65105669
65105671
65105678
65105680
65105682
65105689
65105691
65105709
65105711
65105712
65105714
65105732
65105734
65105737
65105739
65105744
65105746
65105797
65105799
65105800
65105802
65105820
65105822
65105825
65105827
65105845
65105847
65105852
65105854
65105856
65105858
65105865
65105867
65105884
65105886
65105912
65105926
65105960
65105962
65105965
65105967
65105980
65105982
65105992
65106009
65106011
65106024
65106026
65106036
65106038
65106058
65106092
65106094
65106104
65106106
65106132
65106134
65106153
65106160
65106162
65106164
65106166
65106173
65106175
65106193
65106196
65106198
65106216
65106218
65106221
65106223
65106228
65106230
65106281
65106283
65106284
65106286
65106306
65106309
65106311
65106329
65106331
65106336
65106338
65106340
65106351
65106368
65106370
65106396
65106398
65106408
65106410
65106444
65106446
65106449
65106451
65106464
65106466
65106476
65106478
65106493
65106495
65106508
65106510
65106520
65106522
65106540
65106576
65106578
65106588
65106590
65106616
65106618
65106637
65106639
65106644
65106646
65106648
65106650
65106659
65106677
65106679
65106680
65106682
65106702
65106705
65106712
65106714
65106765
65106767
65106768
65106788
65106790
65106793
65106795
65106813
65106815
65106820
65106822
65106824
65106826
65106833
65106835
65106852
65106854
65106880
65106882
65106892
65106894
65106928
65106930
65106933
65106935
65106950
65106960
65106962
65106977
65106979
65106994
65107004
65107006
65107024
65107026
65107060
65107062
65107072
65107074
65107100
65107102
65107121
65107123
65107128
65107130
65107132
65107141
65107143
65107161
65107163
65107164
65107166
65107184
65107186
65107189
65107191
65107248
65107261
65107263
65107265
65107267
65107276
65107278
65107293
65107295
65107300
65107312
65107314
65107321
65107323
65107348
65107350
65107352
65107384
65107386
65107404
65107419
65107420
65107422
65107456
65107463
65107464
65107500
65107502
65107516
65107536
65107538
65107568
65107572
65107574
65107601
65107603
65107608
65107610
65107620
65107629
65107631
65107644
65107646
65107657
65107659
65107661
65107663
65107672
65107680
65107682
65107732
65107734
65107745
65107747
65107749
65107751
65107760
65107762
65107777
65107779
65107784
65107786
65107796
65107798
65107805
65107807
65107832
65107834
65107836
65107838
65107868
65107870
65107890
65107901
65107903
65107904
65107906
65107940
65107942
65107945
65107947
65107948
65107950
65107984
65107986
65108000
65108002
65108022
65108052
65108054
65108056
65108058
65108085
65108087
65108092
65108104
65108106
65108113
65108115
65108128
65108130
65108141
65108143
65108145
65108156
65108158
65108164
65108166
65108216
65108218
65108231
65108233
65108235
65108244
65108246
65108261
65108263
65108268
65108270
65108280
65108282
65108289
65108318
65108320
65108322
65108352
65108354
65108372
65108374
65108385
65108387
65108388
65108390
65108424
65108426
65108429
65108431
65108432
65108434
65108468
65108470
65108484
65108486
65108504
65108538
65108540
65108542
65108569
65108571
65108576
65108578
65108588
65108590
65108597
65108599
65108612
65108614
65108627
65108629
65108631
65108640
65108642
65108648
65108650
65108702
65108713
65108715
65108717
65108719
65108728
65108730
65108747
65108752
65108754
65108764
65108766
65108773
65108775
65108800
65108802
65108804
65108806
65108836
65108838
65108856
65108858
65108869
65108871
65108872
65108908
65108910
65108913
65108915
65108916
65108918
65108952
65108954
65108968
65108970
65108988
65108990
65109020
65109022
65109024
65109026
65109055
65109060
65109062
65109072
65109074
65109081
65109098
65109109
65109111
65109113
65109115
65109124
65109126
65109132
65109134
65109184
65109186
65109197
65109199
65109201
65109203
65109212
65109214
65109229
65109231
65109236
65109238
65109248
65109250
65109257
65109259
65109284
65109288
65109290
65109320
65109322
65109340
65109342
65109353
65109355
65109356
65109358
65109394
65109397
65109400
65109402
65109438
65109452
65109454
65109472
65109474
65109504
65109506
65109508
65109510
65109537
65109539
65109544
65109546
65109556
65109558
65109565
65109567
65109580
65109582
65109593
65109595
65109597
65109599
65109608
65109610
65109616
65109618
65109668
65109670
65109681
65109683
65109685
65109687
65109696
65109713
65109715
65109720
65109722
65109734
65109741
65109743
65109768
65109770
65109772
65109774
65109804
65109806
65109824
65109826
65109837
65109839
65109840
65109842
65109876
65109878
65109881
65109883
65109884
65109886
65109920
65109922
65109936
65109938
65109956
65109958
65109988
65109990
65109992
65109994
65110021
65110023
65110028
65110030
65110042
65110049
65110051
65110064
65110066
65110077
65110081
65110083
65110092
65110094
65110100
65110102
65110152
65110154
65110165
65110167
65110169
65110180
65110182
65110197
65110199
65110206
65110216
65110218
65110225
65110227
65110252
65110254
65110256
65110258
65110288
65110290
65110308
65110310
65110321
65110323
65110324
65110326
65110360
65110362
65110365
65110367
65110368
65110370
65110404
65110406
65110420
65110422
65110440
65110442
65110472
65110474
65110476
65110478
65110505
65110507
65110514
65110524
65110526
65110533
65110535
65110548
65110561
65110563
65110565
65110567
65110576
65110578
65110584
65110586
65110636
65110638
65110649
65110651
65110653
65110655
65110664
65110666
65110681
65110683
65110688
65110690
65110700
65110702
65110709
65110711
65110736
65110738
65110740
65110742
65110772
65110774
65110792
65110794
65110805
65110810
65110844
65110846
65110849
65110851
65110854
65110888
65110890
65110904
65110906
65110924
65110926
65110956
65110958
65110960
65110989
65110991
65110996
65110998
65111008
65111010
65111017
65111019
65111032
65111034
65111045
65111047
65111049
65111051
65111060
65111062
65111068
65111070
65111120
65111122
65111133
65111135
65111137
65111139
65111150
65111165
65111172
65111174
65111184
65111186
65111195
65111220
65111222
65111224
65111226
65111256
65111258
65111276
65111278
65111289
65111291
65111292
65111294
65111328
65111330
65111333
65111335
65111336
65111338
65111372
65111388
65111390
65111408
65111410
65111440
65111442
65111444
65111446
65111473
65111475
65111480
65111482
65111492
65111494
65111503
65111516
65111518
65111529
65111531
65111533
65111535
65111546
65111552
65111554
65111604
65111606
65111617
65111619
65111623
65111632
65111634
65111649
65111651
65111656
65111658
65111668
65111670
65111677
65111679
65111704
65111706
65111710
65111740
65111760
65111762
65111773
65111775
65111776
65111778
65111812
65111814
65111817
65111819
65111820
65111822
65111856
65111858
65111872
65111874
65111892
65111894
65111924
65111926
65111930
65111957
65111964
65111966
65111976
65111978
65111985
65111987
65112000
65112002
65112013
65112015
65112019
65112028
65112030
65112036
65112038
65112088
65112090
65112101
65112105
65112107
65112116
65112118
65112133
65112135
65112140
65112142
65112152
65112161
65112163
65112188
65112190
65112192
65112194
65112226
65112244
65112246
65112257
65112259
65112260
65112262
65112296
65112298
65112301
65112303
65112304
65112306
65112340
65112342
65112358
65112376
65112378
65112408
65112410
65112412
65112414
65112441
65112443
65112448
65112450
65112460
65112462
65112469
65112471
65112484
65112486
65112497
65112499
65112501
65112503
65112512
65112514
65112541
65112543
65112545
65112547
65112669
65112681
65112683
65112709
65112711
65112729
65112731
65112743
65112787
65112841
65112843
65112861
65112863
65112889
65112891
65112901
65113004
65113006
65113025
65113027
65113029
65113031
65113153
65113155
65113165
65113167
65113193
65113195
65113213
65113215
65113225
65113227
65113269
65113271
65113325
65113327
65113345
65113347
65113373
65113375
65113385
65113387
65113488
65113490
65113509
65113511
65113513
65113515
65113637
65113639
65113651
65113677
65113679
65113697
65113699
65113709
65113711
65113753
65113755
65113809
65113811
65113829
65113831
65113857
65113859
65113871
65113972
65113974
65113997
65113999
65114121
65114123
65114133
65114135
65114161
65114181
65114183
65114193
65114195
65114237
65114239
65114293
65114295
65114313
65114315
65114341
65114343
65114353
65114355
65114456
65114458
65114477
65114479
65114481
65114483
65114605
65114607
65114617
65114647
65114665
65114667
65114677
65114679
65114721
65114779
65114797
65114799
65114825
65114827
65114837
65114839
65114940
65114942
65114961
65114963
65114965
65114967
65115089
65115091
65115101
65115103
65115129
65115131
65115149
65115151
65115161
65115163
65115205
65115207
65115261
65115281
65115283
65115309
65115311
65115321
65115323
65115424
65115426
65115445
65115447
65115449
65115451
65115573
65115575
65115585
65115587
65115613
65115615
65115633
65115645
65115647
65115689
65115691
65115745
65115747
65115765
65115767
65115793
65115795
65115805
65115807
65115908
65115910
65115929
65115931
65115933
65115935
65116057
65116059
65116069
65116071
65116097
65116099
65116119
65116129
65116173
65116175
65116229
65116231
65116251
65116277
65116289
65116291
65116392
65116394
65116413
65116415
65116541
65116543
65116553
65116555
65116581
65116583
65116601
65116603
65116613
65116615
65116657
65116659
65116713
65116715
65116733
65116761
65116763
65116773
65116775
65116876
65116878
65116897
65116899
65116901
65116903
65117027
65117037
65117039
65117065
65117067
65117085
65117087
65117097
65117099
65117141
65117143
65117197
65117199
65117217
65117219
65117247
65117257
65117259
65117360
65117362
65117381
65117383
65117385
65117387
65117509
65117511
65117521
65117523
65117549
65117551
65117569
65117571
65117581
65117583
65117625
65117627
65117681
65117683
65117701
65117703
65117729
65117731
65117741
65117743
65117893
65117895
65117904
65117906
65117916
65117918
65117929
65117931
65117944
65117946
65117949
65117951
65117961
65117963
65117964
65117966
65117980
65117982
65118016
65118018
65118040
65118042
65118044
65118046
65118067
65118072
65118074
65118100
65118102
65118111
65118116
65118118
65118144
65118146
65118172
65118174
65118176
65118178
65118200
65118202
65118236
65118238
65118252
65118254
65118257
65118259
65118269
65118271
65118272
65118274
65118289
65118291
65118300
65118302
65118312
65118314
65118325
65118327
65118328
65118330
65118377
65118379
65118388
65118390
65118400
65118415
65118428
65118430
65118433
65118445
65118447
65118448
65118450
65118464
65118502
65118524
65118526
65118528
65118530
65118549
65118551
65118556
65118558
65118584
65118586
65118593
65118595
65118600
65118602
65118628
65118630
65118656
65118658
65118660
65118662
65118684
65118686
65118722
65118736
65118738
65118741
65118743
65118753
65118755
65118756
65118758
65118773
65118775
65118784
65118786
65118796
65118798
65118811
65118812
65118814
65118861
65118863
65118872
65118874
65118884
65118886
65118897
65118899
65118912
65118917
65118919
65118929
65118931
65118932
65118934
65118948
65118950
65118984
65118986
65119008
65119010
65119012
65119014
65119033
65119035
65119040
65119042
65119070
65119077
65119079
65119084
65119114
65119140
65119142
65119144
65119146
65119168
65119170
65119204
65119206
65119220
65119222
65119225
65119237
65119239
65119240
65119242
65119257
65119268
65119270
65119280
65119282
65119293
65119295
65119296
65119298
65119345
65119347
65119356
65119358
65119368
65119370
65119381
65119383
65119396
65119398
65119401
65119403
65119413
65119415
65119418
65119432
65119434
65119468
65119492
65119494
65119496
65119498
65119517
65119519
65119524
65119526
65119552
65119554
65119561
65119563
65119568
65119570
65119596
65119598
65119624
65119626
65119628
65119630
65119652
65119654
65119688
65119690
65119704
65119709
65119711
65119721
65119723
65119726
65119741
65119743
65119752
65119754
65119764
65119766
65119777
65119779
65119780
65119782
65119829
65119831
65119840
65119854
65119865
65119867
65119880
65119882
65119885
65119887
65119899
65119900
65119902
65119916
65119918
65119952
65119954
65119976
65119978
65119980
# 1536.49secs	# 2199 balance functions. Density 0.0999545
