# prime 11
# degree 2
# input variables 3
# output variables 7
# p = 11
# n = 7
# smalldomain p^m 1331
# domain p^n 19487171
#	 p^2 = 121
#	 p^3 = 1331
#	 p^4 = 14641
#	 p^5 = 161051
#	 p^6 = 1771561
#	 p^7 = 19487171
#	 p^8 = 214358881
#	 p^9 = 2357947691
# dimension of the chunk  6000
# number of the chunk  1688 of 12991 blocks
# functions to test 6000
# startcode = 10128000  :: endcode = 10134000:: fdomain = 6000
10128013
10128015
10128016
10128018
10128020
10128022
10128025
10128027
10128053
10128055
10128057
10128059
10128072
10128074
10128080
10128082
10128100
10128113
10128115
10128124
10128126
10128164
10128166
10128176
10128184
10128186
10128236
10128238
10128248
10128288
10128290
10128301
10128303
10128312
10128314
10128317
10128319
10128332
10128334
10128342
10128357
10128389
10128392
10128394
10128396
10128398
10128401
10128403
10128416
10128418
10128444
10128446
10128452
10128480
10128482
10128497
10128499
10128500
10128502
10128504
10128506
10128509
10128511
10128537
10128539
10128541
10128543
10128556
10128558
10128566
10128584
10128586
10128597
10128599
10128608
10128610
10128648
10128650
10128660
10128662
10128668
10128670
10128722
10128732
10128734
10128772
10128785
10128787
10128796
10128798
10128801
10128803
10128816
10128818
10128824
10128826
10128841
10128843
10128875
10128876
10128878
10128880
10128885
10128887
10128900
10128902
10128928
10128930
10128936
10128938
10128964
10128966
10128983
10128984
10128986
10128988
10128990
10128993
10128995
10129021
10129023
10129025
10129027
10129040
10129042
10129048
10129050
10129068
10129070
10129081
10129083
10129092
10129094
10129134
10129144
10129146
10129152
10129154
10129204
10129206
10129218
10129256
10129258
10129269
10129271
10129280
10129282
10129285
10129287
10129300
10129302
10129308
10129310
10129325
10129327
10129357
10129359
10129360
10129362
10129364
10129366
10129371
10129384
10129386
10129412
10129414
10129420
10129422
10129448
10129450
10129465
10129467
10129468
10129472
10129474
10129479
10129505
10129507
10129509
10129511
10129524
10129526
10129532
10129534
10129552
10129554
10129565
10129567
10129576
10129616
10129618
10129630
10129636
10129638
10129688
10129690
10129700
10129702
10129740
10129742
10129753
10129755
10129764
10129766
10129769
10129771
10129786
10129792
10129794
10129809
10129811
10129841
10129843
10129844
10129846
10129848
10129850
10129853
10129855
10129868
10129870
10129896
10129904
10129906
10129932
10129934
10129949
10129951
10129952
10129954
10129956
10129958
10129961
10129989
10129991
10129993
10130010
10130016
10130018
10130036
10130038
10130049
10130051
10130060
10130062
10130100
10130112
10130114
10130120
10130122
10130172
10130184
10130186
10130224
10130226
10130237
10130239
10130248
10130253
10130255
10130268
10130270
10130276
10130278
10130293
10130295
10130325
10130327
10130328
10130330
10130332
10130334
10130337
10130339
10130354
10130380
10130382
10130390
10130416
10130418
10130433
10130435
10130436
10130438
10130440
10130442
10130445
10130447
10130473
10130475
10130477
10130479
10130492
10130494
10130500
10130502
10130520
10130522
10130533
10130535
10130544
10130546
10130584
10130586
10130596
10130598
10130604
10130606
10130656
10130658
10130668
10130670
10130708
10130710
10130721
10130723
10130732
10130734
10130737
10130739
10130752
10130754
10130760
10130762
10130779
10130809
10130811
10130814
10130816
10130818
10130821
10130823
10130836
10130864
10130866
10130872
10130874
10130900
10130902
10130917
10130919
10130922
10130924
10130926
10130929
10130931
10130959
10130961
10130963
10130976
10130984
10130986
10131004
10131006
10131017
10131019
10131028
10131030
10131068
10131070
10131080
10131082
10131088
10131090
10131140
10131142
10131152
10131154
10131194
10131205
10131207
10131216
10131218
10131221
10131236
10131238
10131244
10131246
10131261
10131263
10131293
10131295
10131296
10131300
10131302
10131305
10131307
10131320
10131322
10131348
10131350
10131356
10131358
10131384
10131386
10131401
10131403
10131404
10131406
10131408
10131410
10131413
10131415
10131441
10131443
10131445
10131447
10131460
10131462
10131468
10131490
10131501
10131512
10131514
10131552
10131554
10131564
10131566
10131616
10131618
10131648
10131650
10131660
10131662
10131680
10131682
10131695
10131704
10131706
10131712
10131714
10131729
10131731
10131733
10131735
10131748
10131750
10131753
10131755
10131785
10131787
10131788
10131790
10131792
10131794
10131820
10131822
10131836
10131838
10131852
10131854
10131880
10131882
10131884
10131886
10131889
10131891
10131921
10131923
10131924
10131926
10131941
10131943
10131945
10131947
10131960
10131962
10131968
10131970
10131983
10131992
10131994
10132012
10132014
10132024
10132026
10132056
10132058
10132100
10132102
10132132
10132134
10132164
10132177
10132188
10132190
10132196
10132198
10132213
10132215
10132217
10132219
10132232
10132234
10132237
10132239
10132269
10132271
10132272
10132274
10132276
10132278
10132304
10132306
10132320
10132322
10132336
10132338
10132364
10132366
10132368
10132370
10132373
10132375
10132405
10132407
10132408
10132410
10132425
10132427
10132429
10132431
10132444
10132446
10132452
10132454
10132465
10132467
10132478
10132496
10132498
10132508
10132510
10132540
10132542
10132584
10132586
10132616
10132618
10132628
10132630
10132648
10132650
10132661
10132663
10132672
10132674
10132680
10132682
10132697
10132699
10132703
10132721
10132753
10132756
10132760
10132762
10132788
10132790
10132804
10132806
10132820
10132822
10132848
10132850
10132854
10132857
10132859
10132889
10132891
10132892
10132894
10132909
10132911
10132915
10132928
10132930
10132936
10132938
10132949
10132951
10132960
10132962
10132980
10132982
10132992
10132994
10133024
10133026
10133068
10133070
10133100
10133102
10133112
10133114
10133132
10133134
10133145
10133147
10133156
10133158
10133164
10133166
10133181
10133183
10133185
10133187
10133200
10133202
10133205
10133207
10133237
10133239
10133240
10133242
10133244
10133246
10133274
10133304
10133332
10133334
10133336
10133338
10133341
10133343
10133373
10133375
10133376
10133378
10133393
10133395
10133397
10133399
10133412
10133414
10133420
10133422
10133433
10133435
10133444
10133446
10133464
10133466
10133476
10133478
10133508
10133510
10133552
10133554
10133584
10133586
10133596
10133598
10133616
10133618
10133629
10133631
10133640
10133642
10133650
10133665
10133667
10133669
10133671
10133684
10133686
10133689
10133691
10133721
10133723
10133724
10133726
10133728
10133730
10133756
10133758
10133772
10133774
10133788
10133790
10133816
10133818
10133820
10133822
10133825
10133827
10133857
10133859
10133877
10133881
10133896
10133904
10133906
10133917
10133919
10133928
10133930
10133948
10133950
10133960
10133962
10133992
10133994
# 1236.24secs	# 703 balance functions. Density 0.117167
