# prime 11
# degree 2
# input variables 3
# output variables 7
# p = 11
# n = 7
# smalldomain p^m 1331
# domain p^n 19487171
#	 p^2 = 121
#	 p^3 = 1331
#	 p^4 = 14641
#	 p^5 = 161051
#	 p^6 = 1771561
#	 p^7 = 19487171
#	 p^8 = 214358881
#	 p^9 = 2357947691
# dimension of the chunk  6000
# number of the chunk  552 of 12991 blocks
# functions to test 6000
# startcode = 3312000  :: endcode = 3318000:: fdomain = 6000
3312012
3312014
3312016
3312020
3312022
3312024
3312026
3312028
3312030
3312032
3312034
3312036
3312038
3312040
3312042
3312044
3312046
3312048
3312050
3312052
3312054
3312080
3312082
3312085
3312087
3312104
3312106
3312129
3312131
3312145
3312172
3312174
3312196
3312198
3312209
3312211
3312257
3312259
3312264
3312266
3312288
3312290
3312297
3312299
3312345
3312356
3312358
3312365
3312367
3312380
3312382
3312427
3312450
3312469
3312471
3312472
3312496
3312498
3312500
3312502
3312504
3312508
3312510
3312512
3312514
3312516
3312518
3312520
3312522
3312524
3312526
3312528
3312530
3312532
3312534
3312536
3312538
3312564
3312566
3312569
3312571
3312588
3312590
3312613
3312615
3312629
3312631
3312656
3312658
3312680
3312682
3312693
3312695
3312741
3312743
3312748
3312750
3312772
3312774
3312781
3312783
3312831
3312842
3312849
3312851
3312864
3312866
3312909
3312911
3312932
3312953
3312955
3312956
3312958
3312980
3312982
3312984
3312986
3312988
3312990
3312992
3312996
3312998
3313000
3313002
3313004
3313006
3313008
3313010
3313012
3313014
3313016
3313018
3313020
3313022
3313048
3313050
3313053
3313055
3313072
3313074
3313097
3313099
3313113
3313115
3313140
3313142
3313164
3313166
3313177
3313179
3313227
3313234
3313256
3313258
3313265
3313267
3313313
3313315
3313324
3313326
3313333
3313335
3313348
3313393
3313395
3313416
3313418
3313437
3313439
3313440
3313442
3313464
3313466
3313468
3313470
3313472
3313474
3313476
3313478
3313480
3313484
3313486
3313488
3313490
3313492
3313494
3313496
3313498
3313500
3313502
3313504
3313506
3313532
3313534
3313537
3313539
3313556
3313558
3313581
3313599
3313626
3313648
3313650
3313661
3313663
3313709
3313716
3313718
3313740
3313742
3313749
3313751
3313797
3313799
3313808
3313817
3313819
3313832
3313834
3313877
3313879
3313900
3313902
3313921
3313923
3313924
3313926
3313948
3313950
3313952
3313954
3313956
3313958
3313960
3313962
3313964
3313966
3313968
3313972
3313974
3313976
3313978
3313980
3313982
3313984
3313986
3313988
3313990
3314018
3314023
3314040
3314042
3314065
3314067
3314081
3314083
3314108
3314110
3314132
3314134
3314145
3314147
3314193
3314195
3314200
3314202
3314224
3314233
3314235
3314281
3314283
3314292
3314294
3314301
3314303
3314316
3314318
3314361
3314363
3314384
3314386
3314405
3314407
3314408
3314410
3314432
3314434
3314436
3314438
3314440
3314442
3314444
3314446
3314448
3314450
3314452
3314454
3314456
3314460
3314462
3314464
3314466
3314468
3314470
3314472
3314474
3314500
3314502
3314505
3314507
3314524
3314526
3314549
3314551
3314565
3314567
3314592
3314594
3314616
3314618
3314629
3314631
3314677
3314679
3314684
3314708
3314710
3314717
3314719
3314765
3314767
3314776
3314778
3314785
3314787
3314800
3314802
3314845
3314847
3314868
3314870
3314891
3314894
3314916
3314918
3314920
3314922
3314924
3314926
3314928
3314930
3314932
3314934
3314936
3314938
3314940
3314942
3314944
3314948
3314950
3314952
3314954
3314956
3314958
3314984
3314986
3314989
3314991
3315008
3315010
3315033
3315035
3315049
3315051
3315076
3315078
3315100
3315113
3315115
3315161
3315163
3315168
3315170
3315192
3315194
3315201
3315249
3315251
3315260
3315262
3315271
3315286
3315329
3315352
3315354
3315373
3315375
3315376
3315378
3315400
3315402
3315404
3315406
3315408
3315410
3315412
3315414
3315416
3315418
3315420
3315422
3315424
3315426
3315428
3315430
3315432
3315436
3315438
3315440
3315442
3315468
3315470
3315473
3315475
3315492
3315494
3315517
3315519
3315533
3315535
3315560
3315584
3315586
3315597
3315599
3315645
3315647
3315652
3315654
3315678
3315687
3315733
3315735
3315744
3315746
3315753
3315755
3315768
3315770
3315813
3315815
3315836
3315838
3315857
3315859
3315860
3315862
3315884
3315886
3315888
3315890
3315892
3315894
3315896
3315898
3315900
3315902
3315904
3315906
3315908
3315910
3315912
3315914
3315916
3315918
3315920
3315924
3315926
3315952
3315954
3315957
3315959
3315976
3316001
3316003
3316017
3316019
3316044
3316046
3316070
3316083
3316129
3316131
3316136
3316138
3316160
3316162
3316169
3316171
3316217
3316219
3316228
3316230
3316237
3316239
3316252
3316254
3316297
3316299
3316320
3316322
3316341
3316343
3316344
3316346
3316368
3316370
3316372
3316374
3316376
3316378
3316380
3316382
3316384
3316386
3316388
3316390
3316392
3316394
3316396
3316398
3316400
3316402
3316404
3316406
3316408
3316436
3316441
3316443
3316462
3316487
3316501
3316503
3316528
3316530
3316552
3316554
3316565
3316613
3316615
3316620
3316622
3316644
3316646
3316653
3316655
3316701
3316703
3316712
3316714
3316721
3316736
3316738
3316781
3316783
3316804
3316806
3316825
3316827
3316828
3316830
3316858
3316862
3316866
3316870
3316874
3316878
3316882
3316886
3316890
3316894
3316924
3316926
3316929
3316931
3316952
3316954
3316977
3316979
3316997
3316999
3317024
3317026
3317052
3317054
3317065
3317067
3317073
3317075
3317080
3317082
3317117
3317119
3317152
3317154
3317169
3317171
3317180
3317182
3317208
3317210
3317237
3317239
3317257
3317259
3317280
3317282
3317305
3317307
3317308
3317310
3317336
3317338
3317340
3317344
3317346
3317348
3317350
3317352
3317354
3317356
3317358
3317360
3317362
3317364
3317366
3317368
3317370
3317372
3317374
3317376
3317378
3317408
3317410
3317413
3317415
3317436
3317438
3317461
3317463
3317481
3317483
3317508
3317510
3317536
3317538
3317549
3317551
3317557
3317559
3317564
3317601
3317636
3317638
3317653
3317655
3317664
3317666
3317692
3317694
3317721
3317723
3317743
3317766
3317789
3317792
3317794
3317820
3317822
3317824
3317826
3317828
3317832
3317834
3317836
3317838
3317840
3317842
3317844
3317846
3317848
3317850
3317852
3317854
3317856
3317858
3317860
3317862
3317892
3317894
3317897
3317899
3317920
3317922
3317945
3317965
3317967
3317992
3317994
# 779.887secs	# 710 balance functions. Density 0.118333
