# prime 11
# degree 2
# input variables 3
# output variables 7
# p = 11
# n = 7
# smalldomain p^m 1331
# domain p^n 19487171
#	 p^2 = 121
#	 p^3 = 1331
#	 p^4 = 14641
#	 p^5 = 161051
#	 p^6 = 1771561
#	 p^7 = 19487171
#	 p^8 = 214358881
#	 p^9 = 2357947691
# dimension of the chunk  6000
# number of the chunk  247 of 12991 blocks
# functions to test 6000
# startcode = 1482000  :: endcode = 1488000:: fdomain = 6000
1482006
1482008
1482010
1482012
1482016
1482018
1482020
1482022
1482024
1482026
1482028
1482030
1482032
1482034
1482036
1482038
1482040
1482042
1482044
1482046
1482048
1482050
1482056
1482069
1482071
1482104
1482106
1482133
1482135
1482152
1482154
1482157
1482159
1482193
1482195
1482200
1482202
1482248
1482250
1482269
1482271
1482298
1482344
1482346
1482353
1482355
1482389
1482391
1482392
1482394
1482413
1482415
1482440
1482442
1482477
1482479
1482488
1482490
1482492
1482494
1482496
1482498
1482500
1482502
1482504
1482506
1482508
1482512
1482514
1482516
1482518
1482520
1482522
1482524
1482526
1482528
1482530
1482532
1482534
1482540
1482542
1482553
1482590
1482619
1482636
1482638
1482641
1482677
1482679
1482684
1482732
1482734
1482753
1482755
1482761
1482763
1482780
1482782
1482828
1482830
1482837
1482839
1482873
1482875
1482876
1482878
1482897
1482899
1482924
1482926
1482961
1482963
1482972
1482974
1482976
1482978
1482980
1482982
1482984
1482986
1482988
1482990
1482992
1482994
1482996
1482998
1483000
1483002
1483004
1483008
1483010
1483012
1483014
1483016
1483018
1483024
1483026
1483037
1483039
1483072
1483074
1483101
1483103
1483120
1483122
1483125
1483127
1483161
1483163
1483168
1483170
1483216
1483218
1483237
1483239
1483245
1483247
1483264
1483266
1483312
1483321
1483323
1483357
1483360
1483362
1483383
1483410
1483445
1483456
1483458
1483460
1483462
1483464
1483466
1483468
1483470
1483472
1483474
1483476
1483478
1483480
1483482
1483484
1483486
1483488
1483490
1483492
1483494
1483496
1483498
1483500
1483508
1483510
1483521
1483523
1483556
1483558
1483585
1483587
1483604
1483606
1483609
1483611
1483645
1483647
1483652
1483654
1483702
1483729
1483731
1483748
1483750
1483796
1483798
1483805
1483807
1483841
1483843
1483844
1483846
1483865
1483867
1483892
1483894
1483929
1483931
1483940
1483944
1483946
1483948
1483950
1483952
1483956
1483958
1483960
1483962
1483964
1483966
1483968
1483970
1483972
1483974
1483976
1483978
1483980
1483982
1483984
1483986
1483994
1484007
1484040
1484069
1484071
1484088
1484090
1484093
1484095
1484129
1484136
1484138
1484184
1484186
1484205
1484207
1484213
1484215
1484232
1484234
1484280
1484282
1484289
1484291
1484325
1484327
1484328
1484330
1484349
1484376
1484378
1484413
1484415
1484424
1484426
1484428
1484430
1484432
1484434
1484436
1484438
1484440
1484442
1484444
1484446
1484448
1484452
1484454
1484456
1484458
1484460
1484462
1484464
1484466
1484468
1484470
1484476
1484478
1484489
1484491
1484524
1484526
1484553
1484555
1484572
1484574
1484577
1484579
1484613
1484615
1484620
1484622
1484668
1484689
1484691
1484697
1484699
1484716
1484718
1484764
1484766
1484773
1484775
1484811
1484814
1484833
1484835
1484860
1484862
1484897
1484899
1484908
1484910
1484912
1484914
1484916
1484918
1484920
1484922
1484924
1484926
1484928
1484930
1484932
1484934
1484936
1484938
1484940
1484942
1484944
1484948
1484950
1484952
1484954
1484960
1484962
1484973
1484975
1485008
1485010
1485037
1485039
1485056
1485058
1485061
1485063
1485099
1485106
1485152
1485154
1485173
1485175
1485181
1485183
1485200
1485202
1485248
1485250
1485257
1485259
1485293
1485295
1485296
1485317
1485319
1485344
1485346
1485381
1485383
1485392
1485394
1485402
1485406
1485410
1485414
1485418
1485422
1485426
1485430
1485434
1485438
1485460
1485462
1485473
1485509
1485511
1485524
1485526
1485544
1485546
1485549
1485551
1485601
1485603
1485608
1485610
1485628
1485630
1485649
1485651
1485673
1485675
1485692
1485694
1485712
1485714
1485721
1485723
1485773
1485775
1485776
1485778
1485796
1485798
1485813
1485815
1485849
1485860
1485862
1485880
1485882
1485884
1485886
1485888
1485890
1485892
1485896
1485898
1485900
1485902
1485904
1485906
1485908
1485910
1485912
1485914
1485916
1485918
1485920
1485922
1485944
1485946
1485957
1485959
1485993
1485995
1486008
1486010
1486028
1486030
1486033
1486085
1486087
1486092
1486094
1486112
1486114
1486133
1486135
1486157
1486159
1486176
1486178
1486198
1486257
1486259
1486260
1486262
1486280
1486282
1486297
1486299
1486333
1486335
1486344
1486364
1486366
1486368
1486370
1486372
1486374
1486376
1486378
1486380
1486382
1486384
1486386
1486388
1486392
1486394
1486396
1486398
1486400
1486402
1486404
1486406
1486428
1486430
1486441
1486443
1486477
1486479
1486492
1486494
1486514
1486519
1486569
1486571
1486576
1486578
1486596
1486598
1486617
1486619
1486641
1486643
1486660
1486662
1486680
1486682
1486689
1486691
1486741
1486743
1486744
1486746
1486764
1486781
1486783
1486817
1486819
1486828
1486830
1486848
1486850
1486852
1486854
1486856
1486858
1486860
1486862
1486864
1486866
1486868
1486870
1486872
1486874
1486876
1486878
1486880
1486882
1486884
1486888
1486890
1486912
1486914
1486925
1486927
1486961
1486963
1486976
1486978
1486996
1486998
1487001
1487003
1487053
1487055
1487060
1487062
1487080
1487082
1487101
1487103
1487125
1487127
1487144
1487146
1487164
1487166
1487173
1487175
1487225
1487227
1487228
1487248
1487250
1487265
1487267
1487303
1487314
1487332
1487334
1487336
1487340
1487342
1487344
1487346
1487348
1487350
1487352
1487354
1487356
1487358
1487360
1487362
1487364
1487366
1487368
1487370
1487372
1487374
1487396
1487398
1487409
1487411
1487445
1487460
1487462
1487480
1487482
1487485
1487487
1487537
1487539
1487544
1487546
1487564
1487566
1487585
1487611
1487630
1487648
1487657
1487659
1487709
1487711
1487712
1487714
1487732
1487734
1487749
1487751
1487785
1487787
1487796
1487798
1487816
1487818
1487820
1487822
1487824
1487826
1487828
1487830
1487832
1487836
1487838
1487840
1487842
1487844
1487846
1487848
1487850
1487852
1487854
1487856
1487858
1487880
1487882
1487893
1487895
1487931
1487946
1487964
1487966
1487969
1487971
# 1056.58secs	# 706 balance functions. Density 0.117667
