# prime 11
# degree 2
# input variables 3
# output variables 7
# p = 11
# n = 7
# smalldomain p^m 1331
# domain p^n 19487171
#	 p^2 = 121
#	 p^3 = 1331
#	 p^4 = 14641
#	 p^5 = 161051
#	 p^6 = 1771561
#	 p^7 = 19487171
#	 p^8 = 214358881
#	 p^9 = 2357947691
# dimension of the chunk  6000
# number of the chunk  1393 of 12991 blocks
# functions to test 6000
# startcode = 8358000  :: endcode = 8364000:: fdomain = 6000
8358001
8358003
8358017
8358019
8358113
8358115
8358173
8358175
8358181
8358183
8358196
8358198
8358213
8358215
8358225
8358227
8358257
8358259
8358265
8358267
8358325
8358327
8358421
8358423
8358437
8358439
8358485
8358487
8358501
8358503
8358597
8358657
8358659
8358665
8358693
8358695
8358713
8358715
8358737
8358739
8358753
8358755
8358811
8358929
8358931
8358941
8358943
8358949
8358951
8358961
8358963
8359083
8359137
8359139
8359153
8359155
8359164
8359166
8359177
8359197
8359199
8359221
8359223
8359237
8359239
8359293
8359413
8359415
8359425
8359427
8359433
8359435
8359445
8359447
8359565
8359567
8359621
8359623
8359637
8359639
8359648
8359650
8359661
8359663
8359681
8359683
8359707
8359721
8359723
8359777
8359779
8359897
8359909
8359911
8359917
8359919
8359929
8359931
8360049
8360051
8360107
8360121
8360132
8360134
8360145
8360147
8360167
8360189
8360191
8360205
8360261
8360263
8360381
8360383
8360393
8360401
8360403
8360413
8360415
8360533
8360535
8360589
8360591
8360605
8360607
8360616
8360618
8360629
8360631
8360649
8360651
8360673
8360675
8360689
8360691
8360745
8360747
8360865
8360867
8360879
8360885
8360887
8360899
8361017
8361019
8361073
8361075
8361089
8361091
8361100
8361102
8361113
8361115
8361133
8361135
8361157
8361159
8361173
8361175
8361229
8361231
8361349
8361351
8361361
8361363
8361369
8361371
8361381
8361383
8361501
8361503
8361557
8361559
8361573
8361575
8361584
8361586
8361597
8361599
8361617
8361619
8361641
8361643
8361657
8361659
8361713
8361715
8361833
8361835
8361845
8361847
8361853
8361855
8361865
8361867
8361985
8361987
8362041
8362043
8362057
8362059
8362068
8362070
8362081
8362083
8362101
8362103
8362125
8362127
8362141
8362143
8362197
8362199
8362319
8362329
8362331
8362339
8362349
8362351
8362469
8362471
8362525
8362527
8362541
8362543
8362552
8362554
8362567
8362585
8362587
8362609
8362611
8362625
8362627
8362681
8362683
8362801
8362803
8362813
8362815
8362821
8362833
8362835
8362953
8362955
8363009
8363025
8363027
8363036
8363038
8363049
8363051
8363069
8363071
8363093
8363111
8363165
8363167
8363285
8363287
8363297
8363299
8363305
8363307
8363317
8363437
8363439
8363493
8363495
8363511
8363520
8363522
8363533
8363535
8363553
8363577
8363579
8363593
8363595
8363649
8363651
8363769
8363771
8363781
8363783
8363789
8363791
8363801
8363803
8363921
8363977
8363979
8363993
8363995
# 1632.31secs	# 294 balance functions. Density 0.049
