# prime 11
# degree 2
# input variables 3
# output variables 7
# p = 11
# n = 7
# smalldomain p^m 1331
# domain p^n 19487171
#	 p^2 = 121
#	 p^3 = 1331
#	 p^4 = 14641
#	 p^5 = 161051
#	 p^6 = 1771561
#	 p^7 = 19487171
#	 p^8 = 214358881
#	 p^9 = 2357947691
# dimension of the chunk  6000
# number of the chunk  2634 of 12991 blocks
# functions to test 6000
# startcode = 15804000  :: endcode = 15810000:: fdomain = 6000
15804052
15804054
15804141
15804143
15804161
15804163
15804241
15804243
15804257
15804259
15804285
15804287
15804291
15804345
15804347
15804351
15804377
15804379
15804393
15804395
15804449
15804451
15804473
15804475
15804536
15804538
15804625
15804627
15804645
15804647
15804725
15804727
15804741
15804743
15804771
15804773
15804775
15804831
15804833
15804835
15804861
15804863
15804877
15804879
15804933
15804935
15804957
15804959
15805020
15805022
15805109
15805111
15805129
15805131
15805209
15805211
15805225
15805227
15805253
15805255
15805257
15805259
15805313
15805315
15805317
15805319
15805345
15805347
15805361
15805363
15805417
15805419
15805441
15805443
15805504
15805506
15805595
15805613
15805615
15805693
15805695
15805709
15805711
15805737
15805739
15805741
15805743
15805797
15805799
15805801
15805803
15805829
15805845
15805847
15805901
15805903
15805988
15805990
15806077
15806097
15806099
15806177
15806179
15806195
15806221
15806225
15806227
15806281
15806283
15806285
15806287
15806313
15806315
15806331
15806385
15806387
15806409
15806411
15806472
15806474
15806561
15806563
15806581
15806583
15806661
15806677
15806679
15806705
15806707
15806709
15806765
15806767
15806769
15806771
15806797
15806799
15806813
15806815
15806869
15806871
15806893
15806895
15806956
15806957
15806958
15806959
15807016
15807017
15807018
15807019
15807076
15807077
15807078
15807079
15807092
15807093
15807094
15807095
15807152
15807153
15807154
15807155
15807212
15807213
15807214
15807215
15807228
15807229
15807230
15807231
15807288
15807289
15807290
15807291
15807348
15807349
15807350
15807351
15807364
15807365
15807366
15807367
15807424
15807425
15807426
15807427
15807440
15807441
15807442
15807443
15807500
15807501
15807502
15807503
15807560
15807561
15807562
15807563
15807576
15807577
15807578
15807579
15807636
15807637
15807638
15807639
15807696
15807697
15807698
15807699
15807712
15807713
15807714
15807715
15807772
15807773
15807774
15807775
15807832
15807833
15807834
15807835
15807848
15807849
15807850
15807851
15807908
15807909
15807910
15807911
15807924
15807925
15807926
15807927
15807984
15807985
15807986
15807987
15808044
15808045
15808046
15808047
15808060
15808061
15808062
15808063
15808120
15808121
15808122
15808123
15808180
15808181
15808182
15808183
15808196
15808197
15808198
15808199
15808256
15808257
15808258
15808259
15808316
15808317
15808318
15808319
15808332
15808333
15808334
15808335
15808392
15808393
15808394
15808395
15808408
15808409
15808410
15808411
15808468
15808469
15808470
15808471
15808528
15808529
15808530
15808531
15808544
15808545
15808546
15808547
15808604
15808605
15808606
15808607
15808664
15808665
15808666
15808667
15808680
15808681
15808682
15808683
15808740
15808741
15808742
15808743
15808800
15808801
15808802
15808803
15808816
15808817
15808818
15808819
15808876
15808877
15808878
15808879
15808892
15808893
15808894
15808895
15808952
15808953
15808954
15808955
15809012
15809013
15809014
15809015
15809028
15809029
15809030
15809031
15809088
15809089
15809090
15809091
15809148
15809149
15809150
15809151
15809164
15809165
15809166
15809167
15809224
15809225
15809226
15809227
15809284
15809285
15809286
15809287
15809300
15809301
15809302
15809303
15809360
15809361
15809362
15809363
15809376
15809377
15809378
15809379
15809436
15809437
15809438
15809439
15809496
15809497
15809498
15809499
15809512
15809513
15809514
15809515
15809572
15809573
15809574
15809575
15809632
15809633
15809634
15809635
15809648
15809649
15809650
15809651
15809708
15809709
15809710
15809711
15809768
15809769
15809770
15809771
15809784
15809785
15809786
15809787
15809844
15809845
15809846
15809847
15809860
15809861
15809862
15809863
15809920
15809921
15809922
15809923
15809980
15809981
15809982
15809983
15809996
15809997
15809998
15809999
# 771.668secs	# 422 balance functions. Density 0.0703333
