# prime 11
# degree 2
# input variables 3
# output variables 7
# p = 11
# n = 7
# smalldomain p^m 1331
# domain p^n 19487171
#	 p^2 = 121
#	 p^3 = 1331
#	 p^4 = 14641
#	 p^5 = 161051
#	 p^6 = 1771561
#	 p^7 = 19487171
#	 p^8 = 214358881
#	 p^9 = 2357947691
# dimension of the chunk  22000
# number of the chunk  3021 of 3543 blocks
# functions to test 22000
# startcode = 66462000  :: endcode = 66484000:: fdomain = 22000
66462045
66462061
66462063
66462101
66462103
66462161
66462163
66462193
66462195
66462241
66462243
66462255
66462265
66462267
66462293
66462295
66462396
66462398
66462409
66462411
66462429
66462431
66462529
66462531
66462545
66462547
66462587
66462597
66462599
66462645
66462647
66462677
66462679
66462737
66462739
66462749
66462777
66462779
66462880
66462882
66462893
66462895
66462913
66462915
66463013
66463015
66463029
66463031
66463069
66463071
66463081
66463083
66463129
66463161
66463163
66463209
66463211
66463221
66463233
66463235
66463261
66463263
66463364
66463366
66463377
66463379
66463397
66463399
66463499
66463513
66463515
66463553
66463555
66463565
66463567
66463613
66463615
66463645
66463647
66463693
66463695
66463705
66463707
66463717
66463719
66463747
66463848
66463850
66463861
66463863
66463881
66463883
66463981
66463983
66463997
66463999
66464037
66464039
66464049
66464051
66464097
66464099
66464129
66464131
66464177
66464179
66464189
66464191
66464201
66464203
66464229
66464231
66464332
66464334
66464347
66464365
66464465
66464467
66464481
66464521
66464523
66464533
66464535
66464581
66464583
66464613
66464615
66464661
66464663
66464673
66464675
66464685
66464687
66464713
66464715
66464865
66464867
66464868
66464870
66464872
66464874
66464877
66464879
66464905
66464907
66464920
66464922
66464928
66464930
66464945
66464947
66464972
66464974
66464984
66464986
66464996
66464998
66465024
66465026
66465052
66465054
66465067
66465076
66465078
66465084
66465086
66465099
66465108
66465110
66465136
66465138
66465164
66465166
66465176
66465178
66465188
66465190
66465213
66465215
66465217
66465219
66465232
66465234
66465240
66465242
66465285
66465287
66465288
66465290
66465292
66465294
66465297
66465299
66465300
66465302
66465349
66465351
66465352
66465354
66465356
66465358
66465361
66465363
66465389
66465391
66465404
66465406
66465412
66465429
66465431
66465456
66465458
66465468
66465470
66465480
66465482
66465508
66465510
66465536
66465538
66465549
66465551
66465562
66465568
66465570
66465581
66465583
66465594
66465620
66465622
66465648
66465650
66465660
66465662
66465672
66465674
66465697
66465699
66465701
66465703
66465716
66465718
66465724
66465726
66465769
66465771
66465772
66465774
66465776
66465781
66465783
66465784
66465786
66465833
66465835
66465836
66465838
66465842
66465845
66465875
66465888
66465890
66465896
66465898
66465913
66465915
66465940
66465942
66465952
66465954
66465964
66465992
66465994
66466020
66466022
66466033
66466035
66466044
66466046
66466052
66466054
66466065
66466067
66466076
66466078
66466104
66466106
66466132
66466134
66466144
66466146
66466156
66466158
66466181
66466183
66466187
66466200
66466202
66466208
66466253
66466255
66466256
66466258
66466262
66466265
66466267
66466268
66466270
66466317
66466320
66466322
66466324
66466326
66466329
66466331
66466357
66466372
66466374
66466380
66466382
66466397
66466399
66466424
66466426
66466436
66466438
66466448
66466450
66466478
66466504
66466506
66466517
66466519
66466528
66466530
66466536
66466538
66466549
66466551
66466560
66466588
66466590
66466618
66466628
66466630
66466640
66466665
66466667
66466669
66466671
66466684
66466686
66466692
66466694
66466737
66466739
66466740
66466742
66466744
66466746
66466749
66466751
66466752
66466754
66466801
66466803
66466804
66466806
66466808
66466810
66466813
66466815
66466841
66466843
66466856
66466858
66466866
66466881
66466883
66466908
66466910
66466920
66466922
66466932
66466934
66466960
66466962
66466988
66466990
66467001
66467003
66467012
66467014
66467020
66467022
66467033
66467044
66467046
66467072
66467100
66467102
66467112
66467124
66467126
66467149
66467151
66467153
66467168
66467170
66467178
66467221
66467223
66467224
66467226
66467228
66467230
66467233
66467235
66467236
66467238
66467287
66467288
66467290
66467292
66467294
66467297
66467299
66467325
66467327
66467340
66467342
66467348
66467350
66467365
66467367
66467394
66467404
66467406
66467416
66467418
66467444
66467446
66467472
66467474
66467485
66467487
66467496
66467498
66467504
66467517
66467519
66467528
66467530
66467556
66467558
66467584
66467586
66467598
66467608
66467610
66467633
66467635
66467637
66467639
66467652
66467654
66467660
66467662
66467707
66467708
66467712
66467714
66467717
66467719
66467720
66467722
66467769
66467771
66467772
66467774
66467776
66467783
66467809
66467811
66467824
66467826
66467832
66467834
66467849
66467851
66467876
66467878
66467890
66467900
66467902
66467928
66467930
66467956
66467958
66467969
66467971
66467980
66467988
66467990
66468001
66468003
66468012
66468014
66468040
66468042
66468068
66468070
66468080
66468082
66468094
66468117
66468119
66468121
66468123
66468136
66468138
66468144
66468146
66468189
66468191
66468192
66468194
66468196
66468198
66468203
66468204
66468206
66468253
66468255
66468256
66468258
66468260
66468262
66468265
66468267
66468293
66468295
66468310
66468316
66468318
66468333
66468360
66468362
66468372
66468384
66468386
66468412
66468440
66468442
66468453
66468464
66468466
66468472
66468474
66468485
66468487
66468496
66468498
66468524
66468526
66468552
66468554
66468564
66468566
66468576
66468578
66468601
66468603
66468605
66468607
66468622
66468628
66468630
66468673
66468675
66468676
66468678
66468680
66468682
66468685
66468687
66468688
66468690
66468737
66468739
66468740
66468742
66468744
66468746
66468749
66468751
66468777
66468779
66468792
66468794
66468800
66468802
66468817
66468819
66468844
66468856
66468858
66468870
66468896
66468898
66468924
66468937
66468939
66468948
66468950
66468956
66468958
66468969
66468971
66468980
66468982
66469010
66469036
66469038
66469048
66469050
66469060
66469062
66469085
66469089
66469091
66469104
66469106
66469112
66469114
66469157
66469159
66469160
66469162
66469164
66469166
66469169
66469172
66469174
66469221
66469223
66469226
66469228
66469230
66469233
66469235
66469261
66469263
66469276
66469284
66469286
66469303
66469328
66469330
66469340
66469342
66469352
66469354
66469380
66469382
66469408
66469410
66469421
66469423
66469432
66469434
66469440
66469442
66469453
66469455
66469464
66469466
66469492
66469494
66469520
66469532
66469534
66469544
66469546
66469571
66469573
66469575
66469588
66469590
66469596
66469598
66469641
66469646
66469648
66469650
66469653
66469655
66469656
66469658
66469705
66469707
66469708
66469712
66469714
66469717
66469719
66469745
66469747
66469760
66469762
66469768
66469770
66469785
66469787
66469812
66469814
66469824
66469826
66469836
66469838
66469864
66469866
66469894
66469905
66469907
66469916
66469918
66469926
66469937
66469939
66469948
66469950
66469976
66469978
66470004
66470006
66470016
66470018
66470028
66470030
66470053
66470055
66470057
66470059
66470072
66470080
66470082
66470125
66470127
66470128
66470130
66470132
66470134
66470137
66470139
66470184
66470186
66470189
66470191
66470221
66470223
66470224
66470226
66470228
66470230
66470245
66470249
66470251
66470264
66470266
66470272
66470274
66470304
66470306
66470316
66470318
66470344
66470346
66470360
66470362
66470375
66470384
66470386
66470404
66470406
66470424
66470426
66470439
66470448
66470450
66470464
66470466
66470492
66470494
66470504
66470506
66470536
66470538
66470544
66470546
66470561
66470563
66470565
66470580
66470582
66470584
66470586
66470589
66470591
66470621
66470623
66470624
66470626
66470668
66470670
66470673
66470705
66470707
66470708
66470710
66470712
66470714
66470729
66470731
66470733
66470735
66470748
66470750
66470756
66470758
66470788
66470790
66470800
66470802
66470828
66470844
66470846
66470857
66470859
66470870
66470908
66470910
66470921
66470923
66470932
66470934
66470948
66470950
66470976
66470978
66470988
66470990
66471020
66471022
66471028
66471030
66471045
66471049
66471051
66471064
66471066
66471068
66471070
66471073
66471075
66471105
66471107
66471108
66471110
66471157
66471159
66471189
66471191
66471192
66471194
66471196
66471198
66471213
66471215
66471219
66471232
66471234
66471240
66471242
66471272
66471274
66471284
66471286
66471312
66471314
66471328
66471330
66471341
66471343
66471352
66471354
66471372
66471374
66471392
66471394
66471405
66471407
66471416
66471418
66471432
66471434
66471460
66471462
66471472
66471504
66471506
66471512
66471514
66471529
66471531
66471535
66471548
66471550
66471554
66471557
66471559
66471589
66471591
66471592
66471594
66471636
66471638
66471641
66471643
66471673
66471675
66471676
66471680
66471682
66471697
66471699
66471701
66471703
66471716
66471718
66471724
66471726
66471756
66471758
66471768
66471770
66471798
66471812
66471814
66471825
66471827
66471836
66471838
66471856
66471858
66471876
66471878
66471889
66471891
66471916
66471918
66471944
66471946
66471956
66471958
66471988
66471990
66471996
66471998
66472013
66472015
66472017
66472019
66472032
66472034
66472036
66472038
66472041
66472043
66472073
66472075
66472076
66472078
66472120
66472122
66472125
66472127
66472157
66472160
66472162
66472181
66472183
66472185
66472187
66472200
66472202
66472208
66472210
66472240
66472242
66472252
66472254
66472280
66472282
66472296
66472298
66472309
66472311
66472320
66472340
66472342
66472360
66472362
66472373
66472384
66472386
66472400
66472402
66472428
66472430
66472440
66472442
66472472
66472474
66472482
66472497
66472499
66472501
66472503
66472516
66472518
66472520
66472522
66472525
66472527
66472557
66472559
66472560
66472562
66472604
66472606
66472609
66472611
66472643
66472644
66472646
66472648
66472650
66472665
66472667
66472669
66472671
66472684
66472686
66472692
66472694
66472726
66472736
66472738
66472764
66472766
66472780
66472782
66472793
66472795
66472804
66472806
66472824
66472826
66472844
66472846
66472857
66472859
66472868
66472870
66472884
66472886
66472924
66472926
66472956
66472958
66472964
66472981
66472983
66472985
66472987
66473000
66473002
66473004
66473006
66473009
66473011
66473043
66473044
66473046
66473088
66473090
66473095
66473125
66473127
66473128
66473130
66473132
66473134
66473149
66473151
66473153
66473155
66473168
66473208
66473210
66473220
66473222
66473248
66473250
66473264
66473266
66473277
66473279
66473288
66473290
66473308
66473310
66473328
66473330
66473341
66473343
66473352
66473354
66473368
66473370
66473396
66473398
66473410
66473440
66473442
66473448
66473450
66473465
66473467
66473469
66473471
66473484
66473486
66473488
66473490
66473495
66473525
66473527
66473528
66473530
66473572
66473574
66473577
66473579
66473609
66473611
66473612
66473614
66473616
66473618
66473633
66473635
66473637
66473639
66473654
66473660
66473662
66473692
66473694
66473704
66473706
66473732
66473734
66473748
66473750
66473761
66473772
66473774
66473792
66473794
66473812
66473825
66473827
66473836
66473838
66473852
66473854
66473880
66473882
66473892
66473894
66473932
66473934
66473949
66473951
66473953
66473955
66473968
66473970
66473972
66473974
66473977
66474009
66474011
66474012
66474014
66474056
66474058
66474061
66474063
66474093
66474095
66474096
66474098
66474100
66474102
66474117
66474119
66474121
66474123
66474136
66474138
66474144
66474146
66474176
66474178
66474216
66474218
66474232
66474234
66474245
66474247
66474256
66474258
66474276
66474278
66474296
66474298
66474309
66474311
66474320
66474322
66474338
66474364
66474366
66474376
66474378
66474408
66474410
66474416
66474418
66474433
66474435
66474437
66474439
66474452
66474454
66474456
66474461
66474463
66474493
66474495
66474496
66474498
66474540
66474542
66474545
66474547
66474577
66474579
66474582
66474584
66474586
66474603
66474605
66474607
66474620
66474622
66474628
66474630
66474660
66474672
66474674
66474700
66474702
66474716
66474718
66474729
66474731
66474740
66474742
66474760
66474762
66474780
66474782
66474793
66474795
66474804
66474806
66474820
66474822
66474848
66474850
66474860
66474862
66474892
66474894
66474900
66474902
66474919
66474921
66474923
66474940
66474942
66474945
66474947
66474977
66474979
66474980
66474982
66475024
66475026
66475029
66475031
66475061
66475063
66475064
66475066
66475068
66475070
66475085
66475087
66475089
66475104
66475106
66475112
66475114
66475144
66475146
66475156
66475158
66475184
66475186
66475213
66475215
66475224
66475226
66475244
66475246
66475266
66475277
66475279
66475288
66475290
66475304
66475332
66475334
66475344
66475346
66475376
66475378
66475384
66475386
66475401
66475403
66475405
66475407
66475420
66475422
66475424
66475426
66475429
66475431
66475461
66475516
66475518
66475521
66475523
66475537
66475540
66475542
66475561
66475563
66475568
66475570
66475572
66475574
66475581
66475583
66475604
66475606
66475620
66475622
66475672
66475674
66475680
66475682
66475699
66475712
66475714
66475724
66475726
66475732
66475734
66475744
66475746
66475763
66475776
66475778
66475784
66475786
66475836
66475838
66475852
66475854
66475877
66475879
66475884
66475886
66475888
66475890
66475897
66475899
66475916
66475918
66475921
66475937
66475939
66475940
66475942
66475948
66475950
66476000
66476002
66476007
66476021
66476023
66476024
66476026
66476045
66476047
66476052
66476054
66476056
66476058
66476065
66476067
66476090
66476104
66476106
66476156
66476158
66476164
66476166
66476181
66476183
66476196
66476198
66476208
66476216
66476218
66476228
66476230
66476245
66476247
66476260
66476262
66476268
66476270
66476322
66476336
66476361
66476363
66476368
66476370
66476372
66476374
66476381
66476383
66476400
66476402
66476407
66476421
66476423
66476424
66476426
66476432
66476434
66476484
66476486
66476489
66476491
66476505
66476507
66476508
66476510
66476529
66476531
66476536
66476538
66476540
66476542
66476549
66476551
66476572
66476574
66476588
66476590
66476640
66476642
66476648
66476650
66476665
66476667
66476680
66476694
66476700
66476702
66476714
66476729
66476731
66476744
66476746
66476752
66476754
66476804
66476806
66476820
66476822
66476845
66476847
66476852
66476854
66476856
66476858
66476865
66476867
66476884
66476886
66476889
66476891
66476905
66476907
66476908
66476916
66476918
66476968
66476970
66476973
66476975
66476989
66476991
66476992
66476994
66477013
66477015
66477022
66477024
66477033
66477035
66477056
66477058
66477072
66477074
66477124
66477132
66477134
66477149
66477151
66477164
66477166
66477176
66477178
66477184
66477186
66477196
66477198
66477213
66477215
66477228
66477230
66477236
66477238
66477288
66477290
66477304
66477306
66477329
66477331
66477338
66477340
66477342
66477349
66477351
66477368
66477370
66477373
66477375
66477389
66477391
66477392
66477394
66477400
66477402
66477452
66477454
66477457
66477459
66477473
66477475
66477478
66477504
66477506
66477508
66477510
66477517
66477519
66477540
66477542
66477556
66477558
66477608
66477610
66477616
66477618
66477633
66477635
66477648
66477650
66477660
66477662
66477668
66477670
66477680
66477682
66477697
66477712
66477714
66477720
66477722
66477772
66477774
66477788
66477790
66477815
66477820
66477822
66477824
66477833
66477835
66477852
66477857
66477859
66477873
66477875
66477878
66477884
66477886
66477936
66477938
66477941
66477957
66477959
66477960
66477962
66477981
66477983
66477988
66477990
66477992
66477994
66478001
66478003
66478024
66478026
66478040
66478092
66478094
66478102
66478117
66478119
66478132
66478134
66478144
66478146
66478152
66478154
66478164
66478166
66478181
66478183
66478196
66478206
66478256
66478258
66478272
66478274
66478297
66478304
66478306
66478308
66478310
66478317
66478319
66478336
66478338
66478341
66478343
66478357
66478359
66478360
66478362
66478368
66478370
66478420
66478422
66478425
66478427
66478441
66478443
66478444
66478446
66478465
66478467
66478472
66478474
66478476
66478478
66478485
66478508
66478510
66478524
66478526
66478578
66478584
66478601
66478603
66478616
66478618
66478628
66478630
66478636
66478638
66478648
66478650
66478665
66478667
66478682
66478688
66478690
66478740
66478756
66478758
66478781
66478783
66478788
66478790
66478792
66478794
66478801
66478803
66478820
66478822
66478825
66478827
66478841
66478844
66478846
66478852
66478854
66478906
66478909
66478911
66478925
66478927
66478928
66478949
66478951
66478956
66478960
66478962
66478971
66478992
66478994
66479008
66479010
66479060
66479062
66479068
66479070
66479085
66479100
66479102
66479112
66479114
66479120
66479122
66479132
66479134
66479149
66479151
66479164
66479166
66479172
66479174
66479224
66479226
66479240
66479242
66479265
66479267
66479272
66479274
66479276
66479278
66479306
66479309
66479311
66479325
66479327
66479328
66479330
66479336
66479338
66479388
66479390
66479393
66479395
66479409
66479411
66479412
66479414
66479433
66479435
66479440
66479442
66479446
66479453
66479455
66479476
66479478
66479492
66479494
66479544
66479546
66479552
66479554
66479569
66479571
66479584
66479586
66479596
66479598
66479604
66479606
66479616
66479618
66479633
66479635
66479648
66479650
66479656
66479708
66479710
66479724
66479726
66479749
66479751
66479756
66479762
66479769
66479771
66479788
66479790
66479793
66479795
66479809
66479811
66479812
66479814
66479820
66479822
66479872
66479877
66479879
66479893
66479895
66479896
66479898
66479917
66479919
66479924
66479926
66479928
66479930
66479937
66479939
66479960
66479962
66479976
66479978
66480028
66480030
66480036
66480038
66480053
66480055
66480070
66480080
66480082
66480090
66480100
66480117
66480119
66480132
66480134
66480140
66480142
66480192
66480194
66480208
66480210
66480233
66480235
66480240
66480242
66480244
66480246
66480253
66480255
66480272
66480274
66480277
66480279
66480293
66480295
66480296
66480298
66480304
66480306
66480356
66480358
66480361
66480363
66480379
66480380
66480382
66480401
66480403
66480408
66480410
66480412
66480414
66480421
66480423
66480444
66480462
66480512
66480514
66480520
66480522
66480537
66480539
66480552
66480554
66480564
66480566
66480572
66480584
66480586
66480601
66480603
66480616
66480618
66480624
66480626
66480676
66480678
66480694
66480717
66480719
66480724
66480726
66480728
66480730
66480737
66480739
66480756
66480758
66480761
66480763
66480779
66480780
66480782
66480833
66480835
66480844
66480846
66480860
66480862
66480873
66480875
66480881
66480883
66480888
66480890
66480900
66480902
66480909
66480911
66480956
66480958
66480960
66480962
66480968
66480970
66480988
66480990
66481016
66481018
66481023
66481024
66481026
66481080
66481082
66481087
66481088
66481090
66481116
66481118
66481136
66481138
66481144
66481146
66481148
66481150
66481197
66481199
66481204
66481206
66481216
66481218
66481225
66481227
66481229
66481231
66481233
66481235
66481244
66481246
66481260
66481262
66481272
66481274
66481317
66481319
66481328
66481330
66481344
66481357
66481359
66481365
66481367
66481374
66481384
66481386
66481393
66481440
66481444
66481446
66481452
66481454
66481472
66481474
66481500
66481502
66481505
66481507
66481508
66481510
66481564
66481566
66481569
66481571
66481572
66481574
66481600
66481602
66481620
66481622
66481628
66481630
66481632
66481634
66481681
66481683
66481690
66481700
66481702
66481709
66481711
66481713
66481715
66481717
66481719
66481728
66481730
66481744
66481746
66481756
66481758
66481801
66481803
66481812
66481814
66481828
66481830
66481841
66481843
66481849
66481851
66481856
66481868
66481870
66481877
66481879
66481924
66481926
66481928
66481930
66481936
66481938
66481958
66481984
66481986
66481989
66481991
66481992
66481994
66482048
66482053
66482055
66482056
66482058
66482084
66482086
66482106
66482112
66482114
66482116
66482118
66482165
66482167
66482172
66482174
66482184
66482186
66482193
66482197
66482201
66482203
66482212
66482214
66482228
66482230
66482240
66482242
66482285
66482287
66482296
66482298
66482312
66482314
66482325
66482327
66482333
66482335
66482340
66482342
66482352
66482354
66482361
66482363
66482408
66482410
66482412
66482420
66482422
66482440
66482442
66482468
66482470
66482473
66482475
66482478
66482532
66482534
66482537
66482539
66482542
66482568
66482570
66482588
66482590
66482596
66482598
66482600
66482602
66482649
66482651
66482656
66482668
66482670
66482677
66482679
66482681
66482683
66482685
66482687
66482696
66482698
66482712
66482714
66482724
66482726
66482769
66482771
66482780
66482796
66482798
66482811
66482817
66482819
66482824
66482826
66482836
66482838
66482845
66482847
66482894
66482896
66482898
66482904
66482906
66482924
66482952
66482954
66482957
66482959
66482960
66482962
66483016
66483018
66483021
66483024
66483026
66483052
66483054
66483072
66483074
66483082
66483084
66483086
66483133
66483135
66483140
66483142
66483152
66483154
66483161
66483163
66483167
66483169
66483180
66483182
66483196
66483198
66483208
66483210
66483253
66483255
66483266
66483280
66483282
66483293
66483295
66483301
66483303
66483308
66483310
66483320
66483322
66483331
66483376
66483378
66483380
66483382
66483388
66483408
66483410
66483436
66483441
66483443
66483444
66483446
66483500
66483502
66483505
66483507
66483508
66483510
66483536
66483538
66483556
66483558
66483564
66483566
66483568
66483570
66483617
66483619
66483624
66483626
66483636
66483638
66483647
66483649
66483651
66483653
66483655
66483666
66483680
66483682
66483692
66483694
66483737
66483739
66483748
66483750
66483766
66483777
66483779
66483787
66483792
66483794
66483804
66483806
66483813
66483815
66483860
66483862
66483864
66483866
66483872
66483874
66483892
66483894
66483920
66483922
66483925
66483927
66483928
66483930
66483984
66483986
66483989
66483991
66483992
# 1426.18secs	# 2369 balance functions. Density 0.107682
