# prime 11
# degree 2
# input variables 3
# output variables 7
# p = 11
# n = 7
# smalldomain p^m 1331
# domain p^n 19487171
#	 p^2 = 121
#	 p^3 = 1331
#	 p^4 = 14641
#	 p^5 = 161051
#	 p^6 = 1771561
#	 p^7 = 19487171
#	 p^8 = 214358881
#	 p^9 = 2357947691
# dimension of the chunk  6000
# number of the chunk  2417 of 12991 blocks
# functions to test 6000
# startcode = 14502000  :: endcode = 14508000:: fdomain = 6000
14502037
14502039
14502041
14502043
14502092
14502094
14502189
14502191
14502193
14502195
14502273
14502305
14502307
14502345
14502347
14502353
14502361
14502363
14502369
14502371
14502409
14502411
14502441
14502443
14502521
14502523
14502525
14502527
14502671
14502683
14502771
14502779
14502803
14502823
14502863
14502883
14502907
14502915
14503003
14503015
14503060
14503062
14503153
14503155
14503165
14503167
14503253
14503255
14503261
14503263
14503285
14503287
14503305
14503307
14503345
14503347
14503365
14503367
14503389
14503391
14503397
14503399
14503485
14503487
14503497
14503499
14503544
14503546
14503637
14503639
14503649
14503651
14503737
14503739
14503745
14503747
14503769
14503771
14503789
14503829
14503831
14503849
14503851
14503873
14503881
14503883
14503969
14503971
14503981
14503983
14504028
14504030
14504121
14504123
14504133
14504135
14504221
14504223
14504229
14504231
14504253
14504255
14504273
14504275
14504313
14504315
14504333
14504335
14504357
14504359
14504365
14504367
14504453
14504455
14504465
14504467
14504512
14504514
14504605
14504607
14504617
14504619
14504705
14504713
14504715
14504737
14504739
14504757
14504759
14504797
14504799
14504817
14504819
14504841
14504843
14504849
14504851
14504937
14504949
14504951
14504996
14504998
14505089
14505101
14505103
14505189
14505191
14505197
14505199
14505221
14505223
14505241
14505243
14505281
14505283
14505301
14505325
14505327
14505333
14505335
14505421
14505423
14505433
14505435
14505480
14505482
14505573
14505575
14505585
14505587
14505673
14505675
14505681
14505683
14505705
14505725
14505727
14505765
14505767
14505785
14505787
14505809
14505811
14505817
14505819
14505905
14505907
14505917
14505964
14505966
14506057
14506059
14506069
14506157
14506159
14506165
14506167
14506189
14506191
14506209
14506211
14506249
14506251
14506269
14506271
14506293
14506295
14506301
14506389
14506391
14506401
14506403
14506448
14506450
14506541
14506543
14506553
14506555
14506641
14506643
14506649
14506651
14506673
14506675
14506693
14506695
14506733
14506735
14506753
14506755
14506777
14506779
14506785
14506787
14506873
14506875
14506885
14506887
14506932
14506934
14507025
14507027
14507037
14507039
14507125
14507127
14507133
14507157
14507159
14507177
14507179
14507217
14507237
14507239
14507261
14507263
14507269
14507271
14507357
14507359
14507369
14507371
14507416
14507418
14507509
14507511
14507521
14507523
14507609
14507611
14507617
14507619
14507641
14507643
14507661
14507663
14507701
14507703
14507721
14507723
14507745
14507747
14507753
14507755
14507841
14507843
14507853
14507855
14507923
14507927
14507955
14507958
14507966
14507971
# 864.2secs	# 294 balance functions. Density 0.049
