# prime 11
# degree 2
# input variables 3
# output variables 7
# p = 11
# n = 7
# smalldomain p^m 1331
# domain p^n 19487171
#	 p^2 = 121
#	 p^3 = 1331
#	 p^4 = 14641
#	 p^5 = 161051
#	 p^6 = 1771561
#	 p^7 = 19487171
#	 p^8 = 214358881
#	 p^9 = 2357947691
# dimension of the chunk  6000
# number of the chunk  623 of 12991 blocks
# functions to test 6000
# startcode = 3738000  :: endcode = 3744000:: fdomain = 6000
3738008
3738040
3738042
3738057
3738059
3738069
3738071
3738072
3738074
3738113
3738115
3738148
3738150
3738161
3738163
3738180
3738182
3738214
3738235
3738244
3738246
3738281
3738283
3738320
3738322
3738325
3738327
3738337
3738339
3738352
3738354
3738384
3738386
3738397
3738399
3738416
3738418
3738420
3738422
3738424
3738426
3738428
3738430
3738432
3738434
3738436
3738440
3738442
3738444
3738446
3738448
3738450
3738452
3738454
3738456
3738458
3738494
3738524
3738541
3738543
3738553
3738555
3738556
3738558
3738597
3738599
3738632
3738634
3738645
3738647
3738664
3738666
3738696
3738698
3738717
3738719
3738728
3738730
3738765
3738767
3738804
3738806
3738809
3738811
3738821
3738823
3738836
3738838
3738868
3738870
3738881
3738883
3738900
3738902
3738904
3738906
3738908
3738912
3738914
3738916
3738918
3738920
3738922
3738924
3738926
3738928
3738930
3738932
3738934
3738936
3738938
3738940
3738942
3738965
3738967
3738976
3738978
3739008
3739010
3739025
3739027
3739037
3739039
3739040
3739081
3739083
3739116
3739118
3739129
3739148
3739150
3739180
3739182
3739201
3739203
3739214
3739251
3739288
3739290
3739293
3739295
3739305
3739320
3739322
3739352
3739354
3739365
3739367
3739384
3739386
3739388
3739390
3739392
3739394
3739396
3739398
3739400
3739402
3739404
3739406
3739408
3739410
3739412
3739414
3739416
3739418
3739420
3739422
3739424
3739449
3739451
3739460
3739462
3739494
3739511
3739521
3739523
3739524
3739526
3739565
3739567
3739600
3739613
3739615
3739632
3739634
3739664
3739666
3739685
3739687
3739696
3739698
3739733
3739772
3739774
3739777
3739789
3739791
3739804
3739806
3739836
3739838
3739849
3739851
3739868
3739870
3739872
3739874
3739876
3739878
3739880
3739882
3739884
3739886
3739888
3739890
3739892
3739894
3739896
3739900
3739902
3739904
3739906
3739908
3739910
3739933
3739935
3739944
3739946
3739976
3739978
3739993
3739995
3740005
3740007
3740008
3740010
3740049
3740051
3740084
3740086
3740097
3740099
3740116
3740148
3740150
3740169
3740171
3740180
3740182
3740217
3740219
3740258
3740263
3740273
3740275
3740288
3740290
3740320
3740322
3740333
3740335
3740352
3740354
3740356
3740358
3740360
3740362
3740364
3740366
3740368
3740372
3740374
3740376
3740378
3740380
3740382
3740384
3740386
3740388
3740390
3740392
3740394
3740417
3740419
3740428
3740430
3740460
3740462
3740477
3740479
3740491
3740494
3740533
3740535
3740568
3740570
3740581
3740583
3740600
3740602
3740632
3740653
3740655
3740664
3740666
3740701
3740703
3740740
3740742
3740745
3740747
3740757
3740759
3740772
3740774
3740804
3740806
3740817
3740819
3740836
3740838
3740840
3740844
3740846
3740848
3740850
3740852
3740854
3740856
3740858
3740860
3740862
3740864
3740866
3740868
3740870
3740872
3740874
3740876
3740878
3740901
3740903
3740912
3740914
3740944
3740946
3740961
3740963
3740973
3740976
3740978
3741017
3741052
3741054
3741065
3741067
3741084
3741086
3741116
3741118
3741137
3741139
3741148
3741185
3741187
3741224
3741226
3741229
3741231
3741243
3741258
3741288
3741290
3741301
3741303
3741320
3741322
3741324
3741326
3741328
3741330
3741332
3741334
3741336
3741338
3741340
3741342
3741344
3741346
3741348
3741350
3741352
3741354
3741356
3741360
3741362
3741385
3741387
3741396
3741398
3741428
3741430
3741445
3741457
3741459
3741460
3741462
3741503
3741538
3741549
3741551
3741568
3741570
3741600
3741602
3741621
3741632
3741634
3741669
3741671
3741708
3741713
3741715
3741725
3741727
3741740
3741742
3741772
3741774
3741785
3741787
3741804
3741806
3741808
3741810
3741812
3741814
3741816
3741818
3741820
3741822
3741824
3741826
3741828
3741832
3741834
3741836
3741838
3741840
3741842
3741844
3741846
3741869
3741871
3741880
3741882
3741912
3741914
3741929
3741931
3741941
3741943
3741944
3741946
3741985
3741987
3742020
3742022
3742033
3742035
3742052
3742054
3742084
3742086
3742105
3742107
3742116
3742118
3742153
3742155
3742192
3742194
3742197
3742199
3742209
3742211
3742224
3742258
3742288
3742290
3742292
3742294
3742296
3742298
3742300
3742304
3742306
3742308
3742310
3742312
3742314
3742316
3742318
3742320
3742322
3742324
3742326
3742328
3742330
3742353
3742355
3742364
3742366
3742396
3742398
3742413
3742415
3742425
3742427
3742428
3742430
3742469
3742471
3742504
3742506
3742519
3742538
3742568
3742570
3742589
3742591
3742600
3742602
3742637
3742639
3742676
3742678
3742681
3742683
3742693
3742695
3742708
3742710
3742740
3742753
3742755
3742778
3742782
3742786
3742790
3742794
3742798
3742802
3742806
3742810
3742814
3742821
3742823
3742832
3742834
3742865
3742867
3742892
3742894
3742905
3742907
3742908
3742910
3742968
3742970
3742977
3742979
3743009
3743028
3743030
3743044
3743046
3743065
3743097
3743099
3743104
3743106
3743125
3743127
3743164
3743166
3743180
3743182
3743209
3743211
3743240
3743242
3743253
3743255
3743256
3743258
3743260
3743262
3743264
3743266
3743268
3743270
3743272
3743274
3743276
3743278
3743280
3743282
3743284
3743286
3743288
3743292
3743294
3743296
3743298
3743305
3743307
3743316
3743318
3743349
3743351
3743376
3743378
3743389
3743391
3743392
3743394
3743452
3743454
3743461
3743463
3743493
3743495
3743512
3743514
3743530
3743551
3743581
3743583
3743588
3743590
3743609
3743611
3743648
3743664
3743666
3743693
3743695
3743724
3743726
3743737
3743739
3743740
3743742
3743744
3743746
3743748
3743750
3743752
3743754
3743756
3743758
3743760
3743764
3743766
3743768
3743770
3743772
3743774
3743776
3743778
3743780
3743782
3743791
3743802
3743833
3743835
3743860
3743862
3743873
3743875
3743876
3743878
3743936
3743938
3743945
3743947
3743977
3743979
3743996
# 721.348secs	# 691 balance functions. Density 0.115167
