# prime 11
# degree 2
# input variables 3
# output variables 7
# p = 11
# n = 7
# smalldomain p^m 1331
# domain p^n 19487171
#	 p^2 = 121
#	 p^3 = 1331
#	 p^4 = 14641
#	 p^5 = 161051
#	 p^6 = 1771561
#	 p^7 = 19487171
#	 p^8 = 214358881
#	 p^9 = 2357947691
# dimension of the chunk  6000
# number of the chunk  1686 of 12991 blocks
# functions to test 6000
# startcode = 10116000  :: endcode = 10122000:: fdomain = 6000
10116015
10116045
10116047
10116053
10116055
10116084
10116086
10116101
10116103
10116113
10116115
10116161
10116163
10116169
10116171
10116201
10116319
10116345
10116355
10116381
10116383
10116497
10116499
10116529
10116531
10116537
10116539
10116568
10116570
10116587
10116597
10116599
10116645
10116647
10116653
10116655
10116685
10116687
10116801
10116803
10116829
10116831
10116837
10116839
10116865
10116867
10116981
10116983
10117013
10117015
10117021
10117023
10117052
10117054
10117069
10117081
10117083
10117129
10117131
10117137
10117139
10117169
10117171
10117285
10117287
10117313
10117315
10117321
10117323
10117349
10117351
10117465
10117467
10117497
10117499
10117505
10117536
10117538
10117553
10117555
10117565
10117567
10117613
10117615
10117621
10117653
10117655
10117769
10117797
10117799
10117805
10117807
10117833
10117835
10117949
10117951
10117981
10117983
10117989
10117991
10118020
10118022
10118037
10118039
10118049
10118051
10118099
10118105
10118107
10118137
10118139
10118253
10118255
10118281
10118283
10118289
10118291
10118317
10118319
10118433
10118435
10118467
10118473
10118475
10118504
10118506
10118521
10118523
10118533
10118535
10118581
10118583
10118591
10118621
10118623
10118737
10118739
10118765
10118767
10118773
10118775
10118801
10118803
10118917
10118919
10118949
10118951
10118959
10118988
10118990
10119005
10119007
10119017
10119019
10119065
10119067
10119073
10119075
10119105
10119107
10119221
10119223
10119249
10119251
10119257
10119259
10119285
10119401
10119403
10119433
10119441
10119443
10119472
10119474
10119489
10119491
10119501
10119549
10119557
10119559
10119589
10119591
10119705
10119707
10119733
10119735
10119741
10119743
10119769
10119771
10119885
10119887
10119917
10119919
10119925
10119927
10119956
10119958
10119973
10119975
10119987
10120033
10120035
10120041
10120043
10120073
10120075
10120189
10120191
10120217
10120219
10120225
10120227
10120253
10120255
10120369
10120371
10120401
10120403
10120409
10120411
10120440
10120442
10120457
10120459
10120469
10120471
10120517
10120519
10120525
10120527
10120557
10120559
10120673
10120675
10120703
10120709
10120739
10120853
10120885
10120887
10120893
10120895
10120937
10120939
10120957
10120959
10120969
10120971
10120997
10120999
10121043
10121165
10121167
10121177
10121179
10121201
10121203
10121213
10121215
10121339
10121365
10121367
10121381
10121383
10121408
10121410
10121421
10121423
10121443
10121453
10121455
10121481
10121483
10121525
10121649
10121651
10121661
10121663
10121685
10121697
10121699
10121821
10121823
10121849
10121851
10121865
10121867
10121892
10121894
10121905
10121907
10121925
10121927
10121937
10121939
10121965
10121967
# 1141.11secs	# 298 balance functions. Density 0.0496667
