# prime 11
# degree 2
# input variables 3
# output variables 7
# p = 11
# n = 7
# smalldomain p^m 1331
# domain p^n 19487171
#	 p^2 = 121
#	 p^3 = 1331
#	 p^4 = 14641
#	 p^5 = 161051
#	 p^6 = 1771561
#	 p^7 = 19487171
#	 p^8 = 214358881
#	 p^9 = 2357947691
# dimension of the chunk  6000
# number of the chunk  2667 of 12991 blocks
# functions to test 6000
# startcode = 16002000  :: endcode = 16008000:: fdomain = 6000
16002008
16002010
16002115
16002117
16002119
16002193
16002195
16002205
16002207
16002237
16002239
16002245
16002247
16002301
16002303
16002309
16002311
16002341
16002343
16002353
16002355
16002431
16002433
16002435
16002492
16002494
16002597
16002599
16002601
16002603
16002677
16002689
16002691
16002721
16002723
16002731
16002785
16002795
16002825
16002827
16002837
16002839
16002913
16002915
16002917
16002919
16002976
16002978
16003081
16003083
16003085
16003087
16003161
16003163
16003173
16003175
16003205
16003207
16003213
16003215
16003269
16003271
16003277
16003279
16003309
16003311
16003321
16003323
16003397
16003399
16003401
16003403
16003460
16003462
16003565
16003567
16003569
16003571
16003647
16003657
16003659
16003689
16003691
16003697
16003699
16003753
16003755
16003761
16003763
16003795
16003805
16003807
16003881
16003883
16003885
16004045
16004047
16004057
16004059
16004153
16004155
16004161
16004163
16004165
16004167
16004189
16004209
16004211
16004229
16004257
16004259
16004265
16004267
16004361
16004363
16004373
16004375
16004428
16004430
16004529
16004531
16004541
16004543
16004637
16004639
16004645
16004647
16004651
16004673
16004675
16004693
16004695
16004715
16004741
16004743
16004749
16004751
16004845
16004847
16004857
16004859
16004912
16004914
16005013
16005015
16005025
16005027
16005121
16005123
16005129
16005131
16005133
16005135
16005157
16005159
16005177
16005179
16005197
16005199
16005225
16005227
16005233
16005235
16005329
16005331
16005341
16005343
16005396
16005398
16005497
16005499
16005509
16005511
16005605
16005607
16005613
16005615
16005617
16005619
16005641
16005643
16005661
16005681
16005683
16005709
16005711
16005717
16005719
16005813
16005815
16005825
16005880
16005882
16005981
16005983
16005993
16006091
16006097
16006099
16006101
16006103
16006125
16006127
16006145
16006147
16006165
16006167
16006201
16006203
16006297
16006299
16006309
16006311
16006364
16006366
16006465
16006467
16006479
16006573
16006575
16006581
16006583
16006585
16006587
16006609
16006611
16006629
16006631
16006649
16006651
16006677
16006679
16006685
16006781
16006783
16006795
16006848
16006850
16006951
16006961
16006963
16007057
16007065
16007067
16007069
16007071
16007093
16007095
16007113
16007115
16007133
16007135
16007161
16007163
16007169
16007171
16007267
16007277
16007279
16007332
16007334
16007433
16007435
16007445
16007447
16007541
16007543
16007553
16007555
16007577
16007579
16007597
16007599
16007617
16007619
16007645
16007647
16007655
16007749
16007761
16007763
16007816
16007818
16007917
16007929
16007931
# 873.458secs	# 286 balance functions. Density 0.0476667
