# prime 11
# degree 2
# input variables 3
# output variables 7
# p = 11
# n = 7
# smalldomain p^m 1331
# domain p^n 19487171
#	 p^2 = 121
#	 p^3 = 1331
#	 p^4 = 14641
#	 p^5 = 161051
#	 p^6 = 1771561
#	 p^7 = 19487171
#	 p^8 = 214358881
#	 p^9 = 2357947691
# dimension of the chunk  6000
# number of the chunk  1348 of 12991 blocks
# functions to test 6000
# startcode = 8088000  :: endcode = 8094000:: fdomain = 6000
8088057
8088059
8088081
8088083
8088101
8088103
8088124
8088126
8088131
8088165
8088167
8088169
8088171
8088193
8088195
8088237
8088239
8088381
8088383
8088385
8088387
8088393
8088395
8088397
8088399
8088541
8088543
8088565
8088567
8088585
8088587
8088608
8088610
8088613
8088615
8088649
8088651
8088653
8088655
8088677
8088679
8088721
8088723
8088865
8088867
8088869
8088871
8088877
8088879
8088881
8088883
8089025
8089027
8089049
8089051
8089069
8089071
8089092
8089094
8089097
8089099
8089133
8089137
8089139
8089161
8089163
8089205
8089207
8089349
8089351
8089353
8089355
8089361
8089363
8089365
8089367
8089509
8089511
8089533
8089553
8089555
8089576
8089578
8089581
8089583
8089617
8089619
8089623
8089645
8089689
8089691
8089833
8089835
8089837
8089839
8089845
8089849
8089851
8089993
8089995
8090017
8090019
8090039
8090060
8090062
8090065
8090067
8090101
8090103
8090105
8090107
8090131
8090173
8090175
8090317
8090319
8090321
8090329
8090331
8090333
8090335
8090477
8090479
8090503
8090521
8090544
8090546
8090549
8090585
8090587
8090589
8090613
8090615
8090657
8090659
8090801
8090803
8090805
8090807
8090813
8090815
8090817
8090819
8090961
8090963
8090985
8090987
8091005
8091007
8091028
8091030
8091033
8091035
8091069
8091071
8091073
8091075
8091097
8091099
8091141
8091143
8091285
8091287
8091289
8091291
8091297
8091299
8091301
8091303
8091445
8091447
8091469
8091471
8091489
8091491
8091512
8091514
8091517
8091519
8091555
8091557
8091559
8091581
8091583
8091625
8091627
8091769
8091771
8091773
8091775
8091781
8091783
8091785
8091787
8091929
8091931
8091953
8091955
8091973
8091975
8091996
8091998
8092001
8092003
8092037
8092039
8092041
8092043
8092065
8092067
8092109
8092111
8092257
8092259
8092267
8092269
8092271
8092413
8092437
8092439
8092457
8092459
8092497
8092499
8092509
8092511
8092533
8092535
8092541
8092543
8092595
8092709
8092711
8092725
8092727
8092765
8092767
8092781
8092783
8092899
8092949
8092951
8092957
8092959
8092964
8092966
8092981
8092983
8092993
8093017
8093019
8093025
8093027
8093077
8093193
8093195
8093209
8093211
8093249
8093251
8093265
8093267
8093381
8093383
8093433
8093435
8093441
8093443
8093448
8093450
8093465
8093467
8093477
8093479
8093501
8093503
8093509
8093511
8093561
8093563
8093677
8093679
8093693
8093733
8093735
8093749
8093751
8093865
8093867
8093917
8093919
8093925
8093932
8093934
8093949
8093951
8093961
8093963
8093985
8093987
8093993
# 1291.25secs	# 301 balance functions. Density 0.0501667
