# prime 11
# degree 2
# input variables 3
# output variables 7
# p = 11
# n = 7
# smalldomain p^m 1331
# domain p^n 19487171
#	 p^2 = 121
#	 p^3 = 1331
#	 p^4 = 14641
#	 p^5 = 161051
#	 p^6 = 1771561
#	 p^7 = 19487171
#	 p^8 = 214358881
#	 p^9 = 2357947691
# dimension of the chunk  6000
# number of the chunk  2276 of 12991 blocks
# functions to test 6000
# startcode = 13656000  :: endcode = 13662000:: fdomain = 6000
13656008
13656009
13656010
13656011
13656056
13656057
13656058
13656059
13656069
13656071
13656097
13656099
13656129
13656131
13656133
13656159
13656297
13656299
13656305
13656307
13656345
13656347
13656353
13656355
13656495
13656517
13656521
13656523
13656544
13656546
13656553
13656555
13656583
13656613
13656617
13656619
13656641
13656781
13656783
13656789
13656791
13656829
13656831
13656837
13656839
13656977
13656979
13657001
13657003
13657005
13657007
13657028
13657030
13657037
13657039
13657065
13657097
13657099
13657101
13657103
13657125
13657127
13657265
13657267
13657273
13657275
13657313
13657315
13657321
13657461
13657463
13657485
13657487
13657489
13657491
13657512
13657514
13657521
13657523
13657549
13657551
13657583
13657585
13657587
13657609
13657611
13657749
13657751
13657757
13657759
13657797
13657799
13657805
13657807
13657945
13657947
13657971
13657973
13657975
13657996
13657998
13658005
13658007
13658033
13658035
13658065
13658067
13658069
13658071
13658093
13658095
13658233
13658235
13658241
13658243
13658281
13658289
13658291
13658429
13658431
13658453
13658455
13658457
13658459
13658480
13658482
13658489
13658491
13658517
13658519
13658549
13658551
13658553
13658555
13658577
13658579
13658717
13658719
13658727
13658765
13658767
13658775
13658913
13658915
13658937
13658939
13658941
13658943
13658964
13658966
13658973
13658975
13659001
13659003
13659033
13659035
13659037
13659039
13659061
13659063
13659203
13659209
13659211
13659251
13659257
13659259
13659397
13659399
13659421
13659423
13659425
13659427
13659448
13659450
13659457
13659459
13659485
13659487
13659517
13659519
13659521
13659523
13659545
13659547
13659685
13659687
13659693
13659733
13659735
13659741
13659743
13659881
13659883
13659905
13659907
13659909
13659911
13659932
13659934
13659941
13659943
13659969
13659971
13660001
13660003
13660007
13660029
13660031
13660169
13660171
13660177
13660179
13660217
13660219
13660225
13660227
13660365
13660367
13660389
13660391
13660395
13660416
13660418
13660425
13660453
13660455
13660485
13660487
13660489
13660491
13660513
13660515
13660653
13660661
13660663
13660701
13660703
13660709
13660711
13660849
13660851
13660873
13660875
13660877
13660879
13660900
13660902
13660911
13660937
13660939
13660969
13660971
13660973
13660975
13660997
13660999
13661137
13661139
13661145
13661147
13661185
13661187
13661193
13661195
13661333
13661357
13661359
13661361
13661444
13661446
13661464
13661466
13661483
13661500
13661502
13661504
13661506
13661520
13661522
13661525
13661527
13661533
13661535
13661536
13661538
13661565
13661567
13661572
13661574
13661580
13661582
13661589
13661591
13661608
13661610
13661640
13661642
13661656
13661658
13661688
13661690
13661709
13661711
13661716
13661718
13661724
13661726
13661733
13661735
13661760
13661762
13661765
13661767
13661773
13661775
13661776
13661778
13661792
13661794
13661796
13661798
13661819
13661832
13661834
13661852
13661854
13661868
13661870
13661928
13661930
13661948
13661950
13661965
13661984
13661986
13661988
13661990
# 851.549secs	# 337 balance functions. Density 0.0561667
