# prime 11
# degree 2
# input variables 3
# output variables 7
# p = 11
# n = 7
# smalldomain p^m 1331
# domain p^n 19487171
#	 p^2 = 121
#	 p^3 = 1331
#	 p^4 = 14641
#	 p^5 = 161051
#	 p^6 = 1771561
#	 p^7 = 19487171
#	 p^8 = 214358881
#	 p^9 = 2357947691
# dimension of the chunk  6000
# number of the chunk  2691 of 12991 blocks
# functions to test 6000
# startcode = 16146000  :: endcode = 16152000:: fdomain = 6000
16146017
16146019
16146025
16146027
16146061
16146063
16146081
16146083
16146095
16146173
16146175
16146177
16146179
16146240
16146242
16146349
16146351
16146353
16146355
16146433
16146435
16146445
16146465
16146467
16146501
16146503
16146509
16146545
16146547
16146565
16146567
16146577
16146579
16146657
16146659
16146661
16146663
16146724
16146726
16146833
16146835
16146837
16146839
16146917
16146919
16146929
16146931
16146949
16146951
16146985
16146987
16146993
16146995
16147029
16147031
16147049
16147051
16147061
16147063
16147141
16147143
16147145
16147147
16147208
16147210
16147317
16147319
16147321
16147323
16147401
16147403
16147413
16147415
16147433
16147435
16147471
16147477
16147479
16147515
16147533
16147535
16147545
16147547
16147625
16147629
16147631
16147797
16147799
16147809
16147811
16147873
16147875
16147909
16147911
16147925
16147927
16147945
16147969
16147989
16147991
16148005
16148007
16148041
16148043
16148105
16148107
16148117
16148119
16148176
16148178
16148281
16148283
16148293
16148295
16148357
16148359
16148393
16148395
16148409
16148411
16148429
16148431
16148453
16148455
16148473
16148475
16148489
16148491
16148525
16148527
16148589
16148591
16148601
16148603
16148660
16148662
16148765
16148767
16148779
16148841
16148843
16148877
16148879
16148893
16148895
16148913
16148915
16148937
16148939
16148957
16148959
16148973
16148975
16149009
16149011
16149073
16149075
16149087
16149144
16149146
16149249
16149251
16149261
16149263
16149325
16149327
16149361
16149363
16149377
16149379
16149397
16149399
16149421
16149423
16149441
16149457
16149459
16149493
16149495
16149557
16149569
16149571
16149628
16149630
16149733
16149745
16149747
16149809
16149811
16149845
16149847
16149863
16149881
16149883
16149907
16149925
16149927
16149941
16149977
16149979
16150041
16150043
16150053
16150055
16150112
16150114
16150217
16150219
16150229
16150231
16150295
16150329
16150331
16150345
16150347
16150365
16150367
16150389
16150391
16150409
16150411
16150427
16150461
16150525
16150527
16150537
16150539
16150596
16150598
16150701
16150703
16150713
16150715
16150777
16150815
16150829
16150831
16150849
16150851
16150873
16150875
16150893
16150895
16150909
16150911
16150947
16151009
16151011
16151021
16151023
16151080
16151082
16151185
16151187
16151197
16151199
16151261
16151263
16151297
16151313
16151315
16151335
16151357
16151359
16151379
16151393
16151395
16151429
16151431
16151493
16151495
16151505
16151564
16151566
16151669
16151671
16151681
16151745
16151747
16151781
16151783
16151797
16151817
16151819
16151841
16151843
16151861
16151863
16151877
16151879
16151913
16151915
16151977
16151979
16151989
16151991
# 847.095secs	# 296 balance functions. Density 0.0493333
