# prime 11
# degree 2
# input variables 3
# output variables 7
# p = 11
# n = 7
# smalldomain p^m 1331
# domain p^n 19487171
#	 p^2 = 121
#	 p^3 = 1331
#	 p^4 = 14641
#	 p^5 = 161051
#	 p^6 = 1771561
#	 p^7 = 19487171
#	 p^8 = 214358881
#	 p^9 = 2357947691
# dimension of the chunk  6000
# number of the chunk  1708 of 12991 blocks
# functions to test 6000
# startcode = 10248000  :: endcode = 10254000:: fdomain = 6000
10248005
10248007
10248029
10248031
10248137
10248139
10248193
10248195
10248205
10248207
10248216
10248218
10248237
10248239
10248241
10248243
10248273
10248275
10248285
10248287
10248341
10248343
10248449
10248451
10248473
10248475
10248489
10248491
10248513
10248515
10248621
10248677
10248679
10248689
10248744
10248746
10248784
10248786
10248788
10248790
10248824
10248826
10248831
10248832
10248834
10248841
10248843
10248857
10248864
10248866
10248876
10248878
10248889
10248891
10248893
10248895
10248904
10248906
10248920
10248922
10248944
10248946
10248964
10248966
10248984
10248986
10249008
10249010
10249024
10249026
10249037
10249039
10249041
10249043
10249052
10249054
10249064
10249066
10249073
10249089
10249091
10249096
10249098
10249103
10249104
10249106
10249140
10249142
10249144
10249146
10249184
10249186
10249228
10249230
10249268
10249270
10249272
10249274
10249308
10249310
10249313
10249316
10249318
10249325
10249327
10249341
10249343
10249350
10249360
10249362
10249373
10249377
10249379
10249388
10249390
10249404
10249406
10249428
10249430
10249448
10249450
10249468
10249470
10249492
10249494
10249508
10249510
10249521
10249523
10249525
10249527
10249548
10249550
10249557
10249559
10249573
10249575
10249580
10249582
10249585
10249587
10249588
10249624
10249626
10249628
10249630
10249668
10249670
10249712
10249714
10249752
10249754
10249756
10249758
10249792
10249794
10249797
10249799
10249800
10249802
10249809
10249811
10249825
10249827
10249832
10249834
10249844
10249846
10249857
10249859
10249861
10249863
10249872
10249874
10249912
10249914
10249932
10249934
10249954
10249976
10249978
10249992
10250005
10250007
10250009
10250011
10250020
10250022
10250032
10250034
10250041
10250043
10250057
10250059
10250064
10250066
10250069
10250071
10250072
10250074
10250108
10250110
10250112
10250114
10250152
10250154
10250196
10250198
10250236
10250238
10250276
10250278
10250281
10250283
10250284
10250286
10250293
10250309
10250311
10250316
10250318
10250328
10250330
10250341
10250343
10250345
10250356
10250358
10250372
10250374
10250396
10250416
10250418
10250436
10250438
10250460
10250462
10250476
10250478
10250489
10250491
10250493
10250495
10250504
10250506
10250516
10250518
10250525
10250527
10250541
10250543
10250548
10250550
10250553
10250555
10250558
10250592
10250594
10250596
10250598
10250636
10250638
10250680
10250682
10250722
10250724
10250726
10250760
10250762
10250765
10250767
10250768
10250770
10250777
10250779
10250793
10250795
10250800
10250812
10250814
10250827
10250829
10250831
10250840
10250842
10250856
10250858
10250880
10250882
10250900
10250902
10250920
10250922
10250944
10250946
10250960
10250962
10250975
10250977
10250979
10250988
10250990
10251000
10251002
10251009
10251011
10251025
10251027
10251032
10251034
10251037
10251039
10251040
10251042
10251080
10251082
10251120
10251122
10251164
10251166
10251204
10251208
10251210
10251244
10251246
10251249
10251251
10251252
10251254
10251263
10251277
10251279
10251284
10251286
10251296
10251298
10251309
10251311
10251313
10251315
10251326
10251340
10251342
10251364
10251366
10251384
10251386
10251404
10251406
10251444
10251446
10251457
10251459
10251461
10251463
10251472
10251474
10251484
10251486
10251495
10251509
10251511
10251516
10251518
10251521
10251523
10251524
10251526
10251560
10251562
10251564
10251566
10251604
10251606
10251648
10251650
10251688
10251690
10251692
10251694
10251728
10251730
10251733
10251735
10251736
10251738
10251745
10251747
10251763
10251768
10251770
10251793
10251795
10251797
10251799
10251808
10251810
10251824
10251826
10251848
10251850
10251868
10251870
10251888
10251890
10251912
10251914
10251930
10251941
10251943
10251945
10251947
10251956
10251958
10251968
10251970
10251977
10251979
10251995
10252000
10252002
10252005
10252007
10252008
10252010
10252044
10252046
10252048
10252088
10252090
10252172
10252174
10252176
10252178
10252212
10252214
10252217
10252219
10252220
10252222
10252229
10252231
10252245
10252247
10252252
10252254
10252264
10252266
10252277
10252279
10252283
10252292
10252294
10252308
10252310
10252332
10252334
10252352
10252354
10252372
10252374
10252396
10252398
10252412
10252414
10252425
10252427
10252431
10252440
10252442
10252452
10252461
10252463
10252477
10252479
10252484
10252486
10252489
10252491
10252492
10252494
10252528
10252530
10252534
10252572
10252574
10252616
10252618
10252656
10252658
10252660
10252662
10252698
10252701
10252703
10252704
10252706
10252713
10252715
10252729
10252731
10252736
10252738
10252748
10252750
10252761
10252763
10252765
10252767
10252776
10252778
10252792
10252794
10252816
10252818
10252836
10252838
10252856
10252880
10252882
10252896
10252898
10252909
10252913
10252915
10252924
10252926
10252936
10252938
10252945
10252947
10252961
10252973
10252975
10252976
10252978
10253012
10253014
10253016
10253018
10253056
10253058
10253100
10253102
10253140
10253142
10253144
10253146
10253180
10253182
10253185
10253187
10253188
10253190
10253197
10253199
10253213
10253215
10253220
10253222
10253232
10253234
10253245
10253247
10253249
10253251
10253260
10253276
10253278
10253302
10253340
10253342
10253364
10253366
10253380
10253382
10253393
10253395
10253397
10253399
10253408
10253410
10253420
10253422
10253429
10253431
10253445
10253447
10253452
10253454
10253457
10253459
10253460
10253462
10253496
10253498
10253500
10253502
10253540
10253542
10253584
10253586
10253624
10253626
10253628
10253630
10253664
10253669
10253671
10253681
10253683
10253697
10253699
10253704
10253706
10253716
10253718
10253729
10253731
10253733
10253735
10253744
10253746
10253760
10253762
10253784
10253786
10253804
10253806
10253824
10253826
10253848
10253850
10253864
10253866
10253877
10253879
10253881
10253892
10253894
10253906
10253913
10253915
10253929
10253931
10253936
10253938
10253941
10253944
10253946
10253980
10253982
10253984
10253986
# 1116.89secs	# 654 balance functions. Density 0.109
