# prime 11
# degree 2
# input variables 3
# output variables 5
# reload computed balance functions from file balance-950of3248-p11d2m3-debug.log
# p = 11
# n = 5
# smalldomain p^m 1331
# domain p^n 161051
#	 p^2 = 121
#	 p^3 = 1331
#	 p^4 = 14641
#	 p^5 = 161051
#	 p^6 = 1771561
#	 p^7 = 19487171
#	 p^8 = 214358881
#	 p^9 = 2357947691
opening file : balance-950of3248-p11d2m3-debug.log
reloading for step2...
5700052		 # 	collision with: 0 7 0 0 0  and 2 7 0 0 0 
5700054		 # 	collision with: 6 4 7 0 0  and 6 6 7 0 0 
5700061		 # 	collision with: 10 2 0 0 0  and 8 3 0 0 0 
5700063		 # 	collision with: 6 2 0 0 0  and 6 3 0 0 0 
5700068		 # 	collision with: 5 7 9 8 0  and 5 0 0 0 1 
5700070		 # 	collision with: 0 6 0 0 0  and 4 9 0 1 0 
5700072		 # 	collision with: 5 4 0 0 0  and 6 4 0 0 0 
5700074		 # 	collision with: 6 4 4 0 0  and 6 5 4 0 0 
5700076		 # 	collision with: 2 2 0 0 0  and 4 2 0 0 0 
5700078		 # 	collision with: 6 0 2 0 0  and 6 2 2 0 0 
5700080		 # 	collision with: 3 5 0 0 0  and 5 5 0 0 0 
5700082		 # 	collision with: 6 0 5 0 0  and 6 2 5 0 0 
5700084		 # 	collision with: 4 1 0 0 0  and 5 1 0 0 0 
5700086		 # 	collision with: 6 0 1 0 0  and 6 1 1 0 0 
5700088		 # 	collision with: 1 3 0 0 0  and 2 3 0 0 0 
5700090		 # 	collision with: 6 1 3 0 0  and 6 3 3 0 0 
5700092		 # 	collision with: 4 8 0 0 0  and 6 8 0 0 0 
5700094		 # 	collision with: 6 4 8 0 0  and 6 5 8 0 0 
5700096		 # 	collision with: 1 10 0 0 0  and 3 10 0 0 0 
5700098		 # 	collision with: 6 0 10 0 0  and 6 1 10 0 0 
5700100		 # 	collision with: 2 6 0 0 0  and 3 6 0 0 0 
5700104		 # 	collision with: 3 9 0 0 0  and 4 9 0 0 0 
5700106		 # 	collision with: 6 5 9 0 0  and 6 6 9 0 0 
5700108		 # 	collision with: 0 7 0 0 0  and 2 7 0 0 0 
5700110		 # 	collision with: 6 1 7 0 0  and 6 3 7 0 0 
5700123		 # 	collision with: 1 1 1 0 0  and 1 1 3 0 0 
5700130		 # 	collision with: 6 0 1 0 0  and 6 1 1 0 0 
5700185		 # 	collision with: 3 9 0 0 0  and 4 9 0 0 0 
5700187		 # 	collision with: 10 5 1 0 0  and 10 5 3 0 0 
5700188		 # 	collision with: 2 6 0 0 0  and 3 6 0 0 0 
5700204		 # 	collision with: 5 4 0 0 0  and 6 4 0 0 0 
5700206		 # 	collision with: 6 4 4 0 0  and 6 5 4 0 0 
5700217		 # 	collision with: 1 3 0 0 0  and 2 3 0 0 0 
5700219		 # 	collision with: 6 1 0 0 0  and 6 3 0 0 0 
5700264		 # 	collision with: 1 3 0 0 0  and 2 3 0 0 0 
5700266		 # 	collision with: 6 1 3 0 0  and 6 3 3 0 0 
5700285		 # 	collision with: 2 2 0 0 0  and 4 2 0 0 0 
5700287		 # 	collision with: 6 4 1 0 0  and 6 7 3 0 0 
5700297		 # 	collision with: 0 1 0 0 0  and 3 3 0 0 0 
5700299		 # 	collision with: 9 1 1 0 0  and 9 1 3 0 0 
5700324		 # 	collision with: 3 9 0 0 0  and 4 9 0 0 0 
5700326		 # 	collision with: 6 5 9 0 0  and 6 6 9 0 0 
5700340		 # 	collision with: 2 2 0 0 0  and 4 2 0 0 0 
5700342		 # 	collision with: 6 0 2 0 0  and 6 2 2 0 0 
5700369		 # 	collision with: 2 6 0 0 0  and 3 6 0 0 0 
5700371		 # 	collision with: 6 8 1 0 0  and 6 6 3 0 0 
5700381		 # 	collision with: 5 4 0 0 0  and 6 4 0 0 0 
5700383		 # 	collision with: 6 0 3 0 0  and 6 1 3 0 0 
5700400		 # 	collision with: 4 8 0 0 0  and 6 8 0 0 0 
5700402		 # 	collision with: 6 4 8 0 0  and 6 5 8 0 0 
5700449		 # 	collision with: 3 9 0 0 0  and 4 9 0 0 0 
5700451		 # 	collision with: 8 5 1 0 0  and 8 5 3 0 0 
5700460		 # 	collision with: 0 7 0 0 0  and 2 7 0 0 0 
5700462		 # 	collision with: 6 1 7 0 0  and 6 3 7 0 0 
5700476		 # 	collision with: 3 5 0 0 0  and 5 5 0 0 0 
5700478		 # 	collision with: 6 0 5 0 0  and 6 2 5 0 0 
5700481		 # 	collision with: 1 3 0 0 0  and 2 3 0 0 0 
5700483		 # 	collision with: 6 1 0 0 0  and 6 3 0 0 0 
5700536		 # 	collision with: 1 10 0 0 0  and 3 10 0 0 0 
5700538		 # 	collision with: 6 0 10 0 0  and 6 1 10 0 0 
5700545		 # 	collision with: 2 6 0 0 0  and 3 6 0 0 0 
5700547		 # 	collision with: 3 10 1 0 0  and 3 10 3 0 0 
5700552		 # 	collision with: 0 7 2 10 0  and 4 0 0 0 1 
5700554		 # 	collision with: 2 3 0 0 0  and 5 7 0 1 0 
5700556		 # 	collision with: 1 3 0 0 0  and 2 3 0 0 0 
5700558		 # 	collision with: 6 0 3 0 0  and 6 1 3 0 0 
5700560		 # 	collision with: 0 7 0 0 0  and 2 7 0 0 0 
5700562		 # 	collision with: 6 4 7 0 0  and 6 5 7 0 0 
5700564		 # 	collision with: 4 1 0 0 0  and 5 1 0 0 0 
5700566		 # 	collision with: 6 1 1 0 0  and 6 2 1 0 0 
5700568		 # 	collision with: 3 9 0 0 0  and 4 9 0 0 0 
5700570		 # 	collision with: 6 4 9 0 0  and 6 6 9 0 0 
5700572		 # 	collision with: 3 5 0 0 0  and 5 5 0 0 0 
5700574		 # 	collision with: 6 4 5 0 0  and 6 5 5 0 0 
5700576		 # 	collision with: 2 6 0 0 0  and 3 6 0 0 0 
5700580		 # 	collision with: 2 2 0 0 0  and 4 2 0 0 0 
5700582		 # 	collision with: 6 1 2 0 0  and 6 2 2 0 0 
5700584		 # 	collision with: 1 10 0 0 0  and 3 10 0 0 0 
5700586		 # 	collision with: 6 4 10 0 0  and 6 6 10 0 0 
5700588		 # 	collision with: 5 4 0 0 0  and 6 4 0 0 0 
5700590		 # 	collision with: 6 1 4 0 0  and 6 3 4 0 0 
5700592		 # 	collision with: 4 8 0 0 0  and 6 8 0 0 0 
5700594		 # 	collision with: 6 0 8 0 0  and 6 1 8 0 0 
5700605		 # 	collision with: 9 1 0 0 0  and 0 2 0 0 0 
5700607		 # 	collision with: 4 8 1 0 0  and 4 8 2 0 0 
5700612		 # 	collision with: 3 9 0 0 0  and 4 9 0 0 0 
5700614		 # 	collision with: 6 4 9 0 0  and 6 6 9 0 0 
5700669		 # 	collision with: 2 6 0 0 0  and 3 6 0 0 0 
5700671		 # 	collision with: 1 7 1 0 0  and 1 7 2 0 0 
5700672		 # 	collision with: 1 10 0 0 0  and 3 10 0 0 0 
5700674		 # 	collision with: 6 4 10 0 0  and 6 6 10 0 0 
5700688		 # 	collision with: 1 3 0 0 0  and 2 3 0 0 0 
5700690		 # 	collision with: 6 0 3 0 0  and 6 1 3 0 0 
5700701		 # 	collision with: 5 1 0 0 0  and 3 2 0 0 0 
5700703		 # 	collision with: 6 4 1 0 0  and 6 4 2 0 0 
5700748		 # 	collision with: 3 5 0 0 0  and 5 5 0 0 0 
5700750		 # 	collision with: 6 4 5 0 0  and 6 5 5 0 0 
5700769		 # 	collision with: 4 1 0 0 0  and 3 2 0 0 0 
5700771		 # 	collision with: 6 1 0 0 0  and 6 2 0 0 0 
5700781		 # 	collision with: 9 1 0 0 0  and 0 2 0 0 0 
5700783		 # 	collision with: 6 9 1 0 0  and 6 0 2 0 0 
5700808		 # 	collision with: 5 4 0 0 0  and 6 4 0 0 0 
5700810		 # 	collision with: 6 1 4 0 0  and 6 3 4 0 0 
5700824		 # 	collision with: 0 7 0 0 0  and 2 7 0 0 0 
5700826		 # 	collision with: 6 4 7 0 0  and 6 5 7 0 0 
5700853		 # 	collision with: 1 1 0 0 0  and 2 2 0 0 0 
5700855		 # 	collision with: 10 3 1 0 0  and 10 3 2 0 0 
5700865		 # 	collision with: 1 10 0 0 0  and 3 10 0 0 0 
5700867		 # 	collision with: 6 5 1 0 0  and 6 5 2 0 0 
5700884		 # 	collision with: 2 6 0 0 0  and 3 6 0 0 0 
5700933		 # 	collision with: 2 6 0 0 0  and 3 6 0 0 0 
5700935		 # 	collision with: 3 7 1 0 0  and 3 7 2 0 0 
5700944		 # 	collision with: 4 8 0 0 0  and 6 8 0 0 0 
5700946		 # 	collision with: 6 0 8 0 0  and 6 1 8 0 0 
5700962		 # 	collision with: 6 1 1 0 0  and 6 2 1 0 0 
5700967		 # 	collision with: 6 6 1 0 0  and 6 2 2 0 0 
5701020		 # 	collision with: 2 2 0 0 0  and 4 2 0 0 0 
5701022		 # 	collision with: 6 1 2 0 0  and 6 2 2 0 0 
5701029		 # 	collision with: 1 1 0 0 0  and 2 2 0 0 0 
5701031		 # 	collision with: 6 6 1 0 0  and 6 0 2 0 0 
5701036		 # 	collision with: 1 6 1 6 0  and 6 1 0 0 1 
5701038		 # 	collision with: 9 8 0 0 0  and 0 3 0 1 0 
5701040		 # 	collision with: 2 2 0 0 0  and 4 2 0 0 0 
5701042		 # 	collision with: 6 1 2 0 0  and 6 3 2 0 0 
5701044		 # 	collision with: 4 1 0 0 0  and 5 1 0 0 0 
5701046		 # 	collision with: 6 2 1 0 0  and 6 3 1 0 0 
5701048		 # 	collision with: 4 8 0 0 0  and 6 8 0 0 0 
5701050		 # 	collision with: 6 1 8 0 0  and 6 3 8 0 0 
5701052		 # 	collision with: 2 6 0 0 0  and 3 6 0 0 0 
5701056		 # 	collision with: 0 7 0 0 0  and 2 7 0 0 0 
5701058		 # 	collision with: 6 1 7 0 0  and 6 2 7 0 0 
5701060		 # 	collision with: 5 4 0 0 0  and 6 4 0 0 0 
5701062		 # 	collision with: 6 4 4 0 0  and 6 6 4 0 0 
5701064		 # 	collision with: 3 5 0 0 0  and 5 5 0 0 0 
5701066		 # 	collision with: 6 2 5 0 0  and 6 3 5 0 0 
5701068		 # 	collision with: 1 3 0 0 0  and 2 3 0 0 0 
5701070		 # 	collision with: 6 4 3 0 0  and 6 5 3 0 0 
5701072		 # 	collision with: 1 10 0 0 0  and 3 10 0 0 0 
5701074		 # 	collision with: 6 3 10 0 0  and 6 5 10 0 0 
5701076		 # 	collision with: 3 9 0 0 0  and 4 9 0 0 0 
5701078		 # 	collision with: 6 4 9 0 0  and 6 5 9 0 0 
5701089		 # 	collision with: 9 0 0 0 0  and 5 2 0 0 0 
5701091		 # 	collision with: 6 1 0 0 0  and 6 3 2 0 0 
5701096		 # 	collision with: 2 6 0 0 0  and 3 6 0 0 0 
5701153		 # 	collision with: 9 0 0 0 0  and 1 2 0 0 0 
5701155		 # 	collision with: 6 2 1 0 0  and 6 4 1 0 0 
5701156		 # 	collision with: 1 3 0 0 0  and 2 3 0 0 0 
5701158		 # 	collision with: 6 4 3 0 0  and 6 5 3 0 0 
5701172		 # 	collision with: 2 2 0 0 0  and 4 2 0 0 0 
5701174		 # 	collision with: 6 1 2 0 0  and 6 3 2 0 0 
5701185		 # 	collision with: 4 1 0 0 0  and 5 1 0 0 0 
5701232		 # 	collision with: 0 7 0 0 0  and 2 7 0 0 0 
5701234		 # 	collision with: 6 1 7 0 0  and 6 2 7 0 0 
5701253		 # 	collision with: 3 0 0 0 0  and 1 2 0 0 0 
5701255		 # 	collision with: 4 3 0 0 0  and 4 3 2 0 0 
5701265		 # 	collision with: 9 0 0 0 0  and 5 2 0 0 0 
5701267		 # 	collision with: 8 4 0 0 0  and 8 4 2 0 0 
5701292		 # 	collision with: 1 10 0 0 0  and 3 10 0 0 0 
5701294		 # 	collision with: 6 3 10 0 0  and 6 5 10 0 0 
5701310		 # 	collision with: 6 2 1 0 0  and 6 3 1 0 0 
5701339		 # 	collision with: 4 7 0 0 0  and 4 7 2 0 0 
5701349		 # 	collision with: 3 5 0 0 0  and 5 5 0 0 0 
5701351		 # 	collision with: 10 8 0 0 0  and 10 8 2 0 0 
5701368		 # 	collision with: 5 4 0 0 0  and 6 4 0 0 0 
5701370		 # 	collision with: 6 4 4 0 0  and 6 6 4 0 0 
5701417		 # 	collision with: 9 0 0 0 0  and 1 2 0 0 0 
5701419		 # 	collision with: 6 2 1 0 0  and 6 4 1 0 0 
5701428		 # 	collision with: 3 9 0 0 0  and 4 9 0 0 0 
5701430		 # 	collision with: 6 4 9 0 0  and 6 5 9 0 0 
5701444		 # 	collision with: 4 8 0 0 0  and 6 8 0 0 0 
5701446		 # 	collision with: 6 1 8 0 0  and 6 3 8 0 0 
5701449		 # 	collision with: 4 1 0 0 0  and 5 1 0 0 0 
5701504		 # 	collision with: 3 5 0 0 0  and 5 5 0 0 0 
5701506		 # 	collision with: 6 2 5 0 0  and 6 3 5 0 0 
5701513		 # 	collision with: 2 2 0 0 0  and 4 2 0 0 0 
5701515		 # 	collision with: 9 7 0 0 0  and 9 7 2 0 0 
5701520		 # 	collision with: 10 5 3 4 0  and 2 0 0 0 1 
5701522		 # 	collision with: 4 2 0 0 0  and 5 3 0 1 0 
5701524		 # 	collision with: 4 1 0 0 0  and 5 1 0 0 0 
5701526		 # 	collision with: 6 3 1 0 0  and 6 4 1 0 0 
5701528		 # 	collision with: 2 6 0 0 0  and 3 6 0 0 0 
5701532		 # 	collision with: 5 4 0 0 0  and 6 4 0 0 0 
5701534		 # 	collision with: 6 2 4 0 0  and 6 3 4 0 0 
5701536		 # 	collision with: 1 3 0 0 0  and 2 3 0 0 0 
5701538		 # 	collision with: 6 2 3 0 0  and 6 4 3 0 0 
5701540		 # 	collision with: 3 9 0 0 0  and 4 9 0 0 0 
5701542		 # 	collision with: 6 3 9 0 0  and 6 5 9 0 0 
5701544		 # 	collision with: 2 2 0 0 0  and 4 2 0 0 0 
5701546		 # 	collision with: 6 2 2 0 0  and 6 3 2 0 0 
5701548		 # 	collision with: 4 8 0 0 0  and 6 8 0 0 0 
5701550		 # 	collision with: 6 3 8 0 0  and 6 4 8 0 0 
5701552		 # 	collision with: 0 7 0 0 0  and 2 7 0 0 0 
5701554		 # 	collision with: 6 3 7 0 0  and 6 5 7 0 0 
5701556		 # 	collision with: 3 5 0 0 0  and 5 5 0 0 0 
5701558		 # 	collision with: 6 0 5 0 0  and 6 1 5 0 0 
5701560		 # 	collision with: 1 10 0 0 0  and 3 10 0 0 0 
5701562		 # 	collision with: 6 2 10 0 0  and 6 4 10 0 0 
5701573		 # 	collision with: 5 0 0 0 0  and 7 0 0 0 0 
5701580		 # 	collision with: 1 3 0 0 0  and 2 3 0 0 0 
5701582		 # 	collision with: 6 2 3 0 0  and 6 4 3 0 0 
5701637		 # 	collision with: 5 0 0 0 0  and 7 0 0 0 0 
5701639		 # 	collision with: 5 0 0 0 0  and 5 0 1 0 0 
5701640		 # 	collision with: 0 7 0 0 0  and 2 7 0 0 0 
5701642		 # 	collision with: 6 3 7 0 0  and 6 5 7 0 0 
5701658		 # 	collision with: 6 3 1 0 0  and 6 4 1 0 0 
5701671		 # 	collision with: 7 0 0 0 0  and 7 0 1 0 0 
5701716		 # 	collision with: 3 9 0 0 0  and 4 9 0 0 0 
5701718		 # 	collision with: 6 3 9 0 0  and 6 5 9 0 0 
5701737		 # 	collision with: 5 0 0 0 0  and 7 0 0 0 0 
5701739		 # 	collision with: 8 0 0 0 0  and 8 0 1 0 0 
5701749		 # 	collision with: 5 0 0 0 0  and 7 0 0 0 0 
5701776		 # 	collision with: 3 5 0 0 0  and 5 5 0 0 0 
5701778		 # 	collision with: 6 0 5 0 0  and 6 1 5 0 0 
5701792		 # 	collision with: 2 6 0 0 0  and 3 6 0 0 0 
5701821		 # 	collision with: 5 0 0 0 0  and 7 0 0 0 0 
5701823		 # 	collision with: 9 0 0 0 0  and 9 0 1 0 0 
5701833		 # 	collision with: 5 0 0 0 0  and 7 0 0 0 0 
5701835		 # 	collision with: 3 0 0 0 0  and 3 0 1 0 0 
5701852		 # 	collision with: 2 2 0 0 0  and 4 2 0 0 0 
5701854		 # 	collision with: 6 2 2 0 0  and 6 3 2 0 0 
5701901		 # 	collision with: 5 0 0 0 0  and 7 0 0 0 0 
5701903		 # 	collision with: 4 0 0 0 0  and 4 0 1 0 0 
5701912		 # 	collision with: 1 10 0 0 0  and 3 10 0 0 0 
5701914		 # 	collision with: 6 2 10 0 0  and 6 4 10 0 0 
5701928		 # 	collision with: 5 4 0 0 0  and 6 4 0 0 0 
5701930		 # 	collision with: 6 2 4 0 0  and 6 3 4 0 0 
5701933		 # 	collision with: 5 0 0 0 0  and 7 0 0 0 0 
5701935		 # 	collision with: 6 0 0 0 0  and 6 0 1 0 0 
5701988		 # 	collision with: 4 8 0 0 0  and 6 8 0 0 0 
5701990		 # 	collision with: 6 3 8 0 0  and 6 4 8 0 0 
5701997		 # 	collision with: 5 0 0 0 0  and 7 0 0 0 0 
5701999		 # 	collision with: 6 3 3 0 0  and 6 4 3 0 0 
5702010		 # 	collision with: 6 0 0 0 0  and 6 2 0 0 0 
5702014		 # 	collision with: 6 2 0 0 0  and 6 4 0 0 0 
5702018		 # 	collision with: 6 4 0 0 0  and 6 6 0 0 0 
5702022		 # 	collision with: 6 1 0 0 0  and 6 2 0 0 0 
5702026		 # 	collision with: 6 3 0 0 0  and 6 4 0 0 0 
5702030		 # 	collision with: 6 5 0 0 0  and 6 6 0 0 0 
5702034		 # 	collision with: 6 1 0 0 0  and 6 3 0 0 0 
5702038		 # 	collision with: 6 3 0 0 0  and 6 5 0 0 0 
5702042		 # 	collision with: 6 0 0 0 0  and 6 1 0 0 0 
5702046		 # 	collision with: 6 2 0 0 0  and 6 3 0 0 0 
5702077		 # 	collision with: 1 1 0 0 0  and 3 1 0 0 0 
5702079		 # 	collision with: 3 2 5 0 0  and 3 2 6 0 0 
5702084		 # 	collision with: 4 0 0 0 0  and 5 0 0 0 0 
5702086		 # 	collision with: 6 0 0 0 0  and 6 1 0 0 0 
5702117		 # 	collision with: 4 2 0 0 0  and 6 2 0 0 0 
5702119		 # 	collision with: 6 5 0 0 0  and 6 6 0 0 0 
5702120		 # 	collision with: 4 0 0 0 0  and 5 0 0 0 0 
5702122		 # 	collision with: 6 1 0 0 0  and 6 3 0 0 0 
5702156		 # 	collision with: 4 0 0 0 0  and 5 0 0 0 0 
5702158		 # 	collision with: 6 3 0 0 0  and 6 4 0 0 0 
5702169		 # 	collision with: 0 8 0 0 0  and 2 8 0 0 0 
5702192		 # 	collision with: 4 0 0 0 0  and 5 0 0 0 0 
5702194		 # 	collision with: 6 4 0 0 0  and 6 6 0 0 0 
5702213		 # 	collision with: 0 8 0 0 0  and 2 8 0 0 0 
5702215		 # 	collision with: 6 1 1 0 0  and 6 2 1 0 0 
5702228		 # 	collision with: 4 0 0 0 0  and 5 0 0 0 0 
5702230		 # 	collision with: 6 0 0 0 0  and 6 2 0 0 0 
5702245		 # 	collision with: 5 5 0 0 0  and 9 6 0 0 0 
5702247		 # 	collision with: 6 4 5 0 0  and 6 2 6 0 0 
5702293		 # 	collision with: 4 2 0 0 0  and 6 2 0 0 0 
5702295		 # 	collision with: 6 5 0 0 0  and 6 6 0 0 0 
5702308		 # 	collision with: 4 0 0 0 0  and 5 0 0 0 0 
5702310		 # 	collision with: 6 2 0 0 0  and 6 3 0 0 0 
5702325		 # 	collision with: 6 5 0 0 0  and 1 6 0 0 0 
5702327		 # 	collision with: 6 3 5 0 0  and 6 4 5 0 0 
5702344		 # 	collision with: 4 0 0 0 0  and 5 0 0 0 0 
5702346		 # 	collision with: 6 3 0 0 0  and 6 5 0 0 0 
5702369		 # 	collision with: 6 5 0 0 0  and 1 6 0 0 0 
5702380		 # 	collision with: 4 0 0 0 0  and 5 0 0 0 0 
5702382		 # 	collision with: 6 5 0 0 0  and 6 6 0 0 0 
5702416		 # 	collision with: 4 0 0 0 0  and 5 0 0 0 0 
5702418		 # 	collision with: 6 1 0 0 0  and 6 2 0 0 0 
5702421		 # 	collision with: 5 5 0 0 0  and 9 6 0 0 0 
5702423		 # 	collision with: 1 5 5 0 0  and 1 5 6 0 0 
5702452		 # 	collision with: 4 0 0 0 0  and 5 0 0 0 0 
5702454		 # 	collision with: 6 2 0 0 0  and 6 4 0 0 0 
5702461		 # 	collision with: 0 5 0 0 0  and 1 6 0 0 0 
5702463		 # 	collision with: 6 4 3 0 0  and 6 6 3 0 0 
5702488		 # 	collision with: 2 2 1 7 0  and 8 0 0 0 1 
5702490		 # 	collision with: 8 1 1 0 0  and 7 1 0 1 0 
5702492		 # 	collision with: 1 10 0 0 0  and 2 10 0 0 0 
5702494		 # 	collision with: 6 3 10 0 0  and 6 4 10 0 0 
5702496		 # 	collision with: 2 5 0 0 0  and 4 5 0 0 0 
5702498		 # 	collision with: 6 1 5 0 0  and 6 2 5 0 0 
5702500		 # 	collision with: 3 7 0 0 0  and 4 7 0 0 0 
5702502		 # 	collision with: 6 3 7 0 0  and 6 5 7 0 0 
5702504		 # 	collision with: 0 8 0 0 0  and 2 8 0 0 0 
5702506		 # 	collision with: 6 3 8 0 0  and 6 4 8 0 0 
5702508		 # 	collision with: 4 2 0 0 0  and 6 2 0 0 0 
5702510		 # 	collision with: 6 3 2 0 0  and 6 5 2 0 0 
5702512		 # 	collision with: 3 9 0 0 0  and 5 9 0 0 0 
5702514		 # 	collision with: 6 4 9 0 0  and 6 6 9 0 0 
5702516		 # 	collision with: 2 3 0 0 0  and 3 3 0 0 0 
5702518		 # 	collision with: 6 5 3 0 0  and 6 6 3 0 0 
5702520		 # 	collision with: 5 4 0 0 0  and 6 4 0 0 0 
5702522		 # 	collision with: 6 4 4 0 0  and 6 6 4 0 0 
5702524		 # 	collision with: 0 6 0 0 0  and 1 6 0 0 0 
5702528		 # 	collision with: 1 1 0 0 0  and 3 1 0 0 0 
5702530		 # 	collision with: 6 5 1 0 0  and 6 6 1 0 0 
5702561		 # 	collision with: 0 6 0 0 0  and 1 6 0 0 0 
5702563		 # 	collision with: 6 5 3 0 0  and 6 6 3 0 0 
5702568		 # 	collision with: 0 6 0 0 0  and 1 6 0 0 0 
5702570		 # 	collision with: 6 1 6 0 0  and 6 3 6 0 0 
5702601		 # 	collision with: 1 1 0 0 0  and 3 1 0 0 0 
5702603		 # 	collision with: 8 3 4 0 0  and 8 3 6 0 0 
5702604		 # 	collision with: 2 3 0 0 0  and 3 3 0 0 0 
5702640		 # 	collision with: 4 2 0 0 0  and 6 2 0 0 0 
5702642		 # 	collision with: 6 3 2 0 0  and 6 5 2 0 0 
5702653		 # 	collision with: 5 4 0 0 0  and 6 4 0 0 0 
5702655		 # 	collision with: 3 5 4 0 0  and 3 5 6 0 0 
5702676		 # 	collision with: 3 7 0 0 0  and 4 7 0 0 0 
5702678		 # 	collision with: 6 3 7 0 0  and 6 5 7 0 0 
5702697		 # 	collision with: 5 4 0 0 0  and 6 4 0 0 0 
5702699		 # 	collision with: 6 5 4 0 0  and 6 1 6 0 0 
5702712		 # 	collision with: 1 10 0 0 0  and 2 10 0 0 0 
5702714		 # 	collision with: 6 3 10 0 0  and 6 4 10 0 0 
5702729		 # 	collision with: 8 4 0 0 0  and 5 6 0 0 0 
5702731		 # 	collision with: 6 0 4 0 0  and 6 3 6 0 0 
5702777		 # 	collision with: 1 1 0 0 0  and 3 1 0 0 0 
5702779		 # 	collision with: 10 3 4 0 0  and 10 3 6 0 0 
5702792		 # 	collision with: 1 1 0 0 0  and 3 1 0 0 0 
5702794		 # 	collision with: 6 5 1 0 0  and 6 6 1 0 0 
5702809		 # 	collision with: 2 5 0 0 0  and 4 5 0 0 0 
5702811		 # 	collision with: 6 4 0 0 0  and 6 6 0 0 0 
5702828		 # 	collision with: 5 4 0 0 0  and 6 4 0 0 0 
5702830		 # 	collision with: 6 4 4 0 0  and 6 6 4 0 0 
5702855		 # 	collision with: 6 4 0 0 0  and 6 6 0 0 0 
5702866		 # 	collision with: 6 4 9 0 0  and 6 6 9 0 0 
5702900		 # 	collision with: 0 8 0 0 0  and 2 8 0 0 0 
5702902		 # 	collision with: 6 3 8 0 0  and 6 4 8 0 0 
5702905		 # 	collision with: 8 4 0 0 0  and 5 6 0 0 0 
5702907		 # 	collision with: 9 8 4 0 0  and 9 8 6 0 0 
5702936		 # 	collision with: 2 5 0 0 0  and 4 5 0 0 0 
5702938		 # 	collision with: 6 1 5 0 0  and 6 2 5 0 0 
5702945		 # 	collision with: 1 10 0 0 0  and 2 10 0 0 0 
5702947		 # 	collision with: 6 2 4 0 0  and 6 3 4 0 0 
5702972		 # 	collision with: 10 1 6 7 0  and 10 0 0 0 1 
5702974		 # 	collision with: 6 0 6 0 0  and 4 2 0 1 0 
5702976		 # 	collision with: 3 9 0 0 0  and 5 9 0 0 0 
5702978		 # 	collision with: 6 0 9 0 0  and 6 1 9 0 0 
5702980		 # 	collision with: 1 10 0 0 0  and 2 10 0 0 0 
5702982		 # 	collision with: 6 5 10 0 0  and 6 6 10 0 0 
5702984		 # 	collision with: 2 3 0 0 0  and 3 3 0 0 0 
5702986		 # 	collision with: 6 2 3 0 0  and 6 4 3 0 0 
5702988		 # 	collision with: 2 5 0 0 0  and 4 5 0 0 0 
5702990		 # 	collision with: 6 5 5 0 0  and 6 6 5 0 0 
5702992		 # 	collision with: 5 4 0 0 0  and 6 4 0 0 0 
5702994		 # 	collision with: 6 4 4 0 0  and 6 5 4 0 0 
5702996		 # 	collision with: 3 7 0 0 0  and 4 7 0 0 0 
5702998		 # 	collision with: 6 4 7 0 0  and 6 5 7 0 0 
5703000		 # 	collision with: 0 6 0 0 0  and 1 6 0 0 0 
5703004		 # 	collision with: 0 8 0 0 0  and 2 8 0 0 0 
5703006		 # 	collision with: 6 0 8 0 0  and 6 1 8 0 0 
5703008		 # 	collision with: 1 1 0 0 0  and 3 1 0 0 0 
5703010		 # 	collision with: 6 3 1 0 0  and 6 4 1 0 0 
5703012		 # 	collision with: 4 2 0 0 0  and 6 2 0 0 0 
5703014		 # 	collision with: 6 2 2 0 0  and 6 4 2 0 0 
5703045		 # 	collision with: 4 0 0 0 0  and 5 0 0 0 0 
5703047		 # 	collision with: 10 0 4 0 0  and 10 0 5 0 0 
5703052		 # 	collision with: 1 1 0 0 0  and 3 1 0 0 0 
5703054		 # 	collision with: 6 3 1 0 0  and 6 4 1 0 0 
5703085		 # 	collision with: 4 0 0 0 0  and 5 0 0 0 0 
5703087		 # 	collision with: 5 0 4 0 0  and 5 0 5 0 0 
5703088		 # 	collision with: 0 6 0 0 0  and 1 6 0 0 0 
5703090		 # 	collision with: 6 3 6 0 0  and 6 4 6 0 0 
5703124		 # 	collision with: 5 4 0 0 0  and 6 4 0 0 0 
5703126		 # 	collision with: 6 4 4 0 0  and 6 5 4 0 0 
5703137		 # 	collision with: 4 0 0 0 0  and 5 0 0 0 0 
5703139		 # 	collision with: 6 4 4 0 0  and 6 6 4 0 0 
5703160		 # 	collision with: 2 3 0 0 0  and 3 3 0 0 0 
5703181		 # 	collision with: 4 0 0 0 0  and 5 0 0 0 0 
5703183		 # 	collision with: 6 4 4 0 0  and 6 6 4 0 0 
5703198		 # 	collision with: 6 0 9 0 0  and 6 1 9 0 0 
5703215		 # 	collision with: 2 0 4 0 0  and 2 0 5 0 0 
5703261		 # 	collision with: 4 0 0 0 0  and 5 0 0 0 0 
5703263		 # 	collision with: 9 0 4 0 0  and 9 0 5 0 0 
5703276		 # 	collision with: 4 2 0 0 0  and 6 2 0 0 0 
5703278		 # 	collision with: 6 2 2 0 0  and 6 4 2 0 0 
5703293		 # 	collision with: 4 0 0 0 0  and 5 0 0 0 0 
5703295		 # 	collision with: 3 0 4 0 0  and 3 0 5 0 0 
5703312		 # 	collision with: 0 8 0 0 0  and 2 8 0 0 0 
5703314		 # 	collision with: 6 0 8 0 0  and 6 1 8 0 0 
5703337		 # 	collision with: 4 0 0 0 0  and 5 0 0 0 0 
5703339		 # 	collision with: 4 0 4 0 0  and 4 0 5 0 0 
5703348		 # 	collision with: 3 7 0 0 0  and 4 7 0 0 0 
5703350		 # 	collision with: 6 4 7 0 0  and 6 5 7 0 0 
5703384		 # 	collision with: 2 5 0 0 0  and 4 5 0 0 0 
5703386		 # 	collision with: 6 5 5 0 0  and 6 6 5 0 0 
5703389		 # 	collision with: 4 0 0 0 0  and 5 0 0 0 0 
5703391		 # 	collision with: 6 0 4 0 0  and 6 0 5 0 0 
5703420		 # 	collision with: 1 10 0 0 0  and 2 10 0 0 0 
5703422		 # 	collision with: 6 5 10 0 0  and 6 6 10 0 0 
5703429		 # 	collision with: 4 0 0 0 0  and 5 0 0 0 0 
5703431		 # 	collision with: 1 0 4 0 0  and 1 0 5 0 0 
5703456		 # 	collision with: 5 5 5 10 0  and 2 0 0 0 1 
5703458		 # 	collision with: 1 8 4 0 0  and 9 3 0 1 0 
5703460		 # 	collision with: 0 8 0 0 0  and 2 8 0 0 0 
5703462		 # 	collision with: 6 2 8 0 0  and 6 4 8 0 0 
5703464		 # 	collision with: 5 4 0 0 0  and 6 4 0 0 0 
5703466		 # 	collision with: 6 3 4 0 0  and 6 5 4 0 0 
5703468		 # 	collision with: 1 10 0 0 0  and 2 10 0 0 0 
5703470		 # 	collision with: 6 1 10 0 0  and 6 3 10 0 0 
5703472		 # 	collision with: 4 2 0 0 0  and 6 2 0 0 0 
5703474		 # 	collision with: 6 1 2 0 0  and 6 3 2 0 0 
5703476		 # 	collision with: 0 6 0 0 0  and 1 6 0 0 0 
5703480		 # 	collision with: 2 5 0 0 0  and 4 5 0 0 0 
5703482		 # 	collision with: 6 3 5 0 0  and 6 5 5 0 0 
5703484		 # 	collision with: 3 9 0 0 0  and 5 9 0 0 0 
5703486		 # 	collision with: 6 1 9 0 0  and 6 2 9 0 0 
5703488		 # 	collision with: 1 1 0 0 0  and 3 1 0 0 0 
5703490		 # 	collision with: 6 1 1 0 0  and 6 2 1 0 0 
5703492		 # 	collision with: 3 7 0 0 0  and 4 7 0 0 0 
5703494		 # 	collision with: 6 4 7 0 0  and 6 6 7 0 0 
5703496		 # 	collision with: 2 3 0 0 0  and 3 3 0 0 0 
5703498		 # 	collision with: 6 0 3 0 0  and 6 1 3 0 0 
5703529		 # 	collision with: 2 5 0 0 0  and 4 5 0 0 0 
5703531		 # 	collision with: 6 2 2 0 0  and 6 3 2 0 0 
5703536		 # 	collision with: 3 7 0 0 0  and 4 7 0 0 0 
5703538		 # 	collision with: 6 4 7 0 0  and 6 6 7 0 0 
5703571		 # 	collision with: 6 8 3 0 0  and 6 3 5 0 0 
5703574		 # 	collision with: 6 1 9 0 0  and 6 2 9 0 0 
5703608		 # 	collision with: 0 6 0 0 0  and 1 6 0 0 0 
5703610		 # 	collision with: 6 4 6 0 0  and 6 6 6 0 0 
5703621		 # 	collision with: 9 3 0 0 0  and 2 5 0 0 0 
5703623		 # 	collision with: 6 3 0 0 0  and 6 5 0 0 0 
5703644		 # 	collision with: 1 10 0 0 0  and 2 10 0 0 0 
5703646		 # 	collision with: 6 1 10 0 0  and 6 3 10 0 0 
5703665		 # 	collision with: 9 3 0 0 0  and 2 5 0 0 0 
5703667		 # 	collision with: 6 3 0 0 0  and 6 5 0 0 0 
5703680		 # 	collision with: 0 8 0 0 0  and 2 8 0 0 0 
5703682		 # 	collision with: 6 2 8 0 0  and 6 4 8 0 0 
5703697		 # 	collision with: 7 3 0 0 0  and 4 5 0 0 0 
5703699		 # 	collision with: 6 8 3 0 0  and 6 1 5 0 0 
5703745		 # 	collision with: 8 3 0 0 0  and 3 5 0 0 0 
5703747		 # 	collision with: 8 8 3 0 0  and 8 8 5 0 0 
5703760		 # 	collision with: 2 3 0 0 0  and 3 3 0 0 0 
5703777		 # 	collision with: 10 3 0 0 0  and 1 5 0 0 0 
5703779		 # 	collision with: 6 2 1 0 0  and 6 3 1 0 0 
5703796		 # 	collision with: 1 1 0 0 0  and 3 1 0 0 0 
5703798		 # 	collision with: 6 1 1 0 0  and 6 2 1 0 0 
5703821		 # 	collision with: 10 3 0 0 0  and 1 5 0 0 0 
5703823		 # 	collision with: 6 2 1 0 0  and 6 3 1 0 0 
5703832		 # 	collision with: 2 5 0 0 0  and 4 5 0 0 0 
5703834		 # 	collision with: 6 3 5 0 0  and 6 5 5 0 0 
5703868		 # 	collision with: 4 2 0 0 0  and 6 2 0 0 0 
5703870		 # 	collision with: 6 1 2 0 0  and 6 3 2 0 0 
5703873		 # 	collision with: 7 3 0 0 0  and 4 5 0 0 0 
5703875		 # 	collision with: 3 3 3 0 0  and 3 3 5 0 0 
5703904		 # 	collision with: 5 4 0 0 0  and 6 4 0 0 0 
5703906		 # 	collision with: 6 3 4 0 0  and 6 5 4 0 0 
5703913		 # 	collision with: 1 1 0 0 0  and 3 1 0 0 0 
5703915		 # 	collision with: 10 1 3 0 0  and 10 1 5 0 0 
5703940		 # 	collision with: 5 7 9 4 0  and 9 0 0 0 1 
5703942		 # 	collision with: 1 6 3 0 0  and 8 7 0 1 0 
5703944		 # 	collision with: 3 7 0 0 0  and 4 7 0 0 0 
5703946		 # 	collision with: 6 5 7 0 0  and 6 6 7 0 0 
5703948		 # 	collision with: 3 9 0 0 0  and 5 9 0 0 0 
5703950		 # 	collision with: 6 2 9 0 0  and 6 3 9 0 0 
5703952		 # 	collision with: 0 6 0 0 0  and 1 6 0 0 0 
5703956		 # 	collision with: 1 10 0 0 0  and 2 10 0 0 0 
5703958		 # 	collision with: 6 3 10 0 0  and 6 5 10 0 0 
5703960		 # 	collision with: 0 8 0 0 0  and 2 8 0 0 0 
5703962		 # 	collision with: 6 5 8 0 0  and 6 6 8 0 0 
5703964		 # 	collision with: 2 3 0 0 0  and 3 3 0 0 0 
5703966		 # 	collision with: 6 3 3 0 0  and 6 4 3 0 0 
5703968		 # 	collision with: 1 1 0 0 0  and 3 1 0 0 0 
5703970		 # 	collision with: 6 4 1 0 0  and 6 6 1 0 0 
5703972		 # 	collision with: 2 5 0 0 0  and 4 5 0 0 0 
5703974		 # 	collision with: 6 2 5 0 0  and 6 3 5 0 0 
5703976		 # 	collision with: 4 2 0 0 0  and 6 2 0 0 0 
5703978		 # 	collision with: 6 0 2 0 0  and 6 2 2 0 0 
5703980		 # 	collision with: 5 4 0 0 0  and 6 4 0 0 0 
5703982		 # 	collision with: 6 3 4 0 0  and 6 4 4 0 0 
5704013		 # 	collision with: 1 10 0 0 0  and 2 10 0 0 0 
5704015		 # 	collision with: 6 10 3 0 0  and 6 3 4 0 0 
5704020		 # 	collision with: 4 2 0 0 0  and 6 2 0 0 0 
5704022		 # 	collision with: 6 0 2 0 0  and 6 2 2 0 0 
5704053		 # 	collision with: 5 3 0 0 0  and 0 4 0 0 0 
5704055		 # 	collision with: 10 5 3 0 0  and 10 5 4 0 0 
5704056		 # 	collision with: 1 1 0 0 0  and 3 1 0 0 0 
5704058		 # 	collision with: 6 4 1 0 0  and 6 6 1 0 0 
5704092		 # 	collision with: 0 8 0 0 0  and 2 8 0 0 0 
5704094		 # 	collision with: 6 5 8 0 0  and 6 6 8 0 0 
5704105		 # 	collision with: 2 3 0 0 0  and 3 3 0 0 0 
5704107		 # 	collision with: 4 1 3 0 0  and 4 1 4 0 0 
5704128		 # 	collision with: 0 6 0 0 0  and 1 6 0 0 0 
5704130		 # 	collision with: 6 0 6 0 0  and 6 2 6 0 0 
5704149		 # 	collision with: 2 3 0 0 0  and 3 3 0 0 0 
5704151		 # 	collision with: 3 1 3 0 0  and 3 1 4 0 0 
5704164		 # 	collision with: 3 7 0 0 0  and 4 7 0 0 0 
5704166		 # 	collision with: 6 5 7 0 0  and 6 6 7 0 0 
5704181		 # 	collision with: 3 3 0 0 0  and 7 4 0 0 0 
5704183		 # 	collision with: 6 3 0 0 0  and 6 4 0 0 0 
5704229		 # 	collision with: 5 3 0 0 0  and 0 4 0 0 0 
5704231		 # 	collision with: 6 5 3 0 0  and 6 0 4 0 0 
5704244		 # 	collision with: 5 4 0 0 0  and 6 4 0 0 0 
5704246		 # 	collision with: 6 3 4 0 0  and 6 4 4 0 0 
5704261		 # 	collision with: 1 1 0 0 0  and 3 1 0 0 0 
5704263		 # 	collision with: 6 8 3 0 0  and 6 6 4 0 0 
5704280		 # 	collision with: 2 5 0 0 0  and 4 5 0 0 0 
5704282		 # 	collision with: 6 2 5 0 0  and 6 3 5 0 0 
5704305		 # 	collision with: 1 1 0 0 0  and 3 1 0 0 0 
5704307		 # 	collision with: 1 10 3 0 0  and 1 10 4 0 0 
5704316		 # 	collision with: 2 3 0 0 0  and 3 3 0 0 0 
5704352		 # 	collision with: 1 10 0 0 0  and 2 10 0 0 0 
5704354		 # 	collision with: 6 3 10 0 0  and 6 5 10 0 0 
5704357		 # 	collision with: 3 3 0 0 0  and 7 4 0 0 0 
5704390		 # 	collision with: 6 2 9 0 0  and 6 3 9 0 0 
5704424		 # 	collision with: 1 6 10 6 0  and 2 1 0 0 1 
5704426		 # 	collision with: 4 1 10 0 0  and 10 9 1 1 0 
5704428		 # 	collision with: 0 6 0 0 0  and 1 6 0 0 0 
5704432		 # 	collision with: 2 3 0 0 0  and 3 3 0 0 0 
5704434		 # 	collision with: 6 0 3 0 0  and 6 2 3 0 0 
5704436		 # 	collision with: 4 2 0 0 0  and 6 2 0 0 0 
5704438		 # 	collision with: 6 5 2 0 0  and 6 6 2 0 0 
5704440		 # 	collision with: 3 7 0 0 0  and 4 7 0 0 0 
5704442		 # 	collision with: 6 0 7 0 0  and 6 1 7 0 0 
5704444		 # 	collision with: 1 10 0 0 0  and 2 10 0 0 0 
5704446		 # 	collision with: 6 0 10 0 0  and 6 1 10 0 0 
5704448		 # 	collision with: 1 1 0 0 0  and 3 1 0 0 0 
5704450		 # 	collision with: 6 2 1 0 0  and 6 4 1 0 0 
5704452		 # 	collision with: 5 4 0 0 0  and 6 4 0 0 0 
5704454		 # 	collision with: 6 2 4 0 0  and 6 4 4 0 0 
5704456		 # 	collision with: 3 9 0 0 0  and 5 9 0 0 0 
5704458		 # 	collision with: 6 3 9 0 0  and 6 4 9 0 0 
5704460		 # 	collision with: 0 8 0 0 0  and 2 8 0 0 0 
5704462		 # 	collision with: 6 2 8 0 0  and 6 3 8 0 0 
5704464		 # 	collision with: 2 5 0 0 0  and 4 5 0 0 0 
5704466		 # 	collision with: 6 0 5 0 0  and 6 2 5 0 0 
5704497		 # 	collision with: 6 2 0 0 0  and 3 4 0 0 0 
5704499		 # 	collision with: 6 4 1 0 0  and 6 6 1 0 0 
5704504		 # 	collision with: 0 8 0 0 0  and 2 8 0 0 0 
5704506		 # 	collision with: 6 2 8 0 0  and 6 3 8 0 0 
5704537		 # 	collision with: 6 2 0 0 0  and 3 4 0 0 0 
5704539		 # 	collision with: 7 2 2 0 0  and 7 2 4 0 0 
5704540		 # 	collision with: 5 4 0 0 0  and 6 4 0 0 0 
5704542		 # 	collision with: 6 2 4 0 0  and 6 4 4 0 0 
5704576		 # 	collision with: 1 10 0 0 0  and 2 10 0 0 0 
5704578		 # 	collision with: 6 0 10 0 0  and 6 1 10 0 0 
5704589		 # 	collision with: 6 2 0 0 0  and 3 4 0 0 0 
5704591		 # 	collision with: 6 1 3 0 0  and 6 3 3 0 0 
5704612		 # 	collision with: 4 2 0 0 0  and 6 2 0 0 0 
5704614		 # 	collision with: 6 5 2 0 0  and 6 6 2 0 0 
5704633		 # 	collision with: 6 2 0 0 0  and 3 4 0 0 0 
5704648		 # 	collision with: 0 6 0 0 0  and 1 6 0 0 0 
5704650		 # 	collision with: 6 2 6 0 0  and 6 3 6 0 0 
5704665		 # 	collision with: 6 2 0 0 0  and 3 4 0 0 0 
5704667		 # 	collision with: 10 9 2 0 0  and 10 9 4 0 0 
5704713		 # 	collision with: 6 2 0 0 0  and 3 4 0 0 0 
5704728		 # 	collision with: 2 5 0 0 0  and 4 5 0 0 0 
5704730		 # 	collision with: 6 0 5 0 0  and 6 2 5 0 0 
5704747		 # 	collision with: 6 5 2 0 0  and 6 6 2 0 0 
5704766		 # 	collision with: 6 3 9 0 0  and 6 4 9 0 0 
5704789		 # 	collision with: 7 2 0 0 0  and 1 4 0 0 0 
5704791		 # 	collision with: 6 5 2 0 0  and 6 6 2 0 0 
5704800		 # 	collision with: 1 1 0 0 0  and 3 1 0 0 0 
5704802		 # 	collision with: 6 2 1 0 0  and 6 4 1 0 0 
5704836		 # 	collision with: 3 7 0 0 0  and 4 7 0 0 0 
5704838		 # 	collision with: 6 0 7 0 0  and 6 1 7 0 0 
5704841		 # 	collision with: 6 2 0 0 0  and 3 4 0 0 0 
5704843		 # 	collision with: 6 1 2 0 0  and 6 3 4 0 0 
5704872		 # 	collision with: 2 3 0 0 0  and 3 3 0 0 0 
5704881		 # 	collision with: 2 3 0 0 0  and 3 3 0 0 0 
5704883		 # 	collision with: 6 3 2 0 0  and 6 3 4 0 0 
5704908		 # 	collision with: 3 0 6 4 0  and 5 2 0 0 1 
5704910		 # 	collision with: 3 10 2 0 0  and 8 6 0 1 0 
5704912		 # 	collision with: 2 5 0 0 0  and 4 5 0 0 0 
5704914		 # 	collision with: 6 4 5 0 0  and 6 6 5 0 0 
5704916		 # 	collision with: 0 8 0 0 0  and 2 8 0 0 0 
5704918		 # 	collision with: 6 4 8 0 0  and 6 6 8 0 0 
5704920		 # 	collision with: 3 9 0 0 0  and 5 9 0 0 0 
5704922		 # 	collision with: 6 4 9 0 0  and 6 5 9 0 0 
5704924		 # 	collision with: 5 4 0 0 0  and 6 4 0 0 0 
5704926		 # 	collision with: 6 2 4 0 0  and 6 3 4 0 0 
5704928		 # 	collision with: 1 1 0 0 0  and 3 1 0 0 0 
5704930		 # 	collision with: 6 0 1 0 0  and 6 2 1 0 0 
5704932		 # 	collision with: 1 10 0 0 0  and 2 10 0 0 0 
5704934		 # 	collision with: 6 2 10 0 0  and 6 3 10 0 0 
5704936		 # 	collision with: 3 7 0 0 0  and 4 7 0 0 0 
5704938		 # 	collision with: 6 0 7 0 0  and 6 2 7 0 0 
5704940		 # 	collision with: 4 2 0 0 0  and 6 2 0 0 0 
5704942		 # 	collision with: 6 4 2 0 0  and 6 5 2 0 0 
5704944		 # 	collision with: 2 3 0 0 0  and 3 3 0 0 0 
5704946		 # 	collision with: 6 3 3 0 0  and 6 5 3 0 0 
5704948		 # 	collision with: 0 6 0 0 0  and 1 6 0 0 0 
5704981		 # 	collision with: 3 9 0 0 0  and 5 9 0 0 0 
5704983		 # 	collision with: 2 7 2 0 0  and 2 7 3 0 0 
5704988		 # 	collision with: 2 3 0 0 0  and 3 3 0 0 0 
5705021		 # 	collision with: 8 2 0 0 0  and 6 3 0 0 0 
5705023		 # 	collision with: 4 10 2 0 0  and 4 10 3 0 0 
5705024		 # 	collision with: 3 7 0 0 0  and 4 7 0 0 0 
5705026		 # 	collision with: 6 0 7 0 0  and 6 2 7 0 0 
5705060		 # 	collision with: 1 1 0 0 0  and 3 1 0 0 0 
5705062		 # 	collision with: 6 0 1 0 0  and 6 2 1 0 0 
5705073		 # 	collision with: 0 6 0 0 0  and 1 6 0 0 0 
5705075		 # 	collision with: 1 2 2 0 0  and 1 2 3 0 0 
5705098		 # 	collision with: 6 4 9 0 0  and 6 5 9 0 0 
5705119		 # 	collision with: 9 2 2 0 0  and 9 2 3 0 0 
5705132		 # 	collision with: 2 5 0 0 0  and 4 5 0 0 0 
5705134		 # 	collision with: 6 4 5 0 0  and 6 6 5 0 0 
5705149		 # 	collision with: 2 2 0 0 0  and 6 3 0 0 0 
5705197		 # 	collision with: 8 2 0 0 0  and 6 3 0 0 0 
5705199		 # 	collision with: 6 1 2 0 0  and 6 4 3 0 0 
5705212		 # 	collision with: 0 6 0 0 0  and 1 6 0 0 0 
5705214		 # 	collision with: 6 3 6 0 0  and 6 5 6 0 0 
5705229		 # 	collision with: 4 2 0 0 0  and 6 2 0 0 0 
5705248		 # 	collision with: 4 2 0 0 0  and 6 2 0 0 0 
5705250		 # 	collision with: 6 4 2 0 0  and 6 5 2 0 0 
5705273		 # 	collision with: 4 2 0 0 0  and 6 2 0 0 0 
5705275		 # 	collision with: 6 2 2 0 0  and 6 0 3 0 0 
5705284		 # 	collision with: 1 10 0 0 0  and 2 10 0 0 0 
5705286		 # 	collision with: 6 2 10 0 0  and 6 3 10 0 0 
5705320		 # 	collision with: 5 4 0 0 0  and 6 4 0 0 0 
5705322		 # 	collision with: 6 2 4 0 0  and 6 3 4 0 0 
5705325		 # 	collision with: 2 2 0 0 0  and 6 3 0 0 0 
5705327		 # 	collision with: 5 1 2 0 0  and 5 1 3 0 0 
5705356		 # 	collision with: 0 8 0 0 0  and 2 8 0 0 0 
5705358		 # 	collision with: 6 4 8 0 0  and 6 6 8 0 0 
5705365		 # 	collision with: 0 2 0 0 0  and 5 3 0 0 0 
5705367		 # 	collision with: 4 4 2 0 0  and 4 4 3 0 0 
5705392		 # 	collision with: 5 0 8 7 0  and 9 3 0 0 1 
5705394		 # 	collision with: 7 7 8 0 0  and 0 7 0 1 0 
5705396		 # 	collision with: 5 4 0 0 0  and 6 4 0 0 0 
5705398		 # 	collision with: 6 1 4 0 0  and 6 3 4 0 0 
5705400		 # 	collision with: 4 2 0 0 0  and 6 2 0 0 0 
5705402		 # 	collision with: 6 3 2 0 0  and 6 4 2 0 0 
5705404		 # 	collision with: 2 5 0 0 0  and 4 5 0 0 0 
5705406		 # 	collision with: 6 3 5 0 0  and 6 4 5 0 0 
5705408		 # 	collision with: 1 1 0 0 0  and 3 1 0 0 0 
5705410		 # 	collision with: 6 4 1 0 0  and 6 5 1 0 0 
5705412		 # 	collision with: 2 3 0 0 0  and 3 3 0 0 0 
5705414		 # 	collision with: 6 1 3 0 0  and 6 2 3 0 0 
5705416		 # 	collision with: 0 8 0 0 0  and 2 8 0 0 0 
5705418		 # 	collision with: 6 1 8 0 0  and 6 3 8 0 0 
5705420		 # 	collision with: 1 10 0 0 0  and 2 10 0 0 0 
5705422		 # 	collision with: 6 4 10 0 0  and 6 5 10 0 0 
5705424		 # 	collision with: 0 6 0 0 0  and 1 6 0 0 0 
5705428		 # 	collision with: 3 9 0 0 0  and 5 9 0 0 0 
5705430		 # 	collision with: 6 5 9 0 0  and 6 6 9 0 0 
5705432		 # 	collision with: 3 7 0 0 0  and 4 7 0 0 0 
5705434		 # 	collision with: 6 1 7 0 0  and 6 2 7 0 0 
5705474		 # 	collision with: 6 5 9 0 0  and 6 6 9 0 0 
5705505		 # 	collision with: 2 1 0 0 0  and 1 3 0 0 0 
5705508		 # 	collision with: 1 10 0 0 0  and 2 10 0 0 0 
5705510		 # 	collision with: 6 4 10 0 0  and 6 5 10 0 0 
5705544		 # 	collision with: 2 3 0 0 0  and 3 3 0 0 0 
5705557		 # 	collision with: 4 2 0 0 0  and 6 2 0 0 0 
5705559		 # 	collision with: 5 8 1 0 0  and 5 8 3 0 0 
5705580		 # 	collision with: 2 5 0 0 0  and 4 5 0 0 0 
5705582		 # 	collision with: 6 3 5 0 0  and 6 4 5 0 0 
5705601		 # 	collision with: 4 2 0 0 0  and 6 2 0 0 0 
5705603		 # 	collision with: 1 8 1 0 0  and 1 8 3 0 0 
5705616		 # 	collision with: 5 4 0 0 0  and 6 4 0 0 0 
5705618		 # 	collision with: 6 1 4 0 0  and 6 3 4 0 0 
5705633		 # 	collision with: 5 1 0 0 0  and 2 3 0 0 0 
5705635		 # 	collision with: 6 1 1 0 0  and 6 3 3 0 0 
5705681		 # 	collision with: 2 1 0 0 0  and 1 3 0 0 0 
5705683		 # 	collision with: 6 3 1 0 0  and 6 0 3 0 0 
5705696		 # 	collision with: 3 7 0 0 0  and 4 7 0 0 0 
5705698		 # 	collision with: 6 1 7 0 0  and 6 2 7 0 0 
5705713		 # 	collision with: 0 8 0 0 0  and 2 8 0 0 0 
5705715		 # 	collision with: 7 3 1 0 0  and 7 3 3 0 0 
5705732		 # 	collision with: 0 6 0 0 0  and 1 6 0 0 0 
5705734		 # 	collision with: 6 5 6 0 0  and 6 6 6 0 0 
5705757		 # 	collision with: 0 8 0 0 0  and 2 8 0 0 0 
5705759		 # 	collision with: 2 3 1 0 0  and 2 3 3 0 0 
5705768		 # 	collision with: 0 8 0 0 0  and 2 8 0 0 0 
5705770		 # 	collision with: 6 1 8 0 0  and 6 3 8 0 0 
5705804		 # 	collision with: 1 1 0 0 0  and 3 1 0 0 0 
5705806		 # 	collision with: 6 4 1 0 0  and 6 5 1 0 0 
5705809		 # 	collision with: 5 1 0 0 0  and 2 3 0 0 0 
5705811		 # 	collision with: 2 4 1 0 0  and 2 4 3 0 0 
5705840		 # 	collision with: 4 2 0 0 0  and 6 2 0 0 0 
5705842		 # 	collision with: 6 3 2 0 0  and 6 4 2 0 0 
5705849		 # 	collision with: 2 5 0 0 0  and 4 5 0 0 0 
5705851		 # 	collision with: 2 5 1 0 0  and 2 5 3 0 0 
5705876		 # 	collision with: 2 4 9 3 0  and 5 0 0 0 1 
5705878		 # 	collision with: 6 4 7 0 0  and 9 1 0 1 0 
5705880		 # 	collision with: 2 3 0 0 0  and 3 3 0 0 0 
5705882		 # 	collision with: 6 4 3 0 0  and 6 5 3 0 0 
5705884		 # 	collision with: 3 7 0 0 0  and 4 7 0 0 0 
5705886		 # 	collision with: 6 1 7 0 0  and 6 3 7 0 0 
5705888		 # 	collision with: 1 1 0 0 0  and 3 1 0 0 0 
5705890		 # 	collision with: 6 2 1 0 0  and 6 3 1 0 0 
5705892		 # 	collision with: 3 9 0 0 0  and 5 9 0 0 0 
5705894		 # 	collision with: 6 0 9 0 0  and 6 2 9 0 0 
5705896		 # 	collision with: 2 5 0 0 0  and 4 5 0 0 0 
5705898		 # 	collision with: 6 1 5 0 0  and 6 3 5 0 0 
5705900		 # 	collision with: 0 6 0 0 0  and 1 6 0 0 0 
5705904		 # 	collision with: 4 2 0 0 0  and 6 2 0 0 0 
5705906		 # 	collision with: 6 2 2 0 0  and 6 3 2 0 0 
5705908		 # 	collision with: 1 10 0 0 0  and 2 10 0 0 0 
5705910		 # 	collision with: 6 0 10 0 0  and 6 2 10 0 0 
5705912		 # 	collision with: 5 4 0 0 0  and 6 4 0 0 0 
5705914		 # 	collision with: 6 1 4 0 0  and 6 2 4 0 0 
5705916		 # 	collision with: 0 8 0 0 0  and 2 8 0 0 0 
5705918		 # 	collision with: 6 4 8 0 0  and 6 5 8 0 0 
5705949		 # 	collision with: 9 1 0 0 0  and 3 2 0 0 0 
5705951		 # 	collision with: 9 5 1 0 0  and 9 5 2 0 0 
5705956		 # 	collision with: 5 4 0 0 0  and 6 4 0 0 0 
5705958		 # 	collision with: 6 1 4 0 0  and 6 2 4 0 0 
5705989		 # 	collision with: 2 5 0 0 0  and 4 5 0 0 0 
5705991		 # 	collision with: 9 4 1 0 0  and 9 4 2 0 0 
5705992		 # 	collision with: 4 2 0 0 0  and 6 2 0 0 0 
5705994		 # 	collision with: 6 2 2 0 0  and 6 3 2 0 0 
114.79secs	45127
