# prime 11
# degree 2
# input variables 3
# output variables 3
# reload computed balance functions from file balance-1258of3248-p11d2m3-debug.log
# p = 11
# n = 3
# smalldomain p^m 1331
# domain p^n 1331
#	 p^2 = 121
#	 p^3 = 1331
#	 p^4 = 14641
#	 p^5 = 161051
#	 p^6 = 1771561
#	 p^7 = 19487171
#	 p^8 = 214358881
#	 p^9 = 2357947691
opening file : balance-1258of3248-p11d2m3-debug.log
reloading for step2...
7548013		 # 	collision with: 9 1 0  and 9 2 0 
7548015		 # 	collision with: 7 2 0  and 8 4 0 
7548025		 # 	collision with: 1 1 0  and 4 2 0 
7548027		 # 	collision with: 3 5 0  and 3 6 0 
7548053		 # 	collision with: 2 10 0  and 3 0 1 
7548055		 # 	collision with: 3 10 0  and 4 0 1 
7548097		 # 	collision with: 0 5 0  and 1 5 0 
7548099		 # 	collision with: 8 1 0  and 6 2 0 
7548221		 # 	collision with: 6 0 0  and 9 1 1 
7548223		 # 	collision with: 1 4 0  and 4 6 0 
7548233		 # 	collision with: 4 2 0  and 4 3 0 
7548235		 # 	collision with: 7 3 0  and 8 5 0 
7548257		 # 	collision with: 9 0 0  and 10 1 0 
7548259		 # 	collision with: 0 1 0  and 2 3 0 
7548269		 # 	collision with: 0 4 0  and 6 3 1 
7548271		 # 	collision with: 9 5 0  and 7 6 0 
7548393		 # 	collision with: 4 9 0  and 4 0 1 
7548395		 # 	collision with: 7 7 0  and 9 0 1 
7548421		 # 	collision with: 8 3 0  and 5 1 1 
7548423		 # 	collision with: 1 4 0  and 2 4 0 
7548437		 # 	collision with: 5 1 0  and 6 3 0 
7548439		 # 	collision with: 6 0 0  and 3 2 1 
7548464		 # 	collision with: 3 1 0  and 0 2 0 
7548466		 # 	collision with: 7 8 0  and 3 1 1 
7548477		 # 	collision with: 8 1 0  and 4 3 0 
7548479		 # 	collision with: 8 0 0  and 2 2 0 
7548497		 # 	collision with: 6 0 0  and 6 2 0 
7548499		 # 	collision with: 5 0 0  and 6 1 0 
7548509		 # 	collision with: 6 0 0  and 1 2 0 
7548511		 # 	collision with: 5 7 0  and 5 1 1 
7548537		 # 	collision with: 3 10 0  and 4 0 1 
7548539		 # 	collision with: 1 4 0  and 6 6 0 
7548581		 # 	collision with: 3 7 0  and 5 7 0 
7548583		 # 	collision with: 7 4 0  and 2 6 0 
7548705		 # 	collision with: 10 3 1  and 3 4 1 
7548707		 # 	collision with: 3 8 0  and 7 0 1 
7548717		 # 	collision with: 10 3 0  and 10 4 0 
7548719		 # 	collision with: 2 8 0  and 10 0 1 
7548741		 # 	collision with: 9 3 0  and 0 5 0 
7548743		 # 	collision with: 1 5 0  and 2 6 0 
7548753		 # 	collision with: 9 8 0  and 7 1 1 
7548755		 # 	collision with: 8 2 0  and 0 3 0 
7548877		 # 	collision with: 9 2 1  and 9 3 1 
7548879		 # 	collision with: 6 9 0  and 4 1 1 
7548905		 # 	collision with: 7 6 0  and 0 2 1 
7548921		 # 	collision with: 5 4 0  and 6 6 0 
7548923		 # 	collision with: 0 3 0  and 7 5 0 
7548948		 # 	collision with: 8 0 0  and 0 2 0 
7548950		 # 	collision with: 2 2 0  and 6 1 1 
7548961		 # 	collision with: 5 0 0  and 1 2 0 
7548963		 # 	collision with: 7 3 0  and 8 4 0 
7548981		 # 	collision with: 3 0 0  and 3 1 0 
7548983		 # 	collision with: 7 3 0  and 8 4 0 
7548993		 # 	collision with: 3 0 0  and 6 1 0 
7548995		 # 	collision with: 7 3 0  and 8 4 0 
7549021		 # 	collision with: 10 8 0  and 2 0 1 
7549065		 # 	collision with: 1 9 0  and 3 9 0 
7549067		 # 	collision with: 7 3 0  and 8 4 0 
7549189		 # 	collision with: 10 3 0  and 5 0 1 
7549191		 # 	collision with: 7 3 0  and 8 4 0 
7549201		 # 	collision with: 5 4 0  and 5 5 0 
7549203		 # 	collision with: 7 3 0  and 8 4 0 
7549225		 # 	collision with: 4 1 0  and 6 3 0 
7549227		 # 	collision with: 7 3 0  and 8 4 0 
7549237		 # 	collision with: 5 2 0  and 9 0 1 
7549239		 # 	collision with: 7 3 0  and 8 4 0 
7549361		 # 	collision with: 9 4 0  and 6 0 1 
7549389		 # 	collision with: 3 1 0  and 3 0 1 
7549391		 # 	collision with: 7 3 0  and 8 4 0 
7549405		 # 	collision with: 8 2 0  and 3 3 0 
7549407		 # 	collision with: 7 3 0  and 8 4 0 
7549486		 # 	collision with: 6 1 0  and 1 2 0 
7549498		 # 	collision with: 2 1 0  and 10 3 0 
7549538		 # 	collision with: 10 0 0  and 6 2 0 
7549551		 # 	collision with: 0 0 0  and 7 2 0 
7549562		 # 	collision with: 4 2 0  and 10 4 0 
7549567		 # 	collision with: 7 0 0  and 3 2 0 
7549582		 # 	collision with: 2 3 0  and 4 4 0 
7549590		 # 	collision with: 3 2 0  and 2 4 0 
7549607		 # 	collision with: 1 3 0  and 9 0 1 
7549639		 # 	collision with: 7 2 0  and 7 3 0 
7549642		 # 	collision with: 2 3 0  and 6 5 0 
7549646		 # 	collision with: 4 6 0  and 6 0 1 
7549651		 # 	collision with: 3 4 0  and 5 6 0 
7549666		 # 	collision with: 4 5 0  and 0 0 1 
7549694		 # 	collision with: 8 3 0  and 6 5 0 
7549702		 # 	collision with: 5 0 0  and 1 1 0 
7549730		 # 	collision with: 0 0 0  and 1 1 1 
7549747		 # 	collision with: 8 1 0  and 5 2 1 
7549750		 # 	collision with: 9 4 0  and 3 2 1 
7549754		 # 	collision with: 5 8 0  and 7 1 1 
7549759		 # 	collision with: 2 7 0  and 3 7 0 
7549787		 # 	collision with: 4 0 0  and 3 2 0 
7549791		 # 	collision with: 10 2 0  and 7 4 0 
7549806		 # 	collision with: 9 5 0  and 0 0 1 
7549814		 # 	collision with: 2 1 0  and 0 3 0 
7549834		 # 	collision with: 6 0 0  and 2 2 0 
7549847		 # 	collision with: 1 2 0  and 2 2 0 
7549858		 # 	collision with: 7 5 0  and 1 0 1 
7549898		 # 	collision with: 3 0 0  and 4 2 0 
7549910		 # 	collision with: 4 3 0  and 2 0 1 
7549916		 # 	collision with: 2 3 0  and 3 0 1 
7549918		 # 	collision with: 7 1 0  and 10 2 0 
7549968		 # 	collision with: 1 10 0  and 4 0 1 
7549970		 # 	collision with: 4 8 0  and 10 1 1 
7549980		 # 	collision with: 7 0 0  and 1 2 0 
7549982		 # 	collision with: 10 2 0  and 10 4 0 
7550020		 # 	collision with: 5 4 0  and 5 5 0 
7550022		 # 	collision with: 5 0 0  and 1 2 0 
7550033		 # 	collision with: 8 1 0  and 3 2 0 
7550044		 # 	collision with: 8 3 0  and 0 5 0 
7550046		 # 	collision with: 5 6 0  and 2 7 0 
7550049		 # 	collision with: 0 8 0  and 2 0 1 
7550051		 # 	collision with: 3 2 0  and 2 3 0 
7550064		 # 	collision with: 7 2 0  and 7 4 0 
7550066		 # 	collision with: 3 1 0  and 6 3 0 
7550072		 # 	collision with: 6 1 0  and 9 3 0 
7550074		 # 	collision with: 2 3 0  and 6 5 0 
7550089		 # 	collision with: 0 0 0  and 1 1 1 
7550091		 # 	collision with: 3 2 0  and 2 3 0 
7550121		 # 	collision with: 2 7 0  and 3 7 0 
7550123		 # 	collision with: 5 0 0  and 1 1 0 
7550124		 # 	collision with: 2 4 0  and 4 4 0 
7550128		 # 	collision with: 4 6 0  and 5 6 0 
7550130		 # 	collision with: 6 1 0  and 1 2 0 
7550133		 # 	collision with: 6 2 0  and 7 3 0 
7550135		 # 	collision with: 3 2 0  and 2 3 0 
7550148		 # 	collision with: 10 1 0  and 3 2 0 
7550176		 # 	collision with: 8 2 0  and 7 3 0 
7550178		 # 	collision with: 10 0 0  and 8 2 0 
7550184		 # 	collision with: 6 2 0  and 3 3 0 
7550186		 # 	collision with: 8 3 0  and 3 0 1 
7550212		 # 	collision with: 9 2 0  and 0 4 0 
7550214		 # 	collision with: 5 3 0  and 9 4 0 
7550229		 # 	collision with: 2 1 0  and 6 3 0 
7550231		 # 	collision with: 3 2 0  and 2 3 0 
7550232		 # 	collision with: 8 0 0  and 3 1 0 
7550234		 # 	collision with: 8 4 0  and 4 0 1 
7550236		 # 	collision with: 0 0 0  and 10 2 0 
7550238		 # 	collision with: 2 7 0  and 3 7 0 
7550241		 # 	collision with: 3 1 0  and 0 0 1 
7550269		 # 	collision with: 5 4 0  and 8 5 0 
7550271		 # 	collision with: 3 2 0  and 2 3 0 
7550273		 # 	collision with: 4 4 0  and 10 1 1 
7550275		 # 	collision with: 3 2 0  and 2 3 0 
7550288		 # 	collision with: 7 0 0  and 2 2 0 
7550290		 # 	collision with: 7 5 0  and 8 6 0 
7550296		 # 	collision with: 4 0 0  and 2 2 0 
7550298		 # 	collision with: 5 2 0  and 3 4 0 
7550316		 # 	collision with: 3 5 0  and 1 6 0 
7550318		 # 	collision with: 8 0 0  and 4 2 0 
7550329		 # 	collision with: 5 4 0  and 5 5 0 
7550331		 # 	collision with: 3 2 0  and 2 3 0 
7550340		 # 	collision with: 8 4 0  and 5 0 1 
7550342		 # 	collision with: 7 2 0  and 3 3 0 
7550380		 # 	collision with: 10 0 0  and 6 1 1 
7550382		 # 	collision with: 2 4 0  and 1 6 0 
7550392		 # 	collision with: 5 1 0  and 6 3 0 
7550394		 # 	collision with: 6 0 1  and 3 1 1 
7550400		 # 	collision with: 0 9 0  and 3 0 1 
7550402		 # 	collision with: 2 4 0  and 1 6 0 
7550452		 # 	collision with: 10 3 0  and 5 0 1 
7550454		 # 	collision with: 6 2 0  and 10 0 1 
7550464		 # 	collision with: 0 1 0  and 5 3 0 
7550466		 # 	collision with: 2 4 0  and 4 4 0 
7550504		 # 	collision with: 6 2 0  and 7 3 0 
7550506		 # 	collision with: 0 0 0  and 7 2 0 
7550517		 # 	collision with: 5 1 0  and 10 2 0 
7550519		 # 	collision with: 3 1 0  and 0 0 1 
7550528		 # 	collision with: 10 2 0  and 6 3 0 
7550530		 # 	collision with: 7 5 0  and 8 6 0 
7550533		 # 	collision with: 4 7 0  and 7 0 1 
7550535		 # 	collision with: 5 0 0  and 1 1 0 
7550548		 # 	collision with: 3 0 0  and 3 1 0 
7550550		 # 	collision with: 4 4 0  and 1 6 0 
7550556		 # 	collision with: 4 3 0  and 8 4 0 
7550558		 # 	collision with: 7 3 0  and 9 5 0 
7550573		 # 	collision with: 6 9 0  and 6 0 1 
7550575		 # 	collision with: 4 8 0  and 1 2 1 
7550605		 # 	collision with: 4 3 0  and 6 3 0 
7550607		 # 	collision with: 9 1 0  and 0 2 0 
7550608		 # 	collision with: 0 8 0  and 1 8 0 
7550610		 # 	collision with: 6 2 0  and 9 3 0 
7550612		 # 	collision with: 3 1 0  and 4 1 0 
7550614		 # 	collision with: 5 0 0  and 1 1 0 
7550617		 # 	collision with: 1 4 0  and 3 6 0 
7550619		 # 	collision with: 0 4 0  and 1 5 0 
7550632		 # 	collision with: 9 2 0  and 6 4 0 
7550634		 # 	collision with: 5 1 0  and 10 3 0 
7550660		 # 	collision with: 5 4 0  and 3 6 0 
7550662		 # 	collision with: 6 3 0  and 5 4 0 
7550668		 # 	collision with: 1 4 0  and 6 6 0 
7550670		 # 	collision with: 7 3 0  and 2 1 1 
7550696		 # 	collision with: 3 0 0  and 4 1 0 
7550698		 # 	collision with: 3 1 0  and 4 3 0 
7550713		 # 	collision with: 9 1 0  and 5 2 0 
7550715		 # 	collision with: 1 4 0  and 0 0 1 
7550716		 # 	collision with: 5 0 0  and 6 2 0 
7550718		 # 	collision with: 6 0 0  and 6 1 0 
7550720		 # 	collision with: 5 1 0  and 4 3 0 
7550722		 # 	collision with: 7 2 0  and 0 1 1 
7550725		 # 	collision with: 2 5 0  and 0 0 1 
7550727		 # 	collision with: 9 1 0  and 8 3 0 
7550753		 # 	collision with: 6 3 0  and 9 4 0 
7550755		 # 	collision with: 4 7 0  and 3 0 1 
7550757		 # 	collision with: 2 4 0  and 2 1 1 
7550759		 # 	collision with: 6 3 0  and 1 4 0 
7550772		 # 	collision with: 6 1 0  and 1 3 0 
7550780		 # 	collision with: 7 1 0  and 5 3 0 
7550782		 # 	collision with: 8 3 0  and 6 5 0 
7550800		 # 	collision with: 5 5 0  and 3 6 0 
7550802		 # 	collision with: 10 0 0  and 6 2 0 
7550813		 # 	collision with: 10 3 0  and 10 4 0 
7550815		 # 	collision with: 4 0 0  and 9 1 0 
7550824		 # 	collision with: 8 3 0  and 2 1 1 
7550826		 # 	collision with: 4 1 0  and 4 0 1 
7550864		 # 	collision with: 10 2 0  and 3 0 1 
7550876		 # 	collision with: 5 3 0  and 6 5 0 
7550878		 # 	collision with: 2 3 0  and 2 4 0 
7550884		 # 	collision with: 4 2 0  and 6 0 1 
7550886		 # 	collision with: 1 10 0  and 0 0 1 
7550936		 # 	collision with: 3 7 0  and 3 0 1 
7550948		 # 	collision with: 4 2 0  and 9 4 0 
7550950		 # 	collision with: 2 4 0  and 1 6 0 
7550988		 # 	collision with: 6 0 0  and 8 2 0 
7550990		 # 	collision with: 6 0 0  and 2 2 0 
7551001		 # 	collision with: 8 4 0  and 3 5 0 
7551003		 # 	collision with: 7 2 0  and 7 3 0 
7551012		 # 	collision with: 5 0 0  and 8 2 0 
7551014		 # 	collision with: 6 2 0  and 1 3 0 
7551017		 # 	collision with: 0 5 0  and 1 0 1 
7551019		 # 	collision with: 4 4 0  and 1 6 0 
7551032		 # 	collision with: 10 3 0  and 10 4 0 
7551034		 # 	collision with: 9 2 0  and 1 1 1 
7551040		 # 	collision with: 8 0 0  and 4 1 0 
7551042		 # 	collision with: 1 1 0  and 1 0 1 
7551057		 # 	collision with: 2 3 0  and 3 0 1 
7551059		 # 	collision with: 7 1 0  and 10 2 0 
7551089		 # 	collision with: 1 10 0  and 3 10 0 
7551091		 # 	collision with: 3 10 0  and 5 0 1 
7551092		 # 	collision with: 3 1 0  and 4 1 0 
7551094		 # 	collision with: 2 10 0  and 6 0 1 
7551096		 # 	collision with: 2 7 0  and 3 7 0 
7551101		 # 	collision with: 6 1 0  and 1 3 0 
7551103		 # 	collision with: 1 1 0  and 2 2 0 
7551116		 # 	collision with: 1 4 0  and 5 5 0 
7551118		 # 	collision with: 3 3 0  and 9 5 0 
7551144		 # 	collision with: 7 1 0  and 5 3 0 
7551146		 # 	collision with: 8 0 0  and 7 1 0 
7551152		 # 	collision with: 0 1 0  and 5 3 0 
7551154		 # 	collision with: 6 5 0  and 6 0 1 
7551180		 # 	collision with: 2 3 0  and 3 4 0 
7551182		 # 	collision with: 3 3 1  and 4 3 1 
7551197		 # 	collision with: 0 0 0  and 2 1 0 
7551199		 # 	collision with: 3 3 0  and 9 5 0 
7551200		 # 	collision with: 7 0 0  and 2 2 0 
7551202		 # 	collision with: 3 10 0  and 0 0 1 
7551204		 # 	collision with: 10 2 0  and 9 4 0 
7551206		 # 	collision with: 3 1 0  and 4 3 0 
7551209		 # 	collision with: 1 3 0  and 3 0 1 
7551211		 # 	collision with: 6 1 0  and 2 2 0 
7551237		 # 	collision with: 7 2 0  and 10 3 0 
7551241		 # 	collision with: 6 1 0  and 6 0 1 
7551243		 # 	collision with: 7 1 0  and 4 2 0 
7551256		 # 	collision with: 5 2 0  and 0 4 0 
7551258		 # 	collision with: 2 0 0  and 5 2 0 
7551264		 # 	collision with: 10 2 0  and 8 4 0 
7551266		 # 	collision with: 0 4 0  and 9 6 0 
7551284		 # 	collision with: 7 5 0  and 5 6 0 
7551286		 # 	collision with: 0 6 0  and 9 7 0 
7551297		 # 	collision with: 4 2 0  and 4 3 0 
7551299		 # 	collision with: 1 2 0  and 2 0 1 
7551308		 # 	collision with: 3 4 0  and 0 2 1 
7551310		 # 	collision with: 4 0 0  and 9 1 0 
7551348		 # 	collision with: 7 4 0  and 9 0 1 
7551350		 # 	collision with: 5 0 0  and 2 2 0 
7551360		 # 	collision with: 8 0 0  and 3 1 0 
7551362		 # 	collision with: 10 9 0  and 10 0 1 
7551368		 # 	collision with: 1 5 0  and 0 0 1 
7551370		 # 	collision with: 8 2 0  and 1 3 0 
7551420		 # 	collision with: 8 6 0  and 5 0 1 
7551422		 # 	collision with: 9 1 0  and 3 2 0 
7551432		 # 	collision with: 8 3 0  and 2 5 0 
7551434		 # 	collision with: 5 0 0  and 6 1 0 
7551472		 # 	collision with: 9 1 0  and 9 2 0 
7551474		 # 	collision with: 0 6 0  and 9 7 0 
7551485		 # 	collision with: 8 0 0  and 3 1 0 
7551487		 # 	collision with: 4 6 0  and 5 6 0 
7551496		 # 	collision with: 9 4 0  and 1 6 0 
7551498		 # 	collision with: 9 0 0  and 9 2 0 
7551501		 # 	collision with: 9 3 0  and 3 0 1 
7551503		 # 	collision with: 3 1 0  and 4 1 0 
7551516		 # 	collision with: 6 0 0  and 6 2 0 
7551518		 # 	collision with: 6 3 0  and 9 0 1 
7551524		 # 	collision with: 10 1 0  and 3 2 0 
7551526		 # 	collision with: 5 3 0  and 0 0 1 
7551541		 # 	collision with: 2 9 0  and 0 0 1 
7551543		 # 	collision with: 9 0 0  and 9 2 0 
7551573		 # 	collision with: 4 6 0  and 5 6 0 
7551575		 # 	collision with: 9 8 0  and 3 1 1 
7551576		 # 	collision with: 0 5 0  and 2 5 0 
7551578		 # 	collision with: 8 4 0  and 5 5 0 
7551580		 # 	collision with: 1 2 0  and 2 2 0 
7551582		 # 	collision with: 9 9 0  and 0 0 1 
7551585		 # 	collision with: 4 3 0  and 6 3 0 
7551587		 # 	collision with: 7 3 0  and 9 5 0 
7551600		 # 	collision with: 2 0 0  and 6 1 0 
7551602		 # 	collision with: 3 2 0  and 4 4 0 
7551628		 # 	collision with: 3 4 0  and 2 5 0 
7551636		 # 	collision with: 3 4 0  and 0 5 0 
7551638		 # 	collision with: 4 4 0  and 7 5 0 
7551664		 # 	collision with: 6 0 0  and 8 2 0 
7551666		 # 	collision with: 0 5 0  and 2 5 0 
7551681		 # 	collision with: 4 2 0  and 6 3 0 
7551683		 # 	collision with: 9 0 0  and 5 2 0 
7551684		 # 	collision with: 0 0 0  and 2 1 0 
7551686		 # 	collision with: 7 10 0  and 10 0 1 
7551688		 # 	collision with: 4 3 0  and 3 5 0 
7551690		 # 	collision with: 1 1 0  and 1 2 0 
7551693		 # 	collision with: 0 4 0  and 4 0 1 
7551695		 # 	collision with: 7 1 0  and 4 2 0 
7551721		 # 	collision with: 8 1 0  and 0 2 0 
7551723		 # 	collision with: 5 0 0  and 1 2 0 
7551725		 # 	collision with: 1 5 0  and 8 0 1 
7551727		 # 	collision with: 0 0 0  and 1 1 1 
7551740		 # 	collision with: 4 3 0  and 10 5 0 
7551742		 # 	collision with: 0 8 0  and 1 8 0 
7551748		 # 	collision with: 2 3 0  and 0 5 0 
7551750		 # 	collision with: 8 0 0  and 7 1 0 
7551768		 # 	collision with: 9 5 0  and 7 6 0 
7551781		 # 	collision with: 9 1 0  and 9 2 0 
7551783		 # 	collision with: 0 2 0  and 8 3 0 
7551792		 # 	collision with: 5 10 0  and 8 0 1 
7551794		 # 	collision with: 6 10 0  and 6 0 1 
7551832		 # 	collision with: 10 2 0  and 8 1 1 
7551834		 # 	collision with: 2 1 0  and 2 0 1 
7551844		 # 	collision with: 8 2 0  and 3 3 0 
7551846		 # 	collision with: 7 5 0  and 2 2 1 
7551852		 # 	collision with: 10 10 0  and 3 0 1 
7551854		 # 	collision with: 7 3 0  and 7 0 1 
7551904		 # 	collision with: 2 6 0  and 2 2 1 
7551906		 # 	collision with: 6 0 0  and 6 1 0 
7551916		 # 	collision with: 1 4 0  and 6 6 0 
7551918		 # 	collision with: 6 1 0  and 2 2 0 
7551956		 # 	collision with: 3 0 0  and 3 1 0 
7551958		 # 	collision with: 6 0 0  and 1 1 0 
7551969		 # 	collision with: 0 0 0  and 10 2 0 
7551971		 # 	collision with: 7 1 0  and 10 2 0 
7551980		 # 	collision with: 0 3 0  and 7 4 0 
7551982		 # 	collision with: 10 1 0  and 10 0 1 
7551985		 # 	collision with: 9 9 0  and 0 0 1 
7551987		 # 	collision with: 0 2 0  and 8 3 0 
7552000		 # 	collision with: 2 3 0  and 2 5 0 
7552008		 # 	collision with: 2 0 0  and 6 1 0 
7552010		 # 	collision with: 3 1 0  and 4 1 0 
7552025		 # 	collision with: 3 0 0  and 0 3 1 
7552027		 # 	collision with: 3 1 0  and 4 1 0 
7552057		 # 	collision with: 1 2 0  and 2 2 0 
7552059		 # 	collision with: 10 2 0  and 7 4 0 
7552060		 # 	collision with: 3 9 0  and 5 9 0 
7552062		 # 	collision with: 0 7 0  and 7 1 1 
7552064		 # 	collision with: 0 8 0  and 1 8 0 
7552066		 # 	collision with: 6 0 0  and 1 2 0 
7552069		 # 	collision with: 3 1 0  and 4 1 0 
7552084		 # 	collision with: 1 1 0  and 9 3 0 
7552086		 # 	collision with: 4 3 0  and 5 4 0 
7552112		 # 	collision with: 5 1 0  and 4 2 0 
7552114		 # 	collision with: 1 5 0  and 0 6 0 
7552120		 # 	collision with: 2 1 0  and 10 2 0 
7552122		 # 	collision with: 6 1 0  and 6 0 1 
7552148		 # 	collision with: 5 3 0  and 7 5 0 
7552150		 # 	collision with: 6 4 0  and 0 6 0 
7552165		 # 	collision with: 5 0 0  and 8 2 0 
7552167		 # 	collision with: 3 0 0  and 7 1 0 
7552168		 # 	collision with: 8 2 0  and 3 3 0 
7552170		 # 	collision with: 7 3 0  and 4 5 0 
7552172		 # 	collision with: 9 4 0  and 8 6 0 
7552174		 # 	collision with: 3 4 0  and 5 6 0 
7552177		 # 	collision with: 0 6 0  and 4 2 1 
7552179		 # 	collision with: 0 2 0  and 4 4 0 
7552205		 # 	collision with: 9 0 0  and 1 1 0 
7552207		 # 	collision with: 6 1 0  and 2 2 0 
7552209		 # 	collision with: 0 0 0  and 1 1 1 
7552224		 # 	collision with: 3 4 0  and 9 6 0 
7552226		 # 	collision with: 3 2 0  and 8 3 0 
7552232		 # 	collision with: 5 4 0  and 3 6 0 
7552234		 # 	collision with: 0 1 0  and 10 2 0 
7552252		 # 	collision with: 0 5 0  and 9 6 0 
7552254		 # 	collision with: 5 0 0  and 1 2 0 
7552265		 # 	collision with: 3 0 0  and 3 1 0 
7552267		 # 	collision with: 7 0 0  and 9 1 0 
7552276		 # 	collision with: 3 4 0  and 1 2 1 
7552316		 # 	collision with: 8 7 0  and 6 2 1 
7552318		 # 	collision with: 5 3 0  and 5 5 0 
7552328		 # 	collision with: 8 4 0  and 3 5 0 
7552330		 # 	collision with: 2 3 0  and 6 5 0 
7552336		 # 	collision with: 10 8 0  and 0 1 1 
7552338		 # 	collision with: 3 2 0  and 2 3 0 
7552388		 # 	collision with: 5 2 0  and 8 1 1 
7552390		 # 	collision with: 3 2 0  and 2 3 0 
7552400		 # 	collision with: 9 0 0  and 6 1 0 
7552402		 # 	collision with: 3 2 0  and 2 3 0 
7552440		 # 	collision with: 2 1 0  and 4 3 0 
7552453		 # 	collision with: 8 3 0  and 3 4 0 
7552455		 # 	collision with: 2 4 0  and 0 2 1 
7552464		 # 	collision with: 6 1 0  and 9 3 0 
7552466		 # 	collision with: 3 2 0  and 2 3 0 
7552469		 # 	collision with: 9 5 0  and 1 0 1 
7552471		 # 	collision with: 3 9 0  and 1 0 1 
7552484		 # 	collision with: 9 1 0  and 9 2 0 
7552486		 # 	collision with: 8 0 0  and 10 2 0 
7552492		 # 	collision with: 5 0 0  and 8 2 0 
7552494		 # 	collision with: 6 0 0  and 1 2 0 
7552509		 # 	collision with: 0 7 0  and 5 1 1 
7552541		 # 	collision with: 3 9 0  and 5 9 0 
7552543		 # 	collision with: 3 4 0  and 4 6 0 
7552544		 # 	collision with: 1 2 0  and 2 2 0 
7552546		 # 	collision with: 3 2 0  and 2 3 0 
7552548		 # 	collision with: 4 3 0  and 6 3 0 
7552550		 # 	collision with: 3 2 0  and 2 3 0 
7552553		 # 	collision with: 5 3 0  and 7 5 0 
7552555		 # 	collision with: 9 0 0  and 9 2 0 
7552568		 # 	collision with: 4 3 0  and 8 4 0 
7552570		 # 	collision with: 1 1 0  and 1 2 0 
7552596		 # 	collision with: 2 3 0  and 0 5 0 
7552598		 # 	collision with: 3 2 0  and 2 3 0 
7552604		 # 	collision with: 8 3 0  and 2 5 0 
7552606		 # 	collision with: 6 2 0  and 1 3 0 
7552632		 # 	collision with: 10 1 0  and 0 2 0 
7552634		 # 	collision with: 3 2 0  and 2 3 0 
7552649		 # 	collision with: 0 0 0  and 4 2 0 
7552652		 # 	collision with: 6 1 0  and 1 3 0 
7552654		 # 	collision with: 3 2 0  and 2 3 0 
7552656		 # 	collision with: 0 0 0  and 5 1 0 
7552658		 # 	collision with: 3 0 0  and 7 1 0 
7552661		 # 	collision with: 8 10 0  and 2 2 1 
7552663		 # 	collision with: 0 6 0  and 9 7 0 
7552689		 # 	collision with: 3 4 0  and 9 6 0 
7552691		 # 	collision with: 10 7 0  and 7 1 1 
7552693		 # 	collision with: 9 1 0  and 2 0 1 
7552695		 # 	collision with: 9 2 0  and 1 0 1 
7552708		 # 	collision with: 9 0 0  and 1 1 0 
7552710		 # 	collision with: 3 2 0  and 2 3 0 
7552716		 # 	collision with: 2 0 0  and 1 1 0 
7552736		 # 	collision with: 2 5 0  and 0 6 0 
7552738		 # 	collision with: 9 1 0  and 0 2 0 
7552749		 # 	collision with: 8 4 0  and 8 6 0 
7552751		 # 	collision with: 0 0 0  and 7 2 0 
7552760		 # 	collision with: 10 8 0  and 4 0 1 
7552762		 # 	collision with: 3 2 0  and 2 3 0 
7552800		 # 	collision with: 5 1 0  and 5 0 1 
7552802		 # 	collision with: 3 2 0  and 2 3 0 
7552812		 # 	collision with: 5 0 0  and 6 2 0 
7552814		 # 	collision with: 3 2 0  and 2 3 0 
7552820		 # 	collision with: 1 7 0  and 4 1 1 
7552822		 # 	collision with: 6 4 0  and 1 5 0 
7552872		 # 	collision with: 1 10 0  and 10 0 1 
7552874		 # 	collision with: 5 6 0  and 2 7 0 
7552884		 # 	collision with: 2 1 0  and 10 2 0 
7552886		 # 	collision with: 5 3 0  and 8 4 0 
7552924		 # 	collision with: 3 0 0  and 4 1 0 
7552926		 # 	collision with: 8 0 0  and 4 2 0 
7552937		 # 	collision with: 10 2 0  and 4 3 0 
7552939		 # 	collision with: 6 9 0  and 1 0 1 
7552948		 # 	collision with: 8 0 0  and 4 1 0 
7552953		 # 	collision with: 7 3 0  and 0 0 1 
7552955		 # 	collision with: 1 4 0  and 4 0 1 
7552968		 # 	collision with: 5 4 0  and 5 5 0 
7552970		 # 	collision with: 3 1 0  and 4 1 0 
7552976		 # 	collision with: 7 2 0  and 10 4 0 
7552978		 # 	collision with: 5 3 0  and 5 5 0 
7552993		 # 	collision with: 1 3 0  and 3 0 1 
7552995		 # 	collision with: 6 2 0  and 1 3 0 
7553025		 # 	collision with: 0 5 0  and 2 5 0 
7553027		 # 	collision with: 2 4 0  and 1 6 0 
7553028		 # 	collision with: 4 6 0  and 5 6 0 
7553030		 # 	collision with: 8 3 0  and 4 4 0 
7553032		 # 	collision with: 3 9 0  and 5 9 0 
7553034		 # 	collision with: 2 2 0  and 10 0 1 
7553037		 # 	collision with: 7 0 0  and 2 2 0 
7553039		 # 	collision with: 5 0 0  and 6 1 0 
7553052		 # 	collision with: 3 4 0  and 0 6 0 
7553054		 # 	collision with: 2 4 0  and 1 6 0 
7553080		 # 	collision with: 4 0 0  and 2 2 0 
7553082		 # 	collision with: 0 4 0  and 9 6 0 
7553088		 # 	collision with: 7 0 0  and 1 2 0 
7553116		 # 	collision with: 9 4 0  and 10 5 0 
7553118		 # 	collision with: 8 4 0  and 8 5 0 
7553133		 # 	collision with: 10 2 0  and 6 3 0 
7553135		 # 	collision with: 5 0 1  and 5 1 1 
7553136		 # 	collision with: 9 0 0  and 1 1 0 
7553138		 # 	collision with: 7 1 0  and 4 2 0 
7553140		 # 	collision with: 5 1 0  and 10 2 0 
7553142		 # 	collision with: 3 7 0  and 0 0 1 
7553145		 # 	collision with: 7 9 0  and 1 0 1 
7553147		 # 	collision with: 6 2 0  and 9 3 0 
7553173		 # 	collision with: 4 3 0  and 10 5 0 
7553175		 # 	collision with: 5 3 0  and 9 4 0 
7553177		 # 	collision with: 2 1 1  and 1 3 1 
7553179		 # 	collision with: 7 0 0  and 3 2 0 
7553192		 # 	collision with: 8 1 0  and 0 2 0 
7553194		 # 	collision with: 2 3 0  and 6 5 0 
7553200		 # 	collision with: 5 1 0  and 4 2 0 
7553202		 # 	collision with: 6 3 0  and 5 4 0 
7553220		 # 	collision with: 4 5 0  and 2 6 0 
7553222		 # 	collision with: 0 1 0  and 4 2 0 
7553233		 # 	collision with: 2 3 0  and 2 5 0 
7553235		 # 	collision with: 5 3 0  and 8 4 0 
7553244		 # 	collision with: 9 9 0  and 3 1 1 
7553246		 # 	collision with: 0 9 0  and 1 0 1 
7553284		 # 	collision with: 4 8 0  and 0 4 1 
7553286		 # 	collision with: 3 5 0  and 3 0 1 
7553296		 # 	collision with: 5 2 0  and 6 4 0 
7553298		 # 	collision with: 5 1 0  and 0 3 0 
7553304		 # 	collision with: 4 8 0  and 2 1 1 
7553306		 # 	collision with: 4 2 0  and 8 1 1 
7553356		 # 	collision with: 6 4 0  and 10 0 1 
7553358		 # 	collision with: 9 5 0  and 2 2 1 
7553368		 # 	collision with: 6 2 0  and 3 3 0 
7553370		 # 	collision with: 4 4 0  and 6 5 0 
7553408		 # 	collision with: 7 2 0  and 7 4 0 
7553410		 # 	collision with: 3 0 0  and 10 2 0 
7553421		 # 	collision with: 0 0 0  and 5 1 0 
7553423		 # 	collision with: 6 1 0  and 2 0 1 
7553432		 # 	collision with: 1 4 0  and 8 5 0 
7553434		 # 	collision with: 10 2 0  and 7 4 0 
7553437		 # 	collision with: 8 1 0  and 7 0 1 
7553452		 # 	collision with: 1 1 0  and 1 3 0 
7553454		 # 	collision with: 9 9 0  and 8 1 1 
7553460		 # 	collision with: 9 2 0  and 6 4 0 
7553462		 # 	collision with: 7 10 0  and 7 0 1 
7553477		 # 	collision with: 6 3 0  and 3 1 1 
7553479		 # 	collision with: 8 3 0  and 2 4 0 
7553509		 # 	collision with: 3 1 0  and 4 1 0 
7553511		 # 	collision with: 9 0 0  and 5 2 0 
7553512		 # 	collision with: 1 10 0  and 3 10 0 
7553514		 # 	collision with: 5 0 0  and 6 1 0 
7553516		 # 	collision with: 2 4 0  and 4 4 0 
7553518		 # 	collision with: 0 2 0  and 8 3 0 
7553521		 # 	collision with: 2 3 0  and 3 4 0 
7553523		 # 	collision with: 0 2 0  and 2 4 0 
7553536		 # 	collision with: 4 0 0  and 1 2 0 
7553538		 # 	collision with: 7 6 0  and 6 0 1 
7553564		 # 	collision with: 0 3 0  and 10 4 0 
7553566		 # 	collision with: 2 1 0  and 0 3 0 
7553572		 # 	collision with: 10 3 0  and 7 4 0 
7553574		 # 	collision with: 7 5 0  and 1 6 0 
7553600		 # 	collision with: 2 1 0  and 4 3 0 
7553602		 # 	collision with: 5 1 0  and 0 3 0 
7553617		 # 	collision with: 8 0 0  and 4 1 0 
7553619		 # 	collision with: 4 6 0  and 2 0 1 
7553620		 # 	collision with: 0 0 0  and 4 2 0 
7553624		 # 	collision with: 10 2 0  and 4 3 0 
7553626		 # 	collision with: 4 3 0  and 1 4 0 
7553629		 # 	collision with: 7 5 0  and 3 0 1 
7553631		 # 	collision with: 7 3 0  and 4 5 0 
7553657		 # 	collision with: 5 2 0  and 0 4 0 
7553659		 # 	collision with: 1 1 0  and 1 0 1 
7553661		 # 	collision with: 10 5 0  and 5 0 1 
7553663		 # 	collision with: 4 1 0  and 4 3 0 
7553676		 # 	collision with: 7 2 0  and 10 3 0 
7553678		 # 	collision with: 3 0 0  and 4 2 0 
7553684		 # 	collision with: 8 2 0  and 7 3 0 
7553686		 # 	collision with: 9 4 0  and 8 5 0 
7553704		 # 	collision with: 6 5 0  and 4 6 0 
7553706		 # 	collision with: 0 0 0  and 7 2 0 
7553717		 # 	collision with: 7 2 0  and 7 4 0 
7553719		 # 	collision with: 5 3 0  and 9 4 0 
7553728		 # 	collision with: 3 4 0  and 4 1 1 
7553730		 # 	collision with: 1 2 0  and 2 2 0 
7553768		 # 	collision with: 6 3 0  and 4 1 1 
7553770		 # 	collision with: 9 10 0  and 1 3 1 
7553780		 # 	collision with: 5 4 0  and 6 6 0 
7553788		 # 	collision with: 2 4 0  and 8 1 1 
7553790		 # 	collision with: 0 4 0  and 1 5 0 
7553840		 # 	collision with: 10 8 0  and 3 1 1 
7553842		 # 	collision with: 3 3 0  and 9 5 0 
7553852		 # 	collision with: 10 3 0  and 7 4 0 
7553892		 # 	collision with: 1 1 0  and 1 3 0 
7553894		 # 	collision with: 4 0 0  and 3 2 0 
7553905		 # 	collision with: 8 2 0  and 3 3 0 
7553907		 # 	collision with: 4 4 0  and 1 6 0 
7553916		 # 	collision with: 7 2 0  and 10 4 0 
7553918		 # 	collision with: 9 6 0  and 0 0 1 
7553921		 # 	collision with: 9 3 0  and 6 0 1 
7553923		 # 	collision with: 3 3 0  and 9 5 0 
7553936		 # 	collision with: 8 4 0  and 8 6 0 
7553938		 # 	collision with: 4 3 0  and 1 4 0 
7553944		 # 	collision with: 9 1 0  and 5 2 0 
7553961		 # 	collision with: 1 4 0  and 0 0 1 
7553963		 # 	collision with: 5 0 0  and 1 2 0 
7553993		 # 	collision with: 0 8 0  and 1 8 0 
7553995		 # 	collision with: 2 4 0  and 8 6 0 
7553996		 # 	collision with: 4 3 0  and 6 3 0 
7553998		 # 	collision with: 3 2 0  and 4 4 0 
7.95672secs	4411
