# prime 11
# degree 2
# input variables 3
# output variables 3
# reload computed balance functions from file balance-2345of3248-p11d2m3-debug.log
# p = 11
# n = 3
# smalldomain p^m 1331
# domain p^n 1331
#	 p^2 = 121
#	 p^3 = 1331
#	 p^4 = 14641
#	 p^5 = 161051
#	 p^6 = 1771561
#	 p^7 = 19487171
#	 p^8 = 214358881
#	 p^9 = 2357947691
opening file : balance-2345of3248-p11d2m3-debug.log
reloading for step2...
14070005		 # 	collision with: 9 4 0  and 7 0 1 
14070007		 # 	collision with: 6 5 0  and 8 0 1 
14070121		 # 	collision with: 0 0 0  and 10 2 0 
14070129		 # 	collision with: 8 1 0  and 7 0 1 
14070161		 # 	collision with: 0 0 0  and 9 2 0 
14070163		 # 	collision with: 7 1 0  and 10 2 0 
14070169		 # 	collision with: 10 4 0  and 10 5 0 
14070171		 # 	collision with: 6 0 0  and 4 1 0 
14070285		 # 	collision with: 3 9 0  and 1 1 1 
14070287		 # 	collision with: 4 2 0  and 8 3 0 
14070345		 # 	collision with: 9 4 0  and 6 5 0 
14070347		 # 	collision with: 5 2 0  and 3 0 1 
14070351		 # 	collision with: 1 0 1  and 9 2 1 
14070364		 # 	collision with: 10 0 0  and 5 1 0 
14070366		 # 	collision with: 3 1 0  and 10 2 1 
14070373		 # 	collision with: 9 3 0  and 5 5 0 
14070375		 # 	collision with: 5 0 0  and 6 1 0 
14070401		 # 	collision with: 1 2 0  and 2 0 1 
14070403		 # 	collision with: 7 0 0  and 7 2 0 
14070425		 # 	collision with: 1 8 0  and 2 8 0 
14070427		 # 	collision with: 3 0 0  and 5 1 0 
14070429		 # 	collision with: 5 0 0  and 1 2 0 
14070431		 # 	collision with: 10 3 0  and 1 5 0 
14070489		 # 	collision with: 6 0 0  and 6 1 0 
14070491		 # 	collision with: 0 0 0  and 1 1 1 
14070605		 # 	collision with: 10 3 0  and 3 4 0 
14070607		 # 	collision with: 10 1 0  and 4 2 0 
14070613		 # 	collision with: 0 3 0  and 6 5 0 
14070615		 # 	collision with: 10 5 0  and 0 0 1 
14070645		 # 	collision with: 5 2 0  and 10 3 0 
14070647		 # 	collision with: 0 1 0  and 10 2 0 
14070653		 # 	collision with: 1 4 0  and 6 5 0 
14070655		 # 	collision with: 2 3 0  and 1 0 1 
14070769		 # 	collision with: 0 6 0  and 1 6 0 
14070771		 # 	collision with: 1 4 0  and 4 0 1 
14070829		 # 	collision with: 10 3 0  and 7 4 0 
14070831		 # 	collision with: 10 6 0  and 6 1 1 
14070833		 # 	collision with: 3 5 0  and 7 6 0 
14070835		 # 	collision with: 1 5 0  and 0 0 1 
14070848		 # 	collision with: 0 0 0  and 1 1 0 
14070850		 # 	collision with: 5 0 0  and 6 1 0 
14070859		 # 	collision with: 10 1 0  and 4 2 0 
14070885		 # 	collision with: 8 0 0  and 3 1 0 
14070887		 # 	collision with: 5 1 0  and 2 2 0 
14070909		 # 	collision with: 3 5 0  and 7 6 0 
14070911		 # 	collision with: 6 4 0  and 9 5 0 
14070913		 # 	collision with: 0 3 0  and 1 4 0 
14070915		 # 	collision with: 3 0 0  and 2 2 0 
14070973		 # 	collision with: 0 3 0  and 6 5 0 
14070975		 # 	collision with: 5 5 0  and 6 5 0 
14071089		 # 	collision with: 5 4 0  and 3 5 0 
14071091		 # 	collision with: 10 3 0  and 8 4 0 
14071097		 # 	collision with: 9 9 0  and 0 1 1 
14071099		 # 	collision with: 0 2 0  and 7 3 0 
14071129		 # 	collision with: 7 1 0  and 7 2 0 
14071131		 # 	collision with: 7 4 0  and 8 6 0 
14071137		 # 	collision with: 7 1 0  and 7 0 1 
14071139		 # 	collision with: 4 2 0  and 1 3 0 
14071253		 # 	collision with: 0 0 0  and 1 1 1 
14071313		 # 	collision with: 0 2 0  and 8 3 0 
14071315		 # 	collision with: 2 1 0  and 0 2 1 
14071317		 # 	collision with: 1 2 0  and 4 4 0 
14071319		 # 	collision with: 9 2 1  and 7 3 1 
14071384		 # 	collision with: 1 9 0  and 9 0 1 
14071386		 # 	collision with: 6 1 0  and 1 2 0 
14071404		 # 	collision with: 2 2 0  and 10 4 0 
14071406		 # 	collision with: 8 4 0  and 5 6 0 
14071432		 # 	collision with: 5 3 0  and 3 4 0 
14071434		 # 	collision with: 10 4 0  and 1 6 0 
14071436		 # 	collision with: 3 8 0  and 2 0 1 
14071438		 # 	collision with: 2 4 0  and 9 6 0 
14071459		 # 	collision with: 5 9 0  and 4 0 1 
14071488		 # 	collision with: 9 3 0  and 5 4 0 
14071490		 # 	collision with: 5 0 0  and 1 2 0 
14071493		 # 	collision with: 10 0 0  and 8 1 0 
14071495		 # 	collision with: 1 2 0  and 4 1 1 
14071501		 # 	collision with: 2 0 0  and 5 2 0 
14071503		 # 	collision with: 6 3 0  and 4 5 0 
14071504		 # 	collision with: 9 9 0  and 3 0 1 
14071506		 # 	collision with: 7 0 0  and 2 1 0 
14071525		 # 	collision with: 4 2 0  and 2 4 0 
14071527		 # 	collision with: 2 1 0  and 2 0 1 
14071532		 # 	collision with: 3 0 0  and 1 2 0 
14071534		 # 	collision with: 0 2 0  and 5 4 0 
14071540		 # 	collision with: 7 7 0  and 3 1 1 
14071542		 # 	collision with: 7 2 0  and 5 3 0 
14071549		 # 	collision with: 4 2 0  and 2 4 0 
14071551		 # 	collision with: 5 0 0  and 8 2 0 
14071560		 # 	collision with: 8 3 0  and 9 4 0 
14071562		 # 	collision with: 8 0 0  and 10 1 0 
14071592		 # 	collision with: 10 6 0  and 6 0 1 
14071594		 # 	collision with: 0 3 0  and 7 5 0 
14071600		 # 	collision with: 2 1 1  and 1 2 1 
14071602		 # 	collision with: 10 2 0  and 2 4 0 
14071632		 # 	collision with: 6 4 0  and 7 6 0 
14071634		 # 	collision with: 8 4 0  and 0 1 1 
14071645		 # 	collision with: 4 2 0  and 2 4 0 
14071647		 # 	collision with: 0 0 0  and 1 1 1 
14071652		 # 	collision with: 1 3 0  and 0 4 0 
14071654		 # 	collision with: 7 0 0  and 2 2 0 
14071660		 # 	collision with: 8 5 0  and 10 6 0 
14071662		 # 	collision with: 6 9 0  and 1 0 1 
14071669		 # 	collision with: 4 2 0  and 2 4 0 
14071671		 # 	collision with: 5 0 0  and 6 1 0 
14071688		 # 	collision with: 6 2 0  and 0 4 0 
14071690		 # 	collision with: 7 2 0  and 6 4 0 
14071693		 # 	collision with: 4 2 0  and 2 4 0 
14071695		 # 	collision with: 4 1 0  and 8 3 0 
14071701		 # 	collision with: 4 2 0  and 2 4 0 
14071703		 # 	collision with: 5 1 0  and 3 3 0 
14071704		 # 	collision with: 3 1 1  and 0 2 1 
14071706		 # 	collision with: 9 2 0  and 5 4 0 
14071739		 # 	collision with: 9 5 0  and 4 0 1 
14071756		 # 	collision with: 4 4 0  and 5 0 1 
14071758		 # 	collision with: 5 0 0  and 6 1 0 
14071760		 # 	collision with: 10 0 0  and 9 2 0 
14071762		 # 	collision with: 10 10 0  and 9 1 1 
14071788		 # 	collision with: 9 10 0  and 0 0 1 
14071790		 # 	collision with: 2 7 0  and 4 0 1 
14071808		 # 	collision with: 6 3 0  and 8 1 1 
14071810		 # 	collision with: 3 0 0  and 1 1 0 
14071816		 # 	collision with: 0 5 0  and 3 0 1 
14071818		 # 	collision with: 9 0 0  and 10 2 0 
14071868		 # 	collision with: 2 0 0  and 5 2 0 
14071870		 # 	collision with: 3 0 1  and 0 2 1 
14071888		 # 	collision with: 7 3 0  and 3 5 0 
14071890		 # 	collision with: 7 0 0  and 2 2 0 
14071916		 # 	collision with: 10 2 0  and 7 4 0 
14071920		 # 	collision with: 2 5 0  and 7 6 0 
14071941		 # 	collision with: 5 10 0  and 6 0 1 
14071972		 # 	collision with: 4 5 0  and 7 0 1 
14071974		 # 	collision with: 7 5 0  and 1 1 1 
14071977		 # 	collision with: 0 5 0  and 8 6 0 
14071979		 # 	collision with: 7 5 0  and 5 7 0 
14071985		 # 	collision with: 5 4 0  and 3 6 0 
14071987		 # 	collision with: 7 5 0  and 5 7 0 
14071988		 # 	collision with: 3 3 0  and 2 5 0 
14071990		 # 	collision with: 7 2 0  and 5 3 0 
14072009		 # 	collision with: 4 3 0  and 4 0 1 
14072011		 # 	collision with: 3 6 0  and 5 6 0 
14072016		 # 	collision with: 5 4 0  and 3 6 0 
14072018		 # 	collision with: 5 1 0  and 3 3 0 
14072024		 # 	collision with: 3 0 0  and 8 2 0 
14072026		 # 	collision with: 7 2 0  and 10 0 1 
14072033		 # 	collision with: 8 0 0  and 9 1 0 
14072035		 # 	collision with: 7 5 0  and 5 7 0 
14072046		 # 	collision with: 8 0 0  and 2 1 0 
14072076		 # 	collision with: 8 10 0  and 6 1 1 
14072078		 # 	collision with: 8 0 0  and 2 2 0 
14072086		 # 	collision with: 8 1 0  and 7 0 1 
14072116		 # 	collision with: 5 0 0  and 8 1 0 
14072118		 # 	collision with: 0 6 0  and 9 1 1 
14072129		 # 	collision with: 10 4 0  and 7 0 1 
14072131		 # 	collision with: 7 5 0  and 5 7 0 
14072136		 # 	collision with: 6 2 0  and 5 3 0 
14072138		 # 	collision with: 7 1 0  and 6 2 0 
14072144		 # 	collision with: 5 1 0  and 7 2 0 
14072146		 # 	collision with: 5 0 0  and 6 1 0 
14072153		 # 	collision with: 6 0 0  and 6 1 0 
14072155		 # 	collision with: 8 0 0  and 10 1 0 
14072172		 # 	collision with: 3 5 0  and 9 6 0 
14072174		 # 	collision with: 3 10 0  and 4 10 0 
14072177		 # 	collision with: 8 0 0  and 7 1 1 
14072179		 # 	collision with: 7 5 0  and 5 7 0 
14072185		 # 	collision with: 0 1 0  and 10 2 0 
14072187		 # 	collision with: 5 3 0  and 0 5 0 
14072188		 # 	collision with: 1 3 0  and 8 0 1 
14072190		 # 	collision with: 5 2 0  and 6 3 0 
14072221		 # 	collision with: 6 2 0  and 1 3 0 
14072223		 # 	collision with: 6 5 0  and 6 6 0 
14072240		 # 	collision with: 6 0 0  and 6 1 0 
14072242		 # 	collision with: 6 4 0  and 5 6 0 
14072244		 # 	collision with: 9 6 0  and 2 2 1 
14072246		 # 	collision with: 7 4 0  and 2 0 1 
14072272		 # 	collision with: 10 2 0  and 10 0 1 
14072274		 # 	collision with: 4 2 0  and 0 3 0 
14072292		 # 	collision with: 1 1 0  and 1 0 1 
14072294		 # 	collision with: 1 5 0  and 1 7 0 
14072300		 # 	collision with: 7 4 0  and 5 5 0 
14072302		 # 	collision with: 7 5 0  and 5 7 0 
14072354		 # 	collision with: 7 5 0  and 5 7 0 
14072372		 # 	collision with: 8 5 0  and 9 6 0 
14072374		 # 	collision with: 7 5 0  and 5 7 0 
14072400		 # 	collision with: 1 9 0  and 8 2 1 
14072402		 # 	collision with: 7 5 0  and 5 7 0 
14072404		 # 	collision with: 10 4 0  and 10 5 0 
14072406		 # 	collision with: 7 0 0  and 2 1 0 
14072425		 # 	collision with: 10 10 0  and 0 0 1 
14072427		 # 	collision with: 0 6 0  and 2 0 1 
14072456		 # 	collision with: 3 1 0  and 10 3 0 
14072458		 # 	collision with: 5 4 0  and 6 5 0 
14072461		 # 	collision with: 10 2 0  and 7 4 0 
14072463		 # 	collision with: 2 1 0  and 2 2 0 
14072469		 # 	collision with: 0 1 0  and 10 2 0 
14072471		 # 	collision with: 2 2 0  and 1 3 0 
14072472		 # 	collision with: 8 0 0  and 3 1 0 
14072474		 # 	collision with: 3 2 0  and 3 3 0 
14072493		 # 	collision with: 10 2 0  and 1 1 1 
14072500		 # 	collision with: 1 3 0  and 0 4 0 
14072508		 # 	collision with: 10 0 0  and 4 1 0 
14072528		 # 	collision with: 1 7 0  and 8 0 1 
14072530		 # 	collision with: 2 3 0  and 4 4 0 
14072560		 # 	collision with: 9 2 0  and 6 4 0 
14072562		 # 	collision with: 7 5 0  and 5 7 0 
14072568		 # 	collision with: 9 4 0  and 5 6 0 
14072570		 # 	collision with: 7 5 0  and 5 7 0 
14072600		 # 	collision with: 3 5 0  and 10 6 0 
14072602		 # 	collision with: 4 2 0  and 0 3 0 
14072613		 # 	collision with: 6 5 0  and 5 0 1 
14072615		 # 	collision with: 6 2 0  and 3 3 0 
14072620		 # 	collision with: 10 0 0  and 8 1 0 
14072622		 # 	collision with: 1 3 0  and 8 4 0 
14072628		 # 	collision with: 4 1 0  and 9 2 0 
14072630		 # 	collision with: 6 1 0  and 1 2 0 
14072639		 # 	collision with: 6 1 0  and 6 0 1 
14072656		 # 	collision with: 8 2 0  and 8 3 0 
14072658		 # 	collision with: 7 5 0  and 5 7 0 
14072661		 # 	collision with: 7 2 0  and 10 4 0 
14072663		 # 	collision with: 5 3 0  and 8 4 0 
14072669		 # 	collision with: 2 5 0  and 1 6 0 
14072671		 # 	collision with: 3 4 0  and 2 5 0 
14072672		 # 	collision with: 1 1 0  and 10 2 0 
14072674		 # 	collision with: 7 5 0  and 5 7 0 
14072705		 # 	collision with: 8 3 0  and 5 4 0 
14072707		 # 	collision with: 0 3 0  and 4 5 0 
14072724		 # 	collision with: 3 2 0  and 1 3 0 
14072726		 # 	collision with: 7 5 0  and 5 7 0 
14072728		 # 	collision with: 9 0 0  and 6 1 0 
14072730		 # 	collision with: 5 1 0  and 6 2 0 
14072758		 # 	collision with: 7 5 0  and 5 7 0 
14072776		 # 	collision with: 0 1 0  and 1 1 0 
14072778		 # 	collision with: 5 3 0  and 0 5 0 
14072784		 # 	collision with: 9 3 0  and 2 0 1 
14072786		 # 	collision with: 1 4 0  and 4 0 1 
14072836		 # 	collision with: 8 4 0  and 9 5 0 
14072838		 # 	collision with: 0 5 0  and 3 6 0 
14072856		 # 	collision with: 0 2 0  and 6 4 0 
14072858		 # 	collision with: 4 1 0  and 9 3 0 
14072884		 # 	collision with: 5 6 0  and 6 0 1 
14072886		 # 	collision with: 4 2 0  and 0 3 0 
14072888		 # 	collision with: 10 3 0  and 6 0 1 
14072890		 # 	collision with: 5 3 0  and 4 0 1 
14072909		 # 	collision with: 4 10 0  and 5 0 1 
14072911		 # 	collision with: 9 10 0  and 10 0 1 
14072940		 # 	collision with: 6 1 0  and 0 0 1 
14072942		 # 	collision with: 5 0 0  and 2 1 1 
14072947		 # 	collision with: 7 0 0  and 10 1 0 
14072953		 # 	collision with: 1 3 0  and 0 4 0 
14072955		 # 	collision with: 6 1 0  and 8 2 0 
14072956		 # 	collision with: 7 5 0  and 0 1 1 
14072958		 # 	collision with: 4 7 0  and 2 0 1 
14072977		 # 	collision with: 2 5 0  and 7 6 0 
14072979		 # 	collision with: 7 0 0  and 7 2 0 
14072986		 # 	collision with: 3 4 0  and 2 5 0 
14072992		 # 	collision with: 2 0 0  and 4 1 1 
14072994		 # 	collision with: 8 0 0  and 2 1 0 
14073001		 # 	collision with: 1 6 0  and 0 0 1 
14073003		 # 	collision with: 10 4 0  and 5 1 1 
14073012		 # 	collision with: 3 5 0  and 10 6 0 
14073014		 # 	collision with: 5 2 0  and 6 3 0 
14073044		 # 	collision with: 4 1 0  and 0 2 0 
14073046		 # 	collision with: 2 3 0  and 4 3 0 
14073052		 # 	collision with: 7 8 0  and 2 0 1 
14073084		 # 	collision with: 2 0 0  and 4 2 0 
14073097		 # 	collision with: 10 4 0  and 9 1 1 
14073099		 # 	collision with: 4 7 0  and 7 2 1 
14073106		 # 	collision with: 10 0 0  and 1 2 0 
14073112		 # 	collision with: 10 4 0  and 1 5 0 
14073114		 # 	collision with: 8 0 0  and 7 2 0 
14073121		 # 	collision with: 5 2 0  and 5 0 1 
14073123		 # 	collision with: 8 4 0  and 3 6 0 
14073140		 # 	collision with: 0 8 0  and 2 8 0 
14073142		 # 	collision with: 8 1 0  and 9 3 0 
14073147		 # 	collision with: 3 2 0  and 4 2 1 
14073153		 # 	collision with: 8 1 0  and 3 3 0 
14073155		 # 	collision with: 0 2 0  and 9 4 0 
14073156		 # 	collision with: 7 1 0  and 2 2 0 
14073158		 # 	collision with: 5 0 0  and 8 2 0 
14073189		 # 	collision with: 2 5 0  and 0 0 1 
14073191		 # 	collision with: 5 0 0  and 1 2 0 
14073208		 # 	collision with: 5 2 0  and 2 4 0 
14073210		 # 	collision with: 6 8 0  and 8 0 1 
14073212		 # 	collision with: 6 2 1  and 8 3 1 
14073214		 # 	collision with: 0 1 0  and 1 1 0 
14073240		 # 	collision with: 9 4 0  and 5 6 0 
14073242		 # 	collision with: 5 9 0  and 8 2 1 
14073260		 # 	collision with: 3 2 0  and 3 4 0 
14073262		 # 	collision with: 2 9 0  and 2 0 1 
14073268		 # 	collision with: 1 2 0  and 9 4 0 
14073270		 # 	collision with: 10 1 0  and 10 0 1 
14073320		 # 	collision with: 7 1 0  and 7 2 0 
14073322		 # 	collision with: 3 8 0  and 0 0 1 
14073340		 # 	collision with: 7 1 0  and 2 2 0 
14073342		 # 	collision with: 0 3 0  and 7 5 0 
14073368		 # 	collision with: 4 1 0  and 3 3 0 
14073370		 # 	collision with: 9 2 0  and 9 4 0 
14073374		 # 	collision with: 10 2 0  and 1 4 0 
14073393		 # 	collision with: 4 4 0  and 10 5 0 
14073395		 # 	collision with: 7 9 0  and 1 0 1 
14073424		 # 	collision with: 2 0 0  and 4 2 0 
14073426		 # 	collision with: 0 2 0  and 9 0 1 
14073429		 # 	collision with: 3 3 0  and 2 5 0 
14073431		 # 	collision with: 2 3 0  and 4 4 0 
14073437		 # 	collision with: 2 5 0  and 1 6 0 
14073439		 # 	collision with: 10 0 0  and 8 2 0 
14073440		 # 	collision with: 9 5 0  and 10 1 1 
14073442		 # 	collision with: 7 0 1  and 2 2 1 
14073461		 # 	collision with: 2 1 0  and 5 0 1 
14073463		 # 	collision with: 8 4 0  and 0 5 0 
14073468		 # 	collision with: 5 0 0  and 4 1 0 
14073470		 # 	collision with: 5 2 0  and 0 3 0 
14073476		 # 	collision with: 9 8 0  and 10 0 1 
14073478		 # 	collision with: 10 2 0  and 2 2 1 
14073485		 # 	collision with: 4 2 0  and 1 4 0 
14073487		 # 	collision with: 7 0 0  and 10 1 0 
14073496		 # 	collision with: 8 3 0  and 5 4 0 
14073498		 # 	collision with: 6 0 0  and 10 2 0 
14073528		 # 	collision with: 6 2 0  and 0 4 0 
14073530		 # 	collision with: 3 1 1  and 1 3 1 
14073536		 # 	collision with: 4 2 0  and 3 1 1 
14073538		 # 	collision with: 4 1 0  and 2 0 1 
14073568		 # 	collision with: 3 2 0  and 3 4 0 
14073570		 # 	collision with: 4 2 0  and 5 2 0 
14073581		 # 	collision with: 5 2 0  and 6 1 1 
14073583		 # 	collision with: 6 0 0  and 10 2 0 
14073588		 # 	collision with: 5 4 0  and 3 6 0 
14073590		 # 	collision with: 6 3 0  and 4 5 0 
14073596		 # 	collision with: 7 0 0  and 9 1 0 
14073598		 # 	collision with: 1 2 0  and 0 0 1 
14073605		 # 	collision with: 3 5 0  and 3 1 1 
14073607		 # 	collision with: 7 1 0  and 3 2 0 
14073624		 # 	collision with: 2 2 1  and 4 3 1 
14073629		 # 	collision with: 0 8 0  and 2 8 0 
14073637		 # 	collision with: 6 2 0  and 5 3 0 
14073640		 # 	collision with: 0 8 0  and 2 8 0 
14073673		 # 	collision with: 4 1 0  and 9 2 0 
14073675		 # 	collision with: 10 9 0  and 4 0 1 
14073692		 # 	collision with: 6 4 0  and 2 5 0 
14073694		 # 	collision with: 0 1 0  and 1 1 0 
14073698		 # 	collision with: 4 2 0  and 0 3 0 
14073724		 # 	collision with: 5 2 0  and 1 0 1 
14073726		 # 	collision with: 10 1 0  and 5 3 0 
14073744		 # 	collision with: 4 1 0  and 9 2 0 
14073746		 # 	collision with: 8 0 0  and 7 2 0 
14073752		 # 	collision with: 2 2 0  and 4 4 0 
14073754		 # 	collision with: 2 1 0  and 7 2 0 
14073804		 # 	collision with: 10 3 0  and 2 0 1 
14073806		 # 	collision with: 10 4 0  and 1 6 0 
14073824		 # 	collision with: 6 0 0  and 6 1 0 
14073826		 # 	collision with: 7 2 0  and 8 4 0 
14073852		 # 	collision with: 9 6 0  and 0 1 1 
14073854		 # 	collision with: 3 0 0  and 4 4 1 
14073856		 # 	collision with: 8 0 0  and 3 1 0 
14073858		 # 	collision with: 2 2 0  and 8 4 0 
14073877		 # 	collision with: 3 2 0  and 5 3 0 
14073879		 # 	collision with: 8 0 0  and 2 2 0 
14073908		 # 	collision with: 5 3 0  and 2 1 1 
14073910		 # 	collision with: 8 1 0  and 0 0 1 
14073913		 # 	collision with: 3 5 0  and 10 6 0 
14073915		 # 	collision with: 9 0 1  and 3 1 1 
14073921		 # 	collision with: 9 1 0  and 7 3 0 
14073923		 # 	collision with: 6 1 0  and 1 2 0 
14073926		 # 	collision with: 1 1 0  and 6 0 1 
14073945		 # 	collision with: 5 0 0  and 8 1 0 
14073947		 # 	collision with: 3 1 0  and 3 0 1 
14073952		 # 	collision with: 9 2 0  and 6 4 0 
14073954		 # 	collision with: 7 0 0  and 10 1 0 
14073960		 # 	collision with: 6 0 1  and 9 1 1 
14073962		 # 	collision with: 3 9 0  and 5 0 1 
14073969		 # 	collision with: 8 1 0  and 0 2 0 
14073971		 # 	collision with: 3 2 0  and 3 3 0 
14073980		 # 	collision with: 1 2 0  and 4 0 1 
14073982		 # 	collision with: 4 2 0  and 0 3 0 
14074012		 # 	collision with: 1 8 0  and 7 0 1 
14074014		 # 	collision with: 7 1 0  and 3 2 0 
14074020		 # 	collision with: 10 1 0  and 2 3 0 
14074022		 # 	collision with: 2 5 0  and 4 0 1 
14074052		 # 	collision with: 8 4 0  and 7 6 0 
14074054		 # 	collision with: 5 4 0  and 6 5 0 
14074065		 # 	collision with: 6 2 0  and 1 3 0 
14074067		 # 	collision with: 3 4 0  and 0 6 0 
14074072		 # 	collision with: 10 3 0  and 8 5 0 
14074074		 # 	collision with: 0 2 0  and 9 4 0 
14074080		 # 	collision with: 3 1 0  and 7 3 0 
14074082		 # 	collision with: 0 7 0  and 5 2 1 
14074089		 # 	collision with: 10 4 0  and 1 5 0 
14074091		 # 	collision with: 2 1 0  and 2 2 0 
14074108		 # 	collision with: 10 0 0  and 8 1 0 
14074110		 # 	collision with: 4 4 0  and 1 6 0 
14074113		 # 	collision with: 3 3 0  and 4 1 1 
14074115		 # 	collision with: 6 4 0  and 0 5 0 
14074121		 # 	collision with: 3 0 0  and 1 2 0 
14074123		 # 	collision with: 6 3 0  and 7 5 0 
14074126		 # 	collision with: 3 10 0  and 4 10 0 
14074157		 # 	collision with: 7 2 0  and 0 0 1 
14074159		 # 	collision with: 3 6 0  and 0 2 1 
14074176		 # 	collision with: 1 3 0  and 9 0 1 
14074178		 # 	collision with: 5 10 0  and 1 0 1 
14074180		 # 	collision with: 9 2 0  and 2 1 1 
14074182		 # 	collision with: 0 0 1  and 2 1 1 
14074208		 # 	collision with: 9 4 0  and 3 6 0 
14074228		 # 	collision with: 8 2 0  and 5 4 0 
14074236		 # 	collision with: 9 2 0  and 3 3 0 
14074238		 # 	collision with: 8 4 0  and 0 5 0 
14074288		 # 	collision with: 4 2 0  and 2 4 0 
14074308		 # 	collision with: 4 2 0  and 2 4 0 
14074336		 # 	collision with: 3 0 0  and 8 2 0 
14074338		 # 	collision with: 6 1 0  and 5 2 1 
14074340		 # 	collision with: 4 2 0  and 1 4 0 
14074342		 # 	collision with: 7 5 0  and 1 0 1 
14074361		 # 	collision with: 7 9 0  and 0 0 1 
14074363		 # 	collision with: 8 4 0  and 0 5 0 
14074394		 # 	collision with: 2 1 0  and 1 3 0 
14074397		 # 	collision with: 5 7 0  and 1 0 1 
14074399		 # 	collision with: 3 0 0  and 1 1 0 
14074405		 # 	collision with: 10 3 0  and 8 5 0 
14074407		 # 	collision with: 1 4 0  and 10 6 0 
14074408		 # 	collision with: 4 2 0  and 2 4 0 
14074410		 # 	collision with: 9 2 0  and 0 0 1 
14074429		 # 	collision with: 10 4 0  and 10 5 0 
14074431		 # 	collision with: 7 3 0  and 10 5 0 
14074436		 # 	collision with: 4 2 0  and 2 4 0 
14074438		 # 	collision with: 4 3 0  and 4 4 0 
14074444		 # 	collision with: 4 2 0  and 2 4 0 
14074446		 # 	collision with: 4 9 0  and 7 1 1 
14074453		 # 	collision with: 0 6 0  and 9 7 0 
14074455		 # 	collision with: 1 2 0  and 2 0 1 
14074464		 # 	collision with: 4 2 0  and 2 4 0 
14074466		 # 	collision with: 0 3 0  and 4 5 0 
14074496		 # 	collision with: 4 2 0  and 2 4 0 
14074498		 # 	collision with: 7 4 0  and 4 6 0 
14074504		 # 	collision with: 4 2 0  and 2 4 0 
14074506		 # 	collision with: 10 3 0  and 10 5 0 
14074536		 # 	collision with: 4 2 0  and 2 4 0 
14074538		 # 	collision with: 4 3 0  and 10 4 0 
14074549		 # 	collision with: 0 10 0  and 8 0 1 
14074551		 # 	collision with: 9 0 0  and 10 2 0 
14074556		 # 	collision with: 4 2 0  and 2 4 0 
14074558		 # 	collision with: 5 1 0  and 3 3 0 
14074564		 # 	collision with: 4 2 0  and 2 4 0 
14074566		 # 	collision with: 2 4 0  and 9 6 0 
14074573		 # 	collision with: 1 4 0  and 4 6 0 
14074575		 # 	collision with: 0 4 0  and 8 6 0 
14074594		 # 	collision with: 8 0 0  and 2 2 0 
14074597		 # 	collision with: 9 10 0  and 6 0 1 
14074599		 # 	collision with: 3 10 0  and 4 10 0 
14074605		 # 	collision with: 9 3 0  and 5 4 0 
14074607		 # 	collision with: 6 3 0  and 4 5 0 
14074608		 # 	collision with: 1 2 0  and 9 3 0 
14074610		 # 	collision with: 8 2 0  and 6 1 1 
14074641		 # 	collision with: 5 1 0  and 0 1 1 
14074643		 # 	collision with: 8 4 0  and 3 6 0 
14074660		 # 	collision with: 4 2 0  and 2 4 0 
14074662		 # 	collision with: 5 2 0  and 5 0 1 
14074664		 # 	collision with: 6 2 0  and 1 3 0 
14074666		 # 	collision with: 1 4 0  and 9 6 0 
14074692		 # 	collision with: 4 2 0  and 2 4 0 
14074694		 # 	collision with: 1 4 0  and 2 4 0 
14074712		 # 	collision with: 4 2 0  and 2 4 0 
14074714		 # 	collision with: 5 1 0  and 6 2 0 
14074720		 # 	collision with: 10 8 0  and 0 0 1 
14074722		 # 	collision with: 3 1 0  and 3 0 1 
14074772		 # 	collision with: 4 2 0  and 5 2 0 
14074774		 # 	collision with: 3 4 0  and 8 6 0 
14074792		 # 	collision with: 3 5 0  and 10 6 0 
14074794		 # 	collision with: 2 1 0  and 1 3 0 
14074822		 # 	collision with: 5 5 0  and 6 5 0 
14074824		 # 	collision with: 8 1 0  and 9 2 0 
14074826		 # 	collision with: 3 4 0  and 0 6 0 
14074845		 # 	collision with: 2 10 0  and 3 0 1 
14074847		 # 	collision with: 3 0 0  and 1 1 0 
14074876		 # 	collision with: 7 5 0  and 2 0 1 
14074881		 # 	collision with: 8 5 0  and 9 6 0 
14074889		 # 	collision with: 5 0 0  and 4 1 0 
14074892		 # 	collision with: 2 5 0  and 2 1 1 
14074913		 # 	collision with: 10 3 0  and 3 5 0 
14074915		 # 	collision with: 5 0 0  and 6 1 0 
14074920		 # 	collision with: 0 1 0  and 10 2 0 
14074922		 # 	collision with: 6 3 0  and 4 5 0 
14074928		 # 	collision with: 6 4 0  and 7 6 0 
14074930		 # 	collision with: 5 3 0  and 6 4 0 
14074937		 # 	collision with: 10 9 0  and 4 0 1 
14074939		 # 	collision with: 2 1 0  and 1 3 0 
14074948		 # 	collision with: 4 1 0  and 4 0 1 
14074950		 # 	collision with: 2 2 0  and 8 4 0 
14074980		 # 	collision with: 5 9 0  and 3 0 1 
14074982		 # 	collision with: 3 2 0  and 3 3 0 
14074988		 # 	collision with: 8 2 0  and 8 3 0 
14074990		 # 	collision with: 7 0 0  and 10 1 0 
14075020		 # 	collision with: 1 1 0  and 10 2 0 
14075022		 # 	collision with: 4 2 1  and 5 3 1 
14075033		 # 	collision with: 6 7 0  and 4 0 1 
14075035		 # 	collision with: 6 8 0  and 8 2 1 
14075040		 # 	collision with: 9 1 0  and 7 3 0 
14075042		 # 	collision with: 10 0 0  and 8 2 0 
14075048		 # 	collision with: 8 4 0  and 1 6 0 
14075050		 # 	collision with: 6 2 0  and 3 3 0 
14075057		 # 	collision with: 4 2 0  and 2 0 1 
14075059		 # 	collision with: 2 4 0  and 9 6 0 
14075076		 # 	collision with: 0 2 0  and 3 3 0 
14075078		 # 	collision with: 4 2 0  and 0 3 0 
14075081		 # 	collision with: 7 1 0  and 7 2 0 
14075083		 # 	collision with: 6 5 0  and 6 6 0 
14075089		 # 	collision with: 9 1 0  and 10 3 0 
14075091		 # 	collision with: 2 2 0  and 1 3 0 
14075092		 # 	collision with: 8 1 0  and 0 2 0 
14075094		 # 	collision with: 0 9 0  and 3 0 1 
14075125		 # 	collision with: 7 0 0  and 9 1 0 
14075127		 # 	collision with: 3 4 0  and 8 6 0 
14075146		 # 	collision with: 5 3 0  and 6 0 1 
14075148		 # 	collision with: 0 1 0  and 6 1 1 
14075150		 # 	collision with: 6 1 0  and 1 1 1 
14075176		 # 	collision with: 0 1 0  and 1 1 0 
14075178		 # 	collision with: 7 0 0  and 7 2 0 
14075196		 # 	collision with: 1 2 0  and 2 0 1 
14075198		 # 	collision with: 5 0 0  and 8 2 1 
14075204		 # 	collision with: 3 5 0  and 10 6 0 
14075206		 # 	collision with: 6 9 0  and 2 0 1 
14075256		 # 	collision with: 10 1 0  and 4 3 0 
14075258		 # 	collision with: 2 3 0  and 8 0 1 
14075276		 # 	collision with: 4 2 0  and 5 2 0 
14075278		 # 	collision with: 10 1 0  and 1 3 0 
14075304		 # 	collision with: 3 3 0  and 4 1 1 
14075306		 # 	collision with: 3 0 0  and 1 1 0 
14075308		 # 	collision with: 4 5 0  and 3 2 1 
14075310		 # 	collision with: 7 0 0  and 7 2 0 
14075329		 # 	collision with: 10 0 0  and 8 1 0 
14075331		 # 	collision with: 1 5 0  and 1 7 0 
14075360		 # 	collision with: 7 2 0  and 4 4 0 
14075362		 # 	collision with: 10 7 0  and 0 0 1 
14075365		 # 	collision with: 8 1 0  and 0 2 0 
14075367		 # 	collision with: 6 1 0  and 4 0 1 
14075375		 # 	collision with: 8 3 0  and 7 4 0 
14075376		 # 	collision with: 0 2 0  and 8 4 0 
14075378		 # 	collision with: 6 4 0  and 5 6 0 
14075397		 # 	collision with: 10 1 0  and 2 3 0 
14075399		 # 	collision with: 6 4 0  and 0 5 0 
14075404		 # 	collision with: 5 3 0  and 0 4 0 
14075406		 # 	collision with: 4 2 0  and 0 3 0 
14075414		 # 	collision with: 10 1 0  and 5 3 0 
14075421		 # 	collision with: 4 1 0  and 9 2 0 
14075423		 # 	collision with: 10 3 0  and 0 3 1 
14075432		 # 	collision with: 3 1 0  and 10 3 0 
14075464		 # 	collision with: 1 5 0  and 7 2 1 
14075472		 # 	collision with: 1 1 0  and 7 0 1 
14075474		 # 	collision with: 5 10 0  and 4 2 1 
14075504		 # 	collision with: 0 2 0  and 3 0 1 
14075506		 # 	collision with: 10 1 0  and 2 2 0 
14075517		 # 	collision with: 4 1 0  and 0 2 0 
14075519		 # 	collision with: 5 4 0  and 6 5 0 
14075524		 # 	collision with: 3 0 0  and 1 2 0 
14075526		 # 	collision with: 9 5 0  and 8 6 0 
14075534		 # 	collision with: 3 2 0  and 10 0 1 
14075541		 # 	collision with: 5 3 0  and 3 4 0 
14075543		 # 	collision with: 9 1 0  and 9 0 1 
14075560		 # 	collision with: 6 7 0  and 4 0 1 
14075562		 # 	collision with: 10 3 0  and 10 5 0 
14075565		 # 	collision with: 4 4 0  and 3 0 1 
14075567		 # 	collision with: 3 4 0  and 0 0 1 
14075575		 # 	collision with: 7 0 0  and 7 2 0 
14075576		 # 	collision with: 8 3 0  and 9 4 0 
14075578		 # 	collision with: 7 2 0  and 8 4 0 
14075609		 # 	collision with: 0 6 0  and 2 3 1 
14075611		 # 	collision with: 0 1 0  and 1 1 0 
14075628		 # 	collision with: 4 10 0  and 3 0 1 
14075630		 # 	collision with: 4 4 0  and 7 6 0 
14075632		 # 	collision with: 4 3 0  and 4 5 0 
14075634		 # 	collision with: 9 4 0  and 2 2 1 
14075660		 # 	collision with: 9 9 0  and 5 0 1 
14075662		 # 	collision with: 7 3 0  and 1 5 0 
14075680		 # 	collision with: 6 1 0  and 10 0 1 
14075682		 # 	collision with: 1 4 0  and 2 4 0 
14075688		 # 	collision with: 7 3 0  and 8 5 0 
14075690		 # 	collision with: 4 2 0  and 0 3 0 
14075740		 # 	collision with: 9 8 0  and 10 0 1 
14075742		 # 	collision with: 3 1 0  and 0 0 1 
14075762		 # 	collision with: 2 1 0  and 2 2 0 
14075788		 # 	collision with: 5 6 0  and 9 1 1 
14075790		 # 	collision with: 9 4 0  and 5 0 1 
14075792		 # 	collision with: 7 2 0  and 10 4 0 
14075794		 # 	collision with: 7 9 0  and 2 1 1 
14075813		 # 	collision with: 1 10 0  and 2 0 1 
14075815		 # 	collision with: 4 2 0  and 0 3 0 
14075844		 # 	collision with: 4 1 0  and 6 0 1 
14075846		 # 	collision with: 4 3 0  and 7 2 1 
14075849		 # 	collision with: 6 1 1  and 2 2 1 
14075851		 # 	collision with: 6 3 0  and 7 5 0 
14075857		 # 	collision with: 5 0 0  and 9 2 0 
14075859		 # 	collision with: 10 2 0  and 2 4 0 
14075860		 # 	collision with: 3 10 0  and 0 0 1 
14075862		 # 	collision with: 0 0 1  and 8 1 1 
14075883		 # 	collision with: 6 1 0  and 1 2 0 
14075888		 # 	collision with: 8 1 0  and 9 2 0 
14075890		 # 	collision with: 10 0 0  and 8 2 0 
14075896		 # 	collision with: 8 1 0  and 8 0 1 
14075898		 # 	collision with: 10 10 0  and 10 1 1 
14075905		 # 	collision with: 2 8 0  and 5 0 1 
14075907		 # 	collision with: 3 6 0  and 5 6 0 
14075916		 # 	collision with: 10 0 0  and 4 1 0 
14075918		 # 	collision with: 5 0 0  and 1 2 0 
14075948		 # 	collision with: 4 9 0  and 6 9 0 
14075950		 # 	collision with: 1 3 0  and 6 4 0 
14075956		 # 	collision with: 8 5 0  and 9 6 0 
14075958		 # 	collision with: 4 2 0  and 5 2 0 
14075988		 # 	collision with: 4 1 0  and 10 0 1 
14075990		 # 	collision with: 3 4 0  and 0 6 0 
6.64664secs	4897
