# prime 11
# degree 2
# input variables 3
# output variables 4
# reload computed balance functions from file balance-1195of3248-p11d2m3-debug.log
# p = 11
# n = 4
# smalldomain p^m 1331
# domain p^n 14641
#	 p^2 = 121
#	 p^3 = 1331
#	 p^4 = 14641
#	 p^5 = 161051
#	 p^6 = 1771561
#	 p^7 = 19487171
#	 p^8 = 214358881
#	 p^9 = 2357947691
opening file : balance-1195of3248-p11d2m3-debug.log
reloading for step2...
7170013		 # 	collision with: 10 2 0 0  and 6 2 1 0 
7170015		 # 	collision with: 5 2 1 0  and 5 3 1 0 
7170021		 # 	collision with: 0 4 0 0  and 9 0 1 0 
7170023		 # 	collision with: 1 3 0 0  and 3 6 1 0 
7170025		 # 	collision with: 0 4 0 0  and 9 0 1 0 
7170027		 # 	collision with: 4 4 0 0  and 6 4 0 0 
7170069		 # 	collision with: 1 10 0 0  and 1 0 1 0 
7170071		 # 	collision with: 4 4 0 0  and 6 4 0 0 
7170225		 # 	collision with: 3 10 0 0  and 6 0 1 0 
7170227		 # 	collision with: 1 1 0 0  and 9 2 0 0 
7170233		 # 	collision with: 7 3 0 0  and 7 1 1 0 
7170235		 # 	collision with: 5 2 1 0  and 5 3 1 0 
7170249		 # 	collision with: 6 4 0 0  and 2 1 1 0 
7170251		 # 	collision with: 2 10 0 0  and 3 0 1 0 
7170257		 # 	collision with: 8 1 0 0  and 8 2 0 0 
7170259		 # 	collision with: 2 10 0 0  and 1 10 1 0 
7170413		 # 	collision with: 7 0 0 0  and 2 6 2 0 
7170415		 # 	collision with: 10 10 0 0  and 2 0 1 0 
7170417		 # 	collision with: 3 1 0 0  and 2 4 2 0 
7170419		 # 	collision with: 3 5 0 0  and 5 7 1 0 
7170457		 # 	collision with: 6 1 1 0  and 4 4 2 0 
7170459		 # 	collision with: 6 1 1 0  and 6 3 1 0 
7170460		 # 	collision with: 5 3 0 0  and 7 5 1 0 
7170462		 # 	collision with: 1 8 0 0  and 8 5 2 0 
7170469		 # 	collision with: 8 5 1 0  and 3 6 1 0 
7170471		 # 	collision with: 3 5 0 0  and 1 0 1 0 
7170497		 # 	collision with: 2 3 0 0  and 4 7 1 0 
7170499		 # 	collision with: 4 4 0 0  and 6 4 0 0 
7170505		 # 	collision with: 6 9 0 0  and 1 10 2 0 
7170507		 # 	collision with: 6 0 0 0  and 4 2 0 0 
7170509		 # 	collision with: 0 1 0 0  and 3 9 1 0 
7170511		 # 	collision with: 7 0 1 0  and 2 1 1 0 
7170553		 # 	collision with: 3 6 0 0  and 10 7 1 0 
7170555		 # 	collision with: 4 3 1 0  and 8 4 2 0 
7170709		 # 	collision with: 4 4 1 0  and 2 1 2 0 
7170711		 # 	collision with: 2 2 1 0  and 3 2 1 0 
7170717		 # 	collision with: 4 2 0 0  and 1 2 1 0 
7170719		 # 	collision with: 4 4 0 0  and 6 4 0 0 
7170733		 # 	collision with: 2 9 0 0  and 2 9 1 0 
7170735		 # 	collision with: 8 6 0 0  and 2 8 1 0 
7170741		 # 	collision with: 9 0 0 0  and 9 2 0 0 
7170743		 # 	collision with: 9 4 1 0  and 6 5 1 0 
7170897		 # 	collision with: 6 5 0 0  and 5 0 1 0 
7170899		 # 	collision with: 8 0 0 0  and 8 2 0 0 
7170901		 # 	collision with: 7 9 0 0  and 3 5 1 0 
7170941		 # 	collision with: 7 5 0 0  and 3 0 1 0 
7170943		 # 	collision with: 8 0 0 0  and 8 2 0 0 
7170944		 # 	collision with: 6 3 0 0  and 4 8 2 0 
7170946		 # 	collision with: 10 2 0 0  and 3 6 1 0 
7170953		 # 	collision with: 2 2 0 0  and 9 4 1 0 
7170955		 # 	collision with: 9 0 0 0  and 9 1 0 0 
7170981		 # 	collision with: 10 10 0 0  and 1 1 1 0 
7170983		 # 	collision with: 2 0 0 0  and 8 6 1 0 
7170989		 # 	collision with: 1 2 0 0  and 3 5 1 0 
7170991		 # 	collision with: 4 0 0 0  and 6 1 0 0 
7170993		 # 	collision with: 9 10 1 0  and 9 10 2 0 
7171037		 # 	collision with: 10 10 1 0  and 10 10 2 0 
7171039		 # 	collision with: 0 2 0 0  and 8 3 1 0 
7171193		 # 	collision with: 6 1 0 0  and 2 1 1 0 
7171195		 # 	collision with: 9 5 1 0  and 1 10 2 0 
7171201		 # 	collision with: 2 8 0 0  and 2 1 2 0 
7171203		 # 	collision with: 8 0 0 0  and 2 10 2 0 
7171217		 # 	collision with: 5 9 0 0  and 7 1 1 0 
7171219		 # 	collision with: 9 0 0 0  and 9 1 0 0 
7171225		 # 	collision with: 10 0 0 0  and 10 1 0 0 
7171227		 # 	collision with: 3 0 0 0  and 9 5 1 0 
7171381		 # 	collision with: 9 0 1 0  and 9 2 1 0 
7171385		 # 	collision with: 10 3 0 0  and 4 2 1 0 
7171387		 # 	collision with: 4 0 0 0  and 6 1 0 0 
7171425		 # 	collision with: 9 0 1 0  and 9 2 1 0 
7171427		 # 	collision with: 10 4 0 0  and 0 4 1 0 
7171486		 # 	collision with: 9 1 0 0  and 1 3 0 0 
7171510		 # 	collision with: 4 2 0 0  and 4 4 0 0 
7171523		 # 	collision with: 3 4 0 0  and 0 0 1 0 
7171542		 # 	collision with: 5 2 0 0  and 5 3 0 0 
7171546		 # 	collision with: 10 1 0 0  and 0 2 0 0 
7171582		 # 	collision with: 1 6 3 0  and 9 0 4 0 
7171587		 # 	collision with: 10 1 0 0  and 3 1 1 0 
7171598		 # 	collision with: 4 2 0 0  and 4 4 0 0 
7171610		 # 	collision with: 7 1 0 0  and 7 2 0 0 
7171618		 # 	collision with: 9 1 0 0  and 1 3 0 0 
7171627		 # 	collision with: 7 1 0 0  and 0 7 1 0 
7171647		 # 	collision with: 2 0 1 0  and 4 1 1 0 
7171654		 # 	collision with: 7 1 0 0  and 7 2 0 0 
7171666		 # 	collision with: 3 0 0 0  and 7 1 0 0 
7171722		 # 	collision with: 10 1 0 0  and 0 2 0 0 
7171734		 # 	collision with: 1 4 0 0  and 1 5 0 0 
7171743		 # 	collision with: 3 4 0 0  and 0 0 1 0 
7171763		 # 	collision with: 0 4 0 0  and 9 0 1 0 
7171770		 # 	collision with: 9 0 0 0  and 9 1 0 0 
7171778		 # 	collision with: 1 4 0 0  and 1 5 0 0 
7171790		 # 	collision with: 2 3 0 0  and 2 5 0 0 
7171803		 # 	collision with: 7 7 0 0  and 2 0 1 0 
7171806		 # 	collision with: 5 2 0 0  and 5 3 0 0 
7171842		 # 	collision with: 3 0 0 0  and 7 1 0 0 
7171846		 # 	collision with: 9 4 1 0  and 7 6 2 0 
7171867		 # 	collision with: 6 4 0 0  and 6 0 1 0 
7171878		 # 	collision with: 2 3 0 0  and 2 5 0 0 
7171902		 # 	collision with: 9 0 0 0  and 9 1 0 0 
7171912		 # 	collision with: 9 6 0 0  and 6 1 1 0 
7171914		 # 	collision with: 3 6 0 0  and 10 1 1 0 
7171968		 # 	collision with: 6 9 0 0  and 1 1 1 0 
7171970		 # 	collision with: 0 2 0 0  and 10 10 2 0 
7171992		 # 	collision with: 5 10 0 0  and 9 6 1 0 
7171994		 # 	collision with: 7 8 0 0  and 9 8 1 0 
7172005		 # 	collision with: 1 1 0 0  and 10 2 1 0 
7172024		 # 	collision with: 1 10 0 0  and 0 7 1 0 
7172026		 # 	collision with: 3 4 1 0  and 5 1 2 0 
7172028		 # 	collision with: 4 8 1 0  and 2 4 2 0 
7172030		 # 	collision with: 0 10 0 0  and 6 2 1 0 
7172064		 # 	collision with: 5 0 2 0  and 0 2 2 0 
7172066		 # 	collision with: 4 8 0 0  and 10 6 1 0 
7172069		 # 	collision with: 3 1 0 0  and 3 1 1 0 
7172071		 # 	collision with: 7 1 1 0  and 0 3 1 0 
7172077		 # 	collision with: 3 4 1 0  and 5 4 1 0 
7172079		 # 	collision with: 2 7 0 0  and 0 9 2 0 
7172080		 # 	collision with: 0 3 0 0  and 6 2 1 0 
7172082		 # 	collision with: 3 5 0 0  and 7 5 2 0 
7172092		 # 	collision with: 0 7 0 0  and 3 1 1 0 
7172094		 # 	collision with: 9 1 1 0  and 5 3 2 0 
7172100		 # 	collision with: 3 9 0 0  and 8 1 1 0 
7172102		 # 	collision with: 4 3 1 0  and 6 9 2 0 
7172109		 # 	collision with: 1 4 0 0  and 1 6 0 0 
7172111		 # 	collision with: 9 10 0 0  and 0 10 1 0 
7172129		 # 	collision with: 9 8 0 0  and 2 6 2 0 
7172136		 # 	collision with: 1 6 0 0  and 0 6 1 0 
7172138		 # 	collision with: 5 0 2 0  and 6 0 2 0 
7172148		 # 	collision with: 10 8 1 0  and 9 4 2 0 
7172150		 # 	collision with: 5 0 2 0  and 6 0 2 0 
7172204		 # 	collision with: 2 8 0 0  and 9 10 1 0 
7172206		 # 	collision with: 8 5 0 0  and 10 0 1 0 
7172216		 # 	collision with: 2 4 1 0  and 2 5 1 0 
7172218		 # 	collision with: 4 5 0 0  and 1 3 1 0 
7172225		 # 	collision with: 5 9 0 0  and 9 2 1 0 
7172227		 # 	collision with: 8 4 1 0  and 6 5 1 0 
7172245		 # 	collision with: 6 1 0 0  and 6 1 1 0 
7172247		 # 	collision with: 2 2 1 0  and 1 1 2 0 
7172252		 # 	collision with: 8 6 0 0  and 3 5 1 0 
7172254		 # 	collision with: 3 8 0 0  and 0 4 1 0 
7172260		 # 	collision with: 10 2 1 0  and 5 4 1 0 
7172262		 # 	collision with: 5 5 0 0  and 6 0 1 0 
7172272		 # 	collision with: 4 9 1 0  and 4 9 2 0 
7172274		 # 	collision with: 4 5 0 0  and 6 5 0 0 
7172277		 # 	collision with: 1 7 1 0  and 2 7 1 0 
7172279		 # 	collision with: 2 7 1 0  and 1 2 2 0 
7172285		 # 	collision with: 1 4 0 0  and 1 6 0 0 
7172287		 # 	collision with: 1 7 0 0  and 2 1 1 0 
7172288		 # 	collision with: 1 10 0 0  and 0 7 1 0 
7172324		 # 	collision with: 1 7 0 0  and 2 7 1 0 
7172326		 # 	collision with: 2 3 0 0  and 4 3 2 0 
7172328		 # 	collision with: 6 5 0 0  and 6 0 1 0 
7172349		 # 	collision with: 0 1 1 0  and 2 1 1 0 
7172351		 # 	collision with: 2 9 2 0  and 7 10 3 0 
7172360		 # 	collision with: 1 9 1 0  and 1 9 2 0 
7172362		 # 	collision with: 4 5 0 0  and 6 5 0 0 
7172384		 # 	collision with: 5 10 0 0  and 10 3 1 0 
7172386		 # 	collision with: 5 0 1 0  and 6 0 1 0 
7172396		 # 	collision with: 4 9 0 0  and 5 1 1 0 
7172398		 # 	collision with: 10 8 0 0  and 4 0 1 0 
7172452		 # 	collision with: 6 7 0 0  and 3 4 1 0 
7172454		 # 	collision with: 1 10 0 0  and 9 3 1 0 
7172476		 # 	collision with: 6 0 1 0  and 4 2 1 0 
7172478		 # 	collision with: 3 8 0 0  and 10 2 1 0 
7172489		 # 	collision with: 3 3 1 0  and 3 5 1 0 
7172491		 # 	collision with: 6 1 1 0  and 8 0 2 0 
7172508		 # 	collision with: 10 1 0 0  and 10 1 1 0 
7172510		 # 	collision with: 8 9 0 0  and 1 3 1 0 
7172512		 # 	collision with: 4 3 0 0  and 1 5 1 0 
7172514		 # 	collision with: 3 8 0 0  and 2 0 1 0 
7172548		 # 	collision with: 0 5 0 0  and 10 7 1 0 
7172550		 # 	collision with: 4 5 1 0  and 9 1 3 0 
7172553		 # 	collision with: 10 9 0 0  and 9 7 1 0 
7172555		 # 	collision with: 10 1 0 0  and 10 1 1 0 
7172561		 # 	collision with: 1 5 0 0  and 10 6 1 0 
7172563		 # 	collision with: 0 5 0 0  and 10 6 1 0 
7172564		 # 	collision with: 8 1 1 0  and 8 2 1 0 
7172566		 # 	collision with: 3 1 1 0  and 4 2 1 0 
7172576		 # 	collision with: 5 10 0 0  and 2 5 1 0 
7172578		 # 	collision with: 1 6 0 0  and 0 6 1 0 
7172584		 # 	collision with: 3 5 0 0  and 9 1 1 0 
7172586		 # 	collision with: 10 5 3 0  and 10 6 3 0 
7172593		 # 	collision with: 2 4 0 0  and 2 5 0 0 
7172595		 # 	collision with: 5 4 0 0  and 8 1 1 0 
7172613		 # 	collision with: 5 9 0 0  and 0 8 1 0 
7172615		 # 	collision with: 1 4 0 0  and 1 5 0 0 
7172620		 # 	collision with: 4 1 0 0  and 2 10 1 0 
7172632		 # 	collision with: 3 5 0 0  and 7 10 1 0 
7172634		 # 	collision with: 4 5 0 0  and 6 5 0 0 
7172688		 # 	collision with: 8 9 1 0  and 0 0 2 0 
7172690		 # 	collision with: 1 2 1 0  and 3 2 1 0 
7172700		 # 	collision with: 2 8 1 0  and 3 8 1 0 
7172702		 # 	collision with: 3 3 0 0  and 8 1 1 0 
7172709		 # 	collision with: 3 3 1 0  and 3 5 1 0 
7172711		 # 	collision with: 1 1 0 0  and 1 1 2 0 
7172729		 # 	collision with: 1 2 0 0  and 1 2 2 0 
7172731		 # 	collision with: 9 1 0 0  and 9 1 1 0 
7172736		 # 	collision with: 1 2 0 0  and 7 1 1 0 
7172738		 # 	collision with: 7 10 0 0  and 5 7 1 0 
7172744		 # 	collision with: 1 4 1 0  and 4 0 2 0 
7172756		 # 	collision with: 0 5 0 0  and 1 4 1 0 
7172758		 # 	collision with: 8 9 1 0  and 8 9 2 0 
7172761		 # 	collision with: 1 2 0 0  and 1 2 1 0 
7172763		 # 	collision with: 1 4 0 0  and 9 5 0 0 
7172769		 # 	collision with: 2 4 0 0  and 2 5 0 0 
7172771		 # 	collision with: 9 4 2 0  and 7 6 2 0 
7172772		 # 	collision with: 8 1 0 0  and 8 1 1 0 
7172774		 # 	collision with: 2 0 0 0  and 8 9 1 0 
7172808		 # 	collision with: 10 3 0 0  and 1 2 1 0 
7172810		 # 	collision with: 4 5 0 0  and 6 5 0 0 
7172812		 # 	collision with: 9 2 0 0  and 6 3 1 0 
7172814		 # 	collision with: 0 1 0 0  and 7 9 1 0 
7172833		 # 	collision with: 0 9 0 0  and 4 2 1 0 
7172835		 # 	collision with: 1 4 0 0  and 1 5 0 0 
7172844		 # 	collision with: 2 8 1 0  and 0 1 2 0 
7172846		 # 	collision with: 2 8 0 0  and 2 0 1 0 
7172868		 # 	collision with: 10 9 0 0  and 9 6 2 0 
7172870		 # 	collision with: 10 0 0 0  and 8 5 1 0 
7172880		 # 	collision with: 10 2 0 0  and 3 4 1 0 
7172882		 # 	collision with: 4 3 0 0  and 8 5 1 0 
7172936		 # 	collision with: 8 2 0 0  and 8 2 1 0 
7172938		 # 	collision with: 2 4 0 0  and 8 3 1 0 
7172960		 # 	collision with: 1 2 0 0  and 6 1 1 0 
7172962		 # 	collision with: 10 6 0 0  and 2 2 1 0 
7172973		 # 	collision with: 10 4 0 0  and 2 2 1 0 
7172975		 # 	collision with: 9 7 1 0  and 2 10 2 0 
7172992		 # 	collision with: 2 5 1 0  and 1 2 2 0 
7172994		 # 	collision with: 4 5 0 0  and 6 5 0 0 
7172996		 # 	collision with: 6 7 0 0  and 10 2 2 0 
7173032		 # 	collision with: 10 3 0 0  and 9 6 1 0 
7173034		 # 	collision with: 8 10 1 0  and 5 5 2 0 
7173037		 # 	collision with: 0 10 0 0  and 3 8 1 0 
7173045		 # 	collision with: 0 4 0 0  and 3 1 1 0 
7173047		 # 	collision with: 6 9 0 0  and 1 9 1 0 
7173048		 # 	collision with: 10 7 0 0  and 10 5 1 0 
7173050		 # 	collision with: 9 10 0 0  and 3 3 1 0 
7173060		 # 	collision with: 2 1 0 0  and 2 1 2 0 
7173062		 # 	collision with: 6 4 0 0  and 1 10 1 0 
7173068		 # 	collision with: 2 2 0 0  and 2 2 1 0 
7173070		 # 	collision with: 2 8 0 0  and 4 5 1 0 
7173077		 # 	collision with: 3 3 0 0  and 3 5 0 0 
7173097		 # 	collision with: 2 4 1 0  and 2 5 1 0 
7173099		 # 	collision with: 1 7 0 0  and 3 2 2 0 
7173104		 # 	collision with: 2 3 1 0  and 4 3 1 0 
7173106		 # 	collision with: 2 1 0 0  and 0 1 2 0 
7173116		 # 	collision with: 2 4 2 0  and 2 5 2 0 
7173172		 # 	collision with: 2 4 1 0  and 9 6 2 0 
7173174		 # 	collision with: 0 1 0 0  and 3 2 1 0 
7173184		 # 	collision with: 8 1 0 0  and 6 10 1 0 
7173186		 # 	collision with: 7 1 3 0  and 7 2 3 0 
7173193		 # 	collision with: 8 7 0 0  and 5 4 1 0 
7173195		 # 	collision with: 3 9 2 0  and 4 9 2 0 
7173213		 # 	collision with: 7 1 0 0  and 6 1 1 0 
7173215		 # 	collision with: 1 7 1 0  and 2 7 1 0 
7173220		 # 	collision with: 9 0 1 0  and 6 2 1 0 
7173222		 # 	collision with: 7 9 0 0  and 1 2 1 0 
7173228		 # 	collision with: 6 2 3 0  and 6 3 3 0 
7173230		 # 	collision with: 1 6 0 0  and 9 1 1 0 
7173240		 # 	collision with: 0 10 0 0  and 9 3 2 0 
7173242		 # 	collision with: 3 4 0 0  and 6 2 2 0 
7173245		 # 	collision with: 6 2 1 0  and 6 3 1 0 
7173247		 # 	collision with: 5 2 0 0  and 5 2 1 0 
7173253		 # 	collision with: 3 3 0 0  and 3 5 0 0 
7173255		 # 	collision with: 2 8 0 0  and 4 5 2 0 
7173256		 # 	collision with: 2 5 1 0  and 1 2 2 0 
7173258		 # 	collision with: 4 5 0 0  and 6 5 0 0 
7173292		 # 	collision with: 7 9 0 0  and 6 0 1 0 
7173294		 # 	collision with: 8 0 2 0  and 6 1 2 0 
7173296		 # 	collision with: 8 9 1 0  and 6 1 2 0 
7173298		 # 	collision with: 3 1 0 0  and 5 8 1 0 
7173317		 # 	collision with: 2 4 1 0  and 2 5 1 0 
7173319		 # 	collision with: 9 3 0 0  and 5 5 1 0 
7173328		 # 	collision with: 5 3 0 0  and 1 3 1 0 
7173330		 # 	collision with: 2 0 0 0  and 6 10 1 0 
7173352		 # 	collision with: 10 9 0 0  and 7 1 1 0 
7173354		 # 	collision with: 8 9 0 0  and 5 2 1 0 
7173364		 # 	collision with: 8 7 0 0  and 10 2 2 0 
7173366		 # 	collision with: 9 6 0 0  and 4 2 1 0 
7173420		 # 	collision with: 7 0 0 0  and 7 4 1 0 
7173422		 # 	collision with: 7 2 0 0  and 7 2 1 0 
7173444		 # 	collision with: 8 2 1 0  and 5 1 2 0 
7173446		 # 	collision with: 8 5 0 0  and 10 0 2 0 
7173457		 # 	collision with: 7 1 0 0  and 0 0 1 0 
7173459		 # 	collision with: 4 6 0 0  and 7 0 1 0 
7173476		 # 	collision with: 6 9 0 0  and 10 2 1 0 
7173478		 # 	collision with: 2 2 1 0  and 1 1 2 0 
7173480		 # 	collision with: 2 4 0 0  and 0 0 1 0 
7173482		 # 	collision with: 0 0 1 0  and 8 1 1 0 
7173516		 # 	collision with: 9 7 0 0  and 8 5 1 0 
7173518		 # 	collision with: 9 1 0 0  and 5 2 2 0 
7173521		 # 	collision with: 10 0 1 0  and 10 1 1 0 
7173523		 # 	collision with: 4 5 0 0  and 6 5 0 0 
7173529		 # 	collision with: 9 1 0 0  and 2 10 1 0 
7173531		 # 	collision with: 2 9 0 0  and 5 9 1 0 
7173532		 # 	collision with: 1 2 1 0  and 0 0 2 0 
7173544		 # 	collision with: 8 9 0 0  and 6 4 1 0 
7173546		 # 	collision with: 2 3 1 0  and 4 3 1 0 
7173552		 # 	collision with: 6 10 0 0  and 7 2 2 0 
7173554		 # 	collision with: 10 2 0 0  and 10 2 1 0 
7173561		 # 	collision with: 4 3 0 0  and 4 4 0 0 
7173563		 # 	collision with: 0 3 1 0  and 8 2 2 0 
7173581		 # 	collision with: 1 4 1 0  and 1 4 2 0 
7173583		 # 	collision with: 8 3 0 0  and 2 4 0 0 
7173588		 # 	collision with: 0 4 0 0  and 10 0 1 0 
7173590		 # 	collision with: 8 9 0 0  and 8 4 1 0 
7173600		 # 	collision with: 0 4 0 0  and 10 0 1 0 
7173602		 # 	collision with: 3 8 0 0  and 9 1 2 0 
7173656		 # 	collision with: 2 4 0 0  and 0 0 1 0 
7173658		 # 	collision with: 6 4 0 0  and 5 0 1 0 
7173668		 # 	collision with: 10 2 1 0  and 1 1 2 0 
7173670		 # 	collision with: 0 7 2 0  and 8 0 3 0 
7173677		 # 	collision with: 7 1 0 0  and 0 0 1 0 
7173679		 # 	collision with: 7 2 0 0  and 0 7 2 0 
7173697		 # 	collision with: 10 0 1 0  and 10 1 1 0 
7173699		 # 	collision with: 4 5 0 0  and 6 5 0 0 
7173704		 # 	collision with: 6 10 0 0  and 7 2 1 0 
7173706		 # 	collision with: 4 5 0 0  and 6 5 0 0 
7173712		 # 	collision with: 0 10 0 0  and 2 8 1 0 
7173714		 # 	collision with: 9 5 0 0  and 1 5 1 0 
7173724		 # 	collision with: 5 3 0 0  and 5 3 1 0 
7173726		 # 	collision with: 5 4 2 0  and 3 4 3 0 
7173729		 # 	collision with: 7 4 0 0  and 0 5 1 0 
7173731		 # 	collision with: 3 3 0 0  and 3 4 0 0 
7173737		 # 	collision with: 4 3 0 0  and 4 4 0 0 
7173739		 # 	collision with: 10 9 1 0  and 4 1 2 0 
7173740		 # 	collision with: 9 2 0 0  and 0 8 1 0 
7173742		 # 	collision with: 2 2 1 0  and 1 1 2 0 
7173776		 # 	collision with: 8 8 0 0  and 9 1 2 0 
7173778		 # 	collision with: 2 3 0 0  and 2 5 1 0 
7173780		 # 	collision with: 1 6 0 0  and 4 7 1 0 
7173782		 # 	collision with: 10 9 1 0  and 2 0 2 0 
7173801		 # 	collision with: 5 4 1 0  and 3 4 2 0 
7173803		 # 	collision with: 8 3 0 0  and 2 4 0 0 
7173812		 # 	collision with: 4 3 0 0  and 4 3 1 0 
7173836		 # 	collision with: 7 4 0 0  and 4 0 1 0 
7173838		 # 	collision with: 4 5 0 0  and 6 5 0 0 
7173848		 # 	collision with: 5 5 1 0  and 8 2 2 0 
7173850		 # 	collision with: 2 0 0 0  and 3 10 1 0 
7173904		 # 	collision with: 0 1 0 0  and 8 0 1 0 
7173928		 # 	collision with: 0 1 0 0  and 8 0 1 0 
7173930		 # 	collision with: 1 3 0 0  and 7 7 1 0 
7173941		 # 	collision with: 4 1 2 0  and 3 3 2 0 
7173943		 # 	collision with: 10 2 0 0  and 0 4 0 0 
7173960		 # 	collision with: 10 0 1 0  and 10 1 1 0 
7173962		 # 	collision with: 0 0 1 0  and 8 1 1 0 
7173964		 # 	collision with: 7 1 0 0  and 0 0 1 0 
7173966		 # 	collision with: 7 1 0 0  and 3 0 1 0 
7174000		 # 	collision with: 1 7 0 0  and 5 3 1 0 
7174002		 # 	collision with: 6 7 1 0  and 4 0 2 0 
7174005		 # 	collision with: 8 9 0 0  and 6 1 2 0 
7174007		 # 	collision with: 0 7 2 0  and 8 0 3 0 
7174013		 # 	collision with: 4 10 0 0  and 6 4 1 0 
7174015		 # 	collision with: 4 5 0 0  and 6 5 0 0 
7174016		 # 	collision with: 3 6 0 0  and 7 1 1 0 
7174018		 # 	collision with: 7 4 0 0  and 9 5 1 0 
7174028		 # 	collision with: 2 1 0 0  and 3 0 1 0 
7174030		 # 	collision with: 1 8 0 0  and 10 6 2 0 
7174036		 # 	collision with: 2 4 0 0  and 3 6 1 0 
7174038		 # 	collision with: 3 7 0 0  and 7 1 1 0 
7174045		 # 	collision with: 5 2 0 0  and 5 4 0 0 
7174047		 # 	collision with: 6 8 0 0  and 4 0 1 0 
7174065		 # 	collision with: 7 5 0 0  and 3 5 1 0 
7174067		 # 	collision with: 3 3 1 0  and 3 4 1 0 
7174072		 # 	collision with: 10 5 0 0  and 10 7 1 0 
7174074		 # 	collision with: 1 6 0 0  and 5 3 2 0 
7174084		 # 	collision with: 2 3 1 0  and 4 3 1 0 
7174086		 # 	collision with: 3 6 0 0  and 4 4 1 0 
7174140		 # 	collision with: 7 1 0 0  and 0 0 1 0 
7174142		 # 	collision with: 1 2 0 0  and 3 5 1 0 
7174152		 # 	collision with: 10 1 0 0  and 1 0 1 0 
7174154		 # 	collision with: 4 5 0 0  and 6 5 0 0 
7174161		 # 	collision with: 0 9 0 0  and 5 0 1 0 
7174163		 # 	collision with: 10 2 0 0  and 0 4 0 0 
7174181		 # 	collision with: 0 9 0 0  and 5 0 1 0 
7174183		 # 	collision with: 8 4 0 0  and 3 8 1 0 
7174188		 # 	collision with: 2 1 0 0  and 8 0 1 0 
7174196		 # 	collision with: 4 0 0 0  and 4 7 1 0 
7174198		 # 	collision with: 4 5 0 0  and 6 5 0 0 
7174208		 # 	collision with: 2 7 0 0  and 9 9 2 0 
7174210		 # 	collision with: 9 3 0 0  and 9 3 1 0 
7174213		 # 	collision with: 5 2 0 0  and 6 7 2 0 
7174215		 # 	collision with: 8 9 0 0  and 2 0 1 0 
7174221		 # 	collision with: 5 2 0 0  and 5 4 0 0 
7174223		 # 	collision with: 2 8 2 0  and 3 8 2 0 
7174224		 # 	collision with: 3 0 1 0  and 0 1 1 0 
7174226		 # 	collision with: 6 1 1 0  and 7 2 1 0 
7174260		 # 	collision with: 0 3 0 0  and 6 3 2 0 
7174262		 # 	collision with: 2 4 0 0  and 6 0 2 0 
7174264		 # 	collision with: 7 7 0 0  and 2 3 1 0 
7174266		 # 	collision with: 0 6 1 0  and 1 6 1 0 
7174285		 # 	collision with: 8 5 0 0  and 3 2 1 0 
7174287		 # 	collision with: 3 3 1 0  and 3 4 1 0 
7174296		 # 	collision with: 4 0 0 0  and 1 4 1 0 
7174298		 # 	collision with: 5 3 0 0  and 5 3 1 0 
7174320		 # 	collision with: 0 1 2 0  and 2 1 2 0 
7174322		 # 	collision with: 5 4 0 0  and 6 2 1 0 
7174332		 # 	collision with: 8 9 0 0  and 5 10 1 0 
7174334		 # 	collision with: 7 7 0 0  and 2 8 1 0 
7174388		 # 	collision with: 4 5 1 0  and 6 5 1 0 
7174390		 # 	collision with: 3 8 1 0  and 10 2 2 0 
7174412		 # 	collision with: 6 9 0 0  and 5 4 1 0 
7174414		 # 	collision with: 5 2 1 0  and 5 2 2 0 
7174425		 # 	collision with: 2 6 0 0  and 2 6 1 0 
7174427		 # 	collision with: 10 8 1 0  and 6 7 2 0 
7174444		 # 	collision with: 3 6 0 0  and 8 9 1 0 
7174446		 # 	collision with: 1 3 0 0  and 5 2 1 0 
7174448		 # 	collision with: 9 0 1 0  and 6 2 2 0 
7174450		 # 	collision with: 8 4 0 0  and 8 4 1 0 
7174484		 # 	collision with: 8 0 1 0  and 0 1 1 0 
7174486		 # 	collision with: 2 0 1 0  and 5 2 1 0 
7174489		 # 	collision with: 4 1 0 0  and 9 1 1 0 
7174491		 # 	collision with: 5 2 0 0  and 5 3 0 0 
7174497		 # 	collision with: 0 8 0 0  and 6 2 2 0 
7174499		 # 	collision with: 3 9 1 0  and 4 9 1 0 
7174500		 # 	collision with: 0 1 1 0  and 3 0 2 0 
7174502		 # 	collision with: 0 7 0 0  and 8 0 2 0 
7174512		 # 	collision with: 0 7 0 0  and 1 10 1 0 
7174514		 # 	collision with: 4 5 0 0  and 6 5 0 0 
7174520		 # 	collision with: 4 1 0 0  and 3 5 1 0 
7174529		 # 	collision with: 6 2 0 0  and 6 3 0 0 
7174531		 # 	collision with: 4 9 2 0  and 2 2 3 0 
7174549		 # 	collision with: 10 4 0 0  and 1 3 1 0 
7174551		 # 	collision with: 4 5 0 0  and 6 5 0 0 
7174556		 # 	collision with: 10 8 0 0  and 5 3 1 0 
7174558		 # 	collision with: 4 5 0 0  and 6 5 0 0 
7174568		 # 	collision with: 3 2 0 0  and 2 4 1 0 
7174570		 # 	collision with: 10 6 0 0  and 2 2 1 0 
7174624		 # 	collision with: 8 5 3 0  and 6 1 4 0 
7174626		 # 	collision with: 10 4 0 0  and 10 4 1 0 
7174636		 # 	collision with: 8 9 0 0  and 7 1 1 0 
7174638		 # 	collision with: 0 5 0 0  and 10 5 1 0 
7174645		 # 	collision with: 10 6 0 0  and 10 6 1 0 
7174647		 # 	collision with: 10 3 0 0  and 4 0 1 0 
7174665		 # 	collision with: 3 2 0 0  and 1 2 2 0 
7174667		 # 	collision with: 5 2 0 0  and 5 3 0 0 
7174672		 # 	collision with: 4 2 0 0  and 7 6 1 0 
7174674		 # 	collision with: 1 10 0 0  and 6 0 1 0 
7174680		 # 	collision with: 1 2 1 0  and 3 2 1 0 
7174682		 # 	collision with: 1 6 0 0  and 8 4 1 0 
7174692		 # 	collision with: 1 6 1 0  and 4 0 2 0 
7174694		 # 	collision with: 3 10 0 0  and 0 4 2 0 
7174697		 # 	collision with: 0 2 0 0  and 4 2 1 0 
7174699		 # 	collision with: 0 6 1 0  and 8 4 2 0 
7174705		 # 	collision with: 6 2 0 0  and 6 3 0 0 
7174707		 # 	collision with: 5 2 2 0  and 0 4 2 0 
7174708		 # 	collision with: 10 7 0 0  and 7 4 1 0 
7174710		 # 	collision with: 2 0 0 0  and 0 6 1 0 
7174744		 # 	collision with: 3 7 0 0  and 1 0 2 0 
7174746		 # 	collision with: 3 3 0 0  and 3 3 2 0 
7174748		 # 	collision with: 6 1 1 0  and 7 3 1 0 
7174750		 # 	collision with: 2 0 1 0  and 10 2 1 0 
7174769		 # 	collision with: 0 0 0 0  and 8 5 1 0 
7174771		 # 	collision with: 4 5 0 0  and 6 5 0 0 
7174780		 # 	collision with: 10 6 0 0  and 2 6 2 0 
7174782		 # 	collision with: 0 4 0 0  and 4 1 1 0 
7174804		 # 	collision with: 9 7 0 0  and 3 2 2 0 
7174816		 # 	collision with: 10 7 0 0  and 4 0 1 0 
7174818		 # 	collision with: 9 5 0 0  and 2 9 1 0 
7174872		 # 	collision with: 3 2 0 0  and 1 2 1 0 
7174874		 # 	collision with: 4 5 0 0  and 6 5 0 0 
7174896		 # 	collision with: 7 9 0 0  and 6 5 1 0 
7174909		 # 	collision with: 0 10 0 0  and 8 0 1 0 
7174911		 # 	collision with: 4 5 0 0  and 6 5 0 0 
7174928		 # 	collision with: 8 9 0 0  and 5 7 1 0 
7174930		 # 	collision with: 3 4 1 0  and 5 4 1 0 
7174932		 # 	collision with: 3 9 0 0  and 5 1 1 0 
7174934		 # 	collision with: 8 8 0 0  and 6 6 1 0 
7174968		 # 	collision with: 5 0 0 0  and 5 6 1 0 
7174970		 # 	collision with: 8 7 0 0  and 4 0 1 0 
7174973		 # 	collision with: 9 10 0 0  and 3 0 1 0 
7174975		 # 	collision with: 9 1 0 0  and 1 3 0 0 
7174981		 # 	collision with: 2 5 0 0  and 5 7 1 0 
7174983		 # 	collision with: 1 2 2 0  and 3 2 2 0 
7174984		 # 	collision with: 6 1 0 0  and 5 7 1 0 
7174986		 # 	collision with: 5 2 1 0  and 10 2 2 0 
7174996		 # 	collision with: 1 6 0 0  and 1 6 1 0 
7174998		 # 	collision with: 7 7 0 0  and 9 0 1 0 
7175004		 # 	collision with: 0 7 1 0  and 10 0 2 0 
7175006		 # 	collision with: 4 5 0 0  and 6 5 0 0 
7175013		 # 	collision with: 7 1 0 0  and 7 3 0 0 
7175015		 # 	collision with: 1 10 0 0  and 8 10 1 0 
7175033		 # 	collision with: 0 0 0 0  and 10 3 2 0 
7175035		 # 	collision with: 10 1 1 0  and 4 2 2 0 
7175040		 # 	collision with: 3 6 0 0  and 3 6 1 0 
7175042		 # 	collision with: 1 8 0 0  and 10 5 1 0 
7175052		 # 	collision with: 1 4 1 0  and 1 6 1 0 
7175054		 # 	collision with: 2 1 1 0  and 3 2 1 0 
7175108		 # 	collision with: 3 9 0 0  and 8 1 2 0 
7175110		 # 	collision with: 2 0 1 0  and 0 4 2 0 
7175120		 # 	collision with: 1 8 1 0  and 0 0 2 0 
7175122		 # 	collision with: 1 2 1 0  and 3 2 1 0 
7175129		 # 	collision with: 3 6 0 0  and 9 6 1 0 
7175131		 # 	collision with: 4 5 0 0  and 6 5 0 0 
7175149		 # 	collision with: 7 1 2 0  and 1 2 2 0 
7175151		 # 	collision with: 9 1 0 0  and 1 3 0 0 
7175156		 # 	collision with: 10 4 0 0  and 5 3 1 0 
7175158		 # 	collision with: 4 4 1 0  and 10 1 2 0 
7175164		 # 	collision with: 10 4 1 0  and 10 4 2 0 
7175166		 # 	collision with: 10 5 0 0  and 10 5 1 0 
7175176		 # 	collision with: 0 5 0 0  and 10 7 1 0 
7175181		 # 	collision with: 2 5 0 0  and 6 1 1 0 
7175183		 # 	collision with: 9 0 1 0  and 9 1 1 0 
7175189		 # 	collision with: 7 1 0 0  and 7 3 0 0 
7175191		 # 	collision with: 0 1 1 0  and 2 1 1 0 
7175192		 # 	collision with: 6 9 0 0  and 6 7 1 0 
7175194		 # 	collision with: 4 0 0 0  and 7 3 1 0 
7175228		 # 	collision with: 4 4 1 0  and 9 5 1 0 
7175230		 # 	collision with: 7 1 1 0  and 7 2 1 0 
7175232		 # 	collision with: 8 5 1 0  and 1 2 2 0 
7175234		 # 	collision with: 4 1 0 0  and 10 2 1 0 
7175253		 # 	collision with: 7 1 0 0  and 9 7 1 0 
7175255		 # 	collision with: 0 6 1 0  and 1 6 1 0 
7175264		 # 	collision with: 4 7 0 0  and 7 0 1 0 
7175266		 # 	collision with: 7 2 0 0  and 7 1 1 0 
7175288		 # 	collision with: 4 2 0 0  and 6 5 2 0 
7175290		 # 	collision with: 7 3 2 0  and 7 0 3 0 
7175300		 # 	collision with: 10 4 0 0  and 2 2 1 0 
7175302		 # 	collision with: 6 1 2 0  and 7 2 3 0 
7175356		 # 	collision with: 6 2 1 0  and 6 3 1 0 
7175358		 # 	collision with: 9 0 1 0  and 9 1 1 0 
7175380		 # 	collision with: 3 3 0 0  and 3 5 1 0 
7175382		 # 	collision with: 4 10 1 0  and 5 10 1 0 
7175393		 # 	collision with: 5 0 1 0  and 4 2 1 0 
7175395		 # 	collision with: 7 1 0 0  and 7 2 0 0 
7175412		 # 	collision with: 1 7 0 0  and 9 4 2 0 
7175414		 # 	collision with: 3 0 0 0  and 7 2 1 0 
7175416		 # 	collision with: 1 8 0 0  and 6 1 1 0 
7175418		 # 	collision with: 7 10 0 0  and 1 5 1 0 
7175452		 # 	collision with: 0 0 1 0  and 7 1 2 0 
7175454		 # 	collision with: 4 5 0 0  and 6 5 0 0 
7175457		 # 	collision with: 9 1 0 0  and 4 1 1 0 
7175459		 # 	collision with: 8 2 0 0  and 3 0 2 0 
7175465		 # 	collision with: 8 0 0 0  and 0 1 1 0 
7175467		 # 	collision with: 1 4 2 0  and 1 5 2 0 
7175468		 # 	collision with: 10 9 0 0  and 1 2 1 0 
7175470		 # 	collision with: 1 5 0 0  and 1 5 2 0 
7175480		 # 	collision with: 5 3 0 0  and 2 7 2 0 
7175482		 # 	collision with: 9 10 0 0  and 8 1 1 0 
7175488		 # 	collision with: 6 2 1 0  and 6 3 1 0 
7175490		 # 	collision with: 9 0 1 0  and 9 1 1 0 
7175497		 # 	collision with: 8 1 0 0  and 8 2 0 0 
7175499		 # 	collision with: 2 3 1 0  and 4 3 1 0 
7175517		 # 	collision with: 8 4 0 0  and 0 7 1 0 
7175519		 # 	collision with: 4 5 0 0  and 6 10 1 0 
7175524		 # 	collision with: 0 8 0 0  and 9 0 2 0 
7175526		 # 	collision with: 5 1 0 0  and 5 4 1 0 
7175536		 # 	collision with: 5 7 0 0  and 5 7 1 0 
7175538		 # 	collision with: 1 7 0 0  and 2 7 1 0 
7175592		 # 	collision with: 9 6 0 0  and 1 8 1 0 
7175604		 # 	collision with: 5 7 0 0  and 6 1 1 0 
7175606		 # 	collision with: 1 6 0 0  and 5 3 1 0 
7175613		 # 	collision with: 3 2 0 0  and 0 0 2 0 
7175615		 # 	collision with: 7 1 0 0  and 7 2 0 0 
7175633		 # 	collision with: 9 0 2 0  and 9 2 2 0 
7175640		 # 	collision with: 3 0 0 0  and 9 10 1 0 
7175642		 # 	collision with: 3 3 0 0  and 9 2 2 0 
7175648		 # 	collision with: 3 10 0 0  and 6 6 1 0 
7175650		 # 	collision with: 3 9 0 0  and 4 8 1 0 
7175660		 # 	collision with: 1 9 0 0  and 10 10 1 0 
7175662		 # 	collision with: 7 7 0 0  and 8 4 1 0 
7175665		 # 	collision with: 8 1 0 0  and 3 9 1 0 
7175667		 # 	collision with: 4 5 0 0  and 6 5 0 0 
7175673		 # 	collision with: 8 1 0 0  and 8 2 0 0 
7175676		 # 	collision with: 7 4 0 0  and 0 5 2 0 
7175678		 # 	collision with: 0 1 1 0  and 2 1 1 0 
7175712		 # 	collision with: 0 7 0 0  and 3 7 1 0 
7175716		 # 	collision with: 0 1 1 0  and 2 1 1 0 
7175718		 # 	collision with: 4 5 0 0  and 6 5 0 0 
7175737		 # 	collision with: 8 4 0 0  and 0 7 1 0 
7175739		 # 	collision with: 5 2 2 0  and 5 3 2 0 
7175748		 # 	collision with: 8 6 0 0  and 4 1 1 0 
7175750		 # 	collision with: 9 8 0 0  and 4 7 1 0 
7175772		 # 	collision with: 0 6 1 0  and 1 6 1 0 
7175774		 # 	collision with: 8 2 0 0  and 8 0 1 0 
7175784		 # 	collision with: 3 7 0 0  and 0 4 1 0 
7175786		 # 	collision with: 4 3 0 0  and 10 0 1 0 
7175840		 # 	collision with: 3 1 0 0  and 0 4 1 0 
7175842		 # 	collision with: 10 2 0 0  and 5 2 1 0 
7175864		 # 	collision with: 4 5 1 0  and 6 5 1 0 
7175866		 # 	collision with: 10 3 0 0  and 4 0 1 0 
7175877		 # 	collision with: 2 7 1 0  and 9 4 2 0 
7175879		 # 	collision with: 3 0 0 0  and 7 2 0 0 
7175896		 # 	collision with: 1 4 0 0  and 1 6 2 0 
7175898		 # 	collision with: 7 1 0 0  and 8 0 2 0 
7175900		 # 	collision with: 3 2 0 0  and 9 7 1 0 
7175902		 # 	collision with: 4 5 0 0  and 6 5 0 0 
7175936		 # 	collision with: 7 1 1 0  and 6 4 2 0 
7175938		 # 	collision with: 8 6 1 0  and 4 0 3 0 
7175941		 # 	collision with: 7 8 0 0  and 4 3 1 0 
7175943		 # 	collision with: 10 1 0 0  and 4 4 2 0 
7175949		 # 	collision with: 4 9 0 0  and 4 9 1 0 
7175951		 # 	collision with: 5 2 1 0  and 5 3 1 0 
7175952		 # 	collision with: 8 8 0 0  and 8 8 1 0 
7175954		 # 	collision with: 1 2 2 0  and 3 2 2 0 
7175964		 # 	collision with: 3 9 1 0  and 4 9 1 0 
7175972		 # 	collision with: 3 1 0 0  and 0 4 1 0 
7175974		 # 	collision with: 0 8 0 0  and 3 1 1 0 
7175981		 # 	collision with: 9 0 0 0  and 9 2 0 0 
7175983		 # 	collision with: 4 5 0 0  and 6 5 0 0 
20.7658secs	11901
