# prime 11
# degree 2
# input variables 3
# output variables 5
# reload computed balance functions from file balance-2606of3248-p11d2m3-debug.log
# p = 11
# n = 5
# smalldomain p^m 1331
# domain p^n 161051
#	 p^2 = 121
#	 p^3 = 1331
#	 p^4 = 14641
#	 p^5 = 161051
#	 p^6 = 1771561
#	 p^7 = 19487171
#	 p^8 = 214358881
#	 p^9 = 2357947691
opening file : balance-2606of3248-p11d2m3-debug.log
reloading for step2...
15636003		 # 	collision with: 9 0 0 0 0  and 9 0 2 0 0 
15636032		 # 	collision with: 1 0 6 0 0  and 10 2 6 0 0 
15636034		 # 	collision with: 2 7 2 0 0  and 3 7 2 0 0 
15636036		 # 	collision with: 5 10 2 0 0  and 6 10 2 0 0 
15636038		 # 	collision with: 2 7 0 0 0  and 3 7 0 0 0 
15636061		 # 	collision with: 9 0 0 0 0  and 9 2 0 0 0 
15636063		 # 	collision with: 3 0 0 0 0  and 3 2 0 0 0 
15636068		 # 	collision with: 6 2 1 0 0  and 6 3 1 0 0 
15636070		 # 	collision with: 4 0 1 0 0  and 4 1 1 0 0 
15636094		 # 	collision with: 7 4 3 0 0  and 7 5 3 0 0 
15636101		 # 	collision with: 10 2 0 0 0  and 1 0 2 0 0 
15636103		 # 	collision with: 5 0 0 0 0  and 5 0 2 0 0 
15636104		 # 	collision with: 4 8 10 0 0  and 0 2 0 1 0 
15636106		 # 	collision with: 4 2 0 0 0  and 8 8 1 1 0 
15636121		 # 	collision with: 9 8 0 0 0  and 2 0 1 0 0 
15636123		 # 	collision with: 9 0 0 0 0  and 7 2 1 0 0 
15636135		 # 	collision with: 4 9 0 0 0  and 4 3 1 0 0 
15636149		 # 	collision with: 1 4 0 0 0  and 10 0 1 0 0 
15636151		 # 	collision with: 2 7 0 0 0  and 3 6 1 0 0 
15636153		 # 	collision with: 10 0 0 0 0  and 10 1 0 0 0 
15636155		 # 	collision with: 2 7 0 0 0  and 3 7 0 0 0 
15636160		 # 	collision with: 3 3 4 0 0  and 3 5 4 0 0 
15636184		 # 	collision with: 1 4 5 0 0  and 1 6 5 0 0 
15636186		 # 	collision with: 2 7 4 0 0  and 3 7 4 0 0 
15636216		 # 	collision with: 7 1 2 0 0  and 7 3 2 0 0 
15636218		 # 	collision with: 6 0 2 0 0  and 10 1 2 0 0 
15636220		 # 	collision with: 5 10 4 0 0  and 6 10 4 0 0 
15636222		 # 	collision with: 10 4 8 0 0  and 6 5 8 0 0 
15636253		 # 	collision with: 2 6 0 0 0  and 2 3 1 0 0 
15636255		 # 	collision with: 7 6 0 0 0  and 7 3 1 0 0 
15636256		 # 	collision with: 5 10 2 0 0  and 6 10 2 0 0 
15636272		 # 	collision with: 1 4 5 0 0  and 1 6 5 0 0 
15636274		 # 	collision with: 10 4 5 0 0  and 6 5 5 0 0 
15636277		 # 	collision with: 5 10 0 0 0  and 6 10 0 0 0 
15636279		 # 	collision with: 2 1 0 0 0  and 2 1 1 0 0 
15636284		 # 	collision with: 5 1 1 0 0  and 6 2 1 0 0 
15636286		 # 	collision with: 5 3 1 0 0  and 0 4 1 0 0 
15636292		 # 	collision with: 5 10 1 0 0  and 6 10 1 0 0 
15636294		 # 	collision with: 6 0 4 0 0  and 10 1 4 0 0 
15636328		 # 	collision with: 4 0 1 0 0  and 7 1 1 0 0 
15636330		 # 	collision with: 6 4 1 0 0  and 6 6 1 0 0 
15636342		 # 	collision with: 6 4 3 0 0  and 6 6 3 0 0 
15636396		 # 	collision with: 5 10 5 0 0  and 6 10 5 0 0 
15636398		 # 	collision with: 2 7 3 0 0  and 3 7 3 0 0 
15636410		 # 	collision with: 2 7 5 0 0  and 3 7 5 0 0 
15636444		 # 	collision with: 5 10 6 0 0  and 6 10 6 0 0 
15636446		 # 	collision with: 2 7 0 0 0  and 3 7 0 0 0 
15636452		 # 	collision with: 5 10 0 0 0  and 6 10 0 0 0 
15636454		 # 	collision with: 2 7 9 0 0  and 3 7 9 0 0 
15636461		 # 	collision with: 10 0 0 0 0  and 10 1 0 0 0 
15636463		 # 	collision with: 2 7 0 0 0  and 3 7 0 0 0 
15636464		 # 	collision with: 10 0 6 0 0  and 10 1 6 0 0 
15636466		 # 	collision with: 8 3 6 0 0  and 8 5 6 0 0 
15636480		 # 	collision with: 7 1 2 0 0  and 7 3 2 0 0 
15636482		 # 	collision with: 3 0 2 0 0  and 3 2 2 0 0 
15636485		 # 	collision with: 10 3 0 0 0  and 10 3 1 0 0 
15636487		 # 	collision with: 3 3 0 0 0  and 3 3 1 0 0 
15636516		 # 	collision with: 7 2 3 0 0  and 4 4 3 0 0 
15636518		 # 	collision with: 1 2 3 0 0  and 4 3 3 0 0 
15636520		 # 	collision with: 5 10 8 0 0  and 6 10 8 0 0 
15636522		 # 	collision with: 2 7 6 0 0  and 3 7 6 0 0 
15636545		 # 	collision with: 9 8 0 0 0  and 2 0 1 0 0 
15636547		 # 	collision with: 6 0 3 0 0  and 10 1 3 0 0 
15636552		 # 	collision with: 10 0 6 0 0  and 10 1 6 0 0 
15636554		 # 	collision with: 2 7 2 0 0  and 3 7 2 0 0 
15636576		 # 	collision with: 5 10 2 0 0  and 6 10 2 0 0 
15636578		 # 	collision with: 2 7 0 0 0  and 3 7 0 0 0 
15636585		 # 	collision with: 5 10 0 0 0  and 6 10 0 0 0 
15636587		 # 	collision with: 5 1 0 0 0  and 5 1 1 0 0 
15636593		 # 	collision with: 3 10 5 0 0  and 3 2 6 0 0 
15636595		 # 	collision with: 10 10 5 0 0  and 10 2 6 0 0 
15636629		 # 	collision with: 3 0 2 0 0  and 8 2 2 0 0 
15636631		 # 	collision with: 4 0 1 0 0  and 1 1 1 0 0 
15636632		 # 	collision with: 5 3 0 0 0  and 6 3 0 0 0 
15636634		 # 	collision with: 2 3 0 0 0  and 3 3 0 0 0 
15636641		 # 	collision with: 5 3 5 0 0  and 6 3 5 0 0 
15636643		 # 	collision with: 2 3 0 0 0  and 3 3 0 0 0 
15636653		 # 	collision with: 6 0 4 0 0  and 6 2 4 0 0 
15636655		 # 	collision with: 2 3 2 0 0  and 3 3 2 0 0 
15636660		 # 	collision with: 5 0 0 0 0  and 6 1 0 0 0 
15636662		 # 	collision with: 6 3 0 0 0  and 6 4 0 0 0 
15636676		 # 	collision with: 5 3 0 0 0  and 6 3 0 0 0 
15636678		 # 	collision with: 2 3 0 0 0  and 3 3 0 0 0 
15636688		 # 	collision with: 3 0 0 0 0  and 3 1 0 0 0 
15636690		 # 	collision with: 3 2 0 0 0  and 3 4 0 0 0 
15636720		 # 	collision with: 5 3 0 0 0  and 6 3 0 0 0 
15636722		 # 	collision with: 2 3 0 0 0  and 3 3 0 0 0 
15636733		 # 	collision with: 2 3 1 0 0  and 2 5 1 0 0 
15636735		 # 	collision with: 4 3 5 0 0  and 4 3 6 0 0 
15636749		 # 	collision with: 2 3 2 0 0  and 2 5 2 0 0 
15636751		 # 	collision with: 2 3 6 0 0  and 3 3 6 0 0 
15636760		 # 	collision with: 3 1 0 0 0  and 8 2 0 0 0 
15636762		 # 	collision with: 2 0 0 0 0  and 2 2 0 0 0 
15636764		 # 	collision with: 5 3 0 0 0  and 6 3 0 0 0 
15636766		 # 	collision with: 2 3 0 0 0  and 3 3 0 0 0 
15636788		 # 	collision with: 7 2 0 0 0  and 7 4 0 0 0 
15636790		 # 	collision with: 7 5 0 0 0  and 7 6 0 0 0 
15636808		 # 	collision with: 5 3 0 0 0  and 6 3 0 0 0 
15636810		 # 	collision with: 2 3 0 0 0  and 3 3 0 0 0 
15636816		 # 	collision with: 10 3 0 0 0  and 10 4 0 0 0 
15636818		 # 	collision with: 10 0 0 0 0  and 10 1 0 0 0 
15636852		 # 	collision with: 5 3 0 0 0  and 6 3 0 0 0 
15636854		 # 	collision with: 2 3 0 0 0  and 3 3 0 0 0 
15636888		 # 	collision with: 1 1 0 0 0  and 1 3 0 0 0 
15636890		 # 	collision with: 4 0 0 0 0  and 1 1 0 0 0 
15636896		 # 	collision with: 5 3 0 0 0  and 6 3 0 0 0 
15636898		 # 	collision with: 2 3 0 0 0  and 3 3 0 0 0 
15636916		 # 	collision with: 4 2 0 0 0  and 4 3 0 0 0 
15636918		 # 	collision with: 0 2 0 0 0  and 5 3 0 0 0 
15636940		 # 	collision with: 5 3 0 0 0  and 6 3 0 0 0 
15636942		 # 	collision with: 2 3 0 0 0  and 3 3 0 0 0 
15636944		 # 	collision with: 9 1 0 0 0  and 9 2 0 0 0 
15636946		 # 	collision with: 3 4 0 0 0  and 2 5 0 0 0 
15636957		 # 	collision with: 9 1 2 0 0  and 9 2 2 0 0 
15636959		 # 	collision with: 2 3 2 0 0  and 3 3 2 0 0 
15636973		 # 	collision with: 9 1 1 0 0  and 9 2 1 0 0 
15636975		 # 	collision with: 2 3 6 0 0  and 3 3 6 0 0 
15636984		 # 	collision with: 5 3 0 0 0  and 6 3 0 0 0 
15636986		 # 	collision with: 2 3 0 0 0  and 3 3 0 0 0 
15637016		 # 	collision with: 3 0 0 0 0  and 8 2 0 0 0 
15637018		 # 	collision with: 8 1 0 0 0  and 8 3 0 0 0 
15637028		 # 	collision with: 5 3 0 0 0  and 6 3 0 0 0 
15637030		 # 	collision with: 2 3 0 0 0  and 3 3 0 0 0 
15637044		 # 	collision with: 5 4 0 0 0  and 5 5 0 0 0 
15637046		 # 	collision with: 5 1 0 0 0  and 5 2 0 0 0 
15637053		 # 	collision with: 5 4 4 0 0  and 5 5 4 0 0 
15637055		 # 	collision with: 7 5 0 0 0  and 7 6 0 0 0 
15637065		 # 	collision with: 5 3 5 0 0  and 6 3 5 0 0 
15637067		 # 	collision with: 4 1 5 0 0  and 4 1 6 0 0 
15637072		 # 	collision with: 8 7 3 0 0  and 5 6 1 1 0 
15637074		 # 	collision with: 8 2 3 0 0  and 4 0 1 1 0 
15637077		 # 	collision with: 4 2 5 0 0  and 7 3 5 0 0 
15637079		 # 	collision with: 4 2 4 0 0  and 4 8 6 0 0 
15637113		 # 	collision with: 3 0 3 0 0  and 8 2 3 0 0 
15637115		 # 	collision with: 4 0 2 0 0  and 1 1 2 0 0 
15637116		 # 	collision with: 5 3 10 0 0  and 6 3 10 0 0 
15637118		 # 	collision with: 2 3 10 0 0  and 3 3 10 0 0 
15637125		 # 	collision with: 7 2 2 0 0  and 7 4 2 0 0 
15637127		 # 	collision with: 5 0 4 0 0  and 0 2 4 0 0 
15637137		 # 	collision with: 5 3 6 0 0  and 6 3 6 0 0 
15637139		 # 	collision with: 4 4 0 0 0  and 4 6 0 0 0 
15637144		 # 	collision with: 5 3 0 0 0  and 6 3 0 0 0 
15637146		 # 	collision with: 2 3 0 0 0  and 3 3 0 0 0 
15637160		 # 	collision with: 5 3 5 0 0  and 6 3 5 0 0 
15637162		 # 	collision with: 2 3 5 0 0  and 3 3 5 0 0 
15637172		 # 	collision with: 5 3 6 0 0  and 6 3 6 0 0 
15637174		 # 	collision with: 2 3 6 0 0  and 3 3 6 0 0 
15637204		 # 	collision with: 5 3 7 0 0  and 6 3 7 0 0 
15637206		 # 	collision with: 2 3 7 0 0  and 3 3 7 0 0 
15637217		 # 	collision with: 7 4 0 0 0  and 4 6 0 0 0 
15637219		 # 	collision with: 10 4 4 0 0  and 6 1 6 0 0 
15637233		 # 	collision with: 5 3 0 0 0  and 6 3 0 0 0 
15637235		 # 	collision with: 2 3 2 0 0  and 3 3 2 0 0 
15637244		 # 	collision with: 5 4 1 0 0  and 5 5 1 0 0 
15637246		 # 	collision with: 5 1 1 0 0  and 5 2 1 0 0 
15637248		 # 	collision with: 5 3 8 0 0  and 6 3 8 0 0 
15637250		 # 	collision with: 2 3 8 0 0  and 3 3 8 0 0 
15637274		 # 	collision with: 2 3 9 0 0  and 3 3 9 0 0 
15637292		 # 	collision with: 5 3 2 0 0  and 6 3 2 0 0 
15637294		 # 	collision with: 2 3 2 0 0  and 3 3 2 0 0 
15637300		 # 	collision with: 5 3 3 0 0  and 6 3 3 0 0 
15637336		 # 	collision with: 5 3 9 0 0  and 6 3 9 0 0 
15637338		 # 	collision with: 2 3 9 0 0  and 3 3 9 0 0 
15637372		 # 	collision with: 10 3 6 0 0  and 10 4 6 0 0 
15637374		 # 	collision with: 10 0 6 0 0  and 10 1 6 0 0 
15637400		 # 	collision with: 5 4 2 0 0  and 5 5 2 0 0 
15637402		 # 	collision with: 5 1 2 0 0  and 5 2 2 0 0 
15637424		 # 	collision with: 5 3 4 0 0  and 6 3 4 0 0 
15637426		 # 	collision with: 2 3 4 0 0  and 3 3 4 0 0 
15637428		 # 	collision with: 5 3 5 0 0  and 6 3 5 0 0 
15637430		 # 	collision with: 2 3 5 0 0  and 3 3 5 0 0 
15637441		 # 	collision with: 7 2 1 0 0  and 7 4 1 0 0 
15637443		 # 	collision with: 0 2 4 0 0  and 5 3 4 0 0 
15637457		 # 	collision with: 8 4 0 0 0  and 8 6 0 0 0 
15637459		 # 	collision with: 3 2 6 0 0  and 3 4 6 0 0 
15637468		 # 	collision with: 5 3 6 0 0  and 6 3 6 0 0 
15637470		 # 	collision with: 2 3 6 0 0  and 3 3 6 0 0 
15637500		 # 	collision with: 5 0 4 0 0  and 6 1 4 0 0 
15637502		 # 	collision with: 7 1 4 0 0  and 9 2 4 0 0 
15637512		 # 	collision with: 5 3 1 0 0  and 6 3 1 0 0 
15637514		 # 	collision with: 2 3 1 0 0  and 3 3 1 0 0 
15637528		 # 	collision with: 5 3 2 0 0  and 6 3 2 0 0 
15637530		 # 	collision with: 2 3 2 0 0  and 3 3 2 0 0 
15637537		 # 	collision with: 1 1 1 0 0  and 1 3 1 0 0 
15637539		 # 	collision with: 10 4 0 0 0  and 6 6 0 0 0 
15637549		 # 	collision with: 1 1 4 0 0  and 1 1 6 0 0 
15637551		 # 	collision with: 2 3 0 0 0  and 3 3 0 0 0 
15637556		 # 	collision with: 4 3 3 0 0  and 9 0 2 1 0 
15637558		 # 	collision with: 4 2 2 0 0  and 10 0 1 1 0 
15637561		 # 	collision with: 4 2 4 0 0  and 7 3 4 0 0 
15637563		 # 	collision with: 9 8 4 0 0  and 9 0 5 0 0 
15637597		 # 	collision with: 3 0 4 0 0  and 8 2 4 0 0 
15637599		 # 	collision with: 4 0 3 0 0  and 1 1 3 0 0 
15637600		 # 	collision with: 5 3 9 0 0  and 6 3 9 0 0 
15637602		 # 	collision with: 2 3 9 0 0  and 3 3 9 0 0 
15637609		 # 	collision with: 5 3 3 0 0  and 6 3 3 0 0 
15637621		 # 	collision with: 5 3 5 0 0  and 6 3 5 0 0 
15637623		 # 	collision with: 2 3 0 0 0  and 3 3 0 0 0 
15637628		 # 	collision with: 5 4 6 0 0  and 5 5 6 0 0 
15637630		 # 	collision with: 5 0 6 0 0  and 0 2 6 0 0 
15637644		 # 	collision with: 5 3 10 0 0  and 6 3 10 0 0 
15637646		 # 	collision with: 2 3 10 0 0  and 3 3 10 0 0 
15637656		 # 	collision with: 5 3 0 0 0  and 6 3 0 0 0 
15637658		 # 	collision with: 2 3 0 0 0  and 3 3 0 0 0 
15637701		 # 	collision with: 5 3 0 0 0  and 6 3 0 0 0 
15637703		 # 	collision with: 3 4 0 0 0  and 2 5 0 0 0 
15637717		 # 	collision with: 2 4 0 0 0  and 9 5 0 0 0 
15637719		 # 	collision with: 6 6 4 0 0  and 6 6 5 0 0 
15637728		 # 	collision with: 8 4 2 0 0  and 8 6 2 0 0 
15637730		 # 	collision with: 0 2 2 0 0  and 5 3 2 0 0 
15637732		 # 	collision with: 5 3 5 0 0  and 6 3 5 0 0 
15637734		 # 	collision with: 2 3 5 0 0  and 3 3 5 0 0 
15637756		 # 	collision with: 5 3 6 0 0  and 6 3 6 0 0 
15637758		 # 	collision with: 2 3 6 0 0  and 3 3 6 0 0 
15637776		 # 	collision with: 5 3 4 0 0  and 6 3 4 0 0 
15637778		 # 	collision with: 2 3 4 0 0  and 3 3 4 0 0 
15637784		 # 	collision with: 5 3 5 0 0  and 6 3 5 0 0 
15637786		 # 	collision with: 2 3 5 0 0  and 3 3 5 0 0 
15637820		 # 	collision with: 5 3 7 0 0  and 6 3 7 0 0 
15637822		 # 	collision with: 2 3 7 0 0  and 3 3 7 0 0 
15637856		 # 	collision with: 8 4 1 0 0  and 8 6 1 0 0 
15637858		 # 	collision with: 8 1 1 0 0  and 8 3 1 0 0 
15637864		 # 	collision with: 5 3 6 0 0  and 6 3 6 0 0 
15637866		 # 	collision with: 2 3 6 0 0  and 3 3 6 0 0 
15637884		 # 	collision with: 6 0 4 0 0  and 6 2 4 0 0 
15637886		 # 	collision with: 6 3 4 0 0  and 6 4 4 0 0 
15637908		 # 	collision with: 5 3 8 0 0  and 6 3 8 0 0 
15637910		 # 	collision with: 2 3 8 0 0  and 3 3 8 0 0 
15637914		 # 	collision with: 2 3 9 0 0  and 3 3 9 0 0 
15637925		 # 	collision with: 5 4 0 0 0  and 5 5 0 0 0 
15637927		 # 	collision with: 4 5 4 0 0  and 4 5 5 0 0 
15637941		 # 	collision with: 2 7 4 0 0  and 2 1 5 0 0 
15637943		 # 	collision with: 2 3 3 0 0  and 3 3 3 0 0 
15637952		 # 	collision with: 5 3 1 0 0  and 6 3 1 0 0 
15637954		 # 	collision with: 2 3 1 0 0  and 3 3 1 0 0 
15637984		 # 	collision with: 5 3 2 0 0  and 6 3 2 0 0 
15637986		 # 	collision with: 2 3 2 0 0  and 3 3 2 0 0 
15637996		 # 	collision with: 5 3 2 0 0  and 6 3 2 0 0 
15637998		 # 	collision with: 2 3 2 0 0  and 3 3 2 0 0 
15638012		 # 	collision with: 5 3 3 0 0  and 6 3 3 0 0 
15638021		 # 	collision with: 3 1 1 0 0  and 8 2 1 0 0 
15638023		 # 	collision with: 2 3 3 0 0  and 3 3 3 0 0 
15638033		 # 	collision with: 7 2 4 0 0  and 7 4 4 0 0 
15638035		 # 	collision with: 1 4 0 0 0  and 1 5 0 0 0 
15638040		 # 	collision with: 4 3 9 0 0  and 8 3 1 1 0 
15638042		 # 	collision with: 1 1 8 0 0  and 5 9 0 1 0 
15638045		 # 	collision with: 4 2 3 0 0  and 7 3 3 0 0 
15638047		 # 	collision with: 2 3 0 0 0  and 3 3 0 0 0 
15638081		 # 	collision with: 5 3 0 0 0  and 6 3 0 0 0 
15638084		 # 	collision with: 5 3 8 0 0  and 6 3 8 0 0 
15638086		 # 	collision with: 2 3 8 0 0  and 3 3 8 0 0 
15638093		 # 	collision with: 5 3 2 0 0  and 6 3 2 0 0 
15638095		 # 	collision with: 3 2 1 0 0  and 3 4 1 0 0 
15638105		 # 	collision with: 5 4 2 0 0  and 5 5 2 0 0 
15638107		 # 	collision with: 10 0 3 0 0  and 10 1 5 0 0 
15638114		 # 	collision with: 4 0 9 0 0  and 1 1 9 0 0 
15638128		 # 	collision with: 5 3 4 0 0  and 6 3 4 0 0 
15638130		 # 	collision with: 2 3 4 0 0  and 3 3 4 0 0 
15638140		 # 	collision with: 5 3 5 0 0  and 6 3 5 0 0 
15638142		 # 	collision with: 2 3 5 0 0  and 3 3 5 0 0 
15638172		 # 	collision with: 5 3 10 0 0  and 6 3 10 0 0 
15638174		 # 	collision with: 2 3 10 0 0  and 3 3 10 0 0 
15638187		 # 	collision with: 7 10 3 0 0  and 9 2 5 0 0 
15638201		 # 	collision with: 5 3 3 0 0  and 6 3 3 0 0 
15638212		 # 	collision with: 5 3 0 0 0  and 6 3 0 0 0 
15638214		 # 	collision with: 2 3 0 0 0  and 3 3 0 0 0 
15638216		 # 	collision with: 5 3 2 0 0  and 6 3 2 0 0 
15638218		 # 	collision with: 2 3 2 0 0  and 3 3 2 0 0 
15638240		 # 	collision with: 5 3 3 0 0  and 6 3 3 0 0 
15638260		 # 	collision with: 5 3 6 0 0  and 6 3 6 0 0 
15638262		 # 	collision with: 2 3 6 0 0  and 3 3 6 0 0 
15638268		 # 	collision with: 4 2 4 0 0  and 4 3 4 0 0 
15638270		 # 	collision with: 4 4 4 0 0  and 4 6 4 0 0 
15638304		 # 	collision with: 5 3 5 0 0  and 6 3 5 0 0 
15638306		 # 	collision with: 2 3 5 0 0  and 3 3 5 0 0 
15638340		 # 	collision with: 5 3 6 0 0  and 6 3 6 0 0 
15638342		 # 	collision with: 2 3 6 0 0  and 3 3 6 0 0 
15638348		 # 	collision with: 5 3 9 0 0  and 6 3 9 0 0 
15638350		 # 	collision with: 2 3 9 0 0  and 3 3 9 0 0 
15638368		 # 	collision with: 4 2 6 0 0  and 7 3 6 0 0 
15638370		 # 	collision with: 4 0 6 0 0  and 1 1 6 0 0 
15638392		 # 	collision with: 5 3 1 0 0  and 6 3 1 0 0 
15638394		 # 	collision with: 2 3 1 0 0  and 3 3 1 0 0 
15638396		 # 	collision with: 5 3 2 0 0  and 6 3 2 0 0 
15638398		 # 	collision with: 2 3 2 0 0  and 3 3 2 0 0 
15638411		 # 	collision with: 2 3 3 0 0  and 3 3 3 0 0 
15638425		 # 	collision with: 6 9 3 0 0  and 6 4 5 0 0 
15638427		 # 	collision with: 1 4 4 0 0  and 1 5 4 0 0 
15638436		 # 	collision with: 5 3 7 0 0  and 6 3 7 0 0 
15638438		 # 	collision with: 2 3 7 0 0  and 3 3 7 0 0 
15638468		 # 	collision with: 3 0 1 0 0  and 8 2 1 0 0 
15638470		 # 	collision with: 9 3 1 0 0  and 9 5 1 0 0 
15638496		 # 	collision with: 5 0 2 0 0  and 6 1 2 0 0 
15638498		 # 	collision with: 5 0 2 0 0  and 0 2 2 0 0 
15638505		 # 	collision with: 4 2 3 0 0  and 4 3 5 0 0 
15638507		 # 	collision with: 6 3 2 0 0  and 6 4 2 0 0 
15638517		 # 	collision with: 8 4 1 0 0  and 8 6 1 0 0 
15638519		 # 	collision with: 2 3 2 0 0  and 3 3 2 0 0 
15638524		 # 	collision with: 7 5 6 0 0  and 5 2 0 1 0 
15638526		 # 	collision with: 4 5 7 0 0  and 2 1 1 1 0 
15638531		 # 	collision with: 1 3 3 0 0  and 4 7 4 0 0 
15638565		 # 	collision with: 1 8 3 0 0  and 10 2 4 0 0 
15638567		 # 	collision with: 2 10 3 0 0  and 3 3 4 0 0 
15638568		 # 	collision with: 5 3 7 0 0  and 6 3 7 0 0 
15638570		 # 	collision with: 2 3 7 0 0  and 3 3 7 0 0 
15638577		 # 	collision with: 10 3 0 0 0  and 10 4 0 0 0 
15638579		 # 	collision with: 8 0 3 0 0  and 8 4 4 0 0 
15638589		 # 	collision with: 5 3 3 0 0  and 6 3 3 0 0 
15638596		 # 	collision with: 3 1 1 0 0  and 8 2 1 0 0 
15638598		 # 	collision with: 4 4 1 0 0  and 4 6 1 0 0 
15638612		 # 	collision with: 5 3 9 0 0  and 6 3 9 0 0 
15638614		 # 	collision with: 2 3 9 0 0  and 3 3 9 0 0 
15638624		 # 	collision with: 1 3 6 0 0  and 10 4 6 0 0 
15638626		 # 	collision with: 8 1 6 0 0  and 8 3 6 0 0 
15638656		 # 	collision with: 5 3 6 0 0  and 6 3 6 0 0 
15638658		 # 	collision with: 2 3 6 0 0  and 3 3 6 0 0 
15638669		 # 	collision with: 5 3 3 0 0  and 6 3 3 0 0 
15638685		 # 	collision with: 1 3 0 0 0  and 10 4 0 0 0 
15638687		 # 	collision with: 6 3 0 0 0  and 6 4 0 0 0 
15638696		 # 	collision with: 3 0 4 0 0  and 3 1 4 0 0 
15638698		 # 	collision with: 3 2 4 0 0  and 3 4 4 0 0 
15638700		 # 	collision with: 5 3 10 0 0  and 6 3 10 0 0 
15638702		 # 	collision with: 2 3 10 0 0  and 3 3 10 0 0 
15638724		 # 	collision with: 5 3 0 0 0  and 6 3 0 0 0 
15638726		 # 	collision with: 2 3 0 0 0  and 3 3 0 0 0 
15638744		 # 	collision with: 5 3 8 0 0  and 6 3 8 0 0 
15638746		 # 	collision with: 2 3 8 0 0  and 3 3 8 0 0 
15638754		 # 	collision with: 5 0 9 0 0  and 0 2 9 0 0 
15638824		 # 	collision with: 4 2 2 0 0  and 4 3 2 0 0 
15638826		 # 	collision with: 10 3 2 0 0  and 6 4 2 0 0 
15638832		 # 	collision with: 5 3 1 0 0  and 6 3 1 0 0 
15638834		 # 	collision with: 2 3 1 0 0  and 3 3 1 0 0 
15638852		 # 	collision with: 5 3 2 0 0  and 6 3 2 0 0 
15638854		 # 	collision with: 2 3 2 0 0  and 3 3 2 0 0 
15638876		 # 	collision with: 5 3 5 0 0  and 6 3 5 0 0 
15638878		 # 	collision with: 2 3 5 0 0  and 3 3 5 0 0 
15638880		 # 	collision with: 5 3 6 0 0  and 6 3 6 0 0 
15638882		 # 	collision with: 2 3 6 0 0  and 3 3 6 0 0 
15638893		 # 	collision with: 9 3 3 0 0  and 9 0 4 0 0 
15638895		 # 	collision with: 0 3 3 0 0  and 5 0 4 0 0 
15638909		 # 	collision with: 5 3 2 0 0  and 6 3 2 0 0 
15638911		 # 	collision with: 2 3 0 0 0  and 3 3 0 0 0 
15638920		 # 	collision with: 5 3 2 0 0  and 6 3 2 0 0 
15638922		 # 	collision with: 2 3 2 0 0  and 3 3 2 0 0 
15638952		 # 	collision with: 5 3 3 0 0  and 6 3 3 0 0 
15638964		 # 	collision with: 5 3 4 0 0  and 6 3 4 0 0 
15638966		 # 	collision with: 2 3 4 0 0  and 3 3 4 0 0 
15638980		 # 	collision with: 5 3 5 0 0  and 6 3 5 0 0 
15638982		 # 	collision with: 2 3 5 0 0  and 3 3 5 0 0 
15638989		 # 	collision with: 5 3 0 0 0  and 6 3 0 0 0 
15638991		 # 	collision with: 3 7 3 0 0  and 3 7 4 0 0 
15639001		 # 	collision with: 4 7 3 0 0  and 7 0 4 0 0 
15639003		 # 	collision with: 10 3 0 0 0  and 6 4 0 0 0 
15639008		 # 	collision with: 0 6 7 0 0  and 6 4 0 1 0 
15639010		 # 	collision with: 8 3 7 0 0  and 2 3 0 1 0 
15639013		 # 	collision with: 4 2 1 0 0  and 7 3 1 0 0 
15639015		 # 	collision with: 5 0 4 0 0  and 0 2 4 0 0 
15639049		 # 	collision with: 4 7 2 0 0  and 7 0 4 0 0 
15639051		 # 	collision with: 2 4 2 0 0  and 2 9 4 0 0 
15639052		 # 	collision with: 5 3 6 0 0  and 6 3 6 0 0 
15639054		 # 	collision with: 2 3 6 0 0  and 3 3 6 0 0 
15639063		 # 	collision with: 5 0 2 0 0  and 0 2 2 0 0 
15639073		 # 	collision with: 5 3 2 0 0  and 6 3 2 0 0 
15639075		 # 	collision with: 10 0 1 0 0  and 10 1 1 0 0 
15639080		 # 	collision with: 9 1 4 0 0  and 9 2 4 0 0 
15639082		 # 	collision with: 9 3 4 0 0  and 9 5 4 0 0 
15639108		 # 	collision with: 1 1 2 0 0  and 1 3 2 0 0 
15639110		 # 	collision with: 1 4 2 0 0  and 1 5 2 0 0 
15639140		 # 	collision with: 5 3 2 0 0  and 6 3 2 0 0 
15639142		 # 	collision with: 2 3 2 0 0  and 3 3 2 0 0 
15639153		 # 	collision with: 8 2 2 0 0  and 3 0 4 0 0 
15639155		 # 	collision with: 3 2 0 0 0  and 3 4 0 0 0 
15639169		 # 	collision with: 3 1 2 0 0  and 8 2 2 0 0 
15639171		 # 	collision with: 4 4 1 0 0  and 4 6 1 0 0 
15639180		 # 	collision with: 5 3 3 0 0  and 6 3 3 0 0 
15639184		 # 	collision with: 5 3 7 0 0  and 6 3 7 0 0 
15639186		 # 	collision with: 2 3 7 0 0  and 3 3 7 0 0 
15639208		 # 	collision with: 1 1 1 0 0  and 1 3 1 0 0 
15639210		 # 	collision with: 1 4 1 0 0  and 1 5 1 0 0 
15639228		 # 	collision with: 5 3 10 0 0  and 6 3 10 0 0 
15639230		 # 	collision with: 2 3 10 0 0  and 3 3 10 0 0 
15639236		 # 	collision with: 5 3 0 0 0  and 6 3 0 0 0 
15639238		 # 	collision with: 2 3 0 0 0  and 3 3 0 0 0 
15639272		 # 	collision with: 5 3 1 0 0  and 6 3 1 0 0 
15639274		 # 	collision with: 2 3 1 0 0  and 3 3 1 0 0 
15639308		 # 	collision with: 5 3 2 0 0  and 6 3 2 0 0 
15639310		 # 	collision with: 2 3 2 0 0  and 3 3 2 0 0 
15639316		 # 	collision with: 5 3 4 0 0  and 6 3 4 0 0 
15639318		 # 	collision with: 2 3 4 0 0  and 3 3 4 0 0 
15639336		 # 	collision with: 5 3 5 0 0  and 6 3 5 0 0 
15639338		 # 	collision with: 2 3 5 0 0  and 3 3 5 0 0 
15639360		 # 	collision with: 5 3 9 0 0  and 6 3 9 0 0 
15639362		 # 	collision with: 2 3 9 0 0  and 3 3 9 0 0 
15639364		 # 	collision with: 2 3 6 0 0  and 2 5 6 0 0 
15639366		 # 	collision with: 2 0 6 0 0  and 2 2 6 0 0 
15639377		 # 	collision with: 5 3 2 0 0  and 6 3 2 0 0 
15639379		 # 	collision with: 2 3 0 0 0  and 3 3 0 0 0 
15639393		 # 	collision with: 5 0 2 0 0  and 6 1 2 0 0 
15639395		 # 	collision with: 10 0 2 0 0  and 10 1 2 0 0 
15639404		 # 	collision with: 5 3 8 0 0  and 6 3 8 0 0 
15639406		 # 	collision with: 2 3 8 0 0  and 3 3 8 0 0 
15639438		 # 	collision with: 2 3 9 0 0  and 3 3 9 0 0 
15639448		 # 	collision with: 5 3 5 0 0  and 6 3 5 0 0 
15639450		 # 	collision with: 2 3 5 0 0  and 3 3 5 0 0 
15639464		 # 	collision with: 5 3 6 0 0  and 6 3 6 0 0 
15639466		 # 	collision with: 2 3 6 0 0  and 3 3 6 0 0 
15639475		 # 	collision with: 1 7 2 0 0  and 1 7 4 0 0 
15639485		 # 	collision with: 4 1 2 0 0  and 4 1 4 0 0 
15639487		 # 	collision with: 4 4 2 0 0  and 4 6 2 0 0 
15639492		 # 	collision with: 1 4 4 0 0  and 3 5 0 1 0 
15639494		 # 	collision with: 10 6 5 0 0  and 9 10 1 1 0 
15639497		 # 	collision with: 4 2 0 0 0  and 7 3 0 0 0 
15639499		 # 	collision with: 5 0 3 0 0  and 0 2 3 0 0 
15639533		 # 	collision with: 10 5 2 0 0  and 10 2 3 0 0 
15639535		 # 	collision with: 6 5 2 0 0  and 6 2 3 0 0 
15639536		 # 	collision with: 5 3 5 0 0  and 6 3 5 0 0 
15639538		 # 	collision with: 2 3 5 0 0  and 3 3 5 0 0 
15639545		 # 	collision with: 3 1 1 0 0  and 8 2 1 0 0 
15639547		 # 	collision with: 2 2 2 0 0  and 2 0 3 0 0 
15639559		 # 	collision with: 0 2 0 0 0  and 5 3 0 0 0 
15639564		 # 	collision with: 5 3 6 0 0  and 6 3 6 0 0 
15639566		 # 	collision with: 2 3 6 0 0  and 3 3 6 0 0 
15639580		 # 	collision with: 5 3 8 0 0  and 6 3 8 0 0 
15639582		 # 	collision with: 2 3 8 0 0  and 3 3 8 0 0 
15639594		 # 	collision with: 5 1 9 0 0  and 5 2 9 0 0 
15639624		 # 	collision with: 5 3 9 0 0  and 6 3 9 0 0 
15639626		 # 	collision with: 2 3 9 0 0  and 3 3 9 0 0 
15639637		 # 	collision with: 1 3 2 0 0  and 1 3 3 0 0 
15639639		 # 	collision with: 2 0 1 0 0  and 2 2 1 0 0 
15639653		 # 	collision with: 5 3 2 0 0  and 6 3 2 0 0 
15639655		 # 	collision with: 2 0 2 0 0  and 2 2 2 0 0 
15639664		 # 	collision with: 9 1 6 0 0  and 9 2 6 0 0 
15639666		 # 	collision with: 9 3 6 0 0  and 9 5 6 0 0 
15639668		 # 	collision with: 5 3 4 0 0  and 6 3 4 0 0 
15639670		 # 	collision with: 2 3 4 0 0  and 3 3 4 0 0 
15639692		 # 	collision with: 5 3 5 0 0  and 6 3 5 0 0 
15639694		 # 	collision with: 2 3 5 0 0  and 3 3 5 0 0 
15639712		 # 	collision with: 5 3 1 0 0  and 6 3 1 0 0 
15639714		 # 	collision with: 2 3 1 0 0  and 3 3 1 0 0 
15639720		 # 	collision with: 5 3 2 0 0  and 6 3 2 0 0 
15639722		 # 	collision with: 2 3 2 0 0  and 3 3 2 0 0 
15639756		 # 	collision with: 5 3 10 0 0  and 6 3 10 0 0 
15639758		 # 	collision with: 2 3 10 0 0  and 3 3 10 0 0 
15639792		 # 	collision with: 5 3 0 0 0  and 6 3 0 0 0 
15639794		 # 	collision with: 2 3 0 0 0  and 3 3 0 0 0 
15639800		 # 	collision with: 5 3 7 0 0  and 6 3 7 0 0 
15639802		 # 	collision with: 2 3 7 0 0  and 3 3 7 0 0 
15639820		 # 	collision with: 10 3 1 0 0  and 10 4 1 0 0 
15639822		 # 	collision with: 10 0 1 0 0  and 10 1 1 0 0 
15639844		 # 	collision with: 5 3 2 0 0  and 6 3 2 0 0 
15639846		 # 	collision with: 2 3 2 0 0  and 3 3 2 0 0 
15639848		 # 	collision with: 5 3 3 0 0  and 6 3 3 0 0 
15639861		 # 	collision with: 1 5 2 0 0  and 1 5 3 0 0 
15639863		 # 	collision with: 9 3 2 0 0  and 9 5 2 0 0 
15639877		 # 	collision with: 6 0 2 0 0  and 6 2 3 0 0 
15639879		 # 	collision with: 9 3 1 0 0  and 9 5 1 0 0 
15639920		 # 	collision with: 3 0 2 0 0  and 8 2 2 0 0 
15639922		 # 	collision with: 10 0 2 0 0  and 10 1 2 0 0 
15639932		 # 	collision with: 5 3 6 0 0  and 6 3 6 0 0 
15639934		 # 	collision with: 2 3 6 0 0  and 3 3 6 0 0 
15639948		 # 	collision with: 2 3 4 0 0  and 2 5 4 0 0 
15639950		 # 	collision with: 2 0 4 0 0  and 2 2 4 0 0 
15639957		 # 	collision with: 5 3 2 0 0  and 6 3 2 0 0 
15639959		 # 	collision with: 0 7 2 0 0  and 5 2 3 0 0 
15639971		 # 	collision with: 3 1 2 0 0  and 3 1 3 0 0 
15639976		 # 	collision with: 10 7 5 0 0  and 6 5 0 1 0 
15639978		 # 	collision with: 2 7 5 0 0  and 1 8 0 1 0 
15639981		 # 	collision with: 5 7 1 0 0  and 5 2 3 0 0 
15639983		 # 	collision with: 5 0 2 0 0  and 0 2 2 0 0 
15640019		 # 	collision with: 10 9 1 0 0  and 10 3 3 0 0 
15640020		 # 	collision with: 5 3 4 0 0  and 6 3 4 0 0 
15640022		 # 	collision with: 2 3 4 0 0  and 3 3 4 0 0 
15640029		 # 	collision with: 1 9 1 0 0  and 1 6 3 0 0 
15640031		 # 	collision with: 5 0 1 0 0  and 0 2 1 0 0 
15640041		 # 	collision with: 5 3 0 0 0  and 6 3 0 0 0 
15640043		 # 	collision with: 1 4 1 0 0  and 1 4 3 0 0 
15640048		 # 	collision with: 5 3 5 0 0  and 6 3 5 0 0 
15640050		 # 	collision with: 2 3 5 0 0  and 3 3 5 0 0 
15640064		 # 	collision with: 5 3 2 0 0  and 6 3 2 0 0 
15640066		 # 	collision with: 2 3 2 0 0  and 3 3 2 0 0 
15640076		 # 	collision with: 5 3 3 0 0  and 6 3 3 0 0 
15640108		 # 	collision with: 5 3 5 0 0  and 6 3 5 0 0 
15640110		 # 	collision with: 2 3 5 0 0  and 3 3 5 0 0 
15640121		 # 	collision with: 1 1 0 0 0  and 10 3 0 0 0 
15640123		 # 	collision with: 1 4 2 0 0  and 1 5 2 0 0 
15640137		 # 	collision with: 6 1 1 0 0  and 5 0 3 0 0 
15640139		 # 	collision with: 2 3 0 0 0  and 3 3 0 0 0 
15640148		 # 	collision with: 5 3 6 0 0  and 6 3 6 0 0 
15640150		 # 	collision with: 2 3 6 0 0  and 3 3 6 0 0 
15640152		 # 	collision with: 5 3 1 0 0  and 6 3 1 0 0 
15640154		 # 	collision with: 2 3 1 0 0  and 3 3 1 0 0 
15640176		 # 	collision with: 5 3 2 0 0  and 6 3 2 0 0 
15640178		 # 	collision with: 2 3 2 0 0  and 3 3 2 0 0 
15640204		 # 	collision with: 7 2 2 0 0  and 7 4 2 0 0 
15640206		 # 	collision with: 7 5 2 0 0  and 7 6 2 0 0 
15640240		 # 	collision with: 5 3 8 0 0  and 6 3 8 0 0 
15640242		 # 	collision with: 2 3 8 0 0  and 3 3 8 0 0 
15640278		 # 	collision with: 2 3 9 0 0  and 3 3 9 0 0 
15640284		 # 	collision with: 5 3 10 0 0  and 6 3 10 0 0 
15640286		 # 	collision with: 2 3 10 0 0  and 3 3 10 0 0 
15640304		 # 	collision with: 5 3 0 0 0  and 6 3 0 0 0 
15640306		 # 	collision with: 2 3 0 0 0  and 3 3 0 0 0 
15640328		 # 	collision with: 5 3 6 0 0  and 6 3 6 0 0 
15640330		 # 	collision with: 2 3 6 0 0  and 3 3 6 0 0 
15640332		 # 	collision with: 8 4 4 0 0  and 8 6 4 0 0 
15640334		 # 	collision with: 8 1 4 0 0  and 8 3 4 0 0 
15640345		 # 	collision with: 1 3 2 0 0  and 10 4 2 0 0 
15640347		 # 	collision with: 7 5 1 0 0  and 7 6 1 0 0 
15640361		 # 	collision with: 5 3 3 0 0  and 6 3 3 0 0 
15640372		 # 	collision with: 5 3 9 0 0  and 6 3 9 0 0 
15640374		 # 	collision with: 2 3 9 0 0  and 3 3 9 0 0 
15640404		 # 	collision with: 3 0 6 0 0  and 3 1 6 0 0 
15640406		 # 	collision with: 3 2 6 0 0  and 3 4 6 0 0 
15640416		 # 	collision with: 5 3 7 0 0  and 6 3 7 0 0 
15640418		 # 	collision with: 2 3 7 0 0  and 3 3 7 0 0 
15640432		 # 	collision with: 7 2 1 0 0  and 7 4 1 0 0 
15640434		 # 	collision with: 7 5 1 0 0  and 7 6 1 0 0 
15640441		 # 	collision with: 2 3 1 0 0  and 9 0 3 0 0 
15640453		 # 	collision with: 1 1 0 0 0  and 1 3 0 0 0 
15640455		 # 	collision with: 1 1 1 0 0  and 1 1 3 0 0 
15640460		 # 	collision with: 8 7 4 0 0  and 7 3 1 1 0 
15640462		 # 	collision with: 4 5 3 0 0  and 7 4 0 1 0 
15640465		 # 	collision with: 3 1 0 0 0  and 8 2 0 0 0 
15640501		 # 	collision with: 7 10 1 0 0  and 7 7 2 0 0 
15640503		 # 	collision with: 3 10 1 0 0  and 3 7 2 0 0 
15640513		 # 	collision with: 3 0 1 0 0  and 3 1 1 0 0 
15640515		 # 	collision with: 5 6 1 0 0  and 5 8 2 0 0 
15640525		 # 	collision with: 2 4 1 0 0  and 9 5 1 0 0 
15640527		 # 	collision with: 8 4 1 0 0  and 8 0 2 0 0 
15640532		 # 	collision with: 2 3 2 0 0  and 2 5 2 0 0 
15640534		 # 	collision with: 2 0 2 0 0  and 2 2 2 0 0 
15640548		 # 	collision with: 5 3 7 0 0  and 6 3 7 0 0 
15640550		 # 	collision with: 2 3 7 0 0  and 3 3 7 0 0 
15640560		 # 	collision with: 5 0 1 0 0  and 6 1 1 0 0 
15640562		 # 	collision with: 4 0 1 0 0  and 1 1 1 0 0 
15640592		 # 	collision with: 5 3 1 0 0  and 6 3 1 0 0 
15640594		 # 	collision with: 2 3 1 0 0  and 3 3 1 0 0 
15640605		 # 	collision with: 7 3 1 0 0  and 4 3 2 0 0 
15640607		 # 	collision with: 2 3 0 0 0  and 3 3 0 0 0 
15640623		 # 	collision with: 7 6 1 0 0  and 7 5 2 0 0 
15640632		 # 	collision with: 5 3 2 0 0  and 6 3 2 0 0 
15640634		 # 	collision with: 2 3 2 0 0  and 3 3 2 0 0 
15640636		 # 	collision with: 5 3 9 0 0  and 6 3 9 0 0 
15640638		 # 	collision with: 2 3 9 0 0  and 3 3 9 0 0 
15640660		 # 	collision with: 5 0 6 0 0  and 6 1 6 0 0 
15640662		 # 	collision with: 4 4 6 0 0  and 4 6 6 0 0 
15640680		 # 	collision with: 5 3 5 0 0  and 6 3 5 0 0 
15640682		 # 	collision with: 2 3 5 0 0  and 3 3 5 0 0 
15640688		 # 	collision with: 5 3 6 0 0  and 6 3 6 0 0 
15640690		 # 	collision with: 2 3 6 0 0  and 3 3 6 0 0 
15640724		 # 	collision with: 5 3 6 0 0  and 6 3 6 0 0 
15640726		 # 	collision with: 2 3 6 0 0  and 3 3 6 0 0 
15640760		 # 	collision with: 7 2 4 0 0  and 7 4 4 0 0 
15640762		 # 	collision with: 5 0 4 0 0  and 0 2 4 0 0 
15640768		 # 	collision with: 5 3 2 0 0  and 6 3 2 0 0 
15640770		 # 	collision with: 2 3 2 0 0  and 3 3 2 0 0 
15640788		 # 	collision with: 5 3 3 0 0  and 6 3 3 0 0 
15640812		 # 	collision with: 5 3 10 0 0  and 6 3 10 0 0 
15640814		 # 	collision with: 2 3 10 0 0  and 3 3 10 0 0 
15640816		 # 	collision with: 5 3 0 0 0  and 6 3 0 0 0 
15640818		 # 	collision with: 2 3 0 0 0  and 3 3 0 0 0 
15640829		 # 	collision with: 7 5 1 0 0  and 7 5 2 0 0 
15640847		 # 	collision with: 5 3 1 0 0  and 5 0 2 0 0 
15640856		 # 	collision with: 5 3 4 0 0  and 6 3 4 0 0 
15640858		 # 	collision with: 2 3 4 0 0  and 3 3 4 0 0 
15640888		 # 	collision with: 5 3 5 0 0  and 6 3 5 0 0 
15640890		 # 	collision with: 2 3 5 0 0  and 3 3 5 0 0 
15640900		 # 	collision with: 5 3 8 0 0  and 6 3 8 0 0 
15640902		 # 	collision with: 2 3 8 0 0  and 3 3 8 0 0 
15640918		 # 	collision with: 2 3 9 0 0  and 3 3 9 0 0 
15640925		 # 	collision with: 6 0 2 0 0  and 6 2 2 0 0 
15640927		 # 	collision with: 6 7 1 0 0  and 6 7 2 0 0 
15640937		 # 	collision with: 4 2 1 0 0  and 7 3 1 0 0 
15640939		 # 	collision with: 10 1 1 0 0  and 10 1 2 0 0 
15640944		 # 	collision with: 5 2 10 0 0  and 9 4 0 1 0 
15640946		 # 	collision with: 2 4 10 0 0  and 10 1 0 1 0 
15640949		 # 	collision with: 4 5 0 0 0  and 4 0 2 0 0 
15640951		 # 	collision with: 5 0 0 0 0  and 0 2 0 0 0 
15640985		 # 	collision with: 3 0 0 0 0  and 8 2 0 0 0 
15640987		 # 	collision with: 5 0 0 0 0  and 0 2 0 0 0 
15640988		 # 	collision with: 5 3 2 0 0  and 6 3 2 0 0 
15640990		 # 	collision with: 2 3 2 0 0  and 3 3 2 0 0 
15640997		 # 	collision with: 1 5 0 0 0  and 10 9 2 0 0 
15640999		 # 	collision with: 5 0 0 0 0  and 0 2 0 0 0 
15641009		 # 	collision with: 1 7 0 0 0  and 10 2 2 0 0 
15641011		 # 	collision with: 5 0 0 0 0  and 0 2 0 0 0 
15641016		 # 	collision with: 5 3 3 0 0  and 6 3 3 0 0 
15641032		 # 	collision with: 5 3 1 0 0  and 6 3 1 0 0 
15641034		 # 	collision with: 2 3 1 0 0  and 3 3 1 0 0 
15641044		 # 	collision with: 5 3 2 0 0  and 6 3 2 0 0 
15641046		 # 	collision with: 2 3 2 0 0  and 3 3 2 0 0 
15641076		 # 	collision with: 5 3 8 0 0  and 6 3 8 0 0 
15641078		 # 	collision with: 2 3 8 0 0  and 3 3 8 0 0 
15641089		 # 	collision with: 2 8 0 0 0  and 2 0 2 0 0 
15641091		 # 	collision with: 5 0 0 0 0  and 0 2 0 0 0 
15641105		 # 	collision with: 6 0 0 0 0  and 6 2 0 0 0 
15641107		 # 	collision with: 5 0 0 0 0  and 0 2 0 0 0 
15641118		 # 	collision with: 2 3 9 0 0  and 3 3 9 0 0 
15641120		 # 	collision with: 5 3 6 0 0  and 6 3 6 0 0 
15641122		 # 	collision with: 2 3 6 0 0  and 3 3 6 0 0 
15641144		 # 	collision with: 5 4 4 0 0  and 5 5 4 0 0 
15641146		 # 	collision with: 4 0 4 0 0  and 1 1 4 0 0 
15641164		 # 	collision with: 5 3 7 0 0  and 6 3 7 0 0 
15641166		 # 	collision with: 2 3 7 0 0  and 3 3 7 0 0 
15641172		 # 	collision with: 3 0 1 0 0  and 3 1 1 0 0 
15641174		 # 	collision with: 7 1 1 0 0  and 9 2 1 0 0 
15641208		 # 	collision with: 5 3 4 0 0  and 6 3 4 0 0 
15641210		 # 	collision with: 2 3 4 0 0  and 3 3 4 0 0 
15641244		 # 	collision with: 5 3 5 0 0  and 6 3 5 0 0 
15641246		 # 	collision with: 2 3 5 0 0  and 3 3 5 0 0 
15641252		 # 	collision with: 5 3 5 0 0  and 6 3 5 0 0 
15641254		 # 	collision with: 2 3 5 0 0  and 3 3 5 0 0 
15641272		 # 	collision with: 5 3 6 0 0  and 6 3 6 0 0 
15641274		 # 	collision with: 2 3 6 0 0  and 3 3 6 0 0 
15641300		 # 	collision with: 3 0 2 0 0  and 3 1 2 0 0 
15641302		 # 	collision with: 4 0 2 0 0  and 1 1 2 0 0 
15641313		 # 	collision with: 2 5 0 0 0  and 9 0 2 0 0 
15641315		 # 	collision with: 5 0 0 0 0  and 0 2 0 0 0 
15641329		 # 	collision with: 5 3 0 0 0  and 6 3 0 0 0 
15641331		 # 	collision with: 5 0 0 0 0  and 0 2 0 0 0 
15641340		 # 	collision with: 5 3 10 0 0  and 6 3 10 0 0 
15641342		 # 	collision with: 2 3 10 0 0  and 3 3 10 0 0 
15641372		 # 	collision with: 5 3 0 0 0  and 6 3 0 0 0 
15641374		 # 	collision with: 2 3 0 0 0  and 3 3 0 0 0 
15641384		 # 	collision with: 5 3 9 0 0  and 6 3 9 0 0 
15641386		 # 	collision with: 2 3 9 0 0  and 3 3 9 0 0 
15641400		 # 	collision with: 6 0 6 0 0  and 6 2 6 0 0 
15641402		 # 	collision with: 6 3 6 0 0  and 6 4 6 0 0 
15641409		 # 	collision with: 5 8 0 0 0  and 5 1 2 0 0 
15641411		 # 	collision with: 5 0 0 0 0  and 0 2 0 0 0 
15641421		 # 	collision with: 7 1 0 0 0  and 7 1 2 0 0 
15641428		 # 	collision with: 3 10 10 0 0  and 9 8 1 1 0 
15641430		 # 	collision with: 3 0 9 0 0  and 0 7 0 1 0 
15641433		 # 	collision with: 9 0 0 0 0  and 9 3 1 0 0 
15641435		 # 	collision with: 5 0 0 0 0  and 5 3 1 0 0 
15641469		 # 	collision with: 4 4 0 0 0  and 4 1 1 0 0 
15641471		 # 	collision with: 4 0 0 0 0  and 1 1 0 0 0 
15641472		 # 	collision with: 5 3 1 0 0  and 6 3 1 0 0 
15641474		 # 	collision with: 2 3 1 0 0  and 3 3 1 0 0 
15641481		 # 	collision with: 1 1 0 0 0  and 10 4 1 0 0 
15641483		 # 	collision with: 10 0 0 0 0  and 10 1 0 0 0 
15641493		 # 	collision with: 8 4 0 0 0  and 8 4 1 0 0 
15641495		 # 	collision with: 6 4 0 0 0  and 10 3 1 0 0 
15641500		 # 	collision with: 5 3 2 0 0  and 6 3 2 0 0 
15641502		 # 	collision with: 2 3 2 0 0  and 3 3 2 0 0 
15641516		 # 	collision with: 5 3 6 0 0  and 6 3 6 0 0 
15641518		 # 	collision with: 2 3 6 0 0  and 3 3 6 0 0 
15641528		 # 	collision with: 3 1 4 0 0  and 8 2 4 0 0 
15641530		 # 	collision with: 10 0 4 0 0  and 10 1 4 0 0 
15641560		 # 	collision with: 5 3 4 0 0  and 6 3 4 0 0 
15641562		 # 	collision with: 2 3 4 0 0  and 3 3 4 0 0 
15641573		 # 	collision with: 3 0 0 0 0  and 3 1 0 0 0 
15641575		 # 	collision with: 10 3 0 0 0  and 6 3 1 0 0 
15641589		 # 	collision with: 4 2 1 0 0  and 4 3 1 0 0 
15641591		 # 	collision with: 3 5 0 0 0  and 3 1 1 0 0 
15641600		 # 	collision with: 5 3 5 0 0  and 6 3 5 0 0 
15641602		 # 	collision with: 2 3 5 0 0  and 3 3 5 0 0 
15641628		 # 	collision with: 6 0 2 0 0  and 6 2 2 0 0 
15641630		 # 	collision with: 7 1 2 0 0  and 9 2 2 0 0 
15641648		 # 	collision with: 5 3 9 0 0  and 6 3 9 0 0 
15641650		 # 	collision with: 2 3 9 0 0  and 3 3 9 0 0 
15641656		 # 	collision with: 1 1 6 0 0  and 1 3 6 0 0 
15641658		 # 	collision with: 1 4 6 0 0  and 1 5 6 0 0 
15641692		 # 	collision with: 5 3 2 0 0  and 6 3 2 0 0 
15641694		 # 	collision with: 2 3 2 0 0  and 3 3 2 0 0 
15641728		 # 	collision with: 5 3 3 0 0  and 6 3 3 0 0 
15641736		 # 	collision with: 5 3 8 0 0  and 6 3 8 0 0 
15641738		 # 	collision with: 2 3 8 0 0  and 3 3 8 0 0 
15641758		 # 	collision with: 2 3 9 0 0  and 3 3 9 0 0 
15641780		 # 	collision with: 5 3 7 0 0  and 6 3 7 0 0 
15641782		 # 	collision with: 2 3 7 0 0  and 3 3 7 0 0 
15641784		 # 	collision with: 6 0 1 0 0  and 6 2 1 0 0 
15641786		 # 	collision with: 0 2 1 0 0  and 5 3 1 0 0 
15641797		 # 	collision with: 5 3 0 0 0  and 6 3 0 0 0 
15641799		 # 	collision with: 4 6 0 0 0  and 4 4 1 0 0 
15641813		 # 	collision with: 9 10 0 0 0  and 2 0 1 0 0 
15641815		 # 	collision with: 1 7 0 0 0  and 1 2 1 0 0 
15641824		 # 	collision with: 5 3 5 0 0  and 6 3 5 0 0 
15641826		 # 	collision with: 2 3 5 0 0  and 3 3 5 0 0 
15641856		 # 	collision with: 5 3 6 0 0  and 6 3 6 0 0 
15641858		 # 	collision with: 2 3 6 0 0  and 3 3 6 0 0 
15641868		 # 	collision with: 5 3 10 0 0  and 6 3 10 0 0 
15641870		 # 	collision with: 2 3 10 0 0  and 3 3 10 0 0 
15641884		 # 	collision with: 5 3 0 0 0  and 6 3 0 0 0 
15641886		 # 	collision with: 2 3 0 0 0  and 3 3 0 0 0 
15641893		 # 	collision with: 8 10 0 0 0  and 8 0 1 0 0 
15641895		 # 	collision with: 2 3 0 0 0  and 3 3 0 0 0 
15641905		 # 	collision with: 5 0 0 0 0  and 6 1 0 0 0 
15641907		 # 	collision with: 6 1 0 0 0  and 6 1 1 0 0 
15641929		 # 	collision with: 5 1 5 0 0  and 6 7 6 0 0 
15641931		 # 	collision with: 3 6 5 0 0  and 3 0 6 0 0 
15641941		 # 	collision with: 3 0 3 0 0  and 3 1 3 0 0 
15641943		 # 	collision with: 1 4 5 0 0  and 1 5 5 0 0 
15641960		 # 	collision with: 4 2 0 0 0  and 4 3 0 0 0 
15641962		 # 	collision with: 3 2 0 0 0  and 3 4 0 0 0 
15641969		 # 	collision with: 5 3 2 0 0  and 6 3 2 0 0 
15641973		 # 	collision with: 7 5 5 0 0  and 7 5 6 0 0 
15641975		 # 	collision with: 0 2 4 0 0  and 5 4 4 0 0 
15641980		 # 	collision with: 1 3 0 0 0  and 10 4 0 0 0 
15641982		 # 	collision with: 7 5 0 0 0  and 7 6 0 0 0 
112.185secs	37342
