# prime 11
# degree 2
# input variables 3
# output variables 3
# reload computed balance functions from file balance-2226of3248-p11d2m3-debug.log
# p = 11
# n = 3
# smalldomain p^m 1331
# domain p^n 1331
#	 p^2 = 121
#	 p^3 = 1331
#	 p^4 = 14641
#	 p^5 = 161051
#	 p^6 = 1771561
#	 p^7 = 19487171
#	 p^8 = 214358881
#	 p^9 = 2357947691
opening file : balance-2226of3248-p11d2m3-debug.log
reloading for step2...
13356024		 # 	collision with: 8 2 0  and 7 4 0 
13356026		 # 	collision with: 9 1 0  and 8 3 0 
13356056		 # 	collision with: 1 9 0  and 2 0 1 
13356058		 # 	collision with: 4 7 0  and 2 0 1 
13356068		 # 	collision with: 7 5 0  and 1 6 0 
13356070		 # 	collision with: 6 0 0  and 5 2 0 
13356088		 # 	collision with: 2 3 0  and 3 3 0 
13356090		 # 	collision with: 1 3 0  and 3 3 0 
13356101		 # 	collision with: 3 4 0  and 3 5 0 
13356103		 # 	collision with: 7 1 0  and 9 2 0 
13356112		 # 	collision with: 0 3 0  and 10 5 0 
13356114		 # 	collision with: 7 0 0  and 1 1 0 
13356120		 # 	collision with: 5 1 0  and 8 3 0 
13356122		 # 	collision with: 2 2 0  and 1 3 0 
13356137		 # 	collision with: 6 4 0  and 3 6 0 
13356139		 # 	collision with: 7 1 0  and 9 2 0 
13356141		 # 	collision with: 2 6 0  and 0 2 1 
13356143		 # 	collision with: 7 1 0  and 9 2 0 
13356156		 # 	collision with: 5 1 0  and 4 3 0 
13356158		 # 	collision with: 5 3 0  and 10 4 0 
13356161		 # 	collision with: 8 4 0  and 0 5 0 
13356163		 # 	collision with: 7 1 0  and 9 2 0 
13356193		 # 	collision with: 4 3 0  and 6 3 0 
13356195		 # 	collision with: 7 1 0  and 9 2 0 
13356196		 # 	collision with: 7 6 0  and 1 1 1 
13356198		 # 	collision with: 2 2 0  and 3 3 0 
13356228		 # 	collision with: 6 6 0  and 6 0 1 
13356230		 # 	collision with: 7 8 0  and 4 1 1 
13356244		 # 	collision with: 3 0 0  and 8 1 0 
13356246		 # 	collision with: 1 2 0  and 0 4 0 
13356262		 # 	collision with: 0 1 0  and 6 2 0 
13356288		 # 	collision with: 4 4 0  and 9 5 0 
13356290		 # 	collision with: 2 2 0  and 7 3 0 
13356292		 # 	collision with: 3 0 0  and 4 2 0 
13356294		 # 	collision with: 8 1 0  and 0 2 0 
13356297		 # 	collision with: 1 5 0  and 5 0 1 
13356299		 # 	collision with: 7 1 0  and 9 2 0 
13356329		 # 	collision with: 10 5 0  and 3 6 0 
13356332		 # 	collision with: 6 1 0  and 0 2 0 
13356334		 # 	collision with: 10 1 0  and 4 2 0 
13356349		 # 	collision with: 9 0 0  and 6 1 0 
13356353		 # 	collision with: 10 1 0  and 8 2 0 
13356355		 # 	collision with: 7 1 0  and 9 2 0 
13356368		 # 	collision with: 3 3 0  and 6 4 0 
13356370		 # 	collision with: 5 0 0  and 2 2 0 
13356376		 # 	collision with: 1 3 0  and 6 4 0 
13356378		 # 	collision with: 4 3 0  and 3 5 0 
13356389		 # 	collision with: 2 3 0  and 4 3 0 
13356391		 # 	collision with: 7 1 0  and 9 2 0 
13356400		 # 	collision with: 10 4 0  and 1 5 0 
13356402		 # 	collision with: 10 2 0  and 2 4 0 
13356420		 # 	collision with: 7 6 0  and 6 0 1 
13356422		 # 	collision with: 9 5 0  and 2 1 1 
13356432		 # 	collision with: 2 0 1  and 0 2 1 
13356464		 # 	collision with: 10 0 0  and 2 1 0 
13356466		 # 	collision with: 8 3 0  and 3 5 0 
13356540		 # 	collision with: 3 4 0  and 3 5 0 
13356542		 # 	collision with: 3 3 0  and 3 5 0 
13356552		 # 	collision with: 4 3 0  and 10 5 0 
13356554		 # 	collision with: 3 2 0  and 9 4 0 
13356572		 # 	collision with: 7 4 0  and 5 5 0 
13356585		 # 	collision with: 9 2 0  and 2 3 0 
13356587		 # 	collision with: 3 3 0  and 3 5 0 
13356596		 # 	collision with: 0 0 0  and 6 2 0 
13356598		 # 	collision with: 8 1 0  and 0 2 0 
13356604		 # 	collision with: 1 1 0  and 1 2 0 
13356606		 # 	collision with: 6 0 0  and 5 1 0 
13356621		 # 	collision with: 6 0 0  and 2 2 0 
13356623		 # 	collision with: 9 1 0  and 2 2 0 
13356625		 # 	collision with: 10 4 0  and 1 5 0 
13356627		 # 	collision with: 4 9 0  and 4 0 1 
13356640		 # 	collision with: 9 2 0  and 1 3 0 
13356642		 # 	collision with: 2 4 0  and 8 6 0 
13356647		 # 	collision with: 10 0 0  and 6 2 0 
13356677		 # 	collision with: 9 1 0  and 6 2 0 
13356679		 # 	collision with: 4 3 0  and 5 3 0 
13356680		 # 	collision with: 9 2 0  and 9 3 0 
13356682		 # 	collision with: 6 0 0  and 5 2 0 
13356684		 # 	collision with: 3 3 0  and 6 4 0 
13356686		 # 	collision with: 6 5 0  and 9 6 0 
13356712		 # 	collision with: 5 1 0  and 5 3 0 
13356714		 # 	collision with: 5 1 0  and 5 2 0 
13356728		 # 	collision with: 9 4 0  and 4 6 0 
13356730		 # 	collision with: 7 3 0  and 10 4 0 
13356744		 # 	collision with: 6 3 0  and 6 4 0 
13356746		 # 	collision with: 6 2 0  and 6 4 0 
13356772		 # 	collision with: 5 1 0  and 0 3 0 
13356774		 # 	collision with: 9 1 0  and 4 3 0 
13356776		 # 	collision with: 0 3 0  and 1 3 0 
13356778		 # 	collision with: 2 2 0  and 2 3 0 
13356783		 # 	collision with: 9 0 0  and 4 1 0 
13356813		 # 	collision with: 4 2 0  and 0 4 0 
13356815		 # 	collision with: 5 0 0  and 9 1 0 
13356816		 # 	collision with: 4 1 0  and 7 2 0 
13356818		 # 	collision with: 1 4 0  and 4 5 0 
13356833		 # 	collision with: 6 3 0  and 10 5 0 
13356835		 # 	collision with: 4 0 0  and 2 1 0 
13356837		 # 	collision with: 5 1 0  and 2 3 0 
13356839		 # 	collision with: 6 1 0  and 6 0 1 
13356852		 # 	collision with: 10 3 0  and 10 5 0 
13356854		 # 	collision with: 10 3 0  and 10 4 0 
13356860		 # 	collision with: 2 5 0  and 5 6 0 
13356862		 # 	collision with: 4 0 0  and 10 2 0 
13356873		 # 	collision with: 10 8 0  and 4 0 1 
13356875		 # 	collision with: 2 3 0  and 3 3 0 
13356884		 # 	collision with: 4 0 0  and 4 1 0 
13356886		 # 	collision with: 9 1 0  and 2 2 0 
13356904		 # 	collision with: 1 9 0  and 0 0 1 
13356906		 # 	collision with: 1 10 0  and 9 0 1 
13356918		 # 	collision with: 8 0 0  and 8 1 0 
13356948		 # 	collision with: 5 4 0  and 4 5 0 
13356950		 # 	collision with: 5 3 0  and 3 5 0 
13356992		 # 	collision with: 5 4 0  and 4 5 0 
13356994		 # 	collision with: 5 3 0  and 3 5 0 
13357024		 # 	collision with: 3 3 0  and 5 3 0 
13357026		 # 	collision with: 3 3 0  and 4 3 0 
13357036		 # 	collision with: 5 4 0  and 4 5 0 
13357038		 # 	collision with: 5 3 0  and 3 5 0 
13357056		 # 	collision with: 5 4 0  and 4 5 0 
13357058		 # 	collision with: 5 3 0  and 3 5 0 
13357069		 # 	collision with: 8 0 0  and 10 1 0 
13357071		 # 	collision with: 8 2 0  and 4 4 0 
13357080		 # 	collision with: 5 4 0  and 4 5 0 
13357082		 # 	collision with: 5 3 0  and 3 5 0 
13357090		 # 	collision with: 9 1 0  and 1 3 0 
13357105		 # 	collision with: 4 0 0  and 4 1 0 
13357107		 # 	collision with: 8 2 0  and 4 4 0 
13357109		 # 	collision with: 9 1 0  and 9 0 1 
13357111		 # 	collision with: 8 2 0  and 4 4 0 
13357124		 # 	collision with: 5 4 0  and 4 5 0 
13357126		 # 	collision with: 5 3 0  and 3 5 0 
13357129		 # 	collision with: 4 3 0  and 6 3 0 
13357131		 # 	collision with: 2 0 0  and 10 1 0 
13357161		 # 	collision with: 8 3 0  and 3 0 1 
13357163		 # 	collision with: 8 2 0  and 4 4 0 
13357164		 # 	collision with: 5 4 0  and 4 5 0 
13357166		 # 	collision with: 5 3 0  and 3 5 0 
13357168		 # 	collision with: 2 0 0  and 1 1 0 
13357170		 # 	collision with: 6 0 0  and 5 1 0 
13357196		 # 	collision with: 4 0 0  and 7 2 0 
13357212		 # 	collision with: 5 4 0  and 4 5 0 
13357214		 # 	collision with: 5 3 0  and 3 5 0 
13357228		 # 	collision with: 5 4 0  and 4 5 0 
13357230		 # 	collision with: 5 3 0  and 3 5 0 
13357256		 # 	collision with: 5 4 0  and 4 5 0 
13357258		 # 	collision with: 5 3 0  and 3 5 0 
13357260		 # 	collision with: 5 4 0  and 4 5 0 
13357262		 # 	collision with: 2 0 0  and 4 2 0 
13357265		 # 	collision with: 0 3 0  and 10 5 0 
13357267		 # 	collision with: 1 1 0  and 8 2 0 
13357297		 # 	collision with: 9 2 0  and 9 3 0 
13357299		 # 	collision with: 8 2 0  and 4 4 0 
13357317		 # 	collision with: 9 0 0  and 4 1 1 
13357319		 # 	collision with: 8 2 0  and 4 4 0 
13357321		 # 	collision with: 4 3 0  and 5 3 0 
13357323		 # 	collision with: 8 2 0  and 4 4 0 
13357336		 # 	collision with: 5 4 0  and 4 5 0 
13357338		 # 	collision with: 5 3 0  and 3 5 0 
13357344		 # 	collision with: 5 4 0  and 4 5 0 
13357346		 # 	collision with: 5 3 0  and 3 5 0 
13357357		 # 	collision with: 5 1 0  and 6 3 0 
13357359		 # 	collision with: 8 2 0  and 4 4 0 
13357368		 # 	collision with: 5 4 0  and 4 5 0 
13357370		 # 	collision with: 2 2 0  and 0 3 0 
13357388		 # 	collision with: 5 4 0  and 4 5 0 
13357390		 # 	collision with: 5 3 0  and 3 5 0 
13357400		 # 	collision with: 5 4 0  and 4 5 0 
13357402		 # 	collision with: 4 0 0  and 10 2 0 
13357432		 # 	collision with: 9 2 0  and 7 3 0 
13357434		 # 	collision with: 3 1 0  and 1 2 0 
13357476		 # 	collision with: 2 4 0  and 9 6 0 
13357478		 # 	collision with: 2 2 0  and 0 3 0 
13357508		 # 	collision with: 5 1 0  and 6 3 0 
13357510		 # 	collision with: 5 8 0  and 2 1 1 
13357520		 # 	collision with: 6 5 0  and 4 6 0 
13357522		 # 	collision with: 4 0 0  and 2 1 0 
13357540		 # 	collision with: 0 4 0  and 2 0 1 
13357542		 # 	collision with: 1 1 0  and 8 2 0 
13357553		 # 	collision with: 6 0 0  and 2 2 0 
13357555		 # 	collision with: 0 7 0  and 2 0 1 
13357564		 # 	collision with: 6 0 0  and 2 2 0 
13357566		 # 	collision with: 9 1 0  and 5 3 0 
13357572		 # 	collision with: 6 0 0  and 7 1 0 
13357574		 # 	collision with: 2 2 0  and 6 3 0 
13357589		 # 	collision with: 4 0 0  and 7 2 0 
13357595		 # 	collision with: 7 4 0  and 2 0 1 
13357613		 # 	collision with: 10 0 0  and 2 1 0 
13357615		 # 	collision with: 4 3 0  and 5 3 0 
13357645		 # 	collision with: 10 4 0  and 1 5 0 
13357647		 # 	collision with: 1 2 0  and 0 4 0 
13357648		 # 	collision with: 7 5 0  and 1 6 0 
13357650		 # 	collision with: 1 10 0  and 8 1 1 
13357652		 # 	collision with: 0 0 0  and 1 1 1 
13357654		 # 	collision with: 3 4 0  and 5 0 1 
13357680		 # 	collision with: 7 0 1  and 9 1 1 
13357682		 # 	collision with: 2 2 0  and 8 3 0 
13357696		 # 	collision with: 4 2 0  and 0 4 0 
13357698		 # 	collision with: 6 4 0  and 2 6 0 
13357712		 # 	collision with: 1 3 0  and 3 3 0 
13357714		 # 	collision with: 1 3 0  and 2 3 0 
13357740		 # 	collision with: 0 0 0  and 9 1 0 
13357742		 # 	collision with: 7 3 0  and 3 5 0 
13357746		 # 	collision with: 4 3 0  and 3 5 0 
13357749		 # 	collision with: 1 2 0  and 3 4 0 
13357751		 # 	collision with: 0 10 0  and 5 0 1 
13357781		 # 	collision with: 1 5 0  and 8 6 0 
13357783		 # 	collision with: 9 1 0  and 9 3 0 
13357784		 # 	collision with: 10 1 0  and 8 2 0 
13357786		 # 	collision with: 10 5 0  and 8 6 0 
13357801		 # 	collision with: 6 1 0  and 2 0 1 
13357803		 # 	collision with: 10 5 0  and 8 6 0 
13357807		 # 	collision with: 3 3 0  and 5 3 0 
13357820		 # 	collision with: 6 4 0  and 3 6 0 
13357828		 # 	collision with: 5 1 0  and 1 3 0 
13357830		 # 	collision with: 1 3 0  and 10 4 0 
13357841		 # 	collision with: 0 5 0  and 3 0 1 
13357852		 # 	collision with: 6 6 0  and 4 0 1 
13357854		 # 	collision with: 0 0 0  and 1 1 1 
13357872		 # 	collision with: 7 4 0  and 5 5 0 
13357874		 # 	collision with: 0 4 0  and 9 5 0 
13357884		 # 	collision with: 7 0 0  and 3 1 0 
13357886		 # 	collision with: 3 6 0  and 9 1 1 
13357968		 # 	collision with: 1 9 0  and 3 0 1 
13357970		 # 	collision with: 5 4 0  and 6 2 1 
13357984		 # 	collision with: 10 1 0  and 8 3 0 
13357986		 # 	collision with: 8 2 0  and 7 3 0 
13358008		 # 	collision with: 7 4 0  and 2 6 0 
13358010		 # 	collision with: 9 2 0  and 5 3 0 
13358020		 # 	collision with: 6 5 0  and 1 0 1 
13358022		 # 	collision with: 9 5 0  and 3 6 0 
13358039		 # 	collision with: 8 2 0  and 4 3 0 
13358065		 # 	collision with: 3 0 0  and 2 2 0 
13358067		 # 	collision with: 2 2 0  and 2 3 0 
13358072		 # 	collision with: 7 6 0  and 0 0 1 
13358074		 # 	collision with: 0 1 0  and 1 3 0 
13358076		 # 	collision with: 4 6 0  and 9 2 1 
13358078		 # 	collision with: 5 0 0  and 8 1 0 
13358085		 # 	collision with: 6 4 0  and 4 0 1 
13358087		 # 	collision with: 5 4 0  and 10 6 0 
13358100		 # 	collision with: 4 9 0  and 6 0 1 
13358102		 # 	collision with: 5 4 0  and 0 5 0 
13358105		 # 	collision with: 6 0 0  and 9 2 0 
13358107		 # 	collision with: 2 4 0  and 2 0 1 
13358121		 # 	collision with: 3 0 0  and 8 1 0 
13358123		 # 	collision with: 8 0 0  and 8 1 0 
13358124		 # 	collision with: 7 1 0  and 0 2 0 
13358126		 # 	collision with: 2 2 0  and 9 3 0 
13358168		 # 	collision with: 7 3 0  and 2 4 0 
13358170		 # 	collision with: 10 3 0  and 9 5 0 
13358176		 # 	collision with: 7 3 0  and 0 5 0 
13358178		 # 	collision with: 6 8 0  and 5 2 1 
13358184		 # 	collision with: 0 2 0  and 9 4 0 
13358186		 # 	collision with: 8 1 0  and 5 3 0 
13358192		 # 	collision with: 4 5 0  and 1 6 0 
13358194		 # 	collision with: 6 5 0  and 8 3 1 
13358236		 # 	collision with: 8 1 0  and 2 2 0 
13358238		 # 	collision with: 10 8 0  and 0 0 1 
13358241		 # 	collision with: 0 0 0  and 3 2 0 
13358243		 # 	collision with: 6 8 0  and 1 2 1 
13358257		 # 	collision with: 2 1 0  and 2 0 1 
13358259		 # 	collision with: 10 2 0  and 6 3 0 
13358260		 # 	collision with: 8 2 0  and 5 4 0 
13358262		 # 	collision with: 7 7 0  and 8 0 1 
13358277		 # 	collision with: 7 4 0  and 7 6 0 
13358279		 # 	collision with: 1 3 0  and 9 5 0 
13358284		 # 	collision with: 10 1 0  and 3 3 0 
13358286		 # 	collision with: 8 9 0  and 1 1 1 
13358288		 # 	collision with: 4 2 0  and 1 3 0 
13358290		 # 	collision with: 8 3 0  and 3 5 0 
13358297		 # 	collision with: 9 2 0  and 9 3 0 
13358299		 # 	collision with: 3 4 0  and 0 6 0 
13358327		 # 	collision with: 10 3 0  and 4 4 0 
13358340		 # 	collision with: 10 1 0  and 10 0 1 
13358342		 # 	collision with: 6 8 0  and 7 0 1 
13358352		 # 	collision with: 3 5 0  and 4 6 0 
13358354		 # 	collision with: 9 0 0  and 10 1 0 
13358376		 # 	collision with: 6 0 0  and 3 2 1 
13358378		 # 	collision with: 3 4 0  and 0 6 0 
13358392		 # 	collision with: 4 4 0  and 5 5 0 
13358394		 # 	collision with: 4 5 0  and 5 6 0 
13358400		 # 	collision with: 7 3 0  and 2 4 0 
13358402		 # 	collision with: 2 9 0  and 3 2 1 
13358452		 # 	collision with: 2 4 0  and 0 5 0 
13358454		 # 	collision with: 3 4 0  and 0 6 0 
13358468		 # 	collision with: 10 2 0  and 9 3 0 
13358470		 # 	collision with: 6 0 0  and 3 2 0 
13358494		 # 	collision with: 3 9 0  and 1 0 1 
13358504		 # 	collision with: 5 1 0  and 5 3 0 
13358506		 # 	collision with: 5 2 0  and 10 3 0 
13358521		 # 	collision with: 4 0 0  and 1 1 0 
13358549		 # 	collision with: 0 4 0  and 4 6 0 
13358556		 # 	collision with: 7 0 0  and 9 2 0 
13358558		 # 	collision with: 8 5 0  and 2 0 1 
13358560		 # 	collision with: 2 4 0  and 6 5 0 
13358562		 # 	collision with: 5 3 0  and 7 5 0 
13358569		 # 	collision with: 0 0 0  and 3 2 0 
13358571		 # 	collision with: 0 7 0  and 7 0 1 
13358584		 # 	collision with: 2 4 0  and 6 5 0 
13358586		 # 	collision with: 3 6 0  and 10 0 1 
13358589		 # 	collision with: 8 0 0  and 9 1 0 
13358591		 # 	collision with: 9 2 0  and 5 3 0 
13358605		 # 	collision with: 3 5 0  and 5 6 0 
13358607		 # 	collision with: 4 4 0  and 3 6 0 
13358608		 # 	collision with: 3 0 0  and 6 2 0 
13358610		 # 	collision with: 5 4 0  and 10 6 0 
13358652		 # 	collision with: 2 4 0  and 6 5 0 
13358654		 # 	collision with: 8 1 0  and 10 2 0 
13358660		 # 	collision with: 2 4 0  and 6 5 0 
13358662		 # 	collision with: 2 1 0  and 3 1 0 
13358668		 # 	collision with: 0 3 0  and 10 4 0 
13358670		 # 	collision with: 5 1 0  and 3 2 0 
13358676		 # 	collision with: 5 3 0  and 6 4 0 
13358720		 # 	collision with: 2 4 0  and 6 5 0 
13358722		 # 	collision with: 0 1 0  and 3 2 0 
13358725		 # 	collision with: 3 1 0  and 3 0 1 
13358727		 # 	collision with: 0 2 0  and 7 3 0 
13358741		 # 	collision with: 4 2 0  and 1 3 0 
13358743		 # 	collision with: 3 1 0  and 3 0 1 
13358744		 # 	collision with: 2 4 0  and 6 5 0 
13358746		 # 	collision with: 6 2 0  and 2 3 0 
13358761		 # 	collision with: 1 4 0  and 6 5 0 
13358763		 # 	collision with: 5 1 0  and 5 2 0 
13358768		 # 	collision with: 2 4 0  and 6 5 0 
13358770		 # 	collision with: 3 2 0  and 1 3 0 
13358772		 # 	collision with: 2 4 0  and 6 5 0 
13358774		 # 	collision with: 7 0 1  and 4 1 1 
13358781		 # 	collision with: 3 0 0  and 2 2 0 
13358783		 # 	collision with: 8 0 0  and 8 1 0 
13358809		 # 	collision with: 8 2 0  and 5 4 0 
13358811		 # 	collision with: 6 3 0  and 10 5 0 
13358826		 # 	collision with: 0 6 0  and 3 2 1 
13358836		 # 	collision with: 2 4 0  and 6 5 0 
13358838		 # 	collision with: 5 4 0  and 0 5 0 
13358860		 # 	collision with: 2 4 0  and 6 5 0 
13358862		 # 	collision with: 3 10 0  and 8 0 1 
13358876		 # 	collision with: 2 4 0  and 6 5 0 
13358884		 # 	collision with: 5 9 0  and 3 0 1 
13358886		 # 	collision with: 0 2 0  and 4 3 0 
13358936		 # 	collision with: 0 1 0  and 5 3 0 
13358938		 # 	collision with: 7 2 0  and 3 4 1 
13358952		 # 	collision with: 9 0 0  and 1 1 0 
13358976		 # 	collision with: 1 2 0  and 9 0 1 
13358978		 # 	collision with: 2 8 0  and 0 0 1 
13358988		 # 	collision with: 3 1 0  and 8 1 1 
13358990		 # 	collision with: 4 4 0  and 3 6 0 
13359005		 # 	collision with: 3 4 0  and 4 6 0 
13359007		 # 	collision with: 5 1 0  and 3 2 0 
13359033		 # 	collision with: 9 0 0  and 1 2 0 
13359035		 # 	collision with: 3 1 0  and 3 0 1 
13359040		 # 	collision with: 3 0 0  and 2 2 0 
13359042		 # 	collision with: 0 2 0  and 7 3 0 
13359044		 # 	collision with: 7 1 0  and 8 2 0 
13359046		 # 	collision with: 9 3 0  and 6 4 0 
13359070		 # 	collision with: 5 1 0  and 5 2 0 
13359073		 # 	collision with: 6 5 0  and 9 6 0 
13359075		 # 	collision with: 5 4 0  and 0 5 0 
13359089		 # 	collision with: 10 6 0  and 6 7 0 
13359091		 # 	collision with: 1 1 0  and 1 0 1 
13359092		 # 	collision with: 6 1 0  and 3 3 0 
13359094		 # 	collision with: 5 3 0  and 7 5 0 
13359136		 # 	collision with: 9 0 0  and 1 2 0 
13359138		 # 	collision with: 0 1 0  and 3 2 0 
13359144		 # 	collision with: 7 4 0  and 2 6 0 
13359146		 # 	collision with: 5 1 0  and 10 3 0 
13359152		 # 	collision with: 1 3 0  and 10 5 0 
13359154		 # 	collision with: 0 4 0  and 9 6 0 
13359160		 # 	collision with: 7 3 0  and 2 4 0 
13359162		 # 	collision with: 8 9 0  and 2 1 1 
13359206		 # 	collision with: 5 3 0  and 6 3 0 
13359209		 # 	collision with: 10 2 0  and 2 3 0 
13359225		 # 	collision with: 2 0 0  and 3 2 0 
13359227		 # 	collision with: 3 2 0  and 10 4 0 
13359228		 # 	collision with: 5 0 0  and 9 1 0 
13359230		 # 	collision with: 3 6 0  and 4 0 1 
13359245		 # 	collision with: 3 3 0  and 2 0 1 
13359247		 # 	collision with: 7 2 0  and 3 3 0 
13359252		 # 	collision with: 4 3 0  and 1 4 0 
13359254		 # 	collision with: 7 1 0  and 9 3 0 
13359256		 # 	collision with: 7 4 0  and 0 1 1 
13359258		 # 	collision with: 6 3 0  and 7 5 0 
13359267		 # 	collision with: 4 2 0  and 0 3 0 
13359293		 # 	collision with: 0 7 0  and 1 0 1 
13359295		 # 	collision with: 9 3 0  and 6 4 0 
13359308		 # 	collision with: 2 4 0  and 9 6 0 
13359320		 # 	collision with: 1 1 0  and 1 2 0 
13359322		 # 	collision with: 1 3 0  and 8 5 0 
13359344		 # 	collision with: 4 1 0  and 4 0 1 
13359346		 # 	collision with: 1 4 0  and 2 4 0 
13359360		 # 	collision with: 2 2 0  and 2 4 0 
13359362		 # 	collision with: 5 1 0  and 1 3 0 
13359368		 # 	collision with: 3 4 0  and 5 6 0 
13359370		 # 	collision with: 7 1 0  and 2 3 0 
13359420		 # 	collision with: 10 10 0  and 3 0 1 
13359422		 # 	collision with: 9 0 0  and 10 1 0 
13359436		 # 	collision with: 7 3 0  and 2 4 0 
13359438		 # 	collision with: 10 3 0  and 8 5 0 
13359460		 # 	collision with: 4 2 0  and 1 3 0 
13359462		 # 	collision with: 4 5 0  and 5 6 0 
13359472		 # 	collision with: 10 2 0  and 2 3 0 
13359474		 # 	collision with: 0 1 0  and 10 3 0 
13359489		 # 	collision with: 9 0 0  and 1 2 0 
13359491		 # 	collision with: 4 4 0  and 3 6 0 
13359517		 # 	collision with: 5 1 0  and 5 3 0 
13359519		 # 	collision with: 2 3 0  and 8 4 0 
13359524		 # 	collision with: 10 3 0  and 10 5 0 
13359526		 # 	collision with: 2 5 0  and 4 5 0 
13359528		 # 	collision with: 1 5 0  and 5 0 1 
13359530		 # 	collision with: 1 3 0  and 9 5 0 
13359537		 # 	collision with: 4 2 0  and 1 3 0 
13359539		 # 	collision with: 3 4 0  and 0 6 0 
13359552		 # 	collision with: 2 2 1  and 4 2 1 
13359554		 # 	collision with: 0 2 0  and 7 3 0 
13359557		 # 	collision with: 10 3 0  and 2 2 1 
13359559		 # 	collision with: 6 2 0  and 6 4 0 
13359573		 # 	collision with: 9 2 0  and 9 3 0 
13359575		 # 	collision with: 3 2 0  and 4 4 0 
13359576		 # 	collision with: 1 4 0  and 9 6 0 
13359578		 # 	collision with: 9 4 0  and 0 5 0 
13359620		 # 	collision with: 0 8 0  and 8 1 1 
13359622		 # 	collision with: 2 1 0  and 3 1 0 
13359630		 # 	collision with: 3 2 0  and 1 3 0 
13359636		 # 	collision with: 1 4 0  and 0 5 0 
13359638		 # 	collision with: 10 2 0  and 6 3 0 
13359646		 # 	collision with: 10 10 0  and 5 0 1 
13359688		 # 	collision with: 0 5 0  and 9 6 0 
13359690		 # 	collision with: 0 0 0  and 1 1 1 
13359693		 # 	collision with: 8 9 0  and 7 0 1 
13359695		 # 	collision with: 2 2 0  and 2 3 0 
13359709		 # 	collision with: 3 0 0  and 6 2 0 
13359711		 # 	collision with: 9 5 0  and 3 6 0 
13359712		 # 	collision with: 6 1 0  and 3 3 0 
13359729		 # 	collision with: 1 4 0  and 9 6 0 
13359731		 # 	collision with: 1 3 0  and 4 4 0 
13359736		 # 	collision with: 2 6 0  and 2 0 1 
13359738		 # 	collision with: 5 4 0  and 0 5 0 
13359740		 # 	collision with: 2 7 0  and 7 0 1 
13359749		 # 	collision with: 6 1 0  and 3 3 0 
13359751		 # 	collision with: 8 3 0  and 3 5 0 
13359777		 # 	collision with: 1 4 0  and 0 6 0 
13359779		 # 	collision with: 1 3 0  and 10 4 0 
13359792		 # 	collision with: 7 3 0  and 1 4 0 
13359794		 # 	collision with: 9 4 0  and 6 5 0 
13359804		 # 	collision with: 3 5 0  and 5 6 0 
13359806		 # 	collision with: 7 4 0  and 7 5 0 
13359828		 # 	collision with: 6 0 0  and 9 2 0 
13359830		 # 	collision with: 0 1 0  and 8 1 1 
13359844		 # 	collision with: 7 3 0  and 0 5 0 
13359846		 # 	collision with: 3 3 0  and 3 5 0 
13359852		 # 	collision with: 4 1 0  and 1 2 0 
13359854		 # 	collision with: 9 1 0  and 6 2 0 
13359904		 # 	collision with: 7 4 0  and 7 6 0 
13359906		 # 	collision with: 3 4 0  and 4 0 1 
13359920		 # 	collision with: 1 3 0  and 10 5 0 
13359922		 # 	collision with: 10 4 0  and 9 5 0 
13359944		 # 	collision with: 3 0 0  and 2 2 0 
13359956		 # 	collision with: 1 4 0  and 10 0 1 
13359958		 # 	collision with: 4 4 0  and 9 5 0 
13359973		 # 	collision with: 8 2 0  and 5 4 0 
13359975		 # 	collision with: 8 0 0  and 9 2 0 
13360001		 # 	collision with: 0 7 0  and 1 7 0 
13360003		 # 	collision with: 8 2 0  and 4 3 0 
13360010		 # 	collision with: 10 2 0  and 7 4 0 
13360012		 # 	collision with: 4 3 0  and 0 5 0 
13360014		 # 	collision with: 5 1 0  and 3 2 0 
13360021		 # 	collision with: 7 3 0  and 1 4 0 
13360023		 # 	collision with: 2 5 0  and 4 5 0 
13360036		 # 	collision with: 4 1 0  and 7 2 0 
13360038		 # 	collision with: 3 9 0  and 4 9 0 
13360041		 # 	collision with: 9 1 0  and 0 2 0 
13360043		 # 	collision with: 2 2 0  and 8 4 0 
13360057		 # 	collision with: 4 6 0  and 5 6 0 
13360059		 # 	collision with: 7 2 0  and 3 3 0 
13360060		 # 	collision with: 10 0 0  and 8 1 0 
13360062		 # 	collision with: 3 2 0  and 10 4 0 
13360104		 # 	collision with: 4 5 0  and 3 1 1 
13360106		 # 	collision with: 9 5 0  and 3 6 0 
13360112		 # 	collision with: 3 0 0  and 8 1 0 
13360114		 # 	collision with: 1 5 0  and 5 0 1 
13360120		 # 	collision with: 2 4 0  and 0 6 0 
13360122		 # 	collision with: 6 0 0  and 5 1 0 
13360128		 # 	collision with: 1 7 0  and 7 0 1 
13360130		 # 	collision with: 0 0 0  and 1 1 1 
13360172		 # 	collision with: 2 0 0  and 3 2 0 
13360177		 # 	collision with: 2 2 0  and 4 3 0 
13360179		 # 	collision with: 8 3 0  and 3 5 0 
13360193		 # 	collision with: 4 0 0  and 1 2 0 
13360195		 # 	collision with: 4 0 0  and 10 1 0 
13360196		 # 	collision with: 3 2 0  and 5 2 0 
13360198		 # 	collision with: 6 3 0  and 7 4 0 
13360213		 # 	collision with: 4 3 0  and 0 5 0 
13360215		 # 	collision with: 0 4 0  and 2 0 1 
13360222		 # 	collision with: 7 5 0  and 0 2 1 
13360224		 # 	collision with: 7 3 0  and 0 5 0 
13360226		 # 	collision with: 9 4 0  and 0 5 0 
13360233		 # 	collision with: 10 0 0  and 8 1 0 
13360235		 # 	collision with: 6 2 0  and 1 2 1 
13360261		 # 	collision with: 9 0 0  and 1 1 0 
13360263		 # 	collision with: 2 2 0  and 0 0 1 
13360276		 # 	collision with: 4 9 0  and 9 1 1 
13360278		 # 	collision with: 7 2 0  and 8 3 0 
13360288		 # 	collision with: 3 0 0  and 6 2 0 
13360290		 # 	collision with: 6 2 0  and 9 3 0 
13360312		 # 	collision with: 2 1 0  and 0 2 1 
13360314		 # 	collision with: 8 2 0  and 4 3 0 
13360328		 # 	collision with: 0 0 0  and 3 2 0 
13360330		 # 	collision with: 3 4 0  and 9 6 0 
13360336		 # 	collision with: 5 10 0  and 0 2 1 
13360338		 # 	collision with: 2 3 0  and 0 0 1 
13360390		 # 	collision with: 9 4 0  and 0 5 0 
13360404		 # 	collision with: 1 4 0  and 0 5 0 
13360406		 # 	collision with: 8 1 0  and 9 2 0 
13360428		 # 	collision with: 7 3 0  and 2 4 0 
13360430		 # 	collision with: 2 2 0  and 8 4 0 
13360440		 # 	collision with: 2 8 0  and 0 0 1 
13360442		 # 	collision with: 0 1 0  and 5 2 0 
13360457		 # 	collision with: 3 0 0  and 8 1 0 
13360459		 # 	collision with: 5 0 0  and 9 2 0 
13360485		 # 	collision with: 8 2 0  and 9 4 0 
13360487		 # 	collision with: 1 3 0  and 10 4 0 
13360492		 # 	collision with: 0 3 0  and 5 5 0 
13360494		 # 	collision with: 3 3 0  and 10 1 1 
13360496		 # 	collision with: 6 5 0  and 0 6 0 
13360498		 # 	collision with: 5 2 0  and 1 3 0 
13360505		 # 	collision with: 6 1 0  and 3 3 0 
13360507		 # 	collision with: 3 3 0  and 3 5 0 
13360520		 # 	collision with: 7 4 0  and 7 6 0 
13360522		 # 	collision with: 9 1 0  and 2 2 0 
13360527		 # 	collision with: 10 3 0  and 9 5 0 
13360541		 # 	collision with: 10 4 0  and 5 5 0 
13360543		 # 	collision with: 7 0 0  and 5 1 0 
13360544		 # 	collision with: 4 5 0  and 8 6 0 
13360546		 # 	collision with: 3 9 0  and 4 9 0 
13360588		 # 	collision with: 7 0 0  and 9 2 0 
13360590		 # 	collision with: 4 4 0  and 9 5 0 
13360596		 # 	collision with: 10 0 0  and 2 2 0 
13360598		 # 	collision with: 7 4 0  and 9 0 1 
13360604		 # 	collision with: 5 1 0  and 6 3 0 
13360612		 # 	collision with: 0 0 0  and 3 2 0 
13360614		 # 	collision with: 6 8 0  and 9 0 1 
13360656		 # 	collision with: 4 0 0  and 4 1 0 
13360658		 # 	collision with: 7 1 0  and 2 2 0 
13360663		 # 	collision with: 10 3 0  and 4 4 0 
13360677		 # 	collision with: 1 4 0  and 6 5 0 
13360680		 # 	collision with: 1 4 0  and 9 6 0 
13360682		 # 	collision with: 5 4 0  and 0 5 0 
13360697		 # 	collision with: 1 3 0  and 7 5 0 
13360699		 # 	collision with: 9 4 0  and 10 6 0 
13360704		 # 	collision with: 0 4 0  and 9 0 1 
13360708		 # 	collision with: 5 3 0  and 6 4 0 
13360710		 # 	collision with: 5 5 0  and 10 0 1 
13360717		 # 	collision with: 10 2 0  and 2 3 0 
13360719		 # 	collision with: 10 2 0  and 5 3 0 
13360745		 # 	collision with: 0 5 0  and 9 6 0 
13360747		 # 	collision with: 1 8 0  and 3 8 0 
13360760		 # 	collision with: 9 9 0  and 1 0 1 
13360762		 # 	collision with: 8 0 0  and 8 1 0 
13360772		 # 	collision with: 0 5 0  and 9 6 0 
13360774		 # 	collision with: 9 0 0  and 6 1 0 
13360798		 # 	collision with: 3 4 0  and 1 0 1 
13360812		 # 	collision with: 10 0 0  and 6 2 0 
13360814		 # 	collision with: 5 3 0  and 10 5 0 
13360820		 # 	collision with: 8 1 0  and 6 2 0 
13360822		 # 	collision with: 1 2 0  and 8 0 1 
13360872		 # 	collision with: 9 0 0  and 1 2 0 
13360874		 # 	collision with: 5 1 0  and 5 2 0 
13360890		 # 	collision with: 5 4 0  and 0 5 0 
13360912		 # 	collision with: 4 4 0  and 5 5 0 
13360914		 # 	collision with: 8 3 0  and 0 1 1 
13360924		 # 	collision with: 1 4 0  and 2 4 0 
13360926		 # 	collision with: 5 0 0  and 10 2 0 
13360941		 # 	collision with: 6 5 0  and 9 6 0 
13360943		 # 	collision with: 9 0 1  and 2 1 1 
13360969		 # 	collision with: 0 0 0  and 1 1 1 
13360971		 # 	collision with: 1 3 0  and 9 5 0 
13360976		 # 	collision with: 8 7 0  and 0 0 1 
13360978		 # 	collision with: 8 0 0  and 10 2 0 
13360980		 # 	collision with: 10 2 0  and 2 3 0 
13360989		 # 	collision with: 4 3 0  and 2 4 0 
13360991		 # 	collision with: 6 1 0  and 6 0 1 
13361004		 # 	collision with: 10 1 0  and 10 0 1 
13361006		 # 	collision with: 8 3 0  and 2 0 1 
13361009		 # 	collision with: 4 6 0  and 5 6 0 
13361027		 # 	collision with: 2 3 0  and 6 4 0 
13361028		 # 	collision with: 0 0 0  and 5 2 0 
13361030		 # 	collision with: 2 5 0  and 5 6 0 
13361072		 # 	collision with: 0 4 0  and 5 6 0 
13361074		 # 	collision with: 10 3 0  and 4 4 0 
13361080		 # 	collision with: 1 1 0  and 1 2 0 
13361088		 # 	collision with: 8 0 0  and 7 1 0 
13361090		 # 	collision with: 7 1 0  and 6 2 0 
13361096		 # 	collision with: 5 3 0  and 1 1 1 
13361098		 # 	collision with: 4 4 0  and 6 6 0 
13361140		 # 	collision with: 4 3 0  and 0 1 1 
13361142		 # 	collision with: 1 3 0  and 8 5 0 
13361145		 # 	collision with: 3 2 0  and 5 2 0 
13361147		 # 	collision with: 5 1 0  and 10 3 0 
13361163		 # 	collision with: 1 7 0  and 2 0 1 
13361164		 # 	collision with: 4 0 0  and 1 2 0 
13361166		 # 	collision with: 5 3 0  and 6 3 0 
13361181		 # 	collision with: 4 3 0  and 1 4 0 
13361183		 # 	collision with: 9 1 0  and 2 3 0 
13361188		 # 	collision with: 7 3 0  and 2 4 0 
13361190		 # 	collision with: 2 2 0  and 2 3 0 
13361192		 # 	collision with: 9 0 0  and 1 1 0 
13361194		 # 	collision with: 0 3 0  and 4 0 1 
13361201		 # 	collision with: 0 3 0  and 5 5 0 
13361203		 # 	collision with: 5 3 0  and 7 4 0 
13361229		 # 	collision with: 10 0 0  and 2 2 0 
13361231		 # 	collision with: 6 2 0  and 6 4 0 
13361244		 # 	collision with: 8 2 0  and 9 4 0 
13361246		 # 	collision with: 4 1 0  and 4 0 1 
13361256		 # 	collision with: 1 4 0  and 6 5 0 
13361258		 # 	collision with: 2 2 0  and 9 3 0 
13361280		 # 	collision with: 6 4 0  and 4 0 1 
13361282		 # 	collision with: 1 3 0  and 4 4 0 
13361298		 # 	collision with: 7 2 0  and 3 3 0 
13361304		 # 	collision with: 8 3 0  and 2 0 1 
13361306		 # 	collision with: 6 2 0  and 8 4 0 
13361356		 # 	collision with: 3 1 0  and 8 4 1 
13361358		 # 	collision with: 3 2 0  and 5 2 0 
13361372		 # 	collision with: 6 2 0  and 2 4 0 
13361374		 # 	collision with: 6 0 0  and 5 1 0 
13361396		 # 	collision with: 1 4 0  and 2 4 0 
13361398		 # 	collision with: 6 7 0  and 2 0 1 
13361408		 # 	collision with: 7 3 0  and 0 5 0 
13361410		 # 	collision with: 6 0 0  and 5 2 0 
13361425		 # 	collision with: 0 6 0  and 3 2 1 
13361427		 # 	collision with: 6 0 0  and 3 2 0 
13361453		 # 	collision with: 1 4 0  and 9 6 0 
13361455		 # 	collision with: 2 5 0  and 4 5 0 
13361460		 # 	collision with: 8 1 0  and 4 3 0 
13361462		 # 	collision with: 7 4 0  and 8 0 1 
13361466		 # 	collision with: 2 2 0  and 6 4 0 
13361473		 # 	collision with: 1 7 0  and 3 0 1 
13361475		 # 	collision with: 10 3 0  and 9 5 0 
13361488		 # 	collision with: 10 0 0  and 5 2 1 
13361490		 # 	collision with: 0 0 0  and 1 1 1 
13361493		 # 	collision with: 4 3 0  and 1 4 0 
13361495		 # 	collision with: 2 5 0  and 4 6 0 
13361509		 # 	collision with: 4 0 0  and 1 2 0 
13361511		 # 	collision with: 3 9 0  and 4 9 0 
13361512		 # 	collision with: 5 0 0  and 9 1 0 
13361556		 # 	collision with: 9 6 0  and 1 0 1 
13361558		 # 	collision with: 5 2 0  and 10 3 0 
13361564		 # 	collision with: 6 1 0  and 8 3 0 
13361566		 # 	collision with: 2 2 0  and 8 4 0 
13361572		 # 	collision with: 9 0 0  and 7 2 0 
13361574		 # 	collision with: 8 1 0  and 6 3 0 
13361580		 # 	collision with: 6 0 0  and 10 2 0 
13361582		 # 	collision with: 7 0 0  and 5 1 0 
13361624		 # 	collision with: 5 3 0  and 8 4 0 
13361626		 # 	collision with: 7 2 0  and 2 2 1 
13361629		 # 	collision with: 4 0 0  and 1 1 0 
13361631		 # 	collision with: 8 1 0  and 10 2 0 
13361645		 # 	collision with: 9 10 0  and 10 1 1 
13361647		 # 	collision with: 2 3 0  and 6 4 0 
13361648		 # 	collision with: 5 0 0  and 8 2 0 
13361650		 # 	collision with: 3 1 0  and 4 0 1 
13361665		 # 	collision with: 6 0 0  and 10 2 0 
13361667		 # 	collision with: 1 3 0  and 8 5 0 
13361672		 # 	collision with: 3 5 0  and 0 1 1 
13361674		 # 	collision with: 10 2 0  and 6 3 0 
13361678		 # 	collision with: 6 2 0  and 2 3 0 
13361685		 # 	collision with: 10 1 0  and 3 3 0 
13361687		 # 	collision with: 5 1 0  and 3 2 0 
13361713		 # 	collision with: 4 0 0  and 4 1 0 
13361715		 # 	collision with: 8 6 0  and 0 7 0 
13361728		 # 	collision with: 9 2 0  and 9 3 0 
13361730		 # 	collision with: 9 4 0  and 0 5 0 
13361740		 # 	collision with: 0 3 0  and 5 5 0 
13361764		 # 	collision with: 6 2 0  and 7 3 0 
13361766		 # 	collision with: 5 6 0  and 3 2 1 
13361780		 # 	collision with: 4 3 0  and 1 4 0 
13361782		 # 	collision with: 6 0 0  and 3 2 0 
13361788		 # 	collision with: 7 3 0  and 0 5 0 
13361790		 # 	collision with: 5 4 0  and 0 5 0 
13361840		 # 	collision with: 1 4 0  and 0 6 0 
13361842		 # 	collision with: 0 10 0  and 5 0 1 
13361856		 # 	collision with: 8 0 0  and 7 1 0 
13361858		 # 	collision with: 7 0 0  and 5 2 0 
13361880		 # 	collision with: 4 3 0  and 9 0 1 
13361882		 # 	collision with: 2 7 0  and 3 0 1 
13361892		 # 	collision with: 3 7 0  and 1 0 1 
13361894		 # 	collision with: 5 0 0  and 8 1 0 
13361909		 # 	collision with: 10 0 0  and 8 1 0 
13361911		 # 	collision with: 5 1 0  and 10 3 0 
13361937		 # 	collision with: 2 1 0  and 2 0 1 
13361939		 # 	collision with: 1 2 0  and 3 3 0 
13361944		 # 	collision with: 0 6 0  and 8 4 1 
13361948		 # 	collision with: 3 9 0  and 1 0 1 
13361950		 # 	collision with: 9 4 0  and 0 0 1 
13361957		 # 	collision with: 1 3 0  and 7 5 0 
13361959		 # 	collision with: 0 2 0  and 7 3 0 
13361972		 # 	collision with: 2 0 0  and 5 2 0 
13361977		 # 	collision with: 2 5 0  and 8 6 0 
13361979		 # 	collision with: 8 1 0  and 8 0 1 
13361993		 # 	collision with: 8 1 0  and 8 0 1 
13361995		 # 	collision with: 4 0 0  and 6 1 0 
13361996		 # 	collision with: 0 3 0  and 4 4 0 
13361998		 # 	collision with: 2 8 0  and 3 0 1 
7.1486secs	4871
