# prime 11
# degree 2
# input variables 3
# output variables 3
# reload computed balance functions from file balance-2755of3248-p11d2m3-debug.log
# p = 11
# n = 3
# smalldomain p^m 1331
# domain p^n 1331
#	 p^2 = 121
#	 p^3 = 1331
#	 p^4 = 14641
#	 p^5 = 161051
#	 p^6 = 1771561
#	 p^7 = 19487171
#	 p^8 = 214358881
#	 p^9 = 2357947691
opening file : balance-2755of3248-p11d2m3-debug.log
reloading for step2...
16530012		 # 	collision with: 6 4 0  and 9 5 0 
16530013		 # 	collision with: 5 5 0  and 8 0 1 
16530014		 # 	collision with: 9 2 0  and 4 3 0 
16530015		 # 	collision with: 4 2 0  and 0 1 1 
16530052		 # 	collision with: 2 4 0  and 3 0 1 
16530053		 # 	collision with: 1 4 0  and 4 0 1 
16530054		 # 	collision with: 3 4 0  and 4 6 0 
16530055		 # 	collision with: 1 5 0  and 2 2 1 
16530136		 # 	collision with: 4 6 0  and 10 0 1 
16530137		 # 	collision with: 5 2 0  and 9 3 0 
16530138		 # 	collision with: 7 1 0  and 1 2 1 
16530139		 # 	collision with: 3 5 0  and 3 2 1 
16530176		 # 	collision with: 0 4 0  and 8 6 0 
16530177		 # 	collision with: 4 6 0  and 2 0 1 
16530178		 # 	collision with: 3 3 0  and 7 5 0 
16530179		 # 	collision with: 8 3 0  and 3 5 0 
16530216		 # 	collision with: 8 2 0  and 8 3 0 
16530217		 # 	collision with: 3 2 0  and 5 2 0 
16530218		 # 	collision with: 0 6 0  and 2 3 1 
16530219		 # 	collision with: 0 5 0  and 2 6 0 
16530256		 # 	collision with: 3 1 0  and 6 2 0 
16530257		 # 	collision with: 3 2 0  and 9 3 0 
16530258		 # 	collision with: 9 8 0  and 4 0 1 
16530259		 # 	collision with: 10 6 0  and 10 1 1 
16530296		 # 	collision with: 0 0 0  and 3 2 0 
16530297		 # 	collision with: 0 5 0  and 5 6 0 
16530298		 # 	collision with: 10 4 0  and 2 5 0 
16530299		 # 	collision with: 9 1 0  and 5 2 0 
16530336		 # 	collision with: 3 5 0  and 0 6 0 
16530337		 # 	collision with: 1 1 0  and 6 3 0 
16530338		 # 	collision with: 6 0 0  and 5 2 0 
16530339		 # 	collision with: 1 3 0  and 1 4 0 
16530376		 # 	collision with: 8 7 0  and 10 0 1 
16530377		 # 	collision with: 9 9 0  and 3 0 1 
16530378		 # 	collision with: 4 1 0  and 2 0 1 
16530379		 # 	collision with: 10 3 0  and 5 4 0 
16530416		 # 	collision with: 4 9 0  and 2 0 1 
16530417		 # 	collision with: 9 3 0  and 9 4 0 
16530418		 # 	collision with: 4 2 0  and 2 3 0 
16530419		 # 	collision with: 10 1 0  and 4 3 0 
16530456		 # 	collision with: 7 1 0  and 1 2 0 
16530457		 # 	collision with: 3 5 0  and 1 0 1 
16530458		 # 	collision with: 2 1 0  and 4 1 0 
16530459		 # 	collision with: 3 1 0  and 4 0 1 
16530496		 # 	collision with: 3 2 0  and 9 3 0 
16530497		 # 	collision with: 9 10 0  and 6 0 1 
16530498		 # 	collision with: 1 3 0  and 6 5 0 
16530499		 # 	collision with: 10 10 0  and 3 0 1 
16530536		 # 	collision with: 9 5 0  and 1 0 1 
16530537		 # 	collision with: 7 4 0  and 3 1 1 
16530538		 # 	collision with: 8 6 0  and 10 1 1 
16530539		 # 	collision with: 9 3 0  and 0 4 0 
16530620		 # 	collision with: 4 4 0  and 3 0 1 
16530621		 # 	collision with: 4 3 0  and 2 4 0 
16530622		 # 	collision with: 8 8 0  and 0 0 1 
16530623		 # 	collision with: 0 2 0  and 7 4 0 
16530660		 # 	collision with: 8 1 0  and 5 3 0 
16530661		 # 	collision with: 3 0 0  and 7 2 0 
16530662		 # 	collision with: 10 6 0  and 9 2 1 
16530663		 # 	collision with: 10 1 0  and 10 2 0 
16530700		 # 	collision with: 8 4 0  and 8 1 1 
16530701		 # 	collision with: 3 2 0  and 0 0 1 
16530702		 # 	collision with: 7 1 0  and 10 2 0 
16530703		 # 	collision with: 10 0 0  and 7 1 1 
16530740		 # 	collision with: 6 6 0  and 0 3 1 
16530741		 # 	collision with: 9 3 0  and 3 4 0 
16530742		 # 	collision with: 0 0 0  and 4 2 0 
16530743		 # 	collision with: 8 1 0  and 3 2 0 
16530780		 # 	collision with: 8 1 0  and 8 0 1 
16530781		 # 	collision with: 0 10 0  and 8 0 1 
16530782		 # 	collision with: 0 3 0  and 5 4 0 
16530783		 # 	collision with: 4 5 0  and 3 1 1 
16530820		 # 	collision with: 10 9 0  and 0 0 1 
16530821		 # 	collision with: 7 1 0  and 7 2 0 
16530822		 # 	collision with: 5 9 0  and 6 9 0 
16530823		 # 	collision with: 9 4 0  and 1 6 0 
16530860		 # 	collision with: 3 0 0  and 7 2 0 
16530861		 # 	collision with: 0 0 0  and 6 1 1 
16530862		 # 	collision with: 9 0 0  and 3 2 0 
16530863		 # 	collision with: 9 8 0  and 7 0 1 
16530900		 # 	collision with: 9 1 0  and 5 3 0 
16530901		 # 	collision with: 5 1 0  and 5 0 1 
16530902		 # 	collision with: 3 8 0  and 3 1 1 
16530903		 # 	collision with: 5 9 0  and 4 0 1 
16530940		 # 	collision with: 5 4 0  and 5 6 0 
16530941		 # 	collision with: 3 0 0  and 7 1 0 
16530942		 # 	collision with: 8 2 0  and 3 0 1 
16530943		 # 	collision with: 2 6 0  and 2 1 1 
16530980		 # 	collision with: 2 1 0  and 4 1 0 
16530981		 # 	collision with: 6 10 0  and 1 0 1 
16530982		 # 	collision with: 3 4 0  and 8 2 1 
16530983		 # 	collision with: 6 1 0  and 1 3 0 
16531029		 # 	collision with: 6 3 0  and 4 4 0 
16531031		 # 	collision with: 5 0 0  and 2 1 0 
16531057		 # 	collision with: 0 4 0  and 1 6 0 
16531059		 # 	collision with: 2 3 0  and 5 0 1 
16531073		 # 	collision with: 6 6 0  and 3 0 1 
16531075		 # 	collision with: 10 6 0  and 9 0 1 
16531076		 # 	collision with: 6 0 0  and 9 1 0 
16531088		 # 	collision with: 3 0 0  and 4 2 0 
16531090		 # 	collision with: 10 1 0  and 9 3 0 
16531093		 # 	collision with: 9 2 0  and 10 3 0 
16531095		 # 	collision with: 3 1 0  and 5 2 0 
16531112		 # 	collision with: 10 1 0  and 8 3 0 
16531114		 # 	collision with: 2 0 0  and 5 1 0 
16531132		 # 	collision with: 5 3 0  and 10 5 0 
16531157		 # 	collision with: 3 0 0  and 5 2 0 
16531159		 # 	collision with: 10 1 0  and 10 2 0 
16531169		 # 	collision with: 7 1 0  and 7 0 1 
16531171		 # 	collision with: 10 2 0  and 5 3 0 
16531180		 # 	collision with: 10 4 0  and 10 0 1 
16531182		 # 	collision with: 6 3 0  and 3 5 0 
16531188		 # 	collision with: 2 1 0  and 9 1 1 
16531200		 # 	collision with: 6 1 0  and 0 2 1 
16531204		 # 	collision with: 5 9 0  and 7 0 1 
16531206		 # 	collision with: 0 0 0  and 1 1 1 
16531256		 # 	collision with: 9 4 0  and 3 0 1 
16531272		 # 	collision with: 4 6 0  and 2 2 1 
16531274		 # 	collision with: 2 4 0  and 0 0 1 
16531296		 # 	collision with: 2 1 0  and 1 3 0 
16531298		 # 	collision with: 0 5 0  and 9 6 0 
16531312		 # 	collision with: 3 9 0  and 1 0 1 
16531364		 # 	collision with: 4 0 0  and 10 2 0 
16531366		 # 	collision with: 6 1 0  and 7 3 0 
16531368		 # 	collision with: 2 2 0  and 8 0 1 
16531380		 # 	collision with: 5 10 0  and 0 2 1 
16531388		 # 	collision with: 3 5 0  and 2 0 1 
16531390		 # 	collision with: 1 9 0  and 9 0 1 
16531401		 # 	collision with: 4 2 0  and 3 0 1 
16531403		 # 	collision with: 6 0 0  and 1 1 0 
16531413		 # 	collision with: 1 10 0  and 0 0 1 
16531415		 # 	collision with: 0 9 0  and 9 1 1 
16531436		 # 	collision with: 2 2 0  and 0 4 0 
16531456		 # 	collision with: 10 4 0  and 3 5 0 
16531458		 # 	collision with: 0 6 0  and 10 0 1 
16531477		 # 	collision with: 9 5 0  and 6 0 1 
16531479		 # 	collision with: 0 5 0  and 2 5 0 
16531480		 # 	collision with: 7 3 0  and 4 0 1 
16531482		 # 	collision with: 5 5 0  and 7 6 0 
16531492		 # 	collision with: 0 3 0  and 2 4 0 
16531497		 # 	collision with: 1 8 0  and 8 0 1 
16531499		 # 	collision with: 4 0 0  and 1 1 0 
16531504		 # 	collision with: 0 2 0  and 4 3 0 
16531506		 # 	collision with: 10 0 0  and 3 2 0 
16531513		 # 	collision with: 9 0 0  and 5 1 0 
16531515		 # 	collision with: 6 6 0  and 7 1 1 
16531541		 # 	collision with: 1 2 0  and 8 3 0 
16531543		 # 	collision with: 0 6 0  and 9 0 1 
16531557		 # 	collision with: 10 1 0  and 6 3 0 
16531559		 # 	collision with: 1 1 0  and 4 2 0 
16531560		 # 	collision with: 7 3 0  and 1 5 0 
16531562		 # 	collision with: 3 2 0  and 6 4 0 
16531572		 # 	collision with: 0 3 0  and 5 5 0 
16531574		 # 	collision with: 6 0 0  and 5 2 0 
16531579		 # 	collision with: 10 5 0  and 3 6 0 
16531596		 # 	collision with: 9 0 0  and 8 2 0 
16531618		 # 	collision with: 10 1 0  and 5 3 0 
16531641		 # 	collision with: 1 2 0  and 8 3 0 
16531643		 # 	collision with: 7 4 0  and 2 6 0 
16531653		 # 	collision with: 1 2 0  and 8 3 0 
16531664		 # 	collision with: 3 5 0  and 3 2 1 
16531666		 # 	collision with: 5 10 0  and 0 0 1 
16531672		 # 	collision with: 0 4 0  and 1 6 0 
16531674		 # 	collision with: 2 4 0  and 0 5 0 
16531684		 # 	collision with: 4 10 0  and 3 1 1 
16531686		 # 	collision with: 3 8 0  and 4 0 1 
16531688		 # 	collision with: 2 1 0  and 2 0 1 
16531690		 # 	collision with: 6 10 0  and 0 1 1 
16531740		 # 	collision with: 1 7 0  and 5 1 1 
16531742		 # 	collision with: 5 1 0  and 10 2 0 
16531756		 # 	collision with: 4 4 0  and 0 6 0 
16531758		 # 	collision with: 7 1 0  and 3 2 0 
16531780		 # 	collision with: 0 7 0  and 1 7 0 
16531782		 # 	collision with: 9 0 0  and 9 1 0 
16531796		 # 	collision with: 9 0 0  and 10 1 0 
16531798		 # 	collision with: 1 9 0  and 8 0 1 
16531848		 # 	collision with: 2 0 0  and 3 2 1 
16531850		 # 	collision with: 10 0 0  and 7 1 0 
16531852		 # 	collision with: 6 0 0  and 9 1 0 
16531854		 # 	collision with: 3 5 0  and 3 6 0 
16531864		 # 	collision with: 0 5 0  and 2 5 0 
16531866		 # 	collision with: 3 5 0  and 4 6 0 
16531872		 # 	collision with: 9 3 0  and 10 4 0 
16531874		 # 	collision with: 2 8 0  and 4 8 0 
16531885		 # 	collision with: 1 2 0  and 8 3 0 
16531887		 # 	collision with: 1 6 0  and 6 0 1 
16531897		 # 	collision with: 1 2 0  and 8 3 0 
16531899		 # 	collision with: 8 1 0  and 6 2 0 
16531920		 # 	collision with: 7 0 0  and 5 2 0 
16531922		 # 	collision with: 9 1 0  and 7 3 0 
16531942		 # 	collision with: 7 1 0  and 4 3 0 
16531961		 # 	collision with: 1 2 0  and 8 3 0 
16531963		 # 	collision with: 0 4 0  and 8 6 0 
16531964		 # 	collision with: 1 3 0  and 7 5 0 
16531966		 # 	collision with: 0 0 1  and 4 1 1 
16531976		 # 	collision with: 10 10 0  and 10 1 1 
16531978		 # 	collision with: 4 0 0  and 1 1 0 
16531983		 # 	collision with: 6 4 0  and 2 5 0 
16531988		 # 	collision with: 0 9 0  and 8 2 1 
16531990		 # 	collision with: 6 0 0  and 3 1 0 
16531997		 # 	collision with: 4 0 0  and 10 2 0 
16531999		 # 	collision with: 8 0 0  and 10 1 0 
16532025		 # 	collision with: 3 0 0  and 4 2 0 
16532027		 # 	collision with: 4 1 0  and 7 0 1 
16532041		 # 	collision with: 3 2 0  and 6 0 1 
16532043		 # 	collision with: 2 2 0  and 10 0 1 
16532044		 # 	collision with: 3 7 0  and 4 1 1 
16532046		 # 	collision with: 9 0 0  and 9 1 0 
16532056		 # 	collision with: 10 5 0  and 7 7 0 
16532058		 # 	collision with: 3 1 0  and 4 2 0 
16532061		 # 	collision with: 1 1 0  and 9 3 0 
16532063		 # 	collision with: 10 5 0  and 4 6 0 
16532080		 # 	collision with: 8 4 0  and 6 6 0 
16532082		 # 	collision with: 6 0 0  and 4 2 0 
16532100		 # 	collision with: 6 0 0  and 9 1 0 
16532102		 # 	collision with: 10 4 0  and 1 5 0 
16532125		 # 	collision with: 1 2 0  and 4 4 0 
16532127		 # 	collision with: 9 8 0  and 0 2 1 
16532137		 # 	collision with: 5 5 0  and 2 0 1 
16532139		 # 	collision with: 6 4 0  and 2 5 0 
16532148		 # 	collision with: 10 1 0  and 10 0 1 
16532150		 # 	collision with: 3 6 0  and 4 6 0 
16532156		 # 	collision with: 1 1 0  and 3 1 0 
16532158		 # 	collision with: 8 1 0  and 6 2 0 
16532170		 # 	collision with: 8 1 0  and 3 2 0 
16532172		 # 	collision with: 4 0 0  and 6 1 0 
16532224		 # 	collision with: 7 0 0  and 4 2 0 
16532226		 # 	collision with: 7 3 0  and 6 5 0 
16532240		 # 	collision with: 2 7 0  and 1 0 1 
16532242		 # 	collision with: 6 6 0  and 4 3 1 
16532264		 # 	collision with: 3 0 0  and 4 2 0 
16532266		 # 	collision with: 0 0 0  and 6 2 0 
16532280		 # 	collision with: 7 1 0  and 7 0 1 
16532282		 # 	collision with: 10 1 0  and 5 3 0 
16532334		 # 	collision with: 4 2 0  and 2 0 1 
16532336		 # 	collision with: 6 0 0  and 6 1 0 
16532338		 # 	collision with: 4 2 0  and 5 2 0 
16532348		 # 	collision with: 8 4 0  and 1 6 0 
16532350		 # 	collision with: 8 3 0  and 10 5 0 
16532356		 # 	collision with: 7 3 0  and 1 5 0 
16532358		 # 	collision with: 4 9 0  and 5 2 1 
16532369		 # 	collision with: 8 2 0  and 6 3 0 
16532371		 # 	collision with: 8 0 0  and 10 2 0 
16532381		 # 	collision with: 6 4 0  and 2 4 1 
16532383		 # 	collision with: 2 8 0  and 4 8 0 
16532404		 # 	collision with: 6 4 0  and 5 5 0 
16532406		 # 	collision with: 8 5 0  and 7 6 0 
16532424		 # 	collision with: 5 0 1  and 2 1 1 
16532426		 # 	collision with: 7 9 0  and 4 1 1 
16532445		 # 	collision with: 7 0 0  and 4 2 0 
16532447		 # 	collision with: 10 1 0  and 9 3 0 
16532448		 # 	collision with: 8 5 0  and 7 0 1 
16532450		 # 	collision with: 5 1 0  and 5 0 1 
16532460		 # 	collision with: 8 8 0  and 5 0 1 
16532462		 # 	collision with: 0 4 0  and 2 0 1 
16532465		 # 	collision with: 3 1 0  and 9 3 0 
16532472		 # 	collision with: 9 4 0  and 2 1 1 
16532474		 # 	collision with: 6 1 0  and 7 3 0 
16532483		 # 	collision with: 1 4 0  and 2 6 0 
16532509		 # 	collision with: 2 4 0  and 8 5 0 
16532511		 # 	collision with: 7 1 0  and 4 3 0 
16532525		 # 	collision with: 7 1 0  and 7 0 1 
16532527		 # 	collision with: 5 1 0  and 10 2 0 
16532528		 # 	collision with: 5 4 0  and 2 6 0 
16532530		 # 	collision with: 1 3 0  and 3 0 1 
16532540		 # 	collision with: 8 2 0  and 8 3 0 
16532542		 # 	collision with: 3 0 0  and 4 1 0 
16532545		 # 	collision with: 9 4 0  and 0 0 1 
16532547		 # 	collision with: 6 0 0  and 3 2 1 
16532564		 # 	collision with: 7 0 0  and 5 2 0 
16532566		 # 	collision with: 10 2 0  and 9 3 0 
16532584		 # 	collision with: 3 2 0  and 5 4 0 
16532586		 # 	collision with: 4 0 0  and 4 2 0 
16532609		 # 	collision with: 8 3 0  and 4 4 0 
16532611		 # 	collision with: 10 4 0  and 5 1 1 
16532621		 # 	collision with: 1 1 0  and 3 1 0 
16532623		 # 	collision with: 1 2 0  and 2 0 1 
16532632		 # 	collision with: 3 0 0  and 4 2 0 
16532634		 # 	collision with: 2 1 0  and 2 0 1 
16532640		 # 	collision with: 3 3 0  and 6 0 1 
16532642		 # 	collision with: 4 3 0  and 0 5 0 
16532652		 # 	collision with: 2 8 0  and 4 8 0 
16532654		 # 	collision with: 3 0 0  and 2 2 1 
16532656		 # 	collision with: 1 3 0  and 3 0 1 
16532658		 # 	collision with: 3 4 0  and 5 4 0 
16532708		 # 	collision with: 8 3 0  and 0 5 0 
16532710		 # 	collision with: 0 0 0  and 7 1 0 
16532726		 # 	collision with: 2 0 0  and 10 1 0 
16532748		 # 	collision with: 0 3 0  and 8 5 0 
16532766		 # 	collision with: 5 9 0  and 6 9 0 
16532816		 # 	collision with: 7 6 0  and 5 0 1 
16532818		 # 	collision with: 0 2 0  and 4 4 0 
16532820		 # 	collision with: 0 3 0  and 5 5 0 
16532822		 # 	collision with: 8 6 0  and 0 0 1 
16532832		 # 	collision with: 6 0 0  and 9 1 0 
16532834		 # 	collision with: 3 2 0  and 4 3 0 
16532840		 # 	collision with: 6 7 0  and 9 0 1 
16532842		 # 	collision with: 8 4 0  and 5 0 1 
16532853		 # 	collision with: 4 3 0  and 5 0 1 
16532855		 # 	collision with: 8 2 0  and 3 2 1 
16532865		 # 	collision with: 0 5 0  and 2 5 0 
16532867		 # 	collision with: 2 6 0  and 0 0 1 
16532888		 # 	collision with: 0 2 0  and 10 3 0 
16532890		 # 	collision with: 8 0 0  and 5 1 0 
16532908		 # 	collision with: 1 3 0  and 2 3 0 
16532910		 # 	collision with: 9 7 0  and 8 0 1 
16532929		 # 	collision with: 8 1 0  and 8 0 1 
16532932		 # 	collision with: 10 1 0  and 1 2 0 
16532934		 # 	collision with: 7 1 0  and 10 3 0 
16532944		 # 	collision with: 9 0 0  and 8 2 0 
16532946		 # 	collision with: 10 1 0  and 5 3 0 
16532949		 # 	collision with: 7 2 0  and 0 4 0 
16532951		 # 	collision with: 8 2 0  and 9 4 0 
16532956		 # 	collision with: 3 0 0  and 4 2 0 
16532958		 # 	collision with: 2 3 0  and 7 4 0 
16532965		 # 	collision with: 5 9 0  and 6 9 0 
16532993		 # 	collision with: 3 0 0  and 5 2 0 
16532995		 # 	collision with: 1 3 0  and 1 4 0 
16533009		 # 	collision with: 9 3 0  and 3 5 0 
16533011		 # 	collision with: 7 0 1  and 10 1 1 
16533012		 # 	collision with: 7 1 0  and 7 2 0 
16533014		 # 	collision with: 8 0 0  and 10 1 0 
16533024		 # 	collision with: 3 1 0  and 9 3 0 
16533026		 # 	collision with: 1 1 0  and 4 2 0 
16533029		 # 	collision with: 4 2 0  and 7 3 0 
16533031		 # 	collision with: 8 1 0  and 3 2 0 
16533048		 # 	collision with: 1 1 0  and 9 3 0 
16533050		 # 	collision with: 9 0 0  and 6 1 0 
16533068		 # 	collision with: 6 0 0  and 10 2 0 
16533070		 # 	collision with: 2 3 0  and 7 4 0 
16533093		 # 	collision with: 8 3 0  and 0 5 0 
16533095		 # 	collision with: 0 0 0  and 8 1 0 
16533105		 # 	collision with: 9 3 0  and 10 4 0 
16533107		 # 	collision with: 7 3 0  and 7 5 0 
16533118		 # 	collision with: 2 3 0  and 7 4 0 
16533124		 # 	collision with: 6 0 0  and 9 1 0 
16533126		 # 	collision with: 10 0 0  and 6 2 0 
16533136		 # 	collision with: 10 1 0  and 6 3 0 
16533138		 # 	collision with: 10 1 0  and 10 2 0 
16533140		 # 	collision with: 9 0 0  and 5 1 0 
16533142		 # 	collision with: 2 3 0  and 7 4 0 
16533192		 # 	collision with: 6 3 0  and 9 1 1 
16533194		 # 	collision with: 10 0 0  and 7 1 0 
16533208		 # 	collision with: 10 7 0  and 2 0 1 
16533210		 # 	collision with: 6 1 0  and 7 3 0 
16533232		 # 	collision with: 10 3 0  and 4 5 0 
16533234		 # 	collision with: 10 0 0  and 8 1 0 
16533248		 # 	collision with: 5 3 0  and 9 4 0 
16533250		 # 	collision with: 2 3 0  and 7 4 0 
16533300		 # 	collision with: 4 10 0  and 4 0 1 
16533302		 # 	collision with: 4 2 0  and 5 2 0 
16533304		 # 	collision with: 3 4 0  and 5 4 0 
16533306		 # 	collision with: 2 3 0  and 7 4 0 
16533318		 # 	collision with: 8 0 0  and 10 2 0 
16533324		 # 	collision with: 4 4 0  and 3 1 1 
16533337		 # 	collision with: 4 3 0  and 4 5 0 
16533339		 # 	collision with: 2 8 0  and 4 8 0 
16533349		 # 	collision with: 2 8 0  and 3 0 1 
16533351		 # 	collision with: 1 7 0  and 4 0 1 
16533372		 # 	collision with: 5 0 0  and 4 1 0 
16533374		 # 	collision with: 7 1 0  and 6 2 0 
16533392		 # 	collision with: 9 0 0  and 10 1 0 
16533394		 # 	collision with: 2 3 0  and 7 4 0 
16533413		 # 	collision with: 3 5 0  and 1 0 1 
16533415		 # 	collision with: 6 2 0  and 2 4 0 
16533416		 # 	collision with: 8 2 0  and 6 0 1 
16533418		 # 	collision with: 2 3 0  and 7 4 0 
16533428		 # 	collision with: 4 8 0  and 5 1 1 
16533430		 # 	collision with: 2 3 0  and 7 4 0 
16533433		 # 	collision with: 2 10 0  and 3 10 0 
16533435		 # 	collision with: 8 0 0  and 10 2 0 
16533440		 # 	collision with: 5 3 0  and 3 5 0 
16533442		 # 	collision with: 6 4 0  and 6 1 1 
16533449		 # 	collision with: 5 0 0  and 0 1 0 
16533451		 # 	collision with: 6 2 0  and 6 4 0 
16533477		 # 	collision with: 5 0 0  and 0 1 0 
16533479		 # 	collision with: 4 7 0  and 0 1 1 
16533493		 # 	collision with: 5 0 0  and 0 1 0 
16533495		 # 	collision with: 8 0 0  and 3 1 1 
16533496		 # 	collision with: 7 1 0  and 2 2 0 
16533498		 # 	collision with: 9 8 0  and 6 1 1 
16533510		 # 	collision with: 9 2 0  and 3 3 0 
16533513		 # 	collision with: 5 0 0  and 0 1 0 
16533515		 # 	collision with: 7 1 0  and 3 2 0 
16533532		 # 	collision with: 5 3 0  and 3 5 0 
16533534		 # 	collision with: 3 2 0  and 10 3 0 
16533552		 # 	collision with: 5 3 0  and 3 5 0 
16533554		 # 	collision with: 1 1 0  and 3 1 0 
16533577		 # 	collision with: 5 0 0  and 0 1 0 
16533579		 # 	collision with: 3 0 0  and 4 1 0 
16533591		 # 	collision with: 5 0 0  and 2 1 0 
16533600		 # 	collision with: 5 3 0  and 3 5 0 
16533602		 # 	collision with: 2 4 0  and 2 5 0 
16533608		 # 	collision with: 2 1 0  and 2 3 0 
16533610		 # 	collision with: 4 3 0  and 2 4 0 
16533620		 # 	collision with: 5 1 0  and 1 2 0 
16533622		 # 	collision with: 8 5 0  and 2 7 0 
16533624		 # 	collision with: 5 3 0  and 3 5 0 
16533626		 # 	collision with: 6 1 0  and 5 0 1 
16533676		 # 	collision with: 5 3 0  and 3 5 0 
16533678		 # 	collision with: 4 5 0  and 3 7 0 
16533692		 # 	collision with: 5 3 0  and 3 5 0 
16533694		 # 	collision with: 9 10 0  and 8 0 1 
16533716		 # 	collision with: 5 3 0  and 3 5 0 
16533718		 # 	collision with: 8 1 0  and 4 3 0 
16533732		 # 	collision with: 4 4 0  and 2 5 0 
16533734		 # 	collision with: 2 0 0  and 10 2 0 
16533784		 # 	collision with: 1 2 0  and 6 3 0 
16533786		 # 	collision with: 3 4 0  and 4 0 1 
16533788		 # 	collision with: 4 0 0  and 9 1 0 
16533790		 # 	collision with: 10 1 0  and 5 3 0 
16533800		 # 	collision with: 5 3 0  and 3 5 0 
16533802		 # 	collision with: 8 4 0  and 10 6 0 
16533808		 # 	collision with: 3 0 0  and 4 2 0 
16533810		 # 	collision with: 0 0 0  and 1 1 1 
16533821		 # 	collision with: 5 0 0  and 0 1 0 
16533823		 # 	collision with: 0 4 0  and 8 6 0 
16533856		 # 	collision with: 6 0 0  and 9 1 0 
16533858		 # 	collision with: 7 4 0  and 5 6 0 
16533876		 # 	collision with: 5 3 0  and 3 5 0 
16533878		 # 	collision with: 5 0 0  and 2 1 0 
16533897		 # 	collision with: 5 0 0  and 0 1 0 
16533899		 # 	collision with: 9 5 0  and 10 0 1 
16533900		 # 	collision with: 6 3 0  and 0 5 0 
16533914		 # 	collision with: 5 1 0  and 5 3 0 
16533917		 # 	collision with: 5 0 0  and 0 1 0 
16533919		 # 	collision with: 1 3 0  and 1 4 0 
16533924		 # 	collision with: 10 1 0  and 8 2 0 
16533926		 # 	collision with: 10 1 0  and 5 3 0 
16533933		 # 	collision with: 3 4 0  and 2 6 0 
16533935		 # 	collision with: 6 2 0  and 2 4 0 
16533961		 # 	collision with: 9 3 0  and 10 5 0 
16533963		 # 	collision with: 3 0 0  and 4 1 0 
16533977		 # 	collision with: 7 2 0  and 0 4 0 
16533979		 # 	collision with: 7 1 0  and 4 3 0 
16533982		 # 	collision with: 2 2 0  and 4 0 1 
16533992		 # 	collision with: 0 7 0  and 5 1 1 
16533997		 # 	collision with: 3 4 0  and 2 6 0 
16533999		 # 	collision with: 6 4 0  and 9 1 1 
16534016		 # 	collision with: 9 5 0  and 8 6 0 
16534018		 # 	collision with: 7 1 0  and 6 2 0 
16534036		 # 	collision with: 8 2 0  and 8 3 0 
16534038		 # 	collision with: 6 4 0  and 9 6 0 
16534073		 # 	collision with: 3 4 0  and 2 6 0 
16534075		 # 	collision with: 3 2 0  and 4 3 0 
16534084		 # 	collision with: 6 4 0  and 8 5 0 
16534086		 # 	collision with: 8 0 0  and 10 1 0 
16534092		 # 	collision with: 0 0 0  and 1 1 1 
16534094		 # 	collision with: 10 0 0  and 8 1 0 
16534104		 # 	collision with: 6 0 0  and 9 1 0 
16534106		 # 	collision with: 3 4 0  and 1 0 1 
16534108		 # 	collision with: 2 8 0  and 4 8 0 
16534110		 # 	collision with: 6 1 0  and 7 3 0 
16534160		 # 	collision with: 5 1 0  and 6 3 0 
16534162		 # 	collision with: 3 2 0  and 2 4 0 
16534176		 # 	collision with: 3 0 0  and 4 2 0 
16534178		 # 	collision with: 8 9 0  and 8 0 1 
16534200		 # 	collision with: 5 5 0  and 6 0 1 
16534202		 # 	collision with: 4 3 0  and 2 4 0 
16534216		 # 	collision with: 0 7 0  and 1 7 0 
16534218		 # 	collision with: 3 1 0  and 8 2 1 
16534268		 # 	collision with: 2 10 0  and 7 0 1 
16534270		 # 	collision with: 1 2 0  and 9 4 0 
16534272		 # 	collision with: 6 1 0  and 6 0 1 
16534274		 # 	collision with: 0 4 0  and 8 6 0 
16534284		 # 	collision with: 1 2 0  and 4 4 0 
16534286		 # 	collision with: 3 3 0  and 4 4 0 
16534292		 # 	collision with: 9 0 0  and 1 2 0 
16534294		 # 	collision with: 8 3 0  and 3 1 1 
16534307		 # 	collision with: 5 3 0  and 4 0 1 
16534317		 # 	collision with: 6 0 0  and 6 1 0 
16534319		 # 	collision with: 3 1 0  and 5 2 0 
16534340		 # 	collision with: 10 1 0  and 8 3 0 
16534342		 # 	collision with: 1 2 0  and 10 4 0 
16534360		 # 	collision with: 2 3 0  and 7 5 0 
16534362		 # 	collision with: 3 5 0  and 3 6 0 
16534381		 # 	collision with: 3 4 0  and 2 6 0 
16534383		 # 	collision with: 5 6 0  and 4 2 1 
16534386		 # 	collision with: 8 5 0  and 2 7 0 
16534396		 # 	collision with: 3 7 0  and 0 0 1 
16534398		 # 	collision with: 1 5 0  and 5 1 1 
16534401		 # 	collision with: 3 4 0  and 2 6 0 
16534403		 # 	collision with: 7 10 0  and 2 0 1 
16534408		 # 	collision with: 3 3 0  and 0 0 1 
16534410		 # 	collision with: 8 1 0  and 10 3 0 
16534417		 # 	collision with: 3 4 0  and 5 6 0 
16534419		 # 	collision with: 0 2 0  and 3 3 0 
16534445		 # 	collision with: 2 1 0  and 2 3 0 
16534461		 # 	collision with: 10 9 0  and 0 1 1 
16534463		 # 	collision with: 10 0 0  and 3 2 0 
16534464		 # 	collision with: 8 2 0  and 0 2 1 
16534466		 # 	collision with: 8 1 0  and 10 3 0 
16534476		 # 	collision with: 2 1 1  and 1 2 1 
16534478		 # 	collision with: 4 0 0  and 4 2 0 
16534481		 # 	collision with: 6 7 0  and 5 0 1 
16534483		 # 	collision with: 3 8 0  and 4 2 1 
16534500		 # 	collision with: 3 0 0  and 4 2 0 
16534502		 # 	collision with: 3 1 0  and 5 2 0 
16534520		 # 	collision with: 6 3 0  and 2 5 0 
16534522		 # 	collision with: 8 1 0  and 10 3 0 
16534545		 # 	collision with: 0 5 0  and 7 6 0 
16534547		 # 	collision with: 9 1 0  and 2 0 1 
16534557		 # 	collision with: 3 2 0  and 3 4 0 
16534559		 # 	collision with: 9 2 0  and 3 3 0 
16534568		 # 	collision with: 3 2 0  and 5 4 0 
16534578		 # 	collision with: 8 1 0  and 10 3 0 
16534588		 # 	collision with: 10 4 0  and 3 5 0 
16534590		 # 	collision with: 10 1 0  and 5 3 0 
16534592		 # 	collision with: 1 6 0  and 1 7 0 
16534594		 # 	collision with: 8 1 0  and 10 3 0 
16534644		 # 	collision with: 4 0 0  and 6 1 0 
16534646		 # 	collision with: 8 1 0  and 10 3 0 
16534660		 # 	collision with: 1 5 0  and 3 6 0 
16534662		 # 	collision with: 8 1 0  and 10 3 0 
16534684		 # 	collision with: 5 7 0  and 10 0 1 
16534686		 # 	collision with: 8 0 0  and 5 1 0 
16534700		 # 	collision with: 4 4 0  and 0 5 0 
16534702		 # 	collision with: 8 1 0  and 10 3 0 
16534752		 # 	collision with: 8 4 0  and 2 0 1 
16534754		 # 	collision with: 8 1 0  and 10 3 0 
16534756		 # 	collision with: 9 2 0  and 4 3 0 
16534758		 # 	collision with: 0 0 0  and 3 2 0 
16534768		 # 	collision with: 6 8 0  and 0 0 1 
16534770		 # 	collision with: 5 0 0  and 2 1 0 
16534778		 # 	collision with: 2 0 0  and 10 2 0 
16534789		 # 	collision with: 0 5 0  and 2 5 0 
16534791		 # 	collision with: 7 3 0  and 1 1 1 
16534801		 # 	collision with: 0 8 0  and 6 0 1 
16534803		 # 	collision with: 4 8 0  and 1 0 1 
16534824		 # 	collision with: 1 3 0  and 2 3 0 
16534826		 # 	collision with: 6 0 0  and 4 2 0 
16534844		 # 	collision with: 8 3 0  and 0 5 0 
16534846		 # 	collision with: 6 1 0  and 7 3 0 
16534865		 # 	collision with: 5 5 0  and 5 2 1 
16534867		 # 	collision with: 2 0 0  and 10 1 0 
16534868		 # 	collision with: 6 1 0  and 10 2 0 
16534870		 # 	collision with: 8 1 0  and 10 3 0 
16534880		 # 	collision with: 6 0 0  and 9 1 0 
16534882		 # 	collision with: 8 1 0  and 10 3 0 
16534885		 # 	collision with: 3 2 0  and 5 4 0 
16534887		 # 	collision with: 9 4 0  and 1 5 0 
16534892		 # 	collision with: 0 6 0  and 6 2 1 
16534894		 # 	collision with: 5 4 0  and 4 5 0 
16534901		 # 	collision with: 5 3 0  and 3 5 0 
16534903		 # 	collision with: 2 10 0  and 3 10 0 
16534931		 # 	collision with: 9 5 0  and 6 0 1 
16534945		 # 	collision with: 9 3 0  and 10 4 0 
16534947		 # 	collision with: 8 3 0  and 0 0 1 
16534948		 # 	collision with: 9 0 0  and 5 1 0 
16534950		 # 	collision with: 5 4 0  and 4 5 0 
16534960		 # 	collision with: 4 4 0  and 2 5 0 
16534962		 # 	collision with: 8 0 0  and 10 2 0 
16534965		 # 	collision with: 5 3 0  and 3 5 0 
16534984		 # 	collision with: 2 2 0  and 0 4 0 
16534986		 # 	collision with: 5 4 0  and 4 5 0 
16535004		 # 	collision with: 1 2 0  and 6 3 0 
16535006		 # 	collision with: 5 4 0  and 4 5 0 
16535029		 # 	collision with: 9 0 0  and 5 1 0 
16535031		 # 	collision with: 0 3 0  and 4 4 0 
16535041		 # 	collision with: 5 3 0  and 3 5 0 
16535043		 # 	collision with: 8 3 0  and 3 5 0 
16535052		 # 	collision with: 2 2 0  and 8 4 0 
16535054		 # 	collision with: 4 0 0  and 1 1 0 
16535060		 # 	collision with: 9 10 0  and 2 0 1 
16535062		 # 	collision with: 1 3 0  and 1 4 0 
16535072		 # 	collision with: 3 0 0  and 5 2 0 
16535074		 # 	collision with: 7 1 0  and 4 3 0 
16535076		 # 	collision with: 10 8 0  and 3 0 1 
16535078		 # 	collision with: 5 4 0  and 4 5 0 
16535130		 # 	collision with: 9 2 0  and 3 3 0 
16535144		 # 	collision with: 5 1 0  and 1 2 0 
16535170		 # 	collision with: 10 0 0  and 6 2 0 
16535184		 # 	collision with: 7 2 0  and 8 4 0 
16535186		 # 	collision with: 3 2 0  and 10 3 0 
16535236		 # 	collision with: 2 1 0  and 2 3 0 
16535238		 # 	collision with: 5 4 0  and 4 5 0 
16535240		 # 	collision with: 5 7 0  and 7 0 1 
16535242		 # 	collision with: 7 0 0  and 4 1 0 
16535252		 # 	collision with: 3 4 0  and 8 0 1 
16535254		 # 	collision with: 3 0 0  and 4 1 0 
16535260		 # 	collision with: 1 3 0  and 2 0 1 
16535262		 # 	collision with: 5 4 0  and 4 5 0 
16535273		 # 	collision with: 5 3 0  and 3 5 0 
16535275		 # 	collision with: 9 2 0  and 3 3 0 
16535285		 # 	collision with: 5 3 0  and 3 5 0 
16535287		 # 	collision with: 3 1 0  and 4 2 0 
16535308		 # 	collision with: 3 3 0  and 2 4 0 
16535310		 # 	collision with: 5 4 0  and 4 5 0 
16535328		 # 	collision with: 2 9 0  and 4 0 1 
16535330		 # 	collision with: 0 0 0  and 7 1 0 
16535349		 # 	collision with: 3 1 0  and 5 3 0 
16535351		 # 	collision with: 1 3 0  and 8 0 1 
16535352		 # 	collision with: 3 0 0  and 4 2 0 
16535354		 # 	collision with: 0 5 0  and 2 5 0 
16535364		 # 	collision with: 2 10 0  and 3 10 0 
16535366		 # 	collision with: 5 4 0  and 4 5 0 
16535369		 # 	collision with: 5 3 0  and 3 5 0 
16535371		 # 	collision with: 0 5 0  and 2 5 0 
16535376		 # 	collision with: 6 0 0  and 9 1 0 
16535378		 # 	collision with: 6 2 0  and 4 3 0 
16535385		 # 	collision with: 1 6 0  and 1 7 0 
16535387		 # 	collision with: 10 5 0  and 4 6 0 
16535413		 # 	collision with: 0 3 0  and 6 4 0 
16535415		 # 	collision with: 2 0 0  and 5 1 0 
16535429		 # 	collision with: 9 1 0  and 1 3 1 
16535432		 # 	collision with: 6 3 0  and 4 4 0 
16535434		 # 	collision with: 6 2 0  and 4 3 0 
16535444		 # 	collision with: 7 1 0  and 1 0 1 
16535446		 # 	collision with: 6 2 0  and 4 3 0 
16535449		 # 	collision with: 0 3 0  and 8 0 1 
16535451		 # 	collision with: 0 0 0  and 8 1 0 
16535468		 # 	collision with: 4 2 0  and 5 2 0 
16535470		 # 	collision with: 4 0 0  and 3 1 0 
16535488		 # 	collision with: 6 1 0  and 10 2 0 
16535490		 # 	collision with: 6 2 0  and 4 3 0 
16535513		 # 	collision with: 9 0 0  and 1 2 0 
16535515		 # 	collision with: 3 6 0  and 4 6 0 
16535525		 # 	collision with: 1 1 0  and 9 3 0 
16535527		 # 	collision with: 4 3 0  and 2 4 0 
16535536		 # 	collision with: 7 6 0  and 8 0 1 
16535538		 # 	collision with: 6 2 0  and 4 3 0 
16535544		 # 	collision with: 10 6 0  and 7 1 1 
16535546		 # 	collision with: 9 0 0  and 6 1 0 
16535556		 # 	collision with: 6 4 0  and 2 0 1 
16535558		 # 	collision with: 6 2 0  and 4 3 0 
16535562		 # 	collision with: 6 2 0  and 4 3 0 
16535612		 # 	collision with: 3 6 0  and 4 6 0 
16535614		 # 	collision with: 6 2 0  and 4 3 0 
16535628		 # 	collision with: 10 3 0  and 9 5 0 
16535630		 # 	collision with: 1 3 0  and 2 3 0 
16535652		 # 	collision with: 3 0 0  and 5 2 0 
16535654		 # 	collision with: 6 2 0  and 4 3 0 
16535668		 # 	collision with: 4 3 0  and 4 5 0 
16535670		 # 	collision with: 6 2 0  and 4 3 0 
16535720		 # 	collision with: 3 0 0  and 4 2 0 
16535726		 # 	collision with: 6 2 0  and 4 3 0 
16535736		 # 	collision with: 8 1 0  and 8 0 1 
16535738		 # 	collision with: 3 1 0  and 5 2 0 
16535744		 # 	collision with: 3 2 0  and 3 4 0 
16535746		 # 	collision with: 0 0 0  and 8 1 0 
16535757		 # 	collision with: 2 2 0  and 8 4 0 
16535759		 # 	collision with: 10 4 0  and 2 2 1 
16535769		 # 	collision with: 1 8 0  and 9 1 1 
16535771		 # 	collision with: 9 2 0  and 4 4 0 
16535792		 # 	collision with: 8 1 0  and 7 2 0 
16535794		 # 	collision with: 6 2 0  and 4 3 0 
16535812		 # 	collision with: 2 5 0  and 9 7 0 
16535814		 # 	collision with: 6 2 0  and 4 3 0 
16535833		 # 	collision with: 6 3 0  and 4 4 0 
16535835		 # 	collision with: 6 1 0  and 6 0 1 
16535836		 # 	collision with: 10 3 0  and 4 1 1 
16535838		 # 	collision with: 6 2 0  and 4 3 0 
16535848		 # 	collision with: 5 1 0  and 8 3 0 
16535850		 # 	collision with: 6 2 0  and 4 3 0 
16535853		 # 	collision with: 2 1 0  and 2 3 0 
16535855		 # 	collision with: 6 0 0  and 5 2 0 
16535860		 # 	collision with: 1 7 0  and 0 0 1 
16535862		 # 	collision with: 3 6 0  and 0 2 1 
16535869		 # 	collision with: 10 3 0  and 4 5 0 
16535871		 # 	collision with: 5 4 0  and 4 5 0 
16535897		 # 	collision with: 7 1 0  and 2 2 0 
16535899		 # 	collision with: 10 1 0  and 9 3 0 
16535915		 # 	collision with: 6 2 0  and 6 4 0 
16535916		 # 	collision with: 7 2 0  and 9 1 1 
16535918		 # 	collision with: 0 0 0  and 8 1 0 
16535928		 # 	collision with: 6 10 0  and 3 0 1 
16535930		 # 	collision with: 7 0 0  and 4 1 0 
16535933		 # 	collision with: 4 4 0  and 2 5 0 
16535935		 # 	collision with: 5 4 0  and 4 5 0 
16535954		 # 	collision with: 1 1 0  and 3 1 0 
16535972		 # 	collision with: 4 2 0  and 5 2 0 
16535974		 # 	collision with: 5 4 0  and 9 5 0 
16535997		 # 	collision with: 5 1 0  and 1 2 0 
16535999		 # 	collision with: 10 3 0  and 0 5 0 
9.5649secs	5127
