# prime 11
# degree 2
# input variables 3
# output variables 4
# reload computed balance functions from file balance-983of3248-p11d2m3-debug.log
# p = 11
# n = 4
# smalldomain p^m 1331
# domain p^n 14641
#	 p^2 = 121
#	 p^3 = 1331
#	 p^4 = 14641
#	 p^5 = 161051
#	 p^6 = 1771561
#	 p^7 = 19487171
#	 p^8 = 214358881
#	 p^9 = 2357947691
opening file : balance-983of3248-p11d2m3-debug.log
reloading for step2...
5898024		 # 	collision with: 4 1 3 0  and 0 0 0 1 
5898026		 # 	collision with: 9 1 0 0  and 0 9 1 0 
5898028		 # 	collision with: 5 2 0 0  and 6 2 0 0 
5898030		 # 	collision with: 9 9 0 0  and 0 1 1 0 
5898032		 # 	collision with: 3 1 0 0  and 5 1 0 0 
5898034		 # 	collision with: 10 0 1 0  and 10 2 1 0 
5898036		 # 	collision with: 3 8 0 0  and 4 8 0 0 
5898038		 # 	collision with: 10 2 0 0  and 1 2 1 0 
5898040		 # 	collision with: 0 6 0 0  and 1 6 0 0 
5898042		 # 	collision with: 2 5 0 0  and 6 9 2 0 
5898044		 # 	collision with: 1 7 0 0  and 3 7 0 0 
5898046		 # 	collision with: 10 0 0 0  and 1 2 1 0 
5898048		 # 	collision with: 2 4 0 0  and 4 4 0 0 
5898050		 # 	collision with: 4 3 0 0  and 6 0 1 0 
5898052		 # 	collision with: 4 5 0 0  and 5 5 0 0 
5898054		 # 	collision with: 10 5 2 0  and 1 2 3 0 
5898056		 # 	collision with: 1 3 0 0  and 2 3 0 0 
5898058		 # 	collision with: 2 8 0 0  and 4 2 1 0 
5898060		 # 	collision with: 0 10 0 0  and 2 10 0 0 
5898064		 # 	collision with: 4 9 0 0  and 6 9 0 0 
5898066		 # 	collision with: 5 2 0 0  and 7 3 1 0 
5898098		 # 	collision with: 3 3 0 0  and 8 0 1 0 
5898103		 # 	collision with: 10 4 0 0  and 0 9 1 0 
5898124		 # 	collision with: 3 8 0 0  and 4 8 0 0 
5898126		 # 	collision with: 3 1 0 0  and 9 4 1 0 
5898149		 # 	collision with: 9 0 0 0  and 5 2 0 0 
5898151		 # 	collision with: 10 2 2 0  and 10 4 2 0 
5898169		 # 	collision with: 4 5 0 0  and 5 5 0 0 
5898171		 # 	collision with: 10 4 1 0  and 10 6 1 0 
5898196		 # 	collision with: 4 9 0 0  and 6 9 0 0 
5898198		 # 	collision with: 2 6 0 0  and 1 2 1 0 
5898224		 # 	collision with: 2 4 0 0  and 4 4 0 0 
5898226		 # 	collision with: 0 9 1 0  and 10 5 2 0 
5898237		 # 	collision with: 9 0 0 0  and 5 2 0 0 
5898239		 # 	collision with: 6 5 0 0  and 8 7 1 0 
5898245		 # 	collision with: 0 10 0 0  and 2 10 0 0 
5898247		 # 	collision with: 1 8 0 0  and 4 1 1 0 
5898252		 # 	collision with: 3 1 0 0  and 5 1 0 0 
5898254		 # 	collision with: 10 0 1 0  and 10 2 1 0 
5898289		 # 	collision with: 0 10 0 0  and 2 10 0 0 
5898291		 # 	collision with: 5 2 2 0  and 5 2 3 0 
5898324		 # 	collision with: 0 10 0 0  and 2 10 0 0 
5898326		 # 	collision with: 1 7 0 0  and 2 2 1 0 
5898341		 # 	collision with: 0 6 0 0  and 1 6 0 0 
5898343		 # 	collision with: 2 6 0 0  and 6 0 2 0 
5898352		 # 	collision with: 1 7 0 0  and 3 7 0 0 
5898354		 # 	collision with: 10 8 0 0  and 7 4 1 0 
5898380		 # 	collision with: 5 2 0 0  and 6 2 0 0 
5898382		 # 	collision with: 9 9 0 0  and 0 1 1 0 
5898409		 # 	collision with: 8 2 0 0  and 7 6 1 0 
5898411		 # 	collision with: 10 4 0 0  and 0 9 1 0 
5898429		 # 	collision with: 0 6 0 0  and 1 6 0 0 
5898431		 # 	collision with: 7 3 0 0  and 3 8 1 0 
5898452		 # 	collision with: 1 3 0 0  and 2 3 0 0 
5898454		 # 	collision with: 0 8 0 0  and 9 2 1 0 
5898477		 # 	collision with: 4 5 0 0  and 5 5 0 0 
5898479		 # 	collision with: 10 0 0 0  and 10 2 1 0 
5898480		 # 	collision with: 0 6 0 0  and 1 6 0 0 
5898508		 # 	collision with: 8 9 10 0  and 7 0 0 1 
5898510		 # 	collision with: 1 10 0 0  and 2 4 1 0 
5898512		 # 	collision with: 3 1 0 0  and 5 1 0 0 
5898514		 # 	collision with: 10 2 1 0  and 10 3 1 0 
5898516		 # 	collision with: 0 6 0 0  and 1 6 0 0 
5898518		 # 	collision with: 8 7 0 0  and 9 10 1 0 
5898520		 # 	collision with: 2 4 0 0  and 4 4 0 0 
5898522		 # 	collision with: 7 4 0 0  and 9 1 2 0 
5898524		 # 	collision with: 1 3 0 0  and 2 3 0 0 
5898526		 # 	collision with: 6 1 0 0  and 7 9 1 0 
5898528		 # 	collision with: 4 9 0 0  and 6 9 0 0 
5898530		 # 	collision with: 9 1 1 0  and 10 2 2 0 
5898532		 # 	collision with: 5 2 0 0  and 6 2 0 0 
5898534		 # 	collision with: 4 0 0 0  and 5 10 1 0 
5898536		 # 	collision with: 3 8 0 0  and 4 8 0 0 
5898538		 # 	collision with: 10 5 0 0  and 1 2 2 0 
5898540		 # 	collision with: 1 7 0 0  and 3 7 0 0 
5898542		 # 	collision with: 1 5 0 0  and 2 8 1 0 
5898544		 # 	collision with: 4 5 0 0  and 5 5 0 0 
5898546		 # 	collision with: 8 10 0 0  and 9 5 1 0 
5898548		 # 	collision with: 0 10 0 0  and 2 10 0 0 
5898580		 # 	collision with: 3 8 0 0  and 4 8 0 0 
5898582		 # 	collision with: 0 5 1 0  and 4 0 2 0 
5898585		 # 	collision with: 2 10 0 0  and 0 1 1 0 
5898587		 # 	collision with: 5 2 0 0  and 8 1 1 0 
5898608		 # 	collision with: 2 4 0 0  and 4 4 0 0 
5898610		 # 	collision with: 8 0 0 0  and 3 3 1 0 
5898633		 # 	collision with: 1 7 0 0  and 3 7 0 0 
5898653		 # 	collision with: 1 3 0 0  and 2 3 0 0 
5898680		 # 	collision with: 0 10 0 0  and 2 10 0 0 
5898682		 # 	collision with: 6 2 1 0  and 7 3 3 0 
5898708		 # 	collision with: 5 2 0 0  and 6 2 0 0 
5898710		 # 	collision with: 8 3 0 0  and 4 5 1 0 
5898721		 # 	collision with: 1 7 0 0  and 3 7 0 0 
5898723		 # 	collision with: 10 1 1 0  and 10 2 1 0 
5898729		 # 	collision with: 0 6 0 0  and 1 6 0 0 
5898731		 # 	collision with: 7 3 0 0  and 3 8 1 0 
5898736		 # 	collision with: 0 6 0 0  and 1 6 0 0 
5898775		 # 	collision with: 6 10 0 0  and 2 0 2 0 
5898810		 # 	collision with: 4 7 1 0  and 1 1 3 0 
5898825		 # 	collision with: 0 0 0 0  and 8 1 0 0 
5898827		 # 	collision with: 9 0 0 0  and 8 2 1 0 
5898836		 # 	collision with: 4 9 0 0  and 6 9 0 0 
5898838		 # 	collision with: 3 9 0 0  and 4 0 2 0 
5898864		 # 	collision with: 3 1 0 0  and 5 1 0 0 
5898866		 # 	collision with: 10 2 1 0  and 10 3 1 0 
5898893		 # 	collision with: 2 10 0 0  and 0 1 1 0 
5898895		 # 	collision with: 10 2 0 0  and 5 7 2 0 
5898913		 # 	collision with: 0 0 0 0  and 8 1 0 0 
5898915		 # 	collision with: 2 9 0 0  and 9 3 1 0 
5898936		 # 	collision with: 1 7 0 0  and 3 7 0 0 
5898938		 # 	collision with: 5 9 0 0  and 5 9 1 0 
5898961		 # 	collision with: 1 3 0 0  and 2 3 0 0 
5898963		 # 	collision with: 4 5 1 0  and 5 5 1 0 
5898964		 # 	collision with: 1 3 0 0  and 2 3 0 0 
5898966		 # 	collision with: 0 6 1 0  and 1 6 1 0 
5898998		 # 	collision with: 10 4 0 0  and 10 6 0 0 
5899002		 # 	collision with: 10 2 0 0  and 10 4 0 0 
5899006		 # 	collision with: 10 0 0 0  and 10 2 0 0 
5899010		 # 	collision with: 10 4 0 0  and 10 5 0 0 
5899014		 # 	collision with: 10 2 0 0  and 10 3 0 0 
5899018		 # 	collision with: 10 0 0 0  and 10 1 0 0 
5899022		 # 	collision with: 10 3 0 0  and 10 5 0 0 
5899026		 # 	collision with: 10 1 0 0  and 10 3 0 0 
5899030		 # 	collision with: 10 5 0 0  and 10 6 0 0 
5899034		 # 	collision with: 10 3 0 0  and 10 4 0 0 
5899068		 # 	collision with: 0 0 0 0  and 3 0 0 0 
5899070		 # 	collision with: 10 1 0 0  and 10 3 0 0 
5899073		 # 	collision with: 3 4 0 0  and 5 4 0 0 
5899075		 # 	collision with: 10 5 0 0  and 10 6 0 0 
5899081		 # 	collision with: 5 2 0 0  and 6 2 0 0 
5899083		 # 	collision with: 4 2 1 0  and 4 2 2 0 
5899100		 # 	collision with: 0 0 0 0  and 3 0 0 0 
5899102		 # 	collision with: 10 2 0 0  and 10 3 0 0 
5899132		 # 	collision with: 0 0 0 0  and 3 0 0 0 
5899134		 # 	collision with: 10 2 0 0  and 10 4 0 0 
5899149		 # 	collision with: 1 3 0 0  and 3 3 0 0 
5899151		 # 	collision with: 10 2 1 0  and 10 3 1 0 
5899177		 # 	collision with: 0 5 0 0  and 1 5 0 0 
5899179		 # 	collision with: 5 6 0 0  and 3 7 1 0 
5899208		 # 	collision with: 0 0 0 0  and 3 0 0 0 
5899210		 # 	collision with: 10 3 0 0  and 10 4 0 0 
5899233		 # 	collision with: 4 7 0 0  and 5 7 0 0 
5899235		 # 	collision with: 3 0 0 0  and 4 9 1 0 
5899240		 # 	collision with: 0 0 0 0  and 3 0 0 0 
5899242		 # 	collision with: 10 3 0 0  and 10 5 0 0 
5899272		 # 	collision with: 0 0 0 0  and 3 0 0 0 
5899274		 # 	collision with: 10 4 0 0  and 10 5 0 0 
5899281		 # 	collision with: 1 3 0 0  and 3 3 0 0 
5899283		 # 	collision with: 10 2 1 0  and 10 3 1 0 
5899304		 # 	collision with: 0 0 0 0  and 3 0 0 0 
5899306		 # 	collision with: 10 4 0 0  and 10 6 0 0 
5899337		 # 	collision with: 3 4 0 0  and 5 4 0 0 
5899339		 # 	collision with: 10 5 0 0  and 10 6 0 0 
5899365		 # 	collision with: 4 7 0 0  and 5 7 0 0 
5899367		 # 	collision with: 10 8 0 0  and 1 2 1 0 
5899380		 # 	collision with: 0 0 0 0  and 3 0 0 0 
5899382		 # 	collision with: 10 5 0 0  and 10 6 0 0 
5899389		 # 	collision with: 5 2 0 0  and 6 2 0 0 
5899391		 # 	collision with: 7 9 0 0  and 5 3 1 0 
5899412		 # 	collision with: 0 0 0 0  and 3 0 0 0 
5899414		 # 	collision with: 10 0 0 0  and 10 1 0 0 
5899441		 # 	collision with: 0 5 0 0  and 1 5 0 0 
5899443		 # 	collision with: 5 4 1 0  and 0 5 1 0 
5899444		 # 	collision with: 0 0 0 0  and 3 0 0 0 
5899446		 # 	collision with: 10 0 0 0  and 10 2 0 0 
5899476		 # 	collision with: 2 8 5 0  and 10 0 0 1 
5899478		 # 	collision with: 2 0 1 0  and 1 0 2 0 
5899480		 # 	collision with: 4 10 0 0  and 6 10 0 0 
5899484		 # 	collision with: 0 5 0 0  and 1 5 0 0 
5899486		 # 	collision with: 2 0 1 0  and 1 0 2 0 
5899488		 # 	collision with: 4 7 0 0  and 5 7 0 0 
5899490		 # 	collision with: 2 0 1 0  and 1 0 2 0 
5899492		 # 	collision with: 0 8 0 0  and 2 8 0 0 
5899494		 # 	collision with: 2 0 1 0  and 1 0 2 0 
5899496		 # 	collision with: 5 2 0 0  and 6 2 0 0 
5899498		 # 	collision with: 3 4 0 0  and 2 7 1 0 
5899500		 # 	collision with: 2 9 0 0  and 4 9 0 0 
5899502		 # 	collision with: 3 8 0 0  and 2 5 1 0 
5899504		 # 	collision with: 1 3 0 0  and 3 3 0 0 
5899506		 # 	collision with: 2 0 1 0  and 1 0 2 0 
5899508		 # 	collision with: 3 4 0 0  and 5 4 0 0 
5899510		 # 	collision with: 5 0 0 0  and 4 3 1 0 
5899512		 # 	collision with: 2 6 0 0  and 3 6 0 0 
5899514		 # 	collision with: 2 0 1 0  and 1 0 2 0 
5899516		 # 	collision with: 3 1 0 0  and 4 1 0 0 
5899518		 # 	collision with: 10 5 1 0  and 10 6 1 0 
5899552		 # 	collision with: 3 4 0 0  and 5 4 0 0 
5899557		 # 	collision with: 2 9 0 0  and 4 9 0 0 
5899559		 # 	collision with: 4 7 0 0  and 1 3 1 0 
5899565		 # 	collision with: 4 10 0 0  and 6 10 0 0 
5899567		 # 	collision with: 3 7 0 0  and 4 8 1 0 
5899584		 # 	collision with: 5 2 0 0  and 6 2 0 0 
5899586		 # 	collision with: 8 8 0 0  and 6 4 1 0 
5899616		 # 	collision with: 0 5 0 0  and 1 5 0 0 
5899618		 # 	collision with: 4 8 0 0  and 9 8 1 0 
5899633		 # 	collision with: 3 4 0 0  and 5 4 0 0 
5899635		 # 	collision with: 1 1 0 0  and 8 2 1 0 
5899661		 # 	collision with: 1 3 0 0  and 3 3 0 0 
5899663		 # 	collision with: 8 1 0 0  and 10 5 1 0 
5899692		 # 	collision with: 3 1 0 0  and 4 1 0 0 
5899694		 # 	collision with: 10 5 1 0  and 10 6 1 0 
5899719		 # 	collision with: 4 1 0 0  and 4 1 1 0 
5899726		 # 	collision with: 6 6 0 0  and 10 0 1 0 
5899756		 # 	collision with: 0 8 0 0  and 2 8 0 0 
5899758		 # 	collision with: 5 3 0 0  and 10 6 1 0 
5899765		 # 	collision with: 3 4 0 0  and 5 4 0 0 
5899767		 # 	collision with: 6 1 1 0  and 8 2 2 0 
5899788		 # 	collision with: 4 10 0 0  and 6 10 0 0 
5899790		 # 	collision with: 10 8 0 0  and 8 1 1 0 
5899821		 # 	collision with: 2 9 0 0  and 4 9 0 0 
5899823		 # 	collision with: 3 5 1 0  and 5 1 2 0 
5899849		 # 	collision with: 5 2 0 0  and 6 2 0 0 
5899851		 # 	collision with: 8 1 0 0  and 8 1 1 0 
5899864		 # 	collision with: 2 6 0 0  and 3 6 0 0 
5899866		 # 	collision with: 3 8 0 0  and 10 9 1 0 
5899873		 # 	collision with: 4 10 0 0  and 6 10 0 0 
5899875		 # 	collision with: 2 3 1 0  and 2 3 2 0 
5899896		 # 	collision with: 2 9 0 0  and 4 9 0 0 
5899898		 # 	collision with: 4 1 0 0  and 8 4 1 0 
5899925		 # 	collision with: 1 3 0 0  and 3 3 0 0 
5899927		 # 	collision with: 0 5 1 0  and 1 5 1 0 
5899928		 # 	collision with: 4 7 0 0  and 5 7 0 0 
5899930		 # 	collision with: 1 0 1 0  and 2 0 1 0 
5899960		 # 	collision with: 6 8 2 0  and 9 0 0 1 
5899962		 # 	collision with: 1 2 0 0  and 10 10 1 0 
5899964		 # 	collision with: 2 9 0 0  and 4 9 0 0 
5899966		 # 	collision with: 1 2 0 0  and 10 3 1 0 
5899968		 # 	collision with: 4 10 0 0  and 6 10 0 0 
5899972		 # 	collision with: 1 3 0 0  and 3 3 0 0 
5899974		 # 	collision with: 1 2 1 0  and 10 4 2 0 
5899976		 # 	collision with: 0 5 0 0  and 1 5 0 0 
5899978		 # 	collision with: 2 7 0 0  and 0 5 1 0 
5899980		 # 	collision with: 3 4 0 0  and 5 4 0 0 
5899982		 # 	collision with: 4 1 1 0  and 0 4 3 0 
5899984		 # 	collision with: 4 7 0 0  and 5 7 0 0 
5899986		 # 	collision with: 9 9 0 0  and 7 7 1 0 
5899988		 # 	collision with: 2 6 0 0  and 3 6 0 0 
5899990		 # 	collision with: 4 2 0 0  and 2 1 1 0 
5899992		 # 	collision with: 0 8 0 0  and 2 8 0 0 
5899994		 # 	collision with: 1 2 0 0  and 10 2 1 0 
5899996		 # 	collision with: 3 1 0 0  and 4 1 0 0 
5899998		 # 	collision with: 10 1 1 0  and 10 3 1 0 
5900000		 # 	collision with: 5 2 0 0  and 6 2 0 0 
5900002		 # 	collision with: 10 1 2 0  and 10 3 2 0 
5900036		 # 	collision with: 0 8 0 0  and 2 8 0 0 
5900038		 # 	collision with: 7 3 0 0  and 1 0 2 0 
5900041		 # 	collision with: 1 3 0 0  and 3 3 0 0 
5900049		 # 	collision with: 4 7 0 0  and 5 7 0 0 
5900051		 # 	collision with: 3 4 1 0  and 3 4 2 0 
5900068		 # 	collision with: 3 4 0 0  and 5 4 0 0 
5900100		 # 	collision with: 4 10 0 0  and 6 10 0 0 
5900102		 # 	collision with: 1 3 0 0  and 8 0 1 0 
5900117		 # 	collision with: 0 5 0 0  and 1 5 0 0 
5900119		 # 	collision with: 10 0 3 0  and 10 2 3 0 
5900145		 # 	collision with: 3 1 0 0  and 4 1 0 0 
5900147		 # 	collision with: 7 0 0 0  and 3 1 1 0 
5900176		 # 	collision with: 5 2 0 0  and 6 2 0 0 
5900178		 # 	collision with: 2 0 1 0  and 7 3 2 0 
5900201		 # 	collision with: 0 8 0 0  and 2 8 0 0 
5900203		 # 	collision with: 8 1 0 0  and 10 3 1 0 
5900208		 # 	collision with: 2 6 0 0  and 3 6 0 0 
5900210		 # 	collision with: 8 3 0 0  and 1 0 1 0 
5900240		 # 	collision with: 0 5 0 0  and 1 5 0 0 
5900242		 # 	collision with: 2 7 0 0  and 0 5 1 0 
5900249		 # 	collision with: 0 5 0 0  and 1 5 0 0 
5900251		 # 	collision with: 10 6 0 0  and 1 2 1 0 
5900272		 # 	collision with: 2 9 0 0  and 4 9 0 0 
5900274		 # 	collision with: 5 3 0 0  and 10 0 1 0 
5900305		 # 	collision with: 1 3 0 0  and 3 3 0 0 
5900307		 # 	collision with: 5 10 0 0  and 3 2 1 0 
5900333		 # 	collision with: 0 8 0 0  and 2 8 0 0 
5900335		 # 	collision with: 6 6 1 0  and 10 3 2 0 
5900348		 # 	collision with: 3 1 0 0  and 4 1 0 0 
5900350		 # 	collision with: 10 1 1 0  and 10 3 1 0 
5900357		 # 	collision with: 4 7 0 0  and 5 7 0 0 
5900359		 # 	collision with: 5 10 0 0  and 9 6 1 0 
5900380		 # 	collision with: 4 7 0 0  and 5 7 0 0 
5900382		 # 	collision with: 7 7 1 0  and 3 4 2 0 
5900411		 # 	collision with: 1 3 1 0  and 3 3 1 0 
5900414		 # 	collision with: 4 7 1 0  and 5 7 1 0 
5900444		 # 	collision with: 5 8 6 0  and 1 1 0 1 
5900446		 # 	collision with: 0 9 0 0  and 8 7 1 0 
5900448		 # 	collision with: 0 8 0 0  and 2 8 0 0 
5900450		 # 	collision with: 3 7 0 0  and 8 3 2 0 
5900452		 # 	collision with: 3 4 0 0  and 5 4 0 0 
5900454		 # 	collision with: 1 1 0 0  and 9 6 1 0 
5900456		 # 	collision with: 4 10 0 0  and 6 10 0 0 
5900460		 # 	collision with: 5 2 0 0  and 6 2 0 0 
5900462		 # 	collision with: 8 0 0 0  and 5 7 1 0 
5900464		 # 	collision with: 2 6 0 0  and 3 6 0 0 
5900466		 # 	collision with: 5 1 0 0  and 2 1 1 0 
5900468		 # 	collision with: 0 5 0 0  and 1 5 0 0 
5900470		 # 	collision with: 2 5 1 0  and 10 3 2 0 
5900472		 # 	collision with: 2 9 0 0  and 4 9 0 0 
5900474		 # 	collision with: 5 3 1 0  and 2 5 2 0 
5900476		 # 	collision with: 3 1 0 0  and 4 1 0 0 
5900478		 # 	collision with: 10 3 1 0  and 10 5 1 0 
5900480		 # 	collision with: 4 7 0 0  and 5 7 0 0 
5900482		 # 	collision with: 9 2 0 0  and 6 0 1 0 
5900484		 # 	collision with: 1 3 0 0  and 3 3 0 0 
5900486		 # 	collision with: 10 8 1 0  and 4 0 3 0 
5900520		 # 	collision with: 3 1 0 0  and 4 1 0 0 
5900522		 # 	collision with: 8 2 0 0  and 8 2 1 0 
5900525		 # 	collision with: 0 8 0 0  and 2 8 0 0 
5900527		 # 	collision with: 4 3 0 0  and 0 3 1 0 
5900533		 # 	collision with: 3 4 0 0  and 5 4 0 0 
5900535		 # 	collision with: 0 6 0 0  and 6 7 1 0 
5900552		 # 	collision with: 2 6 0 0  and 3 6 0 0 
5900554		 # 	collision with: 3 7 0 0  and 0 6 1 0 
5900584		 # 	collision with: 3 4 0 0  and 5 4 0 0 
5900601		 # 	collision with: 6 3 0 0  and 4 5 0 0 
5900603		 # 	collision with: 5 6 1 0  and 5 6 3 0 
5900631		 # 	collision with: 1 10 0 0  and 6 2 1 0 
5900662		 # 	collision with: 1 2 0 0  and 4 0 1 0 
5900685		 # 	collision with: 1 3 0 0  and 3 3 0 0 
5900692		 # 	collision with: 2 9 0 0  and 4 9 0 0 
5900694		 # 	collision with: 6 6 0 0  and 10 2 2 0 
5900724		 # 	collision with: 5 2 0 0  and 6 2 0 0 
5900726		 # 	collision with: 1 0 1 0  and 2 0 2 0 
5900733		 # 	collision with: 6 3 0 0  and 4 5 0 0 
5900735		 # 	collision with: 1 10 0 0  and 9 10 1 0 
5900756		 # 	collision with: 0 8 0 0  and 2 8 0 0 
5900758		 # 	collision with: 10 6 0 0  and 5 3 1 0 
5900789		 # 	collision with: 0 8 0 0  and 2 8 0 0 
5900791		 # 	collision with: 4 3 0 0  and 0 3 1 0 
5900817		 # 	collision with: 1 3 0 0  and 3 3 0 0 
5900819		 # 	collision with: 3 1 0 0  and 6 2 1 0 
5900832		 # 	collision with: 4 7 0 0  and 5 7 0 0 
5900834		 # 	collision with: 7 9 1 0  and 10 2 2 0 
5900841		 # 	collision with: 3 4 0 0  and 5 4 0 0 
5900864		 # 	collision with: 0 5 0 0  and 1 5 0 0 
5900866		 # 	collision with: 1 9 0 0  and 2 6 1 0 
5900893		 # 	collision with: 4 10 0 0  and 6 10 0 0 
5900895		 # 	collision with: 3 1 1 0  and 4 1 1 0 
5900896		 # 	collision with: 4 10 0 0  and 6 10 0 0 
5900898		 # 	collision with: 3 6 0 0  and 0 2 1 0 
5900928		 # 	collision with: 2 10 7 0  and 0 0 0 1 
5900930		 # 	collision with: 8 10 0 0  and 4 3 1 0 
5900932		 # 	collision with: 4 7 0 0  and 5 7 0 0 
5900934		 # 	collision with: 4 1 0 0  and 0 4 1 0 
5900936		 # 	collision with: 2 9 0 0  and 4 9 0 0 
5900938		 # 	collision with: 10 8 1 0  and 6 6 2 0 
5900940		 # 	collision with: 2 6 0 0  and 3 6 0 0 
5900942		 # 	collision with: 10 3 0 0  and 2 5 2 0 
5900944		 # 	collision with: 4 10 0 0  and 6 10 0 0 
5900948		 # 	collision with: 0 8 0 0  and 2 8 0 0 
5900950		 # 	collision with: 5 7 0 0  and 8 0 2 0 
5900952		 # 	collision with: 1 3 0 0  and 3 3 0 0 
5900954		 # 	collision with: 1 1 0 0  and 8 2 1 0 
5900956		 # 	collision with: 3 1 0 0  and 4 1 0 0 
5900958		 # 	collision with: 10 0 1 0  and 10 1 1 0 
5900960		 # 	collision with: 0 5 0 0  and 1 5 0 0 
5900962		 # 	collision with: 2 2 0 0  and 9 2 1 0 
5900964		 # 	collision with: 5 2 0 0  and 6 2 0 0 
5900966		 # 	collision with: 3 8 0 0  and 10 2 1 0 
5900968		 # 	collision with: 3 4 0 0  and 5 4 0 0 
5900970		 # 	collision with: 1 10 0 0  and 8 4 1 0 
5901004		 # 	collision with: 0 5 0 0  and 1 5 0 0 
5901006		 # 	collision with: 5 4 0 0  and 6 10 1 0 
5901009		 # 	collision with: 5 2 0 0  and 6 2 0 0 
5901011		 # 	collision with: 1 0 1 0  and 2 0 2 0 
5901017		 # 	collision with: 3 1 0 0  and 4 1 0 0 
5901019		 # 	collision with: 6 1 0 0  and 4 4 1 0 
5901036		 # 	collision with: 0 8 0 0  and 2 8 0 0 
5901038		 # 	collision with: 1 2 0 0  and 10 10 1 0 
5901068		 # 	collision with: 2 9 0 0  and 4 9 0 0 
5901070		 # 	collision with: 5 10 0 0  and 3 2 1 0 
5901085		 # 	collision with: 2 3 0 0  and 3 4 0 0 
5901087		 # 	collision with: 9 5 0 0  and 9 5 2 0 
5901113		 # 	collision with: 0 8 0 0  and 2 8 0 0 
5901115		 # 	collision with: 4 7 0 0  and 2 2 1 0 
5901144		 # 	collision with: 3 4 0 0  and 5 4 0 0 
5901169		 # 	collision with: 8 3 0 0  and 2 4 0 0 
5901171		 # 	collision with: 10 4 0 0  and 10 5 1 0 
5901176		 # 	collision with: 3 1 0 0  and 4 1 0 0 
5901178		 # 	collision with: 10 0 1 0  and 10 1 1 0 
5901208		 # 	collision with: 4 10 0 0  and 6 10 0 0 
5901210		 # 	collision with: 6 9 0 0  and 5 1 1 0 
5901217		 # 	collision with: 2 3 0 0  and 3 4 0 0 
5901219		 # 	collision with: 3 5 0 0  and 6 9 1 0 
5901240		 # 	collision with: 4 7 0 0  and 5 7 0 0 
5901242		 # 	collision with: 4 1 0 0  and 0 4 1 0 
5901273		 # 	collision with: 5 2 0 0  and 6 2 0 0 
5901301		 # 	collision with: 8 3 0 0  and 2 4 0 0 
5901316		 # 	collision with: 5 2 0 0  and 6 2 0 0 
5901318		 # 	collision with: 5 3 0 0  and 5 3 1 0 
5901327		 # 	collision with: 10 3 1 0  and 10 4 1 0 
5901350		 # 	collision with: 8 0 0 0  and 0 1 2 0 
5901377		 # 	collision with: 0 8 0 0  and 2 8 0 0 
5901379		 # 	collision with: 5 0 0 0  and 4 3 1 0 
5901380		 # 	collision with: 2 6 0 0  and 3 6 0 0 
5901382		 # 	collision with: 4 3 0 0  and 1 4 1 0 
5901412		 # 	collision with: 3 10 4 0  and 3 1 0 1 
5901414		 # 	collision with: 7 1 0 0  and 2 2 1 0 
5901416		 # 	collision with: 2 6 0 0  and 3 6 0 0 
5901418		 # 	collision with: 1 10 0 0  and 7 0 1 0 
5901420		 # 	collision with: 1 3 0 0  and 3 3 0 0 
5901422		 # 	collision with: 3 3 2 0  and 9 2 3 0 
5901424		 # 	collision with: 5 2 0 0  and 6 2 0 0 
5901426		 # 	collision with: 4 0 0 0  and 10 2 1 0 
5901428		 # 	collision with: 4 7 0 0  and 5 7 0 0 
5901430		 # 	collision with: 4 0 0 0  and 10 3 1 0 
5901432		 # 	collision with: 4 10 0 0  and 6 10 0 0 
5901436		 # 	collision with: 3 1 0 0  and 4 1 0 0 
5901438		 # 	collision with: 10 2 1 0  and 10 3 1 0 
5901440		 # 	collision with: 3 4 0 0  and 5 4 0 0 
5901442		 # 	collision with: 8 0 0 0  and 9 2 2 0 
5901444		 # 	collision with: 2 9 0 0  and 4 9 0 0 
5901446		 # 	collision with: 9 1 0 0  and 4 5 1 0 
5901448		 # 	collision with: 0 8 0 0  and 2 8 0 0 
5901450		 # 	collision with: 1 9 0 0  and 2 6 2 0 
5901452		 # 	collision with: 0 5 0 0  and 1 5 0 0 
5901454		 # 	collision with: 7 2 0 0  and 2 1 1 0 
5901488		 # 	collision with: 2 9 0 0  and 4 9 0 0 
5901490		 # 	collision with: 0 4 1 0  and 2 3 2 0 
5901493		 # 	collision with: 9 2 0 0  and 1 4 0 0 
5901495		 # 	collision with: 0 8 0 0  and 8 2 1 0 
5901501		 # 	collision with: 2 9 0 0  and 4 9 0 0 
5901503		 # 	collision with: 4 4 1 0  and 3 2 2 0 
5901520		 # 	collision with: 4 10 0 0  and 6 10 0 0 
5901522		 # 	collision with: 1 10 0 0  and 7 0 2 0 
5901554		 # 	collision with: 1 2 0 0  and 10 10 1 0 
5901571		 # 	collision with: 3 6 0 0  and 0 2 2 0 
5901597		 # 	collision with: 8 2 0 0  and 9 4 0 0 
5901599		 # 	collision with: 10 2 0 0  and 10 4 0 0 
5901628		 # 	collision with: 0 5 0 0  and 1 5 0 0 
5901630		 # 	collision with: 0 1 0 0  and 5 7 2 0 
5901653		 # 	collision with: 3 4 0 0  and 5 4 0 0 
5901655		 # 	collision with: 3 9 0 0  and 0 3 2 0 
5901660		 # 	collision with: 3 4 0 0  and 5 4 0 0 
5901692		 # 	collision with: 4 7 0 0  and 5 7 0 0 
5901694		 # 	collision with: 2 10 0 0  and 9 0 1 0 
5901701		 # 	collision with: 9 2 0 0  and 7 4 0 0 
5901703		 # 	collision with: 10 5 0 0  and 10 0 1 0 
5901724		 # 	collision with: 2 6 0 0  and 3 6 0 0 
5901726		 # 	collision with: 6 7 0 0  and 7 3 1 0 
5901757		 # 	collision with: 9 2 0 0  and 1 4 0 0 
5901759		 # 	collision with: 8 1 0 0  and 4 0 2 0 
5901785		 # 	collision with: 3 4 0 0  and 5 4 0 0 
5901787		 # 	collision with: 1 0 1 0  and 2 0 2 0 
5901800		 # 	collision with: 0 8 0 0  and 2 8 0 0 
5901802		 # 	collision with: 8 4 0 0  and 4 1 1 0 
5901809		 # 	collision with: 2 9 0 0  and 4 9 0 0 
5901811		 # 	collision with: 9 2 1 0  and 2 2 2 0 
5901832		 # 	collision with: 3 1 0 0  and 4 1 0 0 
5901834		 # 	collision with: 0 10 0 0  and 5 3 1 0 
5901861		 # 	collision with: 8 2 0 0  and 9 4 0 0 
5901863		 # 	collision with: 10 2 0 0  and 10 4 0 0 
5901864		 # 	collision with: 5 2 0 0  and 6 2 0 0 
5901866		 # 	collision with: 2 6 1 0  and 3 6 1 0 
5901896		 # 	collision with: 4 10 1 0  and 0 0 0 1 
5901898		 # 	collision with: 4 10 0 0  and 9 9 1 0 
5901900		 # 	collision with: 0 5 0 0  and 1 5 0 0 
5901902		 # 	collision with: 7 6 0 0  and 6 1 2 0 
5901904		 # 	collision with: 0 8 0 0  and 2 8 0 0 
5901906		 # 	collision with: 7 1 1 0  and 1 3 2 0 
5901908		 # 	collision with: 2 9 0 0  and 4 9 0 0 
5901910		 # 	collision with: 3 8 0 0  and 8 1 1 0 
5901912		 # 	collision with: 3 4 0 0  and 5 4 0 0 
5901914		 # 	collision with: 6 8 0 0  and 0 2 1 0 
5901916		 # 	collision with: 3 1 0 0  and 4 1 0 0 
5901918		 # 	collision with: 10 4 1 0  and 10 5 1 0 
5901920		 # 	collision with: 4 10 0 0  and 6 10 0 0 
5901924		 # 	collision with: 4 7 0 0  and 5 7 0 0 
5901926		 # 	collision with: 3 2 0 0  and 2 8 2 0 
5901928		 # 	collision with: 5 2 0 0  and 6 2 0 0 
5901930		 # 	collision with: 10 1 0 0  and 4 0 1 0 
5901932		 # 	collision with: 1 3 0 0  and 3 3 0 0 
5901934		 # 	collision with: 1 7 0 0  and 6 9 1 0 
5901936		 # 	collision with: 2 6 0 0  and 3 6 0 0 
5901938		 # 	collision with: 10 0 0 0  and 9 4 2 0 
5901972		 # 	collision with: 5 2 0 0  and 6 2 0 0 
5901974		 # 	collision with: 10 0 2 0  and 10 1 2 0 
5901977		 # 	collision with: 3 1 0 0  and 4 1 0 0 
5901979		 # 	collision with: 9 2 0 0  and 1 3 1 0 
5901985		 # 	collision with: 2 6 0 0  and 3 6 0 0 
5901987		 # 	collision with: 0 1 1 0  and 7 1 2 0 
5902004		 # 	collision with: 3 1 0 0  and 4 1 0 0 
5902006		 # 	collision with: 0 1 0 0  and 9 2 1 0 
5902036		 # 	collision with: 0 8 0 0  and 2 8 0 0 
5902038		 # 	collision with: 5 8 0 0  and 8 8 1 0 
5902053		 # 	collision with: 10 2 0 0  and 9 3 0 0 
5902055		 # 	collision with: 3 10 0 0  and 6 4 2 0 
5902081		 # 	collision with: 3 4 0 0  and 5 4 0 0 
5902083		 # 	collision with: 8 10 0 0  and 9 0 1 0 
5902112		 # 	collision with: 2 6 0 0  and 3 6 0 0 
5902114		 # 	collision with: 1 2 0 0  and 10 10 1 0 
5902137		 # 	collision with: 4 2 0 0  and 5 3 0 0 
5902139		 # 	collision with: 10 2 0 0  and 10 3 0 0 
5902144		 # 	collision with: 4 7 0 0  and 5 7 0 0 
5902146		 # 	collision with: 1 0 1 0  and 2 0 2 0 
5902176		 # 	collision with: 3 4 0 0  and 5 4 0 0 
5902185		 # 	collision with: 10 2 0 0  and 9 3 0 0 
5902187		 # 	collision with: 0 8 0 0  and 3 2 2 0 
5902208		 # 	collision with: 0 5 0 0  and 1 5 0 0 
5902210		 # 	collision with: 1 2 0 0  and 9 4 1 0 
5902241		 # 	collision with: 3 1 0 0  and 4 1 0 0 
5902243		 # 	collision with: 3 5 0 0  and 5 1 1 0 
5902271		 # 	collision with: 10 2 0 0  and 10 3 0 0 
5902286		 # 	collision with: 7 10 0 0  and 5 8 1 0 
5902293		 # 	collision with: 2 6 0 0  and 3 6 0 0 
5902295		 # 	collision with: 3 5 0 0  and 4 2 1 0 
5902316		 # 	collision with: 4 10 0 0  and 6 10 0 0 
5902318		 # 	collision with: 2 3 0 0  and 4 1 1 0 
5902345		 # 	collision with: 3 4 0 0  and 5 4 0 0 
5902347		 # 	collision with: 9 1 1 0  and 0 2 1 0 
5902348		 # 	collision with: 2 9 0 0  and 4 9 0 0 
5902350		 # 	collision with: 5 2 1 0  and 6 2 1 0 
5902380		 # 	collision with: 1 7 1 0  and 1 0 0 1 
5902382		 # 	collision with: 9 5 0 0  and 2 1 1 0 
5902384		 # 	collision with: 3 4 0 0  and 5 4 0 0 
5902386		 # 	collision with: 1 4 0 0  and 9 0 2 0 
5902388		 # 	collision with: 5 2 0 0  and 6 2 0 0 
5902390		 # 	collision with: 1 4 0 0  and 5 0 1 0 
5902392		 # 	collision with: 0 5 0 0  and 1 5 0 0 
5902394		 # 	collision with: 9 6 0 0  and 2 8 1 0 
5902396		 # 	collision with: 3 1 0 0  and 4 1 0 0 
5902398		 # 	collision with: 10 0 1 0  and 10 2 1 0 
5902400		 # 	collision with: 1 3 0 0  and 3 3 0 0 
5902402		 # 	collision with: 2 7 0 0  and 6 10 1 0 
5902404		 # 	collision with: 0 8 0 0  and 2 8 0 0 
5902406		 # 	collision with: 2 5 0 0  and 10 5 2 0 
5902408		 # 	collision with: 4 10 0 0  and 6 10 0 0 
5902412		 # 	collision with: 2 6 0 0  and 3 6 0 0 
5902414		 # 	collision with: 4 1 1 0  and 8 4 2 0 
5902416		 # 	collision with: 2 9 0 0  and 4 9 0 0 
5902418		 # 	collision with: 7 4 1 0  and 0 3 2 0 
5902420		 # 	collision with: 4 7 0 0  and 5 7 0 0 
5902422		 # 	collision with: 0 2 0 0  and 4 5 1 0 
5902456		 # 	collision with: 2 6 0 0  and 3 6 0 0 
5902458		 # 	collision with: 10 6 0 0  and 7 9 1 0 
5902461		 # 	collision with: 10 1 0 0  and 1 3 0 0 
5902463		 # 	collision with: 5 9 0 0  and 4 5 1 0 
5902471		 # 	collision with: 10 4 1 0  and 4 0 2 0 
5902490		 # 	collision with: 10 9 0 0  and 1 2 1 0 
5902520		 # 	collision with: 5 2 0 0  and 6 2 0 0 
5902522		 # 	collision with: 10 1 2 0  and 10 2 2 0 
5902537		 # 	collision with: 0 1 0 0  and 4 3 0 0 
5902565		 # 	collision with: 5 2 0 0  and 6 2 0 0 
5902596		 # 	collision with: 4 7 0 0  and 5 7 0 0 
5902598		 # 	collision with: 4 1 0 0  and 6 2 1 0 
5902621		 # 	collision with: 8 1 0 0  and 1 3 0 0 
5902623		 # 	collision with: 9 6 0 0  and 2 8 1 0 
5902628		 # 	collision with: 4 10 0 0  and 6 10 0 0 
5902630		 # 	collision with: 6 2 0 0  and 9 10 1 0 
5902660		 # 	collision with: 3 1 0 0  and 4 1 0 0 
5902662		 # 	collision with: 10 0 1 0  and 10 2 1 0 
5902669		 # 	collision with: 0 1 0 0  and 4 3 0 0 
5902671		 # 	collision with: 10 5 0 0  and 7 9 2 0 
5902692		 # 	collision with: 3 4 0 0  and 5 4 0 0 
5902725		 # 	collision with: 10 1 0 0  and 1 3 0 0 
5902727		 # 	collision with: 9 10 0 0  and 6 2 2 0 
5902753		 # 	collision with: 8 1 0 0  and 1 3 0 0 
5902755		 # 	collision with: 10 9 0 0  and 10 2 1 0 
5902768		 # 	collision with: 2 9 0 0  and 4 9 0 0 
5902770		 # 	collision with: 3 9 1 0  and 7 4 2 0 
5902777		 # 	collision with: 9 1 0 0  and 2 3 0 0 
5902779		 # 	collision with: 1 3 1 0  and 0 1 2 0 
5902800		 # 	collision with: 0 8 0 0  and 2 8 0 0 
5902802		 # 	collision with: 10 9 0 0  and 8 1 1 0 
5902829		 # 	collision with: 5 2 0 0  and 6 2 0 0 
5902831		 # 	collision with: 3 4 1 0  and 5 4 1 0 
5902832		 # 	collision with: 0 5 0 0  and 1 5 0 0 
5902834		 # 	collision with: 7 4 0 0  and 9 0 1 0 
5902864		 # 	collision with: 5 1 9 0  and 0 0 0 1 
5902866		 # 	collision with: 7 9 0 0  and 10 0 1 0 
5902868		 # 	collision with: 1 3 0 0  and 3 3 0 0 
5902870		 # 	collision with: 9 6 0 0  and 1 1 1 0 
5902872		 # 	collision with: 4 7 0 0  and 5 7 0 0 
5902874		 # 	collision with: 4 8 1 0  and 7 3 2 0 
5902876		 # 	collision with: 3 1 0 0  and 4 1 0 0 
5902878		 # 	collision with: 7 9 0 0  and 10 2 1 0 
5902880		 # 	collision with: 2 9 0 0  and 4 9 0 0 
5902882		 # 	collision with: 8 4 0 0  and 0 4 1 0 
5902884		 # 	collision with: 0 5 0 0  and 1 5 0 0 
5902886		 # 	collision with: 3 9 0 0  and 9 0 2 0 
5902888		 # 	collision with: 2 6 0 0  and 3 6 0 0 
5902890		 # 	collision with: 8 0 0 0  and 3 3 2 0 
5902892		 # 	collision with: 5 2 0 0  and 6 2 0 0 
5902894		 # 	collision with: 8 0 1 0  and 0 1 2 0 
5902896		 # 	collision with: 4 10 0 0  and 6 10 0 0 
5902900		 # 	collision with: 3 4 0 0  and 5 4 0 0 
5902902		 # 	collision with: 8 5 0 0  and 0 2 1 0 
5902904		 # 	collision with: 0 8 0 0  and 2 8 0 0 
5902906		 # 	collision with: 0 9 1 0  and 3 5 2 0 
5902940		 # 	collision with: 4 10 0 0  and 6 10 0 0 
5902942		 # 	collision with: 6 6 0 0  and 10 4 1 0 
5902945		 # 	collision with: 0 0 0 0  and 3 0 0 0 
5902947		 # 	collision with: 5 7 0 0  and 6 0 2 0 
5902953		 # 	collision with: 0 0 0 0  and 3 0 0 0 
5902972		 # 	collision with: 0 5 0 0  and 1 5 0 0 
5902974		 # 	collision with: 6 10 0 0  and 3 4 1 0 
5903004		 # 	collision with: 4 7 0 0  and 5 7 0 0 
5903006		 # 	collision with: 10 0 0 0  and 6 6 1 0 
5903021		 # 	collision with: 0 0 0 0  and 3 0 0 0 
5903023		 # 	collision with: 1 9 0 0  and 9 1 1 0 
5903049		 # 	collision with: 0 0 0 0  and 3 0 0 0 
5903051		 # 	collision with: 5 7 0 0  and 8 0 1 0 
5903080		 # 	collision with: 0 8 0 0  and 2 8 0 0 
5903082		 # 	collision with: 10 10 0 0  and 7 9 1 0 
5903105		 # 	collision with: 0 0 0 0  and 3 0 0 0 
5903107		 # 	collision with: 1 1 0 0  and 6 1 1 0 
5903112		 # 	collision with: 5 2 0 0  and 6 2 0 0 
5903114		 # 	collision with: 10 9 0 0  and 4 0 1 0 
5903144		 # 	collision with: 2 9 0 0  and 4 9 0 0 
5903146		 # 	collision with: 8 4 0 0  and 0 4 1 0 
5903153		 # 	collision with: 0 0 0 0  and 3 0 0 0 
5903178		 # 	collision with: 0 1 1 0  and 9 2 2 0 
5903211		 # 	collision with: 7 3 0 0  and 8 3 1 0 
5903237		 # 	collision with: 0 0 0 0  and 3 0 0 0 
5903239		 # 	collision with: 8 2 0 0  and 6 1 1 0 
5903252		 # 	collision with: 3 4 0 0  and 5 4 0 0 
5903261		 # 	collision with: 0 0 0 0  and 3 0 0 0 
5903263		 # 	collision with: 10 1 0 0  and 10 2 0 0 
5903284		 # 	collision with: 2 6 0 0  and 3 6 0 0 
5903286		 # 	collision with: 2 8 0 0  and 6 1 1 0 
5903313		 # 	collision with: 0 0 0 0  and 3 0 0 0 
5903315		 # 	collision with: 7 0 1 0  and 3 1 1 0 
5903316		 # 	collision with: 3 1 0 0  and 4 1 0 0 
5903318		 # 	collision with: 8 1 1 0  and 1 2 1 0 
5903348		 # 	collision with: 7 8 5 0  and 6 1 0 1 
5903350		 # 	collision with: 9 0 0 0  and 0 3 1 0 
5903352		 # 	collision with: 5 2 0 0  and 6 2 0 0 
5903354		 # 	collision with: 3 2 0 0  and 5 10 1 0 
5903356		 # 	collision with: 3 1 0 0  and 4 1 0 0 
5903358		 # 	collision with: 10 4 1 0  and 10 6 1 0 
5903360		 # 	collision with: 0 8 0 0  and 2 8 0 0 
5903362		 # 	collision with: 0 3 0 0  and 2 10 1 0 
5903364		 # 	collision with: 2 6 0 0  and 3 6 0 0 
5903366		 # 	collision with: 3 4 0 0  and 5 4 1 0 
5903368		 # 	collision with: 4 7 0 0  and 5 7 0 0 
5903370		 # 	collision with: 1 8 0 0  and 3 0 1 0 
5903372		 # 	collision with: 3 4 0 0  and 5 4 0 0 
5903374		 # 	collision with: 6 6 0 0  and 8 1 1 0 
5903376		 # 	collision with: 0 5 0 0  and 1 5 0 0 
5903378		 # 	collision with: 3 10 0 0  and 5 8 1 0 
5903380		 # 	collision with: 1 3 0 0  and 3 3 0 0 
5903382		 # 	collision with: 7 0 0 0  and 9 10 1 0 
5903384		 # 	collision with: 4 10 0 0  and 6 10 0 0 
5903388		 # 	collision with: 2 9 0 0  and 4 9 0 0 
5903390		 # 	collision with: 2 2 0 0  and 4 7 1 0 
5903426		 # 	collision with: 6 3 0 0  and 4 9 1 0 
5903431		 # 	collision with: 10 1 1 0  and 10 3 1 0 
5903437		 # 	collision with: 10 0 0 0  and 9 2 0 0 
5903439		 # 	collision with: 2 0 1 0  and 1 0 2 0 
5903456		 # 	collision with: 4 7 0 0  and 5 7 0 0 
5903458		 # 	collision with: 2 9 1 0  and 3 0 3 0 
5903488		 # 	collision with: 3 1 0 0  and 4 1 0 0 
5903490		 # 	collision with: 10 4 1 0  and 10 6 1 0 
5903505		 # 	collision with: 3 1 0 0  and 4 1 0 0 
5903507		 # 	collision with: 7 2 0 0  and 2 1 1 0 
5903533		 # 	collision with: 10 0 0 0  and 2 2 0 0 
5903535		 # 	collision with: 8 0 0 0  and 4 7 1 0 
5903564		 # 	collision with: 2 9 0 0  and 4 9 0 0 
5903566		 # 	collision with: 2 6 0 0  and 3 6 1 0 
5903589		 # 	collision with: 2 6 0 0  and 3 6 0 0 
5903591		 # 	collision with: 6 5 0 0  and 3 9 1 0 
5903596		 # 	collision with: 0 5 0 0  and 1 5 0 0 
5903598		 # 	collision with: 3 8 0 0  and 10 0 1 0 
5903628		 # 	collision with: 2 6 0 0  and 3 6 0 0 
5903630		 # 	collision with: 7 10 1 0  and 9 7 2 0 
5903637		 # 	collision with: 3 1 0 0  and 4 1 0 0 
5903639		 # 	collision with: 2 0 1 0  and 1 0 2 0 
5903660		 # 	collision with: 5 2 0 0  and 6 2 0 0 
5903662		 # 	collision with: 8 5 0 0  and 4 5 1 0 
5903693		 # 	collision with: 2 0 0 0  and 8 2 0 0 
5903695		 # 	collision with: 9 10 0 0  and 4 1 1 0 
5903721		 # 	collision with: 2 6 0 0  and 3 6 0 0 
5903723		 # 	collision with: 2 6 0 0  and 4 5 1 0 
5903736		 # 	collision with: 4 10 0 0  and 6 10 0 0 
5903738		 # 	collision with: 0 2 1 0  and 4 5 2 0 
5903745		 # 	collision with: 10 0 0 0  and 9 2 0 0 
5903747		 # 	collision with: 6 3 0 0  and 4 9 1 0 
5903768		 # 	collision with: 3 4 0 0  and 5 4 0 0 
5903797		 # 	collision with: 10 0 0 0  and 2 2 0 0 
5903800		 # 	collision with: 0 8 0 0  and 2 8 0 0 
5903802		 # 	collision with: 3 1 1 0  and 4 1 1 0 
5903832		 # 	collision with: 0 1 8 0  and 8 0 0 1 
5903834		 # 	collision with: 1 0 1 0  and 2 0 2 0 
5903836		 # 	collision with: 3 1 0 0  and 4 1 0 0 
5903838		 # 	collision with: 10 1 1 0  and 10 2 1 0 
5903840		 # 	collision with: 2 6 0 0  and 3 6 0 0 
5903842		 # 	collision with: 9 4 0 0  and 10 1 1 0 
5903844		 # 	collision with: 3 4 0 0  and 5 4 0 0 
5903846		 # 	collision with: 0 0 0 0  and 1 8 1 0 
5903848		 # 	collision with: 1 3 0 0  and 3 3 0 0 
5903850		 # 	collision with: 4 2 0 0  and 5 1 1 0 
5903852		 # 	collision with: 2 9 0 0  and 4 9 0 0 
5903854		 # 	collision with: 4 6 0 0  and 5 8 1 0 
5903856		 # 	collision with: 5 2 0 0  and 6 2 0 0 
5903858		 # 	collision with: 1 0 1 0  and 2 0 2 0 
5903860		 # 	collision with: 0 8 0 0  and 2 8 0 0 
5903862		 # 	collision with: 1 0 1 0  and 2 0 2 0 
5903864		 # 	collision with: 4 7 0 0  and 5 7 0 0 
5903866		 # 	collision with: 10 1 0 0  and 0 10 1 0 
5903868		 # 	collision with: 0 5 0 0  and 1 5 0 0 
5903870		 # 	collision with: 1 0 1 0  and 2 0 2 0 
5903872		 # 	collision with: 4 10 0 0  and 6 10 0 0 
5903908		 # 	collision with: 4 7 0 0  and 5 7 0 0 
5903910		 # 	collision with: 10 1 0 0  and 0 10 1 0 
5903913		 # 	collision with: 3 0 0 0  and 0 1 0 0 
5903915		 # 	collision with: 2 9 0 0  and 0 0 2 0 
5903921		 # 	collision with: 3 0 0 0  and 0 1 0 0 
5903923		 # 	collision with: 10 8 0 0  and 7 9 1 0 
5903940		 # 	collision with: 2 9 0 0  and 4 9 0 0 
5903942		 # 	collision with: 1 6 0 0  and 8 8 1 0 
5903972		 # 	collision with: 2 6 0 0  and 3 6 0 0 
5903974		 # 	collision with: 9 4 0 0  and 8 1 1 0 
5903989		 # 	collision with: 3 0 0 0  and 0 1 0 0 
5903991		 # 	collision with: 10 0 0 0  and 10 1 0 0 
24.0902secs	11572
