# prime 11
# degree 2
# input variables 3
# output variables 5
# reload computed balance functions from file balance-2466of3248-p11d2m3-debug.log
# p = 11
# n = 5
# smalldomain p^m 1331
# domain p^n 161051
#	 p^2 = 121
#	 p^3 = 1331
#	 p^4 = 14641
#	 p^5 = 161051
#	 p^6 = 1771561
#	 p^7 = 19487171
#	 p^8 = 214358881
#	 p^9 = 2357947691
opening file : balance-2466of3248-p11d2m3-debug.log
reloading for step2...
14796022		 # 	collision with: 2 2 2 0 0  and 3 2 2 0 0 
14796023		 # 	collision with: 2 2 2 0 0  and 2 4 2 0 0 
14796098		 # 	collision with: 4 3 1 0 0  and 4 4 1 0 0 
14796099		 # 	collision with: 4 4 4 0 0  and 4 4 6 0 0 
14796130		 # 	collision with: 9 1 3 0 0  and 9 3 3 0 0 
14796131		 # 	collision with: 9 5 3 0 0  and 7 6 3 0 0 
14796162		 # 	collision with: 2 2 4 0 0  and 3 2 4 0 0 
14796163		 # 	collision with: 10 4 0 0 0  and 10 6 0 0 0 
14796194		 # 	collision with: 2 2 9 0 0  and 3 2 9 0 0 
14796195		 # 	collision with: 2 2 2 0 0  and 3 2 2 0 0 
14796270		 # 	collision with: 10 4 6 0 0  and 10 6 6 0 0 
14796271		 # 	collision with: 0 4 0 0 0  and 5 6 0 0 0 
14796302		 # 	collision with: 2 2 1 0 0  and 3 2 1 0 0 
14796303		 # 	collision with: 6 3 4 0 0  and 6 5 4 0 0 
14796334		 # 	collision with: 5 0 7 0 0  and 0 2 7 0 0 
14796335		 # 	collision with: 2 2 1 0 0  and 3 2 1 0 0 
14796364		 # 	collision with: 9 2 9 0 0  and 6 4 0 1 0 
14796366		 # 	collision with: 4 4 1 0 0  and 10 9 3 1 0 
14796367		 # 	collision with: 8 4 8 0 0  and 8 5 8 0 0 
14796442		 # 	collision with: 2 2 4 0 0  and 3 2 4 0 0 
14796443		 # 	collision with: 10 0 1 0 0  and 6 1 1 0 0 
14796474		 # 	collision with: 8 4 4 0 0  and 8 5 4 0 0 
14796475		 # 	collision with: 0 4 2 0 0  and 5 6 2 0 0 
14796506		 # 	collision with: 2 2 9 0 0  and 3 2 9 0 0 
14796507		 # 	collision with: 2 2 0 0 0  and 3 2 0 0 0 
14796582		 # 	collision with: 2 2 0 0 0  and 3 2 0 0 0 
14796583		 # 	collision with: 8 4 0 0 0  and 8 5 0 0 0 
14796614		 # 	collision with: 3 0 6 0 0  and 3 1 6 0 0 
14796615		 # 	collision with: 3 2 2 0 0  and 2 4 2 0 0 
14796646		 # 	collision with: 2 2 2 0 0  and 3 2 2 0 0 
14796647		 # 	collision with: 2 2 3 0 0  and 3 2 3 0 0 
14796678		 # 	collision with: 2 2 1 0 0  and 3 2 1 0 0 
14796679		 # 	collision with: 5 2 4 0 0  and 0 3 4 0 0 
14796754		 # 	collision with: 3 0 1 0 0  and 3 1 1 0 0 
14796755		 # 	collision with: 2 2 1 0 0  and 3 2 1 0 0 
14796786		 # 	collision with: 2 2 7 0 0  and 3 2 7 0 0 
14796787		 # 	collision with: 2 2 4 0 0  and 3 2 4 0 0 
14796818		 # 	collision with: 9 3 3 0 0  and 7 5 3 0 0 
14796819		 # 	collision with: 2 2 2 0 0  and 3 2 2 0 0 
14796848		 # 	collision with: 7 0 6 0 0  and 3 10 0 1 0 
14796850		 # 	collision with: 4 1 7 0 0  and 0 6 1 1 0 
14796851		 # 	collision with: 6 3 1 0 0  and 6 5 1 0 0 
14796926		 # 	collision with: 5 2 1 0 0  and 0 3 1 0 0 
14796927		 # 	collision with: 2 2 3 0 0  and 2 4 3 0 0 
14796958		 # 	collision with: 5 0 6 0 0  and 5 2 6 0 0 
14796959		 # 	collision with: 7 1 1 0 0  and 7 2 1 0 0 
14796990		 # 	collision with: 5 0 4 0 0  and 0 2 4 0 0 
14796991		 # 	collision with: 9 1 2 0 0  and 9 3 2 0 0 
14797066		 # 	collision with: 7 1 3 0 0  and 7 2 3 0 0 
14797067		 # 	collision with: 9 3 0 0 0  and 7 5 0 0 0 
14797098		 # 	collision with: 2 2 1 0 0  and 3 2 1 0 0 
14797099		 # 	collision with: 2 2 0 0 0  and 3 2 0 0 0 
14797130		 # 	collision with: 2 2 0 0 0  and 3 2 0 0 0 
14797131		 # 	collision with: 2 2 1 0 0  and 3 2 1 0 0 
14797162		 # 	collision with: 2 2 4 0 0  and 3 2 4 0 0 
14797163		 # 	collision with: 9 1 4 0 0  and 9 3 4 0 0 
14797238		 # 	collision with: 2 2 7 0 0  and 3 2 7 0 0 
14797239		 # 	collision with: 6 3 0 0 0  and 6 5 0 0 0 
14797270		 # 	collision with: 2 2 2 0 0  and 3 2 2 0 0 
14797271		 # 	collision with: 3 0 3 0 0  and 3 1 3 0 0 
14797302		 # 	collision with: 2 2 9 0 0  and 3 2 9 0 0 
14797303		 # 	collision with: 2 2 3 0 0  and 3 2 3 0 0 
14797332		 # 	collision with: 7 4 0 0 0  and 6 2 1 1 0 
14797334		 # 	collision with: 4 1 10 0 0  and 2 2 0 1 0 
14797335		 # 	collision with: 2 3 3 0 0  and 3 4 3 0 0 
14797410		 # 	collision with: 2 2 2 0 0  and 3 2 2 0 0 
14797411		 # 	collision with: 1 3 3 0 0  and 1 8 4 0 0 
14797442		 # 	collision with: 2 2 4 0 0  and 3 2 4 0 0 
14797443		 # 	collision with: 2 3 0 0 0  and 3 4 0 0 0 
14797474		 # 	collision with: 2 2 1 0 0  and 3 2 1 0 0 
14797475		 # 	collision with: 7 1 2 0 0  and 7 2 2 0 0 
14797550		 # 	collision with: 3 0 4 0 0  and 3 1 4 0 0 
14797551		 # 	collision with: 2 2 1 0 0  and 3 2 1 0 0 
14797582		 # 	collision with: 2 2 1 0 0  and 2 4 1 0 0 
14797583		 # 	collision with: 4 3 0 0 0  and 4 4 0 0 0 
14797614		 # 	collision with: 2 2 9 0 0  and 3 2 9 0 0 
14797615		 # 	collision with: 4 7 3 0 0  and 1 6 4 0 0 
14797646		 # 	collision with: 2 2 7 0 0  and 3 2 7 0 0 
14797647		 # 	collision with: 2 2 0 0 0  and 3 2 0 0 0 
14797722		 # 	collision with: 2 2 0 0 0  and 3 2 0 0 0 
14797723		 # 	collision with: 5 0 3 0 0  and 0 2 3 0 0 
14797754		 # 	collision with: 3 0 3 0 0  and 3 1 3 0 0 
14797755		 # 	collision with: 9 4 3 0 0  and 9 0 4 0 0 
14797786		 # 	collision with: 7 1 6 0 0  and 9 2 6 0 0 
14797787		 # 	collision with: 2 2 3 0 0  and 2 2 4 0 0 
14797816		 # 	collision with: 3 4 8 0 0  and 10 3 0 1 0 
14797818		 # 	collision with: 8 0 8 0 0  and 3 1 0 1 0 
14797819		 # 	collision with: 3 2 4 0 0  and 2 4 4 0 0 
14797894		 # 	collision with: 2 2 1 0 0  and 3 2 1 0 0 
14797895		 # 	collision with: 6 6 2 0 0  and 6 2 4 0 0 
14797926		 # 	collision with: 2 2 9 0 0  and 3 2 9 0 0 
14797927		 # 	collision with: 2 2 1 0 0  and 3 2 1 0 0 
14797958		 # 	collision with: 0 4 3 0 0  and 5 6 3 0 0 
14797959		 # 	collision with: 5 0 2 0 0  and 5 2 2 0 0 
14798034		 # 	collision with: 2 2 2 0 0  and 3 2 2 0 0 
14798035		 # 	collision with: 4 3 1 0 0  and 4 4 1 0 0 
14798066		 # 	collision with: 10 0 4 0 0  and 6 1 4 0 0 
14798067		 # 	collision with: 3 2 0 0 0  and 2 4 0 0 0 
14798098		 # 	collision with: 2 2 7 0 0  and 3 2 7 0 0 
14798099		 # 	collision with: 5 0 1 0 0  and 5 2 1 0 0 
14798130		 # 	collision with: 7 1 6 0 0  and 7 2 6 0 0 
14798131		 # 	collision with: 2 2 0 0 0  and 2 4 0 0 0 
14798206		 # 	collision with: 2 2 4 0 0  and 3 2 4 0 0 
14798207		 # 	collision with: 2 2 2 0 0  and 3 2 2 0 0 
14798238		 # 	collision with: 5 0 1 0 0  and 0 2 1 0 0 
14798239		 # 	collision with: 2 2 0 0 0  and 3 2 0 0 0 
14798270		 # 	collision with: 2 2 0 0 0  and 3 2 0 0 0 
14798271		 # 	collision with: 5 6 2 0 0  and 0 1 4 0 0 
14798300		 # 	collision with: 10 7 3 0 0  and 3 8 0 1 0 
14798302		 # 	collision with: 2 0 3 0 0  and 8 10 0 1 0 
14798303		 # 	collision with: 2 2 0 0 0  and 3 2 0 0 0 
14798378		 # 	collision with: 2 2 0 0 0  and 3 2 0 0 0 
14798379		 # 	collision with: 8 8 2 0 0  and 8 8 3 0 0 
14798410		 # 	collision with: 7 1 1 0 0  and 7 2 1 0 0 
14798411		 # 	collision with: 2 4 2 0 0  and 2 4 3 0 0 
14798442		 # 	collision with: 2 2 4 0 0  and 3 2 4 0 0 
14798443		 # 	collision with: 3 0 2 0 0  and 3 1 2 0 0 
14798518		 # 	collision with: 6 3 6 0 0  and 6 5 6 0 0 
14798519		 # 	collision with: 3 2 2 0 0  and 2 2 3 0 0 
14798550		 # 	collision with: 2 2 7 0 0  and 3 2 7 0 0 
14798551		 # 	collision with: 7 9 2 0 0  and 9 1 3 0 0 
14798582		 # 	collision with: 7 1 4 0 0  and 9 2 4 0 0 
14798583		 # 	collision with: 6 3 2 0 0  and 6 5 3 0 0 
14798614		 # 	collision with: 2 2 2 0 0  and 3 2 2 0 0 
14798615		 # 	collision with: 3 7 2 0 0  and 3 5 3 0 0 
14798690		 # 	collision with: 3 2 3 0 0  and 2 4 3 0 0 
14798691		 # 	collision with: 5 2 0 0 0  and 0 3 0 0 0 
14798722		 # 	collision with: 2 2 9 0 0  and 3 2 9 0 0 
14798723		 # 	collision with: 0 4 1 0 0  and 5 6 1 0 0 
14798754		 # 	collision with: 2 2 1 0 0  and 3 2 1 0 0 
14798755		 # 	collision with: 8 3 2 0 0  and 8 3 3 0 0 
14798784		 # 	collision with: 3 7 2 0 0  and 0 2 1 1 0 
14798786		 # 	collision with: 3 6 1 0 0  and 1 5 0 1 0 
14798787		 # 	collision with: 5 9 1 0 0  and 5 4 3 0 0 
14798862		 # 	collision with: 8 4 6 0 0  and 8 5 6 0 0 
14798863		 # 	collision with: 3 2 1 0 0  and 2 2 3 0 0 
14798894		 # 	collision with: 7 1 3 0 0  and 9 2 3 0 0 
14798895		 # 	collision with: 2 2 0 0 0  and 3 2 0 0 0 
14798926		 # 	collision with: 2 2 0 0 0  and 3 2 0 0 0 
14798927		 # 	collision with: 2 2 2 0 0  and 3 2 2 0 0 
14799002		 # 	collision with: 2 2 7 0 0  and 3 2 7 0 0 
14799003		 # 	collision with: 2 2 3 0 0  and 3 2 3 0 0 
14799034		 # 	collision with: 2 2 9 0 0  and 3 2 9 0 0 
14799035		 # 	collision with: 9 3 1 0 0  and 7 5 1 0 0 
14799066		 # 	collision with: 10 0 1 0 0  and 6 1 1 0 0 
14799067		 # 	collision with: 1 4 1 0 0  and 1 4 3 0 0 
14799098		 # 	collision with: 5 2 4 0 0  and 0 3 4 0 0 
14799099		 # 	collision with: 1 5 1 0 0  and 1 5 3 0 0 
14799174		 # 	collision with: 2 2 1 0 0  and 3 2 1 0 0 
14799175		 # 	collision with: 8 7 1 0 0  and 8 2 3 0 0 
14799206		 # 	collision with: 2 2 4 0 0  and 3 2 4 0 0 
14799207		 # 	collision with: 2 2 1 0 0  and 3 2 1 0 0 
14799238		 # 	collision with: 2 2 2 0 0  and 3 2 2 0 0 
14799239		 # 	collision with: 9 1 0 0 0  and 9 3 0 0 0 
14799268		 # 	collision with: 3 0 5 0 0  and 7 1 0 1 0 
14799270		 # 	collision with: 1 4 6 0 0  and 9 0 1 1 0 
14799271		 # 	collision with: 10 1 1 0 0  and 10 9 2 0 0 
14799346		 # 	collision with: 2 2 9 0 0  and 3 2 9 0 0 
14799347		 # 	collision with: 7 1 0 0 0  and 7 2 0 0 0 
14799378		 # 	collision with: 2 2 2 0 0  and 3 2 2 0 0 
14799379		 # 	collision with: 1 6 1 0 0  and 1 5 2 0 0 
14799410		 # 	collision with: 2 2 7 0 0  and 3 2 7 0 0 
14799411		 # 	collision with: 9 1 1 0 0  and 9 3 2 0 0 
14799486		 # 	collision with: 2 2 4 0 0  and 3 2 4 0 0 
14799487		 # 	collision with: 2 2 0 0 0  and 3 2 0 0 0 
14799518		 # 	collision with: 2 2 0 0 0  and 3 2 0 0 0 
14799519		 # 	collision with: 7 3 1 0 0  and 7 0 2 0 0 
14799550		 # 	collision with: 2 2 1 0 0  and 3 2 1 0 0 
14799551		 # 	collision with: 2 2 2 0 0  and 3 2 2 0 0 
14799582		 # 	collision with: 10 4 3 0 0  and 10 6 3 0 0 
14799583		 # 	collision with: 2 2 1 0 0  and 3 2 1 0 0 
14799658		 # 	collision with: 5 0 4 0 0  and 5 2 4 0 0 
14799659		 # 	collision with: 8 5 1 0 0  and 8 5 2 0 0 
14799690		 # 	collision with: 5 2 6 0 0  and 0 3 6 0 0 
14799691		 # 	collision with: 10 10 1 0 0  and 6 1 2 0 0 
14799722		 # 	collision with: 10 4 1 0 0  and 10 6 1 0 0 
14799723		 # 	collision with: 3 4 1 0 0  and 3 4 2 0 0 
14799752		 # 	collision with: 6 9 2 0 0  and 9 7 0 1 0 
14799754		 # 	collision with: 10 4 2 0 0  and 1 8 0 1 0 
14799755		 # 	collision with: 5 0 1 0 0  and 0 2 1 0 0 
14799830		 # 	collision with: 2 2 3 0 0  and 2 4 3 0 0 
14799831		 # 	collision with: 5 2 1 0 0  and 0 3 1 0 0 
14799862		 # 	collision with: 2 2 7 0 0  and 3 2 7 0 0 
14799863		 # 	collision with: 7 1 2 0 0  and 9 2 2 0 0 
14799894		 # 	collision with: 7 1 1 0 0  and 9 2 1 0 0 
14799895		 # 	collision with: 5 9 0 0 0  and 5 4 2 0 0 
14799970		 # 	collision with: 2 2 1 0 0  and 3 2 1 0 0 
14799971		 # 	collision with: 6 6 0 0 0  and 10 2 2 0 0 
14800002		 # 	collision with: 2 2 2 0 0  and 3 2 2 0 0 
14800003		 # 	collision with: 2 2 1 0 0  and 3 2 1 0 0 
14800034		 # 	collision with: 5 0 6 0 0  and 0 2 6 0 0 
14800035		 # 	collision with: 2 2 0 0 0  and 3 2 0 0 0 
14800066		 # 	collision with: 2 2 0 0 0  and 3 2 0 0 0 
14800067		 # 	collision with: 7 1 0 0 0  and 7 2 2 0 0 
14800142		 # 	collision with: 2 2 9 0 0  and 3 2 9 0 0 
14800143		 # 	collision with: 3 7 0 0 0  and 3 7 2 0 0 
14800174		 # 	collision with: 6 3 4 0 0  and 6 5 4 0 0 
14800175		 # 	collision with: 5 0 0 0 0  and 5 2 0 0 0 
14800206		 # 	collision with: 2 2 4 0 0  and 3 2 4 0 0 
14800207		 # 	collision with: 10 4 1 0 0  and 10 6 1 0 0 
14800236		 # 	collision with: 8 5 5 0 0  and 2 3 1 1 0 
14800238		 # 	collision with: 2 3 5 0 0  and 5 2 1 1 0 
14800239		 # 	collision with: 10 0 2 0 0  and 6 1 2 0 0 
14800314		 # 	collision with: 2 2 7 0 0  and 3 2 7 0 0 
14800315		 # 	collision with: 9 1 1 0 0  and 9 3 1 0 0 
14800346		 # 	collision with: 2 2 1 0 0  and 3 2 1 0 0 
14800347		 # 	collision with: 3 0 0 0 0  and 3 1 0 0 0 
14800378		 # 	collision with: 10 0 6 0 0  and 6 1 6 0 0 
14800379		 # 	collision with: 2 5 0 0 0  and 2 1 1 0 0 
14800454		 # 	collision with: 2 2 9 0 0  and 3 2 9 0 0 
14800455		 # 	collision with: 9 3 0 0 0  and 9 1 1 0 0 
14800486		 # 	collision with: 2 2 4 0 0  and 3 2 4 0 0 
14800487		 # 	collision with: 10 0 0 0 0  and 6 1 0 0 0 
14800518		 # 	collision with: 6 3 3 0 0  and 6 5 3 0 0 
14800519		 # 	collision with: 7 1 0 0 0  and 7 1 1 0 0 
14800550		 # 	collision with: 1 5 1 0 0  and 1 6 1 0 0 
14800551		 # 	collision with: 8 4 0 0 0  and 8 4 1 0 0 
14800626		 # 	collision with: 2 2 2 0 0  and 3 2 2 0 0 
14800627		 # 	collision with: 2 2 0 0 0  and 3 2 0 0 0 
14800658		 # 	collision with: 2 2 0 0 0  and 3 2 0 0 0 
14800659		 # 	collision with: 4 2 0 0 0  and 4 5 1 0 0 
14800690		 # 	collision with: 2 2 4 0 0  and 2 4 4 0 0 
14800691		 # 	collision with: 1 7 0 0 0  and 1 4 1 0 0 
14800731		 # 	collision with: 7 2 5 0 0  and 7 1 6 0 0 
14800759		 # 	collision with: 2 5 0 0 0  and 3 6 0 0 0 
14800767		 # 	collision with: 1 5 0 0 0  and 1 6 0 0 0 
14800770		 # 	collision with: 3 0 0 0 0  and 3 1 0 0 0 
14800782		 # 	collision with: 6 3 0 0 0  and 6 5 0 0 0 
14800787		 # 	collision with: 0 0 2 0 0  and 5 1 2 0 0 
14800818		 # 	collision with: 2 0 0 0 0  and 3 2 0 0 0 
14800842		 # 	collision with: 4 3 0 0 0  and 4 4 0 0 0 
14800858		 # 	collision with: 3 0 0 0 0  and 3 1 0 0 0 
14800866		 # 	collision with: 10 4 0 0 0  and 10 6 0 0 0 
14800879		 # 	collision with: 7 0 5 0 0  and 7 0 6 0 0 
14800891		 # 	collision with: 2 5 0 0 0  and 3 6 0 0 0 
14800914		 # 	collision with: 6 3 0 0 0  and 6 5 0 0 0 
14800918		 # 	collision with: 0 0 0 0 0  and 5 1 0 0 0 
14800962		 # 	collision with: 0 0 0 0 0  and 5 1 0 0 0 
14800978		 # 	collision with: 2 2 0 0 0  and 2 4 0 0 0 
14800994		 # 	collision with: 2 0 0 0 0  and 3 2 0 0 0 
14801010		 # 	collision with: 7 1 0 0 0  and 7 2 0 0 0 
14801054		 # 	collision with: 7 1 0 0 0  and 7 2 0 0 0 
14801058		 # 	collision with: 1 2 0 0 0  and 4 3 0 0 0 
14801083		 # 	collision with: 4 0 5 0 0  and 4 0 6 0 0 
14801095		 # 	collision with: 9 3 3 0 0  and 7 4 3 0 0 
14801106		 # 	collision with: 4 3 0 0 0  and 4 4 0 0 0 
14801114		 # 	collision with: 5 0 0 0 0  and 5 2 0 0 0 
14801130		 # 	collision with: 10 4 0 0 0  and 10 6 0 0 0 
14801154		 # 	collision with: 2 2 0 0 0  and 2 4 0 0 0 
14801163		 # 	collision with: 1 5 0 0 0  and 1 6 0 0 0 
14801187		 # 	collision with: 2 7 3 0 0  and 3 7 3 0 0 
14801190		 # 	collision with: 1 2 0 0 0  and 4 3 0 0 0 
14801202		 # 	collision with: 5 0 0 0 0  and 5 2 0 0 0 
14801204		 # 	collision with: 8 1 9 0 0  and 5 2 1 1 0 
14801206		 # 	collision with: 10 3 9 0 0  and 0 3 1 1 0 
14801213		 # 	collision with: 7 3 1 0 0  and 4 5 1 0 0 
14801215		 # 	collision with: 5 0 4 0 0  and 5 2 4 0 0 
14801241		 # 	collision with: 7 4 0 0 0  and 4 6 0 0 0 
14801243		 # 	collision with: 4 3 4 0 0  and 4 4 4 0 0 
14801249		 # 	collision with: 9 4 3 0 0  and 9 6 3 0 0 
14801251		 # 	collision with: 10 4 3 0 0  and 10 6 3 0 0 
14801252		 # 	collision with: 5 0 10 0 0  and 6 0 10 0 0 
14801254		 # 	collision with: 2 7 3 0 0  and 3 7 3 0 0 
14801264		 # 	collision with: 9 0 8 0 0  and 2 1 8 0 0 
14801266		 # 	collision with: 2 7 4 0 0  and 3 7 4 0 0 
14801269		 # 	collision with: 7 5 2 0 0  and 4 6 2 0 0 
14801271		 # 	collision with: 1 2 1 0 0  and 4 3 1 0 0 
14801300		 # 	collision with: 5 0 5 0 0  and 6 0 5 0 0 
14801302		 # 	collision with: 7 1 5 0 0  and 7 2 5 0 0 
14801324		 # 	collision with: 4 0 4 0 0  and 4 2 4 0 0 
14801326		 # 	collision with: 1 2 4 0 0  and 4 3 4 0 0 
14801340		 # 	collision with: 5 0 7 0 0  and 6 0 7 0 0 
14801342		 # 	collision with: 2 7 1 0 0  and 3 7 1 0 0 
14801348		 # 	collision with: 5 0 7 0 0  and 6 0 7 0 0 
14801350		 # 	collision with: 2 7 0 0 0  and 3 7 0 0 0 
14801361		 # 	collision with: 7 0 5 0 0  and 4 2 5 0 0 
14801363		 # 	collision with: 6 1 1 0 0  and 10 3 1 0 0 
14801373		 # 	collision with: 7 4 0 0 0  and 4 6 0 0 0 
14801375		 # 	collision with: 4 3 4 0 0  and 4 4 4 0 0 
14801396		 # 	collision with: 5 0 8 0 0  and 6 0 8 0 0 
14801398		 # 	collision with: 2 7 1 0 0  and 3 7 1 0 0 
14801400		 # 	collision with: 9 1 2 0 0  and 2 2 2 0 0 
14801402		 # 	collision with: 8 4 2 0 0  and 8 5 2 0 0 
14801444		 # 	collision with: 5 0 2 0 0  and 6 0 2 0 0 
14801460		 # 	collision with: 5 0 2 0 0  and 6 0 2 0 0 
14801462		 # 	collision with: 5 0 6 0 0  and 5 2 6 0 0 
14801476		 # 	collision with: 7 0 5 0 0  and 4 2 5 0 0 
14801478		 # 	collision with: 2 7 3 0 0  and 3 7 3 0 0 
14801492		 # 	collision with: 5 0 9 0 0  and 6 0 9 0 0 
14801494		 # 	collision with: 2 7 2 0 0  and 3 7 2 0 0 
14801536		 # 	collision with: 5 0 3 0 0  and 6 0 3 0 0 
14801540		 # 	collision with: 5 0 3 0 0  and 6 0 3 0 0 
14801542		 # 	collision with: 0 3 3 0 0  and 5 5 3 0 0 
14801565		 # 	collision with: 5 0 4 0 0  and 6 0 4 0 0 
14801567		 # 	collision with: 2 7 3 0 0  and 3 7 3 0 0 
14801577		 # 	collision with: 9 5 2 0 0  and 2 6 2 0 0 
14801579		 # 	collision with: 2 2 3 0 0  and 2 4 3 0 0 
14801588		 # 	collision with: 5 0 4 0 0  and 6 0 4 0 0 
14801590		 # 	collision with: 0 0 4 0 0  and 5 1 4 0 0 
14801596		 # 	collision with: 4 0 1 0 0  and 4 2 1 0 0 
14801598		 # 	collision with: 2 0 1 0 0  and 3 2 1 0 0 
14801612		 # 	collision with: 5 0 6 0 0  and 6 0 6 0 0 
14801614		 # 	collision with: 2 7 0 0 0  and 3 7 0 0 0 
14801636		 # 	collision with: 5 0 6 0 0  and 6 0 6 0 0 
14801638		 # 	collision with: 5 0 6 0 0  and 5 2 6 0 0 
14801645		 # 	collision with: 5 0 1 0 0  and 6 0 1 0 0 
14801647		 # 	collision with: 10 4 3 0 0  and 10 6 3 0 0 
14801669		 # 	collision with: 5 0 1 0 0  and 6 0 1 0 0 
14801671		 # 	collision with: 2 7 4 0 0  and 3 7 4 0 0 
14801672		 # 	collision with: 5 0 1 0 0  and 6 0 1 0 0 
14801674		 # 	collision with: 2 0 3 0 0  and 3 2 3 0 0 
14801684		 # 	collision with: 5 0 1 0 0  and 6 0 1 0 0 
14801686		 # 	collision with: 9 1 1 0 0  and 9 3 1 0 0 
14801688		 # 	collision with: 7 5 4 0 0  and 9 2 0 1 0 
14801690		 # 	collision with: 4 4 6 0 0  and 6 5 2 1 0 
14801697		 # 	collision with: 9 2 2 0 0  and 2 3 2 0 0 
14801699		 # 	collision with: 8 4 0 0 0  and 8 5 0 0 0 
14801725		 # 	collision with: 9 4 0 0 0  and 2 5 0 0 0 
14801727		 # 	collision with: 9 1 3 0 0  and 9 3 3 0 0 
14801733		 # 	collision with: 7 2 4 0 0  and 4 4 5 0 0 
14801736		 # 	collision with: 5 0 9 0 0  and 6 0 9 0 0 
14801738		 # 	collision with: 2 7 2 0 0  and 3 7 2 0 0 
14801748		 # 	collision with: 2 0 5 0 0  and 2 1 5 0 0 
14801750		 # 	collision with: 2 7 3 0 0  and 3 7 3 0 0 
14801753		 # 	collision with: 7 5 4 0 0  and 4 6 4 0 0 
14801755		 # 	collision with: 2 7 2 0 0  and 3 7 2 0 0 
14801784		 # 	collision with: 5 0 10 0 0  and 6 0 10 0 0 
14801786		 # 	collision with: 2 7 3 0 0  and 3 7 3 0 0 
14801808		 # 	collision with: 9 0 8 0 0  and 2 1 8 0 0 
14801810		 # 	collision with: 2 7 4 0 0  and 3 7 4 0 0 
14801824		 # 	collision with: 5 0 3 0 0  and 6 0 3 0 0 
14801832		 # 	collision with: 5 0 3 0 0  and 6 0 3 0 0 
14801834		 # 	collision with: 2 0 3 0 0  and 3 2 3 0 0 
14801845		 # 	collision with: 5 0 3 0 0  and 6 0 3 0 0 
14801847		 # 	collision with: 2 7 2 0 0  and 3 7 2 0 0 
14801857		 # 	collision with: 9 4 0 0 0  and 2 5 0 0 0 
14801859		 # 	collision with: 9 1 3 0 0  and 9 3 3 0 0 
14801880		 # 	collision with: 5 0 5 0 0  and 6 0 5 0 0 
14801882		 # 	collision with: 9 3 5 0 0  and 7 4 5 0 0 
14801884		 # 	collision with: 7 2 4 0 0  and 4 4 4 0 0 
14801886		 # 	collision with: 7 1 4 0 0  and 7 2 4 0 0 
14801928		 # 	collision with: 5 0 4 0 0  and 6 0 4 0 0 
14801930		 # 	collision with: 7 1 4 0 0  and 7 2 4 0 0 
14801944		 # 	collision with: 6 1 1 0 0  and 6 2 1 0 0 
14801946		 # 	collision with: 8 4 1 0 0  and 8 5 1 0 0 
14801960		 # 	collision with: 5 0 7 0 0  and 6 0 7 0 0 
14801962		 # 	collision with: 2 7 1 0 0  and 3 7 1 0 0 
14801976		 # 	collision with: 5 0 7 0 0  and 6 0 7 0 0 
14801978		 # 	collision with: 2 7 0 0 0  and 3 7 0 0 0 
40.6312secs	16949
