# prime 11
# degree 2
# input variables 3
# output variables 3
# reload computed balance functions from file balance-277of3248-p11d2m3-debug.log
# p = 11
# n = 3
# smalldomain p^m 1331
# domain p^n 1331
#	 p^2 = 121
#	 p^3 = 1331
#	 p^4 = 14641
#	 p^5 = 161051
#	 p^6 = 1771561
#	 p^7 = 19487171
#	 p^8 = 214358881
#	 p^9 = 2357947691
opening file : balance-277of3248-p11d2m3-debug.log
reloading for step2...
1662024		 # 	collision with: 9 1 0  and 0 3 0 
1662045		 # 	collision with: 4 1 0  and 6 0 1 
1662047		 # 	collision with: 6 0 0  and 0 2 0 
1662056		 # 	collision with: 1 3 0  and 0 0 1 
1662058		 # 	collision with: 8 2 0  and 4 4 0 
1662060		 # 	collision with: 3 9 0  and 5 9 0 
1662064		 # 	collision with: 0 10 0  and 1 10 0 
1662066		 # 	collision with: 8 2 0  and 4 4 0 
1662068		 # 	collision with: 2 3 0  and 4 3 0 
1662070		 # 	collision with: 8 2 0  and 4 4 0 
1662072		 # 	collision with: 1 5 0  and 2 5 0 
1662074		 # 	collision with: 8 2 0  and 4 4 0 
1662076		 # 	collision with: 4 4 0  and 6 4 0 
1662078		 # 	collision with: 8 2 0  and 4 4 0 
1662080		 # 	collision with: 5 7 0  and 6 7 0 
1662082		 # 	collision with: 8 2 0  and 4 4 0 
1662084		 # 	collision with: 3 6 0  and 4 6 0 
1662086		 # 	collision with: 8 2 0  and 4 4 0 
1662088		 # 	collision with: 1 8 0  and 3 8 0 
1662090		 # 	collision with: 10 0 0  and 8 1 0 
1662092		 # 	collision with: 4 1 0  and 5 1 0 
1662094		 # 	collision with: 8 2 0  and 4 4 0 
1662096		 # 	collision with: 0 2 0  and 2 2 0 
1662098		 # 	collision with: 8 2 0  and 4 4 0 
1662113		 # 	collision with: 9 0 0  and 8 1 0 
1662115		 # 	collision with: 10 2 0  and 5 4 0 
1662132		 # 	collision with: 0 5 0  and 7 6 0 
1662134		 # 	collision with: 5 0 0  and 7 1 0 
1662164		 # 	collision with: 0 4 0  and 7 6 0 
1662166		 # 	collision with: 7 0 0  and 9 1 0 
1662177		 # 	collision with: 6 6 0  and 8 0 1 
1662179		 # 	collision with: 10 2 0  and 5 4 0 
1662196		 # 	collision with: 6 1 0  and 6 0 1 
1662198		 # 	collision with: 4 0 0  and 6 1 0 
1662205		 # 	collision with: 9 1 0  and 0 2 0 
1662207		 # 	collision with: 0 0 0  and 2 1 0 
1662257		 # 	collision with: 9 9 0  and 9 0 1 
1662259		 # 	collision with: 10 2 0  and 5 4 0 
1662272		 # 	collision with: 2 1 0  and 8 1 1 
1662274		 # 	collision with: 8 0 0  and 10 1 0 
1662301		 # 	collision with: 6 2 0  and 3 0 1 
1662303		 # 	collision with: 4 3 0  and 0 4 0 
1662304		 # 	collision with: 0 8 0  and 9 0 1 
1662306		 # 	collision with: 6 0 0  and 8 1 0 
1662338		 # 	collision with: 8 2 0  and 4 4 0 
1662343		 # 	collision with: 4 2 0  and 1 4 0 
1662368		 # 	collision with: 4 2 0  and 5 4 0 
1662370		 # 	collision with: 10 0 0  and 1 1 0 
1662385		 # 	collision with: 3 1 0  and 3 0 1 
1662387		 # 	collision with: 10 2 0  and 0 3 0 
1662437		 # 	collision with: 5 1 0  and 3 3 0 
1662439		 # 	collision with: 3 0 0  and 1 2 0 
1662444		 # 	collision with: 6 2 0  and 3 3 0 
1662446		 # 	collision with: 3 0 0  and 5 1 0 
1662465		 # 	collision with: 1 1 0  and 1 0 1 
1662467		 # 	collision with: 10 2 0  and 5 4 0 
1662476		 # 	collision with: 7 0 0  and 1 1 0 
1662508		 # 	collision with: 5 1 0  and 3 3 0 
1662510		 # 	collision with: 2 0 0  and 4 1 0 
1662529		 # 	collision with: 1 1 0  and 3 2 0 
1662531		 # 	collision with: 3 0 0  and 5 1 0 
1662540		 # 	collision with: 5 10 0  and 9 1 1 
1662542		 # 	collision with: 2 4 0  and 7 6 0 
1662544		 # 	collision with: 1 8 0  and 3 8 0 
1662546		 # 	collision with: 2 3 0  and 10 4 0 
1662548		 # 	collision with: 4 4 0  and 6 4 0 
1662550		 # 	collision with: 3 8 0  and 3 0 1 
1662552		 # 	collision with: 0 10 0  and 1 10 0 
1662554		 # 	collision with: 3 3 0  and 8 5 0 
1662556		 # 	collision with: 0 2 0  and 2 2 0 
1662558		 # 	collision with: 3 2 0  and 0 3 0 
1662560		 # 	collision with: 3 6 0  and 4 6 0 
1662562		 # 	collision with: 5 1 0  and 10 3 0 
1662564		 # 	collision with: 1 5 0  and 2 5 0 
1662566		 # 	collision with: 1 4 0  and 9 5 0 
1662568		 # 	collision with: 3 9 0  and 5 9 0 
1662572		 # 	collision with: 4 1 0  and 5 1 0 
1662574		 # 	collision with: 4 1 0  and 1 2 0 
1662576		 # 	collision with: 5 7 0  and 6 7 0 
1662578		 # 	collision with: 4 2 0  and 9 4 0 
1662580		 # 	collision with: 2 3 0  and 4 3 0 
1662582		 # 	collision with: 0 5 0  and 8 6 0 
1662597		 # 	collision with: 8 0 0  and 6 2 0 
1662599		 # 	collision with: 10 0 0  and 0 2 0 
1662616		 # 	collision with: 6 2 0  and 3 3 0 
1662618		 # 	collision with: 2 0 0  and 5 1 0 
1662648		 # 	collision with: 6 3 0  and 3 5 0 
1662650		 # 	collision with: 2 1 0  and 2 0 1 
1662661		 # 	collision with: 9 0 0  and 3 2 0 
1662663		 # 	collision with: 10 0 0  and 0 2 0 
1662680		 # 	collision with: 0 4 0  and 1 0 1 
1662682		 # 	collision with: 0 1 0  and 9 2 0 
1662689		 # 	collision with: 0 6 0  and 8 0 1 
1662691		 # 	collision with: 10 0 0  and 0 2 0 
1662741		 # 	collision with: 4 5 0  and 6 1 1 
1662743		 # 	collision with: 10 0 0  and 0 2 0 
1662756		 # 	collision with: 0 0 0  and 2 2 0 
1662758		 # 	collision with: 8 10 0  and 0 0 1 
1662785		 # 	collision with: 7 1 0  and 4 2 0 
1662787		 # 	collision with: 10 0 0  and 0 2 0 
1662788		 # 	collision with: 3 3 0  and 1 4 0 
1662790		 # 	collision with: 5 1 0  and 7 3 0 
1662820		 # 	collision with: 2 1 0  and 9 2 0 
1662822		 # 	collision with: 9 6 0  and 10 0 1 
1662825		 # 	collision with: 7 2 0  and 3 3 0 
1662827		 # 	collision with: 10 0 0  and 0 2 0 
1662852		 # 	collision with: 6 3 0  and 2 1 1 
1662854		 # 	collision with: 9 5 0  and 9 6 0 
1662869		 # 	collision with: 7 0 0  and 1 1 0 
1662871		 # 	collision with: 10 0 0  and 0 2 0 
1662921		 # 	collision with: 0 3 0  and 10 4 0 
1662923		 # 	collision with: 10 0 0  and 0 2 0 
1662928		 # 	collision with: 4 10 0  and 6 0 1 
1662951		 # 	collision with: 10 0 0  and 0 2 0 
1662962		 # 	collision with: 6 2 0  and 10 0 1 
1662992		 # 	collision with: 8 4 0  and 7 5 0 
1662994		 # 	collision with: 6 3 0  and 5 4 0 
1663013		 # 	collision with: 8 0 0  and 4 1 0 
1663015		 # 	collision with: 10 0 0  and 0 2 0 
1663024		 # 	collision with: 6 5 0  and 6 0 1 
1663026		 # 	collision with: 9 4 0  and 5 5 0 
1663028		 # 	collision with: 5 7 0  and 6 7 0 
1663030		 # 	collision with: 9 4 0  and 5 5 0 
1663032		 # 	collision with: 3 9 0  and 5 9 0 
1663036		 # 	collision with: 3 6 0  and 4 6 0 
1663038		 # 	collision with: 0 0 0  and 7 1 0 
1663040		 # 	collision with: 0 10 0  and 1 10 0 
1663042		 # 	collision with: 9 4 0  and 5 5 0 
1663044		 # 	collision with: 1 8 0  and 3 8 0 
1663046		 # 	collision with: 9 4 0  and 5 5 0 
1663048		 # 	collision with: 2 3 0  and 4 3 0 
1663050		 # 	collision with: 9 4 0  and 5 5 0 
1663052		 # 	collision with: 4 1 0  and 5 1 0 
1663054		 # 	collision with: 9 4 0  and 5 5 0 
1663056		 # 	collision with: 1 5 0  and 2 5 0 
1663058		 # 	collision with: 9 4 0  and 5 5 0 
1663060		 # 	collision with: 0 2 0  and 2 2 0 
1663062		 # 	collision with: 9 4 0  and 5 5 0 
1663064		 # 	collision with: 4 4 0  and 6 4 0 
1663066		 # 	collision with: 9 4 0  and 5 5 0 
1663083		 # 	collision with: 5 3 0  and 3 5 0 
1663102		 # 	collision with: 9 4 0  and 5 5 0 
1663132		 # 	collision with: 6 1 0  and 0 6 1 
1663134		 # 	collision with: 1 1 0  and 2 2 0 
1663145		 # 	collision with: 6 3 0  and 10 4 0 
1663164		 # 	collision with: 5 8 0  and 7 1 1 
1663166		 # 	collision with: 9 4 0  and 5 5 0 
1663173		 # 	collision with: 6 3 0  and 10 4 0 
1663175		 # 	collision with: 5 1 0  and 7 3 0 
1663225		 # 	collision with: 6 3 0  and 10 4 0 
1663227		 # 	collision with: 5 3 0  and 3 5 0 
1663240		 # 	collision with: 7 3 0  and 6 5 0 
1663242		 # 	collision with: 3 2 0  and 6 3 0 
1663269		 # 	collision with: 6 3 0  and 10 4 0 
1663272		 # 	collision with: 7 0 0  and 8 1 0 
1663274		 # 	collision with: 9 4 0  and 5 5 0 
1663304		 # 	collision with: 7 4 0  and 2 6 0 
1663306		 # 	collision with: 9 4 0  and 5 5 0 
1663309		 # 	collision with: 9 0 0  and 10 2 0 
1663311		 # 	collision with: 5 3 0  and 3 5 0 
1663336		 # 	collision with: 6 2 0  and 9 4 0 
1663353		 # 	collision with: 6 3 0  and 10 4 0 
1663355		 # 	collision with: 5 3 0  and 3 5 0 
1663405		 # 	collision with: 6 3 0  and 10 4 0 
1663407		 # 	collision with: 5 3 0  and 3 5 0 
1663412		 # 	collision with: 3 3 0  and 9 4 0 
1663414		 # 	collision with: 9 4 0  and 5 5 0 
1663433		 # 	collision with: 6 3 0  and 10 4 0 
1663435		 # 	collision with: 8 3 0  and 1 4 0 
1663444		 # 	collision with: 8 1 0  and 4 3 0 
1663446		 # 	collision with: 9 4 0  and 5 5 0 
1663476		 # 	collision with: 6 1 0  and 5 2 0 
1663478		 # 	collision with: 4 0 0  and 3 1 0 
1663497		 # 	collision with: 6 3 0  and 10 4 0 
1663499		 # 	collision with: 5 0 0  and 2 1 0 
1663508		 # 	collision with: 3 1 0  and 0 2 1 
1663510		 # 	collision with: 9 1 0  and 4 2 0 
1663512		 # 	collision with: 3 6 0  and 4 6 0 
1663514		 # 	collision with: 4 3 0  and 10 4 0 
1663516		 # 	collision with: 2 3 0  and 4 3 0 
1663518		 # 	collision with: 2 1 0  and 3 3 0 
1663520		 # 	collision with: 0 2 0  and 2 2 0 
1663522		 # 	collision with: 5 2 0  and 6 4 0 
1663524		 # 	collision with: 5 7 0  and 6 7 0 
1663526		 # 	collision with: 4 7 0  and 0 0 1 
1663528		 # 	collision with: 0 10 0  and 1 10 0 
1663530		 # 	collision with: 7 4 0  and 2 5 0 
1663532		 # 	collision with: 4 1 0  and 5 1 0 
1663534		 # 	collision with: 10 5 0  and 5 6 0 
1663536		 # 	collision with: 4 4 0  and 6 4 0 
1663538		 # 	collision with: 8 3 0  and 9 5 0 
1663540		 # 	collision with: 3 9 0  and 5 9 0 
1663544		 # 	collision with: 1 8 0  and 3 8 0 
1663546		 # 	collision with: 0 4 0  and 1 6 0 
1663548		 # 	collision with: 1 5 0  and 2 5 0 
1663550		 # 	collision with: 1 2 0  and 7 3 0 
1663565		 # 	collision with: 8 0 0  and 5 1 0 
1663567		 # 	collision with: 9 2 0  and 1 4 0 
1663584		 # 	collision with: 9 5 0  and 7 0 1 
1663586		 # 	collision with: 8 3 0  and 1 4 0 
1663616		 # 	collision with: 8 5 0  and 9 6 0 
1663618		 # 	collision with: 5 6 0  and 10 1 1 
1663629		 # 	collision with: 0 0 0  and 2 2 0 
1663631		 # 	collision with: 4 1 0  and 7 3 0 
1663648		 # 	collision with: 0 0 0  and 1 1 1 
1663650		 # 	collision with: 0 0 0  and 7 1 0 
1663657		 # 	collision with: 4 1 0  and 3 3 0 
1663659		 # 	collision with: 5 7 0  and 6 7 0 
1663711		 # 	collision with: 6 1 0  and 9 0 1 
1663726		 # 	collision with: 0 2 0  and 5 1 1 
1663753		 # 	collision with: 7 0 0  and 1 1 0 
1663755		 # 	collision with: 9 0 0  and 2 1 1 
1663756		 # 	collision with: 4 1 0  and 7 2 0 
1663758		 # 	collision with: 1 9 0  and 9 0 1 
1663788		 # 	collision with: 10 4 0  and 7 6 0 
1663793		 # 	collision with: 2 1 0  and 4 2 0 
1663795		 # 	collision with: 4 0 0  and 6 1 0 
1663820		 # 	collision with: 1 1 0  and 1 0 1 
1663822		 # 	collision with: 4 2 0  and 9 3 0 
1663837		 # 	collision with: 7 3 0  and 0 0 1 
1663839		 # 	collision with: 1 4 0  and 5 5 0 
1663889		 # 	collision with: 8 0 0  and 6 2 0 
1663891		 # 	collision with: 0 5 0  and 10 6 0 
1663896		 # 	collision with: 0 0 0  and 9 1 0 
1663898		 # 	collision with: 9 1 0  and 9 3 0 
1663917		 # 	collision with: 6 1 1  and 1 3 1 
1663919		 # 	collision with: 8 3 0  and 9 4 0 
1663928		 # 	collision with: 6 2 0  and 3 3 0 
1663930		 # 	collision with: 4 3 0  and 0 1 1 
1663960		 # 	collision with: 10 3 0  and 8 5 0 
1663962		 # 	collision with: 8 2 0  and 6 4 0 
1663981		 # 	collision with: 2 7 0  and 9 4 1 
1663983		 # 	collision with: 4 1 0  and 5 1 0 
1663992		 # 	collision with: 7 9 0  and 7 1 1 
1663994		 # 	collision with: 8 1 0  and 2 2 0 
1663996		 # 	collision with: 1 5 0  and 2 5 0 
1663998		 # 	collision with: 8 4 0  and 7 6 0 
1664000		 # 	collision with: 1 8 0  and 3 8 0 
1664002		 # 	collision with: 7 4 0  and 1 5 0 
1664004		 # 	collision with: 3 9 0  and 5 9 0 
1664008		 # 	collision with: 4 4 0  and 6 4 0 
1664010		 # 	collision with: 2 0 0  and 1 2 0 
1664012		 # 	collision with: 4 1 0  and 5 1 0 
1664014		 # 	collision with: 4 5 0  and 3 7 0 
1664016		 # 	collision with: 0 10 0  and 1 10 0 
1664018		 # 	collision with: 1 3 0  and 0 5 0 
1664020		 # 	collision with: 5 7 0  and 6 7 0 
1664022		 # 	collision with: 5 2 0  and 4 4 0 
1664024		 # 	collision with: 0 2 0  and 2 2 0 
1664026		 # 	collision with: 0 3 0  and 5 4 0 
1664028		 # 	collision with: 2 3 0  and 4 3 0 
1664030		 # 	collision with: 9 1 0  and 8 3 0 
1664032		 # 	collision with: 3 6 0  and 4 6 0 
1664034		 # 	collision with: 4 2 0  and 9 3 0 
1664049		 # 	collision with: 2 0 0  and 3 0 0 
1664051		 # 	collision with: 2 4 0  and 0 6 0 
1664068		 # 	collision with: 1 1 0  and 3 2 0 
1664070		 # 	collision with: 3 0 0  and 4 1 0 
1664100		 # 	collision with: 4 1 0  and 6 2 0 
1664102		 # 	collision with: 8 3 0  and 5 5 0 
1664113		 # 	collision with: 2 0 0  and 3 0 0 
1664115		 # 	collision with: 9 4 0  and 9 5 0 
1664132		 # 	collision with: 5 1 0  and 7 2 0 
1664134		 # 	collision with: 4 1 0  and 7 3 0 
1664141		 # 	collision with: 2 0 0  and 3 0 0 
1664143		 # 	collision with: 8 4 0  and 5 1 1 
1664193		 # 	collision with: 2 0 0  and 3 0 0 
1664195		 # 	collision with: 7 4 0  and 1 2 1 
1664208		 # 	collision with: 8 0 0  and 4 1 0 
1664210		 # 	collision with: 1 2 0  and 10 0 1 
1664237		 # 	collision with: 2 0 0  and 3 0 0 
1664239		 # 	collision with: 9 2 0  and 3 0 1 
1664240		 # 	collision with: 8 1 0  and 10 2 0 
1664272		 # 	collision with: 6 1 0  and 8 2 0 
1664274		 # 	collision with: 9 0 0  and 4 2 0 
1664277		 # 	collision with: 2 0 0  and 3 0 0 
1664279		 # 	collision with: 3 8 0  and 0 0 1 
1664306		 # 	collision with: 6 6 0  and 2 1 1 
1664323		 # 	collision with: 10 5 0  and 5 0 1 
1664373		 # 	collision with: 2 0 0  and 3 0 0 
1664375		 # 	collision with: 1 1 0  and 0 2 0 
1664380		 # 	collision with: 9 1 0  and 0 2 0 
1664382		 # 	collision with: 7 4 0  and 2 5 0 
1664401		 # 	collision with: 2 0 0  and 3 0 0 
1664403		 # 	collision with: 9 0 0  and 9 1 0 
1664412		 # 	collision with: 10 1 0  and 1 2 0 
1664414		 # 	collision with: 2 0 1  and 4 2 1 
1664444		 # 	collision with: 2 1 0  and 4 2 0 
1664446		 # 	collision with: 0 5 0  and 10 6 0 
1664465		 # 	collision with: 2 0 0  and 3 0 0 
1664467		 # 	collision with: 5 1 0  and 10 3 0 
1664476		 # 	collision with: 1 6 0  and 6 0 1 
1664478		 # 	collision with: 1 4 0  and 5 5 0 
1664480		 # 	collision with: 4 4 0  and 6 4 0 
1664482		 # 	collision with: 4 2 0  and 8 3 0 
1664484		 # 	collision with: 0 2 0  and 2 2 0 
1664486		 # 	collision with: 5 5 0  and 9 6 0 
1664488		 # 	collision with: 1 5 0  and 2 5 0 
1664490		 # 	collision with: 0 1 0  and 4 2 0 
1664492		 # 	collision with: 4 1 0  and 5 1 0 
1664494		 # 	collision with: 8 3 0  and 1 4 0 
1664496		 # 	collision with: 2 3 0  and 4 3 0 
1664498		 # 	collision with: 4 2 0  and 1 4 0 
1664500		 # 	collision with: 1 8 0  and 3 8 0 
1664502		 # 	collision with: 1 4 0  and 9 6 0 
1664504		 # 	collision with: 0 10 0  and 1 10 0 
1664506		 # 	collision with: 7 0 0  and 4 2 0 
1664508		 # 	collision with: 3 6 0  and 4 6 0 
1664510		 # 	collision with: 8 3 0  and 5 5 0 
1664512		 # 	collision with: 3 9 0  and 5 9 0 
1664516		 # 	collision with: 5 7 0  and 6 7 0 
1664518		 # 	collision with: 9 10 0  and 1 0 1 
1664533		 # 	collision with: 2 2 0  and 0 4 0 
1664535		 # 	collision with: 0 5 0  and 10 6 0 
1664552		 # 	collision with: 10 4 0  and 0 5 0 
1664554		 # 	collision with: 2 1 0  and 3 3 0 
1664584		 # 	collision with: 6 5 0  and 9 6 0 
1664586		 # 	collision with: 3 9 0  and 10 0 1 
1664597		 # 	collision with: 2 1 0  and 4 2 0 
1664599		 # 	collision with: 4 0 0  and 6 1 0 
1664616		 # 	collision with: 7 2 0  and 3 3 1 
1664618		 # 	collision with: 6 0 0  and 2 2 0 
1664625		 # 	collision with: 8 5 0  and 0 3 1 
1664627		 # 	collision with: 4 2 0  and 1 4 0 
1664677		 # 	collision with: 6 2 0  and 3 3 0 
1664679		 # 	collision with: 10 1 0  and 9 0 1 
1664692		 # 	collision with: 9 2 0  and 5 4 0 
1664721		 # 	collision with: 8 1 0  and 3 2 0 
1664723		 # 	collision with: 6 7 0  and 0 0 1 
1664724		 # 	collision with: 7 2 0  and 2 0 1 
1664726		 # 	collision with: 6 10 0  and 1 0 1 
1664756		 # 	collision with: 6 2 0  and 3 3 0 
1664758		 # 	collision with: 3 1 0  and 0 3 1 
1664761		 # 	collision with: 8 9 0  and 7 0 1 
1664788		 # 	collision with: 8 7 0  and 1 0 1 
1664790		 # 	collision with: 4 10 0  and 1 0 1 
1664805		 # 	collision with: 4 1 0  and 6 2 0 
1664807		 # 	collision with: 6 0 0  and 8 1 0 
1664857		 # 	collision with: 10 3 0  and 8 5 0 
1664859		 # 	collision with: 8 2 0  and 6 4 0 
1664864		 # 	collision with: 5 1 0  and 5 0 1 
1664866		 # 	collision with: 4 5 0  and 5 6 0 
1664885		 # 	collision with: 0 3 0  and 3 5 0 
1664896		 # 	collision with: 5 0 0  and 9 1 0 
1664898		 # 	collision with: 9 3 0  and 9 5 0 
1664930		 # 	collision with: 9 2 0  and 8 3 0 
1664951		 # 	collision with: 10 2 0  and 0 3 0 
1664960		 # 	collision with: 2 10 0  and 5 0 1 
1664962		 # 	collision with: 0 4 0  and 6 6 0 
1664964		 # 	collision with: 2 3 0  and 4 3 0 
1664966		 # 	collision with: 4 1 0  and 10 3 0 
1664968		 # 	collision with: 5 7 0  and 6 7 0 
1664970		 # 	collision with: 8 1 0  and 0 2 0 
1664972		 # 	collision with: 4 1 0  and 5 1 0 
1664974		 # 	collision with: 10 5 0  and 2 6 0 
1664976		 # 	collision with: 3 9 0  and 5 9 0 
1664980		 # 	collision with: 1 5 0  and 2 5 0 
1664982		 # 	collision with: 2 0 0  and 5 1 0 
1664984		 # 	collision with: 3 6 0  and 4 6 0 
1664986		 # 	collision with: 4 4 0  and 7 5 0 
1664988		 # 	collision with: 0 2 0  and 2 2 0 
1664990		 # 	collision with: 5 3 0  and 0 5 0 
1664992		 # 	collision with: 0 10 0  and 1 10 0 
1664994		 # 	collision with: 9 0 0  and 4 2 0 
1664996		 # 	collision with: 4 4 0  and 6 4 0 
1664998		 # 	collision with: 3 2 0  and 6 3 0 
1665000		 # 	collision with: 1 8 0  and 3 8 0 
1665002		 # 	collision with: 9 3 0  and 1 4 0 
1665017		 # 	collision with: 0 3 0  and 10 4 0 
1665019		 # 	collision with: 4 0 0  and 3 1 0 
1665036		 # 	collision with: 6 4 0  and 1 5 0 
1665038		 # 	collision with: 2 4 0  and 7 6 0 
1665070		 # 	collision with: 1 5 0  and 2 5 0 
1665083		 # 	collision with: 7 3 0  and 3 0 1 
1665100		 # 	collision with: 1 4 0  and 10 0 1 
1665109		 # 	collision with: 6 3 0  and 0 5 0 
1665111		 # 	collision with: 9 3 0  and 10 3 1 
1665161		 # 	collision with: 1 1 0  and 2 3 0 
1665163		 # 	collision with: 8 3 0  and 5 5 0 
1665176		 # 	collision with: 0 1 0  and 6 3 0 
1665178		 # 	collision with: 8 4 0  and 7 6 0 
1665205		 # 	collision with: 10 6 0  and 8 0 1 
1665207		 # 	collision with: 0 2 0  and 2 2 0 
1665208		 # 	collision with: 4 1 0  and 0 0 1 
1665210		 # 	collision with: 0 2 0  and 2 2 0 
1665240		 # 	collision with: 9 5 0  and 3 6 0 
1665242		 # 	collision with: 3 9 0  and 5 9 0 
1665245		 # 	collision with: 9 5 0  and 3 6 0 
1665247		 # 	collision with: 0 0 0  and 1 1 1 
1665272		 # 	collision with: 5 0 0  and 2 2 0 
1665274		 # 	collision with: 2 3 0  and 4 3 0 
1665289		 # 	collision with: 6 3 0  and 9 0 1 
1665291		 # 	collision with: 3 5 0  and 10 6 0 
1665341		 # 	collision with: 9 2 0  and 5 4 0 
1665343		 # 	collision with: 3 4 0  and 2 5 0 
1665348		 # 	collision with: 5 3 0  and 7 5 0 
1665350		 # 	collision with: 4 4 0  and 6 4 0 
1665369		 # 	collision with: 5 4 0  and 10 6 0 
1665371		 # 	collision with: 3 6 0  and 4 6 0 
1665380		 # 	collision with: 2 1 0  and 9 3 1 
1665382		 # 	collision with: 3 6 0  and 4 6 0 
1665412		 # 	collision with: 9 0 0  and 8 1 0 
1665414		 # 	collision with: 4 1 0  and 5 1 0 
1665433		 # 	collision with: 0 0 0  and 9 1 0 
1665435		 # 	collision with: 2 3 0  and 10 4 0 
1665444		 # 	collision with: 1 2 0  and 2 0 1 
1665446		 # 	collision with: 0 0 0  and 1 1 1 
1665448		 # 	collision with: 0 2 0  and 2 2 0 
1665450		 # 	collision with: 7 0 0  and 9 1 0 
1665452		 # 	collision with: 4 1 0  and 5 1 0 
1665454		 # 	collision with: 8 0 0  and 10 1 0 
1665456		 # 	collision with: 1 8 0  and 3 8 0 
1665458		 # 	collision with: 0 5 0  and 4 7 0 
1665460		 # 	collision with: 3 6 0  and 4 6 0 
1665462		 # 	collision with: 3 0 0  and 5 1 0 
1665464		 # 	collision with: 5 7 0  and 6 7 0 
1665466		 # 	collision with: 2 0 0  and 4 1 0 
1665468		 # 	collision with: 4 4 0  and 6 4 0 
1665470		 # 	collision with: 5 0 0  and 7 1 0 
1665472		 # 	collision with: 1 5 0  and 2 5 0 
1665474		 # 	collision with: 4 0 0  and 6 1 0 
1665476		 # 	collision with: 2 3 0  and 4 3 0 
1665478		 # 	collision with: 6 0 0  and 8 1 0 
1665480		 # 	collision with: 0 10 0  and 1 10 0 
1665482		 # 	collision with: 10 0 0  and 1 1 0 
1665484		 # 	collision with: 3 9 0  and 5 9 0 
1665501		 # 	collision with: 9 0 0  and 1 1 0 
1665503		 # 	collision with: 3 0 0  and 1 2 0 
1665520		 # 	collision with: 5 10 0  and 4 0 1 
1665522		 # 	collision with: 9 10 0  and 1 0 1 
1665552		 # 	collision with: 9 1 0  and 9 0 1 
1665565		 # 	collision with: 9 10 0  and 2 0 1 
1665567		 # 	collision with: 1 1 0  and 1 0 1 
1665584		 # 	collision with: 1 1 0  and 2 3 0 
1665586		 # 	collision with: 10 0 0  and 2 2 0 
1665593		 # 	collision with: 10 8 0  and 3 0 1 
1665595		 # 	collision with: 4 5 0  and 3 7 0 
1665645		 # 	collision with: 1 1 0  and 10 2 0 
1665647		 # 	collision with: 1 2 0  and 2 0 1 
1665660		 # 	collision with: 9 1 0  and 2 2 0 
1665662		 # 	collision with: 6 1 1  and 9 3 1 
1665691		 # 	collision with: 0 3 0  and 5 4 0 
1665694		 # 	collision with: 1 2 0  and 7 3 0 
1665724		 # 	collision with: 5 5 0  and 3 6 0 
1665726		 # 	collision with: 5 5 0  and 9 6 0 
1665729		 # 	collision with: 8 7 0  and 4 0 1 
1665731		 # 	collision with: 2 3 0  and 0 4 0 
1665756		 # 	collision with: 1 3 0  and 2 4 0 
1665758		 # 	collision with: 8 1 0  and 0 2 0 
1665773		 # 	collision with: 0 0 1  and 5 2 1 
1665775		 # 	collision with: 2 2 0  and 5 0 1 
1665825		 # 	collision with: 6 1 0  and 5 2 0 
1665827		 # 	collision with: 4 0 0  and 3 1 0 
1665832		 # 	collision with: 5 4 0  and 8 6 0 
1665834		 # 	collision with: 5 4 0  and 9 0 1 
1665853		 # 	collision with: 10 10 0  and 1 0 1 
1665855		 # 	collision with: 1 2 0  and 10 3 0 
1665864		 # 	collision with: 3 6 0  and 2 1 1 
1665866		 # 	collision with: 10 1 0  and 0 1 1 
1665896		 # 	collision with: 2 2 0  and 0 4 0 
1665898		 # 	collision with: 9 0 0  and 9 1 0 
1665917		 # 	collision with: 10 5 0  and 6 0 1 
1665919		 # 	collision with: 4 1 0  and 1 2 0 
1665928		 # 	collision with: 0 6 0  and 9 0 1 
1665930		 # 	collision with: 1 3 0  and 3 5 0 
1665932		 # 	collision with: 4 1 0  and 5 1 0 
1665934		 # 	collision with: 4 5 0  and 5 6 0 
1665936		 # 	collision with: 3 6 0  and 4 6 0 
1665938		 # 	collision with: 5 1 0  and 7 3 0 
1665940		 # 	collision with: 4 4 0  and 6 4 0 
1665942		 # 	collision with: 1 1 0  and 2 2 0 
1665944		 # 	collision with: 2 3 0  and 4 3 0 
1665946		 # 	collision with: 8 3 0  and 9 4 0 
1665948		 # 	collision with: 3 9 0  and 5 9 0 
1665952		 # 	collision with: 0 2 0  and 2 2 0 
1665954		 # 	collision with: 10 2 0  and 0 3 0 
1665956		 # 	collision with: 1 8 0  and 3 8 0 
1665958		 # 	collision with: 3 0 0  and 4 1 0 
1665960		 # 	collision with: 5 7 0  and 6 7 0 
1665962		 # 	collision with: 3 9 0  and 2 1 1 
1665964		 # 	collision with: 1 5 0  and 2 5 0 
1665966		 # 	collision with: 3 2 0  and 5 4 0 
1665968		 # 	collision with: 0 10 0  and 1 10 0 
1665970		 # 	collision with: 7 0 0  and 9 2 0 
1665985		 # 	collision with: 8 4 0  and 7 5 0 
1665987		 # 	collision with: 1 1 0  and 0 2 0 
1666004		 # 	collision with: 9 0 0  and 1 1 0 
1666036		 # 	collision with: 3 1 1  and 5 3 1 
1666038		 # 	collision with: 9 3 0  and 1 4 0 
1666049		 # 	collision with: 0 0 0  and 1 1 1 
1666051		 # 	collision with: 10 7 0  and 3 0 1 
1666068		 # 	collision with: 6 3 0  and 0 4 0 
1666070		 # 	collision with: 7 1 0  and 3 3 0 
1666077		 # 	collision with: 0 6 0  and 4 0 1 
1666079		 # 	collision with: 9 3 0  and 9 4 0 
1666129		 # 	collision with: 8 1 0  and 8 0 1 
1666144		 # 	collision with: 6 10 0  and 8 0 1 
1666146		 # 	collision with: 7 6 0  and 6 0 1 
1666173		 # 	collision with: 2 7 0  and 3 0 1 
1666175		 # 	collision with: 5 1 0  and 7 3 0 
1666176		 # 	collision with: 4 1 1  and 6 1 1 
1666178		 # 	collision with: 9 1 0  and 9 2 0 
1666208		 # 	collision with: 10 4 0  and 0 6 0 
1666210		 # 	collision with: 5 2 0  and 4 4 0 
1666213		 # 	collision with: 0 4 0  and 1 0 1 
1666215		 # 	collision with: 9 0 0  and 9 2 0 
1666240		 # 	collision with: 6 2 0  and 3 3 0 
1666242		 # 	collision with: 8 8 0  and 5 0 1 
1666257		 # 	collision with: 1 3 0  and 8 4 0 
1666259		 # 	collision with: 2 1 1  and 1 2 1 
1666318		 # 	collision with: 2 4 0  and 7 6 0 
1666337		 # 	collision with: 9 1 0  and 7 0 1 
1666339		 # 	collision with: 2 8 0  and 10 1 1 
1666348		 # 	collision with: 10 6 0  and 0 0 1 
1666350		 # 	collision with: 1 7 0  and 1 0 1 
1666380		 # 	collision with: 7 0 0  and 10 2 0 
1666382		 # 	collision with: 3 4 0  and 2 5 0 
1666401		 # 	collision with: 3 4 0  and 5 6 0 
1666403		 # 	collision with: 2 4 0  and 7 6 0 
1666418		 # 	collision with: 9 5 0  and 9 6 0 
1666422		 # 	collision with: 9 3 0  and 9 4 0 
1666426		 # 	collision with: 9 1 0  and 9 2 0 
1666430		 # 	collision with: 9 4 0  and 9 6 0 
1666434		 # 	collision with: 9 2 0  and 9 4 0 
1666438		 # 	collision with: 9 0 0  and 9 2 0 
1666442		 # 	collision with: 9 4 0  and 9 5 0 
1666446		 # 	collision with: 9 2 0  and 9 3 0 
1666450		 # 	collision with: 9 0 0  and 9 1 0 
1666454		 # 	collision with: 9 3 0  and 9 5 0 
1666477		 # 	collision with: 7 4 0  and 6 5 0 
1666479		 # 	collision with: 6 0 0  and 8 2 0 
1666496		 # 	collision with: 0 0 0  and 4 0 0 
1666498		 # 	collision with: 5 4 0  and 1 0 1 
1666505		 # 	collision with: 1 8 0  and 3 0 1 
1666507		 # 	collision with: 5 6 0  and 2 2 1 
1666536		 # 	collision with: 0 0 0  and 4 0 0 
1666538		 # 	collision with: 2 1 0  and 5 1 1 
1666576		 # 	collision with: 0 0 0  and 4 0 0 
1666578		 # 	collision with: 10 3 0  and 6 4 0 
1666585		 # 	collision with: 2 3 0  and 1 1 1 
1666601		 # 	collision with: 10 5 0  and 7 0 1 
1666603		 # 	collision with: 3 4 0  and 7 0 1 
1666616		 # 	collision with: 0 0 0  and 4 0 0 
1666618		 # 	collision with: 1 3 0  and 4 0 1 
1666653		 # 	collision with: 5 1 0  and 0 2 0 
1666655		 # 	collision with: 7 1 0  and 9 3 0 
1666656		 # 	collision with: 0 0 0  and 4 0 0 
1666658		 # 	collision with: 4 0 0  and 8 1 0 
1666696		 # 	collision with: 0 0 0  and 4 0 0 
1666698		 # 	collision with: 2 1 0  and 7 2 0 
1666701		 # 	collision with: 5 1 0  and 0 3 0 
1666703		 # 	collision with: 7 2 0  and 8 4 0 
1666736		 # 	collision with: 0 0 0  and 4 0 0 
1666738		 # 	collision with: 5 0 1  and 3 1 1 
1666753		 # 	collision with: 0 9 0  and 5 0 1 
1666755		 # 	collision with: 6 1 0  and 0 1 1 
1666769		 # 	collision with: 6 7 0  and 8 0 1 
1666776		 # 	collision with: 0 0 0  and 4 0 0 
1666778		 # 	collision with: 5 4 0  and 0 6 0 
1666816		 # 	collision with: 0 0 0  and 4 0 0 
1666818		 # 	collision with: 8 4 0  and 5 5 0 
1666849		 # 	collision with: 0 0 0  and 1 1 1 
1666851		 # 	collision with: 5 4 0  and 0 6 0 
1666856		 # 	collision with: 0 0 0  and 4 0 0 
1666858		 # 	collision with: 8 2 0  and 10 4 0 
1666877		 # 	collision with: 4 3 0  and 10 5 0 
1666879		 # 	collision with: 2 1 0  and 3 1 0 
1666896		 # 	collision with: 7 8 0  and 0 1 1 
1666898		 # 	collision with: 2 0 0  and 0 2 0 
1666900		 # 	collision with: 1 10 0  and 2 10 0 
1666902		 # 	collision with: 2 0 0  and 0 2 0 
1666904		 # 	collision with: 4 5 0  and 5 5 0 
1666906		 # 	collision with: 2 0 0  and 0 2 0 
1666908		 # 	collision with: 5 7 0  and 6 7 0 
1666910		 # 	collision with: 2 0 0  and 0 2 0 
1666912		 # 	collision with: 0 8 0  and 1 8 0 
1666914		 # 	collision with: 5 0 0  and 4 1 0 
1666916		 # 	collision with: 2 2 0  and 4 2 0 
1666918		 # 	collision with: 2 0 0  and 0 2 0 
1666920		 # 	collision with: 0 9 0  and 2 9 0 
1666924		 # 	collision with: 3 3 0  and 4 3 0 
1666926		 # 	collision with: 2 0 0  and 0 2 0 
1666928		 # 	collision with: 3 4 0  and 5 4 0 
1666930		 # 	collision with: 2 0 0  and 0 2 0 
1666932		 # 	collision with: 4 6 0  and 6 6 0 
1666934		 # 	collision with: 2 0 0  and 0 2 0 
1666936		 # 	collision with: 2 1 0  and 3 1 0 
1666938		 # 	collision with: 2 0 0  and 0 2 0 
1666961		 # 	collision with: 10 0 0  and 8 2 0 
1666963		 # 	collision with: 7 4 0  and 5 6 0 
1666980		 # 	collision with: 6 2 0  and 0 3 0 
1666982		 # 	collision with: 2 0 0  and 0 2 0 
1666989		 # 	collision with: 7 1 0  and 7 0 1 
1666991		 # 	collision with: 3 6 0  and 3 1 1 
1667020		 # 	collision with: 4 4 0  and 8 6 0 
1667062		 # 	collision with: 5 0 0  and 1 1 0 
1667071		 # 	collision with: 1 5 0  and 4 0 1 
1667085		 # 	collision with: 10 10 0  and 5 0 1 
1667087		 # 	collision with: 8 2 0  and 2 1 1 
1667100		 # 	collision with: 4 5 0  and 1 6 0 
1667102		 # 	collision with: 2 0 0  and 0 2 0 
1667137		 # 	collision with: 1 1 0  and 10 2 0 
1667139		 # 	collision with: 2 2 0  and 3 4 0 
1667140		 # 	collision with: 10 0 0  and 2 1 0 
1667142		 # 	collision with: 2 0 0  and 0 2 0 
1667180		 # 	collision with: 7 4 0  and 3 5 0 
1667182		 # 	collision with: 2 0 0  and 0 2 0 
1667185		 # 	collision with: 0 2 0  and 7 3 0 
1667187		 # 	collision with: 7 1 0  and 9 3 0 
1667220		 # 	collision with: 6 1 0  and 6 0 1 
1667222		 # 	collision with: 2 0 0  and 0 2 0 
1667237		 # 	collision with: 7 1 0  and 4 2 0 
1667239		 # 	collision with: 0 0 0  and 8 1 0 
1667253		 # 	collision with: 7 6 0  and 1 2 1 
1667255		 # 	collision with: 7 0 0  and 2 2 0 
1667260		 # 	collision with: 5 4 0  and 6 0 1 
1667262		 # 	collision with: 2 0 0  and 0 2 0 
1667300		 # 	collision with: 9 1 0  and 2 2 0 
1667302		 # 	collision with: 2 0 0  and 0 2 0 
1667333		 # 	collision with: 3 4 0  and 0 0 1 
1667335		 # 	collision with: 8 5 0  and 4 0 1 
1667340		 # 	collision with: 7 3 0  and 9 5 0 
1667342		 # 	collision with: 2 0 0  and 0 2 0 
1667361		 # 	collision with: 6 0 0  and 2 2 1 
1667363		 # 	collision with: 4 0 1  and 7 1 1 
1667380		 # 	collision with: 8 10 0  and 4 0 1 
1667382		 # 	collision with: 8 3 0  and 6 4 0 
1667384		 # 	collision with: 0 9 0  and 2 9 0 
1667388		 # 	collision with: 1 10 0  and 2 10 0 
1667390		 # 	collision with: 8 3 0  and 6 4 0 
1667392		 # 	collision with: 3 3 0  and 4 3 0 
1667394		 # 	collision with: 8 3 0  and 6 4 0 
1667396		 # 	collision with: 4 5 0  and 5 5 0 
1667398		 # 	collision with: 8 3 0  and 6 4 0 
1667400		 # 	collision with: 3 4 0  and 5 4 0 
1667402		 # 	collision with: 8 3 0  and 6 4 0 
1667404		 # 	collision with: 5 7 0  and 6 7 0 
1667406		 # 	collision with: 8 3 0  and 6 4 0 
1667408		 # 	collision with: 4 6 0  and 6 6 0 
1667410		 # 	collision with: 8 3 0  and 6 4 0 
1667412		 # 	collision with: 0 8 0  and 1 8 0 
1667414		 # 	collision with: 8 3 0  and 6 4 0 
1667416		 # 	collision with: 2 1 0  and 3 1 0 
1667418		 # 	collision with: 9 0 0  and 7 1 0 
1667420		 # 	collision with: 2 2 0  and 4 2 0 
1667422		 # 	collision with: 8 3 0  and 6 4 0 
1667445		 # 	collision with: 9 1 0  and 2 2 0 
1667447		 # 	collision with: 2 1 0  and 7 2 0 
1667464		 # 	collision with: 4 4 0  and 1 0 1 
1667466		 # 	collision with: 8 3 0  and 6 4 0 
1667473		 # 	collision with: 5 1 0  and 7 3 0 
1667475		 # 	collision with: 9 4 0  and 1 6 0 
1667504		 # 	collision with: 2 0 0  and 10 2 0 
1667506		 # 	collision with: 8 3 0  and 6 4 0 
1667544		 # 	collision with: 5 2 0  and 4 4 0 
1667546		 # 	collision with: 2 2 0  and 5 4 0 
1667553		 # 	collision with: 5 5 0  and 1 6 0 
1667555		 # 	collision with: 9 0 0  and 8 2 0 
1667569		 # 	collision with: 10 0 0  and 2 1 0 
1667571		 # 	collision with: 7 3 0  and 0 0 1 
1667584		 # 	collision with: 4 0 0  and 5 1 0 
1667621		 # 	collision with: 6 2 0  and 0 4 0 
1667623		 # 	collision with: 10 1 0  and 3 3 0 
1667624		 # 	collision with: 2 4 0  and 3 1 1 
1667626		 # 	collision with: 1 1 0  and 7 3 0 
1667666		 # 	collision with: 8 3 0  and 6 4 0 
1667671		 # 	collision with: 5 4 0  and 3 0 1 
1667704		 # 	collision with: 7 5 0  and 5 6 0 
1667706		 # 	collision with: 0 0 0  and 8 1 0 
1667721		 # 	collision with: 4 3 0  and 10 5 0 
1667723		 # 	collision with: 3 3 0  and 4 3 0 
1667737		 # 	collision with: 4 5 0  and 1 6 0 
1667739		 # 	collision with: 9 4 0  and 0 5 0 
1667744		 # 	collision with: 8 1 0  and 8 0 1 
1667746		 # 	collision with: 8 3 0  and 6 4 0 
1667784		 # 	collision with: 8 4 0  and 0 5 0 
1667786		 # 	collision with: 5 2 0  and 10 3 0 
1667817		 # 	collision with: 6 2 0  and 7 3 0 
1667819		 # 	collision with: 0 2 0  and 7 4 0 
1667824		 # 	collision with: 7 2 0  and 9 3 0 
1667826		 # 	collision with: 8 3 0  and 6 4 0 
1667845		 # 	collision with: 4 1 0  and 10 2 0 
1667847		 # 	collision with: 7 3 0  and 3 5 0 
1667864		 # 	collision with: 10 8 0  and 1 0 1 
1667866		 # 	collision with: 3 3 0  and 8 5 0 
1667868		 # 	collision with: 0 8 0  and 1 8 0 
1667870		 # 	collision with: 6 3 0  and 3 4 0 
1667872		 # 	collision with: 3 4 0  and 5 4 0 
1667874		 # 	collision with: 2 1 0  and 10 2 0 
1667876		 # 	collision with: 1 10 0  and 2 10 0 
1667878		 # 	collision with: 0 0 0  and 8 1 0 
1667880		 # 	collision with: 2 2 0  and 4 2 0 
1667882		 # 	collision with: 8 0 0  and 2 2 0 
1667884		 # 	collision with: 4 6 0  and 6 6 0 
1667886		 # 	collision with: 5 4 0  and 10 6 0 
1667888		 # 	collision with: 4 5 0  and 5 5 0 
1667890		 # 	collision with: 10 5 0  and 7 6 0 
1667892		 # 	collision with: 0 9 0  and 2 9 0 
1667896		 # 	collision with: 2 1 0  and 3 1 0 
1667898		 # 	collision with: 4 2 0  and 1 3 0 
1667900		 # 	collision with: 5 7 0  and 6 7 0 
1667902		 # 	collision with: 10 1 0  and 4 3 0 
1667904		 # 	collision with: 3 3 0  and 4 3 0 
1667906		 # 	collision with: 3 2 0  and 5 0 1 
1667929		 # 	collision with: 4 0 0  and 6 2 0 
1667931		 # 	collision with: 4 2 0  and 1 3 0 
1667948		 # 	collision with: 4 8 0  and 2 1 1 
1667950		 # 	collision with: 5 9 0  and 10 0 1 
1667957		 # 	collision with: 8 3 0  and 7 5 0 
1667959		 # 	collision with: 6 10 0  and 1 0 1 
1667988		 # 	collision with: 10 1 0  and 10 0 1 
1667990		 # 	collision with: 4 4 0  and 9 0 1 
8.62567secs	4982
