# prime 11
# degree 2
# input variables 3
# output variables 3
# reload computed balance functions from file balance-1132of3248-p11d2m3-debug.log
# p = 11
# n = 3
# smalldomain p^m 1331
# domain p^n 1331
#	 p^2 = 121
#	 p^3 = 1331
#	 p^4 = 14641
#	 p^5 = 161051
#	 p^6 = 1771561
#	 p^7 = 19487171
#	 p^8 = 214358881
#	 p^9 = 2357947691
opening file : balance-1132of3248-p11d2m3-debug.log
reloading for step2...
6792000		 # 	collision with: 4 2 0  and 5 2 0 
6792004		 # 	collision with: 2 10 0  and 3 10 0 
6792006		 # 	collision with: 8 1 0  and 0 2 0 
6792008		 # 	collision with: 3 4 0  and 5 4 0 
6792010		 # 	collision with: 10 0 0  and 5 2 0 
6792012		 # 	collision with: 2 8 0  and 4 8 0 
6792014		 # 	collision with: 0 3 0  and 6 5 0 
6792024		 # 	collision with: 6 4 0  and 1 5 0 
6792026		 # 	collision with: 4 0 1  and 2 1 1 
6792045		 # 	collision with: 8 3 0  and 5 4 0 
6792047		 # 	collision with: 3 6 0  and 2 1 1 
6792065		 # 	collision with: 2 10 0  and 2 1 1 
6792067		 # 	collision with: 8 0 0  and 2 2 0 
6792076		 # 	collision with: 5 0 0  and 7 2 0 
6792078		 # 	collision with: 1 2 0  and 2 0 1 
6792121		 # 	collision with: 2 6 0  and 9 0 1 
6792123		 # 	collision with: 0 0 0  and 5 2 0 
6792128		 # 	collision with: 2 5 0  and 0 6 0 
6792130		 # 	collision with: 2 3 0  and 6 4 0 
6792155		 # 	collision with: 5 1 0  and 6 3 0 
6792182		 # 	collision with: 10 1 0  and 6 3 0 
6792193		 # 	collision with: 10 0 0  and 9 2 0 
6792195		 # 	collision with: 1 2 0  and 4 3 0 
6792232		 # 	collision with: 10 2 0  and 2 4 0 
6792237		 # 	collision with: 10 2 0  and 9 3 0 
6792239		 # 	collision with: 9 3 0  and 8 4 0 
6792240		 # 	collision with: 5 4 0  and 9 6 0 
6792242		 # 	collision with: 8 0 0  and 7 2 0 
6792292		 # 	collision with: 1 2 0  and 2 0 1 
6792294		 # 	collision with: 9 1 0  and 5 2 0 
6792321		 # 	collision with: 3 2 0  and 4 0 1 
6792323		 # 	collision with: 7 10 0  and 5 0 1 
6792344		 # 	collision with: 10 8 0  and 2 2 1 
6792346		 # 	collision with: 10 6 0  and 7 1 1 
6792353		 # 	collision with: 5 0 0  and 7 2 0 
6792355		 # 	collision with: 3 4 0  and 5 4 0 
6792396		 # 	collision with: 10 0 0  and 4 1 0 
6792398		 # 	collision with: 10 9 0  and 6 0 1 
6792409		 # 	collision with: 6 4 0  and 1 5 0 
6792411		 # 	collision with: 4 4 0  and 0 0 1 
6792429		 # 	collision with: 3 0 0  and 9 1 0 
6792431		 # 	collision with: 2 0 0  and 7 1 1 
6792448		 # 	collision with: 9 1 0  and 9 0 1 
6792450		 # 	collision with: 2 2 0  and 6 4 0 
6792456		 # 	collision with: 1 5 0  and 5 0 1 
6792458		 # 	collision with: 2 2 0  and 6 4 0 
6792460		 # 	collision with: 4 2 0  and 5 2 0 
6792464		 # 	collision with: 1 1 0  and 3 1 0 
6792466		 # 	collision with: 9 3 0  and 0 4 0 
6792468		 # 	collision with: 2 8 0  and 4 8 0 
6792470		 # 	collision with: 4 4 0  and 8 6 0 
6792472		 # 	collision with: 3 6 0  and 4 6 0 
6792474		 # 	collision with: 10 4 0  and 1 5 0 
6792476		 # 	collision with: 0 7 0  and 1 7 0 
6792478		 # 	collision with: 0 5 0  and 2 6 0 
6792480		 # 	collision with: 3 4 0  and 5 4 0 
6792482		 # 	collision with: 1 1 0  and 5 3 0 
6792484		 # 	collision with: 0 5 0  and 2 5 0 
6792486		 # 	collision with: 8 2 0  and 10 3 0 
6792488		 # 	collision with: 1 3 0  and 2 3 0 
6792490		 # 	collision with: 8 10 0  and 2 0 1 
6792492		 # 	collision with: 2 10 0  and 3 10 0 
6792494		 # 	collision with: 6 0 0  and 8 1 0 
6792496		 # 	collision with: 5 9 0  and 6 9 0 
6792498		 # 	collision with: 0 0 0  and 4 2 0 
6792508		 # 	collision with: 4 5 0  and 9 0 1 
6792510		 # 	collision with: 2 1 0  and 2 2 0 
6792529		 # 	collision with: 5 0 0  and 1 1 0 
6792531		 # 	collision with: 6 4 0  and 2 5 0 
6792549		 # 	collision with: 2 5 0  and 0 6 0 
6792551		 # 	collision with: 6 4 0  and 7 0 1 
6792560		 # 	collision with: 1 1 0  and 7 0 1 
6792562		 # 	collision with: 10 0 0  and 5 2 0 
6792605		 # 	collision with: 0 0 0  and 4 1 0 
6792607		 # 	collision with: 2 3 0  and 2 4 0 
6792612		 # 	collision with: 4 1 0  and 3 3 0 
6792614		 # 	collision with: 0 0 0  and 6 1 0 
6792637		 # 	collision with: 5 0 0  and 3 1 0 
6792639		 # 	collision with: 2 2 0  and 7 0 1 
6792664		 # 	collision with: 5 4 0  and 9 6 0 
6792666		 # 	collision with: 2 0 1  and 0 2 1 
6792677		 # 	collision with: 4 3 0  and 5 5 0 
6792679		 # 	collision with: 6 7 0  and 0 0 1 
6792716		 # 	collision with: 10 2 0  and 9 3 0 
6792718		 # 	collision with: 9 3 0  and 8 4 0 
6792721		 # 	collision with: 2 4 0  and 1 5 0 
6792723		 # 	collision with: 1 5 0  and 0 6 0 
6792724		 # 	collision with: 1 3 0  and 10 4 0 
6792726		 # 	collision with: 8 6 0  and 0 0 1 
6792776		 # 	collision with: 0 2 0  and 8 4 0 
6792805		 # 	collision with: 4 9 0  and 0 1 1 
6792807		 # 	collision with: 2 3 0  and 2 2 1 
6792828		 # 	collision with: 10 3 0  and 5 5 0 
6792830		 # 	collision with: 2 1 0  and 5 1 1 
6792837		 # 	collision with: 1 4 0  and 4 0 1 
6792839		 # 	collision with: 5 2 0  and 7 4 0 
6792880		 # 	collision with: 4 10 0  and 9 0 1 
6792882		 # 	collision with: 9 10 0  and 1 1 1 
6792893		 # 	collision with: 9 3 0  and 6 4 0 
6792895		 # 	collision with: 10 2 0  and 0 3 0 
6792915		 # 	collision with: 10 4 0  and 1 5 0 
6792934		 # 	collision with: 3 3 0  and 6 5 0 
6792940		 # 	collision with: 6 4 0  and 4 0 1 
6792942		 # 	collision with: 3 4 0  and 4 5 0 
6792944		 # 	collision with: 1 1 0  and 3 1 0 
6792946		 # 	collision with: 3 1 0  and 5 3 0 
6792948		 # 	collision with: 3 6 0  and 4 6 0 
6792950		 # 	collision with: 6 0 0  and 7 1 0 
6792952		 # 	collision with: 3 4 0  and 5 4 0 
6792954		 # 	collision with: 9 4 0  and 0 6 0 
6792956		 # 	collision with: 1 3 0  and 2 3 0 
6792958		 # 	collision with: 1 3 0  and 2 4 0 
6792960		 # 	collision with: 5 9 0  and 6 9 0 
6792962		 # 	collision with: 7 6 0  and 8 7 0 
6792964		 # 	collision with: 4 2 0  and 5 2 0 
6792968		 # 	collision with: 2 8 0  and 4 8 0 
6792970		 # 	collision with: 5 2 0  and 7 4 0 
6792972		 # 	collision with: 0 7 0  and 1 7 0 
6792974		 # 	collision with: 0 0 0  and 1 1 1 
6792976		 # 	collision with: 0 5 0  and 2 5 0 
6792978		 # 	collision with: 10 2 0  and 0 3 0 
6792980		 # 	collision with: 2 10 0  and 3 10 0 
6792982		 # 	collision with: 7 3 0  and 9 5 0 
6792992		 # 	collision with: 3 3 0  and 8 4 0 
6792994		 # 	collision with: 2 2 0  and 6 4 0 
6793013		 # 	collision with: 5 1 0  and 8 0 1 
6793015		 # 	collision with: 1 3 0  and 2 5 0 
6793033		 # 	collision with: 10 0 1  and 7 1 1 
6793035		 # 	collision with: 9 1 0  and 5 2 0 
6793044		 # 	collision with: 5 4 0  and 9 6 0 
6793046		 # 	collision with: 7 2 0  and 2 3 0 
6793089		 # 	collision with: 9 5 0  and 10 6 0 
6793091		 # 	collision with: 10 2 0  and 0 3 0 
6793096		 # 	collision with: 9 5 0  and 10 6 0 
6793098		 # 	collision with: 8 1 0  and 0 2 0 
6793121		 # 	collision with: 5 3 0  and 2 4 0 
6793123		 # 	collision with: 10 3 0  and 6 1 1 
6793148		 # 	collision with: 0 9 0  and 3 0 1 
6793150		 # 	collision with: 2 5 0  and 1 0 1 
6793163		 # 	collision with: 7 7 0  and 9 0 1 
6793202		 # 	collision with: 10 1 0  and 8 3 0 
6793205		 # 	collision with: 0 0 0  and 9 2 0 
6793207		 # 	collision with: 10 1 0  and 8 3 0 
6793208		 # 	collision with: 3 2 0  and 10 3 0 
6793210		 # 	collision with: 2 0 0  and 2 1 0 
6793260		 # 	collision with: 6 2 0  and 7 4 0 
6793262		 # 	collision with: 5 2 0  and 9 1 1 
6793289		 # 	collision with: 3 2 0  and 3 1 1 
6793291		 # 	collision with: 5 5 0  and 8 1 1 
6793312		 # 	collision with: 0 1 0  and 9 2 0 
6793314		 # 	collision with: 7 3 0  and 5 4 0 
6793321		 # 	collision with: 3 3 0  and 0 4 0 
6793323		 # 	collision with: 6 2 0  and 3 0 1 
6793364		 # 	collision with: 5 8 0  and 6 1 1 
6793377		 # 	collision with: 0 4 0  and 7 6 0 
6793379		 # 	collision with: 5 0 0  and 10 2 0 
6793397		 # 	collision with: 7 4 0  and 5 5 0 
6793399		 # 	collision with: 7 9 0  and 5 1 1 
6793416		 # 	collision with: 8 4 0  and 2 0 1 
6793418		 # 	collision with: 1 3 0  and 0 5 0 
6793430		 # 	collision with: 2 1 0  and 2 0 1 
6793434		 # 	collision with: 7 6 0  and 9 0 1 
6793438		 # 	collision with: 6 2 0  and 1 0 1 
6793442		 # 	collision with: 8 3 0  and 3 8 1 
6793446		 # 	collision with: 9 0 0  and 9 1 0 
6793450		 # 	collision with: 7 7 0  and 1 2 1 
6793454		 # 	collision with: 5 6 0  and 2 2 1 
6793458		 # 	collision with: 6 1 0  and 5 2 1 
6793462		 # 	collision with: 9 4 0  and 3 0 1 
6793466		 # 	collision with: 1 5 0  and 5 0 1 
6793468		 # 	collision with: 3 6 0  and 5 0 1 
6793470		 # 	collision with: 5 9 0  and 1 0 1 
6793493		 # 	collision with: 0 0 0  and 9 2 0 
6793495		 # 	collision with: 6 1 0  and 1 3 0 
6793512		 # 	collision with: 10 0 1  and 2 1 1 
6793514		 # 	collision with: 1 7 0  and 7 0 1 
6793525		 # 	collision with: 0 0 0  and 1 1 1 
6793527		 # 	collision with: 5 4 0  and 7 6 0 
6793556		 # 	collision with: 2 8 0  and 5 2 1 
6793558		 # 	collision with: 9 0 0  and 2 3 1 
6793565		 # 	collision with: 0 1 0  and 5 2 0 
6793567		 # 	collision with: 5 4 0  and 7 6 0 
6793600		 # 	collision with: 7 1 0  and 4 1 1 
6793602		 # 	collision with: 2 6 0  and 1 0 1 
6793629		 # 	collision with: 2 2 0  and 0 3 0 
6793631		 # 	collision with: 5 4 0  and 7 6 0 
6793644		 # 	collision with: 2 1 0  and 1 1 1 
6793646		 # 	collision with: 0 2 0  and 1 2 0 
6793685		 # 	collision with: 6 5 0  and 8 7 0 
6793687		 # 	collision with: 0 2 0  and 2 2 0 
6793688		 # 	collision with: 1 3 0  and 5 0 1 
6793690		 # 	collision with: 7 1 0  and 9 2 1 
6793693		 # 	collision with: 10 0 0  and 9 1 0 
6793695		 # 	collision with: 9 1 0  and 8 2 0 
6793732		 # 	collision with: 10 4 0  and 1 0 1 
6793734		 # 	collision with: 10 2 0  and 9 0 1 
6793749		 # 	collision with: 9 2 0  and 0 3 0 
6793751		 # 	collision with: 5 4 0  and 7 6 0 
6793776		 # 	collision with: 2 7 0  and 6 0 1 
6793778		 # 	collision with: 6 4 0  and 1 0 2 
6793813		 # 	collision with: 0 1 0  and 6 2 0 
6793815		 # 	collision with: 2 2 0  and 9 4 0 
6793820		 # 	collision with: 3 3 0  and 4 1 1 
6793822		 # 	collision with: 10 9 0  and 4 4 1 
6793853		 # 	collision with: 3 3 0  and 4 1 1 
6793855		 # 	collision with: 8 3 0  and 5 5 0 
6793864		 # 	collision with: 1 8 0  and 8 0 1 
6793866		 # 	collision with: 2 7 1  and 6 0 2 
6793885		 # 	collision with: 0 0 0  and 2 2 0 
6793887		 # 	collision with: 9 1 0  and 3 2 0 
6793908		 # 	collision with: 7 7 0  and 1 2 1 
6793910		 # 	collision with: 7 2 0  and 2 7 1 
6793912		 # 	collision with: 6 6 0  and 3 0 1 
6793914		 # 	collision with: 3 6 0  and 3 0 1 
6793916		 # 	collision with: 10 8 0  and 1 1 1 
6793918		 # 	collision with: 9 8 0  and 1 0 1 
6793920		 # 	collision with: 4 1 0  and 4 0 1 
6793922		 # 	collision with: 7 3 0  and 0 0 1 
6793924		 # 	collision with: 8 10 0  and 1 1 1 
6793926		 # 	collision with: 5 1 0  and 1 0 1 
6793928		 # 	collision with: 0 2 0  and 1 2 0 
6793930		 # 	collision with: 8 0 0  and 7 1 0 
6793932		 # 	collision with: 7 7 0  and 2 1 1 
6793936		 # 	collision with: 10 3 0  and 8 0 1 
6793938		 # 	collision with: 2 9 0  and 8 0 1 
6793940		 # 	collision with: 9 5 0  and 1 0 1 
6793942		 # 	collision with: 2 5 0  and 3 1 1 
6793944		 # 	collision with: 5 9 0  and 0 1 1 
6793946		 # 	collision with: 7 3 0  and 2 3 1 
6793948		 # 	collision with: 3 2 0  and 6 0 1 
6793950		 # 	collision with: 3 3 0  and 1 0 1 
6793952		 # 	collision with: 9 10 0  and 0 2 1 
6793954		 # 	collision with: 7 4 0  and 1 0 1 
6793977		 # 	collision with: 10 0 0  and 9 1 0 
6793979		 # 	collision with: 10 1 0  and 8 3 0 
6793996		 # 	collision with: 8 3 0  and 3 8 1 
6793998		 # 	collision with: 9 2 0  and 4 1 1 
6794009		 # 	collision with: 7 2 0  and 0 3 0 
6794011		 # 	collision with: 5 2 0  and 9 3 0 
6794040		 # 	collision with: 6 2 0  and 1 0 1 
6794042		 # 	collision with: 0 9 0  and 3 0 1 
6794049		 # 	collision with: 5 4 0  and 7 5 0 
6794051		 # 	collision with: 3 5 0  and 10 6 0 
6794084		 # 	collision with: 7 6 0  and 9 0 1 
6794086		 # 	collision with: 6 1 0  and 3 0 1 
6794113		 # 	collision with: 0 1 0  and 5 2 0 
6794115		 # 	collision with: 9 1 0  and 7 2 0 
6794171		 # 	collision with: 0 2 0  and 1 2 0 
6794172		 # 	collision with: 4 10 0  and 7 0 1 
6794174		 # 	collision with: 6 8 0  and 6 2 1 
6794177		 # 	collision with: 6 2 0  and 0 3 0 
6794216		 # 	collision with: 1 5 0  and 5 0 1 
6794218		 # 	collision with: 7 7 0  and 4 0 1 
6794233		 # 	collision with: 7 3 0  and 0 1 1 
6794235		 # 	collision with: 6 3 0  and 2 4 0 
6794260		 # 	collision with: 9 4 0  and 3 0 1 
6794262		 # 	collision with: 6 10 1  and 8 0 2 
6794297		 # 	collision with: 8 1 0  and 2 0 1 
6794299		 # 	collision with: 1 5 0  and 4 0 1 
6794304		 # 	collision with: 6 1 0  and 5 2 1 
6794306		 # 	collision with: 1 3 0  and 3 0 1 
6794337		 # 	collision with: 6 0 0  and 1 1 0 
6794339		 # 	collision with: 6 1 0  and 1 3 0 
6794348		 # 	collision with: 5 6 0  and 2 2 1 
6794350		 # 	collision with: 10 9 0  and 1 0 1 
6794369		 # 	collision with: 9 5 0  and 4 6 0 
6794392		 # 	collision with: 3 7 0  and 0 2 1 
6794394		 # 	collision with: 9 6 0  and 0 0 1 
6794396		 # 	collision with: 4 3 0  and 3 0 1 
6794400		 # 	collision with: 5 5 0  and 0 0 1 
6794402		 # 	collision with: 6 2 0  and 0 0 1 
6794404		 # 	collision with: 5 10 0  and 9 0 1 
6794406		 # 	collision with: 1 3 0  and 9 0 1 
6794408		 # 	collision with: 4 1 0  and 6 0 1 
6794410		 # 	collision with: 5 6 0  and 1 0 1 
6794412		 # 	collision with: 7 10 0  and 3 2 1 
6794414		 # 	collision with: 6 1 0  and 5 1 1 
6794416		 # 	collision with: 1 3 0  and 3 0 1 
6794418		 # 	collision with: 7 3 0  and 2 0 1 
6794420		 # 	collision with: 9 1 0  and 3 2 1 
6794422		 # 	collision with: 5 7 0  and 0 1 1 
6794424		 # 	collision with: 7 4 0  and 7 0 1 
6794426		 # 	collision with: 7 6 0  and 3 1 1 
6794428		 # 	collision with: 5 5 0  and 0 2 1 
6794430		 # 	collision with: 5 7 0  and 6 2 1 
6794432		 # 	collision with: 0 2 0  and 1 2 0 
6794434		 # 	collision with: 9 7 0  and 8 1 1 
6794436		 # 	collision with: 9 10 1  and 0 0 2 
6794438		 # 	collision with: 8 5 0  and 0 2 1 
6794461		 # 	collision with: 4 5 0  and 3 6 0 
6794463		 # 	collision with: 9 1 0  and 8 2 0 
6794480		 # 	collision with: 3 8 0  and 1 1 1 
6794482		 # 	collision with: 2 9 0  and 0 1 1 
6794493		 # 	collision with: 1 1 0  and 1 0 1 
6794524		 # 	collision with: 2 4 0  and 0 0 1 
6794526		 # 	collision with: 1 3 0  and 4 0 1 
6794533		 # 	collision with: 9 6 0  and 4 0 1 
6794535		 # 	collision with: 0 0 0  and 2 1 0 
6794568		 # 	collision with: 9 1 0  and 1 0 1 
6794570		 # 	collision with: 8 4 0  and 1 1 1 
6794597		 # 	collision with: 6 4 0  and 3 6 0 
6794599		 # 	collision with: 10 4 0  and 6 5 0 
6794612		 # 	collision with: 3 10 0  and 1 0 1 
6794614		 # 	collision with: 10 3 0  and 0 1 1 
6794653		 # 	collision with: 5 8 0  and 6 3 1 
6794655		 # 	collision with: 5 2 0  and 6 2 0 
6794656		 # 	collision with: 4 10 0  and 6 1 1 
6794658		 # 	collision with: 8 9 0  and 9 0 1 
6794661		 # 	collision with: 4 4 0  and 2 6 0 
6794663		 # 	collision with: 8 0 0  and 7 1 0 
6794700		 # 	collision with: 10 9 0  and 0 0 1 
6794702		 # 	collision with: 7 2 0  and 0 0 1 
6794717		 # 	collision with: 7 1 0  and 7 0 1 
6794719		 # 	collision with: 1 3 0  and 5 4 0 
6794744		 # 	collision with: 4 1 0  and 4 0 1 
6794746		 # 	collision with: 4 0 0  and 10 1 0 
6794781		 # 	collision with: 6 5 0  and 10 6 0 
6794788		 # 	collision with: 6 0 0  and 1 1 0 
6794790		 # 	collision with: 0 10 0  and 3 0 1 
6794821		 # 	collision with: 5 0 1  and 2 1 1 
6794823		 # 	collision with: 3 2 0  and 0 1 1 
6794855		 # 	collision with: 9 3 0  and 9 4 0 
6794876		 # 	collision with: 0 2 0  and 3 0 1 
6794878		 # 	collision with: 1 6 0  and 6 0 1 
6794880		 # 	collision with: 4 10 0  and 2 2 1 
6794882		 # 	collision with: 2 7 0  and 7 2 1 
6794884		 # 	collision with: 5 3 0  and 3 5 1 
6794886		 # 	collision with: 7 1 0  and 0 0 1 
6794888		 # 	collision with: 1 6 0  and 5 0 1 
6794890		 # 	collision with: 8 1 0  and 8 0 1 
6794892		 # 	collision with: 0 2 0  and 1 2 0 
6794894		 # 	collision with: 6 5 0  and 0 0 1 
6794896		 # 	collision with: 7 6 0  and 0 1 1 
6794898		 # 	collision with: 7 2 0  and 6 2 1 
6794900		 # 	collision with: 1 4 0  and 4 0 1 
6794902		 # 	collision with: 7 9 0  and 5 0 1 
6794904		 # 	collision with: 8 1 0  and 8 0 1 
6794908		 # 	collision with: 10 7 0  and 0 0 1 
6794910		 # 	collision with: 0 9 0  and 4 0 1 
6794912		 # 	collision with: 5 6 0  and 5 0 1 
6794914		 # 	collision with: 10 3 0  and 3 10 1 
6794916		 # 	collision with: 6 4 0  and 4 0 1 
6794918		 # 	collision with: 4 10 0  and 0 1 1 
6794920		 # 	collision with: 4 0 0  and 8 1 0 
6794922		 # 	collision with: 9 8 0  and 6 1 1 
6794945		 # 	collision with: 4 2 0  and 0 3 0 
6794947		 # 	collision with: 9 0 0  and 7 2 0 
6794964		 # 	collision with: 5 6 0  and 4 0 1 
6794966		 # 	collision with: 2 1 0  and 3 0 1 
6794977		 # 	collision with: 3 5 0  and 5 6 0 
6794979		 # 	collision with: 9 0 0  and 2 2 0 
6795008		 # 	collision with: 1 5 0  and 7 0 1 
6795010		 # 	collision with: 8 10 0  and 9 5 1 
6795017		 # 	collision with: 3 1 0  and 8 3 0 
6795019		 # 	collision with: 4 9 0  and 8 0 1 
6795083		 # 	collision with: 8 1 0  and 8 0 1 
6795096		 # 	collision with: 9 6 0  and 2 1 1 
6795098		 # 	collision with: 0 2 0  and 1 0 1 
6795137		 # 	collision with: 4 2 0  and 0 4 0 
6795139		 # 	collision with: 4 2 0  and 6 2 0 
6795140		 # 	collision with: 8 9 0  and 6 1 1 
6795142		 # 	collision with: 2 3 0  and 10 0 1 
6795145		 # 	collision with: 3 4 0  and 2 5 0 
6795147		 # 	collision with: 2 5 0  and 1 6 0 
6795184		 # 	collision with: 2 4 0  and 4 0 2 
6795186		 # 	collision with: 3 0 0  and 2 2 1 
6795201		 # 	collision with: 10 4 0  and 5 6 0 
6795203		 # 	collision with: 8 2 0  and 3 0 1 
6795228		 # 	collision with: 2 6 0  and 10 0 1 
6795230		 # 	collision with: 2 0 0  and 6 1 0 
6795265		 # 	collision with: 4 3 0  and 2 4 0 
6795267		 # 	collision with: 8 9 0  and 0 0 1 
6795272		 # 	collision with: 5 10 0  and 5 0 1 
6795274		 # 	collision with: 9 10 0  and 0 1 1 
6795305		 # 	collision with: 9 2 0  and 0 3 0 
6795307		 # 	collision with: 1 4 0  and 5 6 0 
6795316		 # 	collision with: 1 3 0  and 3 1 1 
6795318		 # 	collision with: 10 6 0  and 9 1 1 
6795337		 # 	collision with: 0 0 0  and 5 2 0 
6795339		 # 	collision with: 9 2 0  and 9 4 0 
6795360		 # 	collision with: 2 9 0  and 8 0 1 
6795362		 # 	collision with: 2 4 0  and 9 0 1 
6795364		 # 	collision with: 7 8 0  and 1 1 1 
6795366		 # 	collision with: 5 1 0  and 3 0 1 
6795368		 # 	collision with: 1 2 0  and 7 0 1 
6795372		 # 	collision with: 5 8 0  and 0 0 1 
6795374		 # 	collision with: 9 4 0  and 10 0 1 
6795376		 # 	collision with: 7 4 0  and 1 0 1 
6795378		 # 	collision with: 4 3 0  and 4 0 1 
6795380		 # 	collision with: 3 1 0  and 0 3 1 
6795382		 # 	collision with: 4 2 0  and 5 0 1 
6795384		 # 	collision with: 10 5 0  and 0 1 1 
6795386		 # 	collision with: 5 0 0  and 1 1 0 
6795388		 # 	collision with: 5 7 0  and 3 1 1 
6795390		 # 	collision with: 5 8 0  and 7 1 1 
6795392		 # 	collision with: 1 6 0  and 6 0 1 
6795394		 # 	collision with: 5 3 0  and 1 0 1 
6795396		 # 	collision with: 0 2 0  and 1 2 0 
6795398		 # 	collision with: 6 7 0  and 5 0 1 
6795400		 # 	collision with: 7 6 0  and 6 0 1 
6795402		 # 	collision with: 9 2 0  and 1 0 1 
6795404		 # 	collision with: 8 9 0  and 9 0 1 
6795406		 # 	collision with: 9 1 0  and 1 2 0 
6795429		 # 	collision with: 3 4 0  and 2 5 0 
6795431		 # 	collision with: 8 0 0  and 7 1 0 
6795448		 # 	collision with: 3 1 0  and 0 0 1 
6795450		 # 	collision with: 1 2 0  and 2 0 1 
6795461		 # 	collision with: 5 2 0  and 0 4 0 
6795463		 # 	collision with: 5 3 0  and 4 5 0 
6795492		 # 	collision with: 3 0 0  and 6 1 0 
6795494		 # 	collision with: 6 5 0  and 1 0 1 
6795501		 # 	collision with: 6 3 0  and 2 5 0 
6795503		 # 	collision with: 0 3 0  and 7 1 1 
6795536		 # 	collision with: 3 10 0  and 3 0 1 
6795538		 # 	collision with: 10 6 0  and 0 0 1 
6795565		 # 	collision with: 0 1 0  and 6 2 0 
6795567		 # 	collision with: 3 2 0  and 9 3 0 
6795580		 # 	collision with: 1 7 0  and 7 0 1 
6795582		 # 	collision with: 8 10 0  and 6 0 1 
6795621		 # 	collision with: 10 8 0  and 4 0 1 
6795623		 # 	collision with: 4 2 0  and 5 2 0 
6795624		 # 	collision with: 6 1 0  and 4 1 1 
6795626		 # 	collision with: 10 5 0  and 4 1 1 
6795629		 # 	collision with: 6 0 0  and 1 1 0 
6795631		 # 	collision with: 9 1 0  and 6 2 0 
6795668		 # 	collision with: 9 9 0  and 3 1 1 
6795670		 # 	collision with: 5 8 0  and 3 0 1 
6795685		 # 	collision with: 10 1 0  and 1 3 0 
6795687		 # 	collision with: 0 0 0  and 1 1 1 
6795712		 # 	collision with: 9 4 0  and 0 2 1 
6795714		 # 	collision with: 6 6 0  and 3 1 2 
6795749		 # 	collision with: 3 8 0  and 6 0 1 
6795751		 # 	collision with: 1 5 0  and 3 6 0 
6795791		 # 	collision with: 9 1 0  and 9 0 1 
6795800		 # 	collision with: 9 2 0  and 4 0 1 
6795802		 # 	collision with: 6 9 0  and 3 1 1 
6795821		 # 	collision with: 7 1 0  and 4 3 0 
6795823		 # 	collision with: 9 2 0  and 9 3 0 
6795844		 # 	collision with: 0 8 0  and 5 0 1 
6795846		 # 	collision with: 1 4 0  and 0 0 1 
6795848		 # 	collision with: 1 1 0  and 1 0 1 
6795850		 # 	collision with: 8 7 0  and 0 0 1 
6795852		 # 	collision with: 2 5 0  and 5 0 2 
6795854		 # 	collision with: 1 1 0  and 1 0 1 
6795856		 # 	collision with: 0 2 0  and 1 2 0 
6795858		 # 	collision with: 2 7 0  and 9 1 1 
6795860		 # 	collision with: 5 6 0  and 4 2 1 
6795862		 # 	collision with: 8 10 0  and 4 1 1 
6795864		 # 	collision with: 8 6 0  and 0 2 1 
6795866		 # 	collision with: 2 6 0  and 5 2 1 
6795868		 # 	collision with: 10 4 0  and 0 0 2 
6795870		 # 	collision with: 6 5 0  and 3 2 1 
6795872		 # 	collision with: 10 8 0  and 3 1 1 
6795874		 # 	collision with: 4 0 0  and 10 1 0 
6795876		 # 	collision with: 6 0 0  and 0 6 1 
6795880		 # 	collision with: 4 8 0  and 5 0 1 
6795882		 # 	collision with: 4 10 0  and 7 2 1 
6795884		 # 	collision with: 5 9 0  and 3 0 2 
6795886		 # 	collision with: 1 5 0  and 3 0 2 
6795888		 # 	collision with: 1 10 0  and 1 0 1 
6795890		 # 	collision with: 2 9 0  and 0 0 1 
6795913		 # 	collision with: 3 3 0  and 1 5 0 
6795915		 # 	collision with: 2 5 0  and 1 6 0 
6795932		 # 	collision with: 7 7 0  and 4 0 1 
6795934		 # 	collision with: 10 10 1  and 1 0 2 
6795945		 # 	collision with: 4 5 0  and 6 2 1 
6795947		 # 	collision with: 10 3 0  and 2 5 0 
6795987		 # 	collision with: 2 1 1  and 5 2 1 
6796020		 # 	collision with: 9 0 0  and 7 1 0 
6796022		 # 	collision with: 6 2 0  and 3 0 1 
6796049		 # 	collision with: 0 0 0  and 1 1 1 
6796051		 # 	collision with: 9 0 0  and 8 2 0 
6796064		 # 	collision with: 2 3 0  and 4 0 1 
6796066		 # 	collision with: 4 7 0  and 10 0 1 
6796105		 # 	collision with: 5 3 0  and 9 5 0 
6796107		 # 	collision with: 3 2 0  and 5 2 0 
6796108		 # 	collision with: 8 7 0  and 7 0 1 
6796110		 # 	collision with: 7 0 0  and 5 1 0 
6796113		 # 	collision with: 2 3 0  and 1 4 0 
6796115		 # 	collision with: 1 4 0  and 0 5 0 
6796152		 # 	collision with: 9 0 0  and 0 9 1 
6796154		 # 	collision with: 8 8 0  and 6 5 1 
6796169		 # 	collision with: 8 5 0  and 2 0 1 
6796196		 # 	collision with: 5 7 0  and 1 1 1 
6796198		 # 	collision with: 9 5 0  and 3 0 1 
6796233		 # 	collision with: 7 3 0  and 9 4 0 
6796235		 # 	collision with: 2 1 0  and 2 0 1 
6796240		 # 	collision with: 1 4 0  and 4 0 1 
6796242		 # 	collision with: 10 8 0  and 8 10 1 
6796273		 # 	collision with: 5 8 0  and 6 0 1 
6796275		 # 	collision with: 8 7 0  and 0 1 1 
6796284		 # 	collision with: 10 4 0  and 6 0 1 
6796286		 # 	collision with: 5 8 0  and 4 0 1 
6796305		 # 	collision with: 9 8 0  and 0 1 1 
6796307		 # 	collision with: 9 1 0  and 9 3 0 
6796328		 # 	collision with: 5 1 0  and 3 0 1 
6796330		 # 	collision with: 5 9 0  and 7 0 1 
6796332		 # 	collision with: 5 4 0  and 4 0 2 
6796334		 # 	collision with: 4 3 0  and 7 1 1 
6796336		 # 	collision with: 0 3 0  and 5 0 1 
6796338		 # 	collision with: 6 5 0  and 1 1 1 
6796340		 # 	collision with: 4 4 0  and 3 2 1 
6796344		 # 	collision with: 3 1 0  and 3 0 1 
6796346		 # 	collision with: 7 8 1  and 3 1 2 
6796348		 # 	collision with: 3 2 0  and 4 0 1 
6796350		 # 	collision with: 2 3 0  and 3 1 1 
6796352		 # 	collision with: 4 6 0  and 2 3 1 
6796354		 # 	collision with: 3 0 0  and 8 1 0 
6796356		 # 	collision with: 10 5 0  and 7 0 1 
6796358		 # 	collision with: 5 5 0  and 2 0 1 
6796360		 # 	collision with: 0 2 0  and 1 2 0 
6796362		 # 	collision with: 3 1 0  and 3 0 1 
6796364		 # 	collision with: 4 3 0  and 5 0 1 
6796366		 # 	collision with: 0 2 0  and 5 0 1 
6796368		 # 	collision with: 8 9 0  and 0 0 1 
6796370		 # 	collision with: 1 2 0  and 2 0 1 
6796372		 # 	collision with: 8 10 0  and 7 0 1 
6796374		 # 	collision with: 10 8 0  and 1 0 1 
6796397		 # 	collision with: 2 3 0  and 1 4 0 
6796399		 # 	collision with: 9 0 0  and 5 2 0 
6796416		 # 	collision with: 5 0 1  and 3 1 1 
6796418		 # 	collision with: 10 1 0  and 10 0 1 
6796429		 # 	collision with: 6 2 0  and 0 4 0 
6796431		 # 	collision with: 2 1 0  and 2 0 1 
6796460		 # 	collision with: 2 2 0  and 6 0 1 
6796462		 # 	collision with: 9 7 0  and 1 1 2 
6796469		 # 	collision with: 0 1 0  and 4 2 0 
6796471		 # 	collision with: 10 4 0  and 4 6 0 
6796504		 # 	collision with: 2 0 0  and 4 1 0 
6796506		 # 	collision with: 9 2 0  and 4 0 1 
6796533		 # 	collision with: 6 3 0  and 3 4 0 
6796548		 # 	collision with: 6 9 0  and 2 1 1 
6796550		 # 	collision with: 1 5 0  and 5 0 1 
6796589		 # 	collision with: 9 10 0  and 6 1 1 
6796591		 # 	collision with: 3 2 0  and 4 2 0 
6796592		 # 	collision with: 2 7 0  and 7 0 2 
6796594		 # 	collision with: 4 6 1  and 0 0 2 
6796597		 # 	collision with: 2 2 0  and 0 4 0 
6796599		 # 	collision with: 1 3 0  and 10 5 0 
6796636		 # 	collision with: 4 5 0  and 2 3 1 
6796638		 # 	collision with: 0 0 0  and 2 1 0 
6796653		 # 	collision with: 7 1 0  and 4 3 0 
6796655		 # 	collision with: 0 2 0  and 9 3 0 
6796719		 # 	collision with: 9 6 0  and 9 0 1 
6796724		 # 	collision with: 8 2 0  and 6 0 1 
6796726		 # 	collision with: 9 4 0  and 4 0 1 
6796757		 # 	collision with: 9 5 0  and 7 1 1 
6796759		 # 	collision with: 4 6 0  and 1 0 1 
6796768		 # 	collision with: 1 1 0  and 1 0 1 
6796770		 # 	collision with: 3 1 0  and 1 0 1 
6796789		 # 	collision with: 5 4 0  and 7 5 0 
6796791		 # 	collision with: 9 1 0  and 9 2 0 
6796812		 # 	collision with: 2 10 0  and 10 0 1 
6796814		 # 	collision with: 10 2 0  and 1 1 1 
6796816		 # 	collision with: 4 8 0  and 10 1 1 
6796818		 # 	collision with: 2 0 0  and 6 1 0 
6796820		 # 	collision with: 0 2 0  and 1 2 0 
6796822		 # 	collision with: 8 8 0  and 3 0 1 
6796824		 # 	collision with: 10 6 0  and 6 4 1 
6796826		 # 	collision with: 3 7 0  and 0 2 1 
6796828		 # 	collision with: 8 9 0  and 7 0 1 
6796830		 # 	collision with: 7 9 0  and 7 0 1 
6796832		 # 	collision with: 10 9 0  and 7 0 1 
6796834		 # 	collision with: 5 10 0  and 3 0 1 
6796836		 # 	collision with: 6 9 0  and 2 4 1 
6796838		 # 	collision with: 9 7 0  and 10 0 1 
6796840		 # 	collision with: 3 7 0  and 1 0 1 
6796842		 # 	collision with: 7 6 0  and 4 0 1 
6796844		 # 	collision with: 10 7 0  and 1 0 1 
6796846		 # 	collision with: 10 5 0  and 5 0 1 
6796848		 # 	collision with: 3 3 0  and 0 0 1 
6796852		 # 	collision with: 1 4 0  and 3 0 1 
6796854		 # 	collision with: 0 8 0  and 5 0 1 
6796856		 # 	collision with: 9 1 0  and 3 1 1 
6796858		 # 	collision with: 0 5 0  and 2 0 1 
6796881		 # 	collision with: 2 2 0  and 0 4 0 
6796883		 # 	collision with: 6 3 0  and 2 4 0 
6796915		 # 	collision with: 6 0 0  and 2 1 1 
6796944		 # 	collision with: 8 0 0  and 5 1 0 
6796946		 # 	collision with: 6 2 0  and 5 0 1 
6796953		 # 	collision with: 8 2 0  and 0 4 0 
6796955		 # 	collision with: 9 0 0  and 5 2 0 
6796988		 # 	collision with: 9 9 0  and 0 2 1 
6796990		 # 	collision with: 7 4 0  and 7 0 1 
6797017		 # 	collision with: 9 9 0  and 3 0 1 
6797019		 # 	collision with: 6 9 0  and 6 1 1 
6797032		 # 	collision with: 6 2 0  and 7 0 1 
6797034		 # 	collision with: 3 7 0  and 8 1 1 
6797073		 # 	collision with: 8 0 0  and 5 1 0 
6797075		 # 	collision with: 2 2 0  and 4 2 0 
6797076		 # 	collision with: 2 0 1  and 5 1 1 
6797078		 # 	collision with: 6 0 0  and 3 1 0 
6797081		 # 	collision with: 1 2 0  and 0 3 0 
6797083		 # 	collision with: 0 3 0  and 10 4 0 
6797120		 # 	collision with: 3 1 0  and 3 0 1 
6797122		 # 	collision with: 7 7 0  and 10 0 1 
6797137		 # 	collision with: 4 2 0  and 0 3 0 
6797139		 # 	collision with: 1 4 0  and 5 6 0 
6797164		 # 	collision with: 9 1 0  and 6 1 1 
6797166		 # 	collision with: 4 8 1  and 0 0 2 
6797201		 # 	collision with: 10 5 0  and 2 6 0 
6797203		 # 	collision with: 1 2 0  and 2 0 1 
6797208		 # 	collision with: 3 7 0  and 5 0 1 
6797210		 # 	collision with: 1 1 0  and 1 0 1 
6797241		 # 	collision with: 10 4 0  and 3 5 0 
6797243		 # 	collision with: 8 3 0  and 3 4 0 
6797252		 # 	collision with: 8 1 0  and 0 0 1 
6797254		 # 	collision with: 7 9 0  and 2 1 1 
6797273		 # 	collision with: 10 3 0  and 2 1 1 
6797275		 # 	collision with: 9 0 0  and 9 2 0 
6797296		 # 	collision with: 7 3 0  and 2 3 1 
6797298		 # 	collision with: 8 7 0  and 0 0 2 
6797300		 # 	collision with: 5 2 0  and 2 3 1 
6797302		 # 	collision with: 0 8 0  and 3 0 1 
6797304		 # 	collision with: 0 9 0  and 3 0 1 
6797306		 # 	collision with: 7 0 1  and 4 1 1 
6797308		 # 	collision with: 1 5 0  and 5 0 1 
6797310		 # 	collision with: 4 9 0  and 0 4 1 
6797312		 # 	collision with: 2 2 0  and 1 0 1 
6797316		 # 	collision with: 8 4 0  and 0 0 1 
6797318		 # 	collision with: 2 4 0  and 5 0 1 
6797320		 # 	collision with: 10 3 0  and 6 0 1 
6797322		 # 	collision with: 7 3 0  and 3 0 1 
6797324		 # 	collision with: 0 2 0  and 1 2 0 
6797326		 # 	collision with: 4 8 0  and 2 0 1 
6797328		 # 	collision with: 3 5 0  and 5 0 1 
6797330		 # 	collision with: 9 1 0  and 1 2 0 
6797332		 # 	collision with: 4 1 0  and 7 0 1 
6797334		 # 	collision with: 6 5 0  and 9 1 1 
6797336		 # 	collision with: 7 8 0  and 6 1 1 
6797338		 # 	collision with: 8 2 0  and 1 1 1 
6797340		 # 	collision with: 7 0 0  and 3 1 0 
6797342		 # 	collision with: 4 8 0  and 2 1 1 
6797365		 # 	collision with: 1 2 0  and 0 3 0 
6797367		 # 	collision with: 1 3 0  and 10 5 0 
6797384		 # 	collision with: 5 1 0  and 5 0 1 
6797386		 # 	collision with: 10 3 0  and 6 1 1 
6797397		 # 	collision with: 6 2 0  and 0 3 0 
6797399		 # 	collision with: 1 2 0  and 3 2 1 
6797428		 # 	collision with: 4 1 0  and 0 4 1 
6797430		 # 	collision with: 3 1 0  and 3 0 1 
6797437		 # 	collision with: 4 1 0  and 0 0 1 
6797439		 # 	collision with: 7 5 0  and 2 6 0 
6797472		 # 	collision with: 4 10 0  and 0 0 2 
6797474		 # 	collision with: 5 4 0  and 8 1 1 
6797501		 # 	collision with: 10 10 0  and 7 0 1 
6797503		 # 	collision with: 6 3 0  and 5 0 1 
6797516		 # 	collision with: 6 8 0  and 1 1 1 
6797518		 # 	collision with: 1 5 0  and 4 1 1 
6797557		 # 	collision with: 5 4 0  and 8 6 0 
6797559		 # 	collision with: 2 2 0  and 3 2 0 
6797560		 # 	collision with: 3 9 0  and 7 1 1 
6797562		 # 	collision with: 10 5 0  and 1 1 1 
6797565		 # 	collision with: 0 0 0  and 2 2 0 
6797567		 # 	collision with: 0 2 0  and 9 4 0 
6797623		 # 	collision with: 5 2 0  and 2 1 1 
6797648		 # 	collision with: 7 3 0  and 3 1 1 
6797650		 # 	collision with: 1 5 0  and 7 0 1 
6797685		 # 	collision with: 2 4 0  and 6 0 1 
6797687		 # 	collision with: 3 2 0  and 9 3 0 
6797692		 # 	collision with: 1 1 0  and 3 0 1 
6797694		 # 	collision with: 4 9 0  and 3 3 1 
6797725		 # 	collision with: 0 0 0  and 5 2 0 
6797727		 # 	collision with: 6 3 0  and 4 2 1 
6797736		 # 	collision with: 6 8 0  and 1 0 1 
6797738		 # 	collision with: 6 8 0  and 8 1 1 
6797757		 # 	collision with: 3 6 0  and 2 0 1 
6797759		 # 	collision with: 9 0 0  and 9 1 0 
6797780		 # 	collision with: 5 3 0  and 1 0 1 
6797782		 # 	collision with: 6 8 0  and 5 0 1 
6797784		 # 	collision with: 0 2 0  and 1 2 0 
6797786		 # 	collision with: 6 10 0  and 10 6 1 
6797788		 # 	collision with: 9 2 0  and 5 1 1 
6797790		 # 	collision with: 9 7 0  and 1 2 1 
6797792		 # 	collision with: 10 6 0  and 0 0 1 
6797794		 # 	collision with: 2 7 0  and 3 1 1 
6797796		 # 	collision with: 4 10 0  and 6 0 1 
6797798		 # 	collision with: 10 3 0  and 7 0 1 
6797800		 # 	collision with: 7 8 0  and 3 0 1 
6797802		 # 	collision with: 4 8 0  and 0 0 1 
6797804		 # 	collision with: 7 3 0  and 4 1 1 
6797806		 # 	collision with: 3 3 0  and 7 1 1 
6797808		 # 	collision with: 9 8 0  and 3 0 1 
6797810		 # 	collision with: 4 1 0  and 2 0 1 
6797812		 # 	collision with: 1 2 0  and 5 0 1 
6797814		 # 	collision with: 0 0 0  and 2 1 0 
6797816		 # 	collision with: 5 0 0  and 7 2 1 
6797818		 # 	collision with: 8 10 0  and 0 0 1 
6797820		 # 	collision with: 2 10 0  and 6 0 1 
6797851		 # 	collision with: 0 3 0  and 10 4 0 
6797868		 # 	collision with: 10 8 0  and 6 1 1 
6797870		 # 	collision with: 2 6 0  and 10 0 1 
6797881		 # 	collision with: 8 4 0  and 4 6 0 
6797883		 # 	collision with: 9 0 0  and 4 2 0 
6797912		 # 	collision with: 4 10 0  and 4 0 1 
6797914		 # 	collision with: 1 4 0  and 4 0 1 
6797921		 # 	collision with: 4 9 0  and 8 1 1 
6797956		 # 	collision with: 1 3 0  and 3 0 1 
6797958		 # 	collision with: 0 8 0  and 1 0 1 
6797985		 # 	collision with: 5 9 0  and 4 0 1 
6797987		 # 	collision with: 6 2 0  and 9 3 0 
12.6377secs	7892
