# prime 11
# degree 2
# input variables 3
# output variables 4
# reload computed balance functions from file balance-1629of3248-p11d2m3-debug.log
# p = 11
# n = 4
# smalldomain p^m 1331
# domain p^n 14641
#	 p^2 = 121
#	 p^3 = 1331
#	 p^4 = 14641
#	 p^5 = 161051
#	 p^6 = 1771561
#	 p^7 = 19487171
#	 p^8 = 214358881
#	 p^9 = 2357947691
opening file : balance-1629of3248-p11d2m3-debug.log
reloading for step2...
9774000		 # 	collision with: 1 8 0 0  and 1 2 1 0 
9774002		 # 	collision with: 7 2 1 0  and 1 1 2 0 
9774020		 # 	collision with: 1 3 0 0  and 6 1 2 0 
9774022		 # 	collision with: 4 5 0 0  and 0 3 1 0 
9774035		 # 	collision with: 6 3 0 0  and 3 4 1 0 
9774037		 # 	collision with: 7 0 0 0  and 4 2 0 0 
9774039		 # 	collision with: 10 5 0 0  and 4 3 2 0 
9774052		 # 	collision with: 4 10 0 0  and 5 0 1 0 
9774060		 # 	collision with: 3 1 0 0  and 0 3 1 0 
9774062		 # 	collision with: 8 6 0 0  and 8 7 2 0 
9774097		 # 	collision with: 8 0 2 0  and 6 1 2 0 
9774099		 # 	collision with: 0 0 0 0  and 2 0 2 0 
9774102		 # 	collision with: 4 5 0 0  and 6 5 0 0 
9774104		 # 	collision with: 3 1 0 0  and 0 3 1 0 
9774106		 # 	collision with: 2 8 1 0  and 4 8 1 0 
9774109		 # 	collision with: 3 10 1 0  and 4 10 1 0 
9774111		 # 	collision with: 9 1 1 0  and 8 3 1 0 
9774140		 # 	collision with: 5 9 0 0  and 9 6 1 0 
9774142		 # 	collision with: 6 6 0 0  and 5 2 1 0 
9774156		 # 	collision with: 8 10 0 0  and 6 0 1 0 
9774158		 # 	collision with: 7 8 0 0  and 9 6 1 0 
9774164		 # 	collision with: 2 8 0 0  and 10 7 1 0 
9774166		 # 	collision with: 9 1 2 0  and 0 2 2 0 
9774180		 # 	collision with: 5 7 0 0  and 6 7 0 0 
9774182		 # 	collision with: 4 4 0 0  and 0 4 1 0 
9774213		 # 	collision with: 7 0 0 0  and 4 2 0 0 
9774215		 # 	collision with: 4 3 0 0  and 9 10 1 0 
9774218		 # 	collision with: 5 4 0 0  and 5 1 1 0 
9774220		 # 	collision with: 7 2 0 0  and 2 8 1 0 
9774222		 # 	collision with: 8 9 0 0  and 4 8 2 0 
9774225		 # 	collision with: 5 7 0 0  and 6 7 0 0 
9774227		 # 	collision with: 4 5 0 0  and 6 5 0 0 
9774260		 # 	collision with: 10 5 0 0  and 8 3 2 0 
9774262		 # 	collision with: 7 1 0 0  and 3 7 1 0 
9774268		 # 	collision with: 5 7 0 0  and 6 7 0 0 
9774270		 # 	collision with: 8 10 0 0  and 4 0 1 0 
9774287		 # 	collision with: 2 3 0 0  and 6 4 2 0 
9774289		 # 	collision with: 6 0 0 0  and 4 2 1 0 
9774291		 # 	collision with: 4 7 0 0  and 1 0 1 0 
9774300		 # 	collision with: 6 1 1 0  and 7 2 1 0 
9774302		 # 	collision with: 0 10 0 0  and 2 0 1 0 
9774320		 # 	collision with: 2 9 0 0  and 1 4 2 0 
9774322		 # 	collision with: 4 5 0 0  and 6 5 0 0 
9774333		 # 	collision with: 6 1 1 0  and 7 2 1 0 
9774335		 # 	collision with: 4 7 1 0  and 0 1 2 0 
9774340		 # 	collision with: 2 0 0 0  and 4 1 2 0 
9774342		 # 	collision with: 9 0 0 0  and 3 2 2 0 
9774372		 # 	collision with: 9 1 1 0  and 4 4 2 0 
9774374		 # 	collision with: 4 5 0 0  and 0 3 1 0 
9774380		 # 	collision with: 0 5 0 0  and 1 7 1 0 
9774382		 # 	collision with: 5 10 2 0  and 4 4 3 0 
9774432		 # 	collision with: 4 8 0 0  and 2 1 1 0 
9774434		 # 	collision with: 1 8 0 0  and 1 1 1 0 
9774464		 # 	collision with: 3 6 0 0  and 0 2 2 0 
9774466		 # 	collision with: 7 9 0 0  and 4 0 1 0 
9774473		 # 	collision with: 10 4 0 0  and 4 7 2 0 
9774475		 # 	collision with: 9 0 0 0  and 9 1 0 0 
9774484		 # 	collision with: 5 6 0 0  and 6 1 1 0 
9774486		 # 	collision with: 2 6 0 0  and 3 1 1 0 
9774506		 # 	collision with: 4 5 0 0  and 6 5 0 0 
9774517		 # 	collision with: 3 1 1 0  and 5 1 1 0 
9774519		 # 	collision with: 9 0 0 0  and 9 1 0 0 
9774521		 # 	collision with: 10 0 0 0  and 10 1 0 0 
9774523		 # 	collision with: 5 6 0 0  and 10 2 1 0 
9774536		 # 	collision with: 2 4 2 0  and 2 5 2 0 
9774538		 # 	collision with: 3 0 2 0  and 1 1 2 0 
9774544		 # 	collision with: 5 7 0 0  and 6 7 0 0 
9774546		 # 	collision with: 8 0 0 0  and 9 6 1 0 
9774581		 # 	collision with: 0 0 0 0  and 2 0 2 0 
9774583		 # 	collision with: 8 2 0 0  and 5 0 1 0 
9774584		 # 	collision with: 8 0 1 0  and 2 1 2 0 
9774586		 # 	collision with: 9 2 0 0  and 4 3 1 0 
9774588		 # 	collision with: 5 7 0 0  and 6 7 0 0 
9774590		 # 	collision with: 3 8 0 0  and 3 8 1 0 
9774593		 # 	collision with: 5 0 0 0  and 6 1 0 0 
9774624		 # 	collision with: 0 0 0 0  and 2 0 2 0 
9774626		 # 	collision with: 2 10 0 0  and 4 2 1 0 
9774640		 # 	collision with: 1 6 0 0  and 3 4 1 0 
9774642		 # 	collision with: 9 1 1 0  and 9 0 2 0 
9774648		 # 	collision with: 2 9 0 0  and 2 0 1 0 
9774650		 # 	collision with: 5 2 1 0  and 5 3 1 0 
9774664		 # 	collision with: 0 2 1 0  and 3 6 2 0 
9774697		 # 	collision with: 10 0 0 0  and 10 1 0 0 
9774699		 # 	collision with: 4 10 0 0  and 1 0 1 0 
9774700		 # 	collision with: 9 9 0 0  and 5 0 1 0 
9774704		 # 	collision with: 3 3 0 0  and 8 2 1 0 
9774706		 # 	collision with: 6 2 0 0  and 7 6 2 0 
9774709		 # 	collision with: 4 3 1 0  and 4 4 1 0 
9774711		 # 	collision with: 5 7 3 0  and 6 7 3 0 
9774744		 # 	collision with: 4 2 0 0  and 7 4 2 0 
9774746		 # 	collision with: 3 3 0 0  and 6 3 1 0 
9774752		 # 	collision with: 6 0 0 0  and 4 5 1 0 
9774754		 # 	collision with: 9 7 1 0  and 6 1 3 0 
9774769		 # 	collision with: 5 0 0 0  and 6 1 0 0 
9774771		 # 	collision with: 6 2 1 0  and 5 5 2 0 
9774773		 # 	collision with: 9 9 0 0  and 10 5 1 0 
9774775		 # 	collision with: 6 9 1 0  and 0 5 2 0 
9774784		 # 	collision with: 5 4 1 0  and 5 2 2 0 
9774786		 # 	collision with: 7 6 0 0  and 10 3 1 0 
9774806		 # 	collision with: 0 2 0 0  and 8 3 1 0 
9774817		 # 	collision with: 5 3 0 0  and 3 8 1 0 
9774824		 # 	collision with: 3 0 1 0  and 9 1 1 0 
9774826		 # 	collision with: 10 0 1 0  and 1 1 1 0 
9774856		 # 	collision with: 4 10 0 0  and 9 4 1 0 
9774858		 # 	collision with: 4 5 0 0  and 6 5 0 0 
9774924		 # 	collision with: 8 1 0 0  and 8 2 0 0 
9774940		 # 	collision with: 2 4 0 0  and 2 5 0 0 
9774942		 # 	collision with: 8 0 0 0  and 8 2 0 0 
9774959		 # 	collision with: 7 5 0 0  and 0 0 1 0 
9774972		 # 	collision with: 5 0 0 0  and 6 1 0 0 
9774974		 # 	collision with: 1 4 0 0  and 1 5 0 0 
9774984		 # 	collision with: 2 4 0 0  and 2 5 0 0 
9775000		 # 	collision with: 9 0 0 0  and 9 2 0 0 
9775004		 # 	collision with: 6 2 0 0  and 6 3 0 0 
9775006		 # 	collision with: 2 3 0 0  and 2 5 0 0 
9775013		 # 	collision with: 0 9 0 0  and 6 2 1 0 
9775015		 # 	collision with: 10 5 0 0  and 10 6 0 0 
9775037		 # 	collision with: 1 6 0 0  and 0 1 1 0 
9775039		 # 	collision with: 0 0 0 0  and 4 6 1 0 
9775041		 # 	collision with: 5 7 0 0  and 6 7 0 0 
9775043		 # 	collision with: 5 6 0 0  and 7 0 1 0 
9775057		 # 	collision with: 10 2 0 0  and 7 2 1 0 
9775059		 # 	collision with: 10 5 0 0  and 10 6 0 0 
9775060		 # 	collision with: 5 0 0 0  and 6 1 0 0 
9775080		 # 	collision with: 1 3 0 0  and 10 5 0 0 
9775082		 # 	collision with: 0 4 0 0  and 10 5 0 0 
9775112		 # 	collision with: 5 2 0 0  and 5 4 0 0 
9775114		 # 	collision with: 9 0 0 0  and 9 1 0 0 
9775120		 # 	collision with: 4 3 0 0  and 4 4 0 0 
9775136		 # 	collision with: 6 2 0 0  and 6 3 0 0 
9775144		 # 	collision with: 8 1 0 0  and 8 2 0 0 
9775146		 # 	collision with: 4 1 0 0  and 6 2 0 0 
9775173		 # 	collision with: 5 7 0 0  and 6 7 0 0 
9775175		 # 	collision with: 7 9 0 0  and 3 10 1 0 
9775176		 # 	collision with: 9 0 0 0  and 9 2 0 0 
9775178		 # 	collision with: 3 3 0 0  and 3 4 0 0 
9775196		 # 	collision with: 1 4 0 0  and 1 6 0 0 
9775201		 # 	collision with: 1 0 1 0  and 3 0 1 0 
9775203		 # 	collision with: 4 2 0 0  and 1 0 2 0 
9775221		 # 	collision with: 1 5 0 0  and 0 0 1 0 
9775223		 # 	collision with: 7 5 0 0  and 0 0 1 0 
9775245		 # 	collision with: 2 3 1 0  and 5 3 2 0 
9775247		 # 	collision with: 4 4 1 0  and 2 2 2 0 
9775252		 # 	collision with: 4 3 0 0  and 4 4 0 0 
9775254		 # 	collision with: 5 2 0 0  and 5 3 0 0 
9775256		 # 	collision with: 1 3 0 0  and 10 5 0 0 
9775272		 # 	collision with: 10 0 0 0  and 10 1 0 0 
9775284		 # 	collision with: 1 4 0 0  and 1 6 0 0 
9775286		 # 	collision with: 4 2 0 0  and 4 4 0 0 
9775303		 # 	collision with: 7 10 0 0  and 1 5 1 0 
9775316		 # 	collision with: 10 0 0 0  and 10 1 0 0 
9775318		 # 	collision with: 7 1 0 0  and 7 2 0 0 
9775332		 # 	collision with: 5 2 0 0  and 5 4 0 0 
9775348		 # 	collision with: 2 6 0 0  and 5 3 1 0 
9775350		 # 	collision with: 3 10 0 0  and 10 7 1 0 
9775410		 # 	collision with: 4 5 1 0  and 5 5 1 0 
9775424		 # 	collision with: 10 6 2 0  and 9 5 3 0 
9775441		 # 	collision with: 7 2 0 0  and 8 8 1 0 
9775456		 # 	collision with: 4 9 0 0  and 3 1 1 0 
9775458		 # 	collision with: 5 4 0 0  and 5 1 2 0 
9775468		 # 	collision with: 3 2 0 0  and 7 6 1 0 
9775470		 # 	collision with: 10 4 0 0  and 2 5 1 0 
9775484		 # 	collision with: 0 4 0 0  and 6 6 1 0 
9775486		 # 	collision with: 9 5 0 0  and 2 1 1 0 
9775488		 # 	collision with: 7 9 1 0  and 9 3 2 0 
9775490		 # 	collision with: 7 3 0 0  and 7 0 1 0 
9775497		 # 	collision with: 6 4 0 0  and 5 6 0 0 
9775499		 # 	collision with: 3 6 0 0  and 3 1 1 0 
9775521		 # 	collision with: 10 2 0 0  and 2 6 1 0 
9775523		 # 	collision with: 3 3 0 0  and 4 3 1 0 
9775527		 # 	collision with: 4 6 0 0  and 6 6 0 0 
9775541		 # 	collision with: 6 4 0 0  and 5 6 0 0 
9775543		 # 	collision with: 9 6 0 0  and 6 1 1 0 
9775544		 # 	collision with: 1 1 0 0  and 0 7 1 0 
9775546		 # 	collision with: 8 0 2 0  and 8 2 2 0 
9775564		 # 	collision with: 10 3 0 0  and 0 1 1 0 
9775566		 # 	collision with: 5 3 0 0  and 7 9 1 0 
9775596		 # 	collision with: 5 3 0 0  and 4 8 2 0 
9775598		 # 	collision with: 8 3 0 0  and 2 0 1 0 
9775604		 # 	collision with: 3 4 1 0  and 0 3 3 0 
9775606		 # 	collision with: 4 6 0 0  and 6 6 0 0 
9775620		 # 	collision with: 1 4 1 0  and 8 0 2 0 
9775622		 # 	collision with: 0 3 0 0  and 8 0 1 0 
9775628		 # 	collision with: 2 1 1 0  and 3 1 1 0 
9775630		 # 	collision with: 0 3 0 0  and 8 0 1 0 
9775657		 # 	collision with: 8 1 1 0  and 4 3 2 0 
9775659		 # 	collision with: 4 6 0 0  and 6 6 0 0 
9775660		 # 	collision with: 1 8 0 0  and 0 8 1 0 
9775662		 # 	collision with: 1 2 1 0  and 8 1 2 0 
9775680		 # 	collision with: 8 0 0 0  and 3 9 1 0 
9775682		 # 	collision with: 10 1 0 0  and 9 6 1 0 
9775687		 # 	collision with: 3 0 1 0  and 1 0 3 0 
9775705		 # 	collision with: 1 8 0 0  and 9 1 1 0 
9775707		 # 	collision with: 8 0 0 0  and 8 2 1 0 
9775729		 # 	collision with: 7 3 1 0  and 3 4 2 0 
9775731		 # 	collision with: 5 7 1 0  and 0 6 2 0 
9775736		 # 	collision with: 1 10 1 0  and 2 10 1 0 
9775738		 # 	collision with: 4 6 0 0  and 6 6 0 0 
9775740		 # 	collision with: 10 3 0 0  and 0 1 1 0 
9775742		 # 	collision with: 0 9 1 0  and 2 9 1 0 
9775756		 # 	collision with: 5 7 0 0  and 6 7 0 0 
9775758		 # 	collision with: 7 9 0 0  and 1 7 1 0 
9775768		 # 	collision with: 2 6 0 0  and 10 2 1 0 
9775770		 # 	collision with: 1 9 0 0  and 4 4 1 0 
9775785		 # 	collision with: 5 1 1 0  and 0 1 2 0 
9775787		 # 	collision with: 2 6 1 0  and 2 2 2 0 
9775802		 # 	collision with: 1 10 0 0  and 1 10 1 0 
9775816		 # 	collision with: 6 8 0 0  and 2 2 1 0 
9775818		 # 	collision with: 1 4 1 0  and 1 5 2 0 
9775832		 # 	collision with: 4 6 0 0  and 6 10 1 0 
9775834		 # 	collision with: 10 7 0 0  and 4 0 1 0 
9775892		 # 	collision with: 9 6 0 0  and 9 7 1 0 
9775894		 # 	collision with: 7 2 0 0  and 10 2 1 0 
9775908		 # 	collision with: 9 1 0 0  and 9 1 1 0 
9775910		 # 	collision with: 0 2 0 0  and 5 0 2 0 
9775925		 # 	collision with: 7 4 0 0  and 4 2 1 0 
9775927		 # 	collision with: 0 4 0 0  and 10 5 0 0 
9775940		 # 	collision with: 7 5 0 0  and 5 6 2 0 
9775954		 # 	collision with: 9 10 1 0  and 7 0 2 0 
9775968		 # 	collision with: 0 5 0 0  and 10 6 1 0 
9775970		 # 	collision with: 3 7 0 0  and 3 0 1 0 
9775972		 # 	collision with: 1 3 0 0  and 2 9 1 0 
9775974		 # 	collision with: 3 3 1 0  and 4 3 1 0 
9775981		 # 	collision with: 10 2 0 0  and 10 2 1 0 
9775983		 # 	collision with: 10 10 0 0  and 10 1 1 0 
9776005		 # 	collision with: 3 3 0 0  and 4 3 1 0 
9776007		 # 	collision with: 1 6 0 0  and 4 7 1 0 
9776009		 # 	collision with: 7 4 0 0  and 4 5 0 0 
9776011		 # 	collision with: 5 2 0 0  and 2 3 2 0 
9776025		 # 	collision with: 0 1 0 0  and 8 0 1 0 
9776027		 # 	collision with: 2 8 0 0  and 2 0 1 0 
9776028		 # 	collision with: 10 4 0 0  and 3 7 1 0 
9776030		 # 	collision with: 5 3 0 0  and 5 2 1 0 
9776048		 # 	collision with: 10 1 1 0  and 7 5 2 0 
9776050		 # 	collision with: 7 2 0 0  and 9 1 2 0 
9776080		 # 	collision with: 4 7 0 0  and 4 0 1 0 
9776082		 # 	collision with: 4 6 0 0  and 6 6 0 0 
9776088		 # 	collision with: 9 0 1 0  and 8 2 1 0 
9776090		 # 	collision with: 1 0 1 0  and 4 2 1 0 
9776104		 # 	collision with: 8 2 0 0  and 4 3 1 0 
9776106		 # 	collision with: 6 4 0 0  and 2 4 1 0 
9776112		 # 	collision with: 8 3 0 0  and 1 6 1 0 
9776114		 # 	collision with: 3 2 0 0  and 2 0 2 0 
9776141		 # 	collision with: 7 4 0 0  and 4 5 0 0 
9776143		 # 	collision with: 1 1 0 0  and 5 0 1 0 
9776144		 # 	collision with: 1 1 1 0  and 4 6 2 0 
9776146		 # 	collision with: 6 3 0 0  and 6 1 1 0 
9776164		 # 	collision with: 5 7 0 0  and 6 7 0 0 
9776166		 # 	collision with: 10 4 0 0  and 1 2 1 0 
9776169		 # 	collision with: 0 4 0 0  and 1 1 1 0 
9776171		 # 	collision with: 4 0 0 0  and 7 9 1 0 
9776189		 # 	collision with: 3 3 1 0  and 3 5 1 0 
9776191		 # 	collision with: 0 4 0 0  and 10 5 0 0 
9776213		 # 	collision with: 9 0 1 0  and 9 2 1 0 
9776220		 # 	collision with: 5 2 1 0  and 5 4 1 0 
9776222		 # 	collision with: 6 0 1 0  and 7 1 1 0 
9776224		 # 	collision with: 8 10 0 0  and 6 6 1 0 
9776226		 # 	collision with: 3 8 0 0  and 1 2 1 0 
9776240		 # 	collision with: 10 4 2 0  and 2 1 3 0 
9776242		 # 	collision with: 1 7 0 0  and 0 0 1 0 
9776254		 # 	collision with: 4 3 1 0  and 5 4 2 0 
9776269		 # 	collision with: 2 2 0 0  and 2 2 2 0 
9776271		 # 	collision with: 10 6 0 0  and 6 7 1 0 
9776284		 # 	collision with: 10 6 1 0  and 0 5 2 0 
9776286		 # 	collision with: 1 7 0 0  and 0 0 1 0 
9776300		 # 	collision with: 10 8 0 0  and 4 9 2 0 
9776302		 # 	collision with: 4 6 0 0  and 6 6 0 0 
9776316		 # 	collision with: 0 8 0 0  and 7 3 2 0 
9776318		 # 	collision with: 3 4 0 0  and 4 3 1 0 
9776376		 # 	collision with: 8 2 0 0  and 8 2 1 0 
9776378		 # 	collision with: 10 2 0 0  and 7 2 1 0 
9776392		 # 	collision with: 7 1 0 0  and 9 1 1 0 
9776394		 # 	collision with: 8 1 0 0  and 8 1 1 0 
9776409		 # 	collision with: 1 3 0 0  and 10 5 0 0 
9776411		 # 	collision with: 3 5 0 0  and 3 2 2 0 
9776424		 # 	collision with: 0 1 0 0  and 7 0 1 0 
9776426		 # 	collision with: 4 6 0 0  and 6 6 0 0 
9776436		 # 	collision with: 0 1 0 0  and 7 0 1 0 
9776438		 # 	collision with: 7 1 0 0  and 9 0 1 0 
9776454		 # 	collision with: 1 7 0 0  and 3 10 1 0 
9776456		 # 	collision with: 2 1 2 0  and 3 1 2 0 
9776465		 # 	collision with: 0 10 1 0  and 2 2 2 0 
9776467		 # 	collision with: 6 2 0 0  and 6 2 1 0 
9776489		 # 	collision with: 5 3 0 0  and 2 3 1 0 
9776491		 # 	collision with: 6 8 0 0  and 6 7 1 0 
9776493		 # 	collision with: 3 10 0 0  and 1 4 1 0 
9776495		 # 	collision with: 1 1 0 0  and 10 0 2 0 
9776509		 # 	collision with: 0 1 0 0  and 9 6 1 0 
9776511		 # 	collision with: 6 0 0 0  and 9 1 1 0 
9776512		 # 	collision with: 3 3 1 0  and 4 3 1 0 
9776514		 # 	collision with: 4 6 0 0  and 6 6 0 0 
9776532		 # 	collision with: 4 3 1 0  and 6 5 2 0 
9776534		 # 	collision with: 8 1 0 0  and 4 0 1 0 
9776564		 # 	collision with: 2 2 1 0  and 4 2 1 0 
9776566		 # 	collision with: 8 0 0 0  and 7 3 1 0 
9776572		 # 	collision with: 5 7 0 0  and 6 7 0 0 
9776574		 # 	collision with: 9 7 1 0  and 0 5 2 0 
9776588		 # 	collision with: 2 1 1 0  and 3 1 1 0 
9776590		 # 	collision with: 0 0 1 0  and 2 3 2 0 
9776596		 # 	collision with: 5 2 0 0  and 5 2 1 0 
9776598		 # 	collision with: 7 2 2 0  and 2 4 2 0 
9776625		 # 	collision with: 8 3 0 0  and 5 1 1 0 
9776627		 # 	collision with: 9 6 0 0  and 1 3 1 0 
9776628		 # 	collision with: 9 0 0 0  and 9 2 1 0 
9776630		 # 	collision with: 7 10 0 0  and 1 4 1 0 
9776648		 # 	collision with: 1 5 0 0  and 4 0 2 0 
9776650		 # 	collision with: 6 4 0 0  and 7 1 1 0 
9776653		 # 	collision with: 7 9 0 0  and 9 3 1 0 
9776673		 # 	collision with: 1 3 0 0  and 10 5 0 0 
9776675		 # 	collision with: 3 8 0 0  and 9 8 1 0 
9776697		 # 	collision with: 6 0 1 0  and 8 1 1 0 
9776699		 # 	collision with: 4 6 0 0  and 6 6 0 0 
9776706		 # 	collision with: 8 7 0 0  and 3 7 1 0 
9776708		 # 	collision with: 1 9 0 0  and 1 1 1 0 
9776710		 # 	collision with: 9 3 0 0  and 1 5 2 0 
9776724		 # 	collision with: 3 0 1 0  and 0 6 2 0 
9776726		 # 	collision with: 1 0 1 0  and 3 0 3 0 
9776736		 # 	collision with: 0 4 0 0  and 4 1 1 0 
9776738		 # 	collision with: 2 5 0 0  and 0 0 2 0 
9776753		 # 	collision with: 6 3 0 0  and 1 3 1 0 
9776755		 # 	collision with: 6 4 0 0  and 9 1 2 0 
9776768		 # 	collision with: 4 5 0 0  and 2 2 1 0 
9776770		 # 	collision with: 5 0 0 0  and 4 5 1 0 
9776784		 # 	collision with: 5 4 0 0  and 1 2 1 0 
9776786		 # 	collision with: 10 1 1 0  and 7 7 2 0 
9776800		 # 	collision with: 7 10 0 0  and 10 1 1 0 
9776802		 # 	collision with: 2 5 0 0  and 1 7 1 0 
9776860		 # 	collision with: 4 4 0 0  and 3 3 1 0 
9776862		 # 	collision with: 7 2 0 0  and 7 2 1 0 
9776876		 # 	collision with: 2 7 0 0  and 10 3 1 0 
9776878		 # 	collision with: 3 3 0 0  and 2 9 1 0 
9776893		 # 	collision with: 5 7 0 0  and 6 7 0 0 
9776895		 # 	collision with: 3 3 0 0  and 3 4 0 0 
9776908		 # 	collision with: 1 5 0 0  and 7 8 1 0 
9776910		 # 	collision with: 10 8 0 0  and 3 2 1 0 
9776920		 # 	collision with: 9 5 0 0  and 0 6 1 0 
9776922		 # 	collision with: 10 4 0 0  and 5 2 1 0 
9776936		 # 	collision with: 5 7 0 0  and 6 7 0 0 
9776938		 # 	collision with: 4 6 0 0  and 1 2 1 0 
9776940		 # 	collision with: 4 2 1 0  and 8 0 2 0 
9776942		 # 	collision with: 10 9 0 0  and 9 0 1 0 
9776949		 # 	collision with: 10 3 0 0  and 1 4 0 0 
9776951		 # 	collision with: 2 9 0 0  and 2 10 1 0 
9776975		 # 	collision with: 2 3 0 0  and 2 3 1 0 
9776977		 # 	collision with: 10 4 0 0  and 9 9 1 0 
9776979		 # 	collision with: 6 8 1 0  and 8 9 2 0 
9776993		 # 	collision with: 10 3 0 0  and 1 4 0 0 
9776995		 # 	collision with: 2 2 1 0  and 4 2 1 0 
9776998		 # 	collision with: 0 0 0 0  and 10 7 1 0 
9777016		 # 	collision with: 10 3 0 0  and 10 3 1 0 
9777048		 # 	collision with: 9 0 1 0  and 9 2 1 0 
9777050		 # 	collision with: 0 0 1 0  and 5 2 1 0 
9777056		 # 	collision with: 2 4 0 0  and 6 1 1 0 
9777058		 # 	collision with: 4 6 0 0  and 2 5 1 0 
9777072		 # 	collision with: 5 1 0 0  and 8 0 2 0 
9777074		 # 	collision with: 3 10 0 0  and 3 8 1 0 
9777080		 # 	collision with: 2 10 0 0  and 0 6 1 0 
9777082		 # 	collision with: 3 2 0 0  and 3 2 1 0 
9777109		 # 	collision with: 10 8 0 0  and 2 1 1 0 
9777114		 # 	collision with: 1 7 0 0  and 2 5 1 0 
9777132		 # 	collision with: 1 0 1 0  and 3 0 1 0 
9777134		 # 	collision with: 1 9 0 0  and 1 0 1 0 
9777137		 # 	collision with: 10 2 0 0  and 2 3 1 0 
9777139		 # 	collision with: 6 0 0 0  and 10 2 2 0 
9777157		 # 	collision with: 5 7 0 0  and 6 7 0 0 
9777159		 # 	collision with: 3 3 0 0  and 3 4 0 0 
9777183		 # 	collision with: 1 5 0 0  and 4 8 1 0 
9777188		 # 	collision with: 9 0 2 0  and 8 2 2 0 
9777190		 # 	collision with: 7 6 0 0  and 9 5 1 0 
9777192		 # 	collision with: 5 3 0 0  and 5 3 1 0 
9777194		 # 	collision with: 2 0 0 0  and 6 10 1 0 
9777208		 # 	collision with: 2 5 0 0  and 2 4 1 0 
9777210		 # 	collision with: 4 6 0 0  and 6 6 0 0 
9777220		 # 	collision with: 2 9 0 0  and 2 0 1 0 
9777222		 # 	collision with: 9 7 0 0  and 5 8 1 0 
9777237		 # 	collision with: 4 2 0 0  and 0 10 1 0 
9777239		 # 	collision with: 1 3 0 0  and 6 3 1 0 
9777252		 # 	collision with: 10 9 0 0  and 5 1 2 0 
9777254		 # 	collision with: 4 6 0 0  and 6 6 0 0 
9777268		 # 	collision with: 7 0 1 0  and 5 1 1 0 
9777270		 # 	collision with: 1 9 0 0  and 3 0 1 0 
9777284		 # 	collision with: 8 0 0 0  and 9 6 1 0 
9777286		 # 	collision with: 10 9 0 0  and 2 4 1 0 
9777344		 # 	collision with: 5 7 0 0  and 6 7 0 0 
9777346		 # 	collision with: 3 0 1 0  and 1 0 3 0 
9777360		 # 	collision with: 6 7 0 0  and 3 2 2 0 
9777362		 # 	collision with: 3 0 1 0  and 1 0 3 0 
9777377		 # 	collision with: 7 2 1 0  and 2 3 1 0 
9777379		 # 	collision with: 4 6 0 0  and 1 2 2 0 
9777392		 # 	collision with: 3 10 0 0  and 6 8 1 0 
9777394		 # 	collision with: 2 5 1 0  and 9 4 2 0 
9777404		 # 	collision with: 5 6 1 0  and 10 0 2 0 
9777406		 # 	collision with: 10 10 0 0  and 4 7 1 0 
9777420		 # 	collision with: 4 1 0 0  and 0 4 1 0 
9777422		 # 	collision with: 4 6 0 0  and 6 6 0 0 
9777424		 # 	collision with: 2 4 0 0  and 2 4 1 0 
9777426		 # 	collision with: 1 0 2 0  and 3 0 2 0 
9777433		 # 	collision with: 5 7 0 0  and 6 7 0 0 
9777435		 # 	collision with: 9 7 0 0  and 9 5 1 0 
9777457		 # 	collision with: 1 2 1 0  and 1 8 2 0 
9777461		 # 	collision with: 4 2 0 0  and 7 4 0 0 
9777463		 # 	collision with: 5 1 0 0  and 3 4 1 0 
9777477		 # 	collision with: 5 7 0 0  and 6 7 0 0 
9777479		 # 	collision with: 9 2 0 0  and 7 0 1 0 
9777480		 # 	collision with: 1 10 1 0  and 3 0 2 0 
9777482		 # 	collision with: 3 6 0 0  and 7 6 1 0 
9777500		 # 	collision with: 9 5 0 0  and 3 0 1 0 
9777502		 # 	collision with: 7 3 0 0  and 7 3 1 0 
9777532		 # 	collision with: 10 10 0 0  and 2 3 2 0 
9777542		 # 	collision with: 10 10 0 0  and 6 1 1 0 
9777556		 # 	collision with: 7 5 0 0  and 5 0 1 0 
9777558		 # 	collision with: 1 0 1 0  and 3 0 1 0 
9777566		 # 	collision with: 1 0 1 0  and 3 0 1 0 
9777593		 # 	collision with: 4 2 0 0  and 7 4 0 0 
9777595		 # 	collision with: 9 4 0 0  and 6 6 1 0 
9777596		 # 	collision with: 4 1 0 0  and 0 4 1 0 
9777598		 # 	collision with: 4 6 0 0  and 6 6 0 0 
9777616		 # 	collision with: 4 3 1 0  and 4 4 1 0 
9777618		 # 	collision with: 10 0 1 0  and 4 1 1 0 
9777621		 # 	collision with: 5 2 0 0  and 5 4 0 0 
9777623		 # 	collision with: 5 3 0 0  and 1 2 2 0 
9777641		 # 	collision with: 1 5 1 0  and 4 0 3 0 
9777643		 # 	collision with: 8 0 0 0  and 9 2 2 0 
9777665		 # 	collision with: 5 2 0 0  and 5 4 0 0 
9777667		 # 	collision with: 2 1 2 0  and 3 1 2 0 
9777672		 # 	collision with: 10 2 0 0  and 8 6 1 0 
9777674		 # 	collision with: 3 0 1 0  and 1 0 3 0 
9777676		 # 	collision with: 0 8 0 0  and 7 1 1 0 
9777678		 # 	collision with: 9 3 0 0  and 9 3 1 0 
9777692		 # 	collision with: 2 7 0 0  and 1 4 1 0 
9777694		 # 	collision with: 8 7 0 0  and 4 4 1 0 
9777704		 # 	collision with: 2 0 1 0  and 0 2 1 0 
9777706		 # 	collision with: 7 1 1 0  and 7 2 1 0 
9777721		 # 	collision with: 8 0 0 0  and 3 10 1 0 
9777723		 # 	collision with: 3 9 1 0  and 2 4 2 0 
9777736		 # 	collision with: 5 5 0 0  and 7 0 1 0 
9777738		 # 	collision with: 2 4 0 0  and 10 9 1 0 
9777752		 # 	collision with: 0 9 2 0  and 2 9 2 0 
9777754		 # 	collision with: 8 8 0 0  and 1 4 1 0 
9777768		 # 	collision with: 2 2 1 0  and 8 0 2 0 
9777770		 # 	collision with: 2 5 0 0  and 0 10 1 0 
9777828		 # 	collision with: 9 7 0 0  and 4 5 1 0 
9777830		 # 	collision with: 2 7 0 0  and 9 5 1 0 
9777844		 # 	collision with: 4 6 1 0  and 6 6 1 0 
9777846		 # 	collision with: 8 9 0 0  and 0 6 1 0 
9777861		 # 	collision with: 4 5 1 0  and 5 5 1 0 
9777863		 # 	collision with: 4 6 0 0  and 6 6 0 0 
9777876		 # 	collision with: 4 5 1 0  and 5 5 1 0 
9777878		 # 	collision with: 10 5 1 0  and 10 6 1 0 
9777888		 # 	collision with: 8 5 0 0  and 8 9 1 0 
9777890		 # 	collision with: 8 9 0 0  and 0 6 1 0 
9777904		 # 	collision with: 2 2 0 0  and 9 6 1 0 
9777906		 # 	collision with: 3 8 0 0  and 4 0 2 0 
9777908		 # 	collision with: 6 8 0 0  and 8 0 2 0 
9777910		 # 	collision with: 9 4 0 0  and 9 4 1 0 
9777917		 # 	collision with: 8 0 1 0  and 0 1 1 0 
9777919		 # 	collision with: 8 3 0 0  and 3 2 1 0 
9777941		 # 	collision with: 7 5 1 0  and 6 1 2 0 
9777943		 # 	collision with: 8 10 0 0  and 3 2 1 0 
9777945		 # 	collision with: 6 2 1 0  and 6 3 1 0 
9777947		 # 	collision with: 5 2 1 0  and 5 3 1 0 
9777961		 # 	collision with: 1 9 0 0  and 1 1 1 0 
9777963		 # 	collision with: 1 5 0 0  and 9 3 2 0 
9777964		 # 	collision with: 7 0 1 0  and 0 1 1 0 
9777966		 # 	collision with: 1 6 0 0  and 10 1 1 0 
9777984		 # 	collision with: 5 5 1 0  and 0 1 3 0 
9777986		 # 	collision with: 4 6 0 0  and 6 6 0 0 
9778018		 # 	collision with: 3 2 0 0  and 6 10 1 0 
9778024		 # 	collision with: 0 8 2 0  and 1 8 2 0 
9778026		 # 	collision with: 5 6 0 0  and 8 0 1 0 
9778042		 # 	collision with: 2 10 0 0  and 4 3 1 0 
9778048		 # 	collision with: 1 7 0 0  and 10 5 1 0 
9778077		 # 	collision with: 6 2 1 0  and 6 3 1 0 
9778079		 # 	collision with: 5 2 1 0  and 5 3 1 0 
9778080		 # 	collision with: 4 8 0 0  and 8 8 1 0 
9778082		 # 	collision with: 1 1 0 0  and 6 2 1 0 
9778100		 # 	collision with: 4 10 0 0  and 7 2 1 0 
9778102		 # 	collision with: 8 10 0 0  and 3 2 1 0 
9778105		 # 	collision with: 5 7 0 0  and 6 7 0 0 
9778107		 # 	collision with: 8 0 0 0  and 9 2 1 0 
9778125		 # 	collision with: 5 5 0 0  and 8 3 1 0 
9778149		 # 	collision with: 5 7 0 0  and 6 7 0 0 
9778151		 # 	collision with: 2 5 0 0  and 1 2 1 0 
9778156		 # 	collision with: 7 3 0 0  and 9 1 1 0 
9778158		 # 	collision with: 2 9 0 0  and 3 3 2 0 
9778160		 # 	collision with: 10 1 0 0  and 7 5 1 0 
9778162		 # 	collision with: 4 6 0 0  and 6 6 0 0 
9778176		 # 	collision with: 3 4 1 0  and 1 2 2 0 
9778178		 # 	collision with: 8 8 0 0  and 1 5 1 0 
9778188		 # 	collision with: 3 5 0 0  and 3 5 1 0 
9778190		 # 	collision with: 2 6 0 0  and 1 0 1 0 
9778205		 # 	collision with: 2 7 0 0  and 9 6 1 0 
9778207		 # 	collision with: 5 10 0 0  and 8 2 1 0 
9778220		 # 	collision with: 3 8 1 0  and 0 5 2 0 
9778222		 # 	collision with: 6 7 0 0  and 6 8 1 0 
9778236		 # 	collision with: 5 7 0 0  and 6 7 0 0 
9778238		 # 	collision with: 1 2 1 0  and 9 4 2 0 
9778252		 # 	collision with: 0 2 0 0  and 2 0 1 0 
9778254		 # 	collision with: 9 10 1 0  and 8 2 2 0 
9778312		 # 	collision with: 10 0 1 0  and 10 1 1 0 
9778314		 # 	collision with: 5 1 1 0  and 4 3 1 0 
9778328		 # 	collision with: 4 4 1 0  and 4 4 2 0 
9778330		 # 	collision with: 4 6 0 0  and 6 6 0 0 
9778345		 # 	collision with: 10 9 0 0  and 1 4 2 0 
9778347		 # 	collision with: 7 10 1 0  and 9 3 2 0 
9778360		 # 	collision with: 8 1 0 0  and 4 4 1 0 
9778362		 # 	collision with: 2 7 1 0  and 2 1 2 0 
9778372		 # 	collision with: 2 4 1 0  and 2 4 2 0 
9778374		 # 	collision with: 4 6 0 0  and 6 6 0 0 
9778388		 # 	collision with: 10 8 1 0  and 8 7 2 0 
9778390		 # 	collision with: 5 1 2 0  and 5 1 3 0 
9778392		 # 	collision with: 0 8 0 0  and 7 1 1 0 
9778394		 # 	collision with: 2 5 0 0  and 4 6 1 0 
9778403		 # 	collision with: 8 1 0 0  and 2 3 0 0 
9778425		 # 	collision with: 5 7 0 0  and 6 7 0 0 
9778427		 # 	collision with: 4 6 0 0  and 6 6 0 0 
9778429		 # 	collision with: 7 1 0 0  and 7 3 0 0 
9778445		 # 	collision with: 1 8 2 0  and 5 2 3 0 
9778447		 # 	collision with: 8 1 0 0  and 2 3 0 0 
9778448		 # 	collision with: 1 6 0 0  and 1 6 1 0 
9778450		 # 	collision with: 7 2 0 0  and 9 0 1 0 
9778470		 # 	collision with: 4 2 0 0  and 3 0 1 0 
9778500		 # 	collision with: 10 3 0 0  and 9 6 1 0 
9778502		 # 	collision with: 3 3 1 0  and 3 3 2 0 
9778508		 # 	collision with: 6 2 0 0  and 1 7 2 0 
9778510		 # 	collision with: 5 2 1 0  and 2 3 2 0 
9778524		 # 	collision with: 2 5 1 0  and 6 1 2 0 
9778526		 # 	collision with: 3 4 0 0  and 5 4 1 0 
9778532		 # 	collision with: 10 0 1 0  and 10 1 1 0 
9778534		 # 	collision with: 4 1 1 0  and 0 2 1 0 
9778561		 # 	collision with: 7 1 0 0  and 7 3 0 0 
9778563		 # 	collision with: 6 1 0 0  and 6 3 0 0 
9778564		 # 	collision with: 2 7 1 0  and 8 0 2 0 
9778586		 # 	collision with: 10 5 0 0  and 10 5 1 0 
9778589		 # 	collision with: 7 8 0 0  and 1 5 1 0 
9778591		 # 	collision with: 8 8 0 0  and 1 5 1 0 
9778611		 # 	collision with: 3 7 0 0  and 8 6 1 0 
9778633		 # 	collision with: 2 7 0 0  and 8 3 1 0 
9778635		 # 	collision with: 2 3 1 0  and 2 5 1 0 
9778640		 # 	collision with: 8 1 1 0  and 6 5 2 0 
9778642		 # 	collision with: 4 7 0 0  and 7 7 1 0 
9778644		 # 	collision with: 5 7 0 0  and 6 7 0 0 
9778646		 # 	collision with: 4 0 0 0  and 7 5 1 0 
9778660		 # 	collision with: 8 2 0 0  and 6 0 1 0 
9778662		 # 	collision with: 0 10 1 0  and 4 0 2 0 
9778672		 # 	collision with: 6 3 0 0  and 0 9 2 0 
9778674		 # 	collision with: 5 2 0 0  and 4 0 1 0 
9778689		 # 	collision with: 5 7 0 0  and 6 7 0 0 
9778691		 # 	collision with: 4 6 0 0  and 6 6 0 0 
9778704		 # 	collision with: 4 5 0 0  and 5 1 1 0 
9778706		 # 	collision with: 4 6 0 0  and 3 8 2 0 
9778720		 # 	collision with: 8 6 1 0  and 2 3 3 0 
9778722		 # 	collision with: 5 7 1 0  and 6 7 1 0 
9778736		 # 	collision with: 10 8 0 0  and 9 9 1 0 
9778738		 # 	collision with: 2 5 0 0  and 6 6 1 0 
9778796		 # 	collision with: 8 1 0 0  and 3 5 1 0 
9778798		 # 	collision with: 0 8 0 0  and 4 1 2 0 
9778812		 # 	collision with: 3 5 0 0  and 3 3 1 0 
9778814		 # 	collision with: 5 1 0 0  and 0 1 1 0 
9778829		 # 	collision with: 1 8 0 0  and 1 8 1 0 
9778831		 # 	collision with: 8 0 1 0  and 8 2 1 0 
9778844		 # 	collision with: 1 10 0 0  and 3 0 1 0 
9778846		 # 	collision with: 7 5 0 0  and 1 2 1 0 
9778856		 # 	collision with: 10 5 0 0  and 6 3 1 0 
9778858		 # 	collision with: 5 1 0 0  and 0 1 1 0 
9778872		 # 	collision with: 9 6 0 0  and 5 5 1 0 
9778874		 # 	collision with: 3 1 0 0  and 2 7 2 0 
9778878		 # 	collision with: 1 7 0 0  and 1 2 1 0 
9778885		 # 	collision with: 8 1 0 0  and 8 2 0 0 
9778887		 # 	collision with: 8 10 0 0  and 8 3 1 0 
9778909		 # 	collision with: 10 3 0 0  and 7 4 2 0 
9778911		 # 	collision with: 4 3 0 0  and 0 1 1 0 
9778913		 # 	collision with: 5 1 1 0  and 2 2 1 0 
9778915		 # 	collision with: 7 9 0 0  and 4 6 1 0 
9778929		 # 	collision with: 8 1 0 0  and 8 2 0 0 
9778932		 # 	collision with: 3 9 0 0  and 2 7 1 0 
9778934		 # 	collision with: 0 10 0 0  and 4 0 1 0 
9778952		 # 	collision with: 4 4 0 0  and 8 1 1 0 
9778954		 # 	collision with: 0 10 0 0  and 4 0 1 0 
9778984		 # 	collision with: 4 6 0 0  and 1 1 2 0 
9778986		 # 	collision with: 5 0 2 0  and 6 2 2 0 
9778992		 # 	collision with: 5 7 0 0  and 5 7 1 0 
9778994		 # 	collision with: 2 1 1 0  and 3 1 1 0 
9779008		 # 	collision with: 5 7 0 0  and 6 7 0 0 
9779010		 # 	collision with: 10 9 1 0  and 7 1 2 0 
9779016		 # 	collision with: 4 6 2 0  and 6 6 2 0 
9779018		 # 	collision with: 4 6 1 0  and 8 1 2 0 
9779045		 # 	collision with: 7 5 1 0  and 6 1 2 0 
9779047		 # 	collision with: 6 6 0 0  and 3 10 1 0 
9779048		 # 	collision with: 8 0 0 0  and 9 7 1 0 
9779050		 # 	collision with: 7 1 3 0  and 7 2 3 0 
9779068		 # 	collision with: 2 5 0 0  and 2 4 2 0 
9779070		 # 	collision with: 4 6 0 0  and 6 6 0 0 
9779073		 # 	collision with: 3 10 0 0  and 4 2 1 0 
9779075		 # 	collision with: 1 10 1 0  and 2 10 1 0 
9779093		 # 	collision with: 3 8 0 0  and 3 8 1 0 
9779095		 # 	collision with: 8 0 1 0  and 8 2 1 0 
9779117		 # 	collision with: 2 2 2 0  and 4 2 2 0 
9779119		 # 	collision with: 4 4 0 0  and 2 2 1 0 
9779124		 # 	collision with: 5 4 0 0  and 7 3 1 0 
9779130		 # 	collision with: 9 8 1 0  and 0 0 2 0 
9779144		 # 	collision with: 7 1 1 0  and 7 3 1 0 
9779146		 # 	collision with: 4 2 1 0  and 4 4 1 0 
9779156		 # 	collision with: 9 6 0 0  and 7 0 2 0 
9779158		 # 	collision with: 4 6 0 0  and 6 6 0 0 
9779173		 # 	collision with: 6 4 0 0  and 5 0 2 0 
9779175		 # 	collision with: 4 3 0 0  and 0 1 1 0 
9779188		 # 	collision with: 7 2 1 0  and 5 3 1 0 
9779190		 # 	collision with: 9 10 0 0  and 7 0 1 0 
9779204		 # 	collision with: 8 1 0 0  and 4 4 1 0 
9779206		 # 	collision with: 2 0 0 0  and 3 2 1 0 
9779220		 # 	collision with: 10 9 0 0  and 7 0 2 0 
9779222		 # 	collision with: 10 7 1 0  and 1 2 2 0 
9779280		 # 	collision with: 10 9 1 0  and 5 1 2 0 
9779282		 # 	collision with: 4 6 0 0  and 6 6 0 0 
9779296		 # 	collision with: 2 2 1 0  and 7 0 2 0 
9779298		 # 	collision with: 6 4 0 0  and 9 0 1 0 
9779313		 # 	collision with: 9 0 0 0  and 9 2 0 0 
9779315		 # 	collision with: 6 8 0 0  and 6 8 1 0 
9779330		 # 	collision with: 1 2 0 0  and 7 5 1 0 
9779340		 # 	collision with: 1 6 0 0  and 8 3 1 0 
9779342		 # 	collision with: 6 2 0 0  and 0 8 1 0 
9779356		 # 	collision with: 8 0 0 0  and 8 3 1 0 
9779358		 # 	collision with: 2 0 0 0  and 8 3 1 0 
9779360		 # 	collision with: 7 4 0 0  and 5 1 1 0 
9779362		 # 	collision with: 9 0 1 0  and 9 1 1 0 
9779369		 # 	collision with: 5 2 0 0  and 7 1 2 0 
9779393		 # 	collision with: 5 1 0 0  and 1 6 1 0 
9779395		 # 	collision with: 10 0 0 0  and 0 2 2 0 
9779397		 # 	collision with: 3 10 0 0  and 4 2 1 0 
9779399		 # 	collision with: 4 8 1 0  and 7 10 2 0 
9779413		 # 	collision with: 9 3 0 0  and 6 9 1 0 
9779415		 # 	collision with: 1 4 1 0  and 1 5 1 0 
9779416		 # 	collision with: 5 7 0 0  and 6 7 0 0 
9779418		 # 	collision with: 4 6 0 0  and 6 6 1 0 
9779436		 # 	collision with: 6 3 0 0  and 1 3 1 0 
9779438		 # 	collision with: 2 2 1 0  and 4 2 1 0 
9779468		 # 	collision with: 0 9 1 0  and 2 0 2 0 
9779470		 # 	collision with: 10 7 0 0  and 8 1 1 0 
9779476		 # 	collision with: 7 6 1 0  and 7 6 2 0 
9779478		 # 	collision with: 7 7 0 0  and 7 7 1 0 
9779492		 # 	collision with: 10 0 1 0  and 6 1 1 0 
9779494		 # 	collision with: 9 0 1 0  and 9 1 1 0 
9779500		 # 	collision with: 0 1 0 0  and 8 3 1 0 
9779502		 # 	collision with: 4 6 0 0  and 6 6 0 0 
9779529		 # 	collision with: 6 0 1 0  and 9 2 1 0 
9779531		 # 	collision with: 2 7 1 0  and 7 6 3 0 
9779532		 # 	collision with: 5 8 0 0  and 5 8 1 0 
9779534		 # 	collision with: 6 9 0 0  and 3 10 1 0 
9779552		 # 	collision with: 7 0 0 0  and 2 2 1 0 
9779554		 # 	collision with: 9 4 0 0  and 4 0 1 0 
9779557		 # 	collision with: 7 0 0 0  and 4 2 0 0 
9779559		 # 	collision with: 3 7 0 0  and 2 6 2 0 
9779577		 # 	collision with: 9 0 0 0  and 9 2 0 0 
9779579		 # 	collision with: 7 8 0 0  and 7 8 1 0 
9779601		 # 	collision with: 7 0 0 0  and 4 2 0 0 
9779603		 # 	collision with: 7 7 1 0  and 9 6 3 0 
9779608		 # 	collision with: 4 4 0 0  and 6 0 1 0 
9779610		 # 	collision with: 10 3 0 0  and 6 5 1 0 
9779612		 # 	collision with: 2 0 1 0  and 6 3 2 0 
9779614		 # 	collision with: 1 10 0 0  and 5 4 1 0 
9779630		 # 	collision with: 10 2 0 0  and 2 4 1 0 
9779640		 # 	collision with: 9 0 1 0  and 8 1 2 0 
9779657		 # 	collision with: 0 9 1 0  and 2 9 1 0 
9779659		 # 	collision with: 0 8 1 0  and 1 8 1 0 
9779672		 # 	collision with: 4 2 1 0  and 10 3 2 0 
9779674		 # 	collision with: 8 1 1 0  and 0 0 2 0 
9779688		 # 	collision with: 9 8 0 0  and 9 5 1 0 
9779690		 # 	collision with: 1 9 0 0  and 3 0 2 0 
9779704		 # 	collision with: 9 2 1 0  and 4 3 2 0 
9779706		 # 	collision with: 0 1 0 0  and 3 4 1 0 
9779764		 # 	collision with: 10 9 0 0  and 9 7 1 0 
9779766		 # 	collision with: 3 10 0 0  and 5 3 1 0 
9779782		 # 	collision with: 3 10 0 0  and 4 6 1 0 
9779797		 # 	collision with: 6 6 0 0  and 8 4 1 0 
9779799		 # 	collision with: 10 6 0 0  and 0 4 1 0 
9779812		 # 	collision with: 1 5 0 0  and 5 9 1 0 
9779814		 # 	collision with: 4 7 0 0  and 6 3 1 0 
9779824		 # 	collision with: 5 7 0 0  and 6 7 0 0 
9779826		 # 	collision with: 3 4 1 0  and 5 4 1 0 
9779840		 # 	collision with: 3 3 1 0  and 3 5 1 0 
9779842		 # 	collision with: 0 8 0 0  and 5 0 1 0 
9779844		 # 	collision with: 3 3 0 0  and 6 5 1 0 
9779846		 # 	collision with: 4 6 0 0  and 6 6 0 0 
9779853		 # 	collision with: 2 7 0 0  and 7 4 1 0 
9779855		 # 	collision with: 4 6 0 0  and 6 6 0 0 
9779877		 # 	collision with: 10 9 2 0  and 7 0 3 0 
9779879		 # 	collision with: 5 2 1 0  and 7 9 2 0 
9779881		 # 	collision with: 7 0 1 0  and 0 1 1 0 
9779883		 # 	collision with: 1 9 0 0  and 2 2 2 0 
9779899		 # 	collision with: 4 6 0 0  and 6 6 0 0 
9779900		 # 	collision with: 10 8 1 0  and 2 1 2 0 
9779902		 # 	collision with: 0 9 1 0  and 5 1 3 0 
9779920		 # 	collision with: 3 3 1 0  and 4 3 1 0 
9779922		 # 	collision with: 9 2 0 0  and 8 2 2 0 
9779952		 # 	collision with: 4 0 0 0  and 1 5 1 0 
9779954		 # 	collision with: 2 1 1 0  and 3 1 1 0 
9779960		 # 	collision with: 7 0 0 0  and 5 1 1 0 
9779962		 # 	collision with: 9 0 0 0  and 9 1 1 0 
9779976		 # 	collision with: 7 0 0 0  and 6 8 1 0 
9779978		 # 	collision with: 4 6 0 0  and 6 6 0 0 
9779984		 # 	collision with: 9 8 0 0  and 3 0 1 0 
9779986		 # 	collision with: 10 10 0 0  and 6 3 1 0 
28.8252secs	13802
