# prime 11
# degree 2
# input variables 3
# output variables 4
# reload computed balance functions from file balance-1335of3248-p11d2m3-debug.log
# p = 11
# n = 4
# smalldomain p^m 1331
# domain p^n 14641
#	 p^2 = 121
#	 p^3 = 1331
#	 p^4 = 14641
#	 p^5 = 161051
#	 p^6 = 1771561
#	 p^7 = 19487171
#	 p^8 = 214358881
#	 p^9 = 2357947691
opening file : balance-1335of3248-p11d2m3-debug.log
reloading for step2...
8010021		 # 	collision with: 2 6 0 0  and 7 2 2 0 
8010023		 # 	collision with: 7 3 1 0  and 4 5 2 0 
8010141		 # 	collision with: 4 2 0 0  and 4 4 0 0 
8010143		 # 	collision with: 3 9 0 0  and 2 4 2 0 
8010189		 # 	collision with: 10 3 0 0  and 9 3 1 0 
8010191		 # 	collision with: 10 1 0 0  and 4 2 1 0 
8010197		 # 	collision with: 2 1 0 0  and 5 10 1 0 
8010199		 # 	collision with: 6 2 0 0  and 5 1 1 0 
8010200		 # 	collision with: 2 5 0 0  and 3 9 1 0 
8010202		 # 	collision with: 7 6 0 0  and 2 10 1 0 
8010219		 # 	collision with: 5 0 1 0  and 5 1 1 0 
8010229		 # 	collision with: 7 0 2 0  and 4 2 2 0 
8010249		 # 	collision with: 7 1 2 0  and 2 2 2 0 
8010251		 # 	collision with: 7 1 1 0  and 7 3 1 0 
8010257		 # 	collision with: 8 8 0 0  and 9 5 1 0 
8010259		 # 	collision with: 0 10 0 0  and 3 4 1 0 
8010305		 # 	collision with: 8 0 0 0  and 4 2 1 0 
8010307		 # 	collision with: 5 0 1 0  and 5 1 1 0 
8010425		 # 	collision with: 1 9 1 0  and 6 2 2 0 
8010427		 # 	collision with: 7 1 1 0  and 7 3 1 0 
8010453		 # 	collision with: 7 3 1 0  and 7 2 2 0 
8010455		 # 	collision with: 2 2 0 0  and 8 3 0 0 
8010477		 # 	collision with: 8 5 0 0  and 8 7 1 0 
8010479		 # 	collision with: 8 5 0 0  and 8 6 1 0 
8010505		 # 	collision with: 5 2 0 0  and 4 7 1 0 
8010625		 # 	collision with: 4 7 0 0  and 4 7 2 0 
8010627		 # 	collision with: 2 1 1 0  and 4 0 2 0 
8010673		 # 	collision with: 3 8 0 0  and 10 1 1 0 
8010675		 # 	collision with: 2 2 0 0  and 8 3 0 0 
8010681		 # 	collision with: 0 6 1 0  and 1 6 1 0 
8010683		 # 	collision with: 5 0 0 0  and 10 3 1 0 
8010684		 # 	collision with: 0 9 0 0  and 9 3 1 0 
8010686		 # 	collision with: 4 2 0 0  and 1 7 1 0 
8010701		 # 	collision with: 10 6 0 0  and 2 6 1 0 
8010703		 # 	collision with: 8 1 0 0  and 2 3 0 0 
8010713		 # 	collision with: 9 3 1 0  and 9 5 1 0 
8010715		 # 	collision with: 4 5 0 0  and 7 3 1 0 
8010733		 # 	collision with: 0 9 0 0  and 3 2 2 0 
8010735		 # 	collision with: 4 1 2 0  and 6 2 3 0 
8010743		 # 	collision with: 8 6 0 0  and 6 9 2 0 
8010789		 # 	collision with: 4 1 1 0  and 5 1 1 0 
8010791		 # 	collision with: 8 1 0 0  and 2 3 0 0 
8010909		 # 	collision with: 3 9 2 0  and 6 1 3 0 
8010911		 # 	collision with: 4 0 3 0  and 2 1 3 0 
8010937		 # 	collision with: 0 5 1 0  and 4 4 2 0 
8010939		 # 	collision with: 10 3 1 0  and 5 1 3 0 
8010961		 # 	collision with: 0 7 0 0  and 7 8 1 0 
8010963		 # 	collision with: 4 10 0 0  and 4 6 2 0 
8010989		 # 	collision with: 4 10 1 0  and 5 2 2 0 
8010991		 # 	collision with: 6 2 0 0  and 4 1 2 0 
8011109		 # 	collision with: 9 3 1 0  and 9 5 1 0 
8011111		 # 	collision with: 9 7 0 0  and 7 5 2 0 
8011157		 # 	collision with: 0 6 1 0  and 1 6 1 0 
8011159		 # 	collision with: 4 7 0 0  and 2 6 2 0 
8011167		 # 	collision with: 2 0 0 0  and 3 8 1 0 
8011168		 # 	collision with: 8 0 0 0  and 9 4 2 0 
8011170		 # 	collision with: 5 9 0 0  and 0 1 1 0 
8011185		 # 	collision with: 2 1 0 0  and 2 2 0 0 
8011187		 # 	collision with: 4 4 1 0  and 6 6 1 0 
8011197		 # 	collision with: 5 3 1 0  and 6 4 1 0 
8011199		 # 	collision with: 4 10 0 0  and 6 10 0 0 
8011217		 # 	collision with: 3 1 0 0  and 0 0 1 0 
8011219		 # 	collision with: 3 1 0 0  and 1 2 1 0 
8011225		 # 	collision with: 1 1 0 0  and 10 2 0 0 
8011227		 # 	collision with: 10 1 0 0  and 10 2 0 0 
8011273		 # 	collision with: 2 1 0 0  and 2 2 0 0 
8011275		 # 	collision with: 1 3 0 0  and 7 1 1 0 
8011393		 # 	collision with: 3 1 0 0  and 0 0 1 0 
8011395		 # 	collision with: 5 0 2 0  and 5 1 2 0 
8011423		 # 	collision with: 0 3 0 0  and 8 3 1 0 
8011445		 # 	collision with: 1 1 0 0  and 10 2 0 0 
8011447		 # 	collision with: 10 1 0 0  and 10 2 0 0 
8011475		 # 	collision with: 6 7 0 0  and 0 3 1 0 
8011593		 # 	collision with: 8 2 0 0  and 0 7 1 0 
8011595		 # 	collision with: 4 10 0 0  and 6 10 0 0 
8011641		 # 	collision with: 3 0 0 0  and 0 3 1 0 
8011643		 # 	collision with: 10 4 1 0  and 4 0 2 0 
8011649		 # 	collision with: 5 8 0 0  and 6 8 0 0 
8011651		 # 	collision with: 6 7 0 0  and 0 3 1 0 
8011652		 # 	collision with: 1 5 0 0  and 6 4 1 0 
8011654		 # 	collision with: 0 3 0 0  and 1 2 1 0 
8011669		 # 	collision with: 1 7 1 0  and 0 3 2 0 
8011671		 # 	collision with: 7 9 2 0  and 6 3 3 0 
8011681		 # 	collision with: 5 5 0 0  and 2 5 1 0 
8011683		 # 	collision with: 3 4 1 0  and 0 0 2 0 
8011701		 # 	collision with: 5 0 0 0  and 5 2 0 0 
8011703		 # 	collision with: 1 2 0 0  and 1 2 1 0 
8011709		 # 	collision with: 5 8 0 0  and 6 8 0 0 
8011711		 # 	collision with: 4 1 1 0  and 5 1 1 0 
8011757		 # 	collision with: 4 4 0 0  and 1 1 2 0 
8011759		 # 	collision with: 2 4 0 0  and 5 10 1 0 
8011877		 # 	collision with: 5 0 0 0  and 5 2 0 0 
8011879		 # 	collision with: 9 2 0 0  and 9 2 1 0 
8011905		 # 	collision with: 10 3 0 0  and 3 2 1 0 
8011907		 # 	collision with: 2 0 0 0  and 2 2 0 0 
8011929		 # 	collision with: 5 8 0 0  and 6 8 0 0 
8011931		 # 	collision with: 6 2 0 0  and 8 9 1 0 
8011957		 # 	collision with: 9 9 0 0  and 3 5 1 0 
8011959		 # 	collision with: 0 4 0 0  and 9 2 2 0 
8012077		 # 	collision with: 5 5 0 0  and 5 5 1 0 
8012079		 # 	collision with: 6 4 1 0  and 8 0 2 0 
8012125		 # 	collision with: 5 1 1 0  and 4 1 2 0 
8012127		 # 	collision with: 2 0 0 0  and 2 2 0 0 
8012133		 # 	collision with: 4 7 0 0  and 3 4 1 0 
8012136		 # 	collision with: 0 8 1 0  and 1 0 2 0 
8012138		 # 	collision with: 3 3 0 0  and 9 1 1 0 
8012153		 # 	collision with: 9 2 0 0  and 2 7 1 0 
8012155		 # 	collision with: 9 7 0 0  and 9 0 1 0 
8012165		 # 	collision with: 5 8 0 0  and 6 8 0 0 
8012167		 # 	collision with: 5 0 0 0  and 5 1 0 0 
8012185		 # 	collision with: 2 0 0 0  and 9 1 0 0 
8012187		 # 	collision with: 9 5 1 0  and 0 6 1 0 
8012193		 # 	collision with: 8 0 0 0  and 8 1 0 0 
8012241		 # 	collision with: 10 7 0 0  and 4 1 2 0 
8012243		 # 	collision with: 4 5 0 0  and 7 1 2 0 
8012361		 # 	collision with: 2 0 0 0  and 9 1 0 0 
8012363		 # 	collision with: 4 1 1 0  and 4 4 2 0 
8012389		 # 	collision with: 2 7 1 0  and 4 7 1 0 
8012391		 # 	collision with: 9 7 0 0  and 8 4 1 0 
8012413		 # 	collision with: 8 0 0 0  and 8 1 0 0 
8012415		 # 	collision with: 8 4 1 0  and 7 5 1 0 
8012441		 # 	collision with: 5 4 0 0  and 9 3 1 0 
8012443		 # 	collision with: 5 6 0 0  and 1 1 1 0 
8012561		 # 	collision with: 5 8 0 0  and 6 8 0 0 
8012609		 # 	collision with: 3 7 0 0  and 7 4 1 0 
8012611		 # 	collision with: 5 1 1 0  and 4 1 2 0 
8012617		 # 	collision with: 8 3 1 0  and 1 0 2 0 
8012619		 # 	collision with: 5 8 0 0  and 9 0 2 0 
8012633		 # 	collision with: 2 0 1 0  and 10 3 2 0 
8012635		 # 	collision with: 6 6 0 0  and 5 1 1 0 
8012653		 # 	collision with: 3 7 0 0  and 7 0 2 0 
8012655		 # 	collision with: 4 6 0 0  and 5 4 1 0 
8012665		 # 	collision with: 5 8 0 0  and 6 8 0 0 
8012667		 # 	collision with: 2 5 1 0  and 7 6 1 0 
8012681		 # 	collision with: 1 3 0 0  and 0 3 1 0 
8012683		 # 	collision with: 8 5 0 0  and 8 6 0 0 
8012727		 # 	collision with: 8 5 0 0  and 8 6 0 0 
8012853		 # 	collision with: 2 0 1 0  and 4 0 1 0 
8012855		 # 	collision with: 4 2 2 0  and 4 3 2 0 
8012865		 # 	collision with: 2 0 1 0  and 4 0 1 0 
8012867		 # 	collision with: 4 2 0 0  and 6 2 0 0 
8012905		 # 	collision with: 9 7 0 0  and 9 1 1 0 
8012907		 # 	collision with: 3 5 0 0  and 7 6 0 0 
8012917		 # 	collision with: 2 7 0 0  and 7 7 1 0 
8012919		 # 	collision with: 6 4 0 0  and 1 7 1 0 
8013047		 # 	collision with: 6 8 0 0  and 6 8 1 0 
8013061		 # 	collision with: 5 8 0 0  and 6 8 0 0 
8013063		 # 	collision with: 4 9 1 0  and 10 3 2 0 
8013089		 # 	collision with: 9 1 0 0  and 2 3 2 0 
8013091		 # 	collision with: 8 9 0 0  and 4 5 1 0 
8013104		 # 	collision with: 9 10 0 0  and 5 0 1 0 
8013106		 # 	collision with: 1 4 0 0  and 7 5 1 0 
8013117		 # 	collision with: 5 6 1 0  and 2 6 3 0 
8013119		 # 	collision with: 9 2 0 0  and 0 9 1 0 
8013137		 # 	collision with: 7 2 2 0  and 7 3 2 0 
8013139		 # 	collision with: 10 6 0 0  and 6 1 1 0 
8013149		 # 	collision with: 8 10 0 0  and 8 2 2 0 
8013151		 # 	collision with: 4 2 0 0  and 6 2 0 0 
8013165		 # 	collision with: 5 8 0 0  and 6 8 0 0 
8013167		 # 	collision with: 9 1 0 0  and 0 2 1 0 
8013209		 # 	collision with: 5 8 0 0  and 6 8 0 0 
8013337		 # 	collision with: 7 0 0 0  and 4 2 1 0 
8013349		 # 	collision with: 5 1 1 0  and 1 3 1 0 
8013351		 # 	collision with: 8 8 1 0  and 8 3 2 0 
8013389		 # 	collision with: 2 8 0 0  and 8 1 1 0 
8013391		 # 	collision with: 7 1 0 0  and 8 9 1 0 
8013401		 # 	collision with: 7 2 2 0  and 7 3 2 0 
8013403		 # 	collision with: 7 1 0 0  and 7 3 1 0 
8013529		 # 	collision with: 1 4 0 0  and 10 6 0 0 
8013531		 # 	collision with: 0 4 0 0  and 7 9 1 0 
8013545		 # 	collision with: 0 3 0 0  and 5 1 1 0 
8013547		 # 	collision with: 4 2 0 0  and 6 2 0 0 
8013573		 # 	collision with: 1 4 0 0  and 10 6 0 0 
8013575		 # 	collision with: 10 6 0 0  and 8 5 1 0 
8013588		 # 	collision with: 5 10 0 0  and 10 5 1 0 
8013590		 # 	collision with: 9 3 1 0  and 0 0 2 0 
8013601		 # 	collision with: 2 4 0 0  and 1 4 1 0 
8013603		 # 	collision with: 10 4 0 0  and 5 2 1 0 
8013621		 # 	collision with: 5 8 0 0  and 6 8 0 0 
8013623		 # 	collision with: 1 4 0 0  and 9 5 0 0 
8013635		 # 	collision with: 1 2 1 0  and 9 5 2 0 
8013649		 # 	collision with: 3 6 0 0  and 2 3 1 0 
8013651		 # 	collision with: 4 2 1 0  and 4 3 1 0 
8013693		 # 	collision with: 3 0 0 0  and 5 9 2 0 
8013695		 # 	collision with: 4 3 0 0  and 4 2 1 0 
8013821		 # 	collision with: 0 3 2 0  and 1 3 2 0 
8013823		 # 	collision with: 8 5 0 0  and 7 2 1 0 
8013833		 # 	collision with: 2 1 1 0  and 2 2 1 0 
8013835		 # 	collision with: 4 2 0 0  and 6 2 1 0 
8013873		 # 	collision with: 3 9 0 0  and 10 9 1 0 
8013875		 # 	collision with: 4 2 0 0  and 6 2 0 0 
8013885		 # 	collision with: 5 8 0 0  and 6 8 0 0 
8013887		 # 	collision with: 1 4 0 0  and 9 5 0 0 
8014013		 # 	collision with: 2 9 0 0  and 2 5 2 0 
8014015		 # 	collision with: 0 3 1 0  and 1 3 1 0 
8014029		 # 	collision with: 4 4 0 0  and 7 5 0 0 
8014031		 # 	collision with: 3 8 0 0  and 8 3 1 0 
8014059		 # 	collision with: 5 9 0 0  and 1 1 2 0 
8014072		 # 	collision with: 1 10 0 0  and 8 3 1 0 
8014074		 # 	collision with: 10 4 1 0  and 5 2 2 0 
8014085		 # 	collision with: 6 1 0 0  and 2 1 2 0 
8014107		 # 	collision with: 6 3 0 0  and 6 5 0 0 
8014117		 # 	collision with: 2 9 0 0  and 10 2 1 0 
8014119		 # 	collision with: 6 3 1 0  and 6 5 1 0 
8014133		 # 	collision with: 5 3 0 0  and 6 5 0 0 
8014135		 # 	collision with: 8 3 0 0  and 5 1 1 0 
8014177		 # 	collision with: 5 3 0 0  and 6 5 0 0 
8014179		 # 	collision with: 6 6 3 0  and 6 6 4 0 
8014305		 # 	collision with: 0 4 0 0  and 10 1 1 0 
8014307		 # 	collision with: 1 6 1 0  and 1 0 2 0 
8014317		 # 	collision with: 9 2 0 0  and 0 0 1 0 
8014319		 # 	collision with: 0 0 1 0  and 4 6 2 0 
8014357		 # 	collision with: 3 9 0 0  and 3 9 1 0 
8014359		 # 	collision with: 0 4 0 0  and 2 8 1 0 
8014369		 # 	collision with: 9 6 0 0  and 0 0 1 0 
8014371		 # 	collision with: 6 3 0 0  and 6 5 0 0 
8014497		 # 	collision with: 9 0 0 0  and 2 8 1 0 
8014499		 # 	collision with: 2 0 1 0  and 8 2 2 0 
8014513		 # 	collision with: 9 3 1 0  and 9 5 1 0 
8014515		 # 	collision with: 9 4 0 0  and 3 3 1 0 
8014541		 # 	collision with: 7 0 0 0  and 4 4 1 0 
8014556		 # 	collision with: 4 0 0 0  and 10 3 1 0 
8014558		 # 	collision with: 8 10 0 0  and 9 2 1 0 
8014569		 # 	collision with: 5 4 0 0  and 3 0 1 0 
8014571		 # 	collision with: 9 3 0 0  and 5 4 1 0 
8014589		 # 	collision with: 7 1 1 0  and 0 2 3 0 
8014591		 # 	collision with: 8 6 0 0  and 3 2 1 0 
8014601		 # 	collision with: 4 0 1 0  and 4 6 2 0 
8014617		 # 	collision with: 0 10 0 0  and 8 1 1 0 
8014619		 # 	collision with: 4 2 0 0  and 6 2 0 0 
8014661		 # 	collision with: 1 10 1 0  and 9 4 2 0 
8014663		 # 	collision with: 4 2 0 0  and 6 2 0 0 
8014789		 # 	collision with: 1 1 0 0  and 1 1 2 0 
8014791		 # 	collision with: 5 7 0 0  and 9 9 1 0 
8014841		 # 	collision with: 5 8 0 0  and 6 8 0 0 
8014843		 # 	collision with: 2 0 1 0  and 2 2 1 0 
8014855		 # 	collision with: 7 9 0 0  and 0 6 2 0 
8014981		 # 	collision with: 8 0 0 0  and 8 1 1 0 
8014983		 # 	collision with: 0 3 0 0  and 10 4 0 0 
8014997		 # 	collision with: 6 7 0 0  and 7 5 1 0 
8014999		 # 	collision with: 3 1 0 0  and 1 0 2 0 
8015025		 # 	collision with: 5 5 1 0  and 7 6 1 0 
8015027		 # 	collision with: 0 3 0 0  and 10 4 0 0 
8015040		 # 	collision with: 0 2 0 0  and 1 1 2 0 
8015042		 # 	collision with: 10 9 0 0  and 7 8 2 0 
8015053		 # 	collision with: 8 4 0 0  and 5 10 1 0 
8015055		 # 	collision with: 6 6 1 0  and 3 1 2 0 
8015073		 # 	collision with: 4 4 1 0  and 7 5 1 0 
8015075		 # 	collision with: 3 4 1 0  and 3 5 1 0 
8015085		 # 	collision with: 4 2 0 0  and 4 4 0 0 
8015087		 # 	collision with: 1 2 0 0  and 1 4 0 0 
8015101		 # 	collision with: 10 7 0 0  and 8 9 1 0 
8015103		 # 	collision with: 9 2 0 0  and 1 4 0 0 
8015145		 # 	collision with: 4 7 1 0  and 5 7 1 0 
8015147		 # 	collision with: 9 2 0 0  and 1 4 0 0 
8015273		 # 	collision with: 1 4 0 0  and 1 4 1 0 
8015275		 # 	collision with: 3 1 0 0  and 6 6 1 0 
8015285		 # 	collision with: 8 2 0 0  and 2 2 1 0 
8015287		 # 	collision with: 8 4 0 0  and 0 2 1 0 
8015325		 # 	collision with: 1 3 2 0  and 1 4 2 0 
8015327		 # 	collision with: 2 9 0 0  and 0 9 1 0 
8015337		 # 	collision with: 6 9 0 0  and 0 0 2 0 
8015339		 # 	collision with: 3 4 1 0  and 3 5 1 0 
8015465		 # 	collision with: 7 8 1 0  and 5 0 2 0 
8015467		 # 	collision with: 8 0 0 0  and 0 7 1 0 
8015481		 # 	collision with: 4 2 0 0  and 4 4 0 0 
8015483		 # 	collision with: 1 2 0 0  and 1 4 0 0 
8015509		 # 	collision with: 10 0 0 0  and 9 3 1 0 
8015511		 # 	collision with: 8 0 0 0  and 0 7 1 0 
8015524		 # 	collision with: 0 4 0 0  and 4 6 1 0 
8015526		 # 	collision with: 5 7 0 0  and 9 9 1 0 
8015537		 # 	collision with: 5 1 0 0  and 3 1 2 0 
8015539		 # 	collision with: 4 2 0 0  and 6 2 0 0 
8015557		 # 	collision with: 1 3 1 0  and 5 1 2 0 
8015559		 # 	collision with: 5 9 0 0  and 7 1 1 0 
8015569		 # 	collision with: 3 6 0 0  and 9 1 1 0 
8015571		 # 	collision with: 10 6 0 0  and 6 1 1 0 
8015585		 # 	collision with: 9 3 0 0  and 10 0 2 0 
8015587		 # 	collision with: 2 3 0 0  and 10 3 1 0 
8015629		 # 	collision with: 8 3 0 0  and 4 3 1 0 
8015631		 # 	collision with: 9 0 0 0  and 4 4 1 0 
8015757		 # 	collision with: 5 8 0 0  and 7 10 1 0 
8015759		 # 	collision with: 4 2 0 0  and 6 2 0 0 
8015769		 # 	collision with: 7 2 0 0  and 7 3 0 0 
8015771		 # 	collision with: 3 0 0 0  and 2 7 1 0 
8015809		 # 	collision with: 4 1 1 0  and 4 5 2 0 
8015811		 # 	collision with: 4 2 0 0  and 4 3 0 0 
8015821		 # 	collision with: 8 7 0 0  and 8 7 1 0 
8015823		 # 	collision with: 8 9 0 0  and 7 1 1 0 
8015949		 # 	collision with: 4 4 1 0  and 9 5 1 0 
8015951		 # 	collision with: 7 4 1 0  and 5 5 1 0 
8015965		 # 	collision with: 5 5 1 0  and 2 2 2 0 
8015967		 # 	collision with: 5 10 0 0  and 10 4 1 0 
8015993		 # 	collision with: 7 0 2 0  and 6 2 2 0 
8015995		 # 	collision with: 7 4 0 0  and 4 7 1 0 
14.4784secs	5792
