# prime 11
# degree 2
# input variables 3
# output variables 3
# reload computed balance functions from file balance-384of3248-p11d2m3-debug.log
# p = 11
# n = 3
# smalldomain p^m 1331
# domain p^n 1331
#	 p^2 = 121
#	 p^3 = 1331
#	 p^4 = 14641
#	 p^5 = 161051
#	 p^6 = 1771561
#	 p^7 = 19487171
#	 p^8 = 214358881
#	 p^9 = 2357947691
opening file : balance-384of3248-p11d2m3-debug.log
reloading for step2...
2304000		 # 	collision with: 9 2 0  and 10 3 0 
2304002		 # 	collision with: 5 0 0  and 0 2 0 
2304009		 # 	collision with: 3 1 0  and 2 3 0 
2304024		 # 	collision with: 3 5 0  and 1 0 1 
2304026		 # 	collision with: 5 0 0  and 0 2 0 
2304053		 # 	collision with: 4 3 0  and 0 4 0 
2304055		 # 	collision with: 5 1 0  and 4 2 0 
2304091		 # 	collision with: 3 1 0  and 3 0 1 
2304094		 # 	collision with: 5 0 0  and 0 2 0 
2304116		 # 	collision with: 10 0 0  and 6 2 0 
2304121		 # 	collision with: 6 1 0  and 1 0 1 
2304123		 # 	collision with: 1 1 0  and 3 0 1 
2304157		 # 	collision with: 2 10 0  and 1 0 1 
2304159		 # 	collision with: 3 6 0  and 7 7 0 
2304184		 # 	collision with: 1 3 0  and 4 4 0 
2304186		 # 	collision with: 5 0 0  and 0 2 0 
2304201		 # 	collision with: 3 3 0  and 9 4 0 
2304203		 # 	collision with: 10 0 0  and 5 1 0 
2304208		 # 	collision with: 3 3 0  and 0 2 1 
2304210		 # 	collision with: 5 0 0  and 0 2 0 
2304265		 # 	collision with: 1 3 0  and 4 4 0 
2304267		 # 	collision with: 6 3 0  and 2 5 0 
2304276		 # 	collision with: 9 10 0  and 8 0 1 
2304278		 # 	collision with: 5 0 0  and 0 2 0 
2304300		 # 	collision with: 0 0 0  and 8 1 0 
2304302		 # 	collision with: 5 0 0  and 0 2 0 
2304321		 # 	collision with: 6 0 0  and 9 1 0 
2304323		 # 	collision with: 0 6 0  and 9 7 0 
2304324		 # 	collision with: 9 8 0  and 0 0 1 
2304326		 # 	collision with: 3 1 0  and 7 3 0 
2304328		 # 	collision with: 2 2 0  and 4 2 0 
2304330		 # 	collision with: 6 1 0  and 6 0 1 
2304332		 # 	collision with: 3 1 0  and 5 1 0 
2304334		 # 	collision with: 1 4 0  and 5 6 0 
2304336		 # 	collision with: 2 8 0  and 3 8 0 
2304338		 # 	collision with: 8 1 0  and 10 2 0 
2304340		 # 	collision with: 4 6 0  and 5 6 0 
2304342		 # 	collision with: 9 3 0  and 2 5 0 
2304344		 # 	collision with: 3 7 0  and 4 7 0 
2304346		 # 	collision with: 0 2 0  and 2 3 0 
2304348		 # 	collision with: 0 4 0  and 2 4 0 
2304350		 # 	collision with: 5 0 0  and 7 1 0 
2304352		 # 	collision with: 5 5 0  and 6 5 0 
2304354		 # 	collision with: 0 0 0  and 4 2 0 
2304356		 # 	collision with: 1 3 0  and 3 3 0 
2304358		 # 	collision with: 6 4 0  and 8 5 0 
2304360		 # 	collision with: 0 10 0  and 1 10 0 
2304362		 # 	collision with: 6 2 0  and 10 4 0 
2304364		 # 	collision with: 1 9 0  and 2 9 0 
2304373		 # 	collision with: 9 2 0  and 5 3 0 
2304375		 # 	collision with: 2 1 0  and 1 2 0 
2304392		 # 	collision with: 7 4 0  and 6 0 1 
2304394		 # 	collision with: 3 6 0  and 7 7 0 
2304416		 # 	collision with: 2 0 0  and 1 2 0 
2304418		 # 	collision with: 9 10 0  and 4 2 1 
2304429		 # 	collision with: 9 3 0  and 3 0 1 
2304431		 # 	collision with: 2 1 0  and 1 2 0 
2304484		 # 	collision with: 10 0 0  and 8 1 0 
2304486		 # 	collision with: 9 3 0  and 8 0 1 
2304493		 # 	collision with: 9 7 0  and 2 2 1 
2304495		 # 	collision with: 2 1 0  and 1 2 0 
2304508		 # 	collision with: 4 1 0  and 5 2 0 
2304537		 # 	collision with: 4 4 0  and 2 6 0 
2304539		 # 	collision with: 2 1 0  and 1 2 0 
2304573		 # 	collision with: 2 1 0  and 7 3 0 
2304575		 # 	collision with: 2 1 0  and 1 2 0 
2304576		 # 	collision with: 6 5 0  and 8 6 0 
2304578		 # 	collision with: 1 4 0  and 4 6 0 
2304600		 # 	collision with: 2 1 0  and 7 3 0 
2304602		 # 	collision with: 0 0 0  and 5 1 0 
2304605		 # 	collision with: 5 3 0  and 7 5 0 
2304607		 # 	collision with: 2 1 0  and 1 2 0 
2304643		 # 	collision with: 2 1 0  and 1 2 0 
2304670		 # 	collision with: 5 9 0  and 3 0 1 
2304685		 # 	collision with: 0 10 0  and 5 0 1 
2304687		 # 	collision with: 2 1 0  and 1 2 0 
2304692		 # 	collision with: 7 8 0  and 5 0 1 
2304694		 # 	collision with: 6 4 0  and 3 5 0 
2304749		 # 	collision with: 8 4 0  and 3 6 0 
2304751		 # 	collision with: 2 1 0  and 1 2 0 
2304760		 # 	collision with: 4 3 0  and 0 4 0 
2304762		 # 	collision with: 4 4 0  and 5 0 1 
2304784		 # 	collision with: 3 3 0  and 4 1 1 
2304786		 # 	collision with: 9 2 0  and 9 4 0 
2304805		 # 	collision with: 3 4 0  and 6 5 0 
2304807		 # 	collision with: 2 1 0  and 1 2 0 
2304808		 # 	collision with: 7 4 0  and 2 0 1 
2304810		 # 	collision with: 3 1 0  and 4 2 0 
2304812		 # 	collision with: 3 1 0  and 5 1 0 
2304814		 # 	collision with: 5 1 0  and 7 3 0 
2304816		 # 	collision with: 4 6 0  and 5 6 0 
2304818		 # 	collision with: 4 3 0  and 6 5 0 
2304820		 # 	collision with: 0 4 0  and 2 4 0 
2304822		 # 	collision with: 9 4 0  and 0 6 0 
2304824		 # 	collision with: 1 3 0  and 3 3 0 
2304826		 # 	collision with: 7 4 0  and 8 5 0 
2304828		 # 	collision with: 1 9 0  and 2 9 0 
2304832		 # 	collision with: 2 2 0  and 4 2 0 
2304834		 # 	collision with: 1 5 0  and 2 6 0 
2304836		 # 	collision with: 2 8 0  and 3 8 0 
2304838		 # 	collision with: 0 0 0  and 2 2 0 
2304840		 # 	collision with: 3 7 0  and 4 7 0 
2304842		 # 	collision with: 10 2 0  and 1 4 0 
2304844		 # 	collision with: 5 5 0  and 6 5 0 
2304846		 # 	collision with: 2 3 0  and 3 4 0 
2304848		 # 	collision with: 0 10 0  and 1 10 0 
2304850		 # 	collision with: 0 0 0  and 1 1 1 
2304857		 # 	collision with: 8 4 0  and 6 6 0 
2304859		 # 	collision with: 1 1 0  and 0 2 0 
2304876		 # 	collision with: 0 10 0  and 1 0 1 
2304878		 # 	collision with: 3 10 0  and 4 0 1 
2304900		 # 	collision with: 3 1 0  and 10 2 0 
2304913		 # 	collision with: 8 0 0  and 5 2 0 
2304915		 # 	collision with: 9 0 0  and 8 2 0 
2304968		 # 	collision with: 6 10 0  and 9 0 1 
2304970		 # 	collision with: 2 2 0  and 7 3 0 
2304977		 # 	collision with: 4 3 0  and 0 5 0 
2304979		 # 	collision with: 1 1 0  and 2 3 0 
2304992		 # 	collision with: 8 2 0  and 10 3 0 
2304994		 # 	collision with: 7 1 0  and 2 3 0 
2305021		 # 	collision with: 8 1 0  and 4 3 0 
2305023		 # 	collision with: 10 1 0  and 9 2 0 
2305057		 # 	collision with: 5 1 0  and 10 2 0 
2305059		 # 	collision with: 9 5 0  and 9 6 0 
2305060		 # 	collision with: 1 3 0  and 1 0 1 
2305062		 # 	collision with: 9 3 0  and 9 5 0 
2305084		 # 	collision with: 4 2 0  and 3 4 0 
2305086		 # 	collision with: 2 6 0  and 1 0 1 
2305089		 # 	collision with: 5 3 0  and 4 5 0 
2305125		 # 	collision with: 3 3 0  and 4 4 0 
2305152		 # 	collision with: 5 4 0  and 6 6 0 
2305154		 # 	collision with: 1 5 0  and 7 6 0 
2305169		 # 	collision with: 10 3 0  and 4 5 0 
2305171		 # 	collision with: 9 2 0  and 4 4 0 
2305176		 # 	collision with: 3 4 0  and 6 5 0 
2305178		 # 	collision with: 4 9 0  and 5 0 1 
2305235		 # 	collision with: 0 2 0  and 3 4 0 
2305246		 # 	collision with: 8 5 0  and 2 7 0 
2305268		 # 	collision with: 0 5 0  and 9 6 0 
2305270		 # 	collision with: 0 2 0  and 3 4 0 
2305289		 # 	collision with: 4 2 0  and 10 4 0 
2305291		 # 	collision with: 4 6 0  and 10 0 1 
2305298		 # 	collision with: 9 3 0  and 9 5 0 
2305302		 # 	collision with: 9 1 0  and 9 2 0 
2305306		 # 	collision with: 9 4 0  and 9 5 0 
2305310		 # 	collision with: 9 1 0  and 9 3 0 
2305314		 # 	collision with: 9 4 0  and 9 6 0 
2305318		 # 	collision with: 9 2 0  and 9 3 0 
2305322		 # 	collision with: 9 5 0  and 9 6 0 
2305326		 # 	collision with: 9 2 0  and 9 4 0 
2305330		 # 	collision with: 9 0 0  and 9 1 0 
2305334		 # 	collision with: 9 3 0  and 9 4 0 
2305349		 # 	collision with: 6 0 0  and 9 2 0 
2305351		 # 	collision with: 8 4 0  and 7 5 0 
2305368		 # 	collision with: 0 0 0  and 2 0 0 
2305370		 # 	collision with: 4 1 0  and 10 2 0 
2305400		 # 	collision with: 0 0 0  and 2 0 0 
2305402		 # 	collision with: 8 4 0  and 3 2 1 
2305413		 # 	collision with: 1 1 0  and 8 2 0 
2305415		 # 	collision with: 8 0 1  and 4 1 1 
2305432		 # 	collision with: 0 0 0  and 2 0 0 
2305434		 # 	collision with: 6 3 0  and 1 5 0 
2305441		 # 	collision with: 3 4 0  and 0 2 1 
2305443		 # 	collision with: 6 2 0  and 4 0 1 
2305493		 # 	collision with: 2 4 0  and 6 6 0 
2305495		 # 	collision with: 10 4 0  and 4 5 0 
2305508		 # 	collision with: 0 0 0  and 2 0 0 
2305510		 # 	collision with: 5 4 0  and 3 5 0 
2305537		 # 	collision with: 10 0 0  and 2 1 0 
2305539		 # 	collision with: 4 2 0  and 6 2 0 
2305540		 # 	collision with: 0 0 0  and 2 0 0 
2305542		 # 	collision with: 4 4 0  and 0 0 1 
2305572		 # 	collision with: 0 0 0  and 2 0 0 
2305574		 # 	collision with: 9 2 0  and 5 3 0 
2305577		 # 	collision with: 5 3 0  and 3 4 0 
2305579		 # 	collision with: 3 0 0  and 5 2 0 
2305604		 # 	collision with: 0 0 0  and 2 0 0 
2305606		 # 	collision with: 0 0 0  and 1 1 1 
2305621		 # 	collision with: 4 9 0  and 3 0 1 
2305623		 # 	collision with: 4 2 0  and 7 3 0 
2305673		 # 	collision with: 4 3 0  and 2 5 0 
2305675		 # 	collision with: 0 1 0  and 5 2 0 
2305680		 # 	collision with: 0 0 0  and 2 0 0 
2305682		 # 	collision with: 4 0 0  and 9 1 0 
2305701		 # 	collision with: 0 2 0  and 7 4 0 
2305703		 # 	collision with: 0 5 0  and 1 6 0 
2305712		 # 	collision with: 0 0 0  and 2 0 0 
2305714		 # 	collision with: 10 2 0  and 1 0 1 
2305744		 # 	collision with: 0 0 0  and 2 0 0 
2305746		 # 	collision with: 5 5 0  and 4 6 0 
2305765		 # 	collision with: 6 3 0  and 9 4 0 
2305767		 # 	collision with: 4 2 0  and 10 0 1 
2305776		 # 	collision with: 1 2 0  and 1 0 1 
2305778		 # 	collision with: 3 2 0  and 2 3 0 
2305780		 # 	collision with: 4 10 0  and 5 10 0 
2305782		 # 	collision with: 3 2 0  and 2 3 0 
2305784		 # 	collision with: 5 5 0  and 6 5 0 
2305786		 # 	collision with: 9 0 0  and 8 1 0 
2305788		 # 	collision with: 3 7 0  and 5 7 0 
2305790		 # 	collision with: 3 2 0  and 2 3 0 
2305792		 # 	collision with: 0 8 0  and 1 8 0 
2305794		 # 	collision with: 3 2 0  and 2 3 0 
2305796		 # 	collision with: 4 2 0  and 6 2 0 
2305798		 # 	collision with: 3 2 0  and 2 3 0 
2305800		 # 	collision with: 2 9 0  and 3 9 0 
2305804		 # 	collision with: 1 3 0  and 2 3 0 
2305806		 # 	collision with: 3 2 0  and 2 3 0 
2305808		 # 	collision with: 3 4 0  and 4 4 0 
2305810		 # 	collision with: 3 2 0  and 2 3 0 
2305812		 # 	collision with: 1 6 0  and 3 6 0 
2305814		 # 	collision with: 3 2 0  and 2 3 0 
2305816		 # 	collision with: 2 1 0  and 4 1 0 
2305818		 # 	collision with: 3 2 0  and 2 3 0 
2305833		 # 	collision with: 8 2 0  and 7 3 0 
2305835		 # 	collision with: 3 0 0  and 6 1 0 
2305852		 # 	collision with: 2 3 0  and 3 5 0 
2305886		 # 	collision with: 8 1 0  and 9 2 0 
2305899		 # 	collision with: 4 0 1  and 2 1 1 
2305916		 # 	collision with: 1 10 0  and 0 0 1 
2305918		 # 	collision with: 3 0 0  and 6 1 0 
2305925		 # 	collision with: 6 0 0  and 3 1 0 
2305927		 # 	collision with: 9 8 0  and 10 0 1 
2305977		 # 	collision with: 10 2 0  and 0 4 0 
2305979		 # 	collision with: 6 10 0  and 9 1 1 
2305992		 # 	collision with: 7 2 0  and 2 4 0 
2305994		 # 	collision with: 3 2 0  and 2 3 0 
2306021		 # 	collision with: 1 2 0  and 7 0 1 
2306023		 # 	collision with: 2 4 0  and 8 5 0 
2306024		 # 	collision with: 4 7 0  and 4 1 1 
2306026		 # 	collision with: 3 2 0  and 2 3 0 
2306056		 # 	collision with: 1 5 0  and 6 6 0 
2306058		 # 	collision with: 3 2 0  and 2 3 0 
2306061		 # 	collision with: 1 5 0  and 6 6 0 
2306063		 # 	collision with: 2 3 0  and 7 1 1 
2306088		 # 	collision with: 6 1 0  and 10 2 0 
2306090		 # 	collision with: 3 2 0  and 2 3 0 
2306105		 # 	collision with: 1 3 0  and 8 0 1 
2306107		 # 	collision with: 2 1 0  and 0 0 1 
2306157		 # 	collision with: 6 4 0  and 4 5 0 
2306159		 # 	collision with: 3 0 0  and 5 2 0 
2306164		 # 	collision with: 3 0 0  and 4 1 0 
2306166		 # 	collision with: 3 2 0  and 2 3 0 
2306185		 # 	collision with: 6 1 0  and 0 3 0 
2306187		 # 	collision with: 1 1 0  and 0 3 0 
2306196		 # 	collision with: 9 7 0  and 1 0 1 
2306198		 # 	collision with: 3 2 0  and 2 3 0 
2306228		 # 	collision with: 7 0 0  and 1 2 0 
2306230		 # 	collision with: 3 2 0  and 2 3 0 
2306249		 # 	collision with: 2 2 0  and 7 3 0 
2306251		 # 	collision with: 0 2 0  and 1 4 0 
2306260		 # 	collision with: 6 9 0  and 0 0 1 
2306262		 # 	collision with: 2 1 0  and 0 2 0 
2306264		 # 	collision with: 2 9 0  and 3 9 0 
2306268		 # 	collision with: 4 10 0  and 5 10 0 
2306270		 # 	collision with: 0 3 0  and 7 5 0 
2306272		 # 	collision with: 1 3 0  and 2 3 0 
2306274		 # 	collision with: 2 5 0  and 9 7 0 
2306276		 # 	collision with: 5 5 0  and 6 5 0 
2306278		 # 	collision with: 4 3 0  and 2 4 0 
2306280		 # 	collision with: 3 4 0  and 4 4 0 
2306282		 # 	collision with: 10 2 0  and 6 4 0 
2306284		 # 	collision with: 3 7 0  and 5 7 0 
2306286		 # 	collision with: 9 1 0  and 5 3 0 
2306288		 # 	collision with: 1 6 0  and 3 6 0 
2306290		 # 	collision with: 5 4 0  and 3 5 0 
2306292		 # 	collision with: 0 8 0  and 1 8 0 
2306294		 # 	collision with: 4 2 0  and 8 0 1 
2306296		 # 	collision with: 2 1 0  and 4 1 0 
2306298		 # 	collision with: 6 5 0  and 4 6 0 
2306300		 # 	collision with: 4 2 0  and 6 2 0 
2306302		 # 	collision with: 3 2 0  and 1 3 0 
2306317		 # 	collision with: 3 3 0  and 0 4 0 
2306336		 # 	collision with: 6 3 0  and 1 0 1 
2306338		 # 	collision with: 9 2 0  and 9 4 0 
2306368		 # 	collision with: 4 5 0  and 5 6 0 
2306381		 # 	collision with: 1 1 0  and 2 2 0 
2306383		 # 	collision with: 1 7 0  and 7 0 1 
2306400		 # 	collision with: 6 4 0  and 3 0 1 
2306402		 # 	collision with: 4 2 0  and 7 3 0 
2306409		 # 	collision with: 3 2 0  and 2 4 0 
2306411		 # 	collision with: 9 1 0  and 9 3 0 
2306463		 # 	collision with: 5 4 0  and 3 5 0 
2306478		 # 	collision with: 4 4 0  and 2 0 1 
2306505		 # 	collision with: 9 3 0  and 3 4 0 
2306507		 # 	collision with: 1 4 0  and 7 6 0 
2306508		 # 	collision with: 3 1 0  and 9 2 0 
2306510		 # 	collision with: 3 9 0  and 4 0 1 
2306540		 # 	collision with: 6 1 0  and 3 3 0 
2306542		 # 	collision with: 3 0 0  and 5 2 0 
2306545		 # 	collision with: 1 1 0  and 7 3 0 
2306547		 # 	collision with: 4 0 0  and 9 2 0 
2306572		 # 	collision with: 0 3 0  and 9 2 1 
2306574		 # 	collision with: 1 3 0  and 3 0 1 
2306589		 # 	collision with: 1 8 0  and 5 0 1 
2306591		 # 	collision with: 8 4 0  and 4 5 0 
2306641		 # 	collision with: 0 1 0  and 10 2 0 
2306643		 # 	collision with: 9 0 0  and 8 1 0 
2306648		 # 	collision with: 5 3 0  and 3 4 0 
2306650		 # 	collision with: 1 4 0  and 8 0 1 
2306669		 # 	collision with: 9 8 0  and 1 0 1 
2306671		 # 	collision with: 4 8 0  and 5 0 1 
2306680		 # 	collision with: 7 0 0  and 1 2 0 
2306682		 # 	collision with: 8 1 0  and 9 3 0 
2306712		 # 	collision with: 3 0 0  and 2 1 0 
2306714		 # 	collision with: 0 3 0  and 8 4 0 
2306733		 # 	collision with: 3 4 0  and 10 0 1 
2306735		 # 	collision with: 3 0 0  and 6 1 0 
2306744		 # 	collision with: 0 9 0  and 7 0 1 
2306746		 # 	collision with: 0 3 0  and 8 4 0 
2306748		 # 	collision with: 0 8 0  and 1 8 0 
2306750		 # 	collision with: 4 0 0  and 9 2 0 
2306752		 # 	collision with: 3 4 0  and 4 4 0 
2306754		 # 	collision with: 9 10 0  and 3 0 1 
2306756		 # 	collision with: 4 10 0  and 5 10 0 
2306758		 # 	collision with: 9 5 0  and 6 6 0 
2306760		 # 	collision with: 4 2 0  and 6 2 0 
2306762		 # 	collision with: 2 2 0  and 7 4 0 
2306764		 # 	collision with: 1 6 0  and 3 6 0 
2306766		 # 	collision with: 1 3 0  and 6 5 0 
2306768		 # 	collision with: 5 5 0  and 6 5 0 
2306770		 # 	collision with: 10 4 0  and 7 5 0 
2306772		 # 	collision with: 2 9 0  and 3 9 0 
2306776		 # 	collision with: 2 1 0  and 4 1 0 
2306778		 # 	collision with: 0 4 0  and 5 6 0 
2306780		 # 	collision with: 3 7 0  and 5 7 0 
2306782		 # 	collision with: 3 1 0  and 8 3 0 
2306784		 # 	collision with: 1 3 0  and 2 3 0 
2306786		 # 	collision with: 1 2 0  and 9 3 0 
2306801		 # 	collision with: 5 3 0  and 4 4 0 
2306803		 # 	collision with: 9 0 0  and 8 1 0 
2306820		 # 	collision with: 10 5 0  and 6 6 0 
2306822		 # 	collision with: 5 6 0  and 5 0 1 
2306852		 # 	collision with: 10 1 0  and 6 3 0 
2306854		 # 	collision with: 6 5 0  and 4 6 0 
2306865		 # 	collision with: 8 8 0  and 0 0 1 
2306867		 # 	collision with: 2 1 0  and 0 2 0 
2306884		 # 	collision with: 7 5 0  and 4 2 1 
2306893		 # 	collision with: 4 5 0  and 5 6 0 
2306895		 # 	collision with: 4 3 0  and 8 5 0 
2306945		 # 	collision with: 5 10 0  and 5 2 1 
2306947		 # 	collision with: 9 2 0  and 9 3 0 
2306960		 # 	collision with: 8 0 1  and 0 2 1 
2306962		 # 	collision with: 4 0 0  and 1 2 0 
2306989		 # 	collision with: 8 4 0  and 10 0 1 
2306992		 # 	collision with: 7 8 0  and 0 0 1 
2306994		 # 	collision with: 1 5 0  and 8 0 1 
2307026		 # 	collision with: 8 2 0  and 7 4 0 
2307031		 # 	collision with: 4 1 0  and 0 2 0 
2307056		 # 	collision with: 1 4 0  and 7 5 0 
2307058		 # 	collision with: 9 3 0  and 9 5 0 
2307073		 # 	collision with: 7 5 0  and 6 0 1 
2307075		 # 	collision with: 3 1 0  and 3 0 1 
2307125		 # 	collision with: 7 2 0  and 5 4 0 
2307127		 # 	collision with: 5 1 0  and 3 3 0 
2307132		 # 	collision with: 7 0 0  and 1 2 0 
2307134		 # 	collision with: 4 1 0  and 0 2 0 
2307153		 # 	collision with: 7 10 0  and 7 3 1 
2307164		 # 	collision with: 9 3 0  and 3 4 0 
2307166		 # 	collision with: 1 7 0  and 8 0 1 
2307196		 # 	collision with: 7 2 0  and 5 4 0 
2307198		 # 	collision with: 5 1 0  and 3 3 0 
2307217		 # 	collision with: 1 4 0  and 5 6 0 
2307219		 # 	collision with: 9 0 0  and 1 2 0 
2307228		 # 	collision with: 5 7 0  and 1 1 1 
2307230		 # 	collision with: 8 2 0  and 0 4 0 
2307232		 # 	collision with: 3 7 0  and 5 7 0 
2307234		 # 	collision with: 8 4 0  and 4 5 0 
2307236		 # 	collision with: 2 9 0  and 3 9 0 
2307240		 # 	collision with: 1 6 0  and 3 6 0 
2307242		 # 	collision with: 6 6 0  and 7 1 1 
2307244		 # 	collision with: 4 10 0  and 5 10 0 
2307246		 # 	collision with: 3 1 0  and 6 3 0 
2307248		 # 	collision with: 0 8 0  and 1 8 0 
2307250		 # 	collision with: 9 0 0  and 1 2 0 
2307252		 # 	collision with: 1 3 0  and 2 3 0 
2307254		 # 	collision with: 9 2 0  and 5 3 0 
2307256		 # 	collision with: 2 1 0  and 4 1 0 
2307258		 # 	collision with: 10 0 0  and 6 1 0 
2307260		 # 	collision with: 5 5 0  and 6 5 0 
2307262		 # 	collision with: 4 1 0  and 0 2 0 
2307264		 # 	collision with: 4 2 0  and 6 2 0 
2307266		 # 	collision with: 2 3 0  and 5 5 0 
2307268		 # 	collision with: 3 4 0  and 4 4 0 
2307270		 # 	collision with: 7 4 0  and 10 6 0 
2307285		 # 	collision with: 4 3 0  and 2 5 0 
2307287		 # 	collision with: 8 0 0  and 6 2 0 
2307304		 # 	collision with: 6 3 0  and 9 4 0 
2307306		 # 	collision with: 0 3 0  and 8 4 0 
2307336		 # 	collision with: 9 5 0  and 9 1 1 
2307338		 # 	collision with: 9 4 0  and 9 6 0 
2307349		 # 	collision with: 7 5 0  and 8 2 1 
2307351		 # 	collision with: 5 5 0  and 6 5 0 
2307368		 # 	collision with: 2 2 0  and 7 3 0 
2307370		 # 	collision with: 10 0 0  and 5 2 0 
2307377		 # 	collision with: 7 2 0  and 6 0 1 
2307379		 # 	collision with: 5 7 0  and 10 0 1 
2307429		 # 	collision with: 2 6 0  and 4 0 1 
2307431		 # 	collision with: 0 9 0  and 5 1 1 
2307444		 # 	collision with: 10 5 0  and 10 1 1 
2307473		 # 	collision with: 2 5 0  and 0 0 1 
2307475		 # 	collision with: 5 4 0  and 9 1 1 
2307476		 # 	collision with: 1 6 0  and 6 0 1 
2307478		 # 	collision with: 8 1 0  and 1 2 0 
2307508		 # 	collision with: 7 1 0  and 8 3 0 
2307510		 # 	collision with: 3 0 0  and 3 2 1 
2307513		 # 	collision with: 6 8 0  and 6 0 1 
2307515		 # 	collision with: 8 1 0  and 5 3 0 
2307540		 # 	collision with: 7 0 0  and 1 2 0 
2307542		 # 	collision with: 1 1 0  and 0 3 0 
2307557		 # 	collision with: 6 2 0  and 2 3 0 
2307618		 # 	collision with: 6 8 0  and 9 0 1 
2307637		 # 	collision with: 1 5 0  and 1 0 1 
2307639		 # 	collision with: 10 0 0  and 6 1 0 
2307648		 # 	collision with: 3 8 0  and 9 0 1 
2307650		 # 	collision with: 0 3 0  and 7 5 0 
2307680		 # 	collision with: 1 1 0  and 8 2 0 
2307682		 # 	collision with: 8 4 0  and 7 5 0 
2307701		 # 	collision with: 5 1 0  and 7 3 0 
2307703		 # 	collision with: 8 0 0  and 4 2 0 
2307712		 # 	collision with: 2 4 0  and 4 0 1 
2307714		 # 	collision with: 5 5 0  and 0 6 0 
2307716		 # 	collision with: 1 6 0  and 3 6 0 
2307718		 # 	collision with: 9 5 0  and 10 7 0 
2307720		 # 	collision with: 1 3 0  and 2 3 0 
2307722		 # 	collision with: 4 1 0  and 10 2 0 
2307724		 # 	collision with: 4 2 0  and 6 2 0 
2307726		 # 	collision with: 2 4 0  and 8 5 0 
2307728		 # 	collision with: 3 7 0  and 5 7 0 
2307730		 # 	collision with: 0 2 0  and 2 0 1 
2307732		 # 	collision with: 4 10 0  and 5 10 0 
2307734		 # 	collision with: 10 3 0  and 5 4 0 
2307736		 # 	collision with: 2 1 0  and 4 1 0 
2307738		 # 	collision with: 5 0 0  and 6 2 0 
2307740		 # 	collision with: 3 4 0  and 4 4 0 
2307742		 # 	collision with: 8 1 0  and 9 3 0 
2307744		 # 	collision with: 2 9 0  and 3 9 0 
2307748		 # 	collision with: 0 8 0  and 1 8 0 
2307750		 # 	collision with: 6 4 0  and 7 6 0 
2307752		 # 	collision with: 5 5 0  and 6 5 0 
2307754		 # 	collision with: 0 2 0  and 1 4 0 
2307769		 # 	collision with: 2 4 0  and 1 5 0 
2307771		 # 	collision with: 4 1 0  and 0 2 0 
2307788		 # 	collision with: 1 3 0  and 3 5 0 
2307790		 # 	collision with: 3 2 0  and 1 3 0 
2307820		 # 	collision with: 7 5 0  and 10 6 0 
2307822		 # 	collision with: 0 3 0  and 8 4 0 
2307833		 # 	collision with: 8 4 0  and 1 6 0 
2307835		 # 	collision with: 9 2 0  and 5 3 0 
2307852		 # 	collision with: 0 5 0  and 4 2 1 
2307854		 # 	collision with: 5 0 0  and 4 2 0 
2307861		 # 	collision with: 10 7 0  and 2 0 1 
2307863		 # 	collision with: 1 1 0  and 3 3 0 
2307913		 # 	collision with: 7 0 0  and 1 2 0 
2307915		 # 	collision with: 3 3 0  and 4 1 1 
2307928		 # 	collision with: 6 4 0  and 4 5 0 
2307930		 # 	collision with: 2 3 0  and 6 5 0 
2307957		 # 	collision with: 4 2 0  and 2 3 0 
2307959		 # 	collision with: 9 2 0  and 9 3 0 
2307960		 # 	collision with: 10 2 0  and 8 0 1 
2307992		 # 	collision with: 7 0 0  and 1 2 0 
2307994		 # 	collision with: 9 3 0  and 2 5 0 
2307997		 # 	collision with: 6 2 0  and 4 0 1 
2307999		 # 	collision with: 4 1 0  and 10 2 0 
2308024		 # 	collision with: 2 1 0  and 3 1 1 
2308026		 # 	collision with: 0 3 0  and 4 5 0 
2308041		 # 	collision with: 2 3 0  and 8 5 0 
2308043		 # 	collision with: 2 3 0  and 6 5 0 
2308093		 # 	collision with: 3 0 0  and 2 1 0 
2308095		 # 	collision with: 0 2 0  and 1 4 0 
2308100		 # 	collision with: 6 10 0  and 1 2 1 
2308102		 # 	collision with: 9 0 0  and 9 1 0 
2308121		 # 	collision with: 7 0 0  and 3 1 0 
2308123		 # 	collision with: 0 3 0  and 8 4 0 
2308132		 # 	collision with: 3 3 0  and 7 4 0 
2308134		 # 	collision with: 10 3 0  and 3 5 0 
2308166		 # 	collision with: 6 1 0  and 5 2 0 
2308187		 # 	collision with: 5 3 0  and 1 0 1 
2308196		 # 	collision with: 2 0 1  and 0 2 1 
2308198		 # 	collision with: 6 5 0  and 0 6 0 
2308200		 # 	collision with: 5 5 0  and 6 5 0 
2308202		 # 	collision with: 0 1 0  and 5 2 0 
2308204		 # 	collision with: 0 8 0  and 1 8 0 
2308206		 # 	collision with: 4 0 0  and 9 1 0 
2308208		 # 	collision with: 2 9 0  and 3 9 0 
2308212		 # 	collision with: 3 4 0  and 4 4 0 
2308214		 # 	collision with: 10 4 0  and 4 5 0 
2308216		 # 	collision with: 2 1 0  and 4 1 0 
2308218		 # 	collision with: 3 3 0  and 8 4 0 
2308220		 # 	collision with: 4 10 0  and 5 10 0 
2308222		 # 	collision with: 0 4 0  and 10 6 0 
2308224		 # 	collision with: 3 7 0  and 5 7 0 
2308226		 # 	collision with: 8 2 0  and 7 4 0 
2308228		 # 	collision with: 4 2 0  and 6 2 0 
2308230		 # 	collision with: 4 3 0  and 3 5 0 
2308232		 # 	collision with: 1 3 0  and 2 3 0 
2308234		 # 	collision with: 5 0 0  and 4 2 0 
2308236		 # 	collision with: 1 6 0  and 3 6 0 
2308238		 # 	collision with: 1 1 0  and 0 3 0 
2308255		 # 	collision with: 5 1 0  and 3 3 0 
2308274		 # 	collision with: 4 6 0  and 2 2 1 
2308304		 # 	collision with: 1 9 0  and 9 0 1 
2308306		 # 	collision with: 4 7 0  and 2 1 1 
2308317		 # 	collision with: 10 0 0  and 2 1 0 
2308319		 # 	collision with: 2 6 0  and 2 0 1 
2308336		 # 	collision with: 7 1 0  and 7 0 1 
2308338		 # 	collision with: 9 1 0  and 9 2 0 
2308345		 # 	collision with: 10 2 0  and 3 3 0 
2308347		 # 	collision with: 0 1 0  and 5 2 0 
2308397		 # 	collision with: 10 2 0  and 3 3 0 
2308399		 # 	collision with: 0 8 0  and 1 8 0 
2308412		 # 	collision with: 10 0 0  and 4 1 0 
2308414		 # 	collision with: 8 5 0  and 10 0 1 
2308441		 # 	collision with: 10 2 0  and 3 3 0 
2308443		 # 	collision with: 5 0 0  and 4 2 0 
2308444		 # 	collision with: 7 0 0  and 1 2 0 
2308446		 # 	collision with: 0 2 0  and 1 4 0 
2308476		 # 	collision with: 1 1 0  and 7 3 0 
2308481		 # 	collision with: 3 1 0  and 9 2 0 
2308483		 # 	collision with: 6 5 0  and 2 0 1 
2308508		 # 	collision with: 5 4 0  and 1 5 0 
2308510		 # 	collision with: 10 0 0  and 6 1 0 
2308525		 # 	collision with: 10 2 0  and 3 3 0 
2308527		 # 	collision with: 2 2 0  and 4 0 1 
2308577		 # 	collision with: 0 0 0  and 6 1 0 
2308579		 # 	collision with: 8 0 0  and 6 2 0 
2308584		 # 	collision with: 6 2 0  and 1 3 0 
2308586		 # 	collision with: 10 5 0  and 10 0 1 
2308605		 # 	collision with: 10 2 0  and 3 3 0 
2308607		 # 	collision with: 1 2 0  and 5 3 0 
2308616		 # 	collision with: 0 2 0  and 7 4 0 
2308618		 # 	collision with: 7 4 0  and 8 0 1 
2308648		 # 	collision with: 1 4 0  and 10 6 0 
2308650		 # 	collision with: 8 0 0  and 4 2 0 
2308669		 # 	collision with: 10 2 0  and 3 3 0 
2308671		 # 	collision with: 1 6 0  and 7 0 1 
2308680		 # 	collision with: 8 10 0  and 5 0 1 
2308682		 # 	collision with: 1 2 0  and 9 4 0 
2308684		 # 	collision with: 3 4 0  and 4 4 0 
2308686		 # 	collision with: 5 3 0  and 2 5 0 
2308688		 # 	collision with: 4 2 0  and 6 2 0 
2308690		 # 	collision with: 1 2 0  and 5 3 0 
2308692		 # 	collision with: 5 5 0  and 6 5 0 
2308694		 # 	collision with: 9 4 0  and 2 5 0 
2308696		 # 	collision with: 2 1 0  and 4 1 0 
2308698		 # 	collision with: 5 3 0  and 9 4 0 
2308700		 # 	collision with: 1 3 0  and 2 3 0 
2308702		 # 	collision with: 4 0 0  and 1 2 0 
2308704		 # 	collision with: 0 8 0  and 1 8 0 
2308706		 # 	collision with: 2 5 0  and 6 6 0 
2308708		 # 	collision with: 4 10 0  and 5 10 0 
2308710		 # 	collision with: 8 1 0  and 5 3 0 
2308712		 # 	collision with: 1 6 0  and 3 6 0 
2308714		 # 	collision with: 4 0 0  and 8 1 0 
2308716		 # 	collision with: 2 9 0  and 3 9 0 
2308720		 # 	collision with: 3 7 0  and 5 7 0 
2308722		 # 	collision with: 0 0 1  and 7 1 1 
2308737		 # 	collision with: 10 5 0  and 9 6 0 
2308739		 # 	collision with: 3 2 0  and 2 3 0 
2308756		 # 	collision with: 7 2 0  and 3 2 1 
2308758		 # 	collision with: 0 6 0  and 3 2 1 
2308788		 # 	collision with: 10 1 1  and 1 3 1 
2308790		 # 	collision with: 6 10 0  and 5 0 1 
2308801		 # 	collision with: 7 5 0  and 1 1 1 
2308803		 # 	collision with: 3 2 0  and 2 3 0 
2308822		 # 	collision with: 9 1 0  and 1 2 0 
2308881		 # 	collision with: 8 4 0  and 3 6 0 
2308896		 # 	collision with: 7 0 0  and 1 2 0 
2308898		 # 	collision with: 3 1 0  and 6 3 0 
2308925		 # 	collision with: 0 3 0  and 7 4 0 
2308927		 # 	collision with: 3 2 0  and 2 3 0 
2308928		 # 	collision with: 7 0 0  and 3 1 0 
2308930		 # 	collision with: 10 4 0  and 4 5 0 
2308960		 # 	collision with: 0 6 0  and 4 0 1 
2308962		 # 	collision with: 9 5 0  and 10 7 0 
2308965		 # 	collision with: 3 2 0  and 5 4 0 
2308967		 # 	collision with: 3 2 0  and 2 3 0 
2308992		 # 	collision with: 3 1 0  and 1 2 0 
2309009		 # 	collision with: 4 0 0  and 5 2 0 
2309011		 # 	collision with: 3 2 0  and 2 3 0 
2309061		 # 	collision with: 5 3 0  and 4 4 0 
2309063		 # 	collision with: 3 2 0  and 2 3 0 
2309068		 # 	collision with: 2 3 0  and 8 5 0 
2309070		 # 	collision with: 9 1 0  and 10 0 1 
2309089		 # 	collision with: 3 0 0  and 4 1 0 
2309091		 # 	collision with: 3 2 0  and 2 3 0 
2309100		 # 	collision with: 5 6 0  and 5 0 1 
2309102		 # 	collision with: 9 2 0  and 9 3 0 
2309132		 # 	collision with: 10 1 0  and 8 3 0 
2309134		 # 	collision with: 8 0 0  and 6 2 0 
2309153		 # 	collision with: 5 6 0  and 5 0 1 
2309155		 # 	collision with: 1 1 0  and 0 3 0 
2309164		 # 	collision with: 3 9 0  and 4 1 1 
2309166		 # 	collision with: 10 3 0  and 2 4 0 
2309168		 # 	collision with: 1 3 0  and 2 3 0 
2309170		 # 	collision with: 10 3 0  and 2 4 0 
2309172		 # 	collision with: 3 7 0  and 5 7 0 
2309174		 # 	collision with: 10 3 0  and 2 4 0 
2309176		 # 	collision with: 2 1 0  and 4 1 0 
2309178		 # 	collision with: 10 3 0  and 2 4 0 
2309180		 # 	collision with: 2 9 0  and 3 9 0 
2309184		 # 	collision with: 5 5 0  and 6 5 0 
2309186		 # 	collision with: 10 3 0  and 2 4 0 
2309188		 # 	collision with: 1 6 0  and 3 6 0 
2309190		 # 	collision with: 10 3 0  and 2 4 0 
2309192		 # 	collision with: 4 2 0  and 6 2 0 
2309194		 # 	collision with: 10 3 0  and 2 4 0 
2309196		 # 	collision with: 4 10 0  and 5 10 0 
2309198		 # 	collision with: 10 3 0  and 2 4 0 
2309200		 # 	collision with: 3 4 0  and 4 4 0 
2309202		 # 	collision with: 10 3 0  and 2 4 0 
2309204		 # 	collision with: 0 8 0  and 1 8 0 
2309206		 # 	collision with: 10 3 0  and 2 4 0 
2309221		 # 	collision with: 3 0 0  and 2 1 0 
2309223		 # 	collision with: 5 0 0  and 6 2 0 
2309240		 # 	collision with: 10 9 0  and 2 0 1 
2309242		 # 	collision with: 10 3 0  and 2 4 0 
2309272		 # 	collision with: 4 10 0  and 9 0 1 
2309274		 # 	collision with: 10 3 0  and 2 4 0 
2309285		 # 	collision with: 7 1 1  and 7 2 1 
2309304		 # 	collision with: 7 0 0  and 1 2 0 
2309306		 # 	collision with: 10 3 0  and 2 4 0 
2309313		 # 	collision with: 4 9 0  and 2 0 1 
2309315		 # 	collision with: 9 2 0  and 5 3 0 
2309365		 # 	collision with: 6 2 0  and 2 3 0 
2309367		 # 	collision with: 10 0 0  and 5 2 0 
2309380		 # 	collision with: 7 4 0  and 4 6 0 
2309382		 # 	collision with: 10 3 0  and 2 4 0 
2309411		 # 	collision with: 9 0 0  and 1 2 0 
2309414		 # 	collision with: 4 2 0  and 6 2 0 
2309444		 # 	collision with: 7 5 0  and 5 6 0 
2309446		 # 	collision with: 10 3 0  and 2 4 0 
2309449		 # 	collision with: 2 3 0  and 3 0 1 
2309476		 # 	collision with: 10 0 0  and 2 1 0 
2309478		 # 	collision with: 1 3 0  and 2 3 0 
2309493		 # 	collision with: 5 2 0  and 1 0 1 
2309495		 # 	collision with: 8 9 0  and 2 1 1 
2309545		 # 	collision with: 7 0 0  and 3 1 0 
2309547		 # 	collision with: 4 0 0  and 8 1 0 
2309552		 # 	collision with: 0 1 0  and 3 3 0 
2309573		 # 	collision with: 3 1 0  and 3 0 1 
2309575		 # 	collision with: 3 8 0  and 4 1 1 
2309584		 # 	collision with: 7 1 0  and 7 2 1 
2309586		 # 	collision with: 10 3 0  and 2 4 0 
2309616		 # 	collision with: 2 4 0  and 1 5 0 
2309618		 # 	collision with: 2 1 0  and 4 1 0 
2309637		 # 	collision with: 10 5 0  and 7 1 1 
2309639		 # 	collision with: 2 1 0  and 4 1 0 
2309648		 # 	collision with: 8 4 0  and 3 0 1 
2309650		 # 	collision with: 5 2 0  and 1 1 1 
2309652		 # 	collision with: 4 2 0  and 6 2 0 
2309654		 # 	collision with: 3 3 0  and 7 5 0 
2309656		 # 	collision with: 2 1 0  and 4 1 0 
2309658		 # 	collision with: 2 3 0  and 6 5 0 
2309660		 # 	collision with: 0 8 0  and 1 8 0 
2309662		 # 	collision with: 9 3 0  and 2 5 0 
2309664		 # 	collision with: 1 6 0  and 3 6 0 
2309666		 # 	collision with: 7 3 0  and 0 5 0 
2309668		 # 	collision with: 3 7 0  and 5 7 0 
2309670		 # 	collision with: 8 3 0  and 1 5 0 
2309672		 # 	collision with: 3 4 0  and 4 4 0 
2309674		 # 	collision with: 5 3 0  and 9 5 0 
2309676		 # 	collision with: 5 5 0  and 6 5 0 
2309678		 # 	collision with: 6 3 0  and 10 5 0 
2309680		 # 	collision with: 1 3 0  and 2 3 0 
2309682		 # 	collision with: 4 3 0  and 8 5 0 
2309684		 # 	collision with: 4 10 0  and 5 10 0 
2309686		 # 	collision with: 0 3 0  and 4 5 0 
2309688		 # 	collision with: 2 9 0  and 3 9 0 
2309705		 # 	collision with: 0 0 0  and 2 0 0 
2309707		 # 	collision with: 0 3 0  and 10 4 0 
2309724		 # 	collision with: 1 3 0  and 8 5 0 
2309726		 # 	collision with: 6 3 0  and 0 0 1 
2309756		 # 	collision with: 7 0 0  and 1 2 0 
2309758		 # 	collision with: 9 1 0  and 1 0 1 
2309769		 # 	collision with: 0 0 0  and 2 0 0 
2309771		 # 	collision with: 8 1 0  and 9 2 0 
2309788		 # 	collision with: 5 1 0  and 7 3 0 
2309790		 # 	collision with: 5 0 0  and 6 2 0 
2309797		 # 	collision with: 0 0 0  and 2 0 0 
2309799		 # 	collision with: 8 1 0  and 5 3 0 
2309849		 # 	collision with: 0 0 0  and 2 0 0 
2309851		 # 	collision with: 7 1 0  and 4 1 1 
2309864		 # 	collision with: 0 0 0  and 6 1 0 
2309866		 # 	collision with: 10 2 0  and 1 4 0 
2309893		 # 	collision with: 0 0 0  and 2 0 0 
2309895		 # 	collision with: 1 6 0  and 10 0 1 
2309896		 # 	collision with: 6 4 0  and 10 6 0 
2309898		 # 	collision with: 9 1 0  and 5 3 0 
2309928		 # 	collision with: 3 4 0  and 7 6 0 
2309930		 # 	collision with: 0 3 0  and 8 4 0 
2309933		 # 	collision with: 0 0 0  and 2 0 0 
2309935		 # 	collision with: 8 0 0  and 4 2 0 
2309962		 # 	collision with: 6 9 0  and 10 1 1 
2309979		 # 	collision with: 5 0 0  and 4 2 0 
7.69573secs	4907
