# prime 11
# degree 2
# input variables 3
# output variables 3
# reload computed balance functions from file balance-1551of3248-p11d2m3-debug.log
# p = 11
# n = 3
# smalldomain p^m 1331
# domain p^n 1331
#	 p^2 = 121
#	 p^3 = 1331
#	 p^4 = 14641
#	 p^5 = 161051
#	 p^6 = 1771561
#	 p^7 = 19487171
#	 p^8 = 214358881
#	 p^9 = 2357947691
opening file : balance-1551of3248-p11d2m3-debug.log
reloading for step2...
9306103		 # 	collision with: 7 4 0  and 6 6 0 
9306113		 # 	collision with: 10 5 0  and 5 6 0 
9306115		 # 	collision with: 2 0 0  and 2 2 0 
9306165		 # 	collision with: 6 4 0  and 6 5 0 
9306167		 # 	collision with: 8 1 0  and 4 3 0 
9306293		 # 	collision with: 1 3 0  and 0 0 1 
9306309		 # 	collision with: 10 0 0  and 8 1 0 
9306311		 # 	collision with: 2 7 0  and 0 0 1 
9306337		 # 	collision with: 2 1 0  and 2 2 0 
9306339		 # 	collision with: 0 0 0  and 5 2 0 
9306420		 # 	collision with: 0 0 0  and 9 2 0 
9306422		 # 	collision with: 6 4 0  and 5 5 0 
9306432		 # 	collision with: 9 0 0  and 6 2 0 
9306434		 # 	collision with: 0 1 0  and 7 3 0 
9306444		 # 	collision with: 4 2 0  and 1 1 1 
9306446		 # 	collision with: 5 1 0  and 8 0 1 
9306459		 # 	collision with: 5 0 0  and 5 1 0 
9306468		 # 	collision with: 9 9 0  and 3 0 1 
9306470		 # 	collision with: 10 0 1  and 4 1 1 
9306485		 # 	collision with: 4 3 0  and 3 4 0 
9306487		 # 	collision with: 10 1 0  and 10 2 0 
9306489		 # 	collision with: 9 0 0  and 5 2 0 
9306491		 # 	collision with: 7 0 0  and 1 2 0 
9306504		 # 	collision with: 9 4 0  and 7 0 1 
9306506		 # 	collision with: 5 1 0  and 4 3 0 
9306512		 # 	collision with: 7 4 0  and 2 5 0 
9306514		 # 	collision with: 1 2 0  and 7 4 0 
9306533		 # 	collision with: 5 1 0  and 2 2 0 
9306535		 # 	collision with: 0 1 0  and 9 2 0 
9306536		 # 	collision with: 5 5 0  and 0 1 1 
9306538		 # 	collision with: 2 8 0  and 3 0 1 
9306540		 # 	collision with: 0 2 0  and 10 3 0 
9306542		 # 	collision with: 9 0 0  and 7 2 0 
9306545		 # 	collision with: 3 1 0  and 4 1 0 
9306547		 # 	collision with: 10 4 0  and 6 5 0 
9306576		 # 	collision with: 7 0 0  and 9 1 0 
9306578		 # 	collision with: 7 0 0  and 10 2 0 
9306604		 # 	collision with: 3 3 0  and 1 4 0 
9306606		 # 	collision with: 9 5 0  and 8 0 1 
9306628		 # 	collision with: 9 2 0  and 0 0 1 
9306630		 # 	collision with: 5 0 0  and 7 2 0 
9306656		 # 	collision with: 2 3 0  and 8 5 0 
9306658		 # 	collision with: 8 3 0  and 5 4 0 
9306689		 # 	collision with: 4 3 0  and 3 4 0 
9306691		 # 	collision with: 7 1 0  and 8 3 0 
9306692		 # 	collision with: 0 1 0  and 1 3 0 
9306694		 # 	collision with: 9 2 0  and 8 0 1 
9306696		 # 	collision with: 0 3 0  and 5 4 0 
9306698		 # 	collision with: 8 3 0  and 7 0 1 
9306701		 # 	collision with: 4 3 0  and 3 4 0 
9306703		 # 	collision with: 7 0 0  and 10 2 0 
9306705		 # 	collision with: 4 3 0  and 3 4 0 
9306707		 # 	collision with: 7 3 0  and 9 5 0 
9306720		 # 	collision with: 9 9 0  and 2 0 1 
9306722		 # 	collision with: 4 4 0  and 3 2 1 
9306728		 # 	collision with: 6 1 0  and 6 0 1 
9306730		 # 	collision with: 9 5 0  and 10 7 0 
9306745		 # 	collision with: 0 0 0  and 5 1 0 
9306747		 # 	collision with: 5 1 0  and 2 0 1 
9306764		 # 	collision with: 6 2 0  and 3 0 1 
9306766		 # 	collision with: 4 10 0  and 8 1 1 
9306779		 # 	collision with: 4 6 0  and 10 7 0 
9306788		 # 	collision with: 0 0 0  and 2 1 0 
9306790		 # 	collision with: 9 0 0  and 2 1 0 
9306800		 # 	collision with: 9 0 0  and 5 2 0 
9306802		 # 	collision with: 7 0 0  and 10 1 0 
9306812		 # 	collision with: 0 0 0  and 2 2 0 
9306814		 # 	collision with: 4 6 0  and 10 7 0 
9306836		 # 	collision with: 6 2 0  and 1 4 0 
9306838		 # 	collision with: 10 8 0  and 1 0 1 
9306906		 # 	collision with: 9 2 0  and 8 3 0 
9306916		 # 	collision with: 9 0 0  and 5 2 0 
9306918		 # 	collision with: 4 3 0  and 0 0 1 
9306928		 # 	collision with: 1 4 0  and 0 0 1 
9306930		 # 	collision with: 7 0 0  and 8 1 0 
9306941		 # 	collision with: 0 5 0  and 1 5 0 
9306952		 # 	collision with: 3 10 0  and 7 0 1 
9306954		 # 	collision with: 1 3 0  and 3 3 0 
9306969		 # 	collision with: 10 0 0  and 6 1 0 
9306973		 # 	collision with: 8 7 0  and 0 0 1 
9306975		 # 	collision with: 9 5 0  and 4 6 0 
9306988		 # 	collision with: 7 2 0  and 7 3 0 
9306990		 # 	collision with: 0 1 0  and 7 3 0 
9306996		 # 	collision with: 5 2 0  and 1 3 0 
9306998		 # 	collision with: 9 0 0  and 5 1 0 
9307019		 # 	collision with: 10 1 0  and 2 3 0 
9307020		 # 	collision with: 9 4 0  and 10 1 1 
9307022		 # 	collision with: 7 0 0  and 1 2 0 
9307024		 # 	collision with: 5 4 0  and 3 6 0 
9307026		 # 	collision with: 2 3 0  and 1 4 0 
9307029		 # 	collision with: 6 2 0  and 3 3 0 
9307031		 # 	collision with: 5 0 0  and 5 1 0 
9307060		 # 	collision with: 3 3 0  and 0 0 1 
9307062		 # 	collision with: 10 2 0  and 8 2 1 
9307088		 # 	collision with: 2 7 0  and 8 1 1 
9307090		 # 	collision with: 8 1 0  and 1 2 0 
9307112		 # 	collision with: 9 3 0  and 9 5 0 
9307114		 # 	collision with: 3 10 0  and 3 0 1 
9307140		 # 	collision with: 9 5 0  and 10 6 0 
9307175		 # 	collision with: 7 5 0  and 5 7 0 
9307176		 # 	collision with: 3 7 0  and 3 1 1 
9307178		 # 	collision with: 0 1 0  and 8 3 0 
9307180		 # 	collision with: 3 2 0  and 2 4 0 
9307182		 # 	collision with: 7 6 0  and 3 0 1 
9307185		 # 	collision with: 0 7 0  and 4 0 1 
9307187		 # 	collision with: 7 3 0  and 9 5 0 
9307189		 # 	collision with: 10 1 0  and 0 2 0 
9307191		 # 	collision with: 7 5 0  and 5 7 0 
9307204		 # 	collision with: 0 8 0  and 2 8 0 
9307206		 # 	collision with: 2 1 0  and 0 2 1 
9307212		 # 	collision with: 0 5 0  and 4 7 0 
9307214		 # 	collision with: 4 2 0  and 4 3 0 
9307229		 # 	collision with: 3 4 0  and 3 1 1 
9307231		 # 	collision with: 7 5 0  and 5 7 0 
9307248		 # 	collision with: 9 1 0  and 9 0 1 
9307250		 # 	collision with: 0 0 0  and 1 1 1 
9307261		 # 	collision with: 10 0 0  and 1 1 0 
9307263		 # 	collision with: 7 5 0  and 5 7 0 
9307272		 # 	collision with: 2 0 0  and 3 1 0 
9307274		 # 	collision with: 6 3 0  and 6 5 0 
9307286		 # 	collision with: 4 2 0  and 0 3 0 
9307296		 # 	collision with: 1 5 0  and 5 6 0 
9307320		 # 	collision with: 3 6 0  and 10 0 1 
9307322		 # 	collision with: 7 5 0  and 5 7 0 
9307388		 # 	collision with: 0 2 0  and 10 3 0 
9307390		 # 	collision with: 7 5 0  and 5 7 0 
9307400		 # 	collision with: 10 1 0  and 5 3 0 
9307414		 # 	collision with: 7 5 0  and 5 7 0 
9307425		 # 	collision with: 5 0 0  and 0 1 0 
9307427		 # 	collision with: 7 0 0  and 10 1 0 
9307436		 # 	collision with: 0 4 0  and 7 5 0 
9307438		 # 	collision with: 9 5 0  and 4 6 0 
9307453		 # 	collision with: 5 0 0  and 0 1 0 
9307455		 # 	collision with: 4 1 0  and 5 2 0 
9307457		 # 	collision with: 5 0 0  and 0 1 0 
9307472		 # 	collision with: 5 1 0  and 2 2 0 
9307474		 # 	collision with: 7 0 0  and 1 2 0 
9307480		 # 	collision with: 9 5 0  and 10 6 0 
9307482		 # 	collision with: 7 5 0  and 5 7 0 
9307501		 # 	collision with: 5 0 0  and 0 1 0 
9307503		 # 	collision with: 9 5 0  and 1 6 0 
9307504		 # 	collision with: 5 0 0  and 5 2 0 
9307506		 # 	collision with: 1 1 0  and 8 2 0 
9307508		 # 	collision with: 4 1 0  and 2 3 0 
9307510		 # 	collision with: 7 5 0  and 5 7 0 
9307513		 # 	collision with: 5 0 0  and 0 1 0 
9307515		 # 	collision with: 10 1 0  and 4 4 1 
9307544		 # 	collision with: 8 4 0  and 3 0 1 
9307546		 # 	collision with: 3 1 0  and 5 2 0 
9307572		 # 	collision with: 1 4 0  and 1 0 1 
9307574		 # 	collision with: 2 4 0  and 7 5 0 
9307596		 # 	collision with: 7 0 0  and 9 1 0 
9307598		 # 	collision with: 7 5 0  and 5 7 0 
9307624		 # 	collision with: 0 1 0  and 6 2 0 
9307626		 # 	collision with: 8 3 0  and 3 5 0 
9307657		 # 	collision with: 5 0 0  and 0 1 0 
9307660		 # 	collision with: 0 1 1  and 6 2 1 
9307662		 # 	collision with: 7 5 0  and 5 7 0 
9307664		 # 	collision with: 0 2 0  and 5 3 0 
9307666		 # 	collision with: 9 4 0  and 6 5 0 
9307669		 # 	collision with: 5 0 0  and 0 1 0 
9307671		 # 	collision with: 6 0 1  and 6 1 1 
9307673		 # 	collision with: 5 0 0  and 0 1 0 
9307675		 # 	collision with: 4 7 0  and 5 7 0 
9307688		 # 	collision with: 9 0 0  and 6 2 0 
9307690		 # 	collision with: 7 5 0  and 5 7 0 
9307696		 # 	collision with: 5 9 0  and 6 0 1 
9307698		 # 	collision with: 9 0 0  and 2 1 0 
9307713		 # 	collision with: 5 0 0  and 0 1 0 
9307715		 # 	collision with: 3 9 0  and 3 1 1 
9307734		 # 	collision with: 7 5 0  and 5 7 0 
9307745		 # 	collision with: 5 0 0  and 0 1 0 
9307747		 # 	collision with: 1 5 0  and 2 0 1 
9307756		 # 	collision with: 9 6 0  and 6 0 1 
9307768		 # 	collision with: 0 0 0  and 5 1 0 
9307770		 # 	collision with: 7 5 0  and 5 7 0 
9307780		 # 	collision with: 1 4 0  and 10 5 0 
9307782		 # 	collision with: 2 0 0  and 2 2 0 
9307804		 # 	collision with: 8 1 0  and 5 3 0 
9307806		 # 	collision with: 7 2 0  and 4 3 0 
9307872		 # 	collision with: 3 0 0  and 2 1 0 
9307874		 # 	collision with: 10 3 0  and 8 5 0 
9307884		 # 	collision with: 10 0 0  and 6 1 0 
9307886		 # 	collision with: 5 4 0  and 9 5 0 
9307896		 # 	collision with: 6 5 0  and 3 0 1 
9307898		 # 	collision with: 4 2 0  and 0 3 0 
9307909		 # 	collision with: 8 1 0  and 5 3 0 
9307911		 # 	collision with: 5 2 0  and 2 0 1 
9307920		 # 	collision with: 0 0 0  and 2 1 0 
9307922		 # 	collision with: 2 1 0  and 7 2 0 
9307937		 # 	collision with: 1 4 0  and 2 5 0 
9307939		 # 	collision with: 6 7 0  and 8 0 1 
9307941		 # 	collision with: 2 8 0  and 6 1 1 
9307943		 # 	collision with: 3 1 0  and 4 1 0 
9307956		 # 	collision with: 3 0 0  and 9 2 0 
9307958		 # 	collision with: 8 1 0  and 10 2 0 
9307966		 # 	collision with: 5 3 0  and 4 5 0 
9307985		 # 	collision with: 3 1 0  and 4 1 0 
9307987		 # 	collision with: 1 4 0  and 10 2 1 
9307988		 # 	collision with: 5 0 0  and 7 1 0 
9307990		 # 	collision with: 5 1 0  and 7 1 1 
9307992		 # 	collision with: 8 4 0  and 7 5 0 
9307994		 # 	collision with: 6 2 0  and 4 4 0 
9307997		 # 	collision with: 5 2 0  and 1 3 0 
9307999		 # 	collision with: 1 5 0  and 9 0 1 
9308028		 # 	collision with: 9 0 0  and 5 2 0 
9308030		 # 	collision with: 4 4 0  and 0 0 1 
9308056		 # 	collision with: 7 4 0  and 2 5 0 
9308058		 # 	collision with: 9 1 0  and 0 2 0 
9308080		 # 	collision with: 10 4 0  and 1 6 0 
9308082		 # 	collision with: 2 0 0  and 9 2 0 
9308108		 # 	collision with: 1 3 0  and 3 3 0 
9308110		 # 	collision with: 2 8 0  and 4 0 1 
9308141		 # 	collision with: 3 0 0  and 2 2 0 
9308143		 # 	collision with: 3 1 0  and 6 2 0 
9308144		 # 	collision with: 8 2 0  and 2 4 0 
9308148		 # 	collision with: 3 1 0  and 2 3 0 
9308150		 # 	collision with: 9 3 0  and 9 4 0 
9308153		 # 	collision with: 4 0 0  and 6 1 0 
9308155		 # 	collision with: 8 3 0  and 9 5 0 
9308157		 # 	collision with: 2 1 0  and 2 2 0 
9308159		 # 	collision with: 7 2 0  and 4 3 0 
9308172		 # 	collision with: 1 3 0  and 1 4 0 
9308182		 # 	collision with: 9 3 0  and 8 0 1 
9308197		 # 	collision with: 5 1 0  and 5 0 1 
9308199		 # 	collision with: 2 0 0  and 7 1 0 
9308216		 # 	collision with: 4 10 0  and 4 2 1 
9308218		 # 	collision with: 2 1 0  and 4 3 0 
9308229		 # 	collision with: 0 1 0  and 5 2 0 
9308231		 # 	collision with: 6 3 0  and 9 4 0 
9308240		 # 	collision with: 1 2 0  and 2 0 1 
9308242		 # 	collision with: 5 7 0  and 9 3 1 
9308252		 # 	collision with: 3 3 0  and 2 5 0 
9308254		 # 	collision with: 3 4 0  and 3 5 0 
9308264		 # 	collision with: 9 1 0  and 9 0 1 
9308266		 # 	collision with: 2 6 0  and 3 6 0 
9308288		 # 	collision with: 8 1 0  and 0 0 1 
9308290		 # 	collision with: 5 1 0  and 0 3 0 
9308356		 # 	collision with: 1 3 0  and 10 5 0 
9308358		 # 	collision with: 2 1 0  and 0 3 0 
9308368		 # 	collision with: 0 5 0  and 9 1 1 
9308370		 # 	collision with: 1 7 0  and 3 0 1 
9308380		 # 	collision with: 7 4 0  and 2 5 0 
9308382		 # 	collision with: 4 3 0  and 2 2 1 
9308393		 # 	collision with: 9 6 0  and 6 0 1 
9308395		 # 	collision with: 2 1 0  and 4 2 0 
9308404		 # 	collision with: 6 0 0  and 10 1 0 
9308423		 # 	collision with: 3 1 0  and 4 1 0 
9308425		 # 	collision with: 2 1 0  and 9 2 0 
9308427		 # 	collision with: 2 4 0  and 5 5 0 
9308440		 # 	collision with: 5 0 0  and 6 2 0 
9308442		 # 	collision with: 10 2 0  and 7 4 0 
9308448		 # 	collision with: 2 3 0  and 7 1 1 
9308450		 # 	collision with: 3 1 0  and 4 1 0 
9308469		 # 	collision with: 9 3 0  and 3 0 1 
9308471		 # 	collision with: 7 4 0  and 0 0 1 
9308474		 # 	collision with: 9 6 0  and 3 1 1 
9308476		 # 	collision with: 7 1 0  and 6 2 0 
9308478		 # 	collision with: 10 5 0  and 9 6 0 
9308481		 # 	collision with: 7 3 0  and 0 1 1 
9308483		 # 	collision with: 7 1 0  and 2 2 0 
9308512		 # 	collision with: 4 7 0  and 5 7 0 
9308514		 # 	collision with: 10 3 0  and 4 5 0 
9308540		 # 	collision with: 8 0 0  and 8 1 0 
9308542		 # 	collision with: 10 0 1  and 3 1 1 
9308564		 # 	collision with: 10 5 0  and 8 6 0 
9308566		 # 	collision with: 10 0 0  and 10 2 1 
9308592		 # 	collision with: 8 4 0  and 5 5 0 
9308594		 # 	collision with: 3 4 0  and 5 4 0 
9308625		 # 	collision with: 9 0 0  and 7 1 0 
9308627		 # 	collision with: 7 0 0  and 8 1 0 
9308630		 # 	collision with: 10 8 0  and 10 0 1 
9308632		 # 	collision with: 3 0 0  and 5 1 0 
9308637		 # 	collision with: 10 7 0  and 10 1 1 
9308639		 # 	collision with: 5 1 0  and 4 3 0 
9308641		 # 	collision with: 5 1 0  and 2 2 0 
9308643		 # 	collision with: 5 0 0  and 4 2 0 
9308656		 # 	collision with: 1 4 0  and 2 5 0 
9308658		 # 	collision with: 5 0 0  and 5 1 0 
9308664		 # 	collision with: 5 2 0  and 7 4 0 
9308666		 # 	collision with: 2 1 0  and 4 2 0 
9308683		 # 	collision with: 0 8 0  and 1 0 1 
9308700		 # 	collision with: 3 5 0  and 6 6 0 
9308702		 # 	collision with: 1 1 0  and 8 2 0 
9308713		 # 	collision with: 3 3 0  and 10 5 0 
9308715		 # 	collision with: 7 6 0  and 5 1 1 
9308724		 # 	collision with: 3 4 0  and 5 4 0 
9308726		 # 	collision with: 7 3 0  and 3 4 0 
9308736		 # 	collision with: 3 1 0  and 2 3 0 
9308738		 # 	collision with: 4 2 0  and 7 0 1 
9308748		 # 	collision with: 5 3 0  and 0 1 1 
9308750		 # 	collision with: 5 0 0  and 2 1 0 
9308772		 # 	collision with: 2 3 0  and 4 5 0 
9308774		 # 	collision with: 0 1 0  and 7 3 0 
9308840		 # 	collision with: 4 1 0  and 2 3 0 
9308842		 # 	collision with: 10 5 0  and 9 6 0 
9308852		 # 	collision with: 9 1 0  and 1 0 1 
9308854		 # 	collision with: 0 8 0  and 2 8 0 
9308864		 # 	collision with: 10 1 0  and 5 3 0 
9308866		 # 	collision with: 4 6 0  and 10 7 0 
9308877		 # 	collision with: 5 9 0  and 8 0 1 
9308879		 # 	collision with: 1 2 0  and 2 3 0 
9308888		 # 	collision with: 5 8 0  and 0 0 1 
9308890		 # 	collision with: 8 1 0  and 1 2 0 
9308905		 # 	collision with: 3 3 0  and 1 4 0 
9308907		 # 	collision with: 5 3 0  and 8 5 0 
9308909		 # 	collision with: 8 4 0  and 9 0 1 
9308911		 # 	collision with: 6 0 0  and 3 1 1 
9308924		 # 	collision with: 8 6 0  and 1 0 1 
9308926		 # 	collision with: 2 0 0  and 2 2 0 
9308932		 # 	collision with: 0 5 0  and 4 7 0 
9308934		 # 	collision with: 10 3 0  and 4 5 0 
9308953		 # 	collision with: 3 7 0  and 3 4 1 
9308955		 # 	collision with: 0 5 0  and 1 5 0 
9308956		 # 	collision with: 6 9 0  and 10 4 1 
9308958		 # 	collision with: 9 2 0  and 9 0 1 
9308960		 # 	collision with: 1 3 0  and 10 5 0 
9308962		 # 	collision with: 9 2 0  and 8 3 0 
9308965		 # 	collision with: 5 8 0  and 5 0 1 
9308967		 # 	collision with: 10 1 0  and 1 2 0 
9308996		 # 	collision with: 4 3 0  and 2 0 1 
9308998		 # 	collision with: 3 2 0  and 1 0 1 
9309026		 # 	collision with: 1 3 0  and 3 1 1 
9309048		 # 	collision with: 4 1 0  and 4 0 1 
9309078		 # 	collision with: 10 0 1  and 6 1 1 
9309109		 # 	collision with: 4 3 0  and 5 4 0 
9309111		 # 	collision with: 2 4 0  and 7 5 0 
9309112		 # 	collision with: 8 3 0  and 4 4 0 
9309114		 # 	collision with: 9 7 0  and 2 0 1 
9309116		 # 	collision with: 9 0 0  and 7 1 0 
9309118		 # 	collision with: 4 5 0  and 8 6 0 
9309121		 # 	collision with: 5 2 0  and 1 4 0 
9309125		 # 	collision with: 7 0 0  and 9 1 0 
9309127		 # 	collision with: 10 1 0  and 10 2 0 
9309140		 # 	collision with: 10 3 0  and 2 0 1 
9309142		 # 	collision with: 2 4 0  and 5 5 0 
9309148		 # 	collision with: 1 3 0  and 7 4 0 
9309165		 # 	collision with: 10 2 0  and 10 0 1 
9309167		 # 	collision with: 3 1 0  and 6 2 0 
9309184		 # 	collision with: 9 0 0  and 5 2 0 
9309186		 # 	collision with: 10 5 0  and 7 6 0 
9309197		 # 	collision with: 6 5 0  and 9 1 1 
9309199		 # 	collision with: 5 2 0  and 4 4 0 
9309208		 # 	collision with: 6 3 0  and 3 5 0 
9309210		 # 	collision with: 10 9 0  and 1 0 1 
9309220		 # 	collision with: 4 0 0  and 1 1 0 
9309222		 # 	collision with: 6 5 0  and 3 0 1 
9309232		 # 	collision with: 7 4 0  and 2 5 0 
9309234		 # 	collision with: 5 1 0  and 7 2 0 
9309256		 # 	collision with: 9 0 0  and 5 2 0 
9309258		 # 	collision with: 1 1 0  and 1 0 1 
9309324		 # 	collision with: 1 5 0  and 0 6 0 
9309326		 # 	collision with: 2 3 0  and 1 4 0 
9309336		 # 	collision with: 10 4 0  and 1 6 0 
9309338		 # 	collision with: 9 5 0  and 1 6 0 
9309348		 # 	collision with: 0 5 0  and 1 5 0 
9309350		 # 	collision with: 9 2 0  and 7 3 0 
9309361		 # 	collision with: 9 5 0  and 10 6 0 
9309363		 # 	collision with: 1 3 0  and 3 3 0 
9309372		 # 	collision with: 7 1 0  and 1 3 0 
9309374		 # 	collision with: 0 1 0  and 7 3 0 
9309389		 # 	collision with: 1 2 0  and 4 0 1 
9309391		 # 	collision with: 2 0 0  and 9 2 0 
9309393		 # 	collision with: 7 0 0  and 9 1 0 
9309395		 # 	collision with: 8 5 0  and 4 0 1 
9309408		 # 	collision with: 4 0 0  and 6 1 0 
9309416		 # 	collision with: 5 4 0  and 2 6 0 
9309418		 # 	collision with: 3 6 0  and 7 7 0 
9309437		 # 	collision with: 9 10 0  and 1 0 1 
9309440		 # 	collision with: 3 7 0  and 2 0 1 
9309442		 # 	collision with: 10 10 0  and 10 0 1 
9309444		 # 	collision with: 0 0 0  and 9 2 0 
9309446		 # 	collision with: 3 4 0  and 1 6 0 
9309449		 # 	collision with: 0 0 0  and 1 1 1 
9309451		 # 	collision with: 7 0 0  and 8 1 0 
9309482		 # 	collision with: 4 5 0  and 8 6 0 
9309508		 # 	collision with: 10 0 0  and 1 1 0 
9309534		 # 	collision with: 3 1 0  and 5 2 0 
9309560		 # 	collision with: 10 1 0  and 10 3 0 
9309562		 # 	collision with: 4 4 0  and 6 6 0 
9309593		 # 	collision with: 2 1 0  and 9 2 0 
9309595		 # 	collision with: 2 1 0  and 2 0 1 
9309596		 # 	collision with: 0 3 0  and 3 4 0 
9309598		 # 	collision with: 7 1 0  and 7 3 0 
9309600		 # 	collision with: 0 0 0  and 5 1 0 
9309602		 # 	collision with: 3 1 0  and 6 2 0 
9309605		 # 	collision with: 4 6 0  and 2 0 1 
9309607		 # 	collision with: 9 2 0  and 5 4 0 
9309609		 # 	collision with: 7 1 0  and 7 0 1 
9309611		 # 	collision with: 2 2 0  and 5 4 0 
9309624		 # 	collision with: 8 4 0  and 2 0 1 
9309626		 # 	collision with: 8 5 0  and 3 0 1 
9309632		 # 	collision with: 9 4 0  and 1 6 0 
9309634		 # 	collision with: 5 0 0  and 4 2 0 
9309649		 # 	collision with: 0 8 0  and 2 8 0 
9309651		 # 	collision with: 8 3 0  and 3 4 0 
9309668		 # 	collision with: 3 4 0  and 5 4 0 
9309670		 # 	collision with: 10 2 0  and 2 0 1 
9309681		 # 	collision with: 0 1 0  and 3 3 0 
9309683		 # 	collision with: 2 1 0  and 4 2 0 
9309692		 # 	collision with: 3 6 0  and 9 0 1 
9309694		 # 	collision with: 2 2 0  and 7 3 0 
9309704		 # 	collision with: 0 3 0  and 5 4 0 
9309706		 # 	collision with: 1 1 0  and 3 2 0 
9309716		 # 	collision with: 7 2 0  and 5 0 1 
9309718		 # 	collision with: 7 3 0  and 7 0 1 
9309740		 # 	collision with: 4 3 0  and 3 4 0 
9309742		 # 	collision with: 4 1 0  and 4 0 1 
9309808		 # 	collision with: 4 3 0  and 3 4 0 
9309810		 # 	collision with: 1 1 0  and 3 2 0 
9309820		 # 	collision with: 4 3 0  and 3 4 0 
9309822		 # 	collision with: 8 9 0  and 8 1 1 
9309832		 # 	collision with: 7 1 0  and 5 2 0 
9309834		 # 	collision with: 7 3 0  and 10 0 1 
9309845		 # 	collision with: 10 0 0  and 6 1 0 
9309847		 # 	collision with: 0 0 0  and 1 1 1 
9309856		 # 	collision with: 9 0 0  and 5 2 0 
9309858		 # 	collision with: 6 10 0  and 2 1 1 
9309873		 # 	collision with: 8 4 0  and 5 5 0 
9309875		 # 	collision with: 2 8 0  and 6 3 1 
9309879		 # 	collision with: 5 1 0  and 4 3 0 
9309892		 # 	collision with: 4 3 0  and 3 4 0 
9309894		 # 	collision with: 8 4 0  and 10 0 1 
9309900		 # 	collision with: 4 3 0  and 3 4 0 
9309902		 # 	collision with: 2 3 0  and 8 1 1 
9309921		 # 	collision with: 8 1 0  and 5 3 0 
9309923		 # 	collision with: 4 1 0  and 5 2 0 
9309924		 # 	collision with: 4 3 0  and 3 4 0 
9309930		 # 	collision with: 9 0 0  and 5 1 0 
9309933		 # 	collision with: 4 3 0  and 5 4 0 
9309935		 # 	collision with: 4 8 0  and 3 0 1 
9309964		 # 	collision with: 4 3 0  and 3 4 0 
9309966		 # 	collision with: 5 3 0  and 4 0 1 
9309992		 # 	collision with: 6 0 0  and 10 1 0 
9309994		 # 	collision with: 6 2 0  and 0 1 1 
9310016		 # 	collision with: 4 3 0  and 3 4 0 
9310018		 # 	collision with: 2 9 0  and 1 3 1 
9310044		 # 	collision with: 4 3 0  and 3 4 0 
9310046		 # 	collision with: 7 8 0  and 0 1 1 
9310077		 # 	collision with: 8 1 0  and 0 2 0 
9310079		 # 	collision with: 8 4 0  and 5 6 0 
9310080		 # 	collision with: 2 0 0  and 3 1 0 
9310082		 # 	collision with: 3 8 0  and 2 0 1 
9310086		 # 	collision with: 5 7 0  and 6 1 1 
9310089		 # 	collision with: 0 5 0  and 5 6 0 
9310091		 # 	collision with: 10 1 0  and 1 2 0 
9310095		 # 	collision with: 9 9 0  and 0 0 1 
9310108		 # 	collision with: 8 1 0  and 0 2 0 
9310110		 # 	collision with: 8 5 0  and 7 0 1 
9310116		 # 	collision with: 4 3 0  and 3 4 0 
9310118		 # 	collision with: 3 7 0  and 10 0 1 
9310133		 # 	collision with: 5 0 0  and 7 1 0 
9310135		 # 	collision with: 10 4 0  and 6 5 0 
9310152		 # 	collision with: 4 3 0  and 3 4 0 
9310165		 # 	collision with: 2 3 0  and 8 5 0 
9310167		 # 	collision with: 10 2 0  and 7 4 0 
9310176		 # 	collision with: 4 3 0  and 3 4 0 
9310178		 # 	collision with: 7 7 0  and 2 1 1 
9310188		 # 	collision with: 0 1 0  and 5 2 0 
9310190		 # 	collision with: 4 6 0  and 2 0 1 
9310200		 # 	collision with: 8 0 0  and 10 1 0 
9310202		 # 	collision with: 5 8 0  and 3 1 1 
9310224		 # 	collision with: 3 4 0  and 2 6 0 
9310226		 # 	collision with: 10 1 0  and 2 3 0 
9310292		 # 	collision with: 6 0 0  and 8 1 0 
9310294		 # 	collision with: 3 4 0  and 1 6 0 
9310304		 # 	collision with: 3 4 0  and 2 6 0 
9310306		 # 	collision with: 8 3 0  and 9 5 0 
9310316		 # 	collision with: 3 4 0  and 2 6 0 
9310318		 # 	collision with: 1 3 0  and 3 3 0 
9310329		 # 	collision with: 10 0 0  and 1 1 0 
9310331		 # 	collision with: 2 4 0  and 7 5 0 
9310340		 # 	collision with: 3 4 0  and 2 6 0 
9310342		 # 	collision with: 0 1 0  and 2 2 0 
9310357		 # 	collision with: 5 8 0  and 5 2 1 
9310359		 # 	collision with: 2 5 0  and 7 6 0 
9310361		 # 	collision with: 9 0 0  and 6 2 0 
9310363		 # 	collision with: 7 7 0  and 3 2 1 
9310378		 # 	collision with: 6 3 0  and 9 4 0 
9310384		 # 	collision with: 3 4 0  and 2 6 0 
9310405		 # 	collision with: 1 4 0  and 2 5 0 
9310407		 # 	collision with: 7 2 0  and 0 3 0 
9310408		 # 	collision with: 3 4 0  and 2 6 0 
9310410		 # 	collision with: 10 1 0  and 1 2 0 
9310412		 # 	collision with: 3 0 0  and 2 1 0 
9310417		 # 	collision with: 7 3 0  and 3 0 1 
9310419		 # 	collision with: 9 4 0  and 6 5 0 
9310448		 # 	collision with: 3 4 0  and 2 6 0 
9310450		 # 	collision with: 2 2 0  and 7 3 0 
9310476		 # 	collision with: 3 4 0  and 2 6 0 
9310478		 # 	collision with: 7 4 0  and 5 0 1 
9310500		 # 	collision with: 3 4 0  and 2 6 0 
9310502		 # 	collision with: 4 6 0  and 10 7 0 
9310528		 # 	collision with: 3 4 0  and 2 6 0 
9310530		 # 	collision with: 7 2 0  and 0 3 0 
9310561		 # 	collision with: 9 2 0  and 6 0 1 
9310563		 # 	collision with: 5 1 0  and 5 0 1 
9310564		 # 	collision with: 3 4 0  and 2 6 0 
9310566		 # 	collision with: 4 3 0  and 10 1 1 
9310568		 # 	collision with: 3 4 0  and 2 6 0 
9310570		 # 	collision with: 7 9 0  and 0 1 1 
9310573		 # 	collision with: 6 0 0  and 10 1 0 
9310575		 # 	collision with: 2 1 0  and 9 0 1 
9310577		 # 	collision with: 1 4 0  and 10 5 0 
9310579		 # 	collision with: 7 0 0  and 10 1 0 
9310594		 # 	collision with: 2 1 0  and 7 2 0 
9310600		 # 	collision with: 3 4 0  and 2 6 0 
9310602		 # 	collision with: 4 1 0  and 5 2 0 
9310617		 # 	collision with: 5 2 0  and 3 3 0 
9310619		 # 	collision with: 2 4 0  and 1 0 1 
9310636		 # 	collision with: 3 4 0  and 2 6 0 
9310638		 # 	collision with: 2 9 0  and 4 9 0 
9310649		 # 	collision with: 3 4 0  and 5 4 0 
9310651		 # 	collision with: 2 9 0  and 4 9 0 
9310660		 # 	collision with: 3 4 0  and 2 6 0 
9310662		 # 	collision with: 7 9 0  and 6 0 1 
9310672		 # 	collision with: 3 4 0  and 2 6 0 
9310674		 # 	collision with: 0 7 0  and 7 1 1 
9310684		 # 	collision with: 3 4 0  and 2 6 0 
9310686		 # 	collision with: 7 7 0  and 1 0 1 
9310708		 # 	collision with: 9 6 0  and 2 0 1 
9310710		 # 	collision with: 4 6 0  and 10 7 0 
9310776		 # 	collision with: 5 4 0  and 3 6 0 
9310778		 # 	collision with: 6 2 0  and 4 4 0 
9310788		 # 	collision with: 8 0 0  and 10 1 0 
9310790		 # 	collision with: 2 0 0  and 7 1 0 
9310800		 # 	collision with: 1 3 0  and 3 0 1 
9310813		 # 	collision with: 2 7 0  and 4 1 1 
9310815		 # 	collision with: 7 3 0  and 3 5 0 
9310826		 # 	collision with: 5 0 0  and 2 1 0 
9310841		 # 	collision with: 5 0 0  and 7 1 0 
9310843		 # 	collision with: 9 2 0  and 3 4 0 
9310845		 # 	collision with: 8 0 0  and 2 1 1 
9310847		 # 	collision with: 8 5 0  and 8 6 0 
9310860		 # 	collision with: 10 5 0  and 4 2 1 
9310862		 # 	collision with: 3 6 0  and 6 3 1 
9310868		 # 	collision with: 1 2 0  and 2 0 1 
9310870		 # 	collision with: 7 3 0  and 3 5 0 
9310889		 # 	collision with: 0 0 0  and 5 1 0 
9310891		 # 	collision with: 2 0 0  and 7 1 0 
9310892		 # 	collision with: 3 1 0  and 4 1 0 
9310894		 # 	collision with: 1 8 0  and 8 0 1 
9310896		 # 	collision with: 8 2 0  and 6 4 0 
9310898		 # 	collision with: 5 1 0  and 4 2 0 
9310901		 # 	collision with: 0 1 0  and 5 2 0 
9310932		 # 	collision with: 6 3 0  and 9 5 0 
9310934		 # 	collision with: 5 2 0  and 6 2 0 
9310960		 # 	collision with: 0 4 0  and 2 0 1 
9310962		 # 	collision with: 7 1 0  and 7 3 0 
9310984		 # 	collision with: 4 0 0  and 1 1 0 
9310986		 # 	collision with: 6 3 0  and 9 4 0 
9311012		 # 	collision with: 9 0 0  and 5 2 0 
9311014		 # 	collision with: 2 1 0  and 4 0 1 
9311045		 # 	collision with: 9 5 0  and 6 6 0 
9311047		 # 	collision with: 1 1 0  and 8 2 0 
9311048		 # 	collision with: 7 9 0  and 10 0 1 
9311050		 # 	collision with: 7 10 0  and 3 1 1 
9311052		 # 	collision with: 0 4 0  and 5 5 0 
9311054		 # 	collision with: 2 2 0  and 5 4 0 
9311057		 # 	collision with: 3 0 0  and 9 2 0 
9311059		 # 	collision with: 9 5 0  and 1 6 0 
9311061		 # 	collision with: 0 8 0  and 2 8 0 
9311063		 # 	collision with: 10 5 0  and 9 2 1 
9311076		 # 	collision with: 4 0 0  and 6 1 0 
9311078		 # 	collision with: 8 1 0  and 10 2 0 
9311084		 # 	collision with: 6 3 0  and 3 5 0 
9311086		 # 	collision with: 0 1 0  and 7 3 0 
9311101		 # 	collision with: 5 2 0  and 1 3 0 
9311120		 # 	collision with: 10 2 0  and 7 1 1 
9311122		 # 	collision with: 3 3 0  and 4 1 1 
9311133		 # 	collision with: 1 4 0  and 4 0 1 
9311135		 # 	collision with: 2 2 0  and 5 4 0 
9311146		 # 	collision with: 2 9 0  and 4 9 0 
9311156		 # 	collision with: 3 2 0  and 2 4 0 
9311168		 # 	collision with: 8 6 0  and 6 1 1 
9311170		 # 	collision with: 5 0 0  and 4 2 0 
9311192		 # 	collision with: 2 0 0  and 4 1 0 
9311194		 # 	collision with: 8 4 0  and 5 6 0 
9311260		 # 	collision with: 8 2 0  and 6 4 0 
9311274		 # 	collision with: 1 6 0  and 6 0 1 
9311284		 # 	collision with: 10 1 0  and 0 2 0 
9311286		 # 	collision with: 0 4 0  and 5 6 0 
9311297		 # 	collision with: 10 2 0  and 8 0 1 
9311299		 # 	collision with: 2 2 0  and 8 3 0 
9311308		 # 	collision with: 0 9 0  and 2 1 1 
9311310		 # 	collision with: 1 7 0  and 7 0 1 
9311325		 # 	collision with: 2 3 0  and 8 5 0 
9311327		 # 	collision with: 5 1 0  and 7 2 0 
9311329		 # 	collision with: 0 0 0  and 1 1 1 
9311331		 # 	collision with: 0 0 0  and 4 2 1 
9311344		 # 	collision with: 2 9 0  and 4 9 0 
9311346		 # 	collision with: 2 5 0  and 7 0 1 
9311352		 # 	collision with: 5 2 0  and 1 4 0 
9311354		 # 	collision with: 3 6 0  and 2 0 1 
9311373		 # 	collision with: 8 3 0  and 2 2 1 
9311375		 # 	collision with: 2 3 0  and 7 2 1 
9311376		 # 	collision with: 5 6 0  and 1 0 1 
9311378		 # 	collision with: 2 0 0  and 7 1 0 
9311380		 # 	collision with: 1 5 0  and 0 6 0 
9311382		 # 	collision with: 10 3 0  and 8 5 0 
9311387		 # 	collision with: 6 6 0  and 8 0 1 
9311416		 # 	collision with: 3 1 0  and 3 0 1 
9311444		 # 	collision with: 4 7 0  and 5 7 0 
9311446		 # 	collision with: 5 4 0  and 3 5 0 
9311468		 # 	collision with: 7 4 0  and 2 5 0 
9311470		 # 	collision with: 3 4 0  and 5 4 0 
9311496		 # 	collision with: 4 2 0  and 8 3 0 
9311498		 # 	collision with: 3 6 0  and 2 1 1 
9311529		 # 	collision with: 1 5 0  and 5 6 0 
9311531		 # 	collision with: 0 1 0  and 7 3 0 
9311532		 # 	collision with: 8 0 0  and 8 1 0 
9311534		 # 	collision with: 10 1 0  and 1 2 0 
9311536		 # 	collision with: 3 3 0  and 2 5 0 
9311538		 # 	collision with: 6 1 0  and 8 2 0 
9311543		 # 	collision with: 9 2 0  and 3 4 0 
9311545		 # 	collision with: 10 1 0  and 1 1 1 
9311560		 # 	collision with: 0 8 0  and 2 0 1 
9311562		 # 	collision with: 2 10 0  and 2 1 1 
9311568		 # 	collision with: 9 0 0  and 5 2 0 
9311570		 # 	collision with: 8 4 0  and 0 6 0 
9311585		 # 	collision with: 9 5 0  and 10 0 1 
9311587		 # 	collision with: 6 3 0  and 6 5 0 
9311604		 # 	collision with: 6 2 0  and 3 3 0 
9311606		 # 	collision with: 5 0 0  and 5 1 0 
9311617		 # 	collision with: 6 0 0  and 10 1 0 
9311628		 # 	collision with: 10 0 0  and 6 1 0 
9311630		 # 	collision with: 7 0 0  and 10 1 0 
9311640		 # 	collision with: 3 0 0  and 2 2 0 
9311642		 # 	collision with: 8 1 0  and 2 3 0 
9311654		 # 	collision with: 4 1 0  and 3 0 1 
9311720		 # 	collision with: 2 6 0  and 3 6 0 
9311722		 # 	collision with: 1 6 0  and 3 6 0 
9311740		 # 	collision with: 9 0 0  and 6 2 0 
9311742		 # 	collision with: 4 2 0  and 5 4 0 
9311764		 # 	collision with: 4 6 0  and 6 6 0 
9311766		 # 	collision with: 4 6 0  and 5 6 0 
9311787		 # 	collision with: 2 5 0  and 6 6 0 
9311804		 # 	collision with: 9 2 0  and 6 4 0 
9311806		 # 	collision with: 7 8 0  and 5 0 1 
9311808		 # 	collision with: 1 6 0  and 3 6 0 
9311810		 # 	collision with: 1 6 0  and 2 6 0 
9311813		 # 	collision with: 2 1 0  and 1 2 0 
9311821		 # 	collision with: 2 1 0  and 1 2 0 
9311823		 # 	collision with: 4 3 0  and 1 0 1 
9311824		 # 	collision with: 0 5 0  and 4 6 0 
9311826		 # 	collision with: 1 6 0  and 6 0 1 
9311852		 # 	collision with: 4 6 0  and 5 6 0 
9311854		 # 	collision with: 3 6 0  and 5 6 0 
9311861		 # 	collision with: 2 1 0  and 1 2 0 
9311863		 # 	collision with: 5 2 0  and 7 4 0 
9311881		 # 	collision with: 2 1 0  and 1 2 0 
9311883		 # 	collision with: 0 4 0  and 2 5 0 
9311888		 # 	collision with: 3 1 0  and 5 2 0 
9311890		 # 	collision with: 5 4 0  and 1 5 0 
9311896		 # 	collision with: 1 6 0  and 2 6 0 
9311898		 # 	collision with: 0 6 0  and 2 6 0 
9311908		 # 	collision with: 9 1 0  and 6 3 0 
9311910		 # 	collision with: 3 3 0  and 2 4 0 
9311940		 # 	collision with: 3 6 0  and 5 6 0 
9311942		 # 	collision with: 3 6 0  and 4 6 0 
9311972		 # 	collision with: 0 2 0  and 4 3 0 
9311974		 # 	collision with: 2 5 0  and 0 6 0 
9311984		 # 	collision with: 0 6 0  and 2 6 0 
9311986		 # 	collision with: 0 6 0  and 1 6 0 
9311992		 # 	collision with: 0 0 0  and 4 1 0 
9311994		 # 	collision with: 7 2 0  and 0 4 0 
7.72796secs	5115
