# prime 11
# degree 2
# input variables 3
# output variables 5
# reload computed balance functions from file balance-1875of3248-p11d2m3-debug.log
# p = 11
# n = 5
# smalldomain p^m 1331
# domain p^n 161051
#	 p^2 = 121
#	 p^3 = 1331
#	 p^4 = 14641
#	 p^5 = 161051
#	 p^6 = 1771561
#	 p^7 = 19487171
#	 p^8 = 214358881
#	 p^9 = 2357947691
opening file : balance-1875of3248-p11d2m3-debug.log
reloading for step2...
11250035		 # 	collision with: 1 2 1 0 0  and 1 3 1 0 0 
11250053		 # 	collision with: 5 1 0 0 0  and 6 1 0 0 0 
11250055		 # 	collision with: 2 5 1 0 0  and 2 6 1 0 0 
11250077		 # 	collision with: 7 4 4 0 0  and 7 5 4 0 0 
11250079		 # 	collision with: 1 2 1 0 0  and 1 3 1 0 0 
11250096		 # 	collision with: 4 9 9 0 0  and 9 7 2 1 0 
11250098		 # 	collision with: 9 5 7 0 0  and 3 6 0 1 0 
11250103		 # 	collision with: 5 3 3 0 0  and 5 4 3 0 0 
11250137		 # 	collision with: 5 1 0 0 0  and 6 1 0 0 0 
11250139		 # 	collision with: 3 2 7 0 0  and 3 4 7 0 0 
11250141		 # 	collision with: 5 1 10 0 0  and 6 1 10 0 0 
11250143		 # 	collision with: 4 10 0 0 0  and 6 10 0 0 0 
11250161		 # 	collision with: 10 2 1 0 0  and 10 3 1 0 0 
11250163		 # 	collision with: 4 4 0 0 0  and 6 6 0 0 0 
11250205		 # 	collision with: 10 2 1 0 0  and 10 3 1 0 0 
11250321		 # 	collision with: 5 1 4 0 0  and 6 1 4 0 0 
11250323		 # 	collision with: 5 3 3 0 0  and 5 4 3 0 0 
11250325		 # 	collision with: 5 1 6 0 0  and 6 1 6 0 0 
11250327		 # 	collision with: 7 3 1 0 0  and 7 5 1 0 0 
11250397		 # 	collision with: 5 1 2 0 0  and 6 1 2 0 0 
11250399		 # 	collision with: 0 1 2 0 0  and 10 2 2 0 0 
11250401		 # 	collision with: 5 1 0 0 0  and 6 1 0 0 0 
11250517		 # 	collision with: 2 3 4 0 0  and 9 5 4 0 0 
11250519		 # 	collision with: 9 3 4 0 0  and 1 5 4 0 0 
11250537		 # 	collision with: 5 1 1 0 0  and 6 1 1 0 0 
11250539		 # 	collision with: 4 10 0 0 0  and 6 10 0 0 0 
11250561		 # 	collision with: 10 4 2 0 0  and 1 5 2 0 0 
11250563		 # 	collision with: 4 10 5 0 0  and 6 10 5 0 0 
11250580		 # 	collision with: 0 2 9 0 0  and 3 3 0 1 0 
11250582		 # 	collision with: 1 0 9 0 0  and 10 6 0 1 0 
11250585		 # 	collision with: 7 4 0 0 0  and 7 5 0 0 0 
11250587		 # 	collision with: 4 10 0 0 0  and 6 10 0 0 0 
11250621		 # 	collision with: 7 7 4 0 0  and 7 2 5 0 0 
11250623		 # 	collision with: 6 0 4 0 0  and 6 2 4 0 0 
11250625		 # 	collision with: 10 4 2 0 0  and 1 5 2 0 0 
11250627		 # 	collision with: 9 4 8 0 0  and 9 5 8 0 0 
11250645		 # 	collision with: 8 1 1 0 0  and 8 3 1 0 0 
11250647		 # 	collision with: 4 10 4 0 0  and 6 10 4 0 0 
11250689		 # 	collision with: 8 1 1 0 0  and 8 3 1 0 0 
11250691		 # 	collision with: 4 10 2 0 0  and 6 10 2 0 0 
11250805		 # 	collision with: 7 4 0 0 0  and 7 5 0 0 0 
11250807		 # 	collision with: 4 10 0 0 0  and 6 10 0 0 0 
11250809		 # 	collision with: 5 1 3 0 0  and 6 2 3 0 0 
11250811		 # 	collision with: 9 4 0 0 0  and 9 5 0 0 0 
11250881		 # 	collision with: 5 1 0 0 0  and 6 1 0 0 0 
11250883		 # 	collision with: 4 2 4 0 0  and 4 2 5 0 0 
11250885		 # 	collision with: 5 7 4 0 0  and 6 1 5 0 0 
11250887		 # 	collision with: 6 0 4 0 0  and 6 2 4 0 0 
11251001		 # 	collision with: 5 1 4 0 0  and 6 1 4 0 0 
11251003		 # 	collision with: 7 3 2 0 0  and 7 5 2 0 0 
11251021		 # 	collision with: 10 4 1 0 0  and 1 5 1 0 0 
11251023		 # 	collision with: 4 10 1 0 0  and 6 10 1 0 0 
11251045		 # 	collision with: 2 0 5 0 0  and 2 1 5 0 0 
11251047		 # 	collision with: 7 3 2 0 0  and 7 5 2 0 0 
11251064		 # 	collision with: 10 1 6 0 0  and 3 10 0 1 0 
11251066		 # 	collision with: 4 3 7 0 0  and 8 3 1 1 0 
11251069		 # 	collision with: 2 3 0 0 0  and 9 5 0 0 0 
11251071		 # 	collision with: 9 3 3 0 0  and 1 5 5 0 0 
11251105		 # 	collision with: 10 4 3 0 0  and 10 1 5 0 0 
11251107		 # 	collision with: 9 4 1 0 0  and 9 5 1 0 0 
11251111		 # 	collision with: 9 3 5 0 0  and 1 5 5 0 0 
11251129		 # 	collision with: 6 1 1 0 0  and 6 2 1 0 0 
11251131		 # 	collision with: 4 10 3 0 0  and 6 10 3 0 0 
11251173		 # 	collision with: 6 1 1 0 0  and 6 2 1 0 0 
11251175		 # 	collision with: 0 1 1 0 0  and 10 2 1 0 0 
11251289		 # 	collision with: 2 3 0 0 0  and 9 5 0 0 0 
11251291		 # 	collision with: 4 10 2 0 0  and 6 10 2 0 0 
11251293		 # 	collision with: 3 1 3 0 0  and 8 3 5 0 0 
11251295		 # 	collision with: 4 10 0 0 0  and 6 10 0 0 0 
11251365		 # 	collision with: 10 2 4 0 0  and 10 3 4 0 0 
11251367		 # 	collision with: 7 3 0 0 0  and 7 5 0 0 0 
11251369		 # 	collision with: 9 3 3 0 0  and 9 3 5 0 0 
11251371		 # 	collision with: 9 4 1 0 0  and 9 5 1 0 0 
11251485		 # 	collision with: 5 3 0 0 0  and 5 5 0 0 0 
11251487		 # 	collision with: 6 5 3 0 0  and 6 5 5 0 0 
11251505		 # 	collision with: 2 3 2 0 0  and 9 5 2 0 0 
11251507		 # 	collision with: 4 10 2 0 0  and 6 10 2 0 0 
11251531		 # 	collision with: 1 5 3 0 0  and 1 5 5 0 0 
11251548		 # 	collision with: 8 10 10 0 0  and 7 3 0 1 0 
11251550		 # 	collision with: 8 3 1 0 0  and 1 6 2 1 0 
11251553		 # 	collision with: 6 3 0 0 0  and 5 4 0 0 0 
11251555		 # 	collision with: 1 2 2 0 0  and 1 3 2 0 0 
11251589		 # 	collision with: 9 4 3 0 0  and 9 6 3 0 0 
11251593		 # 	collision with: 3 3 4 0 0  and 3 4 4 0 0 
11251595		 # 	collision with: 1 5 3 0 0  and 9 3 4 0 0 
11251613		 # 	collision with: 4 0 1 0 0  and 4 2 1 0 0 
11251615		 # 	collision with: 4 10 2 0 0  and 6 10 2 0 0 
11251657		 # 	collision with: 5 1 1 0 0  and 6 1 1 0 0 
11251659		 # 	collision with: 4 10 1 0 0  and 6 10 1 0 0 
11251773		 # 	collision with: 6 3 0 0 0  and 5 4 0 0 0 
11251775		 # 	collision with: 0 2 1 0 0  and 10 4 1 0 0 
11251777		 # 	collision with: 5 1 1 0 0  and 6 1 1 0 0 
11251779		 # 	collision with: 4 10 2 0 0  and 6 10 2 0 0 
11251849		 # 	collision with: 10 4 1 0 0  and 1 5 1 0 0 
11251851		 # 	collision with: 4 10 1 0 0  and 6 10 1 0 0 
11251853		 # 	collision with: 9 4 3 0 0  and 9 6 3 0 0 
11251855		 # 	collision with: 4 10 3 0 0  and 6 10 3 0 0 
11251969		 # 	collision with: 7 8 3 0 0  and 7 1 4 0 0 
11251971		 # 	collision with: 2 5 3 0 0  and 2 6 3 0 0 
11251989		 # 	collision with: 5 1 4 0 0  and 6 1 4 0 0 
11251991		 # 	collision with: 4 10 3 0 0  and 6 10 3 0 0 
11252013		 # 	collision with: 7 8 3 0 0  and 4 1 4 0 0 
11252032		 # 	collision with: 3 8 8 0 0  and 2 6 0 1 0 
11252034		 # 	collision with: 1 2 8 0 0  and 5 2 0 1 0 
11252037		 # 	collision with: 4 2 1 0 0  and 7 3 1 0 0 
11252039		 # 	collision with: 2 7 2 0 0  and 2 4 4 0 0 
11252073		 # 	collision with: 1 2 0 0 0  and 1 4 0 0 0 
11252075		 # 	collision with: 1 1 2 0 0  and 9 9 4 0 0 
11252077		 # 	collision with: 1 2 2 0 0  and 1 4 2 0 0 
11252097		 # 	collision with: 5 2 0 0 0  and 6 4 0 0 0 
11252099		 # 	collision with: 0 2 0 0 0  and 10 4 0 0 0 
11252141		 # 	collision with: 5 2 0 0 0  and 6 4 0 0 0 
11252143		 # 	collision with: 0 2 0 0 0  and 10 4 0 0 0 
11252259		 # 	collision with: 4 2 1 0 0  and 6 3 1 0 0 
11252261		 # 	collision with: 5 1 3 0 0  and 6 1 3 0 0 
11252263		 # 	collision with: 9 5 2 0 0  and 9 5 4 0 0 
11252337		 # 	collision with: 1 2 0 0 0  and 1 4 0 0 0 
11252339		 # 	collision with: 4 10 1 0 0  and 6 10 1 0 0 
11252453		 # 	collision with: 5 1 0 0 0  and 6 1 0 0 0 
11252455		 # 	collision with: 7 1 4 0 0  and 3 3 4 0 0 
11252473		 # 	collision with: 1 2 2 0 0  and 1 4 2 0 0 
11252475		 # 	collision with: 3 2 2 0 0  and 3 4 2 0 0 
11252497		 # 	collision with: 5 1 0 0 0  and 6 1 0 0 0 
11252499		 # 	collision with: 7 8 2 0 0  and 7 0 4 0 0 
11252516		 # 	collision with: 8 3 5 0 0  and 6 4 2 1 0 
11252518		 # 	collision with: 8 2 4 0 0  and 0 10 1 1 0 
11252521		 # 	collision with: 9 9 2 0 0  and 2 1 3 0 0 
11252523		 # 	collision with: 2 5 5 0 0  and 2 6 5 0 0 
11252557		 # 	collision with: 7 3 2 0 0  and 4 2 3 0 0 
11252559		 # 	collision with: 4 2 0 0 0  and 6 3 0 0 0 
11252561		 # 	collision with: 10 2 0 0 0  and 10 3 0 0 0 
11252563		 # 	collision with: 1 2 0 0 0  and 1 3 0 0 0 
11252581		 # 	collision with: 5 1 0 0 0  and 6 1 0 0 0 
11252583		 # 	collision with: 4 10 0 0 0  and 6 10 0 0 0 
11252625		 # 	collision with: 5 1 0 0 0  and 6 1 0 0 0 
11252627		 # 	collision with: 4 10 0 0 0  and 6 10 0 0 0 
11252741		 # 	collision with: 10 0 2 0 0  and 10 0 3 0 0 
11252743		 # 	collision with: 1 0 2 0 0  and 1 0 3 0 0 
11252817		 # 	collision with: 7 4 2 0 0  and 7 5 2 0 0 
11252819		 # 	collision with: 10 0 2 0 0  and 10 0 3 0 0 
11252823		 # 	collision with: 4 2 0 0 0  and 6 3 0 0 0 
11252937		 # 	collision with: 3 1 2 0 0  and 8 3 2 0 0 
11252939		 # 	collision with: 3 0 2 0 0  and 3 0 3 0 0 
11252957		 # 	collision with: 10 2 0 0 0  and 10 3 0 0 0 
11252981		 # 	collision with: 5 1 1 0 0  and 6 1 1 0 0 
11252983		 # 	collision with: 6 0 2 0 0  and 6 0 3 0 0 
11253000		 # 	collision with: 1 0 2 0 0  and 4 2 1 1 0 
11253002		 # 	collision with: 9 8 1 0 0  and 8 4 0 1 0 
11253005		 # 	collision with: 4 0 2 0 0  and 4 2 2 0 0 
11253041		 # 	collision with: 5 7 1 0 0  and 5 1 3 0 0 
11253043		 # 	collision with: 10 1 0 0 0  and 10 3 0 0 0 
11253045		 # 	collision with: 3 1 0 0 0  and 8 3 0 0 0 
11253047		 # 	collision with: 4 10 5 0 0  and 6 10 5 0 0 
11253065		 # 	collision with: 9 4 1 0 0  and 9 6 1 0 0 
11253109		 # 	collision with: 9 4 1 0 0  and 9 6 1 0 0 
11253111		 # 	collision with: 0 1 1 0 0  and 10 2 3 0 0 
11253225		 # 	collision with: 5 1 1 0 0  and 6 2 1 0 0 
11253227		 # 	collision with: 8 1 1 0 0  and 8 2 1 0 0 
11253229		 # 	collision with: 7 4 3 0 0  and 7 5 3 0 0 
11253231		 # 	collision with: 7 1 0 0 0  and 3 3 0 0 0 
11253301		 # 	collision with: 5 1 1 0 0  and 6 1 1 0 0 
11253303		 # 	collision with: 3 2 1 0 0  and 3 4 1 0 0 
11253305		 # 	collision with: 8 9 1 0 0  and 8 6 3 0 0 
11253307		 # 	collision with: 10 1 0 0 0  and 10 3 0 0 0 
11253421		 # 	collision with: 5 1 1 0 0  and 6 1 1 0 0 
11253423		 # 	collision with: 4 10 0 0 0  and 6 10 0 0 0 
11253441		 # 	collision with: 3 1 0 0 0  and 8 3 0 0 0 
11253443		 # 	collision with: 6 1 1 0 0  and 4 7 3 0 0 
11253465		 # 	collision with: 5 1 2 0 0  and 6 1 2 0 0 
11253467		 # 	collision with: 4 10 0 0 0  and 6 10 0 0 0 
11253484		 # 	collision with: 8 6 5 0 0  and 1 10 0 1 0 
11253486		 # 	collision with: 2 10 7 0 0  and 6 0 2 1 0 
11253489		 # 	collision with: 1 8 1 0 0  and 1 9 2 0 0 
11253491		 # 	collision with: 0 1 0 0 0  and 10 2 0 0 0 
11253525		 # 	collision with: 10 2 2 0 0  and 10 3 2 0 0 
11253527		 # 	collision with: 7 1 1 0 0  and 3 3 1 0 0 
11253529		 # 	collision with: 10 2 1 0 0  and 10 3 2 0 0 
11253531		 # 	collision with: 7 6 1 0 0  and 7 2 2 0 0 
11253551		 # 	collision with: 5 7 1 0 0  and 5 7 2 0 0 
11253593		 # 	collision with: 7 4 1 0 0  and 7 5 1 0 0 
11253595		 # 	collision with: 6 8 1 0 0  and 6 5 2 0 0 
11253709		 # 	collision with: 4 2 1 0 0  and 4 2 2 0 0 
11253711		 # 	collision with: 0 1 0 0 0  and 10 2 0 0 0 
11253713		 # 	collision with: 2 0 1 0 0  and 9 1 1 0 0 
11253715		 # 	collision with: 7 1 1 0 0  and 7 1 2 0 0 
11253785		 # 	collision with: 9 9 1 0 0  and 2 1 2 0 0 
11253787		 # 	collision with: 4 2 1 0 0  and 6 3 1 0 0 
11253789		 # 	collision with: 1 5 1 0 0  and 10 1 2 0 0 
11253791		 # 	collision with: 10 0 1 0 0  and 0 8 2 0 0 
11253905		 # 	collision with: 6 4 1 0 0  and 6 4 2 0 0 
11253907		 # 	collision with: 1 4 1 0 0  and 1 4 2 0 0 
11253927		 # 	collision with: 7 1 1 0 0  and 3 3 2 0 0 
11253949		 # 	collision with: 1 4 1 0 0  and 1 4 2 0 0 
11253951		 # 	collision with: 4 10 1 0 0  and 6 10 1 0 0 
11253968		 # 	collision with: 10 5 4 0 0  and 5 4 2 1 0 
11253970		 # 	collision with: 0 8 2 0 0  and 9 1 0 1 0 
11253973		 # 	collision with: 5 3 5 0 0  and 5 5 5 0 0 
11253975		 # 	collision with: 9 4 4 0 0  and 9 5 4 0 0 
11254009		 # 	collision with: 10 7 0 0 0  and 1 3 2 0 0 
11254011		 # 	collision with: 5 3 5 0 0  and 5 4 5 0 0 
11254013		 # 	collision with: 7 8 0 0 0  and 4 1 2 0 0 
11254015		 # 	collision with: 5 4 0 0 0  and 5 3 2 0 0 
11254033		 # 	collision with: 5 3 1 0 0  and 5 5 1 0 0 
11254035		 # 	collision with: 5 5 0 0 0  and 5 5 2 0 0 
11254077		 # 	collision with: 5 3 1 0 0  and 5 5 1 0 0 
11254079		 # 	collision with: 8 5 0 0 0  and 8 5 2 0 0 
11254193		 # 	collision with: 1 3 0 0 0  and 1 3 2 0 0 
11254195		 # 	collision with: 3 3 0 0 0  and 3 3 2 0 0 
11254197		 # 	collision with: 5 1 0 0 0  and 6 1 0 0 0 
11254199		 # 	collision with: 4 10 1 0 0  and 6 10 1 0 0 
11254269		 # 	collision with: 4 0 0 0 0  and 4 2 0 0 0 
11254271		 # 	collision with: 10 2 0 0 0  and 0 1 2 0 0 
11254273		 # 	collision with: 5 1 1 0 0  and 6 2 1 0 0 
11254275		 # 	collision with: 2 8 0 0 0  and 2 8 2 0 0 
11254389		 # 	collision with: 5 1 2 0 0  and 6 1 2 0 0 
11254391		 # 	collision with: 6 0 0 0 0  and 6 2 0 0 0 
11254409		 # 	collision with: 4 0 5 0 0  and 4 2 5 0 0 
11254411		 # 	collision with: 10 0 1 0 0  and 0 2 1 0 0 
11254433		 # 	collision with: 6 3 1 0 0  and 5 4 1 0 0 
11254435		 # 	collision with: 6 0 0 0 0  and 6 2 0 0 0 
11254452		 # 	collision with: 5 3 6 0 0  and 2 2 2 1 0 
11254454		 # 	collision with: 0 5 7 0 0  and 3 2 3 1 0 
11254457		 # 	collision with: 5 1 0 0 0  and 6 1 0 0 0 
11254459		 # 	collision with: 4 0 0 0 0  and 4 1 0 0 0 
11254495		 # 	collision with: 9 0 0 0 0  and 1 1 0 0 0 
11254497		 # 	collision with: 2 0 0 0 0  and 9 1 0 0 0 
11254499		 # 	collision with: 5 5 0 0 0  and 5 2 1 0 0 
11254517		 # 	collision with: 7 8 0 0 0  and 4 1 1 0 0 
11254519		 # 	collision with: 5 3 0 0 0  and 5 3 1 0 0 
11254561		 # 	collision with: 7 8 0 0 0  and 7 1 1 0 0 
11254563		 # 	collision with: 8 3 0 0 0  and 8 3 1 0 0 
11254677		 # 	collision with: 5 1 0 0 0  and 6 1 0 0 0 
11254681		 # 	collision with: 2 0 0 0 0  and 2 1 0 0 0 
11254683		 # 	collision with: 2 2 0 0 0  and 2 2 1 0 0 
11254753		 # 	collision with: 7 9 0 0 0  and 7 9 1 0 0 
11254755		 # 	collision with: 4 10 0 0 0  and 6 10 0 0 0 
11254757		 # 	collision with: 5 7 0 0 0  and 5 7 1 0 0 
11254759		 # 	collision with: 9 0 0 0 0  and 1 1 0 0 0 
11254873		 # 	collision with: 4 8 0 0 0  and 4 8 1 0 0 
11254893		 # 	collision with: 2 0 0 0 0  and 9 1 0 0 0 
11254895		 # 	collision with: 4 0 3 0 0  and 4 1 3 0 0 
11254917		 # 	collision with: 5 5 0 0 0  and 5 3 1 0 0 
11254919		 # 	collision with: 9 8 0 0 0  and 9 8 1 0 0 
11254953		 # 	collision with: 6 3 1 0 0  and 5 4 1 0 0 
11254955		 # 	collision with: 1 2 7 0 0  and 1 3 7 0 0 
11254965		 # 	collision with: 4 7 5 0 0  and 4 6 6 0 0 
11254967		 # 	collision with: 4 8 0 0 0  and 6 8 0 0 0 
11255009		 # 	collision with: 5 1 4 0 0  and 6 1 4 0 0 
11255011		 # 	collision with: 4 8 0 0 0  and 6 8 0 0 0 
11255017		 # 	collision with: 5 1 2 0 0  and 6 1 2 0 0 
11255019		 # 	collision with: 4 1 2 0 0  and 6 3 2 0 0 
11255047		 # 	collision with: 8 1 5 0 0  and 8 1 6 0 0 
11255177		 # 	collision with: 5 2 1 0 0  and 6 4 1 0 0 
11255179		 # 	collision with: 4 8 1 0 0  and 6 8 1 0 0 
11255193		 # 	collision with: 9 4 5 0 0  and 9 6 5 0 0 
11255195		 # 	collision with: 2 0 1 0 0  and 8 2 1 0 0 
11255209		 # 	collision with: 6 3 2 0 0  and 5 4 2 0 0 
11255211		 # 	collision with: 1 2 3 0 0  and 1 3 3 0 0 
11255225		 # 	collision with: 8 1 3 0 0  and 8 3 3 0 0 
11255227		 # 	collision with: 4 1 3 0 0  and 6 3 3 0 0 
11255359		 # 	collision with: 4 4 4 0 0  and 6 5 4 0 0 
11255385		 # 	collision with: 5 1 2 0 0  and 6 1 2 0 0 
11255387		 # 	collision with: 1 2 3 0 0  and 1 3 3 0 0 
11255393		 # 	collision with: 9 4 3 0 0  and 9 6 3 0 0 
11255395		 # 	collision with: 1 1 2 0 0  and 9 2 2 0 0 
11255420		 # 	collision with: 7 7 8 0 0  and 9 6 0 1 0 
11255422		 # 	collision with: 7 1 8 0 0  and 10 10 0 1 0 
11255437		 # 	collision with: 10 4 3 0 0  and 1 5 3 0 0 
11255439		 # 	collision with: 6 0 2 0 0  and 6 2 2 0 0 
11255449		 # 	collision with: 3 1 4 0 0  and 8 3 4 0 0 
11255493		 # 	collision with: 5 1 3 0 0  and 6 1 3 0 0 
11255495		 # 	collision with: 4 0 6 0 0  and 4 1 6 0 0 
11255501		 # 	collision with: 5 1 1 0 0  and 6 1 1 0 0 
11255503		 # 	collision with: 4 8 5 0 0  and 6 8 5 0 0 
11255529		 # 	collision with: 5 2 3 0 0  and 6 4 3 0 0 
11255661		 # 	collision with: 5 1 1 0 0  and 6 1 1 0 0 
11255663		 # 	collision with: 4 8 3 0 0  and 6 8 3 0 0 
11255677		 # 	collision with: 10 2 3 0 0  and 10 3 3 0 0 
11255679		 # 	collision with: 4 8 1 0 0  and 6 8 1 0 0 
11255693		 # 	collision with: 9 4 0 0 0  and 9 6 0 0 0 
11255695		 # 	collision with: 4 8 1 0 0  and 6 8 1 0 0 
11255709		 # 	collision with: 5 1 3 0 0  and 6 2 3 0 0 
11255711		 # 	collision with: 9 4 2 0 0  and 9 5 2 0 0 
11255841		 # 	collision with: 7 3 4 0 0  and 7 3 6 0 0 
11255843		 # 	collision with: 4 4 2 0 0  and 6 5 2 0 0 
11255869		 # 	collision with: 9 4 0 0 0  and 9 6 0 0 0 
11255871		 # 	collision with: 9 2 2 0 0  and 1 4 2 0 0 
11255877		 # 	collision with: 5 1 5 0 0  and 6 1 5 0 0 
11255879		 # 	collision with: 6 0 2 0 0  and 6 2 2 0 0 
11255904		 # 	collision with: 0 0 4 0 0  and 8 0 0 1 0 
11255906		 # 	collision with: 5 5 4 0 0  and 8 10 0 1 0 
11255921		 # 	collision with: 8 1 4 0 0  and 8 3 4 0 0 
11255923		 # 	collision with: 4 8 0 0 0  and 6 8 0 0 0 
11255933		 # 	collision with: 3 3 5 0 0  and 3 4 5 0 0 
11255935		 # 	collision with: 8 1 4 0 0  and 8 2 4 0 0 
11255979		 # 	collision with: 2 0 1 0 0  and 8 2 1 0 0 
11255985		 # 	collision with: 5 1 0 0 0  and 6 1 0 0 0 
11255987		 # 	collision with: 4 8 4 0 0  and 6 8 4 0 0 
30.9738secs	12822
