# prime 11
# degree 2
# input variables 3
# output variables 5
# reload computed balance functions from file balance-341of3248-p11d2m3-debug.log
# p = 11
# n = 5
# smalldomain p^m 1331
# domain p^n 161051
#	 p^2 = 121
#	 p^3 = 1331
#	 p^4 = 14641
#	 p^5 = 161051
#	 p^6 = 1771561
#	 p^7 = 19487171
#	 p^8 = 214358881
#	 p^9 = 2357947691
opening file : balance-341of3248-p11d2m3-debug.log
reloading for step2...
2046005		 # 	collision with: 5 8 0 0 0  and 6 8 0 0 0 
2046007		 # 	collision with: 10 2 3 0 0  and 10 3 3 0 0 
2046032		 # 	collision with: 1 1 0 0 0  and 3 1 0 0 0 
2046034		 # 	collision with: 10 3 1 0 0  and 10 4 1 0 0 
2046072		 # 	collision with: 0 9 0 0 0  and 1 9 0 0 0 
2046074		 # 	collision with: 10 2 9 0 0  and 10 3 9 0 0 
2046085		 # 	collision with: 7 3 0 0 0  and 5 5 0 0 0 
2046087		 # 	collision with: 10 8 3 0 0  and 10 4 5 0 0 
2046105		 # 	collision with: 1 1 0 0 0  and 3 1 0 0 0 
2046107		 # 	collision with: 10 1 4 0 0  and 10 2 4 0 0 
2046112		 # 	collision with: 3 5 0 0 0  and 5 5 0 0 0 
2046114		 # 	collision with: 10 0 5 0 0  and 10 2 5 0 0 
2046152		 # 	collision with: 4 6 0 0 0  and 5 6 0 0 0 
2046154		 # 	collision with: 10 1 6 0 0  and 10 3 6 0 0 
2046161		 # 	collision with: 2 2 0 0 0  and 3 2 0 0 0 
2046163		 # 	collision with: 10 3 3 0 0  and 10 2 5 0 0 
2046181		 # 	collision with: 5 8 0 0 0  and 6 8 0 0 0 
2046192		 # 	collision with: 2 2 0 0 0  and 3 2 0 0 0 
2046194		 # 	collision with: 10 0 2 0 0  and 10 1 2 0 0 
2046232		 # 	collision with: 0 10 0 0 0  and 2 10 0 0 0 
2046234		 # 	collision with: 10 4 10 0 0  and 10 6 10 0 0 
2046261		 # 	collision with: 7 3 0 0 0  and 5 5 0 0 0 
2046263		 # 	collision with: 10 9 3 0 0  and 10 3 5 0 0 
2046272		 # 	collision with: 3 4 0 0 0  and 4 4 0 0 0 
2046293		 # 	collision with: 2 2 0 0 0  and 3 2 0 0 0 
2046295		 # 	collision with: 4 7 3 0 0  and 4 7 5 0 0 
2046309		 # 	collision with: 5 3 0 0 0  and 4 5 0 0 0 
2046311		 # 	collision with: 10 3 3 0 0  and 10 4 5 0 0 
2046312		 # 	collision with: 5 8 0 0 0  and 6 8 0 0 0 
2046314		 # 	collision with: 10 4 8 0 0  and 10 6 8 0 0 
2046352		 # 	collision with: 7 2 1 10 0  and 5 5 0 0 1 
2046354		 # 	collision with: 4 6 6 0 0  and 0 4 0 1 0 
2046356		 # 	collision with: 4 7 0 0 0  and 6 7 0 0 0 
2046358		 # 	collision with: 10 4 7 0 0  and 10 5 7 0 0 
2046360		 # 	collision with: 0 9 0 0 0  and 1 9 0 0 0 
2046362		 # 	collision with: 10 4 9 0 0  and 10 6 9 0 0 
2046364		 # 	collision with: 4 6 0 0 0  and 5 6 0 0 0 
2046366		 # 	collision with: 10 2 6 0 0  and 10 4 6 0 0 
2046368		 # 	collision with: 0 10 0 0 0  and 2 10 0 0 0 
2046372		 # 	collision with: 5 8 0 0 0  and 6 8 0 0 0 
2046374		 # 	collision with: 10 2 8 0 0  and 10 4 8 0 0 
2046376		 # 	collision with: 2 3 0 0 0  and 4 3 0 0 0 
2046378		 # 	collision with: 10 5 3 0 0  and 10 6 3 0 0 
2046380		 # 	collision with: 1 1 0 0 0  and 3 1 0 0 0 
2046382		 # 	collision with: 10 3 1 0 0  and 10 5 1 0 0 
2046384		 # 	collision with: 3 5 0 0 0  and 5 5 0 0 0 
2046386		 # 	collision with: 10 5 5 0 0  and 10 6 5 0 0 
2046388		 # 	collision with: 2 2 0 0 0  and 3 2 0 0 0 
2046390		 # 	collision with: 10 3 2 0 0  and 10 4 2 0 0 
2046392		 # 	collision with: 3 4 0 0 0  and 4 4 0 0 0 
2046394		 # 	collision with: 10 3 4 0 0  and 10 5 4 0 0 
2046397		 # 	collision with: 3 4 0 0 0  and 4 4 0 0 0 
2046399		 # 	collision with: 10 3 4 0 0  and 10 4 4 0 0 
2046436		 # 	collision with: 3 4 0 0 0  and 4 4 0 0 0 
2046457		 # 	collision with: 2 3 0 0 0  and 4 3 0 0 0 
2046459		 # 	collision with: 10 1 3 0 0  and 10 1 4 0 0 
2046476		 # 	collision with: 2 2 0 0 0  and 3 2 0 0 0 
2046478		 # 	collision with: 10 3 2 0 0  and 10 4 2 0 0 
2046489		 # 	collision with: 2 2 0 0 0  and 3 2 0 0 0 
2046491		 # 	collision with: 2 4 3 0 0  and 2 4 4 0 0 
2046516		 # 	collision with: 3 5 0 0 0  and 5 5 0 0 0 
2046518		 # 	collision with: 10 5 5 0 0  and 10 6 5 0 0 
2046556		 # 	collision with: 1 1 0 0 0  and 3 1 0 0 0 
2046558		 # 	collision with: 10 3 1 0 0  and 10 5 1 0 0 
2046569		 # 	collision with: 10 3 0 0 0  and 9 4 0 0 0 
2046571		 # 	collision with: 9 7 3 0 0  and 9 7 4 0 0 
2046591		 # 	collision with: 4 1 3 0 0  and 4 1 4 0 0 
2046598		 # 	collision with: 10 5 3 0 0  and 10 6 3 0 0 
2046636		 # 	collision with: 5 8 0 0 0  and 6 8 0 0 0 
2046638		 # 	collision with: 10 2 8 0 0  and 10 4 8 0 0 
2046645		 # 	collision with: 4 6 0 0 0  and 5 6 0 0 0 
2046665		 # 	collision with: 2 2 0 0 0  and 3 2 0 0 0 
2046667		 # 	collision with: 4 4 3 0 0  and 4 4 4 0 0 
2046676		 # 	collision with: 0 10 0 0 0  and 2 10 0 0 0 
2046678		 # 	collision with: 10 4 10 0 0  and 10 5 10 0 0 
2046716		 # 	collision with: 4 6 0 0 0  and 5 6 0 0 0 
2046718		 # 	collision with: 10 2 6 0 0  and 10 4 6 0 0 
2046745		 # 	collision with: 10 3 0 0 0  and 9 4 0 0 0 
2046747		 # 	collision with: 10 7 3 0 0  and 10 7 4 0 0 
2046756		 # 	collision with: 0 9 0 0 0  and 1 9 0 0 0 
2046758		 # 	collision with: 10 4 9 0 0  and 10 6 9 0 0 
2046777		 # 	collision with: 4 6 0 0 0  and 5 6 0 0 0 
2046779		 # 	collision with: 10 3 0 0 0  and 10 4 0 0 0 
2046793		 # 	collision with: 3 4 0 0 0  and 4 4 0 0 0 
2046795		 # 	collision with: 10 2 3 0 0  and 10 1 4 0 0 
2046796		 # 	collision with: 4 7 0 0 0  and 6 7 0 0 0 
2046798		 # 	collision with: 10 4 7 0 0  and 10 5 7 0 0 
2046836		 # 	collision with: 6 4 8 8 0  and 5 0 0 0 1 
2046838		 # 	collision with: 8 6 7 0 0  and 3 9 0 1 0 
2046840		 # 	collision with: 4 6 0 0 0  and 5 6 0 0 0 
2046842		 # 	collision with: 10 3 6 0 0  and 10 5 6 0 0 
2046844		 # 	collision with: 2 3 0 0 0  and 4 3 0 0 0 
2046846		 # 	collision with: 10 1 3 0 0  and 10 3 3 0 0 
2046848		 # 	collision with: 2 2 0 0 0  and 3 2 0 0 0 
2046850		 # 	collision with: 10 0 2 0 0  and 10 2 2 0 0 
2046852		 # 	collision with: 4 7 0 0 0  and 6 7 0 0 0 
2046854		 # 	collision with: 10 2 7 0 0  and 10 4 7 0 0 
2046856		 # 	collision with: 0 10 0 0 0  and 2 10 0 0 0 
2046860		 # 	collision with: 1 1 0 0 0  and 3 1 0 0 0 
2046862		 # 	collision with: 10 4 1 0 0  and 10 5 1 0 0 
2046864		 # 	collision with: 3 4 0 0 0  and 4 4 0 0 0 
2046866		 # 	collision with: 10 5 4 0 0  and 10 6 4 0 0 
2046868		 # 	collision with: 0 9 0 0 0  and 1 9 0 0 0 
2046870		 # 	collision with: 10 1 9 0 0  and 10 3 9 0 0 
2046872		 # 	collision with: 5 8 0 0 0  and 6 8 0 0 0 
2046874		 # 	collision with: 10 0 8 0 0  and 10 2 8 0 0 
2046876		 # 	collision with: 3 5 0 0 0  and 5 5 0 0 0 
2046878		 # 	collision with: 10 4 5 0 0  and 10 5 5 0 0 
2046881		 # 	collision with: 2 3 0 0 0  and 4 3 0 0 0 
2046920		 # 	collision with: 3 5 0 0 0  and 5 5 0 0 0 
2046922		 # 	collision with: 10 4 5 0 0  and 10 5 5 0 0 
2046941		 # 	collision with: 3 5 0 0 0  and 5 5 0 0 0 
2046943		 # 	collision with: 10 8 2 0 0  and 10 5 4 0 0 
2046960		 # 	collision with: 5 8 0 0 0  and 6 8 0 0 0 
2046962		 # 	collision with: 10 0 8 0 0  and 10 2 8 0 0 
2046973		 # 	collision with: 5 2 0 0 0  and 0 4 0 0 0 
2047000		 # 	collision with: 0 9 0 0 0  and 1 9 0 0 0 
2047002		 # 	collision with: 10 1 9 0 0  and 10 3 9 0 0 
2047040		 # 	collision with: 3 4 0 0 0  and 4 4 0 0 0 
2047053		 # 	collision with: 3 2 0 0 0  and 1 4 0 0 0 
2047055		 # 	collision with: 10 8 2 0 0  and 10 2 4 0 0 
2047073		 # 	collision with: 3 5 0 0 0  and 5 5 0 0 0 
2047075		 # 	collision with: 9 9 2 0 0  and 9 9 4 0 0 
2047080		 # 	collision with: 1 1 0 0 0  and 3 1 0 0 0 
2047082		 # 	collision with: 10 4 1 0 0  and 10 5 1 0 0 
2047120		 # 	collision with: 0 10 0 0 0  and 2 10 0 0 0 
2047122		 # 	collision with: 10 3 10 0 0  and 10 5 10 0 0 
2047129		 # 	collision with: 5 2 0 0 0  and 7 4 0 0 0 
2047131		 # 	collision with: 5 2 2 0 0  and 5 2 4 0 0 
2047149		 # 	collision with: 5 2 0 0 0  and 0 4 0 0 0 
2047151		 # 	collision with: 10 1 2 0 0  and 10 3 2 0 0 
2047160		 # 	collision with: 4 7 0 0 0  and 6 7 0 0 0 
2047162		 # 	collision with: 10 2 7 0 0  and 10 4 7 0 0 
2047200		 # 	collision with: 2 2 0 0 0  and 3 2 0 0 0 
2047202		 # 	collision with: 10 0 2 0 0  and 10 2 2 0 0 
2047229		 # 	collision with: 3 2 0 0 0  and 1 4 0 0 0 
2047231		 # 	collision with: 3 8 2 0 0  and 3 8 4 0 0 
2047242		 # 	collision with: 10 1 3 0 0  and 10 3 3 0 0 
2047263		 # 	collision with: 7 2 2 0 0  and 7 2 4 0 0 
2047277		 # 	collision with: 2 3 0 0 0  and 4 3 0 0 0 
2047279		 # 	collision with: 10 2 3 0 0  and 10 4 3 0 0 
2047280		 # 	collision with: 4 6 0 0 0  and 5 6 0 0 0 
2047282		 # 	collision with: 10 3 6 0 0  and 10 5 6 0 0 
2047320		 # 	collision with: 7 4 1 7 0  and 7 0 0 0 1 
2047322		 # 	collision with: 5 1 4 0 0  and 10 2 0 1 0 
2047324		 # 	collision with: 3 5 0 0 0  and 5 5 0 0 0 
2047326		 # 	collision with: 10 3 5 0 0  and 10 4 5 0 0 
2047328		 # 	collision with: 5 8 0 0 0  and 6 8 0 0 0 
2047330		 # 	collision with: 10 4 8 0 0  and 10 5 8 0 0 
2047332		 # 	collision with: 0 9 0 0 0  and 1 9 0 0 0 
2047334		 # 	collision with: 10 4 9 0 0  and 10 5 9 0 0 
2047336		 # 	collision with: 3 4 0 0 0  and 4 4 0 0 0 
2047338		 # 	collision with: 10 1 4 0 0  and 10 2 4 0 0 
2047340		 # 	collision with: 1 1 0 0 0  and 3 1 0 0 0 
2047342		 # 	collision with: 10 4 1 0 0  and 10 6 1 0 0 
2047344		 # 	collision with: 0 10 0 0 0  and 2 10 0 0 0 
2047348		 # 	collision with: 4 7 0 0 0  and 6 7 0 0 0 
2047350		 # 	collision with: 10 1 7 0 0  and 10 2 7 0 0 
2047352		 # 	collision with: 2 2 0 0 0  and 3 2 0 0 0 
2047354		 # 	collision with: 10 3 2 0 0  and 10 5 2 0 0 
2047356		 # 	collision with: 2 3 0 0 0  and 4 3 0 0 0 
2047358		 # 	collision with: 10 3 3 0 0  and 10 5 3 0 0 
2047360		 # 	collision with: 4 6 0 0 0  and 5 6 0 0 0 
2047362		 # 	collision with: 10 4 6 0 0  and 10 6 6 0 0 
2047365		 # 	collision with: 2 2 0 0 0  and 3 2 0 0 0 
2047367		 # 	collision with: 10 2 2 0 0  and 10 3 2 0 0 
2047404		 # 	collision with: 4 6 0 0 0  and 5 6 0 0 0 
2047406		 # 	collision with: 10 4 6 0 0  and 10 6 6 0 0 
2047427		 # 	collision with: 2 6 2 0 0  and 2 6 3 0 0 
2047446		 # 	collision with: 10 3 3 0 0  and 10 5 3 0 0 
2047457		 # 	collision with: 1 1 0 0 0  and 3 1 0 0 0 
2047459		 # 	collision with: 10 2 2 0 0  and 10 2 3 0 0 
2047484		 # 	collision with: 2 2 0 0 0  and 3 2 0 0 0 
2047486		 # 	collision with: 10 3 2 0 0  and 10 5 2 0 0 
2047524		 # 	collision with: 4 7 0 0 0  and 6 7 0 0 0 
2047526		 # 	collision with: 10 1 7 0 0  and 10 2 7 0 0 
2047537		 # 	collision with: 6 2 0 0 0  and 5 3 0 0 0 
2047539		 # 	collision with: 3 9 2 0 0  and 3 9 3 0 0 
2047557		 # 	collision with: 9 2 0 0 0  and 4 3 0 0 0 
2047559		 # 	collision with: 3 6 2 0 0  and 3 6 3 0 0 
2047564		 # 	collision with: 0 10 0 0 0  and 2 10 0 0 0 
2047566		 # 	collision with: 10 3 10 0 0  and 10 4 10 0 0 
2047604		 # 	collision with: 1 1 0 0 0  and 3 1 0 0 0 
2047606		 # 	collision with: 10 4 1 0 0  and 10 6 1 0 0 
2047613		 # 	collision with: 2 3 0 0 0  and 4 3 0 0 0 
2047615		 # 	collision with: 10 5 2 0 0  and 10 5 3 0 0 
2047633		 # 	collision with: 1 1 0 0 0  and 3 1 0 0 0 
2047635		 # 	collision with: 9 2 2 0 0  and 9 2 3 0 0 
2047644		 # 	collision with: 3 4 0 0 0  and 4 4 0 0 0 
2047684		 # 	collision with: 0 9 0 0 0  and 1 9 0 0 0 
2047686		 # 	collision with: 10 4 9 0 0  and 10 5 9 0 0 
2047713		 # 	collision with: 6 2 0 0 0  and 5 3 0 0 0 
2047724		 # 	collision with: 5 8 0 0 0  and 6 8 0 0 0 
2047726		 # 	collision with: 10 4 8 0 0  and 10 5 8 0 0 
2047745		 # 	collision with: 2 3 0 0 0  and 4 3 0 0 0 
2047747		 # 	collision with: 3 5 2 0 0  and 3 5 3 0 0 
2047761		 # 	collision with: 2 2 0 0 0  and 3 2 0 0 0 
2047764		 # 	collision with: 3 5 0 0 0  and 5 5 0 0 0 
2047766		 # 	collision with: 10 3 5 0 0  and 10 4 5 0 0 
2047804		 # 	collision with: 5 0 6 1 0  and 5 3 0 0 1 
2047806		 # 	collision with: 4 9 5 0 0  and 8 9 0 1 0 
2047808		 # 	collision with: 3 4 0 0 0  and 4 4 0 0 0 
2047810		 # 	collision with: 10 2 4 0 0  and 10 4 4 0 0 
2047812		 # 	collision with: 2 2 0 0 0  and 3 2 0 0 0 
2047814		 # 	collision with: 10 1 2 0 0  and 10 2 2 0 0 
2047816		 # 	collision with: 3 5 0 0 0  and 5 5 0 0 0 
2047818		 # 	collision with: 10 2 5 0 0  and 10 3 5 0 0 
2047820		 # 	collision with: 1 1 0 0 0  and 3 1 0 0 0 
2047822		 # 	collision with: 10 5 1 0 0  and 10 6 1 0 0 
2047824		 # 	collision with: 2 3 0 0 0  and 4 3 0 0 0 
2047826		 # 	collision with: 10 0 3 0 0  and 10 1 3 0 0 
2047828		 # 	collision with: 5 8 0 0 0  and 6 8 0 0 0 
2047830		 # 	collision with: 10 2 8 0 0  and 10 3 8 0 0 
2047832		 # 	collision with: 0 10 0 0 0  and 2 10 0 0 0 
2047836		 # 	collision with: 4 6 0 0 0  and 5 6 0 0 0 
2047838		 # 	collision with: 10 0 6 0 0  and 10 1 6 0 0 
2047840		 # 	collision with: 0 9 0 0 0  and 1 9 0 0 0 
2047842		 # 	collision with: 10 1 9 0 0  and 10 2 9 0 0 
2047844		 # 	collision with: 4 7 0 0 0  and 6 7 0 0 0 
2047846		 # 	collision with: 10 5 7 0 0  and 10 6 7 0 0 
2047849		 # 	collision with: 1 1 0 0 0  and 3 1 0 0 0 
2047851		 # 	collision with: 10 1 1 0 0  and 10 3 1 0 0 
2047888		 # 	collision with: 4 7 0 0 0  and 6 7 0 0 0 
2047890		 # 	collision with: 10 5 7 0 0  and 10 6 7 0 0 
2047909		 # 	collision with: 4 1 0 0 0  and 6 3 0 0 0 
2047911		 # 	collision with: 10 5 1 0 0  and 10 6 1 0 0 
2047928		 # 	collision with: 0 9 0 0 0  and 1 9 0 0 0 
2047930		 # 	collision with: 10 1 9 0 0  and 10 2 9 0 0 
2047941		 # 	collision with: 5 1 0 0 0  and 8 3 0 0 0 
2047943		 # 	collision with: 10 1 1 0 0  and 10 2 1 0 0 
2047968		 # 	collision with: 4 6 0 0 0  and 5 6 0 0 0 
2047970		 # 	collision with: 10 0 6 0 0  and 10 1 6 0 0 
2048008		 # 	collision with: 0 10 0 0 0  and 2 10 0 0 0 
2048010		 # 	collision with: 10 2 10 0 0  and 10 4 10 0 0 
2048021		 # 	collision with: 10 1 0 0 0  and 8 3 0 0 0 
2048023		 # 	collision with: 10 1 0 0 0  and 10 3 0 0 0 
2048041		 # 	collision with: 4 1 0 0 0  and 6 3 0 0 0 
2048048		 # 	collision with: 5 8 0 0 0  and 6 8 0 0 0 
2048050		 # 	collision with: 10 2 8 0 0  and 10 3 8 0 0 
2048090		 # 	collision with: 10 0 3 0 0  and 10 1 3 0 0 
2048099		 # 	collision with: 10 3 1 0 0  and 10 5 1 0 0 
2048117		 # 	collision with: 5 1 0 0 0  and 8 3 0 0 0 
2048119		 # 	collision with: 10 1 1 0 0  and 10 2 1 0 0 
2048128		 # 	collision with: 1 1 0 0 0  and 3 1 0 0 0 
2048130		 # 	collision with: 10 5 1 0 0  and 10 6 1 0 0 
2048168		 # 	collision with: 3 5 0 0 0  and 5 5 0 0 0 
2048170		 # 	collision with: 10 2 5 0 0  and 10 3 5 0 0 
2048197		 # 	collision with: 10 1 0 0 0  and 8 3 0 0 0 
2048199		 # 	collision with: 10 1 0 0 0  and 10 3 0 0 0 
2048208		 # 	collision with: 2 2 0 0 0  and 3 2 0 0 0 
2048210		 # 	collision with: 10 1 2 0 0  and 10 2 2 0 0 
2048229		 # 	collision with: 4 7 0 0 0  and 6 7 0 0 0 
2048231		 # 	collision with: 10 3 1 0 0  and 10 5 1 0 0 
2048245		 # 	collision with: 1 1 0 0 0  and 3 1 0 0 0 
2048247		 # 	collision with: 10 1 1 0 0  and 10 3 1 0 0 
2048248		 # 	collision with: 3 4 0 0 0  and 4 4 0 0 0 
2048288		 # 	collision with: 10 9 4 5 0  and 5 0 0 0 1 
2048290		 # 	collision with: 0 5 4 0 0  and 3 4 1 1 0 
2048292		 # 	collision with: 2 3 0 0 0  and 4 3 0 0 0 
2048294		 # 	collision with: 10 2 3 0 0  and 10 3 3 0 0 
2048296		 # 	collision with: 4 7 0 0 0  and 6 7 0 0 0 
2048298		 # 	collision with: 10 3 7 0 0  and 10 5 7 0 0 
2048300		 # 	collision with: 1 1 0 0 0  and 3 1 0 0 0 
2048302		 # 	collision with: 10 0 1 0 0  and 10 1 1 0 0 
2048304		 # 	collision with: 0 9 0 0 0  and 1 9 0 0 0 
2048306		 # 	collision with: 10 3 9 0 0  and 10 5 9 0 0 
2048308		 # 	collision with: 3 5 0 0 0  and 5 5 0 0 0 
2048310		 # 	collision with: 10 1 5 0 0  and 10 2 5 0 0 
2048312		 # 	collision with: 4 6 0 0 0  and 5 6 0 0 0 
2048314		 # 	collision with: 10 1 6 0 0  and 10 2 6 0 0 
2048316		 # 	collision with: 2 2 0 0 0  and 3 2 0 0 0 
2048318		 # 	collision with: 10 4 2 0 0  and 10 5 2 0 0 
2048320		 # 	collision with: 0 10 0 0 0  and 2 10 0 0 0 
2048324		 # 	collision with: 3 4 0 0 0  and 4 4 0 0 0 
2048326		 # 	collision with: 10 4 4 0 0  and 10 5 4 0 0 
2048328		 # 	collision with: 5 8 0 0 0  and 6 8 0 0 0 
2048330		 # 	collision with: 10 0 8 0 0  and 10 1 8 0 0 
2048333		 # 	collision with: 0 0 0 0 0  and 3 0 0 0 0 
2048335		 # 	collision with: 10 1 0 0 0  and 10 2 0 0 0 
2048372		 # 	collision with: 5 8 0 0 0  and 6 8 0 0 0 
2048374		 # 	collision with: 10 0 8 0 0  and 10 1 8 0 0 
2048393		 # 	collision with: 0 0 0 0 0  and 3 0 0 0 0 
2048395		 # 	collision with: 5 0 1 0 0  and 5 0 2 0 0 
2048412		 # 	collision with: 3 4 0 0 0  and 4 4 0 0 0 
2048425		 # 	collision with: 0 0 0 0 0  and 3 0 0 0 0 
2048427		 # 	collision with: 7 0 1 0 0  and 7 0 2 0 0 
2048452		 # 	collision with: 0 10 0 0 0  and 2 10 0 0 0 
2048454		 # 	collision with: 10 2 10 0 0  and 10 3 10 0 0 
2048492		 # 	collision with: 2 2 0 0 0  and 3 2 0 0 0 
2048494		 # 	collision with: 10 4 2 0 0  and 10 5 2 0 0 
2048505		 # 	collision with: 0 0 0 0 0  and 3 0 0 0 0 
2048525		 # 	collision with: 0 0 0 0 0  and 3 0 0 0 0 
2048527		 # 	collision with: 2 0 1 0 0  and 2 0 2 0 0 
2048532		 # 	collision with: 4 6 0 0 0  and 5 6 0 0 0 
2048534		 # 	collision with: 10 1 6 0 0  and 10 2 6 0 0 
2048572		 # 	collision with: 3 5 0 0 0  and 5 5 0 0 0 
2048574		 # 	collision with: 10 1 5 0 0  and 10 2 5 0 0 
2048581		 # 	collision with: 0 0 0 0 0  and 3 0 0 0 0 
2048583		 # 	collision with: 9 0 1 0 0  and 9 0 2 0 0 
2048601		 # 	collision with: 0 0 0 0 0  and 3 0 0 0 0 
2048603		 # 	collision with: 3 0 1 0 0  and 3 0 2 0 0 
2048612		 # 	collision with: 0 9 0 0 0  and 1 9 0 0 0 
2048614		 # 	collision with: 10 3 9 0 0  and 10 5 9 0 0 
2048652		 # 	collision with: 1 1 0 0 0  and 3 1 0 0 0 
2048654		 # 	collision with: 10 0 1 0 0  and 10 1 1 0 0 
2048681		 # 	collision with: 0 0 0 0 0  and 3 0 0 0 0 
2048683		 # 	collision with: 4 0 1 0 0  and 4 0 2 0 0 
2048692		 # 	collision with: 4 7 0 0 0  and 6 7 0 0 0 
2048694		 # 	collision with: 10 3 7 0 0  and 10 5 7 0 0 
2048713		 # 	collision with: 0 0 0 0 0  and 3 0 0 0 0 
2048731		 # 	collision with: 10 1 0 0 0  and 10 2 0 0 0 
2048734		 # 	collision with: 10 2 3 0 0  and 10 3 3 0 0 
2048772		 # 	collision with: 1 7 9 10 0  and 0 0 0 0 1 
2048774		 # 	collision with: 3 3 10 0 0  and 5 0 0 1 0 
2048776		 # 	collision with: 2 2 0 0 0  and 3 2 0 0 0 
2048778		 # 	collision with: 10 1 2 0 0  and 10 3 2 0 0 
2048780		 # 	collision with: 1 1 0 0 0  and 3 1 0 0 0 
2048782		 # 	collision with: 10 0 1 0 0  and 10 2 1 0 0 
2048784		 # 	collision with: 5 8 0 0 0  and 6 8 0 0 0 
2048786		 # 	collision with: 10 3 8 0 0  and 10 5 8 0 0 
2048788		 # 	collision with: 4 6 0 0 0  and 5 6 0 0 0 
2048790		 # 	collision with: 10 2 6 0 0  and 10 3 6 0 0 
2048792		 # 	collision with: 4 7 0 0 0  and 6 7 0 0 0 
2048794		 # 	collision with: 10 2 7 0 0  and 10 3 7 0 0 
2048796		 # 	collision with: 3 4 0 0 0  and 4 4 0 0 0 
2048798		 # 	collision with: 10 0 4 0 0  and 10 1 4 0 0 
2048800		 # 	collision with: 3 5 0 0 0  and 5 5 0 0 0 
2048802		 # 	collision with: 10 0 5 0 0  and 10 1 5 0 0 
2048804		 # 	collision with: 2 3 0 0 0  and 4 3 0 0 0 
2048806		 # 	collision with: 10 4 3 0 0  and 10 5 3 0 0 
2048808		 # 	collision with: 0 10 0 0 0  and 2 10 0 0 0 
2048812		 # 	collision with: 0 9 0 0 0  and 1 9 0 0 0 
2048814		 # 	collision with: 10 0 9 0 0  and 10 2 9 0 0 
2048817		 # 	collision with: 0 10 0 0 0  and 2 10 0 0 0 
2048819		 # 	collision with: 10 0 10 0 0  and 10 2 10 0 0 
2048856		 # 	collision with: 0 9 0 0 0  and 1 9 0 0 0 
2048858		 # 	collision with: 10 0 9 0 0  and 10 2 9 0 0 
2048877		 # 	collision with: 2 2 0 0 0  and 3 2 0 0 0 
2048879		 # 	collision with: 1 8 0 0 0  and 1 8 2 0 0 
2048896		 # 	collision with: 0 10 0 0 0  and 2 10 0 0 0 
2048898		 # 	collision with: 10 1 10 0 0  and 10 3 10 0 0 
2048911		 # 	collision with: 10 0 0 0 0  and 10 2 0 0 0 
2048938		 # 	collision with: 10 4 3 0 0  and 10 5 3 0 0 
2048976		 # 	collision with: 3 5 0 0 0  and 5 5 0 0 0 
2048978		 # 	collision with: 10 0 5 0 0  and 10 1 5 0 0 
2048989		 # 	collision with: 6 0 0 0 0  and 4 2 0 0 0 
2048991		 # 	collision with: 5 1 0 0 0  and 5 1 2 0 0 
2049009		 # 	collision with: 2 2 0 0 0  and 3 2 0 0 0 
2049011		 # 	collision with: 7 8 0 0 0  and 7 8 2 0 0 
2049016		 # 	collision with: 3 4 0 0 0  and 4 4 0 0 0 
2049056		 # 	collision with: 4 7 0 0 0  and 6 7 0 0 0 
2049058		 # 	collision with: 10 2 7 0 0  and 10 3 7 0 0 
2049065		 # 	collision with: 8 0 0 0 0  and 1 2 0 0 0 
2049067		 # 	collision with: 10 9 0 0 0  and 10 2 2 0 0 
2049085		 # 	collision with: 3 5 0 0 0  and 5 5 0 0 0 
2049087		 # 	collision with: 10 0 0 0 0  and 10 2 0 0 0 
2049096		 # 	collision with: 4 6 0 0 0  and 5 6 0 0 0 
2049098		 # 	collision with: 10 2 6 0 0  and 10 3 6 0 0 
2049136		 # 	collision with: 5 8 0 0 0  and 6 8 0 0 0 
2049138		 # 	collision with: 10 3 8 0 0  and 10 5 8 0 0 
2049165		 # 	collision with: 6 0 0 0 0  and 4 2 0 0 0 
2049167		 # 	collision with: 8 1 0 0 0  and 8 1 2 0 0 
2049176		 # 	collision with: 1 1 0 0 0  and 3 1 0 0 0 
2049178		 # 	collision with: 10 0 1 0 0  and 10 2 1 0 0 
2049197		 # 	collision with: 8 0 0 0 0  and 1 2 0 0 0 
2049199		 # 	collision with: 10 6 0 0 0  and 10 0 2 0 0 
2049213		 # 	collision with: 0 10 0 0 0  and 2 10 0 0 0 
2049215		 # 	collision with: 10 6 0 0 0  and 10 0 2 0 0 
2049216		 # 	collision with: 2 2 0 0 0  and 3 2 0 0 0 
2049218		 # 	collision with: 10 1 2 0 0  and 10 3 2 0 0 
2049256		 # 	collision with: 4 5 5 7 0  and 2 2 0 0 1 
2049258		 # 	collision with: 9 5 9 0 0  and 10 5 0 1 0 
2049260		 # 	collision with: 1 1 0 0 0  and 3 1 0 0 0 
2049262		 # 	collision with: 10 1 1 0 0  and 10 2 1 0 0 
2049264		 # 	collision with: 4 6 0 0 0  and 5 6 0 0 0 
2049266		 # 	collision with: 10 3 6 0 0  and 10 4 6 0 0 
2049268		 # 	collision with: 3 4 0 0 0  and 4 4 0 0 0 
2049270		 # 	collision with: 10 1 4 0 0  and 10 3 4 0 0 
2049272		 # 	collision with: 2 3 0 0 0  and 4 3 0 0 0 
2049274		 # 	collision with: 10 0 3 0 0  and 10 2 3 0 0 
2049276		 # 	collision with: 0 9 0 0 0  and 1 9 0 0 0 
2049278		 # 	collision with: 10 3 9 0 0  and 10 4 9 0 0 
2049280		 # 	collision with: 2 2 0 0 0  and 3 2 0 0 0 
2049282		 # 	collision with: 10 4 2 0 0  and 10 6 2 0 0 
2049284		 # 	collision with: 5 8 0 0 0  and 6 8 0 0 0 
2049286		 # 	collision with: 10 1 8 0 0  and 10 3 8 0 0 
2049288		 # 	collision with: 4 7 0 0 0  and 6 7 0 0 0 
2049290		 # 	collision with: 10 0 7 0 0  and 10 2 7 0 0 
2049292		 # 	collision with: 3 5 0 0 0  and 5 5 0 0 0 
2049294		 # 	collision with: 10 4 5 0 0  and 10 6 5 0 0 
2049296		 # 	collision with: 0 10 0 0 0  and 2 10 0 0 0 
2049301		 # 	collision with: 0 9 0 0 0  and 1 9 0 0 0 
2049303		 # 	collision with: 10 0 9 0 0  and 10 1 9 0 0 
2049340		 # 	collision with: 0 10 0 0 0  and 2 10 0 0 0 
2049342		 # 	collision with: 10 1 10 0 0  and 10 2 10 0 0 
2049361		 # 	collision with: 8 0 0 0 0  and 2 1 0 0 0 
2049363		 # 	collision with: 10 9 0 0 0  and 10 1 1 0 0 
2049380		 # 	collision with: 3 5 0 0 0  and 5 5 0 0 0 
2049382		 # 	collision with: 10 4 5 0 0  and 10 6 5 0 0 
2049393		 # 	collision with: 0 10 0 0 0  and 2 10 0 0 0 
2049395		 # 	collision with: 4 9 0 0 0  and 4 9 1 0 0 
2049420		 # 	collision with: 4 7 0 0 0  and 6 7 0 0 0 
2049422		 # 	collision with: 10 0 7 0 0  and 10 2 7 0 0 
2049460		 # 	collision with: 5 8 0 0 0  and 6 8 0 0 0 
2049462		 # 	collision with: 10 1 8 0 0  and 10 3 8 0 0 
2049473		 # 	collision with: 9 0 0 0 0  and 8 1 0 0 0 
2049475		 # 	collision with: 10 8 0 0 0  and 10 1 1 0 0 
2049493		 # 	collision with: 8 0 0 0 0  and 2 1 0 0 0 
2049495		 # 	collision with: 10 6 0 0 0  and 10 4 1 0 0 
2049500		 # 	collision with: 2 2 0 0 0  and 3 2 0 0 0 
2049502		 # 	collision with: 10 4 2 0 0  and 10 6 2 0 0 
2049540		 # 	collision with: 0 9 0 0 0  and 1 9 0 0 0 
2049542		 # 	collision with: 10 3 9 0 0  and 10 4 9 0 0 
2049549		 # 	collision with: 5 8 0 0 0  and 6 8 0 0 0 
2049551		 # 	collision with: 10 7 0 0 0  and 10 4 1 0 0 
2049571		 # 	collision with: 8 9 0 0 0  and 8 9 1 0 0 
2049582		 # 	collision with: 10 0 3 0 0  and 10 2 3 0 0 
2049620		 # 	collision with: 3 4 0 0 0  and 4 4 0 0 0 
2049649		 # 	collision with: 9 0 0 0 0  and 8 1 0 0 0 
2049651		 # 	collision with: 10 2 0 0 0  and 10 0 1 0 0 
2049660		 # 	collision with: 4 6 0 0 0  and 5 6 0 0 0 
2049662		 # 	collision with: 10 3 6 0 0  and 10 4 6 0 0 
2049681		 # 	collision with: 5 8 0 0 0  and 6 8 0 0 0 
2049683		 # 	collision with: 10 10 0 0 0  and 10 0 1 0 0 
2049697		 # 	collision with: 0 9 0 0 0  and 1 9 0 0 0 
2049699		 # 	collision with: 10 2 0 0 0  and 10 0 1 0 0 
2049700		 # 	collision with: 1 1 0 0 0  and 3 1 0 0 0 
2049702		 # 	collision with: 10 1 1 0 0  and 10 2 1 0 0 
2049746		 # 	collision with: 5 6 0 0 0  and 5 8 1 0 0 
2049750		 # 	collision with: 5 3 0 0 0  and 5 4 1 0 0 
2049754		 # 	collision with: 5 2 0 0 0  and 5 10 1 0 0 
2049758		 # 	collision with: 5 7 0 0 0  and 5 2 1 0 0 
2049762		 # 	collision with: 5 10 0 0 0  and 5 6 1 0 0 
2049766		 # 	collision with: 5 0 0 0 0  and 5 1 0 0 0 
2049770		 # 	collision with: 5 4 0 0 0  and 5 9 1 0 0 
2049774		 # 	collision with: 5 9 0 0 0  and 5 1 1 0 0 
2049778		 # 	collision with: 5 8 0 0 0  and 5 7 1 0 0 
2049782		 # 	collision with: 5 5 0 0 0  and 5 3 1 0 0 
2049784		 # 	collision with: 0 4 0 0 0  and 1 4 0 0 0 
2049786		 # 	collision with: 5 0 4 0 0  and 5 1 4 0 0 
2049793		 # 	collision with: 1 4 0 0 0  and 2 4 0 0 0 
2049795		 # 	collision with: 2 4 5 0 0  and 2 4 6 0 0 
2049828		 # 	collision with: 0 4 0 0 0  and 1 4 0 0 0 
2049830		 # 	collision with: 5 0 4 0 0  and 5 1 4 0 0 
2049833		 # 	collision with: 3 4 0 0 0  and 4 4 0 0 0 
2049835		 # 	collision with: 8 8 5 0 0  and 8 8 6 0 0 
2049872		 # 	collision with: 0 4 0 0 0  and 1 4 0 0 0 
2049874		 # 	collision with: 5 0 4 0 0  and 5 1 4 0 0 
2049905		 # 	collision with: 0 4 0 0 0  and 1 4 0 0 0 
2049907		 # 	collision with: 5 3 5 0 0  and 5 1 6 0 0 
2049916		 # 	collision with: 0 4 0 0 0  and 1 4 0 0 0 
2049918		 # 	collision with: 5 0 4 0 0  and 5 1 4 0 0 
2049941		 # 	collision with: 4 4 0 0 0  and 5 4 0 0 0 
2049943		 # 	collision with: 5 5 0 0 0  and 5 6 0 0 0 
2049960		 # 	collision with: 0 4 0 0 0  and 1 4 0 0 0 
2049962		 # 	collision with: 5 0 4 0 0  and 5 1 4 0 0 
2049989		 # 	collision with: 2 4 0 0 0  and 3 4 0 0 0 
2050004		 # 	collision with: 0 4 0 0 0  and 1 4 0 0 0 
2050006		 # 	collision with: 5 0 4 0 0  and 5 1 4 0 0 
2050021		 # 	collision with: 2 4 0 0 0  and 4 4 0 0 0 
2050048		 # 	collision with: 0 4 0 0 0  and 1 4 0 0 0 
2050050		 # 	collision with: 5 0 4 0 0  and 5 1 4 0 0 
2050069		 # 	collision with: 0 4 0 0 0  and 2 4 0 0 0 
2050071		 # 	collision with: 6 6 5 0 0  and 6 6 6 0 0 
2050092		 # 	collision with: 0 4 0 0 0  and 1 4 0 0 0 
2050094		 # 	collision with: 5 0 4 0 0  and 5 1 4 0 0 
2050105		 # 	collision with: 4 4 0 0 0  and 6 4 0 0 0 
2050107		 # 	collision with: 5 2 2 0 0  and 5 3 2 0 0 
2050136		 # 	collision with: 0 4 0 0 0  and 1 4 0 0 0 
2050138		 # 	collision with: 5 0 4 0 0  and 5 1 4 0 0 
2050177		 # 	collision with: 1 4 0 0 0  and 3 4 0 0 0 
2050179		 # 	collision with: 5 0 1 0 0  and 5 1 1 0 0 
2050180		 # 	collision with: 0 4 0 0 0  and 1 4 0 0 0 
2050182		 # 	collision with: 5 0 4 0 0  and 5 1 4 0 0 
2050217		 # 	collision with: 3 4 0 0 0  and 5 4 0 0 0 
2050219		 # 	collision with: 5 7 5 0 0  and 5 5 6 0 0 
2050224		 # 	collision with: 5 9 7 5 0  and 1 1 0 0 1 
2050226		 # 	collision with: 5 7 3 0 0  and 4 4 0 1 0 
2050228		 # 	collision with: 6 0 10 0 0  and 8 1 10 0 0 
2050230		 # 	collision with: 4 3 3 0 0  and 3 9 0 1 0 
2050232		 # 	collision with: 3 0 5 0 0  and 4 1 5 0 0 
2050236		 # 	collision with: 2 0 7 0 0  and 10 1 7 0 0 
2050238		 # 	collision with: 0 2 3 0 0  and 10 6 0 1 0 
2050240		 # 	collision with: 7 0 8 0 0  and 2 1 8 0 0 
2050242		 # 	collision with: 8 2 3 0 0  and 7 1 0 1 0 
2050244		 # 	collision with: 10 0 2 0 0  and 6 1 2 0 0 
2050246		 # 	collision with: 4 6 3 0 0  and 3 5 0 1 0 
2050248		 # 	collision with: 1 0 9 0 0  and 5 1 9 0 0 
2050250		 # 	collision with: 1 10 3 0 0  and 0 0 0 1 0 
2050252		 # 	collision with: 4 0 3 0 0  and 9 1 3 0 0 
2050254		 # 	collision with: 5 0 3 0 0  and 5 1 3 0 0 
2050256		 # 	collision with: 0 4 0 0 0  and 1 4 0 0 0 
2050258		 # 	collision with: 0 0 3 0 0  and 10 8 0 1 0 
2050260		 # 	collision with: 8 0 6 0 0  and 7 1 6 0 0 
2050262		 # 	collision with: 8 10 3 0 0  and 7 2 0 1 0 
2050264		 # 	collision with: 5 0 1 0 0  and 3 1 1 0 0 
2050266		 # 	collision with: 5 0 1 0 0  and 5 1 1 0 0 
2050268		 # 	collision with: 0 4 10 0 0  and 1 4 10 0 0 
2050270		 # 	collision with: 1 4 5 0 0  and 0 4 2 1 0 
2050277		 # 	collision with: 0 4 0 0 0  and 2 4 0 0 0 
2050279		 # 	collision with: 5 1 4 0 0  and 5 3 6 0 0 
2050312		 # 	collision with: 0 4 5 0 0  and 1 4 5 0 0 
2050314		 # 	collision with: 5 1 3 0 0  and 5 3 0 1 0 
2050317		 # 	collision with: 2 4 0 0 0  and 4 4 0 0 0 
2050319		 # 	collision with: 5 4 4 0 0  and 5 1 6 0 0 
2050356		 # 	collision with: 0 4 7 0 0  and 1 4 7 0 0 
2050358		 # 	collision with: 0 5 3 0 0  and 8 6 0 1 0 
2050389		 # 	collision with: 5 4 0 0 0  and 6 4 0 0 0 
2050391		 # 	collision with: 10 1 4 0 0  and 10 1 6 0 0 
2050400		 # 	collision with: 0 4 8 0 0  and 1 4 8 0 0 
2050402		 # 	collision with: 3 2 4 0 0  and 7 6 1 1 0 
2050425		 # 	collision with: 3 4 0 0 0  and 5 4 0 0 0 
2050427		 # 	collision with: 5 4 0 0 0  and 5 6 0 0 0 
2050444		 # 	collision with: 0 4 2 0 0  and 1 4 2 0 0 
2050446		 # 	collision with: 0 2 5 0 0  and 9 1 2 1 0 
2050473		 # 	collision with: 1 4 0 0 0  and 3 4 0 0 0 
2050475		 # 	collision with: 5 5 3 0 0  and 5 6 3 0 0 
2050488		 # 	collision with: 0 4 9 0 0  and 1 4 9 0 0 
2050490		 # 	collision with: 8 7 3 0 0  and 1 10 0 1 0 
2050505		 # 	collision with: 2 4 0 0 0  and 3 4 0 0 0 
2050507		 # 	collision with: 5 0 5 0 0  and 5 1 5 0 0 
2050532		 # 	collision with: 0 4 3 0 0  and 1 4 3 0 0 
2050534		 # 	collision with: 10 4 4 0 0  and 8 4 1 1 0 
2050553		 # 	collision with: 0 4 0 0 0  and 1 4 0 0 0 
2050555		 # 	collision with: 5 3 4 0 0  and 5 2 6 0 0 
2050591		 # 	collision with: 5 1 2 0 0  and 5 3 2 0 0 
2050620		 # 	collision with: 0 4 6 0 0  and 1 4 6 0 0 
2050622		 # 	collision with: 1 0 3 0 0  and 0 3 0 1 0 
2050661		 # 	collision with: 1 4 0 0 0  and 2 4 0 0 0 
2050663		 # 	collision with: 5 5 1 0 0  and 5 6 1 0 0 
2050664		 # 	collision with: 0 4 1 0 0  and 1 4 1 0 0 
2050666		 # 	collision with: 7 0 0 1 0  and 4 1 0 1 0 
2050701		 # 	collision with: 3 4 0 0 0  and 4 4 0 0 0 
2050703		 # 	collision with: 4 7 4 0 0  and 4 7 6 0 0 
2050708		 # 	collision with: 9 5 7 10 0  and 3 3 0 0 1 
2050710		 # 	collision with: 6 10 7 0 0  and 4 9 0 1 0 
2050712		 # 	collision with: 6 0 9 0 0  and 8 1 9 0 0 
2050714		 # 	collision with: 3 9 7 0 0  and 1 1 0 1 0 
2050716		 # 	collision with: 3 0 10 0 0  and 4 1 10 0 0 
2050718		 # 	collision with: 5 0 10 0 0  and 5 1 10 0 0 
2050720		 # 	collision with: 2 0 3 0 0  and 10 1 3 0 0 
2050722		 # 	collision with: 9 2 7 0 0  and 7 0 0 1 0 
2050724		 # 	collision with: 7 0 5 0 0  and 2 1 5 0 0 
2050728		 # 	collision with: 0 4 0 0 0  and 1 4 0 0 0 
2050730		 # 	collision with: 5 8 7 0 0  and 3 4 0 1 0 
2050732		 # 	collision with: 1 0 7 0 0  and 5 1 7 0 0 
2050734		 # 	collision with: 8 6 7 0 0  and 6 10 0 1 0 
2050736		 # 	collision with: 4 0 6 0 0  and 9 1 6 0 0 
2050738		 # 	collision with: 3 6 6 0 0  and 1 5 1 1 0 
2050740		 # 	collision with: 9 0 8 0 0  and 1 1 8 0 0 
2050742		 # 	collision with: 7 4 7 0 0  and 5 5 0 1 0 
2050744		 # 	collision with: 8 0 1 0 0  and 7 1 1 0 0 
2050746		 # 	collision with: 10 5 7 0 0  and 8 2 0 1 0 
2050748		 # 	collision with: 5 0 2 0 0  and 3 1 2 0 0 
2050750		 # 	collision with: 0 3 7 0 0  and 9 8 0 1 0 
2050752		 # 	collision with: 0 4 9 0 0  and 1 4 9 0 0 
2050754		 # 	collision with: 6 5 0 0 0  and 2 0 4 1 0 
2050761		 # 	collision with: 0 4 0 0 0  and 1 4 0 0 0 
2050763		 # 	collision with: 2 4 4 0 0  and 2 4 5 0 0 
2050796		 # 	collision with: 0 4 10 0 0  and 1 4 10 0 0 
2050798		 # 	collision with: 1 5 7 0 0  and 7 2 0 1 0 
2050801		 # 	collision with: 2 4 0 0 0  and 3 4 0 0 0 
2050803		 # 	collision with: 8 8 4 0 0  and 8 8 5 0 0 
2050840		 # 	collision with: 0 4 3 0 0  and 1 4 3 0 0 
2050842		 # 	collision with: 3 6 8 0 0  and 3 6 1 1 0 
2050873		 # 	collision with: 4 4 0 0 0  and 6 4 0 0 0 
2050875		 # 	collision with: 10 1 4 0 0  and 10 1 5 0 0 
2050884		 # 	collision with: 0 4 5 0 0  and 1 4 5 0 0 
2050886		 # 	collision with: 6 1 7 0 0  and 3 0 0 1 0 
2050909		 # 	collision with: 3 4 0 0 0  and 4 4 0 0 0 
2050911		 # 	collision with: 5 4 0 0 0  and 5 5 0 0 0 
2050959		 # 	collision with: 5 4 3 0 0  and 5 6 3 0 0 
2050972		 # 	collision with: 0 4 7 0 0  and 1 4 7 0 0 
2050974		 # 	collision with: 8 6 9 0 0  and 4 9 2 1 0 
2050989		 # 	collision with: 1 4 0 0 0  and 3 4 0 0 0 
2050991		 # 	collision with: 1 2 4 0 0  and 1 2 5 0 0 
2051016		 # 	collision with: 0 4 6 0 0  and 1 4 6 0 0 
2051018		 # 	collision with: 1 7 7 0 0  and 4 5 0 1 0 
2051037		 # 	collision with: 5 4 0 0 0  and 6 4 0 0 0 
2051060		 # 	collision with: 0 4 8 0 0  and 1 4 8 0 0 
2051062		 # 	collision with: 4 7 7 0 0  and 10 10 0 1 0 
2051073		 # 	collision with: 3 4 0 0 0  and 5 4 0 0 0 
2051075		 # 	collision with: 5 1 2 0 0  and 5 2 2 0 0 
2051104		 # 	collision with: 0 4 1 0 0  and 1 4 1 0 0 
2051106		 # 	collision with: 2 1 7 0 0  and 0 0 0 1 0 
2051145		 # 	collision with: 0 4 0 0 0  and 2 4 0 0 0 
2051148		 # 	collision with: 0 4 2 0 0  and 1 4 2 0 0 
2051150		 # 	collision with: 2 5 7 0 0  and 7 8 0 1 0 
2051185		 # 	collision with: 2 4 0 0 0  and 4 4 0 0 0 
2051187		 # 	collision with: 5 10 4 0 0  and 5 1 5 0 0 
2051192		 # 	collision with: 8 9 10 1 0  and 0 0 0 0 1 
2051194		 # 	collision with: 5 7 1 0 0  and 2 4 0 1 0 
2051196		 # 	collision with: 6 0 8 0 0  and 8 1 8 0 0 
2051198		 # 	collision with: 4 3 1 0 0  and 1 1 0 1 0 
2051200		 # 	collision with: 0 4 0 0 0  and 1 4 0 0 0 
2051202		 # 	collision with: 3 6 1 0 0  and 0 7 0 1 0 
2051204		 # 	collision with: 2 0 10 0 0  and 10 1 10 0 0 
2051206		 # 	collision with: 5 9 1 0 0  and 2 4 0 1 0 
2051208		 # 	collision with: 7 0 2 0 0  and 2 1 2 0 0 
2051210		 # 	collision with: 4 2 1 0 0  and 1 9 0 1 0 
2051212		 # 	collision with: 10 0 6 0 0  and 6 1 6 0 0 
2051214		 # 	collision with: 1 0 1 0 0  and 9 8 0 1 0 
2051216		 # 	collision with: 1 0 5 0 0  and 5 1 5 0 0 
2051220		 # 	collision with: 4 0 9 0 0  and 9 1 9 0 0 
2051222		 # 	collision with: 7 9 1 0 0  and 4 5 0 1 0 
2051224		 # 	collision with: 9 0 1 0 0  and 1 1 1 0 0 
2051226		 # 	collision with: 6 7 1 0 0  and 3 8 0 1 0 
2051228		 # 	collision with: 8 0 7 0 0  and 7 1 7 0 0 
2051230		 # 	collision with: 6 2 1 0 0  and 3 5 0 1 0 
2051232		 # 	collision with: 5 0 3 0 0  and 3 1 3 0 0 
2051234		 # 	collision with: 9 6 1 0 0  and 6 1 0 1 0 
2051236		 # 	collision with: 0 4 8 0 0  and 1 4 8 0 0 
2051238		 # 	collision with: 5 1 1 0 0  and 1 4 0 1 0 
2051245		 # 	collision with: 5 4 0 0 0  and 6 4 0 0 0 
2051247		 # 	collision with: 5 10 3 0 0  and 5 2 5 0 0 
2051287		 # 	collision with: 8 8 3 0 0  and 8 8 5 0 0 
2051324		 # 	collision with: 0 4 10 0 0  and 1 4 10 0 0 
2051326		 # 	collision with: 6 1 2 0 0  and 9 6 1 1 0 
2051357		 # 	collision with: 4 4 0 0 0  and 5 4 0 0 0 
2051368		 # 	collision with: 0 4 2 0 0  and 1 4 2 0 0 
2051370		 # 	collision with: 1 3 1 0 0  and 4 0 0 1 0 
2051393		 # 	collision with: 2 4 0 0 0  and 4 4 0 0 0 
2051395		 # 	collision with: 5 3 0 0 0  and 5 5 0 0 0 
2051412		 # 	collision with: 0 4 6 0 0  and 1 4 6 0 0 
2051414		 # 	collision with: 8 5 1 0 0  and 10 9 0 1 0 
2051441		 # 	collision with: 0 4 0 0 0  and 2 4 0 0 0 
2051443		 # 	collision with: 5 4 3 0 0  and 5 5 3 0 0 
2051456		 # 	collision with: 0 4 5 0 0  and 1 4 5 0 0 
2051458		 # 	collision with: 1 4 1 0 0  and 6 4 0 1 0 
2051473		 # 	collision with: 1 4 0 0 0  and 2 4 0 0 0 
2051475		 # 	collision with: 1 2 3 0 0  and 1 2 5 0 0 
2051500		 # 	collision with: 0 4 9 0 0  and 1 4 9 0 0 
2051502		 # 	collision with: 8 6 1 0 0  and 2 2 0 1 0 
2051521		 # 	collision with: 4 4 0 0 0  and 6 4 0 0 0 
2051523		 # 	collision with: 6 6 3 0 0  and 6 6 5 0 0 
2051544		 # 	collision with: 0 4 1 0 0  and 1 4 1 0 0 
2051546		 # 	collision with: 6 3 1 0 0  and 4 5 0 1 0 
2051557		 # 	collision with: 3 4 0 0 0  and 4 4 0 0 0 
2051559		 # 	collision with: 5 0 2 0 0  and 5 2 2 0 0 
2051588		 # 	collision with: 0 4 7 0 0  and 1 4 7 0 0 
2051590		 # 	collision with: 1 8 2 0 0  and 2 2 1 1 0 
2051629		 # 	collision with: 0 4 0 0 0  and 1 4 0 0 0 
2051631		 # 	collision with: 5 4 1 0 0  and 5 5 1 0 0 
2051632		 # 	collision with: 0 4 3 0 0  and 1 4 3 0 0 
2051634		 # 	collision with: 3 9 2 0 0  and 8 8 1 1 0 
2051669		 # 	collision with: 2 4 0 0 0  and 3 4 0 0 0 
2051676		 # 	collision with: 4 6 4 2 0  and 8 2 0 0 1 
2051678		 # 	collision with: 4 0 9 0 0  and 0 1 0 1 0 
2051680		 # 	collision with: 6 0 7 0 0  and 8 1 7 0 0 
2051682		 # 	collision with: 5 0 7 0 0  and 5 1 7 0 0 
2051684		 # 	collision with: 3 0 9 0 0  and 4 1 9 0 0 
2051686		 # 	collision with: 4 0 9 0 0  and 0 1 0 1 0 
2051688		 # 	collision with: 2 0 6 0 0  and 10 1 6 0 0 
2051690		 # 	collision with: 4 0 9 0 0  and 0 1 0 1 0 
2051692		 # 	collision with: 7 0 10 0 0  and 2 1 10 0 0 
2051694		 # 	collision with: 4 0 9 0 0  and 0 1 0 1 0 
2051696		 # 	collision with: 10 0 8 0 0  and 6 1 8 0 0 
2051698		 # 	collision with: 5 0 8 0 0  and 5 1 8 0 0 
2051700		 # 	collision with: 1 0 3 0 0  and 5 1 3 0 0 
2051702		 # 	collision with: 4 0 9 0 0  and 0 1 0 1 0 
2051704		 # 	collision with: 4 0 1 0 0  and 9 1 1 0 0 
2051706		 # 	collision with: 4 0 9 0 0  and 0 1 0 1 0 
2051708		 # 	collision with: 9 0 5 0 0  and 1 1 5 0 0 
2051712		 # 	collision with: 8 0 2 0 0  and 7 1 2 0 0 
2051714		 # 	collision with: 4 0 9 0 0  and 0 1 0 1 0 
2051716		 # 	collision with: 0 4 0 0 0  and 1 4 0 0 0 
2051718		 # 	collision with: 4 0 9 0 0  and 0 1 0 1 0 
2051720		 # 	collision with: 0 4 7 0 0  and 1 4 7 0 0 
2051722		 # 	collision with: 10 3 9 0 0  and 3 1 0 1 0 
2051729		 # 	collision with: 0 3 0 0 0  and 5 4 0 0 0 
2051731		 # 	collision with: 2 4 3 0 0  and 2 4 4 0 0 
2051764		 # 	collision with: 0 4 9 0 0  and 1 4 9 0 0 
2051766		 # 	collision with: 2 5 10 0 0  and 3 0 1 1 0 
2051769		 # 	collision with: 1 4 0 0 0  and 2 4 0 0 0 
2051771		 # 	collision with: 5 9 3 0 0  and 5 1 4 0 0 
2051808		 # 	collision with: 0 4 6 0 0  and 1 4 6 0 0 
2051810		 # 	collision with: 10 0 10 0 0  and 7 5 1 1 0 
2051841		 # 	collision with: 3 4 0 0 0  and 5 4 0 0 0 
2051843		 # 	collision with: 10 1 3 0 0  and 10 1 4 0 0 
2051852		 # 	collision with: 0 4 10 0 0  and 1 4 10 0 0 
2051854		 # 	collision with: 5 7 9 0 0  and 9 4 0 1 0 
2051877		 # 	collision with: 2 4 0 0 0  and 3 4 0 0 0 
2051879		 # 	collision with: 5 3 0 0 0  and 5 4 0 0 0 
2051896		 # 	collision with: 0 4 8 0 0  and 1 4 8 0 0 
2051898		 # 	collision with: 8 7 10 0 0  and 8 7 1 1 0 
2051925		 # 	collision with: 0 4 0 0 0  and 1 4 0 0 0 
2051927		 # 	collision with: 5 3 3 0 0  and 5 5 3 0 0 
2051940		 # 	collision with: 0 4 3 0 0  and 1 4 3 0 0 
2051942		 # 	collision with: 4 3 9 0 0  and 0 6 0 1 0 
2051957		 # 	collision with: 0 4 0 0 0  and 2 4 0 0 0 
2051959		 # 	collision with: 1 2 3 0 0  and 1 2 4 0 0 
2051984		 # 	collision with: 0 4 1 0 0  and 1 4 1 0 0 
2051986		 # 	collision with: 8 0 0 0 0  and 6 3 2 1 0 
138.034secs	53573
