# prime 11
# degree 2
# input variables 3
# output variables 5
# reload computed balance functions from file balance-645of3248-p11d2m3-debug.log
# p = 11
# n = 5
# smalldomain p^m 1331
# domain p^n 161051
#	 p^2 = 121
#	 p^3 = 1331
#	 p^4 = 14641
#	 p^5 = 161051
#	 p^6 = 1771561
#	 p^7 = 19487171
#	 p^8 = 214358881
#	 p^9 = 2357947691
opening file : balance-645of3248-p11d2m3-debug.log
reloading for step2...
3870000		 # 	collision with: 10 0 4 0 0  and 10 1 4 0 0 
3870001		 # 	collision with: 10 0 0 0 0  and 10 2 0 0 0 
3870002		 # 	collision with: 7 3 4 0 0  and 2 0 2 1 0 
3870003		 # 	collision with: 6 10 0 0 0  and 6 10 2 0 0 
3870004		 # 	collision with: 7 0 5 0 0  and 7 1 5 0 0 
3870005		 # 	collision with: 7 0 0 0 0  and 7 2 0 0 0 
3870006		 # 	collision with: 4 7 8 0 0  and 5 1 0 1 0 
3870007		 # 	collision with: 6 7 0 0 0  and 6 7 2 0 0 
3870008		 # 	collision with: 2 0 3 0 0  and 2 1 3 0 0 
3870009		 # 	collision with: 2 0 0 0 0  and 2 2 0 0 0 
3870010		 # 	collision with: 1 9 8 0 0  and 8 0 0 1 0 
3870011		 # 	collision with: 6 2 0 0 0  and 6 2 2 0 0 
3870012		 # 	collision with: 3 0 10 0 0  and 3 1 10 0 0 
3870013		 # 	collision with: 3 0 0 0 0  and 3 2 0 0 0 
3870014		 # 	collision with: 8 2 8 0 0  and 1 0 0 1 0 
3870015		 # 	collision with: 6 3 0 0 0  and 6 3 2 0 0 
3870016		 # 	collision with: 6 0 9 0 0  and 6 1 9 0 0 
3870017		 # 	collision with: 6 0 0 0 0  and 6 2 0 0 0 
3870020		 # 	collision with: 9 10 8 0 0  and 9 9 0 1 0 
3870021		 # 	collision with: 3 0 0 0 0  and 3 1 2 0 0 
3870022		 # 	collision with: 9 3 8 0 0  and 2 1 0 1 0 
3870023		 # 	collision with: 9 1 0 1 0  and 7 2 0 1 0 
3870024		 # 	collision with: 5 0 2 0 0  and 5 1 2 0 0 
3870025		 # 	collision with: 5 0 0 0 0  and 5 2 0 0 0 
3870026		 # 	collision with: 9 1 9 0 0  and 8 7 2 1 0 
3870027		 # 	collision with: 1 5 0 0 0  and 1 5 2 0 0 
3870028		 # 	collision with: 8 0 1 0 0  and 8 1 1 0 0 
3870029		 # 	collision with: 8 0 0 0 0  and 8 2 0 0 0 
3870030		 # 	collision with: 9 7 8 0 0  and 6 3 0 1 0 
3870031		 # 	collision with: 1 8 0 0 0  and 1 8 2 0 0 
3870032		 # 	collision with: 9 0 8 0 0  and 9 1 8 0 0 
3870033		 # 	collision with: 9 0 0 0 0  and 9 2 0 0 0 
3870034		 # 	collision with: 9 1 8 0 0  and 2 10 0 1 0 
3870035		 # 	collision with: 1 9 0 0 0  and 1 9 2 0 0 
3870036		 # 	collision with: 4 0 6 0 0  and 4 1 6 0 0 
3870037		 # 	collision with: 4 0 0 0 0  and 4 2 0 0 0 
3870038		 # 	collision with: 9 7 8 0 0  and 0 6 0 1 0 
3870039		 # 	collision with: 1 4 0 0 0  and 1 4 2 0 0 
3870040		 # 	collision with: 1 0 7 0 0  and 1 1 7 0 0 
3870041		 # 	collision with: 1 6 0 0 0  and 1 7 0 0 0 
3870044		 # 	collision with: 10 0 4 0 0  and 10 1 4 0 0 
3870045		 # 	collision with: 10 0 0 0 0  and 10 2 0 0 0 
3870046		 # 	collision with: 9 5 6 0 0  and 0 4 1 1 0 
3870047		 # 	collision with: 1 10 0 0 0  and 1 10 2 0 0 
3870048		 # 	collision with: 7 0 5 0 0  and 7 1 5 0 0 
3870049		 # 	collision with: 7 0 0 0 0  and 7 2 0 0 0 
3870050		 # 	collision with: 9 6 8 0 0  and 8 1 0 1 0 
3870051		 # 	collision with: 1 7 0 0 0  and 1 7 2 0 0 
3870052		 # 	collision with: 2 0 3 0 0  and 2 1 3 0 0 
3870053		 # 	collision with: 2 0 0 0 0  and 2 2 0 0 0 
3870054		 # 	collision with: 9 9 5 0 0  and 2 7 1 1 0 
3870055		 # 	collision with: 1 2 0 0 0  and 1 2 2 0 0 
3870056		 # 	collision with: 3 0 10 0 0  and 3 1 10 0 0 
3870057		 # 	collision with: 3 0 0 0 0  and 3 2 0 0 0 
3870058		 # 	collision with: 9 8 8 0 0  and 8 3 0 1 0 
3870059		 # 	collision with: 1 3 0 0 0  and 1 3 2 0 0 
3870060		 # 	collision with: 6 0 9 0 0  and 6 1 9 0 0 
3870061		 # 	collision with: 6 0 0 0 0  and 6 2 0 0 0 
3870062		 # 	collision with: 9 7 4 0 0  and 5 9 1 1 0 
3870063		 # 	collision with: 1 6 0 0 0  and 1 6 2 0 0 
3870065		 # 	collision with: 6 10 7 4 0  and 2 0 0 0 2 
3870067		 # 	collision with: 9 10 9 1 0  and 7 0 0 2 0 
3870070		 # 	collision with: 7 2 5 0 0  and 8 7 0 1 0 
3870071		 # 	collision with: 2 0 4 0 0  and 0 1 0 2 0 
3870074		 # 	collision with: 3 1 5 0 0  and 4 6 0 1 0 
3870075		 # 	collision with: 2 10 8 1 0  and 0 0 0 2 0 
3870078		 # 	collision with: 9 8 5 0 0  and 10 2 0 1 0 
3870079		 # 	collision with: 2 0 4 0 0  and 0 1 0 2 0 
3870082		 # 	collision with: 1 6 5 0 0  and 2 0 0 1 0 
3870083		 # 	collision with: 2 0 4 0 0  and 0 1 0 2 0 
3870086		 # 	collision with: 5 7 5 0 0  and 6 1 0 1 0 
3870087		 # 	collision with: 2 0 4 0 0  and 0 1 0 2 0 
3870090		 # 	collision with: 4 4 5 0 0  and 5 9 0 1 0 
3870091		 # 	collision with: 7 10 4 0 0  and 5 0 0 2 0 
3870094		 # 	collision with: 8 5 5 0 0  and 9 10 0 1 0 
3870095		 # 	collision with: 2 0 4 0 0  and 0 1 0 2 0 
3870098		 # 	collision with: 0 3 5 0 0  and 1 8 0 1 0 
3870099		 # 	collision with: 2 0 4 0 0  and 0 1 0 2 0 
3870102		 # 	collision with: 6 10 5 0 0  and 7 4 0 1 0 
3870103		 # 	collision with: 2 0 4 0 0  and 0 1 0 2 0 
3870106		 # 	collision with: 2 9 5 0 0  and 3 3 0 1 0 
3870107		 # 	collision with: 2 0 4 0 0  and 0 1 0 2 0 
3870108		 # 	collision with: 1 8 5 0 0  and 1 7 0 1 0 
3870109		 # 	collision with: 7 3 0 0 0  and 7 0 1 0 0 
3870110		 # 	collision with: 5 7 5 0 0  and 3 8 0 1 0 
3870111		 # 	collision with: 10 5 3 0 0  and 5 2 0 1 0 
3870112		 # 	collision with: 5 0 1 0 0  and 5 1 1 0 0 
3870113		 # 	collision with: 5 0 0 0 0  and 5 1 0 0 0 
3870114		 # 	collision with: 10 5 0 1 0  and 10 5 1 1 0 
3870115		 # 	collision with: 10 5 0 0 0  and 10 5 1 0 0 
3870116		 # 	collision with: 8 0 6 0 0  and 8 1 6 0 0 
3870117		 # 	collision with: 8 0 0 0 0  and 8 1 0 0 0 
3870118		 # 	collision with: 8 5 4 0 0  and 10 4 1 1 0 
3870119		 # 	collision with: 10 8 0 0 0  and 10 8 1 0 0 
3870120		 # 	collision with: 9 0 4 0 0  and 9 1 4 0 0 
3870121		 # 	collision with: 9 0 0 0 0  and 9 1 0 0 0 
3870122		 # 	collision with: 7 5 5 0 0  and 4 1 0 1 0 
3870123		 # 	collision with: 10 9 0 0 0  and 10 9 1 0 0 
3870124		 # 	collision with: 4 0 3 0 0  and 4 1 3 0 0 
3870125		 # 	collision with: 4 0 0 0 0  and 4 1 0 0 0 
3870126		 # 	collision with: 4 3 2 0 0  and 8 1 1 1 0 
3870127		 # 	collision with: 10 4 0 0 0  and 10 4 1 0 0 
3870128		 # 	collision with: 1 0 9 0 0  and 1 1 9 0 0 
3870129		 # 	collision with: 1 5 0 0 0  and 1 7 0 0 0 
3870130		 # 	collision with: 4 9 1 0 0  and 8 7 1 1 0 
3870131		 # 	collision with: 10 1 0 0 0  and 10 1 1 0 0 
3870132		 # 	collision with: 10 0 2 0 0  and 10 1 2 0 0 
3870133		 # 	collision with: 10 0 0 0 0  and 10 1 0 0 0 
3870136		 # 	collision with: 7 0 8 0 0  and 7 1 8 0 0 
3870137		 # 	collision with: 7 0 0 0 0  and 7 1 0 0 0 
3870138		 # 	collision with: 2 8 10 0 0  and 7 0 1 1 0 
3870139		 # 	collision with: 10 7 0 0 0  and 10 7 1 0 0 
3870140		 # 	collision with: 2 0 7 0 0  and 2 1 7 0 0 
3870141		 # 	collision with: 2 0 0 0 0  and 2 1 0 0 0 
3870142		 # 	collision with: 3 7 9 0 0  and 2 2 1 1 0 
3870143		 # 	collision with: 10 2 0 0 0  and 10 2 1 0 0 
3870144		 # 	collision with: 3 0 5 0 0  and 3 1 5 0 0 
3870145		 # 	collision with: 3 0 0 0 0  and 3 1 0 0 0 
3870146		 # 	collision with: 8 7 8 0 0  and 10 6 1 1 0 
3870147		 # 	collision with: 10 3 0 0 0  and 10 3 1 0 0 
3870148		 # 	collision with: 6 0 10 0 0  and 6 1 10 0 0 
3870149		 # 	collision with: 6 0 0 0 0  and 6 1 0 0 0 
3870150		 # 	collision with: 8 8 7 0 0  and 10 7 1 1 0 
3870151		 # 	collision with: 10 6 0 0 0  and 10 6 1 0 0 
3870152		 # 	collision with: 6 10 5 0 0  and 6 9 0 1 0 
3870153		 # 	collision with: 5 9 0 0 0  and 5 0 1 0 0 
3870154		 # 	collision with: 4 2 6 0 0  and 9 5 1 1 0 
3870155		 # 	collision with: 6 0 3 0 0  and 2 2 0 1 0 
3870156		 # 	collision with: 5 0 1 0 0  and 5 1 1 0 0 
3870157		 # 	collision with: 5 0 0 0 0  and 5 1 0 0 0 
3870160		 # 	collision with: 8 0 6 0 0  and 8 1 6 0 0 
3870161		 # 	collision with: 8 0 0 0 0  and 8 1 0 0 0 
3870162		 # 	collision with: 3 6 4 0 0  and 5 5 1 1 0 
3870163		 # 	collision with: 5 8 0 0 0  and 5 8 1 0 0 
3870164		 # 	collision with: 9 0 4 0 0  and 9 1 4 0 0 
3870165		 # 	collision with: 9 0 0 0 0  and 9 1 0 0 0 
3870166		 # 	collision with: 0 1 5 0 0  and 4 10 0 1 0 
3870167		 # 	collision with: 5 9 0 0 0  and 5 9 1 0 0 
3870168		 # 	collision with: 4 0 3 0 0  and 4 1 3 0 0 
3870169		 # 	collision with: 4 0 0 0 0  and 4 1 0 0 0 
3870170		 # 	collision with: 3 4 10 0 0  and 5 3 2 1 0 
3870171		 # 	collision with: 5 4 0 0 0  and 5 4 1 0 0 
3870172		 # 	collision with: 1 0 9 0 0  and 1 1 9 0 0 
3870173		 # 	collision with: 1 5 0 0 0  and 1 7 0 0 0 
3870174		 # 	collision with: 8 3 1 0 0  and 3 0 1 1 0 
3870175		 # 	collision with: 5 1 0 0 0  and 5 1 1 0 0 
3870176		 # 	collision with: 10 0 2 0 0  and 10 1 2 0 0 
3870177		 # 	collision with: 10 0 0 0 0  and 10 1 0 0 0 
3870178		 # 	collision with: 9 10 5 0 0  and 7 0 0 1 0 
3870179		 # 	collision with: 5 10 0 0 0  and 5 10 1 0 0 
3870180		 # 	collision with: 7 0 8 0 0  and 7 1 8 0 0 
3870181		 # 	collision with: 7 0 0 0 0  and 7 1 0 0 0 
3870182		 # 	collision with: 5 0 5 0 0  and 2 7 0 1 0 
3870183		 # 	collision with: 5 7 0 0 0  and 5 7 1 0 0 
3870184		 # 	collision with: 2 0 7 0 0  and 2 1 7 0 0 
3870185		 # 	collision with: 2 0 0 0 0  and 2 1 0 0 0 
3870186		 # 	collision with: 2 2 5 0 0  and 1 8 0 1 0 
3870187		 # 	collision with: 5 2 0 0 0  and 5 2 1 0 0 
3870188		 # 	collision with: 3 0 5 0 0  and 3 1 5 0 0 
3870189		 # 	collision with: 3 0 0 0 0  and 3 1 0 0 0 
3870190		 # 	collision with: 0 9 5 0 0  and 4 7 0 1 0 
3870191		 # 	collision with: 5 3 0 0 0  and 5 3 1 0 0 
3870192		 # 	collision with: 6 0 10 0 0  and 6 1 10 0 0 
3870193		 # 	collision with: 6 0 0 0 0  and 6 1 0 0 0 
3870194		 # 	collision with: 7 0 0 0 0  and 10 4 3 1 0 
3870195		 # 	collision with: 5 6 0 0 0  and 5 6 1 0 0 
3870196		 # 	collision with: 4 7 5 0 0  and 4 6 0 1 0 
3870197		 # 	collision with: 6 3 0 0 0  and 6 0 1 0 0 
3870198		 # 	collision with: 5 3 5 0 0  and 7 2 0 1 0 
3870199		 # 	collision with: 10 5 3 0 0  and 8 6 0 1 0 
3870200		 # 	collision with: 5 0 1 0 0  and 5 1 1 0 0 
3870201		 # 	collision with: 5 0 0 0 0  and 5 1 0 0 0 
3870202		 # 	collision with: 7 5 0 1 0  and 7 5 1 1 0 
3870203		 # 	collision with: 7 5 0 0 0  and 7 5 1 0 0 
3870204		 # 	collision with: 8 0 6 0 0  and 8 1 6 0 0 
3870205		 # 	collision with: 8 0 0 0 0  and 8 1 0 0 0 
3870206		 # 	collision with: 2 9 5 0 0  and 9 0 0 1 0 
3870207		 # 	collision with: 7 8 0 0 0  and 7 8 1 0 0 
3870208		 # 	collision with: 9 0 4 0 0  and 9 1 4 0 0 
3870209		 # 	collision with: 9 0 0 0 0  and 9 1 0 0 0 
3870210		 # 	collision with: 2 9 1 0 0  and 9 0 2 1 0 
3870211		 # 	collision with: 7 9 0 0 0  and 7 9 1 0 0 
3870212		 # 	collision with: 4 0 3 0 0  and 4 1 3 0 0 
3870213		 # 	collision with: 4 0 0 0 0  and 4 1 0 0 0 
3870214		 # 	collision with: 0 2 5 0 0  and 3 6 0 1 0 
3870215		 # 	collision with: 7 4 0 0 0  and 7 4 1 0 0 
3870216		 # 	collision with: 1 0 9 0 0  and 1 1 9 0 0 
3870217		 # 	collision with: 1 5 0 0 0  and 1 7 0 0 0 
3870218		 # 	collision with: 6 10 5 0 0  and 10 8 0 1 0 
3870219		 # 	collision with: 7 1 0 0 0  and 7 1 1 0 0 
3870220		 # 	collision with: 10 0 2 0 0  and 10 1 2 0 0 
3870221		 # 	collision with: 10 0 0 0 0  and 10 1 0 0 0 
3870222		 # 	collision with: 2 6 5 0 0  and 9 8 0 1 0 
3870223		 # 	collision with: 7 10 0 0 0  and 7 10 1 0 0 
3870224		 # 	collision with: 7 0 8 0 0  and 7 1 8 0 0 
3870225		 # 	collision with: 7 0 0 0 0  and 7 1 0 0 0 
3870228		 # 	collision with: 2 0 7 0 0  and 2 1 7 0 0 
3870229		 # 	collision with: 2 0 0 0 0  and 2 1 0 0 0 
3870230		 # 	collision with: 1 0 2 0 0  and 6 3 2 1 0 
3870231		 # 	collision with: 7 2 0 0 0  and 7 2 1 0 0 
3870232		 # 	collision with: 3 0 5 0 0  and 3 1 5 0 0 
3870233		 # 	collision with: 3 0 0 0 0  and 3 1 0 0 0 
3870234		 # 	collision with: 1 7 0 0 0  and 6 10 2 1 0 
3870235		 # 	collision with: 7 3 0 0 0  and 7 3 1 0 0 
3870236		 # 	collision with: 6 0 10 0 0  and 6 1 10 0 0 
3870237		 # 	collision with: 6 0 0 0 0  and 6 1 0 0 0 
3870238		 # 	collision with: 5 4 7 0 0  and 7 3 1 1 0 
3870239		 # 	collision with: 7 6 0 0 0  and 7 6 1 0 0 
3870240		 # 	collision with: 3 0 5 0 0  and 3 10 0 1 0 
3870241		 # 	collision with: 8 9 0 0 0  and 8 0 1 0 0 
3870242		 # 	collision with: 10 9 5 0 0  and 0 3 0 1 0 
3870243		 # 	collision with: 1 5 3 0 0  and 9 1 0 1 0 
3870244		 # 	collision with: 5 0 1 0 0  and 5 1 1 0 0 
3870245		 # 	collision with: 5 0 0 0 0  and 5 1 0 0 0 
3870246		 # 	collision with: 2 5 5 0 0  and 5 9 0 1 0 
3870247		 # 	collision with: 8 5 0 0 0  and 8 5 1 0 0 
3870248		 # 	collision with: 8 0 6 0 0  and 8 1 6 0 0 
3870249		 # 	collision with: 8 0 0 0 0  and 8 1 0 0 0 
3870252		 # 	collision with: 9 0 4 0 0  and 9 1 4 0 0 
3870253		 # 	collision with: 9 0 0 0 0  and 9 1 0 0 0 
3870254		 # 	collision with: 7 0 5 0 0  and 6 6 0 1 0 
3870255		 # 	collision with: 8 9 0 0 0  and 8 9 1 0 0 
3870256		 # 	collision with: 4 0 3 0 0  and 4 1 3 0 0 
3870257		 # 	collision with: 4 0 0 0 0  and 4 1 0 0 0 
3870258		 # 	collision with: 4 0 2 0 0  and 1 7 1 1 0 
3870259		 # 	collision with: 8 4 0 0 0  and 8 4 1 0 0 
3870260		 # 	collision with: 1 0 9 0 0  and 1 1 9 0 0 
3870261		 # 	collision with: 1 5 0 0 0  and 1 7 0 0 0 
3870262		 # 	collision with: 3 8 1 0 0  and 3 8 1 1 0 
3870263		 # 	collision with: 8 1 0 0 0  and 8 1 1 0 0 
3870264		 # 	collision with: 10 0 2 0 0  and 10 1 2 0 0 
3870265		 # 	collision with: 10 0 0 0 0  and 10 1 0 0 0 
3870266		 # 	collision with: 1 7 5 0 0  and 7 4 0 1 0 
3870267		 # 	collision with: 8 10 0 0 0  and 8 10 1 0 0 
3870268		 # 	collision with: 7 0 8 0 0  and 7 1 8 0 0 
3870269		 # 	collision with: 7 0 0 0 0  and 7 1 0 0 0 
3870270		 # 	collision with: 9 7 3 0 0  and 2 5 4 1 0 
3870271		 # 	collision with: 8 7 0 0 0  and 8 7 1 0 0 
3870272		 # 	collision with: 2 0 7 0 0  and 2 1 7 0 0 
3870273		 # 	collision with: 2 0 0 0 0  and 2 1 0 0 0 
3870274		 # 	collision with: 2 9 5 0 0  and 5 2 0 1 0 
3870275		 # 	collision with: 8 2 0 0 0  and 8 2 1 0 0 
3870276		 # 	collision with: 3 0 5 0 0  and 3 1 5 0 0 
3870277		 # 	collision with: 3 0 0 0 0  and 3 1 0 0 0 
3870278		 # 	collision with: 9 3 8 0 0  and 2 1 1 1 0 
3870279		 # 	collision with: 8 3 0 0 0  and 8 3 1 0 0 
3870280		 # 	collision with: 6 0 10 0 0  and 6 1 10 0 0 
3870281		 # 	collision with: 6 0 0 0 0  and 6 1 0 0 0 
3870282		 # 	collision with: 8 2 7 0 0  and 4 4 1 1 0 
3870283		 # 	collision with: 8 6 0 0 0  and 8 6 1 0 0 
3870284		 # 	collision with: 9 9 5 0 0  and 9 8 0 1 0 
3870285		 # 	collision with: 2 9 0 0 0  and 2 0 1 0 0 
3870286		 # 	collision with: 6 9 5 0 0  and 3 5 0 1 0 
3870287		 # 	collision with: 3 9 3 0 0  and 6 2 0 1 0 
3870288		 # 	collision with: 5 0 1 0 0  and 5 1 1 0 0 
3870289		 # 	collision with: 5 0 0 0 0  and 5 1 0 0 0 
3870290		 # 	collision with: 0 2 5 0 0  and 2 1 0 1 0 
3870291		 # 	collision with: 2 5 0 0 0  and 2 5 1 0 0 
3870292		 # 	collision with: 8 0 6 0 0  and 8 1 6 0 0 
3870293		 # 	collision with: 8 0 0 0 0  and 8 1 0 0 0 
3870294		 # 	collision with: 3 0 1 0 0  and 8 3 4 1 0 
3870295		 # 	collision with: 2 8 0 0 0  and 2 8 1 0 0 
3870296		 # 	collision with: 9 0 4 0 0  and 9 1 4 0 0 
3870297		 # 	collision with: 9 0 0 0 0  and 9 1 0 0 0 
3870298		 # 	collision with: 10 10 6 0 0  and 0 4 5 1 0 
3870299		 # 	collision with: 2 9 0 0 0  and 2 9 1 0 0 
3870300		 # 	collision with: 4 0 3 0 0  and 4 1 3 0 0 
3870301		 # 	collision with: 4 0 0 0 0  and 4 1 0 0 0 
3870302		 # 	collision with: 5 3 5 0 0  and 1 5 0 1 0 
3870303		 # 	collision with: 2 4 0 0 0  and 2 4 1 0 0 
3870304		 # 	collision with: 1 0 9 0 0  and 1 1 9 0 0 
3870305		 # 	collision with: 1 5 0 0 0  and 1 7 0 0 0 
3870306		 # 	collision with: 10 10 5 0 0  and 0 4 0 1 0 
3870307		 # 	collision with: 2 1 0 0 0  and 2 1 1 0 0 
3870308		 # 	collision with: 10 0 2 0 0  and 10 1 2 0 0 
3870309		 # 	collision with: 10 0 0 0 0  and 10 1 0 0 0 
3870310		 # 	collision with: 6 7 5 0 0  and 3 3 0 1 0 
3870311		 # 	collision with: 2 10 0 0 0  and 2 10 1 0 0 
3870312		 # 	collision with: 7 0 8 0 0  and 7 1 8 0 0 
3870313		 # 	collision with: 7 0 0 0 0  and 7 1 0 0 0 
3870314		 # 	collision with: 8 8 10 0 0  and 7 3 1 1 0 
3870315		 # 	collision with: 2 7 0 0 0  and 2 7 1 0 0 
3870316		 # 	collision with: 2 0 7 0 0  and 2 1 7 0 0 
3870317		 # 	collision with: 2 0 0 0 0  and 2 1 0 0 0 
3870320		 # 	collision with: 3 0 5 0 0  and 3 1 5 0 0 
3870321		 # 	collision with: 3 0 0 0 0  and 3 1 0 0 0 
3870322		 # 	collision with: 1 6 5 0 0  and 4 10 0 1 0 
3870323		 # 	collision with: 2 3 0 0 0  and 2 3 1 0 0 
3870324		 # 	collision with: 6 0 10 0 0  and 6 1 10 0 0 
3870325		 # 	collision with: 6 0 0 0 0  and 6 1 0 0 0 
3870326		 # 	collision with: 0 0 5 0 0  and 2 10 0 1 0 
3870327		 # 	collision with: 2 6 0 0 0  and 2 6 1 0 0 
3870328		 # 	collision with: 2 4 5 0 0  and 2 3 0 1 0 
3870329		 # 	collision with: 3 3 0 0 0  and 3 0 1 0 0 
3870330		 # 	collision with: 6 0 5 0 0  and 1 8 0 1 0 
3870331		 # 	collision with: 9 6 3 0 0  and 6 2 0 1 0 
3870332		 # 	collision with: 5 0 1 0 0  and 5 1 1 0 0 
3870333		 # 	collision with: 5 0 0 0 0  and 5 1 0 0 0 
3870334		 # 	collision with: 9 5 0 1 0  and 9 5 1 1 0 
3870335		 # 	collision with: 9 5 0 0 0  and 9 5 1 0 0 
3870336		 # 	collision with: 8 0 6 0 0  and 8 1 6 0 0 
3870337		 # 	collision with: 8 0 0 0 0  and 8 1 0 0 0 
3870338		 # 	collision with: 0 7 5 0 0  and 8 3 0 1 0 
3870339		 # 	collision with: 9 8 0 0 0  and 9 8 1 0 0 
3870340		 # 	collision with: 9 0 4 0 0  and 9 1 4 0 0 
3870341		 # 	collision with: 9 0 0 0 0  and 9 1 0 0 0 
3870344		 # 	collision with: 4 0 3 0 0  and 4 1 3 0 0 
3870345		 # 	collision with: 4 0 0 0 0  and 4 1 0 0 0 
3870346		 # 	collision with: 10 10 10 0 0  and 0 4 2 1 0 
3870347		 # 	collision with: 9 4 0 0 0  and 9 4 1 0 0 
3870348		 # 	collision with: 1 0 9 0 0  and 1 1 9 0 0 
3870349		 # 	collision with: 1 5 0 0 0  and 1 7 0 0 0 
3870350		 # 	collision with: 5 7 5 0 0  and 4 2 0 1 0 
3870351		 # 	collision with: 9 1 0 0 0  and 9 1 1 0 0 
3870352		 # 	collision with: 10 0 2 0 0  and 10 1 2 0 0 
3870353		 # 	collision with: 10 0 0 0 0  and 10 1 0 0 0 
3870354		 # 	collision with: 9 4 5 0 0  and 3 7 0 1 0 
3870355		 # 	collision with: 9 10 0 0 0  and 9 10 1 0 0 
3870356		 # 	collision with: 7 0 8 0 0  and 7 1 8 0 0 
3870357		 # 	collision with: 7 0 0 0 0  and 7 1 0 0 0 
3870358		 # 	collision with: 6 5 10 0 0  and 1 2 1 1 0 
3870359		 # 	collision with: 9 7 0 0 0  and 9 7 1 0 0 
3870360		 # 	collision with: 2 0 7 0 0  and 2 1 7 0 0 
3870361		 # 	collision with: 2 0 0 0 0  and 2 1 0 0 0 
3870362		 # 	collision with: 10 7 5 0 0  and 0 1 0 1 0 
3870363		 # 	collision with: 9 2 0 0 0  and 9 2 1 0 0 
3870364		 # 	collision with: 3 0 5 0 0  and 3 1 5 0 0 
3870365		 # 	collision with: 3 0 0 0 0  and 3 1 0 0 0 
3870366		 # 	collision with: 9 5 5 0 0  and 3 8 0 1 0 
3870367		 # 	collision with: 9 3 0 0 0  and 9 3 1 0 0 
3870368		 # 	collision with: 6 0 10 0 0  and 6 1 10 0 0 
3870369		 # 	collision with: 6 0 0 0 0  and 6 1 0 0 0 
3870370		 # 	collision with: 6 6 5 0 0  and 1 3 0 1 0 
3870371		 # 	collision with: 9 6 0 0 0  and 9 6 1 0 0 
3870372		 # 	collision with: 8 2 5 0 0  and 8 1 0 1 0 
3870373		 # 	collision with: 1 3 0 0 0  and 1 0 1 0 0 
3870374		 # 	collision with: 0 4 5 0 0  and 7 6 0 1 0 
3870375		 # 	collision with: 1 4 3 0 0  and 7 1 0 1 0 
3870376		 # 	collision with: 5 0 1 0 0  and 5 1 1 0 0 
3870377		 # 	collision with: 5 0 0 0 0  and 5 1 0 0 0 
3870378		 # 	collision with: 5 4 5 0 0  and 9 2 0 1 0 
3870379		 # 	collision with: 3 5 0 0 0  and 3 5 1 0 0 
3870380		 # 	collision with: 8 0 6 0 0  and 8 1 6 0 0 
3870381		 # 	collision with: 8 0 0 0 0  and 8 1 0 0 0 
3870382		 # 	collision with: 0 9 5 0 0  and 7 0 0 1 0 
3870383		 # 	collision with: 3 8 0 0 0  and 3 8 1 0 0 
3870384		 # 	collision with: 9 0 4 0 0  and 9 1 4 0 0 
3870385		 # 	collision with: 9 0 0 0 0  and 9 1 0 0 0 
3870386		 # 	collision with: 1 6 1 0 0  and 3 5 2 1 0 
3870387		 # 	collision with: 3 9 0 0 0  and 3 9 1 0 0 
3870388		 # 	collision with: 4 0 3 0 0  and 4 1 3 0 0 
3870389		 # 	collision with: 4 0 0 0 0  and 4 1 0 0 0 
3870390		 # 	collision with: 0 10 7 0 0  and 7 1 3 1 0 
3870391		 # 	collision with: 3 4 0 0 0  and 3 4 1 0 0 
3870392		 # 	collision with: 1 0 9 0 0  and 1 1 9 0 0 
3870393		 # 	collision with: 1 5 0 0 0  and 1 7 0 0 0 
3870394		 # 	collision with: 10 8 5 0 0  and 0 2 0 1 0 
3870395		 # 	collision with: 3 1 0 0 0  and 3 1 1 0 0 
3870396		 # 	collision with: 10 0 2 0 0  and 10 1 2 0 0 
3870397		 # 	collision with: 10 0 0 0 0  and 10 1 0 0 0 
3870398		 # 	collision with: 9 6 1 0 0  and 4 3 3 1 0 
3870399		 # 	collision with: 3 10 0 0 0  and 3 10 1 0 0 
3870400		 # 	collision with: 7 0 8 0 0  and 7 1 8 0 0 
3870401		 # 	collision with: 7 0 0 0 0  and 7 1 0 0 0 
3870402		 # 	collision with: 5 6 5 0 0  and 9 4 0 1 0 
3870403		 # 	collision with: 3 7 0 0 0  and 3 7 1 0 0 
3870404		 # 	collision with: 2 0 7 0 0  and 2 1 7 0 0 
3870405		 # 	collision with: 2 0 0 0 0  and 2 1 0 0 0 
3870406		 # 	collision with: 7 10 5 0 0  and 1 2 0 1 0 
3870407		 # 	collision with: 3 2 0 0 0  and 3 2 1 0 0 
3870408		 # 	collision with: 3 0 5 0 0  and 3 1 5 0 0 
3870409		 # 	collision with: 3 0 0 0 0  and 3 1 0 0 0 
3870412		 # 	collision with: 6 0 10 0 0  and 6 1 10 0 0 
3870413		 # 	collision with: 6 0 0 0 0  and 6 1 0 0 0 
3870414		 # 	collision with: 6 7 4 0 0  and 5 2 5 1 0 
3870415		 # 	collision with: 3 6 0 0 0  and 3 6 1 0 0 
3870416		 # 	collision with: 7 6 5 0 0  and 7 5 0 1 0 
3870417		 # 	collision with: 4 9 0 0 0  and 4 0 1 0 0 
3870418		 # 	collision with: 8 4 5 0 0  and 1 2 0 1 0 
3870419		 # 	collision with: 8 10 9 0 0  and 7 5 1 1 0 
3870420		 # 	collision with: 5 0 1 0 0  and 5 1 1 0 0 
3870421		 # 	collision with: 5 0 0 0 0  and 5 1 0 0 0 
3870422		 # 	collision with: 4 5 0 1 0  and 4 5 1 1 0 
3870423		 # 	collision with: 4 5 0 0 0  and 4 5 1 0 0 
3870424		 # 	collision with: 8 0 6 0 0  and 8 1 6 0 0 
3870425		 # 	collision with: 8 0 0 0 0  and 8 1 0 0 0 
3870426		 # 	collision with: 8 6 5 0 0  and 1 4 0 1 0 
3870427		 # 	collision with: 4 8 0 0 0  and 4 8 1 0 0 
3870428		 # 	collision with: 9 0 4 0 0  and 9 1 4 0 0 
3870429		 # 	collision with: 9 0 0 0 0  and 9 1 0 0 0 
3870430		 # 	collision with: 5 2 3 0 0  and 8 6 1 1 0 
3870431		 # 	collision with: 4 9 0 0 0  and 4 9 1 0 0 
3870432		 # 	collision with: 4 0 3 0 0  and 4 1 3 0 0 
3870433		 # 	collision with: 4 0 0 0 0  and 4 1 0 0 0 
3870436		 # 	collision with: 1 0 9 0 0  and 1 1 9 0 0 
3870437		 # 	collision with: 1 5 0 0 0  and 1 7 0 0 0 
3870438		 # 	collision with: 7 4 1 0 0  and 7 4 1 1 0 
3870439		 # 	collision with: 4 1 0 0 0  and 4 1 1 0 0 
3870440		 # 	collision with: 10 0 2 0 0  and 10 1 2 0 0 
3870441		 # 	collision with: 10 0 0 0 0  and 10 1 0 0 0 
3870442		 # 	collision with: 1 1 5 0 0  and 10 2 0 1 0 
3870443		 # 	collision with: 4 10 0 0 0  and 4 10 1 0 0 
3870444		 # 	collision with: 7 0 8 0 0  and 7 1 8 0 0 
3870445		 # 	collision with: 7 0 0 0 0  and 7 1 0 0 0 
3870446		 # 	collision with: 9 4 5 0 0  and 6 0 0 1 0 
3870447		 # 	collision with: 4 7 0 0 0  and 4 7 1 0 0 
3870448		 # 	collision with: 2 0 7 0 0  and 2 1 7 0 0 
3870449		 # 	collision with: 2 0 0 0 0  and 2 1 0 0 0 
3870450		 # 	collision with: 2 3 5 0 0  and 4 2 0 1 0 
3870451		 # 	collision with: 4 2 0 0 0  and 4 2 1 0 0 
3870452		 # 	collision with: 3 0 5 0 0  and 3 1 5 0 0 
3870453		 # 	collision with: 3 0 0 0 0  and 3 1 0 0 0 
3870454		 # 	collision with: 9 5 5 0 0  and 6 1 0 1 0 
3870455		 # 	collision with: 4 3 0 0 0  and 4 3 1 0 0 
3870456		 # 	collision with: 6 0 10 0 0  and 6 1 10 0 0 
3870457		 # 	collision with: 6 0 0 0 0  and 6 1 0 0 0 
3870458		 # 	collision with: 0 2 7 0 0  and 5 5 1 1 0 
3870459		 # 	collision with: 4 6 0 0 0  and 4 6 1 0 0 
3870460		 # 	collision with: 5 3 5 0 0  and 5 2 0 1 0 
3870461		 # 	collision with: 2 3 0 0 0  and 2 0 1 0 0 
3870462		 # 	collision with: 8 3 5 0 0  and 2 6 0 1 0 
3870463		 # 	collision with: 5 4 9 0 0  and 6 9 0 1 0 
3870464		 # 	collision with: 5 0 1 0 0  and 5 1 1 0 0 
3870465		 # 	collision with: 5 0 0 0 0  and 5 1 0 0 0 
3870466		 # 	collision with: 0 7 5 0 0  and 10 2 1 1 0 
3870467		 # 	collision with: 6 5 0 0 0  and 6 5 1 0 0 
3870468		 # 	collision with: 8 0 6 0 0  and 8 1 6 0 0 
3870469		 # 	collision with: 8 0 0 0 0  and 8 1 0 0 0 
3870470		 # 	collision with: 9 3 5 0 0  and 1 7 0 1 0 
3870471		 # 	collision with: 6 8 0 0 0  and 6 8 1 0 0 
3870472		 # 	collision with: 9 0 4 0 0  and 9 1 4 0 0 
3870473		 # 	collision with: 9 0 0 0 0  and 9 1 0 0 0 
3870474		 # 	collision with: 8 1 5 0 0  and 2 4 0 1 0 
3870475		 # 	collision with: 6 9 0 0 0  and 6 9 1 0 0 
3870476		 # 	collision with: 4 0 3 0 0  and 4 1 3 0 0 
3870477		 # 	collision with: 4 0 0 0 0  and 4 1 0 0 0 
3870478		 # 	collision with: 10 2 5 0 0  and 0 7 0 1 0 
3870479		 # 	collision with: 6 4 0 0 0  and 6 4 1 0 0 
3870480		 # 	collision with: 1 0 9 0 0  and 1 1 9 0 0 
3870481		 # 	collision with: 1 5 0 0 0  and 1 7 0 0 0 
3870482		 # 	collision with: 4 8 5 0 0  and 6 7 0 1 0 
3870483		 # 	collision with: 6 1 0 0 0  and 6 1 1 0 0 
3870484		 # 	collision with: 10 0 2 0 0  and 10 1 2 0 0 
3870485		 # 	collision with: 10 0 0 0 0  and 10 1 0 0 0 
3870486		 # 	collision with: 6 10 5 0 0  and 4 0 0 1 0 
3870487		 # 	collision with: 6 10 0 0 0  and 6 10 1 0 0 
3870488		 # 	collision with: 7 0 8 0 0  and 7 1 8 0 0 
3870489		 # 	collision with: 7 0 0 0 0  and 7 1 0 0 0 
3870490		 # 	collision with: 1 4 5 0 0  and 9 0 0 1 0 
3870491		 # 	collision with: 6 7 0 0 0  and 6 7 1 0 0 
3870492		 # 	collision with: 2 0 7 0 0  and 2 1 7 0 0 
3870493		 # 	collision with: 2 0 0 0 0  and 2 1 0 0 0 
3870494		 # 	collision with: 4 2 5 0 0  and 6 1 0 1 0 
3870495		 # 	collision with: 6 2 0 0 0  and 6 2 1 0 0 
3870496		 # 	collision with: 3 0 5 0 0  and 3 1 5 0 0 
3870497		 # 	collision with: 3 0 0 0 0  and 3 1 0 0 0 
3870498		 # 	collision with: 1 9 5 0 0  and 9 5 0 1 0 
3870499		 # 	collision with: 6 3 0 0 0  and 6 3 1 0 0 
3870500		 # 	collision with: 6 0 10 0 0  and 6 1 10 0 0 
3870501		 # 	collision with: 6 0 0 0 0  and 6 1 0 0 0 
3870504		 # 	collision with: 10 5 5 0 0  and 10 4 0 1 0 
3870505		 # 	collision with: 1 9 0 0 0  and 1 0 1 0 0 
3870506		 # 	collision with: 10 7 5 0 0  and 2 0 0 1 0 
3870507		 # 	collision with: 4 0 0 1 0  and 0 2 0 1 0 
3870508		 # 	collision with: 5 0 1 0 0  and 5 1 1 0 0 
3870509		 # 	collision with: 5 0 0 0 0  and 5 1 0 0 0 
3870510		 # 	collision with: 1 8 0 1 0  and 6 0 1 1 0 
3870511		 # 	collision with: 1 5 0 0 0  and 1 5 1 0 0 
3870512		 # 	collision with: 8 0 6 0 0  and 8 1 6 0 0 
3870513		 # 	collision with: 8 0 0 0 0  and 8 1 0 0 0 
3870514		 # 	collision with: 10 1 5 0 0  and 6 3 0 1 0 
3870515		 # 	collision with: 1 8 0 0 0  and 1 8 1 0 0 
3870516		 # 	collision with: 9 0 4 0 0  and 9 1 4 0 0 
3870517		 # 	collision with: 9 0 0 0 0  and 9 1 0 0 0 
3870518		 # 	collision with: 10 1 5 0 0  and 0 6 0 1 0 
3870519		 # 	collision with: 1 9 0 0 0  and 1 9 1 0 0 
3870520		 # 	collision with: 4 0 3 0 0  and 4 1 3 0 0 
3870521		 # 	collision with: 4 0 0 0 0  and 4 1 0 0 0 
3870522		 # 	collision with: 10 8 2 0 0  and 9 3 1 1 0 
3870523		 # 	collision with: 1 4 0 0 0  and 1 4 1 0 0 
3870524		 # 	collision with: 1 0 9 0 0  and 1 1 9 0 0 
3870525		 # 	collision with: 1 5 0 0 0  and 1 7 0 0 0 
3870528		 # 	collision with: 10 0 2 0 0  and 10 1 2 0 0 
3870529		 # 	collision with: 10 0 0 0 0  and 10 1 0 0 0 
3870530		 # 	collision with: 10 8 6 0 0  and 5 5 2 1 0 
3870531		 # 	collision with: 1 10 0 0 0  and 1 10 1 0 0 
3870532		 # 	collision with: 7 0 8 0 0  and 7 1 8 0 0 
3870533		 # 	collision with: 7 0 0 0 0  and 7 1 0 0 0 
3870534		 # 	collision with: 10 3 4 0 0  and 8 4 2 1 0 
3870535		 # 	collision with: 1 7 0 0 0  and 1 7 1 0 0 
3870536		 # 	collision with: 2 0 7 0 0  and 2 1 7 0 0 
3870537		 # 	collision with: 2 0 0 0 0  and 2 1 0 0 0 
3870538		 # 	collision with: 10 4 9 0 0  and 3 2 1 1 0 
3870539		 # 	collision with: 1 2 0 0 0  and 1 2 1 0 0 
3870540		 # 	collision with: 3 0 5 0 0  and 3 1 5 0 0 
3870541		 # 	collision with: 3 0 0 0 0  and 3 1 0 0 0 
3870542		 # 	collision with: 10 10 5 0 0  and 4 2 0 1 0 
3870543		 # 	collision with: 1 3 0 0 0  and 1 3 1 0 0 
3870544		 # 	collision with: 6 0 10 0 0  and 6 1 10 0 0 
3870545		 # 	collision with: 6 0 0 0 0  and 6 1 0 0 0 
3870546		 # 	collision with: 10 1 5 0 0  and 2 5 0 1 0 
3870547		 # 	collision with: 1 6 0 0 0  and 1 6 1 0 0 
3870550		 # 	collision with: 7 8 9 10 0  and 0 0 0 2 1 
3870551		 # 	collision with: 5 0 0 0 0  and 4 4 2 1 0 
3870554		 # 	collision with: 8 6 1 9 0  and 1 0 0 0 1 
3870555		 # 	collision with: 6 5 7 0 0  and 5 0 4 1 0 
3870557		 # 	collision with: 2 3 0 0 0  and 3 3 0 0 0 
3870558		 # 	collision with: 8 7 6 9 0  and 1 0 0 0 1 
3870559		 # 	collision with: 6 4 9 0 0  and 5 10 2 1 0 
3870562		 # 	collision with: 0 8 9 1 0  and 4 0 0 0 1 
3870563		 # 	collision with: 7 10 0 0 0  and 6 7 1 1 0 
3870566		 # 	collision with: 7 8 5 5 0  and 0 0 0 0 1 
3870567		 # 	collision with: 4 5 1 0 0  and 3 7 1 1 0 
3870570		 # 	collision with: 8 1 1 10 0  and 1 2 0 0 1 
3870571		 # 	collision with: 10 0 3 0 0  and 9 3 3 1 0 
3870574		 # 	collision with: 5 2 1 3 0  and 9 0 0 0 1 
3870575		 # 	collision with: 10 9 6 0 0  and 9 1 1 1 0 
3870578		 # 	collision with: 9 5 4 7 0  and 2 0 0 0 1 
3870579		 # 	collision with: 7 10 9 0 0  and 6 7 1 1 0 
3870582		 # 	collision with: 3 10 7 9 0  and 7 0 0 0 1 
3870583		 # 	collision with: 6 8 4 0 0  and 5 3 1 1 0 
3870585		 # 	collision with: 3 5 0 0 0  and 3 6 0 0 0 
3870586		 # 	collision with: 9 10 1 2 0  and 2 1 0 0 1 
3870587		 # 	collision with: 8 1 9 0 0  and 7 0 4 1 0 
3870590		 # 	collision with: 0 3 6 1 0  and 4 0 0 0 1 
3870591		 # 	collision with: 0 5 8 0 0  and 10 10 2 1 0 
3871032		 # 	collision with: 10 9 8 7 0  and 2 0 0 0 1 
3871034		 # 	collision with: 4 9 7 0 0  and 3 0 0 1 0 
3871035		 # 	collision with: 4 9 6 0 0  and 2 0 1 1 0 
3871038		 # 	collision with: 3 2 9 0 0  and 2 2 1 1 0 
3871039		 # 	collision with: 5 10 10 0 0  and 3 5 3 1 0 
3871041		 # 	collision with: 3 4 0 0 0  and 3 6 0 0 0 
3871042		 # 	collision with: 4 3 2 0 0  and 3 5 2 1 0 
3871043		 # 	collision with: 3 3 10 0 0  and 1 1 1 1 0 
3871046		 # 	collision with: 9 1 7 0 0  and 8 2 0 1 0 
3871047		 # 	collision with: 6 3 5 0 0  and 4 2 2 1 0 
3871050		 # 	collision with: 7 1 7 0 0  and 6 9 0 1 0 
3871051		 # 	collision with: 2 7 9 0 0  and 0 1 1 1 0 
3871054		 # 	collision with: 5 1 2 0 0  and 4 5 1 1 0 
3871055		 # 	collision with: 2 7 7 0 0  and 0 1 2 1 0 
3871058		 # 	collision with: 4 0 7 0 0  and 3 2 0 1 0 
3871059		 # 	collision with: 2 9 3 0 0  and 0 3 5 1 0 
3871062		 # 	collision with: 6 6 4 0 0  and 5 1 1 1 0 
3871063		 # 	collision with: 1 3 10 0 0  and 10 4 4 1 0 
3871066		 # 	collision with: 10 9 5 0 0  and 9 1 1 1 0 
3871067		 # 	collision with: 7 7 8 0 0  and 5 10 1 1 0 
3871069		 # 	collision with: 2 3 0 0 0  and 3 3 0 0 0 
3871070		 # 	collision with: 6 6 7 0 0  and 5 1 0 1 0 
3871071		 # 	collision with: 7 0 6 0 0  and 5 3 2 1 0 
3871074		 # 	collision with: 1 4 7 0 0  and 0 0 0 1 0 
3871075		 # 	collision with: 4 9 10 0 0  and 2 0 2 1 0 
3871516		 # 	collision with: 8 2 4 9 0  and 5 0 0 0 1 
3871518		 # 	collision with: 1 3 9 0 0  and 10 4 0 1 0 
3871519		 # 	collision with: 7 4 10 0 0  and 4 0 1 1 0 
3871522		 # 	collision with: 6 4 5 0 0  and 4 3 1 1 0 
3871523		 # 	collision with: 1 9 9 0 0  and 9 2 1 1 0 
3871525		 # 	collision with: 2 2 0 0 0  and 3 2 0 0 0 
3871526		 # 	collision with: 8 8 9 0 0  and 6 4 0 1 0 
3871527		 # 	collision with: 3 1 2 0 0  and 0 6 2 1 0 
3871530		 # 	collision with: 2 6 9 0 0  and 0 0 0 1 0 
3871531		 # 	collision with: 5 7 4 0 0  and 2 2 1 1 0 
3871534		 # 	collision with: 3 2 1 0 0  and 1 0 1 1 0 
3871535		 # 	collision with: 7 6 1 0 0  and 4 2 1 1 0 
3871538		 # 	collision with: 1 0 9 0 0  and 10 1 0 1 0 
3871539		 # 	collision with: 4 8 3 0 0  and 1 8 1 1 0 
3871542		 # 	collision with: 9 6 2 0 0  and 7 6 1 1 0 
3871543		 # 	collision with: 1 7 0 0 0  and 9 0 4 1 0 
3871546		 # 	collision with: 8 5 8 0 0  and 6 1 1 1 0 
3871547		 # 	collision with: 5 5 10 0 0  and 2 0 3 1 0 
3871550		 # 	collision with: 10 1 9 0 0  and 8 5 0 1 0 
3871551		 # 	collision with: 9 6 4 0 0  and 6 3 3 1 0 
3871553		 # 	collision with: 2 4 0 0 0  and 2 5 0 0 0 
3871554		 # 	collision with: 6 10 9 0 0  and 4 9 1 1 0 
3871555		 # 	collision with: 0 9 2 0 0  and 8 7 1 1 0 
3871558		 # 	collision with: 8 6 9 0 0  and 6 2 0 1 0 
3871559		 # 	collision with: 2 6 4 0 0  and 10 5 2 1 0 
3872000		 # 	collision with: 9 10 9 6 0  and 0 0 0 0 1 
3872002		 # 	collision with: 0 8 6 0 0  and 8 6 0 1 0 
3872003		 # 	collision with: 3 8 3 0 0  and 10 7 0 1 0 
3872006		 # 	collision with: 2 7 10 0 0  and 10 6 3 1 0 
3872007		 # 	collision with: 3 1 3 0 0  and 10 0 0 1 0 
3872009		 # 	collision with: 3 3 0 0 0  and 2 5 0 0 0 
3872010		 # 	collision with: 0 0 6 0 0  and 8 9 0 1 0 
3872011		 # 	collision with: 8 0 5 0 0  and 4 6 0 1 0 
3872014		 # 	collision with: 1 1 6 0 0  and 9 5 0 1 0 
3872015		 # 	collision with: 1 6 5 0 0  and 8 0 0 1 0 
3872018		 # 	collision with: 10 6 1 0 0  and 7 9 1 1 0 
3872019		 # 	collision with: 6 7 5 0 0  and 2 8 0 1 0 
3872022		 # 	collision with: 5 0 4 0 0  and 2 6 2 1 0 
3872023		 # 	collision with: 1 5 3 0 0  and 8 10 0 1 0 
3872026		 # 	collision with: 0 5 9 0 0  and 8 3 1 1 0 
3872027		 # 	collision with: 0 8 4 0 0  and 7 5 1 1 0 
3872030		 # 	collision with: 9 4 2 0 0  and 6 1 1 1 0 
3872031		 # 	collision with: 10 5 5 0 0  and 6 5 1 1 0 
3872034		 # 	collision with: 3 7 6 0 0  and 0 1 3 1 0 
3872035		 # 	collision with: 2 0 5 0 0  and 9 2 0 1 0 
3872037		 # 	collision with: 2 4 0 0 0  and 3 4 0 0 0 
3872038		 # 	collision with: 5 2 10 0 0  and 2 8 1 1 0 
3872039		 # 	collision with: 6 0 3 0 0  and 2 1 0 1 0 
3872042		 # 	collision with: 1 8 6 0 0  and 9 1 0 1 0 
3872043		 # 	collision with: 1 9 5 0 0  and 8 3 0 1 0 
3872484		 # 	collision with: 5 1 4 10 0  and 4 0 0 0 1 
3872486		 # 	collision with: 5 1 10 0 0  and 1 5 0 1 0 
3872487		 # 	collision with: 8 1 9 0 0  and 3 9 0 1 0 
3872490		 # 	collision with: 4 10 10 0 0  and 0 6 0 1 0 
3872491		 # 	collision with: 9 7 9 0 0  and 4 3 0 1 0 
3872493		 # 	collision with: 2 1 0 0 0  and 3 1 0 0 0 
3872494		 # 	collision with: 5 0 10 0 0  and 1 4 0 1 0 
3872495		 # 	collision with: 9 9 2 0 0  and 4 5 3 1 0 
3872498		 # 	collision with: 4 5 9 0 0  and 0 1 1 1 0 
3872499		 # 	collision with: 5 4 9 0 0  and 0 4 4 1 0 
3872502		 # 	collision with: 5 5 1 0 0  and 1 9 1 1 0 
3872503		 # 	collision with: 9 5 1 0 0  and 4 1 1 1 0 
3872506		 # 	collision with: 1 6 4 0 0  and 8 0 1 1 0 
3872507		 # 	collision with: 1 2 9 0 0  and 7 6 0 1 0 
3872510		 # 	collision with: 8 7 7 0 0  and 4 2 1 1 0 
3872511		 # 	collision with: 2 2 9 0 0  and 8 5 0 1 0 
3872514		 # 	collision with: 7 8 10 0 0  and 3 6 2 1 0 
3872515		 # 	collision with: 2 4 9 0 0  and 8 7 0 1 0 
3872518		 # 	collision with: 5 10 5 0 0  and 1 3 2 1 0 
3872519		 # 	collision with: 9 3 9 0 0  and 4 10 0 1 0 
3872521		 # 	collision with: 1 3 0 0 0  and 1 4 0 0 0 
3872522		 # 	collision with: 4 7 0 0 0  and 0 3 2 1 0 
3872523		 # 	collision with: 8 5 9 0 0  and 3 2 0 1 0 
3872526		 # 	collision with: 8 6 8 0 0  and 4 1 1 1 0 
3872527		 # 	collision with: 10 3 9 0 0  and 5 9 0 1 0 
3872968		 # 	collision with: 5 3 4 8 0  and 6 0 0 0 1 
3872970		 # 	collision with: 7 9 8 0 0  and 2 7 0 1 0 
3872971		 # 	collision with: 2 4 8 7 0  and 7 0 0 1 1 
3872974		 # 	collision with: 2 2 7 0 0  and 8 5 1 1 0 
3872975		 # 	collision with: 10 3 7 0 0  and 4 2 0 1 0 
3872977		 # 	collision with: 5 2 0 0 0  and 5 4 0 0 0 
3872978		 # 	collision with: 8 10 8 0 0  and 3 7 0 1 0 
3872979		 # 	collision with: 4 2 7 0 0  and 9 6 0 1 0 
3872982		 # 	collision with: 8 3 8 0 0  and 3 0 0 1 0 
3872983		 # 	collision with: 3 4 10 0 0  and 8 7 0 1 0 
3872986		 # 	collision with: 2 8 8 0 0  and 8 0 0 1 0 
3872987		 # 	collision with: 8 3 7 0 0  and 2 0 0 1 0 
3872990		 # 	collision with: 9 8 8 0 0  and 4 4 0 1 0 
3872991		 # 	collision with: 7 6 7 0 0  and 1 2 0 1 0 
3872994		 # 	collision with: 1 8 8 0 0  and 7 1 1 1 0 
3872995		 # 	collision with: 8 1 10 0 0  and 2 9 0 1 0 
3872998		 # 	collision with: 10 7 8 0 0  and 5 2 0 1 0 
3872999		 # 	collision with: 5 8 7 0 0  and 10 2 0 1 0 
3873002		 # 	collision with: 8 8 3 0 0  and 3 5 4 1 0 
3873003		 # 	collision with: 10 1 0 0 0  and 4 0 3 1 0 
3873006		 # 	collision with: 6 10 8 0 0  and 1 9 0 1 0 
3873007		 # 	collision with: 6 6 7 0 0  and 0 1 0 1 0 
3873010		 # 	collision with: 10 10 7 0 0  and 5 5 7 1 0 
3873011		 # 	collision with: 7 5 7 0 0  and 1 1 0 1 0 
3873452		 # 	collision with: 8 8 1 3 0  and 1 0 0 0 1 
3873454		 # 	collision with: 8 3 3 0 0  and 2 0 0 1 0 
3873455		 # 	collision with: 3 3 4 0 0  and 7 5 0 1 0 
3873458		 # 	collision with: 7 8 6 0 0  and 1 4 1 1 0 
3873459		 # 	collision with: 9 6 1 0 0  and 2 4 0 1 0 
3873462		 # 	collision with: 6 9 3 0 0  and 0 4 0 1 0 
3873463		 # 	collision with: 8 0 1 0 0  and 1 6 0 1 0 
3873466		 # 	collision with: 4 1 3 0 0  and 9 5 0 1 0 
3873467		 # 	collision with: 8 4 4 0 0  and 1 10 0 1 0 
3873470		 # 	collision with: 0 0 10 0 0  and 5 0 2 1 0 
3873471		 # 	collision with: 0 7 4 0 0  and 4 0 0 1 0 
3873474		 # 	collision with: 6 8 3 0 0  and 0 3 1 1 0 
3873475		 # 	collision with: 2 7 4 0 0  and 6 6 0 1 0 
3873478		 # 	collision with: 7 3 4 0 0  and 1 10 6 1 0 
3873479		 # 	collision with: 9 5 4 0 0  and 2 3 0 1 0 
3873482		 # 	collision with: 3 8 3 0 0  and 8 0 0 1 0 
3873483		 # 	collision with: 7 10 1 0 0  and 0 2 0 1 0 
3873486		 # 	collision with: 8 2 9 0 0  and 2 10 1 1 0 
3873487		 # 	collision with: 8 0 4 0 0  and 1 6 0 1 0 
3873489		 # 	collision with: 2 0 0 0 0  and 3 0 0 0 0 
3873490		 # 	collision with: 8 9 0 0 0  and 2 6 1 1 0 
3873491		 # 	collision with: 2 4 1 0 0  and 6 3 0 1 0 
3873494		 # 	collision with: 4 8 3 0 0  and 9 1 0 1 0 
3873495		 # 	collision with: 7 2 1 0 0  and 0 5 6 1 0 
3873936		 # 	collision with: 8 7 10 1 0  and 10 0 0 0 1 
3873938		 # 	collision with: 0 4 1 0 0  and 4 8 0 1 0 
3873939		 # 	collision with: 7 1 2 0 0  and 10 9 0 1 0 
3873942		 # 	collision with: 4 7 1 0 0  and 8 1 0 1 0 
3873943		 # 	collision with: 0 8 10 0 0  and 3 3 1 1 0 
3873945		 # 	collision with: 0 1 0 0 0  and 5 3 0 0 0 
3873946		 # 	collision with: 0 0 1 0 0  and 4 4 0 1 0 
3873947		 # 	collision with: 6 9 2 0 0  and 9 1 0 1 0 
3873950		 # 	collision with: 10 4 1 0 0  and 3 5 0 1 0 
3873951		 # 	collision with: 7 6 2 0 0  and 10 3 0 1 0 
3873954		 # 	collision with: 3 1 1 0 0  and 7 3 2 1 0 
3873955		 # 	collision with: 1 10 3 0 0  and 4 10 1 1 0 
3873958		 # 	collision with: 7 3 1 0 0  and 0 6 0 1 0 
3873959		 # 	collision with: 8 10 1 0 0  and 0 1 3 1 0 
3873962		 # 	collision with: 2 2 0 0 0  and 6 1 2 1 0 
3873963		 # 	collision with: 8 9 7 0 0  and 0 0 1 1 0 
3873966		 # 	collision with: 3 9 1 0 0  and 7 0 0 1 0 
3873967		 # 	collision with: 2 3 2 0 0  and 5 8 0 1 0 
3873970		 # 	collision with: 0 8 0 0 0  and 4 1 1 1 0 
3873971		 # 	collision with: 8 3 2 0 0  and 0 5 0 1 0 
3873973		 # 	collision with: 5 1 0 0 0  and 5 3 0 0 0 
3873974		 # 	collision with: 10 0 8 0 0  and 3 1 1 1 0 
3873975		 # 	collision with: 4 4 2 0 0  and 7 8 0 1 0 
3873978		 # 	collision with: 10 10 1 0 0  and 3 0 0 1 0 
3873979		 # 	collision with: 4 7 2 0 0  and 7 0 0 1 0 
3874420		 # 	collision with: 8 1 7 6 0  and 2 0 0 1 1 
3874422		 # 	collision with: 4 5 5 0 0  and 7 9 0 1 0 
3874423		 # 	collision with: 10 7 8 0 0  and 1 6 0 1 0 
3874426		 # 	collision with: 3 3 5 0 0  and 6 2 0 1 0 
3874427		 # 	collision with: 7 1 6 0 0  and 9 1 0 1 0 
3874429		 # 	collision with: 5 1 0 0 0  and 0 2 0 0 0 
3874430		 # 	collision with: 1 1 9 0 0  and 4 1 1 1 0 
3874431		 # 	collision with: 0 7 8 0 0  and 2 2 0 1 0 
3874434		 # 	collision with: 4 0 5 0 0  and 7 4 0 1 0 
3874435		 # 	collision with: 7 4 6 0 0  and 9 4 0 1 0 
3874438		 # 	collision with: 3 6 1 0 0  and 6 5 1 1 0 
3874439		 # 	collision with: 9 8 8 0 0  and 0 0 0 1 0 
3874442		 # 	collision with: 7 7 5 0 0  and 10 4 0 1 0 
3874443		 # 	collision with: 7 9 6 0 0  and 9 9 0 1 0 
3874446		 # 	collision with: 10 8 5 0 0  and 2 9 0 1 0 
3874447		 # 	collision with: 7 2 6 0 0  and 9 2 0 1 0 
3874450		 # 	collision with: 8 3 5 0 0  and 0 5 0 1 0 
3874451		 # 	collision with: 7 8 6 0 0  and 9 8 0 1 0 
3874454		 # 	collision with: 7 3 5 0 0  and 10 0 0 1 0 
3874455		 # 	collision with: 9 8 6 0 0  and 0 0 0 1 0 
3874457		 # 	collision with: 2 1 0 0 0  and 3 1 0 0 0 
3874458		 # 	collision with: 7 10 1 0 0  and 10 7 2 1 0 
3874459		 # 	collision with: 8 8 6 0 0  and 10 4 0 1 0 
3874462		 # 	collision with: 9 9 10 0 0  and 1 5 1 1 0 
3874463		 # 	collision with: 7 10 6 0 0  and 9 10 0 1 0 
3874904		 # 	collision with: 2 1 8 2 0  and 4 0 0 0 1 
3874906		 # 	collision with: 2 2 2 0 0  and 4 0 0 1 0 
3874907		 # 	collision with: 4 7 1 0 0  and 5 3 3 1 0 
3874910		 # 	collision with: 2 0 2 0 0  and 4 9 0 1 0 
3874911		 # 	collision with: 2 0 6 0 0  and 3 0 3 1 0 
3874913		 # 	collision with: 4 0 0 0 0  and 1 2 0 0 0 
3874914		 # 	collision with: 3 7 2 0 0  and 5 1 1 1 0 
3874915		 # 	collision with: 8 3 4 0 0  and 9 2 1 1 0 
3874918		 # 	collision with: 4 10 2 0 0  and 6 0 0 1 0 
3874919		 # 	collision with: 8 10 6 0 0  and 9 9 2 1 0 
3874922		 # 	collision with: 1 10 2 0 0  and 3 1 0 1 0 
3874923		 # 	collision with: 10 6 1 0 0  and 0 1 1 1 0 
3874926		 # 	collision with: 10 2 2 0 0  and 1 1 0 1 0 
3874927		 # 	collision with: 0 7 10 0 0  and 1 0 3 1 0 
3874930		 # 	collision with: 8 5 0 0 0  and 10 1 1 1 0 
3874931		 # 	collision with: 1 1 9 0 0  and 2 3 2 1 0 
3874934		 # 	collision with: 8 5 2 0 0  and 10 1 0 1 0 
3874935		 # 	collision with: 3 3 6 0 0  and 4 1 1 1 0 
3874938		 # 	collision with: 4 5 10 0 0  and 6 6 1 1 0 
3874939		 # 	collision with: 1 8 3 0 0  and 2 10 1 1 0 
3874941		 # 	collision with: 4 0 0 0 0  and 4 2 0 0 0 
3874942		 # 	collision with: 5 7 4 0 0  and 7 4 1 1 0 
3874943		 # 	collision with: 10 10 5 0 0  and 0 5 1 1 0 
3874946		 # 	collision with: 4 8 9 0 0  and 6 9 1 1 0 
3874947		 # 	collision with: 1 9 0 0 0  and 2 0 4 1 0 
3875388		 # 	collision with: 6 3 7 4 0  and 1 0 0 0 1 
3875390		 # 	collision with: 5 6 4 0 0  and 6 0 0 1 0 
3875391		 # 	collision with: 10 7 7 1 0  and 8 0 0 2 0 
3875394		 # 	collision with: 0 3 4 0 0  and 1 7 0 1 0 
3875395		 # 	collision with: 7 8 8 1 0  and 5 0 0 2 0 
3875397		 # 	collision with: 2 0 0 0 0  and 2 1 0 0 0 
3875398		 # 	collision with: 5 0 4 0 0  and 6 5 0 1 0 
3875399		 # 	collision with: 7 2 6 1 0  and 5 5 0 2 0 
3875402		 # 	collision with: 1 3 4 0 0  and 2 5 0 1 0 
3875403		 # 	collision with: 5 5 0 0 0  and 3 0 1 2 0 
3875406		 # 	collision with: 10 2 4 0 0  and 0 8 0 1 0 
3875407		 # 	collision with: 2 6 10 1 0  and 0 0 0 2 0 
3875410		 # 	collision with: 5 1 0 0 0  and 6 6 1 1 0 
3875411		 # 	collision with: 2 7 10 1 0  and 0 1 1 2 0 
3875414		 # 	collision with: 7 2 4 0 0  and 8 3 0 1 0 
3875415		 # 	collision with: 0 6 3 0 0  and 9 3 1 2 0 
3875418		 # 	collision with: 10 5 3 0 0  and 0 0 2 1 0 
3875419		 # 	collision with: 7 9 6 0 0  and 5 1 1 2 0 
3875422		 # 	collision with: 4 0 8 0 0  and 5 7 1 1 0 
3875423		 # 	collision with: 0 7 3 0 0  and 9 4 2 2 0 
3875425		 # 	collision with: 9 0 0 0 0  and 9 1 0 0 0 
3875426		 # 	collision with: 8 2 4 0 0  and 9 1 0 1 0 
3875427		 # 	collision with: 8 6 1 1 0  and 6 2 0 2 0 
3875430		 # 	collision with: 10 2 6 0 0  and 0 8 1 1 0 
3875431		 # 	collision with: 5 9 5 0 0  and 3 4 4 2 0 
3875874		 # 	collision with: 1 4 10 4 0  and 4 0 0 0 1 
3875875		 # 	collision with: 1 3 8 0 0  and 0 0 1 1 0 
3875878		 # 	collision with: 0 7 3 9 0  and 3 1 0 0 1 
3875879		 # 	collision with: 2 10 5 0 0  and 1 0 2 1 0 
3875882		 # 	collision with: 9 4 3 6 0  and 1 1 0 0 1 
3875883		 # 	collision with: 5 10 0 0 0  and 4 1 1 1 0 
3875886		 # 	collision with: 2 9 5 5 0  and 5 0 0 0 1 
3875887		 # 	collision with: 2 3 1 0 0  and 1 4 1 1 0 
3875890		 # 	collision with: 6 2 9 9 0  and 9 1 0 0 1 
3875891		 # 	collision with: 2 0 3 0 0  and 1 1 5 1 0 
3875894		 # 	collision with: 10 2 8 8 0  and 2 1 0 0 1 
3875895		 # 	collision with: 0 9 5 0 0  and 10 2 1 1 0 
3875898		 # 	collision with: 9 0 3 8 0  and 1 4 0 0 1 
3875899		 # 	collision with: 9 5 9 0 0  and 8 1 1 1 0 
3875902		 # 	collision with: 3 8 1 2 0  and 6 4 0 0 1 
3875903		 # 	collision with: 6 3 7 0 0  and 5 9 1 1 0 
3875906		 # 	collision with: 1 3 6 1 0  and 4 0 0 0 1 
3875907		 # 	collision with: 6 8 9 0 0  and 5 3 6 1 0 
3875910		 # 	collision with: 9 10 8 6 0  and 1 0 0 0 1 
3875911		 # 	collision with: 5 9 0 0 0  and 4 0 3 1 0 
3875914		 # 	collision with: 8 5 7 5 0  and 0 5 0 0 1 
3875915		 # 	collision with: 0 8 3 0 0  and 10 1 4 1 0 
382.333secs	137484
