# prime 11
# degree 2
# input variables 3
# output variables 5
# reload computed balance functions from file balance-2215of3248-p11d2m3-debug.log
# p = 11
# n = 5
# smalldomain p^m 1331
# domain p^n 161051
#	 p^2 = 121
#	 p^3 = 1331
#	 p^4 = 14641
#	 p^5 = 161051
#	 p^6 = 1771561
#	 p^7 = 19487171
#	 p^8 = 214358881
#	 p^9 = 2357947691
opening file : balance-2215of3248-p11d2m3-debug.log
reloading for step2...
13290089		 # 	collision with: 5 4 0 0 0  and 6 4 0 0 0 
13290091		 # 	collision with: 4 2 0 0 0  and 6 2 0 0 0 
13290121		 # 	collision with: 7 4 0 0 0  and 4 5 0 0 0 
13290123		 # 	collision with: 0 2 2 0 0  and 10 3 2 0 0 
13290125		 # 	collision with: 5 1 2 0 0  and 5 2 2 0 0 
13290127		 # 	collision with: 8 2 1 0 0  and 8 4 1 0 0 
13290156		 # 	collision with: 1 1 10 0 0  and 3 1 0 1 0 
13290158		 # 	collision with: 0 5 10 0 0  and 5 1 0 1 0 
13290165		 # 	collision with: 5 4 0 0 0  and 6 4 0 0 0 
13290167		 # 	collision with: 2 5 3 0 0  and 2 4 5 0 0 
13290193		 # 	collision with: 6 3 0 0 0  and 6 5 0 0 0 
13290195		 # 	collision with: 9 5 7 0 0  and 9 6 7 0 0 
13290233		 # 	collision with: 9 0 5 0 0  and 9 1 5 0 0 
13290235		 # 	collision with: 4 3 0 0 0  and 4 5 0 0 0 
13290237		 # 	collision with: 6 3 0 0 0  and 6 5 0 0 0 
13290239		 # 	collision with: 4 2 2 0 0  and 6 2 2 0 0 
13290269		 # 	collision with: 7 0 1 0 0  and 7 2 1 0 0 
13290271		 # 	collision with: 4 2 4 0 0  and 6 2 4 0 0 
13290389		 # 	collision with: 6 0 2 0 0  and 5 2 2 0 0 
13290391		 # 	collision with: 6 3 4 0 0  and 6 4 4 0 0 
13290397		 # 	collision with: 5 4 2 0 0  and 6 4 2 0 0 
13290399		 # 	collision with: 4 2 2 0 0  and 6 2 2 0 0 
13290445		 # 	collision with: 6 0 1 0 0  and 5 2 1 0 0 
13290447		 # 	collision with: 4 2 5 0 0  and 6 2 5 0 0 
13290453		 # 	collision with: 10 2 3 0 0  and 1 4 3 0 0 
13290455		 # 	collision with: 4 3 0 0 0  and 4 5 0 0 0 
13290573		 # 	collision with: 2 4 4 0 0  and 2 6 4 0 0 
13290575		 # 	collision with: 2 4 2 0 0  and 2 5 2 0 0 
13290605		 # 	collision with: 5 4 0 0 0  and 6 4 0 0 0 
13290607		 # 	collision with: 8 6 3 0 0  and 8 0 5 0 0 
13290609		 # 	collision with: 4 2 1 0 0  and 7 3 1 0 0 
13290611		 # 	collision with: 0 2 1 0 0  and 10 3 1 0 0 
13290640		 # 	collision with: 2 3 2 0 0  and 0 9 0 1 0 
13290642		 # 	collision with: 8 0 6 0 0  and 1 4 4 1 0 
13290649		 # 	collision with: 9 0 3 0 0  and 9 1 3 0 0 
13290651		 # 	collision with: 4 6 3 0 0  and 4 2 4 0 0 
13290677		 # 	collision with: 7 0 3 0 0  and 7 2 3 0 0 
13290679		 # 	collision with: 8 6 3 0 0  and 8 0 4 0 0 
13290717		 # 	collision with: 8 3 0 0 0  and 8 4 0 0 0 
13290719		 # 	collision with: 4 2 3 0 0  and 6 2 3 0 0 
13290721		 # 	collision with: 7 0 3 0 0  and 7 2 3 0 0 
13290723		 # 	collision with: 4 2 1 0 0  and 6 2 1 0 0 
13290753		 # 	collision with: 3 7 3 0 0  and 3 7 4 0 0 
13290755		 # 	collision with: 10 2 4 0 0  and 10 3 4 0 0 
13290873		 # 	collision with: 6 3 3 0 0  and 6 3 4 0 0 
13290875		 # 	collision with: 8 3 3 0 0  and 8 3 4 0 0 
13290881		 # 	collision with: 8 5 3 0 0  and 8 2 4 0 0 
13290883		 # 	collision with: 4 3 2 0 0  and 4 5 2 0 0 
13290929		 # 	collision with: 6 8 3 0 0  and 5 1 4 0 0 
13290931		 # 	collision with: 4 2 3 0 0  and 6 2 3 0 0 
13290937		 # 	collision with: 8 3 0 0 0  and 8 4 0 0 0 
13290939		 # 	collision with: 3 4 1 0 0  and 7 6 1 0 0 
13291057		 # 	collision with: 5 4 1 0 0  and 6 4 1 0 0 
13291059		 # 	collision with: 4 2 1 0 0  and 6 2 1 0 0 
13291089		 # 	collision with: 5 4 1 0 0  and 6 4 1 0 0 
13291091		 # 	collision with: 3 1 2 0 0  and 7 2 2 0 0 
13291093		 # 	collision with: 6 0 2 0 0  and 5 1 2 0 0 
13291095		 # 	collision with: 3 2 3 0 0  and 3 1 4 0 0 
13291124		 # 	collision with: 5 10 7 0 0  and 8 1 1 1 0 
13291126		 # 	collision with: 0 8 7 0 0  and 2 1 1 1 0 
13291133		 # 	collision with: 7 0 2 0 0  and 7 2 2 0 0 
13291135		 # 	collision with: 1 1 2 0 0  and 1 3 4 0 0 
13291161		 # 	collision with: 6 0 3 0 0  and 5 1 3 0 0 
13291201		 # 	collision with: 10 1 2 0 0  and 10 1 4 0 0 
13291203		 # 	collision with: 2 4 1 0 0  and 2 5 1 0 0 
13291207		 # 	collision with: 4 2 0 0 0  and 6 2 0 0 0 
13291237		 # 	collision with: 1 2 2 0 0  and 1 3 2 0 0 
13291239		 # 	collision with: 2 2 0 0 0  and 8 4 0 0 0 
13291357		 # 	collision with: 10 2 0 0 0  and 10 4 0 0 0 
13291365		 # 	collision with: 8 3 2 0 0  and 3 4 2 0 0 
13291367		 # 	collision with: 6 3 2 0 0  and 6 4 2 0 0 
13291413		 # 	collision with: 1 2 2 0 0  and 1 3 2 0 0 
13291415		 # 	collision with: 2 2 0 0 0  and 8 4 0 0 0 
13291421		 # 	collision with: 5 4 3 0 0  and 6 4 3 0 0 
13291423		 # 	collision with: 2 4 1 0 0  and 2 5 1 0 0 
13291541		 # 	collision with: 6 3 4 0 0  and 6 5 4 0 0 
13291543		 # 	collision with: 2 0 1 0 0  and 8 1 1 0 0 
13291573		 # 	collision with: 6 0 2 0 0  and 5 2 2 0 0 
13291575		 # 	collision with: 7 10 2 0 0  and 3 2 4 0 0 
13291579		 # 	collision with: 0 3 3 0 0  and 10 5 3 0 0 
13291608		 # 	collision with: 8 5 6 0 0  and 5 0 1 1 0 
13291610		 # 	collision with: 3 5 5 0 0  and 2 8 0 1 0 
13291617		 # 	collision with: 5 1 1 0 0  and 5 2 1 0 0 
13291645		 # 	collision with: 9 7 2 0 0  and 2 2 3 0 0 
13291647		 # 	collision with: 2 7 2 0 0  and 2 2 3 0 0 
13291687		 # 	collision with: 4 2 1 0 0  and 6 2 1 0 0 
13291689		 # 	collision with: 5 4 2 0 0  and 6 4 2 0 0 
13291691		 # 	collision with: 10 4 2 0 0  and 0 5 2 0 0 
13291721		 # 	collision with: 10 2 2 0 0  and 1 1 3 0 0 
13291723		 # 	collision with: 10 3 2 0 0  and 10 3 3 0 0 
13291841		 # 	collision with: 8 3 3 0 0  and 3 4 3 0 0 
13291843		 # 	collision with: 4 2 0 0 0  and 6 2 0 0 0 
13291849		 # 	collision with: 9 8 2 0 0  and 2 4 3 0 0 
13291851		 # 	collision with: 8 2 2 0 0  and 8 4 2 0 0 
13291897		 # 	collision with: 6 6 2 0 0  and 6 2 3 0 0 
13291899		 # 	collision with: 7 3 2 0 0  and 7 3 3 0 0 
13291905		 # 	collision with: 5 4 1 0 0  and 6 4 1 0 0 
13292025		 # 	collision with: 5 4 2 0 0  and 6 4 2 0 0 
13292027		 # 	collision with: 4 2 2 0 0  and 6 2 2 0 0 
13292059		 # 	collision with: 6 10 2 0 0  and 4 4 3 0 0 
13292061		 # 	collision with: 8 6 2 0 0  and 8 1 3 0 0 
13292063		 # 	collision with: 4 2 0 0 0  and 6 2 0 0 0 
13292092		 # 	collision with: 1 7 10 0 0  and 4 5 1 1 0 
13292094		 # 	collision with: 9 5 9 0 0  and 2 0 0 1 0 
13292101		 # 	collision with: 3 1 0 0 0  and 3 3 0 0 0 
13292103		 # 	collision with: 2 4 3 0 0  and 2 5 3 0 0 
13292129		 # 	collision with: 10 2 1 0 0  and 10 4 1 0 0 
13292131		 # 	collision with: 9 9 1 0 0  and 9 2 3 0 0 
13292169		 # 	collision with: 7 9 1 0 0  and 7 4 3 0 0 
13292171		 # 	collision with: 4 2 0 0 0  and 6 2 0 0 0 
13292173		 # 	collision with: 10 2 1 0 0  and 1 4 1 0 0 
13292175		 # 	collision with: 9 9 1 0 0  and 1 2 3 0 0 
13292205		 # 	collision with: 5 4 1 0 0  and 6 4 1 0 0 
13292207		 # 	collision with: 1 1 0 0 0  and 1 3 0 0 0 
13292325		 # 	collision with: 10 2 1 0 0  and 10 2 3 0 0 
13292327		 # 	collision with: 4 2 2 0 0  and 6 2 2 0 0 
13292333		 # 	collision with: 4 2 2 0 0  and 7 3 2 0 0 
13292335		 # 	collision with: 10 2 2 0 0  and 10 3 2 0 0 
13292381		 # 	collision with: 2 1 1 0 0  and 2 1 3 0 0 
13292383		 # 	collision with: 1 1 0 0 0  and 1 3 0 0 0 
13292389		 # 	collision with: 5 3 1 0 0  and 5 0 3 0 0 
13292391		 # 	collision with: 4 2 0 0 0  and 6 2 0 0 0 
13292509		 # 	collision with: 9 1 1 0 0  and 2 5 3 0 0 
13292511		 # 	collision with: 3 4 1 0 0  and 7 6 1 0 0 
13292541		 # 	collision with: 3 1 0 0 0  and 3 3 0 0 0 
13292543		 # 	collision with: 1 3 1 0 0  and 1 3 3 0 0 
13292545		 # 	collision with: 5 2 1 0 0  and 5 2 3 0 0 
13292547		 # 	collision with: 4 2 1 0 0  and 6 2 1 0 0 
13292576		 # 	collision with: 10 2 1 0 0  and 2 7 0 1 0 
13292578		 # 	collision with: 4 0 1 0 0  and 7 9 0 1 0 
13292585		 # 	collision with: 8 3 1 0 0  and 3 0 2 0 0 
13292587		 # 	collision with: 4 2 0 0 0  and 6 2 0 0 0 
13292613		 # 	collision with: 5 4 0 0 0  and 6 4 0 0 0 
13292615		 # 	collision with: 3 1 0 0 0  and 3 2 0 0 0 
13292653		 # 	collision with: 2 5 1 0 0  and 9 0 2 0 0 
13292655		 # 	collision with: 7 2 1 0 0  and 3 2 2 0 0 
13292657		 # 	collision with: 5 4 0 0 0  and 6 4 0 0 0 
13292659		 # 	collision with: 3 1 0 0 0  and 3 2 0 0 0 
13292689		 # 	collision with: 7 10 1 0 0  and 7 10 2 0 0 
13292691		 # 	collision with: 8 4 1 0 0  and 2 2 2 0 0 
13292809		 # 	collision with: 4 7 1 0 0  and 4 2 2 0 0 
13292811		 # 	collision with: 10 1 1 0 0  and 10 4 2 0 0 
13292817		 # 	collision with: 5 4 1 0 0  and 6 4 1 0 0 
13292819		 # 	collision with: 4 2 1 0 0  and 6 2 1 0 0 
13292865		 # 	collision with: 5 4 2 0 0  and 6 4 2 0 0 
13292867		 # 	collision with: 4 10 1 0 0  and 4 10 2 0 0 
13292873		 # 	collision with: 3 2 1 0 0  and 3 2 2 0 0 
13292875		 # 	collision with: 1 2 1 0 0  and 1 2 2 0 0 
13292993		 # 	collision with: 6 8 1 0 0  and 5 1 2 0 0 
13292995		 # 	collision with: 5 1 1 0 0  and 5 1 2 0 0 
13293025		 # 	collision with: 7 8 1 0 0  and 7 8 2 0 0 
13293027		 # 	collision with: 4 2 0 0 0  and 6 2 0 0 0 
13293029		 # 	collision with: 2 9 1 0 0  and 2 9 2 0 0 
13293031		 # 	collision with: 4 2 2 0 0  and 6 2 2 0 0 
13293060		 # 	collision with: 8 8 7 0 0  and 0 7 0 1 0 
13293062		 # 	collision with: 0 7 7 0 0  and 9 1 0 1 0 
13293071		 # 	collision with: 9 5 1 0 0  and 9 6 1 0 0 
13293097		 # 	collision with: 8 3 0 0 0  and 3 0 2 0 0 
13293099		 # 	collision with: 2 2 2 0 0  and 8 4 2 0 0 
13293137		 # 	collision with: 6 6 0 0 0  and 6 6 2 0 0 
13293139		 # 	collision with: 0 3 0 0 0  and 10 0 2 0 0 
13293141		 # 	collision with: 6 10 0 0 0  and 5 6 2 0 0 
13293143		 # 	collision with: 0 3 0 0 0  and 10 0 2 0 0 
13293173		 # 	collision with: 5 4 0 0 0  and 6 4 0 0 0 
13293175		 # 	collision with: 4 2 1 0 0  and 6 2 1 0 0 
13293293		 # 	collision with: 2 4 1 0 0  and 2 6 1 0 0 
13293295		 # 	collision with: 5 0 0 0 0  and 5 2 0 0 0 
13293301		 # 	collision with: 6 0 0 0 0  and 5 2 0 0 0 
13293303		 # 	collision with: 3 1 2 0 0  and 3 2 2 0 0 
13293349		 # 	collision with: 5 4 0 0 0  and 6 4 0 0 0 
13293351		 # 	collision with: 6 3 1 0 0  and 6 4 1 0 0 
13293357		 # 	collision with: 1 6 0 0 0  and 1 6 2 0 0 
13293359		 # 	collision with: 10 6 0 0 0  and 10 6 2 0 0 
13293477		 # 	collision with: 6 0 0 0 0  and 5 2 0 0 0 
13293479		 # 	collision with: 3 1 2 0 0  and 3 2 2 0 0 
13293509		 # 	collision with: 3 2 0 0 0  and 3 2 2 0 0 
13293513		 # 	collision with: 2 4 1 0 0  and 2 6 1 0 0 
13293515		 # 	collision with: 5 0 0 0 0  and 5 2 0 0 0 
13293544		 # 	collision with: 2 1 3 0 0  and 7 6 0 1 0 
13293546		 # 	collision with: 10 3 3 0 0  and 3 9 0 1 0 
13293553		 # 	collision with: 8 3 8 0 0  and 8 4 8 0 0 
13293555		 # 	collision with: 7 0 0 0 0  and 7 1 0 0 0 
13293581		 # 	collision with: 1 3 0 0 0  and 1 2 1 0 0 
13293583		 # 	collision with: 9 9 0 0 0  and 9 2 1 0 0 
13293621		 # 	collision with: 5 10 0 0 0  and 5 10 1 0 0 
13293625		 # 	collision with: 3 6 0 0 0  and 8 0 1 0 0 
13293627		 # 	collision with: 8 6 0 0 0  and 8 0 1 0 0 
13293657		 # 	collision with: 9 6 0 0 0  and 9 6 1 0 0 
13293659		 # 	collision with: 2 0 0 0 0  and 8 1 0 0 0 
13293777		 # 	collision with: 5 4 0 0 0  and 6 4 0 0 0 
13293779		 # 	collision with: 5 1 0 0 0  and 5 1 1 0 0 
13293787		 # 	collision with: 7 10 0 0 0  and 3 1 1 0 0 
13293833		 # 	collision with: 3 6 0 0 0  and 3 6 1 0 0 
13293835		 # 	collision with: 2 0 0 0 0  and 8 1 0 0 0 
13293843		 # 	collision with: 8 6 0 0 0  and 8 0 1 0 0 
13293961		 # 	collision with: 10 5 0 0 0  and 10 5 1 0 0 
13293993		 # 	collision with: 3 6 0 0 0  and 8 0 1 0 0 
13293995		 # 	collision with: 7 0 0 0 0  and 7 1 0 0 0 
13293997		 # 	collision with: 5 4 0 0 0  and 6 4 0 0 0 
13293999		 # 	collision with: 8 1 0 0 0  and 8 1 1 0 0 
13294072		 # 	collision with: 5 5 0 0 0  and 6 5 0 0 0 
13294074		 # 	collision with: 4 5 0 0 0  and 6 5 0 0 0 
13294100		 # 	collision with: 5 4 0 0 0  and 5 5 0 0 0 
13294102		 # 	collision with: 5 3 0 0 0  and 5 5 0 0 0 
13294116		 # 	collision with: 5 5 0 0 0  and 6 5 0 0 0 
13294118		 # 	collision with: 4 5 0 0 0  and 6 5 0 0 0 
13294128		 # 	collision with: 8 4 0 0 0  and 8 6 0 0 0 
13294130		 # 	collision with: 8 4 0 0 0  and 8 5 0 0 0 
13294147		 # 	collision with: 4 1 1 0 0  and 4 3 1 0 0 
13294160		 # 	collision with: 5 5 0 0 0  and 6 5 0 0 0 
13294162		 # 	collision with: 4 5 0 0 0  and 6 5 0 0 0 
13294169		 # 	collision with: 6 1 4 0 0  and 5 2 4 0 0 
13294171		 # 	collision with: 7 2 3 0 0  and 7 3 3 0 0 
13294193		 # 	collision with: 9 1 1 0 0  and 9 2 1 0 0 
13294195		 # 	collision with: 3 5 0 0 0  and 3 6 0 0 0 
13294200		 # 	collision with: 9 1 0 0 0  and 9 2 0 0 0 
13294202		 # 	collision with: 9 0 0 0 0  and 9 2 0 0 0 
13294204		 # 	collision with: 5 5 0 0 0  and 6 5 0 0 0 
13294206		 # 	collision with: 4 5 0 0 0  and 6 5 0 0 0 
13294209		 # 	collision with: 2 2 5 0 0  and 2 2 6 0 0 
13294211		 # 	collision with: 10 2 5 0 0  and 10 2 6 0 0 
13294225		 # 	collision with: 5 5 2 0 0  and 6 5 2 0 0 
13294227		 # 	collision with: 10 2 1 0 0  and 10 4 1 0 0 
13294228		 # 	collision with: 7 0 0 0 0  and 4 2 0 0 0 
13294230		 # 	collision with: 6 0 0 0 0  and 4 2 0 0 0 
13294248		 # 	collision with: 5 5 0 0 0  and 6 5 0 0 0 
13294250		 # 	collision with: 4 5 0 0 0  and 6 5 0 0 0 
13294256		 # 	collision with: 1 1 0 0 0  and 1 3 0 0 0 
13294258		 # 	collision with: 1 1 0 0 0  and 1 2 0 0 0 
13294292		 # 	collision with: 5 5 0 0 0  and 6 5 0 0 0 
13294294		 # 	collision with: 4 5 0 0 0  and 6 5 0 0 0 
13294328		 # 	collision with: 10 3 0 0 0  and 10 4 0 0 0 
13294330		 # 	collision with: 10 2 0 0 0  and 10 4 0 0 0 
13294336		 # 	collision with: 5 5 0 0 0  and 6 5 0 0 0 
13294338		 # 	collision with: 4 5 0 0 0  and 6 5 0 0 0 
13294356		 # 	collision with: 4 0 0 0 0  and 7 1 0 0 0 
13294358		 # 	collision with: 7 2 0 0 0  and 7 3 0 0 0 
13294361		 # 	collision with: 5 5 2 0 0  and 6 5 2 0 0 
13294363		 # 	collision with: 9 2 5 0 0  and 9 0 6 0 0 
13294377		 # 	collision with: 7 2 6 0 0  and 7 4 6 0 0 
13294379		 # 	collision with: 10 0 1 0 0  and 0 1 1 0 0 
13294380		 # 	collision with: 5 5 0 0 0  and 6 5 0 0 0 
13294382		 # 	collision with: 4 5 0 0 0  and 6 5 0 0 0 
13294384		 # 	collision with: 2 3 0 0 0  and 2 5 0 0 0 
13294386		 # 	collision with: 6 1 0 0 0  and 4 2 0 0 0 
13294393		 # 	collision with: 2 3 1 0 0  and 2 5 1 0 0 
13294395		 # 	collision with: 4 5 1 0 0  and 6 5 1 0 0 
13294417		 # 	collision with: 9 2 3 0 0  and 2 4 3 0 0 
13294419		 # 	collision with: 4 5 0 0 0  and 6 5 0 0 0 
13294424		 # 	collision with: 5 5 0 0 0  and 6 5 0 0 0 
13294426		 # 	collision with: 4 5 0 0 0  and 6 5 0 0 0 
13294443		 # 	collision with: 7 5 0 0 0  and 3 6 0 0 0 
13294456		 # 	collision with: 3 0 0 0 0  and 3 1 0 0 0 
13294458		 # 	collision with: 1 2 0 0 0  and 9 3 0 0 0 
13294468		 # 	collision with: 5 5 0 0 0  and 6 5 0 0 0 
13294470		 # 	collision with: 4 5 0 0 0  and 6 5 0 0 0 
13294484		 # 	collision with: 6 0 0 0 0  and 6 2 0 0 0 
13294486		 # 	collision with: 6 0 0 0 0  and 6 1 0 0 0 
13294512		 # 	collision with: 1 0 9 0 0  and 0 3 0 1 0 
13294514		 # 	collision with: 7 1 9 0 0  and 10 3 0 1 0 
13294556		 # 	collision with: 5 5 10 0 0  and 6 5 10 0 0 
13294558		 # 	collision with: 4 5 10 0 0  and 6 5 10 0 0 
13294584		 # 	collision with: 3 2 3 0 0  and 8 3 3 0 0 
13294586		 # 	collision with: 2 3 3 0 0  and 2 4 3 0 0 
13294612		 # 	collision with: 5 5 3 0 0  and 6 5 3 0 0 
13294629		 # 	collision with: 1 1 4 0 0  and 1 3 4 0 0 
13294644		 # 	collision with: 5 5 7 0 0  and 6 5 7 0 0 
13294646		 # 	collision with: 4 5 7 0 0  and 6 5 7 0 0 
13294653		 # 	collision with: 5 5 0 0 0  and 6 5 0 0 0 
13294655		 # 	collision with: 6 0 4 0 0  and 4 2 4 0 0 
13294677		 # 	collision with: 5 5 1 0 0  and 6 5 1 0 0 
13294679		 # 	collision with: 9 0 1 0 0  and 9 2 1 0 0 
13294684		 # 	collision with: 5 4 1 0 0  and 5 5 1 0 0 
13294686		 # 	collision with: 5 3 1 0 0  and 5 5 1 0 0 
13294688		 # 	collision with: 5 5 8 0 0  and 6 5 8 0 0 
13294690		 # 	collision with: 4 5 8 0 0  and 6 5 8 0 0 
13294693		 # 	collision with: 9 2 4 0 0  and 2 4 4 0 0 
13294695		 # 	collision with: 4 3 3 0 0  and 6 4 3 0 0 
13294709		 # 	collision with: 7 3 5 0 0  and 4 4 5 0 0 
13294711		 # 	collision with: 4 5 2 0 0  and 6 5 2 0 0 
13294712		 # 	collision with: 5 5 6 0 0  and 6 5 6 0 0 
13294714		 # 	collision with: 4 5 6 0 0  and 6 5 6 0 0 
13294732		 # 	collision with: 5 5 2 0 0  and 6 5 2 0 0 
13294734		 # 	collision with: 4 5 2 0 0  and 6 5 2 0 0 
13294740		 # 	collision with: 5 5 0 0 0  and 6 5 0 0 0 
13294742		 # 	collision with: 4 5 0 0 0  and 6 5 0 0 0 
13294776		 # 	collision with: 5 5 9 0 0  and 6 5 9 0 0 
13294778		 # 	collision with: 4 5 9 0 0  and 6 5 9 0 0 
13294812		 # 	collision with: 9 1 6 0 0  and 9 2 6 0 0 
13294814		 # 	collision with: 10 0 6 0 0  and 0 1 6 0 0 
13294820		 # 	collision with: 5 5 3 0 0  and 6 5 3 0 0 
13294822		 # 	collision with: 4 5 3 0 0  and 6 5 3 0 0 
13294840		 # 	collision with: 5 5 1 0 0  and 6 5 1 0 0 
13294842		 # 	collision with: 4 5 1 0 0  and 6 5 1 0 0 
13294845		 # 	collision with: 1 1 1 0 0  and 1 3 1 0 0 
13294847		 # 	collision with: 4 5 2 0 0  and 6 5 2 0 0 
13294861		 # 	collision with: 8 2 4 0 0  and 8 8 6 0 0 
13294863		 # 	collision with: 10 6 4 0 0  and 10 0 6 0 0 
13294864		 # 	collision with: 5 5 4 0 0  and 6 5 4 0 0 
13294866		 # 	collision with: 4 5 4 0 0  and 6 5 4 0 0 
13294868		 # 	collision with: 5 5 2 0 0  and 6 5 2 0 0 
13294870		 # 	collision with: 4 5 2 0 0  and 6 5 2 0 0 
13294877		 # 	collision with: 8 4 0 0 0  and 8 6 0 0 0 
13294879		 # 	collision with: 2 3 1 0 0  and 2 4 1 0 0 
13294901		 # 	collision with: 4 2 3 0 0  and 4 3 3 0 0 
13294903		 # 	collision with: 2 3 4 0 0  and 2 4 4 0 0 
13294908		 # 	collision with: 5 5 6 0 0  and 6 5 6 0 0 
13294910		 # 	collision with: 4 5 6 0 0  and 6 5 6 0 0 
13294925		 # 	collision with: 7 2 1 0 0  and 7 4 1 0 0 
13294927		 # 	collision with: 2 2 1 0 0  and 8 4 1 0 0 
13294942		 # 	collision with: 5 3 4 0 0  and 5 5 4 0 0 
13294952		 # 	collision with: 5 5 1 0 0  and 6 5 1 0 0 
13294954		 # 	collision with: 4 5 1 0 0  and 6 5 1 0 0 
13294968		 # 	collision with: 3 0 8 0 0  and 3 1 8 0 0 
13294970		 # 	collision with: 6 0 8 0 0  and 4 2 8 0 0 
13294996		 # 	collision with: 4 6 10 0 0  and 6 1 0 1 0 
13294998		 # 	collision with: 1 5 10 0 0  and 0 5 0 1 0 
13295040		 # 	collision with: 5 5 9 0 0  and 6 5 9 0 0 
13295042		 # 	collision with: 4 5 9 0 0  and 6 5 9 0 0 
13295068		 # 	collision with: 10 3 6 0 0  and 10 4 6 0 0 
13295070		 # 	collision with: 10 2 6 0 0  and 10 4 6 0 0 
13295084		 # 	collision with: 5 5 10 0 0  and 6 5 10 0 0 
13295086		 # 	collision with: 4 5 10 0 0  and 6 5 10 0 0 
13295096		 # 	collision with: 1 1 3 0 0  and 1 3 3 0 0 
13295098		 # 	collision with: 1 1 3 0 0  and 1 2 3 0 0 
13295113		 # 	collision with: 5 4 0 0 0  and 5 5 0 0 0 
13295115		 # 	collision with: 1 1 4 0 0  and 1 2 4 0 0 
13295128		 # 	collision with: 5 5 3 0 0  and 6 5 3 0 0 
13295130		 # 	collision with: 4 5 3 0 0  and 6 5 3 0 0 
13295139		 # 	collision with: 4 5 0 0 0  and 6 5 0 0 0 
13295161		 # 	collision with: 10 3 3 0 0  and 10 4 3 0 0 
13295163		 # 	collision with: 4 5 1 0 0  and 6 5 1 0 0 
13295168		 # 	collision with: 5 5 1 0 0  and 6 5 1 0 0 
13295170		 # 	collision with: 4 5 1 0 0  and 6 5 1 0 0 
13295177		 # 	collision with: 5 5 1 0 0  and 6 5 1 0 0 
13295193		 # 	collision with: 9 8 4 0 0  and 9 6 5 0 0 
13295196		 # 	collision with: 5 5 3 0 0  and 6 5 3 0 0 
13295216		 # 	collision with: 5 5 4 0 0  and 6 5 4 0 0 
13295218		 # 	collision with: 4 5 4 0 0  and 6 5 4 0 0 
13295224		 # 	collision with: 5 5 2 0 0  and 6 5 2 0 0 
13295226		 # 	collision with: 4 5 2 0 0  and 6 5 2 0 0 
13295260		 # 	collision with: 5 5 7 0 0  and 6 5 7 0 0 
13295262		 # 	collision with: 4 5 7 0 0  and 6 5 7 0 0 
13295296		 # 	collision with: 6 1 1 0 0  and 5 2 1 0 0 
13295298		 # 	collision with: 6 0 1 0 0  and 4 2 1 0 0 
13295304		 # 	collision with: 5 5 6 0 0  and 6 5 6 0 0 
13295306		 # 	collision with: 4 5 6 0 0  and 6 5 6 0 0 
13295326		 # 	collision with: 8 4 4 0 0  and 2 5 4 0 0 
13295329		 # 	collision with: 6 0 3 0 0  and 6 2 3 0 0 
13295331		 # 	collision with: 1 1 1 0 0  and 1 2 1 0 0 
13295345		 # 	collision with: 5 5 2 0 0  and 6 5 2 0 0 
13295347		 # 	collision with: 10 9 4 0 0  and 10 9 5 0 0 
13295348		 # 	collision with: 5 5 8 0 0  and 6 5 8 0 0 
13295350		 # 	collision with: 4 5 8 0 0  and 6 5 8 0 0 
13295352		 # 	collision with: 5 5 6 0 0  and 6 5 6 0 0 
13295354		 # 	collision with: 4 5 6 0 0  and 6 5 6 0 0 
13295363		 # 	collision with: 8 4 0 0 0  and 8 5 0 0 0 
13295385		 # 	collision with: 5 5 1 0 0  and 6 5 1 0 0 
13295387		 # 	collision with: 4 1 3 0 0  and 4 3 3 0 0 
13295392		 # 	collision with: 5 5 1 0 0  and 6 5 1 0 0 
13295394		 # 	collision with: 4 5 1 0 0  and 6 5 1 0 0 
13295409		 # 	collision with: 5 5 0 0 0  and 6 5 0 0 0 
13295411		 # 	collision with: 7 2 1 0 0  and 7 3 1 0 0 
13295424		 # 	collision with: 7 2 8 0 0  and 7 4 8 0 0 
13295426		 # 	collision with: 7 2 8 0 0  and 7 3 8 0 0 
13295436		 # 	collision with: 5 5 2 0 0  and 6 5 2 0 0 
13295438		 # 	collision with: 4 5 2 0 0  and 6 5 2 0 0 
13295452		 # 	collision with: 5 5 0 0 0  and 6 5 0 0 0 
13295454		 # 	collision with: 4 5 0 0 0  and 6 5 0 0 0 
13295480		 # 	collision with: 10 3 3 0 0  and 8 8 0 1 0 
13295482		 # 	collision with: 4 2 3 0 0  and 8 3 0 1 0 
13295524		 # 	collision with: 5 5 8 0 0  and 6 5 8 0 0 
13295526		 # 	collision with: 4 5 8 0 0  and 6 5 8 0 0 
13295552		 # 	collision with: 5 5 6 0 0  and 6 5 6 0 0 
13295554		 # 	collision with: 4 5 6 0 0  and 6 5 6 0 0 
13295568		 # 	collision with: 5 5 4 0 0  and 6 5 4 0 0 
13295570		 # 	collision with: 4 5 4 0 0  and 6 5 4 0 0 
13295580		 # 	collision with: 5 5 2 0 0  and 6 5 2 0 0 
13295582		 # 	collision with: 4 5 2 0 0  and 6 5 2 0 0 
13295597		 # 	collision with: 5 5 3 0 0  and 6 5 3 0 0 
13295599		 # 	collision with: 5 3 0 0 0  and 5 5 0 0 0 
13295612		 # 	collision with: 5 5 10 0 0  and 6 5 10 0 0 
13295614		 # 	collision with: 4 5 10 0 0  and 6 5 10 0 0 
13295621		 # 	collision with: 5 5 3 0 0  and 6 5 3 0 0 
13295623		 # 	collision with: 2 1 3 0 0  and 2 1 5 0 0 
13295645		 # 	collision with: 5 4 4 0 0  and 5 5 4 0 0 
13295647		 # 	collision with: 10 2 3 0 0  and 10 4 3 0 0 
13295652		 # 	collision with: 8 4 3 0 0  and 8 6 3 0 0 
13295654		 # 	collision with: 8 4 3 0 0  and 8 5 3 0 0 
13295656		 # 	collision with: 5 5 2 0 0  and 6 5 2 0 0 
13295658		 # 	collision with: 4 5 2 0 0  and 6 5 2 0 0 
13295661		 # 	collision with: 2 3 0 0 0  and 2 5 0 0 0 
13295663		 # 	collision with: 4 5 1 0 0  and 6 5 1 0 0 
13295677		 # 	collision with: 5 5 4 0 0  and 6 5 4 0 0 
13295679		 # 	collision with: 2 2 3 0 0  and 8 5 5 0 0 
13295680		 # 	collision with: 5 5 0 0 0  and 6 5 0 0 0 
13295682		 # 	collision with: 4 5 0 0 0  and 6 5 0 0 0 
13295700		 # 	collision with: 5 5 6 0 0  and 6 5 6 0 0 
13295702		 # 	collision with: 4 5 6 0 0  and 6 5 6 0 0 
13295710		 # 	collision with: 6 0 4 0 0  and 4 2 4 0 0 
13295780		 # 	collision with: 5 5 3 0 0  and 6 5 3 0 0 
13295788		 # 	collision with: 5 5 9 0 0  and 6 5 9 0 0 
13295790		 # 	collision with: 4 5 9 0 0  and 6 5 9 0 0 
13295808		 # 	collision with: 3 0 6 0 0  and 3 1 6 0 0 
13295810		 # 	collision with: 3 5 6 0 0  and 3 6 6 0 0 
13295813		 # 	collision with: 5 5 0 0 0  and 6 5 0 0 0 
13295815		 # 	collision with: 6 0 3 0 0  and 6 1 3 0 0 
13295829		 # 	collision with: 2 3 0 0 0  and 9 5 0 0 0 
13295831		 # 	collision with: 4 5 2 0 0  and 6 5 2 0 0 
13295832		 # 	collision with: 5 5 1 0 0  and 6 5 1 0 0 
13295834		 # 	collision with: 4 5 1 0 0  and 6 5 1 0 0 
13295836		 # 	collision with: 1 1 8 0 0  and 1 3 8 0 0 
13295838		 # 	collision with: 10 0 8 0 0  and 0 1 8 0 0 
13295845		 # 	collision with: 3 8 3 0 0  and 3 8 5 0 0 
13295847		 # 	collision with: 4 5 2 0 0  and 6 5 2 0 0 
13295869		 # 	collision with: 8 4 1 0 0  and 8 6 1 0 0 
13295871		 # 	collision with: 4 5 1 0 0  and 6 5 1 0 0 
13295876		 # 	collision with: 5 5 7 0 0  and 6 5 7 0 0 
13295878		 # 	collision with: 4 5 7 0 0  and 6 5 7 0 0 
13295893		 # 	collision with: 3 6 3 0 0  and 3 6 5 0 0 
13295895		 # 	collision with: 4 5 0 0 0  and 6 5 0 0 0 
13295908		 # 	collision with: 9 1 1 0 0  and 9 2 1 0 0 
13295910		 # 	collision with: 9 0 1 0 0  and 9 2 1 0 0 
13295920		 # 	collision with: 5 5 3 0 0  and 6 5 3 0 0 
13295922		 # 	collision with: 4 5 3 0 0  and 6 5 3 0 0 
13295936		 # 	collision with: 5 5 1 0 0  and 6 5 1 0 0 
13295938		 # 	collision with: 4 5 1 0 0  and 6 5 1 0 0 
13295964		 # 	collision with: 4 5 5 0 0  and 10 5 0 1 0 
13295966		 # 	collision with: 3 6 7 0 0  and 5 5 2 1 0 
32.8256secs	19133
