# prime 11
# degree 2
# input variables 3
# output variables 4
# reload computed balance functions from file balance-361of3248-p11d2m3-debug.log
# p = 11
# n = 4
# smalldomain p^m 1331
# domain p^n 14641
#	 p^2 = 121
#	 p^3 = 1331
#	 p^4 = 14641
#	 p^5 = 161051
#	 p^6 = 1771561
#	 p^7 = 19487171
#	 p^8 = 214358881
#	 p^9 = 2357947691
opening file : balance-361of3248-p11d2m3-debug.log
reloading for step2...
2166000		 # 	collision with: 2 8 0 0  and 3 8 0 0 
2166002		 # 	collision with: 6 7 1 0  and 4 10 2 0 
2166029		 # 	collision with: 10 0 0 0  and 6 2 0 0 
2166031		 # 	collision with: 8 2 0 0  and 3 1 1 0 
2166033		 # 	collision with: 0 7 0 0  and 2 7 0 0 
2166035		 # 	collision with: 3 0 1 0  and 0 0 2 0 
2166072		 # 	collision with: 3 9 0 0  and 5 9 0 0 
2166074		 # 	collision with: 0 8 0 0  and 6 6 1 0 
2166093		 # 	collision with: 4 0 0 0  and 6 2 0 0 
2166095		 # 	collision with: 8 8 0 0  and 4 5 1 0 
2166100		 # 	collision with: 1 4 0 0  and 3 4 0 0 
2166102		 # 	collision with: 3 0 0 0  and 1 5 1 0 
2166128		 # 	collision with: 2 1 0 0  and 4 1 0 0 
2166130		 # 	collision with: 5 10 0 0  and 3 4 1 0 
2166149		 # 	collision with: 2 1 0 0  and 4 1 0 0 
2166151		 # 	collision with: 3 7 0 0  and 8 0 1 0 
2166181		 # 	collision with: 4 0 0 0  and 6 2 0 0 
2166183		 # 	collision with: 5 5 0 0  and 4 4 1 0 
2166200		 # 	collision with: 5 10 0 0  and 6 10 0 0 
2166202		 # 	collision with: 8 5 0 0  and 3 3 1 0 
2166228		 # 	collision with: 0 7 0 0  and 2 7 0 0 
2166237		 # 	collision with: 2 1 0 0  and 4 1 0 0 
2166239		 # 	collision with: 3 7 0 0  and 6 0 1 0 
2166253		 # 	collision with: 0 7 0 0  and 2 7 0 0 
2166255		 # 	collision with: 2 0 1 0  and 1 0 2 0 
2166256		 # 	collision with: 4 2 0 0  and 5 2 0 0 
2166258		 # 	collision with: 4 10 0 0  and 5 3 2 0 
2166303		 # 	collision with: 1 3 0 0  and 9 4 1 0 
2166330		 # 	collision with: 8 6 0 0  and 1 5 1 0 
2166345		 # 	collision with: 2 8 0 0  and 3 8 0 0 
2166347		 # 	collision with: 1 0 1 0  and 2 0 1 0 
2166356		 # 	collision with: 4 6 0 0  and 6 6 0 0 
2166358		 # 	collision with: 3 9 1 0  and 5 9 1 0 
2166384		 # 	collision with: 0 1 5 0  and 5 0 0 1 
2166386		 # 	collision with: 8 8 0 0  and 9 10 1 0 
2166388		 # 	collision with: 2 1 0 0  and 4 1 0 0 
2166390		 # 	collision with: 2 9 0 0  and 3 1 1 0 
2166392		 # 	collision with: 4 6 0 0  and 6 6 0 0 
2166394		 # 	collision with: 1 0 1 0  and 2 0 2 0 
2166396		 # 	collision with: 1 4 0 0  and 3 4 0 0 
2166398		 # 	collision with: 4 0 0 0  and 5 10 1 0 
2166400		 # 	collision with: 0 3 0 0  and 1 3 0 0 
2166402		 # 	collision with: 1 0 1 0  and 2 0 2 0 
2166404		 # 	collision with: 3 9 0 0  and 5 9 0 0 
2166406		 # 	collision with: 10 9 0 0  and 0 0 1 0 
2166408		 # 	collision with: 4 2 0 0  and 5 2 0 0 
2166410		 # 	collision with: 4 1 0 0  and 5 6 1 0 
2166412		 # 	collision with: 2 8 0 0  and 3 8 0 0 
2166414		 # 	collision with: 2 7 0 0  and 3 4 1 0 
2166416		 # 	collision with: 0 7 0 0  and 2 7 0 0 
2166420		 # 	collision with: 3 5 0 0  and 4 5 0 0 
2166422		 # 	collision with: 9 4 0 0  and 10 2 1 0 
2166424		 # 	collision with: 5 10 0 0  and 6 10 0 0 
2166426		 # 	collision with: 1 0 1 0  and 2 0 2 0 
2166456		 # 	collision with: 2 8 0 0  and 3 8 0 0 
2166458		 # 	collision with: 1 3 0 0  and 1 3 2 0 
2166469		 # 	collision with: 5 10 0 0  and 6 10 0 0 
2166471		 # 	collision with: 9 3 0 0  and 10 5 1 0 
2166484		 # 	collision with: 1 4 0 0  and 3 4 0 0 
2166486		 # 	collision with: 7 7 0 0  and 10 1 1 0 
2166513		 # 	collision with: 5 10 0 0  and 6 10 0 0 
2166515		 # 	collision with: 1 5 0 0  and 2 6 2 0 
2166517		 # 	collision with: 0 3 0 0  and 1 3 0 0 
2166519		 # 	collision with: 7 10 0 0  and 10 1 1 0 
2166556		 # 	collision with: 5 10 0 0  and 6 10 0 0 
2166558		 # 	collision with: 0 3 0 0  and 3 8 1 0 
2166577		 # 	collision with: 7 0 0 0  and 5 1 0 0 
2166579		 # 	collision with: 7 6 0 0  and 8 4 1 0 
2166584		 # 	collision with: 4 2 0 0  and 5 2 0 0 
2166586		 # 	collision with: 0 0 1 0  and 5 2 2 0 
2166612		 # 	collision with: 4 6 0 0  and 6 6 0 0 
2166614		 # 	collision with: 2 1 2 0  and 4 1 2 0 
2166633		 # 	collision with: 7 0 0 0  and 1 1 0 0 
2166635		 # 	collision with: 2 1 2 0  and 4 1 2 0 
2166665		 # 	collision with: 7 0 0 0  and 5 1 0 0 
2166667		 # 	collision with: 7 8 1 0  and 7 0 2 0 
2166684		 # 	collision with: 3 5 0 0  and 4 5 0 0 
2166686		 # 	collision with: 1 1 0 0  and 5 1 1 0 
2166712		 # 	collision with: 3 9 0 0  and 5 9 0 0 
2166714		 # 	collision with: 10 9 0 0  and 0 0 1 0 
2166721		 # 	collision with: 7 0 0 0  and 1 1 0 0 
2166723		 # 	collision with: 2 10 0 0  and 3 5 1 0 
2166737		 # 	collision with: 0 3 0 0  and 1 3 0 0 
2166739		 # 	collision with: 2 3 1 0  and 10 3 2 0 
2166740		 # 	collision with: 2 1 0 0  and 4 1 0 0 
2166742		 # 	collision with: 1 9 0 0  and 10 1 1 0 
2166785		 # 	collision with: 3 5 0 0  and 4 5 0 0 
2166787		 # 	collision with: 4 3 1 0  and 2 0 3 0 
2166812		 # 	collision with: 0 7 0 0  and 2 7 0 0 
2166831		 # 	collision with: 0 9 0 0  and 6 2 1 0 
2166842		 # 	collision with: 4 6 1 0  and 6 6 1 0 
2166874		 # 	collision with: 8 0 0 0  and 8 1 0 0 
2166878		 # 	collision with: 8 2 0 0  and 8 4 1 0 
2166882		 # 	collision with: 8 5 0 0  and 8 10 1 0 
2166886		 # 	collision with: 8 1 0 0  and 8 2 1 0 
2166890		 # 	collision with: 8 3 0 0  and 8 6 1 0 
2166894		 # 	collision with: 8 8 0 0  and 8 5 1 0 
2166898		 # 	collision with: 8 10 0 0  and 8 9 1 0 
2166902		 # 	collision with: 8 6 0 0  and 8 1 1 0 
2166906		 # 	collision with: 8 9 0 0  and 8 7 1 0 
2166910		 # 	collision with: 8 7 0 0  and 8 3 1 0 
2166912		 # 	collision with: 0 2 0 0  and 1 2 0 0 
2166914		 # 	collision with: 8 0 2 0  and 8 1 2 0 
2166929		 # 	collision with: 1 2 0 0  and 2 2 0 0 
2166931		 # 	collision with: 1 2 0 0  and 0 2 1 0 
2166956		 # 	collision with: 0 2 0 0  and 1 2 0 0 
2166958		 # 	collision with: 8 0 2 0  and 8 1 2 0 
2166965		 # 	collision with: 3 2 0 0  and 4 2 0 0 
2166967		 # 	collision with: 1 7 0 0  and 0 5 1 0 
2167000		 # 	collision with: 0 2 0 0  and 1 2 0 0 
2167002		 # 	collision with: 8 0 2 0  and 8 1 2 0 
2167021		 # 	collision with: 0 2 0 0  and 1 2 0 0 
2167023		 # 	collision with: 4 4 1 0  and 5 1 2 0 
2167044		 # 	collision with: 0 2 0 0  and 1 2 0 0 
2167046		 # 	collision with: 8 0 2 0  and 8 1 2 0 
2167049		 # 	collision with: 4 2 0 0  and 5 2 0 0 
2167051		 # 	collision with: 8 5 0 0  and 8 6 0 0 
2167088		 # 	collision with: 0 2 0 0  and 1 2 0 0 
2167090		 # 	collision with: 8 0 2 0  and 8 1 2 0 
2167101		 # 	collision with: 2 2 0 0  and 3 2 0 0 
2167103		 # 	collision with: 4 5 0 0  and 6 8 1 0 
2167132		 # 	collision with: 0 2 0 0  and 1 2 0 0 
2167134		 # 	collision with: 8 0 2 0  and 8 1 2 0 
2167165		 # 	collision with: 2 2 0 0  and 4 2 0 0 
2167167		 # 	collision with: 1 6 0 0  and 0 0 1 0 
2167176		 # 	collision with: 0 2 0 0  and 1 2 0 0 
2167178		 # 	collision with: 8 0 2 0  and 8 1 2 0 
2167217		 # 	collision with: 0 2 0 0  and 2 2 0 0 
2167219		 # 	collision with: 2 7 0 0  and 7 10 1 0 
2167220		 # 	collision with: 0 2 0 0  and 1 2 0 0 
2167222		 # 	collision with: 8 0 2 0  and 8 1 2 0 
2167245		 # 	collision with: 4 2 0 0  and 6 2 0 0 
2167247		 # 	collision with: 8 2 1 0  and 8 3 1 0 
2167264		 # 	collision with: 0 2 0 0  and 1 2 0 0 
2167266		 # 	collision with: 8 0 2 0  and 8 1 2 0 
2167301		 # 	collision with: 1 2 0 0  and 3 2 0 0 
2167303		 # 	collision with: 9 4 0 0  and 3 6 1 0 
2167308		 # 	collision with: 0 2 0 0  and 1 2 0 0 
2167310		 # 	collision with: 4 0 1 0  and 0 1 1 0 
2167337		 # 	collision with: 3 2 0 0  and 5 2 0 0 
2167339		 # 	collision with: 4 2 1 0  and 5 2 1 0 
2167352		 # 	collision with: 9 5 6 0  and 9 1 0 1 
2167354		 # 	collision with: 7 8 0 0  and 6 5 1 0 
2167356		 # 	collision with: 4 0 10 0  and 8 1 10 0 
2167358		 # 	collision with: 10 4 0 0  and 9 6 1 0 
2167360		 # 	collision with: 2 0 5 0  and 4 1 5 0 
2167362		 # 	collision with: 1 7 0 0  and 0 5 1 0 
2167364		 # 	collision with: 5 0 7 0  and 10 1 7 0 
2167366		 # 	collision with: 8 0 7 0  and 8 1 7 0 
2167368		 # 	collision with: 1 0 8 0  and 2 1 8 0 
2167372		 # 	collision with: 0 2 0 0  and 1 2 0 0 
2167374		 # 	collision with: 8 4 0 0  and 7 2 1 0 
2167376		 # 	collision with: 8 0 9 0  and 5 1 9 0 
2167378		 # 	collision with: 5 3 0 0  and 4 0 1 0 
2167380		 # 	collision with: 10 0 3 0  and 9 1 3 0 
2167382		 # 	collision with: 6 8 1 0  and 3 0 0 1 
2167384		 # 	collision with: 6 0 4 0  and 1 1 4 0 
2167386		 # 	collision with: 6 7 0 0  and 5 9 1 0 
2167388		 # 	collision with: 9 0 6 0  and 7 1 6 0 
2167390		 # 	collision with: 8 0 6 0  and 8 1 6 0 
2167392		 # 	collision with: 7 0 1 0  and 3 1 1 0 
2167394		 # 	collision with: 2 3 0 0  and 1 6 1 0 
2167396		 # 	collision with: 9 7 0 0  and 10 1 2 0 
2167398		 # 	collision with: 5 8 0 0  and 2 5 1 0 
2167413		 # 	collision with: 0 2 0 0  and 2 2 0 0 
2167415		 # 	collision with: 3 6 0 0  and 6 1 1 0 
2167440		 # 	collision with: 9 1 0 0  and 5 9 1 0 
2167442		 # 	collision with: 9 8 0 0  and 10 5 1 0 
2167449		 # 	collision with: 2 2 0 0  and 4 2 0 0 
2167451		 # 	collision with: 1 9 1 0  and 2 1 2 0 
2167484		 # 	collision with: 8 3 0 0  and 7 0 1 0 
2167486		 # 	collision with: 6 8 0 0  and 4 5 1 0 
2167505		 # 	collision with: 5 2 0 0  and 6 2 0 0 
2167507		 # 	collision with: 9 6 0 0  and 2 5 2 0 
2167528		 # 	collision with: 5 4 1 0  and 1 1 2 0 
2167530		 # 	collision with: 8 8 0 0  and 8 5 1 0 
2167533		 # 	collision with: 3 2 0 0  and 5 2 0 0 
2167535		 # 	collision with: 8 4 0 0  and 8 6 0 0 
2167587		 # 	collision with: 5 5 0 0  and 6 1 1 0 
2167616		 # 	collision with: 4 1 1 0  and 1 9 2 0 
2167618		 # 	collision with: 0 8 0 0  and 3 5 1 0 
2167649		 # 	collision with: 2 2 0 0  and 3 2 0 0 
2167660		 # 	collision with: 8 5 0 0  and 3 10 2 0 
2167662		 # 	collision with: 2 8 0 0  and 7 5 1 0 
2167701		 # 	collision with: 0 2 0 0  and 1 2 0 0 
2167703		 # 	collision with: 6 3 0 0  and 6 3 1 0 
2167704		 # 	collision with: 9 4 0 0  and 4 1 1 0 
2167706		 # 	collision with: 10 8 0 0  and 1 5 1 0 
2167729		 # 	collision with: 4 2 0 0  and 5 2 0 0 
2167731		 # 	collision with: 8 1 1 0  and 8 3 1 0 
2167748		 # 	collision with: 8 6 0 0  and 6 0 2 0 
2167750		 # 	collision with: 3 8 0 0  and 9 5 1 0 
2167785		 # 	collision with: 1 2 0 0  and 2 2 0 0 
2167787		 # 	collision with: 7 10 0 0  and 6 6 1 0 
2167792		 # 	collision with: 3 6 0 0  and 1 3 1 0 
2167794		 # 	collision with: 0 2 1 0  and 1 2 1 0 
2167821		 # 	collision with: 3 2 0 0  and 4 2 0 0 
2167836		 # 	collision with: 5 7 10 0  and 7 0 0 1 
2167838		 # 	collision with: 10 2 0 0  and 8 6 1 0 
2167840		 # 	collision with: 4 0 9 0  and 8 1 9 0 
2167842		 # 	collision with: 3 0 0 0  and 1 10 1 0 
2167844		 # 	collision with: 2 0 10 0  and 4 1 10 0 
2167846		 # 	collision with: 5 1 0 0  and 3 8 1 0 
2167848		 # 	collision with: 5 0 3 0  and 10 1 3 0 
2167850		 # 	collision with: 4 9 0 0  and 2 3 1 0 
2167852		 # 	collision with: 1 0 5 0  and 2 1 5 0 
2167854		 # 	collision with: 7 7 0 0  and 5 0 1 0 
2167856		 # 	collision with: 3 0 4 0  and 6 1 4 0 
2167858		 # 	collision with: 6 8 0 0  and 4 5 1 0 
2167860		 # 	collision with: 8 0 7 0  and 5 1 7 0 
2167862		 # 	collision with: 8 4 0 0  and 6 2 1 0 
2167864		 # 	collision with: 10 0 6 0  and 9 1 6 0 
2167866		 # 	collision with: 1 3 0 0  and 10 4 1 0 
2167868		 # 	collision with: 6 0 8 0  and 1 1 8 0 
2167872		 # 	collision with: 9 0 1 0  and 7 1 1 0 
2167874		 # 	collision with: 0 1 10 0  and 10 0 0 1 
2167876		 # 	collision with: 0 2 0 0  and 1 2 0 0 
2167878		 # 	collision with: 9 6 0 0  and 7 9 1 0 
2167880		 # 	collision with: 3 7 0 0  and 9 0 1 0 
2167882		 # 	collision with: 0 10 0 0  and 10 3 1 0 
2167897		 # 	collision with: 0 2 0 0  and 1 2 0 0 
2167899		 # 	collision with: 2 1 0 0  and 5 0 1 0 
2167924		 # 	collision with: 3 1 0 0  and 10 5 1 0 
2167926		 # 	collision with: 8 5 0 0  and 3 2 2 0 
2167933		 # 	collision with: 2 2 0 0  and 3 2 0 0 
2167968		 # 	collision with: 6 6 0 0  and 3 10 1 0 
2167970		 # 	collision with: 0 7 1 0  and 6 0 2 0 
2167989		 # 	collision with: 4 2 0 0  and 6 2 0 0 
2167991		 # 	collision with: 0 0 0 0  and 2 3 1 0 
2168012		 # 	collision with: 1 8 0 0  and 5 1 1 0 
2168014		 # 	collision with: 1 4 0 0  and 2 8 1 0 
2168017		 # 	collision with: 3 2 0 0  and 4 2 0 0 
2168019		 # 	collision with: 8 4 0 0  and 8 5 0 0 
2168056		 # 	collision with: 3 3 0 0  and 4 0 2 0 
2168058		 # 	collision with: 4 10 1 0  and 9 3 2 0 
2168069		 # 	collision with: 1 2 0 0  and 2 2 0 0 
2168071		 # 	collision with: 10 4 1 0  and 6 0 2 0 
2168100		 # 	collision with: 5 0 1 0  and 6 4 2 0 
2168102		 # 	collision with: 1 1 0 0  and 3 5 1 0 
2168133		 # 	collision with: 1 2 0 0  and 3 2 0 0 
2168135		 # 	collision with: 1 1 1 0  and 1 1 2 0 
2168144		 # 	collision with: 10 7 1 0  and 8 0 2 0 
2168146		 # 	collision with: 6 3 2 0  and 1 7 3 0 
2168185		 # 	collision with: 5 2 0 0  and 6 2 0 0 
2168187		 # 	collision with: 10 1 0 0  and 5 10 1 0 
2168188		 # 	collision with: 2 10 1 0  and 5 3 2 0 
2168190		 # 	collision with: 8 7 0 0  and 8 0 1 0 
2168213		 # 	collision with: 3 2 0 0  and 5 2 0 0 
2168232		 # 	collision with: 4 8 2 0  and 8 5 4 0 
2168234		 # 	collision with: 7 4 0 0  and 10 1 2 0 
2168269		 # 	collision with: 0 2 0 0  and 2 2 0 0 
2168271		 # 	collision with: 3 1 0 0  and 0 0 1 0 
2168307		 # 	collision with: 3 2 1 0  and 4 2 1 0 
2168320		 # 	collision with: 1 0 1 0  and 0 1 0 1 
2168322		 # 	collision with: 3 1 0 0  and 0 0 1 0 
2168324		 # 	collision with: 4 0 8 0  and 8 1 8 0 
2168328		 # 	collision with: 2 0 4 0  and 4 1 4 0 
2168330		 # 	collision with: 1 10 0 0  and 9 1 1 0 
2168332		 # 	collision with: 5 0 10 0  and 10 1 10 0 
2168334		 # 	collision with: 8 5 0 0  and 5 2 1 0 
2168336		 # 	collision with: 0 2 0 0  and 1 2 0 0 
2168338		 # 	collision with: 3 0 0 0  and 0 9 1 0 
2168340		 # 	collision with: 3 0 6 0  and 6 1 6 0 
2168342		 # 	collision with: 8 10 0 0  and 5 2 1 0 
2168344		 # 	collision with: 8 0 5 0  and 5 1 5 0 
2168346		 # 	collision with: 7 0 0 0  and 4 7 1 0 
2168348		 # 	collision with: 10 0 9 0  and 9 1 9 0 
2168350		 # 	collision with: 7 3 0 0  and 4 5 1 0 
2168352		 # 	collision with: 6 0 1 0  and 1 1 1 0 
2168354		 # 	collision with: 5 1 0 0  and 2 7 1 0 
2168356		 # 	collision with: 9 0 7 0  and 7 1 7 0 
2168358		 # 	collision with: 1 3 0 0  and 9 6 1 0 
2168360		 # 	collision with: 7 0 3 0  and 3 1 3 0 
2168362		 # 	collision with: 5 8 0 0  and 2 5 1 0 
2168364		 # 	collision with: 7 10 0 0  and 8 9 1 0 
2168366		 # 	collision with: 3 1 0 0  and 0 0 1 0 
2168381		 # 	collision with: 5 2 0 0  and 6 2 0 0 
2168383		 # 	collision with: 9 2 0 0  and 8 2 1 0 
2168408		 # 	collision with: 3 10 0 0  and 4 8 2 0 
2168410		 # 	collision with: 3 1 0 0  and 0 0 1 0 
2168417		 # 	collision with: 1 2 0 0  and 3 2 0 0 
2168419		 # 	collision with: 8 0 1 0  and 8 1 2 0 
2168452		 # 	collision with: 9 10 1 0  and 4 9 2 0 
2168454		 # 	collision with: 3 1 0 0  and 0 0 1 0 
2168473		 # 	collision with: 4 2 0 0  and 5 2 0 0 
2168475		 # 	collision with: 3 2 0 0  and 8 6 1 0 
2168503		 # 	collision with: 8 3 0 0  and 8 5 0 0 
2168540		 # 	collision with: 0 4 0 0  and 6 2 2 0 
2168542		 # 	collision with: 3 1 0 0  and 0 0 1 0 
2168553		 # 	collision with: 0 2 0 0  and 2 2 0 0 
2168555		 # 	collision with: 6 6 0 0  and 4 4 1 0 
2168584		 # 	collision with: 0 3 1 0  and 8 2 2 0 
2168586		 # 	collision with: 3 1 0 0  and 0 0 1 0 
2168617		 # 	collision with: 1 2 0 0  and 2 2 0 0 
2168619		 # 	collision with: 1 1 0 0  and 1 1 2 0 
2168628		 # 	collision with: 7 1 0 0  and 9 0 1 0 
2168630		 # 	collision with: 3 1 0 0  and 0 0 1 0 
2168669		 # 	collision with: 4 2 0 0  and 6 2 0 0 
2168671		 # 	collision with: 8 0 0 0  and 6 2 1 0 
2168672		 # 	collision with: 8 5 0 0  and 1 4 1 0 
2168674		 # 	collision with: 3 1 0 0  and 0 0 1 0 
2168697		 # 	collision with: 3 2 0 0  and 4 2 0 0 
2168699		 # 	collision with: 8 0 1 0  and 8 2 1 0 
2168716		 # 	collision with: 9 4 0 0  and 7 3 1 0 
2168718		 # 	collision with: 3 1 0 0  and 0 0 1 0 
2168753		 # 	collision with: 0 2 0 0  and 1 2 0 0 
2168755		 # 	collision with: 8 4 0 0  and 8 0 2 0 
2168760		 # 	collision with: 0 3 0 0  and 3 2 1 0 
2168762		 # 	collision with: 3 1 0 0  and 0 0 1 0 
2168789		 # 	collision with: 2 2 0 0  and 3 2 0 0 
2168791		 # 	collision with: 6 0 1 0  and 4 1 1 0 
2168804		 # 	collision with: 4 1 6 0  and 8 0 0 1 
2168806		 # 	collision with: 3 3 0 0  and 10 5 1 0 
2168808		 # 	collision with: 4 0 7 0  and 8 1 7 0 
2168810		 # 	collision with: 9 10 0 0  and 5 3 1 0 
2168812		 # 	collision with: 2 0 9 0  and 4 1 9 0 
2168814		 # 	collision with: 8 0 9 0  and 8 1 9 0 
2168816		 # 	collision with: 5 0 6 0  and 10 1 6 0 
2168818		 # 	collision with: 6 3 0 0  and 2 6 1 0 
2168820		 # 	collision with: 1 0 10 0  and 2 1 10 0 
2168822		 # 	collision with: 4 8 0 0  and 0 5 1 0 
2168824		 # 	collision with: 3 0 8 0  and 6 1 8 0 
2168828		 # 	collision with: 8 0 3 0  and 5 1 3 0 
2168830		 # 	collision with: 1 2 0 0  and 8 6 1 0 
2168832		 # 	collision with: 10 0 1 0  and 9 1 1 0 
2168834		 # 	collision with: 3 9 0 0  and 10 1 1 0 
2168836		 # 	collision with: 6 0 5 0  and 1 1 5 0 
2168838		 # 	collision with: 4 9 0 0  and 0 0 1 0 
2168840		 # 	collision with: 0 2 0 0  and 1 2 0 0 
2168842		 # 	collision with: 2 4 0 0  and 9 1 1 0 
2168844		 # 	collision with: 7 0 4 0  and 3 1 4 0 
2168846		 # 	collision with: 8 0 4 0  and 8 1 4 0 
2168848		 # 	collision with: 1 8 1 0  and 5 1 3 0 
2168850		 # 	collision with: 0 10 1 0  and 6 1 2 0 
2168865		 # 	collision with: 4 2 0 0  and 6 2 0 0 
2168867		 # 	collision with: 7 2 0 0  and 1 2 1 0 
2168892		 # 	collision with: 3 9 1 0  and 6 0 2 0 
2168894		 # 	collision with: 10 6 0 0  and 2 8 1 0 
2168901		 # 	collision with: 1 2 0 0  and 2 2 0 0 
2168903		 # 	collision with: 9 10 0 0  and 5 3 1 0 
2168936		 # 	collision with: 2 10 0 0  and 6 1 1 0 
2168938		 # 	collision with: 10 5 0 0  and 7 7 1 0 
2168957		 # 	collision with: 3 2 0 0  and 5 2 0 0 
2168959		 # 	collision with: 8 1 3 0  and 8 2 3 0 
2168980		 # 	collision with: 5 9 0 0  and 10 0 1 0 
2168982		 # 	collision with: 0 3 2 0  and 9 5 3 0 
2168985		 # 	collision with: 2 2 0 0  and 3 2 0 0 
2168987		 # 	collision with: 8 3 0 0  and 8 4 0 0 
2169024		 # 	collision with: 0 0 2 0  and 10 2 3 0 
2169026		 # 	collision with: 7 9 0 0  and 6 0 1 0 
2169037		 # 	collision with: 0 2 0 0  and 1 2 0 0 
2169039		 # 	collision with: 3 0 0 0  and 7 3 1 0 
2169068		 # 	collision with: 0 0 0 0  and 3 2 1 0 
2169070		 # 	collision with: 7 7 0 0  and 5 0 2 0 
2169101		 # 	collision with: 0 2 0 0  and 2 2 0 0 
2169103		 # 	collision with: 1 1 0 0  and 1 1 1 0 
2169112		 # 	collision with: 10 1 0 0  and 1 3 1 0 
2169114		 # 	collision with: 10 9 3 0  and 1 0 4 0 
2169153		 # 	collision with: 4 2 0 0  and 5 2 0 0 
2169155		 # 	collision with: 8 8 1 0  and 6 2 2 0 
2169156		 # 	collision with: 1 10 1 0  and 3 1 2 0 
2169158		 # 	collision with: 7 0 0 0  and 9 4 2 0 
2169181		 # 	collision with: 2 2 0 0  and 4 2 0 0 
2169183		 # 	collision with: 8 0 1 0  and 8 1 1 0 
2169239		 # 	collision with: 8 0 0 0  and 8 2 1 0 
2169244		 # 	collision with: 9 8 0 0  and 4 10 1 0 
2169246		 # 	collision with: 4 4 0 0  and 6 6 1 0 
2169273		 # 	collision with: 1 2 0 0  and 3 2 0 0 
2169275		 # 	collision with: 2 2 1 0  and 3 2 1 0 
2169288		 # 	collision with: 4 7 3 0  and 3 0 0 1 
2169290		 # 	collision with: 3 1 0 0  and 9 7 1 0 
2169292		 # 	collision with: 4 0 6 0  and 8 1 6 0 
2169294		 # 	collision with: 2 2 0 0  and 8 3 1 0 
2169296		 # 	collision with: 2 0 3 0  and 4 1 3 0 
2169298		 # 	collision with: 5 9 0 0  and 0 6 1 0 
2169300		 # 	collision with: 0 2 0 0  and 1 2 0 0 
2169302		 # 	collision with: 8 6 0 0  and 3 2 1 0 
2169304		 # 	collision with: 1 0 7 0  and 2 1 7 0 
2169306		 # 	collision with: 10 0 0 0  and 5 7 1 0 
2169308		 # 	collision with: 3 0 10 0  and 6 1 10 0 
2169310		 # 	collision with: 1 4 0 0  and 7 5 1 0 
2169312		 # 	collision with: 8 0 1 0  and 5 1 1 0 
2169314		 # 	collision with: 8 0 1 0  and 8 1 1 0 
2169316		 # 	collision with: 10 0 4 0  and 9 1 4 0 
2169318		 # 	collision with: 1 10 0 0  and 7 3 1 0 
2169320		 # 	collision with: 6 0 9 0  and 1 1 9 0 
2169322		 # 	collision with: 0 3 0 0  and 6 6 1 0 
2169324		 # 	collision with: 9 0 8 0  and 7 1 8 0 
2169328		 # 	collision with: 7 0 5 0  and 3 1 5 0 
2169330		 # 	collision with: 10 5 0 0  and 5 0 1 0 
2169332		 # 	collision with: 9 10 1 0  and 2 5 2 0 
2169334		 # 	collision with: 4 4 0 0  and 9 5 2 0 
2169349		 # 	collision with: 4 2 0 0  and 5 2 0 0 
2169351		 # 	collision with: 3 2 0 0  and 4 2 1 0 
2169376		 # 	collision with: 2 6 0 0  and 3 1 1 0 
2169378		 # 	collision with: 10 8 0 0  and 9 3 1 0 
2169385		 # 	collision with: 0 2 0 0  and 2 2 0 0 
2169387		 # 	collision with: 10 6 0 0  and 5 3 1 0 
2169443		 # 	collision with: 10 1 0 0  and 1 7 2 0 
2169464		 # 	collision with: 0 1 0 0  and 7 2 2 0 
2169466		 # 	collision with: 1 5 2 0  and 2 0 3 0 
2169469		 # 	collision with: 1 2 0 0  and 3 2 0 0 
2169471		 # 	collision with: 8 2 0 0  and 8 4 0 0 
2169508		 # 	collision with: 2 0 0 0  and 10 6 1 0 
2169510		 # 	collision with: 10 0 0 0  and 1 1 2 0 
2169521		 # 	collision with: 5 2 0 0  and 6 2 0 0 
2169523		 # 	collision with: 10 2 0 0  and 8 3 1 0 
2169552		 # 	collision with: 3 8 0 0  and 1 9 2 0 
2169554		 # 	collision with: 3 7 0 0  and 2 8 2 0 
2169585		 # 	collision with: 0 2 0 0  and 1 2 0 0 
2169587		 # 	collision with: 1 4 0 0  and 4 0 1 0 
2169596		 # 	collision with: 10 5 1 0  and 7 0 2 0 
2169598		 # 	collision with: 7 0 0 0  and 3 6 1 0 
2169637		 # 	collision with: 3 2 0 0  and 5 2 0 0 
2169640		 # 	collision with: 5 5 0 0  and 9 0 1 0 
2169642		 # 	collision with: 8 7 1 0  and 2 2 2 0 
2169665		 # 	collision with: 2 2 0 0  and 3 2 0 0 
2169667		 # 	collision with: 8 5 1 0  and 8 6 1 0 
2169684		 # 	collision with: 5 9 1 0  and 1 4 2 0 
2169686		 # 	collision with: 8 7 0 0  and 8 2 1 0 
2169721		 # 	collision with: 4 2 0 0  and 6 2 0 0 
2169723		 # 	collision with: 8 3 0 0  and 9 2 1 0 
2169728		 # 	collision with: 10 8 0 0  and 5 3 1 0 
2169730		 # 	collision with: 5 5 0 0  and 7 0 1 0 
2169757		 # 	collision with: 1 2 0 0  and 2 2 0 0 
2169759		 # 	collision with: 1 2 1 0  and 3 2 1 0 
2169772		 # 	collision with: 7 6 10 0  and 6 0 0 1 
2169774		 # 	collision with: 5 0 0 0  and 10 5 1 0 
2169776		 # 	collision with: 4 0 5 0  and 8 1 5 0 
2169778		 # 	collision with: 9 0 0 0  and 3 9 1 0 
2169780		 # 	collision with: 2 0 8 0  and 4 1 8 0 
2169784		 # 	collision with: 5 0 9 0  and 10 1 9 0 
2169786		 # 	collision with: 2 8 0 0  and 7 5 1 0 
2169788		 # 	collision with: 1 0 4 0  and 2 1 4 0 
2169790		 # 	collision with: 10 9 0 0  and 4 4 1 0 
2169792		 # 	collision with: 3 0 1 0  and 6 1 1 0 
2169794		 # 	collision with: 2 6 0 0  and 7 4 1 0 
2169796		 # 	collision with: 8 0 10 0  and 5 1 10 0 
2169798		 # 	collision with: 3 2 0 0  and 8 9 1 0 
2169800		 # 	collision with: 10 0 7 0  and 9 1 7 0 
2169802		 # 	collision with: 10 6 0 0  and 4 0 1 0 
2169804		 # 	collision with: 0 2 0 0  and 1 2 0 0 
2169806		 # 	collision with: 0 9 0 0  and 5 6 1 0 
2169808		 # 	collision with: 9 0 3 0  and 7 1 3 0 
2169810		 # 	collision with: 9 8 0 0  and 3 3 1 0 
2169812		 # 	collision with: 7 0 6 0  and 3 1 6 0 
2169814		 # 	collision with: 0 1 3 0  and 3 0 0 1 
2169816		 # 	collision with: 6 7 3 0  and 3 1 4 0 
2169818		 # 	collision with: 8 8 1 0  and 7 2 2 0 
2169833		 # 	collision with: 3 2 0 0  and 5 2 0 0 
2169835		 # 	collision with: 6 2 0 0  and 5 2 1 0 
2169860		 # 	collision with: 4 4 0 0  and 8 3 2 0 
2169862		 # 	collision with: 8 9 0 0  and 8 3 1 0 
2169869		 # 	collision with: 0 2 0 0  and 1 2 0 0 
2169871		 # 	collision with: 8 5 2 0  and 1 2 3 0 
2169904		 # 	collision with: 0 3 0 0  and 9 2 2 0 
2169906		 # 	collision with: 0 9 1 0  and 7 3 2 0 
2169925		 # 	collision with: 2 2 0 0  and 4 2 0 0 
2169927		 # 	collision with: 5 3 1 0  and 0 1 2 0 
2169948		 # 	collision with: 8 7 0 0  and 4 1 1 0 
2169950		 # 	collision with: 7 2 0 0  and 8 1 2 0 
2169953		 # 	collision with: 1 2 0 0  and 2 2 0 0 
2169992		 # 	collision with: 4 0 0 0  and 1 5 1 0 
2169994		 # 	collision with: 7 7 0 0  and 2 1 1 0 
2170005		 # 	collision with: 4 2 0 0  and 6 2 0 0 
2170007		 # 	collision with: 2 7 0 0  and 1 0 1 0 
2170036		 # 	collision with: 6 6 0 0  and 10 0 1 0 
2170038		 # 	collision with: 5 6 0 0  and 3 0 1 0 
2170069		 # 	collision with: 5 2 0 0  and 6 2 0 0 
2170071		 # 	collision with: 7 10 0 0  and 1 0 2 0 
2170080		 # 	collision with: 10 1 1 0  and 3 6 2 0 
2170082		 # 	collision with: 5 1 0 0  and 1 0 2 0 
2170121		 # 	collision with: 3 2 0 0  and 4 2 0 0 
2170123		 # 	collision with: 6 5 0 0  and 3 1 2 0 
2170151		 # 	collision with: 9 9 0 0  and 10 0 1 0 
2170168		 # 	collision with: 9 10 0 0  and 3 4 1 0 
2170170		 # 	collision with: 2 1 0 0  and 4 6 1 0 
2170205		 # 	collision with: 4 2 0 0  and 5 2 0 0 
2170207		 # 	collision with: 9 7 0 0  and 9 7 1 0 
2170212		 # 	collision with: 4 9 0 0  and 6 3 1 0 
2170214		 # 	collision with: 4 7 1 0  and 6 1 2 0 
2170241		 # 	collision with: 0 2 0 0  and 2 2 0 0 
2170243		 # 	collision with: 1 2 1 0  and 2 2 1 0 
2170256		 # 	collision with: 4 5 3 0  and 10 0 0 1 
2170258		 # 	collision with: 9 10 0 0  and 2 8 1 0 
2170260		 # 	collision with: 4 0 4 0  and 8 1 4 0 
2170262		 # 	collision with: 10 4 0 0  and 3 10 1 0 
2170264		 # 	collision with: 0 2 0 0  and 1 2 0 0 
2170266		 # 	collision with: 3 5 0 0  and 7 6 1 0 
2170268		 # 	collision with: 5 0 5 0  and 10 1 5 0 
2170270		 # 	collision with: 5 7 0 0  and 9 9 1 0 
2170272		 # 	collision with: 1 0 1 0  and 2 1 1 0 
2170274		 # 	collision with: 4 2 0 0  and 8 7 1 0 
2170276		 # 	collision with: 3 0 3 0  and 6 1 3 0 
2170278		 # 	collision with: 8 0 3 0  and 8 1 3 0 
2170280		 # 	collision with: 8 0 8 0  and 5 1 8 0 
2170284		 # 	collision with: 10 0 10 0  and 9 1 10 0 
2170286		 # 	collision with: 4 2 0 0  and 8 0 1 0 
2170288		 # 	collision with: 6 0 6 0  and 1 1 6 0 
2170290		 # 	collision with: 1 8 0 0  and 5 5 1 0 
2170292		 # 	collision with: 9 0 9 0  and 7 1 9 0 
2170294		 # 	collision with: 2 9 0 0  and 6 1 1 0 
2170296		 # 	collision with: 7 0 7 0  and 3 1 7 0 
2170298		 # 	collision with: 10 0 10 0  and 0 1 0 1 
2170300		 # 	collision with: 3 5 1 0  and 9 3 2 0 
2170302		 # 	collision with: 0 5 0 0  and 10 1 2 0 
2170317		 # 	collision with: 3 2 0 0  and 4 2 0 0 
2170319		 # 	collision with: 5 2 0 0  and 4 2 1 0 
2170355		 # 	collision with: 9 1 3 0  and 3 0 4 0 
2170388		 # 	collision with: 6 4 0 0  and 5 0 2 0 
2170390		 # 	collision with: 6 2 0 0  and 8 0 1 0 
2170409		 # 	collision with: 2 2 0 0  and 3 2 0 0 
2170411		 # 	collision with: 5 5 0 0  and 2 9 1 0 
2170432		 # 	collision with: 4 5 0 0  and 1 3 1 0 
2170434		 # 	collision with: 0 6 0 0  and 3 4 1 0 
2170437		 # 	collision with: 0 2 0 0  and 2 2 0 0 
2170439		 # 	collision with: 8 1 0 0  and 8 3 0 0 
2170476		 # 	collision with: 8 3 0 0  and 3 1 1 0 
2170478		 # 	collision with: 3 3 1 0  and 2 1 2 0 
2170489		 # 	collision with: 4 2 0 0  and 5 2 0 0 
2170491		 # 	collision with: 5 10 0 0  and 5 10 1 0 
2170520		 # 	collision with: 6 10 0 0  and 8 8 1 0 
2170522		 # 	collision with: 8 5 0 0  and 8 3 1 0 
2170553		 # 	collision with: 4 2 0 0  and 6 2 0 0 
2170555		 # 	collision with: 10 8 1 0  and 6 7 3 0 
2170564		 # 	collision with: 0 4 1 0  and 5 2 2 0 
2170566		 # 	collision with: 10 6 2 0  and 1 4 3 0 
2170605		 # 	collision with: 2 2 0 0  and 4 2 0 0 
2170607		 # 	collision with: 5 9 1 0  and 2 0 2 0 
2170608		 # 	collision with: 9 3 1 0  and 2 1 2 0 
2170610		 # 	collision with: 8 4 0 0  and 5 2 1 0 
2170633		 # 	collision with: 1 2 0 0  and 2 2 0 0 
2170635		 # 	collision with: 8 4 1 0  and 8 5 1 0 
2170652		 # 	collision with: 8 9 0 0  and 9 7 1 0 
2170654		 # 	collision with: 6 7 0 0  and 1 5 1 0 
2170689		 # 	collision with: 3 2 0 0  and 5 2 0 0 
2170691		 # 	collision with: 1 3 0 0  and 7 9 1 0 
2170696		 # 	collision with: 0 4 0 0  and 7 2 1 0 
2170698		 # 	collision with: 1 9 1 0  and 7 7 2 0 
2170725		 # 	collision with: 0 2 0 0  and 1 2 0 0 
2170727		 # 	collision with: 0 2 1 0  and 2 2 1 0 
2170740		 # 	collision with: 10 0 10 0  and 0 1 0 1 
2170742		 # 	collision with: 2 3 0 0  and 5 4 1 0 
2170744		 # 	collision with: 4 0 3 0  and 8 1 3 0 
2170746		 # 	collision with: 4 3 0 0  and 7 6 1 0 
2170748		 # 	collision with: 2 0 7 0  and 4 1 7 0 
2170750		 # 	collision with: 0 8 0 0  and 3 5 1 0 
2170752		 # 	collision with: 5 0 1 0  and 10 1 1 0 
2170754		 # 	collision with: 8 10 0 0  and 0 2 1 0 
2170756		 # 	collision with: 1 0 9 0  and 2 1 9 0 
2170758		 # 	collision with: 3 1 0 0  and 6 5 1 0 
2170760		 # 	collision with: 3 0 5 0  and 6 1 5 0 
2170762		 # 	collision with: 8 5 0 0  and 0 2 1 0 
2170764		 # 	collision with: 8 0 6 0  and 5 1 6 0 
2170766		 # 	collision with: 2 4 0 0  and 5 6 1 0 
2170768		 # 	collision with: 0 2 0 0  and 1 2 0 0 
2170770		 # 	collision with: 10 5 0 0  and 2 1 1 0 
2170772		 # 	collision with: 6 0 10 0  and 1 1 10 0 
2170774		 # 	collision with: 4 3 9 0  and 8 3 0 1 
2170776		 # 	collision with: 9 0 4 0  and 7 1 4 0 
2170778		 # 	collision with: 3 10 0 0  and 6 0 1 0 
2170780		 # 	collision with: 7 0 8 0  and 3 1 8 0 
2170784		 # 	collision with: 7 0 0 0  and 3 1 1 0 
2170786		 # 	collision with: 6 9 0 0  and 4 0 2 0 
2170801		 # 	collision with: 2 2 0 0  and 4 2 0 0 
2170803		 # 	collision with: 2 2 0 0  and 2 2 1 0 
2170828		 # 	collision with: 1 7 0 0  and 7 9 2 0 
2170830		 # 	collision with: 5 2 1 0  and 8 3 2 0 
2170837		 # 	collision with: 0 1 0 0  and 5 2 0 0 
2170839		 # 	collision with: 9 1 0 0  and 0 9 1 0 
2170872		 # 	collision with: 0 1 0 0  and 1 2 1 0 
2170874		 # 	collision with: 6 10 0 0  and 5 0 1 0 
2170893		 # 	collision with: 0 1 0 0  and 1 2 0 0 
2170895		 # 	collision with: 6 9 1 0  and 5 3 2 0 
2170916		 # 	collision with: 7 7 2 0  and 4 8 3 0 
2170918		 # 	collision with: 5 2 1 0  and 8 3 2 0 
2170921		 # 	collision with: 0 2 0 0  and 1 2 0 0 
2170923		 # 	collision with: 8 1 0 0  and 8 2 0 0 
2170960		 # 	collision with: 2 10 2 0  and 3 0 3 0 
2170962		 # 	collision with: 10 5 0 0  and 4 6 1 0 
2170973		 # 	collision with: 3 2 0 0  and 5 2 0 0 
2170975		 # 	collision with: 8 8 0 0  and 9 2 1 0 
2171004		 # 	collision with: 4 10 0 0  and 6 0 1 0 
2171006		 # 	collision with: 5 2 1 0  and 8 3 2 0 
2171037		 # 	collision with: 0 1 0 0  and 2 2 0 0 
2171039		 # 	collision with: 8 0 1 0  and 6 2 2 0 
2171091		 # 	collision with: 8 9 0 0  and 4 2 1 0 
2171092		 # 	collision with: 1 7 0 0  and 10 8 1 0 
2171094		 # 	collision with: 5 2 1 0  and 8 3 2 0 
2171117		 # 	collision with: 0 2 0 0  and 2 2 0 0 
2171119		 # 	collision with: 8 3 1 0  and 8 5 1 0 
2171136		 # 	collision with: 1 8 0 0  and 4 9 1 0 
2171138		 # 	collision with: 8 0 0 0  and 10 2 2 0 
2171173		 # 	collision with: 3 2 0 0  and 4 2 0 0 
2171175		 # 	collision with: 7 9 1 0  and 6 0 2 0 
2171180		 # 	collision with: 4 9 0 0  and 8 0 2 0 
2171182		 # 	collision with: 8 0 0 0  and 8 1 1 0 
2171209		 # 	collision with: 5 2 0 0  and 6 2 0 0 
2171211		 # 	collision with: 0 2 1 0  and 1 2 1 0 
2171224		 # 	collision with: 10 5 7 0  and 4 0 0 1 
2171226		 # 	collision with: 2 5 0 0  and 4 1 1 0 
2171228		 # 	collision with: 0 2 0 0  and 1 2 0 0 
2171230		 # 	collision with: 0 1 9 0  and 9 0 0 1 
2171232		 # 	collision with: 2 0 1 0  and 4 1 1 0 
2171234		 # 	collision with: 2 4 0 0  and 4 5 1 0 
2171236		 # 	collision with: 5 0 8 0  and 10 1 8 0 
2171240		 # 	collision with: 1 0 6 0  and 2 1 6 0 
2171242		 # 	collision with: 7 6 0 0  and 9 9 1 0 
2171244		 # 	collision with: 3 0 7 0  and 6 1 7 0 
2171246		 # 	collision with: 10 3 0 0  and 1 8 1 0 
2171248		 # 	collision with: 8 0 4 0  and 5 1 4 0 
2171250		 # 	collision with: 9 3 0 0  and 0 6 1 0 
2171252		 # 	collision with: 10 0 5 0  and 9 1 5 0 
2171254		 # 	collision with: 10 8 0 0  and 1 5 1 0 
2171256		 # 	collision with: 6 0 3 0  and 1 1 3 0 
2171258		 # 	collision with: 2 9 10 0  and 9 3 0 1 
2171260		 # 	collision with: 9 0 10 0  and 7 1 10 0 
2171262		 # 	collision with: 0 5 0 0  and 2 6 1 0 
2171264		 # 	collision with: 7 0 9 0  and 3 1 9 0 
2171266		 # 	collision with: 9 1 0 0  and 0 9 1 0 
2171287		 # 	collision with: 3 2 0 0  and 2 2 1 0 
2171312		 # 	collision with: 3 0 0 0  and 1 7 1 0 
2171314		 # 	collision with: 8 10 1 0  and 4 2 3 0 
2171321		 # 	collision with: 4 2 0 0  and 5 2 0 0 
2171323		 # 	collision with: 4 5 0 0  and 9 1 1 0 
2171356		 # 	collision with: 1 4 1 0  and 10 0 2 0 
2171358		 # 	collision with: 0 8 0 0  and 6 4 1 0 
2171377		 # 	collision with: 1 2 0 0  and 2 2 0 0 
2171400		 # 	collision with: 9 5 0 0  and 6 1 1 0 
2171402		 # 	collision with: 4 10 1 0  and 0 6 2 0 
2171405		 # 	collision with: 0 0 0 0  and 4 2 0 0 
2171407		 # 	collision with: 8 0 0 0  and 8 2 0 0 
2171444		 # 	collision with: 10 3 1 0  and 8 6 3 0 
2171446		 # 	collision with: 4 4 0 0  and 1 0 1 0 
2171457		 # 	collision with: 0 0 0 0  and 1 2 0 0 
2171459		 # 	collision with: 0 0 0 0  and 3 1 2 0 
2171488		 # 	collision with: 3 7 0 0  and 4 3 1 0 
2171490		 # 	collision with: 3 1 0 0  and 7 8 1 0 
2171521		 # 	collision with: 3 2 0 0  and 5 2 0 0 
2171523		 # 	collision with: 3 7 0 0  and 7 5 2 0 
2171532		 # 	collision with: 3 0 0 0  and 5 3 2 0 
2171534		 # 	collision with: 8 6 0 0  and 4 2 1 0 
2171573		 # 	collision with: 1 2 0 0  and 3 2 0 0 
2171575		 # 	collision with: 0 10 0 0  and 7 0 1 0 
2171576		 # 	collision with: 8 4 0 0  and 3 0 1 0 
2171578		 # 	collision with: 2 3 0 0  and 1 6 2 0 
2171601		 # 	collision with: 0 2 0 0  and 1 2 0 0 
2171603		 # 	collision with: 4 9 0 0  and 3 1 1 0 
2171620		 # 	collision with: 0 6 0 0  and 10 2 1 0 
2171622		 # 	collision with: 2 10 0 0  and 7 6 1 0 
2171657		 # 	collision with: 2 2 0 0  and 4 2 0 0 
2171664		 # 	collision with: 8 8 0 0  and 9 0 2 0 
2171666		 # 	collision with: 6 7 1 0  and 9 3 2 0 
2171693		 # 	collision with: 4 2 0 0  and 6 2 0 0 
2171695		 # 	collision with: 5 2 1 0  and 6 2 1 0 
2171708		 # 	collision with: 8 7 6 0  and 6 0 0 1 
2171710		 # 	collision with: 3 3 0 0  and 4 6 1 0 
2171712		 # 	collision with: 4 0 1 0  and 8 1 1 0 
2171714		 # 	collision with: 9 8 0 0  and 10 5 1 0 
2171716		 # 	collision with: 2 0 6 0  and 4 1 6 0 
2171718		 # 	collision with: 3 5 0 0  and 4 3 1 0 
2171720		 # 	collision with: 5 0 4 0  and 10 1 4 0 
2171722		 # 	collision with: 0 5 0 0  and 1 7 1 0 
2171724		 # 	collision with: 1 0 3 0  and 2 1 3 0 
2171726		 # 	collision with: 5 6 0 0  and 6 8 1 0 
2171728		 # 	collision with: 3 0 9 0  and 6 1 9 0 
2171730		 # 	collision with: 7 2 0 0  and 8 7 1 0 
2171732		 # 	collision with: 0 2 0 0  and 1 2 0 0 
2171734		 # 	collision with: 5 8 0 0  and 6 0 1 0 
2171736		 # 	collision with: 10 0 8 0  and 9 1 8 0 
2171740		 # 	collision with: 6 0 7 0  and 1 1 7 0 
2171742		 # 	collision with: 10 9 0 0  and 0 3 1 0 
2171744		 # 	collision with: 9 0 5 0  and 7 1 5 0 
2171746		 # 	collision with: 4 9 0 0  and 5 4 1 0 
2171748		 # 	collision with: 7 0 10 0  and 3 1 10 0 
2171750		 # 	collision with: 7 2 0 0  and 8 8 1 0 
2171752		 # 	collision with: 10 6 0 0  and 1 9 1 0 
2171754		 # 	collision with: 10 9 0 0  and 4 4 2 0 
2171769		 # 	collision with: 1 2 0 0  and 3 2 0 0 
2171796		 # 	collision with: 5 6 1 0  and 2 1 3 0 
2171798		 # 	collision with: 2 1 2 0  and 0 4 3 0 
2171805		 # 	collision with: 3 2 0 0  and 5 2 0 0 
2171807		 # 	collision with: 6 8 0 0  and 2 4 1 0 
2171840		 # 	collision with: 1 9 0 0  and 4 1 1 0 
2171842		 # 	collision with: 5 9 0 0  and 7 1 1 0 
2171861		 # 	collision with: 6 0 0 0  and 1 1 0 0 
2171863		 # 	collision with: 0 5 0 0  and 6 3 2 0 
2171884		 # 	collision with: 0 7 0 0  and 3 2 2 0 
2171886		 # 	collision with: 7 9 1 0  and 4 1 2 0 
2171889		 # 	collision with: 3 0 0 0  and 6 1 0 0 
2171891		 # 	collision with: 8 0 0 0  and 8 1 0 0 
2171928		 # 	collision with: 7 0 1 0  and 8 3 2 0 
2171930		 # 	collision with: 9 10 0 0  and 7 5 2 0 
2171941		 # 	collision with: 2 2 0 0  and 4 2 0 0 
40.2931secs	20506
