# prime 11
# degree 2
# input variables 3
# output variables 4
# reload computed balance functions from file balance-1236of3248-p11d2m3-debug.log
# p = 11
# n = 4
# smalldomain p^m 1331
# domain p^n 14641
#	 p^2 = 121
#	 p^3 = 1331
#	 p^4 = 14641
#	 p^5 = 161051
#	 p^6 = 1771561
#	 p^7 = 19487171
#	 p^8 = 214358881
#	 p^9 = 2357947691
opening file : balance-1236of3248-p11d2m3-debug.log
reloading for step2...
7416004		 # 	collision with: 8 10 0 0  and 2 10 1 0 
7416006		 # 	collision with: 3 7 1 0  and 4 7 1 0 
7416016		 # 	collision with: 8 9 0 0  and 0 0 2 0 
7416018		 # 	collision with: 6 6 0 0  and 4 4 1 0 
7416028		 # 	collision with: 10 0 1 0  and 8 2 1 0 
7416030		 # 	collision with: 8 0 1 0  and 9 2 1 0 
7416041		 # 	collision with: 7 10 0 0  and 6 3 1 0 
7416043		 # 	collision with: 4 0 0 0  and 4 1 0 0 
7416045		 # 	collision with: 1 9 0 0  and 2 7 1 0 
7416056		 # 	collision with: 0 6 0 0  and 5 3 1 0 
7416058		 # 	collision with: 8 10 0 0  and 7 4 1 0 
7416084		 # 	collision with: 1 4 0 0  and 3 4 1 0 
7416086		 # 	collision with: 7 4 0 0  and 8 4 1 0 
7416108		 # 	collision with: 6 5 1 0  and 8 2 2 0 
7416110		 # 	collision with: 4 10 0 0  and 6 10 0 0 
7416116		 # 	collision with: 10 5 0 0  and 8 2 1 0 
7416140		 # 	collision with: 9 5 0 0  and 3 0 1 0 
7416142		 # 	collision with: 6 9 0 0  and 7 3 1 0 
7416168		 # 	collision with: 3 6 0 0  and 8 5 1 0 
7416170		 # 	collision with: 8 1 0 0  and 8 2 1 0 
7416181		 # 	collision with: 7 0 0 0  and 10 8 1 0 
7416183		 # 	collision with: 10 8 0 0  and 3 5 1 0 
7416185		 # 	collision with: 4 4 0 0  and 5 10 1 0 
7416187		 # 	collision with: 0 1 0 0  and 3 2 1 0 
7416196		 # 	collision with: 7 1 0 0  and 5 1 2 0 
7416201		 # 	collision with: 2 3 0 0  and 4 0 1 0 
7416203		 # 	collision with: 9 0 0 0  and 1 1 0 0 
7416208		 # 	collision with: 6 1 0 0  and 4 4 1 0 
7416210		 # 	collision with: 0 2 1 0  and 2 2 1 0 
7416220		 # 	collision with: 1 3 1 0  and 2 3 1 0 
7416222		 # 	collision with: 7 7 0 0  and 9 10 2 0 
7416229		 # 	collision with: 9 5 0 0  and 4 7 1 0 
7416231		 # 	collision with: 2 5 2 0  and 3 5 2 0 
7416264		 # 	collision with: 8 9 1 0  and 10 2 2 0 
7416266		 # 	collision with: 5 4 0 0  and 9 3 2 0 
7416269		 # 	collision with: 0 2 1 0  and 2 2 1 0 
7416272		 # 	collision with: 0 2 1 0  and 2 2 1 0 
7416274		 # 	collision with: 5 10 1 0  and 5 10 2 0 
7416320		 # 	collision with: 4 2 0 0  and 9 2 1 0 
7416322		 # 	collision with: 0 7 0 0  and 1 6 1 0 
7416324		 # 	collision with: 0 2 0 0  and 8 10 1 0 
7416326		 # 	collision with: 5 10 0 0  and 3 9 1 0 
7416355		 # 	collision with: 1 10 0 0  and 3 8 1 0 
7416359		 # 	collision with: 8 10 0 0  and 1 2 2 0 
7416383		 # 	collision with: 7 8 0 0  and 0 1 1 0 
7416395		 # 	collision with: 4 2 0 0  and 2 8 1 0 
7416443		 # 	collision with: 4 9 1 0  and 4 3 2 0 
7416571		 # 	collision with: 2 10 0 0  and 2 1 1 0 
7416595		 # 	collision with: 7 2 1 0  and 0 3 2 0 
7416603		 # 	collision with: 7 8 0 0  and 0 1 1 0 
7416627		 # 	collision with: 4 8 0 0  and 6 8 0 0 
7416755		 # 	collision with: 4 1 0 0  and 6 3 1 0 
7416803		 # 	collision with: 4 8 0 0  and 6 8 0 0 
7416815		 # 	collision with: 7 0 1 0  and 4 1 1 0 
7416816		 # 	collision with: 4 1 1 0  and 9 2 2 0 
7416818		 # 	collision with: 7 1 1 0  and 0 2 2 0 
7416837		 # 	collision with: 7 6 0 0  and 6 8 1 0 
7416839		 # 	collision with: 1 3 0 0  and 0 3 1 0 
7416841		 # 	collision with: 3 9 1 0  and 7 4 2 0 
7416865		 # 	collision with: 5 10 1 0  and 3 0 2 0 
7416867		 # 	collision with: 9 4 1 0  and 9 5 1 0 
7416877		 # 	collision with: 7 4 0 0  and 4 6 0 0 
7416879		 # 	collision with: 8 2 0 0  and 0 2 2 0 
7416925		 # 	collision with: 6 2 0 0  and 8 0 2 0 
7417053		 # 	collision with: 7 4 0 0  and 4 6 0 0 
7417055		 # 	collision with: 5 0 2 0  and 6 0 2 0 
7417077		 # 	collision with: 9 3 0 0  and 3 4 1 0 
7417079		 # 	collision with: 5 0 2 0  and 6 0 2 0 
7417085		 # 	collision with: 2 10 1 0  and 3 0 2 0 
7417087		 # 	collision with: 3 6 0 0  and 7 4 1 0 
7417109		 # 	collision with: 3 10 1 0  and 7 1 2 0 
7417111		 # 	collision with: 9 1 1 0  and 7 3 2 0 
7417237		 # 	collision with: 3 9 1 0  and 7 4 2 0 
7417239		 # 	collision with: 10 8 1 0  and 2 0 2 0 
7417285		 # 	collision with: 0 3 1 0  and 1 3 1 0 
7417287		 # 	collision with: 5 0 1 0  and 6 0 1 0 
7417297		 # 	collision with: 6 3 0 0  and 4 9 2 0 
7417299		 # 	collision with: 5 0 1 0  and 6 0 1 0 
7417300		 # 	collision with: 5 1 1 0  and 1 7 2 0 
7417302		 # 	collision with: 9 0 0 0  and 0 2 1 0 
7417321		 # 	collision with: 3 1 0 0  and 1 5 2 0 
7417323		 # 	collision with: 10 7 1 0  and 2 0 2 0 
7417325		 # 	collision with: 5 2 1 0  and 8 6 2 0 
7417327		 # 	collision with: 10 9 1 0  and 8 0 2 0 
7417349		 # 	collision with: 4 4 0 0  and 1 4 1 0 
7417351		 # 	collision with: 1 5 0 0  and 10 4 1 0 
7417361		 # 	collision with: 9 4 0 0  and 2 5 0 0 
7417363		 # 	collision with: 4 4 0 0  and 6 5 0 0 
7417409		 # 	collision with: 4 4 1 0  and 10 7 2 0 
7417411		 # 	collision with: 7 3 0 0  and 9 1 1 0 
7417537		 # 	collision with: 9 4 0 0  and 2 5 0 0 
7417561		 # 	collision with: 9 4 1 0  and 9 6 1 0 
7417563		 # 	collision with: 5 5 0 0  and 3 2 1 0 
7417569		 # 	collision with: 3 0 0 0  and 6 1 1 0 
7417571		 # 	collision with: 1 8 0 0  and 7 3 1 0 
7417593		 # 	collision with: 7 9 0 0  and 8 5 1 0 
7417595		 # 	collision with: 3 9 0 0  and 3 9 2 0 
7417721		 # 	collision with: 5 2 1 0  and 8 6 2 0 
7417723		 # 	collision with: 4 9 1 0  and 8 0 2 0 
7417769		 # 	collision with: 3 3 0 0  and 3 4 1 0 
7417781		 # 	collision with: 4 6 0 0  and 2 5 1 0 
7417783		 # 	collision with: 5 2 0 0  and 4 7 1 0 
7417784		 # 	collision with: 6 9 0 0  and 0 3 1 0 
7417786		 # 	collision with: 7 2 1 0  and 6 6 2 0 
7417805		 # 	collision with: 9 8 0 0  and 0 10 1 0 
7417807		 # 	collision with: 8 1 1 0  and 8 2 1 0 
7417809		 # 	collision with: 7 0 1 0  and 4 2 1 0 
7417811		 # 	collision with: 6 0 1 0  and 6 2 1 0 
7417833		 # 	collision with: 4 8 1 0  and 6 8 1 0 
7417845		 # 	collision with: 7 3 0 0  and 4 5 0 0 
7417847		 # 	collision with: 4 5 1 0  and 5 5 1 0 
7417893		 # 	collision with: 0 1 1 0  and 9 2 1 0 
7417895		 # 	collision with: 8 1 1 0  and 8 2 1 0 
7418021		 # 	collision with: 7 3 0 0  and 4 5 0 0 
7418023		 # 	collision with: 0 7 0 0  and 1 3 1 0 
7418045		 # 	collision with: 3 9 0 0  and 9 4 1 0 
7418053		 # 	collision with: 4 8 2 0  and 6 8 2 0 
7418055		 # 	collision with: 9 4 0 0  and 8 0 2 0 
7418077		 # 	collision with: 8 5 0 0  and 3 1 1 0 
7418079		 # 	collision with: 9 0 0 0  and 8 2 2 0 
7418205		 # 	collision with: 2 7 0 0  and 0 9 1 0 
7418207		 # 	collision with: 6 0 1 0  and 6 2 1 0 
7418253		 # 	collision with: 3 4 1 0  and 2 8 2 0 
7418255		 # 	collision with: 7 10 0 0  and 2 7 2 0 
7418265		 # 	collision with: 0 3 1 0  and 1 3 1 0 
7418267		 # 	collision with: 4 7 0 0  and 4 7 1 0 
7418268		 # 	collision with: 8 10 0 0  and 4 0 1 0 
7418270		 # 	collision with: 1 4 0 0  and 6 5 1 0 
7418289		 # 	collision with: 7 0 1 0  and 4 2 1 0 
7418291		 # 	collision with: 10 3 0 0  and 2 3 1 0 
7418293		 # 	collision with: 5 6 0 0  and 3 5 1 0 
7418295		 # 	collision with: 0 10 0 0  and 2 4 1 0 
7418317		 # 	collision with: 6 3 0 0  and 4 4 1 0 
7418319		 # 	collision with: 4 8 0 0  and 6 8 0 0 
7418329		 # 	collision with: 9 3 0 0  and 2 4 0 0 
7418331		 # 	collision with: 0 9 1 0  and 7 0 2 0 
7418377		 # 	collision with: 3 0 1 0  and 6 2 1 0 
7418379		 # 	collision with: 7 9 0 0  and 5 2 1 0 
7418505		 # 	collision with: 9 3 0 0  and 2 4 0 0 
7418507		 # 	collision with: 7 8 0 0  and 0 1 2 0 
7418529		 # 	collision with: 10 6 0 0  and 7 9 1 0 
7418531		 # 	collision with: 5 3 0 0  and 5 4 0 0 
7418537		 # 	collision with: 4 3 0 0  and 5 4 1 0 
7418539		 # 	collision with: 4 8 0 0  and 6 8 0 0 
7418561		 # 	collision with: 7 10 0 0  and 0 1 1 0 
7418563		 # 	collision with: 8 9 1 0  and 1 5 2 0 
7418689		 # 	collision with: 7 1 0 0  and 0 7 1 0 
7418691		 # 	collision with: 10 0 1 0  and 2 1 1 0 
7418737		 # 	collision with: 7 10 0 0  and 0 1 1 0 
7418739		 # 	collision with: 8 6 0 0  and 10 3 1 0 
7418749		 # 	collision with: 7 3 1 0  and 5 5 1 0 
7418751		 # 	collision with: 5 3 0 0  and 5 4 0 0 
7418752		 # 	collision with: 8 2 0 0  and 2 5 1 0 
7418754		 # 	collision with: 3 1 0 0  and 9 2 2 0 
7418773		 # 	collision with: 2 0 1 0  and 2 1 1 0 
7418775		 # 	collision with: 4 8 0 0  and 6 8 0 0 
7418777		 # 	collision with: 8 6 0 0  and 5 2 1 0 
7418779		 # 	collision with: 2 10 0 0  and 10 0 1 0 
7418801		 # 	collision with: 3 1 1 0  and 3 1 2 0 
7418803		 # 	collision with: 3 0 0 0  and 9 5 2 0 
7418813		 # 	collision with: 7 2 0 0  and 4 4 0 0 
7418815		 # 	collision with: 2 5 0 0  and 9 1 1 0 
7418861		 # 	collision with: 2 0 1 0  and 2 1 1 0 
7418863		 # 	collision with: 4 8 0 0  and 6 8 0 0 
7418989		 # 	collision with: 7 2 0 0  and 4 4 0 0 
7418991		 # 	collision with: 5 3 1 0  and 5 3 2 0 
7419013		 # 	collision with: 1 7 0 0  and 5 7 1 0 
7419015		 # 	collision with: 9 2 0 0  and 1 4 0 0 
7419021		 # 	collision with: 6 1 1 0  and 6 1 2 0 
7419023		 # 	collision with: 5 1 1 0  and 2 3 2 0 
7419045		 # 	collision with: 10 7 0 0  and 6 0 1 0 
7419047		 # 	collision with: 1 1 1 0  and 3 1 1 0 
7419173		 # 	collision with: 1 1 2 0  and 3 1 2 0 
7419175		 # 	collision with: 0 3 1 0  and 1 3 1 0 
7419221		 # 	collision with: 4 1 2 0  and 9 2 2 0 
7419223		 # 	collision with: 6 9 0 0  and 6 4 1 0 
7419233		 # 	collision with: 7 1 0 0  and 7 8 2 0 
7419235		 # 	collision with: 9 2 0 0  and 1 4 0 0 
7419236		 # 	collision with: 1 7 0 0  and 0 6 2 0 
7419238		 # 	collision with: 7 3 1 0  and 2 5 2 0 
7419257		 # 	collision with: 1 1 0 0  and 4 0 1 0 
7419259		 # 	collision with: 6 5 0 0  and 9 2 1 0 
7419261		 # 	collision with: 3 7 0 0  and 9 1 2 0 
7419263		 # 	collision with: 6 4 0 0  and 1 0 1 0 
7419285		 # 	collision with: 10 7 1 0  and 5 0 2 0 
7419287		 # 	collision with: 2 1 0 0  and 10 4 1 0 
7419297		 # 	collision with: 9 2 0 0  and 2 3 0 0 
7419299		 # 	collision with: 4 1 0 0  and 4 1 1 0 
7419345		 # 	collision with: 3 1 0 0  and 4 0 1 0 
7419347		 # 	collision with: 0 0 0 0  and 7 9 1 0 
7419473		 # 	collision with: 9 2 0 0  and 2 3 0 0 
7419475		 # 	collision with: 3 1 0 0  and 3 1 1 0 
7419497		 # 	collision with: 6 7 0 0  and 7 8 2 0 
7419499		 # 	collision with: 3 2 1 0  and 3 4 1 0 
7419505		 # 	collision with: 10 7 1 0  and 5 0 2 0 
7419507		 # 	collision with: 4 1 1 0  and 4 1 2 0 
7419529		 # 	collision with: 8 10 0 0  and 8 10 1 0 
7419531		 # 	collision with: 2 5 0 0  and 7 3 1 0 
7419657		 # 	collision with: 4 3 0 0  and 0 7 2 0 
7419659		 # 	collision with: 9 4 0 0  and 3 0 1 0 
7419705		 # 	collision with: 4 5 0 0  and 5 3 1 0 
7419707		 # 	collision with: 8 2 0 0  and 8 1 2 0 
7419717		 # 	collision with: 3 7 0 0  and 2 10 1 0 
7419719		 # 	collision with: 3 2 1 0  and 3 4 1 0 
7419720		 # 	collision with: 4 2 0 0  and 3 1 1 0 
7419722		 # 	collision with: 5 5 0 0  and 3 4 1 0 
7419741		 # 	collision with: 6 2 1 0  and 9 1 2 0 
7419743		 # 	collision with: 5 1 0 0  and 10 3 1 0 
7419745		 # 	collision with: 7 4 1 0  and 7 5 1 0 
7419747		 # 	collision with: 10 1 0 0  and 10 3 0 0 
7419769		 # 	collision with: 6 2 0 0  and 8 0 1 0 
7419771		 # 	collision with: 4 5 1 0  and 5 5 1 0 
7419781		 # 	collision with: 7 1 0 0  and 4 3 0 0 
7419783		 # 	collision with: 5 7 0 0  and 9 6 1 0 
7419829		 # 	collision with: 4 5 0 0  and 7 6 1 0 
7419831		 # 	collision with: 3 0 0 0  and 8 3 2 0 
7419957		 # 	collision with: 7 1 0 0  and 4 3 0 0 
7419959		 # 	collision with: 2 4 1 0  and 3 4 1 0 
7419981		 # 	collision with: 2 7 1 0  and 4 7 1 0 
7419983		 # 	collision with: 10 2 2 0  and 1 4 2 0 
7419989		 # 	collision with: 2 4 1 0  and 3 4 1 0 
7419991		 # 	collision with: 6 2 0 0  and 9 3 1 0 
7420013		 # 	collision with: 2 8 1 0  and 2 8 2 0 
7420015		 # 	collision with: 7 3 1 0  and 7 5 1 0 
7420141		 # 	collision with: 7 4 1 0  and 7 5 1 0 
7420143		 # 	collision with: 10 1 0 0  and 10 3 0 0 
7420189		 # 	collision with: 2 2 1 0  and 3 0 2 0 
7420191		 # 	collision with: 7 3 1 0  and 7 5 1 0 
7420201		 # 	collision with: 6 2 0 0  and 3 0 1 0 
7420203		 # 	collision with: 0 6 0 0  and 5 3 1 0 
7420204		 # 	collision with: 3 2 0 0  and 10 8 1 0 
7420206		 # 	collision with: 5 6 0 0  and 10 1 1 0 
7420225		 # 	collision with: 1 7 0 0  and 6 10 1 0 
7420227		 # 	collision with: 10 1 2 0  and 10 3 2 0 
7420229		 # 	collision with: 8 3 0 0  and 0 7 1 0 
7420231		 # 	collision with: 4 8 0 0  and 6 8 0 0 
7420253		 # 	collision with: 1 6 0 0  and 8 8 2 0 
7420255		 # 	collision with: 3 6 0 0  and 8 0 1 0 
7420265		 # 	collision with: 9 1 0 0  and 2 2 0 0 
7420267		 # 	collision with: 8 2 0 0  and 7 1 1 0 
7420313		 # 	collision with: 4 5 1 0  and 5 5 1 0 
7420315		 # 	collision with: 9 9 0 0  and 7 1 1 0 
7420441		 # 	collision with: 9 1 0 0  and 2 2 0 0 
7420443		 # 	collision with: 7 2 1 0  and 6 7 2 0 
7420465		 # 	collision with: 5 4 0 0  and 8 3 1 0 
7420467		 # 	collision with: 9 3 0 0  and 2 2 2 0 
7420473		 # 	collision with: 9 8 0 0  and 10 2 1 0 
7420497		 # 	collision with: 10 6 0 0  and 7 0 1 0 
7420499		 # 	collision with: 8 1 0 0  and 8 2 0 0 
7420625		 # 	collision with: 0 6 1 0  and 2 6 1 0 
7420627		 # 	collision with: 4 8 0 0  and 6 8 0 0 
7420673		 # 	collision with: 9 3 1 0  and 3 4 1 0 
7420675		 # 	collision with: 8 1 0 0  and 8 2 0 0 
7420685		 # 	collision with: 9 6 0 0  and 9 4 1 0 
7420688		 # 	collision with: 1 10 1 0  and 6 4 2 0 
7420690		 # 	collision with: 0 2 0 0  and 9 0 1 0 
7420709		 # 	collision with: 3 8 0 0  and 8 1 2 0 
7420711		 # 	collision with: 6 0 0 0  and 6 2 0 0 
7420713		 # 	collision with: 9 4 0 0  and 7 5 1 0 
7420715		 # 	collision with: 7 4 0 0  and 9 5 1 0 
7420737		 # 	collision with: 1 4 0 0  and 1 4 1 0 
7420739		 # 	collision with: 7 10 1 0  and 5 5 2 0 
7420749		 # 	collision with: 7 0 0 0  and 4 2 0 0 
7420797		 # 	collision with: 6 2 0 0  and 6 1 1 0 
7420799		 # 	collision with: 6 0 0 0  and 6 2 0 0 
7420925		 # 	collision with: 7 0 0 0  and 4 2 0 0 
7420927		 # 	collision with: 6 10 1 0  and 7 0 2 0 
7420949		 # 	collision with: 2 2 0 0  and 8 4 1 0 
7420951		 # 	collision with: 4 8 0 0  and 6 8 0 0 
7420957		 # 	collision with: 2 4 0 0  and 2 4 1 0 
7420959		 # 	collision with: 10 7 0 0  and 9 9 1 0 
7420981		 # 	collision with: 9 4 2 0  and 9 6 2 0 
7421109		 # 	collision with: 1 3 0 0  and 6 9 1 0 
7421111		 # 	collision with: 4 4 1 0  and 3 1 2 0 
7421157		 # 	collision with: 4 1 0 0  and 9 2 1 0 
7421159		 # 	collision with: 7 4 0 0  and 4 9 2 0 
7421169		 # 	collision with: 0 1 2 0  and 2 3 2 0 
7421171		 # 	collision with: 4 8 0 0  and 6 8 0 0 
7421172		 # 	collision with: 6 8 0 0  and 7 3 2 0 
7421174		 # 	collision with: 4 5 0 0  and 0 0 2 0 
7421193		 # 	collision with: 8 6 0 0  and 3 2 1 0 
7421197		 # 	collision with: 8 10 0 0  and 3 1 1 0 
7421199		 # 	collision with: 5 2 0 0  and 5 5 1 0 
7421221		 # 	collision with: 9 4 1 0  and 0 2 2 0 
7421223		 # 	collision with: 4 0 0 0  and 4 1 0 0 
7421233		 # 	collision with: 9 0 0 0  and 2 1 0 0 
7421235		 # 	collision with: 7 3 1 0  and 2 5 1 0 
7421281		 # 	collision with: 0 6 0 0  and 9 5 1 0 
7421283		 # 	collision with: 0 3 1 0  and 8 4 1 0 
7421409		 # 	collision with: 9 0 0 0  and 2 1 0 0 
7421411		 # 	collision with: 10 3 0 0  and 5 6 1 0 
7421433		 # 	collision with: 2 3 0 0  and 10 3 2 0 
7421435		 # 	collision with: 10 5 0 0  and 0 7 1 0 
7421441		 # 	collision with: 7 5 1 0  and 9 6 1 0 
7421443		 # 	collision with: 4 0 0 0  and 4 1 0 0 
7421465		 # 	collision with: 10 2 1 0  and 10 3 1 0 
7421467		 # 	collision with: 4 5 2 0  and 5 5 2 0 
7421593		 # 	collision with: 0 2 0 0  and 2 5 1 0 
7421641		 # 	collision with: 10 2 1 0  and 10 3 1 0 
7421643		 # 	collision with: 2 2 1 0  and 9 3 1 0 
7421653		 # 	collision with: 5 0 1 0  and 7 2 1 0 
7421655		 # 	collision with: 10 5 0 0  and 0 7 1 0 
7421730		 # 	collision with: 9 1 0 0  and 1 3 0 0 
7421738		 # 	collision with: 4 0 0 0  and 4 1 0 0 
7421758		 # 	collision with: 9 4 0 0  and 9 5 0 0 
7421767		 # 	collision with: 10 2 0 0  and 2 7 1 0 
7421774		 # 	collision with: 9 1 0 0  and 1 3 0 0 
7421810		 # 	collision with: 9 1 0 0  and 1 2 0 0 
7421815		 # 	collision with: 3 2 1 0  and 4 2 1 0 
7421827		 # 	collision with: 10 0 0 0  and 3 3 1 0 
7421830		 # 	collision with: 10 1 0 0  and 10 3 0 0 
7421835		 # 	collision with: 2 5 0 0  and 2 6 0 0 
7421846		 # 	collision with: 9 4 0 0  and 9 5 0 0 
7421858		 # 	collision with: 3 2 0 0  and 3 4 0 0 
7421871		 # 	collision with: 5 7 0 0  and 7 4 1 0 
7421882		 # 	collision with: 6 0 0 0  and 6 2 0 0 
7421886		 # 	collision with: 5 3 0 0  and 5 4 0 0 
7421958		 # 	collision with: 4 0 0 0  and 4 1 0 0 
7421962		 # 	collision with: 10 1 0 0  and 10 3 0 0 
7421967		 # 	collision with: 2 5 0 0  and 2 6 0 0 
7421975		 # 	collision with: 4 6 0 0  and 6 6 0 0 
7421986		 # 	collision with: 9 1 0 0  and 1 2 0 0 
7421998		 # 	collision with: 8 1 0 0  and 8 2 0 0 
15.0883secs	6258
