# prime 11
# degree 2
# input variables 3
# output variables 4
# reload computed balance functions from file balance-2485of3248-p11d2m3-debug.log
# p = 11
# n = 4
# smalldomain p^m 1331
# domain p^n 14641
#	 p^2 = 121
#	 p^3 = 1331
#	 p^4 = 14641
#	 p^5 = 161051
#	 p^6 = 1771561
#	 p^7 = 19487171
#	 p^8 = 214358881
#	 p^9 = 2357947691
opening file : balance-2485of3248-p11d2m3-debug.log
reloading for step2...
14910025		 # 	collision with: 5 2 0 0  and 0 2 1 0 
14910027		 # 	collision with: 9 2 0 0  and 9 4 0 0 
14910049		 # 	collision with: 4 4 1 0  and 4 5 1 0 
14910051		 # 	collision with: 9 1 0 0  and 0 10 1 0 
14910104		 # 	collision with: 6 7 0 0  and 0 4 1 0 
14910106		 # 	collision with: 6 7 0 0  and 9 4 1 0 
14910205		 # 	collision with: 2 5 0 0  and 2 5 1 0 
14910207		 # 	collision with: 10 6 0 0  and 1 1 1 0 
14910229		 # 	collision with: 6 6 1 0  and 10 2 2 0 
14910231		 # 	collision with: 2 4 0 0  and 2 0 1 0 
14910293		 # 	collision with: 2 0 1 0  and 7 2 1 0 
14910295		 # 	collision with: 4 1 0 0  and 1 2 1 0 
14910321		 # 	collision with: 0 8 0 0  and 4 1 1 0 
14910323		 # 	collision with: 3 4 0 0  and 6 6 1 0 
14910361		 # 	collision with: 6 3 1 0  and 8 4 1 0 
14910363		 # 	collision with: 8 1 0 0  and 1 0 1 0 
14910365		 # 	collision with: 1 3 1 0  and 2 3 1 0 
14910367		 # 	collision with: 2 2 1 0  and 6 4 1 0 
14910373		 # 	collision with: 8 10 0 0  and 8 8 1 0 
14910375		 # 	collision with: 8 4 0 0  and 8 4 1 0 
14910377		 # 	collision with: 1 2 0 0  and 1 3 0 0 
14910379		 # 	collision with: 5 2 0 0  and 0 3 0 0 
14910417		 # 	collision with: 0 1 1 0  and 6 0 2 0 
14910419		 # 	collision with: 10 4 0 0  and 10 4 1 0 
14910445		 # 	collision with: 2 3 1 0  and 0 5 1 0 
14910447		 # 	collision with: 10 2 0 0  and 10 9 1 0 
14910509		 # 	collision with: 1 2 0 0  and 1 3 0 0 
14910511		 # 	collision with: 5 2 0 0  and 0 3 0 0 
14910533		 # 	collision with: 2 10 0 0  and 9 2 1 0 
14910535		 # 	collision with: 2 7 0 0  and 7 3 1 0 
14910588		 # 	collision with: 10 6 0 0  and 6 5 1 0 
14910590		 # 	collision with: 2 5 0 0  and 1 4 1 0 
14910691		 # 	collision with: 7 5 0 0  and 7 5 1 0 
14910713		 # 	collision with: 2 2 0 0  and 10 6 1 0 
14910715		 # 	collision with: 10 2 1 0  and 5 4 1 0 
14910777		 # 	collision with: 3 1 1 0  and 4 1 2 0 
14910779		 # 	collision with: 8 5 0 0  and 2 5 1 0 
14910805		 # 	collision with: 3 1 0 0  and 3 3 0 0 
14910807		 # 	collision with: 1 3 1 0  and 2 3 1 0 
14910845		 # 	collision with: 9 4 1 0  and 9 4 2 0 
14910847		 # 	collision with: 8 2 0 0  and 9 6 1 0 
14910849		 # 	collision with: 3 1 0 0  and 3 3 0 0 
14910851		 # 	collision with: 2 9 1 0  and 7 5 2 0 
14910857		 # 	collision with: 5 5 0 0  and 6 1 1 0 
14910859		 # 	collision with: 10 2 0 0  and 6 0 1 0 
14910861		 # 	collision with: 0 8 0 0  and 3 3 1 0 
14910863		 # 	collision with: 6 2 0 0  and 6 0 1 0 
14910901		 # 	collision with: 9 2 0 0  and 2 0 1 0 
14910903		 # 	collision with: 3 1 1 0  and 4 1 1 0 
14910929		 # 	collision with: 2 1 0 0  and 0 2 1 0 
14910931		 # 	collision with: 0 10 0 0  and 4 3 2 0 
14910995		 # 	collision with: 10 2 0 0  and 3 0 1 0 
14911017		 # 	collision with: 2 1 0 0  and 0 2 1 0 
14911019		 # 	collision with: 10 1 0 0  and 3 2 1 0 
14911072		 # 	collision with: 7 4 1 0  and 10 3 2 0 
14911074		 # 	collision with: 9 2 0 0  and 6 7 2 0 
14911173		 # 	collision with: 10 1 0 0  and 1 2 0 0 
14911175		 # 	collision with: 6 3 0 0  and 8 3 2 0 
14911197		 # 	collision with: 10 2 0 0  and 1 8 1 0 
14911199		 # 	collision with: 4 1 0 0  and 4 2 0 0 
14911261		 # 	collision with: 10 1 0 0  and 1 2 0 0 
14911263		 # 	collision with: 3 5 0 0  and 3 4 2 0 
14911289		 # 	collision with: 6 7 0 0  and 6 7 1 0 
14911291		 # 	collision with: 2 2 0 0  and 3 2 0 0 
14911329		 # 	collision with: 6 8 1 0  and 7 1 2 0 
14911331		 # 	collision with: 4 1 0 0  and 4 2 0 0 
14911335		 # 	collision with: 2 2 0 0  and 3 2 0 0 
14911341		 # 	collision with: 7 9 0 0  and 4 3 1 0 
14911343		 # 	collision with: 4 1 0 0  and 1 2 0 0 
14911347		 # 	collision with: 3 9 0 0  and 2 8 2 0 
14911385		 # 	collision with: 6 10 0 0  and 5 4 1 0 
14911387		 # 	collision with: 4 1 0 0  and 1 2 0 0 
14911413		 # 	collision with: 5 10 0 0  and 6 10 0 0 
14911477		 # 	collision with: 10 3 1 0  and 7 4 2 0 
14911479		 # 	collision with: 1 10 0 0  and 10 10 2 0 
14911501		 # 	collision with: 5 10 0 0  and 6 10 0 0 
14911556		 # 	collision with: 10 10 0 0  and 5 1 2 0 
14911558		 # 	collision with: 3 9 1 0  and 6 2 2 0 
14911657		 # 	collision with: 2 0 0 0  and 9 2 0 0 
14911659		 # 	collision with: 7 3 2 0  and 7 4 2 0 
14911681		 # 	collision with: 5 10 0 0  and 6 10 0 0 
14911745		 # 	collision with: 2 0 0 0  and 9 2 0 0 
14911747		 # 	collision with: 0 7 0 0  and 7 2 1 0 
14911773		 # 	collision with: 4 0 1 0  and 5 0 1 0 
14911775		 # 	collision with: 3 7 0 0  and 3 7 1 0 
14911813		 # 	collision with: 5 10 0 0  and 6 10 0 0 
14911817		 # 	collision with: 8 6 0 0  and 4 7 1 0 
14911819		 # 	collision with: 7 2 0 0  and 9 4 1 0 
14911825		 # 	collision with: 4 4 0 0  and 8 4 1 0 
14911827		 # 	collision with: 4 7 0 0  and 7 3 1 0 
14911829		 # 	collision with: 5 0 0 0  and 9 9 1 0 
14911831		 # 	collision with: 1 9 0 0  and 6 1 1 0 
14911869		 # 	collision with: 6 0 1 0  and 7 1 1 0 
14911871		 # 	collision with: 0 5 0 0  and 9 0 2 0 
14911897		 # 	collision with: 7 3 0 0  and 0 4 1 0 
14911899		 # 	collision with: 6 0 0 0  and 10 2 0 0 
14911961		 # 	collision with: 5 4 0 0  and 5 10 1 0 
14911963		 # 	collision with: 10 5 1 0  and 10 6 1 0 
14911985		 # 	collision with: 7 3 0 0  and 0 4 1 0 
14911987		 # 	collision with: 6 0 0 0  and 10 2 0 0 
14912040		 # 	collision with: 3 6 0 0  and 9 2 1 0 
14912042		 # 	collision with: 3 9 0 0  and 10 2 2 0 
14912141		 # 	collision with: 6 9 1 0  and 7 4 2 0 
14912143		 # 	collision with: 5 0 0 0  and 4 3 1 0 
14912165		 # 	collision with: 9 0 0 0  and 9 1 0 0 
14912167		 # 	collision with: 2 2 0 0  and 3 2 0 0 
14912231		 # 	collision with: 4 0 0 0  and 8 6 1 0 
14912257		 # 	collision with: 5 10 0 0  and 6 10 0 0 
14912297		 # 	collision with: 9 0 0 0  and 9 1 0 0 
14912299		 # 	collision with: 2 2 0 0  and 3 2 0 0 
14912301		 # 	collision with: 5 10 0 0  and 6 10 0 0 
14912309		 # 	collision with: 0 5 1 0  and 8 6 1 0 
14912311		 # 	collision with: 8 1 0 0  and 7 9 1 0 
14912313		 # 	collision with: 2 4 1 0  and 2 6 1 0 
14912315		 # 	collision with: 3 2 1 0  and 1 10 2 0 
14912355		 # 	collision with: 4 0 2 0  and 5 0 2 0 
14912381		 # 	collision with: 2 2 1 0  and 8 4 2 0 
14912383		 # 	collision with: 4 9 0 0  and 9 8 1 0 
14912445		 # 	collision with: 1 5 0 0  and 4 1 1 0 
14912447		 # 	collision with: 5 2 0 0  and 6 8 1 0 
14912469		 # 	collision with: 1 4 0 0  and 4 10 1 0 
14912471		 # 	collision with: 7 3 0 0  and 2 7 1 0 
14912524		 # 	collision with: 10 1 0 0  and 1 2 0 0 
14912525		 # 	collision with: 5 10 0 0  and 6 10 0 0 
14912526		 # 	collision with: 4 1 0 0  and 4 2 0 0 
14912527		 # 	collision with: 9 6 1 0  and 4 5 2 0 
14912580		 # 	collision with: 2 4 0 0  and 2 6 0 0 
14912581		 # 	collision with: 4 0 1 0  and 0 5 2 0 
14912582		 # 	collision with: 6 0 0 0  and 6 2 0 0 
14912583		 # 	collision with: 9 9 0 0  and 6 1 2 0 
14912636		 # 	collision with: 3 2 0 0  and 8 4 0 0 
14912637		 # 	collision with: 2 7 0 0  and 4 5 2 0 
14912638		 # 	collision with: 3 3 0 0  and 2 4 0 0 
14912639		 # 	collision with: 5 2 1 0  and 10 3 1 0 
14912692		 # 	collision with: 3 2 0 0  and 8 3 0 0 
14912693		 # 	collision with: 0 0 1 0  and 4 2 1 0 
14912694		 # 	collision with: 3 0 0 0  and 2 2 0 0 
14912695		 # 	collision with: 2 8 0 0  and 3 8 0 0 
14912704		 # 	collision with: 8 0 0 0  and 3 1 0 0 
14912705		 # 	collision with: 2 10 1 0  and 2 0 2 0 
14912706		 # 	collision with: 10 5 0 0  and 10 6 0 0 
14912707		 # 	collision with: 10 5 0 0  and 10 6 0 0 
14912760		 # 	collision with: 9 0 0 0  and 9 1 0 0 
14912761		 # 	collision with: 8 7 1 0  and 6 0 2 0 
14912762		 # 	collision with: 6 2 0 0  and 10 4 0 0 
14912763		 # 	collision with: 2 9 0 0  and 2 9 1 0 
14912816		 # 	collision with: 6 3 0 0  and 6 5 0 0 
14912817		 # 	collision with: 2 4 0 0  and 9 1 1 0 
14912818		 # 	collision with: 7 1 0 0  and 9 3 0 0 
14912819		 # 	collision with: 2 1 1 0  and 2 3 1 0 
14912872		 # 	collision with: 10 2 0 0  and 10 4 0 0 
14912873		 # 	collision with: 9 0 1 0  and 9 1 1 0 
14912874		 # 	collision with: 8 0 0 0  and 8 1 0 0 
14912875		 # 	collision with: 4 5 0 0  and 1 6 0 0 
14912884		 # 	collision with: 2 0 0 0  and 9 2 0 0 
14912885		 # 	collision with: 0 0 0 0  and 1 1 1 0 
14912886		 # 	collision with: 2 1 0 0  and 2 3 0 0 
14912887		 # 	collision with: 6 4 0 0  and 0 2 1 0 
14912940		 # 	collision with: 3 1 0 0  and 3 3 0 0 
14912941		 # 	collision with: 7 6 1 0  and 6 1 2 0 
14912942		 # 	collision with: 9 2 0 0  and 9 4 0 0 
14912943		 # 	collision with: 4 0 2 0  and 3 1 2 0 
14912996		 # 	collision with: 1 2 0 0  and 1 3 0 0 
14912997		 # 	collision with: 1 2 0 0  and 5 8 1 0 
14912998		 # 	collision with: 3 4 0 0  and 3 5 0 0 
14912999		 # 	collision with: 4 1 1 0  and 4 2 1 0 
14913008		 # 	collision with: 8 3 0 0  and 6 6 1 0 
14913009		 # 	collision with: 4 10 1 0  and 5 0 2 0 
14913010		 # 	collision with: 0 9 0 0  and 3 1 1 0 
14913011		 # 	collision with: 1 0 1 0  and 2 0 2 0 
14913064		 # 	collision with: 0 7 1 0  and 8 8 3 0 
14913065		 # 	collision with: 2 4 0 0  and 2 6 0 0 
14913066		 # 	collision with: 4 8 0 0  and 7 0 1 0 
14913067		 # 	collision with: 7 9 0 0  and 1 1 1 0 
14913120		 # 	collision with: 1 7 0 0  and 8 3 1 0 
14913121		 # 	collision with: 6 5 0 0  and 1 0 1 0 
14913122		 # 	collision with: 8 6 0 0  and 2 6 1 0 
14913123		 # 	collision with: 1 4 0 0  and 1 6 0 0 
14913176		 # 	collision with: 10 8 0 0  and 8 0 2 0 
14913177		 # 	collision with: 1 4 1 0  and 3 4 1 0 
14913178		 # 	collision with: 4 2 1 0  and 5 2 1 0 
14913179		 # 	collision with: 5 4 0 0  and 10 4 1 0 
14913188		 # 	collision with: 5 10 0 0  and 6 10 0 0 
14913189		 # 	collision with: 5 10 0 0  and 6 10 0 0 
14913190		 # 	collision with: 3 3 0 0  and 9 3 1 0 
14913191		 # 	collision with: 8 7 1 0  and 1 1 3 0 
14913244		 # 	collision with: 1 0 1 0  and 2 0 2 0 
14913245		 # 	collision with: 10 1 0 0  and 0 8 1 0 
14913246		 # 	collision with: 2 8 0 0  and 3 8 0 0 
14913247		 # 	collision with: 3 10 0 0  and 1 2 1 0 
14913300		 # 	collision with: 9 3 0 0  and 10 9 1 0 
14913301		 # 	collision with: 1 2 0 0  and 8 2 1 0 
14913302		 # 	collision with: 4 6 2 0  and 6 6 2 0 
14913303		 # 	collision with: 7 9 0 0  and 10 6 2 0 
14913356		 # 	collision with: 9 0 1 0  and 9 1 1 0 
14913357		 # 	collision with: 7 4 0 0  and 4 6 0 0 
14913358		 # 	collision with: 2 8 0 0  and 4 0 1 0 
14913359		 # 	collision with: 6 7 0 0  and 1 2 1 0 
14913368		 # 	collision with: 6 8 0 0  and 8 0 1 0 
14913369		 # 	collision with: 2 4 1 0  and 9 1 2 0 
14913370		 # 	collision with: 1 4 3 0  and 3 4 3 0 
14913371		 # 	collision with: 2 8 0 0  and 3 8 0 0 
14913424		 # 	collision with: 1 9 0 0  and 3 2 1 0 
14913425		 # 	collision with: 5 4 0 0  and 2 1 2 0 
14913426		 # 	collision with: 0 8 0 0  and 9 0 1 0 
14913427		 # 	collision with: 2 4 0 0  and 3 6 0 0 
14913480		 # 	collision with: 3 9 0 0  and 2 5 1 0 
14913481		 # 	collision with: 6 0 0 0  and 3 3 1 0 
14913482		 # 	collision with: 5 9 0 0  and 7 5 1 0 
14913483		 # 	collision with: 2 0 0 0  and 9 3 1 0 
14913492		 # 	collision with: 7 8 0 0  and 9 4 1 0 
14913493		 # 	collision with: 7 0 0 0  and 3 8 1 0 
14913494		 # 	collision with: 6 5 0 0  and 2 1 1 0 
14913495		 # 	collision with: 7 0 0 0  and 1 8 1 0 
14913548		 # 	collision with: 2 6 0 0  and 7 3 1 0 
14913549		 # 	collision with: 8 1 0 0  and 8 1 1 0 
14913550		 # 	collision with: 4 1 0 0  and 5 2 2 0 
14913551		 # 	collision with: 3 5 0 0  and 4 9 1 0 
14913604		 # 	collision with: 10 5 0 0  and 0 3 1 0 
14913605		 # 	collision with: 4 4 0 0  and 4 5 0 0 
14913606		 # 	collision with: 9 6 1 0  and 3 5 2 0 
14913607		 # 	collision with: 2 8 0 0  and 3 8 0 0 
14913660		 # 	collision with: 10 4 0 0  and 4 1 1 0 
14913661		 # 	collision with: 9 7 0 0  and 3 0 1 0 
14913662		 # 	collision with: 8 1 1 0  and 6 0 2 0 
14913663		 # 	collision with: 5 4 0 0  and 3 7 1 0 
14913672		 # 	collision with: 1 3 0 0  and 0 3 1 0 
14913673		 # 	collision with: 3 5 2 0  and 4 5 2 0 
14913674		 # 	collision with: 1 1 0 0  and 7 9 1 0 
14913675		 # 	collision with: 0 7 0 0  and 10 0 1 0 
14913728		 # 	collision with: 1 4 0 0  and 0 0 1 0 
14913729		 # 	collision with: 9 7 0 0  and 0 0 2 0 
14913730		 # 	collision with: 6 3 0 0  and 2 2 2 0 
14913731		 # 	collision with: 7 4 0 0  and 5 3 1 0 
14913784		 # 	collision with: 7 7 1 0  and 7 6 2 0 
14913785		 # 	collision with: 3 10 0 0  and 2 3 2 0 
14913786		 # 	collision with: 2 10 0 0  and 5 5 1 0 
14913787		 # 	collision with: 2 8 0 0  and 3 1 2 0 
14913840		 # 	collision with: 1 5 0 0  and 0 2 1 0 
14913841		 # 	collision with: 3 9 0 0  and 5 5 2 0 
14913842		 # 	collision with: 10 8 0 0  and 6 8 1 0 
14913843		 # 	collision with: 4 10 0 0  and 0 1 1 0 
14913852		 # 	collision with: 5 10 0 0  and 6 10 0 0 
14913853		 # 	collision with: 5 10 0 0  and 6 10 0 0 
14913854		 # 	collision with: 1 4 0 0  and 9 0 1 0 
14913855		 # 	collision with: 5 3 1 0  and 7 4 1 0 
14913908		 # 	collision with: 2 0 0 0  and 6 3 2 0 
14913909		 # 	collision with: 8 5 0 0  and 10 5 1 0 
14913910		 # 	collision with: 4 10 0 0  and 6 1 2 0 
14913911		 # 	collision with: 1 4 0 0  and 4 5 0 0 
14913964		 # 	collision with: 3 2 1 0  and 4 6 2 0 
14913965		 # 	collision with: 9 0 1 0  and 8 1 1 0 
14913966		 # 	collision with: 2 8 0 0  and 3 8 0 0 
14913967		 # 	collision with: 3 4 0 0  and 3 5 0 0 
14913976		 # 	collision with: 9 10 0 0  and 1 0 2 0 
14913977		 # 	collision with: 1 3 1 0  and 10 5 1 0 
14913978		 # 	collision with: 1 5 0 0  and 5 6 1 0 
14913979		 # 	collision with: 3 3 0 0  and 7 6 1 0 
14914032		 # 	collision with: 5 10 0 0  and 6 10 0 0 
14914033		 # 	collision with: 5 10 0 0  and 6 10 0 0 
14914034		 # 	collision with: 4 6 1 0  and 6 6 1 0 
14914035		 # 	collision with: 7 1 0 0  and 7 1 1 0 
14914088		 # 	collision with: 9 9 0 0  and 5 7 1 0 
14914089		 # 	collision with: 6 8 0 0  and 3 3 1 0 
14914090		 # 	collision with: 1 5 0 0  and 4 2 1 0 
14914091		 # 	collision with: 1 4 1 0  and 3 4 1 0 
14914144		 # 	collision with: 10 9 0 0  and 9 3 2 0 
14914145		 # 	collision with: 2 0 1 0  and 1 0 2 0 
14914146		 # 	collision with: 1 7 0 0  and 9 2 1 0 
14914147		 # 	collision with: 4 2 1 0  and 5 2 1 0 
14914156		 # 	collision with: 6 7 0 0  and 7 7 2 0 
14914157		 # 	collision with: 2 0 1 0  and 1 0 2 0 
14914158		 # 	collision with: 2 8 0 0  and 3 8 0 0 
14914159		 # 	collision with: 2 6 0 0  and 0 3 2 0 
14914212		 # 	collision with: 5 1 2 0  and 5 2 2 0 
14914213		 # 	collision with: 1 0 1 0  and 2 0 1 0 
14914214		 # 	collision with: 3 9 1 0  and 5 9 1 0 
14914215		 # 	collision with: 5 3 0 0  and 5 5 0 0 
14914268		 # 	collision with: 3 6 1 0  and 0 10 2 0 
14914269		 # 	collision with: 6 3 0 0  and 6 5 0 0 
14914270		 # 	collision with: 0 9 0 0  and 8 3 1 0 
14914271		 # 	collision with: 5 0 1 0  and 3 5 2 0 
14914324		 # 	collision with: 0 3 0 0  and 5 6 1 0 
14914325		 # 	collision with: 4 2 0 0  and 3 4 1 0 
14914326		 # 	collision with: 9 4 0 0  and 9 2 1 0 
14914327		 # 	collision with: 2 8 0 0  and 3 8 0 0 
14914336		 # 	collision with: 1 0 1 0  and 2 0 2 0 
14914337		 # 	collision with: 2 0 1 0  and 1 0 2 0 
14914338		 # 	collision with: 1 9 0 0  and 0 6 1 0 
14914339		 # 	collision with: 8 6 0 0  and 1 3 1 0 
14914392		 # 	collision with: 4 6 0 0  and 7 4 1 0 
14914393		 # 	collision with: 2 0 1 0  and 1 0 2 0 
14914394		 # 	collision with: 8 2 0 0  and 1 8 1 0 
14914395		 # 	collision with: 8 7 0 0  and 0 6 1 0 
14914448		 # 	collision with: 2 4 1 0  and 2 6 1 0 
14914449		 # 	collision with: 1 3 0 0  and 10 5 0 0 
14914450		 # 	collision with: 4 1 1 0  and 4 2 1 0 
14914451		 # 	collision with: 6 5 1 0  and 5 6 1 0 
14914460		 # 	collision with: 6 10 0 0  and 1 8 1 0 
14914461		 # 	collision with: 10 9 0 0  and 9 3 1 0 
14914462		 # 	collision with: 2 5 0 0  and 7 3 1 0 
14914463		 # 	collision with: 0 1 0 0  and 7 10 1 0 
14914516		 # 	collision with: 3 0 0 0  and 4 2 1 0 
14914517		 # 	collision with: 4 3 0 0  and 7 4 0 0 
14914518		 # 	collision with: 7 1 0 0  and 7 1 1 0 
14914519		 # 	collision with: 2 8 0 0  and 3 8 0 0 
14914572		 # 	collision with: 0 10 0 0  and 6 1 1 0 
14914573		 # 	collision with: 3 8 0 0  and 7 0 1 0 
14914574		 # 	collision with: 7 3 0 0  and 9 7 1 0 
14914575		 # 	collision with: 3 3 0 0  and 1 10 1 0 
14914628		 # 	collision with: 5 2 2 0  and 3 4 2 0 
14914629		 # 	collision with: 9 10 0 0  and 2 0 1 0 
14914630		 # 	collision with: 10 0 2 0  and 3 1 2 0 
14914631		 # 	collision with: 0 2 0 0  and 1 3 1 0 
14914640		 # 	collision with: 1 0 1 0  and 2 0 2 0 
14914641		 # 	collision with: 7 3 0 0  and 7 3 1 0 
14914642		 # 	collision with: 0 10 1 0  and 5 1 2 0 
14914643		 # 	collision with: 1 0 1 0  and 2 0 1 0 
14914696		 # 	collision with: 5 10 0 0  and 6 10 0 0 
14914697		 # 	collision with: 5 10 0 0  and 6 10 0 0 
14914698		 # 	collision with: 6 6 0 0  and 1 2 1 0 
14914699		 # 	collision with: 2 0 1 0  and 1 0 2 0 
14914752		 # 	collision with: 10 2 0 0  and 2 1 1 0 
14914753		 # 	collision with: 2 5 0 0  and 5 9 1 0 
14914754		 # 	collision with: 2 2 0 0  and 3 0 1 0 
14914755		 # 	collision with: 7 3 0 0  and 7 4 0 0 
14914808		 # 	collision with: 5 5 0 0  and 7 6 2 0 
14914809		 # 	collision with: 7 4 0 0  and 8 4 2 0 
14914810		 # 	collision with: 10 4 0 0  and 5 4 2 0 
14914811		 # 	collision with: 2 0 1 0  and 1 0 2 0 
14914820		 # 	collision with: 3 5 1 0  and 4 5 1 0 
14914821		 # 	collision with: 8 3 0 0  and 8 4 0 0 
14914822		 # 	collision with: 0 5 0 0  and 7 2 1 0 
14914823		 # 	collision with: 6 10 0 0  and 0 0 2 0 
14914876		 # 	collision with: 0 10 0 0  and 7 6 1 0 
14914877		 # 	collision with: 8 5 0 0  and 10 1 2 0 
14914878		 # 	collision with: 2 8 0 0  and 3 8 0 0 
14914879		 # 	collision with: 9 1 0 0  and 5 4 1 0 
14914932		 # 	collision with: 2 1 1 0  and 4 1 1 0 
14914933		 # 	collision with: 2 4 1 0  and 2 6 1 0 
14914934		 # 	collision with: 5 6 0 0  and 10 3 2 0 
14914935		 # 	collision with: 3 3 0 0  and 2 4 0 0 
14914944		 # 	collision with: 3 2 0 0  and 1 7 1 0 
14914945		 # 	collision with: 10 2 1 0  and 10 4 1 0 
14914946		 # 	collision with: 0 4 0 0  and 9 9 1 0 
14914947		 # 	collision with: 9 2 1 0  and 9 4 1 0 
14915000		 # 	collision with: 6 3 2 0  and 6 5 2 0 
14915001		 # 	collision with: 1 1 1 0  and 4 2 1 0 
14915002		 # 	collision with: 7 3 0 0  and 2 5 1 0 
14915003		 # 	collision with: 5 10 0 0  and 5 9 1 0 
14915056		 # 	collision with: 8 3 1 0  and 8 4 1 0 
14915057		 # 	collision with: 3 3 0 0  and 8 7 1 0 
14915058		 # 	collision with: 5 3 1 0  and 5 5 1 0 
14915059		 # 	collision with: 4 2 2 0  and 10 3 2 0 
14915112		 # 	collision with: 1 4 1 0  and 3 4 1 0 
14915113		 # 	collision with: 9 4 0 0  and 9 4 1 0 
14915114		 # 	collision with: 2 8 0 0  and 3 8 0 0 
14915115		 # 	collision with: 3 10 0 0  and 4 6 1 0 
14915124		 # 	collision with: 4 2 1 0  and 5 2 1 0 
14915125		 # 	collision with: 3 8 2 0  and 2 8 3 0 
14915126		 # 	collision with: 2 7 0 0  and 0 7 2 0 
14915127		 # 	collision with: 6 2 0 0  and 10 4 0 0 
14915180		 # 	collision with: 10 6 0 0  and 4 0 1 0 
14915181		 # 	collision with: 7 0 1 0  and 7 2 1 0 
14915182		 # 	collision with: 10 4 0 0  and 9 5 1 0 
14915183		 # 	collision with: 1 9 0 0  and 7 9 1 0 
14915236		 # 	collision with: 5 4 0 0  and 4 1 1 0 
14915237		 # 	collision with: 2 8 1 0  and 10 7 2 0 
14915238		 # 	collision with: 1 2 0 0  and 1 2 1 0 
14915239		 # 	collision with: 2 8 0 0  and 3 8 0 0 
14915292		 # 	collision with: 10 1 0 0  and 8 2 1 0 
14915293		 # 	collision with: 10 2 0 0  and 10 4 0 0 
14915294		 # 	collision with: 8 1 0 0  and 6 2 1 0 
14915295		 # 	collision with: 7 3 1 0  and 7 4 1 0 
14915304		 # 	collision with: 5 6 1 0  and 10 1 2 0 
14915305		 # 	collision with: 0 3 0 0  and 10 5 1 0 
14915306		 # 	collision with: 4 1 3 0  and 4 2 3 0 
14915307		 # 	collision with: 3 3 0 0  and 10 10 1 0 
14915360		 # 	collision with: 5 10 0 0  and 6 10 0 0 
14915361		 # 	collision with: 5 10 0 0  and 6 10 0 0 
14915362		 # 	collision with: 5 10 0 0  and 2 2 1 0 
14915363		 # 	collision with: 9 2 0 0  and 9 4 0 0 
14915416		 # 	collision with: 1 9 1 0  and 7 4 2 0 
14915417		 # 	collision with: 3 2 0 0  and 8 4 0 0 
14915418		 # 	collision with: 2 1 2 0  and 4 1 2 0 
14915419		 # 	collision with: 9 0 0 0  and 0 8 1 0 
14915428		 # 	collision with: 2 0 1 0  and 1 0 2 0 
14915429		 # 	collision with: 3 2 0 0  and 8 3 0 0 
14915430		 # 	collision with: 0 3 0 0  and 2 9 2 0 
14915431		 # 	collision with: 2 8 0 0  and 3 8 0 0 
14915484		 # 	collision with: 5 6 0 0  and 0 8 1 0 
14915485		 # 	collision with: 8 5 0 0  and 0 3 1 0 
14915486		 # 	collision with: 9 8 0 0  and 10 2 1 0 
14915487		 # 	collision with: 5 1 0 0  and 1 1 1 0 
14915540		 # 	collision with: 5 10 0 0  and 6 10 0 0 
14915541		 # 	collision with: 5 10 0 0  and 6 10 0 0 
14915542		 # 	collision with: 7 5 0 0  and 0 0 1 0 
14915543		 # 	collision with: 1 0 1 0  and 2 0 2 0 
14915596		 # 	collision with: 9 4 0 0  and 9 4 1 0 
14915597		 # 	collision with: 7 2 0 0  and 2 8 1 0 
14915598		 # 	collision with: 1 0 1 0  and 2 0 2 0 
14915599		 # 	collision with: 5 4 0 0  and 5 4 1 0 
14915608		 # 	collision with: 2 0 1 0  and 1 0 2 0 
14915609		 # 	collision with: 3 1 1 0  and 3 3 1 0 
14915610		 # 	collision with: 4 3 0 0  and 4 3 1 0 
14915611		 # 	collision with: 3 3 2 0  and 2 4 3 0 
14915664		 # 	collision with: 1 0 1 0  and 2 0 1 0 
14915665		 # 	collision with: 10 0 1 0  and 9 8 2 0 
14915666		 # 	collision with: 6 2 2 0  and 3 2 3 0 
14915667		 # 	collision with: 3 9 1 0  and 5 9 1 0 
14915720		 # 	collision with: 2 0 1 0  and 1 0 2 0 
14915721		 # 	collision with: 1 0 1 0  and 2 0 2 0 
14915722		 # 	collision with: 4 2 0 0  and 5 2 1 0 
14915723		 # 	collision with: 8 5 0 0  and 5 1 1 0 
14915776		 # 	collision with: 4 3 0 0  and 6 2 1 0 
14915777		 # 	collision with: 8 6 1 0  and 5 0 2 0 
14915778		 # 	collision with: 7 4 1 0  and 2 5 2 0 
14915779		 # 	collision with: 7 0 0 0  and 1 2 1 0 
14915788		 # 	collision with: 0 8 0 0  and 8 5 1 0 
14915789		 # 	collision with: 4 10 0 0  and 9 1 1 0 
14915790		 # 	collision with: 2 8 0 0  and 3 8 0 0 
14915791		 # 	collision with: 3 1 1 0  and 2 8 3 0 
14915844		 # 	collision with: 6 3 1 0  and 6 5 1 0 
14915845		 # 	collision with: 9 5 0 0  and 9 5 1 0 
14915846		 # 	collision with: 6 5 0 0  and 4 2 1 0 
14915847		 # 	collision with: 2 10 0 0  and 7 3 1 0 
14915900		 # 	collision with: 2 0 1 0  and 1 0 2 0 
14915901		 # 	collision with: 1 2 0 0  and 1 3 0 0 
14915902		 # 	collision with: 4 1 0 0  and 2 3 1 0 
14915903		 # 	collision with: 10 7 1 0  and 3 2 2 0 
14915912		 # 	collision with: 6 2 0 0  and 7 4 1 0 
14915913		 # 	collision with: 2 5 0 0  and 0 1 1 0 
14915914		 # 	collision with: 2 0 1 0  and 1 0 2 0 
14915915		 # 	collision with: 1 2 1 0  and 8 2 2 0 
14915968		 # 	collision with: 2 7 0 0  and 10 3 1 0 
14915969		 # 	collision with: 0 8 0 0  and 1 2 1 0 
14915970		 # 	collision with: 2 0 1 0  and 1 0 2 0 
14915971		 # 	collision with: 8 0 1 0  and 8 1 1 0 
11.763secs	8405
