# prime 11
# degree 2
# input variables 3
# output variables 5
# reload computed balance functions from file balance-321of3248-p11d2m3-debug.log
# p = 11
# n = 5
# smalldomain p^m 1331
# domain p^n 161051
#	 p^2 = 121
#	 p^3 = 1331
#	 p^4 = 14641
#	 p^5 = 161051
#	 p^6 = 1771561
#	 p^7 = 19487171
#	 p^8 = 214358881
#	 p^9 = 2357947691
opening file : balance-321of3248-p11d2m3-debug.log
reloading for step2...
1926033		 # 	collision with: 2 1 0 0 0  and 6 2 0 0 0 
1926035		 # 	collision with: 1 6 1 0 0  and 1 1 2 0 0 
1926044		 # 	collision with: 3 10 0 0 0  and 4 10 0 0 0 
1926046		 # 	collision with: 1 5 10 0 0  and 1 6 10 0 0 
1926061		 # 	collision with: 9 1 0 0 0  and 4 2 0 0 0 
1926063		 # 	collision with: 5 4 1 0 0  and 5 4 2 0 0 
1926096		 # 	collision with: 3 8 0 0 0  and 5 8 0 0 0 
1926098		 # 	collision with: 1 0 8 0 0  and 1 2 8 0 0 
1926104		 # 	collision with: 2 3 0 0 0  and 3 3 0 0 0 
1926106		 # 	collision with: 1 5 3 0 0  and 1 6 3 0 0 
1926141		 # 	collision with: 2 1 0 0 0  and 5 2 0 0 0 
1926143		 # 	collision with: 1 2 2 0 0  and 1 3 2 0 0 
1926158		 # 	collision with: 1 0 1 0 0  and 1 2 1 0 0 
1926208		 # 	collision with: 1 5 0 0 0  and 3 5 0 0 0 
1926210		 # 	collision with: 1 0 5 0 0  and 1 1 5 0 0 
1926225		 # 	collision with: 3 8 0 0 0  and 5 8 0 0 0 
1926227		 # 	collision with: 1 2 1 0 0  and 1 3 1 0 0 
1926241		 # 	collision with: 1 5 0 0 0  and 3 5 0 0 0 
1926243		 # 	collision with: 1 10 1 0 0  and 1 2 2 0 0 
1926260		 # 	collision with: 5 2 0 0 0  and 6 2 0 0 0 
1926262		 # 	collision with: 1 4 2 0 0  and 1 5 2 0 0 
1926312		 # 	collision with: 4 4 0 0 0  and 6 4 0 0 0 
1926314		 # 	collision with: 1 4 4 0 0  and 1 5 4 0 0 
1926317		 # 	collision with: 2 1 0 0 0  and 5 2 0 0 0 
1926319		 # 	collision with: 1 2 2 0 0  and 1 3 2 0 0 
1926320		 # 	collision with: 4 3 5 3 0  and 6 3 0 0 1 
1926322		 # 	collision with: 7 1 0 0 0  and 9 7 0 1 0 
1926324		 # 	collision with: 5 2 0 0 0  and 6 2 0 0 0 
1926326		 # 	collision with: 1 2 2 0 0  and 1 4 2 0 0 
1926328		 # 	collision with: 2 1 0 0 0  and 4 1 0 0 0 
1926332		 # 	collision with: 3 8 0 0 0  and 5 8 0 0 0 
1926334		 # 	collision with: 1 1 8 0 0  and 1 3 8 0 0 
1926336		 # 	collision with: 4 6 0 0 0  and 5 6 0 0 0 
1926338		 # 	collision with: 1 5 6 0 0  and 1 6 6 0 0 
1926340		 # 	collision with: 1 7 0 0 0  and 2 7 0 0 0 
1926342		 # 	collision with: 1 5 7 0 0  and 1 6 7 0 0 
1926344		 # 	collision with: 4 4 0 0 0  and 6 4 0 0 0 
1926346		 # 	collision with: 1 0 4 0 0  and 1 2 4 0 0 
1926348		 # 	collision with: 1 5 0 0 0  and 3 5 0 0 0 
1926350		 # 	collision with: 1 0 5 0 0  and 1 2 5 0 0 
1926352		 # 	collision with: 2 3 0 0 0  and 3 3 0 0 0 
1926354		 # 	collision with: 1 4 3 0 0  and 1 5 3 0 0 
1926356		 # 	collision with: 3 10 0 0 0  and 4 10 0 0 0 
1926358		 # 	collision with: 1 2 10 0 0  and 1 4 10 0 0 
1926360		 # 	collision with: 0 9 0 0 0  and 2 9 0 0 0 
1926362		 # 	collision with: 1 3 9 0 0  and 1 4 9 0 0 
1926371		 # 	collision with: 1 0 1 0 0  and 1 1 1 0 0 
1926374		 # 	collision with: 1 3 1 0 0  and 1 4 1 0 0 
1926424		 # 	collision with: 4 6 0 0 0  and 5 6 0 0 0 
1926426		 # 	collision with: 1 5 6 0 0  and 1 6 6 0 0 
1926445		 # 	collision with: 4 4 0 0 0  and 6 4 0 0 0 
1926447		 # 	collision with: 1 7 0 0 0  and 1 5 2 0 0 
1926461		 # 	collision with: 3 8 0 0 0  and 5 8 0 0 0 
1926463		 # 	collision with: 1 6 0 0 0  and 1 7 0 0 0 
1926476		 # 	collision with: 4 4 0 0 0  and 6 4 0 0 0 
1926478		 # 	collision with: 1 0 4 0 0  and 1 2 4 0 0 
1926517		 # 	collision with: 3 10 0 0 0  and 4 10 0 0 0 
1926519		 # 	collision with: 7 7 0 0 0  and 7 7 2 0 0 
1926528		 # 	collision with: 2 3 0 0 0  and 3 3 0 0 0 
1926530		 # 	collision with: 1 4 3 0 0  and 1 5 3 0 0 
1926545		 # 	collision with: 4 0 0 0 0  and 1 2 0 0 0 
1926580		 # 	collision with: 0 9 0 0 0  and 2 9 0 0 0 
1926582		 # 	collision with: 1 3 9 0 0  and 1 4 9 0 0 
1926588		 # 	collision with: 5 2 0 0 0  and 6 2 0 0 0 
1926590		 # 	collision with: 1 2 2 0 0  and 1 4 2 0 0 
1926625		 # 	collision with: 8 0 0 0 0  and 1 2 0 0 0 
1926627		 # 	collision with: 5 9 0 0 0  and 5 9 2 0 0 
1926640		 # 	collision with: 3 8 0 0 0  and 5 8 0 0 0 
1926642		 # 	collision with: 1 1 8 0 0  and 1 3 8 0 0 
1926653		 # 	collision with: 7 0 0 0 0  and 3 2 0 0 0 
1926655		 # 	collision with: 2 4 0 0 0  and 2 4 2 0 0 
1926692		 # 	collision with: 1 7 0 0 0  and 2 7 0 0 0 
1926694		 # 	collision with: 1 5 7 0 0  and 1 6 7 0 0 
1926709		 # 	collision with: 4 4 0 0 0  and 6 4 0 0 0 
1926711		 # 	collision with: 8 10 0 0 0  and 8 10 2 0 0 
1926725		 # 	collision with: 3 8 0 0 0  and 5 8 0 0 0 
1926727		 # 	collision with: 1 6 0 0 0  and 1 7 0 0 0 
1926744		 # 	collision with: 1 5 0 0 0  and 3 5 0 0 0 
1926746		 # 	collision with: 1 0 5 0 0  and 1 2 5 0 0 
1926796		 # 	collision with: 3 10 0 0 0  and 4 10 0 0 0 
1926798		 # 	collision with: 1 2 10 0 0  and 1 4 10 0 0 
1926801		 # 	collision with: 8 0 0 0 0  and 1 2 0 0 0 
1926803		 # 	collision with: 1 8 0 0 0  and 1 3 2 0 0 
1926804		 # 	collision with: 9 3 6 6 0  and 6 0 0 0 1 
1926806		 # 	collision with: 5 8 0 0 0  and 6 9 0 1 0 
1926808		 # 	collision with: 2 1 0 0 0  and 4 1 0 0 0 
1926812		 # 	collision with: 4 6 0 0 0  and 5 6 0 0 0 
1926814		 # 	collision with: 1 4 6 0 0  and 1 6 6 0 0 
1926816		 # 	collision with: 4 4 0 0 0  and 6 4 0 0 0 
1926818		 # 	collision with: 1 2 4 0 0  and 1 4 4 0 0 
1926820		 # 	collision with: 2 3 0 0 0  and 3 3 0 0 0 
1926822		 # 	collision with: 1 3 3 0 0  and 1 4 3 0 0 
1926824		 # 	collision with: 0 9 0 0 0  and 2 9 0 0 0 
1926826		 # 	collision with: 1 4 9 0 0  and 1 6 9 0 0 
1926828		 # 	collision with: 5 2 0 0 0  and 6 2 0 0 0 
1926830		 # 	collision with: 1 1 2 0 0  and 1 2 2 0 0 
1926832		 # 	collision with: 3 8 0 0 0  and 5 8 0 0 0 
1926834		 # 	collision with: 1 2 8 0 0  and 1 4 8 0 0 
1926836		 # 	collision with: 1 7 0 0 0  and 2 7 0 0 0 
1926838		 # 	collision with: 1 3 7 0 0  and 1 4 7 0 0 
1926840		 # 	collision with: 1 5 0 0 0  and 3 5 0 0 0 
1926842		 # 	collision with: 1 1 5 0 0  and 1 2 5 0 0 
1926844		 # 	collision with: 3 10 0 0 0  and 4 10 0 0 0 
1926846		 # 	collision with: 1 0 10 0 0  and 1 1 10 0 0 
1926853		 # 	collision with: 5 0 0 0 0  and 7 0 0 0 0 
1926855		 # 	collision with: 10 0 0 0 0  and 10 0 1 0 0 
1926856		 # 	collision with: 4 6 0 0 0  and 5 6 0 0 0 
1926858		 # 	collision with: 1 4 6 0 0  and 1 6 6 0 0 
1926908		 # 	collision with: 2 3 0 0 0  and 3 3 0 0 0 
1926910		 # 	collision with: 1 3 3 0 0  and 1 4 3 0 0 
1926929		 # 	collision with: 5 0 0 0 0  and 7 0 0 0 0 
1926931		 # 	collision with: 5 0 0 0 0  and 5 0 1 0 0 
1926945		 # 	collision with: 5 0 0 0 0  and 7 0 0 0 0 
1926947		 # 	collision with: 7 0 0 0 0  and 7 0 1 0 0 
1926960		 # 	collision with: 5 2 0 0 0  and 6 2 0 0 0 
1926962		 # 	collision with: 1 1 2 0 0  and 1 2 2 0 0 
1927001		 # 	collision with: 5 0 0 0 0  and 7 0 0 0 0 
1927003		 # 	collision with: 1 1 0 0 0  and 1 0 1 0 0 
1927012		 # 	collision with: 1 7 0 0 0  and 2 7 0 0 0 
1927014		 # 	collision with: 1 3 7 0 0  and 1 4 7 0 0 
1927029		 # 	collision with: 5 0 0 0 0  and 7 0 0 0 0 
1927031		 # 	collision with: 2 0 0 0 0  and 2 0 1 0 0 
1927064		 # 	collision with: 3 10 0 0 0  and 4 10 0 0 0 
1927066		 # 	collision with: 1 0 10 0 0  and 1 1 10 0 0 
1927074		 # 	collision with: 1 0 1 0 0  and 1 1 1 0 0 
1927111		 # 	collision with: 9 0 0 0 0  and 9 0 1 0 0 
1927124		 # 	collision with: 4 4 0 0 0  and 6 4 0 0 0 
1927126		 # 	collision with: 1 2 4 0 0  and 1 4 4 0 0 
1927137		 # 	collision with: 5 0 0 0 0  and 7 0 0 0 0 
1927139		 # 	collision with: 3 0 0 0 0  and 3 0 1 0 0 
1927176		 # 	collision with: 0 9 0 0 0  and 2 9 0 0 0 
1927178		 # 	collision with: 1 4 9 0 0  and 1 6 9 0 0 
1927193		 # 	collision with: 5 0 0 0 0  and 7 0 0 0 0 
1927195		 # 	collision with: 1 1 0 0 0  and 1 0 1 0 0 
1927209		 # 	collision with: 5 0 0 0 0  and 7 0 0 0 0 
1927211		 # 	collision with: 6 0 0 0 0  and 6 0 1 0 0 
1927228		 # 	collision with: 3 8 0 0 0  and 5 8 0 0 0 
1927230		 # 	collision with: 1 2 8 0 0  and 1 4 8 0 0 
1927280		 # 	collision with: 1 5 0 0 0  and 3 5 0 0 0 
1927282		 # 	collision with: 1 1 5 0 0  and 1 2 5 0 0 
1927285		 # 	collision with: 5 0 0 0 0  and 7 0 0 0 0 
1927294		 # 	collision with: 1 1 0 0 0  and 1 2 0 0 0 
1927298		 # 	collision with: 1 1 0 0 0  and 1 3 0 0 0 
1927302		 # 	collision with: 1 2 0 0 0  and 1 3 0 0 0 
1927306		 # 	collision with: 1 2 0 0 0  and 1 4 0 0 0 
1927310		 # 	collision with: 1 3 0 0 0  and 1 4 0 0 0 
1927314		 # 	collision with: 1 3 0 0 0  and 1 5 0 0 0 
1927318		 # 	collision with: 1 4 0 0 0  and 1 5 0 0 0 
1927322		 # 	collision with: 1 4 0 0 0  and 1 6 0 0 0 
1927326		 # 	collision with: 1 5 0 0 0  and 1 6 0 0 0 
1927330		 # 	collision with: 1 5 0 0 0  and 1 7 0 0 0 
1927333		 # 	collision with: 5 2 0 0 0  and 6 2 0 0 0 
1927336		 # 	collision with: 0 0 0 0 0  and 2 0 0 0 0 
1927338		 # 	collision with: 1 1 0 0 0  and 1 2 0 0 0 
1927384		 # 	collision with: 0 0 0 0 0  and 2 0 0 0 0 
1927386		 # 	collision with: 1 1 0 0 0  and 1 3 0 0 0 
1927405		 # 	collision with: 2 7 0 0 0  and 4 7 0 0 0 
1927407		 # 	collision with: 1 2 4 0 0  and 1 3 4 0 0 
1927432		 # 	collision with: 0 0 0 0 0  and 2 0 0 0 0 
1927434		 # 	collision with: 1 2 0 0 0  and 1 3 0 0 0 
1927461		 # 	collision with: 0 1 0 0 0  and 1 1 0 0 0 
1927463		 # 	collision with: 1 3 5 0 0  and 1 2 6 0 0 
1927469		 # 	collision with: 8 5 0 0 0  and 7 6 0 0 0 
1927471		 # 	collision with: 2 9 5 0 0  and 2 9 6 0 0 
1927480		 # 	collision with: 0 0 0 0 0  and 2 0 0 0 0 
1927482		 # 	collision with: 1 2 0 0 0  and 1 4 0 0 0 
1927528		 # 	collision with: 0 0 0 0 0  and 2 0 0 0 0 
1927530		 # 	collision with: 1 3 0 0 0  and 1 4 0 0 0 
1927537		 # 	collision with: 2 7 0 0 0  and 4 7 0 0 0 
1927539		 # 	collision with: 1 2 4 0 0  and 1 3 4 0 0 
1927569		 # 	collision with: 4 3 0 0 0  and 6 3 0 0 0 
1927571		 # 	collision with: 1 5 5 0 0  and 1 4 6 0 0 
1927576		 # 	collision with: 0 0 0 0 0  and 2 0 0 0 0 
1927578		 # 	collision with: 1 3 0 0 0  and 1 5 0 0 0 
1927624		 # 	collision with: 0 0 0 0 0  and 2 0 0 0 0 
1927626		 # 	collision with: 1 4 0 0 0  and 1 5 0 0 0 
1927637		 # 	collision with: 0 1 0 0 0  and 1 1 0 0 0 
1927639		 # 	collision with: 8 2 5 0 0  and 8 2 6 0 0 
1927645		 # 	collision with: 8 5 0 0 0  and 7 6 0 0 0 
1927647		 # 	collision with: 1 9 5 0 0  and 1 9 6 0 0 
1927672		 # 	collision with: 0 0 0 0 0  and 2 0 0 0 0 
1927674		 # 	collision with: 1 4 0 0 0  and 1 6 0 0 0 
1927701		 # 	collision with: 4 3 0 0 0  and 6 3 0 0 0 
1927703		 # 	collision with: 9 5 5 0 0  and 9 5 6 0 0 
1927720		 # 	collision with: 0 0 0 0 0  and 2 0 0 0 0 
1927722		 # 	collision with: 1 5 0 0 0  and 1 6 0 0 0 
1927729		 # 	collision with: 5 2 0 0 0  and 6 2 0 0 0 
1927768		 # 	collision with: 0 0 0 0 0  and 2 0 0 0 0 
1927770		 # 	collision with: 1 5 0 0 0  and 1 7 0 0 0 
1927772		 # 	collision with: 4 9 4 5 0  and 7 3 0 0 1 
1927774		 # 	collision with: 6 2 1 0 0  and 5 2 0 1 0 
1927776		 # 	collision with: 1 10 0 0 0  and 2 10 0 0 0 
1927778		 # 	collision with: 1 1 10 0 0  and 1 3 10 0 0 
1927780		 # 	collision with: 3 5 0 0 0  and 5 5 0 0 0 
1927782		 # 	collision with: 1 4 5 0 0  and 1 6 5 0 0 
1927784		 # 	collision with: 2 7 0 0 0  and 4 7 0 0 0 
1927786		 # 	collision with: 1 4 7 0 0  and 1 5 7 0 0 
1927788		 # 	collision with: 2 8 0 0 0  and 3 8 0 0 0 
1927790		 # 	collision with: 1 4 8 0 0  and 1 5 8 0 0 
1927792		 # 	collision with: 5 2 0 0 0  and 6 2 0 0 0 
1927794		 # 	collision with: 1 2 2 0 0  and 1 3 2 0 0 
1927796		 # 	collision with: 1 9 0 0 0  and 3 9 0 0 0 
1927798		 # 	collision with: 1 4 9 0 0  and 1 6 9 0 0 
1927800		 # 	collision with: 4 3 0 0 0  and 6 3 0 0 0 
1927802		 # 	collision with: 1 2 3 0 0  and 1 4 3 0 0 
1927804		 # 	collision with: 4 4 0 0 0  and 5 4 0 0 0 
1927806		 # 	collision with: 1 2 4 0 0  and 1 4 4 0 0 
1927808		 # 	collision with: 3 6 0 0 0  and 4 6 0 0 0 
1927810		 # 	collision with: 1 2 6 0 0  and 1 3 6 0 0 
1927812		 # 	collision with: 0 1 0 0 0  and 1 1 0 0 0 
1927817		 # 	collision with: 4 3 0 0 0  and 6 3 0 0 0 
1927819		 # 	collision with: 1 4 3 0 0  and 1 6 3 0 0 
1927820		 # 	collision with: 1 10 0 0 0  and 2 10 0 0 0 
1927822		 # 	collision with: 1 1 10 0 0  and 1 3 10 0 0 
1927868		 # 	collision with: 3 5 0 0 0  and 5 5 0 0 0 
1927870		 # 	collision with: 1 4 5 0 0  and 1 6 5 0 0 
1927889		 # 	collision with: 3 5 0 0 0  and 5 5 0 0 0 
1927891		 # 	collision with: 1 3 2 0 0  and 1 4 2 0 0 
1927916		 # 	collision with: 2 7 0 0 0  and 4 7 0 0 0 
1927918		 # 	collision with: 1 4 7 0 0  and 1 5 7 0 0 
1927945		 # 	collision with: 2 7 0 0 0  and 4 7 0 0 0 
1927953		 # 	collision with: 9 4 0 0 0  and 7 6 0 0 0 
1927955		 # 	collision with: 1 10 4 0 0  and 1 6 6 0 0 
1927964		 # 	collision with: 2 8 0 0 0  and 3 8 0 0 0 
1927966		 # 	collision with: 1 4 8 0 0  and 1 5 8 0 0 
1928014		 # 	collision with: 1 2 2 0 0  and 1 3 2 0 0 
1928023		 # 	collision with: 1 3 2 0 0  and 1 4 2 0 0 
1928053		 # 	collision with: 1 10 0 0 0  and 2 10 0 0 0 
1928055		 # 	collision with: 1 0 5 0 0  and 1 1 5 0 0 
1928060		 # 	collision with: 1 9 0 0 0  and 3 9 0 0 0 
1928062		 # 	collision with: 1 4 9 0 0  and 1 6 9 0 0 
1928108		 # 	collision with: 4 3 0 0 0  and 6 3 0 0 0 
1928110		 # 	collision with: 1 2 3 0 0  and 1 4 3 0 0 
1928121		 # 	collision with: 2 7 0 0 0  and 4 7 0 0 0 
1928129		 # 	collision with: 9 4 0 0 0  and 7 6 0 0 0 
1928131		 # 	collision with: 1 0 4 0 0  and 1 5 6 0 0 
1928156		 # 	collision with: 4 4 0 0 0  and 5 4 0 0 0 
1928158		 # 	collision with: 1 2 4 0 0  and 1 4 4 0 0 
1928185		 # 	collision with: 1 10 0 0 0  and 2 10 0 0 0 
1928187		 # 	collision with: 1 0 5 0 0  and 1 1 5 0 0 
1928204		 # 	collision with: 3 6 0 0 0  and 4 6 0 0 0 
1928206		 # 	collision with: 1 2 6 0 0  and 1 3 6 0 0 
1928213		 # 	collision with: 4 3 0 0 0  and 6 3 0 0 0 
1928215		 # 	collision with: 1 4 3 0 0  and 1 6 3 0 0 
1928252		 # 	collision with: 0 1 0 0 0  and 1 1 0 0 0 
1928256		 # 	collision with: 9 5 2 5 0  and 2 0 0 0 1 
1928258		 # 	collision with: 2 9 8 0 0  and 0 2 2 1 0 
1928260		 # 	collision with: 1 9 0 0 0  and 3 9 0 0 0 
1928262		 # 	collision with: 1 2 9 0 0  and 1 3 9 0 0 
1928264		 # 	collision with: 1 10 0 0 0  and 2 10 0 0 0 
1928266		 # 	collision with: 1 2 10 0 0  and 1 3 10 0 0 
1928268		 # 	collision with: 4 3 0 0 0  and 6 3 0 0 0 
1928270		 # 	collision with: 1 0 3 0 0  and 1 2 3 0 0 
1928272		 # 	collision with: 3 5 0 0 0  and 5 5 0 0 0 
1928274		 # 	collision with: 1 0 5 0 0  and 1 1 5 0 0 
1928276		 # 	collision with: 4 4 0 0 0  and 5 4 0 0 0 
1928278		 # 	collision with: 1 1 4 0 0  and 1 2 4 0 0 
1928280		 # 	collision with: 2 7 0 0 0  and 4 7 0 0 0 
1928282		 # 	collision with: 1 0 7 0 0  and 1 1 7 0 0 
1928284		 # 	collision with: 3 6 0 0 0  and 4 6 0 0 0 
1928286		 # 	collision with: 1 1 6 0 0  and 1 2 6 0 0 
1928288		 # 	collision with: 2 8 0 0 0  and 3 8 0 0 0 
1928290		 # 	collision with: 1 0 8 0 0  and 1 2 8 0 0 
1928292		 # 	collision with: 0 1 0 0 0  and 1 1 0 0 0 
1928296		 # 	collision with: 5 2 0 0 0  and 6 2 0 0 0 
1928298		 # 	collision with: 1 4 2 0 0  and 1 6 2 0 0 
1928301		 # 	collision with: 4 4 0 0 0  and 5 4 0 0 0 
1928303		 # 	collision with: 1 4 4 0 0  and 1 5 4 0 0 
1928304		 # 	collision with: 1 9 0 0 0  and 3 9 0 0 0 
1928306		 # 	collision with: 1 2 9 0 0  and 1 3 9 0 0 
1928352		 # 	collision with: 1 10 0 0 0  and 2 10 0 0 0 
1928354		 # 	collision with: 1 2 10 0 0  and 1 3 10 0 0 
1928373		 # 	collision with: 4 3 0 0 0  and 6 3 0 0 0 
1928375		 # 	collision with: 1 4 0 0 0  and 1 5 0 0 0 
1928400		 # 	collision with: 4 3 0 0 0  and 6 3 0 0 0 
1928402		 # 	collision with: 1 0 3 0 0  and 1 2 3 0 0 
1928429		 # 	collision with: 5 2 0 0 0  and 6 2 0 0 0 
1928431		 # 	collision with: 1 5 4 0 0  and 1 0 5 0 0 
1928437		 # 	collision with: 9 4 0 0 0  and 8 5 0 0 0 
1928439		 # 	collision with: 7 7 4 0 0  and 7 7 5 0 0 
1928448		 # 	collision with: 3 5 0 0 0  and 5 5 0 0 0 
1928450		 # 	collision with: 1 0 5 0 0  and 1 1 5 0 0 
1928496		 # 	collision with: 4 4 0 0 0  and 5 4 0 0 0 
1928498		 # 	collision with: 1 1 4 0 0  and 1 2 4 0 0 
1928505		 # 	collision with: 4 3 0 0 0  and 6 3 0 0 0 
1928507		 # 	collision with: 1 4 0 0 0  and 1 5 0 0 0 
1928537		 # 	collision with: 3 6 0 0 0  and 4 6 0 0 0 
1928539		 # 	collision with: 1 2 1 0 0  and 1 3 1 0 0 
1928544		 # 	collision with: 2 7 0 0 0  and 4 7 0 0 0 
1928546		 # 	collision with: 1 0 7 0 0  and 1 1 7 0 0 
1928592		 # 	collision with: 3 6 0 0 0  and 4 6 0 0 0 
1928594		 # 	collision with: 1 1 6 0 0  and 1 2 6 0 0 
1928605		 # 	collision with: 5 2 0 0 0  and 6 2 0 0 0 
1928607		 # 	collision with: 1 7 4 0 0  and 1 2 5 0 0 
1928613		 # 	collision with: 9 4 0 0 0  and 8 5 0 0 0 
1928615		 # 	collision with: 1 2 4 0 0  and 1 6 5 0 0 
1928640		 # 	collision with: 2 8 0 0 0  and 3 8 0 0 0 
1928642		 # 	collision with: 1 0 8 0 0  and 1 2 8 0 0 
1928669		 # 	collision with: 3 6 0 0 0  and 4 6 0 0 0 
1928671		 # 	collision with: 1 2 1 0 0  and 1 3 1 0 0 
1928688		 # 	collision with: 0 1 0 0 0  and 1 1 0 0 0 
1928699		 # 	collision with: 1 4 4 0 0  and 1 5 4 0 0 
1928738		 # 	collision with: 1 4 2 0 0  and 1 6 2 0 0 
1928740		 # 	collision with: 3 9 8 7 0  and 2 0 0 0 1 
1928742		 # 	collision with: 5 5 4 0 0  and 2 2 0 1 0 
1928744		 # 	collision with: 2 8 0 0 0  and 3 8 0 0 0 
1928746		 # 	collision with: 1 2 8 0 0  and 1 4 8 0 0 
1928748		 # 	collision with: 4 4 0 0 0  and 5 4 0 0 0 
1928750		 # 	collision with: 1 5 4 0 0  and 1 6 4 0 0 
1928752		 # 	collision with: 1 10 0 0 0  and 2 10 0 0 0 
1928754		 # 	collision with: 1 2 10 0 0  and 1 4 10 0 0 
1928756		 # 	collision with: 5 2 0 0 0  and 6 2 0 0 0 
1928758		 # 	collision with: 1 1 2 0 0  and 1 3 2 0 0 
1928760		 # 	collision with: 3 6 0 0 0  and 4 6 0 0 0 
1928762		 # 	collision with: 1 0 6 0 0  and 1 1 6 0 0 
1928764		 # 	collision with: 3 5 0 0 0  and 5 5 0 0 0 
1928766		 # 	collision with: 1 1 5 0 0  and 1 2 5 0 0 
1928768		 # 	collision with: 1 9 0 0 0  and 3 9 0 0 0 
1928770		 # 	collision with: 1 5 9 0 0  and 1 6 9 0 0 
1928772		 # 	collision with: 0 1 0 0 0  and 1 1 0 0 0 
1928776		 # 	collision with: 2 7 0 0 0  and 4 7 0 0 0 
1928778		 # 	collision with: 1 1 7 0 0  and 1 3 7 0 0 
1928780		 # 	collision with: 4 3 0 0 0  and 6 3 0 0 0 
1928782		 # 	collision with: 1 4 3 0 0  and 1 5 3 0 0 
1928785		 # 	collision with: 3 5 0 0 0  and 5 5 0 0 0 
1928787		 # 	collision with: 1 3 5 0 0  and 1 5 5 0 0 
1928788		 # 	collision with: 2 8 0 0 0  and 3 8 0 0 0 
1928790		 # 	collision with: 1 2 8 0 0  and 1 4 8 0 0 
1928836		 # 	collision with: 4 4 0 0 0  and 5 4 0 0 0 
1928838		 # 	collision with: 1 5 4 0 0  and 1 6 4 0 0 
1928857		 # 	collision with: 0 1 0 0 0  and 1 1 0 0 0 
1928859		 # 	collision with: 7 4 3 0 0  and 7 4 5 0 0 
1928884		 # 	collision with: 1 10 0 0 0  and 2 10 0 0 0 
1928886		 # 	collision with: 1 2 10 0 0  and 1 4 10 0 0 
1928913		 # 	collision with: 2 8 0 0 0  and 3 8 0 0 0 
1928915		 # 	collision with: 1 4 2 0 0  and 1 6 2 0 0 
1928923		 # 	collision with: 4 6 3 0 0  and 4 6 5 0 0 
1928934		 # 	collision with: 1 1 2 0 0  and 1 3 2 0 0 
1928980		 # 	collision with: 3 6 0 0 0  and 4 6 0 0 0 
1928982		 # 	collision with: 1 0 6 0 0  and 1 1 6 0 0 
1928989		 # 	collision with: 0 1 0 0 0  and 1 1 0 0 0 
1928991		 # 	collision with: 1 5 3 0 0  and 1 2 5 0 0 
1929021		 # 	collision with: 5 2 0 0 0  and 6 2 0 0 0 
1929023		 # 	collision with: 1 7 3 0 0  and 1 7 5 0 0 
1929028		 # 	collision with: 3 5 0 0 0  and 5 5 0 0 0 
1929030		 # 	collision with: 1 1 5 0 0  and 1 2 5 0 0 
1929076		 # 	collision with: 1 9 0 0 0  and 3 9 0 0 0 
1929078		 # 	collision with: 1 5 9 0 0  and 1 6 9 0 0 
1929089		 # 	collision with: 2 8 0 0 0  and 3 8 0 0 0 
1929091		 # 	collision with: 1 4 2 0 0  and 1 6 2 0 0 
1929097		 # 	collision with: 10 3 0 0 0  and 8 5 0 0 0 
1929099		 # 	collision with: 2 6 3 0 0  and 2 6 5 0 0 
1929124		 # 	collision with: 0 1 0 0 0  and 1 1 0 0 0 
1929153		 # 	collision with: 5 2 0 0 0  and 6 2 0 0 0 
1929155		 # 	collision with: 1 0 3 0 0  and 1 7 5 0 0 
1929172		 # 	collision with: 2 7 0 0 0  and 4 7 0 0 0 
1929174		 # 	collision with: 1 1 7 0 0  and 1 3 7 0 0 
1929181		 # 	collision with: 3 5 0 0 0  and 5 5 0 0 0 
1929183		 # 	collision with: 1 3 5 0 0  and 1 5 5 0 0 
1929220		 # 	collision with: 4 3 0 0 0  and 6 3 0 0 0 
1929222		 # 	collision with: 1 4 3 0 0  and 1 5 3 0 0 
1929224		 # 	collision with: 8 10 1 8 0  and 2 0 0 0 1 
1929226		 # 	collision with: 2 0 3 0 0  and 9 10 0 1 0 
1929228		 # 	collision with: 2 7 0 0 0  and 4 7 0 0 0 
1929230		 # 	collision with: 1 3 7 0 0  and 1 4 7 0 0 
1929232		 # 	collision with: 1 9 0 0 0  and 3 9 0 0 0 
1929234		 # 	collision with: 1 2 9 0 0  and 1 4 9 0 0 
1929236		 # 	collision with: 3 6 0 0 0  and 4 6 0 0 0 
1929238		 # 	collision with: 1 4 6 0 0  and 1 6 6 0 0 
1929240		 # 	collision with: 1 10 0 0 0  and 2 10 0 0 0 
1929242		 # 	collision with: 1 3 10 0 0  and 1 4 10 0 0 
1929244		 # 	collision with: 2 8 0 0 0  and 3 8 0 0 0 
1929246		 # 	collision with: 1 4 8 0 0  and 1 6 8 0 0 
1929248		 # 	collision with: 4 3 0 0 0  and 6 3 0 0 0 
1929250		 # 	collision with: 1 2 3 0 0  and 1 3 3 0 0 
1929252		 # 	collision with: 0 1 0 0 0  and 1 1 0 0 0 
1929256		 # 	collision with: 3 5 0 0 0  and 5 5 0 0 0 
1929258		 # 	collision with: 1 2 5 0 0  and 1 3 5 0 0 
1929260		 # 	collision with: 5 2 0 0 0  and 6 2 0 0 0 
1929262		 # 	collision with: 1 4 2 0 0  and 1 5 2 0 0 
1929264		 # 	collision with: 4 4 0 0 0  and 5 4 0 0 0 
1929266		 # 	collision with: 1 3 4 0 0  and 1 5 4 0 0 
1929269		 # 	collision with: 1 3 0 0 0  and 4 4 0 0 0 
1929271		 # 	collision with: 1 7 3 0 0  and 1 1 4 0 0 
1929272		 # 	collision with: 2 7 0 0 0  and 4 7 0 0 0 
1929274		 # 	collision with: 1 3 7 0 0  and 1 4 7 0 0 
1929320		 # 	collision with: 1 9 0 0 0  and 3 9 0 0 0 
1929322		 # 	collision with: 1 2 9 0 0  and 1 4 9 0 0 
1929341		 # 	collision with: 1 3 0 0 0  and 5 4 0 0 0 
1929368		 # 	collision with: 3 6 0 0 0  and 4 6 0 0 0 
1929370		 # 	collision with: 1 4 6 0 0  and 1 6 6 0 0 
1929397		 # 	collision with: 4 3 0 0 0  and 6 3 0 0 0 
1929399		 # 	collision with: 9 6 3 0 0  and 9 6 4 0 0 
1929405		 # 	collision with: 10 3 0 0 0  and 9 4 0 0 0 
1929407		 # 	collision with: 1 5 3 0 0  and 1 5 4 0 0 
1929416		 # 	collision with: 1 10 0 0 0  and 2 10 0 0 0 
1929418		 # 	collision with: 1 3 10 0 0  and 1 4 10 0 0 
1929464		 # 	collision with: 2 8 0 0 0  and 3 8 0 0 0 
1929466		 # 	collision with: 1 4 8 0 0  and 1 6 8 0 0 
1929473		 # 	collision with: 1 3 0 0 0  and 5 4 0 0 0 
1929505		 # 	collision with: 5 3 0 0 0  and 2 4 0 0 0 
1929507		 # 	collision with: 1 0 4 0 0  and 1 2 4 0 0 
1929512		 # 	collision with: 4 3 0 0 0  and 6 3 0 0 0 
1929514		 # 	collision with: 1 2 3 0 0  and 1 3 3 0 0 
1929560		 # 	collision with: 0 1 0 0 0  and 1 1 0 0 0 
1929573		 # 	collision with: 4 3 0 0 0  and 6 3 0 0 0 
1929575		 # 	collision with: 1 8 3 0 0  and 1 0 4 0 0 
1929581		 # 	collision with: 10 3 0 0 0  and 9 4 0 0 0 
1929583		 # 	collision with: 6 5 3 0 0  and 6 5 4 0 0 
1929608		 # 	collision with: 3 5 0 0 0  and 5 5 0 0 0 
1929610		 # 	collision with: 1 2 5 0 0  and 1 3 5 0 0 
1929639		 # 	collision with: 1 0 4 0 0  and 1 2 4 0 0 
1929658		 # 	collision with: 1 4 2 0 0  and 1 5 2 0 0 
1929665		 # 	collision with: 1 3 0 0 0  and 4 4 0 0 0 
1929667		 # 	collision with: 1 1 3 0 0  and 1 4 4 0 0 
1929704		 # 	collision with: 4 4 0 0 0  and 5 4 0 0 0 
1929706		 # 	collision with: 1 3 4 0 0  and 1 5 4 0 0 
1929708		 # 	collision with: 2 2 3 8 0  and 5 1 0 0 1 
1929710		 # 	collision with: 6 6 9 0 0  and 1 2 0 1 0 
1929712		 # 	collision with: 3 6 0 0 0  and 4 6 0 0 0 
1929714		 # 	collision with: 1 3 6 0 0  and 1 5 6 0 0 
1929716		 # 	collision with: 4 3 0 0 0  and 6 3 0 0 0 
1929718		 # 	collision with: 1 0 3 0 0  and 1 1 3 0 0 
1929720		 # 	collision with: 5 2 0 0 0  and 6 2 0 0 0 
1929722		 # 	collision with: 1 1 2 0 0  and 1 2 2 0 0 
1929724		 # 	collision with: 2 7 0 0 0  and 4 7 0 0 0 
1929726		 # 	collision with: 1 4 7 0 0  and 1 6 7 0 0 
1929728		 # 	collision with: 1 10 0 0 0  and 2 10 0 0 0 
1929730		 # 	collision with: 1 3 10 0 0  and 1 5 10 0 0 
1929732		 # 	collision with: 0 1 0 0 0  and 1 1 0 0 0 
1929736		 # 	collision with: 4 4 0 0 0  and 5 4 0 0 0 
1929738		 # 	collision with: 1 2 4 0 0  and 1 3 4 0 0 
1929740		 # 	collision with: 1 9 0 0 0  and 3 9 0 0 0 
1929742		 # 	collision with: 1 0 9 0 0  and 1 1 9 0 0 
1929744		 # 	collision with: 2 8 0 0 0  and 3 8 0 0 0 
1929746		 # 	collision with: 1 1 8 0 0  and 1 2 8 0 0 
1929748		 # 	collision with: 3 5 0 0 0  and 5 5 0 0 0 
1929750		 # 	collision with: 1 3 5 0 0  and 1 4 5 0 0 
1929753		 # 	collision with: 9 2 0 0 0  and 3 4 0 0 0 
1929755		 # 	collision with: 1 2 7 0 0  and 1 4 7 0 0 
1929756		 # 	collision with: 3 6 0 0 0  and 4 6 0 0 0 
1929758		 # 	collision with: 1 3 6 0 0  and 1 5 6 0 0 
1929804		 # 	collision with: 4 3 0 0 0  and 6 3 0 0 0 
1929806		 # 	collision with: 1 0 3 0 0  and 1 1 3 0 0 
1929825		 # 	collision with: 2 8 0 0 0  and 3 8 0 0 0 
1929827		 # 	collision with: 1 7 2 0 0  and 1 6 4 0 0 
1929854		 # 	collision with: 1 1 2 0 0  and 1 2 2 0 0 
1929883		 # 	collision with: 1 4 3 0 0  and 1 5 3 0 0 
1929889		 # 	collision with: 0 2 0 0 0  and 9 4 0 0 0 
1929891		 # 	collision with: 9 4 2 0 0  and 9 4 4 0 0 
1929900		 # 	collision with: 2 7 0 0 0  and 4 7 0 0 0 
1929902		 # 	collision with: 1 4 7 0 0  and 1 6 7 0 0 
1929948		 # 	collision with: 1 10 0 0 0  and 2 10 0 0 0 
1929950		 # 	collision with: 1 3 10 0 0  and 1 5 10 0 0 
1929957		 # 	collision with: 2 8 0 0 0  and 3 8 0 0 0 
1929959		 # 	collision with: 4 10 2 0 0  and 4 10 4 0 0 
1929989		 # 	collision with: 9 2 0 0 0  and 6 4 0 0 0 
1929991		 # 	collision with: 1 2 0 0 0  and 1 4 0 0 0 
1929996		 # 	collision with: 0 1 0 0 0  and 1 1 0 0 0 
1930044		 # 	collision with: 4 4 0 0 0  and 5 4 0 0 0 
1930046		 # 	collision with: 1 2 4 0 0  and 1 3 4 0 0 
1930057		 # 	collision with: 1 9 0 0 0  and 3 9 0 0 0 
1930059		 # 	collision with: 1 4 3 0 0  and 1 5 3 0 0 
1930065		 # 	collision with: 0 2 0 0 0  and 9 4 0 0 0 
1930067		 # 	collision with: 10 4 2 0 0  and 10 4 4 0 0 
1930092		 # 	collision with: 1 9 0 0 0  and 3 9 0 0 0 
1930094		 # 	collision with: 1 0 9 0 0  and 1 1 9 0 0 
1930121		 # 	collision with: 9 2 0 0 0  and 6 4 0 0 0 
1930123		 # 	collision with: 1 2 0 0 0  and 1 4 0 0 0 
1930140		 # 	collision with: 2 8 0 0 0  and 3 8 0 0 0 
1930142		 # 	collision with: 1 1 8 0 0  and 1 2 8 0 0 
1930149		 # 	collision with: 9 2 0 0 0  and 3 4 0 0 0 
1930151		 # 	collision with: 1 9 2 0 0  and 1 3 4 0 0 
1930188		 # 	collision with: 3 5 0 0 0  and 5 5 0 0 0 
1930190		 # 	collision with: 1 3 5 0 0  and 1 4 5 0 0 
1930192		 # 	collision with: 9 1 8 5 0  and 4 1 0 0 1 
1930194		 # 	collision with: 9 4 2 0 0  and 3 2 0 1 0 
1930196		 # 	collision with: 3 5 0 0 0  and 5 5 0 0 0 
1930198		 # 	collision with: 1 4 5 0 0  and 1 5 5 0 0 
1930200		 # 	collision with: 2 8 0 0 0  and 3 8 0 0 0 
1930202		 # 	collision with: 1 3 8 0 0  and 1 4 8 0 0 
1930204		 # 	collision with: 1 9 0 0 0  and 3 9 0 0 0 
1930206		 # 	collision with: 1 3 9 0 0  and 1 4 9 0 0 
1930208		 # 	collision with: 4 4 0 0 0  and 5 4 0 0 0 
1930210		 # 	collision with: 1 0 4 0 0  and 1 2 4 0 0 
1930212		 # 	collision with: 0 1 0 0 0  and 1 1 0 0 0 
1930216		 # 	collision with: 1 10 0 0 0  and 2 10 0 0 0 
1930218		 # 	collision with: 1 4 10 0 0  and 1 5 10 0 0 
1930220		 # 	collision with: 2 7 0 0 0  and 4 7 0 0 0 
1930222		 # 	collision with: 1 0 7 0 0  and 1 2 7 0 0 
1930224		 # 	collision with: 5 2 0 0 0  and 6 2 0 0 0 
1930226		 # 	collision with: 1 3 2 0 0  and 1 5 2 0 0 
1930228		 # 	collision with: 4 3 0 0 0  and 6 3 0 0 0 
1930230		 # 	collision with: 1 3 3 0 0  and 1 5 3 0 0 
1930232		 # 	collision with: 3 6 0 0 0  and 4 6 0 0 0 
1930234		 # 	collision with: 1 2 6 0 0  and 1 4 6 0 0 
1930237		 # 	collision with: 2 8 0 0 0  and 3 8 0 0 0 
1930239		 # 	collision with: 1 0 2 0 0  and 1 9 3 0 0 
1930240		 # 	collision with: 3 5 0 0 0  and 5 5 0 0 0 
1930242		 # 	collision with: 1 4 5 0 0  and 1 5 5 0 0 
1930288		 # 	collision with: 2 8 0 0 0  and 3 8 0 0 0 
1930290		 # 	collision with: 1 3 8 0 0  and 1 4 8 0 0 
1930309		 # 	collision with: 1 2 0 0 0  and 3 3 0 0 0 
1930311		 # 	collision with: 1 0 2 0 0  and 1 2 3 0 0 
1930336		 # 	collision with: 1 9 0 0 0  and 3 9 0 0 0 
1930338		 # 	collision with: 1 3 9 0 0  and 1 4 9 0 0 
1930365		 # 	collision with: 4 4 0 0 0  and 5 4 0 0 0 
1930367		 # 	collision with: 6 8 2 0 0  and 6 8 3 0 0 
1930373		 # 	collision with: 0 2 0 0 0  and 10 3 0 0 0 
1930375		 # 	collision with: 6 3 2 0 0  and 6 3 3 0 0 
1930384		 # 	collision with: 4 4 0 0 0  and 5 4 0 0 0 
1930386		 # 	collision with: 1 0 4 0 0  and 1 2 4 0 0 
1930432		 # 	collision with: 0 1 0 0 0  and 1 1 0 0 0 
1930441		 # 	collision with: 1 2 0 0 0  and 3 3 0 0 0 
1930443		 # 	collision with: 9 2 2 0 0  and 9 2 3 0 0 
1930473		 # 	collision with: 0 1 0 0 0  and 1 1 0 0 0 
1930475		 # 	collision with: 5 9 2 0 0  and 5 9 3 0 0 
1930480		 # 	collision with: 1 10 0 0 0  and 2 10 0 0 0 
1930482		 # 	collision with: 1 4 10 0 0  and 1 5 10 0 0 
1930528		 # 	collision with: 2 7 0 0 0  and 4 7 0 0 0 
1930530		 # 	collision with: 1 0 7 0 0  and 1 2 7 0 0 
1930541		 # 	collision with: 4 4 0 0 0  and 5 4 0 0 0 
1930543		 # 	collision with: 1 2 2 0 0  and 1 1 3 0 0 
1930551		 # 	collision with: 1 0 2 0 0  and 1 3 3 0 0 
1930578		 # 	collision with: 1 3 2 0 0  and 1 5 2 0 0 
1930605		 # 	collision with: 0 1 0 0 0  and 1 1 0 0 0 
1930607		 # 	collision with: 1 7 2 0 0  and 1 2 3 0 0 
1930624		 # 	collision with: 4 3 0 0 0  and 6 3 0 0 0 
1930626		 # 	collision with: 1 3 3 0 0  and 1 5 3 0 0 
1930633		 # 	collision with: 2 8 0 0 0  and 3 8 0 0 0 
1930635		 # 	collision with: 1 2 8 0 0  and 1 3 8 0 0 
1930672		 # 	collision with: 3 6 0 0 0  and 4 6 0 0 0 
1930674		 # 	collision with: 1 2 6 0 0  and 1 4 6 0 0 
1930676		 # 	collision with: 10 6 2 10 0  and 8 0 0 0 1 
1930678		 # 	collision with: 5 0 9 0 0  and 9 5 1 1 0 
1930680		 # 	collision with: 4 4 0 0 0  and 5 4 0 0 0 
1930682		 # 	collision with: 1 4 4 0 0  and 1 6 4 0 0 
1930684		 # 	collision with: 5 2 0 0 0  and 6 2 0 0 0 
1930686		 # 	collision with: 1 0 2 0 0  and 1 2 2 0 0 
1930688		 # 	collision with: 3 5 0 0 0  and 5 5 0 0 0 
1930690		 # 	collision with: 1 5 5 0 0  and 1 6 5 0 0 
1930692		 # 	collision with: 0 1 0 0 0  and 1 1 0 0 0 
1930696		 # 	collision with: 4 3 0 0 0  and 6 3 0 0 0 
1930698		 # 	collision with: 1 1 3 0 0  and 1 3 3 0 0 
1930700		 # 	collision with: 2 8 0 0 0  and 3 8 0 0 0 
1930702		 # 	collision with: 1 5 8 0 0  and 1 6 8 0 0 
1930704		 # 	collision with: 1 10 0 0 0  and 2 10 0 0 0 
1930706		 # 	collision with: 1 4 10 0 0  and 1 6 10 0 0 
1930708		 # 	collision with: 3 6 0 0 0  and 4 6 0 0 0 
1930710		 # 	collision with: 1 1 6 0 0  and 1 3 6 0 0 
1930712		 # 	collision with: 1 9 0 0 0  and 3 9 0 0 0 
1930714		 # 	collision with: 1 0 9 0 0  and 1 2 9 0 0 
1930716		 # 	collision with: 2 7 0 0 0  and 4 7 0 0 0 
1930718		 # 	collision with: 1 2 7 0 0  and 1 3 7 0 0 
1930721		 # 	collision with: 6 1 0 0 0  and 5 3 0 0 0 
1930723		 # 	collision with: 1 1 9 0 0  and 1 3 9 0 0 
1930724		 # 	collision with: 4 4 0 0 0  and 5 4 0 0 0 
1930726		 # 	collision with: 1 4 4 0 0  and 1 6 4 0 0 
1930774		 # 	collision with: 1 0 2 0 0  and 1 2 2 0 0 
1930795		 # 	collision with: 1 3 1 0 0  and 1 5 1 0 0 
1930820		 # 	collision with: 3 5 0 0 0  and 5 5 0 0 0 
1930822		 # 	collision with: 1 5 5 0 0  and 1 6 5 0 0 
1930849		 # 	collision with: 1 1 0 0 0  and 0 3 0 0 0 
1930851		 # 	collision with: 10 9 1 0 0  and 10 9 3 0 0 
1930857		 # 	collision with: 1 1 0 0 0  and 10 3 0 0 0 
1930859		 # 	collision with: 1 6 1 0 0  and 1 1 3 0 0 
1930868		 # 	collision with: 0 1 0 0 0  and 1 1 0 0 0 
1930916		 # 	collision with: 4 3 0 0 0  and 6 3 0 0 0 
1930918		 # 	collision with: 1 1 3 0 0  and 1 3 3 0 0 
1930925		 # 	collision with: 9 1 0 0 0  and 8 3 0 0 0 
1930927		 # 	collision with: 1 3 1 0 0  and 1 5 1 0 0 
1930957		 # 	collision with: 5 1 0 0 0  and 6 3 0 0 0 
1930964		 # 	collision with: 2 8 0 0 0  and 3 8 0 0 0 
1930966		 # 	collision with: 1 5 8 0 0  and 1 6 8 0 0 
1931012		 # 	collision with: 1 10 0 0 0  and 2 10 0 0 0 
1931014		 # 	collision with: 1 4 10 0 0  and 1 6 10 0 0 
1931025		 # 	collision with: 1 1 0 0 0  and 0 3 0 0 0 
1931027		 # 	collision with: 9 9 1 0 0  and 9 9 3 0 0 
1931033		 # 	collision with: 1 1 0 0 0  and 10 3 0 0 0 
1931035		 # 	collision with: 1 8 1 0 0  and 1 0 3 0 0 
1931060		 # 	collision with: 3 6 0 0 0  and 4 6 0 0 0 
1931062		 # 	collision with: 1 1 6 0 0  and 1 3 6 0 0 
1931089		 # 	collision with: 5 1 0 0 0  and 6 3 0 0 0 
1931108		 # 	collision with: 1 9 0 0 0  and 3 9 0 0 0 
1931110		 # 	collision with: 1 0 9 0 0  and 1 2 9 0 0 
1931117		 # 	collision with: 6 1 0 0 0  and 5 3 0 0 0 
1931119		 # 	collision with: 1 6 1 0 0  and 1 5 3 0 0 
1931156		 # 	collision with: 2 7 0 0 0  and 4 7 0 0 0 
1931158		 # 	collision with: 1 2 7 0 0  and 1 3 7 0 0 
1931160		 # 	collision with: 5 6 3 6 0  and 8 2 0 0 1 
1931162		 # 	collision with: 9 3 7 0 0  and 1 4 0 1 0 
1931164		 # 	collision with: 4 3 0 0 0  and 6 3 0 0 0 
1931166		 # 	collision with: 1 5 3 0 0  and 1 6 3 0 0 
1931168		 # 	collision with: 2 7 0 0 0  and 4 7 0 0 0 
1931170		 # 	collision with: 1 3 7 0 0  and 1 5 7 0 0 
1931172		 # 	collision with: 0 1 0 0 0  and 1 1 0 0 0 
1931176		 # 	collision with: 1 9 0 0 0  and 3 9 0 0 0 
1931178		 # 	collision with: 1 3 9 0 0  and 1 5 9 0 0 
1931180		 # 	collision with: 3 5 0 0 0  and 5 5 0 0 0 
1931182		 # 	collision with: 1 0 5 0 0  and 1 2 5 0 0 
1931184		 # 	collision with: 3 6 0 0 0  and 4 6 0 0 0 
1931186		 # 	collision with: 1 0 6 0 0  and 1 2 6 0 0 
1931188		 # 	collision with: 5 2 0 0 0  and 6 2 0 0 0 
1931190		 # 	collision with: 1 3 2 0 0  and 1 4 2 0 0 
1931192		 # 	collision with: 1 10 0 0 0  and 2 10 0 0 0 
1931194		 # 	collision with: 1 5 10 0 0  and 1 6 10 0 0 
1931196		 # 	collision with: 4 4 0 0 0  and 5 4 0 0 0 
1931198		 # 	collision with: 1 3 4 0 0  and 1 4 4 0 0 
1931200		 # 	collision with: 2 8 0 0 0  and 3 8 0 0 0 
1931202		 # 	collision with: 1 1 8 0 0  and 1 3 8 0 0 
1931205		 # 	collision with: 5 1 0 0 0  and 3 2 0 0 0 
1931207		 # 	collision with: 1 5 1 0 0  and 1 0 2 0 0 
1931208		 # 	collision with: 4 3 0 0 0  and 6 3 0 0 0 
1931210		 # 	collision with: 1 5 3 0 0  and 1 6 3 0 0 
1931256		 # 	collision with: 2 7 0 0 0  and 4 7 0 0 0 
1931258		 # 	collision with: 1 3 7 0 0  and 1 5 7 0 0 
1931277		 # 	collision with: 5 2 0 0 0  and 6 2 0 0 0 
1931279		 # 	collision with: 9 8 1 0 0  and 9 8 2 0 0 
1931304		 # 	collision with: 0 1 0 0 0  and 1 1 0 0 0 
1931333		 # 	collision with: 3 5 0 0 0  and 5 5 0 0 0 
1931335		 # 	collision with: 3 10 1 0 0  and 3 10 2 0 0 
1931341		 # 	collision with: 1 1 0 0 0  and 0 2 0 0 0 
1931343		 # 	collision with: 1 1 0 0 0  and 1 2 0 0 0 
1931352		 # 	collision with: 1 9 0 0 0  and 3 9 0 0 0 
1931354		 # 	collision with: 1 3 9 0 0  and 1 5 9 0 0 
1931400		 # 	collision with: 3 5 0 0 0  and 5 5 0 0 0 
1931402		 # 	collision with: 1 0 5 0 0  and 1 2 5 0 0 
1931409		 # 	collision with: 5 2 0 0 0  and 6 2 0 0 0 
1931411		 # 	collision with: 8 8 1 0 0  and 8 8 2 0 0 
1931441		 # 	collision with: 7 1 0 0 0  and 3 2 0 0 0 
1931443		 # 	collision with: 4 3 1 0 0  and 4 3 2 0 0 
1931448		 # 	collision with: 3 6 0 0 0  and 4 6 0 0 0 
1931450		 # 	collision with: 1 0 6 0 0  and 1 2 6 0 0 
1931498		 # 	collision with: 1 3 2 0 0  and 1 4 2 0 0 
1931511		 # 	collision with: 1 10 1 0 0  and 1 6 2 0 0 
1931517		 # 	collision with: 1 1 0 0 0  and 0 2 0 0 0 
1931519		 # 	collision with: 1 1 0 0 0  and 1 2 0 0 0 
1931544		 # 	collision with: 1 10 0 0 0  and 2 10 0 0 0 
1931546		 # 	collision with: 1 5 10 0 0  and 1 6 10 0 0 
1931573		 # 	collision with: 7 1 0 0 0  and 3 2 0 0 0 
1931575		 # 	collision with: 10 3 1 0 0  and 10 3 2 0 0 
1931592		 # 	collision with: 4 4 0 0 0  and 5 4 0 0 0 
1931594		 # 	collision with: 1 3 4 0 0  and 1 4 4 0 0 
1931601		 # 	collision with: 5 1 0 0 0  and 3 2 0 0 0 
1931603		 # 	collision with: 1 5 1 0 0  and 1 3 2 0 0 
1931640		 # 	collision with: 2 8 0 0 0  and 3 8 0 0 0 
1931642		 # 	collision with: 1 1 8 0 0  and 1 3 8 0 0 
1931644		 # 	collision with: 6 4 9 8 0  and 6 0 0 0 1 
1931646		 # 	collision with: 1 3 7 0 0  and 3 9 2 1 0 
1931648		 # 	collision with: 5 2 0 0 0  and 6 2 0 0 0 
1931650		 # 	collision with: 1 0 2 0 0  and 1 1 2 0 0 
1931652		 # 	collision with: 0 1 0 0 0  and 1 1 0 0 0 
1931656		 # 	collision with: 2 8 0 0 0  and 3 8 0 0 0 
1931658		 # 	collision with: 1 3 8 0 0  and 1 5 8 0 0 
1931660		 # 	collision with: 3 6 0 0 0  and 4 6 0 0 0 
1931662		 # 	collision with: 1 5 6 0 0  and 1 6 6 0 0 
1931664		 # 	collision with: 2 7 0 0 0  and 4 7 0 0 0 
1931666		 # 	collision with: 1 5 7 0 0  and 1 6 7 0 0 
1931668		 # 	collision with: 4 4 0 0 0  and 5 4 0 0 0 
1931670		 # 	collision with: 1 1 4 0 0  and 1 3 4 0 0 
1931672		 # 	collision with: 3 5 0 0 0  and 5 5 0 0 0 
1931674		 # 	collision with: 1 1 5 0 0  and 1 3 5 0 0 
1931676		 # 	collision with: 4 3 0 0 0  and 6 3 0 0 0 
1931678		 # 	collision with: 1 3 3 0 0  and 1 4 3 0 0 
1931680		 # 	collision with: 1 10 0 0 0  and 2 10 0 0 0 
1931682		 # 	collision with: 1 0 10 0 0  and 1 1 10 0 0 
1931684		 # 	collision with: 1 9 0 0 0  and 3 9 0 0 0 
1931686		 # 	collision with: 1 1 9 0 0  and 1 2 9 0 0 
1931691		 # 	collision with: 1 6 0 0 0  and 1 7 0 0 0 
1931694		 # 	collision with: 1 0 2 0 0  and 1 1 2 0 0 
1931740		 # 	collision with: 0 1 0 0 0  and 1 1 0 0 0 
1931761		 # 	collision with: 0 0 0 0 0  and 2 0 0 0 0 
1931763		 # 	collision with: 5 0 0 0 0  and 5 0 2 0 0 
1931788		 # 	collision with: 2 8 0 0 0  and 3 8 0 0 0 
1931790		 # 	collision with: 1 3 8 0 0  and 1 5 8 0 0 
1931817		 # 	collision with: 0 0 0 0 0  and 2 0 0 0 0 
1931819		 # 	collision with: 7 0 0 0 0  and 7 0 2 0 0 
1931825		 # 	collision with: 0 0 0 0 0  and 2 0 0 0 0 
1931827		 # 	collision with: 8 0 0 0 0  and 8 0 2 0 0 
1931836		 # 	collision with: 3 6 0 0 0  and 4 6 0 0 0 
1931838		 # 	collision with: 1 5 6 0 0  and 1 6 6 0 0 
1931884		 # 	collision with: 2 7 0 0 0  and 4 7 0 0 0 
1931886		 # 	collision with: 1 5 7 0 0  and 1 6 7 0 0 
1931893		 # 	collision with: 0 0 0 0 0  and 2 0 0 0 0 
1931895		 # 	collision with: 2 0 0 0 0  and 2 0 2 0 0 
1931925		 # 	collision with: 0 0 0 0 0  and 2 0 0 0 0 
1931927		 # 	collision with: 9 0 0 0 0  and 9 0 2 0 0 
1931932		 # 	collision with: 4 4 0 0 0  and 5 4 0 0 0 
1931934		 # 	collision with: 1 1 4 0 0  and 1 3 4 0 0 
1931980		 # 	collision with: 3 5 0 0 0  and 5 5 0 0 0 
1931982		 # 	collision with: 1 1 5 0 0  and 1 3 5 0 0 
1931993		 # 	collision with: 0 0 0 0 0  and 2 0 0 0 0 
1931995		 # 	collision with: 3 0 0 0 0  and 3 0 2 0 0 
117.669secs	44112
