# prime 11
# degree 2
# input variables 3
# output variables 5
# reload computed balance functions from file balance-1495of3248-p11d2m3-debug.log
# p = 11
# n = 5
# smalldomain p^m 1331
# domain p^n 161051
#	 p^2 = 121
#	 p^3 = 1331
#	 p^4 = 14641
#	 p^5 = 161051
#	 p^6 = 1771561
#	 p^7 = 19487171
#	 p^8 = 214358881
#	 p^9 = 2357947691
opening file : balance-1495of3248-p11d2m3-debug.log
reloading for step2...
8970021		 # 	collision with: 5 2 0 0 0  and 6 2 0 0 0 
8970023		 # 	collision with: 4 1 2 0 0  and 6 1 2 0 0 
8970101		 # 	collision with: 9 9 0 0 0  and 9 0 2 0 0 
8970103		 # 	collision with: 4 1 1 0 0  and 4 2 1 0 0 
8970193		 # 	collision with: 6 4 0 0 0  and 6 2 2 0 0 
8970195		 # 	collision with: 4 0 0 0 0  and 4 3 2 0 0 
8970217		 # 	collision with: 3 9 0 0 0  and 8 0 2 0 0 
8970219		 # 	collision with: 3 0 0 0 0  and 3 2 0 0 0 
8970237		 # 	collision with: 7 1 0 0 0  and 7 6 2 0 0 
8970239		 # 	collision with: 1 9 0 0 0  and 1 2 2 0 0 
8970257		 # 	collision with: 1 8 0 0 0  and 1 8 2 0 0 
8970373		 # 	collision with: 5 2 0 0 0  and 6 2 0 0 0 
8970375		 # 	collision with: 9 7 0 0 0  and 9 7 2 0 0 
8970421		 # 	collision with: 9 9 0 0 0  and 9 0 2 0 0 
8970423		 # 	collision with: 2 0 0 0 0  and 8 1 2 0 0 
8970455		 # 	collision with: 4 1 1 0 0  and 4 2 1 0 0 
8970456		 # 	collision with: 2 5 9 0 0  and 4 8 1 1 0 
8970458		 # 	collision with: 3 10 8 0 0  and 1 9 0 1 0 
8970477		 # 	collision with: 7 6 0 0 0  and 7 1 1 0 0 
8970479		 # 	collision with: 0 1 0 0 0  and 10 8 1 0 0 
8970481		 # 	collision with: 5 2 0 0 0  and 6 2 0 0 0 
8970505		 # 	collision with: 7 4 0 0 0  and 7 3 1 0 0 
8970507		 # 	collision with: 4 1 1 0 0  and 6 1 1 0 0 
8970537		 # 	collision with: 3 1 1 0 0  and 8 2 1 0 0 
8970539		 # 	collision with: 6 4 0 0 0  and 6 1 1 0 0 
8970585		 # 	collision with: 1 3 0 0 0  and 1 3 1 0 0 
8970587		 # 	collision with: 3 0 1 0 0  and 3 2 1 0 0 
8970677		 # 	collision with: 4 0 0 0 0  and 7 1 0 0 0 
8970679		 # 	collision with: 3 8 0 0 0  and 3 5 1 0 0 
8970701		 # 	collision with: 5 2 0 0 0  and 6 2 0 0 0 
8970703		 # 	collision with: 5 5 0 0 0  and 5 5 1 0 0 
8970721		 # 	collision with: 4 0 0 0 0  and 7 1 0 0 0 
8970723		 # 	collision with: 9 5 0 0 0  and 9 3 1 0 0 
8970741		 # 	collision with: 2 10 0 0 0  and 2 3 1 0 0 
8970743		 # 	collision with: 8 6 0 0 0  and 8 6 1 0 0 
8970857		 # 	collision with: 10 3 0 0 0  and 1 6 1 0 0 
8970905		 # 	collision with: 7 5 0 0 0  and 7 2 1 0 0 
8970907		 # 	collision with: 4 1 0 0 0  and 6 1 0 0 0 
8970937		 # 	collision with: 9 3 0 0 0  and 9 3 1 0 0 
8970939		 # 	collision with: 3 0 1 0 0  and 3 2 1 0 0 
8971000		 # 	collision with: 7 3 0 0 0  and 7 4 0 0 0 
8971002		 # 	collision with: 4 0 0 0 0  and 6 0 0 0 0 
8971008		 # 	collision with: 8 3 0 0 0  and 8 5 0 0 0 
8971010		 # 	collision with: 4 0 0 0 0  and 6 0 0 0 0 
8971032		 # 	collision with: 4 0 0 0 0  and 7 1 0 0 0 
8971034		 # 	collision with: 4 0 0 0 0  and 6 0 0 0 0 
8971060		 # 	collision with: 2 0 0 0 0  and 2 2 0 0 0 
8971062		 # 	collision with: 4 0 0 0 0  and 6 0 0 0 0 
8971071		 # 	collision with: 4 0 6 0 0  and 6 0 6 0 0 
8971073		 # 	collision with: 5 2 0 0 0  and 6 2 0 0 0 
8971075		 # 	collision with: 1 5 2 0 0  and 1 6 2 0 0 
8971076		 # 	collision with: 4 0 0 0 0  and 7 1 0 0 0 
8971078		 # 	collision with: 4 0 0 0 0  and 6 0 0 0 0 
8971100		 # 	collision with: 3 1 0 0 0  and 8 2 0 0 0 
8971102		 # 	collision with: 4 0 0 0 0  and 6 0 0 0 0 
8971105		 # 	collision with: 5 2 2 0 0  and 6 2 2 0 0 
8971107		 # 	collision with: 4 0 4 0 0  and 6 0 4 0 0 
8971124		 # 	collision with: 5 2 0 0 0  and 5 3 0 0 0 
8971126		 # 	collision with: 4 0 0 0 0  and 6 0 0 0 0 
8971136		 # 	collision with: 6 2 0 0 0  and 6 4 0 0 0 
8971138		 # 	collision with: 4 0 0 0 0  and 6 0 0 0 0 
8971149		 # 	collision with: 7 3 6 0 0  and 7 4 6 0 0 
8971151		 # 	collision with: 4 0 3 0 0  and 6 0 3 0 0 
8971157		 # 	collision with: 6 2 5 0 0  and 5 2 6 0 0 
8971159		 # 	collision with: 4 0 3 0 0  and 6 0 3 0 0 
8971192		 # 	collision with: 2 0 0 0 0  and 2 2 0 0 0 
8971194		 # 	collision with: 4 0 0 0 0  and 6 0 0 0 0 
8971196		 # 	collision with: 5 2 0 0 0  and 6 4 0 0 0 
8971198		 # 	collision with: 4 0 0 0 0  and 6 0 0 0 0 
8971212		 # 	collision with: 5 2 0 0 0  and 5 3 0 0 0 
8971214		 # 	collision with: 4 0 0 0 0  and 6 0 0 0 0 
8971216		 # 	collision with: 2 0 0 0 0  and 9 2 0 0 0 
8971218		 # 	collision with: 4 0 0 0 0  and 6 0 0 0 0 
8971253		 # 	collision with: 5 2 6 0 0  and 6 2 6 0 0 
8971255		 # 	collision with: 4 3 3 0 0  and 6 5 3 0 0 
8971261		 # 	collision with: 4 4 4 0 0  and 7 6 4 0 0 
8971263		 # 	collision with: 9 3 1 0 0  and 9 5 1 0 0 
8971272		 # 	collision with: 8 3 0 0 0  and 8 5 0 0 0 
8971274		 # 	collision with: 4 0 0 0 0  and 6 0 0 0 0 
8971284		 # 	collision with: 5 2 0 0 0  and 6 4 0 0 0 
8971286		 # 	collision with: 4 0 0 0 0  and 6 0 0 0 0 
8971293		 # 	collision with: 5 2 0 0 0  and 6 2 0 0 0 
8971295		 # 	collision with: 1 5 2 0 0  and 1 6 2 0 0 
8971305		 # 	collision with: 5 2 2 0 0  and 6 2 2 0 0 
8971307		 # 	collision with: 9 3 1 0 0  and 9 5 1 0 0 
8971308		 # 	collision with: 7 3 0 0 0  and 7 4 0 0 0 
8971310		 # 	collision with: 4 0 0 0 0  and 6 0 0 0 0 
8971332		 # 	collision with: 9 4 0 0 0  and 9 5 0 0 0 
8971334		 # 	collision with: 4 0 0 0 0  and 6 0 0 0 0 
8971343		 # 	collision with: 4 0 5 0 0  and 6 0 5 0 0 
8971348		 # 	collision with: 2 0 0 0 0  and 9 2 0 0 0 
8971350		 # 	collision with: 4 0 0 0 0  and 6 0 0 0 0 
8971376		 # 	collision with: 9 4 0 0 0  and 9 5 0 0 0 
8971378		 # 	collision with: 4 0 0 0 0  and 6 0 0 0 0 
8971400		 # 	collision with: 6 2 0 0 0  and 6 4 0 0 0 
8971402		 # 	collision with: 4 0 0 0 0  and 6 0 0 0 0 
8971408		 # 	collision with: 3 1 0 0 0  and 8 2 0 0 0 
8971410		 # 	collision with: 4 0 0 0 0  and 6 0 0 0 0 
8971424		 # 	collision with: 9 2 4 0 0  and 6 8 0 1 0 
8971426		 # 	collision with: 4 7 4 0 0  and 5 1 0 1 0 
8971486		 # 	collision with: 5 1 8 0 0  and 5 3 8 0 0 
8971492		 # 	collision with: 5 2 9 0 0  and 6 2 9 0 0 
8971494		 # 	collision with: 8 3 9 0 0  and 8 4 9 0 0 
8971516		 # 	collision with: 5 2 4 0 0  and 6 2 4 0 0 
8971518		 # 	collision with: 4 0 5 0 0  and 6 0 5 0 0 
8971544		 # 	collision with: 9 4 4 0 0  and 9 5 4 0 0 
8971546		 # 	collision with: 7 2 4 0 0  and 7 4 4 0 0 
8971553		 # 	collision with: 6 0 4 0 0  and 6 0 6 0 0 
8971557		 # 	collision with: 10 4 0 0 0  and 10 6 0 0 0 
8971560		 # 	collision with: 5 2 10 0 0  and 6 2 10 0 0 
8971562		 # 	collision with: 4 0 7 0 0  and 6 0 7 0 0 
8971584		 # 	collision with: 5 2 3 0 0  and 5 3 3 0 0 
8971586		 # 	collision with: 4 1 3 0 0  and 4 2 3 0 0 
8971589		 # 	collision with: 3 1 5 0 0  and 8 2 5 0 0 
8971591		 # 	collision with: 4 0 0 0 0  and 6 0 0 0 0 
8971608		 # 	collision with: 9 4 5 0 0  and 9 5 5 0 0 
8971610		 # 	collision with: 4 1 5 0 0  and 4 2 5 0 0 
8971620		 # 	collision with: 5 2 0 0 0  and 6 2 0 0 0 
8971622		 # 	collision with: 5 1 2 0 0  and 5 3 2 0 0 
8971635		 # 	collision with: 4 0 0 0 0  and 6 0 0 0 0 
8971641		 # 	collision with: 4 0 2 0 0  and 7 1 2 0 0 
8971643		 # 	collision with: 4 0 0 0 0  and 6 0 0 0 0 
8971676		 # 	collision with: 5 2 1 0 0  and 6 2 1 0 0 
8971678		 # 	collision with: 4 0 2 0 0  and 6 0 2 0 0 
8971680		 # 	collision with: 5 2 5 0 0  and 6 2 5 0 0 
8971682		 # 	collision with: 4 0 2 0 0  and 6 0 2 0 0 
8971696		 # 	collision with: 5 2 1 0 0  and 6 2 1 0 0 
8971698		 # 	collision with: 7 0 5 0 0  and 3 2 5 0 0 
8971700		 # 	collision with: 1 0 7 0 0  and 1 1 7 0 0 
8971739		 # 	collision with: 4 0 0 0 0  and 6 0 0 0 0 
8971745		 # 	collision with: 4 0 3 0 0  and 7 1 3 0 0 
8971747		 # 	collision with: 4 0 0 0 0  and 6 0 0 0 0 
8971756		 # 	collision with: 5 2 6 0 0  and 6 2 6 0 0 
8971758		 # 	collision with: 4 0 3 0 0  and 6 0 3 0 0 
8971768		 # 	collision with: 5 2 2 0 0  and 6 2 2 0 0 
8971770		 # 	collision with: 4 0 3 0 0  and 6 0 3 0 0 
8971777		 # 	collision with: 10 4 0 0 0  and 10 6 0 0 0 
8971779		 # 	collision with: 4 0 0 0 0  and 6 0 0 0 0 
8971789		 # 	collision with: 7 0 4 0 0  and 7 0 6 0 0 
8971791		 # 	collision with: 4 0 0 0 0  and 6 0 0 0 0 
8971792		 # 	collision with: 5 2 3 0 0  and 6 2 3 0 0 
8971794		 # 	collision with: 4 0 4 0 0  and 6 0 4 0 0 
8971816		 # 	collision with: 2 0 1 0 0  and 9 2 1 0 0 
8971818		 # 	collision with: 1 5 1 0 0  and 1 6 1 0 0 
8971825		 # 	collision with: 7 6 4 0 0  and 4 0 6 0 0 
8971827		 # 	collision with: 4 0 0 0 0  and 6 0 0 0 0 
8971832		 # 	collision with: 1 0 7 0 0  and 1 1 7 0 0 
8971834		 # 	collision with: 4 0 6 0 0  and 6 0 6 0 0 
8971860		 # 	collision with: 3 1 1 0 0  and 8 2 1 0 0 
8971862		 # 	collision with: 9 1 1 0 0  and 1 2 1 0 0 
8971886		 # 	collision with: 4 0 1 0 0  and 6 0 1 0 0 
8971892		 # 	collision with: 4 0 3 0 0  and 7 1 3 0 0 
8971908		 # 	collision with: 4 0 2 0 0  and 6 0 0 1 0 
8971910		 # 	collision with: 0 1 2 0 0  and 6 6 0 1 0 
8971968		 # 	collision with: 5 2 1 0 0  and 6 2 1 0 0 
8971970		 # 	collision with: 10 4 5 0 0  and 10 5 5 0 0 
8971976		 # 	collision with: 4 0 7 0 0  and 7 1 7 0 0 
8972000		 # 	collision with: 5 2 9 0 0  and 6 2 9 0 0 
8972002		 # 	collision with: 3 0 9 0 0  and 3 2 9 0 0 
8972030		 # 	collision with: 3 0 8 0 0  and 3 2 8 0 0 
8972037		 # 	collision with: 5 2 0 0 0  and 6 2 0 0 0 
8972039		 # 	collision with: 4 0 5 0 0  and 6 0 5 0 0 
8972041		 # 	collision with: 5 2 3 0 0  and 6 2 3 0 0 
8972043		 # 	collision with: 2 4 3 0 0  and 8 5 3 0 0 
8972044		 # 	collision with: 5 2 6 0 0  and 6 2 6 0 0 
8972046		 # 	collision with: 4 0 3 0 0  and 6 0 3 0 0 
8972068		 # 	collision with: 5 2 2 0 0  and 6 2 2 0 0 
8972070		 # 	collision with: 4 0 3 0 0  and 6 0 3 0 0 
8972073		 # 	collision with: 1 0 1 0 0  and 1 1 1 0 0 
8972092		 # 	collision with: 5 2 4 0 0  and 6 2 4 0 0 
8972094		 # 	collision with: 4 0 5 0 0  and 6 0 5 0 0 
8972104		 # 	collision with: 2 0 4 0 0  and 9 2 4 0 0 
8972106		 # 	collision with: 4 3 4 0 0  and 6 5 4 0 0 
8972117		 # 	collision with: 1 0 1 0 0  and 1 1 1 0 0 
8972119		 # 	collision with: 8 0 1 0 0  and 2 1 1 0 0 
8972125		 # 	collision with: 5 2 0 0 0  and 6 2 0 0 0 
8972127		 # 	collision with: 5 8 4 0 0  and 5 7 5 0 0 
8972160		 # 	collision with: 5 2 3 0 0  and 6 2 3 0 0 
8972162		 # 	collision with: 4 0 4 0 0  and 6 0 4 0 0 
8972164		 # 	collision with: 4 4 1 0 0  and 7 6 1 0 0 
8972166		 # 	collision with: 8 2 1 0 0  and 2 4 1 0 0 
8972180		 # 	collision with: 2 0 10 0 0  and 2 2 10 0 0 
8972182		 # 	collision with: 4 0 7 0 0  and 6 0 7 0 0 
8972184		 # 	collision with: 7 3 3 0 0  and 4 5 3 0 0 
8972186		 # 	collision with: 9 1 3 0 0  and 1 2 3 0 0 
8972221		 # 	collision with: 5 2 1 0 0  and 6 2 1 0 0 
8972229		 # 	collision with: 5 2 1 0 0  and 6 4 1 0 0 
8972231		 # 	collision with: 4 0 3 0 0  and 6 0 3 0 0 
8972240		 # 	collision with: 2 0 7 0 0  and 2 2 7 0 0 
8972242		 # 	collision with: 4 0 6 0 0  and 6 0 6 0 0 
8972252		 # 	collision with: 5 2 5 0 0  and 6 2 5 0 0 
8972254		 # 	collision with: 8 0 1 0 0  and 2 1 1 0 0 
8972261		 # 	collision with: 7 4 1 0 0  and 4 5 1 0 0 
8972263		 # 	collision with: 4 0 4 0 0  and 6 0 4 0 0 
8972273		 # 	collision with: 7 3 4 0 0  and 4 5 4 0 0 
8972275		 # 	collision with: 4 0 4 0 0  and 6 0 4 0 0 
8972276		 # 	collision with: 6 2 5 0 0  and 6 4 5 0 0 
8972278		 # 	collision with: 10 4 5 0 0  and 10 5 5 0 0 
8972300		 # 	collision with: 5 2 0 0 0  and 6 2 0 0 0 
8972302		 # 	collision with: 2 0 2 0 0  and 2 1 2 0 0 
8972309		 # 	collision with: 7 3 1 0 0  and 4 5 1 0 0 
8972311		 # 	collision with: 8 3 2 0 0  and 8 4 2 0 0 
8972316		 # 	collision with: 6 2 3 0 0  and 5 3 3 0 0 
8972346		 # 	collision with: 4 0 1 0 0  and 6 0 1 0 0 
8972368		 # 	collision with: 5 2 1 0 0  and 6 2 1 0 0 
8972370		 # 	collision with: 4 0 2 0 0  and 6 0 2 0 0 
8972376		 # 	collision with: 5 2 5 0 0  and 6 2 5 0 0 
8972378		 # 	collision with: 4 0 2 0 0  and 6 0 2 0 0 
8972392		 # 	collision with: 9 2 5 0 0  and 10 7 0 1 0 
8972394		 # 	collision with: 3 2 7 0 0  and 6 6 2 1 0 
8972452		 # 	collision with: 5 2 0 0 0  and 6 2 0 0 0 
8972454		 # 	collision with: 4 1 2 0 0  and 4 2 2 0 0 
8972460		 # 	collision with: 3 1 5 0 0  and 8 2 5 0 0 
8972462		 # 	collision with: 2 0 5 0 0  and 2 1 5 0 0 
8972484		 # 	collision with: 5 2 3 0 0  and 6 2 3 0 0 
8972486		 # 	collision with: 4 0 4 0 0  and 6 0 4 0 0 
8972512		 # 	collision with: 1 0 1 0 0  and 1 1 1 0 0 
8972514		 # 	collision with: 8 0 1 0 0  and 2 1 1 0 0 
8972521		 # 	collision with: 7 5 3 0 0  and 4 2 5 0 0 
8972523		 # 	collision with: 4 3 0 0 0  and 6 5 0 0 0 
8972525		 # 	collision with: 6 9 3 0 0  and 5 4 5 0 0 
8972527		 # 	collision with: 4 3 1 0 0  and 6 5 1 0 0 
8972530		 # 	collision with: 10 4 8 0 0  and 10 5 8 0 0 
8972552		 # 	collision with: 2 0 9 0 0  and 2 2 9 0 0 
8972554		 # 	collision with: 1 5 9 0 0  and 1 6 9 0 0 
8972557		 # 	collision with: 5 2 1 0 0  and 6 2 1 0 0 
8972559		 # 	collision with: 4 0 3 0 0  and 6 0 3 0 0 
8972576		 # 	collision with: 5 2 1 0 0  and 6 2 1 0 0 
8972578		 # 	collision with: 4 0 2 0 0  and 6 0 2 0 0 
8972588		 # 	collision with: 5 2 5 0 0  and 6 2 5 0 0 
8972590		 # 	collision with: 4 0 2 0 0  and 6 0 2 0 0 
8972601		 # 	collision with: 3 1 2 0 0  and 8 2 2 0 0 
8972603		 # 	collision with: 4 0 5 0 0  and 6 0 5 0 0 
8972609		 # 	collision with: 8 7 3 0 0  and 8 7 5 0 0 
8972611		 # 	collision with: 4 3 0 0 0  and 6 5 0 0 0 
8972644		 # 	collision with: 1 0 1 0 0  and 1 1 1 0 0 
8972646		 # 	collision with: 10 4 1 0 0  and 10 5 1 0 0 
8972648		 # 	collision with: 3 1 7 0 0  and 8 2 7 0 0 
8972650		 # 	collision with: 4 0 6 0 0  and 6 0 6 0 0 
8972664		 # 	collision with: 3 1 4 0 0  and 8 2 4 0 0 
8972666		 # 	collision with: 7 2 4 0 0  and 3 3 4 0 0 
8972668		 # 	collision with: 5 2 4 0 0  and 6 2 4 0 0 
8972670		 # 	collision with: 4 0 5 0 0  and 6 0 5 0 0 
8972705		 # 	collision with: 7 3 1 0 0  and 7 4 1 0 0 
8972707		 # 	collision with: 7 2 3 0 0  and 3 3 3 0 0 
8972713		 # 	collision with: 7 3 4 0 0  and 7 4 4 0 0 
8972715		 # 	collision with: 9 10 3 0 0  and 1 3 5 0 0 
8972724		 # 	collision with: 5 2 1 0 0  and 6 2 1 0 0 
8972726		 # 	collision with: 2 0 5 0 0  and 2 1 5 0 0 
8972736		 # 	collision with: 7 3 7 0 0  and 4 5 7 0 0 
8972745		 # 	collision with: 5 2 1 0 0  and 6 2 1 0 0 
8972747		 # 	collision with: 10 6 3 0 0  and 10 3 5 0 0 
8972757		 # 	collision with: 5 2 3 0 0  and 6 2 3 0 0 
8972759		 # 	collision with: 7 2 1 0 0  and 3 3 1 0 0 
8972762		 # 	collision with: 4 0 1 0 0  and 6 0 1 0 0 
8972784		 # 	collision with: 1 0 3 0 0  and 1 1 3 0 0 
8972793		 # 	collision with: 7 3 1 0 0  and 7 4 1 0 0 
8972795		 # 	collision with: 4 0 1 0 0  and 6 0 1 0 0 
8972800		 # 	collision with: 5 2 10 0 0  and 6 2 10 0 0 
8972802		 # 	collision with: 4 0 7 0 0  and 6 0 7 0 0 
8972828		 # 	collision with: 1 0 3 0 0  and 1 1 3 0 0 
8972830		 # 	collision with: 3 0 3 0 0  and 3 2 3 0 0 
8972852		 # 	collision with: 5 2 2 0 0  and 6 2 2 0 0 
8972854		 # 	collision with: 4 0 3 0 0  and 6 0 3 0 0 
8972860		 # 	collision with: 5 2 6 0 0  and 6 2 6 0 0 
8972862		 # 	collision with: 4 0 3 0 0  and 6 0 3 0 0 
8972876		 # 	collision with: 9 0 1 0 0  and 0 9 0 1 0 
8972878		 # 	collision with: 9 6 1 0 0  and 6 1 0 1 0 
8972936		 # 	collision with: 5 2 10 0 0  and 6 2 10 0 0 
8972938		 # 	collision with: 4 0 7 0 0  and 6 0 7 0 0 
8972944		 # 	collision with: 7 3 3 0 0  and 7 4 3 0 0 
8972946		 # 	collision with: 10 4 3 0 0  and 10 5 3 0 0 
8972968		 # 	collision with: 7 3 7 0 0  and 4 5 7 0 0 
8972996		 # 	collision with: 5 2 1 0 0  and 6 2 1 0 0 
8972998		 # 	collision with: 9 1 5 0 0  and 1 2 5 0 0 
8973005		 # 	collision with: 5 3 0 0 0  and 6 4 0 0 0 
8973007		 # 	collision with: 4 0 4 0 0  and 6 0 4 0 0 
8973011		 # 	collision with: 2 1 3 0 0  and 8 7 4 0 0 
8973012		 # 	collision with: 9 4 7 0 0  and 9 5 7 0 0 
8973014		 # 	collision with: 4 0 6 0 0  and 6 0 6 0 0 
8973036		 # 	collision with: 6 2 1 0 0  and 6 4 1 0 0 
8973038		 # 	collision with: 5 1 1 0 0  and 5 3 1 0 0 
8973041		 # 	collision with: 4 5 3 0 0  and 7 4 4 0 0 
8973043		 # 	collision with: 4 9 3 0 0  and 4 9 4 0 0 
8973060		 # 	collision with: 5 2 9 0 0  and 6 2 9 0 0 
8973062		 # 	collision with: 7 0 9 0 0  and 3 2 9 0 0 
8973074		 # 	collision with: 7 2 8 0 0  and 3 3 8 0 0 
8973085		 # 	collision with: 6 9 3 0 0  and 6 9 4 0 0 
8973087		 # 	collision with: 4 0 2 0 0  and 6 0 2 0 0 
8973093		 # 	collision with: 5 3 0 0 0  and 6 4 0 0 0 
8973095		 # 	collision with: 4 0 2 0 0  and 6 0 2 0 0 
8973128		 # 	collision with: 8 3 5 0 0  and 8 5 5 0 0 
8973130		 # 	collision with: 7 0 5 0 0  and 3 2 5 0 0 
8973132		 # 	collision with: 5 2 0 0 0  and 6 2 0 0 0 
8973134		 # 	collision with: 8 2 2 0 0  and 2 4 2 0 0 
8973148		 # 	collision with: 5 2 6 0 0  and 6 2 6 0 0 
8973150		 # 	collision with: 4 0 3 0 0  and 6 0 3 0 0 
8973152		 # 	collision with: 5 2 2 0 0  and 6 2 2 0 0 
8973154		 # 	collision with: 4 0 3 0 0  and 6 0 3 0 0 
8973189		 # 	collision with: 4 1 3 0 0  and 4 3 3 0 0 
8973191		 # 	collision with: 6 6 3 0 0  and 6 6 4 0 0 
8973197		 # 	collision with: 4 0 2 0 0  and 7 1 2 0 0 
8973199		 # 	collision with: 1 9 3 0 0  and 9 1 4 0 0 
8973208		 # 	collision with: 7 3 3 0 0  and 7 4 3 0 0 
8973222		 # 	collision with: 4 0 1 0 0  and 6 0 1 0 0 
8973229		 # 	collision with: 6 6 3 0 0  and 6 0 4 0 0 
8973231		 # 	collision with: 4 0 1 0 0  and 6 0 1 0 0 
8973243		 # 	collision with: 4 0 1 0 0  and 6 0 1 0 0 
8973244		 # 	collision with: 5 2 4 0 0  and 6 2 4 0 0 
8973246		 # 	collision with: 4 0 5 0 0  and 6 0 5 0 0 
8973268		 # 	collision with: 2 0 4 0 0  and 2 2 4 0 0 
8973270		 # 	collision with: 4 1 4 0 0  and 4 2 4 0 0 
8973277		 # 	collision with: 5 2 3 0 0  and 6 2 3 0 0 
8973279		 # 	collision with: 1 6 3 0 0  and 1 6 4 0 0 
8973284		 # 	collision with: 5 2 5 0 0  and 6 2 5 0 0 
8973286		 # 	collision with: 4 0 2 0 0  and 6 0 2 0 0 
8973312		 # 	collision with: 5 2 1 0 0  and 6 2 1 0 0 
8973314		 # 	collision with: 4 0 2 0 0  and 6 0 2 0 0 
8973336		 # 	collision with: 5 2 3 0 0  and 6 2 3 0 0 
8973338		 # 	collision with: 4 0 4 0 0  and 6 0 4 0 0 
8973344		 # 	collision with: 6 2 1 0 0  and 6 4 1 0 0 
8973346		 # 	collision with: 9 1 1 0 0  and 1 2 1 0 0 
8973360		 # 	collision with: 7 3 3 0 0  and 0 1 0 1 0 
8973362		 # 	collision with: 0 2 6 0 0  and 8 1 3 1 0 
8973420		 # 	collision with: 2 0 7 0 0  and 9 2 7 0 0 
8973422		 # 	collision with: 4 0 6 0 0  and 6 0 6 0 0 
8973428		 # 	collision with: 4 1 1 0 0  and 4 3 1 0 0 
8973430		 # 	collision with: 7 0 1 0 0  and 3 2 1 0 0 
8973452		 # 	collision with: 5 2 2 0 0  and 6 2 2 0 0 
8973454		 # 	collision with: 4 0 3 0 0  and 6 0 3 0 0 
8973480		 # 	collision with: 5 2 6 0 0  and 6 2 6 0 0 
8973482		 # 	collision with: 4 0 3 0 0  and 6 0 3 0 0 
8973489		 # 	collision with: 5 2 4 0 0  and 6 2 4 0 0 
8973491		 # 	collision with: 5 4 2 0 0  and 5 0 4 0 0 
8973493		 # 	collision with: 5 2 0 0 0  and 6 4 0 0 0 
8973495		 # 	collision with: 7 2 3 0 0  and 7 4 3 0 0 
8973496		 # 	collision with: 5 2 5 0 0  and 6 2 5 0 0 
8973498		 # 	collision with: 4 0 2 0 0  and 6 0 2 0 0 
8973520		 # 	collision with: 5 2 1 0 0  and 6 2 1 0 0 
8973522		 # 	collision with: 4 0 2 0 0  and 6 0 2 0 0 
8973525		 # 	collision with: 2 3 2 0 0  and 9 0 4 0 0 
8973527		 # 	collision with: 10 4 1 0 0  and 10 5 1 0 0 
8973544		 # 	collision with: 4 0 3 0 0  and 7 1 3 0 0 
8973546		 # 	collision with: 9 3 3 0 0  and 9 5 3 0 0 
8973556		 # 	collision with: 5 2 10 0 0  and 6 2 10 0 0 
8973558		 # 	collision with: 4 0 7 0 0  and 6 0 7 0 0 
8973569		 # 	collision with: 5 2 3 0 0  and 6 2 3 0 0 
8973571		 # 	collision with: 10 4 1 0 0  and 10 5 1 0 0 
8973577		 # 	collision with: 5 2 2 0 0  and 6 2 2 0 0 
8973579		 # 	collision with: 9 5 2 0 0  and 9 3 4 0 0 
8973612		 # 	collision with: 5 2 9 0 0  and 6 2 9 0 0 
8973614		 # 	collision with: 2 0 9 0 0  and 2 1 9 0 0 
8973618		 # 	collision with: 8 2 8 0 0  and 2 4 8 0 0 
8973632		 # 	collision with: 3 1 3 0 0  and 3 2 3 0 0 
8973638		 # 	collision with: 4 0 1 0 0  and 6 0 1 0 0 
8973673		 # 	collision with: 6 5 2 0 0  and 6 1 4 0 0 
8973675		 # 	collision with: 4 0 1 0 0  and 6 0 1 0 0 
8973681		 # 	collision with: 5 2 0 0 0  and 6 2 0 0 0 
8973692		 # 	collision with: 4 1 1 0 0  and 4 3 1 0 0 
8973694		 # 	collision with: 7 2 1 0 0  and 7 4 1 0 0 
8973704		 # 	collision with: 5 2 3 0 0  and 6 2 3 0 0 
8973706		 # 	collision with: 4 0 4 0 0  and 6 0 4 0 0 
8973713		 # 	collision with: 5 2 0 0 0  and 6 4 0 0 0 
8973715		 # 	collision with: 7 2 3 0 0  and 7 4 3 0 0 
8973725		 # 	collision with: 5 2 0 0 0  and 6 2 0 0 0 
8973727		 # 	collision with: 9 1 1 0 0  and 1 2 1 0 0 
8973728		 # 	collision with: 6 2 7 0 0  and 5 3 7 0 0 
8973752		 # 	collision with: 5 2 1 0 0  and 6 2 1 0 0 
8973754		 # 	collision with: 5 1 5 0 0  and 5 3 5 0 0 
8973761		 # 	collision with: 6 2 1 0 0  and 5 3 1 0 0 
8973763		 # 	collision with: 4 0 2 0 0  and 6 0 2 0 0 
8973768		 # 	collision with: 5 2 0 0 0  and 6 2 0 0 0 
8973770		 # 	collision with: 7 0 2 0 0  and 3 2 2 0 0 
8973796		 # 	collision with: 3 1 5 0 0  and 3 2 5 0 0 
8973798		 # 	collision with: 5 1 5 0 0  and 5 3 5 0 0 
8973820		 # 	collision with: 5 2 4 0 0  and 6 2 4 0 0 
8973822		 # 	collision with: 4 0 5 0 0  and 6 0 5 0 0 
8973828		 # 	collision with: 10 4 4 0 0  and 10 6 4 0 0 
8973830		 # 	collision with: 9 3 4 0 0  and 9 5 4 0 0 
8973844		 # 	collision with: 2 0 9 0 0  and 8 0 1 1 0 
8973846		 # 	collision with: 5 1 8 0 0  and 9 10 0 1 0 
8973904		 # 	collision with: 4 1 4 0 0  and 4 3 4 0 0 
8973906		 # 	collision with: 8 3 4 0 0  and 8 4 4 0 0 
8973912		 # 	collision with: 5 2 4 0 0  and 6 2 4 0 0 
8973914		 # 	collision with: 4 0 5 0 0  and 6 0 5 0 0 
8973936		 # 	collision with: 1 0 5 0 0  and 1 1 5 0 0 
8973938		 # 	collision with: 9 1 5 0 0  and 1 2 5 0 0 
8973964		 # 	collision with: 5 2 0 0 0  and 6 2 0 0 0 
8973966		 # 	collision with: 9 3 2 0 0  and 9 5 2 0 0 
8973973		 # 	collision with: 9 1 2 0 0  and 9 1 3 0 0 
8973975		 # 	collision with: 4 0 3 0 0  and 6 0 3 0 0 
8973977		 # 	collision with: 5 2 1 0 0  and 5 3 1 0 0 
8973979		 # 	collision with: 6 2 1 0 0  and 6 3 1 0 0 
8973980		 # 	collision with: 5 2 1 0 0  and 6 2 1 0 0 
8973982		 # 	collision with: 9 3 5 0 0  and 9 5 5 0 0 
8974004		 # 	collision with: 3 1 7 0 0  and 3 2 7 0 0 
8974009		 # 	collision with: 5 2 0 0 0  and 6 2 0 0 0 
8974011		 # 	collision with: 4 0 2 0 0  and 6 0 2 0 0 
8974028		 # 	collision with: 5 2 3 0 0  and 6 2 3 0 0 
8974030		 # 	collision with: 4 0 4 0 0  and 6 0 4 0 0 
8974040		 # 	collision with: 3 1 1 0 0  and 3 2 1 0 0 
8974042		 # 	collision with: 7 0 1 0 0  and 3 2 1 0 0 
8974053		 # 	collision with: 5 2 0 0 0  and 6 2 0 0 0 
8974061		 # 	collision with: 5 2 1 0 0  and 6 4 1 0 0 
8974063		 # 	collision with: 7 1 2 0 0  and 7 1 3 0 0 
8974098		 # 	collision with: 4 0 1 0 0  and 6 0 1 0 0 
8974100		 # 	collision with: 5 2 4 0 0  and 6 2 4 0 0 
8974118		 # 	collision with: 2 0 8 0 0  and 2 1 8 0 0 
8974120		 # 	collision with: 5 2 9 0 0  and 6 2 9 0 0 
8974122		 # 	collision with: 4 1 9 0 0  and 4 2 9 0 0 
8974157		 # 	collision with: 5 2 2 0 0  and 6 2 2 0 0 
8974159		 # 	collision with: 1 2 2 0 0  and 1 9 3 0 0 
8974165		 # 	collision with: 2 0 1 0 0  and 2 2 1 0 0 
8974167		 # 	collision with: 3 2 2 0 0  and 7 6 3 0 0 
8974176		 # 	collision with: 1 0 10 0 0  and 1 1 10 0 0 
8974178		 # 	collision with: 4 0 7 0 0  and 6 0 7 0 0 
8974188		 # 	collision with: 5 3 3 0 0  and 6 4 3 0 0 
8974190		 # 	collision with: 8 0 3 0 0  and 2 1 3 0 0 
8974197		 # 	collision with: 5 2 1 0 0  and 5 3 1 0 0 
8974199		 # 	collision with: 6 2 1 0 0  and 6 3 1 0 0 
8974209		 # 	collision with: 2 0 1 0 0  and 2 2 1 0 0 
8974211		 # 	collision with: 7 7 2 0 0  and 7 7 3 0 0 
8974212		 # 	collision with: 5 2 1 0 0  and 6 2 1 0 0 
8974214		 # 	collision with: 4 0 2 0 0  and 6 0 2 0 0 
8974236		 # 	collision with: 5 2 5 0 0  and 6 2 5 0 0 
8974238		 # 	collision with: 4 0 2 0 0  and 6 0 2 0 0 
8974245		 # 	collision with: 2 10 2 0 0  and 2 3 3 0 0 
8974247		 # 	collision with: 9 10 2 0 0  and 9 10 3 0 0 
8974252		 # 	collision with: 5 2 6 0 0  and 6 2 6 0 0 
8974254		 # 	collision with: 4 0 3 0 0  and 6 0 3 0 0 
8974280		 # 	collision with: 5 2 2 0 0  and 6 2 2 0 0 
8974282		 # 	collision with: 4 0 3 0 0  and 6 0 3 0 0 
8974304		 # 	collision with: 3 1 1 0 0  and 3 2 1 0 0 
8974306		 # 	collision with: 8 2 1 0 0  and 2 4 1 0 0 
8974312		 # 	collision with: 3 1 7 0 0  and 3 2 7 0 0 
8974314		 # 	collision with: 4 0 6 0 0  and 6 0 6 0 0 
8974328		 # 	collision with: 1 0 10 0 0  and 4 3 0 1 0 
8974330		 # 	collision with: 9 9 10 0 0  and 2 4 0 1 0 
8974388		 # 	collision with: 4 0 1 0 0  and 7 1 1 0 0 
8974390		 # 	collision with: 2 0 1 0 0  and 2 1 1 0 0 
8974396		 # 	collision with: 5 2 3 0 0  and 6 2 3 0 0 
8974398		 # 	collision with: 4 0 4 0 0  and 6 0 4 0 0 
8974420		 # 	collision with: 5 2 1 0 0  and 6 2 1 0 0 
8974422		 # 	collision with: 4 0 2 0 0  and 6 0 2 0 0 
8974448		 # 	collision with: 5 2 5 0 0  and 6 2 5 0 0 
8974450		 # 	collision with: 4 0 2 0 0  and 6 0 2 0 0 
8974457		 # 	collision with: 1 7 1 0 0  and 10 1 3 0 0 
8974459		 # 	collision with: 8 10 1 0 0  and 8 10 3 0 0 
8974461		 # 	collision with: 3 8 1 0 0  and 3 6 3 0 0 
8974463		 # 	collision with: 3 7 1 0 0  and 3 6 3 0 0 
8974464		 # 	collision with: 8 3 4 0 0  and 8 5 4 0 0 
8974466		 # 	collision with: 7 0 4 0 0  and 3 2 4 0 0 
8974488		 # 	collision with: 5 2 4 0 0  and 6 2 4 0 0 
8974490		 # 	collision with: 4 0 5 0 0  and 6 0 5 0 0 
8974495		 # 	collision with: 6 2 1 0 0  and 6 3 3 0 0 
8974514		 # 	collision with: 4 0 1 0 0  and 6 0 1 0 0 
8974524		 # 	collision with: 3 1 3 0 0  and 8 2 3 0 0 
8974537		 # 	collision with: 6 2 1 0 0  and 5 3 3 0 0 
8974539		 # 	collision with: 10 8 1 0 0  and 10 1 3 0 0 
8974545		 # 	collision with: 7 10 1 0 0  and 7 10 3 0 0 
8974547		 # 	collision with: 3 3 3 0 0  and 7 4 3 0 0 
8974580		 # 	collision with: 5 2 2 0 0  and 6 2 2 0 0 
8974582		 # 	collision with: 4 0 3 0 0  and 6 0 3 0 0 
8974584		 # 	collision with: 5 2 6 0 0  and 6 2 6 0 0 
8974586		 # 	collision with: 4 0 3 0 0  and 6 0 3 0 0 
8974600		 # 	collision with: 5 2 0 0 0  and 6 2 0 0 0 
8974602		 # 	collision with: 6 2 2 0 0  and 6 3 2 0 0 
8974604		 # 	collision with: 5 2 5 0 0  and 5 3 5 0 0 
8974606		 # 	collision with: 4 3 5 0 0  and 6 5 5 0 0 
8974641		 # 	collision with: 2 2 1 0 0  and 2 0 3 0 0 
8974643		 # 	collision with: 4 1 1 0 0  and 4 2 1 0 0 
8974649		 # 	collision with: 4 1 0 0 0  and 4 3 0 0 0 
8974651		 # 	collision with: 3 4 1 0 0  and 3 4 3 0 0 
8974662		 # 	collision with: 7 0 8 0 0  and 3 2 8 0 0 
8974672		 # 	collision with: 5 2 9 0 0  and 6 2 9 0 0 
8974674		 # 	collision with: 8 0 9 0 0  and 2 1 9 0 0 
8974683		 # 	collision with: 4 0 2 0 0  and 6 0 2 0 0 
8974693		 # 	collision with: 4 1 0 0 0  and 4 3 0 0 0 
8974695		 # 	collision with: 4 0 2 0 0  and 6 0 2 0 0 
8974696		 # 	collision with: 2 0 1 0 0  and 9 2 1 0 0 
8974698		 # 	collision with: 2 0 1 0 0  and 2 1 1 0 0 
8974720		 # 	collision with: 5 2 7 0 0  and 5 3 7 0 0 
8974722		 # 	collision with: 4 0 6 0 0  and 6 0 6 0 0 
8974729		 # 	collision with: 1 1 1 0 0  and 1 0 3 0 0 
8974731		 # 	collision with: 4 1 1 0 0  and 4 2 1 0 0 
8974736		 # 	collision with: 5 2 1 0 0  and 6 2 1 0 0 
8974738		 # 	collision with: 1 5 5 0 0  and 1 6 5 0 0 
8974764		 # 	collision with: 5 2 7 0 0  and 5 3 7 0 0 
8974788		 # 	collision with: 8 3 3 0 0  and 8 5 3 0 0 
8974790		 # 	collision with: 2 0 3 0 0  and 2 1 3 0 0 
8974796		 # 	collision with: 5 2 10 0 0  and 6 2 10 0 0 
8974798		 # 	collision with: 4 0 7 0 0  and 6 0 7 0 0 
8974812		 # 	collision with: 3 1 6 0 0  and 10 10 0 1 0 
8974814		 # 	collision with: 4 2 6 0 0  and 7 4 0 1 0 
8974872		 # 	collision with: 5 2 6 0 0  and 6 2 6 0 0 
8974874		 # 	collision with: 4 0 3 0 0  and 6 0 3 0 0 
8974880		 # 	collision with: 5 2 2 0 0  and 6 2 2 0 0 
8974882		 # 	collision with: 4 0 3 0 0  and 6 0 3 0 0 
8974904		 # 	collision with: 3 1 3 0 0  and 8 2 3 0 0 
8974906		 # 	collision with: 7 0 3 0 0  and 3 2 3 0 0 
8974932		 # 	collision with: 3 1 10 0 0  and 3 2 10 0 0 
8974934		 # 	collision with: 4 0 7 0 0  and 6 0 7 0 0 
8974941		 # 	collision with: 10 1 1 0 0  and 1 5 2 0 0 
8974943		 # 	collision with: 4 0 2 0 0  and 6 0 2 0 0 
8974945		 # 	collision with: 5 2 1 0 0  and 6 2 1 0 0 
8974947		 # 	collision with: 6 4 1 0 0  and 4 8 2 0 0 
8974948		 # 	collision with: 2 0 3 0 0  and 9 2 3 0 0 
8974974		 # 	collision with: 4 0 1 0 0  and 6 0 1 0 0 
8974977		 # 	collision with: 7 4 2 0 0  and 4 5 2 0 0 
8974979		 # 	collision with: 2 4 2 0 0  and 8 5 2 0 0 
8974996		 # 	collision with: 2 0 7 0 0  and 9 2 7 0 0 
8975008		 # 	collision with: 5 2 1 0 0  and 6 2 1 0 0 
8975010		 # 	collision with: 7 2 5 0 0  and 7 4 5 0 0 
8975021		 # 	collision with: 10 10 1 0 0  and 10 10 2 0 0 
8975023		 # 	collision with: 4 0 1 0 0  and 6 0 1 0 0 
8975029		 # 	collision with: 4 8 1 0 0  and 4 8 2 0 0 
8975031		 # 	collision with: 4 0 1 0 0  and 6 0 1 0 0 
8975064		 # 	collision with: 5 2 4 0 0  and 6 2 4 0 0 
8975066		 # 	collision with: 4 0 5 0 0  and 6 0 5 0 0 
8975068		 # 	collision with: 5 3 4 0 0  and 6 4 4 0 0 
8975070		 # 	collision with: 8 2 4 0 0  and 2 4 4 0 0 
8975084		 # 	collision with: 4 1 7 0 0  and 4 3 7 0 0 
8975086		 # 	collision with: 4 0 6 0 0  and 6 0 6 0 0 
8975088		 # 	collision with: 4 0 1 0 0  and 7 1 1 0 0 
8975090		 # 	collision with: 9 3 1 0 0  and 9 5 1 0 0 
8975125		 # 	collision with: 3 1 0 0 0  and 3 2 0 0 0 
8975127		 # 	collision with: 9 1 0 0 0  and 1 2 0 0 0 
8975133		 # 	collision with: 6 1 1 0 0  and 6 1 2 0 0 
8975135		 # 	collision with: 9 1 1 0 0  and 9 1 2 0 0 
8975144		 # 	collision with: 5 2 5 0 0  and 6 2 5 0 0 
8975146		 # 	collision with: 4 0 2 0 0  and 6 0 2 0 0 
8975156		 # 	collision with: 5 2 1 0 0  and 6 2 1 0 0 
8975158		 # 	collision with: 4 0 2 0 0  and 6 0 2 0 0 
8975165		 # 	collision with: 9 7 1 0 0  and 9 2 2 0 0 
8975167		 # 	collision with: 9 1 4 0 0  and 1 2 4 0 0 
8975177		 # 	collision with: 5 2 1 0 0  and 6 2 1 0 0 
8975179		 # 	collision with: 1 1 1 0 0  and 1 1 2 0 0 
8975180		 # 	collision with: 3 1 9 0 0  and 3 2 9 0 0 
8975182		 # 	collision with: 7 2 9 0 0  and 7 4 9 0 0 
8975206		 # 	collision with: 8 3 8 0 0  and 8 4 8 0 0 
8975213		 # 	collision with: 3 1 0 0 0  and 3 2 0 0 0 
8975215		 # 	collision with: 9 1 0 0 0  and 1 2 0 0 0 
8975220		 # 	collision with: 2 0 1 0 0  and 2 2 1 0 0 
8975222		 # 	collision with: 9 3 1 0 0  and 9 5 1 0 0 
8975248		 # 	collision with: 5 2 3 0 0  and 6 2 3 0 0 
8975250		 # 	collision with: 4 0 4 0 0  and 6 0 4 0 0 
8975272		 # 	collision with: 2 0 5 0 0  and 2 2 5 0 0 
8975274		 # 	collision with: 7 2 5 0 0  and 7 4 5 0 0 
8975280		 # 	collision with: 5 2 0 0 0  and 6 2 0 0 0 
8975282		 # 	collision with: 10 4 2 0 0  and 10 5 2 0 0 
8975296		 # 	collision with: 1 9 9 0 0  and 5 2 0 1 0 
8975298		 # 	collision with: 0 5 10 0 0  and 1 2 1 1 0 
8975356		 # 	collision with: 5 2 5 0 0  and 6 2 5 0 0 
8975358		 # 	collision with: 4 0 2 0 0  and 6 0 2 0 0 
8975364		 # 	collision with: 5 2 1 0 0  and 6 2 1 0 0 
8975366		 # 	collision with: 4 0 2 0 0  and 6 0 2 0 0 
8975390		 # 	collision with: 4 0 1 0 0  and 6 0 1 0 0 
8975416		 # 	collision with: 10 4 3 0 0  and 10 6 3 0 0 
8975425		 # 	collision with: 5 2 2 0 0  and 6 2 2 0 0 
8975427		 # 	collision with: 9 1 1 0 0  and 1 2 1 0 0 
8975429		 # 	collision with: 8 2 0 0 0  and 3 1 2 0 0 
8975431		 # 	collision with: 4 0 1 0 0  and 6 0 1 0 0 
8975432		 # 	collision with: 5 2 0 0 0  and 6 2 0 0 0 
8975434		 # 	collision with: 9 1 2 0 0  and 1 2 2 0 0 
8975456		 # 	collision with: 4 1 5 0 0  and 4 3 5 0 0 
8975458		 # 	collision with: 3 0 5 0 0  and 3 2 5 0 0 
8975461		 # 	collision with: 2 0 0 0 0  and 2 2 0 0 0 
8975463		 # 	collision with: 4 0 1 0 0  and 6 0 1 0 0 
8975480		 # 	collision with: 8 3 1 0 0  and 8 5 1 0 0 
8975482		 # 	collision with: 3 0 1 0 0  and 3 2 1 0 0 
8975492		 # 	collision with: 4 0 7 0 0  and 7 1 7 0 0 
8975494		 # 	collision with: 4 0 6 0 0  and 6 0 6 0 0 
8975505		 # 	collision with: 2 0 0 0 0  and 2 2 0 0 0 
8975507		 # 	collision with: 7 2 1 0 0  and 3 3 1 0 0 
8975513		 # 	collision with: 5 2 1 0 0  and 6 2 1 0 0 
8975548		 # 	collision with: 10 4 3 0 0  and 10 6 3 0 0 
8975550		 # 	collision with: 8 3 3 0 0  and 8 4 3 0 0 
8975552		 # 	collision with: 5 2 10 0 0  and 6 2 10 0 0 
8975554		 # 	collision with: 4 0 7 0 0  and 6 0 7 0 0 
8975568		 # 	collision with: 8 3 1 0 0  and 8 5 1 0 0 
8975570		 # 	collision with: 3 0 1 0 0  and 3 2 1 0 0 
8975572		 # 	collision with: 5 2 3 0 0  and 6 2 3 0 0 
8975574		 # 	collision with: 4 0 4 0 0  and 6 0 4 0 0 
8975609		 # 	collision with: 5 2 0 0 0  and 6 2 0 0 0 
8975611		 # 	collision with: 4 0 2 0 0  and 6 0 2 0 0 
8975617		 # 	collision with: 5 2 1 0 0  and 6 2 1 0 0 
8975619		 # 	collision with: 4 0 2 0 0  and 6 0 2 0 0 
8975628		 # 	collision with: 3 1 4 0 0  and 3 2 4 0 0 
8975630		 # 	collision with: 6 2 4 0 0  and 6 3 4 0 0 
8975640		 # 	collision with: 5 2 4 0 0  and 6 2 4 0 0 
8975642		 # 	collision with: 4 0 5 0 0  and 6 0 5 0 0 
8975649		 # 	collision with: 6 10 0 0 0  and 6 7 2 0 0 
8975651		 # 	collision with: 7 0 2 0 0  and 3 2 2 0 0 
8975661		 # 	collision with: 9 7 0 0 0  and 2 2 2 0 0 
8975664		 # 	collision with: 5 2 2 0 0  and 6 2 2 0 0 
8975666		 # 	collision with: 4 0 3 0 0  and 6 0 3 0 0 
8975688		 # 	collision with: 5 2 6 0 0  and 6 2 6 0 0 
8975690		 # 	collision with: 4 0 3 0 0  and 6 0 3 0 0 
8975697		 # 	collision with: 5 2 0 0 0  and 6 2 0 0 0 
8975699		 # 	collision with: 10 5 0 0 0  and 10 5 2 0 0 
8975706		 # 	collision with: 8 0 8 0 0  and 2 1 8 0 0 
8975732		 # 	collision with: 5 2 9 0 0  and 6 2 9 0 0 
8975734		 # 	collision with: 7 2 9 0 0  and 3 3 9 0 0 
8975756		 # 	collision with: 7 3 7 0 0  and 7 4 7 0 0 
8975764		 # 	collision with: 5 2 1 0 0  and 6 2 1 0 0 
8975766		 # 	collision with: 8 0 5 0 0  and 2 1 5 0 0 
8975780		 # 	collision with: 0 2 7 0 0  and 1 1 0 1 0 
8975782		 # 	collision with: 3 7 8 0 0  and 9 0 1 1 0 
8975840		 # 	collision with: 2 0 3 0 0  and 2 2 3 0 0 
8975850		 # 	collision with: 4 0 1 0 0  and 6 0 1 0 0 
8975872		 # 	collision with: 7 3 1 0 0  and 7 4 1 0 0 
8975874		 # 	collision with: 4 1 1 0 0  and 4 2 1 0 0 
8975900		 # 	collision with: 6 2 7 0 0  and 6 4 7 0 0 
8975902		 # 	collision with: 4 0 6 0 0  and 6 0 6 0 0 
8975909		 # 	collision with: 7 4 0 0 0  and 7 4 1 0 0 
8975911		 # 	collision with: 4 0 1 0 0  and 6 0 1 0 0 
8975913		 # 	collision with: 9 2 0 0 0  and 9 7 1 0 0 
8975915		 # 	collision with: 1 9 0 0 0  and 1 2 1 0 0 
8975916		 # 	collision with: 7 3 1 0 0  and 7 4 1 0 0 
8975918		 # 	collision with: 4 1 1 0 0  and 4 2 1 0 0 
8975940		 # 	collision with: 5 2 3 0 0  and 6 2 3 0 0 
8975942		 # 	collision with: 4 0 4 0 0  and 6 0 4 0 0 
8975945		 # 	collision with: 5 5 0 0 0  and 5 5 1 0 0 
8975947		 # 	collision with: 7 0 0 0 0  and 3 2 1 0 0 
8975964		 # 	collision with: 5 2 2 0 0  and 6 2 2 0 0 
8975966		 # 	collision with: 4 0 3 0 0  and 6 0 3 0 0 
8975976		 # 	collision with: 5 2 6 0 0  and 6 2 6 0 0 
8975978		 # 	collision with: 4 0 3 0 0  and 6 0 3 0 0 
8975989		 # 	collision with: 1 5 0 0 0  and 1 5 1 0 0 
8975991		 # 	collision with: 9 5 0 0 0  and 9 5 1 0 0 
8975999		 # 	collision with: 6 4 0 0 0  and 6 4 1 0 0 
80.3583secs	29406
