# prime 11
# degree 2
# input variables 3
# output variables 3
# reload computed balance functions from file balance-3209of3248-p11d2m3-debug.log
# p = 11
# n = 3
# smalldomain p^m 1331
# domain p^n 1331
#	 p^2 = 121
#	 p^3 = 1331
#	 p^4 = 14641
#	 p^5 = 161051
#	 p^6 = 1771561
#	 p^7 = 19487171
#	 p^8 = 214358881
#	 p^9 = 2357947691
opening file : balance-3209of3248-p11d2m3-debug.log
reloading for step2...
70598019		 # 	collision with: 4 3 0  and 6 5 0 
70598033		 # 	collision with: 1 3 0  and 3 0 1 
70598035		 # 	collision with: 6 6 0  and 1 0 1 
70598045		 # 	collision with: 10 2 0  and 4 4 0 
70598047		 # 	collision with: 7 2 0  and 1 0 1 
70598081		 # 	collision with: 7 0 0  and 6 2 0 
70598083		 # 	collision with: 4 1 0  and 6 1 0 
70598176		 # 	collision with: 5 0 0  and 4 1 0 
70598178		 # 	collision with: 8 0 0  and 7 1 0 
70598193		 # 	collision with: 2 3 0  and 4 5 0 
70598195		 # 	collision with: 10 0 0  and 3 2 0 
70598205		 # 	collision with: 8 10 0  and 2 2 1 
70598207		 # 	collision with: 1 3 0  and 7 5 0 
70598309		 # 	collision with: 3 4 0  and 3 5 0 
70598319		 # 	collision with: 0 0 0  and 4 1 0 
70598365		 # 	collision with: 5 2 0  and 1 4 0 
70598367		 # 	collision with: 6 6 0  and 6 1 1 
70598381		 # 	collision with: 4 4 0  and 5 6 0 
70598383		 # 	collision with: 9 5 0  and 6 6 0 
70598433		 # 	collision with: 3 9 0  and 7 0 1 
70598435		 # 	collision with: 5 2 0  and 6 2 0 
70598449		 # 	collision with: 1 1 0  and 10 2 0 
70598501		 # 	collision with: 9 4 0  and 8 0 1 
70598503		 # 	collision with: 5 5 0  and 9 6 0 
70598517		 # 	collision with: 2 4 0  and 3 6 0 
70598519		 # 	collision with: 1 4 0  and 9 0 1 
70598531		 # 	collision with: 10 1 0  and 1 2 0 
70598565		 # 	collision with: 7 6 0  and 8 7 0 
70598567		 # 	collision with: 1 3 0  and 4 0 1 
70598660		 # 	collision with: 8 4 0  and 6 6 0 
70598662		 # 	collision with: 2 2 0  and 6 3 0 
70598679		 # 	collision with: 2 5 0  and 0 6 0 
70598689		 # 	collision with: 1 2 1  and 2 2 1 
70598691		 # 	collision with: 7 1 0  and 9 3 0 
70598793		 # 	collision with: 4 1 0  and 1 0 1 
70598795		 # 	collision with: 4 0 0  and 10 2 0 
70598801		 # 	collision with: 10 4 0  and 3 5 0 
70598803		 # 	collision with: 4 1 0  and 0 3 1 
70598849		 # 	collision with: 10 3 0  and 4 5 0 
70598851		 # 	collision with: 10 1 0  and 1 2 0 
70598865		 # 	collision with: 1 9 0  and 5 1 1 
70598867		 # 	collision with: 1 1 0  and 5 2 0 
70598917		 # 	collision with: 3 4 0  and 8 0 1 
70598919		 # 	collision with: 2 10 0  and 4 1 1 
70598933		 # 	collision with: 3 10 0  and 5 10 0 
70598935		 # 	collision with: 6 2 0  and 10 4 0 
70598985		 # 	collision with: 9 3 0  and 2 4 0 
70599001		 # 	collision with: 10 1 0  and 0 3 1 
70599003		 # 	collision with: 7 0 0  and 8 1 0 
70599013		 # 	collision with: 0 0 0  and 1 1 1 
70599015		 # 	collision with: 8 2 0  and 2 3 0 
70599049		 # 	collision with: 0 3 0  and 1 3 0 
70599051		 # 	collision with: 2 0 0  and 2 1 0 
70599144		 # 	collision with: 10 0 0  and 2 1 0 
70599146		 # 	collision with: 8 3 0  and 6 5 0 
70599161		 # 	collision with: 6 0 0  and 10 1 0 
70599163		 # 	collision with: 2 8 0  and 4 8 0 
70599175		 # 	collision with: 6 5 0  and 4 0 1 
70599277		 # 	collision with: 9 2 0  and 0 4 0 
70599279		 # 	collision with: 4 3 0  and 6 5 0 
70599285		 # 	collision with: 2 4 0  and 1 2 1 
70599287		 # 	collision with: 1 6 0  and 3 6 0 
70599333		 # 	collision with: 2 0 0  and 6 2 0 
70599335		 # 	collision with: 4 0 0  and 10 2 0 
70599349		 # 	collision with: 10 4 0  and 0 5 0 
70599401		 # 	collision with: 9 2 0  and 3 3 0 
70599403		 # 	collision with: 8 2 0  and 10 3 0 
70599417		 # 	collision with: 7 3 0  and 0 5 0 
70599419		 # 	collision with: 4 0 0  and 1 2 0 
70599469		 # 	collision with: 2 8 0  and 4 8 0 
70599471		 # 	collision with: 7 1 0  and 1 0 1 
70599485		 # 	collision with: 9 7 0  and 10 0 1 
70599487		 # 	collision with: 4 3 0  and 8 5 0 
70599497		 # 	collision with: 10 0 0  and 8 1 0 
70599499		 # 	collision with: 0 0 0  and 4 1 0 
70599533		 # 	collision with: 8 2 0  and 1 3 0 
70599535		 # 	collision with: 6 9 0  and 10 0 1 
70599628		 # 	collision with: 2 2 0  and 0 4 0 
70599630		 # 	collision with: 7 0 0  and 8 1 0 
70599645		 # 	collision with: 10 3 0  and 4 5 0 
70599647		 # 	collision with: 1 3 0  and 3 0 1 
70599657		 # 	collision with: 6 4 0  and 8 6 0 
70599659		 # 	collision with: 3 0 0  and 1 1 0 
70599763		 # 	collision with: 0 3 0  and 7 5 0 
70599769		 # 	collision with: 7 4 0  and 5 5 0 
70599771		 # 	collision with: 6 5 0  and 3 0 1 
70599817		 # 	collision with: 9 4 0  and 0 0 1 
70599819		 # 	collision with: 5 10 0  and 0 2 1 
70599833		 # 	collision with: 10 0 0  and 7 2 0 
70599835		 # 	collision with: 2 1 0  and 2 0 1 
70599885		 # 	collision with: 1 2 0  and 4 4 0 
70599901		 # 	collision with: 4 2 0  and 8 0 1 
70599903		 # 	collision with: 0 4 0  and 5 5 0 
70599953		 # 	collision with: 7 4 0  and 7 6 0 
70599955		 # 	collision with: 3 10 0  and 5 10 0 
70599969		 # 	collision with: 10 0 0  and 4 2 0 
70599971		 # 	collision with: 1 0 1  and 7 1 1 
70599981		 # 	collision with: 2 4 0  and 8 0 1 
70600019		 # 	collision with: 5 0 0  and 10 2 0 
70600112		 # 	collision with: 10 1 0  and 8 3 0 
70600114		 # 	collision with: 2 1 0  and 0 3 0 
70600129		 # 	collision with: 2 0 0  and 2 2 1 
70600131		 # 	collision with: 3 2 0  and 2 3 0 
70600141		 # 	collision with: 5 2 0  and 6 2 0 
70600245		 # 	collision with: 7 4 0  and 8 6 0 
70600247		 # 	collision with: 3 2 0  and 2 3 0 
70600253		 # 	collision with: 8 5 0  and 2 6 0 
70600255		 # 	collision with: 3 2 0  and 2 3 0 
70600301		 # 	collision with: 6 4 0  and 9 5 0 
70600303		 # 	collision with: 3 2 0  and 2 3 0 
70600319		 # 	collision with: 3 2 0  and 2 3 0 
70600369		 # 	collision with: 9 2 0  and 2 4 0 
70600371		 # 	collision with: 6 0 0  and 9 1 0 
70600385		 # 	collision with: 8 5 0  and 8 0 1 
70600387		 # 	collision with: 3 2 0  and 2 3 0 
70600437		 # 	collision with: 3 2 0  and 0 3 0 
70600439		 # 	collision with: 3 2 0  and 2 3 0 
70600465		 # 	collision with: 6 7 0  and 9 0 1 
70600467		 # 	collision with: 3 2 0  and 2 3 0 
70600501		 # 	collision with: 8 7 0  and 4 0 1 
70600503		 # 	collision with: 7 0 0  and 8 1 0 
70600596		 # 	collision with: 7 0 0  and 5 2 0 
70600598		 # 	collision with: 10 0 0  and 8 2 0 
70600613		 # 	collision with: 5 3 0  and 3 5 0 
70600615		 # 	collision with: 5 0 0  and 0 1 0 
70600625		 # 	collision with: 1 2 0  and 4 4 0 
70600627		 # 	collision with: 5 0 0  and 0 1 0 
70600729		 # 	collision with: 5 3 0  and 3 5 0 
70600731		 # 	collision with: 5 0 0  and 0 1 0 
70600737		 # 	collision with: 5 3 0  and 3 5 0 
70600739		 # 	collision with: 5 0 0  and 0 1 0 
70600785		 # 	collision with: 5 3 0  and 3 5 0 
70600787		 # 	collision with: 5 0 0  and 0 1 0 
70600801		 # 	collision with: 5 3 0  and 3 5 0 
70600803		 # 	collision with: 5 0 0  and 0 1 0 
70600853		 # 	collision with: 5 3 0  and 3 5 0 
70600855		 # 	collision with: 5 0 0  and 0 1 0 
70600869		 # 	collision with: 5 3 0  and 3 5 0 
70600871		 # 	collision with: 5 0 0  and 0 1 0 
70600921		 # 	collision with: 7 0 0  and 6 2 0 
70600923		 # 	collision with: 5 0 0  and 0 1 0 
70600937		 # 	collision with: 5 3 0  and 3 5 0 
70600939		 # 	collision with: 5 0 0  and 0 1 0 
70600949		 # 	collision with: 5 3 0  and 10 4 0 
70600951		 # 	collision with: 5 0 0  and 0 1 0 
70600985		 # 	collision with: 5 3 0  and 3 5 0 
70600987		 # 	collision with: 5 0 0  and 0 1 0 
70601080		 # 	collision with: 9 5 0  and 8 6 0 
70601082		 # 	collision with: 1 5 0  and 0 6 0 
70601097		 # 	collision with: 0 4 0  and 3 6 0 
70601099		 # 	collision with: 7 3 0  and 4 5 0 
70601109		 # 	collision with: 2 1 0  and 4 2 0 
70601111		 # 	collision with: 1 6 0  and 6 0 1 
70601213		 # 	collision with: 4 0 0  and 6 1 0 
70601215		 # 	collision with: 1 4 0  and 1 5 0 
70601221		 # 	collision with: 2 2 0  and 2 4 0 
70601223		 # 	collision with: 3 3 0  and 6 4 0 
70601269		 # 	collision with: 2 0 0  and 5 2 0 
70601271		 # 	collision with: 7 0 1  and 2 1 1 
70601285		 # 	collision with: 5 9 0  and 3 0 1 
70601287		 # 	collision with: 8 3 0  and 4 4 0 
70601337		 # 	collision with: 5 3 0  and 0 5 0 
70601339		 # 	collision with: 7 2 0  and 5 3 0 
70601353		 # 	collision with: 7 8 0  and 1 0 1 
70601355		 # 	collision with: 8 3 0  and 8 5 0 
70601405		 # 	collision with: 9 4 0  and 5 6 0 
70601407		 # 	collision with: 7 2 0  and 1 0 1 
70601421		 # 	collision with: 1 2 0  and 7 0 1 
70601423		 # 	collision with: 9 2 0  and 5 4 0 
70601433		 # 	collision with: 0 3 0  and 1 3 0 
70601435		 # 	collision with: 1 5 0  and 0 0 1 
70601469		 # 	collision with: 1 1 0  and 10 2 0 
70601471		 # 	collision with: 2 2 0  and 5 4 0 
70601577		 # 	collision with: 2 3 0  and 1 5 0 
70601579		 # 	collision with: 6 2 0  and 1 4 0 
70601597		 # 	collision with: 3 4 0  and 1 0 1 
70601599		 # 	collision with: 4 0 0  and 8 2 0 
70601709		 # 	collision with: 6 1 0  and 6 1 1 
70601711		 # 	collision with: 5 0 0  and 7 2 0 
70601737		 # 	collision with: 10 1 0  and 3 3 0 
70601739		 # 	collision with: 9 6 0  and 5 0 1 
70601745		 # 	collision with: 10 8 0  and 10 0 1 
70601747		 # 	collision with: 1 10 0  and 10 0 1 
70601777		 # 	collision with: 2 8 0  and 3 8 0 
70601779		 # 	collision with: 3 3 0  and 3 0 1 
70601823		 # 	collision with: 1 3 0  and 4 0 1 
70601839		 # 	collision with: 6 5 0  and 3 1 1 
70601881		 # 	collision with: 8 0 0  and 6 1 0 
70601883		 # 	collision with: 4 2 0  and 7 3 0 
70601913		 # 	collision with: 3 3 0  and 2 5 0 
70601915		 # 	collision with: 0 1 0  and 2 3 0 
70601921		 # 	collision with: 7 4 0  and 7 6 0 
70601923		 # 	collision with: 0 0 0  and 2 1 0 
70601949		 # 	collision with: 0 2 0  and 6 3 0 
70601951		 # 	collision with: 6 5 0  and 4 0 1 
70602048		 # 	collision with: 5 3 0  and 8 4 0 
70602050		 # 	collision with: 0 0 0  and 1 1 1 
70602061		 # 	collision with: 4 3 0  and 3 4 0 
70602063		 # 	collision with: 3 0 0  and 9 2 0 
70602081		 # 	collision with: 9 0 0  and 4 1 0 
70602083		 # 	collision with: 5 4 0  and 5 6 0 
70602193		 # 	collision with: 6 1 0  and 8 2 0 
70602221		 # 	collision with: 9 2 0  and 1 3 0 
70602223		 # 	collision with: 0 0 0  and 1 2 0 
70602229		 # 	collision with: 4 3 0  and 3 4 0 
70602261		 # 	collision with: 4 3 0  and 3 4 0 
70602263		 # 	collision with: 7 3 0  and 0 0 1 
70602305		 # 	collision with: 4 3 0  and 3 4 0 
70602307		 # 	collision with: 2 5 0  and 8 6 0 
70602321		 # 	collision with: 4 3 0  and 3 4 0 
70602323		 # 	collision with: 10 7 0  and 7 0 1 
70602365		 # 	collision with: 4 3 0  and 3 4 0 
70602367		 # 	collision with: 0 3 0  and 3 4 0 
70602397		 # 	collision with: 5 0 0  and 6 1 0 
70602399		 # 	collision with: 7 2 0  and 7 3 0 
70602405		 # 	collision with: 4 3 0  and 3 4 0 
70602407		 # 	collision with: 2 5 0  and 9 0 1 
70602433		 # 	collision with: 4 3 0  and 3 4 0 
70602435		 # 	collision with: 2 1 1  and 1 2 1 
70602532		 # 	collision with: 6 0 0  and 9 1 0 
70602534		 # 	collision with: 2 4 0  and 9 6 0 
70602545		 # 	collision with: 2 4 0  and 7 6 0 
70602547		 # 	collision with: 7 4 0  and 10 5 0 
70602565		 # 	collision with: 3 4 0  and 3 5 0 
70602567		 # 	collision with: 7 4 0  and 10 5 0 
70602679		 # 	collision with: 10 0 0  and 9 2 0 
70602705		 # 	collision with: 8 0 0  and 6 1 0 
70602707		 # 	collision with: 7 4 0  and 10 5 0 
70602713		 # 	collision with: 0 1 0  and 1 2 0 
70602715		 # 	collision with: 9 2 0  and 0 3 0 
70602745		 # 	collision with: 2 2 0  and 7 4 0 
70602747		 # 	collision with: 7 4 0  and 10 5 0 
70602789		 # 	collision with: 3 2 0  and 9 1 1 
70602791		 # 	collision with: 7 4 0  and 10 5 0 
70602805		 # 	collision with: 3 4 0  and 9 6 0 
70602807		 # 	collision with: 8 0 0  and 7 2 0 
70602849		 # 	collision with: 2 1 0  and 6 2 0 
70602851		 # 	collision with: 7 4 0  and 10 5 0 
70602881		 # 	collision with: 2 2 0  and 2 4 0 
70602883		 # 	collision with: 0 0 0  and 2 1 0 
70602891		 # 	collision with: 7 4 0  and 10 5 0 
70602917		 # 	collision with: 8 4 0  and 4 5 0 
70602919		 # 	collision with: 7 4 0  and 10 5 0 
70603016		 # 	collision with: 0 2 0  and 6 4 0 
70603018		 # 	collision with: 2 1 0  and 5 3 0 
70603031		 # 	collision with: 2 1 0  and 1 2 0 
70603049		 # 	collision with: 6 4 0  and 3 5 0 
70603051		 # 	collision with: 2 1 0  and 1 2 0 
70603161		 # 	collision with: 4 3 0  and 6 3 0 
70603163		 # 	collision with: 2 1 0  and 1 2 0 
70603189		 # 	collision with: 5 3 0  and 4 5 0 
70603197		 # 	collision with: 10 4 0  and 0 1 1 
70603199		 # 	collision with: 2 1 0  and 1 2 0 
70603229		 # 	collision with: 9 2 0  and 9 3 0 
70603231		 # 	collision with: 2 1 0  and 1 2 0 
70603273		 # 	collision with: 2 4 0  and 3 0 1 
70603275		 # 	collision with: 2 1 0  and 1 2 0 
70603289		 # 	collision with: 3 6 0  and 4 6 0 
70603291		 # 	collision with: 2 1 0  and 1 2 0 
70603333		 # 	collision with: 0 0 0  and 1 1 1 
70603365		 # 	collision with: 6 3 0  and 3 4 0 
70603367		 # 	collision with: 2 1 0  and 1 2 0 
70603373		 # 	collision with: 6 5 0  and 0 1 1 
70603375		 # 	collision with: 2 1 0  and 1 2 0 
70603401		 # 	collision with: 1 3 0  and 0 5 0 
70603403		 # 	collision with: 2 1 0  and 1 2 0 
70603500		 # 	collision with: 6 2 0  and 7 3 0 
70603502		 # 	collision with: 9 2 0  and 10 3 0 
70603513		 # 	collision with: 5 0 0  and 8 2 0 
70603533		 # 	collision with: 6 5 0  and 4 6 0 
70603535		 # 	collision with: 2 2 0  and 3 4 0 
70603645		 # 	collision with: 6 5 0  and 4 0 1 
70603647		 # 	collision with: 2 0 0  and 2 1 0 
70603673		 # 	collision with: 4 3 0  and 6 3 0 
70603675		 # 	collision with: 5 0 0  and 3 1 0 
70603681		 # 	collision with: 0 2 0  and 6 4 0 
70603683		 # 	collision with: 5 2 0  and 8 4 0 
70603715		 # 	collision with: 5 2 0  and 8 4 0 
70603757		 # 	collision with: 1 8 0  and 8 0 1 
70603759		 # 	collision with: 5 2 0  and 6 2 0 
70603773		 # 	collision with: 10 1 0  and 10 0 1 
70603817		 # 	collision with: 8 1 0  and 0 3 0 
70603819		 # 	collision with: 3 0 0  and 9 2 0 
70603851		 # 	collision with: 5 2 0  and 8 4 0 
70603857		 # 	collision with: 6 2 0  and 7 3 0 
70603859		 # 	collision with: 2 0 0  and 10 1 0 
70603885		 # 	collision with: 4 4 0  and 1 6 0 
70603887		 # 	collision with: 5 2 0  and 8 4 0 
70603984		 # 	collision with: 9 2 0  and 1 3 0 
70603986		 # 	collision with: 3 1 0  and 7 3 0 
70603997		 # 	collision with: 5 2 0  and 6 2 0 
70603999		 # 	collision with: 2 3 0  and 8 5 0 
70604017		 # 	collision with: 5 3 0  and 8 4 0 
70604019		 # 	collision with: 2 1 0  and 10 2 0 
70604129		 # 	collision with: 6 2 0  and 3 3 0 
70604131		 # 	collision with: 0 0 0  and 1 1 1 
70604157		 # 	collision with: 7 2 0  and 3 2 1 
70604159		 # 	collision with: 5 0 0  and 4 2 0 
70604165		 # 	collision with: 6 5 0  and 3 6 0 
70604167		 # 	collision with: 2 2 0  and 0 3 0 
70604197		 # 	collision with: 5 0 0  and 8 2 0 
70604199		 # 	collision with: 1 1 0  and 2 3 0 
70604241		 # 	collision with: 9 2 0  and 9 3 0 
70604243		 # 	collision with: 8 3 0  and 10 4 0 
70604257		 # 	collision with: 9 5 0  and 3 2 1 
70604259		 # 	collision with: 1 2 0  and 5 3 0 
70604301		 # 	collision with: 5 1 0  and 5 3 0 
70604303		 # 	collision with: 10 1 0  and 5 3 0 
70604333		 # 	collision with: 1 9 0  and 3 9 0 
70604335		 # 	collision with: 2 3 0  and 10 4 0 
70604341		 # 	collision with: 1 6 0  and 6 0 1 
70604343		 # 	collision with: 2 2 0  and 3 4 0 
70604369		 # 	collision with: 0 8 0  and 3 0 1 
70604371		 # 	collision with: 3 0 0  and 2 2 0 
70604468		 # 	collision with: 4 1 0  and 0 3 0 
70604470		 # 	collision with: 2 1 0  and 1 2 0 
70604481		 # 	collision with: 9 3 0  and 7 4 0 
70604483		 # 	collision with: 10 1 0  and 5 3 0 
70604501		 # 	collision with: 5 2 0  and 6 2 0 
70604503		 # 	collision with: 2 0 0  and 4 1 1 
70604613		 # 	collision with: 10 3 0  and 10 5 0 
70604615		 # 	collision with: 5 10 0  and 5 0 1 
70604641		 # 	collision with: 8 10 0  and 4 0 1 
70604643		 # 	collision with: 2 1 0  and 10 2 0 
70604649		 # 	collision with: 10 1 0  and 3 3 0 
70604651		 # 	collision with: 9 2 0  and 10 3 0 
70604681		 # 	collision with: 5 8 0  and 8 0 1 
70604683		 # 	collision with: 1 1 0  and 1 0 1 
70604725		 # 	collision with: 8 5 0  and 0 6 0 
70604727		 # 	collision with: 4 3 0  and 4 4 0 
70604741		 # 	collision with: 8 7 0  and 5 1 1 
70604743		 # 	collision with: 2 3 0  and 10 4 0 
70604785		 # 	collision with: 6 2 0  and 3 3 0 
70604787		 # 	collision with: 6 2 0  and 1 4 0 
70604817		 # 	collision with: 7 4 0  and 0 6 0 
70604819		 # 	collision with: 4 4 0  and 5 4 0 
70604825		 # 	collision with: 6 0 0  and 9 1 0 
70604827		 # 	collision with: 10 3 0  and 3 4 0 
70604853		 # 	collision with: 1 3 0  and 8 5 0 
70604855		 # 	collision with: 2 4 0  and 9 6 0 
70604952		 # 	collision with: 4 1 0  and 10 3 0 
70604954		 # 	collision with: 1 6 0  and 6 0 1 
70604965		 # 	collision with: 7 5 0  and 7 2 1 
70604967		 # 	collision with: 2 0 0  and 10 1 0 
70604985		 # 	collision with: 4 2 0  and 4 0 1 
70605097		 # 	collision with: 2 4 0  and 0 5 0 
70605099		 # 	collision with: 2 9 0  and 0 1 1 
70605125		 # 	collision with: 0 2 0  and 3 4 0 
70605127		 # 	collision with: 7 2 0  and 7 3 0 
70605135		 # 	collision with: 0 3 0  and 6 4 0 
70605165		 # 	collision with: 0 10 0  and 3 0 1 
70605167		 # 	collision with: 8 0 0  and 9 1 0 
70605209		 # 	collision with: 7 0 0  and 9 1 0 
70605225		 # 	collision with: 4 5 0  and 0 0 1 
70605227		 # 	collision with: 1 4 0  and 1 5 0 
70605271		 # 	collision with: 2 3 0  and 8 5 0 
70605301		 # 	collision with: 6 4 0  and 9 6 0 
70605303		 # 	collision with: 2 4 0  and 9 6 0 
70605309		 # 	collision with: 7 7 0  and 9 0 1 
70605311		 # 	collision with: 6 2 0  and 8 4 0 
70605337		 # 	collision with: 3 4 0  and 5 5 0 
70605339		 # 	collision with: 4 4 0  and 5 0 1 
70605436		 # 	collision with: 4 3 0  and 3 4 0 
70605438		 # 	collision with: 9 2 0  and 3 4 0 
70605449		 # 	collision with: 10 6 0  and 0 0 1 
70605451		 # 	collision with: 0 3 0  and 3 4 0 
70605471		 # 	collision with: 5 0 0  and 9 1 0 
70605581		 # 	collision with: 4 3 0  and 3 5 0 
70605583		 # 	collision with: 7 1 0  and 0 0 1 
70605609		 # 	collision with: 6 4 0  and 3 5 0 
70605611		 # 	collision with: 3 5 0  and 5 5 0 
70605617		 # 	collision with: 9 2 0  and 5 0 1 
70605619		 # 	collision with: 0 1 0  and 8 3 0 
70605649		 # 	collision with: 0 0 0  and 7 2 0 
70605693		 # 	collision with: 3 10 0  and 2 1 1 
70605695		 # 	collision with: 5 0 0  and 4 2 0 
70605709		 # 	collision with: 2 0 0  and 4 2 0 
70605711		 # 	collision with: 5 2 0  and 1 2 1 
70605753		 # 	collision with: 9 3 0  and 1 1 1 
70605755		 # 	collision with: 9 4 0  and 4 6 0 
70605785		 # 	collision with: 1 3 0  and 8 5 0 
70605787		 # 	collision with: 5 0 1  and 0 2 1 
70605793		 # 	collision with: 2 10 0  and 8 0 1 
70605821		 # 	collision with: 9 3 0  and 0 5 0 
70605823		 # 	collision with: 2 8 0  and 3 8 0 
70605920		 # 	collision with: 2 1 0  and 5 2 0 
70605922		 # 	collision with: 7 8 0  and 0 1 1 
70605933		 # 	collision with: 0 0 0  and 1 1 1 
70605935		 # 	collision with: 8 1 0  and 0 2 0 
70605953		 # 	collision with: 6 1 0  and 8 2 0 
70605955		 # 	collision with: 9 5 0  and 9 0 1 
70606065		 # 	collision with: 2 5 0  and 7 0 1 
70606067		 # 	collision with: 4 0 0  and 8 2 0 
70606095		 # 	collision with: 2 9 0  and 4 0 1 
70606101		 # 	collision with: 2 8 0  and 3 8 0 
70606103		 # 	collision with: 3 6 0  and 4 6 0 
70606133		 # 	collision with: 1 10 0  and 10 0 1 
70606135		 # 	collision with: 8 9 0  and 2 0 1 
70606177		 # 	collision with: 6 2 0  and 7 3 0 
70606179		 # 	collision with: 5 2 0  and 1 4 0 
70606193		 # 	collision with: 7 2 0  and 4 0 1 
70606195		 # 	collision with: 7 4 0  and 9 6 0 
70606237		 # 	collision with: 2 1 0  and 0 0 1 
70606239		 # 	collision with: 5 5 0  and 0 7 0 
70606269		 # 	collision with: 7 7 0  and 0 0 1 
70606271		 # 	collision with: 4 0 0  and 3 2 0 
70606277		 # 	collision with: 7 4 0  and 0 6 0 
70606279		 # 	collision with: 2 8 0  and 3 8 0 
70606307		 # 	collision with: 5 0 0  and 7 2 0 
70606404		 # 	collision with: 7 3 0  and 2 5 0 
70606406		 # 	collision with: 2 8 0  and 2 3 1 
70606417		 # 	collision with: 5 0 0  and 6 1 0 
70606419		 # 	collision with: 2 0 0  and 2 1 0 
70606437		 # 	collision with: 0 1 0  and 1 2 0 
70606439		 # 	collision with: 9 2 0  and 10 3 0 
70606549		 # 	collision with: 5 4 0  and 6 6 0 
70606551		 # 	collision with: 3 5 0  and 5 5 0 
70606577		 # 	collision with: 2 2 0  and 2 4 0 
70606579		 # 	collision with: 9 4 0  and 7 0 1 
70606585		 # 	collision with: 2 1 0  and 6 2 0 
70606587		 # 	collision with: 9 0 0  and 8 2 0 
70606617		 # 	collision with: 3 1 0  and 3 0 1 
70606619		 # 	collision with: 4 3 0  and 4 4 0 
70606661		 # 	collision with: 8 4 0  and 4 5 0 
70606663		 # 	collision with: 9 4 0  and 3 6 0 
70606677		 # 	collision with: 5 1 0  and 5 3 0 
70606679		 # 	collision with: 1 10 0  and 2 10 0 
70606721		 # 	collision with: 10 1 0  and 6 1 1 
70606723		 # 	collision with: 8 1 0  and 0 2 0 
70606753		 # 	collision with: 3 2 0  and 4 4 0 
70606761		 # 	collision with: 0 2 0  and 3 4 0 
70606763		 # 	collision with: 8 0 0  and 7 2 0 
70606789		 # 	collision with: 6 1 0  and 1 0 1 
70606933		 # 	collision with: 1 10 0  and 10 0 1 
70606935		 # 	collision with: 10 8 0  and 7 1 1 
70606965		 # 	collision with: 6 10 0  and 4 1 1 
70606967		 # 	collision with: 2 0 0  and 6 2 0 
70606968		 # 	collision with: 10 2 0  and 7 4 0 
70606970		 # 	collision with: 5 3 0  and 7 4 0 
70606972		 # 	collision with: 8 2 0  and 2 3 0 
70606985		 # 	collision with: 10 9 0  and 3 0 1 
70606987		 # 	collision with: 4 4 0  and 6 6 0 
70606989		 # 	collision with: 0 5 0  and 6 6 0 
70606991		 # 	collision with: 0 7 0  and 5 1 1 
70607004		 # 	collision with: 1 2 0  and 7 4 0 
70607006		 # 	collision with: 1 1 0  and 7 0 1 
70607012		 # 	collision with: 9 2 0  and 1 4 0 
70607040		 # 	collision with: 8 3 0  and 2 1 1 
70607042		 # 	collision with: 10 10 0  and 1 0 1 
70607052		 # 	collision with: 4 1 0  and 9 2 0 
70607076		 # 	collision with: 8 1 0  and 8 0 1 
70607078		 # 	collision with: 0 4 0  and 7 6 0 
70607092		 # 	collision with: 10 3 0  and 5 4 0 
70607112		 # 	collision with: 8 1 0  and 5 2 0 
70607114		 # 	collision with: 3 3 0  and 4 4 0 
70607132		 # 	collision with: 8 0 0  and 10 1 0 
70607147		 # 	collision with: 8 0 0  and 3 1 0 
70607163		 # 	collision with: 3 1 0  and 3 3 0 
70607172		 # 	collision with: 5 0 0  and 4 2 0 
70607192		 # 	collision with: 9 1 0  and 10 3 0 
70607194		 # 	collision with: 10 4 0  and 5 5 0 
70607212		 # 	collision with: 1 3 0  and 6 4 0 
70607228		 # 	collision with: 2 5 0  and 1 6 0 
70607230		 # 	collision with: 3 2 0  and 1 4 0 
70607252		 # 	collision with: 9 1 0  and 8 3 0 
70607264		 # 	collision with: 8 1 0  and 6 2 0 
70607266		 # 	collision with: 1 4 0  and 9 5 0 
70607292		 # 	collision with: 9 5 0  and 3 6 0 
70607300		 # 	collision with: 6 1 0  and 10 1 1 
70607302		 # 	collision with: 10 2 0  and 7 0 1 
70607317		 # 	collision with: 10 3 0  and 9 4 0 
70607319		 # 	collision with: 2 1 0  and 6 2 0 
70607321		 # 	collision with: 5 4 0  and 0 5 0 
70607323		 # 	collision with: 5 1 0  and 2 0 1 
70607329		 # 	collision with: 3 9 0  and 6 0 1 
70607331		 # 	collision with: 8 3 0  and 8 5 0 
70607332		 # 	collision with: 0 0 0  and 5 1 0 
70607336		 # 	collision with: 9 4 0  and 0 6 0 
70607338		 # 	collision with: 2 2 0  and 10 4 0 
70607341		 # 	collision with: 8 2 0  and 6 3 1 
70607343		 # 	collision with: 4 3 0  and 4 1 1 
70607372		 # 	collision with: 3 2 0  and 2 3 0 
70607374		 # 	collision with: 3 1 0  and 4 3 0 
70607417		 # 	collision with: 8 1 0  and 8 0 1 
70607419		 # 	collision with: 2 9 0  and 1 1 1 
70607449		 # 	collision with: 8 0 0  and 8 2 0 
70607451		 # 	collision with: 3 2 0  and 10 0 1 
70607452		 # 	collision with: 3 2 0  and 2 3 0 
70607454		 # 	collision with: 10 1 0  and 10 2 0 
70607456		 # 	collision with: 0 1 0  and 9 2 0 
70607458		 # 	collision with: 2 4 0  and 9 6 0 
70607469		 # 	collision with: 4 0 0  and 9 2 0 
70607471		 # 	collision with: 3 1 0  and 3 3 0 
70607473		 # 	collision with: 10 1 0  and 8 2 0 
70607475		 # 	collision with: 8 1 0  and 5 3 0 
70607490		 # 	collision with: 7 5 0  and 9 0 1 
70607496		 # 	collision with: 3 2 0  and 2 3 0 
70607498		 # 	collision with: 8 3 0  and 2 5 0 
70607524		 # 	collision with: 3 2 0  and 2 3 0 
70607526		 # 	collision with: 1 4 0  and 9 6 0 
70607536		 # 	collision with: 3 2 0  and 2 3 0 
70607538		 # 	collision with: 2 3 0  and 0 1 1 
70607560		 # 	collision with: 3 2 0  and 2 3 0 
70607562		 # 	collision with: 4 10 0  and 0 1 1 
70607576		 # 	collision with: 3 2 0  and 2 3 0 
70607578		 # 	collision with: 10 5 0  and 2 6 0 
70607596		 # 	collision with: 8 1 0  and 6 2 0 
70607598		 # 	collision with: 4 2 0  and 0 3 0 
70607616		 # 	collision with: 3 2 0  and 2 3 0 
70607618		 # 	collision with: 9 4 0  and 3 2 1 
70607629		 # 	collision with: 4 7 0  and 2 0 1 
70607631		 # 	collision with: 10 1 0  and 9 3 0 
70607645		 # 	collision with: 2 2 0  and 9 1 1 
70607647		 # 	collision with: 1 3 0  and 5 4 0 
70607656		 # 	collision with: 3 2 0  and 2 3 0 
70607658		 # 	collision with: 9 5 0  and 9 6 0 
70607676		 # 	collision with: 3 2 0  and 2 3 0 
70607678		 # 	collision with: 6 3 0  and 9 4 0 
70607696		 # 	collision with: 3 0 0  and 6 1 0 
70607698		 # 	collision with: 1 1 0  and 3 3 0 
70607712		 # 	collision with: 3 2 0  and 2 3 0 
70607714		 # 	collision with: 9 5 0  and 8 6 0 
70607736		 # 	collision with: 3 2 0  and 2 3 0 
70607738		 # 	collision with: 8 1 0  and 8 0 1 
70607748		 # 	collision with: 3 2 0  and 2 3 0 
70607750		 # 	collision with: 2 2 0  and 7 2 1 
70607778		 # 	collision with: 0 3 0  and 4 5 0 
70607784		 # 	collision with: 3 2 0  and 2 3 0 
70607801		 # 	collision with: 4 0 0  and 2 2 0 
70607803		 # 	collision with: 3 1 0  and 2 2 0 
70607805		 # 	collision with: 0 0 0  and 8 2 0 
70607807		 # 	collision with: 7 6 0  and 3 2 1 
70607813		 # 	collision with: 0 1 0  and 9 2 0 
70607815		 # 	collision with: 8 6 0  and 0 0 1 
70607816		 # 	collision with: 3 1 0  and 10 2 0 
70607818		 # 	collision with: 0 10 0  and 1 10 0 
70607820		 # 	collision with: 1 1 0  and 1 2 0 
70607822		 # 	collision with: 5 1 0  and 0 0 1 
70607825		 # 	collision with: 10 9 0  and 4 0 1 
70607856		 # 	collision with: 10 1 0  and 5 3 0 
70607858		 # 	collision with: 0 2 0  and 3 4 0 
70607901		 # 	collision with: 2 2 0  and 1 4 0 
70607903		 # 	collision with: 10 1 0  and 9 3 0 
70607933		 # 	collision with: 3 3 0  and 4 3 0 
70607935		 # 	collision with: 9 7 0  and 3 2 1 
70607936		 # 	collision with: 0 0 0  and 1 1 1 
70607938		 # 	collision with: 10 4 0  and 0 6 0 
70607940		 # 	collision with: 4 4 0  and 9 6 0 
70607942		 # 	collision with: 2 0 0  and 6 2 0 
70607953		 # 	collision with: 2 2 0  and 1 4 0 
70607957		 # 	collision with: 0 0 0  and 8 2 0 
70607959		 # 	collision with: 8 0 0  and 9 2 0 
70607972		 # 	collision with: 10 1 0  and 3 2 0 
70607974		 # 	collision with: 0 0 0  and 1 1 1 
70607980		 # 	collision with: 3 6 0  and 5 0 1 
70607982		 # 	collision with: 10 1 0  and 10 2 0 
70608008		 # 	collision with: 3 4 0  and 3 5 0 
70608010		 # 	collision with: 7 0 0  and 9 1 0 
70608020		 # 	collision with: 10 5 0  and 6 6 0 
70608022		 # 	collision with: 3 3 0  and 5 5 0 
70608046		 # 	collision with: 9 2 0  and 4 4 0 
70608060		 # 	collision with: 9 4 0  and 0 6 0 
70608062		 # 	collision with: 9 4 0  and 5 6 0 
70608080		 # 	collision with: 7 2 0  and 0 1 1 
70608082		 # 	collision with: 4 5 0  and 3 7 0 
70608100		 # 	collision with: 10 10 0  and 1 1 1 
70608102		 # 	collision with: 4 1 1  and 6 2 1 
70608113		 # 	collision with: 2 2 0  and 1 4 0 
70608115		 # 	collision with: 10 1 0  and 10 2 0 
70608129		 # 	collision with: 5 0 0  and 9 1 0 
70608131		 # 	collision with: 2 2 0  and 4 3 0 
70608140		 # 	collision with: 0 10 0  and 4 0 1 
70608142		 # 	collision with: 2 1 0  and 5 2 0 
70608160		 # 	collision with: 8 3 0  and 10 5 0 
70608162		 # 	collision with: 0 4 0  and 7 6 0 
70608182		 # 	collision with: 9 10 0  and 6 1 1 
70608196		 # 	collision with: 3 2 0  and 5 3 0 
70608220		 # 	collision with: 6 7 0  and 8 0 1 
70608222		 # 	collision with: 3 3 0  and 4 3 0 
70608232		 # 	collision with: 10 4 0  and 9 6 0 
70608234		 # 	collision with: 2 1 0  and 6 2 0 
70608260		 # 	collision with: 1 1 0  and 1 2 0 
70608262		 # 	collision with: 8 0 0  and 2 2 0 
70608268		 # 	collision with: 9 10 0  and 6 1 1 
70608270		 # 	collision with: 1 4 0  and 1 5 0 
70608285		 # 	collision with: 3 0 0  and 4 2 0 
70608287		 # 	collision with: 2 4 0  and 1 5 0 
70608289		 # 	collision with: 1 1 0  and 10 2 0 
70608291		 # 	collision with: 4 3 0  and 10 4 0 
70608297		 # 	collision with: 2 2 0  and 1 4 0 
70608299		 # 	collision with: 10 7 0  and 2 0 1 
70608300		 # 	collision with: 9 1 0  and 10 3 0 
70608302		 # 	collision with: 8 8 0  and 7 1 1 
70608304		 # 	collision with: 1 1 0  and 1 0 1 
70608306		 # 	collision with: 0 10 0  and 1 10 0 
70608309		 # 	collision with: 2 2 0  and 1 4 0 
70608311		 # 	collision with: 9 2 0  and 3 3 0 
70608340		 # 	collision with: 1 4 0  and 1 0 1 
70608342		 # 	collision with: 6 4 0  and 4 6 0 
70608385		 # 	collision with: 7 4 0  and 10 6 0 
70608387		 # 	collision with: 1 3 0  and 3 0 1 
70608417		 # 	collision with: 0 5 0  and 6 6 0 
70608419		 # 	collision with: 6 0 0  and 2 1 0 
70608420		 # 	collision with: 0 5 0  and 6 6 0 
70608422		 # 	collision with: 1 1 0  and 3 3 0 
70608424		 # 	collision with: 3 3 0  and 4 3 0 
70608426		 # 	collision with: 5 1 0  and 1 2 0 
70608437		 # 	collision with: 10 1 1  and 4 3 1 
70608439		 # 	collision with: 5 1 0  and 1 2 0 
70608441		 # 	collision with: 8 1 0  and 5 2 0 
70608443		 # 	collision with: 7 2 0  and 7 3 0 
70608456		 # 	collision with: 0 0 0  and 3 2 0 
70608458		 # 	collision with: 3 3 0  and 10 4 0 
70608464		 # 	collision with: 3 2 0  and 5 3 0 
70608466		 # 	collision with: 5 4 0  and 1 6 0 
70608492		 # 	collision with: 9 5 0  and 3 6 0 
70608494		 # 	collision with: 9 2 0  and 4 3 0 
70608504		 # 	collision with: 4 1 0  and 9 3 0 
70608506		 # 	collision with: 6 4 0  and 4 6 0 
70608528		 # 	collision with: 8 2 0  and 5 3 0 
70608530		 # 	collision with: 6 4 0  and 4 6 0 
70608544		 # 	collision with: 2 2 0  and 2 4 0 
70608546		 # 	collision with: 6 4 0  and 4 6 0 
70608564		 # 	collision with: 4 8 0  and 5 8 0 
70608586		 # 	collision with: 9 2 0  and 4 4 0 
70608597		 # 	collision with: 10 3 0  and 5 4 0 
70608599		 # 	collision with: 8 2 0  and 1 4 0 
70608613		 # 	collision with: 5 1 0  and 3 2 0 
70608615		 # 	collision with: 4 2 0  and 2 1 1 
70608624		 # 	collision with: 8 5 0  and 0 0 1 
70608626		 # 	collision with: 6 4 0  and 4 6 0 
70608646		 # 	collision with: 6 4 0  and 4 6 0 
70608664		 # 	collision with: 6 1 0  and 7 2 0 
70608666		 # 	collision with: 6 4 0  and 4 6 0 
70608680		 # 	collision with: 0 1 0  and 9 3 0 
70608682		 # 	collision with: 1 1 0  and 3 1 0 
70608704		 # 	collision with: 3 1 0  and 1 2 0 
70608706		 # 	collision with: 8 0 0  and 3 1 0 
70608716		 # 	collision with: 0 8 0  and 2 1 1 
70608718		 # 	collision with: 4 2 0  and 7 3 0 
70608744		 # 	collision with: 9 3 0  and 1 4 0 
70608746		 # 	collision with: 0 0 0  and 1 1 0 
70608752		 # 	collision with: 8 3 0  and 9 4 0 
70608754		 # 	collision with: 6 4 0  and 4 6 0 
70608769		 # 	collision with: 7 1 0  and 6 2 0 
70608773		 # 	collision with: 6 5 0  and 0 3 1 
70608775		 # 	collision with: 0 0 0  and 1 1 1 
70608781		 # 	collision with: 0 4 0  and 7 5 0 
70608783		 # 	collision with: 5 1 0  and 10 2 0 
70608784		 # 	collision with: 2 6 0  and 4 1 1 
70608786		 # 	collision with: 6 4 0  and 4 6 0 
70608788		 # 	collision with: 8 1 0  and 6 2 0 
70608790		 # 	collision with: 3 1 0  and 3 3 0 
70608793		 # 	collision with: 6 1 0  and 4 2 0 
70608795		 # 	collision with: 0 7 0  and 5 1 1 
70608824		 # 	collision with: 4 4 0  and 8 6 0 
70608826		 # 	collision with: 10 3 0  and 6 0 1 
70608871		 # 	collision with: 10 4 0  and 5 5 0 
70608901		 # 	collision with: 8 3 0  and 9 4 0 
70608903		 # 	collision with: 6 4 0  and 4 6 0 
70608904		 # 	collision with: 7 4 0  and 7 6 0 
70608906		 # 	collision with: 0 5 0  and 4 6 0 
70608908		 # 	collision with: 4 1 0  and 4 0 1 
70608910		 # 	collision with: 2 2 0  and 3 3 0 
70608921		 # 	collision with: 2 6 0  and 4 6 0 
70608923		 # 	collision with: 2 1 0  and 6 2 0 
70608925		 # 	collision with: 7 3 0  and 3 1 1 
70608927		 # 	collision with: 6 4 0  and 4 6 0 
70608940		 # 	collision with: 5 1 0  and 5 0 1 
70608942		 # 	collision with: 0 2 0  and 10 0 1 
70608948		 # 	collision with: 10 1 0  and 8 2 0 
70608950		 # 	collision with: 10 8 0  and 4 0 1 
70608976		 # 	collision with: 0 0 0  and 1 1 1 
70608990		 # 	collision with: 8 5 0  and 2 7 0 
70609012		 # 	collision with: 3 1 0  and 10 2 0 
70609014		 # 	collision with: 1 1 0  and 2 2 0 
70609028		 # 	collision with: 5 4 0  and 0 6 0 
70609030		 # 	collision with: 7 0 0  and 9 1 0 
70609048		 # 	collision with: 5 10 0  and 4 0 1 
70609050		 # 	collision with: 5 1 0  and 10 2 0 
70609068		 # 	collision with: 5 2 0  and 2 1 1 
70609070		 # 	collision with: 9 2 0  and 4 3 0 
70609081		 # 	collision with: 7 2 0  and 0 0 1 
70609083		 # 	collision with: 5 2 0  and 6 2 0 
70609097		 # 	collision with: 9 3 0  and 1 4 0 
70609108		 # 	collision with: 3 4 0  and 3 5 0 
70609110		 # 	collision with: 1 5 0  and 8 6 0 
70609128		 # 	collision with: 8 0 0  and 3 2 0 
70609130		 # 	collision with: 8 2 0  and 1 4 0 
70609148		 # 	collision with: 3 0 0  and 9 1 0 
70609150		 # 	collision with: 1 4 0  and 1 5 0 
70609164		 # 	collision with: 0 0 0  and 5 1 0 
70609166		 # 	collision with: 7 1 0  and 5 3 0 
70609188		 # 	collision with: 8 3 0  and 9 4 0 
70609190		 # 	collision with: 8 4 0  and 0 5 0 
70609202		 # 	collision with: 3 3 0  and 4 3 0 
70609228		 # 	collision with: 1 5 0  and 5 0 1 
70609230		 # 	collision with: 4 10 0  and 3 0 1 
70609236		 # 	collision with: 8 5 0  and 1 6 0 
70609238		 # 	collision with: 5 5 0  and 0 6 0 
70609253		 # 	collision with: 3 1 0  and 10 2 0 
70609255		 # 	collision with: 4 4 0  and 0 6 0 
70609257		 # 	collision with: 7 4 0  and 7 6 0 
70609259		 # 	collision with: 9 2 0  and 3 3 0 
70609265		 # 	collision with: 3 1 0  and 3 0 1 
70609267		 # 	collision with: 6 4 0  and 4 6 0 
70609268		 # 	collision with: 0 7 0  and 2 7 0 
70609270		 # 	collision with: 2 2 0  and 9 2 1 
70609272		 # 	collision with: 4 2 0  and 5 4 0 
70609274		 # 	collision with: 8 9 0  and 3 0 1 
70609279		 # 	collision with: 6 4 0  and 4 6 0 
70609308		 # 	collision with: 0 5 0  and 8 0 1 
70609310		 # 	collision with: 10 9 0  and 3 0 1 
70609353		 # 	collision with: 9 1 0  and 7 2 0 
70609355		 # 	collision with: 8 4 0  and 7 1 1 
70609385		 # 	collision with: 2 2 0  and 9 3 0 
70609387		 # 	collision with: 3 2 0  and 2 4 0 
70609388		 # 	collision with: 10 1 0  and 2 3 0 
70609394		 # 	collision with: 8 3 0  and 2 1 1 
70609405		 # 	collision with: 3 1 0  and 1 2 0 
70609407		 # 	collision with: 7 4 0  and 2 0 1 
70609411		 # 	collision with: 5 2 0  and 1 0 1 
70609424		 # 	collision with: 3 0 0  and 9 1 0 
70609426		 # 	collision with: 8 1 0  and 5 3 0 
70609432		 # 	collision with: 8 0 0  and 3 2 0 
70609434		 # 	collision with: 10 3 0  and 2 5 0 
70609460		 # 	collision with: 5 1 0  and 2 3 0 
70609462		 # 	collision with: 10 8 0  and 4 2 1 
70609472		 # 	collision with: 10 5 0  and 0 6 0 
70609474		 # 	collision with: 2 0 0  and 2 1 0 
70609496		 # 	collision with: 8 1 0  and 6 2 0 
70609498		 # 	collision with: 7 2 0  and 7 3 0 
70609512		 # 	collision with: 6 1 0  and 10 3 0 
70609514		 # 	collision with: 1 4 0  and 2 4 0 
70609532		 # 	collision with: 4 6 0  and 5 0 1 
70609534		 # 	collision with: 10 1 0  and 1 2 0 
70609552		 # 	collision with: 0 0 0  and 3 2 0 
70609554		 # 	collision with: 4 4 0  and 5 5 0 
70609565		 # 	collision with: 8 0 0  and 3 2 0 
70609567		 # 	collision with: 8 4 0  and 2 6 0 
70609581		 # 	collision with: 1 3 0  and 5 5 0 
70609583		 # 	collision with: 10 1 0  and 10 0 1 
70609592		 # 	collision with: 0 4 0  and 4 0 1 
70609594		 # 	collision with: 10 8 0  and 1 0 1 
70609612		 # 	collision with: 6 3 0  and 8 4 0 
70609614		 # 	collision with: 4 5 0  and 6 5 0 
70609632		 # 	collision with: 4 0 0  and 4 1 0 
70609634		 # 	collision with: 0 0 0  and 3 1 0 
70609648		 # 	collision with: 7 1 0  and 6 2 0 
70609650		 # 	collision with: 2 1 0  and 5 2 0 
70609672		 # 	collision with: 8 1 0  and 5 2 0 
70609674		 # 	collision with: 8 2 0  and 1 4 0 
70609684		 # 	collision with: 1 1 0  and 3 1 0 
70609686		 # 	collision with: 2 4 0  and 9 5 0 
70609712		 # 	collision with: 4 2 0  and 3 0 1 
70609714		 # 	collision with: 4 6 0  and 6 0 1 
70609720		 # 	collision with: 7 10 0  and 2 0 1 
70609722		 # 	collision with: 0 4 0  and 7 6 0 
70609737		 # 	collision with: 0 1 0  and 9 3 0 
70609739		 # 	collision with: 10 2 0  and 9 3 0 
70609743		 # 	collision with: 8 4 0  and 0 5 0 
70609749		 # 	collision with: 5 0 0  and 6 1 0 
70609752		 # 	collision with: 8 1 0  and 0 1 1 
70609754		 # 	collision with: 8 2 0  and 2 4 0 
70609758		 # 	collision with: 0 0 0  and 2 2 0 
70609761		 # 	collision with: 1 3 0  and 5 5 0 
70609763		 # 	collision with: 5 1 0  and 1 2 0 
70609792		 # 	collision with: 6 1 0  and 8 3 0 
70609794		 # 	collision with: 0 5 0  and 2 6 0 
70609837		 # 	collision with: 2 3 0  and 6 0 1 
70609869		 # 	collision with: 8 0 0  and 3 2 0 
70609871		 # 	collision with: 5 10 0  and 5 1 1 
70609874		 # 	collision with: 1 0 1  and 10 1 1 
70609876		 # 	collision with: 5 1 0  and 5 3 0 
70609878		 # 	collision with: 10 3 0  and 2 0 1 
70609891		 # 	collision with: 0 3 0  and 6 5 0 
70609893		 # 	collision with: 10 5 0  and 1 0 1 
70609895		 # 	collision with: 7 4 0  and 3 6 0 
70609908		 # 	collision with: 4 0 1  and 5 1 1 
70609910		 # 	collision with: 0 7 0  and 2 7 0 
70609916		 # 	collision with: 0 8 0  and 2 2 1 
70609918		 # 	collision with: 3 10 0  and 0 0 1 
70609944		 # 	collision with: 6 1 0  and 10 3 0 
70609946		 # 	collision with: 9 5 0  and 9 6 0 
70609956		 # 	collision with: 5 10 0  and 0 0 1 
70609958		 # 	collision with: 8 0 0  and 9 2 0 
70609980		 # 	collision with: 2 5 0  and 5 6 0 
70609982		 # 	collision with: 9 4 0  and 1 6 0 
70609996		 # 	collision with: 7 9 0  and 2 0 1 
70609998		 # 	collision with: 0 0 0  and 2 2 0 
70610016		 # 	collision with: 2 2 0  and 9 3 0 
70610018		 # 	collision with: 9 2 0  and 3 3 0 
70610036		 # 	collision with: 5 4 0  and 0 5 0 
70610038		 # 	collision with: 1 5 0  and 9 6 0 
70610049		 # 	collision with: 5 5 0  and 10 0 1 
70610051		 # 	collision with: 0 0 0  and 1 1 0 
70610065		 # 	collision with: 8 1 0  and 5 2 0 
70610067		 # 	collision with: 6 2 0  and 1 0 1 
70610076		 # 	collision with: 7 2 0  and 10 3 0 
70610078		 # 	collision with: 3 5 0  and 0 0 1 
70610096		 # 	collision with: 4 3 0  and 1 5 0 
70610098		 # 	collision with: 0 0 0  and 1 1 0 
70610116		 # 	collision with: 2 1 0  and 0 2 0 
70610118		 # 	collision with: 4 2 0  and 0 3 0 
70610132		 # 	collision with: 3 3 0  and 1 5 0 
70610134		 # 	collision with: 8 0 0  and 3 1 0 
70610156		 # 	collision with: 9 3 0  and 3 2 1 
70610158		 # 	collision with: 4 4 0  and 0 6 0 
70610168		 # 	collision with: 10 2 0  and 7 0 1 
70610170		 # 	collision with: 10 3 0  and 5 0 1 
70610196		 # 	collision with: 7 4 0  and 10 6 0 
70610198		 # 	collision with: 7 1 0  and 2 3 0 
70610204		 # 	collision with: 10 3 0  and 5 4 0 
70610206		 # 	collision with: 7 3 0  and 4 5 0 
70610223		 # 	collision with: 9 5 0  and 8 6 0 
70610225		 # 	collision with: 2 6 0  and 7 1 1 
70610227		 # 	collision with: 10 1 0  and 10 2 0 
70610233		 # 	collision with: 4 0 0  and 9 2 0 
70610235		 # 	collision with: 0 0 0  and 3 1 0 
70610238		 # 	collision with: 9 5 0  and 10 0 1 
70610240		 # 	collision with: 8 3 0  and 5 4 0 
70610245		 # 	collision with: 9 2 0  and 1 4 0 
70610247		 # 	collision with: 2 10 0  and 8 1 1 
70610276		 # 	collision with: 3 0 0  and 4 2 0 
70610278		 # 	collision with: 0 4 0  and 7 6 0 
70610321		 # 	collision with: 3 2 0  and 2 3 0 
70610323		 # 	collision with: 0 3 0  and 4 5 0 
70610355		 # 	collision with: 9 4 0  and 7 5 1 
70610356		 # 	collision with: 8 0 0  and 10 1 0 
70610358		 # 	collision with: 2 9 0  and 3 9 0 
70610360		 # 	collision with: 2 2 0  and 2 0 1 
70610362		 # 	collision with: 4 3 0  and 4 4 0 
70610373		 # 	collision with: 3 2 0  and 2 3 0 
70610375		 # 	collision with: 0 4 0  and 1 0 1 
70610377		 # 	collision with: 3 2 0  and 2 3 0 
70610379		 # 	collision with: 8 2 0  and 1 4 0 
70610392		 # 	collision with: 2 2 0  and 2 4 0 
70610394		 # 	collision with: 4 3 0  and 10 4 0 
70610400		 # 	collision with: 9 0 1  and 2 1 1 
70610402		 # 	collision with: 6 3 0  and 9 4 0 
70610430		 # 	collision with: 8 2 0  and 2 1 1 
70610440		 # 	collision with: 0 1 0  and 2 2 0 
70610442		 # 	collision with: 8 7 0  and 10 1 1 
70610464		 # 	collision with: 4 5 0  and 6 5 0 
70610466		 # 	collision with: 0 3 0  and 4 5 0 
70610480		 # 	collision with: 4 0 0  and 9 2 0 
70610482		 # 	collision with: 5 3 0  and 5 1 1 
70610500		 # 	collision with: 10 4 0  and 0 0 1 
70610502		 # 	collision with: 3 2 0  and 2 4 0 
70610520		 # 	collision with: 4 8 0  and 5 8 0 
70610522		 # 	collision with: 1 2 0  and 2 0 1 
70610533		 # 	collision with: 3 2 0  and 2 3 0 
70610549		 # 	collision with: 3 2 0  and 2 3 0 
70610551		 # 	collision with: 1 10 0  and 3 0 1 
70610560		 # 	collision with: 1 3 0  and 8 4 0 
70610562		 # 	collision with: 2 2 0  and 4 3 0 
70610580		 # 	collision with: 4 1 0  and 9 3 0 
70610582		 # 	collision with: 8 0 0  and 1 1 0 
70610600		 # 	collision with: 10 1 0  and 10 0 1 
70610602		 # 	collision with: 1 1 0  and 3 1 0 
70610616		 # 	collision with: 4 0 0  and 2 2 0 
70610618		 # 	collision with: 10 3 0  and 8 5 0 
70610642		 # 	collision with: 2 0 0  and 5 2 0 
70610652		 # 	collision with: 5 0 0  and 9 1 0 
70610680		 # 	collision with: 8 3 0  and 10 5 0 
70610682		 # 	collision with: 4 3 0  and 5 0 1 
70610688		 # 	collision with: 8 1 0  and 6 2 0 
70610690		 # 	collision with: 1 5 0  and 8 6 0 
70610705		 # 	collision with: 3 2 0  and 2 3 0 
70610707		 # 	collision with: 3 2 0  and 1 4 0 
70610709		 # 	collision with: 3 2 0  and 2 3 0 
70610711		 # 	collision with: 9 4 0  and 5 6 0 
70610719		 # 	collision with: 9 2 0  and 4 3 0 
70610720		 # 	collision with: 9 1 0  and 7 2 0 
70610722		 # 	collision with: 1 9 0  and 6 0 1 
70610724		 # 	collision with: 9 1 0  and 8 3 0 
70610726		 # 	collision with: 0 0 0  and 3 1 0 
70610729		 # 	collision with: 3 2 0  and 2 3 0 
70610731		 # 	collision with: 4 3 0  and 5 5 0 
70610760		 # 	collision with: 4 2 0  and 8 3 0 
70610762		 # 	collision with: 7 2 0  and 0 3 0 
70610805		 # 	collision with: 4 2 0  and 5 4 0 
70610807		 # 	collision with: 4 7 0  and 0 0 1 
70610837		 # 	collision with: 4 4 0  and 2 0 1 
70610839		 # 	collision with: 2 0 0  and 2 1 0 
70610840		 # 	collision with: 8 2 0  and 10 1 1 
70610842		 # 	collision with: 2 3 0  and 7 4 0 
70610844		 # 	collision with: 9 3 0  and 2 4 0 
70610846		 # 	collision with: 2 3 0  and 7 4 0 
70610857		 # 	collision with: 9 6 0  and 3 3 1 
70610859		 # 	collision with: 0 3 0  and 4 5 0 
70610861		 # 	collision with: 6 8 0  and 2 3 1 
70610876		 # 	collision with: 6 9 0  and 4 0 1 
70610878		 # 	collision with: 2 3 0  and 7 4 0 
70610884		 # 	collision with: 4 2 0  and 5 4 0 
70610886		 # 	collision with: 2 3 0  and 7 4 0 
70610912		 # 	collision with: 4 3 0  and 0 0 1 
70610914		 # 	collision with: 2 3 0  and 7 4 0 
70610924		 # 	collision with: 5 0 0  and 9 1 0 
70610926		 # 	collision with: 2 1 0  and 6 2 0 
70610948		 # 	collision with: 8 2 0  and 2 3 0 
70610950		 # 	collision with: 8 0 0  and 9 2 0 
70610964		 # 	collision with: 5 1 0  and 3 2 0 
70610966		 # 	collision with: 6 0 0  and 5 2 0 
70610986		 # 	collision with: 2 3 0  and 7 4 0 
70611004		 # 	collision with: 8 3 0  and 5 4 0 
70611006		 # 	collision with: 8 0 0  and 1 1 0 
70611017		 # 	collision with: 10 6 0  and 9 0 1 
70611019		 # 	collision with: 2 4 0  and 9 5 0 
70611033		 # 	collision with: 8 3 0  and 1 1 1 
70611035		 # 	collision with: 5 1 0  and 10 2 0 
70611046		 # 	collision with: 1 3 0  and 5 4 0 
70611064		 # 	collision with: 8 1 0  and 6 2 0 
70611084		 # 	collision with: 0 0 0  and 8 2 0 
70611086		 # 	collision with: 2 3 0  and 7 4 0 
70611100		 # 	collision with: 8 0 0  and 5 1 0 
70611102		 # 	collision with: 2 0 0  and 2 1 0 
70611124		 # 	collision with: 1 1 0  and 3 1 0 
70611126		 # 	collision with: 2 3 0  and 7 4 0 
70611136		 # 	collision with: 0 4 0  and 3 5 0 
70611138		 # 	collision with: 2 3 0  and 7 4 0 
70611164		 # 	collision with: 10 1 0  and 3 2 0 
70611166		 # 	collision with: 8 1 0  and 5 3 0 
70611172		 # 	collision with: 4 0 0  and 4 1 0 
70611174		 # 	collision with: 2 3 0  and 7 4 0 
70611189		 # 	collision with: 2 5 0  and 1 6 0 
70611191		 # 	collision with: 7 0 0  and 6 1 0 
70611193		 # 	collision with: 2 2 0  and 9 3 0 
70611195		 # 	collision with: 4 1 0  and 9 0 1 
70611201		 # 	collision with: 9 5 0  and 5 1 1 
70611203		 # 	collision with: 5 3 0  and 7 4 0 
70611204		 # 	collision with: 10 2 0  and 7 4 0 
70611206		 # 	collision with: 2 3 0  and 7 4 0 
70611208		 # 	collision with: 0 7 0  and 2 7 0 
70611210		 # 	collision with: 6 0 0  and 2 1 0 
70611213		 # 	collision with: 9 3 0  and 1 4 0 
70611215		 # 	collision with: 3 4 0  and 10 6 0 
70611244		 # 	collision with: 0 7 0  and 2 1 1 
70611246		 # 	collision with: 8 1 0  and 2 3 0 
70611289		 # 	collision with: 3 1 0  and 0 0 1 
70611291		 # 	collision with: 0 0 0  and 1 1 1 
70611321		 # 	collision with: 8 7 0  and 1 1 1 
70611323		 # 	collision with: 7 1 0  and 2 3 0 
70611324		 # 	collision with: 7 6 0  and 4 0 1 
70611326		 # 	collision with: 2 0 0  and 5 2 0 
70611328		 # 	collision with: 7 2 0  and 8 3 0 
70611330		 # 	collision with: 2 9 0  and 3 9 0 
70611341		 # 	collision with: 9 1 0  and 10 0 1 
70611343		 # 	collision with: 8 0 0  and 3 1 0 
70611345		 # 	collision with: 5 0 0  and 6 1 0 
70611347		 # 	collision with: 10 4 0  and 0 1 1 
70611360		 # 	collision with: 2 9 0  and 2 0 1 
70611362		 # 	collision with: 0 4 0  and 7 6 0 
70611368		 # 	collision with: 1 2 0  and 4 0 1 
70611370		 # 	collision with: 3 1 0  and 9 2 0 
70611396		 # 	collision with: 8 1 0  and 6 2 0 
70611398		 # 	collision with: 6 10 0  and 0 0 1 
70611408		 # 	collision with: 8 0 0  and 8 2 0 
70611410		 # 	collision with: 10 6 0  and 10 1 1 
70611432		 # 	collision with: 5 0 0  and 6 1 0 
70611450		 # 	collision with: 6 0 0  and 6 2 0 
70611468		 # 	collision with: 3 4 0  and 7 5 0 
70611470		 # 	collision with: 5 2 0  and 6 2 0 
70611488		 # 	collision with: 3 1 0  and 3 0 1 
70611490		 # 	collision with: 3 3 0  and 10 4 0 
70611501		 # 	collision with: 6 5 0  and 7 0 1 
70611503		 # 	collision with: 7 6 0  and 8 0 1 
70611517		 # 	collision with: 9 6 0  and 2 0 1 
70611519		 # 	collision with: 4 3 0  and 10 4 0 
70611528		 # 	collision with: 3 0 0  and 7 2 0 
70611530		 # 	collision with: 1 1 0  and 2 2 0 
70611548		 # 	collision with: 2 9 0  and 3 9 0 
70611550		 # 	collision with: 4 3 0  and 4 4 0 
70611568		 # 	collision with: 10 3 0  and 2 1 1 
70611570		 # 	collision with: 6 0 0  and 3 2 1 
70611586		 # 	collision with: 6 3 0  and 5 4 0 
70611608		 # 	collision with: 4 4 0  and 2 2 1 
70611610		 # 	collision with: 8 5 0  and 6 1 1 
70611620		 # 	collision with: 4 1 0  and 4 0 1 
70611622		 # 	collision with: 1 3 0  and 0 0 1 
70611648		 # 	collision with: 8 0 0  and 5 1 0 
70611650		 # 	collision with: 3 4 0  and 10 6 0 
70611656		 # 	collision with: 3 3 0  and 9 5 0 
70611658		 # 	collision with: 2 0 0  and 6 2 0 
70611673		 # 	collision with: 7 2 0  and 5 4 0 
70611675		 # 	collision with: 0 0 0  and 3 1 0 
70611677		 # 	collision with: 3 4 0  and 6 1 1 
70611685		 # 	collision with: 3 0 0  and 9 1 0 
70611687		 # 	collision with: 8 0 0  and 2 2 0 
70611688		 # 	collision with: 0 1 1  and 3 3 1 
70611690		 # 	collision with: 2 1 0  and 2 0 1 
70611692		 # 	collision with: 9 10 0  and 5 1 1 
70611694		 # 	collision with: 0 7 0  and 5 1 1 
70611697		 # 	collision with: 3 0 0  and 4 2 0 
70611699		 # 	collision with: 4 3 0  and 7 1 1 
70611728		 # 	collision with: 8 1 0  and 6 2 0 
70611730		 # 	collision with: 8 1 0  and 2 1 1 
70611773		 # 	collision with: 0 0 0  and 1 1 1 
70611775		 # 	collision with: 1 1 0  and 2 2 0 
70611805		 # 	collision with: 9 3 0  and 8 0 1 
70611808		 # 	collision with: 1 10 0  and 10 0 1 
70611810		 # 	collision with: 10 4 0  and 2 1 1 
70611812		 # 	collision with: 2 2 0  and 7 0 1 
70611814		 # 	collision with: 1 10 0  and 3 1 1 
70611825		 # 	collision with: 5 5 0  and 10 0 1 
70611827		 # 	collision with: 0 4 0  and 7 6 0 
70611829		 # 	collision with: 10 3 0  and 10 0 1 
70611831		 # 	collision with: 0 7 0  and 2 7 0 
70611844		 # 	collision with: 10 5 0  and 0 6 0 
70611854		 # 	collision with: 3 3 0  and 4 4 0 
70611880		 # 	collision with: 5 4 0  and 0 5 0 
70611882		 # 	collision with: 0 4 0  and 7 6 0 
70611892		 # 	collision with: 7 1 0  and 1 0 1 
70611894		 # 	collision with: 10 4 0  and 6 6 0 
70611916		 # 	collision with: 0 0 0  and 8 2 0 
70611918		 # 	collision with: 1 4 0  and 2 4 0 
70611932		 # 	collision with: 10 10 0  and 6 0 1 
70611934		 # 	collision with: 1 4 0  and 9 5 0 
70611952		 # 	collision with: 0 1 0  and 2 2 0 
70611954		 # 	collision with: 6 4 0  and 0 5 0 
70611972		 # 	collision with: 9 2 0  and 9 3 0 
70611974		 # 	collision with: 5 2 0  and 6 2 0 
70611985		 # 	collision with: 2 1 0  and 0 2 0 
70611987		 # 	collision with: 2 1 0  and 0 2 1 
70612001		 # 	collision with: 8 3 0  and 9 4 0 
70612003		 # 	collision with: 2 8 0  and 6 1 1 
70612012		 # 	collision with: 2 9 0  and 3 9 0 
70612014		 # 	collision with: 6 1 0  and 4 0 1 
70612032		 # 	collision with: 1 3 0  and 6 4 0 
70612034		 # 	collision with: 8 5 0  and 2 7 0 
70612052		 # 	collision with: 0 5 0  and 3 0 1 
70612054		 # 	collision with: 4 3 0  and 10 4 0 
70612068		 # 	collision with: 8 0 0  and 8 2 0 
70612070		 # 	collision with: 7 0 0  and 6 1 0 
70612092		 # 	collision with: 9 1 0  and 4 2 0 
70612094		 # 	collision with: 7 2 0  and 7 3 0 
70612104		 # 	collision with: 5 2 0  and 8 1 1 
70612106		 # 	collision with: 9 1 0  and 9 0 1 
70612132		 # 	collision with: 9 2 0  and 1 1 1 
70612134		 # 	collision with: 6 5 0  and 2 0 1 
70612142		 # 	collision with: 9 7 0  and 1 0 1 
70612157		 # 	collision with: 0 0 0  and 10 1 0 
70612159		 # 	collision with: 0 0 0  and 9 2 0 
70612161		 # 	collision with: 5 5 0  and 5 0 1 
70612163		 # 	collision with: 5 3 0  and 7 4 0 
70612169		 # 	collision with: 7 5 0  and 0 2 1 
70612171		 # 	collision with: 2 4 0  and 9 5 0 
70612172		 # 	collision with: 8 10 0  and 6 2 1 
70612174		 # 	collision with: 4 2 0  and 7 3 0 
70612176		 # 	collision with: 6 1 0  and 4 0 1 
70612178		 # 	collision with: 3 1 0  and 9 2 0 
70612181		 # 	collision with: 8 3 0  and 5 4 0 
70612183		 # 	collision with: 3 4 0  and 7 6 0 
70612260		 # 	collision with: 4 9 0  and 6 0 1 
70612262		 # 	collision with: 5 1 1  and 6 3 1 
70612265		 # 	collision with: 10 7 0  and 0 0 1 
70612267		 # 	collision with: 2 0 0  and 7 1 0 
70612281		 # 	collision with: 2 2 0  and 4 3 0 
70612283		 # 	collision with: 7 10 0  and 2 0 1 
70612284		 # 	collision with: 0 0 0  and 1 2 0 
70612286		 # 	collision with: 2 4 0  and 9 5 0 
70612301		 # 	collision with: 7 5 0  and 4 1 1 
70612308		 # 	collision with: 4 4 0  and 2 0 1 
70612310		 # 	collision with: 8 1 0  and 7 3 0 
70612312		 # 	collision with: 3 0 0  and 5 1 0 
70612314		 # 	collision with: 3 1 0  and 10 3 0 
70612321		 # 	collision with: 6 0 0  and 7 1 0 
70612323		 # 	collision with: 1 3 0  and 0 5 0 
70612356		 # 	collision with: 9 1 0  and 8 2 0 
70612358		 # 	collision with: 6 3 0  and 4 5 0 
70612384		 # 	collision with: 1 4 0  and 4 0 1 
70612386		 # 	collision with: 10 6 0  and 1 0 1 
70612404		 # 	collision with: 9 1 0  and 3 2 0 
70612406		 # 	collision with: 7 8 0  and 7 1 1 
70612412		 # 	collision with: 5 5 0  and 7 0 1 
70612414		 # 	collision with: 6 5 0  and 6 0 1 
70612440		 # 	collision with: 4 7 0  and 5 0 1 
70612442		 # 	collision with: 4 7 0  and 7 0 1 
70612452		 # 	collision with: 0 4 0  and 1 0 1 
70612454		 # 	collision with: 6 1 0  and 3 3 0 
70612471		 # 	collision with: 7 0 0  and 3 2 0 
70612487		 # 	collision with: 4 1 0  and 5 1 0 
70612500		 # 	collision with: 4 1 0  and 9 1 1 
70612502		 # 	collision with: 4 2 0  and 6 3 0 
70612512		 # 	collision with: 7 5 0  and 3 6 0 
70612514		 # 	collision with: 10 5 0  and 0 6 0 
70612540		 # 	collision with: 2 0 0  and 3 1 0 
70612542		 # 	collision with: 2 4 0  and 8 5 0 
70612548		 # 	collision with: 7 0 0  and 1 2 0 
70612550		 # 	collision with: 5 2 0  and 2 3 0 
70612568		 # 	collision with: 10 3 0  and 3 0 1 
70612570		 # 	collision with: 10 2 0  and 9 4 0 
70612596		 # 	collision with: 6 5 0  and 8 6 0 
70612598		 # 	collision with: 6 5 0  and 10 2 1 
70612609		 # 	collision with: 3 7 0  and 2 0 1 
70612633		 # 	collision with: 5 3 0  and 8 1 1 
70612635		 # 	collision with: 10 5 0  and 6 0 1 
70612640		 # 	collision with: 0 2 0  and 8 3 0 
70612642		 # 	collision with: 1 1 0  and 6 3 0 
70612644		 # 	collision with: 3 3 0  and 10 5 0 
70612646		 # 	collision with: 3 4 0  and 6 6 0 
70612668		 # 	collision with: 0 0 0  and 10 2 0 
70612670		 # 	collision with: 10 6 0  and 5 0 1 
70612673		 # 	collision with: 9 2 0  and 2 4 0 
70612675		 # 	collision with: 9 4 0  and 4 0 1 
70612689		 # 	collision with: 0 5 0  and 8 6 0 
70612691		 # 	collision with: 10 2 0  and 6 4 0 
70612692		 # 	collision with: 6 0 0  and 7 1 0 
70612694		 # 	collision with: 9 6 0  and 2 0 1 
70612696		 # 	collision with: 2 8 0  and 2 0 1 
70612698		 # 	collision with: 10 0 0  and 3 1 0 
70612746		 # 	collision with: 9 0 0  and 1 1 0 
70612749		 # 	collision with: 4 1 0  and 8 3 0 
70612751		 # 	collision with: 8 2 0  and 1 0 1 
70612765		 # 	collision with: 9 3 0  and 2 4 0 
70612768		 # 	collision with: 10 6 0  and 5 0 1 
70612770		 # 	collision with: 6 0 0  and 5 2 0 
70612785		 # 	collision with: 6 5 0  and 8 7 0 
70612787		 # 	collision with: 2 4 0  and 9 6 0 
70612792		 # 	collision with: 6 0 0  and 7 1 0 
70612794		 # 	collision with: 6 5 0  and 3 0 1 
70612796		 # 	collision with: 4 4 0  and 8 0 1 
70612798		 # 	collision with: 7 7 0  and 4 0 1 
70612807		 # 	collision with: 9 1 0  and 1 1 1 
70612840		 # 	collision with: 10 0 0  and 9 1 0 
70612842		 # 	collision with: 7 2 0  and 5 4 0 
70612868		 # 	collision with: 9 4 0  and 3 1 1 
70612870		 # 	collision with: 2 9 0  and 2 0 1 
70612888		 # 	collision with: 3 2 0  and 9 4 0 
70612890		 # 	collision with: 4 2 0  and 5 4 0 
70612896		 # 	collision with: 0 4 0  and 8 5 0 
70612924		 # 	collision with: 9 8 0  and 1 1 1 
70612926		 # 	collision with: 2 0 0  and 2 1 0 
70612936		 # 	collision with: 0 0 0  and 1 1 1 
70612938		 # 	collision with: 5 2 0  and 6 2 0 
70612953		 # 	collision with: 2 2 0  and 9 3 0 
70612955		 # 	collision with: 3 5 0  and 4 6 0 
70612969		 # 	collision with: 8 2 0  and 7 3 0 
70612971		 # 	collision with: 7 2 0  and 6 3 0 
70612984		 # 	collision with: 5 8 0  and 2 0 1 
70612996		 # 	collision with: 3 0 0  and 4 1 0 
70612998		 # 	collision with: 1 3 0  and 6 5 0 
70613024		 # 	collision with: 8 0 0  and 3 2 0 
70613026		 # 	collision with: 10 2 0  and 6 4 0 
70613032		 # 	collision with: 4 2 0  and 3 4 0 
70613034		 # 	collision with: 4 3 0  and 0 4 0 
70613052		 # 	collision with: 4 0 0  and 4 1 0 
70613054		 # 	collision with: 10 4 0  and 2 5 0 
70613080		 # 	collision with: 5 1 0  and 0 2 0 
70613082		 # 	collision with: 9 8 0  and 1 2 1 
70613095		 # 	collision with: 8 3 0  and 2 4 0 
70613117		 # 	collision with: 0 0 0  and 1 2 0 
70613124		 # 	collision with: 4 4 0  and 9 5 0 
70613126		 # 	collision with: 2 4 0  and 9 5 0 
70613128		 # 	collision with: 8 2 0  and 3 0 1 
70613130		 # 	collision with: 5 5 0  and 2 6 0 
70613154		 # 	collision with: 9 3 0  and 3 0 1 
70613157		 # 	collision with: 8 0 0  and 3 2 0 
70613159		 # 	collision with: 3 4 0  and 5 5 0 
70613173		 # 	collision with: 10 4 0  and 2 6 0 
70613175		 # 	collision with: 1 5 0  and 2 6 0 
70613176		 # 	collision with: 1 1 0  and 1 2 0 
70613178		 # 	collision with: 10 1 0  and 1 2 0 
70613180		 # 	collision with: 6 4 0  and 4 6 0 
70613182		 # 	collision with: 5 0 0  and 7 1 0 
70613228		 # 	collision with: 0 1 0  and 8 2 0 
70613233		 # 	collision with: 8 0 0  and 9 1 0 
70613235		 # 	collision with: 2 4 0  and 9 6 0 
70613249		 # 	collision with: 10 1 0  and 2 1 1 
70613251		 # 	collision with: 0 3 0  and 2 3 0 
70613252		 # 	collision with: 4 0 0  and 5 1 0 
70613254		 # 	collision with: 1 8 0  and 8 0 1 
70613269		 # 	collision with: 5 1 0  and 0 0 1 
70613271		 # 	collision with: 5 5 0  and 0 0 1 
70613278		 # 	collision with: 1 4 0  and 5 5 0 
70613280		 # 	collision with: 6 4 0  and 4 6 0 
70613282		 # 	collision with: 4 2 0  and 5 4 0 
70613289		 # 	collision with: 3 3 0  and 4 1 1 
70613291		 # 	collision with: 3 7 0  and 7 0 1 
70613324		 # 	collision with: 2 0 0  and 6 1 0 
70613326		 # 	collision with: 8 1 0  and 6 3 0 
70613352		 # 	collision with: 4 4 0  and 8 5 0 
70613354		 # 	collision with: 2 1 0  and 2 0 1 
70613372		 # 	collision with: 6 4 0  and 4 6 0 
70613374		 # 	collision with: 9 1 0  and 1 3 0 
70613380		 # 	collision with: 8 1 0  and 10 2 0 
70613382		 # 	collision with: 10 10 0  and 6 0 1 
70613408		 # 	collision with: 7 0 0  and 1 2 0 
70613410		 # 	collision with: 5 5 0  and 2 0 1 
70613420		 # 	collision with: 6 0 0  and 7 1 0 
70613422		 # 	collision with: 2 4 0  and 10 0 1 
70613437		 # 	collision with: 6 3 0  and 5 5 0 
70613439		 # 	collision with: 0 5 0  and 7 6 0 
70613453		 # 	collision with: 10 0 0  and 8 2 0 
70613455		 # 	collision with: 9 0 0  and 7 2 0 
70613468		 # 	collision with: 6 4 0  and 4 6 0 
70613470		 # 	collision with: 2 2 1  and 7 3 1 
70613480		 # 	collision with: 6 4 0  and 4 6 0 
70613482		 # 	collision with: 4 1 0  and 5 1 0 
70613508		 # 	collision with: 6 4 0  and 4 6 0 
70613510		 # 	collision with: 5 0 0  and 2 1 0 
70613516		 # 	collision with: 6 4 0  and 4 6 0 
70613518		 # 	collision with: 4 2 0  and 10 4 0 
70613536		 # 	collision with: 6 4 0  and 4 6 0 
70613564		 # 	collision with: 6 4 0  and 4 6 0 
70613566		 # 	collision with: 6 1 0  and 0 1 1 
70613577		 # 	collision with: 2 2 0  and 4 3 0 
70613579		 # 	collision with: 10 2 0  and 6 4 0 
70613601		 # 	collision with: 9 0 0  and 10 1 0 
70613603		 # 	collision with: 2 6 0  and 0 0 1 
70613610		 # 	collision with: 2 5 0  and 5 6 0 
70613612		 # 	collision with: 6 4 0  and 1 5 0 
70613614		 # 	collision with: 0 5 0  and 1 6 0 
70613636		 # 	collision with: 2 2 0  and 2 4 0 
70613638		 # 	collision with: 0 0 0  and 8 2 0 
70613641		 # 	collision with: 9 2 0  and 4 3 0 
70613643		 # 	collision with: 4 7 0  and 0 0 1 
70613657		 # 	collision with: 8 4 0  and 7 6 0 
70613659		 # 	collision with: 10 0 0  and 6 1 0 
70613660		 # 	collision with: 7 3 0  and 9 4 0 
70613662		 # 	collision with: 9 7 0  and 0 0 1 
70613664		 # 	collision with: 7 0 0  and 1 1 0 
70613666		 # 	collision with: 1 8 0  and 8 0 1 
70613712		 # 	collision with: 7 9 0  and 6 1 1 
70613714		 # 	collision with: 5 0 0  and 2 1 0 
70613717		 # 	collision with: 6 4 0  and 4 6 0 
70613719		 # 	collision with: 0 3 0  and 2 3 0 
70613735		 # 	collision with: 3 5 0  and 9 0 1 
70613736		 # 	collision with: 7 5 0  and 3 6 0 
70613753		 # 	collision with: 6 3 0  and 6 4 0 
70613755		 # 	collision with: 1 2 0  and 9 4 0 
70613760		 # 	collision with: 1 4 0  and 3 4 0 
70613762		 # 	collision with: 3 6 0  and 0 2 1 
70613764		 # 	collision with: 8 10 0  and 0 0 1 
70613766		 # 	collision with: 2 10 0  and 3 10 0 
70613773		 # 	collision with: 3 2 0  and 6 4 0 
70613775		 # 	collision with: 5 10 0  and 4 1 1 
70613810		 # 	collision with: 9 0 0  and 7 2 0 
70613836		 # 	collision with: 3 7 0  and 2 0 1 
70613838		 # 	collision with: 5 1 0  and 9 2 0 
70613856		 # 	collision with: 2 2 0  and 4 3 0 
70613858		 # 	collision with: 2 5 0  and 5 6 0 
70613864		 # 	collision with: 5 1 0  and 0 2 0 
70613866		 # 	collision with: 1 4 0  and 2 6 0 
70613892		 # 	collision with: 5 0 0  and 6 1 0 
70613894		 # 	collision with: 5 2 0  and 2 3 0 
70613904		 # 	collision with: 2 7 0  and 7 0 1 
70613906		 # 	collision with: 6 0 0  and 5 2 0 
70613921		 # 	collision with: 6 4 0  and 4 6 0 
70613923		 # 	collision with: 10 4 0  and 5 6 0 
70613937		 # 	collision with: 6 4 0  and 4 6 0 
70613939		 # 	collision with: 5 4 0  and 3 6 0 
70613952		 # 	collision with: 9 9 0  and 2 1 1 
70613954		 # 	collision with: 1 0 1  and 10 1 1 
70613964		 # 	collision with: 5 4 0  and 2 6 0 
70613966		 # 	collision with: 2 6 0  and 4 7 0 
70613992		 # 	collision with: 8 1 0  and 1 2 1 
70613994		 # 	collision with: 9 0 0  and 4 2 0 
70614000		 # 	collision with: 3 2 0  and 6 3 0 
70614022		 # 	collision with: 4 10 0  and 5 1 1 
70614048		 # 	collision with: 6 0 0  and 7 1 0 
70614050		 # 	collision with: 8 10 0  and 2 4 1 
70614061		 # 	collision with: 0 0 0  and 1 1 0 
70614063		 # 	collision with: 2 5 0  and 5 0 1 
70614085		 # 	collision with: 4 4 0  and 8 5 0 
70614087		 # 	collision with: 2 5 0  and 3 6 0 
70614092		 # 	collision with: 3 2 0  and 9 4 0 
70614094		 # 	collision with: 2 5 0  and 3 6 0 
70614096		 # 	collision with: 5 1 0  and 8 3 0 
70614098		 # 	collision with: 4 7 0  and 6 7 0 
70614120		 # 	collision with: 4 1 0  and 8 3 0 
70614122		 # 	collision with: 2 4 0  and 9 6 0 
70614125		 # 	collision with: 5 0 0  and 3 1 0 
70614127		 # 	collision with: 3 4 0  and 1 5 0 
70614143		 # 	collision with: 4 2 0  and 10 4 0 
70614144		 # 	collision with: 0 4 0  and 8 5 0 
70614146		 # 	collision with: 10 0 0  and 6 1 0 
70614148		 # 	collision with: 6 0 0  and 7 1 0 
70614150		 # 	collision with: 2 4 0  and 9 5 0 
70614196		 # 	collision with: 4 6 0  and 0 4 1 
70614198		 # 	collision with: 9 10 0  and 3 0 1 
70614201		 # 	collision with: 1 3 0  and 4 5 0 
70614217		 # 	collision with: 4 4 0  and 9 5 0 
70614219		 # 	collision with: 5 2 0  and 0 3 0 
70614220		 # 	collision with: 10 5 0  and 3 6 0 
70614222		 # 	collision with: 7 2 0  and 7 3 0 
70614237		 # 	collision with: 9 2 0  and 2 4 0 
70614239		 # 	collision with: 1 10 0  and 3 3 1 
70614244		 # 	collision with: 8 1 0  and 10 2 0 
70614248		 # 	collision with: 9 2 0  and 9 3 0 
70614250		 # 	collision with: 6 2 0  and 6 0 1 
70614257		 # 	collision with: 8 0 0  and 8 2 0 
70614259		 # 	collision with: 9 5 0  and 9 6 0 
70614292		 # 	collision with: 8 2 0  and 6 4 0 
70614294		 # 	collision with: 6 0 0  and 6 2 0 
70614320		 # 	collision with: 7 5 0  and 3 6 0 
70614322		 # 	collision with: 1 1 0  and 7 3 0 
70614342		 # 	collision with: 6 2 0  and 0 3 0 
70614348		 # 	collision with: 9 9 0  and 1 0 1 
70614350		 # 	collision with: 4 8 0  and 6 1 1 
70614376		 # 	collision with: 0 0 0  and 1 1 1 
70614388		 # 	collision with: 8 0 0  and 8 2 0 
70614390		 # 	collision with: 0 5 0  and 1 6 0 
70614405		 # 	collision with: 0 3 0  and 2 3 0 
70614407		 # 	collision with: 5 2 0  and 6 2 0 
70614421		 # 	collision with: 5 0 0  and 3 1 0 
70614436		 # 	collision with: 9 4 0  and 4 6 0 
70614438		 # 	collision with: 10 9 0  and 6 1 1 
70614448		 # 	collision with: 6 3 0  and 1 5 0 
70614450		 # 	collision with: 6 1 0  and 3 3 0 
70614478		 # 	collision with: 0 8 0  and 1 8 0 
70614484		 # 	collision with: 4 1 0  and 5 1 0 
70614486		 # 	collision with: 5 3 0  and 9 5 0 
70614504		 # 	collision with: 2 2 0  and 4 3 0 
70614506		 # 	collision with: 5 3 0  and 6 0 1 
70614532		 # 	collision with: 2 1 0  and 1 3 0 
70614534		 # 	collision with: 5 1 0  and 9 2 0 
70614545		 # 	collision with: 0 3 0  and 7 4 0 
70614547		 # 	collision with: 9 0 0  and 4 2 0 
70614569		 # 	collision with: 7 4 0  and 7 6 0 
70614571		 # 	collision with: 1 4 0  and 1 5 0 
70614576		 # 	collision with: 2 5 0  and 4 5 0 
70614578		 # 	collision with: 10 1 0  and 1 2 0 
70614580		 # 	collision with: 0 0 0  and 1 1 1 
70614582		 # 	collision with: 5 7 0  and 1 3 1 
70614604		 # 	collision with: 5 0 0  and 3 1 0 
70614606		 # 	collision with: 2 0 0  and 7 1 0 
70614609		 # 	collision with: 7 0 0  and 8 1 0 
70614611		 # 	collision with: 2 5 0  and 5 6 0 
70614625		 # 	collision with: 3 6 0  and 5 6 0 
70614627		 # 	collision with: 1 4 0  and 3 4 0 
70614628		 # 	collision with: 6 0 0  and 2 1 0 
70614630		 # 	collision with: 1 4 0  and 3 4 0 
70614632		 # 	collision with: 8 0 0  and 2 3 1 
70614634		 # 	collision with: 1 3 0  and 0 5 0 
70614680		 # 	collision with: 3 0 0  and 5 1 0 
70614682		 # 	collision with: 5 4 0  and 4 5 0 
70614685		 # 	collision with: 10 4 0  and 6 6 0 
70614687		 # 	collision with: 5 0 0  and 7 1 0 
70614701		 # 	collision with: 7 4 0  and 7 6 0 
70614703		 # 	collision with: 6 6 0  and 1 1 1 
70614704		 # 	collision with: 9 2 0  and 2 4 0 
70614706		 # 	collision with: 0 2 0  and 4 3 0 
70614721		 # 	collision with: 3 6 0  and 0 0 1 
70614723		 # 	collision with: 0 6 0  and 7 2 1 
70614728		 # 	collision with: 3 4 0  and 3 5 0 
70614730		 # 	collision with: 5 4 0  and 4 5 0 
70614732		 # 	collision with: 2 2 0  and 3 1 1 
70614734		 # 	collision with: 6 1 0  and 10 3 0 
70614741		 # 	collision with: 4 2 0  and 1 4 0 
70614743		 # 	collision with: 5 3 0  and 9 5 0 
70614776		 # 	collision with: 6 0 0  and 7 1 0 
70614778		 # 	collision with: 7 2 0  and 10 4 0 
70614804		 # 	collision with: 8 1 0  and 1 0 1 
70614806		 # 	collision with: 5 4 0  and 4 5 0 
70614824		 # 	collision with: 5 2 0  and 1 0 1 
70614826		 # 	collision with: 5 4 0  and 4 5 0 
70614832		 # 	collision with: 7 4 0  and 7 6 0 
70614834		 # 	collision with: 5 4 0  and 4 5 0 
70614860		 # 	collision with: 0 3 0  and 2 3 0 
70614862		 # 	collision with: 5 4 0  and 4 5 0 
70614874		 # 	collision with: 5 4 0  and 4 5 0 
70614889		 # 	collision with: 2 0 0  and 3 1 0 
70614891		 # 	collision with: 5 0 0  and 2 1 0 
70614905		 # 	collision with: 0 0 0  and 10 2 0 
70614907		 # 	collision with: 9 0 0  and 4 2 0 
70614920		 # 	collision with: 9 2 0  and 4 3 0 
70614922		 # 	collision with: 4 1 0  and 5 1 0 
70614934		 # 	collision with: 5 4 0  and 4 5 0 
70614960		 # 	collision with: 0 1 0  and 8 2 0 
70614962		 # 	collision with: 5 4 0  and 4 5 0 
70614968		 # 	collision with: 10 4 0  and 6 6 0 
70614970		 # 	collision with: 5 4 0  and 4 5 0 
70614988		 # 	collision with: 2 0 0  and 6 1 0 
70614990		 # 	collision with: 5 4 0  and 4 5 0 
70615016		 # 	collision with: 1 9 0  and 2 9 0 
70615029		 # 	collision with: 4 3 0  and 2 4 0 
70615031		 # 	collision with: 4 6 0  and 8 0 1 
70615053		 # 	collision with: 6 0 0  and 2 1 0 
70615055		 # 	collision with: 1 2 0  and 9 4 0 
70615060		 # 	collision with: 1 1 0  and 10 2 0 
70615064		 # 	collision with: 8 1 0  and 1 2 0 
70615066		 # 	collision with: 5 4 0  and 4 5 0 
70615088		 # 	collision with: 7 0 0  and 8 1 0 
70615090		 # 	collision with: 5 4 0  and 4 5 0 
70615093		 # 	collision with: 4 1 0  and 0 2 0 
70615095		 # 	collision with: 9 1 0  and 1 3 0 
70615109		 # 	collision with: 5 0 0  and 6 1 0 
70615111		 # 	collision with: 1 3 0  and 6 5 0 
70615112		 # 	collision with: 8 0 1  and 10 1 1 
70615114		 # 	collision with: 5 4 0  and 4 5 0 
70615116		 # 	collision with: 2 1 0  and 9 0 1 
70615118		 # 	collision with: 5 1 0  and 6 1 1 
70615164		 # 	collision with: 4 8 0  and 8 0 1 
70615166		 # 	collision with: 6 1 0  and 10 3 0 
70615169		 # 	collision with: 8 1 0  and 3 1 1 
70615171		 # 	collision with: 0 0 0  and 1 1 1 
70615185		 # 	collision with: 9 0 0  and 8 1 1 
70615187		 # 	collision with: 10 2 0  and 9 4 0 
70615188		 # 	collision with: 5 1 0  and 5 3 0 
70615190		 # 	collision with: 4 2 0  and 6 3 0 
70615205		 # 	collision with: 4 4 0  and 8 5 0 
70615207		 # 	collision with: 3 4 0  and 5 5 0 
70615212		 # 	collision with: 7 2 0  and 3 4 0 
70615214		 # 	collision with: 0 0 0  and 1 1 1 
70615216		 # 	collision with: 8 2 0  and 6 3 0 
70615225		 # 	collision with: 3 8 0  and 4 0 1 
70615227		 # 	collision with: 0 10 0  and 7 1 1 
70615260		 # 	collision with: 10 0 0  and 8 2 0 
70615288		 # 	collision with: 8 5 0  and 2 0 1 
70615290		 # 	collision with: 0 2 0  and 9 3 0 
70615308		 # 	collision with: 7 8 0  and 9 0 1 
70615310		 # 	collision with: 1 3 0  and 6 5 0 
70615316		 # 	collision with: 8 1 0  and 5 0 1 
70615318		 # 	collision with: 8 8 0  and 0 1 1 
70615346		 # 	collision with: 2 4 0  and 9 5 0 
70615356		 # 	collision with: 9 4 0  and 1 5 0 
70615358		 # 	collision with: 1 1 0  and 7 3 0 
70615373		 # 	collision with: 10 2 0  and 8 0 1 
70615375		 # 	collision with: 0 0 0  and 1 1 1 
70615389		 # 	collision with: 10 0 0  and 9 1 0 
70615391		 # 	collision with: 9 0 0  and 8 1 0 
70615406		 # 	collision with: 8 5 0  and 0 0 1 
70615416		 # 	collision with: 1 2 0  and 1 0 1 
70615418		 # 	collision with: 4 2 0  and 6 0 1 
70615444		 # 	collision with: 4 1 0  and 5 1 0 
70615446		 # 	collision with: 8 1 0  and 7 3 0 
70615452		 # 	collision with: 8 4 0  and 1 6 0 
70615454		 # 	collision with: 7 2 0  and 7 3 0 
70615472		 # 	collision with: 8 0 0  and 9 1 0 
70615474		 # 	collision with: 1 2 0  and 9 4 0 
70615500		 # 	collision with: 0 0 0  and 1 1 1 
70615502		 # 	collision with: 2 0 0  and 9 1 1 
70615513		 # 	collision with: 4 1 0  and 1 0 1 
70615515		 # 	collision with: 8 5 0  and 9 6 0 
70615537		 # 	collision with: 0 1 0  and 6 3 0 
70615539		 # 	collision with: 9 3 0  and 0 4 0 
70615544		 # 	collision with: 7 3 0  and 9 4 0 
70615546		 # 	collision with: 3 1 0  and 3 3 0 
70615548		 # 	collision with: 8 4 0  and 7 6 0 
70615550		 # 	collision with: 1 1 0  and 7 2 0 
70615572		 # 	collision with: 0 3 0  and 8 4 0 
70615574		 # 	collision with: 1 4 0  and 3 4 0 
70615577		 # 	collision with: 7 0 0  and 1 2 0 
70615579		 # 	collision with: 5 0 0  and 2 1 0 
70615593		 # 	collision with: 10 5 0  and 5 6 0 
70615595		 # 	collision with: 7 5 0  and 0 6 0 
70615596		 # 	collision with: 10 5 0  and 3 6 0 
70615598		 # 	collision with: 10 2 0  and 6 4 0 
70615600		 # 	collision with: 0 1 0  and 3 2 0 
70615602		 # 	collision with: 2 9 0  and 7 0 1 
70615648		 # 	collision with: 4 0 0  and 4 1 0 
70615650		 # 	collision with: 4 8 0  and 10 1 1 
70615653		 # 	collision with: 4 2 0  and 3 4 0 
70615655		 # 	collision with: 6 2 0  and 2 3 0 
70615669		 # 	collision with: 0 1 0  and 7 3 0 
70615671		 # 	collision with: 5 4 0  and 4 5 0 
70615672		 # 	collision with: 2 10 0  and 3 10 0 
70615674		 # 	collision with: 4 3 0  and 1 1 1 
70615689		 # 	collision with: 1 4 0  and 3 4 0 
70615691		 # 	collision with: 4 3 0  and 4 4 0 
70615696		 # 	collision with: 0 0 0  and 1 1 1 
70615698		 # 	collision with: 2 0 0  and 2 1 0 
70615700		 # 	collision with: 9 0 0  and 10 1 0 
70615702		 # 	collision with: 2 4 0  and 9 5 0 
70615709		 # 	collision with: 6 3 0  and 5 5 0 
70615711		 # 	collision with: 5 4 0  and 4 5 0 
70615744		 # 	collision with: 5 5 0  and 4 6 0 
70615746		 # 	collision with: 7 2 0  and 6 3 0 
70615772		 # 	collision with: 10 3 0  and 10 0 1 
70615774		 # 	collision with: 0 1 0  and 1 3 0 
70615792		 # 	collision with: 2 1 0  and 0 2 1 
70615794		 # 	collision with: 6 2 0  and 0 0 1 
70615802		 # 	collision with: 1 4 0  and 1 5 0 
70615828		 # 	collision with: 4 3 0  and 2 4 0 
70615830		 # 	collision with: 5 2 0  and 6 2 0 
70615840		 # 	collision with: 0 3 0  and 2 3 0 
70615842		 # 	collision with: 6 9 0  and 8 3 1 
70615857		 # 	collision with: 8 5 0  and 2 0 1 
70615873		 # 	collision with: 6 4 0  and 5 5 0 
70615875		 # 	collision with: 5 4 0  and 4 5 0 
70615888		 # 	collision with: 0 0 0  and 10 2 0 
70615890		 # 	collision with: 10 4 0  and 2 5 0 
70615900		 # 	collision with: 8 1 0  and 8 0 1 
70615928		 # 	collision with: 3 1 0  and 4 0 1 
70615930		 # 	collision with: 6 5 0  and 7 6 0 
70615938		 # 	collision with: 7 0 0  and 3 2 0 
70615956		 # 	collision with: 3 3 0  and 1 4 1 
70615958		 # 	collision with: 2 5 0  and 4 1 1 
70615984		 # 	collision with: 8 5 0  and 3 0 1 
70615986		 # 	collision with: 3 6 0  and 5 6 0 
70615997		 # 	collision with: 5 10 0  and 9 0 1 
70615999		 # 	collision with: 1 1 0  and 6 3 0 
70616021		 # 	collision with: 8 0 1  and 1 2 1 
70616023		 # 	collision with: 5 4 0  and 4 5 0 
70616028		 # 	collision with: 7 5 0  and 3 6 0 
70616030		 # 	collision with: 7 3 0  and 5 4 0 
70616032		 # 	collision with: 6 0 0  and 7 1 0 
70616056		 # 	collision with: 1 6 0  and 3 2 1 
70616058		 # 	collision with: 0 0 0  and 1 1 1 
70616061		 # 	collision with: 5 4 0  and 0 0 1 
70616063		 # 	collision with: 5 4 0  and 4 5 0 
70616077		 # 	collision with: 9 3 0  and 2 4 0 
70616080		 # 	collision with: 4 10 0  and 9 0 1 
70616082		 # 	collision with: 4 1 0  and 9 2 0 
70616084		 # 	collision with: 0 4 0  and 9 5 0 
70616086		 # 	collision with: 3 4 0  and 1 5 0 
70616132		 # 	collision with: 6 0 0  and 7 1 0 
70616134		 # 	collision with: 0 0 0  and 8 2 0 
70616139		 # 	collision with: 2 0 0  and 2 1 0 
70616153		 # 	collision with: 5 4 0  and 3 0 1 
70616155		 # 	collision with: 0 0 0  and 3 2 0 
70616156		 # 	collision with: 7 5 0  and 4 0 1 
70616158		 # 	collision with: 5 7 0  and 7 3 1 
70616173		 # 	collision with: 4 4 0  and 9 5 0 
70616175		 # 	collision with: 3 4 0  and 6 6 0 
70616180		 # 	collision with: 6 6 0  and 6 1 1 
70616182		 # 	collision with: 8 5 0  and 10 6 0 
70616184		 # 	collision with: 3 2 0  and 6 3 0 
70616186		 # 	collision with: 7 3 0  and 4 5 0 
70616193		 # 	collision with: 1 5 0  and 0 0 1 
70616195		 # 	collision with: 4 5 0  and 5 6 0 
70616228		 # 	collision with: 6 4 0  and 5 5 0 
70616230		 # 	collision with: 8 1 0  and 7 2 0 
70616258		 # 	collision with: 5 1 0  and 2 2 0 
70616276		 # 	collision with: 7 7 0  and 4 2 1 
70616284		 # 	collision with: 5 4 0  and 0 0 1 
70616286		 # 	collision with: 7 8 0  and 6 0 1 
70616312		 # 	collision with: 9 7 0  and 1 0 1 
70616314		 # 	collision with: 9 0 0  and 1 1 0 
70616324		 # 	collision with: 0 2 0  and 5 3 0 
70616326		 # 	collision with: 5 3 0  and 8 5 0 
70616341		 # 	collision with: 9 4 0  and 1 5 0 
70616343		 # 	collision with: 9 3 0  and 0 4 0 
70616357		 # 	collision with: 8 1 0  and 10 2 0 
70616359		 # 	collision with: 7 2 0  and 5 4 0 
70616372		 # 	collision with: 9 2 0  and 2 4 0 
70616374		 # 	collision with: 0 1 0  and 1 3 0 
70616384		 # 	collision with: 7 1 0  and 1 3 0 
70616386		 # 	collision with: 1 8 0  and 8 0 1 
70616412		 # 	collision with: 7 8 0  and 7 0 1 
70616414		 # 	collision with: 8 1 0  and 6 0 1 
70616420		 # 	collision with: 3 2 0  and 7 3 0 
70616422		 # 	collision with: 10 2 0  and 9 4 0 
70616440		 # 	collision with: 8 4 0  and 7 0 1 
70616442		 # 	collision with: 10 1 0  and 10 2 0 
70616470		 # 	collision with: 5 4 0  and 2 5 0 
70616481		 # 	collision with: 4 2 0  and 1 4 0 
70616483		 # 	collision with: 3 2 0  and 4 1 1 
70616505		 # 	collision with: 0 0 0  and 10 2 0 
70616507		 # 	collision with: 4 2 0  and 10 4 0 
70616512		 # 	collision with: 9 1 0  and 6 3 0 
70616514		 # 	collision with: 8 3 0  and 2 4 0 
70616516		 # 	collision with: 7 2 0  and 1 4 0 
70616518		 # 	collision with: 1 1 0  and 4 2 0 
70616540		 # 	collision with: 8 6 0  and 8 0 1 
70616547		 # 	collision with: 5 1 0  and 9 2 0 
70616561		 # 	collision with: 0 1 0  and 6 3 0 
70616563		 # 	collision with: 5 0 0  and 7 1 0 
70616564		 # 	collision with: 6 3 0  and 1 5 0 
70616566		 # 	collision with: 8 3 0  and 8 5 0 
70616568		 # 	collision with: 2 7 0  and 1 0 1 
70616570		 # 	collision with: 10 8 0  and 5 0 1 
70616616		 # 	collision with: 0 0 0  and 1 1 1 
70616618		 # 	collision with: 10 9 0  and 5 0 1 
70616621		 # 	collision with: 0 0 0  and 1 2 0 
70616623		 # 	collision with: 1 1 0  and 6 3 0 
70616637		 # 	collision with: 5 1 0  and 8 3 0 
70616639		 # 	collision with: 5 1 0  and 5 0 1 
70616640		 # 	collision with: 1 9 0  and 2 0 1 
70616642		 # 	collision with: 1 1 0  and 4 2 0 
70616657		 # 	collision with: 7 5 0  and 3 6 0 
70616659		 # 	collision with: 10 2 0  and 9 4 0 
70616664		 # 	collision with: 1 3 0  and 4 5 0 
70616666		 # 	collision with: 10 3 0  and 0 0 1 
70616670		 # 	collision with: 4 1 0  and 9 2 0 
70616677		 # 	collision with: 1 4 0  and 3 4 0 
70616679		 # 	collision with: 2 4 0  and 9 5 0 
70616712		 # 	collision with: 7 3 0  and 6 4 0 
70616714		 # 	collision with: 9 0 0  and 8 1 0 
70616740		 # 	collision with: 9 2 0  and 4 3 0 
70616760		 # 	collision with: 6 0 0  and 7 1 0 
70616762		 # 	collision with: 8 1 0  and 0 1 1 
70616768		 # 	collision with: 0 0 0  and 1 1 0 
70616770		 # 	collision with: 5 2 0  and 2 0 1 
70616796		 # 	collision with: 1 3 0  and 3 0 1 
70616798		 # 	collision with: 0 4 0  and 5 0 1 
70616808		 # 	collision with: 4 1 0  and 8 3 0 
70616810		 # 	collision with: 3 4 0  and 5 5 0 
70616825		 # 	collision with: 0 1 0  and 7 3 0 
70616827		 # 	collision with: 5 9 0  and 1 0 1 
70616841		 # 	collision with: 9 1 0  and 8 2 0 
70616843		 # 	collision with: 2 0 0  and 2 1 0 
70616856		 # 	collision with: 8 2 0  and 6 3 0 
70616858		 # 	collision with: 6 2 0  and 2 3 0 
70616868		 # 	collision with: 0 6 0  and 9 2 1 
70616870		 # 	collision with: 8 0 0  and 3 1 0 
70616896		 # 	collision with: 7 5 0  and 5 6 0 
70616898		 # 	collision with: 2 4 0  and 9 5 0 
70616904		 # 	collision with: 5 1 0  and 5 3 0 
70616906		 # 	collision with: 2 4 0  and 10 6 0 
70616924		 # 	collision with: 9 1 0  and 0 0 1 
70616926		 # 	collision with: 8 5 0  and 9 6 0 
70616952		 # 	collision with: 0 0 0  and 8 1 0 
70616954		 # 	collision with: 3 1 0  and 3 3 0 
70616965		 # 	collision with: 3 3 0  and 1 0 1 
70616967		 # 	collision with: 4 2 0  and 6 3 0 
70616989		 # 	collision with: 4 2 0  and 0 0 1 
70616991		 # 	collision with: 10 4 0  and 4 5 0 
70616996		 # 	collision with: 10 3 0  and 10 5 0 
70616998		 # 	collision with: 1 4 0  and 5 5 0 
70617002		 # 	collision with: 0 2 0  and 9 3 0 
70617024		 # 	collision with: 6 3 0  and 9 4 0 
70617026		 # 	collision with: 5 3 0  and 2 4 0 
70617029		 # 	collision with: 5 3 0  and 6 0 1 
70617031		 # 	collision with: 1 4 0  and 3 4 0 
70617045		 # 	collision with: 4 3 0  and 2 4 0 
70617047		 # 	collision with: 0 1 0  and 1 3 0 
70617048		 # 	collision with: 6 3 0  and 5 5 0 
70617052		 # 	collision with: 6 1 0  and 8 0 1 
70617054		 # 	collision with: 5 2 0  and 0 3 0 
70617100		 # 	collision with: 2 2 0  and 9 3 0 
70617102		 # 	collision with: 0 0 0  and 3 2 0 
70617105		 # 	collision with: 3 4 0  and 3 5 0 
70617107		 # 	collision with: 6 3 0  and 2 0 1 
70617121		 # 	collision with: 7 10 0  and 0 0 1 
70617123		 # 	collision with: 7 5 0  and 0 6 0 
70617126		 # 	collision with: 6 9 0  and 1 0 1 
70617143		 # 	collision with: 10 4 0  and 5 6 0 
70617148		 # 	collision with: 0 0 0  and 1 2 0 
70617150		 # 	collision with: 4 2 0  and 10 1 1 
70617152		 # 	collision with: 1 4 0  and 3 4 0 
70617154		 # 	collision with: 6 0 0  and 6 2 0 
70617161		 # 	collision with: 6 3 0  and 8 1 1 
70617196		 # 	collision with: 10 0 0  and 3 2 0 
70617198		 # 	collision with: 5 4 0  and 3 6 0 
70617224		 # 	collision with: 9 4 0  and 1 5 0 
70617226		 # 	collision with: 7 1 0  and 3 1 1 
70617244		 # 	collision with: 3 1 0  and 6 0 1 
70617246		 # 	collision with: 8 0 0  and 6 1 0 
70617252		 # 	collision with: 7 5 0  and 3 6 0 
70617254		 # 	collision with: 2 4 0  and 9 5 0 
70617280		 # 	collision with: 6 5 0  and 8 6 0 
70617282		 # 	collision with: 7 10 0  and 0 0 1 
70617292		 # 	collision with: 5 4 0  and 2 6 0 
70617309		 # 	collision with: 6 5 0  and 8 6 0 
70617311		 # 	collision with: 1 3 0  and 0 5 0 
70617325		 # 	collision with: 5 5 0  and 4 6 0 
70617327		 # 	collision with: 4 5 0  and 3 6 0 
70617340		 # 	collision with: 5 4 0  and 2 0 1 
70617342		 # 	collision with: 2 0 0  and 7 1 0 
70617352		 # 	collision with: 6 0 0  and 9 1 1 
70617354		 # 	collision with: 7 0 0  and 3 2 0 
70617380		 # 	collision with: 8 0 0  and 8 2 0 
70617388		 # 	collision with: 6 0 0  and 7 1 0 
70617390		 # 	collision with: 0 8 0  and 1 8 0 
70617408		 # 	collision with: 4 2 0  and 3 4 0 
70617410		 # 	collision with: 5 5 0  and 2 6 0 
70617436		 # 	collision with: 5 0 0  and 3 1 0 
70617438		 # 	collision with: 9 0 0  and 4 2 0 
70617449		 # 	collision with: 10 6 0  and 0 0 1 
70617451		 # 	collision with: 1 4 0  and 4 0 1 
70617475		 # 	collision with: 1 3 0  and 3 0 1 
70617480		 # 	collision with: 6 5 0  and 8 7 0 
70617482		 # 	collision with: 4 7 0  and 6 7 0 
70617484		 # 	collision with: 2 5 0  and 4 5 0 
70617486		 # 	collision with: 5 8 0  and 3 0 1 
70617508		 # 	collision with: 6 4 0  and 1 5 0 
70617510		 # 	collision with: 4 2 0  and 7 3 0 
70617513		 # 	collision with: 9 5 0  and 1 0 1 
70617529		 # 	collision with: 4 1 0  and 8 3 0 
70617531		 # 	collision with: 8 1 0  and 7 3 0 
70617534		 # 	collision with: 1 4 0  and 6 6 0 
70617588		 # 	collision with: 5 4 0  and 7 5 0 
70617590		 # 	collision with: 8 2 0  and 9 3 0 
70617604		 # 	collision with: 0 0 0  and 6 1 0 
70617606		 # 	collision with: 8 2 0  and 9 3 0 
70617617		 # 	collision with: 3 0 0  and 1 2 0 
70617619		 # 	collision with: 7 3 0  and 8 4 0 
70617621		 # 	collision with: 6 7 0  and 3 0 1 
70617623		 # 	collision with: 7 3 0  and 8 4 0 
70617628		 # 	collision with: 0 4 0  and 2 2 1 
70617630		 # 	collision with: 10 0 0  and 5 2 0 
70617640		 # 	collision with: 2 2 0  and 4 4 0 
70617642		 # 	collision with: 8 2 0  and 9 3 0 
70617649		 # 	collision with: 3 1 0  and 9 3 0 
70617651		 # 	collision with: 10 1 0  and 1 2 0 
70617665		 # 	collision with: 1 3 0  and 2 3 0 
70617667		 # 	collision with: 7 3 0  and 8 4 0 
70617692		 # 	collision with: 2 0 0  and 10 2 0 
70617694		 # 	collision with: 3 0 0  and 6 1 0 
70617696		 # 	collision with: 0 0 0  and 1 1 1 
70617698		 # 	collision with: 8 2 0  and 9 3 0 
70617720		 # 	collision with: 0 5 0  and 1 6 0 
70617722		 # 	collision with: 8 2 0  and 9 3 0 
70617744		 # 	collision with: 6 8 0  and 0 3 1 
70617746		 # 	collision with: 8 2 0  and 9 3 0 
70617788		 # 	collision with: 1 8 0  and 8 0 1 
70617790		 # 	collision with: 8 2 0  and 9 3 0 
70617795		 # 	collision with: 7 3 0  and 8 4 0 
70617796		 # 	collision with: 0 8 0  and 4 0 1 
70617798		 # 	collision with: 10 0 0  and 8 1 0 
70617804		 # 	collision with: 5 3 0  and 2 4 0 
70617806		 # 	collision with: 8 2 0  and 9 3 0 
70617811		 # 	collision with: 7 3 0  and 8 4 0 
70617812		 # 	collision with: 3 0 0  and 1 1 0 
70617814		 # 	collision with: 8 2 0  and 9 3 0 
70617856		 # 	collision with: 2 10 0  and 4 0 1 
70617858		 # 	collision with: 8 2 0  and 9 3 0 
70617880		 # 	collision with: 7 1 0  and 10 2 0 
70617882		 # 	collision with: 8 2 0  and 9 3 0 
70617904		 # 	collision with: 4 1 0  and 1 3 0 
70617906		 # 	collision with: 8 2 0  and 9 3 0 
70617908		 # 	collision with: 2 0 0  and 1 2 0 
70617910		 # 	collision with: 8 2 0  and 9 3 0 
70617937		 # 	collision with: 3 1 0  and 2 2 0 
70617939		 # 	collision with: 7 3 0  and 8 4 0 
70617953		 # 	collision with: 0 0 0  and 2 1 0 
70617955		 # 	collision with: 7 3 0  and 8 4 0 
70617960		 # 	collision with: 7 5 0  and 3 0 1 
70617962		 # 	collision with: 8 2 0  and 9 3 0 
70617972		 # 	collision with: 7 4 0  and 5 6 0 
70617974		 # 	collision with: 5 1 0  and 3 3 0 
70617981		 # 	collision with: 7 4 0  and 4 3 1 
70617983		 # 	collision with: 7 3 0  and 8 4 0 
70617985		 # 	collision with: 3 0 0  and 10 2 0 
70617987		 # 	collision with: 7 3 0  and 8 4 0 
70617996		 # 	collision with: 5 5 0  and 2 6 0 
70617998		 # 	collision with: 8 2 0  and 9 3 0 
70618012		 # 	collision with: 4 1 0  and 2 3 0 
70618014		 # 	collision with: 4 1 0  and 3 2 0 
70618020		 # 	collision with: 4 7 0  and 0 0 1 
70618022		 # 	collision with: 9 2 0  and 3 3 1 
70618072		 # 	collision with: 7 1 0  and 10 2 0 
70618074		 # 	collision with: 0 9 0  and 9 1 1 
70618088		 # 	collision with: 9 2 0  and 5 3 0 
70618090		 # 	collision with: 0 4 0  and 7 5 0 
70618101		 # 	collision with: 6 4 0  and 5 5 0 
70618103		 # 	collision with: 6 0 0  and 8 1 0 
70618107		 # 	collision with: 8 0 0  and 3 1 0 
70618112		 # 	collision with: 0 5 0  and 8 0 1 
70618124		 # 	collision with: 5 1 0  and 5 3 0 
70618126		 # 	collision with: 3 1 0  and 0 3 0 
70618133		 # 	collision with: 1 3 0  and 2 3 0 
70618135		 # 	collision with: 6 2 0  and 4 3 0 
70618149		 # 	collision with: 1 10 0  and 7 0 1 
70618151		 # 	collision with: 6 2 0  and 4 3 0 
70618176		 # 	collision with: 10 4 0  and 7 6 0 
70618178		 # 	collision with: 5 9 0  and 8 1 1 
70618182		 # 	collision with: 1 5 0  and 7 6 0 
70618204		 # 	collision with: 8 0 0  and 8 2 0 
70618206		 # 	collision with: 5 2 0  and 2 4 0 
70618228		 # 	collision with: 1 1 0  and 10 2 0 
70618230		 # 	collision with: 9 9 0  and 5 0 1 
70618272		 # 	collision with: 4 0 0  and 6 2 0 
70618274		 # 	collision with: 5 2 0  and 10 3 0 
70618277		 # 	collision with: 4 0 0  and 4 1 0 
70618279		 # 	collision with: 6 2 0  and 4 3 0 
70618280		 # 	collision with: 3 1 0  and 5 1 0 
70618282		 # 	collision with: 8 0 0  and 3 1 0 
70618288		 # 	collision with: 8 8 0  and 10 0 1 
70618290		 # 	collision with: 5 5 0  and 6 0 1 
70618293		 # 	collision with: 0 0 0  and 1 1 1 
70618295		 # 	collision with: 6 2 0  and 4 3 0 
70618296		 # 	collision with: 5 0 0  and 2 1 0 
70618298		 # 	collision with: 10 0 0  and 6 2 0 
70618340		 # 	collision with: 1 8 0  and 7 0 1 
70618342		 # 	collision with: 3 1 0  and 3 3 0 
70618364		 # 	collision with: 1 5 0  and 6 0 1 
70618366		 # 	collision with: 7 5 0  and 2 1 1 
70618388		 # 	collision with: 8 3 0  and 5 5 0 
70618390		 # 	collision with: 7 9 0  and 5 0 1 
70618394		 # 	collision with: 1 9 0  and 7 0 1 
70618421		 # 	collision with: 7 1 0  and 1 2 0 
70618423		 # 	collision with: 6 2 0  and 4 3 0 
70618437		 # 	collision with: 10 3 0  and 10 5 0 
70618439		 # 	collision with: 6 2 0  and 4 3 0 
70618444		 # 	collision with: 10 2 0  and 0 4 0 
70618446		 # 	collision with: 1 3 0  and 2 3 0 
70618456		 # 	collision with: 4 1 0  and 2 3 0 
70618458		 # 	collision with: 8 0 0  and 5 1 0 
70618465		 # 	collision with: 5 1 0  and 9 2 0 
70618467		 # 	collision with: 3 0 0  and 6 1 0 
70618471		 # 	collision with: 6 2 0  and 4 3 0 
70618480		 # 	collision with: 0 0 0  and 6 1 0 
70618482		 # 	collision with: 9 7 0  and 3 0 1 
70618496		 # 	collision with: 6 4 0  and 5 5 0 
70618504		 # 	collision with: 5 6 0  and 2 7 0 
70618506		 # 	collision with: 4 0 0  and 9 2 0 
70618556		 # 	collision with: 6 3 0  and 5 5 0 
70618558		 # 	collision with: 3 5 0  and 9 1 1 
70618572		 # 	collision with: 7 9 0  and 0 1 1 
70618574		 # 	collision with: 1 7 0  and 3 7 0 
70618585		 # 	collision with: 3 0 0  and 10 2 0 
70618587		 # 	collision with: 8 5 0  and 7 6 0 
70618589		 # 	collision with: 0 7 0  and 3 0 1 
70618596		 # 	collision with: 4 4 0  and 3 0 1 
70618598		 # 	collision with: 5 2 0  and 4 4 0 
70618608		 # 	collision with: 3 2 0  and 10 3 0 
70618610		 # 	collision with: 10 1 0  and 10 2 0 
70618617		 # 	collision with: 10 4 0  and 5 6 0 
70618619		 # 	collision with: 9 1 0  and 5 2 1 
70618633		 # 	collision with: 0 10 0  and 5 0 1 
70618635		 # 	collision with: 10 6 0  and 6 0 1 
70618660		 # 	collision with: 4 0 0  and 6 2 0 
70618662		 # 	collision with: 0 5 0  and 9 6 0 
70618664		 # 	collision with: 8 0 0  and 3 2 0 
70618666		 # 	collision with: 10 2 0  and 5 1 1 
70618688		 # 	collision with: 5 2 0  and 1 3 0 
70618712		 # 	collision with: 9 9 0  and 2 2 1 
70618714		 # 	collision with: 0 1 0  and 10 3 0 
70618756		 # 	collision with: 6 4 0  and 4 5 0 
70618758		 # 	collision with: 6 2 0  and 2 4 0 
70618761		 # 	collision with: 10 6 0  and 6 0 1 
70618763		 # 	collision with: 0 5 0  and 3 6 0 
70618766		 # 	collision with: 5 2 0  and 6 2 0 
70618772		 # 	collision with: 5 4 0  and 7 5 0 
70618774		 # 	collision with: 2 0 0  and 6 1 0 
70618777		 # 	collision with: 1 2 0  and 6 3 0 
70618779		 # 	collision with: 2 4 0  and 3 0 1 
70618782		 # 	collision with: 7 4 0  and 3 5 0 
70618824		 # 	collision with: 0 6 0  and 9 1 1 
70618826		 # 	collision with: 10 1 0  and 1 1 1 
70618848		 # 	collision with: 1 2 0  and 6 3 0 
70618850		 # 	collision with: 9 3 0  and 1 1 1 
70618872		 # 	collision with: 0 0 0  and 6 1 0 
70618874		 # 	collision with: 1 1 0  and 4 1 1 
70618876		 # 	collision with: 6 2 0  and 1 3 0 
70618878		 # 	collision with: 3 1 0  and 3 0 1 
70618905		 # 	collision with: 5 2 0  and 3 4 0 
70618907		 # 	collision with: 4 0 0  and 2 2 0 
70618921		 # 	collision with: 4 1 0  and 1 3 0 
70618923		 # 	collision with: 1 2 0  and 2 0 1 
70618928		 # 	collision with: 1 1 0  and 1 2 0 
70618940		 # 	collision with: 6 4 0  and 5 5 0 
70618942		 # 	collision with: 4 1 0  and 3 2 0 
70618949		 # 	collision with: 8 9 0  and 5 1 1 
70618951		 # 	collision with: 7 10 0  and 7 0 1 
70618953		 # 	collision with: 6 3 0  and 0 4 0 
70618955		 # 	collision with: 6 3 0  and 1 4 0 
70618964		 # 	collision with: 2 1 0  and 5 2 1 
70618966		 # 	collision with: 3 0 0  and 6 1 0 
70618980		 # 	collision with: 3 1 0  and 2 2 0 
70618982		 # 	collision with: 4 0 0  and 2 2 0 
70618988		 # 	collision with: 3 0 0  and 10 2 0 
70618990		 # 	collision with: 10 3 0  and 4 4 0 
70619040		 # 	collision with: 8 0 0  and 8 2 0 
70619042		 # 	collision with: 8 2 0  and 5 3 0 
70619056		 # 	collision with: 5 1 0  and 2 2 0 
70619058		 # 	collision with: 4 1 0  and 8 2 0 
70619069		 # 	collision with: 2 0 0  and 1 1 0 
70619073		 # 	collision with: 0 4 0  and 4 5 0 
70619075		 # 	collision with: 10 0 0  and 5 2 0 
70619080		 # 	collision with: 4 4 0  and 4 1 1 
70619082		 # 	collision with: 4 3 0  and 4 4 0 
70619094		 # 	collision with: 10 1 0  and 1 2 0 
70619101		 # 	collision with: 3 0 0  and 1 1 0 
70619103		 # 	collision with: 2 0 0  and 6 1 0 
70619117		 # 	collision with: 4 5 0  and 2 6 0 
70619144		 # 	collision with: 4 1 0  and 1 3 0 
70619146		 # 	collision with: 10 1 0  and 0 0 1 
70619148		 # 	collision with: 4 6 0  and 1 1 1 
70619150		 # 	collision with: 7 5 0  and 0 1 1 
70619172		 # 	collision with: 1 2 0  and 0 4 0 
70619174		 # 	collision with: 1 4 0  and 5 6 0 
70619196		 # 	collision with: 7 1 0  and 8 3 0 
70619198		 # 	collision with: 3 1 0  and 5 1 0 
70619240		 # 	collision with: 3 1 0  and 5 1 0 
70619242		 # 	collision with: 8 1 0  and 5 2 0 
70619245		 # 	collision with: 1 3 0  and 3 5 0 
70619247		 # 	collision with: 8 4 0  and 4 5 0 
70619248		 # 	collision with: 4 7 0  and 3 0 1 
70619250		 # 	collision with: 6 0 0  and 6 2 0 
70619256		 # 	collision with: 4 3 0  and 10 5 0 
70619258		 # 	collision with: 7 6 0  and 7 0 1 
70619261		 # 	collision with: 4 5 0  and 5 2 1 
70619263		 # 	collision with: 0 4 0  and 2 5 0 
70619264		 # 	collision with: 0 0 0  and 6 1 0 
70619308		 # 	collision with: 0 10 0  and 2 10 0 
70619310		 # 	collision with: 1 2 0  and 0 0 1 
70619332		 # 	collision with: 2 2 0  and 4 4 0 
70619334		 # 	collision with: 5 0 1  and 10 1 1 
70619356		 # 	collision with: 0 0 0  and 2 1 0 
70619358		 # 	collision with: 0 2 0  and 6 4 0 
70619360		 # 	collision with: 2 8 0  and 8 3 1 
70619389		 # 	collision with: 3 0 0  and 1 2 0 
70619391		 # 	collision with: 7 4 0  and 6 5 0 
70619405		 # 	collision with: 0 5 0  and 1 6 0 
70619407		 # 	collision with: 2 4 0  and 9 5 0 
70619412		 # 	collision with: 9 2 0  and 5 3 0 
70619414		 # 	collision with: 9 1 0  and 0 0 1 
70619426		 # 	collision with: 1 3 0  and 2 3 0 
70619433		 # 	collision with: 10 2 0  and 3 1 1 
70619435		 # 	collision with: 1 1 0  and 1 0 1 
70619437		 # 	collision with: 1 3 0  and 4 1 1 
70619439		 # 	collision with: 4 5 0  and 5 5 0 
70619448		 # 	collision with: 4 1 0  and 10 0 1 
70619450		 # 	collision with: 2 4 0  and 9 6 0 
70619464		 # 	collision with: 6 3 0  and 4 5 0 
70619466		 # 	collision with: 6 3 0  and 5 4 0 
70619472		 # 	collision with: 5 4 0  and 7 5 0 
70619474		 # 	collision with: 0 5 0  and 3 6 0 
70619524		 # 	collision with: 4 9 0  and 6 9 0 
70619526		 # 	collision with: 2 5 0  and 8 0 1 
70619542		 # 	collision with: 9 10 0  and 4 2 1 
70619553		 # 	collision with: 5 0 0  and 6 1 0 
70619555		 # 	collision with: 4 1 0  and 3 2 0 
70619557		 # 	collision with: 2 2 0  and 5 3 0 
70619559		 # 	collision with: 1 6 0  and 9 1 1 
70619564		 # 	collision with: 10 1 0  and 10 0 1 
70619566		 # 	collision with: 8 1 0  and 6 2 0 
70619576		 # 	collision with: 3 1 0  and 9 2 0 
70619578		 # 	collision with: 4 4 0  and 0 5 0 
70619585		 # 	collision with: 2 2 0  and 5 3 0 
70619587		 # 	collision with: 7 5 0  and 8 0 1 
70619603		 # 	collision with: 2 9 0  and 5 0 1 
70619628		 # 	collision with: 3 0 0  and 7 1 0 
70619630		 # 	collision with: 6 6 0  and 6 0 1 
70619632		 # 	collision with: 8 2 0  and 4 3 0 
70619634		 # 	collision with: 6 1 0  and 6 0 1 
70619656		 # 	collision with: 0 0 0  and 6 1 0 
70619658		 # 	collision with: 10 4 0  and 6 5 0 
70619680		 # 	collision with: 1 4 0  and 2 5 0 
70619682		 # 	collision with: 9 5 0  and 7 0 1 
70619724		 # 	collision with: 10 8 0  and 2 0 1 
70619726		 # 	collision with: 1 5 0  and 7 6 0 
70619729		 # 	collision with: 2 2 0  and 5 3 0 
70619731		 # 	collision with: 5 2 0  and 6 2 0 
70619732		 # 	collision with: 1 5 0  and 5 0 1 
70619734		 # 	collision with: 7 1 0  and 7 0 1 
70619740		 # 	collision with: 8 10 0  and 2 1 1 
70619742		 # 	collision with: 9 4 0  and 4 5 0 
70619745		 # 	collision with: 2 2 0  and 5 3 0 
70619748		 # 	collision with: 3 4 0  and 0 1 1 
70619750		 # 	collision with: 3 1 0  and 3 3 0 
70619792		 # 	collision with: 8 8 0  and 0 2 1 
70619816		 # 	collision with: 9 9 0  and 0 2 1 
70619818		 # 	collision with: 4 1 0  and 9 3 0 
70619840		 # 	collision with: 5 1 0  and 5 3 0 
70619844		 # 	collision with: 1 3 0  and 6 5 0 
70619846		 # 	collision with: 2 8 0  and 10 1 1 
70619873		 # 	collision with: 2 2 0  and 5 3 0 
70619875		 # 	collision with: 5 2 0  and 4 3 0 
70619896		 # 	collision with: 7 1 0  and 1 2 0 
70619898		 # 	collision with: 2 0 0  and 2 1 0 
70619908		 # 	collision with: 6 3 0  and 4 5 0 
70619910		 # 	collision with: 4 0 0  and 2 2 0 
70619917		 # 	collision with: 2 2 0  and 5 3 0 
70619919		 # 	collision with: 1 9 0  and 9 0 1 
70619921		 # 	collision with: 2 2 0  and 5 3 0 
70619923		 # 	collision with: 7 3 0  and 9 4 0 
70619932		 # 	collision with: 10 2 0  and 6 4 0 
70619934		 # 	collision with: 8 3 0  and 1 4 0 
70619950		 # 	collision with: 3 0 0  and 2 1 0 
70619956		 # 	collision with: 1 9 0  and 9 0 1 
70619958		 # 	collision with: 2 5 0  and 0 0 1 
21.4629secs	14813
