# prime 11
# degree 2
# input variables 3
# output variables 4
# reload computed balance functions from file balance-1009of3248-p11d2m3-debug.log
# p = 11
# n = 4
# smalldomain p^m 1331
# domain p^n 14641
#	 p^2 = 121
#	 p^3 = 1331
#	 p^4 = 14641
#	 p^5 = 161051
#	 p^6 = 1771561
#	 p^7 = 19487171
#	 p^8 = 214358881
#	 p^9 = 2357947691
opening file : balance-1009of3248-p11d2m3-debug.log
reloading for step2...
6054016		 # 	collision with: 4 7 0 0  and 6 7 0 0 
6054018		 # 	collision with: 9 7 0 0  and 2 4 1 0 
6054037		 # 	collision with: 3 10 0 0  and 4 10 0 0 
6054039		 # 	collision with: 2 1 1 0  and 2 1 3 0 
6054064		 # 	collision with: 4 8 0 0  and 5 8 0 0 
6054066		 # 	collision with: 4 2 0 0  and 5 0 1 0 
6054069		 # 	collision with: 2 1 0 0  and 3 1 0 0 
6054071		 # 	collision with: 1 8 0 0  and 8 7 2 0 
6054112		 # 	collision with: 1 2 0 0  and 3 2 0 0 
6054114		 # 	collision with: 8 5 0 0  and 3 6 1 0 
6054125		 # 	collision with: 3 10 0 0  and 4 10 0 0 
6054127		 # 	collision with: 6 3 0 0  and 8 1 1 0 
6054149		 # 	collision with: 1 2 0 0  and 3 2 0 0 
6054151		 # 	collision with: 9 1 0 0  and 1 0 1 0 
6054160		 # 	collision with: 3 9 0 0  and 5 9 0 0 
6054205		 # 	collision with: 1 3 0 0  and 2 3 0 0 
6054207		 # 	collision with: 8 1 1 0  and 8 3 1 0 
6054208		 # 	collision with: 1 3 0 0  and 2 3 0 0 
6054210		 # 	collision with: 7 2 0 0  and 9 0 1 0 
6054237		 # 	collision with: 1 2 0 0  and 3 2 0 0 
6054256		 # 	collision with: 0 4 0 0  and 2 4 0 0 
6054258		 # 	collision with: 10 9 0 0  and 1 2 1 0 
6054306		 # 	collision with: 10 4 0 0  and 2 9 1 0 
6054337		 # 	collision with: 1 3 0 0  and 2 3 0 0 
6054339		 # 	collision with: 2 1 1 0  and 3 1 1 0 
6054352		 # 	collision with: 2 1 0 0  and 3 1 0 0 
6054354		 # 	collision with: 2 0 1 0  and 4 0 1 0 
6054356		 # 	collision with: 2 8 7 0  and 3 0 0 1 
6054358		 # 	collision with: 2 8 0 0  and 0 7 1 0 
6054360		 # 	collision with: 3 9 0 0  and 5 9 0 0 
6054362		 # 	collision with: 2 2 0 0  and 0 8 1 0 
6054364		 # 	collision with: 3 10 0 0  and 4 10 0 0 
6054366		 # 	collision with: 10 3 0 0  and 6 10 2 0 
6054368		 # 	collision with: 1 3 0 0  and 2 3 0 0 
6054370		 # 	collision with: 9 2 1 0  and 7 0 2 0 
6054372		 # 	collision with: 0 5 0 0  and 1 5 0 0 
6054374		 # 	collision with: 7 1 0 0  and 5 0 1 0 
6054376		 # 	collision with: 0 4 0 0  and 2 4 0 0 
6054378		 # 	collision with: 3 7 0 0  and 10 2 2 0 
6054380		 # 	collision with: 4 7 0 0  and 6 7 0 0 
6054382		 # 	collision with: 4 8 0 0  and 0 5 2 0 
6054384		 # 	collision with: 5 6 0 0  and 6 6 0 0 
6054386		 # 	collision with: 6 0 1 0  and 4 9 2 0 
6054388		 # 	collision with: 4 8 0 0  and 5 8 0 0 
6054392		 # 	collision with: 2 1 0 0  and 3 1 0 0 
6054394		 # 	collision with: 8 4 1 0  and 8 5 1 0 
6054396		 # 	collision with: 1 2 0 0  and 3 2 0 0 
6054398		 # 	collision with: 5 4 0 0  and 3 6 1 0 
6054404		 # 	collision with: 3 9 0 0  and 5 9 0 0 
6054421		 # 	collision with: 3 9 0 0  and 5 9 0 0 
6054423		 # 	collision with: 1 10 0 0  and 10 3 1 0 
6054452		 # 	collision with: 3 10 0 0  and 4 10 0 0 
6054454		 # 	collision with: 5 7 0 0  and 1 3 1 0 
6054461		 # 	collision with: 2 1 0 0  and 3 1 0 0 
6054463		 # 	collision with: 8 4 0 0  and 8 5 0 0 
6054500		 # 	collision with: 1 3 0 0  and 2 3 0 0 
6054502		 # 	collision with: 3 3 0 0  and 3 3 1 0 
6054521		 # 	collision with: 1 2 0 0  and 3 2 0 0 
6054523		 # 	collision with: 7 10 0 0  and 1 6 1 0 
6054548		 # 	collision with: 0 5 0 0  and 1 5 0 0 
6054550		 # 	collision with: 10 10 0 0  and 6 3 1 0 
6054553		 # 	collision with: 3 9 0 0  and 5 9 0 0 
6054555		 # 	collision with: 9 0 1 0  and 2 7 2 0 
6054596		 # 	collision with: 0 4 0 0  and 2 4 0 0 
6054598		 # 	collision with: 5 10 0 0  and 6 1 1 0 
6054609		 # 	collision with: 1 2 0 0  and 3 2 0 0 
6054611		 # 	collision with: 5 8 0 0  and 4 8 1 0 
6054633		 # 	collision with: 4 7 0 0  and 6 7 0 0 
6054635		 # 	collision with: 3 9 0 0  and 3 9 2 0 
6054644		 # 	collision with: 4 7 0 0  and 6 7 0 0 
6054646		 # 	collision with: 4 8 0 0  and 0 5 2 0 
6054691		 # 	collision with: 6 7 0 0  and 5 3 2 0 
6054694		 # 	collision with: 3 3 0 0  and 7 9 1 0 
6054721		 # 	collision with: 4 7 0 0  and 6 7 0 0 
6054723		 # 	collision with: 4 9 1 0  and 7 7 2 0 
6054740		 # 	collision with: 4 8 0 0  and 5 8 0 0 
6054742		 # 	collision with: 5 1 0 0  and 4 0 1 0 
6054781		 # 	collision with: 5 6 0 0  and 6 6 0 0 
6054783		 # 	collision with: 8 0 1 0  and 8 2 1 0 
6054788		 # 	collision with: 2 1 0 0  and 3 1 0 0 
6054790		 # 	collision with: 8 4 1 0  and 8 5 1 0 
6054821		 # 	collision with: 2 4 0 0  and 0 5 0 0 
6054823		 # 	collision with: 1 3 1 0  and 2 3 1 0 
6054836		 # 	collision with: 1 2 0 0  and 3 2 0 0 
6054838		 # 	collision with: 2 1 1 0  and 3 1 1 0 
6054840		 # 	collision with: 0 3 1 0  and 3 0 0 1 
6054842		 # 	collision with: 0 9 0 0  and 8 1 1 0 
6054844		 # 	collision with: 4 8 0 0  and 5 8 0 0 
6054848		 # 	collision with: 0 4 0 0  and 2 4 0 0 
6054850		 # 	collision with: 1 8 0 0  and 9 0 1 0 
6054852		 # 	collision with: 3 10 0 0  and 4 10 0 0 
6054854		 # 	collision with: 2 5 2 0  and 10 5 3 0 
6054856		 # 	collision with: 1 2 0 0  and 3 2 0 0 
6054858		 # 	collision with: 9 1 0 0  and 6 8 1 0 
6054860		 # 	collision with: 5 6 0 0  and 6 6 0 0 
6054862		 # 	collision with: 3 0 0 0  and 0 8 1 0 
6054864		 # 	collision with: 0 5 0 0  and 1 5 0 0 
6054866		 # 	collision with: 2 9 0 0  and 10 4 1 0 
6054868		 # 	collision with: 3 9 0 0  and 5 9 0 0 
6054870		 # 	collision with: 7 6 0 0  and 4 6 1 0 
6054872		 # 	collision with: 2 1 0 0  and 3 1 0 0 
6054874		 # 	collision with: 8 8 0 0  and 5 4 1 0 
6054876		 # 	collision with: 4 7 0 0  and 6 7 0 0 
6054878		 # 	collision with: 8 2 0 0  and 5 4 1 0 
6054880		 # 	collision with: 1 3 0 0  and 2 3 0 0 
6054882		 # 	collision with: 2 1 0 0  and 10 6 1 0 
6054888		 # 	collision with: 4 8 0 0  and 5 8 0 0 
6054890		 # 	collision with: 4 3 0 0  and 6 10 1 0 
6054905		 # 	collision with: 7 3 0 0  and 3 5 0 0 
6054936		 # 	collision with: 0 4 0 0  and 2 4 0 0 
6054938		 # 	collision with: 6 2 0 0  and 1 3 1 0 
6054945		 # 	collision with: 4 8 0 0  and 5 8 0 0 
6054947		 # 	collision with: 10 6 0 0  and 2 1 1 0 
6054984		 # 	collision with: 3 10 0 0  and 4 10 0 0 
6054986		 # 	collision with: 5 10 0 0  and 6 1 1 0 
6055005		 # 	collision with: 0 5 0 0  and 1 5 0 0 
6055007		 # 	collision with: 8 5 1 0  and 8 6 1 0 
6055032		 # 	collision with: 1 2 0 0  and 3 2 0 0 
6055034		 # 	collision with: 4 6 0 0  and 9 7 1 0 
6055037		 # 	collision with: 7 3 0 0  and 3 5 0 0 
6055039		 # 	collision with: 4 10 0 0  and 0 6 1 0 
6055082		 # 	collision with: 3 0 0 0  and 0 8 1 0 
6055095		 # 	collision with: 8 0 0 0  and 8 3 1 0 
6055117		 # 	collision with: 2 1 0 0  and 3 1 0 0 
6055128		 # 	collision with: 0 5 0 0  and 1 5 0 0 
6055130		 # 	collision with: 10 9 1 0  and 6 4 2 0 
6055173		 # 	collision with: 3 3 0 0  and 1 5 0 0 
6055175		 # 	collision with: 4 6 0 0  and 0 4 1 0 
6055176		 # 	collision with: 3 9 0 0  and 5 9 0 0 
6055205		 # 	collision with: 2 1 0 0  and 3 1 0 0 
6055207		 # 	collision with: 0 10 0 0  and 2 1 1 0 
6055224		 # 	collision with: 2 1 0 0  and 3 1 0 0 
6055226		 # 	collision with: 8 5 1 0  and 8 6 1 0 
6055265		 # 	collision with: 0 4 0 0  and 2 4 0 0 
6055267		 # 	collision with: 7 2 0 0  and 8 6 1 0 
6055272		 # 	collision with: 4 7 0 0  and 6 7 0 0 
6055274		 # 	collision with: 10 5 0 0  and 4 2 1 0 
6055305		 # 	collision with: 3 3 0 0  and 1 5 0 0 
6055307		 # 	collision with: 4 0 1 0  and 1 2 1 0 
6055320		 # 	collision with: 1 3 0 0  and 2 3 0 0 
6055322		 # 	collision with: 1 2 1 0  and 3 2 1 0 
6055324		 # 	collision with: 9 6 8 0  and 2 0 0 1 
6055326		 # 	collision with: 6 10 1 0  and 2 2 2 0 
6055328		 # 	collision with: 4 7 0 0  and 6 7 0 0 
6055330		 # 	collision with: 5 7 0 0  and 1 3 1 0 
6055332		 # 	collision with: 3 9 0 0  and 5 9 0 0 
6055334		 # 	collision with: 4 8 0 0  and 0 5 1 0 
6055336		 # 	collision with: 5 6 0 0  and 6 6 0 0 
6055338		 # 	collision with: 3 9 0 0  and 10 8 1 0 
6055340		 # 	collision with: 3 10 0 0  and 4 10 0 0 
6055342		 # 	collision with: 6 3 0 0  and 9 0 2 0 
6055344		 # 	collision with: 4 8 0 0  and 5 8 0 0 
6055348		 # 	collision with: 1 3 0 0  and 2 3 0 0 
6055350		 # 	collision with: 3 3 0 0  and 10 1 1 0 
6055352		 # 	collision with: 2 1 0 0  and 3 1 0 0 
6055354		 # 	collision with: 8 0 1 0  and 8 2 1 0 
6055356		 # 	collision with: 0 5 0 0  and 1 5 0 0 
6055358		 # 	collision with: 6 8 0 0  and 9 1 2 0 
6055360		 # 	collision with: 1 2 0 0  and 3 2 0 0 
6055362		 # 	collision with: 1 8 0 0  and 8 4 1 0 
6055364		 # 	collision with: 0 4 0 0  and 2 4 0 0 
6055366		 # 	collision with: 9 5 0 0  and 5 6 1 0 
6055372		 # 	collision with: 4 7 0 0  and 6 7 0 0 
6055374		 # 	collision with: 5 10 0 0  and 6 1 1 0 
6055389		 # 	collision with: 1 3 0 0  and 2 3 0 0 
6055391		 # 	collision with: 8 3 0 0  and 8 4 0 0 
6055420		 # 	collision with: 3 9 0 0  and 5 9 0 0 
6055429		 # 	collision with: 0 4 0 0  and 2 4 0 0 
6055431		 # 	collision with: 10 0 0 0  and 9 2 1 0 
6055470		 # 	collision with: 10 7 0 0  and 5 6 2 0 
6055491		 # 	collision with: 5 2 0 0  and 10 2 2 0 
6055516		 # 	collision with: 3 10 0 0  and 4 10 0 0 
6055518		 # 	collision with: 9 9 1 0  and 2 0 3 0 
6055521		 # 	collision with: 1 3 0 0  and 2 3 0 0 
6055523		 # 	collision with: 8 3 0 0  and 8 4 0 0 
6055564		 # 	collision with: 4 8 0 0  and 5 8 0 0 
6055566		 # 	collision with: 5 5 0 0  and 2 2 1 0 
6055577		 # 	collision with: 4 8 0 0  and 5 8 0 0 
6055579		 # 	collision with: 4 0 2 0  and 3 2 2 0 
6055601		 # 	collision with: 3 3 0 0  and 0 4 0 0 
6055603		 # 	collision with: 9 4 0 0  and 10 1 1 0 
6055612		 # 	collision with: 1 3 0 0  and 2 3 0 0 
6055614		 # 	collision with: 1 7 0 0  and 9 7 1 0 
6055657		 # 	collision with: 3 3 0 0  and 2 4 0 0 
6055659		 # 	collision with: 5 10 0 0  and 0 3 1 0 
6055660		 # 	collision with: 2 1 0 0  and 3 1 0 0 
6055662		 # 	collision with: 8 0 1 0  and 8 2 1 0 
6055689		 # 	collision with: 3 3 0 0  and 0 4 0 0 
6055691		 # 	collision with: 5 7 1 0  and 10 0 2 0 
6055708		 # 	collision with: 0 5 0 0  and 1 5 0 0 
6055710		 # 	collision with: 1 10 0 0  and 7 5 1 0 
6055749		 # 	collision with: 1 2 0 0  and 3 2 0 0 
6055751		 # 	collision with: 1 9 0 0  and 4 4 1 0 
6055756		 # 	collision with: 1 2 0 0  and 3 2 0 0 
6055758		 # 	collision with: 6 3 0 0  and 8 1 2 0 
6055789		 # 	collision with: 3 3 0 0  and 2 4 0 0 
6055791		 # 	collision with: 4 0 1 0  and 0 1 1 0 
6055804		 # 	collision with: 0 4 0 0  and 2 4 0 0 
6055806		 # 	collision with: 1 3 1 0  and 2 3 1 0 
6055808		 # 	collision with: 5 5 5 0  and 3 1 0 1 
6055810		 # 	collision with: 1 6 0 0  and 7 10 1 0 
6055812		 # 	collision with: 5 6 0 0  and 6 6 0 0 
6055814		 # 	collision with: 2 7 0 0  and 8 0 1 0 
6055816		 # 	collision with: 1 3 0 0  and 2 3 0 0 
6055818		 # 	collision with: 9 6 0 0  and 10 2 2 0 
6055820		 # 	collision with: 1 2 0 0  and 3 2 0 0 
6055822		 # 	collision with: 9 6 0 0  and 4 9 1 0 
6055824		 # 	collision with: 4 7 0 0  and 6 7 0 0 
6055826		 # 	collision with: 9 8 0 0  and 4 3 1 0 
6055828		 # 	collision with: 3 10 0 0  and 4 10 0 0 
6055830		 # 	collision with: 4 5 1 0  and 10 10 2 0 
6055832		 # 	collision with: 2 1 0 0  and 3 1 0 0 
6055834		 # 	collision with: 8 1 1 0  and 8 3 1 0 
6055836		 # 	collision with: 0 4 0 0  and 2 4 0 0 
6055838		 # 	collision with: 0 2 0 0  and 6 8 1 0 
6055840		 # 	collision with: 3 9 0 0  and 5 9 0 0 
6055842		 # 	collision with: 0 3 0 0  and 6 1 1 0 
6055844		 # 	collision with: 4 8 0 0  and 5 8 0 0 
6055848		 # 	collision with: 0 5 0 0  and 1 5 0 0 
6055850		 # 	collision with: 7 10 0 0  and 2 1 1 0 
6055858		 # 	collision with: 6 1 1 0  and 6 1 2 0 
6055875		 # 	collision with: 5 4 0 0  and 5 4 1 0 
6055904		 # 	collision with: 1 3 0 0  and 2 3 0 0 
6055906		 # 	collision with: 0 2 0 0  and 9 1 2 0 
6055913		 # 	collision with: 2 0 0 0  and 4 0 0 0 
6055915		 # 	collision with: 8 8 0 0  and 8 3 1 0 
6055952		 # 	collision with: 1 2 0 0  and 3 2 0 0 
6055954		 # 	collision with: 8 4 2 0  and 8 5 2 0 
6055973		 # 	collision with: 2 0 0 0  and 4 0 0 0 
6055975		 # 	collision with: 0 3 0 0  and 9 4 2 0 
6056000		 # 	collision with: 4 7 0 0  and 6 7 0 0 
6056002		 # 	collision with: 1 8 0 0  and 8 3 1 0 
6056005		 # 	collision with: 2 0 0 0  and 4 0 0 0 
6056007		 # 	collision with: 4 4 0 0  and 4 4 1 0 
6056048		 # 	collision with: 3 10 0 0  and 4 10 0 0 
6056050		 # 	collision with: 4 4 0 0  and 9 4 1 0 
6056061		 # 	collision with: 2 0 0 0  and 4 0 0 0 
6056063		 # 	collision with: 4 0 2 0  and 0 1 2 0 
6056085		 # 	collision with: 2 0 0 0  and 4 0 0 0 
6056087		 # 	collision with: 4 8 0 0  and 6 9 2 0 
6056096		 # 	collision with: 2 1 0 0  and 3 1 0 0 
6056098		 # 	collision with: 2 7 0 0  and 9 0 1 0 
6056141		 # 	collision with: 2 0 0 0  and 4 0 0 0 
6056143		 # 	collision with: 1 6 0 0  and 9 3 1 0 
6056144		 # 	collision with: 0 4 0 0  and 2 4 0 0 
6056146		 # 	collision with: 0 4 0 0  and 9 7 1 0 
6056173		 # 	collision with: 2 0 0 0  and 4 0 0 0 
6056175		 # 	collision with: 0 3 0 0  and 3 3 1 0 
6056192		 # 	collision with: 3 9 0 0  and 5 9 0 0 
6056233		 # 	collision with: 2 0 0 0  and 4 0 0 0 
6056235		 # 	collision with: 3 9 0 0  and 0 4 2 0 
6056240		 # 	collision with: 4 8 0 0  and 5 8 0 0 
6056242		 # 	collision with: 8 1 0 0  and 8 1 1 0 
6056273		 # 	collision with: 2 0 0 0  and 4 0 0 0 
6056275		 # 	collision with: 6 9 0 0  and 1 5 1 0 
6056288		 # 	collision with: 0 5 0 0  and 1 5 0 0 
6056290		 # 	collision with: 5 7 0 0  and 7 0 1 0 
6056292		 # 	collision with: 3 0 7 0  and 10 1 0 1 
6056294		 # 	collision with: 6 9 0 0  and 0 5 1 0 
6056296		 # 	collision with: 0 5 0 0  and 1 5 0 0 
6056298		 # 	collision with: 2 1 0 0  and 7 10 1 0 
6056300		 # 	collision with: 4 8 0 0  and 5 8 0 0 
6056304		 # 	collision with: 3 9 0 0  and 5 9 0 0 
6056306		 # 	collision with: 10 3 0 0  and 4 3 1 0 
6056308		 # 	collision with: 0 4 0 0  and 2 4 0 0 
6056310		 # 	collision with: 2 0 1 0  and 7 4 2 0 
6056312		 # 	collision with: 2 1 0 0  and 3 1 0 0 
6056314		 # 	collision with: 8 2 1 0  and 8 4 1 0 
6056316		 # 	collision with: 3 10 0 0  and 4 10 0 0 
6056318		 # 	collision with: 10 5 0 0  and 9 1 2 0 
6056320		 # 	collision with: 4 7 0 0  and 6 7 0 0 
6056322		 # 	collision with: 4 3 0 0  and 9 8 1 0 
6056324		 # 	collision with: 1 2 0 0  and 3 2 0 0 
6056326		 # 	collision with: 1 2 0 0  and 0 1 2 0 
6056328		 # 	collision with: 1 3 0 0  and 2 3 0 0 
6056330		 # 	collision with: 5 6 1 0  and 10 7 2 0 
6056332		 # 	collision with: 5 6 0 0  and 6 6 0 0 
6056334		 # 	collision with: 6 1 0 0  and 0 3 1 0 
6056340		 # 	collision with: 0 5 0 0  and 1 5 0 0 
6056342		 # 	collision with: 0 9 0 0  and 8 9 1 0 
6056357		 # 	collision with: 8 2 0 0  and 5 3 0 0 
6056359		 # 	collision with: 8 0 0 0  and 6 3 1 0 
6056388		 # 	collision with: 4 8 0 0  and 5 8 0 0 
6056390		 # 	collision with: 7 4 0 0  and 4 0 1 0 
6056397		 # 	collision with: 4 7 0 0  and 6 7 0 0 
6056399		 # 	collision with: 0 9 0 0  and 5 4 1 0 
6056436		 # 	collision with: 3 9 0 0  and 5 9 0 0 
6056457		 # 	collision with: 1 3 0 0  and 2 3 0 0 
6056459		 # 	collision with: 0 2 1 0  and 5 0 2 0 
6056484		 # 	collision with: 0 4 0 0  and 2 4 0 0 
6056486		 # 	collision with: 8 0 0 0  and 7 2 1 0 
6056489		 # 	collision with: 8 2 0 0  and 5 3 0 0 
6056491		 # 	collision with: 5 10 1 0  and 3 3 2 0 
6056532		 # 	collision with: 2 1 0 0  and 3 1 0 0 
6056534		 # 	collision with: 9 4 0 0  and 6 1 1 0 
6056545		 # 	collision with: 1 3 0 0  and 2 3 0 0 
6056547		 # 	collision with: 2 0 2 0  and 4 0 2 0 
6056569		 # 	collision with: 0 5 0 0  and 1 5 0 0 
6056571		 # 	collision with: 8 10 0 0  and 8 5 1 0 
6056580		 # 	collision with: 3 10 0 0  and 4 10 0 0 
6056582		 # 	collision with: 2 3 1 0  and 4 10 2 0 
6056625		 # 	collision with: 1 2 0 0  and 3 2 0 0 
6056627		 # 	collision with: 8 2 0 0  and 8 3 0 0 
6056628		 # 	collision with: 4 7 0 0  and 6 7 0 0 
6056630		 # 	collision with: 5 10 0 0  and 1 9 2 0 
6056657		 # 	collision with: 0 5 0 0  and 1 5 0 0 
6056659		 # 	collision with: 3 3 0 0  and 2 10 1 0 
6056676		 # 	collision with: 1 2 0 0  and 3 2 0 0 
6056678		 # 	collision with: 5 10 0 0  and 6 1 1 0 
6056717		 # 	collision with: 7 2 0 0  and 5 3 0 0 
6056719		 # 	collision with: 0 2 0 0  and 7 1 1 0 
6056724		 # 	collision with: 1 3 0 0  and 2 3 0 0 
6056726		 # 	collision with: 7 2 1 0  and 8 10 2 0 
6056759		 # 	collision with: 8 2 0 0  and 8 3 0 0 
6056774		 # 	collision with: 6 1 0 0  and 0 3 1 0 
6056776		 # 	collision with: 3 5 9 0  and 7 0 0 1 
6056778		 # 	collision with: 3 3 0 0  and 7 9 1 0 
6056780		 # 	collision with: 0 4 0 0  and 2 4 0 0 
6056782		 # 	collision with: 5 6 0 0  and 9 5 1 0 
6056784		 # 	collision with: 1 2 0 0  and 3 2 0 0 
6056786		 # 	collision with: 1 8 0 0  and 9 0 2 0 
6056788		 # 	collision with: 0 5 0 0  and 1 5 0 0 
6056790		 # 	collision with: 4 5 0 0  and 8 0 1 0 
6056792		 # 	collision with: 2 1 0 0  and 3 1 0 0 
6056794		 # 	collision with: 8 3 1 0  and 8 5 1 0 
6056796		 # 	collision with: 1 3 0 0  and 2 3 0 0 
6056798		 # 	collision with: 8 2 0 0  and 5 4 2 0 
6056800		 # 	collision with: 4 8 0 0  and 5 8 0 0 
6056804		 # 	collision with: 3 10 0 0  and 4 10 0 0 
6056806		 # 	collision with: 8 10 0 0  and 1 8 1 0 
6056808		 # 	collision with: 5 6 0 0  and 6 6 0 0 
6056810		 # 	collision with: 5 9 0 0  and 9 7 1 0 
6056812		 # 	collision with: 3 9 0 0  and 5 9 0 0 
6056814		 # 	collision with: 9 8 0 0  and 2 2 1 0 
6056816		 # 	collision with: 4 7 0 0  and 6 7 0 0 
6056818		 # 	collision with: 6 9 2 0  and 10 4 3 0 
6056824		 # 	collision with: 0 4 0 0  and 2 4 0 0 
6056826		 # 	collision with: 8 10 0 0  and 6 3 1 0 
6056841		 # 	collision with: 4 1 0 0  and 6 3 0 0 
6056843		 # 	collision with: 8 2 2 0  and 8 3 2 0 
6056872		 # 	collision with: 1 2 0 0  and 3 2 0 0 
6056874		 # 	collision with: 8 5 2 0  and 8 6 2 0 
6056881		 # 	collision with: 1 3 0 0  and 2 3 0 0 
6056883		 # 	collision with: 4 8 1 0  and 7 3 2 0 
6056920		 # 	collision with: 0 5 0 0  and 1 5 0 0 
6056922		 # 	collision with: 10 6 2 0  and 3 1 3 0 
6056941		 # 	collision with: 10 1 0 0  and 7 3 0 0 
6056943		 # 	collision with: 10 5 1 0  and 9 1 2 0 
6056968		 # 	collision with: 2 1 0 0  and 3 1 0 0 
6056970		 # 	collision with: 8 3 1 0  and 8 5 1 0 
6056973		 # 	collision with: 4 1 0 0  and 6 3 0 0 
6056975		 # 	collision with: 0 9 0 0  and 9 0 2 0 
6057016		 # 	collision with: 1 3 0 0  and 2 3 0 0 
6057018		 # 	collision with: 0 9 0 0  and 8 6 1 0 
6057029		 # 	collision with: 10 1 0 0  and 7 3 0 0 
6057031		 # 	collision with: 0 9 0 0  and 6 3 1 0 
6057053		 # 	collision with: 10 1 0 0  and 7 3 0 0 
6057055		 # 	collision with: 5 3 0 0  and 9 3 1 0 
6057064		 # 	collision with: 4 8 0 0  and 5 8 0 0 
6057066		 # 	collision with: 5 10 0 0  and 6 1 1 0 
6057109		 # 	collision with: 5 1 0 0  and 3 3 0 0 
6057111		 # 	collision with: 8 1 2 0  and 8 2 2 0 
6057112		 # 	collision with: 3 10 0 0  and 4 10 0 0 
6057114		 # 	collision with: 8 9 0 0  and 7 2 1 0 
6057143		 # 	collision with: 8 3 0 0  and 0 9 1 0 
6057162		 # 	collision with: 0 9 1 0  and 8 4 2 0 
6057201		 # 	collision with: 0 1 0 0  and 3 3 0 0 
6057203		 # 	collision with: 10 1 0 0  and 9 4 1 0 
6057208		 # 	collision with: 3 9 0 0  and 5 9 0 0 
6057241		 # 	collision with: 5 1 0 0  and 3 3 0 0 
6057243		 # 	collision with: 1 2 1 0  and 3 2 1 0 
6057256		 # 	collision with: 4 7 0 0  and 6 7 0 0 
6057258		 # 	collision with: 5 6 1 0  and 6 6 1 0 
6057260		 # 	collision with: 3 0 3 0  and 0 1 0 1 
6057262		 # 	collision with: 9 0 0 0  and 1 8 1 0 
6057264		 # 	collision with: 1 3 0 0  and 2 3 0 0 
6057266		 # 	collision with: 9 10 0 0  and 1 5 1 0 
6057268		 # 	collision with: 4 7 0 0  and 6 7 0 0 
6057270		 # 	collision with: 4 1 0 0  and 10 7 2 0 
6057272		 # 	collision with: 2 1 0 0  and 3 1 0 0 
6057274		 # 	collision with: 9 3 0 0  and 1 6 1 0 
6057276		 # 	collision with: 3 9 0 0  and 5 9 0 0 
6057278		 # 	collision with: 6 3 0 0  and 9 0 1 0 
6057280		 # 	collision with: 0 5 0 0  and 1 5 0 0 
6057282		 # 	collision with: 5 1 0 0  and 0 1 2 0 
6057284		 # 	collision with: 5 6 0 0  and 6 6 0 0 
6057286		 # 	collision with: 7 6 0 0  and 2 4 2 0 
6057288		 # 	collision with: 1 2 0 0  and 3 2 0 0 
6057290		 # 	collision with: 3 1 0 0  and 6 7 1 0 
6057292		 # 	collision with: 3 10 0 0  and 4 10 0 0 
6057294		 # 	collision with: 1 2 1 0  and 4 0 2 0 
6057296		 # 	collision with: 0 4 0 0  and 2 4 0 0 
6057298		 # 	collision with: 8 7 0 0  and 0 9 1 0 
6057300		 # 	collision with: 4 8 0 0  and 5 8 0 0 
6057308		 # 	collision with: 1 3 0 0  and 2 3 0 0 
6057310		 # 	collision with: 8 9 0 0  and 0 9 1 0 
6057325		 # 	collision with: 1 2 0 0  and 3 2 0 0 
6057327		 # 	collision with: 1 7 0 0  and 7 6 1 0 
6057356		 # 	collision with: 4 7 0 0  and 6 7 0 0 
6057358		 # 	collision with: 9 6 0 0  and 4 9 1 0 
6057365		 # 	collision with: 1 1 0 0  and 2 2 0 0 
6057367		 # 	collision with: 0 8 0 0  and 7 5 2 0 
6057404		 # 	collision with: 2 1 0 0  and 3 1 0 0 
6057406		 # 	collision with: 8 4 1 0  and 8 6 1 0 
6057425		 # 	collision with: 3 9 0 0  and 5 9 0 0 
6057427		 # 	collision with: 6 6 0 0  and 2 8 1 0 
6057452		 # 	collision with: 3 9 0 0  and 5 9 0 0 
6057457		 # 	collision with: 1 2 0 0  and 3 2 0 0 
6057459		 # 	collision with: 3 4 0 0  and 1 5 1 0 
6057500		 # 	collision with: 0 5 0 0  and 1 5 0 0 
6057502		 # 	collision with: 2 3 0 0  and 10 0 1 0 
6057513		 # 	collision with: 3 9 0 0  and 5 9 0 0 
6057539		 # 	collision with: 9 4 1 0  and 4 4 2 0 
6057550		 # 	collision with: 6 10 0 0  and 6 10 2 0 
6057593		 # 	collision with: 5 1 0 0  and 4 2 0 0 
6057595		 # 	collision with: 5 10 1 0  and 10 1 2 0 
6057596		 # 	collision with: 1 2 0 0  and 3 2 0 0 
6057598		 # 	collision with: 8 0 2 0  and 8 1 2 0 
6057625		 # 	collision with: 0 4 0 0  and 2 4 0 0 
6057627		 # 	collision with: 6 0 0 0  and 5 2 2 0 
6057644		 # 	collision with: 3 10 0 0  and 4 10 0 0 
6057646		 # 	collision with: 9 0 0 0  and 8 5 2 0 
6057685		 # 	collision with: 0 5 0 0  and 1 5 0 0 
6057687		 # 	collision with: 8 1 0 0  and 8 2 0 0 
6057692		 # 	collision with: 0 4 0 0  and 2 4 0 0 
6057694		 # 	collision with: 1 3 0 0  and 7 0 1 0 
6057725		 # 	collision with: 5 1 0 0  and 4 2 0 0 
6057740		 # 	collision with: 4 8 0 0  and 5 8 0 0 
6057742		 # 	collision with: 4 7 1 0  and 6 7 1 0 
6057744		 # 	collision with: 6 5 3 0  and 9 1 0 1 
6057746		 # 	collision with: 4 8 0 0  and 6 9 1 0 
6057748		 # 	collision with: 1 2 0 0  and 3 2 0 0 
6057750		 # 	collision with: 8 4 0 0  and 10 10 1 0 
6057752		 # 	collision with: 2 1 0 0  and 3 1 0 0 
6057754		 # 	collision with: 8 0 1 0  and 8 1 1 0 
6057756		 # 	collision with: 4 8 0 0  and 5 8 0 0 
6057760		 # 	collision with: 5 6 0 0  and 6 6 0 0 
6057762		 # 	collision with: 9 9 0 0  and 0 1 1 0 
6057764		 # 	collision with: 4 7 0 0  and 6 7 0 0 
6057766		 # 	collision with: 6 3 0 0  and 8 1 1 0 
6057768		 # 	collision with: 0 4 0 0  and 2 4 0 0 
6057770		 # 	collision with: 7 10 1 0  and 9 3 2 0 
6057772		 # 	collision with: 0 5 0 0  and 1 5 0 0 
6057774		 # 	collision with: 6 3 0 0  and 8 5 1 0 
6057776		 # 	collision with: 1 3 0 0  and 2 3 0 0 
6057778		 # 	collision with: 6 3 0 0  and 8 6 1 0 
6057780		 # 	collision with: 3 10 0 0  and 4 10 0 0 
6057782		 # 	collision with: 1 10 0 0  and 3 0 1 0 
6057784		 # 	collision with: 3 9 0 0  and 5 9 0 0 
6057786		 # 	collision with: 10 3 0 0  and 1 10 1 0 
6057792		 # 	collision with: 1 2 0 0  and 3 2 0 0 
6057794		 # 	collision with: 7 8 0 0  and 10 7 1 0 
6057809		 # 	collision with: 3 10 0 0  and 4 10 0 0 
6057811		 # 	collision with: 5 4 1 0  and 3 6 2 0 
6057840		 # 	collision with: 2 1 0 0  and 3 1 0 0 
6057842		 # 	collision with: 5 10 0 0  and 6 1 1 0 
6057849		 # 	collision with: 5 6 0 0  and 6 6 0 0 
6057851		 # 	collision with: 6 5 0 0  and 6 5 1 0 
6057888		 # 	collision with: 4 8 0 0  and 5 8 0 0 
6057890		 # 	collision with: 4 10 0 0  and 7 0 1 0 
6057909		 # 	collision with: 2 1 0 0  and 3 1 0 0 
6057911		 # 	collision with: 5 9 0 0  and 7 6 1 0 
6057938		 # 	collision with: 9 9 0 0  and 0 1 1 0 
6057943		 # 	collision with: 8 6 1 0  and 8 0 2 0 
6057984		 # 	collision with: 4 7 0 0  and 6 7 0 0 
6057986		 # 	collision with: 10 0 0 0  and 2 3 1 0 
6057997		 # 	collision with: 2 1 0 0  and 3 1 0 0 
6057999		 # 	collision with: 6 8 0 0  and 3 8 1 0 
6058021		 # 	collision with: 7 0 0 0  and 2 2 0 0 
6058023		 # 	collision with: 6 0 0 0  and 1 4 1 0 
6058032		 # 	collision with: 0 4 0 0  and 2 4 0 0 
6058034		 # 	collision with: 3 7 0 0  and 7 7 1 0 
6058077		 # 	collision with: 10 0 0 0  and 2 2 0 0 
6058079		 # 	collision with: 8 6 0 0  and 8 0 1 0 
6058080		 # 	collision with: 0 5 0 0  and 1 5 0 0 
6058082		 # 	collision with: 4 2 0 0  and 9 1 1 0 
6058109		 # 	collision with: 7 0 0 0  and 2 2 0 0 
6058111		 # 	collision with: 10 0 0 0  and 0 6 1 0 
6058128		 # 	collision with: 1 3 0 0  and 2 3 0 0 
6058130		 # 	collision with: 6 10 1 0  and 2 2 2 0 
6058169		 # 	collision with: 1 3 0 0  and 2 3 0 0 
6058171		 # 	collision with: 5 3 0 0  and 2 1 2 0 
6058176		 # 	collision with: 3 10 0 0  and 4 10 0 0 
6058178		 # 	collision with: 3 10 1 0  and 2 3 3 0 
6058209		 # 	collision with: 10 0 0 0  and 2 2 0 0 
6058211		 # 	collision with: 10 10 0 0  and 4 5 1 0 
6058224		 # 	collision with: 3 9 0 0  and 5 9 0 0 
6058228		 # 	collision with: 0 2 1 0  and 2 0 0 1 
6058230		 # 	collision with: 5 10 0 0  and 6 1 1 0 
6058232		 # 	collision with: 2 1 0 0  and 3 1 0 0 
6058234		 # 	collision with: 8 1 1 0  and 8 2 1 0 
6058236		 # 	collision with: 5 6 0 0  and 6 6 0 0 
6058238		 # 	collision with: 7 2 1 0  and 8 1 2 0 
6058240		 # 	collision with: 0 4 0 0  and 2 4 0 0 
6058242		 # 	collision with: 10 5 0 0  and 0 2 1 0 
6058244		 # 	collision with: 1 3 0 0  and 2 3 0 0 
6058246		 # 	collision with: 8 9 0 0  and 9 0 1 0 
6058248		 # 	collision with: 3 9 0 0  and 5 9 0 0 
6058250		 # 	collision with: 5 7 1 0  and 6 2 2 0 
6058252		 # 	collision with: 1 2 0 0  and 3 2 0 0 
6058254		 # 	collision with: 1 10 0 0  and 2 2 1 0 
6058256		 # 	collision with: 4 8 0 0  and 5 8 0 0 
6058260		 # 	collision with: 4 7 0 0  and 6 7 0 0 
6058262		 # 	collision with: 6 6 1 0  and 7 8 2 0 
6058264		 # 	collision with: 0 5 0 0  and 1 5 0 0 
6058266		 # 	collision with: 5 0 0 0  and 6 8 1 0 
6058268		 # 	collision with: 3 10 0 0  and 4 10 0 0 
6058270		 # 	collision with: 9 7 1 0  and 10 8 2 0 
6058276		 # 	collision with: 2 1 0 0  and 3 1 0 0 
6058278		 # 	collision with: 8 1 1 0  and 8 2 1 0 
6058293		 # 	collision with: 8 0 0 0  and 3 1 0 0 
6058295		 # 	collision with: 5 4 0 0  and 8 4 1 0 
6058326		 # 	collision with: 4 4 1 0  and 7 9 2 0 
6058372		 # 	collision with: 0 4 0 0  and 2 4 0 0 
6058374		 # 	collision with: 10 5 0 0  and 0 2 1 0 
6058393		 # 	collision with: 10 0 0 0  and 4 1 0 0 
6058420		 # 	collision with: 1 3 0 0  and 2 3 0 0 
6058422		 # 	collision with: 5 8 0 0  and 10 4 1 0 
6058425		 # 	collision with: 8 0 0 0  and 3 1 0 0 
6058427		 # 	collision with: 8 8 0 0  and 6 3 1 0 
6058468		 # 	collision with: 3 9 0 0  and 5 9 0 0 
6058481		 # 	collision with: 10 0 0 0  and 4 1 0 0 
6058483		 # 	collision with: 8 0 0 0  and 8 1 0 0 
6058505		 # 	collision with: 9 0 0 0  and 3 1 0 0 
6058507		 # 	collision with: 8 2 0 0  and 9 0 1 0 
6058516		 # 	collision with: 1 2 0 0  and 3 2 0 0 
6058518		 # 	collision with: 3 1 0 0  and 10 6 1 0 
6058561		 # 	collision with: 6 0 0 0  and 5 1 0 0 
6058563		 # 	collision with: 3 5 0 0  and 10 7 1 0 
6058564		 # 	collision with: 4 8 0 0  and 5 8 0 0 
6058566		 # 	collision with: 8 2 0 0  and 8 3 1 0 
6058593		 # 	collision with: 9 0 0 0  and 3 1 0 0 
6058595		 # 	collision with: 6 3 0 0  and 8 3 1 0 
6058612		 # 	collision with: 4 7 0 0  and 6 7 0 0 
6058614		 # 	collision with: 1 7 1 0  and 9 7 2 0 
6058653		 # 	collision with: 7 0 0 0  and 1 1 0 0 
6058655		 # 	collision with: 1 6 0 0  and 10 6 1 0 
6058660		 # 	collision with: 0 5 0 0  and 1 5 0 0 
6058662		 # 	collision with: 3 3 0 0  and 7 9 1 0 
6058693		 # 	collision with: 6 0 0 0  and 5 1 0 0 
6058695		 # 	collision with: 5 2 1 0  and 1 4 1 0 
6058708		 # 	collision with: 3 10 0 0  and 4 10 0 0 
6058710		 # 	collision with: 10 9 0 0  and 2 0 1 0 
6058718		 # 	collision with: 8 0 0 0  and 8 1 0 0 
6058722		 # 	collision with: 8 2 0 0  and 8 4 0 0 
6058726		 # 	collision with: 8 5 0 0  and 8 6 0 0 
6058730		 # 	collision with: 8 2 0 0  and 8 3 0 0 
6058734		 # 	collision with: 8 4 0 0  and 8 6 0 0 
6058738		 # 	collision with: 8 1 0 0  and 8 3 0 0 
6058742		 # 	collision with: 8 4 0 0  and 8 5 0 0 
6058746		 # 	collision with: 8 1 0 0  and 8 2 0 0 
6058750		 # 	collision with: 8 3 0 0  and 8 5 0 0 
6058754		 # 	collision with: 8 0 0 0  and 8 2 0 0 
6058772		 # 	collision with: 3 0 0 0  and 4 0 0 0 
6058774		 # 	collision with: 8 2 0 0  and 8 3 0 0 
6058789		 # 	collision with: 4 3 0 0  and 5 3 0 0 
6058791		 # 	collision with: 5 4 1 0  and 6 3 2 0 
6058832		 # 	collision with: 3 0 0 0  and 4 0 0 0 
6058834		 # 	collision with: 8 1 0 0  and 8 2 0 0 
6058841		 # 	collision with: 4 10 0 0  and 6 10 0 0 
6058843		 # 	collision with: 9 6 0 0  and 10 1 1 0 
6058848		 # 	collision with: 3 0 0 0  and 4 0 0 0 
6058850		 # 	collision with: 8 0 0 0  and 8 1 0 0 
6058869		 # 	collision with: 1 5 0 0  and 2 5 0 0 
6058871		 # 	collision with: 10 0 0 0  and 4 2 2 0 
6058908		 # 	collision with: 3 0 0 0  and 4 0 0 0 
6058910		 # 	collision with: 8 4 0 0  and 8 6 0 0 
6058913		 # 	collision with: 1 5 0 0  and 2 5 0 0 
6058915		 # 	collision with: 8 3 0 0  and 8 6 1 0 
6058937		 # 	collision with: 4 5 0 0  and 2 6 0 0 
6058939		 # 	collision with: 7 3 0 0  and 1 8 1 0 
6058968		 # 	collision with: 3 0 0 0  and 4 0 0 0 
6058970		 # 	collision with: 8 3 0 0  and 8 5 0 0 
6058984		 # 	collision with: 3 0 0 0  and 4 0 0 0 
6058986		 # 	collision with: 8 2 0 0  and 8 4 0 0 
6059017		 # 	collision with: 4 10 0 0  and 6 10 0 0 
6059019		 # 	collision with: 5 4 0 0  and 10 2 1 0 
6059041		 # 	collision with: 0 2 0 0  and 1 2 0 0 
6059043		 # 	collision with: 1 6 0 0  and 0 0 1 0 
6059044		 # 	collision with: 3 0 0 0  and 4 0 0 0 
6059046		 # 	collision with: 8 1 0 0  and 8 3 0 0 
6059085		 # 	collision with: 0 2 0 0  and 1 2 0 0 
6059087		 # 	collision with: 1 6 0 0  and 0 0 1 0 
6059104		 # 	collision with: 3 0 0 0  and 4 0 0 0 
6059106		 # 	collision with: 8 0 0 0  and 8 2 0 0 
6059113		 # 	collision with: 4 5 0 0  and 2 6 0 0 
6059115		 # 	collision with: 3 10 0 0  and 9 6 1 0 
6059120		 # 	collision with: 3 0 0 0  and 4 0 0 0 
6059122		 # 	collision with: 8 5 0 0  and 8 6 0 0 
6059165		 # 	collision with: 4 5 0 0  and 9 6 0 0 
6059167		 # 	collision with: 8 5 0 0  and 8 6 0 0 
6059180		 # 	collision with: 3 0 0 0  and 4 0 0 0 
6059182		 # 	collision with: 8 4 0 0  and 8 5 0 0 
6059196		 # 	collision with: 1 5 3 0  and 0 0 0 1 
6059198		 # 	collision with: 0 6 1 0  and 10 4 2 0 
6059200		 # 	collision with: 4 10 0 0  and 6 10 0 0 
6059202		 # 	collision with: 9 4 0 0  and 8 6 1 0 
6059204		 # 	collision with: 1 5 0 0  and 2 5 0 0 
6059206		 # 	collision with: 1 7 0 0  and 0 5 1 0 
6059208		 # 	collision with: 3 7 0 0  and 5 7 0 0 
6059210		 # 	collision with: 8 7 0 0  and 6 5 2 0 
6059212		 # 	collision with: 2 8 0 0  and 3 8 0 0 
6059216		 # 	collision with: 0 2 0 0  and 1 2 0 0 
6059218		 # 	collision with: 1 8 0 0  and 0 10 1 0 
6059220		 # 	collision with: 0 9 0 0  and 2 9 0 0 
6059222		 # 	collision with: 9 5 0 0  and 7 0 2 0 
6059224		 # 	collision with: 4 3 0 0  and 5 3 0 0 
6059226		 # 	collision with: 4 8 0 0  and 3 2 1 0 
6059228		 # 	collision with: 2 4 0 0  and 4 4 0 0 
6059230		 # 	collision with: 2 1 0 0  and 0 3 2 0 
6059232		 # 	collision with: 5 6 0 0  and 6 6 0 0 
6059234		 # 	collision with: 0 10 0 0  and 9 2 2 0 
6059236		 # 	collision with: 1 1 0 0  and 3 1 0 0 
6059238		 # 	collision with: 8 4 1 0  and 8 6 1 0 
6059256		 # 	collision with: 2 8 0 0  and 3 8 0 0 
6059258		 # 	collision with: 1 2 0 0  and 0 2 1 0 
6059273		 # 	collision with: 1 5 0 0  and 2 5 0 0 
6059275		 # 	collision with: 5 4 2 0  and 5 4 3 0 
6059316		 # 	collision with: 2 4 0 0  and 4 4 0 0 
6059318		 # 	collision with: 2 1 0 0  and 0 3 2 0 
6059325		 # 	collision with: 0 2 0 0  and 1 2 0 0 
6059327		 # 	collision with: 6 7 0 0  and 5 3 1 0 
6059332		 # 	collision with: 4 10 0 0  and 6 10 0 0 
6059353		 # 	collision with: 1 1 0 0  and 3 1 0 0 
6059355		 # 	collision with: 8 0 0 0  and 7 1 1 0 
6059392		 # 	collision with: 0 2 0 0  and 1 2 0 0 
6059394		 # 	collision with: 1 8 0 0  and 0 10 1 0 
6059397		 # 	collision with: 1 1 0 0  and 3 1 0 0 
6059399		 # 	collision with: 3 0 0 0  and 9 1 1 0 
6059421		 # 	collision with: 2 4 0 0  and 4 4 0 0 
6059423		 # 	collision with: 8 4 1 0  and 8 5 1 0 
6059452		 # 	collision with: 5 6 0 0  and 6 6 0 0 
6059454		 # 	collision with: 5 9 0 0  and 8 5 1 0 
6059468		 # 	collision with: 1 5 0 0  and 2 5 0 0 
6059470		 # 	collision with: 0 1 0 0  and 3 3 1 0 
6059501		 # 	collision with: 0 2 0 0  and 1 2 0 0 
6059503		 # 	collision with: 7 3 0 0  and 7 3 1 0 
6059525		 # 	collision with: 6 4 0 0  and 0 6 0 0 
6059527		 # 	collision with: 8 4 0 0  and 8 6 0 0 
6059528		 # 	collision with: 0 9 0 0  and 2 9 0 0 
6059530		 # 	collision with: 5 10 0 0  and 6 1 1 0 
6059569		 # 	collision with: 6 4 0 0  and 0 6 0 0 
6059571		 # 	collision with: 8 4 0 0  and 8 6 0 0 
6059588		 # 	collision with: 1 1 0 0  and 3 1 0 0 
6059590		 # 	collision with: 8 4 1 0  and 8 6 1 0 
6059599		 # 	collision with: 8 4 1 0  and 8 5 1 0 
6059606		 # 	collision with: 0 7 0 0  and 8 5 2 0 
6059649		 # 	collision with: 8 4 0 0  and 7 6 0 0 
6059651		 # 	collision with: 1 3 1 0  and 8 4 1 0 
6059664		 # 	collision with: 4 3 0 0  and 5 3 0 0 
6059666		 # 	collision with: 3 0 1 0  and 4 0 1 0 
6059680		 # 	collision with: 7 8 3 0  and 9 0 0 1 
6059682		 # 	collision with: 9 3 1 0  and 7 2 2 0 
6059684		 # 	collision with: 0 9 0 0  and 2 9 0 0 
6059686		 # 	collision with: 8 9 0 0  and 6 5 1 0 
6059688		 # 	collision with: 4 10 0 0  and 6 10 0 0 
6059690		 # 	collision with: 2 10 0 0  and 0 7 1 0 
6059692		 # 	collision with: 4 3 0 0  and 5 3 0 0 
6059694		 # 	collision with: 10 10 0 0  and 6 6 2 0 
6059696		 # 	collision with: 1 5 0 0  and 2 5 0 0 
6059698		 # 	collision with: 7 2 0 0  and 5 2 1 0 
6059700		 # 	collision with: 2 4 0 0  and 4 4 0 0 
6059702		 # 	collision with: 6 8 0 0  and 2 0 2 0 
6059704		 # 	collision with: 3 7 0 0  and 5 7 0 0 
6059706		 # 	collision with: 7 7 0 0  and 5 0 1 0 
6059708		 # 	collision with: 5 6 0 0  and 6 6 0 0 
6059710		 # 	collision with: 3 3 0 0  and 1 4 1 0 
6059712		 # 	collision with: 2 8 0 0  and 3 8 0 0 
6059716		 # 	collision with: 1 1 0 0  and 3 1 0 0 
6059718		 # 	collision with: 8 2 1 0  and 8 3 1 0 
6059720		 # 	collision with: 0 2 0 0  and 1 2 0 0 
6059722		 # 	collision with: 6 9 0 0  and 4 4 1 0 
6059740		 # 	collision with: 1 5 0 0  and 2 5 0 0 
6059742		 # 	collision with: 2 0 0 0  and 0 5 1 0 
6059757		 # 	collision with: 7 4 0 0  and 6 5 0 0 
6059759		 # 	collision with: 8 3 0 0  and 0 7 2 0 
6059800		 # 	collision with: 2 8 0 0  and 3 8 0 0 
6059802		 # 	collision with: 6 10 0 0  and 5 5 1 0 
6059809		 # 	collision with: 1 5 0 0  and 2 5 0 0 
6059811		 # 	collision with: 8 4 1 0  and 8 6 1 0 
6059816		 # 	collision with: 0 9 0 0  and 2 9 0 0 
6059818		 # 	collision with: 6 4 0 0  and 1 9 1 0 
6059837		 # 	collision with: 6 4 0 0  and 3 5 0 0 
6059839		 # 	collision with: 3 8 0 0  and 0 0 1 0 
6059876		 # 	collision with: 2 4 0 0  and 4 4 0 0 
6059878		 # 	collision with: 10 3 0 0  and 6 2 1 0 
6059881		 # 	collision with: 6 4 0 0  and 3 5 0 0 
6059883		 # 	collision with: 3 8 0 0  and 0 0 1 0 
6059905		 # 	collision with: 4 10 0 0  and 6 10 0 0 
6059907		 # 	collision with: 2 4 2 0  and 4 4 2 0 
6059936		 # 	collision with: 1 1 0 0  and 3 1 0 0 
6059938		 # 	collision with: 8 2 1 0  and 8 3 1 0 
6059952		 # 	collision with: 4 10 0 0  and 6 10 0 0 
6059985		 # 	collision with: 1 5 0 0  and 2 5 0 0 
6059987		 # 	collision with: 9 1 0 0  and 4 0 1 0 
22.6288secs	11156
