# prime 11
# degree 2
# input variables 3
# output variables 3
# reload computed balance functions from file balance-2944of3248-p11d2m3-debug.log
# p = 11
# n = 3
# smalldomain p^m 1331
# domain p^n 1331
#	 p^2 = 121
#	 p^3 = 1331
#	 p^4 = 14641
#	 p^5 = 161051
#	 p^6 = 1771561
#	 p^7 = 19487171
#	 p^8 = 214358881
#	 p^9 = 2357947691
opening file : balance-2944of3248-p11d2m3-debug.log
reloading for step2...
64768057		 # 	collision with: 4 0 0  and 9 2 0 
64768059		 # 	collision with: 8 1 0  and 1 3 1 
64768069		 # 	collision with: 6 0 0  and 1 1 0 
64768071		 # 	collision with: 8 3 0  and 4 0 1 
64768101		 # 	collision with: 6 4 0  and 4 6 0 
64768103		 # 	collision with: 6 2 0  and 2 3 0 
64768125		 # 	collision with: 6 4 0  and 4 6 0 
64768127		 # 	collision with: 9 3 0  and 3 4 0 
64768141		 # 	collision with: 6 4 0  and 4 6 0 
64768143		 # 	collision with: 8 0 0  and 6 1 0 
64768213		 # 	collision with: 8 0 0  and 2 2 0 
64768215		 # 	collision with: 0 3 0  and 6 4 0 
64768229		 # 	collision with: 2 2 0  and 2 3 0 
64768231		 # 	collision with: 9 1 0  and 9 0 1 
64768253		 # 	collision with: 2 2 0  and 3 3 0 
64768255		 # 	collision with: 1 2 0  and 7 4 0 
64768285		 # 	collision with: 6 0 0  and 5 1 0 
64768287		 # 	collision with: 4 3 0  and 7 5 0 
64768297		 # 	collision with: 9 2 0  and 2 3 0 
64768396		 # 	collision with: 0 3 0  and 9 5 0 
64768398		 # 	collision with: 2 1 0  and 8 2 0 
64768417		 # 	collision with: 8 0 0  and 2 2 0 
64768419		 # 	collision with: 3 9 0  and 10 0 1 
64768423		 # 	collision with: 0 3 0  and 6 4 0 
64768541		 # 	collision with: 9 10 0  and 6 1 1 
64768543		 # 	collision with: 7 2 0  and 4 3 0 
64768553		 # 	collision with: 9 9 0  and 0 1 1 
64768555		 # 	collision with: 8 0 0  and 6 1 0 
64768585		 # 	collision with: 3 4 0  and 5 5 0 
64768587		 # 	collision with: 0 9 0  and 2 9 0 
64768609		 # 	collision with: 9 0 0  and 8 2 0 
64768611		 # 	collision with: 3 3 0  and 1 5 0 
64768625		 # 	collision with: 4 4 0  and 6 4 0 
64768627		 # 	collision with: 10 3 0  and 4 0 1 
64768697		 # 	collision with: 6 7 0  and 10 0 1 
64768713		 # 	collision with: 6 0 0  and 4 2 1 
64768715		 # 	collision with: 9 3 0  and 3 4 0 
64768737		 # 	collision with: 2 3 0  and 3 3 0 
64768739		 # 	collision with: 7 0 0  and 6 2 0 
64768769		 # 	collision with: 2 6 0  and 4 7 0 
64768781		 # 	collision with: 5 0 0  and 10 2 0 
64768783		 # 	collision with: 0 0 0  and 7 2 0 
64768880		 # 	collision with: 2 3 0  and 1 4 0 
64768882		 # 	collision with: 5 3 0  and 4 4 0 
64768901		 # 	collision with: 6 1 0  and 10 3 0 
64768903		 # 	collision with: 0 2 0  and 8 3 0 
64768905		 # 	collision with: 6 1 0  and 8 0 1 
64768907		 # 	collision with: 9 6 0  and 6 2 1 
64769025		 # 	collision with: 7 2 0  and 10 3 0 
64769027		 # 	collision with: 10 4 0  and 10 5 0 
64769037		 # 	collision with: 0 4 0  and 6 6 0 
64769039		 # 	collision with: 3 3 0  and 3 5 0 
64769069		 # 	collision with: 2 0 0  and 4 2 0 
64769071		 # 	collision with: 5 1 0  and 10 2 0 
64769093		 # 	collision with: 0 3 0  and 9 5 0 
64769095		 # 	collision with: 5 3 0  and 4 4 0 
64769109		 # 	collision with: 10 9 0  and 9 1 1 
64769111		 # 	collision with: 9 2 0  and 10 3 0 
64769181		 # 	collision with: 3 3 0  and 4 1 1 
64769183		 # 	collision with: 8 8 0  and 8 1 1 
64769197		 # 	collision with: 10 6 0  and 0 0 1 
64769199		 # 	collision with: 1 7 0  and 2 7 0 
64769221		 # 	collision with: 10 1 0  and 3 0 1 
64769223		 # 	collision with: 5 0 0  and 6 2 0 
64769253		 # 	collision with: 1 5 0  and 2 6 0 
64769255		 # 	collision with: 2 5 0  and 7 6 0 
64769265		 # 	collision with: 1 6 0  and 6 0 1 
64769267		 # 	collision with: 8 2 0  and 5 3 0 
64769364		 # 	collision with: 5 2 0  and 3 4 0 
64769366		 # 	collision with: 4 2 0  and 1 3 0 
64769385		 # 	collision with: 3 1 0  and 0 0 1 
64769387		 # 	collision with: 1 2 0  and 2 0 1 
64769389		 # 	collision with: 5 0 0  and 10 1 0 
64769391		 # 	collision with: 2 1 0  and 3 2 0 
64769509		 # 	collision with: 4 5 0  and 0 6 0 
64769511		 # 	collision with: 0 5 0  and 3 0 1 
64769521		 # 	collision with: 6 1 0  and 4 2 0 
64769523		 # 	collision with: 4 3 0  and 9 0 1 
64769553		 # 	collision with: 7 0 0  and 10 1 0 
64769555		 # 	collision with: 10 4 0  and 10 5 0 
64769577		 # 	collision with: 2 0 0  and 6 1 0 
64769579		 # 	collision with: 8 2 0  and 6 4 0 
64769593		 # 	collision with: 5 1 0  and 10 0 1 
64769595		 # 	collision with: 7 3 0  and 3 4 0 
64769665		 # 	collision with: 1 5 0  and 3 5 0 
64769667		 # 	collision with: 4 1 0  and 10 0 1 
64769681		 # 	collision with: 2 8 0  and 6 3 1 
64769683		 # 	collision with: 4 0 0  and 6 1 0 
64769705		 # 	collision with: 3 4 0  and 10 5 0 
64769707		 # 	collision with: 9 1 0  and 0 2 0 
64769737		 # 	collision with: 7 1 0  and 10 2 0 
64769739		 # 	collision with: 2 5 0  and 2 6 0 
64769749		 # 	collision with: 3 3 0  and 1 4 0 
64769751		 # 	collision with: 8 4 0  and 4 5 0 
64769848		 # 	collision with: 7 0 0  and 1 2 0 
64769850		 # 	collision with: 10 2 0  and 9 3 0 
64769871		 # 	collision with: 2 4 0  and 0 5 0 
64769873		 # 	collision with: 6 1 0  and 6 3 0 
64769875		 # 	collision with: 8 2 0  and 0 3 0 
64769993		 # 	collision with: 7 4 0  and 5 5 0 
64769995		 # 	collision with: 1 3 0  and 8 5 0 
64770005		 # 	collision with: 2 6 0  and 4 7 0 
64770037		 # 	collision with: 0 4 0  and 3 6 0 
64770039		 # 	collision with: 0 0 0  and 4 2 0 
64770061		 # 	collision with: 5 2 0  and 3 4 0 
64770063		 # 	collision with: 10 2 0  and 9 3 0 
64770077		 # 	collision with: 2 2 0  and 2 3 0 
64770149		 # 	collision with: 8 5 0  and 10 6 0 
64770151		 # 	collision with: 9 2 0  and 6 1 1 
64770165		 # 	collision with: 7 1 0  and 7 0 1 
64770167		 # 	collision with: 6 8 0  and 2 3 1 
64770189		 # 	collision with: 0 3 0  and 3 0 1 
64770191		 # 	collision with: 1 7 0  and 2 7 0 
64770221		 # 	collision with: 4 5 0  and 0 6 0 
64770223		 # 	collision with: 9 4 0  and 2 6 0 
64770233		 # 	collision with: 7 1 0  and 1 2 0 
64770235		 # 	collision with: 3 0 0  and 8 1 0 
64770332		 # 	collision with: 10 1 0  and 8 3 0 
64770334		 # 	collision with: 2 1 0  and 0 3 0 
64770353		 # 	collision with: 4 1 0  and 4 0 1 
64770355		 # 	collision with: 1 2 0  and 7 3 0 
64770357		 # 	collision with: 1 5 0  and 7 6 0 
64770359		 # 	collision with: 3 9 0  and 3 4 1 
64770477		 # 	collision with: 1 2 0  and 2 0 1 
64770489		 # 	collision with: 4 3 0  and 3 5 0 
64770491		 # 	collision with: 0 0 0  and 1 1 1 
64770521		 # 	collision with: 10 0 0  and 4 2 0 
64770523		 # 	collision with: 8 1 0  and 0 2 0 
64770545		 # 	collision with: 7 2 0  and 6 3 0 
64770547		 # 	collision with: 2 1 0  and 0 3 0 
64770561		 # 	collision with: 2 3 0  and 9 4 0 
64770563		 # 	collision with: 2 4 0  and 4 5 0 
64770633		 # 	collision with: 7 0 0  and 10 1 0 
64770635		 # 	collision with: 3 8 0  and 5 8 0 
64770649		 # 	collision with: 7 1 0  and 10 2 0 
64770651		 # 	collision with: 2 4 0  and 0 5 0 
64770673		 # 	collision with: 5 9 0  and 4 1 1 
64770675		 # 	collision with: 6 0 0  and 7 1 0 
64770705		 # 	collision with: 7 0 0  and 1 2 0 
64770707		 # 	collision with: 1 3 0  and 7 5 0 
64770717		 # 	collision with: 8 1 0  and 0 3 0 
64770719		 # 	collision with: 4 8 0  and 5 1 1 
64770816		 # 	collision with: 1 1 0  and 0 2 0 
64770818		 # 	collision with: 4 1 0  and 3 2 0 
64770837		 # 	collision with: 7 2 0  and 10 3 0 
64770839		 # 	collision with: 9 1 0  and 0 2 0 
64770841		 # 	collision with: 2 4 0  and 10 6 0 
64770961		 # 	collision with: 8 2 0  and 5 0 1 
64770963		 # 	collision with: 2 3 0  and 1 0 1 
64770973		 # 	collision with: 1 2 0  and 10 0 1 
64770975		 # 	collision with: 4 1 0  and 8 2 0 
64771007		 # 	collision with: 2 2 0  and 10 3 0 
64771029		 # 	collision with: 10 1 0  and 8 3 0 
64771045		 # 	collision with: 0 0 0  and 5 2 0 
64771047		 # 	collision with: 4 4 0  and 3 1 1 
64771117		 # 	collision with: 10 2 0  and 8 3 0 
64771119		 # 	collision with: 2 7 0  and 10 0 1 
64771135		 # 	collision with: 6 5 0  and 5 1 1 
64771157		 # 	collision with: 7 0 0  and 1 2 0 
64771159		 # 	collision with: 1 1 0  and 10 2 0 
64771189		 # 	collision with: 3 10 0  and 4 10 0 
64771191		 # 	collision with: 10 2 0  and 7 3 0 
64771201		 # 	collision with: 7 1 0  and 8 3 0 
64771203		 # 	collision with: 2 2 0  and 6 3 0 
64771300		 # 	collision with: 4 0 0  and 2 2 0 
64771302		 # 	collision with: 7 0 0  and 5 2 0 
64771321		 # 	collision with: 9 1 0  and 7 0 1 
64771323		 # 	collision with: 5 1 0  and 10 2 0 
64771325		 # 	collision with: 5 2 0  and 6 2 0 
64771327		 # 	collision with: 2 1 0  and 4 1 0 
64771447		 # 	collision with: 9 4 0  and 3 0 1 
64771457		 # 	collision with: 8 1 0  and 0 3 0 
64771459		 # 	collision with: 2 3 0  and 3 3 0 
64771489		 # 	collision with: 9 2 0  and 2 3 0 
64771491		 # 	collision with: 2 2 0  and 6 3 0 
64771513		 # 	collision with: 1 1 0  and 0 2 0 
64771515		 # 	collision with: 7 0 0  and 5 2 0 
64771529		 # 	collision with: 9 3 0  and 0 4 0 
64771531		 # 	collision with: 3 2 0  and 0 3 0 
64771601		 # 	collision with: 6 7 0  and 8 1 1 
64771603		 # 	collision with: 2 8 0  and 4 0 1 
64771617		 # 	collision with: 7 4 0  and 0 0 1 
64771619		 # 	collision with: 6 2 0  and 2 3 0 
64771641		 # 	collision with: 6 0 0  and 1 1 0 
64771643		 # 	collision with: 10 2 0  and 7 3 0 
64771675		 # 	collision with: 6 0 0  and 10 1 0 
64771685		 # 	collision with: 8 4 0  and 0 1 1 
64771687		 # 	collision with: 10 4 0  and 5 5 0 
64771828		 # 	collision with: 4 9 0  and 6 9 0 
64771830		 # 	collision with: 2 9 0  and 3 9 0 
64771841		 # 	collision with: 3 3 0  and 9 4 0 
64771843		 # 	collision with: 4 0 0  and 7 1 0 
64771849		 # 	collision with: 0 4 0  and 2 5 0 
64771851		 # 	collision with: 7 2 0  and 3 0 1 
64771860		 # 	collision with: 1 4 0  and 6 5 0 
64771862		 # 	collision with: 1 9 0  and 5 0 1 
64771872		 # 	collision with: 4 9 0  and 5 9 0 
64771874		 # 	collision with: 1 9 0  and 3 9 0 
64771877		 # 	collision with: 1 2 0  and 5 4 0 
64771889		 # 	collision with: 9 1 0  and 7 2 0 
64771891		 # 	collision with: 3 0 0  and 10 1 0 
64771892		 # 	collision with: 5 3 0  and 7 4 0 
64771894		 # 	collision with: 9 3 0  and 10 4 0 
64771916		 # 	collision with: 3 9 0  and 5 9 0 
64771918		 # 	collision with: 1 9 0  and 2 9 0 
64771924		 # 	collision with: 9 7 0  and 1 0 1 
64771926		 # 	collision with: 4 2 0  and 10 4 0 
64771960		 # 	collision with: 3 9 0  and 4 9 0 
64771962		 # 	collision with: 0 9 0  and 2 9 0 
64772000		 # 	collision with: 5 1 0  and 5 0 1 
64772002		 # 	collision with: 5 6 0  and 1 1 1 
64772004		 # 	collision with: 2 9 0  and 4 9 0 
64772006		 # 	collision with: 0 9 0  and 1 9 0 
64772032		 # 	collision with: 5 1 0  and 4 2 0 
64772034		 # 	collision with: 8 2 0  and 10 3 0 
64772043		 # 	collision with: 9 0 0  and 3 1 0 
64772048		 # 	collision with: 2 9 0  and 3 9 0 
64772050		 # 	collision with: 5 9 0  and 6 9 0 
64772059		 # 	collision with: 9 3 0  and 4 5 0 
64772064		 # 	collision with: 10 5 0  and 6 6 0 
64772066		 # 	collision with: 4 2 0  and 9 3 0 
64772092		 # 	collision with: 1 9 0  and 3 9 0 
64772094		 # 	collision with: 4 9 0  and 6 9 0 
64772096		 # 	collision with: 1 1 0  and 7 3 0 
64772098		 # 	collision with: 6 9 0  and 6 0 1 
64772136		 # 	collision with: 1 9 0  and 2 9 0 
64772138		 # 	collision with: 4 9 0  and 5 9 0 
64772172		 # 	collision with: 0 0 0  and 1 1 1 
64772174		 # 	collision with: 5 5 0  and 0 0 1 
64772180		 # 	collision with: 0 9 0  and 2 9 0 
64772182		 # 	collision with: 3 9 0  and 5 9 0 
64772204		 # 	collision with: 0 6 0  and 7 0 1 
64772206		 # 	collision with: 10 4 0  and 6 6 0 
64772209		 # 	collision with: 9 4 0  and 5 5 0 
64772211		 # 	collision with: 3 3 0  and 6 5 0 
64772221		 # 	collision with: 9 4 0  and 5 5 0 
64772224		 # 	collision with: 0 9 0  and 1 9 0 
64772226		 # 	collision with: 3 9 0  and 4 9 0 
64772236		 # 	collision with: 6 4 0  and 4 5 0 
64772238		 # 	collision with: 10 3 0  and 0 5 0 
64772249		 # 	collision with: 9 4 0  and 5 5 0 
64772251		 # 	collision with: 8 1 0  and 3 2 0 
64772257		 # 	collision with: 9 4 0  and 5 5 0 
64772259		 # 	collision with: 10 10 0  and 5 0 1 
64772268		 # 	collision with: 3 2 0  and 2 3 0 
64772270		 # 	collision with: 6 5 0  and 5 6 0 
64772312		 # 	collision with: 7 0 0  and 6 1 0 
64772314		 # 	collision with: 5 0 0  and 4 1 0 
64772325		 # 	collision with: 6 2 0  and 0 3 0 
64772333		 # 	collision with: 1 5 0  and 5 6 0 
64772335		 # 	collision with: 6 5 0  and 5 6 0 
64772344		 # 	collision with: 3 2 0  and 2 3 0 
64772346		 # 	collision with: 10 4 0  and 4 5 0 
64772356		 # 	collision with: 3 2 0  and 2 3 0 
64772358		 # 	collision with: 6 5 0  and 5 6 0 
64772361		 # 	collision with: 10 1 0  and 8 3 0 
64772363		 # 	collision with: 6 5 0  and 5 6 0 
64772373		 # 	collision with: 5 2 0  and 8 3 0 
64772375		 # 	collision with: 6 5 0  and 5 6 0 
64772376		 # 	collision with: 3 2 0  and 2 3 0 
64772378		 # 	collision with: 6 5 0  and 5 6 0 
64772400		 # 	collision with: 3 2 0  and 2 3 0 
64772402		 # 	collision with: 6 5 0  and 5 6 0 
64772408		 # 	collision with: 3 2 0  and 2 3 0 
64772410		 # 	collision with: 6 1 0  and 7 3 0 
64772444		 # 	collision with: 3 2 0  and 2 3 0 
64772446		 # 	collision with: 6 5 0  and 5 6 0 
64772484		 # 	collision with: 3 2 0  and 2 3 0 
64772488		 # 	collision with: 3 2 0  and 2 3 0 
64772490		 # 	collision with: 6 5 0  and 5 6 0 
64772518		 # 	collision with: 6 5 0  and 5 6 0 
64772525		 # 	collision with: 6 2 0  and 1 4 0 
64772527		 # 	collision with: 8 1 0  and 3 2 0 
64772541		 # 	collision with: 5 0 0  and 1 2 0 
64772543		 # 	collision with: 6 5 0  and 5 6 0 
64772548		 # 	collision with: 3 2 0  and 2 3 0 
64772550		 # 	collision with: 2 2 0  and 3 3 0 
64772576		 # 	collision with: 3 2 0  and 2 3 0 
64772578		 # 	collision with: 6 5 0  and 5 6 0 
64772580		 # 	collision with: 3 2 0  and 2 3 0 
64772582		 # 	collision with: 6 5 0  and 5 6 0 
64772620		 # 	collision with: 3 2 0  and 2 3 0 
64772622		 # 	collision with: 6 5 0  and 5 6 0 
64772656		 # 	collision with: 3 2 0  and 2 3 0 
64772658		 # 	collision with: 5 2 0  and 1 3 0 
64772664		 # 	collision with: 3 2 0  and 2 3 0 
64772666		 # 	collision with: 6 5 0  and 5 6 0 
64772688		 # 	collision with: 3 2 0  and 2 3 0 
64772690		 # 	collision with: 3 5 0  and 1 6 0 
64772693		 # 	collision with: 0 9 0  and 2 9 0 
64772705		 # 	collision with: 6 0 0  and 5 1 1 
64772707		 # 	collision with: 3 5 0  and 1 6 0 
64772708		 # 	collision with: 3 2 0  and 2 3 0 
64772710		 # 	collision with: 6 5 0  and 5 6 0 
64772720		 # 	collision with: 10 0 0  and 9 2 0 
64772722		 # 	collision with: 4 1 0  and 8 3 0 
64772733		 # 	collision with: 10 0 0  and 8 1 0 
64772735		 # 	collision with: 6 0 0  and 1 1 0 
64772741		 # 	collision with: 8 7 0  and 10 0 1 
64772743		 # 	collision with: 6 5 0  and 5 6 0 
64772752		 # 	collision with: 5 2 0  and 4 4 0 
64772754		 # 	collision with: 8 0 0  and 7 2 0 
64772809		 # 	collision with: 3 2 0  and 10 4 0 
64772811		 # 	collision with: 5 4 0  and 6 5 0 
64772817		 # 	collision with: 1 4 0  and 6 5 0 
64772819		 # 	collision with: 5 2 0  and 1 3 0 
64772828		 # 	collision with: 9 1 0  and 9 0 1 
64772830		 # 	collision with: 5 5 0  and 0 6 0 
64772840		 # 	collision with: 1 9 0  and 8 2 1 
64772842		 # 	collision with: 5 8 0  and 2 0 1 
64772845		 # 	collision with: 8 2 0  and 6 4 0 
64772847		 # 	collision with: 10 0 0  and 8 2 0 
64772859		 # 	collision with: 2 10 0  and 5 2 1 
64772860		 # 	collision with: 6 4 0  and 6 1 1 
64772862		 # 	collision with: 2 3 0  and 6 4 0 
64772884		 # 	collision with: 0 0 0  and 5 1 0 
64772886		 # 	collision with: 4 2 0  and 9 3 0 
64772892		 # 	collision with: 5 7 0  and 9 0 1 
64772894		 # 	collision with: 7 5 0  and 4 1 1 
64772928		 # 	collision with: 0 4 0  and 10 6 0 
64772930		 # 	collision with: 0 1 0  and 10 3 0 
64772968		 # 	collision with: 10 2 0  and 1 3 0 
64772970		 # 	collision with: 4 0 0  and 7 1 0 
64772972		 # 	collision with: 10 0 0  and 9 2 0 
64772974		 # 	collision with: 2 5 0  and 7 6 0 
64773000		 # 	collision with: 5 0 0  and 1 1 0 
64773002		 # 	collision with: 10 0 0  and 8 2 0 
64773009		 # 	collision with: 10 1 0  and 8 3 0 
64773011		 # 	collision with: 7 1 0  and 5 2 0 
64773016		 # 	collision with: 1 4 0  and 6 5 0 
64773018		 # 	collision with: 10 4 0  and 4 5 0 
64773025		 # 	collision with: 2 9 0  and 0 0 1 
64773027		 # 	collision with: 1 2 0  and 5 0 1 
64773032		 # 	collision with: 5 4 0  and 0 6 0 
64773034		 # 	collision with: 2 7 0  and 3 0 1 
64773060		 # 	collision with: 4 5 0  and 9 6 0 
64773062		 # 	collision with: 9 4 0  and 8 6 0 
64773064		 # 	collision with: 1 9 0  and 3 9 0 
64773066		 # 	collision with: 2 1 0  and 4 2 0 
64773104		 # 	collision with: 6 2 0  and 0 3 0 
64773106		 # 	collision with: 7 3 0  and 1 4 0 
64773140		 # 	collision with: 10 2 0  and 0 4 0 
64773148		 # 	collision with: 9 3 0  and 3 4 0 
64773150		 # 	collision with: 6 3 0  and 5 5 0 
64773172		 # 	collision with: 2 8 0  and 8 0 1 
64773174		 # 	collision with: 8 0 0  and 6 1 0 
64773177		 # 	collision with: 5 2 0  and 4 4 0 
64773179		 # 	collision with: 3 1 0  and 3 3 0 
64773191		 # 	collision with: 3 4 0  and 9 6 0 
64773192		 # 	collision with: 3 1 0  and 8 2 0 
64773194		 # 	collision with: 3 2 0  and 2 4 0 
64773206		 # 	collision with: 8 5 0  and 4 6 0 
64773217		 # 	collision with: 9 3 0  and 3 5 0 
64773219		 # 	collision with: 2 0 0  and 4 2 0 
64773225		 # 	collision with: 6 4 0  and 4 5 0 
64773227		 # 	collision with: 5 2 0  and 5 0 1 
64773236		 # 	collision with: 8 3 0  and 4 4 0 
64773238		 # 	collision with: 2 2 0  and 5 4 0 
64773280		 # 	collision with: 3 1 0  and 6 3 0 
64773282		 # 	collision with: 7 4 0  and 3 5 0 
64773293		 # 	collision with: 4 3 0  and 8 4 0 
64773295		 # 	collision with: 5 2 0  and 0 1 1 
64773301		 # 	collision with: 2 2 0  and 2 4 0 
64773303		 # 	collision with: 0 2 0  and 8 3 0 
64773312		 # 	collision with: 7 1 0  and 4 3 0 
64773324		 # 	collision with: 5 3 0  and 8 5 0 
64773326		 # 	collision with: 5 2 0  and 1 3 0 
64773329		 # 	collision with: 6 3 0  and 4 5 0 
64773331		 # 	collision with: 8 1 0  and 6 3 0 
64773341		 # 	collision with: 2 1 0  and 1 3 0 
64773343		 # 	collision with: 5 4 0  and 6 5 0 
64773344		 # 	collision with: 4 3 0  and 0 0 1 
64773346		 # 	collision with: 8 7 0  and 3 3 1 
64773368		 # 	collision with: 4 2 0  and 7 4 0 
64773370		 # 	collision with: 6 3 0  and 2 4 0 
64773376		 # 	collision with: 10 0 0  and 8 1 0 
64773378		 # 	collision with: 9 0 0  and 2 2 0 
64773412		 # 	collision with: 5 0 0  and 1 1 0 
64773414		 # 	collision with: 3 0 0  and 10 1 0 
64773454		 # 	collision with: 1 10 0  and 10 0 1 
64773456		 # 	collision with: 6 4 0  and 9 6 0 
64773458		 # 	collision with: 4 1 0  and 0 2 0 
64773484		 # 	collision with: 7 4 0  and 8 5 0 
64773486		 # 	collision with: 10 1 0  and 5 3 0 
64773493		 # 	collision with: 5 2 0  and 4 4 0 
64773495		 # 	collision with: 4 1 0  and 8 3 0 
64773500		 # 	collision with: 6 1 0  and 2 2 0 
64773502		 # 	collision with: 4 4 0  and 7 6 0 
64773509		 # 	collision with: 9 1 0  and 1 1 1 
64773511		 # 	collision with: 0 6 0  and 3 2 1 
64773516		 # 	collision with: 6 1 0  and 10 3 0 
64773518		 # 	collision with: 10 5 0  and 7 7 0 
64773548		 # 	collision with: 2 4 0  and 2 0 1 
64773550		 # 	collision with: 1 3 0  and 7 4 0 
64773588		 # 	collision with: 2 0 0  and 5 2 0 
64773590		 # 	collision with: 8 5 0  and 4 6 0 
64773624		 # 	collision with: 0 4 0  and 10 6 0 
64773626		 # 	collision with: 6 7 0  and 5 1 1 
64773632		 # 	collision with: 7 2 0  and 3 0 1 
64773634		 # 	collision with: 5 0 1  and 9 1 1 
64773656		 # 	collision with: 7 0 0  and 2 2 0 
64773658		 # 	collision with: 3 0 0  and 10 2 0 
64773661		 # 	collision with: 0 3 0  and 1 4 0 
64773663		 # 	collision with: 2 2 0  and 3 3 0 
64773673		 # 	collision with: 1 10 0  and 8 0 1 
64773675		 # 	collision with: 4 7 0  and 5 0 1 
64773676		 # 	collision with: 7 2 0  and 3 3 0 
64773678		 # 	collision with: 3 3 0  and 6 5 0 
64773688		 # 	collision with: 6 4 0  and 4 0 1 
64773690		 # 	collision with: 5 1 0  and 5 0 1 
64773701		 # 	collision with: 4 1 0  and 0 0 1 
64773703		 # 	collision with: 2 1 0  and 4 2 0 
64773709		 # 	collision with: 4 0 0  and 4 1 0 
64773711		 # 	collision with: 4 0 0  and 7 1 0 
64773720		 # 	collision with: 3 2 0  and 7 3 1 
64773722		 # 	collision with: 1 6 0  and 0 0 1 
64773764		 # 	collision with: 2 3 0  and 10 4 0 
64773766		 # 	collision with: 7 2 0  and 1 4 0 
64773777		 # 	collision with: 6 1 0  and 10 3 0 
64773779		 # 	collision with: 6 1 0  and 8 1 1 
64773785		 # 	collision with: 8 4 0  and 10 1 1 
64773796		 # 	collision with: 6 1 0  and 4 0 1 
64773798		 # 	collision with: 9 8 0  and 1 0 1 
64773813		 # 	collision with: 4 4 0  and 2 6 0 
64773815		 # 	collision with: 6 2 0  and 4 4 0 
64773825		 # 	collision with: 8 0 0  and 8 2 0 
64773827		 # 	collision with: 1 9 0  and 3 9 0 
64773828		 # 	collision with: 3 0 1  and 7 1 1 
64773830		 # 	collision with: 6 9 0  and 3 2 1 
64773852		 # 	collision with: 2 2 0  and 10 3 0 
64773854		 # 	collision with: 0 2 0  and 8 3 0 
64773860		 # 	collision with: 3 9 0  and 5 9 0 
64773862		 # 	collision with: 9 4 0  and 8 6 0 
64773896		 # 	collision with: 9 0 0  and 3 2 0 
64773898		 # 	collision with: 0 4 0  and 8 5 0 
64773936		 # 	collision with: 8 4 0  and 1 5 0 
64773938		 # 	collision with: 7 0 0  and 9 1 0 
64773940		 # 	collision with: 2 4 0  and 10 5 0 
64773942		 # 	collision with: 0 3 0  and 8 4 0 
64773968		 # 	collision with: 5 0 0  and 1 2 0 
64773977		 # 	collision with: 8 5 0  and 7 6 0 
64773979		 # 	collision with: 1 2 0  and 0 3 0 
64773984		 # 	collision with: 9 4 0  and 3 6 0 
64773986		 # 	collision with: 7 0 0  and 1 2 0 
64773993		 # 	collision with: 2 1 0  and 10 2 0 
64774000		 # 	collision with: 5 4 0  and 0 5 0 
64774002		 # 	collision with: 4 9 0  and 6 0 1 
64774028		 # 	collision with: 9 2 0  and 3 4 0 
64774030		 # 	collision with: 0 5 0  and 8 6 0 
64774032		 # 	collision with: 8 6 0  and 0 0 1 
64774034		 # 	collision with: 8 3 0  and 0 4 0 
64774072		 # 	collision with: 2 1 0  and 10 2 0 
64774074		 # 	collision with: 7 1 0  and 1 3 0 
64774108		 # 	collision with: 5 6 0  and 1 0 1 
64774110		 # 	collision with: 9 2 0  and 6 4 0 
64774116		 # 	collision with: 9 3 0  and 3 5 0 
64774118		 # 	collision with: 0 0 0  and 8 1 0 
64774142		 # 	collision with: 7 1 0  and 5 2 0 
64774145		 # 	collision with: 3 3 0  and 9 4 0 
64774147		 # 	collision with: 8 1 0  and 9 0 1 
64774157		 # 	collision with: 9 2 0  and 3 4 0 
64774159		 # 	collision with: 1 4 0  and 1 5 0 
64774160		 # 	collision with: 2 0 0  and 10 1 0 
64774162		 # 	collision with: 0 1 0  and 8 2 0 
64774172		 # 	collision with: 2 0 0  and 5 2 0 
64774174		 # 	collision with: 3 1 0  and 4 0 1 
64774185		 # 	collision with: 9 2 0  and 9 3 0 
64774187		 # 	collision with: 8 2 0  and 9 4 0 
64774193		 # 	collision with: 0 9 0  and 1 9 0 
64774195		 # 	collision with: 0 9 0  and 2 0 1 
64774204		 # 	collision with: 0 0 0  and 4 2 0 
64774206		 # 	collision with: 4 5 0  and 6 6 0 
64774248		 # 	collision with: 6 5 0  and 8 6 0 
64774250		 # 	collision with: 2 1 0  and 4 2 0 
64774261		 # 	collision with: 7 4 0  and 7 6 0 
64774263		 # 	collision with: 4 7 0  and 2 1 1 
64774271		 # 	collision with: 2 9 0  and 3 9 0 
64774280		 # 	collision with: 4 9 0  and 6 9 0 
64774282		 # 	collision with: 6 3 0  and 2 4 0 
64774292		 # 	collision with: 7 3 0  and 0 5 0 
64774294		 # 	collision with: 9 0 0  and 2 2 0 
64774297		 # 	collision with: 7 0 0  and 6 1 0 
64774299		 # 	collision with: 4 2 0  and 9 3 0 
64774309		 # 	collision with: 1 2 0  and 2 0 1 
64774311		 # 	collision with: 5 3 0  and 9 5 0 
64774312		 # 	collision with: 3 4 0  and 10 0 1 
64774314		 # 	collision with: 3 4 0  and 9 6 0 
64774336		 # 	collision with: 4 1 0  and 6 2 0 
64774338		 # 	collision with: 4 1 0  and 8 3 0 
64774346		 # 	collision with: 9 7 0  and 4 1 1 
64774380		 # 	collision with: 6 1 0  and 10 3 0 
64774382		 # 	collision with: 5 3 0  and 9 5 0 
64774420		 # 	collision with: 1 2 0  and 2 0 1 
64774422		 # 	collision with: 1 3 0  and 3 5 0 
64774424		 # 	collision with: 5 3 0  and 7 4 0 
64774426		 # 	collision with: 9 4 0  and 0 5 0 
64774452		 # 	collision with: 4 2 0  and 5 3 0 
64774454		 # 	collision with: 4 3 0  and 2 5 0 
64774461		 # 	collision with: 0 0 0  and 4 2 0 
64774463		 # 	collision with: 3 1 0  and 2 2 0 
64774468		 # 	collision with: 8 5 0  and 1 2 1 
64774470		 # 	collision with: 4 1 0  and 0 0 1 
64774477		 # 	collision with: 9 8 0  and 7 0 1 
64774479		 # 	collision with: 0 0 0  and 8 1 0 
64774484		 # 	collision with: 9 1 0  and 7 2 0 
64774486		 # 	collision with: 10 3 0  and 6 1 1 
64774512		 # 	collision with: 1 2 0  and 5 4 0 
64774514		 # 	collision with: 8 2 0  and 10 3 0 
64774516		 # 	collision with: 9 3 0  and 3 4 0 
64774518		 # 	collision with: 10 5 0  and 3 6 0 
64774592		 # 	collision with: 5 3 0  and 8 5 0 
64774594		 # 	collision with: 9 1 0  and 9 0 1 
64774600		 # 	collision with: 2 4 0  and 6 6 0 
64774602		 # 	collision with: 0 4 0  and 4 6 0 
64774624		 # 	collision with: 8 5 0  and 4 0 1 
64774629		 # 	collision with: 3 0 0  and 7 1 0 
64774631		 # 	collision with: 7 6 0  and 0 0 1 
64774641		 # 	collision with: 5 5 0  and 2 0 1 
64774643		 # 	collision with: 6 1 0  and 7 2 0 
64774644		 # 	collision with: 10 2 0  and 1 3 0 
64774646		 # 	collision with: 7 0 0  and 9 1 0 
64774656		 # 	collision with: 7 1 0  and 0 2 0 
64774658		 # 	collision with: 10 7 0  and 1 0 1 
64774669		 # 	collision with: 1 2 0  and 5 4 0 
64774671		 # 	collision with: 6 1 0  and 7 3 0 
64774679		 # 	collision with: 8 8 0  and 1 1 1 
64774688		 # 	collision with: 4 1 0  and 0 3 0 
64774690		 # 	collision with: 6 2 0  and 4 3 0 
64774732		 # 	collision with: 5 8 0  and 1 0 1 
64774734		 # 	collision with: 8 0 0  and 6 1 0 
64774747		 # 	collision with: 9 4 0  and 0 5 0 
64774753		 # 	collision with: 3 9 0  and 3 0 1 
64774755		 # 	collision with: 5 9 0  and 5 1 1 
64774764		 # 	collision with: 9 1 0  and 3 1 1 
64774766		 # 	collision with: 6 2 0  and 4 3 0 
64774776		 # 	collision with: 8 2 0  and 6 3 0 
64774778		 # 	collision with: 6 2 0  and 4 3 0 
64774781		 # 	collision with: 5 1 0  and 4 2 0 
64774783		 # 	collision with: 2 4 0  and 0 6 0 
64774793		 # 	collision with: 7 3 0  and 4 0 1 
64774795		 # 	collision with: 4 1 1  and 6 1 1 
64774796		 # 	collision with: 6 1 0  and 2 2 0 
64774828		 # 	collision with: 4 5 0  and 9 6 0 
64774830		 # 	collision with: 6 2 0  and 4 3 0 
64774864		 # 	collision with: 10 0 0  and 8 1 0 
64774866		 # 	collision with: 6 2 0  and 4 3 0 
64774904		 # 	collision with: 7 0 1  and 7 1 1 
64774906		 # 	collision with: 6 2 0  and 4 3 0 
64774908		 # 	collision with: 3 2 0  and 10 4 0 
64774910		 # 	collision with: 6 2 0  and 4 3 0 
64774936		 # 	collision with: 8 1 0  and 9 2 0 
64774938		 # 	collision with: 6 2 0  and 4 3 0 
64774945		 # 	collision with: 1 3 0  and 0 4 0 
64774947		 # 	collision with: 6 0 0  and 1 1 0 
64774952		 # 	collision with: 6 4 0  and 4 5 0 
64774954		 # 	collision with: 6 2 0  and 4 3 0 
64774961		 # 	collision with: 5 6 0  and 4 1 1 
64774963		 # 	collision with: 1 4 0  and 4 0 1 
64774968		 # 	collision with: 4 3 0  and 1 5 0 
64774970		 # 	collision with: 0 0 0  and 3 2 0 
64774996		 # 	collision with: 5 5 0  and 3 6 0 
64774998		 # 	collision with: 6 2 0  and 4 3 0 
64775000		 # 	collision with: 3 6 0  and 0 0 1 
64775002		 # 	collision with: 6 2 0  and 4 3 0 
64775040		 # 	collision with: 9 1 0  and 7 2 0 
64775042		 # 	collision with: 6 2 0  and 4 3 0 
64775078		 # 	collision with: 6 2 0  and 4 3 0 
64775084		 # 	collision with: 2 3 0  and 9 5 0 
64775086		 # 	collision with: 6 2 0  and 4 3 0 
64775108		 # 	collision with: 8 0 0  and 3 1 0 
64775110		 # 	collision with: 6 2 0  and 4 3 0 
64775113		 # 	collision with: 2 5 0  and 10 6 0 
64775115		 # 	collision with: 3 9 0  and 5 9 0 
64775125		 # 	collision with: 6 2 0  and 1 4 0 
64775127		 # 	collision with: 2 5 0  and 7 6 0 
64775128		 # 	collision with: 7 3 0  and 5 4 0 
64775130		 # 	collision with: 6 2 0  and 4 3 0 
64775140		 # 	collision with: 0 9 0  and 1 9 0 
64775142		 # 	collision with: 9 2 0  and 2 3 0 
64775155		 # 	collision with: 4 0 0  and 5 2 0 
64775161		 # 	collision with: 3 1 0  and 1 1 1 
64775163		 # 	collision with: 2 3 0  and 3 0 1 
64775172		 # 	collision with: 0 1 0  and 3 2 0 
64775174		 # 	collision with: 3 2 0  and 6 3 0 
64775216		 # 	collision with: 5 4 0  and 0 6 0 
64775218		 # 	collision with: 9 3 0  and 4 5 0 
64775229		 # 	collision with: 3 2 0  and 2 3 0 
64775231		 # 	collision with: 2 3 0  and 10 5 0 
64775237		 # 	collision with: 3 2 0  and 2 3 0 
64775239		 # 	collision with: 8 2 0  and 10 3 0 
64775248		 # 	collision with: 4 0 0  and 4 1 0 
64775250		 # 	collision with: 4 3 0  and 4 4 0 
64775260		 # 	collision with: 10 5 0  and 0 0 1 
64775262		 # 	collision with: 9 1 1  and 5 3 1 
64775265		 # 	collision with: 3 2 0  and 2 3 0 
64775267		 # 	collision with: 5 0 0  and 4 1 0 
64775277		 # 	collision with: 3 2 0  and 2 3 0 
64775279		 # 	collision with: 2 3 0  and 10 5 0 
64775282		 # 	collision with: 2 0 0  and 2 1 0 
64775304		 # 	collision with: 1 1 0  and 7 3 0 
64775306		 # 	collision with: 8 3 0  and 0 4 0 
64775312		 # 	collision with: 5 1 0  and 5 3 0 
64775314		 # 	collision with: 5 4 0  and 5 6 0 
64775348		 # 	collision with: 9 5 0  and 1 6 0 
64775350		 # 	collision with: 3 4 0  and 9 6 0 
64775388		 # 	collision with: 1 1 0  and 1 2 0 
64775390		 # 	collision with: 1 4 0  and 1 5 0 
64775392		 # 	collision with: 6 2 0  and 1 4 0 
64775394		 # 	collision with: 7 5 0  and 10 6 0 
64775420		 # 	collision with: 8 2 0  and 6 4 0 
64775422		 # 	collision with: 5 0 0  and 4 1 0 
64775429		 # 	collision with: 9 1 0  and 7 2 0 
64775436		 # 	collision with: 4 4 0  and 7 5 0 
64775438		 # 	collision with: 4 2 0  and 10 4 0 
64775445		 # 	collision with: 3 2 0  and 2 3 0 
64775447		 # 	collision with: 2 0 0  and 4 2 0 
64775452		 # 	collision with: 8 0 0  and 8 2 0 
64775480		 # 	collision with: 7 0 0  and 2 2 0 
64775482		 # 	collision with: 9 1 0  and 1 2 0 
64775484		 # 	collision with: 8 2 0  and 6 3 0 
64775486		 # 	collision with: 10 1 0  and 10 2 0 
64775524		 # 	collision with: 6 0 0  and 9 1 0 
64775526		 # 	collision with: 4 0 0  and 7 1 0 
64775560		 # 	collision with: 6 3 0  and 6 4 0 
64775562		 # 	collision with: 4 0 0  and 5 2 0 
64775592		 # 	collision with: 9 2 0  and 9 3 0 
64775594		 # 	collision with: 1 2 0  and 8 4 0 
64775597		 # 	collision with: 3 2 0  and 2 3 0 
64775599		 # 	collision with: 2 3 0  and 10 5 0 
64775609		 # 	collision with: 3 2 0  and 2 3 0 
64775611		 # 	collision with: 2 3 0  and 10 5 0 
64775612		 # 	collision with: 0 3 0  and 6 5 0 
64775614		 # 	collision with: 10 1 0  and 5 3 0 
64775624		 # 	collision with: 7 4 0  and 7 6 0 
64775626		 # 	collision with: 9 1 0  and 0 3 0 
64775637		 # 	collision with: 3 2 0  and 2 3 0 
64775645		 # 	collision with: 0 0 0  and 4 2 0 
64775647		 # 	collision with: 4 2 0  and 9 3 0 
64775656		 # 	collision with: 4 3 0  and 8 4 0 
64775658		 # 	collision with: 5 1 0  and 2 3 0 
64775700		 # 	collision with: 7 1 0  and 0 2 0 
64775702		 # 	collision with: 9 2 0  and 2 3 0 
64775713		 # 	collision with: 9 6 0  and 8 0 1 
64775715		 # 	collision with: 3 4 0  and 9 5 0 
64775721		 # 	collision with: 5 5 0  and 3 6 0 
64775723		 # 	collision with: 2 0 0  and 2 1 0 
64775732		 # 	collision with: 3 2 0  and 10 4 0 
64775734		 # 	collision with: 3 5 0  and 2 0 1 
64775744		 # 	collision with: 0 2 0  and 4 3 0 
64775746		 # 	collision with: 6 4 0  and 3 6 0 
64775749		 # 	collision with: 1 3 0  and 0 4 0 
64775751		 # 	collision with: 3 1 0  and 2 2 0 
64775761		 # 	collision with: 7 3 0  and 0 5 0 
64775763		 # 	collision with: 3 4 0  and 9 5 0 
64775764		 # 	collision with: 10 1 0  and 10 0 1 
64775766		 # 	collision with: 1 9 0  and 3 1 1 
64775788		 # 	collision with: 8 4 0  and 5 6 0 
64775790		 # 	collision with: 9 2 0  and 6 4 0 
64775796		 # 	collision with: 9 10 0  and 0 0 1 
64775798		 # 	collision with: 10 7 0  and 6 1 1 
64775872		 # 	collision with: 3 1 0  and 6 3 0 
64775874		 # 	collision with: 3 9 0  and 2 1 1 
64775876		 # 	collision with: 4 3 0  and 1 5 0 
64775878		 # 	collision with: 10 5 0  and 7 7 0 
64775904		 # 	collision with: 8 1 0  and 9 3 0 
64775906		 # 	collision with: 3 1 0  and 2 2 0 
64775913		 # 	collision with: 5 1 0  and 4 2 0 
64775915		 # 	collision with: 4 3 0  and 2 5 0 
64775920		 # 	collision with: 1 5 0  and 5 6 0 
64775922		 # 	collision with: 5 1 0  and 9 2 0 
64775929		 # 	collision with: 0 0 0  and 1 1 1 
64775931		 # 	collision with: 3 4 0  and 9 5 0 
64775936		 # 	collision with: 2 9 0  and 3 9 0 
64775938		 # 	collision with: 9 3 0  and 4 5 0 
64775964		 # 	collision with: 8 4 0  and 1 5 0 
64775966		 # 	collision with: 6 4 0  and 10 5 0 
64775970		 # 	collision with: 4 1 0  and 4 0 1 
64776008		 # 	collision with: 5 8 0  and 10 0 1 
64776010		 # 	collision with: 10 5 0  and 4 0 1 
64776044		 # 	collision with: 6 2 0  and 1 4 0 
64776046		 # 	collision with: 0 1 0  and 10 3 0 
64776052		 # 	collision with: 0 2 0  and 8 4 0 
64776054		 # 	collision with: 2 3 0  and 6 4 0 
64776076		 # 	collision with: 4 7 0  and 0 0 1 
64776078		 # 	collision with: 4 1 0  and 0 2 0 
64776081		 # 	collision with: 3 4 0  and 3 5 0 
64776083		 # 	collision with: 3 4 0  and 9 5 0 
64776093		 # 	collision with: 0 4 0  and 2 5 0 
64776095		 # 	collision with: 3 4 0  and 9 5 0 
64776096		 # 	collision with: 7 1 0  and 4 3 0 
64776098		 # 	collision with: 3 6 0  and 7 7 0 
64776108		 # 	collision with: 1 1 0  and 2 0 1 
64776121		 # 	collision with: 9 1 0  and 9 0 1 
64776123		 # 	collision with: 3 4 0  and 9 5 0 
64776129		 # 	collision with: 1 2 0  and 2 0 1 
64776131		 # 	collision with: 4 1 0  and 8 3 0 
64776140		 # 	collision with: 7 5 0  and 2 6 0 
64776142		 # 	collision with: 10 2 0  and 5 3 0 
64776184		 # 	collision with: 10 2 0  and 0 4 0 
64776186		 # 	collision with: 4 0 0  and 5 2 0 
64776197		 # 	collision with: 0 1 0  and 3 2 0 
64776199		 # 	collision with: 2 5 0  and 7 6 0 
64776205		 # 	collision with: 8 3 0  and 6 0 1 
64776207		 # 	collision with: 1 7 0  and 5 0 1 
64776218		 # 	collision with: 1 5 0  and 2 6 0 
64776228		 # 	collision with: 8 1 0  and 9 3 0 
64776230		 # 	collision with: 8 1 0  and 3 2 0 
64776235		 # 	collision with: 1 2 0  and 0 3 0 
64776245		 # 	collision with: 4 8 0  and 5 0 1 
64776247		 # 	collision with: 8 3 0  and 0 4 0 
64776248		 # 	collision with: 7 3 0  and 5 4 0 
64776250		 # 	collision with: 0 0 0  and 1 1 1 
64776272		 # 	collision with: 1 3 0  and 2 5 0 
64776274		 # 	collision with: 6 0 0  and 1 1 0 
64776280		 # 	collision with: 4 4 0  and 7 5 0 
64776316		 # 	collision with: 1 2 0  and 7 3 0 
64776318		 # 	collision with: 10 3 0  and 0 5 0 
64776356		 # 	collision with: 3 9 0  and 4 9 0 
64776358		 # 	collision with: 7 4 0  and 3 5 0 
64776360		 # 	collision with: 3 3 0  and 9 4 0 
64776362		 # 	collision with: 1 3 0  and 7 4 0 
64776388		 # 	collision with: 3 3 0  and 5 5 0 
64776390		 # 	collision with: 1 2 0  and 0 3 0 
64776397		 # 	collision with: 7 0 0  and 6 1 0 
64776399		 # 	collision with: 4 0 0  and 5 2 0 
64776404		 # 	collision with: 8 9 0  and 8 1 1 
64776406		 # 	collision with: 3 6 0  and 3 0 1 
64776413		 # 	collision with: 4 4 0  and 7 5 0 
64776415		 # 	collision with: 9 4 0  and 8 6 0 
64776420		 # 	collision with: 0 0 0  and 5 1 0 
64776422		 # 	collision with: 7 3 0  and 2 0 1 
64776448		 # 	collision with: 3 4 0  and 4 6 0 
64776450		 # 	collision with: 5 5 0  and 0 6 0 
64776452		 # 	collision with: 3 0 0  and 7 1 0 
64776454		 # 	collision with: 6 3 0  and 5 5 0 
64776492		 # 	collision with: 8 0 0  and 3 1 0 
64776494		 # 	collision with: 1 4 0  and 2 6 0 
64776528		 # 	collision with: 2 3 0  and 0 0 1 
64776530		 # 	collision with: 7 5 0  and 10 6 0 
64776536		 # 	collision with: 5 4 0  and 0 5 0 
64776538		 # 	collision with: 8 2 0  and 9 4 0 
64776560		 # 	collision with: 6 4 0  and 9 6 0 
64776562		 # 	collision with: 0 3 0  and 7 5 0 
64776567		 # 	collision with: 5 1 1  and 0 2 1 
64776577		 # 	collision with: 6 2 0  and 0 3 0 
64776579		 # 	collision with: 10 3 0  and 8 0 1 
64776592		 # 	collision with: 3 5 0  and 3 0 1 
64776594		 # 	collision with: 10 7 0  and 0 0 1 
64776605		 # 	collision with: 2 4 0  and 9 0 1 
64776607		 # 	collision with: 7 0 0  and 1 2 0 
64776613		 # 	collision with: 7 7 0  and 8 0 1 
64776615		 # 	collision with: 2 2 0  and 3 3 0 
64776624		 # 	collision with: 7 2 0  and 9 4 0 
64776626		 # 	collision with: 5 4 0  and 6 5 0 
64776668		 # 	collision with: 7 2 0  and 9 4 0 
64776670		 # 	collision with: 8 4 0  and 10 6 0 
64776681		 # 	collision with: 10 3 0  and 1 3 1 
64776683		 # 	collision with: 7 2 0  and 7 3 0 
64776689		 # 	collision with: 7 5 0  and 2 6 0 
64776691		 # 	collision with: 0 1 0  and 10 3 0 
64776700		 # 	collision with: 7 2 0  and 9 4 0 
64776702		 # 	collision with: 10 2 0  and 3 4 0 
64776712		 # 	collision with: 7 2 0  and 9 4 0 
64776714		 # 	collision with: 2 2 0  and 3 3 0 
64776717		 # 	collision with: 3 0 0  and 7 1 0 
64776719		 # 	collision with: 10 1 0  and 10 2 0 
64776729		 # 	collision with: 4 9 0  and 5 9 0 
64776732		 # 	collision with: 0 2 0  and 8 4 0 
64776734		 # 	collision with: 6 0 0  and 1 1 0 
64776756		 # 	collision with: 7 2 0  and 9 4 0 
64776758		 # 	collision with: 2 0 0  and 4 2 0 
64776764		 # 	collision with: 7 2 0  and 9 4 0 
64776766		 # 	collision with: 1 9 0  and 8 0 1 
64776800		 # 	collision with: 7 2 0  and 9 4 0 
64776802		 # 	collision with: 1 5 0  and 2 6 0 
64776840		 # 	collision with: 6 0 0  and 9 1 0 
64776842		 # 	collision with: 4 10 0  and 0 0 1 
64776872		 # 	collision with: 7 0 0  and 6 1 0 
64776874		 # 	collision with: 5 1 0  and 9 2 0 
64776881		 # 	collision with: 4 4 0  and 2 6 0 
64776883		 # 	collision with: 8 1 0  and 6 3 0 
64776888		 # 	collision with: 7 2 0  and 9 4 0 
64776890		 # 	collision with: 6 1 0  and 7 2 0 
64776897		 # 	collision with: 5 1 0  and 5 3 0 
64776899		 # 	collision with: 9 4 0  and 0 5 0 
64776906		 # 	collision with: 1 4 0  and 4 0 1 
64776932		 # 	collision with: 7 2 0  and 9 4 0 
64776934		 # 	collision with: 9 1 0  and 0 3 0 
64776936		 # 	collision with: 7 2 0  and 3 3 0 
64776976		 # 	collision with: 7 2 0  and 9 4 0 
64776978		 # 	collision with: 9 3 0  and 10 4 0 
64777012		 # 	collision with: 7 2 0  and 9 4 0 
64777014		 # 	collision with: 2 6 0  and 2 0 1 
64777020		 # 	collision with: 4 0 0  and 6 2 0 
64777022		 # 	collision with: 9 2 0  and 2 0 1 
64777044		 # 	collision with: 7 2 0  and 9 4 0 
64777046		 # 	collision with: 9 1 0  and 1 2 0 
64777049		 # 	collision with: 7 3 0  and 0 5 0 
64777051		 # 	collision with: 9 0 0  and 3 1 0 
64777061		 # 	collision with: 1 1 0  and 1 2 0 
64777063		 # 	collision with: 7 4 0  and 3 5 0 
64777064		 # 	collision with: 7 2 0  and 9 4 0 
64777066		 # 	collision with: 5 2 0  and 7 4 0 
64777076		 # 	collision with: 7 2 0  and 9 4 0 
64777078		 # 	collision with: 2 4 0  and 3 0 1 
64777089		 # 	collision with: 5 2 0  and 8 3 0 
64777091		 # 	collision with: 10 2 0  and 5 3 0 
64777097		 # 	collision with: 0 1 0  and 3 2 0 
64777108		 # 	collision with: 10 4 0  and 1 6 0 
64777109		 # 	collision with: 5 9 0  and 6 9 0 
64777110		 # 	collision with: 5 4 0  and 5 6 0 
64777111		 # 	collision with: 4 2 0  and 2 1 1 
64777168		 # 	collision with: 1 5 0  and 4 6 0 
64777169		 # 	collision with: 0 4 0  and 9 6 0 
64777170		 # 	collision with: 3 8 0  and 4 0 1 
64777171		 # 	collision with: 7 1 0  and 6 2 0 
64777228		 # 	collision with: 1 6 0  and 4 1 1 
64777229		 # 	collision with: 1 4 0  and 7 6 0 
64777230		 # 	collision with: 10 3 0  and 0 0 1 
64777231		 # 	collision with: 7 1 0  and 3 2 0 
64777244		 # 	collision with: 7 1 0  and 10 3 0 
64777245		 # 	collision with: 4 4 0  and 6 5 0 
64777246		 # 	collision with: 0 0 0  and 1 1 1 
64777247		 # 	collision with: 4 2 0  and 5 2 0 
64777304		 # 	collision with: 9 3 0  and 7 0 1 
64777305		 # 	collision with: 5 5 0  and 1 3 1 
64777306		 # 	collision with: 6 1 0  and 0 0 1 
64777307		 # 	collision with: 1 7 0  and 10 2 1 
64777364		 # 	collision with: 2 0 0  and 1 1 0 
64777365		 # 	collision with: 7 1 0  and 4 3 0 
64777366		 # 	collision with: 9 0 0  and 7 2 0 
64777367		 # 	collision with: 1 1 0  and 3 0 1 
64777380		 # 	collision with: 7 3 0  and 2 0 1 
64777381		 # 	collision with: 6 3 0  and 2 4 0 
64777382		 # 	collision with: 1 3 0  and 8 4 0 
64777383		 # 	collision with: 3 1 0  and 3 3 0 
64777440		 # 	collision with: 6 5 0  and 2 0 1 
64777441		 # 	collision with: 0 4 0  and 4 0 1 
64777442		 # 	collision with: 6 1 0  and 10 3 0 
64777443		 # 	collision with: 0 0 0  and 3 1 1 
64777500		 # 	collision with: 1 9 0  and 9 0 1 
64777501		 # 	collision with: 5 1 0  and 5 3 0 
64777502		 # 	collision with: 6 0 0  and 3 2 0 
64777503		 # 	collision with: 6 0 0  and 8 1 0 
64777516		 # 	collision with: 8 1 0  and 4 3 0 
64777517		 # 	collision with: 1 6 0  and 10 1 1 
64777518		 # 	collision with: 7 3 0  and 3 5 0 
64777519		 # 	collision with: 7 9 0  and 1 0 1 
64777576		 # 	collision with: 2 6 0  and 9 1 1 
64777577		 # 	collision with: 8 9 0  and 0 0 1 
64777578		 # 	collision with: 1 1 0  and 3 3 0 
64777579		 # 	collision with: 10 2 0  and 6 4 0 
64777592		 # 	collision with: 9 10 0  and 0 0 1 
64777593		 # 	collision with: 4 3 0  and 3 4 0 
64777594		 # 	collision with: 7 1 0  and 3 2 0 
64777595		 # 	collision with: 5 4 0  and 6 5 0 
64777652		 # 	collision with: 0 5 0  and 7 6 0 
64777653		 # 	collision with: 4 3 0  and 3 4 0 
64777654		 # 	collision with: 4 0 0  and 7 1 0 
64777655		 # 	collision with: 6 5 0  and 5 6 0 
64777712		 # 	collision with: 7 4 0  and 0 6 0 
64777713		 # 	collision with: 5 1 0  and 0 2 0 
64777714		 # 	collision with: 6 5 0  and 5 6 0 
64777715		 # 	collision with: 6 5 0  and 5 6 0 
64777728		 # 	collision with: 4 5 0  and 8 6 0 
64777729		 # 	collision with: 8 0 0  and 3 1 0 
64777730		 # 	collision with: 4 0 0  and 3 2 0 
64777731		 # 	collision with: 6 5 0  and 5 6 0 
64777788		 # 	collision with: 8 4 0  and 5 0 1 
64777789		 # 	collision with: 6 1 0  and 7 3 0 
64777790		 # 	collision with: 6 0 0  and 3 2 0 
64777791		 # 	collision with: 6 5 0  and 5 6 0 
64777848		 # 	collision with: 0 4 0  and 9 6 0 
64777849		 # 	collision with: 4 3 0  and 3 4 0 
64777850		 # 	collision with: 6 0 0  and 7 1 0 
64777851		 # 	collision with: 6 5 0  and 5 6 0 
64777864		 # 	collision with: 3 1 0  and 1 2 0 
64777865		 # 	collision with: 9 0 0  and 10 2 0 
64777866		 # 	collision with: 6 5 0  and 5 6 0 
64777867		 # 	collision with: 8 3 0  and 5 5 0 
64777924		 # 	collision with: 8 1 0  and 2 0 1 
64777925		 # 	collision with: 4 3 0  and 3 4 0 
64777926		 # 	collision with: 6 5 0  and 5 6 0 
64777927		 # 	collision with: 1 1 0  and 3 1 0 
64777984		 # 	collision with: 1 1 0  and 3 1 0 
64777985		 # 	collision with: 4 3 0  and 3 4 0 
64777986		 # 	collision with: 6 5 0  and 5 6 0 
64777987		 # 	collision with: 8 0 0  and 2 1 0 
64778000		 # 	collision with: 4 3 0  and 5 4 0 
64778001		 # 	collision with: 7 1 0  and 4 3 0 
64778002		 # 	collision with: 6 5 0  and 5 6 0 
64778003		 # 	collision with: 6 5 0  and 5 6 0 
64778060		 # 	collision with: 1 1 0  and 1 2 0 
64778061		 # 	collision with: 4 3 0  and 3 4 0 
64778062		 # 	collision with: 6 5 0  and 5 6 0 
64778063		 # 	collision with: 7 3 0  and 10 5 0 
64778076		 # 	collision with: 10 1 0  and 5 3 0 
64778077		 # 	collision with: 7 3 0  and 9 4 0 
64778078		 # 	collision with: 6 0 0  and 3 2 0 
64778079		 # 	collision with: 8 4 0  and 1 6 0 
64778136		 # 	collision with: 8 0 0  and 1 2 0 
64778137		 # 	collision with: 9 1 0  and 7 3 0 
64778138		 # 	collision with: 10 2 0  and 6 4 0 
64778139		 # 	collision with: 0 3 0  and 9 5 0 
64778196		 # 	collision with: 0 0 0  and 7 2 0 
64778197		 # 	collision with: 7 1 0  and 4 3 0 
64778198		 # 	collision with: 1 1 0  and 4 2 0 
64778199		 # 	collision with: 5 1 0  and 10 2 0 
64778212		 # 	collision with: 10 7 0  and 1 3 1 
64778213		 # 	collision with: 0 0 1  and 9 1 1 
64778214		 # 	collision with: 5 4 0  and 6 5 0 
64778215		 # 	collision with: 4 0 0  and 10 1 1 
64778272		 # 	collision with: 3 4 0  and 5 4 0 
64778273		 # 	collision with: 2 0 0  and 1 2 0 
64778274		 # 	collision with: 6 10 0  and 3 3 1 
64778275		 # 	collision with: 9 2 0  and 1 3 0 
64778332		 # 	collision with: 3 3 0  and 1 5 0 
64778333		 # 	collision with: 0 7 0  and 1 7 0 
64778334		 # 	collision with: 4 3 0  and 4 4 0 
64778335		 # 	collision with: 0 2 0  and 2 0 1 
64778348		 # 	collision with: 1 1 0  and 1 0 1 
64778349		 # 	collision with: 5 10 0  and 6 1 1 
64778350		 # 	collision with: 8 4 0  and 1 6 0 
64778351		 # 	collision with: 1 6 0  and 9 1 1 
64778408		 # 	collision with: 6 3 0  and 6 4 0 
64778409		 # 	collision with: 6 1 0  and 2 0 1 
64778410		 # 	collision with: 10 3 0  and 4 4 0 
64778411		 # 	collision with: 4 4 0  and 5 1 1 
64778468		 # 	collision with: 1 10 0  and 6 0 1 
64778469		 # 	collision with: 0 0 0  and 7 2 0 
64778470		 # 	collision with: 9 5 0  and 7 0 1 
64778471		 # 	collision with: 1 7 0  and 7 0 1 
64778484		 # 	collision with: 4 4 0  and 5 1 1 
64778485		 # 	collision with: 9 2 0  and 9 3 0 
64778486		 # 	collision with: 1 3 0  and 2 3 0 
64778487		 # 	collision with: 5 0 0  and 8 2 0 
64778544		 # 	collision with: 9 8 0  and 2 1 1 
64778545		 # 	collision with: 0 3 0  and 7 1 1 
64778546		 # 	collision with: 7 1 0  and 10 1 1 
64778547		 # 	collision with: 8 1 0  and 6 2 0 
64778560		 # 	collision with: 6 10 0  and 3 0 1 
64778561		 # 	collision with: 5 2 0  and 1 4 0 
64778562		 # 	collision with: 5 2 0  and 3 3 0 
64778563		 # 	collision with: 2 2 0  and 7 3 0 
64778620		 # 	collision with: 1 2 0  and 2 0 1 
64778621		 # 	collision with: 2 0 0  and 1 1 0 
64778622		 # 	collision with: 10 4 0  and 6 0 1 
64778623		 # 	collision with: 4 2 0  and 3 3 0 
64778680		 # 	collision with: 3 1 0  and 3 0 1 
64778681		 # 	collision with: 0 5 0  and 7 6 0 
64778682		 # 	collision with: 8 0 0  and 2 1 0 
64778683		 # 	collision with: 8 3 0  and 5 5 0 
64778696		 # 	collision with: 6 0 0  and 4 1 0 
64778697		 # 	collision with: 3 9 0  and 2 0 1 
64778698		 # 	collision with: 9 0 0  and 2 2 0 
64778699		 # 	collision with: 1 3 0  and 8 4 0 
64778756		 # 	collision with: 5 6 0  and 3 1 1 
64778757		 # 	collision with: 1 6 0  and 6 0 1 
64778758		 # 	collision with: 3 6 0  and 4 6 0 
64778759		 # 	collision with: 5 3 0  and 0 2 1 
64778816		 # 	collision with: 7 2 0  and 2 4 0 
64778817		 # 	collision with: 4 3 0  and 10 5 0 
64778818		 # 	collision with: 1 3 0  and 0 4 0 
64778819		 # 	collision with: 2 1 0  and 2 0 1 
64778832		 # 	collision with: 2 0 0  and 3 1 0 
64778833		 # 	collision with: 7 1 0  and 4 3 0 
64778834		 # 	collision with: 1 1 0  and 7 0 1 
64778835		 # 	collision with: 2 7 0  and 0 2 1 
64778892		 # 	collision with: 10 2 0  and 7 0 1 
64778893		 # 	collision with: 0 4 0  and 1 0 1 
64778894		 # 	collision with: 6 0 0  and 3 2 0 
64778895		 # 	collision with: 9 5 0  and 9 6 0 
64778952		 # 	collision with: 6 8 0  and 1 0 1 
64778953		 # 	collision with: 2 3 0  and 4 5 0 
64778954		 # 	collision with: 8 8 0  and 5 0 1 
64778955		 # 	collision with: 6 7 0  and 3 1 1 
64778968		 # 	collision with: 0 2 0  and 5 3 0 
64778969		 # 	collision with: 1 7 0  and 8 0 1 
64778970		 # 	collision with: 4 8 0  and 5 0 1 
64778971		 # 	collision with: 2 5 0  and 3 6 0 
64779028		 # 	collision with: 4 5 0  and 8 6 0 
64779029		 # 	collision with: 2 2 0  and 6 4 0 
64779030		 # 	collision with: 9 6 0  and 4 0 1 
64779031		 # 	collision with: 2 3 0  and 0 4 0 
64779044		 # 	collision with: 8 7 0  and 6 0 1 
64779045		 # 	collision with: 9 2 0  and 5 3 0 
64779046		 # 	collision with: 7 2 0  and 6 0 1 
64779047		 # 	collision with: 8 3 0  and 5 5 0 
64779104		 # 	collision with: 2 10 0  and 3 10 0 
64779105		 # 	collision with: 1 4 0  and 0 5 0 
64779106		 # 	collision with: 9 2 0  and 8 4 0 
64779107		 # 	collision with: 9 0 0  and 7 2 0 
64779164		 # 	collision with: 10 3 0  and 5 0 1 
64779165		 # 	collision with: 7 2 0  and 6 4 0 
64779166		 # 	collision with: 1 7 0  and 3 2 1 
64779167		 # 	collision with: 1 9 0  and 9 0 1 
64779180		 # 	collision with: 0 7 0  and 2 0 1 
64779181		 # 	collision with: 0 5 0  and 2 5 0 
64779182		 # 	collision with: 6 0 0  and 3 2 0 
64779183		 # 	collision with: 1 10 0  and 10 0 1 
64779240		 # 	collision with: 1 4 0  and 2 5 0 
64779241		 # 	collision with: 7 1 0  and 7 0 1 
64779242		 # 	collision with: 3 1 0  and 4 2 0 
64779243		 # 	collision with: 7 5 0  and 10 3 1 
64779300		 # 	collision with: 9 1 0  and 7 3 0 
64779301		 # 	collision with: 8 4 0  and 4 2 1 
64779302		 # 	collision with: 4 2 0  and 3 3 0 
64779303		 # 	collision with: 10 4 0  and 5 0 1 
64779316		 # 	collision with: 5 2 0  and 8 3 1 
64779317		 # 	collision with: 2 2 0  and 2 4 0 
64779318		 # 	collision with: 3 1 0  and 3 3 0 
64779319		 # 	collision with: 10 0 0  and 6 1 0 
64779376		 # 	collision with: 3 5 0  and 10 1 1 
64779377		 # 	collision with: 10 2 0  and 1 3 0 
64779378		 # 	collision with: 6 8 0  and 3 0 1 
64779379		 # 	collision with: 10 9 0  and 1 0 1 
64779436		 # 	collision with: 5 1 0  and 5 3 0 
64779437		 # 	collision with: 1 4 0  and 2 5 0 
64779438		 # 	collision with: 4 5 0  and 5 0 1 
64779439		 # 	collision with: 4 1 0  and 4 0 1 
64779452		 # 	collision with: 10 3 0  and 3 5 0 
64779453		 # 	collision with: 1 2 0  and 2 0 1 
64779454		 # 	collision with: 5 0 0  and 8 2 0 
64779455		 # 	collision with: 0 3 0  and 4 5 0 
64779512		 # 	collision with: 4 3 0  and 10 5 0 
64779513		 # 	collision with: 7 1 0  and 4 3 0 
64779514		 # 	collision with: 6 10 0  and 9 0 1 
64779515		 # 	collision with: 10 3 0  and 4 4 0 
64779528		 # 	collision with: 1 5 0  and 3 6 0 
64779529		 # 	collision with: 1 10 0  and 6 1 1 
64779530		 # 	collision with: 0 6 0  and 2 0 1 
64779531		 # 	collision with: 5 2 0  and 0 3 0 
64779588		 # 	collision with: 1 5 0  and 2 2 1 
64779589		 # 	collision with: 6 2 0  and 4 4 0 
64779590		 # 	collision with: 2 5 0  and 8 0 1 
64779591		 # 	collision with: 8 4 0  and 6 6 0 
64779648		 # 	collision with: 3 3 0  and 4 1 1 
64779649		 # 	collision with: 3 1 0  and 1 2 0 
64779650		 # 	collision with: 0 3 0  and 4 5 0 
64779651		 # 	collision with: 4 0 0  and 6 2 0 
64779664		 # 	collision with: 10 1 0  and 9 3 0 
64779665		 # 	collision with: 7 1 0  and 4 3 0 
64779666		 # 	collision with: 8 8 0  and 9 1 1 
64779667		 # 	collision with: 9 1 0  and 10 3 0 
64779724		 # 	collision with: 1 4 0  and 7 6 0 
64779725		 # 	collision with: 4 0 0  and 4 1 0 
64779726		 # 	collision with: 1 6 0  and 5 0 1 
64779727		 # 	collision with: 10 4 0  and 5 5 0 
64779784		 # 	collision with: 4 2 0  and 7 4 0 
64779785		 # 	collision with: 4 3 0  and 3 5 0 
64779786		 # 	collision with: 7 1 0  and 6 2 0 
64779787		 # 	collision with: 6 2 0  and 7 4 0 
64779800		 # 	collision with: 4 5 0  and 8 6 0 
64779801		 # 	collision with: 10 9 0  and 9 0 1 
64779802		 # 	collision with: 2 5 0  and 3 6 0 
64779803		 # 	collision with: 4 6 0  and 10 7 0 
64779860		 # 	collision with: 5 2 0  and 7 4 0 
64779861		 # 	collision with: 2 1 0  and 5 2 0 
64779862		 # 	collision with: 1 1 0  and 3 1 0 
64779863		 # 	collision with: 8 1 0  and 3 2 0 
64779920		 # 	collision with: 4 9 0  and 5 0 1 
64779921		 # 	collision with: 10 4 0  and 1 6 0 
64779922		 # 	collision with: 4 1 0  and 4 0 1 
64779923		 # 	collision with: 2 0 0  and 2 1 0 
64779936		 # 	collision with: 4 2 0  and 5 2 0 
64779937		 # 	collision with: 2 10 0  and 8 1 1 
64779938		 # 	collision with: 8 3 0  and 8 5 0 
64779939		 # 	collision with: 1 1 0  and 4 2 0 
64779996		 # 	collision with: 0 3 0  and 9 0 1 
64779997		 # 	collision with: 9 4 0  and 1 6 0 
64779998		 # 	collision with: 6 0 0  and 3 2 0 
64779999		 # 	collision with: 0 0 0  and 6 1 0 
64780012		 # 	collision with: 3 3 0  and 4 1 1 
64780013		 # 	collision with: 1 4 0  and 4 0 1 
64780014		 # 	collision with: 6 5 0  and 2 0 1 
64780015		 # 	collision with: 6 5 0  and 2 6 0 
64780072		 # 	collision with: 5 4 0  and 3 5 0 
64780073		 # 	collision with: 10 1 0  and 9 2 0 
64780074		 # 	collision with: 3 4 0  and 5 4 0 
64780075		 # 	collision with: 1 3 0  and 0 4 0 
64780132		 # 	collision with: 0 0 0  and 1 1 1 
64780133		 # 	collision with: 1 3 0  and 2 3 0 
64780134		 # 	collision with: 1 2 0  and 2 1 1 
64780135		 # 	collision with: 8 4 0  and 10 1 1 
64780148		 # 	collision with: 10 1 0  and 0 2 0 
64780149		 # 	collision with: 1 4 0  and 0 6 0 
64780150		 # 	collision with: 0 2 0  and 2 2 1 
64780151		 # 	collision with: 3 1 0  and 4 2 0 
64780208		 # 	collision with: 4 0 0  and 4 1 0 
64780209		 # 	collision with: 0 0 0  and 1 1 1 
64780210		 # 	collision with: 2 2 0  and 7 3 0 
64780211		 # 	collision with: 8 1 0  and 8 0 1 
64780268		 # 	collision with: 9 5 0  and 8 6 0 
64780269		 # 	collision with: 7 1 0  and 10 3 0 
64780270		 # 	collision with: 10 0 0  and 9 1 0 
64780271		 # 	collision with: 4 3 0  and 4 4 0 
64780284		 # 	collision with: 8 2 0  and 0 0 1 
64780285		 # 	collision with: 10 5 0  and 9 1 1 
64780286		 # 	collision with: 6 0 0  and 3 2 0 
64780287		 # 	collision with: 9 1 0  and 1 0 1 
64780344		 # 	collision with: 5 4 0  and 10 5 0 
64780345		 # 	collision with: 7 1 0  and 4 3 0 
64780346		 # 	collision with: 4 2 0  and 0 3 0 
64780347		 # 	collision with: 6 2 0  and 1 4 0 
64780404		 # 	collision with: 5 5 0  and 5 0 1 
64780405		 # 	collision with: 2 1 0  and 4 2 0 
64780406		 # 	collision with: 2 0 0  and 2 1 0 
64780407		 # 	collision with: 0 7 0  and 1 7 0 
64780420		 # 	collision with: 5 0 0  and 8 1 0 
64780421		 # 	collision with: 1 0 1  and 5 2 1 
64780422		 # 	collision with: 2 5 0  and 4 6 0 
64780423		 # 	collision with: 4 5 0  and 9 6 0 
64780480		 # 	collision with: 1 10 0  and 9 0 1 
64780481		 # 	collision with: 9 9 0  and 3 0 1 
64780482		 # 	collision with: 3 4 0  and 7 0 1 
64780483		 # 	collision with: 7 3 0  and 3 5 0 
64780496		 # 	collision with: 6 0 0  and 2 3 1 
64780497		 # 	collision with: 7 1 0  and 4 3 0 
64780498		 # 	collision with: 0 0 0  and 10 1 1 
64780499		 # 	collision with: 8 6 0  and 6 1 1 
64780556		 # 	collision with: 6 5 0  and 10 1 1 
64780557		 # 	collision with: 9 5 0  and 8 6 0 
64780558		 # 	collision with: 5 4 0  and 2 3 1 
64780559		 # 	collision with: 6 1 0  and 4 3 0 
64780616		 # 	collision with: 3 1 0  and 8 2 0 
64780617		 # 	collision with: 9 0 0  and 5 2 1 
64780618		 # 	collision with: 10 0 0  and 6 1 0 
64780619		 # 	collision with: 10 6 0  and 2 0 1 
64780632		 # 	collision with: 2 1 0  and 5 2 0 
64780633		 # 	collision with: 8 0 0  and 8 2 0 
64780634		 # 	collision with: 1 8 0  and 0 0 1 
64780635		 # 	collision with: 1 4 0  and 5 1 1 
64780692		 # 	collision with: 0 4 0  and 2 0 1 
64780693		 # 	collision with: 7 6 0  and 2 1 1 
64780694		 # 	collision with: 0 0 0  and 9 1 0 
64780695		 # 	collision with: 4 0 0  and 3 2 0 
64780752		 # 	collision with: 1 4 0  and 0 5 0 
64780753		 # 	collision with: 8 0 0  and 1 2 0 
64780754		 # 	collision with: 8 4 0  and 6 6 0 
64780755		 # 	collision with: 4 2 0  and 0 3 0 
64780768		 # 	collision with: 7 2 0  and 0 1 1 
64780769		 # 	collision with: 1 7 0  and 1 0 1 
64780770		 # 	collision with: 3 8 0  and 5 0 1 
64780771		 # 	collision with: 2 7 0  and 9 1 1 
64780828		 # 	collision with: 2 8 0  and 4 8 0 
64780829		 # 	collision with: 2 5 0  and 0 6 0 
64780830		 # 	collision with: 8 6 0  and 0 7 0 
64780831		 # 	collision with: 8 0 1  and 3 1 1 
64780888		 # 	collision with: 2 2 0  and 6 4 0 
64780889		 # 	collision with: 2 0 0  and 3 1 0 
64780890		 # 	collision with: 3 1 0  and 5 2 0 
64780891		 # 	collision with: 8 1 0  and 1 0 1 
64780904		 # 	collision with: 9 2 0  and 9 3 0 
64780905		 # 	collision with: 4 2 0  and 5 2 0 
64780906		 # 	collision with: 0 2 0  and 1 3 0 
64780907		 # 	collision with: 1 8 0  and 2 1 1 
64780964		 # 	collision with: 2 5 0  and 1 0 1 
64780965		 # 	collision with: 7 4 0  and 0 1 1 
64780966		 # 	collision with: 7 2 0  and 7 3 0 
64780967		 # 	collision with: 0 0 0  and 9 1 0 
64780980		 # 	collision with: 4 3 0  and 3 4 0 
64780981		 # 	collision with: 3 1 0  and 8 2 0 
64780982		 # 	collision with: 4 0 0  and 6 2 0 
64780983		 # 	collision with: 8 4 0  and 1 1 1 
64781040		 # 	collision with: 4 3 0  and 3 4 0 
64781041		 # 	collision with: 3 3 0  and 1 5 0 
64781042		 # 	collision with: 6 3 0  and 5 0 1 
64781043		 # 	collision with: 10 0 0  and 9 1 0 
64781100		 # 	collision with: 4 3 0  and 3 4 0 
64781101		 # 	collision with: 10 3 0  and 3 1 1 
64781102		 # 	collision with: 7 5 0  and 5 6 0 
64781103		 # 	collision with: 6 8 0  and 10 0 1 
64781116		 # 	collision with: 4 3 0  and 3 4 0 
64781117		 # 	collision with: 8 1 0  and 4 3 0 
64781118		 # 	collision with: 1 4 0  and 1 5 0 
64781119		 # 	collision with: 4 0 0  and 7 1 0 
64781176		 # 	collision with: 4 3 0  and 3 4 0 
64781177		 # 	collision with: 5 0 0  and 7 1 0 
64781178		 # 	collision with: 7 3 0  and 10 5 0 
64781179		 # 	collision with: 4 4 0  and 7 6 0 
64781236		 # 	collision with: 4 3 0  and 3 4 0 
64781237		 # 	collision with: 10 3 0  and 10 5 0 
64781238		 # 	collision with: 0 3 0  and 9 5 0 
64781239		 # 	collision with: 0 5 0  and 2 5 0 
64781252		 # 	collision with: 4 3 0  and 3 4 0 
64781253		 # 	collision with: 8 8 0  and 8 0 1 
64781254		 # 	collision with: 1 1 0  and 0 3 0 
64781255		 # 	collision with: 6 1 0  and 10 3 0 
64781312		 # 	collision with: 9 2 0  and 5 3 0 
64781313		 # 	collision with: 4 1 0  and 4 0 1 
64781314		 # 	collision with: 1 0 1  and 4 1 1 
64781315		 # 	collision with: 0 2 0  and 1 3 0 
64781372		 # 	collision with: 10 2 0  and 2 3 0 
64781373		 # 	collision with: 1 1 0  and 3 1 0 
64781374		 # 	collision with: 9 1 0  and 4 3 0 
64781375		 # 	collision with: 7 5 0  and 1 1 1 
64781388		 # 	collision with: 4 3 0  and 3 4 0 
64781389		 # 	collision with: 6 6 0  and 2 0 1 
64781390		 # 	collision with: 6 0 0  and 3 2 0 
64781391		 # 	collision with: 8 3 0  and 8 5 0 
64781448		 # 	collision with: 4 3 0  and 3 4 0 
64781449		 # 	collision with: 5 0 0  and 8 1 0 
64781450		 # 	collision with: 9 9 0  and 6 1 1 
64781451		 # 	collision with: 5 2 0  and 3 3 0 
64781464		 # 	collision with: 5 2 0  and 1 4 0 
64781465		 # 	collision with: 10 1 0  and 5 3 0 
64781466		 # 	collision with: 7 4 0  and 1 5 0 
64781467		 # 	collision with: 10 4 0  and 8 5 0 
64781524		 # 	collision with: 7 2 0  and 8 3 0 
64781525		 # 	collision with: 7 2 0  and 6 3 0 
64781526		 # 	collision with: 5 4 0  and 7 5 0 
64781527		 # 	collision with: 3 1 0  and 5 2 0 
64781584		 # 	collision with: 1 3 0  and 2 3 0 
64781585		 # 	collision with: 9 1 1  and 0 2 1 
64781586		 # 	collision with: 10 3 0  and 2 1 1 
64781587		 # 	collision with: 10 4 0  and 8 5 0 
64781600		 # 	collision with: 8 0 0  and 8 2 0 
64781601		 # 	collision with: 1 3 0  and 4 5 0 
64781602		 # 	collision with: 4 2 0  and 5 2 0 
64781603		 # 	collision with: 10 4 0  and 8 5 0 
64781660		 # 	collision with: 5 0 0  and 7 1 0 
64781661		 # 	collision with: 3 10 0  and 1 4 1 
64781662		 # 	collision with: 6 0 0  and 6 2 0 
64781663		 # 	collision with: 10 4 0  and 8 5 0 
64781720		 # 	collision with: 7 2 0  and 6 3 0 
64781721		 # 	collision with: 8 9 0  and 0 2 1 
64781722		 # 	collision with: 6 0 0  and 3 2 0 
64781723		 # 	collision with: 10 4 0  and 8 5 0 
64781736		 # 	collision with: 2 5 0  and 3 1 1 
64781737		 # 	collision with: 6 7 0  and 2 0 1 
64781738		 # 	collision with: 6 0 0  and 6 2 1 
64781739		 # 	collision with: 10 4 0  and 8 5 0 
64781796		 # 	collision with: 4 1 0  and 4 0 1 
64781797		 # 	collision with: 1 5 0  and 5 0 1 
64781798		 # 	collision with: 4 4 0  and 0 6 0 
64781799		 # 	collision with: 10 4 0  and 8 5 0 
64781856		 # 	collision with: 0 0 0  and 1 1 1 
64781857		 # 	collision with: 10 1 0  and 0 2 0 
64781858		 # 	collision with: 3 4 0  and 5 6 0 
64781859		 # 	collision with: 10 4 0  and 8 5 0 
64781872		 # 	collision with: 4 5 0  and 8 6 0 
64781873		 # 	collision with: 0 2 0  and 5 3 0 
64781874		 # 	collision with: 6 2 0  and 1 4 0 
64781875		 # 	collision with: 10 4 0  and 8 5 0 
64781932		 # 	collision with: 2 0 0  and 1 2 0 
64781933		 # 	collision with: 1 1 0  and 1 2 0 
64781934		 # 	collision with: 1 1 0  and 1 0 1 
64781935		 # 	collision with: 10 4 0  and 8 5 0 
64781948		 # 	collision with: 2 2 0  and 8 3 0 
64781949		 # 	collision with: 8 1 0  and 10 3 0 
64781950		 # 	collision with: 6 0 0  and 8 1 0 
64781951		 # 	collision with: 10 8 0  and 5 0 1 
64782008		 # 	collision with: 5 1 0  and 0 2 0 
64782009		 # 	collision with: 6 0 0  and 4 1 0 
64782010		 # 	collision with: 6 0 0  and 3 2 0 
64782011		 # 	collision with: 3 2 0  and 1 4 0 
64782068		 # 	collision with: 9 0 0  and 10 2 0 
64782069		 # 	collision with: 8 1 0  and 10 3 0 
64782070		 # 	collision with: 0 0 0  and 6 1 0 
64782071		 # 	collision with: 4 3 0  and 0 0 1 
64782084		 # 	collision with: 0 3 0  and 1 5 0 
64782085		 # 	collision with: 8 1 0  and 10 3 0 
64782086		 # 	collision with: 10 4 0  and 5 5 0 
64782087		 # 	collision with: 1 4 0  and 1 5 0 
64782144		 # 	collision with: 8 0 0  and 3 1 0 
64782145		 # 	collision with: 8 1 0  and 10 3 0 
64782146		 # 	collision with: 2 3 0  and 8 4 0 
64782147		 # 	collision with: 9 0 0  and 2 2 0 
64782204		 # 	collision with: 10 1 0  and 9 2 0 
64782205		 # 	collision with: 8 1 0  and 10 3 0 
64782206		 # 	collision with: 6 1 0  and 4 3 0 
64782207		 # 	collision with: 8 3 0  and 9 4 0 
64782220		 # 	collision with: 2 2 0  and 2 4 0 
64782221		 # 	collision with: 8 1 0  and 10 3 0 
64782222		 # 	collision with: 0 4 0  and 1 6 0 
64782223		 # 	collision with: 6 3 0  and 5 5 0 
64782280		 # 	collision with: 6 1 0  and 7 3 0 
64782281		 # 	collision with: 8 1 0  and 10 3 0 
64782282		 # 	collision with: 7 5 0  and 2 6 0 
64782283		 # 	collision with: 8 2 0  and 3 0 1 
64782340		 # 	collision with: 0 0 0  and 2 2 0 
64782341		 # 	collision with: 8 1 0  and 10 3 0 
64782342		 # 	collision with: 8 1 0  and 3 2 0 
64782343		 # 	collision with: 10 9 0  and 6 1 1 
64782356		 # 	collision with: 1 3 0  and 4 5 0 
64782357		 # 	collision with: 8 1 0  and 10 3 0 
64782358		 # 	collision with: 5 1 0  and 10 2 0 
64782359		 # 	collision with: 1 3 0  and 2 3 0 
64782416		 # 	collision with: 4 5 0  and 10 6 0 
64782417		 # 	collision with: 8 1 0  and 10 3 0 
64782418		 # 	collision with: 3 3 0  and 9 5 0 
64782419		 # 	collision with: 5 0 0  and 1 2 0 
64782441		 # 	collision with: 10 1 0  and 7 3 0 
64782443		 # 	collision with: 1 2 0  and 2 3 0 
64782469		 # 	collision with: 10 1 0  and 7 3 0 
64782471		 # 	collision with: 5 1 0  and 3 2 0 
64782589		 # 	collision with: 10 1 0  and 7 3 0 
64782593		 # 	collision with: 10 1 0  and 7 3 0 
64782595		 # 	collision with: 10 1 0  and 10 2 0 
64782625		 # 	collision with: 10 1 0  and 7 3 0 
64782627		 # 	collision with: 7 4 0  and 0 2 1 
64782633		 # 	collision with: 10 1 0  and 7 3 0 
64782635		 # 	collision with: 4 2 0  and 6 2 0 
64782691		 # 	collision with: 7 5 0  and 1 6 0 
64782707		 # 	collision with: 7 7 0  and 5 0 1 
64782761		 # 	collision with: 10 1 0  and 7 3 0 
64782763		 # 	collision with: 6 3 0  and 7 5 0 
64782769		 # 	collision with: 10 1 0  and 7 3 0 
64782771		 # 	collision with: 8 2 0  and 1 3 0 
64782801		 # 	collision with: 1 1 0  and 1 2 0 
64782803		 # 	collision with: 1 1 0  and 1 0 1 
64782805		 # 	collision with: 10 1 0  and 7 3 0 
64782916		 # 	collision with: 7 8 0  and 2 2 1 
64782918		 # 	collision with: 6 5 0  and 5 6 0 
64782927		 # 	collision with: 5 1 0  and 0 3 0 
64782953		 # 	collision with: 4 9 0  and 0 0 1 
64782955		 # 	collision with: 5 4 0  and 6 5 0 
64783073		 # 	collision with: 5 1 0  and 2 3 0 
64783075		 # 	collision with: 4 3 0  and 0 4 0 
64783077		 # 	collision with: 6 5 0  and 7 6 0 
64783079		 # 	collision with: 7 2 0  and 0 3 0 
64783109		 # 	collision with: 3 0 0  and 6 2 0 
64783111		 # 	collision with: 8 0 0  and 4 1 0 
64783117		 # 	collision with: 2 5 0  and 4 6 0 
64783119		 # 	collision with: 6 5 0  and 5 6 0 
64783173		 # 	collision with: 6 5 0  and 0 3 1 
64783175		 # 	collision with: 6 5 0  and 5 6 0 
64783189		 # 	collision with: 0 4 0  and 5 5 0 
64783191		 # 	collision with: 6 5 0  and 5 6 0 
64783245		 # 	collision with: 7 4 0  and 2 6 0 
64783247		 # 	collision with: 6 5 0  and 5 6 0 
64783253		 # 	collision with: 2 5 0  and 5 6 0 
64783255		 # 	collision with: 6 5 0  and 5 6 0 
64783285		 # 	collision with: 6 1 0  and 3 3 0 
64783287		 # 	collision with: 6 5 0  and 5 6 0 
64783289		 # 	collision with: 4 2 0  and 8 4 0 
64783291		 # 	collision with: 6 5 0  and 5 6 0 
64783400		 # 	collision with: 9 4 0  and 6 0 1 
64783402		 # 	collision with: 5 1 0  and 7 2 0 
64783409		 # 	collision with: 7 3 0  and 2 4 0 
64783411		 # 	collision with: 2 7 0  and 4 7 0 
64783437		 # 	collision with: 2 5 0  and 4 6 0 
64783439		 # 	collision with: 9 2 0  and 2 0 1 
64783557		 # 	collision with: 0 1 0  and 8 3 0 
64783559		 # 	collision with: 8 1 0  and 6 0 1 
64783561		 # 	collision with: 1 5 0  and 9 6 0 
64783563		 # 	collision with: 0 1 0  and 2 1 0 
64783593		 # 	collision with: 0 3 0  and 2 4 0 
64783595		 # 	collision with: 2 0 0  and 2 1 0 
64783601		 # 	collision with: 10 3 0  and 2 5 0 
64783603		 # 	collision with: 0 3 0  and 9 4 0 
64783657		 # 	collision with: 8 0 0  and 8 2 0 
64783659		 # 	collision with: 1 7 0  and 2 0 1 
64783673		 # 	collision with: 4 1 0  and 4 0 1 
64783675		 # 	collision with: 4 2 0  and 8 3 0 
64783729		 # 	collision with: 0 0 0  and 1 1 1 
64783731		 # 	collision with: 4 0 0  and 7 1 0 
64783737		 # 	collision with: 9 4 0  and 10 6 0 
64783739		 # 	collision with: 9 3 0  and 1 4 0 
64783769		 # 	collision with: 2 1 0  and 10 3 0 
64783771		 # 	collision with: 10 3 0  and 5 0 1 
64783773		 # 	collision with: 4 2 0  and 7 4 0 
64783775		 # 	collision with: 8 2 0  and 6 3 0 
64783884		 # 	collision with: 0 2 0  and 6 4 0 
64783886		 # 	collision with: 3 2 0  and 9 4 0 
64783893		 # 	collision with: 8 2 0  and 0 0 1 
64783895		 # 	collision with: 8 3 0  and 8 5 0 
64783921		 # 	collision with: 3 0 0  and 6 2 0 
64784041		 # 	collision with: 6 1 0  and 3 3 0 
64784043		 # 	collision with: 0 1 0  and 2 1 0 
64784047		 # 	collision with: 0 0 0  and 1 1 1 
64784077		 # 	collision with: 10 4 0  and 1 6 0 
64784079		 # 	collision with: 5 1 1  and 6 1 1 
64784085		 # 	collision with: 0 1 0  and 2 1 0 
64784141		 # 	collision with: 2 10 0  and 7 0 1 
64784143		 # 	collision with: 4 3 0  and 0 4 0 
64784157		 # 	collision with: 10 1 0  and 0 3 0 
64784159		 # 	collision with: 7 4 0  and 2 5 0 
64784213		 # 	collision with: 10 5 0  and 4 6 0 
64784215		 # 	collision with: 9 4 0  and 3 0 1 
64784221		 # 	collision with: 10 5 0  and 0 1 1 
64784223		 # 	collision with: 4 1 0  and 1 1 1 
64784253		 # 	collision with: 9 1 0  and 6 3 0 
64784255		 # 	collision with: 5 1 0  and 3 2 0 
64784259		 # 	collision with: 6 3 0  and 5 5 0 
64784368		 # 	collision with: 9 1 0  and 2 0 1 
64784370		 # 	collision with: 7 2 0  and 6 4 0 
64784377		 # 	collision with: 4 0 0  and 0 2 0 
64784379		 # 	collision with: 4 10 0  and 6 1 1 
64784405		 # 	collision with: 4 0 0  and 0 2 0 
64784407		 # 	collision with: 0 0 0  and 1 1 1 
64784525		 # 	collision with: 4 0 0  and 0 2 0 
64784527		 # 	collision with: 7 4 0  and 2 5 0 
64784529		 # 	collision with: 4 0 0  and 0 2 0 
64784561		 # 	collision with: 4 0 0  and 0 2 0 
64784563		 # 	collision with: 4 2 0  and 6 2 0 
64784569		 # 	collision with: 4 0 0  and 0 2 0 
64784571		 # 	collision with: 2 1 0  and 5 2 0 
64784625		 # 	collision with: 4 0 0  and 0 2 0 
64784627		 # 	collision with: 8 9 0  and 10 0 1 
64784641		 # 	collision with: 4 0 0  and 0 2 0 
64784697		 # 	collision with: 4 0 0  and 0 2 0 
64784699		 # 	collision with: 5 2 0  and 1 4 0 
64784705		 # 	collision with: 4 0 0  and 0 2 0 
64784707		 # 	collision with: 10 1 0  and 10 2 0 
64784737		 # 	collision with: 4 0 0  and 0 2 0 
64784739		 # 	collision with: 10 8 0  and 9 1 1 
64784741		 # 	collision with: 4 0 0  and 0 2 0 
64784743		 # 	collision with: 0 2 0  and 3 3 0 
64784852		 # 	collision with: 0 9 0  and 2 1 1 
64784854		 # 	collision with: 10 10 0  and 2 1 1 
64784861		 # 	collision with: 0 10 0  and 2 0 1 
64784863		 # 	collision with: 10 0 0  and 4 2 0 
64784889		 # 	collision with: 0 0 0  and 1 1 1 
64784891		 # 	collision with: 2 0 0  and 7 3 1 
64785009		 # 	collision with: 7 1 0  and 4 3 0 
64785011		 # 	collision with: 7 5 0  and 2 0 1 
64785013		 # 	collision with: 1 4 0  and 7 0 1 
64785015		 # 	collision with: 8 0 0  and 9 1 0 
64785047		 # 	collision with: 0 0 0  and 1 1 1 
64785053		 # 	collision with: 10 1 0  and 2 2 0 
64785055		 # 	collision with: 8 2 0  and 1 3 0 
64785109		 # 	collision with: 8 0 0  and 2 2 0 
64785111		 # 	collision with: 0 3 0  and 6 4 0 
64785125		 # 	collision with: 8 3 0  and 10 5 0 
64785127		 # 	collision with: 10 1 0  and 3 3 0 
64785183		 # 	collision with: 7 3 0  and 9 4 0 
64785189		 # 	collision with: 5 1 0  and 5 3 0 
64785221		 # 	collision with: 1 1 0  and 9 3 0 
64785223		 # 	collision with: 2 0 0  and 2 1 0 
64785225		 # 	collision with: 6 3 0  and 9 4 0 
64785227		 # 	collision with: 7 2 0  and 0 3 0 
64785336		 # 	collision with: 1 1 0  and 9 2 0 
64785338		 # 	collision with: 6 5 0  and 4 6 0 
64785345		 # 	collision with: 10 2 0  and 1 3 0 
64785347		 # 	collision with: 3 5 0  and 9 6 0 
64785373		 # 	collision with: 8 1 0  and 8 0 1 
64785375		 # 	collision with: 8 0 0  and 4 1 0 
64785493		 # 	collision with: 2 1 0  and 10 3 0 
64785495		 # 	collision with: 9 5 0  and 9 6 0 
64785497		 # 	collision with: 6 2 0  and 9 1 1 
64785499		 # 	collision with: 8 1 0  and 7 3 0 
64785529		 # 	collision with: 2 2 0  and 7 3 0 
64785539		 # 	collision with: 1 2 0  and 2 3 0 
64785593		 # 	collision with: 8 0 0  and 3 1 0 
64785595		 # 	collision with: 9 5 0  and 0 6 0 
64785609		 # 	collision with: 0 0 0  and 1 1 1 
64785611		 # 	collision with: 2 5 0  and 4 1 1 
64785665		 # 	collision with: 8 2 0  and 2 4 0 
64785667		 # 	collision with: 5 2 0  and 9 3 0 
64785675		 # 	collision with: 4 0 0  and 6 1 0 
64785705		 # 	collision with: 3 0 0  and 4 2 0 
64785707		 # 	collision with: 10 2 0  and 4 4 0 
64785709		 # 	collision with: 0 2 0  and 1 3 0 
64785711		 # 	collision with: 3 0 0  and 5 2 0 
64785820		 # 	collision with: 7 0 0  and 5 1 0 
64785822		 # 	collision with: 10 4 0  and 4 6 0 
64785829		 # 	collision with: 5 1 0  and 0 1 1 
64785831		 # 	collision with: 5 1 0  and 1 1 1 
64785857		 # 	collision with: 5 9 0  and 6 9 0 
64785859		 # 	collision with: 7 0 0  and 8 2 0 
64785977		 # 	collision with: 8 1 0  and 5 3 0 
64785979		 # 	collision with: 8 3 0  and 4 5 0 
64785981		 # 	collision with: 5 1 0  and 4 0 1 
64785983		 # 	collision with: 10 4 0  and 6 5 0 
64786013		 # 	collision with: 6 9 0  and 7 0 1 
64786015		 # 	collision with: 0 2 0  and 3 3 0 
64786021		 # 	collision with: 10 3 0  and 10 5 0 
64786023		 # 	collision with: 5 1 0  and 7 2 0 
64786077		 # 	collision with: 5 5 0  and 3 0 1 
64786093		 # 	collision with: 5 10 0  and 0 1 1 
64786095		 # 	collision with: 0 3 0  and 9 4 0 
64786149		 # 	collision with: 0 5 0  and 1 5 0 
64786151		 # 	collision with: 9 2 0  and 5 3 0 
64786157		 # 	collision with: 0 6 0  and 2 3 1 
64786159		 # 	collision with: 1 3 0  and 3 0 1 
64786189		 # 	collision with: 4 1 0  and 1 3 0 
64786193		 # 	collision with: 8 3 0  and 4 0 1 
64786195		 # 	collision with: 2 4 0  and 6 6 0 
64786304		 # 	collision with: 7 0 0  and 8 1 0 
64786306		 # 	collision with: 3 7 0  and 8 0 1 
64786313		 # 	collision with: 1 3 0  and 6 4 0 
64786341		 # 	collision with: 10 2 0  and 9 4 0 
64786343		 # 	collision with: 2 7 0  and 4 7 0 
64786463		 # 	collision with: 1 9 0  and 9 0 1 
64786465		 # 	collision with: 9 1 0  and 10 0 1 
64786467		 # 	collision with: 10 8 0  and 7 1 1 
64786497		 # 	collision with: 1 5 0  and 9 6 0 
64786499		 # 	collision with: 7 9 0  and 4 1 1 
64786505		 # 	collision with: 6 2 0  and 7 4 0 
64786507		 # 	collision with: 9 5 0  and 9 6 0 
64786561		 # 	collision with: 6 4 0  and 10 6 0 
64786563		 # 	collision with: 5 7 0  and 2 1 1 
64786577		 # 	collision with: 4 0 0  and 4 1 0 
64786579		 # 	collision with: 10 1 0  and 4 3 0 
64786633		 # 	collision with: 1 9 0  and 9 0 1 
64786641		 # 	collision with: 9 1 0  and 0 2 0 
64786643		 # 	collision with: 4 10 0  and 0 0 1 
64786675		 # 	collision with: 9 3 0  and 3 4 0 
64786677		 # 	collision with: 8 0 0  and 3 1 0 
64786679		 # 	collision with: 4 5 0  and 5 0 1 
64786788		 # 	collision with: 9 0 0  and 5 1 0 
64786790		 # 	collision with: 7 2 0  and 9 4 0 
64786797		 # 	collision with: 5 3 0  and 3 5 0 
64786799		 # 	collision with: 10 2 0  and 4 3 0 
64786825		 # 	collision with: 8 0 0  and 8 2 0 
64786827		 # 	collision with: 6 3 0  and 5 5 0 
64786945		 # 	collision with: 2 0 0  and 4 2 0 
64786947		 # 	collision with: 9 3 0  and 1 4 0 
64786949		 # 	collision with: 3 1 0  and 7 3 0 
64786951		 # 	collision with: 10 1 0  and 3 3 0 
64786981		 # 	collision with: 5 3 0  and 3 5 0 
64786983		 # 	collision with: 8 3 0  and 4 5 0 
64786989		 # 	collision with: 5 3 0  and 3 5 0 
64786991		 # 	collision with: 9 2 0  and 5 3 0 
64787045		 # 	collision with: 5 3 0  and 3 5 0 
64787047		 # 	collision with: 8 0 0  and 9 1 0 
64787061		 # 	collision with: 5 3 0  and 3 5 0 
64787063		 # 	collision with: 4 0 0  and 7 1 0 
64787117		 # 	collision with: 5 3 0  and 3 5 0 
64787119		 # 	collision with: 10 4 0  and 4 6 0 
64787125		 # 	collision with: 8 1 0  and 2 3 0 
64787127		 # 	collision with: 10 1 0  and 0 2 0 
64787157		 # 	collision with: 7 1 0  and 4 3 0 
64787159		 # 	collision with: 9 5 0  and 0 6 0 
64787161		 # 	collision with: 5 3 0  and 3 5 0 
64787163		 # 	collision with: 5 5 0  and 1 6 0 
64787272		 # 	collision with: 9 6 0  and 3 7 0 
64787274		 # 	collision with: 3 1 0  and 10 2 0 
64787281		 # 	collision with: 4 0 0  and 4 1 0 
64787283		 # 	collision with: 5 3 0  and 4 2 1 
64787311		 # 	collision with: 5 1 0  and 7 2 0 
64787429		 # 	collision with: 10 1 0  and 0 3 0 
64787431		 # 	collision with: 10 4 0  and 4 6 0 
64787433		 # 	collision with: 4 1 0  and 0 2 0 
64787435		 # 	collision with: 5 3 0  and 3 0 1 
64787465		 # 	collision with: 7 3 0  and 2 4 0 
64787467		 # 	collision with: 9 0 0  and 2 2 0 
64787473		 # 	collision with: 8 4 0  and 7 6 0 
64787475		 # 	collision with: 8 1 0  and 3 2 0 
64787529		 # 	collision with: 6 5 0  and 7 6 0 
64787531		 # 	collision with: 0 0 0  and 1 1 1 
64787545		 # 	collision with: 1 8 0  and 0 0 1 
64787547		 # 	collision with: 8 3 0  and 8 5 0 
64787601		 # 	collision with: 10 3 0  and 2 5 0 
64787603		 # 	collision with: 0 6 0  and 8 0 1 
64787609		 # 	collision with: 10 4 0  and 1 6 0 
64787611		 # 	collision with: 3 10 0  and 5 10 0 
64787641		 # 	collision with: 3 1 0  and 0 3 0 
64787643		 # 	collision with: 5 1 0  and 0 3 0 
64787645		 # 	collision with: 10 2 0  and 9 4 0 
64787647		 # 	collision with: 0 3 0  and 6 4 0 
64787805		 # 	collision with: 0 0 0  and 1 1 1 
64787807		 # 	collision with: 9 0 0  and 0 1 0 
64787812		 # 	collision with: 8 1 0  and 1 3 0 
64787814		 # 	collision with: 7 6 0  and 10 0 1 
64787820		 # 	collision with: 5 2 0  and 0 0 1 
64787822		 # 	collision with: 6 4 0  and 10 6 0 
64787829		 # 	collision with: 0 4 0  and 5 6 0 
64787831		 # 	collision with: 9 0 0  and 0 1 0 
64787868		 # 	collision with: 1 3 0  and 3 0 1 
64787870		 # 	collision with: 6 0 0  and 8 2 0 
64787873		 # 	collision with: 6 6 0  and 5 7 0 
64787875		 # 	collision with: 9 0 0  and 0 1 0 
64787881		 # 	collision with: 10 2 0  and 0 3 0 
64787883		 # 	collision with: 9 0 0  and 0 1 0 
64787884		 # 	collision with: 2 1 0  and 6 2 0 
64787886		 # 	collision with: 6 4 0  and 7 6 0 
64787904		 # 	collision with: 3 0 0  and 1 2 0 
64787906		 # 	collision with: 3 5 0  and 2 6 0 
64787924		 # 	collision with: 10 0 0  and 2 1 0 
64787926		 # 	collision with: 3 1 0  and 9 3 0 
64787936		 # 	collision with: 5 2 0  and 9 3 0 
64787938		 # 	collision with: 4 3 0  and 8 0 1 
64787968		 # 	collision with: 10 6 0  and 10 0 1 
64787970		 # 	collision with: 9 2 0  and 3 0 1 
64787988		 # 	collision with: 0 0 0  and 5 2 0 
64787990		 # 	collision with: 8 3 0  and 0 5 0 
64787992		 # 	collision with: 7 3 0  and 10 0 1 
64787994		 # 	collision with: 0 8 0  and 5 0 1 
64788015		 # 	collision with: 9 0 0  and 0 1 0 
64788031		 # 	collision with: 9 0 0  and 0 1 0 
64788048		 # 	collision with: 3 0 0  and 1 1 0 
64788050		 # 	collision with: 0 1 0  and 4 3 0 
64788052		 # 	collision with: 0 0 0  and 1 1 1 
64788054		 # 	collision with: 1 2 1  and 3 2 1 
64788072		 # 	collision with: 3 2 0  and 5 4 0 
64788074		 # 	collision with: 6 1 1  and 8 3 1 
64788104		 # 	collision with: 0 1 0  and 5 3 0 
64788106		 # 	collision with: 7 8 0  and 6 1 1 
64788116		 # 	collision with: 10 1 0  and 6 0 1 
64788118		 # 	collision with: 3 0 0  and 9 1 0 
64788136		 # 	collision with: 7 4 0  and 10 6 0 
64788138		 # 	collision with: 6 3 0  and 5 5 0 
64788156		 # 	collision with: 2 2 0  and 8 4 0 
64788158		 # 	collision with: 4 0 0  and 7 1 0 
64788161		 # 	collision with: 9 1 0  and 4 3 0 
64788163		 # 	collision with: 9 0 0  and 0 1 0 
64788169		 # 	collision with: 0 0 0  and 1 1 1 
64788171		 # 	collision with: 9 0 0  and 0 1 0 
64788172		 # 	collision with: 2 0 0  and 3 2 0 
64788174		 # 	collision with: 0 6 0  and 2 1 1 
64788213		 # 	collision with: 9 0 1  and 3 1 1 
64788215		 # 	collision with: 9 0 0  and 0 1 0 
64788220		 # 	collision with: 3 4 0  and 7 6 0 
64788222		 # 	collision with: 3 2 0  and 10 4 0 
64788228		 # 	collision with: 8 0 0  and 6 2 0 
64788230		 # 	collision with: 5 2 0  and 10 3 0 
64788237		 # 	collision with: 0 0 0  and 9 2 0 
64788239		 # 	collision with: 9 0 0  and 0 1 0 
64788240		 # 	collision with: 3 4 0  and 2 0 1 
64788242		 # 	collision with: 0 1 0  and 1 2 0 
64788289		 # 	collision with: 1 8 0  and 8 0 1 
64788291		 # 	collision with: 1 2 0  and 4 3 0 
64788296		 # 	collision with: 10 3 0  and 10 5 0 
64788298		 # 	collision with: 6 5 0  and 5 6 0 
64788304		 # 	collision with: 0 4 0  and 4 5 0 
64788306		 # 	collision with: 6 5 0  and 5 6 0 
64788313		 # 	collision with: 3 5 0  and 5 5 0 
64788315		 # 	collision with: 6 5 0  and 5 6 0 
64788352		 # 	collision with: 5 0 1  and 3 1 1 
64788357		 # 	collision with: 10 0 0  and 8 2 0 
64788359		 # 	collision with: 6 5 0  and 5 6 0 
64788365		 # 	collision with: 9 2 0  and 3 3 0 
64788367		 # 	collision with: 6 5 0  and 5 6 0 
64788368		 # 	collision with: 4 0 0  and 1 1 0 
64788370		 # 	collision with: 1 3 0  and 2 5 0 
64788388		 # 	collision with: 6 0 0  and 4 2 0 
64788390		 # 	collision with: 7 2 0  and 7 3 0 
64788408		 # 	collision with: 6 0 0  and 10 2 0 
64788410		 # 	collision with: 6 5 0  and 5 6 0 
64788420		 # 	collision with: 4 10 0  and 5 10 0 
64788422		 # 	collision with: 9 0 0  and 2 2 0 
64788454		 # 	collision with: 10 0 0  and 5 2 0 
64788472		 # 	collision with: 2 0 0  and 3 2 0 
64788474		 # 	collision with: 6 5 0  and 5 6 0 
64788476		 # 	collision with: 6 2 0  and 8 0 1 
64788478		 # 	collision with: 1 1 0  and 6 3 0 
64788497		 # 	collision with: 8 0 0  and 2 1 0 
64788499		 # 	collision with: 6 5 0  and 5 6 0 
64788513		 # 	collision with: 2 1 0  and 6 2 0 
64788515		 # 	collision with: 6 5 0  and 5 6 0 
64788532		 # 	collision with: 3 0 0  and 4 1 0 
64788534		 # 	collision with: 6 5 0  and 5 6 0 
64788536		 # 	collision with: 9 2 0  and 9 3 0 
64788538		 # 	collision with: 6 5 0  and 5 6 0 
64788556		 # 	collision with: 1 4 0  and 1 0 1 
64788558		 # 	collision with: 6 5 0  and 5 6 0 
64788590		 # 	collision with: 6 5 0  and 5 6 0 
64788600		 # 	collision with: 10 0 0  and 2 1 0 
64788602		 # 	collision with: 4 3 0  and 0 5 0 
64788620		 # 	collision with: 0 3 0  and 1 3 0 
64788622		 # 	collision with: 6 1 0  and 4 2 0 
64788640		 # 	collision with: 1 3 0  and 3 4 0 
64788642		 # 	collision with: 6 5 0  and 5 6 0 
64788645		 # 	collision with: 7 1 0  and 4 3 0 
64788647		 # 	collision with: 6 5 0  and 5 6 0 
64788653		 # 	collision with: 8 5 0  and 0 6 0 
64788655		 # 	collision with: 9 0 0  and 1 2 0 
64788656		 # 	collision with: 0 2 0  and 5 4 0 
64788658		 # 	collision with: 6 5 0  and 5 6 0 
64788697		 # 	collision with: 5 1 0  and 5 3 0 
64788699		 # 	collision with: 4 0 0  and 9 1 0 
64788704		 # 	collision with: 9 2 0  and 3 3 0 
64788712		 # 	collision with: 4 0 0  and 2 2 0 
64788714		 # 	collision with: 6 5 0  and 5 6 0 
64788721		 # 	collision with: 7 0 0  and 5 2 0 
64788723		 # 	collision with: 6 5 0  and 5 6 0 
64788724		 # 	collision with: 3 4 0  and 8 0 1 
64788726		 # 	collision with: 6 3 0  and 3 5 0 
64788780		 # 	collision with: 9 4 0  and 0 2 1 
64788782		 # 	collision with: 3 1 0  and 9 3 0 
64788788		 # 	collision with: 4 1 0  and 4 0 1 
64788790		 # 	collision with: 1 1 0  and 6 3 0 
64788797		 # 	collision with: 8 1 0  and 0 3 0 
64788799		 # 	collision with: 1 7 0  and 3 7 0 
64788836		 # 	collision with: 10 0 0  and 2 1 0 
64788838		 # 	collision with: 2 8 0  and 1 0 1 
64788841		 # 	collision with: 8 0 0  and 6 2 0 
64788843		 # 	collision with: 4 5 0  and 3 6 0 
64788849		 # 	collision with: 4 9 0  and 10 0 1 
64788851		 # 	collision with: 3 7 0  and 5 2 1 
64788852		 # 	collision with: 0 0 0  and 1 1 1 
64788854		 # 	collision with: 10 1 0  and 10 2 0 
64788872		 # 	collision with: 3 0 0  and 4 1 0 
64788874		 # 	collision with: 3 5 0  and 5 5 0 
64788894		 # 	collision with: 0 2 0  and 10 4 0 
64788904		 # 	collision with: 5 5 0  and 7 6 0 
64788936		 # 	collision with: 8 1 0  and 1 3 0 
64788938		 # 	collision with: 1 9 0  and 1 0 1 
64788956		 # 	collision with: 0 5 0  and 6 6 0 
64788958		 # 	collision with: 7 7 0  and 2 1 1 
64788960		 # 	collision with: 8 0 0  and 2 1 0 
64788962		 # 	collision with: 7 5 0  and 10 0 1 
64788981		 # 	collision with: 5 1 0  and 7 3 0 
64788983		 # 	collision with: 4 1 0  and 6 3 0 
64788997		 # 	collision with: 6 4 0  and 1 5 0 
64788999		 # 	collision with: 8 0 0  and 5 2 0 
64789016		 # 	collision with: 10 2 0  and 7 4 0 
64789018		 # 	collision with: 10 6 0  and 7 1 1 
64789020		 # 	collision with: 0 8 0  and 2 8 0 
64789022		 # 	collision with: 5 4 0  and 10 0 1 
64789040		 # 	collision with: 4 5 0  and 1 6 0 
64789042		 # 	collision with: 8 1 0  and 0 2 0 
64789072		 # 	collision with: 7 0 0  and 9 2 0 
64789074		 # 	collision with: 7 2 0  and 5 3 0 
64789084		 # 	collision with: 0 3 0  and 5 5 0 
64789086		 # 	collision with: 1 3 0  and 2 5 0 
64789106		 # 	collision with: 2 3 0  and 0 0 1 
64789124		 # 	collision with: 1 1 0  and 1 2 0 
64789129		 # 	collision with: 2 1 0  and 8 2 0 
64789131		 # 	collision with: 6 3 0  and 3 5 0 
64789137		 # 	collision with: 6 9 0  and 10 0 1 
64789139		 # 	collision with: 2 1 0  and 3 1 0 
64789140		 # 	collision with: 6 4 0  and 1 5 0 
64789142		 # 	collision with: 1 4 0  and 1 5 0 
64789183		 # 	collision with: 7 2 0  and 7 3 0 
64789188		 # 	collision with: 3 5 0  and 6 7 0 
64789190		 # 	collision with: 5 5 0  and 10 0 1 
64789196		 # 	collision with: 0 0 0  and 9 2 0 
64789198		 # 	collision with: 2 5 0  and 1 6 0 
64789205		 # 	collision with: 3 0 0  and 1 2 0 
64789207		 # 	collision with: 2 5 0  and 1 6 0 
64789208		 # 	collision with: 0 4 0  and 5 6 0 
64789210		 # 	collision with: 6 1 0  and 10 2 0 
64789257		 # 	collision with: 7 4 0  and 10 6 0 
64789259		 # 	collision with: 10 0 0  and 5 2 0 
64789264		 # 	collision with: 1 1 0  and 2 2 0 
64789266		 # 	collision with: 5 1 0  and 1 2 0 
64789274		 # 	collision with: 4 3 0  and 0 5 0 
64789281		 # 	collision with: 2 2 0  and 2 4 0 
64789320		 # 	collision with: 6 10 0  and 6 0 1 
64789322		 # 	collision with: 9 0 0  and 5 1 0 
64789325		 # 	collision with: 6 0 0  and 4 2 0 
64789335		 # 	collision with: 5 4 0  and 6 5 0 
64789336		 # 	collision with: 4 0 0  and 4 1 0 
64789338		 # 	collision with: 2 1 0  and 3 3 0 
64789356		 # 	collision with: 1 2 0  and 2 2 0 
64789358		 # 	collision with: 1 5 0  and 0 6 0 
64789376		 # 	collision with: 4 3 0  and 9 4 0 
64789378		 # 	collision with: 1 3 0  and 6 5 0 
64789388		 # 	collision with: 5 3 1  and 2 4 1 
64789390		 # 	collision with: 4 4 0  and 0 5 0 
64789420		 # 	collision with: 5 1 0  and 7 3 0 
64789422		 # 	collision with: 2 0 0  and 2 1 0 
64789440		 # 	collision with: 6 4 0  and 1 5 0 
64789442		 # 	collision with: 4 10 0  and 5 10 0 
64789444		 # 	collision with: 10 1 0  and 4 0 1 
64789446		 # 	collision with: 4 0 0  and 9 1 0 
64789465		 # 	collision with: 1 9 0  and 1 0 1 
64789467		 # 	collision with: 5 1 0  and 4 3 0 
64789481		 # 	collision with: 10 2 0  and 0 3 0 
64789483		 # 	collision with: 5 0 0  and 2 1 0 
64789500		 # 	collision with: 3 9 0  and 5 0 1 
64789504		 # 	collision with: 5 4 0  and 2 6 0 
64789506		 # 	collision with: 10 5 0  and 1 1 1 
64789524		 # 	collision with: 8 4 0  and 0 1 1 
64789526		 # 	collision with: 1 1 0  and 1 0 1 
64789556		 # 	collision with: 10 0 0  and 2 1 0 
64789558		 # 	collision with: 1 2 0  and 4 4 0 
64789568		 # 	collision with: 10 0 0  and 3 1 0 
64789570		 # 	collision with: 7 2 0  and 8 4 0 
64789588		 # 	collision with: 6 0 0  and 8 1 0 
64789608		 # 	collision with: 9 2 0  and 3 3 0 
64789610		 # 	collision with: 5 1 0  and 2 2 0 
64789613		 # 	collision with: 5 1 0  and 7 3 0 
64789615		 # 	collision with: 5 2 0  and 2 3 0 
64789623		 # 	collision with: 10 4 0  and 4 1 1 
64789624		 # 	collision with: 1 3 0  and 7 4 0 
64789626		 # 	collision with: 9 0 0  and 1 2 0 
64789665		 # 	collision with: 9 1 0  and 8 3 0 
64789667		 # 	collision with: 2 2 0  and 4 3 0 
64789672		 # 	collision with: 2 3 0  and 9 3 1 
64789674		 # 	collision with: 2 5 0  and 2 0 1 
64789682		 # 	collision with: 5 1 0  and 8 3 0 
64789689		 # 	collision with: 4 0 0  and 4 1 0 
64789691		 # 	collision with: 9 5 0  and 8 6 0 
64789692		 # 	collision with: 5 2 0  and 8 3 1 
64789694		 # 	collision with: 4 4 0  and 8 5 0 
64789741		 # 	collision with: 3 0 0  and 1 1 0 
64789743		 # 	collision with: 7 2 0  and 2 4 0 
64789748		 # 	collision with: 10 0 0  and 2 1 0 
64789750		 # 	collision with: 4 3 0  and 6 4 0 
64789756		 # 	collision with: 7 4 0  and 7 6 0 
64789758		 # 	collision with: 2 1 0  and 9 1 1 
64789765		 # 	collision with: 10 3 0  and 9 5 0 
64789767		 # 	collision with: 0 0 0  and 1 1 1 
64789804		 # 	collision with: 5 6 0  and 9 1 1 
64789806		 # 	collision with: 9 5 0  and 9 6 0 
64789809		 # 	collision with: 4 0 0  and 2 2 0 
64789811		 # 	collision with: 0 5 0  and 10 6 0 
64789817		 # 	collision with: 8 0 0  and 3 1 0 
64789819		 # 	collision with: 7 2 1  and 7 4 1 
64789820		 # 	collision with: 7 4 0  and 0 1 1 
64789822		 # 	collision with: 8 0 0  and 9 2 0 
64789840		 # 	collision with: 4 0 0  and 2 2 0 
64789842		 # 	collision with: 4 5 0  and 3 6 0 
64789860		 # 	collision with: 1 2 0  and 2 2 0 
64789862		 # 	collision with: 2 2 0  and 4 4 0 
64789872		 # 	collision with: 8 5 0  and 6 6 0 
64789874		 # 	collision with: 4 10 0  and 6 0 1 
64789904		 # 	collision with: 0 2 0  and 2 0 1 
64789906		 # 	collision with: 9 0 0  and 5 1 0 
64789926		 # 	collision with: 7 2 0  and 5 3 0 
64789928		 # 	collision with: 1 3 0  and 3 4 0 
64789930		 # 	collision with: 4 10 0  and 5 10 0 
64789949		 # 	collision with: 1 2 0  and 2 4 0 
64789951		 # 	collision with: 6 1 0  and 4 2 0 
64789965		 # 	collision with: 0 8 0  and 2 8 0 
64789986		 # 	collision with: 6 1 0  and 6 0 1 
64789988		 # 	collision with: 8 1 0  and 8 0 1 
64789990		 # 	collision with: 3 1 0  and 3 0 1 
22.0885secs	13360
