# prime 11
# degree 2
# input variables 3
# output variables 5
# reload computed balance functions from file balance-2519of3248-p11d2m3-debug.log
# p = 11
# n = 5
# smalldomain p^m 1331
# domain p^n 161051
#	 p^2 = 121
#	 p^3 = 1331
#	 p^4 = 14641
#	 p^5 = 161051
#	 p^6 = 1771561
#	 p^7 = 19487171
#	 p^8 = 214358881
#	 p^9 = 2357947691
opening file : balance-2519of3248-p11d2m3-debug.log
reloading for step2...
15114000		 # 	collision with: 5 2 8 0 0  and 6 2 8 0 0 
15114002		 # 	collision with: 2 2 8 0 0  and 3 2 8 0 0 
15114008		 # 	collision with: 8 0 1 0 0  and 8 2 1 0 0 
15114010		 # 	collision with: 8 3 1 0 0  and 8 4 1 0 0 
15114021		 # 	collision with: 5 2 1 0 0  and 6 2 1 0 0 
15114023		 # 	collision with: 1 3 1 0 0  and 1 5 1 0 0 
15114035		 # 	collision with: 2 2 1 0 0  and 3 2 1 0 0 
15114044		 # 	collision with: 5 2 6 0 0  and 6 2 6 0 0 
15114046		 # 	collision with: 2 2 6 0 0  and 3 2 6 0 0 
15114084		 # 	collision with: 5 2 1 0 0  and 6 2 1 0 0 
15114086		 # 	collision with: 2 2 1 0 0  and 3 2 1 0 0 
15114088		 # 	collision with: 5 2 7 0 0  and 6 2 7 0 0 
15114090		 # 	collision with: 2 2 7 0 0  and 3 2 7 0 0 
15114116		 # 	collision with: 5 2 2 0 0  and 6 2 2 0 0 
15114118		 # 	collision with: 2 2 2 0 0  and 3 2 2 0 0 
15114132		 # 	collision with: 5 2 4 0 0  and 6 2 4 0 0 
15114134		 # 	collision with: 2 2 4 0 0  and 3 2 4 0 0 
15114148		 # 	collision with: 6 3 6 0 0  and 6 4 6 0 0 
15114150		 # 	collision with: 6 0 6 0 0  and 6 1 6 0 0 
15114176		 # 	collision with: 5 2 5 0 0  and 6 2 5 0 0 
15114178		 # 	collision with: 2 2 5 0 0  and 3 2 5 0 0 
15114180		 # 	collision with: 5 2 0 0 0  and 6 2 0 0 0 
15114182		 # 	collision with: 2 2 0 0 0  and 3 2 0 0 0 
15114220		 # 	collision with: 5 2 3 0 0  and 6 2 3 0 0 
15114222		 # 	collision with: 2 2 3 0 0  and 3 2 3 0 0 
15114233		 # 	collision with: 5 4 1 0 0  and 6 6 1 0 0 
15114235		 # 	collision with: 9 4 1 0 0  and 9 6 1 0 0 
15114247		 # 	collision with: 8 5 0 0 0  and 8 2 2 0 0 
15114256		 # 	collision with: 5 2 9 0 0  and 6 2 9 0 0 
15114264		 # 	collision with: 5 2 10 0 0  and 6 2 10 0 0 
15114266		 # 	collision with: 2 2 10 0 0  and 3 2 10 0 0 
15114288		 # 	collision with: 2 2 4 0 0  and 2 4 4 0 0 
15114290		 # 	collision with: 10 0 4 0 0  and 6 2 4 0 0 
15114308		 # 	collision with: 5 2 9 0 0  and 6 2 9 0 0 
15114310		 # 	collision with: 2 2 9 0 0  and 3 2 9 0 0 
15114322		 # 	collision with: 2 2 4 0 0  and 3 2 4 0 0 
15114325		 # 	collision with: 8 0 0 0 0  and 8 2 0 0 0 
15114327		 # 	collision with: 2 2 0 0 0  and 3 2 0 0 0 
15114349		 # 	collision with: 9 1 0 0 0  and 9 1 2 0 0 
15114352		 # 	collision with: 4 10 10 0 0  and 0 2 0 1 0 
15114354		 # 	collision with: 5 7 10 0 0  and 10 0 0 1 0 
15114361		 # 	collision with: 9 8 0 0 0  and 2 0 1 0 0 
15114363		 # 	collision with: 4 10 0 0 0  and 4 7 1 0 0 
15114391		 # 	collision with: 0 0 0 0 0  and 5 1 0 0 0 
15114396		 # 	collision with: 5 2 1 0 0  and 6 2 1 0 0 
15114398		 # 	collision with: 2 2 1 0 0  and 3 2 1 0 0 
15114401		 # 	collision with: 3 10 0 0 0  and 3 10 1 0 0 
15114403		 # 	collision with: 7 4 0 0 0  and 7 0 1 0 0 
15114425		 # 	collision with: 5 3 0 0 0  and 5 3 1 0 0 
15114427		 # 	collision with: 4 3 0 0 0  and 4 3 1 0 0 
15114428		 # 	collision with: 1 1 7 0 0  and 1 2 7 0 0 
15114430		 # 	collision with: 2 2 7 0 0  and 3 2 7 0 0 
15114440		 # 	collision with: 5 2 6 0 0  and 6 2 6 0 0 
15114442		 # 	collision with: 2 2 6 0 0  and 3 2 6 0 0 
15114460		 # 	collision with: 5 2 1 0 0  and 6 2 1 0 0 
15114462		 # 	collision with: 2 2 1 0 0  and 3 2 1 0 0 
15114484		 # 	collision with: 5 2 4 0 0  and 6 2 4 0 0 
15114486		 # 	collision with: 2 2 4 0 0  and 3 2 4 0 0 
15114492		 # 	collision with: 1 1 6 0 0  and 1 2 6 0 0 
15114494		 # 	collision with: 1 3 6 0 0  and 1 5 6 0 0 
15114505		 # 	collision with: 10 2 0 0 0  and 1 2 1 0 0 
15114507		 # 	collision with: 3 2 0 0 0  and 3 2 1 0 0 
15114517		 # 	collision with: 4 0 0 0 0  and 4 1 0 0 0 
15114519		 # 	collision with: 1 8 0 0 0  and 1 0 1 0 0 
15114528		 # 	collision with: 5 2 3 0 0  and 6 2 3 0 0 
15114530		 # 	collision with: 2 2 3 0 0  and 3 2 3 0 0 
15114568		 # 	collision with: 5 2 9 0 0  and 6 2 9 0 0 
15114572		 # 	collision with: 5 2 9 0 0  and 6 2 9 0 0 
15114574		 # 	collision with: 2 2 9 0 0  and 3 2 9 0 0 
15114602		 # 	collision with: 2 2 4 0 0  and 3 2 4 0 0 
15114632		 # 	collision with: 7 4 3 0 0  and 7 6 3 0 0 
15114634		 # 	collision with: 0 0 3 0 0  and 5 1 3 0 0 
15114660		 # 	collision with: 5 2 8 0 0  and 6 2 8 0 0 
15114662		 # 	collision with: 2 2 8 0 0  and 3 2 8 0 0 
15114664		 # 	collision with: 5 1 1 0 0  and 5 3 1 0 0 
15114666		 # 	collision with: 10 0 1 0 0  and 6 2 1 0 0 
15114704		 # 	collision with: 5 2 7 0 0  and 6 2 7 0 0 
15114706		 # 	collision with: 2 2 7 0 0  and 3 2 7 0 0 
15114717		 # 	collision with: 5 4 0 0 0  and 5 0 1 0 0 
15114719		 # 	collision with: 9 7 0 0 0  and 9 7 1 0 0 
15114729		 # 	collision with: 5 2 0 0 0  and 6 2 0 0 0 
15114731		 # 	collision with: 1 2 1 0 0  and 4 4 1 0 0 
15114740		 # 	collision with: 5 2 2 0 0  and 6 2 2 0 0 
15114742		 # 	collision with: 2 2 2 0 0  and 3 2 2 0 0 
15114748		 # 	collision with: 5 2 5 0 0  and 6 2 5 0 0 
15114750		 # 	collision with: 2 2 5 0 0  and 3 2 5 0 0 
15114772		 # 	collision with: 5 2 0 0 0  and 6 2 0 0 0 
15114774		 # 	collision with: 2 2 0 0 0  and 3 2 0 0 0 
15114792		 # 	collision with: 5 2 10 0 0  and 6 2 10 0 0 
15114794		 # 	collision with: 2 2 10 0 0  and 3 2 10 0 0 
15114804		 # 	collision with: 4 0 4 0 0  and 4 1 4 0 0 
15114806		 # 	collision with: 0 0 4 0 0  and 5 1 4 0 0 
15114809		 # 	collision with: 9 8 0 0 0  and 9 8 1 0 0 
15114811		 # 	collision with: 2 2 1 0 0  and 3 2 1 0 0 
15114833		 # 	collision with: 4 0 0 0 0  and 4 1 1 0 0 
15114835		 # 	collision with: 8 1 0 0 0  and 8 1 1 0 0 
15114949		 # 	collision with: 5 2 5 0 0  and 6 2 5 0 0 
15114951		 # 	collision with: 2 1 0 0 0  and 3 1 0 0 0 
15114965		 # 	collision with: 5 2 1 0 0  and 6 2 1 0 0 
15114967		 # 	collision with: 8 1 5 0 0  and 8 1 6 0 0 
15115013		 # 	collision with: 5 2 0 0 0  and 6 2 0 0 0 
15115015		 # 	collision with: 2 5 2 0 0  and 2 6 2 0 0 
15115053		 # 	collision with: 9 2 5 0 0  and 9 3 5 0 0 
15115065		 # 	collision with: 1 1 4 0 0  and 10 2 4 0 0 
15115067		 # 	collision with: 2 1 3 0 0  and 3 1 3 0 0 
15115077		 # 	collision with: 2 2 1 0 0  and 2 4 1 0 0 
15115079		 # 	collision with: 2 5 0 0 0  and 2 6 0 0 0 
15115125		 # 	collision with: 10 3 6 0 0  and 10 5 6 0 0 
15115127		 # 	collision with: 2 1 0 0 0  and 3 1 0 0 0 
15115137		 # 	collision with: 7 4 5 0 0  and 7 6 5 0 0 
15115139		 # 	collision with: 2 1 5 0 0  and 3 1 5 0 0 
15115145		 # 	collision with: 5 2 0 0 0  and 6 2 0 0 0 
15115147		 # 	collision with: 2 5 2 0 0  and 2 6 2 0 0 
15115149		 # 	collision with: 5 4 1 0 0  and 6 6 1 0 0 
15115237		 # 	collision with: 5 2 1 0 0  and 6 2 1 0 0 
15115239		 # 	collision with: 2 1 3 0 0  and 3 1 3 0 0 
15115253		 # 	collision with: 2 2 1 0 0  and 2 4 1 0 0 
15115255		 # 	collision with: 2 5 0 0 0  and 2 6 0 0 0 
15115320		 # 	collision with: 9 8 3 0 0  and 8 0 1 1 0 
15115322		 # 	collision with: 8 5 2 0 0  and 4 8 0 1 0 
15115433		 # 	collision with: 1 0 4 0 0  and 1 0 6 0 0 
15115435		 # 	collision with: 2 1 3 0 0  and 3 2 3 0 0 
15115449		 # 	collision with: 5 0 2 0 0  and 6 1 2 0 0 
15115451		 # 	collision with: 2 1 3 0 0  and 3 1 3 0 0 
15115497		 # 	collision with: 7 4 0 0 0  and 7 6 0 0 0 
15115499		 # 	collision with: 9 4 0 0 0  and 9 6 0 0 0 
15115537		 # 	collision with: 5 2 3 0 0  and 6 2 3 0 0 
15115539		 # 	collision with: 3 0 4 0 0  and 3 0 6 0 0 
15115561		 # 	collision with: 5 2 0 0 0  and 6 2 0 0 0 
15115563		 # 	collision with: 2 1 0 0 0  and 3 1 0 0 0 
15115611		 # 	collision with: 10 0 5 0 0  and 10 2 5 0 0 
15115621		 # 	collision with: 4 0 4 0 0  and 4 0 6 0 0 
15115623		 # 	collision with: 2 1 3 0 0  and 3 1 3 0 0 
15115629		 # 	collision with: 7 4 0 0 0  and 7 6 0 0 0 
15115631		 # 	collision with: 9 4 0 0 0  and 9 6 0 0 0 
15115633		 # 	collision with: 5 0 4 0 0  and 5 0 6 0 0 
15115635		 # 	collision with: 4 6 4 0 0  and 4 0 6 0 0 
15115721		 # 	collision with: 10 0 4 0 0  and 10 0 6 0 0 
15115737		 # 	collision with: 5 2 0 0 0  and 6 2 0 0 0 
15115739		 # 	collision with: 2 1 0 0 0  and 3 1 0 0 0 
15115804		 # 	collision with: 10 0 1 0 0  and 0 0 0 1 0 
15115806		 # 	collision with: 1 8 1 0 0  and 6 2 0 1 0 
15115917		 # 	collision with: 8 0 3 0 0  and 8 2 3 0 0 
15115933		 # 	collision with: 5 2 0 0 0  and 6 2 0 0 0 
15115935		 # 	collision with: 6 0 3 0 0  and 6 1 3 0 0 
15115981		 # 	collision with: 6 4 3 0 0  and 5 5 3 0 0 
15116021		 # 	collision with: 5 2 0 0 0  and 6 2 0 0 0 
15116023		 # 	collision with: 6 0 3 0 0  and 6 1 3 0 0 
15116033		 # 	collision with: 5 2 1 0 0  and 6 2 1 0 0 
15116035		 # 	collision with: 5 8 4 0 0  and 5 1 5 0 0 
15116045		 # 	collision with: 5 2 2 0 0  and 6 2 2 0 0 
15116047		 # 	collision with: 2 1 2 0 0  and 3 1 2 0 0 
15116093		 # 	collision with: 6 3 2 0 0  and 5 5 2 0 0 
15116095		 # 	collision with: 8 2 4 0 0  and 8 2 5 0 0 
15116105		 # 	collision with: 5 2 4 0 0  and 6 2 4 0 0 
15116107		 # 	collision with: 5 4 0 0 0  and 5 5 0 0 0 
15116113		 # 	collision with: 6 4 4 0 0  and 5 5 4 0 0 
15116115		 # 	collision with: 10 4 4 0 0  and 6 5 4 0 0 
15116117		 # 	collision with: 5 2 1 0 0  and 6 2 1 0 0 
15116119		 # 	collision with: 2 1 2 0 0  and 3 1 2 0 0 
15116205		 # 	collision with: 5 2 2 0 0  and 6 2 2 0 0 
15116207		 # 	collision with: 10 2 3 0 0  and 6 4 3 0 0 
15116221		 # 	collision with: 9 2 3 0 0  and 9 3 3 0 0 
15116223		 # 	collision with: 9 4 2 0 0  and 9 6 2 0 0 
15116288		 # 	collision with: 1 4 8 0 0  and 4 9 0 1 0 
15116290		 # 	collision with: 4 8 9 0 0  and 5 9 1 1 0 
15116401		 # 	collision with: 4 4 3 0 0  and 4 4 5 0 0 
15116403		 # 	collision with: 8 3 2 0 0  and 8 4 2 0 0 
15116417		 # 	collision with: 5 4 2 0 0  and 6 6 2 0 0 
15116419		 # 	collision with: 2 1 2 0 0  and 3 1 2 0 0 
15116465		 # 	collision with: 5 2 2 0 0  and 6 2 2 0 0 
15116467		 # 	collision with: 3 3 2 0 0  and 2 5 2 0 0 
15116505		 # 	collision with: 10 0 3 0 0  and 1 5 5 0 0 
15116507		 # 	collision with: 2 1 1 0 0  and 3 1 1 0 0 
15116517		 # 	collision with: 5 2 3 0 0  and 6 2 3 0 0 
15116519		 # 	collision with: 1 3 0 0 0  and 1 5 0 0 0 
15116529		 # 	collision with: 1 1 1 0 0  and 10 2 1 0 0 
15116531		 # 	collision with: 7 1 3 0 0  and 7 3 3 0 0 
15116577		 # 	collision with: 5 2 3 0 0  and 6 2 3 0 0 
15116579		 # 	collision with: 8 3 2 0 0  and 8 4 2 0 0 
15116589		 # 	collision with: 10 3 0 0 0  and 10 5 0 0 0 
15116591		 # 	collision with: 6 0 2 0 0  and 6 1 2 0 0 
15116597		 # 	collision with: 1 3 3 0 0  and 1 0 5 0 0 
15116599		 # 	collision with: 2 1 2 0 0  and 3 1 2 0 0 
15116601		 # 	collision with: 6 3 0 0 0  and 5 5 0 0 0 
15116603		 # 	collision with: 3 3 0 0 0  and 2 5 0 0 0 
15116689		 # 	collision with: 6 3 0 0 0  and 5 5 0 0 0 
15116691		 # 	collision with: 3 3 0 0 0  and 2 5 0 0 0 
15116705		 # 	collision with: 5 2 1 0 0  and 6 2 1 0 0 
15116707		 # 	collision with: 2 1 1 0 0  and 3 1 1 0 0 
15116772		 # 	collision with: 4 2 6 0 0  and 5 1 0 1 0 
15116774		 # 	collision with: 8 2 6 0 0  and 5 9 0 1 0 
15116885		 # 	collision with: 6 3 0 0 0  and 6 4 0 0 0 
15116887		 # 	collision with: 5 5 3 0 0  and 0 6 3 0 0 
15116901		 # 	collision with: 6 4 2 0 0  and 5 5 2 0 0 
15116903		 # 	collision with: 8 3 0 0 0  and 8 4 0 0 0 
15116949		 # 	collision with: 9 3 2 0 0  and 2 4 2 0 0 
15116951		 # 	collision with: 9 10 3 0 0  and 9 0 4 0 0 
15116991		 # 	collision with: 8 3 0 0 0  and 8 4 0 0 0 
15117001		 # 	collision with: 2 6 3 0 0  and 2 0 4 0 0 
15117003		 # 	collision with: 2 1 0 0 0  and 3 1 0 0 0 
15117013		 # 	collision with: 1 5 3 0 0  and 1 5 4 0 0 
15117015		 # 	collision with: 7 3 3 0 0  and 7 1 4 0 0 
15117061		 # 	collision with: 6 3 0 0 0  and 6 4 0 0 0 
15117073		 # 	collision with: 5 2 0 0 0  and 6 2 0 0 0 
15117075		 # 	collision with: 5 5 2 0 0  and 0 6 2 0 0 
15117083		 # 	collision with: 4 6 3 0 0  and 1 10 4 0 0 
15117085		 # 	collision with: 2 2 2 0 0  and 9 3 2 0 0 
15117087		 # 	collision with: 2 3 3 0 0  and 2 3 4 0 0 
15117173		 # 	collision with: 9 2 1 0 0  and 2 4 1 0 0 
15117175		 # 	collision with: 10 2 1 0 0  and 6 4 1 0 0 
15117189		 # 	collision with: 3 5 3 0 0  and 3 5 4 0 0 
15117191		 # 	collision with: 6 0 3 0 0  and 6 1 4 0 0 
15117256		 # 	collision with: 0 6 7 0 0  and 5 8 0 1 0 
15117258		 # 	collision with: 9 2 7 0 0  and 6 6 0 1 0 
15117371		 # 	collision with: 2 1 3 0 0  and 3 1 3 0 0 
15117385		 # 	collision with: 9 2 0 0 0  and 2 4 0 0 0 
15117387		 # 	collision with: 2 1 1 0 0  and 3 1 1 0 0 
15117433		 # 	collision with: 2 2 3 0 0  and 2 4 3 0 0 
15117435		 # 	collision with: 2 1 3 0 0  and 3 1 3 0 0 
15117473		 # 	collision with: 9 2 0 0 0  and 2 4 0 0 0 
15117475		 # 	collision with: 9 4 4 0 0  and 9 6 4 0 0 
15117485		 # 	collision with: 2 2 0 0 0  and 2 4 0 0 0 
15117487		 # 	collision with: 2 1 2 0 0  and 3 1 2 0 0 
15117497		 # 	collision with: 6 4 2 0 0  and 6 3 4 0 0 
15117499		 # 	collision with: 1 3 2 0 0  and 1 3 4 0 0 
15117545		 # 	collision with: 5 1 4 0 0  and 5 3 4 0 0 
15117547		 # 	collision with: 2 1 1 0 0  and 3 1 1 0 0 
15117557		 # 	collision with: 1 1 4 0 0  and 1 2 4 0 0 
15117559		 # 	collision with: 1 1 2 0 0  and 4 5 4 0 0 
15117565		 # 	collision with: 9 2 2 0 0  and 2 4 2 0 0 
15117567		 # 	collision with: 10 2 1 0 0  and 6 4 1 0 0 
15117569		 # 	collision with: 8 4 2 0 0  and 8 4 4 0 0 
15117571		 # 	collision with: 2 1 0 0 0  and 3 1 0 0 0 
15117659		 # 	collision with: 2 1 0 0 0  and 3 1 0 0 0 
15117673		 # 	collision with: 5 2 2 0 0  and 6 2 2 0 0 
15117675		 # 	collision with: 2 1 2 0 0  and 3 1 2 0 0 
15117740		 # 	collision with: 5 1 5 0 0  and 0 10 1 1 0 
15117742		 # 	collision with: 3 1 4 0 0  and 8 2 0 1 0 
15117853		 # 	collision with: 5 2 2 0 0  and 6 2 2 0 0 
15117855		 # 	collision with: 1 3 2 0 0  and 1 5 3 0 0 
15117871		 # 	collision with: 7 6 2 0 0  and 7 6 3 0 0 
15117917		 # 	collision with: 9 2 1 0 0  and 9 3 1 0 0 
15117919		 # 	collision with: 2 1 0 0 0  and 3 1 0 0 0 
15117957		 # 	collision with: 1 6 2 0 0  and 1 6 3 0 0 
15117959		 # 	collision with: 2 1 3 0 0  and 3 1 3 0 0 
15117969		 # 	collision with: 1 1 1 0 0  and 1 2 1 0 0 
15117971		 # 	collision with: 2 1 1 0 0  and 3 2 1 0 0 
15117981		 # 	collision with: 1 5 2 0 0  and 10 0 3 0 0 
15117983		 # 	collision with: 3 1 2 0 0  and 2 1 3 0 0 
15118029		 # 	collision with: 10 3 2 0 0  and 10 5 3 0 0 
15118031		 # 	collision with: 2 8 2 0 0  and 2 3 3 0 0 
15118041		 # 	collision with: 9 3 1 0 0  and 2 4 1 0 0 
15118043		 # 	collision with: 3 3 2 0 0  and 3 3 3 0 0 
15118049		 # 	collision with: 9 2 1 0 0  and 9 3 1 0 0 
15118051		 # 	collision with: 2 1 0 0 0  and 3 1 0 0 0 
15118053		 # 	collision with: 5 2 2 0 0  and 6 2 2 0 0 
15118055		 # 	collision with: 2 1 3 0 0  and 3 1 3 0 0 
15118141		 # 	collision with: 3 7 2 0 0  and 8 0 3 0 0 
15118143		 # 	collision with: 8 7 2 0 0  and 8 0 3 0 0 
15118159		 # 	collision with: 5 1 2 0 0  and 0 1 3 0 0 
15118224		 # 	collision with: 6 10 7 0 0  and 4 6 2 1 0 
15118226		 # 	collision with: 5 9 5 0 0  and 8 5 0 1 0 
15118337		 # 	collision with: 3 4 1 0 0  and 3 5 1 0 0 
15118339		 # 	collision with: 2 1 2 0 0  and 3 1 2 0 0 
15118353		 # 	collision with: 5 1 0 0 0  and 5 3 0 0 0 
15118355		 # 	collision with: 2 1 0 0 0  and 3 1 0 0 0 
15118403		 # 	collision with: 9 1 7 0 0  and 7 3 7 0 0 
15118441		 # 	collision with: 5 1 0 0 0  and 5 3 0 0 0 
15118443		 # 	collision with: 2 1 0 0 0  and 3 1 0 0 0 
15118453		 # 	collision with: 5 2 0 0 0  and 6 2 0 0 0 
15118455		 # 	collision with: 4 3 1 0 0  and 4 3 3 0 0 
15118465		 # 	collision with: 5 2 1 0 0  and 6 2 1 0 0 
15118513		 # 	collision with: 3 4 1 0 0  and 3 5 1 0 0 
15118515		 # 	collision with: 5 8 1 0 0  and 0 1 3 0 0 
15118525		 # 	collision with: 3 6 1 0 0  and 3 3 3 0 0 
15118527		 # 	collision with: 2 1 2 0 0  and 3 1 2 0 0 
15118533		 # 	collision with: 10 8 1 0 0  and 10 0 3 0 0 
15118535		 # 	collision with: 9 1 2 0 0  and 7 3 2 0 0 
15118539		 # 	collision with: 7 6 1 0 0  and 7 6 3 0 0 
15118625		 # 	collision with: 8 6 1 0 0  and 8 6 3 0 0 
15118627		 # 	collision with: 2 1 1 0 0  and 3 1 1 0 0 
15118641		 # 	collision with: 5 0 1 0 0  and 6 1 3 0 0 
15118643		 # 	collision with: 2 1 3 0 0  and 3 1 3 0 0 
15118708		 # 	collision with: 4 4 3 0 0  and 10 8 0 1 0 
15118710		 # 	collision with: 10 9 3 0 0  and 8 6 0 1 0 
15118821		 # 	collision with: 5 2 1 0 0  and 6 2 1 0 0 
15118823		 # 	collision with: 3 1 0 0 0  and 3 2 0 0 0 
15118837		 # 	collision with: 4 0 1 0 0  and 4 1 2 0 0 
15118839		 # 	collision with: 9 1 1 0 0  and 7 3 1 0 0 
15118885		 # 	collision with: 9 9 1 0 0  and 9 7 2 0 0 
15118887		 # 	collision with: 2 1 3 0 0  and 3 2 3 0 0 
15118925		 # 	collision with: 5 0 1 0 0  and 5 4 2 0 0 
15118927		 # 	collision with: 7 4 1 0 0  and 7 4 2 0 0 
15118937		 # 	collision with: 5 2 2 0 0  and 6 2 2 0 0 
15118939		 # 	collision with: 6 0 1 0 0  and 10 1 1 0 0 
15118949		 # 	collision with: 6 3 1 0 0  and 6 4 2 0 0 
15118951		 # 	collision with: 4 6 1 0 0  and 4 0 2 0 0 
15118997		 # 	collision with: 2 3 1 0 0  and 2 3 2 0 0 
15118999		 # 	collision with: 3 1 0 0 0  and 3 2 0 0 0 
15119009		 # 	collision with: 1 2 1 0 0  and 1 2 2 0 0 
15119011		 # 	collision with: 2 1 0 0 0  and 3 1 0 0 0 
15119017		 # 	collision with: 5 2 2 0 0  and 6 2 2 0 0 
15119019		 # 	collision with: 10 0 1 0 0  and 6 8 2 0 0 
15119021		 # 	collision with: 4 5 1 0 0  and 7 1 2 0 0 
15119023		 # 	collision with: 5 7 1 0 0  and 5 7 2 0 0 
15119109		 # 	collision with: 3 8 1 0 0  and 3 1 2 0 0 
15119111		 # 	collision with: 10 7 1 0 0  and 10 7 2 0 0 
15119125		 # 	collision with: 1 8 1 0 0  and 1 8 2 0 0 
15119127		 # 	collision with: 2 9 1 0 0  and 2 2 2 0 0 
15119192		 # 	collision with: 2 10 10 0 0  and 4 0 0 1 0 
15119194		 # 	collision with: 6 7 10 0 0  and 1 3 0 1 0 
15119305		 # 	collision with: 2 5 0 0 0  and 2 5 2 0 0 
15119307		 # 	collision with: 2 1 1 0 0  and 3 1 1 0 0 
15119321		 # 	collision with: 5 2 2 0 0  and 6 2 2 0 0 
15119323		 # 	collision with: 1 3 0 0 0  and 1 3 2 0 0 
15119369		 # 	collision with: 8 0 6 0 0  and 3 2 6 0 0 
15119371		 # 	collision with: 2 1 2 0 0  and 3 1 2 0 0 
15119409		 # 	collision with: 5 2 1 0 0  and 6 2 1 0 0 
15119411		 # 	collision with: 2 10 0 0 0  and 3 1 2 0 0 
15119421		 # 	collision with: 4 4 0 0 0  and 4 4 2 0 0 
15119423		 # 	collision with: 6 10 0 0 0  and 6 2 2 0 0 
15119433		 # 	collision with: 4 5 0 0 0  and 7 1 2 0 0 
15119435		 # 	collision with: 4 6 0 0 0  and 4 6 2 0 0 
15119481		 # 	collision with: 5 2 2 0 0  and 6 2 2 0 0 
15119483		 # 	collision with: 6 0 2 0 0  and 10 1 2 0 0 
15119493		 # 	collision with: 5 2 1 0 0  and 6 2 1 0 0 
15119495		 # 	collision with: 9 1 1 0 0  and 7 3 1 0 0 
15119501		 # 	collision with: 5 2 5 0 0  and 6 2 5 0 0 
15119505		 # 	collision with: 8 0 0 0 0  and 3 2 0 0 0 
15119507		 # 	collision with: 2 1 1 0 0  and 3 1 1 0 0 
15119593		 # 	collision with: 8 0 0 0 0  and 3 2 0 0 0 
15119595		 # 	collision with: 2 1 2 0 0  and 3 1 2 0 0 
15119609		 # 	collision with: 6 5 0 0 0  and 6 2 2 0 0 
15119676		 # 	collision with: 8 7 0 0 0  and 2 3 2 1 0 
15119678		 # 	collision with: 5 6 10 0 0  and 6 5 1 1 0 
15119789		 # 	collision with: 5 2 0 0 0  and 6 2 0 0 0 
15119791		 # 	collision with: 3 7 0 0 0  and 3 7 1 0 0 
15119805		 # 	collision with: 8 2 0 0 0  and 3 2 1 0 0 
15119853		 # 	collision with: 8 0 0 0 0  and 3 7 1 0 0 
15119855		 # 	collision with: 4 6 0 0 0  and 1 9 1 0 0 
15119893		 # 	collision with: 8 10 0 0 0  and 3 0 1 0 0 
15119895		 # 	collision with: 5 2 0 0 0  and 5 2 1 0 0 
15119905		 # 	collision with: 1 1 0 0 0  and 10 6 1 0 0 
15119907		 # 	collision with: 9 10 0 0 0  and 9 0 1 0 0 
15119919		 # 	collision with: 2 4 0 0 0  and 2 4 1 0 0 
15119965		 # 	collision with: 5 2 0 0 0  and 6 2 0 0 0 
15119967		 # 	collision with: 1 2 0 0 0  and 1 6 1 0 0 
15119985		 # 	collision with: 4 6 0 0 0  and 7 3 1 0 0 
15119987		 # 	collision with: 9 10 0 0 0  and 9 0 1 0 0 
15119989		 # 	collision with: 3 1 0 0 0  and 3 8 1 0 0 
15119991		 # 	collision with: 1 10 0 0 0  and 4 0 1 0 0 
36.5196secs	15772
