# prime 11
# degree 2
# input variables 3
# output variables 5
# reload computed balance functions from file balance-3126of3248-p11d2m3-debug.log
# p = 11
# n = 5
# smalldomain p^m 1331
# domain p^n 161051
#	 p^2 = 121
#	 p^3 = 1331
#	 p^4 = 14641
#	 p^5 = 161051
#	 p^6 = 1771561
#	 p^7 = 19487171
#	 p^8 = 214358881
#	 p^9 = 2357947691
opening file : balance-3126of3248-p11d2m3-debug.log
reloading for step2...
68772008		 # 	collision with: 9 1 4 0 0  and 9 2 4 0 0 
68772009		 # 	collision with: 5 6 4 0 0  and 6 6 4 0 0 
68772010		 # 	collision with: 5 2 4 0 0  and 1 3 4 0 0 
68772011		 # 	collision with: 2 1 0 0 0  and 4 1 0 0 0 
68772044		 # 	collision with: 5 1 8 0 0  and 7 3 0 1 0 
68772045		 # 	collision with: 10 3 2 0 0  and 10 4 2 0 0 
68772046		 # 	collision with: 2 3 8 0 0  and 9 2 0 1 0 
68772047		 # 	collision with: 3 3 2 0 0  and 3 4 2 0 0 
68772124		 # 	collision with: 10 0 2 0 0  and 1 2 2 0 0 
68772125		 # 	collision with: 9 6 3 0 0  and 2 2 4 0 0 
68772126		 # 	collision with: 1 1 2 0 0  and 5 3 2 0 0 
68772127		 # 	collision with: 3 3 0 0 0  and 3 4 0 0 0 
68772160		 # 	collision with: 10 2 1 0 0  and 1 3 1 0 0 
68772161		 # 	collision with: 4 4 3 0 0  and 4 1 4 0 0 
68772162		 # 	collision with: 2 1 0 0 0  and 4 1 0 0 0 
68772163		 # 	collision with: 6 7 3 0 0  and 6 7 4 0 0 
68772196		 # 	collision with: 5 6 7 0 0  and 6 6 7 0 0 
68772197		 # 	collision with: 10 0 1 0 0  and 1 2 1 0 0 
68772198		 # 	collision with: 2 1 8 0 0  and 4 1 8 0 0 
68772199		 # 	collision with: 6 3 2 0 0  and 6 5 2 0 0 
68772232		 # 	collision with: 5 6 0 0 0  and 6 6 0 0 0 
68772233		 # 	collision with: 5 6 0 0 0  and 6 6 0 0 0 
68772234		 # 	collision with: 2 1 1 0 0  and 4 1 1 0 0 
68772235		 # 	collision with: 7 0 2 0 0  and 10 1 2 0 0 
68772268		 # 	collision with: 7 2 7 0 0  and 7 4 7 0 0 
68772269		 # 	collision with: 1 1 3 0 0  and 1 3 3 0 0 
68772270		 # 	collision with: 9 4 7 0 0  and 9 5 7 0 0 
68772271		 # 	collision with: 2 1 0 0 0  and 4 1 0 0 0 
68772348		 # 	collision with: 5 6 4 0 0  and 6 6 4 0 0 
68772349		 # 	collision with: 1 3 1 0 0  and 10 5 1 0 0 
68772350		 # 	collision with: 10 2 4 0 0  and 7 4 4 0 0 
68772351		 # 	collision with: 6 3 1 0 0  and 6 5 1 0 0 
68772384		 # 	collision with: 5 6 2 0 0  and 6 6 2 0 0 
68772385		 # 	collision with: 8 4 1 0 0  and 3 6 1 0 0 
68772386		 # 	collision with: 2 1 3 0 0  and 4 1 3 0 0 
68772387		 # 	collision with: 8 2 3 0 0  and 8 3 3 0 0 
68772420		 # 	collision with: 10 2 3 0 0  and 1 3 3 0 0 
68772421		 # 	collision with: 10 3 0 0 0  and 10 4 0 0 0 
68772422		 # 	collision with: 4 5 3 0 0  and 4 6 3 0 0 
68772423		 # 	collision with: 7 0 1 0 0  and 10 1 1 0 0 
68772456		 # 	collision with: 5 6 3 0 0  and 6 6 3 0 0 
68772457		 # 	collision with: 2 3 0 0 0  and 9 4 0 0 0 
68772458		 # 	collision with: 2 1 4 0 0  and 4 1 4 0 0 
68772459		 # 	collision with: 4 4 3 0 0  and 4 4 4 0 0 
68772492		 # 	collision with: 5 6 5 0 0  and 6 6 5 0 0 
68772493		 # 	collision with: 1 1 2 0 0  and 10 2 2 0 0 
68772494		 # 	collision with: 2 1 6 0 0  and 4 1 6 0 0 
68772495		 # 	collision with: 2 1 1 0 0  and 4 1 1 0 0 
68772528		 # 	collision with: 2 1 2 0 0  and 10 0 0 1 0 
68772529		 # 	collision with: 7 2 1 0 0  and 7 4 1 0 0 
68772530		 # 	collision with: 2 5 5 0 0  and 6 4 3 1 0 
68772531		 # 	collision with: 2 1 0 0 0  and 4 1 0 0 0 
68772608		 # 	collision with: 5 6 7 0 0  and 6 6 7 0 0 
68772609		 # 	collision with: 7 2 0 0 0  and 7 4 0 0 0 
68772610		 # 	collision with: 2 1 8 0 0  and 4 1 8 0 0 
68772611		 # 	collision with: 2 1 2 0 0  and 4 1 2 0 0 
68772644		 # 	collision with: 2 3 4 0 0  and 2 5 4 0 0 
68772645		 # 	collision with: 5 8 2 0 0  and 5 1 4 0 0 
68772646		 # 	collision with: 4 1 4 0 0  and 2 2 4 0 0 
68772647		 # 	collision with: 2 1 2 0 0  and 4 1 2 0 0 
68772680		 # 	collision with: 5 6 3 0 0  and 6 6 3 0 0 
68772681		 # 	collision with: 3 0 1 0 0  and 3 1 1 0 0 
68772682		 # 	collision with: 2 1 4 0 0  and 4 1 4 0 0 
68772683		 # 	collision with: 7 0 1 0 0  and 10 1 1 0 0 
68772716		 # 	collision with: 3 1 2 0 0  and 8 3 2 0 0 
68772717		 # 	collision with: 4 2 4 0 0  and 4 3 4 0 0 
68772718		 # 	collision with: 9 4 2 0 0  and 9 5 2 0 0 
68772719		 # 	collision with: 2 1 2 0 0  and 4 1 2 0 0 
68772752		 # 	collision with: 5 6 0 0 0  and 6 6 0 0 0 
68772753		 # 	collision with: 5 6 0 0 0  and 6 6 0 0 0 
68772754		 # 	collision with: 2 1 1 0 0  and 4 1 1 0 0 
68772755		 # 	collision with: 2 1 2 0 0  and 4 1 2 0 0 
68772832		 # 	collision with: 5 6 2 0 0  and 6 6 2 0 0 
68772833		 # 	collision with: 5 6 2 0 0  and 6 6 2 0 0 
68772834		 # 	collision with: 2 1 3 0 0  and 4 1 3 0 0 
68772835		 # 	collision with: 3 3 1 0 0  and 3 4 1 0 0 
68772868		 # 	collision with: 5 6 5 0 0  and 6 6 5 0 0 
68772869		 # 	collision with: 7 9 2 0 0  and 4 0 4 0 0 
68772870		 # 	collision with: 2 1 6 0 0  and 4 1 6 0 0 
68772871		 # 	collision with: 2 1 2 0 0  and 4 1 2 0 0 
68772904		 # 	collision with: 1 1 1 0 0  and 1 3 1 0 0 
68772905		 # 	collision with: 10 2 2 0 0  and 1 3 2 0 0 
68772906		 # 	collision with: 2 1 0 0 0  and 4 1 0 0 0 
68772907		 # 	collision with: 2 1 2 0 0  and 4 1 2 0 0 
68772940		 # 	collision with: 5 4 7 0 0  and 5 5 7 0 0 
68772941		 # 	collision with: 6 2 0 0 0  and 5 4 0 0 0 
68772942		 # 	collision with: 8 2 7 0 0  and 8 3 7 0 0 
68772943		 # 	collision with: 2 1 2 0 0  and 4 1 2 0 0 
68772976		 # 	collision with: 8 4 3 0 0  and 8 6 3 0 0 
68772977		 # 	collision with: 1 3 2 0 0  and 10 2 4 0 0 
68772978		 # 	collision with: 2 1 3 0 0  and 2 2 3 0 0 
68772979		 # 	collision with: 10 2 0 0 0  and 7 4 0 0 0 
68773012		 # 	collision with: 3 2 0 0 0  and 1 10 2 1 0 
68773013		 # 	collision with: 4 2 0 0 0  and 4 3 0 0 0 
68773014		 # 	collision with: 4 8 9 0 0  and 1 6 0 1 0 
68773015		 # 	collision with: 8 2 0 0 0  and 8 3 0 0 0 
68773092		 # 	collision with: 10 0 3 0 0  and 1 2 3 0 0 
68773093		 # 	collision with: 10 0 2 0 0  and 10 0 3 0 0 
68773094		 # 	collision with: 4 1 3 0 0  and 2 2 3 0 0 
68773095		 # 	collision with: 2 1 1 0 0  and 4 1 1 0 0 
68773128		 # 	collision with: 1 1 7 0 0  and 10 2 7 0 0 
68773129		 # 	collision with: 5 4 1 0 0  and 5 5 1 0 0 
68773130		 # 	collision with: 5 1 7 0 0  and 5 3 7 0 0 
68773131		 # 	collision with: 10 0 2 0 0  and 10 2 2 0 0 
68773164		 # 	collision with: 3 0 1 0 0  and 3 1 1 0 0 
68773165		 # 	collision with: 6 2 2 0 0  and 5 4 2 0 0 
68773166		 # 	collision with: 2 1 0 0 0  and 4 1 0 0 0 
68773167		 # 	collision with: 3 0 2 0 0  and 3 0 3 0 0 
68773200		 # 	collision with: 5 6 5 0 0  and 6 6 5 0 0 
68773201		 # 	collision with: 8 4 2 0 0  and 8 6 2 0 0 
68773202		 # 	collision with: 2 1 6 0 0  and 4 1 6 0 0 
68773203		 # 	collision with: 5 0 2 0 0  and 5 0 3 0 0 
68773236		 # 	collision with: 5 6 2 0 0  and 6 6 2 0 0 
68773237		 # 	collision with: 5 6 2 0 0  and 6 6 2 0 0 
68773238		 # 	collision with: 2 1 3 0 0  and 4 1 3 0 0 
68773239		 # 	collision with: 5 2 0 0 0  and 1 3 0 0 0 
68773316		 # 	collision with: 5 6 0 0 0  and 6 6 0 0 0 
68773317		 # 	collision with: 5 6 0 0 0  and 6 6 0 0 0 
68773318		 # 	collision with: 2 1 1 0 0  and 4 1 1 0 0 
68773319		 # 	collision with: 2 1 0 0 0  and 4 1 0 0 0 
68773352		 # 	collision with: 6 0 2 0 0  and 6 2 2 0 0 
68773353		 # 	collision with: 2 3 1 0 0  and 2 5 1 0 0 
68773354		 # 	collision with: 4 5 2 0 0  and 4 6 2 0 0 
68773355		 # 	collision with: 4 5 2 0 0  and 4 6 2 0 0 
68773388		 # 	collision with: 5 6 3 0 0  and 6 6 3 0 0 
68773389		 # 	collision with: 4 0 2 0 0  and 4 0 3 0 0 
68773390		 # 	collision with: 2 1 4 0 0  and 4 1 4 0 0 
68773391		 # 	collision with: 8 0 2 0 0  and 8 0 3 0 0 
68773424		 # 	collision with: 1 1 4 0 0  and 1 3 4 0 0 
68773425		 # 	collision with: 2 3 2 0 0  and 2 5 2 0 0 
68773426		 # 	collision with: 4 5 4 0 0  and 4 6 4 0 0 
68773427		 # 	collision with: 7 0 1 0 0  and 10 1 1 0 0 
68773460		 # 	collision with: 5 6 7 0 0  and 6 6 7 0 0 
68773461		 # 	collision with: 10 2 0 0 0  and 1 3 0 0 0 
68773462		 # 	collision with: 2 1 8 0 0  and 4 1 8 0 0 
68773463		 # 	collision with: 2 0 2 0 0  and 2 0 3 0 0 
68773496		 # 	collision with: 5 8 3 0 0  and 1 1 0 1 0 
68773497		 # 	collision with: 3 1 3 0 0  and 8 3 3 0 0 
68773498		 # 	collision with: 10 1 4 0 0  and 9 0 1 1 0 
68773499		 # 	collision with: 1 1 4 0 0  and 5 3 4 0 0 
68773576		 # 	collision with: 5 6 5 0 0  and 6 6 5 0 0 
68773577		 # 	collision with: 10 5 1 0 0  and 1 3 3 0 0 
68773578		 # 	collision with: 2 1 6 0 0  and 4 1 6 0 0 
68773579		 # 	collision with: 2 1 0 0 0  and 4 1 0 0 0 
68773612		 # 	collision with: 5 6 3 0 0  and 6 6 3 0 0 
68773613		 # 	collision with: 3 1 0 0 0  and 8 3 0 0 0 
68773614		 # 	collision with: 2 1 4 0 0  and 4 1 4 0 0 
68773615		 # 	collision with: 2 1 1 0 0  and 4 1 1 0 0 
68773648		 # 	collision with: 4 2 3 0 0  and 4 3 3 0 0 
68773649		 # 	collision with: 5 4 1 0 0  and 6 2 3 0 0 
68773650		 # 	collision with: 7 0 3 0 0  and 10 1 3 0 0 
68773651		 # 	collision with: 5 1 0 0 0  and 5 3 0 0 0 
68773684		 # 	collision with: 5 6 2 0 0  and 6 6 2 0 0 
68773685		 # 	collision with: 1 1 0 0 0  and 1 3 0 0 0 
68773686		 # 	collision with: 2 1 3 0 0  and 4 1 3 0 0 
68773687		 # 	collision with: 1 1 0 0 0  and 5 3 0 0 0 
68773720		 # 	collision with: 8 4 4 0 0  and 3 6 4 0 0 
68773721		 # 	collision with: 9 1 1 0 0  and 9 2 1 0 0 
68773722		 # 	collision with: 10 0 4 0 0  and 10 2 4 0 0 
68773723		 # 	collision with: 1 3 1 0 0  and 1 3 3 0 0 
68773800		 # 	collision with: 3 1 7 0 0  and 8 3 7 0 0 
68773801		 # 	collision with: 6 2 2 0 0  and 5 4 2 0 0 
68773802		 # 	collision with: 9 5 7 0 0  and 8 6 7 0 0 
68773803		 # 	collision with: 8 2 1 0 0  and 8 3 1 0 0 
68773836		 # 	collision with: 5 6 0 0 0  and 6 6 0 0 0 
68773837		 # 	collision with: 5 6 0 0 0  and 6 6 0 0 0 
68773838		 # 	collision with: 2 1 1 0 0  and 4 1 1 0 0 
68773839		 # 	collision with: 8 9 1 0 0  and 8 7 3 0 0 
68773872		 # 	collision with: 5 6 7 0 0  and 6 6 7 0 0 
68773873		 # 	collision with: 6 0 1 0 0  and 5 4 3 0 0 
68773874		 # 	collision with: 2 1 8 0 0  and 4 1 8 0 0 
68773875		 # 	collision with: 2 1 2 0 0  and 2 2 2 0 0 
68773908		 # 	collision with: 8 4 1 0 0  and 8 6 1 0 0 
68773909		 # 	collision with: 8 7 1 0 0  and 8 3 3 0 0 
68773910		 # 	collision with: 2 1 0 0 0  and 4 1 0 0 0 
68773911		 # 	collision with: 2 1 3 0 0  and 4 1 3 0 0 
68773944		 # 	collision with: 7 2 2 0 0  and 7 4 2 0 0 
68773945		 # 	collision with: 6 0 1 0 0  and 6 2 1 0 0 
68773946		 # 	collision with: 4 1 2 0 0  and 2 2 2 0 0 
68773947		 # 	collision with: 6 6 1 0 0  and 6 2 3 0 0 
68773980		 # 	collision with: 4 7 4 0 0  and 8 3 0 1 0 
68773981		 # 	collision with: 1 1 0 0 0  and 10 2 0 0 0 
68773982		 # 	collision with: 2 7 4 0 0  and 10 7 0 1 0 
68773983		 # 	collision with: 9 4 1 0 0  and 9 5 2 0 0 
68774060		 # 	collision with: 10 0 4 0 0  and 1 2 4 0 0 
68774061		 # 	collision with: 4 2 1 0 0  and 4 3 1 0 0 
68774062		 # 	collision with: 2 1 4 0 0  and 2 2 4 0 0 
68774063		 # 	collision with: 7 8 1 0 0  and 7 8 2 0 0 
68774096		 # 	collision with: 4 2 2 0 0  and 4 3 2 0 0 
68774097		 # 	collision with: 7 6 1 0 0  and 7 0 2 0 0 
68774098		 # 	collision with: 7 0 2 0 0  and 10 1 2 0 0 
68774099		 # 	collision with: 3 4 1 0 0  and 3 4 2 0 0 
68774132		 # 	collision with: 5 6 2 0 0  and 6 6 2 0 0 
68774133		 # 	collision with: 9 4 1 0 0  and 2 5 1 0 0 
68774134		 # 	collision with: 2 1 3 0 0  and 4 1 3 0 0 
68774135		 # 	collision with: 2 1 1 0 0  and 4 1 1 0 0 
68774168		 # 	collision with: 10 3 1 0 0  and 10 4 1 0 0 
68774169		 # 	collision with: 3 2 1 0 0  and 3 2 2 0 0 
68774170		 # 	collision with: 2 1 0 0 0  and 4 1 0 0 0 
68774171		 # 	collision with: 2 1 0 0 0  and 2 2 0 0 0 
68774204		 # 	collision with: 1 1 3 0 0  and 1 3 3 0 0 
68774205		 # 	collision with: 7 6 1 0 0  and 7 6 2 0 0 
68774206		 # 	collision with: 3 3 3 0 0  and 3 4 3 0 0 
68774207		 # 	collision with: 7 0 2 0 0  and 7 1 2 0 0 
68774284		 # 	collision with: 5 6 7 0 0  and 6 6 7 0 0 
68774285		 # 	collision with: 8 6 1 0 0  and 8 4 2 0 0 
68774286		 # 	collision with: 2 1 8 0 0  and 4 1 8 0 0 
68774287		 # 	collision with: 5 1 1 0 0  and 5 3 1 0 0 
68774320		 # 	collision with: 5 6 3 0 0  and 6 6 3 0 0 
68774321		 # 	collision with: 9 1 0 0 0  and 9 2 0 0 0 
68774322		 # 	collision with: 2 1 4 0 0  and 4 1 4 0 0 
68774323		 # 	collision with: 2 1 0 0 0  and 4 1 0 0 0 
68774356		 # 	collision with: 5 6 0 0 0  and 6 6 0 0 0 
68774357		 # 	collision with: 5 6 0 0 0  and 6 6 0 0 0 
68774358		 # 	collision with: 2 1 1 0 0  and 4 1 1 0 0 
68774359		 # 	collision with: 6 1 1 0 0  and 0 1 2 0 0 
68774392		 # 	collision with: 5 6 5 0 0  and 6 6 5 0 0 
68774393		 # 	collision with: 8 4 1 0 0  and 8 6 1 0 0 
68774394		 # 	collision with: 2 1 6 0 0  and 4 1 6 0 0 
68774395		 # 	collision with: 7 0 1 0 0  and 10 1 2 0 0 
68774428		 # 	collision with: 1 1 7 0 0  and 1 3 7 0 0 
68774429		 # 	collision with: 7 3 1 0 0  and 7 3 2 0 0 
68774430		 # 	collision with: 6 3 7 0 0  and 6 5 7 0 0 
68774431		 # 	collision with: 7 0 1 0 0  and 10 1 1 0 0 
68774464		 # 	collision with: 9 0 6 0 0  and 6 1 0 1 0 
68774465		 # 	collision with: 10 0 0 0 0  and 1 2 0 0 0 
68774466		 # 	collision with: 7 1 8 0 0  and 1 2 2 1 0 
68774467		 # 	collision with: 7 8 0 0 0  and 10 0 2 0 0 
68774544		 # 	collision with: 5 6 3 0 0  and 6 6 3 0 0 
68774545		 # 	collision with: 2 8 0 0 0  and 2 0 2 0 0 
68774546		 # 	collision with: 2 1 4 0 0  and 4 1 4 0 0 
68774547		 # 	collision with: 7 8 0 0 0  and 10 0 2 0 0 
68774580		 # 	collision with: 5 6 2 0 0  and 6 6 2 0 0 
68774581		 # 	collision with: 6 0 0 0 0  and 6 2 0 0 0 
68774582		 # 	collision with: 2 1 3 0 0  and 4 1 3 0 0 
68774583		 # 	collision with: 2 1 0 0 0  and 4 1 0 0 0 
68774616		 # 	collision with: 6 0 7 0 0  and 6 2 7 0 0 
68774617		 # 	collision with: 7 8 0 0 0  and 4 0 2 0 0 
68774618		 # 	collision with: 5 2 7 0 0  and 1 3 7 0 0 
68774619		 # 	collision with: 7 8 0 0 0  and 10 0 2 0 0 
68774652		 # 	collision with: 5 6 7 0 0  and 6 6 7 0 0 
68774653		 # 	collision with: 6 3 0 0 0  and 6 3 2 0 0 
68774654		 # 	collision with: 2 1 8 0 0  and 4 1 8 0 0 
68774655		 # 	collision with: 2 1 1 0 0  and 4 1 1 0 0 
68774688		 # 	collision with: 5 4 2 0 0  and 5 5 2 0 0 
68774689		 # 	collision with: 4 9 0 0 0  and 4 9 2 0 0 
68774690		 # 	collision with: 7 0 2 0 0  and 7 1 2 0 0 
68774691		 # 	collision with: 7 0 1 0 0  and 10 1 1 0 0 
68774768		 # 	collision with: 5 6 5 0 0  and 6 6 5 0 0 
68774769		 # 	collision with: 6 0 0 0 0  and 6 2 2 0 0 
68774770		 # 	collision with: 2 1 6 0 0  and 4 1 6 0 0 
68774771		 # 	collision with: 2 1 1 0 0  and 2 2 1 0 0 
68774804		 # 	collision with: 1 1 3 0 0  and 10 2 3 0 0 
68774805		 # 	collision with: 5 3 0 0 0  and 6 6 2 0 0 
68774806		 # 	collision with: 8 2 3 0 0  and 8 3 3 0 0 
68774807		 # 	collision with: 7 8 0 0 0  and 10 0 2 0 0 
68774840		 # 	collision with: 6 2 4 0 0  and 5 4 4 0 0 
68774841		 # 	collision with: 10 5 0 0 0  and 1 1 2 0 0 
68774842		 # 	collision with: 6 3 4 0 0  and 6 5 4 0 0 
68774843		 # 	collision with: 7 8 0 0 0  and 10 0 2 0 0 
68774876		 # 	collision with: 5 6 0 0 0  and 6 6 0 0 0 
68774877		 # 	collision with: 5 6 0 0 0  and 6 6 0 0 0 
68774878		 # 	collision with: 2 1 1 0 0  and 4 1 1 0 0 
68774879		 # 	collision with: 8 5 0 0 0  and 8 0 2 0 0 
68774912		 # 	collision with: 6 0 1 0 0  and 6 2 1 0 0 
68774913		 # 	collision with: 3 8 0 0 0  and 8 9 2 0 0 
68774914		 # 	collision with: 2 1 0 0 0  and 4 1 0 0 0 
68774915		 # 	collision with: 10 0 0 0 0  and 10 2 0 0 0 
68774948		 # 	collision with: 9 8 3 0 0  and 8 0 2 1 0 
68774949		 # 	collision with: 5 6 0 0 0  and 6 7 1 0 0 
68774950		 # 	collision with: 1 10 2 0 0  and 0 1 1 1 0 
68774951		 # 	collision with: 7 0 1 0 0  and 10 1 1 0 0 
68775028		 # 	collision with: 5 6 2 0 0  and 6 6 2 0 0 
68775029		 # 	collision with: 3 7 0 0 0  and 3 5 1 0 0 
68775030		 # 	collision with: 2 1 3 0 0  and 4 1 3 0 0 
68775031		 # 	collision with: 6 6 0 0 0  and 6 2 1 0 0 
68775064		 # 	collision with: 5 6 7 0 0  and 6 6 7 0 0 
68775065		 # 	collision with: 1 3 0 0 0  and 1 1 1 0 0 
68775066		 # 	collision with: 2 1 8 0 0  and 4 1 8 0 0 
68775067		 # 	collision with: 7 8 0 0 0  and 7 8 1 0 0 
68775100		 # 	collision with: 5 6 5 0 0  and 6 6 5 0 0 
68775101		 # 	collision with: 6 9 0 0 0  and 6 9 1 0 0 
68775102		 # 	collision with: 2 1 6 0 0  and 4 1 6 0 0 
68775103		 # 	collision with: 2 9 0 0 0  and 2 9 1 0 0 
68775136		 # 	collision with: 10 2 4 0 0  and 1 3 4 0 0 
68775137		 # 	collision with: 9 4 0 0 0  and 9 4 1 0 0 
68775138		 # 	collision with: 5 1 4 0 0  and 5 3 4 0 0 
68775139		 # 	collision with: 7 0 0 0 0  and 10 1 0 0 0 
68775172		 # 	collision with: 9 1 1 0 0  and 9 2 1 0 0 
68775173		 # 	collision with: 1 1 0 0 0  and 1 1 1 0 0 
68775174		 # 	collision with: 2 1 0 0 0  and 4 1 0 0 0 
68775175		 # 	collision with: 3 1 0 0 0  and 3 1 1 0 0 
68775252		 # 	collision with: 5 6 3 0 0  and 6 6 3 0 0 
68775253		 # 	collision with: 9 10 0 0 0  and 9 10 1 0 0 
68775254		 # 	collision with: 2 1 4 0 0  and 4 1 4 0 0 
68775255		 # 	collision with: 0 5 0 0 0  and 6 1 1 0 0 
68775288		 # 	collision with: 4 2 7 0 0  and 4 3 7 0 0 
68775289		 # 	collision with: 3 5 0 0 0  and 3 7 1 0 0 
68775290		 # 	collision with: 2 1 7 0 0  and 2 2 7 0 0 
68775291		 # 	collision with: 7 0 0 0 0  and 7 1 0 0 0 
68775324		 # 	collision with: 3 0 2 0 0  and 3 1 2 0 0 
68775325		 # 	collision with: 1 2 0 0 0  and 1 2 1 0 0 
68775326		 # 	collision with: 2 1 2 0 0  and 2 2 2 0 0 
68775327		 # 	collision with: 2 1 0 0 0  and 4 1 0 0 0 
68775360		 # 	collision with: 7 2 3 0 0  and 7 4 3 0 0 
68775361		 # 	collision with: 3 0 0 0 0  and 3 1 0 0 0 
68775362		 # 	collision with: 10 0 3 0 0  and 10 2 3 0 0 
68775363		 # 	collision with: 6 3 0 0 0  and 6 3 1 0 0 
68775396		 # 	collision with: 5 6 0 0 0  and 6 6 0 0 0 
68775397		 # 	collision with: 5 6 0 0 0  and 6 6 0 0 0 
68775398		 # 	collision with: 2 1 1 0 0  and 4 1 1 0 0 
68775399		 # 	collision with: 3 6 0 0 0  and 3 6 1 0 0 
68775441		 # 	collision with: 10 5 5 0 0  and 1 1 6 0 0 
68775443		 # 	collision with: 5 5 0 0 0  and 1 6 0 0 0 
68775469		 # 	collision with: 6 0 1 0 0  and 6 2 1 0 0 
68775471		 # 	collision with: 2 3 0 0 0  and 4 3 0 0 0 
68775565		 # 	collision with: 5 6 0 0 0  and 6 6 0 0 0 
68775567		 # 	collision with: 5 5 4 0 0  and 1 6 4 0 0 
68775605		 # 	collision with: 5 6 2 0 0  and 6 6 2 0 0 
68775607		 # 	collision with: 8 2 5 0 0  and 9 3 5 0 0 
68775617		 # 	collision with: 10 5 5 0 0  and 1 1 6 0 0 
68775625		 # 	collision with: 5 6 5 0 0  and 6 6 5 0 0 
68775627		 # 	collision with: 2 3 1 0 0  and 4 3 1 0 0 
68775659		 # 	collision with: 4 5 0 0 0  and 4 6 0 0 0 
68775739		 # 	collision with: 10 1 3 0 0  and 7 2 3 0 0 
68775769		 # 	collision with: 5 6 5 0 0  and 6 6 5 0 0 
68775771		 # 	collision with: 5 1 1 0 0  and 5 3 1 0 0 
68775777		 # 	collision with: 6 0 1 0 0  and 6 2 1 0 0 
68775785		 # 	collision with: 5 6 0 0 0  and 6 6 0 0 0 
68775787		 # 	collision with: 2 3 2 0 0  and 4 3 2 0 0 
68775789		 # 	collision with: 5 6 2 0 0  and 6 6 2 0 0 
68775791		 # 	collision with: 4 5 0 0 0  and 4 6 0 0 0 
68775916		 # 	collision with: 5 0 0 0 0  and 8 2 0 1 0 
68775918		 # 	collision with: 6 2 1 0 0  and 5 6 1 1 0 
68775925		 # 	collision with: 3 1 4 0 0  and 8 3 6 0 0 
68775927		 # 	collision with: 4 5 5 0 0  and 4 6 5 0 0 
68775953		 # 	collision with: 5 6 0 0 0  and 6 6 0 0 0 
68775955		 # 	collision with: 4 4 0 0 0  and 2 6 0 0 0 
68776049		 # 	collision with: 8 4 1 0 0  and 8 6 1 0 0 
68776051		 # 	collision with: 1 4 1 0 0  and 1 6 1 0 0 
68776091		 # 	collision with: 4 5 1 0 0  and 4 6 1 0 0 
68776101		 # 	collision with: 10 0 4 0 0  and 1 2 4 0 0 
68776103		 # 	collision with: 0 3 1 0 0  and 6 5 1 0 0 
68776109		 # 	collision with: 8 4 0 0 0  and 3 6 0 0 0 
68776111		 # 	collision with: 8 3 4 0 0  and 8 2 6 0 0 
68776141		 # 	collision with: 8 4 0 0 0  and 8 6 0 0 0 
68776143		 # 	collision with: 0 3 2 0 0  and 6 5 2 0 0 
68776221		 # 	collision with: 6 0 3 0 0  and 6 2 3 0 0 
68776223		 # 	collision with: 4 5 1 0 0  and 4 6 1 0 0 
68776253		 # 	collision with: 10 3 2 0 0  and 10 4 2 0 0 
68776255		 # 	collision with: 5 1 4 0 0  and 1 3 4 0 0 
68776261		 # 	collision with: 5 6 0 0 0  and 6 6 0 0 0 
68776263		 # 	collision with: 4 4 0 0 0  and 2 6 0 0 0 
68776271		 # 	collision with: 1 4 1 0 0  and 1 6 1 0 0 
68776273		 # 	collision with: 8 4 0 0 0  and 8 6 0 0 0 
68776275		 # 	collision with: 1 4 1 0 0  and 5 5 1 0 0 
68776400		 # 	collision with: 2 6 1 0 0  and 7 3 1 1 0 
68776402		 # 	collision with: 3 8 0 0 0  and 4 3 0 1 0 
68776409		 # 	collision with: 1 1 3 0 0  and 10 2 3 0 0 
68776411		 # 	collision with: 9 8 4 0 0  and 9 1 5 0 0 
68776437		 # 	collision with: 5 4 0 0 0  and 5 5 0 0 0 
68776533		 # 	collision with: 5 6 3 0 0  and 6 6 3 0 0 
68776535		 # 	collision with: 2 3 1 0 0  and 4 3 1 0 0 
68776573		 # 	collision with: 9 4 0 0 0  and 2 5 0 0 0 
68776575		 # 	collision with: 2 3 2 0 0  and 4 3 2 0 0 
68776587		 # 	collision with: 2 3 2 0 0  and 4 3 2 0 0 
68776593		 # 	collision with: 1 3 3 0 0  and 10 5 3 0 0 
68776595		 # 	collision with: 7 0 2 0 0  and 7 1 2 0 0 
68776625		 # 	collision with: 2 3 2 0 0  and 9 4 2 0 0 
68776627		 # 	collision with: 2 3 0 0 0  and 4 3 0 0 0 
68776705		 # 	collision with: 9 4 0 0 0  and 2 5 0 0 0 
68776707		 # 	collision with: 2 3 1 0 0  and 4 3 1 0 0 
68776745		 # 	collision with: 5 4 0 0 0  and 5 5 0 0 0 
68776747		 # 	collision with: 1 4 0 0 0  and 5 5 0 0 0 
68776753		 # 	collision with: 9 8 4 0 0  and 9 6 5 0 0 
68776755		 # 	collision with: 1 4 5 0 0  and 5 5 5 0 0 
68776757		 # 	collision with: 1 3 1 0 0  and 10 5 1 0 0 
68776759		 # 	collision with: 2 3 0 0 0  and 4 3 0 0 0 
68776884		 # 	collision with: 2 10 0 0 0  and 0 7 0 1 0 
68776886		 # 	collision with: 0 3 0 0 0  and 7 7 0 1 0 
68776893		 # 	collision with: 10 0 3 0 0  and 1 2 3 0 0 
68776895		 # 	collision with: 5 10 3 0 0  and 1 4 5 0 0 
68776921		 # 	collision with: 1 3 0 0 0  and 10 5 0 0 0 
68776923		 # 	collision with: 1 7 3 0 0  and 5 1 5 0 0 
68777017		 # 	collision with: 2 3 2 0 0  and 2 5 2 0 0 
68777019		 # 	collision with: 0 3 0 0 0  and 6 5 0 0 0 
68777057		 # 	collision with: 5 6 1 0 0  and 6 6 1 0 0 
68777059		 # 	collision with: 6 3 0 0 0  and 6 5 0 0 0 
68777069		 # 	collision with: 2 3 3 0 0  and 2 5 5 0 0 
68777071		 # 	collision with: 5 5 4 0 0  and 1 6 4 0 0 
68777077		 # 	collision with: 10 3 3 0 0  and 10 4 3 0 0 
68777079		 # 	collision with: 5 5 2 0 0  and 1 6 2 0 0 
68777109		 # 	collision with: 4 2 3 0 0  and 4 3 3 0 0 
68777111		 # 	collision with: 2 3 2 0 0  and 4 3 2 0 0 
68777189		 # 	collision with: 8 4 2 0 0  and 8 6 2 0 0 
68777191		 # 	collision with: 6 3 0 0 0  and 6 5 0 0 0 
68777221		 # 	collision with: 5 6 3 0 0  and 6 6 3 0 0 
68777223		 # 	collision with: 6 0 1 0 0  and 0 1 1 0 0 
68777229		 # 	collision with: 1 3 0 0 0  and 10 5 0 0 0 
68777231		 # 	collision with: 10 1 3 0 0  and 7 2 3 0 0 
68777237		 # 	collision with: 5 6 1 0 0  and 6 6 1 0 0 
68777239		 # 	collision with: 0 3 0 0 0  and 6 5 0 0 0 
68777241		 # 	collision with: 10 2 3 0 0  and 1 3 3 0 0 
68777368		 # 	collision with: 5 10 1 0 0  and 4 3 1 1 0 
68777370		 # 	collision with: 8 1 0 0 0  and 7 4 0 1 0 
68777377		 # 	collision with: 10 3 0 0 0  and 10 4 0 0 0 
68777379		 # 	collision with: 9 10 3 0 0  and 8 0 4 0 0 
68777407		 # 	collision with: 9 4 1 0 0  and 9 5 1 0 0 
68777501		 # 	collision with: 2 3 2 0 0  and 9 4 2 0 0 
68777503		 # 	collision with: 2 3 4 0 0  and 4 3 4 0 0 
68777541		 # 	collision with: 2 3 0 0 0  and 9 4 0 0 0 
68777543		 # 	collision with: 10 2 3 0 0  and 10 2 4 0 0 
68777553		 # 	collision with: 10 3 0 0 0  and 10 4 0 0 0 
68777555		 # 	collision with: 10 1 2 0 0  and 7 2 2 0 0 
68777561		 # 	collision with: 10 5 3 0 0  and 10 5 4 0 0 
68777563		 # 	collision with: 2 3 0 0 0  and 4 3 0 0 0 
68777593		 # 	collision with: 6 2 1 0 0  and 5 4 1 0 0 
68777595		 # 	collision with: 10 4 3 0 0  and 7 1 4 0 0 
68777673		 # 	collision with: 2 3 0 0 0  and 9 4 0 0 0 
68777705		 # 	collision with: 2 3 3 0 0  and 2 5 3 0 0 
68777707		 # 	collision with: 6 6 3 0 0  and 6 6 4 0 0 
68777713		 # 	collision with: 4 1 3 0 0  and 4 1 4 0 0 
68777715		 # 	collision with: 2 3 1 0 0  and 4 3 1 0 0 
68777721		 # 	collision with: 1 9 3 0 0  and 10 1 4 0 0 
68777725		 # 	collision with: 10 2 2 0 0  and 1 3 2 0 0 
68777727		 # 	collision with: 5 1 3 0 0  and 1 3 3 0 0 
68777852		 # 	collision with: 9 8 2 0 0  and 10 3 2 1 0 
68777854		 # 	collision with: 1 8 2 0 0  and 2 5 2 1 0 
68777861		 # 	collision with: 1 1 1 0 0  and 1 3 1 0 0 
68777863		 # 	collision with: 2 0 2 0 0  and 2 3 4 0 0 
68777889		 # 	collision with: 9 1 4 0 0  and 9 2 4 0 0 
68777891		 # 	collision with: 1 0 2 0 0  and 1 10 4 0 0 
68777985		 # 	collision with: 5 6 2 0 0  and 6 6 2 0 0 
68777987		 # 	collision with: 2 3 0 0 0  and 4 3 0 0 0 
68778025		 # 	collision with: 10 3 1 0 0  and 10 4 1 0 0 
68778027		 # 	collision with: 2 3 1 0 0  and 4 3 1 0 0 
68778037		 # 	collision with: 1 1 1 0 0  and 1 3 1 0 0 
68778039		 # 	collision with: 5 5 3 0 0  and 1 6 3 0 0 
68778045		 # 	collision with: 5 6 1 0 0  and 6 6 1 0 0 
68778047		 # 	collision with: 8 3 2 0 0  and 9 6 4 0 0 
68778077		 # 	collision with: 5 6 0 0 0  and 6 6 0 0 0 
68778079		 # 	collision with: 5 1 2 0 0  and 5 3 2 0 0 
68778157		 # 	collision with: 10 3 1 0 0  and 10 4 1 0 0 
68778159		 # 	collision with: 10 9 2 0 0  and 10 9 4 0 0 
68778189		 # 	collision with: 2 3 3 0 0  and 9 4 3 0 0 
68778191		 # 	collision with: 10 0 2 0 0  and 10 2 4 0 0 
68778197		 # 	collision with: 5 6 1 0 0  and 6 6 1 0 0 
68778199		 # 	collision with: 2 3 4 0 0  and 4 3 4 0 0 
68778205		 # 	collision with: 7 2 3 0 0  and 7 4 3 0 0 
68778207		 # 	collision with: 2 3 0 0 0  and 4 3 0 0 0 
68778209		 # 	collision with: 5 6 0 0 0  and 6 6 0 0 0 
68778211		 # 	collision with: 2 3 1 0 0  and 4 3 1 0 0 
68778336		 # 	collision with: 3 2 0 0 0  and 10 6 0 1 0 
68778338		 # 	collision with: 2 10 2 0 0  and 5 2 2 1 0 
68778345		 # 	collision with: 3 0 2 0 0  and 3 1 2 0 0 
68778347		 # 	collision with: 7 9 2 0 0  and 7 3 3 0 0 
68778373		 # 	collision with: 1 1 2 0 0  and 1 3 3 0 0 
68778375		 # 	collision with: 8 2 0 0 0  and 8 3 0 0 0 
68778469		 # 	collision with: 9 3 2 0 0  and 9 0 3 0 0 
68778471		 # 	collision with: 0 1 2 0 0  and 6 8 3 0 0 
68778509		 # 	collision with: 5 6 0 0 0  and 6 6 0 0 0 
68778511		 # 	collision with: 4 7 2 0 0  and 4 4 3 0 0 
68778521		 # 	collision with: 5 6 1 0 0  and 6 6 1 0 0 
68778523		 # 	collision with: 2 3 1 0 0  and 4 3 1 0 0 
68778529		 # 	collision with: 5 7 2 0 0  and 5 7 3 0 0 
68778531		 # 	collision with: 6 0 1 0 0  and 0 1 1 0 0 
68778561		 # 	collision with: 10 2 0 0 0  and 1 3 0 0 0 
68778563		 # 	collision with: 1 6 2 0 0  and 1 6 3 0 0 
68778641		 # 	collision with: 5 6 0 0 0  and 6 6 0 0 0 
68778643		 # 	collision with: 6 5 2 0 0  and 0 3 3 0 0 
68778673		 # 	collision with: 4 2 0 0 0  and 4 3 0 0 0 
68778675		 # 	collision with: 2 3 0 0 0  and 4 3 0 0 0 
68778681		 # 	collision with: 2 10 2 0 0  and 9 7 3 0 0 
68778683		 # 	collision with: 8 2 0 0 0  and 8 3 0 0 0 
68778689		 # 	collision with: 5 6 2 0 0  and 6 6 2 0 0 
68778691		 # 	collision with: 8 2 1 0 0  and 9 3 1 0 0 
68778693		 # 	collision with: 10 2 0 0 0  and 1 3 0 0 0 
68778695		 # 	collision with: 2 6 2 0 0  and 2 6 3 0 0 
68778820		 # 	collision with: 5 2 1 0 0  and 1 9 1 1 0 
68778822		 # 	collision with: 9 1 0 0 0  and 4 9 0 1 0 
68778831		 # 	collision with: 5 1 0 0 0  and 5 3 0 0 0 
68778857		 # 	collision with: 6 2 1 0 0  and 5 4 1 0 0 
68778859		 # 	collision with: 2 1 5 0 0  and 2 2 5 0 0 
68778953		 # 	collision with: 3 1 2 0 0  and 8 3 2 0 0 
68778993		 # 	collision with: 1 1 0 0 0  and 1 3 0 0 0 
68778995		 # 	collision with: 7 1 1 0 0  and 7 1 3 0 0 
68779005		 # 	collision with: 4 6 1 0 0  and 7 0 3 0 0 
68779007		 # 	collision with: 5 1 0 0 0  and 5 3 0 0 0 
68779013		 # 	collision with: 3 1 0 0 0  and 8 3 0 0 0 
68779015		 # 	collision with: 2 3 2 0 0  and 4 3 2 0 0 
68779045		 # 	collision with: 1 1 1 0 0  and 10 2 1 0 0 
68779125		 # 	collision with: 1 1 0 0 0  and 1 3 0 0 0 
68779127		 # 	collision with: 2 3 2 0 0  and 4 3 2 0 0 
68779157		 # 	collision with: 4 3 1 0 0  and 4 3 3 0 0 
68779159		 # 	collision with: 3 5 1 0 0  and 3 2 3 0 0 
68779165		 # 	collision with: 8 3 1 0 0  and 3 0 3 0 0 
68779167		 # 	collision with: 2 3 1 0 0  and 2 0 3 0 0 
68779173		 # 	collision with: 3 8 1 0 0  and 8 1 3 0 0 
68779175		 # 	collision with: 5 1 1 0 0  and 1 3 1 0 0 
68779177		 # 	collision with: 10 0 2 0 0  and 1 2 2 0 0 
68779179		 # 	collision with: 6 0 3 0 0  and 0 1 3 0 0 
68779304		 # 	collision with: 7 9 1 0 0  and 8 0 1 1 0 
68779306		 # 	collision with: 10 0 0 0 0  and 0 7 0 1 0 
68779313		 # 	collision with: 4 6 1 0 0  and 7 0 2 0 0 
68779315		 # 	collision with: 7 0 1 0 0  and 7 1 1 0 0 
68779341		 # 	collision with: 2 2 1 0 0  and 9 8 2 0 0 
68779343		 # 	collision with: 2 3 1 0 0  and 4 8 2 0 0 
68779437		 # 	collision with: 5 6 1 0 0  and 6 6 1 0 0 
68779439		 # 	collision with: 2 7 1 0 0  and 4 2 2 0 0 
68779477		 # 	collision with: 9 3 1 0 0  and 9 0 2 0 0 
68779489		 # 	collision with: 4 7 1 0 0  and 4 7 2 0 0 
68779491		 # 	collision with: 7 0 1 0 0  and 7 1 1 0 0 
68779497		 # 	collision with: 9 1 0 0 0  and 9 2 0 0 0 
68779499		 # 	collision with: 8 5 1 0 0  and 8 0 2 0 0 
68779529		 # 	collision with: 1 1 0 0 0  and 10 2 0 0 0 
68779531		 # 	collision with: 1 0 1 0 0  and 5 2 1 0 0 
68779609		 # 	collision with: 10 0 1 0 0  and 10 7 2 0 0 
68779611		 # 	collision with: 2 3 0 0 0  and 4 3 0 0 0 
68779641		 # 	collision with: 8 2 1 0 0  and 8 2 2 0 0 
68779643		 # 	collision with: 2 1 0 0 0  and 2 2 0 0 0 
68779649		 # 	collision with: 10 2 1 0 0  and 1 3 1 0 0 
68779651		 # 	collision with: 9 8 1 0 0  and 9 1 2 0 0 
68779657		 # 	collision with: 2 7 1 0 0  and 2 1 2 0 0 
68779659		 # 	collision with: 2 3 1 0 0  and 4 3 1 0 0 
68779661		 # 	collision with: 1 1 0 0 0  and 10 2 0 0 0 
68779663		 # 	collision with: 10 0 1 0 0  and 10 2 1 0 0 
68779788		 # 	collision with: 9 10 0 0 0  and 6 9 0 1 0 
68779790		 # 	collision with: 2 3 0 0 0  and 3 8 0 1 0 
68779797		 # 	collision with: 9 1 5 0 0  and 9 2 5 0 0 
68779825		 # 	collision with: 10 0 0 0 0  and 1 2 0 0 0 
68779827		 # 	collision with: 9 9 0 0 0  and 9 0 2 0 0 
68779921		 # 	collision with: 5 4 0 0 0  and 6 0 2 0 0 
68779923		 # 	collision with: 10 9 0 0 0  and 7 0 2 0 0 
68779961		 # 	collision with: 3 1 2 0 0  and 8 3 2 0 0 
68779963		 # 	collision with: 5 4 0 0 0  and 5 4 2 0 0 
68779973		 # 	collision with: 7 1 0 0 0  and 7 5 2 0 0 
68779975		 # 	collision with: 2 6 0 0 0  and 4 7 0 0 0 
68780013		 # 	collision with: 3 0 1 0 0  and 3 1 1 0 0 
68780015		 # 	collision with: 6 2 0 0 0  and 6 6 2 0 0 
68780093		 # 	collision with: 1 1 1 0 0  and 10 2 1 0 0 
68780095		 # 	collision with: 10 9 0 0 0  and 7 0 2 0 0 
68780125		 # 	collision with: 7 2 1 0 0  and 7 4 1 0 0 
68780127		 # 	collision with: 4 1 0 0 0  and 4 1 2 0 0 
68780135		 # 	collision with: 5 1 1 0 0  and 1 3 1 0 0 
68780141		 # 	collision with: 10 1 0 0 0  and 1 6 2 0 0 
68780143		 # 	collision with: 5 2 0 0 0  and 1 10 2 0 0 
68780145		 # 	collision with: 3 0 1 0 0  and 3 1 1 0 0 
68780147		 # 	collision with: 9 9 0 0 0  and 9 0 2 0 0 
68780272		 # 	collision with: 2 8 0 0 0  and 8 6 0 1 0 
68780274		 # 	collision with: 0 4 0 0 0  and 9 3 0 1 0 
68780281		 # 	collision with: 5 6 0 0 0  and 6 6 0 0 0 
68780283		 # 	collision with: 2 3 0 0 0  and 4 3 0 0 0 
68780309		 # 	collision with: 10 5 0 0 0  and 1 1 1 0 0 
68780311		 # 	collision with: 9 7 0 0 0  and 9 2 1 0 0 
68780407		 # 	collision with: 7 0 0 0 0  and 7 1 0 0 0 
68780445		 # 	collision with: 8 0 0 0 0  and 8 0 1 0 0 
68780447		 # 	collision with: 4 0 0 0 0  and 4 0 1 0 0 
68780457		 # 	collision with: 5 6 0 0 0  and 6 6 0 0 0 
68780459		 # 	collision with: 2 3 0 0 0  and 4 3 0 0 0 
68780465		 # 	collision with: 6 0 0 0 0  and 6 0 1 0 0 
68780467		 # 	collision with: 3 0 0 0 0  and 3 0 1 0 0 
68780497		 # 	collision with: 7 0 0 0 0  and 7 0 1 0 0 
68780499		 # 	collision with: 9 0 0 0 0  and 9 0 1 0 0 
68780577		 # 	collision with: 4 0 0 0 0  and 4 0 1 0 0 
68780579		 # 	collision with: 2 0 0 0 0  and 2 0 1 0 0 
68780609		 # 	collision with: 5 0 0 0 0  and 5 0 1 0 0 
68780611		 # 	collision with: 8 0 0 0 0  and 8 0 1 0 0 
68780617		 # 	collision with: 5 0 0 0 0  and 5 0 1 0 0 
68780619		 # 	collision with: 8 0 0 0 0  and 8 0 1 0 0 
68780625		 # 	collision with: 3 0 0 0 0  and 3 1 0 0 0 
68780627		 # 	collision with: 7 0 0 0 0  and 7 1 0 0 0 
68780631		 # 	collision with: 0 1 0 0 0  and 6 0 1 0 0 
68780805		 # 	collision with: 2 3 4 0 0  and 9 4 4 0 0 
68780807		 # 	collision with: 2 5 0 0 0  and 4 5 0 0 0 
68780825		 # 	collision with: 8 4 2 0 0  and 8 6 2 0 0 
68780827		 # 	collision with: 8 2 1 0 0  and 8 3 1 0 0 
68780832		 # 	collision with: 8 4 0 0 0  and 8 6 0 0 0 
68780834		 # 	collision with: 0 1 0 0 0  and 6 3 0 0 0 
68780840		 # 	collision with: 6 0 0 0 0  and 6 2 0 0 0 
68780842		 # 	collision with: 5 1 0 0 0  and 5 3 0 0 0 
68780864		 # 	collision with: 10 0 0 0 0  and 1 2 0 0 0 
68780866		 # 	collision with: 4 2 0 0 0  and 2 3 0 0 0 
68780869		 # 	collision with: 8 4 2 0 0  and 8 6 2 0 0 
68780877		 # 	collision with: 3 1 5 0 0  and 8 3 5 0 0 
68780879		 # 	collision with: 6 1 1 0 0  and 0 2 1 0 0 
68780880		 # 	collision with: 10 2 0 0 0  and 1 3 0 0 0 
68780882		 # 	collision with: 7 2 0 0 0  and 10 4 0 0 0 
68780896		 # 	collision with: 9 4 0 0 0  and 2 5 0 0 0 
68780898		 # 	collision with: 10 5 0 0 0  and 7 7 0 0 0 
68780920		 # 	collision with: 8 4 0 0 0  and 8 6 0 0 0 
68780922		 # 	collision with: 0 1 0 0 0  and 6 3 0 0 0 
68780960		 # 	collision with: 3 0 0 0 0  and 3 1 0 0 0 
68780962		 # 	collision with: 8 2 0 0 0  and 8 3 0 0 0 
68780972		 # 	collision with: 6 0 0 0 0  and 6 2 0 0 0 
68780974		 # 	collision with: 5 1 0 0 0  and 5 3 0 0 0 
68780983		 # 	collision with: 2 5 0 0 0  and 4 5 0 0 0 
68781000		 # 	collision with: 1 1 0 0 0  and 1 3 0 0 0 
68781002		 # 	collision with: 10 0 0 0 0  and 10 2 0 0 0 
68781004		 # 	collision with: 3 0 0 0 0  and 3 1 0 0 0 
68781006		 # 	collision with: 8 2 0 0 0  and 8 3 0 0 0 
68781036		 # 	collision with: 2 3 0 0 0  and 2 5 0 0 0 
68781038		 # 	collision with: 2 0 0 0 0  and 4 2 0 0 0 
68781040		 # 	collision with: 10 0 0 0 0  and 1 2 0 0 0 
68781042		 # 	collision with: 4 2 0 0 0  and 2 3 0 0 0 
68781063		 # 	collision with: 2 1 3 0 0  and 2 2 3 0 0 
68781068		 # 	collision with: 7 2 0 0 0  and 7 4 0 0 0 
68781070		 # 	collision with: 4 5 0 0 0  and 4 6 0 0 0 
68781080		 # 	collision with: 2 3 0 0 0  and 2 5 0 0 0 
68781082		 # 	collision with: 2 0 0 0 0  and 4 2 0 0 0 
68781120		 # 	collision with: 4 2 0 0 0  and 4 3 0 0 0 
68781122		 # 	collision with: 7 0 0 0 0  and 7 1 0 0 0 
68781144		 # 	collision with: 10 2 0 0 0  and 1 3 0 0 0 
68781146		 # 	collision with: 7 2 0 0 0  and 10 4 0 0 0 
68781160		 # 	collision with: 9 4 0 0 0  and 2 5 0 0 0 
68781162		 # 	collision with: 10 5 0 0 0  and 7 7 0 0 0 
68781165		 # 	collision with: 10 2 2 0 0  and 1 3 2 0 0 
68781167		 # 	collision with: 2 5 5 0 0  and 4 5 5 0 0 
68781173		 # 	collision with: 6 2 1 0 0  and 5 4 1 0 0 
68781176		 # 	collision with: 1 1 0 0 0  and 1 3 0 0 0 
68781178		 # 	collision with: 10 0 0 0 0  and 10 2 0 0 0 
68781200		 # 	collision with: 7 2 0 0 0  and 7 4 0 0 0 
68781202		 # 	collision with: 4 5 0 0 0  and 4 6 0 0 0 
68781208		 # 	collision with: 4 2 0 0 0  and 4 3 0 0 0 
68781210		 # 	collision with: 7 0 0 0 0  and 7 1 0 0 0 
68781217		 # 	collision with: 9 3 5 0 0  and 9 0 6 0 0 
68781219		 # 	collision with: 10 0 4 0 0  and 10 2 4 0 0 
68781237		 # 	collision with: 1 1 3 0 0  and 10 2 3 0 0 
68781239		 # 	collision with: 2 5 1 0 0  and 4 5 1 0 0 
68781240		 # 	collision with: 5 8 1 0 0  and 3 0 0 1 0 
68781242		 # 	collision with: 8 6 1 0 0  and 0 8 0 1 0 
68781289		 # 	collision with: 5 6 4 0 0  and 6 6 4 0 0 
68781309		 # 	collision with: 8 7 4 0 0  and 3 0 6 0 0 
68781311		 # 	collision with: 5 1 4 0 0  and 1 0 6 0 0 
68781318		 # 	collision with: 2 5 3 0 0  and 4 5 3 0 0 
68781324		 # 	collision with: 5 4 1 0 0  and 5 5 1 0 0 
68781326		 # 	collision with: 4 5 1 0 0  and 4 6 1 0 0 
68781348		 # 	collision with: 5 6 1 0 0  and 6 6 1 0 0 
68781350		 # 	collision with: 6 1 2 0 0  and 0 2 2 0 0 
68781355		 # 	collision with: 9 7 4 0 0  and 9 7 6 0 0 
68781361		 # 	collision with: 8 4 0 0 0  and 8 6 0 0 0 
68781363		 # 	collision with: 2 0 1 0 0  and 4 2 1 0 0 
68781364		 # 	collision with: 5 6 0 0 0  and 6 6 0 0 0 
68781366		 # 	collision with: 2 1 6 0 0  and 2 2 6 0 0 
68781380		 # 	collision with: 5 6 3 0 0  and 6 6 3 0 0 
68781382		 # 	collision with: 2 5 0 0 0  and 4 5 0 0 0 
68781404		 # 	collision with: 5 6 2 0 0  and 6 6 2 0 0 
68781406		 # 	collision with: 2 5 1 0 0  and 4 5 1 0 0 
68781444		 # 	collision with: 6 2 3 0 0  and 5 4 3 0 0 
68781446		 # 	collision with: 2 5 2 0 0  and 4 5 2 0 0 
68781456		 # 	collision with: 6 2 1 0 0  and 5 4 1 0 0 
68781465		 # 	collision with: 5 6 3 0 0  and 6 6 3 0 0 
68781467		 # 	collision with: 2 5 2 0 0  and 4 5 2 0 0 
68781484		 # 	collision with: 5 6 8 0 0  and 6 6 8 0 0 
68781486		 # 	collision with: 2 5 7 0 0  and 4 5 7 0 0 
68781488		 # 	collision with: 7 2 3 0 0  and 7 4 3 0 0 
68781490		 # 	collision with: 7 2 3 0 0  and 10 4 3 0 0 
68781520		 # 	collision with: 5 6 5 0 0  and 6 6 5 0 0 
68781522		 # 	collision with: 2 5 2 0 0  and 4 5 2 0 0 
68781524		 # 	collision with: 10 2 2 0 0  and 1 3 2 0 0 
68781545		 # 	collision with: 1 1 5 0 0  and 1 3 5 0 0 
68781547		 # 	collision with: 4 5 1 0 0  and 4 6 1 0 0 
68781552		 # 	collision with: 2 3 10 0 0  and 9 4 10 0 0 
68781554		 # 	collision with: 2 5 7 0 0  and 4 5 7 0 0 
68781564		 # 	collision with: 3 0 8 0 0  and 3 1 8 0 0 
68781566		 # 	collision with: 2 0 8 0 0  and 4 2 8 0 0 
68781604		 # 	collision with: 3 0 7 0 0  and 3 1 7 0 0 
68781606		 # 	collision with: 6 3 7 0 0  and 6 5 7 0 0 
68781628		 # 	collision with: 5 6 0 0 0  and 6 6 0 0 0 
68781630		 # 	collision with: 2 1 6 0 0  and 2 2 6 0 0 
68781644		 # 	collision with: 5 6 1 0 0  and 6 6 1 0 0 
68781646		 # 	collision with: 2 5 0 0 0  and 4 5 0 0 0 
68781657		 # 	collision with: 10 3 5 0 0  and 10 4 5 0 0 
68781659		 # 	collision with: 2 5 2 0 0  and 4 6 2 0 0 
68781660		 # 	collision with: 5 6 2 0 0  and 6 6 2 0 0 
68781662		 # 	collision with: 3 3 9 0 0  and 3 4 9 0 0 
68781686		 # 	collision with: 2 5 6 0 0  and 4 5 6 0 0 
68781692		 # 	collision with: 3 0 7 0 0  and 3 1 7 0 0 
68781694		 # 	collision with: 2 5 5 0 0  and 4 5 5 0 0 
68781701		 # 	collision with: 10 3 5 0 0  and 10 4 5 0 0 
68781703		 # 	collision with: 7 2 3 0 0  and 10 4 3 0 0 
68781721		 # 	collision with: 1 1 5 0 0  and 1 3 5 0 0 
68781723		 # 	collision with: 4 5 1 0 0  and 4 6 1 0 0 
68781724		 # 	collision with: 2 1 6 0 0  and 7 3 0 1 0 
68781726		 # 	collision with: 9 7 6 0 0  and 5 3 0 1 0 
68781773		 # 	collision with: 5 6 3 0 0  and 6 6 3 0 0 
68781775		 # 	collision with: 5 3 4 0 0  and 5 1 5 0 0 
68781793		 # 	collision with: 6 0 3 0 0  and 6 2 3 0 0 
68781795		 # 	collision with: 6 3 2 0 0  and 6 5 2 0 0 
68781800		 # 	collision with: 5 6 5 0 0  and 6 6 5 0 0 
68781802		 # 	collision with: 2 5 2 0 0  and 4 5 2 0 0 
68781808		 # 	collision with: 1 1 2 0 0  and 10 2 2 0 0 
68781834		 # 	collision with: 2 5 3 0 0  and 4 5 3 0 0 
68781837		 # 	collision with: 1 3 2 0 0  and 10 5 2 0 0 
68781839		 # 	collision with: 6 1 1 0 0  and 0 2 1 0 0 
68781845		 # 	collision with: 3 0 1 0 0  and 3 1 1 0 0 
68781847		 # 	collision with: 1 0 4 0 0  and 5 3 5 0 0 
68781848		 # 	collision with: 1 1 1 0 0  and 1 3 1 0 0 
68781850		 # 	collision with: 3 3 1 0 0  and 3 4 1 0 0 
68781864		 # 	collision with: 5 6 10 0 0  and 6 6 10 0 0 
68781866		 # 	collision with: 2 5 7 0 0  and 4 5 7 0 0 
68781888		 # 	collision with: 1 1 8 0 0  and 1 3 8 0 0 
68781890		 # 	collision with: 1 0 8 0 0  and 5 1 8 0 0 
68781928		 # 	collision with: 5 6 0 0 0  and 6 6 0 0 0 
68781930		 # 	collision with: 5 1 6 0 0  and 5 3 6 0 0 
68781940		 # 	collision with: 5 6 1 0 0  and 6 6 1 0 0 
68781942		 # 	collision with: 3 3 2 0 0  and 3 4 2 0 0 
68781949		 # 	collision with: 1 3 1 0 0  and 10 5 1 0 0 
68781951		 # 	collision with: 2 5 4 0 0  and 4 5 4 0 0 
68781968		 # 	collision with: 9 1 7 0 0  and 9 2 7 0 0 
68781970		 # 	collision with: 7 0 7 0 0  and 7 1 7 0 0 
68781972		 # 	collision with: 5 6 0 0 0  and 6 6 0 0 0 
68781974		 # 	collision with: 5 1 6 0 0  and 5 3 6 0 0 
68782004		 # 	collision with: 5 6 3 0 0  and 6 6 3 0 0 
68782006		 # 	collision with: 2 5 0 0 0  and 4 5 0 0 0 
68782008		 # 	collision with: 5 6 2 0 0  and 6 6 2 0 0 
68782010		 # 	collision with: 2 5 1 0 0  and 4 5 1 0 0 
68782029		 # 	collision with: 3 0 3 0 0  and 3 1 3 0 0 
68782031		 # 	collision with: 2 0 4 0 0  and 4 2 4 0 0 
68782036		 # 	collision with: 5 6 2 0 0  and 6 6 2 0 0 
68782038		 # 	collision with: 10 0 9 0 0  and 10 2 9 0 0 
68782048		 # 	collision with: 5 6 1 0 0  and 6 6 1 0 0 
68782050		 # 	collision with: 2 5 0 0 0  and 4 5 0 0 0 
68782088		 # 	collision with: 2 3 3 0 0  and 2 5 3 0 0 
68782090		 # 	collision with: 2 5 2 0 0  and 4 5 2 0 0 
68782112		 # 	collision with: 10 0 1 0 0  and 1 2 1 0 0 
68782130		 # 	collision with: 2 5 6 0 0  and 4 5 6 0 0 
68782133		 # 	collision with: 7 2 1 0 0  and 7 4 1 0 0 
68782135		 # 	collision with: 2 1 2 0 0  and 2 2 2 0 0 
68782141		 # 	collision with: 5 4 0 0 0  and 5 5 0 0 0 
68782143		 # 	collision with: 2 5 0 0 0  and 4 5 0 0 0 
68782144		 # 	collision with: 9 1 7 0 0  and 9 2 7 0 0 
68782146		 # 	collision with: 2 5 5 0 0  and 4 5 5 0 0 
68782168		 # 	collision with: 5 6 8 0 0  and 6 6 8 0 0 
68782170		 # 	collision with: 2 5 7 0 0  and 4 5 7 0 0 
68782176		 # 	collision with: 2 3 3 0 0  and 2 5 3 0 0 
68782178		 # 	collision with: 5 1 3 0 0  and 5 3 3 0 0 
68782185		 # 	collision with: 5 4 0 0 0  and 5 5 0 0 0 
68782187		 # 	collision with: 2 5 0 0 0  and 4 5 0 0 0 
68782205		 # 	collision with: 3 0 3 0 0  and 3 1 3 0 0 
68782207		 # 	collision with: 2 5 3 0 0  and 4 5 3 0 0 
68782208		 # 	collision with: 2 3 5 0 0  and 0 10 1 1 0 
68782210		 # 	collision with: 10 3 5 0 0  and 4 6 1 1 0 
68782257		 # 	collision with: 5 6 2 0 0  and 6 6 2 0 0 
68782259		 # 	collision with: 6 3 0 0 0  and 0 5 0 0 0 
68782279		 # 	collision with: 8 0 3 0 0  and 9 4 5 0 0 
68782284		 # 	collision with: 3 0 1 0 0  and 3 1 1 0 0 
68782292		 # 	collision with: 3 0 3 0 0  and 3 1 3 0 0 
68782294		 # 	collision with: 2 5 2 0 0  and 4 5 2 0 0 
68782316		 # 	collision with: 5 6 0 0 0  and 6 6 0 0 0 
68782318		 # 	collision with: 0 1 6 0 0  and 6 3 6 0 0 
68782321		 # 	collision with: 1 0 3 0 0  and 1 4 5 0 0 
68782323		 # 	collision with: 6 5 3 0 0  and 0 5 5 0 0 
68782329		 # 	collision with: 9 1 2 0 0  and 9 2 2 0 0 
68782331		 # 	collision with: 6 1 2 0 0  and 0 2 2 0 0 
68782332		 # 	collision with: 10 0 7 0 0  and 1 2 7 0 0 
68782334		 # 	collision with: 4 5 7 0 0  and 4 6 7 0 0 
68782350		 # 	collision with: 2 5 3 0 0  and 4 5 3 0 0 
68782372		 # 	collision with: 3 0 1 0 0  and 3 1 1 0 0 
68782374		 # 	collision with: 9 4 1 0 0  and 9 5 1 0 0 
68782412		 # 	collision with: 5 6 8 0 0  and 6 6 8 0 0 
68782414		 # 	collision with: 2 5 7 0 0  and 4 5 7 0 0 
68782424		 # 	collision with: 3 0 3 0 0  and 3 1 3 0 0 
68782426		 # 	collision with: 2 1 3 0 0  and 2 2 3 0 0 
68782433		 # 	collision with: 6 10 3 0 0  and 6 3 5 0 0 
68782435		 # 	collision with: 6 3 0 0 0  and 0 5 0 0 0 
68782452		 # 	collision with: 5 6 1 0 0  and 6 6 1 0 0 
68782454		 # 	collision with: 2 5 0 0 0  and 4 5 0 0 0 
68782456		 # 	collision with: 5 6 2 0 0  and 6 6 2 0 0 
68782458		 # 	collision with: 2 0 9 0 0  and 4 2 9 0 0 
68782488		 # 	collision with: 5 6 1 0 0  and 6 6 1 0 0 
68782490		 # 	collision with: 1 4 2 0 0  and 1 6 2 0 0 
68782492		 # 	collision with: 5 6 0 0 0  and 6 6 0 0 0 
68782494		 # 	collision with: 1 4 6 0 0  and 1 6 6 0 0 
68782513		 # 	collision with: 5 4 1 0 0  and 5 5 1 0 0 
68782515		 # 	collision with: 2 5 3 0 0  and 4 5 3 0 0 
68782520		 # 	collision with: 5 6 5 0 0  and 6 6 5 0 0 
68782522		 # 	collision with: 2 5 2 0 0  and 4 5 2 0 0 
68782532		 # 	collision with: 6 2 2 0 0  and 5 4 2 0 0 
68782574		 # 	collision with: 2 5 6 0 0  and 4 5 6 0 0 
68782596		 # 	collision with: 2 3 7 0 0  and 9 4 7 0 0 
68782598		 # 	collision with: 2 5 5 0 0  and 4 5 5 0 0 
68782612		 # 	collision with: 5 6 2 0 0  and 6 6 2 0 0 
68782614		 # 	collision with: 2 5 1 0 0  and 4 5 1 0 0 
68782617		 # 	collision with: 1 2 3 0 0  and 10 0 5 0 0 
68782619		 # 	collision with: 2 5 1 0 0  and 4 5 1 0 0 
68782625		 # 	collision with: 5 6 0 0 0  and 6 6 0 0 0 
68782627		 # 	collision with: 6 3 0 0 0  and 6 5 0 0 0 
68782628		 # 	collision with: 5 6 3 0 0  and 6 6 3 0 0 
68782630		 # 	collision with: 2 5 0 0 0  and 4 5 0 0 0 
68782652		 # 	collision with: 10 0 8 0 0  and 1 2 8 0 0 
68782654		 # 	collision with: 6 1 8 0 0  and 0 2 8 0 0 
68782660		 # 	collision with: 1 1 10 0 0  and 1 3 10 0 0 
68782662		 # 	collision with: 2 5 7 0 0  and 4 5 7 0 0 
68782669		 # 	collision with: 5 6 0 0 0  and 6 6 0 0 0 
68782671		 # 	collision with: 6 3 0 0 0  and 6 5 0 0 0 
68782691		 # 	collision with: 2 5 4 0 0  and 4 5 4 0 0 
68782692		 # 	collision with: 1 5 3 0 0  and 6 0 0 1 0 
68782694		 # 	collision with: 9 2 4 0 0  and 7 5 1 1 0 
68782741		 # 	collision with: 5 6 1 0 0  and 6 6 1 0 0 
68782743		 # 	collision with: 4 2 2 0 0  and 2 3 2 0 0 
68782761		 # 	collision with: 7 8 3 0 0  and 4 0 4 0 0 
68782768		 # 	collision with: 5 6 3 0 0  and 6 6 3 0 0 
68782770		 # 	collision with: 2 5 0 0 0  and 4 5 0 0 0 
68782776		 # 	collision with: 5 6 2 0 0  and 6 6 2 0 0 
68782778		 # 	collision with: 2 5 1 0 0  and 4 5 1 0 0 
68782800		 # 	collision with: 5 6 5 0 0  and 6 6 5 0 0 
68782802		 # 	collision with: 2 5 2 0 0  and 4 5 2 0 0 
68782805		 # 	collision with: 5 6 2 0 0  and 6 6 2 0 0 
68782807		 # 	collision with: 2 5 2 0 0  and 4 5 2 0 0 
68782813		 # 	collision with: 4 2 3 0 0  and 4 3 3 0 0 
68782815		 # 	collision with: 3 3 0 0 0  and 3 4 0 0 0 
68782816		 # 	collision with: 3 0 2 0 0  and 3 1 2 0 0 
68782832		 # 	collision with: 5 6 2 0 0  and 6 6 2 0 0 
68782834		 # 	collision with: 7 2 9 0 0  and 10 4 9 0 0 
68782856		 # 	collision with: 5 6 1 0 0  and 6 6 1 0 0 
68782858		 # 	collision with: 2 5 0 0 0  and 4 5 0 0 0 
68782896		 # 	collision with: 8 4 1 0 0  and 8 6 1 0 0 
68782898		 # 	collision with: 2 1 1 0 0  and 2 2 1 0 0 
68782910		 # 	collision with: 2 5 3 0 0  and 4 5 3 0 0 
68782917		 # 	collision with: 4 2 3 0 0  and 4 2 4 0 0 
68782919		 # 	collision with: 6 1 4 0 0  and 0 2 4 0 0 
68782936		 # 	collision with: 10 0 3 0 0  and 1 2 3 0 0 
68782938		 # 	collision with: 2 5 2 0 0  and 4 5 2 0 0 
68782940		 # 	collision with: 8 4 1 0 0  and 8 6 1 0 0 
68782972		 # 	collision with: 10 0 10 0 0  and 1 2 10 0 0 
68782974		 # 	collision with: 2 5 7 0 0  and 4 5 7 0 0 
68782976		 # 	collision with: 1 1 8 0 0  and 10 2 8 0 0 
68782978		 # 	collision with: 3 3 8 0 0  and 3 4 8 0 0 
68782997		 # 	collision with: 8 4 3 0 0  and 3 6 3 0 0 
68783004		 # 	collision with: 8 4 7 0 0  and 8 6 7 0 0 
68783006		 # 	collision with: 2 5 5 0 0  and 4 5 5 0 0 
68783018		 # 	collision with: 2 5 6 0 0  and 4 5 6 0 0 
68783056		 # 	collision with: 5 6 0 0 0  and 6 6 0 0 0 
68783058		 # 	collision with: 3 3 6 0 0  and 3 4 6 0 0 
68783080		 # 	collision with: 5 6 1 0 0  and 6 6 1 0 0 
68783082		 # 	collision with: 5 1 2 0 0  and 5 3 2 0 0 
68783096		 # 	collision with: 5 6 8 0 0  and 6 6 8 0 0 
68783098		 # 	collision with: 2 5 7 0 0  and 4 5 7 0 0 
68783101		 # 	collision with: 5 6 0 0 0  and 6 6 0 0 0 
68783103		 # 	collision with: 9 8 3 0 0  and 9 8 4 0 0 
68783109		 # 	collision with: 2 3 0 0 0  and 9 4 0 0 0 
68783111		 # 	collision with: 2 5 1 0 0  and 4 5 1 0 0 
68783112		 # 	collision with: 6 0 3 0 0  and 6 2 3 0 0 
68783114		 # 	collision with: 6 1 3 0 0  and 0 2 3 0 0 
68783136		 # 	collision with: 8 4 7 0 0  and 8 6 7 0 0 
68783138		 # 	collision with: 5 1 7 0 0  and 5 3 7 0 0 
68783144		 # 	collision with: 5 6 0 0 0  and 6 6 0 0 0 
68783146		 # 	collision with: 3 3 6 0 0  and 3 4 6 0 0 
68783153		 # 	collision with: 2 3 0 0 0  and 9 4 0 0 0 
68783155		 # 	collision with: 2 5 2 0 0  and 4 5 2 0 0 
68783173		 # 	collision with: 5 3 3 0 0  and 5 6 4 0 0 
68783175		 # 	collision with: 4 9 3 0 0  and 4 9 4 0 0 
68783176		 # 	collision with: 5 3 10 0 0  and 0 10 1 1 0 
68783178		 # 	collision with: 5 1 0 0 0  and 2 0 2 1 0 
68783225		 # 	collision with: 6 2 0 0 0  and 5 4 0 0 0 
68783227		 # 	collision with: 6 1 3 0 0  and 0 2 3 0 0 
68783245		 # 	collision with: 5 6 3 0 0  and 6 6 3 0 0 
68783247		 # 	collision with: 2 5 3 0 0  and 4 5 3 0 0 
68783252		 # 	collision with: 5 6 2 0 0  and 6 6 2 0 0 
68783254		 # 	collision with: 2 1 9 0 0  and 2 2 9 0 0 
68783260		 # 	collision with: 5 6 1 0 0  and 6 6 1 0 0 
68783262		 # 	collision with: 2 5 0 0 0  and 4 5 0 0 0 
68783284		 # 	collision with: 10 2 10 0 0  and 1 3 10 0 0 
68783286		 # 	collision with: 2 5 7 0 0  and 4 5 7 0 0 
68783289		 # 	collision with: 8 3 2 0 0  and 3 1 4 0 0 
68783291		 # 	collision with: 5 3 2 0 0  and 5 1 4 0 0 
68783297		 # 	collision with: 5 6 1 0 0  and 6 6 1 0 0 
68783299		 # 	collision with: 9 4 1 0 0  and 9 5 1 0 0 
68783300		 # 	collision with: 4 2 8 0 0  and 4 3 8 0 0 
68783302		 # 	collision with: 6 3 8 0 0  and 0 5 8 0 0 
68783316		 # 	collision with: 5 6 9 0 0  and 6 6 9 0 0 
68783318		 # 	collision with: 6 3 3 0 0  and 0 5 3 0 0 
68783340		 # 	collision with: 5 6 8 0 0  and 6 6 8 0 0 
68783342		 # 	collision with: 2 5 7 0 0  and 4 5 7 0 0 
68783380		 # 	collision with: 5 6 2 0 0  and 6 6 2 0 0 
68783382		 # 	collision with: 2 5 1 0 0  and 4 5 1 0 0 
68783392		 # 	collision with: 5 6 3 0 0  and 6 6 3 0 0 
68783394		 # 	collision with: 2 5 0 0 0  and 4 5 0 0 0 
68783401		 # 	collision with: 6 2 0 0 0  and 5 4 0 0 0 
68783403		 # 	collision with: 9 5 2 0 0  and 9 4 4 0 0 
68783420		 # 	collision with: 10 3 1 0 0  and 10 4 1 0 0 
68783422		 # 	collision with: 6 1 1 0 0  and 0 2 1 0 0 
68783426		 # 	collision with: 2 5 3 0 0  and 4 5 3 0 0 
68783456		 # 	collision with: 7 2 7 0 0  and 7 4 7 0 0 
68783458		 # 	collision with: 2 5 5 0 0  and 4 5 5 0 0 
68783462		 # 	collision with: 2 5 6 0 0  and 4 5 6 0 0 
68783481		 # 	collision with: 5 6 2 0 0  and 6 6 2 0 0 
68783483		 # 	collision with: 2 4 2 0 0  and 2 4 4 0 0 
68783488		 # 	collision with: 5 6 0 0 0  and 6 6 0 0 0 
68783490		 # 	collision with: 1 0 6 0 0  and 5 1 6 0 0 
68783500		 # 	collision with: 7 2 7 0 0  and 7 4 7 0 0 
68783502		 # 	collision with: 2 0 7 0 0  and 4 2 7 0 0 
68783540		 # 	collision with: 10 3 2 0 0  and 10 4 2 0 0 
68783564		 # 	collision with: 5 6 5 0 0  and 6 6 5 0 0 
68783566		 # 	collision with: 2 5 2 0 0  and 4 5 2 0 0 
68783580		 # 	collision with: 5 6 3 0 0  and 6 6 3 0 0 
68783582		 # 	collision with: 2 5 2 0 0  and 4 5 2 0 0 
68783585		 # 	collision with: 2 3 3 0 0  and 2 5 3 0 0 
68783587		 # 	collision with: 2 5 2 0 0  and 4 5 2 0 0 
68783593		 # 	collision with: 5 6 1 0 0  and 6 6 1 0 0 
68783595		 # 	collision with: 7 0 1 0 0  and 7 1 1 0 0 
68783596		 # 	collision with: 10 3 1 0 0  and 10 4 1 0 0 
68783620		 # 	collision with: 5 6 0 0 0  and 6 6 0 0 0 
68783622		 # 	collision with: 8 2 6 0 0  and 8 3 6 0 0 
68783628		 # 	collision with: 5 6 1 0 0  and 6 6 1 0 0 
68783630		 # 	collision with: 1 0 2 0 0  and 5 1 2 0 0 
68783637		 # 	collision with: 5 6 2 0 0  and 6 6 2 0 0 
68783639		 # 	collision with: 7 0 1 0 0  and 7 1 1 0 0 
68783657		 # 	collision with: 9 4 3 0 0  and 2 5 3 0 0 
68783659		 # 	collision with: 10 4 2 0 0  and 10 4 4 0 0 
68783660		 # 	collision with: 8 1 2 0 0  and 10 7 0 1 0 
68783662		 # 	collision with: 3 2 2 0 0  and 9 6 0 1 0 
68783709		 # 	collision with: 2 1 2 0 0  and 2 1 3 0 0 
68783711		 # 	collision with: 9 9 2 0 0  and 9 0 3 0 0 
68783729		 # 	collision with: 8 4 1 0 0  and 3 6 1 0 0 
68783731		 # 	collision with: 2 5 2 0 0  and 4 5 2 0 0 
68783736		 # 	collision with: 5 6 1 0 0  and 6 6 1 0 0 
68783738		 # 	collision with: 6 3 2 0 0  and 0 5 2 0 0 
68783744		 # 	collision with: 5 6 0 0 0  and 6 6 0 0 0 
68783746		 # 	collision with: 10 0 6 0 0  and 10 2 6 0 0 
68783768		 # 	collision with: 6 0 1 0 0  and 6 2 1 0 0 
68783773		 # 	collision with: 5 6 1 0 0  and 6 6 1 0 0 
68783775		 # 	collision with: 2 5 1 0 0  and 4 5 1 0 0 
68783781		 # 	collision with: 10 7 2 0 0  and 10 7 3 0 0 
68783783		 # 	collision with: 4 5 2 0 0  and 4 6 2 0 0 
68783784		 # 	collision with: 9 4 3 0 0  and 2 5 3 0 0 
68783786		 # 	collision with: 2 5 2 0 0  and 4 5 2 0 0 
68783800		 # 	collision with: 5 6 5 0 0  and 6 6 5 0 0 
68783802		 # 	collision with: 2 5 2 0 0  and 4 5 2 0 0 
68783824		 # 	collision with: 9 1 2 0 0  and 9 2 2 0 0 
68783864		 # 	collision with: 1 1 7 0 0  and 10 2 7 0 0 
68783866		 # 	collision with: 10 0 7 0 0  and 10 2 7 0 0 
68783876		 # 	collision with: 5 6 0 0 0  and 6 6 0 0 0 
68783878		 # 	collision with: 10 0 6 0 0  and 10 2 6 0 0 
68783885		 # 	collision with: 5 6 2 0 0  and 6 6 2 0 0 
68783887		 # 	collision with: 2 5 1 0 0  and 4 5 1 0 0 
68783906		 # 	collision with: 2 5 6 0 0  and 4 5 6 0 0 
68783908		 # 	collision with: 10 0 7 0 0  and 1 2 7 0 0 
68783910		 # 	collision with: 2 5 5 0 0  and 4 5 5 0 0 
68783942		 # 	collision with: 2 5 3 0 0  and 4 5 3 0 0 
68783944		 # 	collision with: 6 0 1 0 0  and 6 2 1 0 0 
68783946		 # 	collision with: 7 0 1 0 0  and 7 1 1 0 0 
68783965		 # 	collision with: 5 6 0 0 0  and 6 6 0 0 0 
68783967		 # 	collision with: 3 3 2 0 0  and 3 4 2 0 0 
68783972		 # 	collision with: 5 6 3 0 0  and 6 6 3 0 0 
68783974		 # 	collision with: 2 5 0 0 0  and 4 5 0 0 0 
68783984		 # 	collision with: 5 6 2 0 0  and 6 6 2 0 0 
68783986		 # 	collision with: 2 5 1 0 0  and 4 5 1 0 0 
68784024		 # 	collision with: 5 6 8 0 0  and 6 6 8 0 0 
68784026		 # 	collision with: 2 5 7 0 0  and 4 5 7 0 0 
68784048		 # 	collision with: 5 4 3 0 0  and 5 5 3 0 0 
68784050		 # 	collision with: 7 0 3 0 0  and 7 1 3 0 0 
68784064		 # 	collision with: 8 4 8 0 0  and 3 6 8 0 0 
68784066		 # 	collision with: 2 5 8 0 0  and 4 5 8 0 0 
68784069		 # 	collision with: 4 2 0 0 0  and 4 3 0 0 0 
68784071		 # 	collision with: 10 0 1 0 0  and 10 2 1 0 0 
68784077		 # 	collision with: 7 2 2 0 0  and 7 4 2 0 0 
68784079		 # 	collision with: 2 5 2 0 0  and 4 5 2 0 0 
68784080		 # 	collision with: 3 0 10 0 0  and 3 1 10 0 0 
68784082		 # 	collision with: 2 5 7 0 0  and 4 5 7 0 0 
68784104		 # 	collision with: 5 6 1 0 0  and 6 6 1 0 0 
68784106		 # 	collision with: 2 5 0 0 0  and 4 5 0 0 0 
68784112		 # 	collision with: 5 6 2 0 0  and 6 6 2 0 0 
68784114		 # 	collision with: 1 4 9 0 0  and 1 6 9 0 0 
68784121		 # 	collision with: 7 2 2 0 0  and 7 4 2 0 0 
68784123		 # 	collision with: 8 9 2 0 0  and 8 9 3 0 0 
68784141		 # 	collision with: 5 6 0 0 0  and 6 6 0 0 0 
68784143		 # 	collision with: 3 3 2 0 0  and 3 4 2 0 0 
68784144		 # 	collision with: 7 8 8 0 0  and 6 7 0 1 0 
68784146		 # 	collision with: 9 4 10 0 0  and 4 3 2 1 0 
68784193		 # 	collision with: 3 1 0 0 0  and 8 3 0 0 0 
68784195		 # 	collision with: 5 0 1 0 0  and 5 4 3 0 0 
68784213		 # 	collision with: 1 1 0 0 0  and 1 3 0 0 0 
68784215		 # 	collision with: 2 5 1 0 0  and 4 5 1 0 0 
68784220		 # 	collision with: 5 6 0 0 0  and 6 6 0 0 0 
68784222		 # 	collision with: 2 0 6 0 0  and 4 2 6 0 0 
68784228		 # 	collision with: 10 3 7 0 0  and 10 4 7 0 0 
68784230		 # 	collision with: 6 1 7 0 0  and 0 2 7 0 0 
68784252		 # 	collision with: 8 4 3 0 0  and 8 6 3 0 0 
68784254		 # 	collision with: 9 4 3 0 0  and 9 5 3 0 0 
68784257		 # 	collision with: 1 1 0 0 0  and 1 3 0 0 0 
68784259		 # 	collision with: 5 1 1 0 0  and 5 1 3 0 0 
68784265		 # 	collision with: 5 6 0 0 0  and 6 6 0 0 0 
68784267		 # 	collision with: 2 5 1 0 0  and 4 5 1 0 0 
68784268		 # 	collision with: 5 6 8 0 0  and 6 6 8 0 0 
68784270		 # 	collision with: 2 5 7 0 0  and 4 5 7 0 0 
68784284		 # 	collision with: 5 6 1 0 0  and 6 6 1 0 0 
68784286		 # 	collision with: 2 5 2 0 0  and 4 6 2 0 0 
68784308		 # 	collision with: 5 6 0 0 0  and 6 6 0 0 0 
68784310		 # 	collision with: 6 3 6 0 0  and 6 5 6 0 0 
68784350		 # 	collision with: 2 5 6 0 0  and 4 5 6 0 0 
68784360		 # 	collision with: 1 1 7 0 0  and 10 2 7 0 0 
68784362		 # 	collision with: 2 5 5 0 0  and 4 5 5 0 0 
68784369		 # 	collision with: 3 1 0 0 0  and 8 3 0 0 0 
68784388		 # 	collision with: 10 2 8 0 0  and 1 3 8 0 0 
68784390		 # 	collision with: 5 1 8 0 0  and 5 3 8 0 0 
68784392		 # 	collision with: 9 1 10 0 0  and 9 2 10 0 0 
68784394		 # 	collision with: 2 5 7 0 0  and 4 5 7 0 0 
68784424		 # 	collision with: 9 1 1 0 0  and 9 2 1 0 0 
68784428		 # 	collision with: 8 4 3 0 0  and 3 6 3 0 0 
68784430		 # 	collision with: 2 5 2 0 0  and 4 5 2 0 0 
68784449		 # 	collision with: 2 5 1 0 0  and 2 5 3 0 0 
68784451		 # 	collision with: 5 1 0 0 0  and 5 3 0 0 0 
68784458		 # 	collision with: 2 5 3 0 0  and 4 5 3 0 0 
68784468		 # 	collision with: 9 1 1 0 0  and 9 2 1 0 0 
68784470		 # 	collision with: 2 0 1 0 0  and 4 2 1 0 0 
68784508		 # 	collision with: 5 6 1 0 0  and 6 6 1 0 0 
68784510		 # 	collision with: 2 5 0 0 0  and 4 5 0 0 0 
68784532		 # 	collision with: 5 6 2 0 0  and 6 6 2 0 0 
68784534		 # 	collision with: 8 2 9 0 0  and 8 3 9 0 0 
68784548		 # 	collision with: 3 1 2 0 0  and 8 3 2 0 0 
68784553		 # 	collision with: 4 2 1 0 0  and 4 2 3 0 0 
68784555		 # 	collision with: 10 2 1 0 0  and 10 2 3 0 0 
68784561		 # 	collision with: 5 6 2 0 0  and 6 6 2 0 0 
68784563		 # 	collision with: 8 2 2 0 0  and 8 3 2 0 0 
68784564		 # 	collision with: 5 6 5 0 0  and 6 6 5 0 0 
68784566		 # 	collision with: 2 5 2 0 0  and 4 5 2 0 0 
68784588		 # 	collision with: 5 6 2 0 0  and 6 6 2 0 0 
68784590		 # 	collision with: 2 5 1 0 0  and 4 5 1 0 0 
68784596		 # 	collision with: 5 6 3 0 0  and 6 6 3 0 0 
68784598		 # 	collision with: 2 5 0 0 0  and 4 5 0 0 0 
68784605		 # 	collision with: 7 9 1 0 0  and 4 5 3 0 0 
68784625		 # 	collision with: 5 6 1 0 0  and 6 6 1 0 0 
68784627		 # 	collision with: 5 1 0 0 0  and 5 3 0 0 0 
68784628		 # 	collision with: 0 7 7 0 0  and 2 0 0 1 0 
68784630		 # 	collision with: 3 6 7 0 0  and 5 3 0 1 0 
68784679		 # 	collision with: 2 0 1 0 0  and 4 2 1 0 0 
68784697		 # 	collision with: 5 6 0 0 0  and 6 6 0 0 0 
68784699		 # 	collision with: 2 5 0 0 0  and 4 5 0 0 0 
68784704		 # 	collision with: 2 3 10 0 0  and 2 5 10 0 0 
68784706		 # 	collision with: 2 5 7 0 0  and 4 5 7 0 0 
68784712		 # 	collision with: 9 1 8 0 0  and 9 2 8 0 0 
68784714		 # 	collision with: 4 2 8 0 0  and 2 3 8 0 0 
68784736		 # 	collision with: 5 6 3 0 0  and 6 6 3 0 0 
68784738		 # 	collision with: 2 5 0 0 0  and 4 5 0 0 0 
68784741		 # 	collision with: 5 6 0 0 0  and 6 6 0 0 0 
68784743		 # 	collision with: 2 5 0 0 0  and 4 5 0 0 0 
68784749		 # 	collision with: 3 0 1 0 0  and 3 0 2 0 0 
68784751		 # 	collision with: 6 1 0 0 0  and 0 2 0 0 0 
68784752		 # 	collision with: 5 6 2 0 0  and 6 6 2 0 0 
68784754		 # 	collision with: 2 5 1 0 0  and 4 5 1 0 0 
68784768		 # 	collision with: 1 3 7 0 0  and 10 5 7 0 0 
68784770		 # 	collision with: 2 5 5 0 0  and 4 5 5 0 0 
68784794		 # 	collision with: 2 5 6 0 0  and 4 5 6 0 0 
68784832		 # 	collision with: 2 3 2 0 0  and 2 5 2 0 0 
68784844		 # 	collision with: 5 6 5 0 0  and 6 6 5 0 0 
68784846		 # 	collision with: 2 5 2 0 0  and 4 5 2 0 0 
68784853		 # 	collision with: 10 0 1 0 0  and 10 0 2 0 0 
68784855		 # 	collision with: 1 0 1 0 0  and 1 0 2 0 0 
68784872		 # 	collision with: 5 6 0 0 0  and 6 6 0 0 0 
68784874		 # 	collision with: 1 0 6 0 0  and 5 1 6 0 0 
68784876		 # 	collision with: 5 6 1 0 0  and 6 6 1 0 0 
68784878		 # 	collision with: 7 0 2 0 0  and 7 1 2 0 0 
68784908		 # 	collision with: 5 6 2 0 0  and 6 6 2 0 0 
68784910		 # 	collision with: 1 0 9 0 0  and 5 1 9 0 0 
68784912		 # 	collision with: 5 6 1 0 0  and 6 6 1 0 0 
68784914		 # 	collision with: 2 5 0 0 0  and 4 5 0 0 0 
68784933		 # 	collision with: 1 0 1 0 0  and 1 0 2 0 0 
68784935		 # 	collision with: 10 0 1 0 0  and 10 0 2 0 0 
68784940		 # 	collision with: 9 1 3 0 0  and 9 2 3 0 0 
68784942		 # 	collision with: 6 3 3 0 0  and 6 5 3 0 0 
68784952		 # 	collision with: 5 6 8 0 0  and 6 6 8 0 0 
68784954		 # 	collision with: 2 5 7 0 0  and 4 5 7 0 0 
68784992		 # 	collision with: 10 0 1 0 0  and 1 2 1 0 0 
68784994		 # 	collision with: 1 0 1 0 0  and 5 1 1 0 0 
68785018		 # 	collision with: 2 5 3 0 0  and 4 5 3 0 0 
68785032		 # 	collision with: 5 6 10 0 0  and 6 6 10 0 0 
68785034		 # 	collision with: 7 2 7 0 0  and 10 4 7 0 0 
68785037		 # 	collision with: 8 0 1 0 0  and 8 0 2 0 0 
68785039		 # 	collision with: 3 0 1 0 0  and 3 0 2 0 0 
68785045		 # 	collision with: 5 9 1 0 0  and 5 0 2 0 0 
68785047		 # 	collision with: 3 0 1 0 0  and 3 0 2 0 0 
68785048		 # 	collision with: 5 6 0 0 0  and 6 6 0 0 0 
68785050		 # 	collision with: 9 4 6 0 0  and 9 5 6 0 0 
68785072		 # 	collision with: 9 1 3 0 0  and 9 2 3 0 0 
68785074		 # 	collision with: 2 5 2 0 0  and 4 5 2 0 0 
68785080		 # 	collision with: 7 2 1 0 0  and 7 4 1 0 0 
68785091		 # 	collision with: 6 0 1 0 0  and 6 0 2 0 0 
68785109		 # 	collision with: 1 4 1 0 0  and 1 0 2 0 0 
68785111		 # 	collision with: 6 0 1 0 0  and 6 0 2 0 0 
68785112		 # 	collision with: 10 4 5 0 0  and 0 0 0 1 0 
68785114		 # 	collision with: 5 7 6 0 0  and 9 10 1 1 0 
68785161		 # 	collision with: 3 1 0 0 0  and 8 3 2 0 0 
68785163		 # 	collision with: 3 6 0 0 0  and 3 1 2 0 0 
68785181		 # 	collision with: 10 3 1 0 0  and 10 4 1 0 0 
68785183		 # 	collision with: 10 0 0 0 0  and 10 2 0 0 0 
68785188		 # 	collision with: 4 2 3 0 0  and 4 3 3 0 0 
68785190		 # 	collision with: 10 0 3 0 0  and 10 2 3 0 0 
68785196		 # 	collision with: 5 6 8 0 0  and 6 6 8 0 0 
68785198		 # 	collision with: 2 5 7 0 0  and 4 5 7 0 0 
68785220		 # 	collision with: 1 1 7 0 0  and 1 3 7 0 0 
68785222		 # 	collision with: 2 5 5 0 0  and 4 5 5 0 0 
68785225		 # 	collision with: 10 3 1 0 0  and 10 4 1 0 0 
68785227		 # 	collision with: 10 0 0 0 0  and 10 2 0 0 0 
68785233		 # 	collision with: 5 2 0 0 0  and 5 2 2 0 0 
68785235		 # 	collision with: 2 5 0 0 0  and 4 5 0 0 0 
68785238		 # 	collision with: 2 5 6 0 0  and 4 5 6 0 0 
68785252		 # 	collision with: 1 1 1 0 0  and 10 2 1 0 0 
68785276		 # 	collision with: 10 2 3 0 0  and 1 3 3 0 0 
68785278		 # 	collision with: 2 5 2 0 0  and 4 5 2 0 0 
68785316		 # 	collision with: 5 6 1 0 0  and 6 6 1 0 0 
68785318		 # 	collision with: 2 5 0 0 0  and 4 5 0 0 0 
68785328		 # 	collision with: 5 6 2 0 0  and 6 6 2 0 0 
68785330		 # 	collision with: 7 0 9 0 0  and 7 1 9 0 0 
68785337		 # 	collision with: 6 5 0 0 0  and 6 5 2 0 0 
68785339		 # 	collision with: 0 1 0 0 0  and 6 3 2 0 0 
68785356		 # 	collision with: 5 6 2 0 0  and 6 6 2 0 0 
68785358		 # 	collision with: 2 5 1 0 0  and 4 5 1 0 0 
68785360		 # 	collision with: 5 6 3 0 0  and 6 6 3 0 0 
68785362		 # 	collision with: 2 5 0 0 0  and 4 5 0 0 0 
68785392		 # 	collision with: 5 6 0 0 0  and 6 6 0 0 0 
68785394		 # 	collision with: 7 0 6 0 0  and 7 1 6 0 0 
68785396		 # 	collision with: 1 1 7 0 0  and 1 3 7 0 0 
68785398		 # 	collision with: 1 0 7 0 0  and 5 1 7 0 0 
68785417		 # 	collision with: 6 0 0 0 0  and 6 2 0 0 0 
68785419		 # 	collision with: 2 5 2 0 0  and 4 5 2 0 0 
68785424		 # 	collision with: 5 6 1 0 0  and 6 6 1 0 0 
68785426		 # 	collision with: 4 2 2 0 0  and 2 3 2 0 0 
68785436		 # 	collision with: 5 6 0 0 0  and 6 6 0 0 0 
68785438		 # 	collision with: 7 0 6 0 0  and 7 1 6 0 0 
68785476		 # 	collision with: 6 0 8 0 0  and 6 2 8 0 0 
68785478		 # 	collision with: 2 5 8 0 0  and 4 5 8 0 0 
68785500		 # 	collision with: 8 4 10 0 0  and 3 6 10 0 0 
68785502		 # 	collision with: 2 5 7 0 0  and 4 5 7 0 0 
68785516		 # 	collision with: 6 2 1 0 0  and 5 4 1 0 0 
68785518		 # 	collision with: 4 2 1 0 0  and 2 3 1 0 0 
68785521		 # 	collision with: 9 6 0 0 0  and 2 2 2 0 0 
68785523		 # 	collision with: 2 0 0 0 0  and 4 2 0 0 0 
68785529		 # 	collision with: 2 1 0 0 0  and 2 1 2 0 0 
68785531		 # 	collision with: 8 1 0 0 0  and 8 1 2 0 0 
68785534		 # 	collision with: 2 5 3 0 0  and 4 5 3 0 0 
68785556		 # 	collision with: 1 1 2 0 0  and 1 3 2 0 0 
68785564		 # 	collision with: 5 6 5 0 0  and 6 6 5 0 0 
68785566		 # 	collision with: 2 5 2 0 0  and 4 5 2 0 0 
68785573		 # 	collision with: 4 1 0 0 0  and 4 1 2 0 0 
68785575		 # 	collision with: 5 1 0 0 0  and 5 1 2 0 0 
68785593		 # 	collision with: 6 0 0 0 0  and 6 2 0 0 0 
68785595		 # 	collision with: 1 6 0 0 0  and 1 6 2 0 0 
68785596		 # 	collision with: 2 5 1 0 0  and 3 8 2 1 0 
68785598		 # 	collision with: 1 2 1 0 0  and 0 6 2 1 0 
68785645		 # 	collision with: 10 10 0 0 0  and 10 10 1 0 0 
68785647		 # 	collision with: 4 10 0 0 0  and 4 1 1 0 0 
68785665		 # 	collision with: 8 4 0 0 0  and 8 6 1 0 0 
68785667		 # 	collision with: 7 2 1 0 0  and 10 4 1 0 0 
68785672		 # 	collision with: 6 0 7 0 0  and 6 2 7 0 0 
68785674		 # 	collision with: 2 5 5 0 0  and 4 5 5 0 0 
68785682		 # 	collision with: 2 5 6 0 0  and 4 5 6 0 0 
68785704		 # 	collision with: 5 6 2 0 0  and 6 6 2 0 0 
68785706		 # 	collision with: 4 5 9 0 0  and 4 6 9 0 0 
68785709		 # 	collision with: 1 4 0 0 0  and 1 0 1 0 0 
68785711		 # 	collision with: 1 9 0 0 0  and 5 8 1 0 0 
68785720		 # 	collision with: 5 6 1 0 0  and 6 6 1 0 0 
68785722		 # 	collision with: 2 5 0 0 0  and 4 5 0 0 0 
68785736		 # 	collision with: 5 6 0 0 0  and 6 6 0 0 0 
68785738		 # 	collision with: 6 1 6 0 0  and 0 2 6 0 0 
68785760		 # 	collision with: 6 0 7 0 0  and 6 2 7 0 0 
68785762		 # 	collision with: 1 4 7 0 0  and 1 6 7 0 0 
68785800		 # 	collision with: 3 1 8 0 0  and 8 3 8 0 0 
68785802		 # 	collision with: 2 5 8 0 0  and 4 5 8 0 0 
68785812		 # 	collision with: 6 2 10 0 0  and 5 4 10 0 0 
68785814		 # 	collision with: 2 5 7 0 0  and 4 5 7 0 0 
68785821		 # 	collision with: 6 9 0 0 0  and 6 4 1 0 0 
68785823		 # 	collision with: 2 8 0 0 0  and 4 0 1 0 0 
68785840		 # 	collision with: 8 4 2 0 0  and 8 6 2 0 0 
68785844		 # 	collision with: 5 6 5 0 0  and 6 6 5 0 0 
68785846		 # 	collision with: 2 5 2 0 0  and 4 5 2 0 0 
68785876		 # 	collision with: 1 1 3 0 0  and 10 2 3 0 0 
68785878		 # 	collision with: 8 2 3 0 0  and 8 3 3 0 0 
68785880		 # 	collision with: 5 6 8 0 0  and 6 6 8 0 0 
68785882		 # 	collision with: 2 5 7 0 0  and 4 5 7 0 0 
68785901		 # 	collision with: 5 4 0 0 0  and 6 0 1 0 0 
68785903		 # 	collision with: 2 5 0 0 0  and 4 5 0 0 0 
68785908		 # 	collision with: 4 2 1 0 0  and 4 3 1 0 0 
68785920		 # 	collision with: 1 1 3 0 0  and 1 3 3 0 0 
68785922		 # 	collision with: 2 5 2 0 0  and 4 5 2 0 0 
68785960		 # 	collision with: 5 6 2 0 0  and 6 6 2 0 0 
68785962		 # 	collision with: 2 5 1 0 0  and 4 5 1 0 0 
68785984		 # 	collision with: 5 6 3 0 0  and 6 6 3 0 0 
68785986		 # 	collision with: 2 5 0 0 0  and 4 5 0 0 0 
68786000		 # 	collision with: 5 6 0 0 0  and 6 6 0 0 0 
68786002		 # 	collision with: 9 4 6 0 0  and 8 5 6 0 0 
68786005		 # 	collision with: 5 7 0 0 0  and 5 7 1 0 0 
68786007		 # 	collision with: 7 0 0 0 0  and 7 1 0 0 0 
68786015		 # 	collision with: 2 2 0 0 0  and 2 2 1 0 0 
68786016		 # 	collision with: 5 6 1 0 0  and 6 6 1 0 0 
68786018		 # 	collision with: 6 3 2 0 0  and 6 5 2 0 0 
68786040		 # 	collision with: 4 2 1 0 0  and 4 3 1 0 0 
68786042		 # 	collision with: 7 2 1 0 0  and 10 4 1 0 0 
68786050		 # 	collision with: 2 5 3 0 0  and 4 5 3 0 0 
68786057		 # 	collision with: 3 2 0 0 0  and 3 2 1 0 0 
68786059		 # 	collision with: 2 8 0 0 0  and 4 0 1 0 0 
68786077		 # 	collision with: 6 1 0 0 0  and 6 1 1 0 0 
68786085		 # 	collision with: 10 7 5 0 0  and 10 0 6 0 0 
68786087		 # 	collision with: 4 5 0 0 0  and 4 6 0 0 0 
68786121		 # 	collision with: 5 4 5 0 0  and 6 0 6 0 0 
68786123		 # 	collision with: 7 5 0 0 0  and 10 6 0 0 0 
68786221		 # 	collision with: 2 2 5 0 0  and 2 2 6 0 0 
68786223		 # 	collision with: 8 2 3 0 0  and 8 3 3 0 0 
68786245		 # 	collision with: 6 2 2 0 0  and 5 4 2 0 0 
68786247		 # 	collision with: 5 2 2 0 0  and 1 4 2 0 0 
68786289		 # 	collision with: 4 3 5 0 0  and 4 2 6 0 0 
68786291		 # 	collision with: 2 7 1 0 0  and 4 7 1 0 0 
68786293		 # 	collision with: 5 6 3 0 0  and 6 6 3 0 0 
68786295		 # 	collision with: 2 7 2 0 0  and 4 7 2 0 0 
68786307		 # 	collision with: 4 5 0 0 0  and 4 6 0 0 0 
68786387		 # 	collision with: 7 5 0 0 0  and 10 6 0 0 0 
68786397		 # 	collision with: 5 6 3 0 0  and 6 6 3 0 0 
68786399		 # 	collision with: 8 2 3 0 0  and 8 3 3 0 0 
68786401		 # 	collision with: 1 3 1 0 0  and 10 5 1 0 0 
68786403		 # 	collision with: 8 2 2 0 0  and 8 3 2 0 0 
68786445		 # 	collision with: 6 5 5 0 0  and 6 5 6 0 0 
68786447		 # 	collision with: 8 2 2 0 0  and 8 3 2 0 0 
68786469		 # 	collision with: 10 0 1 0 0  and 1 2 1 0 0 
68786471		 # 	collision with: 2 7 1 0 0  and 4 7 1 0 0 
68786564		 # 	collision with: 5 10 3 0 0  and 8 0 1 1 0 
68786566		 # 	collision with: 6 5 2 0 0  and 1 0 0 1 0 
68786569		 # 	collision with: 1 3 2 0 0  and 10 5 2 0 0 
68786571		 # 	collision with: 6 3 2 0 0  and 6 5 2 0 0 
68786605		 # 	collision with: 8 4 0 0 0  and 3 6 0 0 0 
68786607		 # 	collision with: 1 4 0 0 0  and 1 6 0 0 0 
68786705		 # 	collision with: 5 6 3 0 0  and 6 6 3 0 0 
68786707		 # 	collision with: 2 7 4 0 0  and 4 7 4 0 0 
68786729		 # 	collision with: 5 6 2 0 0  and 6 6 2 0 0 
68786773		 # 	collision with: 8 4 4 0 0  and 8 4 6 0 0 
68786777		 # 	collision with: 5 6 0 0 0  and 6 6 0 0 0 
68786779		 # 	collision with: 1 6 4 0 0  and 1 6 6 0 0 
68786789		 # 	collision with: 5 6 3 0 0  and 6 6 3 0 0 
68786791		 # 	collision with: 6 3 2 0 0  and 6 5 2 0 0 
68786869		 # 	collision with: 8 4 0 0 0  and 3 6 0 0 0 
68786871		 # 	collision with: 1 4 0 0 0  and 1 6 0 0 0 
68786881		 # 	collision with: 5 5 4 0 0  and 5 5 6 0 0 
68786883		 # 	collision with: 5 2 2 0 0  and 1 4 2 0 0 
68786885		 # 	collision with: 5 6 2 0 0  and 6 6 2 0 0 
68786887		 # 	collision with: 3 3 1 0 0  and 3 4 1 0 0 
68786929		 # 	collision with: 3 1 2 0 0  and 8 3 2 0 0 
68786931		 # 	collision with: 3 3 1 0 0  and 3 4 1 0 0 
68786953		 # 	collision with: 5 6 0 0 0  and 6 6 0 0 0 
68786955		 # 	collision with: 2 7 5 0 0  and 4 7 5 0 0 
68787048		 # 	collision with: 5 2 1 0 0  and 2 4 0 1 0 
68787050		 # 	collision with: 8 0 1 0 0  and 1 7 0 1 0 
68787053		 # 	collision with: 5 4 0 0 0  and 5 5 0 0 0 
68787055		 # 	collision with: 8 2 4 0 0  and 8 3 4 0 0 
68787089		 # 	collision with: 8 4 1 0 0  and 3 6 1 0 0 
68787091		 # 	collision with: 7 5 2 0 0  and 10 6 2 0 0 
68787191		 # 	collision with: 2 7 0 0 0  and 4 7 0 0 0 
68787213		 # 	collision with: 1 1 2 0 0  and 1 3 2 0 0 
68787215		 # 	collision with: 7 0 1 0 0  and 7 1 1 0 0 
68787257		 # 	collision with: 1 1 2 0 0  and 1 3 2 0 0 
68787259		 # 	collision with: 7 0 1 0 0  and 7 1 1 0 0 
68787261		 # 	collision with: 9 4 0 0 0  and 2 5 0 0 0 
68787263		 # 	collision with: 5 2 4 0 0  and 1 4 4 0 0 
68787273		 # 	collision with: 5 4 0 0 0  and 5 5 0 0 0 
68787275		 # 	collision with: 8 2 4 0 0  and 8 3 4 0 0 
68787353		 # 	collision with: 6 6 4 0 0  and 6 6 5 0 0 
68787355		 # 	collision with: 1 8 4 0 0  and 1 2 5 0 0 
68787365		 # 	collision with: 10 3 1 0 0  and 10 4 1 0 0 
68787367		 # 	collision with: 2 7 0 0 0  and 4 7 0 0 0 
68787369		 # 	collision with: 1 1 2 0 0  and 10 2 2 0 0 
68787371		 # 	collision with: 9 4 0 0 0  and 9 5 0 0 0 
68787415		 # 	collision with: 9 4 0 0 0  and 9 5 0 0 0 
68787437		 # 	collision with: 9 4 0 0 0  and 2 5 0 0 0 
68787439		 # 	collision with: 6 3 4 0 0  and 6 3 5 0 0 
68787532		 # 	collision with: 8 6 8 0 0  and 4 3 0 1 0 
68787534		 # 	collision with: 10 3 9 0 0  and 4 7 1 1 0 
68787539		 # 	collision with: 10 1 4 0 0  and 7 3 4 0 0 
68787573		 # 	collision with: 8 4 2 0 0  and 3 6 2 0 0 
68787575		 # 	collision with: 7 5 3 0 0  and 10 6 3 0 0 
68787673		 # 	collision with: 1 3 0 0 0  and 10 5 0 0 0 
68787697		 # 	collision with: 9 4 4 0 0  and 2 5 4 0 0 
68787699		 # 	collision with: 2 4 4 0 0  and 4 5 4 0 0 
68787741		 # 	collision with: 5 6 1 0 0  and 6 6 1 0 0 
68787743		 # 	collision with: 2 7 3 0 0  and 4 7 3 0 0 
68787745		 # 	collision with: 8 4 1 0 0  and 3 6 1 0 0 
68787747		 # 	collision with: 2 7 4 0 0  and 4 7 4 0 0 
68787757		 # 	collision with: 2 3 1 0 0  and 9 4 1 0 0 
68787759		 # 	collision with: 3 0 3 0 0  and 3 0 5 0 0 
68787837		 # 	collision with: 10 0 3 0 0  and 10 0 5 0 0 
68787839		 # 	collision with: 5 0 4 0 0  and 1 1 4 0 0 
68787849		 # 	collision with: 1 3 0 0 0  and 10 5 0 0 0 
68787853		 # 	collision with: 10 0 2 0 0  and 1 2 2 0 0 
68787855		 # 	collision with: 2 7 2 0 0  and 4 7 2 0 0 
68787897		 # 	collision with: 2 0 3 0 0  and 2 0 5 0 0 
68787899		 # 	collision with: 6 0 3 0 0  and 6 0 5 0 0 
68787921		 # 	collision with: 2 0 3 0 0  and 2 0 5 0 0 
68787923		 # 	collision with: 2 7 2 0 0  and 4 7 2 0 0 
68788016		 # 	collision with: 10 0 6 0 0  and 6 10 0 1 0 
68788018		 # 	collision with: 4 5 6 0 0  and 8 1 0 1 0 
68788021		 # 	collision with: 10 2 2 0 0  and 1 3 2 0 0 
68788023		 # 	collision with: 5 0 6 0 0  and 1 1 6 0 0 
68788057		 # 	collision with: 8 4 3 0 0  and 3 6 3 0 0 
68788157		 # 	collision with: 5 6 2 0 0  and 6 6 2 0 0 
68788159		 # 	collision with: 3 3 0 0 0  and 3 4 0 0 0 
68788181		 # 	collision with: 5 6 1 0 0  and 6 6 1 0 0 
68788183		 # 	collision with: 2 7 0 0 0  and 4 7 0 0 0 
68788227		 # 	collision with: 2 7 0 0 0  and 4 7 0 0 0 
68788229		 # 	collision with: 5 6 2 0 0  and 6 6 2 0 0 
68788231		 # 	collision with: 2 7 1 0 0  and 4 7 1 0 0 
68788241		 # 	collision with: 4 5 3 0 0  and 4 0 4 0 0 
68788243		 # 	collision with: 2 7 1 0 0  and 4 7 1 0 0 
68788321		 # 	collision with: 5 4 3 0 0  and 6 2 4 0 0 
68788335		 # 	collision with: 3 3 0 0 0  and 3 4 0 0 0 
68788337		 # 	collision with: 5 6 0 0 0  and 6 6 0 0 0 
68788339		 # 	collision with: 9 2 3 0 0  and 9 2 4 0 0 
68788381		 # 	collision with: 5 6 0 0 0  and 6 6 0 0 0 
68788383		 # 	collision with: 2 7 3 0 0  and 4 7 3 0 0 
68788405		 # 	collision with: 5 6 1 0 0  and 6 6 1 0 0 
68788407		 # 	collision with: 10 1 4 0 0  and 7 3 4 0 0 
68788500		 # 	collision with: 2 4 7 0 0  and 1 7 0 1 0 
68788502		 # 	collision with: 2 3 7 0 0  and 6 8 0 1 0 
68788505		 # 	collision with: 5 6 0 0 0  and 6 6 0 0 0 
68788507		 # 	collision with: 6 2 1 0 0  and 0 3 1 0 0 
68788541		 # 	collision with: 3 8 2 0 0  and 8 1 4 0 0 
68788543		 # 	collision with: 5 0 2 0 0  and 1 1 4 0 0 
68788641		 # 	collision with: 1 0 2 0 0  and 1 4 4 0 0 
68788643		 # 	collision with: 10 0 2 0 0  and 10 2 2 0 0 
68788665		 # 	collision with: 7 2 0 0 0  and 7 4 0 0 0 
68788667		 # 	collision with: 3 7 2 0 0  and 3 0 4 0 0 
68788709		 # 	collision with: 7 2 0 0 0  and 7 4 0 0 0 
68788711		 # 	collision with: 1 6 2 0 0  and 1 4 4 0 0 
68788713		 # 	collision with: 4 5 2 0 0  and 4 5 4 0 0 
68788715		 # 	collision with: 1 5 2 0 0  and 1 5 4 0 0 
68788725		 # 	collision with: 5 6 0 0 0  and 6 6 0 0 0 
68788727		 # 	collision with: 2 7 3 0 0  and 4 7 3 0 0 
68788805		 # 	collision with: 5 6 2 0 0  and 6 6 2 0 0 
68788807		 # 	collision with: 2 7 3 0 0  and 4 7 3 0 0 
68788817		 # 	collision with: 6 6 2 0 0  and 5 3 4 0 0 
68788819		 # 	collision with: 10 0 2 0 0  and 10 2 2 0 0 
68788821		 # 	collision with: 1 1 1 0 0  and 10 2 1 0 0 
68788823		 # 	collision with: 4 3 3 0 0  and 2 5 3 0 0 
68788865		 # 	collision with: 7 8 2 0 0  and 4 0 4 0 0 
68788867		 # 	collision with: 6 8 2 0 0  and 6 0 4 0 0 
68788889		 # 	collision with: 5 4 2 0 0  and 6 0 4 0 0 
68788891		 # 	collision with: 1 9 2 0 0  and 5 4 4 0 0 
68788984		 # 	collision with: 8 10 4 0 0  and 1 9 0 1 0 
68788986		 # 	collision with: 3 8 5 0 0  and 9 8 1 1 0 
68788989		 # 	collision with: 10 8 2 0 0  and 10 10 3 0 0 
68788991		 # 	collision with: 5 1 1 0 0  and 5 3 1 0 0 
68789025		 # 	collision with: 10 2 0 0 0  and 1 3 0 0 0 
68789027		 # 	collision with: 2 0 2 0 0  and 2 3 3 0 0 
68789125		 # 	collision with: 8 9 2 0 0  and 8 1 3 0 0 
68789127		 # 	collision with: 7 3 2 0 0  and 10 1 3 0 0 
68789149		 # 	collision with: 1 3 1 0 0  and 10 5 1 0 0 
68789151		 # 	collision with: 4 5 2 0 0  and 4 6 2 0 0 
68789193		 # 	collision with: 9 1 3 0 0  and 9 2 3 0 0 
68789195		 # 	collision with: 4 5 2 0 0  and 4 6 2 0 0 
68789197		 # 	collision with: 8 3 2 0 0  and 3 0 3 0 0 
68789199		 # 	collision with: 6 2 0 0 0  and 0 3 0 0 0 
68789209		 # 	collision with: 3 1 1 0 0  and 8 3 1 0 0 
68789211		 # 	collision with: 5 1 1 0 0  and 5 3 1 0 0 
68789289		 # 	collision with: 10 2 0 0 0  and 1 3 0 0 0 
68789291		 # 	collision with: 2 7 1 0 0  and 4 7 1 0 0 
68789301		 # 	collision with: 2 2 2 0 0  and 2 6 3 0 0 
68789303		 # 	collision with: 2 7 1 0 0  and 4 7 1 0 0 
68789305		 # 	collision with: 10 6 2 0 0  and 10 1 3 0 0 
68789307		 # 	collision with: 2 7 0 0 0  and 4 7 0 0 0 
68789349		 # 	collision with: 10 0 1 0 0  and 1 2 1 0 0 
68789351		 # 	collision with: 2 7 0 0 0  and 4 7 0 0 0 
68789373		 # 	collision with: 2 2 2 0 0  and 2 2 3 0 0 
68789375		 # 	collision with: 6 2 0 0 0  and 0 3 0 0 0 
68789468		 # 	collision with: 5 10 7 0 0  and 1 6 2 1 0 
68789470		 # 	collision with: 10 1 6 0 0  and 8 2 1 1 0 
68789473		 # 	collision with: 4 10 1 0 0  and 7 6 3 0 0 
68789509		 # 	collision with: 2 1 1 0 0  and 2 7 3 0 0 
68789511		 # 	collision with: 4 6 1 0 0  and 2 4 3 0 0 
68789609		 # 	collision with: 1 1 0 0 0  and 1 3 0 0 0 
68789611		 # 	collision with: 2 7 2 0 0  and 4 7 2 0 0 
68789633		 # 	collision with: 5 6 0 0 0  and 6 6 0 0 0 
68789635		 # 	collision with: 9 3 1 0 0  and 9 3 3 0 0 
68789677		 # 	collision with: 5 6 0 0 0  and 6 6 0 0 0 
68789679		 # 	collision with: 2 7 2 0 0  and 4 7 2 0 0 
68789683		 # 	collision with: 0 3 1 0 0  and 6 2 3 0 0 
68789693		 # 	collision with: 7 8 1 0 0  and 4 0 3 0 0 
68789773		 # 	collision with: 10 2 1 0 0  and 1 3 1 0 0 
68789775		 # 	collision with: 2 9 1 0 0  and 2 9 3 0 0 
68789785		 # 	collision with: 1 1 0 0 0  and 1 3 0 0 0 
68789787		 # 	collision with: 6 0 1 0 0  and 0 2 1 0 0 
68789791		 # 	collision with: 1 7 1 0 0  and 1 3 3 0 0 
68789833		 # 	collision with: 5 6 1 0 0  and 6 6 1 0 0 
68789835		 # 	collision with: 8 8 1 0 0  and 8 8 3 0 0 
68789857		 # 	collision with: 3 1 0 0 0  and 8 3 0 0 0 
68789859		 # 	collision with: 4 3 2 0 0  and 2 5 2 0 0 
68789952		 # 	collision with: 1 0 3 0 0  and 7 0 0 1 0 
68789954		 # 	collision with: 10 9 3 0 0  and 0 2 0 1 0 
68789957		 # 	collision with: 6 0 1 0 0  and 6 2 1 0 0 
68789959		 # 	collision with: 2 3 1 0 0  and 2 0 2 0 0 
68789995		 # 	collision with: 0 7 1 0 0  and 6 1 2 0 0 
68790093		 # 	collision with: 6 4 1 0 0  and 6 4 2 0 0 
68790095		 # 	collision with: 2 4 1 0 0  and 2 4 2 0 0 
68790117		 # 	collision with: 3 1 1 0 0  and 3 1 2 0 0 
68790119		 # 	collision with: 10 1 1 0 0  and 10 1 2 0 0 
68790161		 # 	collision with: 6 2 1 0 0  and 5 4 1 0 0 
68790163		 # 	collision with: 2 1 1 0 0  and 2 1 2 0 0 
68790165		 # 	collision with: 5 6 1 0 0  and 6 6 1 0 0 
68790177		 # 	collision with: 6 0 1 0 0  and 6 2 1 0 0 
68790179		 # 	collision with: 5 0 2 0 0  and 1 1 2 0 0 
68790257		 # 	collision with: 2 7 1 0 0  and 2 1 2 0 0 
68790259		 # 	collision with: 9 8 1 0 0  and 9 1 2 0 0 
68790269		 # 	collision with: 1 4 1 0 0  and 1 4 2 0 0 
68790271		 # 	collision with: 4 4 1 0 0  and 4 4 2 0 0 
68790273		 # 	collision with: 1 1 0 0 0  and 10 2 0 0 0 
68790275		 # 	collision with: 6 1 1 0 0  and 0 10 2 0 0 
68790317		 # 	collision with: 1 1 0 0 0  and 10 2 0 0 0 
68790319		 # 	collision with: 8 5 1 0 0  and 8 0 2 0 0 
68790341		 # 	collision with: 7 9 1 0 0  and 4 0 2 0 0 
68790436		 # 	collision with: 7 4 0 0 0  and 9 8 1 1 0 
68790438		 # 	collision with: 4 9 10 0 0  and 3 9 0 1 0 
68790441		 # 	collision with: 9 4 0 0 0  and 2 5 2 0 0 
68790443		 # 	collision with: 2 7 0 0 0  and 4 7 0 0 0 
68790477		 # 	collision with: 10 6 0 0 0  and 10 1 2 0 0 
68790479		 # 	collision with: 3 6 0 0 0  and 3 1 2 0 0 
68790577		 # 	collision with: 1 9 0 0 0  and 10 1 2 0 0 
68790579		 # 	collision with: 8 7 0 0 0  and 9 2 2 0 0 
68790603		 # 	collision with: 10 0 0 0 0  and 10 2 0 0 0 
68790645		 # 	collision with: 4 2 1 0 0  and 4 3 1 0 0 
68790647		 # 	collision with: 10 0 0 0 0  and 10 2 0 0 0 
68790649		 # 	collision with: 5 4 0 0 0  and 6 2 2 0 0 
68790651		 # 	collision with: 1 4 0 0 0  and 1 4 2 0 0 
68790661		 # 	collision with: 9 10 0 0 0  and 2 3 2 0 0 
68790663		 # 	collision with: 2 7 0 0 0  and 4 7 0 0 0 
68790741		 # 	collision with: 2 7 0 0 0  and 2 1 2 0 0 
68790743		 # 	collision with: 5 7 0 0 0  and 1 3 2 0 0 
68790753		 # 	collision with: 10 7 0 0 0  and 1 2 2 0 0 
68790755		 # 	collision with: 1 9 0 0 0  and 1 1 2 0 0 
68790757		 # 	collision with: 8 4 1 0 0  and 8 6 1 0 0 
68790759		 # 	collision with: 2 4 1 0 0  and 4 6 1 0 0 
68790801		 # 	collision with: 8 4 1 0 0  and 8 6 1 0 0 
68790803		 # 	collision with: 2 7 1 0 0  and 4 7 1 0 0 
68790827		 # 	collision with: 7 0 0 0 0  and 7 1 2 0 0 
68790920		 # 	collision with: 2 6 10 0 0  and 3 4 1 1 0 
68790922		 # 	collision with: 0 2 9 0 0  and 9 2 0 1 0 
68790925		 # 	collision with: 4 10 0 0 0  and 7 0 1 0 0 
68790927		 # 	collision with: 7 5 1 0 0  and 10 6 1 0 0 
68790961		 # 	collision with: 3 10 0 0 0  and 3 2 1 0 0 
68790963		 # 	collision with: 7 10 0 0 0  and 7 2 1 0 0 
68791061		 # 	collision with: 5 6 0 0 0  and 6 6 0 0 0 
68791063		 # 	collision with: 1 4 1 0 0  and 1 6 1 0 0 
68791085		 # 	collision with: 5 5 0 0 0  and 6 2 1 0 0 
68791087		 # 	collision with: 1 10 0 0 0  and 1 0 1 0 0 
68791129		 # 	collision with: 1 8 0 0 0  and 1 8 1 0 0 
68791131		 # 	collision with: 9 8 0 0 0  and 9 8 1 0 0 
68791133		 # 	collision with: 4 1 0 0 0  and 4 1 1 0 0 
68791135		 # 	collision with: 1 1 0 0 0  and 1 1 1 0 0 
68791145		 # 	collision with: 6 2 0 0 0  and 6 0 1 0 0 
68791147		 # 	collision with: 10 9 0 0 0  and 10 9 1 0 0 
68791225		 # 	collision with: 5 2 0 0 0  and 5 2 1 0 0 
68791227		 # 	collision with: 5 4 0 0 0  and 1 1 1 0 0 
68791237		 # 	collision with: 5 6 0 0 0  and 6 6 0 0 0 
68791239		 # 	collision with: 0 2 0 0 0  and 6 0 1 0 0 
68791241		 # 	collision with: 3 0 0 0 0  and 3 1 0 0 0 
68791285		 # 	collision with: 3 0 0 0 0  and 3 1 0 0 0 
68791309		 # 	collision with: 4 10 0 0 0  and 7 0 1 0 0 
68791311		 # 	collision with: 6 1 0 0 0  and 6 1 1 0 0 
68791421		 # 	collision with: 2 2 5 0 0  and 9 6 6 0 0 
68791423		 # 	collision with: 0 5 0 0 0  and 6 6 0 0 0 
68791433		 # 	collision with: 10 3 5 0 0  and 10 4 6 0 0 
68791435		 # 	collision with: 6 3 2 0 0  and 6 5 2 0 0 
68791553		 # 	collision with: 5 6 3 0 0  and 6 6 3 0 0 
68791555		 # 	collision with: 0 5 0 0 0  and 6 6 0 0 0 
68791561		 # 	collision with: 5 4 4 0 0  and 5 5 4 0 0 
68791563		 # 	collision with: 1 4 2 0 0  and 1 6 2 0 0 
68791585		 # 	collision with: 5 6 4 0 0  and 6 6 4 0 0 
68791587		 # 	collision with: 4 5 0 0 0  and 4 6 0 0 0 
68791601		 # 	collision with: 9 1 6 0 0  and 9 2 6 0 0 
68791603		 # 	collision with: 2 9 1 0 0  and 4 9 1 0 0 
68791631		 # 	collision with: 4 5 0 0 0  and 4 6 0 0 0 
68791711		 # 	collision with: 0 0 1 0 0  and 6 1 1 0 0 
68791737		 # 	collision with: 5 4 4 0 0  and 5 5 4 0 0 
68791739		 # 	collision with: 1 4 2 0 0  and 1 6 2 0 0 
68791753		 # 	collision with: 1 1 4 0 0  and 1 3 4 0 0 
68791755		 # 	collision with: 2 9 2 0 0  and 4 9 2 0 0 
68791777		 # 	collision with: 9 1 6 0 0  and 9 2 6 0 0 
68791779		 # 	collision with: 4 3 3 0 0  and 2 4 3 0 0 
68791785		 # 	collision with: 5 6 3 0 0  and 6 6 3 0 0 
68791787		 # 	collision with: 2 9 1 0 0  and 4 9 1 0 0 
68791888		 # 	collision with: 3 2 3 0 0  and 9 0 0 1 0 
68791890		 # 	collision with: 8 8 3 0 0  and 6 5 0 1 0 
68791905		 # 	collision with: 3 0 5 0 0  and 3 1 5 0 0 
68791907		 # 	collision with: 10 0 2 0 0  and 10 2 2 0 0 
68791917		 # 	collision with: 9 1 1 0 0  and 9 2 1 0 0 
68792037		 # 	collision with: 3 0 5 0 0  and 3 1 5 0 0 
68792039		 # 	collision with: 10 0 2 0 0  and 10 2 2 0 0 
68792045		 # 	collision with: 3 0 4 0 0  and 3 0 6 0 0 
68792047		 # 	collision with: 0 1 3 0 0  and 6 2 3 0 0 
68792071		 # 	collision with: 9 3 3 0 0  and 8 4 3 0 0 
68792085		 # 	collision with: 3 1 4 0 0  and 3 0 6 0 0 
68792087		 # 	collision with: 4 3 5 0 0  and 2 4 5 0 0 
68792113		 # 	collision with: 5 6 3 0 0  and 6 6 3 0 0 
68792115		 # 	collision with: 7 3 3 0 0  and 10 4 3 0 0 
68792193		 # 	collision with: 7 0 4 0 0  and 7 0 6 0 0 
68792195		 # 	collision with: 4 5 1 0 0  and 4 6 1 0 0 
68792223		 # 	collision with: 10 0 5 0 0  and 10 2 5 0 0 
68792237		 # 	collision with: 10 0 3 0 0  and 1 2 3 0 0 
68792239		 # 	collision with: 4 5 1 0 0  and 4 6 1 0 0 
68792261		 # 	collision with: 5 6 3 0 0  and 6 6 3 0 0 
68792269		 # 	collision with: 9 1 1 0 0  and 9 2 1 0 0 
68792271		 # 	collision with: 10 3 2 0 0  and 7 4 2 0 0 
68792372		 # 	collision with: 6 4 7 0 0  and 9 3 0 1 0 
68792374		 # 	collision with: 5 7 9 0 0  and 7 2 2 1 0 
68792389		 # 	collision with: 4 2 1 0 0  and 4 3 1 0 0 
68792391		 # 	collision with: 2 9 0 0 0  and 4 9 0 0 0 
68792403		 # 	collision with: 10 0 1 0 0  and 10 2 1 0 0 
68792521		 # 	collision with: 4 2 1 0 0  and 4 3 1 0 0 
68792523		 # 	collision with: 2 9 0 0 0  and 4 9 0 0 0 
68792529		 # 	collision with: 5 6 2 0 0  and 6 6 2 0 0 
68792531		 # 	collision with: 0 3 4 0 0  and 6 4 4 0 0 
68792553		 # 	collision with: 7 7 4 0 0  and 7 7 5 0 0 
68792555		 # 	collision with: 6 3 1 0 0  and 6 5 1 0 0 
68792569		 # 	collision with: 8 4 2 0 0  and 3 6 2 0 0 
68792571		 # 	collision with: 0 5 4 0 0  and 6 6 4 0 0 
68792597		 # 	collision with: 5 6 5 0 0  and 6 6 5 0 0 
68792599		 # 	collision with: 6 3 1 0 0  and 6 5 1 0 0 
68792677		 # 	collision with: 8 4 1 0 0  and 8 6 1 0 0 
68792679		 # 	collision with: 0 4 0 0 0  and 6 5 0 0 0 
68792705		 # 	collision with: 1 1 1 0 0  and 10 2 1 0 0 
68792707		 # 	collision with: 0 1 1 0 0  and 6 2 1 0 0 
68792721		 # 	collision with: 8 4 1 0 0  and 8 6 1 0 0 
68792723		 # 	collision with: 0 4 0 0 0  and 6 5 0 0 0 
68792745		 # 	collision with: 10 2 3 0 0  and 1 3 3 0 0 
68792747		 # 	collision with: 2 9 3 0 0  and 4 9 3 0 0 
68792753		 # 	collision with: 5 6 0 0 0  and 6 6 0 0 0 
68792755		 # 	collision with: 10 0 1 0 0  and 10 2 1 0 0 
68792856		 # 	collision with: 9 0 1 0 0  and 0 9 0 1 0 
68792858		 # 	collision with: 10 0 1 0 0  and 2 5 0 1 0 
68792873		 # 	collision with: 1 3 0 0 0  and 10 5 0 0 0 
68792875		 # 	collision with: 5 3 3 0 0  and 1 4 3 0 0 
68792885		 # 	collision with: 2 3 0 0 0  and 2 5 0 0 0 
68792887		 # 	collision with: 5 9 3 0 0  and 1 1 5 0 0 
68793005		 # 	collision with: 1 3 0 0 0  and 10 5 0 0 0 
68793007		 # 	collision with: 1 3 3 0 0  and 5 4 3 0 0 
68793013		 # 	collision with: 10 3 2 0 0  and 10 4 2 0 0 
68793015		 # 	collision with: 6 3 0 0 0  and 6 5 0 0 0 
68793037		 # 	collision with: 2 3 1 0 0  and 9 4 1 0 0 
68793039		 # 	collision with: 2 9 1 0 0  and 4 9 1 0 0 
68793053		 # 	collision with: 5 6 0 0 0  and 6 6 0 0 0 
68793055		 # 	collision with: 2 9 3 0 0  and 4 9 3 0 0 
68793081		 # 	collision with: 1 9 3 0 0  and 10 1 5 0 0 
68793083		 # 	collision with: 9 3 1 0 0  and 8 4 1 0 0 
68793161		 # 	collision with: 8 7 3 0 0  and 3 0 5 0 0 
68793163		 # 	collision with: 2 9 0 0 0  and 4 9 0 0 0 
68793189		 # 	collision with: 10 3 2 0 0  and 10 4 2 0 0 
68793191		 # 	collision with: 6 3 0 0 0  and 6 5 0 0 0 
68793205		 # 	collision with: 5 6 2 0 0  and 6 6 2 0 0 
68793207		 # 	collision with: 2 9 0 0 0  and 4 9 0 0 0 
68793229		 # 	collision with: 5 6 0 0 0  and 6 6 0 0 0 
68793231		 # 	collision with: 0 1 1 0 0  and 6 2 1 0 0 
68793237		 # 	collision with: 2 3 0 0 0  and 2 5 0 0 0 
68793239		 # 	collision with: 2 9 2 0 0  and 4 9 2 0 0 
68793340		 # 	collision with: 5 7 9 0 0  and 7 0 0 1 0 
68793342		 # 	collision with: 4 0 9 0 0  and 9 1 0 1 0 
68793357		 # 	collision with: 8 4 2 0 0  and 3 6 2 0 0 
68793359		 # 	collision with: 9 3 0 0 0  and 8 4 0 0 0 
68793369		 # 	collision with: 1 3 3 0 0  and 10 5 3 0 0 
68793371		 # 	collision with: 3 3 0 0 0  and 3 4 0 0 0 
68793489		 # 	collision with: 6 2 3 0 0  and 5 4 3 0 0 
68793491		 # 	collision with: 9 3 0 0 0  and 8 4 0 0 0 
68793497		 # 	collision with: 2 3 0 0 0  and 9 4 0 0 0 
68793499		 # 	collision with: 1 3 0 0 0  and 5 4 0 0 0 
68793521		 # 	collision with: 10 3 0 0 0  and 10 4 0 0 0 
68793523		 # 	collision with: 6 3 0 0 0  and 0 4 0 0 0 
68793537		 # 	collision with: 5 2 3 0 0  and 5 2 4 0 0 
68793565		 # 	collision with: 10 3 0 0 0  and 10 4 0 0 0 
68793567		 # 	collision with: 6 3 0 0 0  and 0 4 0 0 0 
68793645		 # 	collision with: 9 4 2 0 0  and 2 5 2 0 0 
68793673		 # 	collision with: 2 3 0 0 0  and 9 4 0 0 0 
68793675		 # 	collision with: 1 3 0 0 0  and 5 4 0 0 0 
68793689		 # 	collision with: 4 1 3 0 0  and 4 1 4 0 0 
68793691		 # 	collision with: 2 3 0 0 0  and 4 4 0 0 0 
68793713		 # 	collision with: 8 2 3 0 0  and 8 2 4 0 0 
68793715		 # 	collision with: 2 9 0 0 0  and 4 9 0 0 0 
68793721		 # 	collision with: 10 5 3 0 0  and 1 3 4 0 0 
68793723		 # 	collision with: 3 3 0 0 0  and 3 4 0 0 0 
68793824		 # 	collision with: 2 1 5 0 0  and 10 6 0 1 0 
68793826		 # 	collision with: 1 7 5 0 0  and 4 3 0 1 0 
68793841		 # 	collision with: 7 2 0 0 0  and 7 4 0 0 0 
68793843		 # 	collision with: 7 2 2 0 0  and 10 5 4 0 0 
68793853		 # 	collision with: 7 9 2 0 0  and 4 0 4 0 0 
68793855		 # 	collision with: 10 3 3 0 0  and 7 4 3 0 0 
68793973		 # 	collision with: 7 2 0 0 0  and 7 4 0 0 0 
68793983		 # 	collision with: 1 1 2 0 0  and 1 1 4 0 0 
191.274secs	70399
