# prime 11
# degree 2
# input variables 3
# output variables 3
# reload computed balance functions from file balance-186of3248-p11d2m3-debug.log
# p = 11
# n = 3
# smalldomain p^m 1331
# domain p^n 1331
#	 p^2 = 121
#	 p^3 = 1331
#	 p^4 = 14641
#	 p^5 = 161051
#	 p^6 = 1771561
#	 p^7 = 19487171
#	 p^8 = 214358881
#	 p^9 = 2357947691
opening file : balance-186of3248-p11d2m3-debug.log
reloading for step2...
1116016		 # 	collision with: 5 0 0  and 3 1 0 
1116018		 # 	collision with: 5 10 0  and 8 2 1 
1116045		 # 	collision with: 1 3 0  and 10 5 0 
1116047		 # 	collision with: 4 2 0  and 2 4 0 
1116060		 # 	collision with: 1 7 0  and 7 0 1 
1116062		 # 	collision with: 9 10 0  and 2 1 1 
1116073		 # 	collision with: 8 1 0  and 8 0 1 
1116075		 # 	collision with: 4 2 0  and 2 4 0 
1116104		 # 	collision with: 9 2 0  and 3 0 1 
1116106		 # 	collision with: 9 1 0  and 9 0 1 
1116108		 # 	collision with: 0 4 0  and 1 4 0 
1116112		 # 	collision with: 1 10 0  and 10 0 1 
1116114		 # 	collision with: 3 7 0  and 2 0 1 
1116116		 # 	collision with: 4 8 0  and 0 0 1 
1116118		 # 	collision with: 4 10 0  and 2 0 1 
1116120		 # 	collision with: 4 6 0  and 1 1 1 
1116122		 # 	collision with: 10 9 0  and 8 1 1 
1116124		 # 	collision with: 10 1 0  and 2 1 1 
1116126		 # 	collision with: 10 1 0  and 3 0 1 
1116128		 # 	collision with: 1 2 0  and 3 0 1 
1116130		 # 	collision with: 2 7 0  and 9 1 1 
1116132		 # 	collision with: 7 4 0  and 3 1 1 
1116134		 # 	collision with: 4 4 0  and 8 1 1 
1116136		 # 	collision with: 3 7 0  and 6 0 1 
1116138		 # 	collision with: 8 2 0  and 6 0 1 
1116140		 # 	collision with: 6 7 0  and 6 0 1 
1116142		 # 	collision with: 5 0 0  and 9 1 0 
1116144		 # 	collision with: 2 4 0  and 3 0 2 
1116146		 # 	collision with: 7 7 0  and 1 4 1 
1116183		 # 	collision with: 5 1 0  and 0 2 0 
1116192		 # 	collision with: 6 9 0  and 2 0 1 
1116194		 # 	collision with: 5 6 0  and 2 0 1 
1116209		 # 	collision with: 3 1 0  and 10 2 0 
1116211		 # 	collision with: 3 2 0  and 2 3 0 
1116236		 # 	collision with: 9 8 0  and 4 1 1 
1116238		 # 	collision with: 7 6 0  and 1 0 1 
1116277		 # 	collision with: 4 3 0  and 7 5 0 
1116279		 # 	collision with: 3 2 0  and 2 3 0 
1116280		 # 	collision with: 9 0 0  and 1 1 0 
1116282		 # 	collision with: 3 2 0  and 2 0 1 
1116289		 # 	collision with: 3 3 0  and 8 5 0 
1116291		 # 	collision with: 3 2 0  and 2 3 0 
1116324		 # 	collision with: 1 7 0  and 5 1 1 
1116326		 # 	collision with: 1 7 0  and 2 0 1 
1116349		 # 	collision with: 3 7 0  and 6 0 1 
1116351		 # 	collision with: 3 2 0  and 2 3 0 
1116368		 # 	collision with: 1 2 0  and 10 0 1 
1116370		 # 	collision with: 9 2 0  and 2 3 1 
1116389		 # 	collision with: 2 8 0  and 0 2 1 
1116391		 # 	collision with: 3 2 0  and 2 3 0 
1116412		 # 	collision with: 9 8 0  and 6 1 1 
1116414		 # 	collision with: 4 6 0  and 2 3 1 
1116449		 # 	collision with: 2 4 0  and 0 6 0 
1116451		 # 	collision with: 3 2 0  and 2 3 0 
1116456		 # 	collision with: 3 9 0  and 8 1 1 
1116458		 # 	collision with: 0 9 0  and 2 0 1 
1116461		 # 	collision with: 2 1 0  and 7 2 1 
1116463		 # 	collision with: 3 2 0  and 2 3 0 
1116500		 # 	collision with: 5 1 0  and 5 0 1 
1116502		 # 	collision with: 2 0 0  and 5 1 0 
1116529		 # 	collision with: 0 3 0  and 10 4 0 
1116531		 # 	collision with: 3 2 0  and 2 3 0 
1116544		 # 	collision with: 8 4 0  and 3 1 1 
1116546		 # 	collision with: 7 7 0  and 4 1 1 
1116557		 # 	collision with: 5 1 0  and 2 2 0 
1116559		 # 	collision with: 10 1 0  and 0 3 0 
1116588		 # 	collision with: 5 4 0  and 6 2 1 
1116590		 # 	collision with: 5 1 0  and 5 0 1 
1116592		 # 	collision with: 6 5 0  and 9 0 1 
1116594		 # 	collision with: 4 7 0  and 7 2 1 
1116596		 # 	collision with: 0 8 0  and 1 0 1 
1116598		 # 	collision with: 6 3 0  and 1 0 2 
1116600		 # 	collision with: 5 10 0  and 3 0 1 
1116602		 # 	collision with: 5 6 0  and 7 3 1 
1116604		 # 	collision with: 5 6 0  and 3 1 1 
1116606		 # 	collision with: 1 1 0  and 7 0 1 
1116608		 # 	collision with: 1 10 0  and 3 0 1 
1116610		 # 	collision with: 9 7 0  and 1 0 1 
1116612		 # 	collision with: 6 9 0  and 3 1 1 
1116614		 # 	collision with: 2 0 0  and 5 1 0 
1116616		 # 	collision with: 10 5 0  and 9 0 1 
1116618		 # 	collision with: 8 4 0  and 10 1 1 
1116620		 # 	collision with: 9 1 0  and 3 1 1 
1116622		 # 	collision with: 6 2 0  and 3 1 1 
1116624		 # 	collision with: 0 4 0  and 1 4 0 
1116628		 # 	collision with: 4 7 0  and 0 0 1 
1116630		 # 	collision with: 6 0 1  and 4 1 1 
1116632		 # 	collision with: 1 1 0  and 1 0 1 
1116634		 # 	collision with: 1 5 0  and 5 0 1 
1116665		 # 	collision with: 1 3 0  and 3 0 1 
1116676		 # 	collision with: 10 7 0  and 1 0 1 
1116678		 # 	collision with: 9 5 1  and 2 0 2 
1116693		 # 	collision with: 8 2 0  and 5 3 0 
1116695		 # 	collision with: 2 0 0  and 5 1 0 
1116720		 # 	collision with: 3 7 0  and 8 1 1 
1116722		 # 	collision with: 3 8 0  and 9 1 1 
1116761		 # 	collision with: 2 0 0  and 4 2 0 
1116763		 # 	collision with: 3 1 0  and 1 3 0 
1116764		 # 	collision with: 3 3 0  and 7 1 1 
1116766		 # 	collision with: 7 1 0  and 1 0 1 
1116773		 # 	collision with: 6 1 0  and 4 0 1 
1116775		 # 	collision with: 3 1 0  and 1 3 0 
1116808		 # 	collision with: 8 1 0  and 1 2 0 
1116810		 # 	collision with: 7 9 0  and 0 1 1 
1116833		 # 	collision with: 8 4 0  and 0 5 0 
1116835		 # 	collision with: 3 1 0  and 1 3 0 
1116852		 # 	collision with: 2 4 0  and 3 0 1 
1116854		 # 	collision with: 5 0 0  and 9 1 0 
1116873		 # 	collision with: 4 6 0  and 10 7 0 
1116875		 # 	collision with: 3 1 0  and 1 3 0 
1116896		 # 	collision with: 5 6 0  and 6 0 1 
1116898		 # 	collision with: 1 4 0  and 6 1 1 
1116933		 # 	collision with: 1 4 0  and 0 5 0 
1116935		 # 	collision with: 3 1 0  and 1 3 0 
1116940		 # 	collision with: 4 6 0  and 1 0 1 
1116942		 # 	collision with: 9 1 0  and 6 1 1 
1116945		 # 	collision with: 0 2 0  and 6 4 0 
1117015		 # 	collision with: 3 1 0  and 1 3 0 
1117028		 # 	collision with: 0 10 0  and 3 0 1 
1117030		 # 	collision with: 6 1 0  and 4 1 1 
1117041		 # 	collision with: 0 3 0  and 1 4 0 
1117043		 # 	collision with: 3 1 0  and 1 3 0 
1117072		 # 	collision with: 8 5 0  and 0 0 1 
1117074		 # 	collision with: 1 1 0  and 1 0 1 
1117076		 # 	collision with: 9 8 0  and 2 0 1 
1117078		 # 	collision with: 9 5 0  and 1 0 1 
1117080		 # 	collision with: 7 8 0  and 2 0 1 
1117082		 # 	collision with: 1 5 0  and 5 0 1 
1117084		 # 	collision with: 2 6 0  and 5 2 1 
1117086		 # 	collision with: 10 0 0  and 1 1 0 
1117088		 # 	collision with: 4 1 0  and 1 0 1 
1117090		 # 	collision with: 1 2 0  and 2 0 1 
1117092		 # 	collision with: 7 5 0  and 1 1 1 
1117094		 # 	collision with: 1 10 0  and 10 0 1 
1117096		 # 	collision with: 0 4 0  and 1 4 0 
1117100		 # 	collision with: 3 4 0  and 3 0 1 
1117102		 # 	collision with: 1 8 0  and 8 0 1 
1117104		 # 	collision with: 9 0 0  and 0 9 1 
1117106		 # 	collision with: 10 5 0  and 6 0 1 
1117108		 # 	collision with: 8 2 0  and 1 0 2 
1117110		 # 	collision with: 1 3 0  and 3 0 1 
1117112		 # 	collision with: 1 1 0  and 1 0 1 
1117114		 # 	collision with: 1 7 0  and 7 0 1 
1117116		 # 	collision with: 7 0 0  and 2 1 0 
1117118		 # 	collision with: 5 9 0  and 0 1 1 
1117149		 # 	collision with: 9 0 0  and 1 1 0 
1117151		 # 	collision with: 2 1 0  and 1 2 0 
1117160		 # 	collision with: 6 8 0  and 6 2 1 
1117162		 # 	collision with: 8 6 0  and 4 0 1 
1117177		 # 	collision with: 0 2 0  and 10 4 0 
1117204		 # 	collision with: 4 7 0  and 10 0 1 
1117206		 # 	collision with: 0 0 0  and 6 1 0 
1117245		 # 	collision with: 8 10 0  and 0 0 1 
1117247		 # 	collision with: 2 1 0  and 1 2 0 
1117248		 # 	collision with: 1 9 0  and 9 0 1 
1117250		 # 	collision with: 10 9 0  and 6 1 1 
1117257		 # 	collision with: 4 1 0  and 6 2 0 
1117292		 # 	collision with: 6 0 0  and 0 6 1 
1117294		 # 	collision with: 2 10 0  and 9 0 1 
1117317		 # 	collision with: 4 0 0  and 9 1 0 
1117319		 # 	collision with: 2 1 0  and 1 2 0 
1117359		 # 	collision with: 2 1 0  and 1 2 0 
1117380		 # 	collision with: 3 10 0  and 3 0 1 
1117382		 # 	collision with: 6 1 0  and 5 2 1 
1117417		 # 	collision with: 0 2 0  and 6 4 0 
1117419		 # 	collision with: 2 1 0  and 1 2 0 
1117424		 # 	collision with: 5 3 0  and 1 1 1 
1117426		 # 	collision with: 9 2 0  and 3 1 1 
1117429		 # 	collision with: 10 1 0  and 7 0 1 
1117431		 # 	collision with: 2 1 0  and 1 2 0 
1117468		 # 	collision with: 5 10 0  and 0 0 1 
1117470		 # 	collision with: 6 8 0  and 4 0 1 
1117497		 # 	collision with: 10 2 0  and 9 3 0 
1117499		 # 	collision with: 8 0 0  and 2 1 0 
1117512		 # 	collision with: 2 5 0  and 7 0 1 
1117514		 # 	collision with: 6 0 0  and 1 5 1 
1117525		 # 	collision with: 5 6 0  and 5 1 1 
1117527		 # 	collision with: 10 0 0  and 1 1 0 
1117556		 # 	collision with: 7 5 0  and 2 0 1 
1117558		 # 	collision with: 7 0 0  and 8 1 0 
1117560		 # 	collision with: 7 2 0  and 1 1 1 
1117562		 # 	collision with: 5 8 0  and 2 0 1 
1117564		 # 	collision with: 8 2 1  and 2 0 2 
1117566		 # 	collision with: 9 1 0  and 2 0 1 
1117568		 # 	collision with: 0 4 0  and 1 4 0 
1117572		 # 	collision with: 8 1 0  and 8 0 1 
1117574		 # 	collision with: 9 8 0  and 0 0 1 
1117576		 # 	collision with: 2 6 0  and 0 1 1 
1117578		 # 	collision with: 5 3 0  and 5 0 1 
1117580		 # 	collision with: 6 4 0  and 1 0 2 
1117582		 # 	collision with: 6 10 1  and 8 0 2 
1117584		 # 	collision with: 10 8 0  and 3 0 1 
1117586		 # 	collision with: 2 2 0  and 6 0 1 
1117588		 # 	collision with: 10 5 0  and 8 1 1 
1117590		 # 	collision with: 2 9 0  and 0 2 1 
1117592		 # 	collision with: 9 3 0  and 5 0 1 
1117594		 # 	collision with: 2 3 0  and 1 0 1 
1117596		 # 	collision with: 3 0 0  and 2 3 1 
1117598		 # 	collision with: 7 7 0  and 6 0 1 
1117600		 # 	collision with: 10 1 0  and 1 10 1 
1117602		 # 	collision with: 8 5 0  and 0 2 1 
1117633		 # 	collision with: 3 1 0  and 3 0 1 
1117635		 # 	collision with: 2 0 0  and 0 2 0 
1117644		 # 	collision with: 3 4 0  and 1 0 1 
1117646		 # 	collision with: 1 5 0  and 3 0 1 
1117661		 # 	collision with: 6 5 0  and 3 0 1 
1117663		 # 	collision with: 2 0 0  and 0 2 0 
1117731		 # 	collision with: 8 0 0  and 2 1 0 
1117732		 # 	collision with: 1 4 0  and 2 0 2 
1117734		 # 	collision with: 8 9 0  and 0 0 1 
1117741		 # 	collision with: 6 1 0  and 7 3 0 
1117743		 # 	collision with: 2 0 0  and 0 2 0 
1117776		 # 	collision with: 9 0 0  and 2 3 1 
1117778		 # 	collision with: 2 7 0  and 1 0 1 
1117801		 # 	collision with: 7 4 0  and 0 5 0 
1117803		 # 	collision with: 2 0 0  and 0 2 0 
1117820		 # 	collision with: 4 8 0  and 10 1 1 
1117822		 # 	collision with: 2 7 1  and 7 1 2 
1117841		 # 	collision with: 9 6 0  and 0 2 1 
1117843		 # 	collision with: 2 0 0  and 5 1 0 
1117864		 # 	collision with: 10 4 0  and 3 1 1 
1117866		 # 	collision with: 6 6 0  and 2 1 1 
1117901		 # 	collision with: 0 3 0  and 10 4 0 
1117903		 # 	collision with: 2 0 0  and 0 2 0 
1117908		 # 	collision with: 2 10 0  and 9 0 1 
1117910		 # 	collision with: 9 2 0  and 2 0 1 
1117913		 # 	collision with: 0 3 0  and 6 4 0 
1117915		 # 	collision with: 2 0 0  and 0 2 0 
1117952		 # 	collision with: 9 7 0  and 8 0 1 
1117954		 # 	collision with: 7 4 0  and 5 0 1 
1117981		 # 	collision with: 3 0 0  and 6 2 0 
1117983		 # 	collision with: 2 0 0  and 0 2 0 
1117996		 # 	collision with: 9 3 0  and 2 1 1 
1117998		 # 	collision with: 1 8 0  and 8 0 1 
1118009		 # 	collision with: 6 0 0  and 1 2 0 
1118011		 # 	collision with: 2 0 0  and 0 2 0 
1118046		 # 	collision with: 4 2 0  and 4 4 0 
1118050		 # 	collision with: 4 0 0  and 4 2 0 
1118054		 # 	collision with: 4 4 0  and 4 5 0 
1118058		 # 	collision with: 4 2 0  and 4 3 0 
1118062		 # 	collision with: 4 0 0  and 4 1 0 
1118066		 # 	collision with: 4 3 0  and 4 5 0 
1118070		 # 	collision with: 4 1 0  and 4 3 0 
1118074		 # 	collision with: 4 5 0  and 4 6 0 
1118078		 # 	collision with: 4 3 0  and 4 4 0 
1118082		 # 	collision with: 4 1 0  and 4 2 0 
1118101		 # 	collision with: 3 1 0  and 3 0 1 
1118103		 # 	collision with: 10 7 0  and 8 0 1 
1118112		 # 	collision with: 4 0 0  and 6 0 0 
1118114		 # 	collision with: 0 9 0  and 1 0 1 
1118140		 # 	collision with: 4 0 0  and 6 0 0 
1118142		 # 	collision with: 8 1 0  and 7 2 0 
1118157		 # 	collision with: 2 0 0  and 10 2 0 
1118159		 # 	collision with: 6 0 0  and 9 1 0 
1118209		 # 	collision with: 9 0 0  and 7 1 0 
1118211		 # 	collision with: 9 3 0  and 6 5 0 
1118212		 # 	collision with: 4 0 0  and 6 0 0 
1118214		 # 	collision with: 3 2 0  and 5 4 0 
1118240		 # 	collision with: 4 0 0  and 6 0 0 
1118242		 # 	collision with: 2 6 0  and 4 7 0 
1118249		 # 	collision with: 10 0 0  and 5 2 0 
1118268		 # 	collision with: 4 0 0  and 6 0 0 
1118270		 # 	collision with: 5 10 0  and 0 0 1 
1118293		 # 	collision with: 0 0 0  and 2 1 0 
1118295		 # 	collision with: 7 1 0  and 7 0 1 
1118317		 # 	collision with: 7 4 0  and 9 6 0 
1118319		 # 	collision with: 4 4 0  and 4 5 0 
1118340		 # 	collision with: 4 0 0  and 6 0 0 
1118342		 # 	collision with: 6 2 0  and 6 0 1 
1118361		 # 	collision with: 0 10 0  and 4 0 1 
1118368		 # 	collision with: 4 0 0  and 6 0 0 
1118370		 # 	collision with: 9 10 0  and 6 0 1 
1118396		 # 	collision with: 4 0 0  and 6 0 0 
1118398		 # 	collision with: 4 0 0  and 9 1 0 
1118401		 # 	collision with: 6 3 0  and 7 3 1 
1118403		 # 	collision with: 0 2 0  and 2 3 0 
1118453		 # 	collision with: 4 4 0  and 8 6 0 
1118455		 # 	collision with: 7 4 0  and 4 5 0 
1118468		 # 	collision with: 4 0 0  and 6 0 0 
1118470		 # 	collision with: 7 3 0  and 5 4 0 
1118496		 # 	collision with: 4 0 0  and 6 0 0 
1118498		 # 	collision with: 3 2 0  and 7 3 0 
1118509		 # 	collision with: 2 2 0  and 4 4 0 
1118511		 # 	collision with: 4 1 0  and 4 3 0 
1118524		 # 	collision with: 0 0 0  and 1 1 1 
1118526		 # 	collision with: 6 5 0  and 5 6 0 
1118528		 # 	collision with: 3 10 0  and 4 10 0 
1118530		 # 	collision with: 6 5 0  and 5 6 0 
1118532		 # 	collision with: 1 5 0  and 2 5 0 
1118534		 # 	collision with: 6 5 0  and 5 6 0 
1118536		 # 	collision with: 4 7 0  and 5 7 0 
1118538		 # 	collision with: 6 5 0  and 5 6 0 
1118540		 # 	collision with: 0 8 0  and 1 8 0 
1118542		 # 	collision with: 6 5 0  and 5 6 0 
1118544		 # 	collision with: 2 2 0  and 3 2 0 
1118546		 # 	collision with: 3 0 0  and 2 1 0 
1118548		 # 	collision with: 1 9 0  and 3 9 0 
1118550		 # 	collision with: 6 5 0  and 5 6 0 
1118552		 # 	collision with: 3 3 0  and 5 3 0 
1118554		 # 	collision with: 6 5 0  and 5 6 0 
1118556		 # 	collision with: 5 4 0  and 6 4 0 
1118560		 # 	collision with: 2 6 0  and 4 6 0 
1118562		 # 	collision with: 6 5 0  and 5 6 0 
1118564		 # 	collision with: 0 1 0  and 2 1 0 
1118566		 # 	collision with: 6 5 0  and 5 6 0 
1118585		 # 	collision with: 4 0 0  and 6 0 0 
1118587		 # 	collision with: 6 5 0  and 5 6 0 
1118596		 # 	collision with: 2 0 0  and 10 2 0 
1118598		 # 	collision with: 9 4 0  and 3 6 0 
1118624		 # 	collision with: 9 3 0  and 8 4 0 
1118626		 # 	collision with: 6 5 0  and 5 6 0 
1118641		 # 	collision with: 4 0 0  and 6 0 0 
1118643		 # 	collision with: 6 5 0  and 5 6 0 
1118693		 # 	collision with: 4 0 0  and 6 0 0 
1118695		 # 	collision with: 6 5 0  and 5 6 0 
1118696		 # 	collision with: 4 2 0  and 5 3 0 
1118698		 # 	collision with: 6 5 0  and 5 6 0 
1118724		 # 	collision with: 2 1 0  and 5 2 0 
1118726		 # 	collision with: 9 3 0  and 6 5 0 
1118733		 # 	collision with: 4 0 0  and 6 0 0 
1118735		 # 	collision with: 4 5 0  and 2 6 0 
1118752		 # 	collision with: 0 7 0  and 2 0 1 
1118754		 # 	collision with: 6 5 0  and 5 6 0 
1118777		 # 	collision with: 4 0 0  and 6 0 0 
1118779		 # 	collision with: 2 2 0  and 3 2 0 
1118801		 # 	collision with: 4 0 0  and 6 0 0 
1118803		 # 	collision with: 6 5 0  and 5 6 0 
1118824		 # 	collision with: 2 4 0  and 10 5 0 
1118845		 # 	collision with: 4 0 0  and 6 0 0 
1118847		 # 	collision with: 9 4 0  and 3 6 0 
1118852		 # 	collision with: 8 1 0  and 1 3 0 
1118854		 # 	collision with: 6 0 0  and 1 2 0 
1118882		 # 	collision with: 3 1 0  and 8 2 0 
1118937		 # 	collision with: 4 0 0  and 6 0 0 
1118952		 # 	collision with: 4 5 0  and 3 7 0 
1118954		 # 	collision with: 0 0 0  and 1 1 0 
1118980		 # 	collision with: 5 3 0  and 1 0 1 
1118982		 # 	collision with: 6 3 0  and 8 4 0 
1118993		 # 	collision with: 4 0 0  and 6 0 0 
1118995		 # 	collision with: 6 5 0  and 5 6 0 
1119008		 # 	collision with: 1 9 0  and 2 0 1 
1119010		 # 	collision with: 10 1 0  and 8 2 0 
1119012		 # 	collision with: 1 9 0  and 3 9 0 
1119014		 # 	collision with: 4 5 0  and 2 6 0 
1119016		 # 	collision with: 3 10 0  and 4 10 0 
1119018		 # 	collision with: 3 4 0  and 10 6 0 
1119020		 # 	collision with: 3 3 0  and 5 3 0 
1119022		 # 	collision with: 2 1 0  and 9 3 0 
1119024		 # 	collision with: 1 5 0  and 2 5 0 
1119026		 # 	collision with: 7 3 0  and 5 4 0 
1119028		 # 	collision with: 5 4 0  and 6 4 0 
1119032		 # 	collision with: 4 7 0  and 5 7 0 
1119034		 # 	collision with: 6 0 0  and 4 1 0 
1119036		 # 	collision with: 2 6 0  and 4 6 0 
1119038		 # 	collision with: 6 2 0  and 2 4 0 
1119040		 # 	collision with: 0 8 0  and 1 8 0 
1119042		 # 	collision with: 3 2 0  and 1 3 0 
1119044		 # 	collision with: 0 1 0  and 2 1 0 
1119046		 # 	collision with: 9 0 0  and 5 2 0 
1119048		 # 	collision with: 2 2 0  and 3 2 0 
1119050		 # 	collision with: 4 9 0  and 7 1 1 
1119069		 # 	collision with: 8 5 0  and 10 6 0 
1119071		 # 	collision with: 4 2 0  and 4 3 0 
1119080		 # 	collision with: 8 3 0  and 0 4 0 
1119108		 # 	collision with: 0 1 0  and 5 2 0 
1119110		 # 	collision with: 10 3 0  and 8 5 0 
1119125		 # 	collision with: 4 7 0  and 5 0 1 
1119127		 # 	collision with: 0 4 0  and 5 5 0 
1119177		 # 	collision with: 2 0 0  and 6 2 0 
1119179		 # 	collision with: 1 3 0  and 6 4 0 
1119180		 # 	collision with: 2 8 0  and 9 2 1 
1119182		 # 	collision with: 1 2 0  and 7 4 0 
1119208		 # 	collision with: 0 0 0  and 1 1 1 
1119210		 # 	collision with: 7 4 0  and 4 5 0 
1119217		 # 	collision with: 4 7 0  and 1 0 1 
1119219		 # 	collision with: 9 0 0  and 5 2 0 
1119238		 # 	collision with: 4 0 0  and 4 2 0 
1119263		 # 	collision with: 4 5 0  and 4 6 0 
1119285		 # 	collision with: 2 2 0  and 4 4 0 
1119287		 # 	collision with: 1 9 0  and 3 9 0 
1119308		 # 	collision with: 9 5 0  and 10 7 0 
1119310		 # 	collision with: 8 5 0  and 1 6 0 
1119329		 # 	collision with: 10 10 0  and 6 0 1 
1119331		 # 	collision with: 5 7 0  and 6 1 1 
1119336		 # 	collision with: 1 2 0  and 2 0 1 
1119338		 # 	collision with: 10 0 0  and 1 1 0 
1119364		 # 	collision with: 3 6 0  and 0 0 1 
1119366		 # 	collision with: 2 2 0  and 7 3 0 
1119369		 # 	collision with: 8 9 0  and 3 0 1 
1119371		 # 	collision with: 3 1 1  and 0 2 1 
1119421		 # 	collision with: 5 4 0  and 6 0 1 
1119423		 # 	collision with: 0 9 0  and 1 0 1 
1119436		 # 	collision with: 9 2 0  and 5 4 0 
1119438		 # 	collision with: 3 4 0  and 2 0 1 
1119464		 # 	collision with: 1 2 0  and 5 3 0 
1119466		 # 	collision with: 1 4 0  and 4 0 1 
1119477		 # 	collision with: 4 2 0  and 5 3 0 
1119479		 # 	collision with: 0 1 0  and 2 1 0 
1119492		 # 	collision with: 4 5 0  and 3 0 1 
1119494		 # 	collision with: 8 3 0  and 2 5 0 
1119496		 # 	collision with: 0 8 0  and 1 8 0 
1119498		 # 	collision with: 6 6 0  and 2 1 1 
1119500		 # 	collision with: 5 4 0  and 6 4 0 
1119504		 # 	collision with: 3 10 0  and 4 10 0 
1119506		 # 	collision with: 4 1 0  and 1 2 0 
1119508		 # 	collision with: 2 2 0  and 3 2 0 
1119510		 # 	collision with: 7 2 0  and 1 4 0 
1119512		 # 	collision with: 2 6 0  and 4 6 0 
1119514		 # 	collision with: 5 0 0  and 10 2 0 
1119516		 # 	collision with: 1 5 0  and 2 5 0 
1119518		 # 	collision with: 6 1 0  and 0 3 0 
1119520		 # 	collision with: 1 9 0  and 3 9 0 
1119522		 # 	collision with: 7 4 0  and 4 5 0 
1119524		 # 	collision with: 0 1 0  and 2 1 0 
1119526		 # 	collision with: 8 5 0  and 5 6 0 
1119528		 # 	collision with: 4 7 0  and 5 7 0 
1119530		 # 	collision with: 6 3 0  and 3 4 0 
1119532		 # 	collision with: 3 3 0  and 5 3 0 
1119534		 # 	collision with: 9 4 0  and 3 6 0 
1119553		 # 	collision with: 5 2 0  and 8 3 0 
1119564		 # 	collision with: 6 5 0  and 4 0 1 
1119566		 # 	collision with: 0 10 0  and 8 0 1 
1119594		 # 	collision with: 5 1 0  and 9 2 0 
1119611		 # 	collision with: 5 5 0  and 3 0 1 
1119661		 # 	collision with: 5 9 0  and 4 0 1 
1119663		 # 	collision with: 4 3 0  and 4 4 0 
1119664		 # 	collision with: 6 1 0  and 8 2 0 
1119666		 # 	collision with: 7 8 0  and 6 0 1 
1119692		 # 	collision with: 6 4 0  and 9 1 1 
1119694		 # 	collision with: 6 3 0  and 7 0 1 
1119701		 # 	collision with: 9 4 0  and 4 1 1 
1119703		 # 	collision with: 2 1 0  and 9 3 0 
1119720		 # 	collision with: 2 2 0  and 4 4 0 
1119722		 # 	collision with: 2 2 0  and 6 4 0 
1119745		 # 	collision with: 2 0 0  and 10 2 0 
1119747		 # 	collision with: 10 4 0  and 0 5 0 
1119769		 # 	collision with: 5 1 0  and 7 3 0 
1119792		 # 	collision with: 7 3 0  and 4 5 0 
1119794		 # 	collision with: 1 5 0  and 0 0 1 
1119813		 # 	collision with: 4 9 0  and 9 0 1 
1119815		 # 	collision with: 9 2 0  and 1 4 0 
1119820		 # 	collision with: 1 1 0  and 1 0 1 
1119848		 # 	collision with: 0 0 0  and 1 1 1 
1119850		 # 	collision with: 6 0 0  and 4 1 0 
1119853		 # 	collision with: 4 1 0  and 7 0 1 
1119855		 # 	collision with: 3 2 0  and 7 3 0 
1119905		 # 	collision with: 10 0 0  and 2 1 0 
1119907		 # 	collision with: 4 2 0  and 4 3 0 
1119920		 # 	collision with: 6 6 0  and 5 3 1 
1119922		 # 	collision with: 7 4 0  and 2 6 0 
1119948		 # 	collision with: 10 2 0  and 4 3 0 
1119950		 # 	collision with: 6 5 0  and 1 6 0 
1119961		 # 	collision with: 7 4 0  and 9 6 0 
1119963		 # 	collision with: 10 5 0  and 2 6 0 
1119976		 # 	collision with: 4 2 0  and 3 1 1 
1119978		 # 	collision with: 8 9 0  and 3 1 1 
1119980		 # 	collision with: 4 7 0  and 5 7 0 
1119982		 # 	collision with: 3 2 0  and 6 4 0 
1119984		 # 	collision with: 1 9 0  and 3 9 0 
1119986		 # 	collision with: 4 2 0  and 7 4 0 
1119988		 # 	collision with: 2 6 0  and 4 6 0 
1119990		 # 	collision with: 8 2 0  and 0 4 0 
1119992		 # 	collision with: 3 10 0  and 4 10 0 
1119994		 # 	collision with: 10 2 0  and 2 4 0 
1119996		 # 	collision with: 0 8 0  and 1 8 0 
1119998		 # 	collision with: 9 2 0  and 1 4 0 
1120000		 # 	collision with: 3 3 0  and 5 3 0 
1120002		 # 	collision with: 1 2 0  and 4 4 0 
1120004		 # 	collision with: 0 1 0  and 2 1 0 
1120006		 # 	collision with: 0 2 0  and 3 4 0 
1120008		 # 	collision with: 1 5 0  and 2 5 0 
1120010		 # 	collision with: 2 2 0  and 5 4 0 
1120012		 # 	collision with: 2 2 0  and 3 2 0 
1120014		 # 	collision with: 6 2 0  and 9 4 0 
1120016		 # 	collision with: 5 4 0  and 6 4 0 
1120037		 # 	collision with: 0 2 0  and 8 3 0 
1120039		 # 	collision with: 5 10 0  and 3 1 1 
1120048		 # 	collision with: 9 3 0  and 3 4 0 
1120050		 # 	collision with: 9 1 0  and 1 2 0 
1120076		 # 	collision with: 3 4 0  and 2 5 0 
1120093		 # 	collision with: 0 6 0  and 9 7 0 
1120095		 # 	collision with: 9 1 0  and 4 2 0 
1120145		 # 	collision with: 1 2 0  and 2 0 1 
1120147		 # 	collision with: 6 4 0  and 4 4 1 
1120148		 # 	collision with: 1 9 0  and 9 0 1 
1120150		 # 	collision with: 3 1 0  and 2 2 1 
1120176		 # 	collision with: 1 2 0  and 4 1 1 
1120178		 # 	collision with: 7 9 0  and 4 1 1 
1120185		 # 	collision with: 0 7 0  and 7 3 1 
1120187		 # 	collision with: 6 2 0  and 2 4 0 
1120204		 # 	collision with: 9 3 0  and 2 5 0 
1120206		 # 	collision with: 0 2 0  and 8 4 0 
1120229		 # 	collision with: 2 7 0  and 1 2 1 
1120231		 # 	collision with: 1 3 0  and 6 4 0 
1120253		 # 	collision with: 8 0 0  and 10 2 0 
1120255		 # 	collision with: 7 1 0  and 0 3 0 
1120276		 # 	collision with: 2 3 0  and 3 0 1 
1120278		 # 	collision with: 7 0 0  and 2 1 0 
1120297		 # 	collision with: 6 3 0  and 4 1 1 
1120299		 # 	collision with: 3 1 0  and 3 0 1 
1120304		 # 	collision with: 2 2 0  and 7 4 0 
1120306		 # 	collision with: 0 7 0  and 9 0 1 
1120332		 # 	collision with: 2 5 0  and 8 4 1 
1120334		 # 	collision with: 0 4 0  and 5 5 0 
1120337		 # 	collision with: 3 6 0  and 1 3 1 
1120339		 # 	collision with: 4 5 0  and 1 0 1 
1120389		 # 	collision with: 9 10 0  and 3 0 1 
1120391		 # 	collision with: 3 6 0  and 4 0 1 
1120404		 # 	collision with: 3 8 0  and 6 0 1 
1120406		 # 	collision with: 1 3 0  and 3 0 1 
1120434		 # 	collision with: 4 2 0  and 4 3 0 
1120447		 # 	collision with: 5 1 0  and 7 2 0 
1120460		 # 	collision with: 1 5 0  and 5 1 1 
1120462		 # 	collision with: 5 0 0  and 6 2 0 
1120464		 # 	collision with: 2 6 0  and 4 6 0 
1120466		 # 	collision with: 9 1 0  and 4 2 0 
1120468		 # 	collision with: 3 3 0  and 5 3 0 
1120470		 # 	collision with: 0 3 0  and 1 5 0 
1120472		 # 	collision with: 2 2 0  and 3 2 0 
1120474		 # 	collision with: 7 1 0  and 8 3 0 
1120476		 # 	collision with: 4 7 0  and 5 7 0 
1120478		 # 	collision with: 4 4 0  and 10 5 0 
1120480		 # 	collision with: 3 10 0  and 4 10 0 
1120482		 # 	collision with: 2 4 0  and 3 6 0 
1120484		 # 	collision with: 0 1 0  and 2 1 0 
1120486		 # 	collision with: 7 0 0  and 2 1 0 
1120488		 # 	collision with: 5 4 0  and 6 4 0 
1120492		 # 	collision with: 1 9 0  and 3 9 0 
1120494		 # 	collision with: 4 3 0  and 9 1 1 
1120496		 # 	collision with: 0 8 0  and 1 8 0 
1120498		 # 	collision with: 0 2 0  and 6 3 0 
1120500		 # 	collision with: 1 5 0  and 2 5 0 
1120502		 # 	collision with: 6 5 0  and 1 6 0 
1120521		 # 	collision with: 5 8 0  and 4 0 1 
1120523		 # 	collision with: 10 3 0  and 6 5 0 
1120532		 # 	collision with: 2 0 0  and 6 2 0 
1120534		 # 	collision with: 4 5 0  and 4 0 1 
1120560		 # 	collision with: 7 2 0  and 5 4 0 
1120562		 # 	collision with: 4 4 0  and 2 6 0 
1120577		 # 	collision with: 0 5 0  and 6 6 0 
1120579		 # 	collision with: 10 3 0  and 6 5 0 
1120629		 # 	collision with: 6 2 0  and 3 1 1 
1120631		 # 	collision with: 8 3 0  and 2 5 0 
1120632		 # 	collision with: 0 2 0  and 8 3 0 
1120634		 # 	collision with: 10 4 0  and 3 5 0 
1120660		 # 	collision with: 9 3 0  and 0 1 1 
1120662		 # 	collision with: 1 2 0  and 3 1 1 
1120669		 # 	collision with: 3 5 0  and 0 6 0 
1120671		 # 	collision with: 10 3 0  and 6 5 0 
1120688		 # 	collision with: 3 4 0  and 7 0 1 
1120690		 # 	collision with: 4 3 0  and 7 4 0 
1120713		 # 	collision with: 10 3 0  and 8 4 0 
1120715		 # 	collision with: 5 1 0  and 7 2 0 
1120737		 # 	collision with: 6 5 0  and 7 6 0 
1120739		 # 	collision with: 10 3 0  and 6 5 0 
1120760		 # 	collision with: 8 3 0  and 3 5 0 
1120762		 # 	collision with: 8 1 0  and 9 2 0 
1120783		 # 	collision with: 3 3 0  and 5 3 0 
1120790		 # 	collision with: 4 0 0  and 4 1 0 
1120816		 # 	collision with: 2 4 0  and 2 1 1 
1120821		 # 	collision with: 10 3 0  and 3 4 0 
1120823		 # 	collision with: 4 3 0  and 7 4 0 
1120873		 # 	collision with: 10 3 0  and 2 5 0 
1120875		 # 	collision with: 8 1 0  and 9 2 0 
1120888		 # 	collision with: 1 1 0  and 2 3 0 
1120890		 # 	collision with: 0 0 0  and 1 1 1 
1120916		 # 	collision with: 1 3 0  and 2 4 0 
1120918		 # 	collision with: 5 2 0  and 2 1 1 
1120929		 # 	collision with: 9 4 0  and 10 5 0 
1120931		 # 	collision with: 6 0 0  and 4 1 0 
1120944		 # 	collision with: 0 0 1  and 2 1 1 
1120946		 # 	collision with: 9 6 0  and 3 7 0 
1120948		 # 	collision with: 1 5 0  and 2 5 0 
1120950		 # 	collision with: 9 6 0  and 3 7 0 
1120952		 # 	collision with: 0 8 0  and 1 8 0 
1120954		 # 	collision with: 9 6 0  and 3 7 0 
1120956		 # 	collision with: 1 9 0  and 3 9 0 
1120958		 # 	collision with: 9 6 0  and 3 7 0 
1120960		 # 	collision with: 5 4 0  and 6 4 0 
1120964		 # 	collision with: 0 1 0  and 2 1 0 
1120966		 # 	collision with: 4 0 0  and 9 1 0 
1120968		 # 	collision with: 3 10 0  and 4 10 0 
1120970		 # 	collision with: 9 6 0  and 3 7 0 
1120972		 # 	collision with: 4 7 0  and 5 7 0 
1120974		 # 	collision with: 9 6 0  and 3 7 0 
1120976		 # 	collision with: 2 2 0  and 3 2 0 
1120978		 # 	collision with: 9 6 0  and 3 7 0 
1120980		 # 	collision with: 3 3 0  and 5 3 0 
1120982		 # 	collision with: 9 6 0  and 3 7 0 
1120984		 # 	collision with: 2 6 0  and 4 6 0 
1120986		 # 	collision with: 9 6 0  and 3 7 0 
1121005		 # 	collision with: 1 4 0  and 8 0 1 
1121007		 # 	collision with: 7 1 0  and 7 0 1 
1121016		 # 	collision with: 5 7 0  and 8 0 1 
1121018		 # 	collision with: 9 1 0  and 4 2 0 
1121044		 # 	collision with: 10 1 0  and 9 2 0 
1121046		 # 	collision with: 6 2 0  and 2 4 0 
1121061		 # 	collision with: 6 4 0  and 8 0 1 
1121063		 # 	collision with: 1 5 0  and 2 5 0 
1121113		 # 	collision with: 3 3 0  and 1 0 1 
1121115		 # 	collision with: 7 2 0  and 7 0 1 
1121116		 # 	collision with: 10 0 1  and 5 2 1 
1121146		 # 	collision with: 4 3 0  and 4 5 0 
1121155		 # 	collision with: 9 1 0  and 4 2 0 
1121172		 # 	collision with: 5 2 0  and 0 3 0 
1121174		 # 	collision with: 9 6 0  and 3 7 0 
1121197		 # 	collision with: 4 3 0  and 7 5 0 
1121199		 # 	collision with: 6 4 0  and 2 1 1 
1121221		 # 	collision with: 9 4 0  and 10 5 0 
1121223		 # 	collision with: 0 2 0  and 3 4 0 
1121244		 # 	collision with: 8 0 0  and 10 2 0 
1121246		 # 	collision with: 9 6 0  and 3 7 0 
1121265		 # 	collision with: 6 3 0  and 5 5 0 
1121267		 # 	collision with: 0 2 0  and 6 3 0 
1121272		 # 	collision with: 0 8 0  and 3 0 1 
1121274		 # 	collision with: 9 6 0  and 3 7 0 
1121300		 # 	collision with: 10 0 0  and 2 1 0 
1121302		 # 	collision with: 9 6 0  and 3 7 0 
1121305		 # 	collision with: 9 8 0  and 6 0 1 
1121307		 # 	collision with: 2 9 0  and 9 0 1 
1121357		 # 	collision with: 0 1 0  and 5 2 0 
1121359		 # 	collision with: 5 6 0  and 9 0 1 
1121372		 # 	collision with: 1 1 0  and 6 3 0 
1121374		 # 	collision with: 5 2 0  and 2 3 0 
1121400		 # 	collision with: 3 4 0  and 4 0 1 
1121402		 # 	collision with: 9 6 0  and 3 7 0 
1121413		 # 	collision with: 7 1 0  and 8 2 0 
1121415		 # 	collision with: 2 2 0  and 5 4 0 
1121428		 # 	collision with: 1 2 0  and 2 1 1 
1121430		 # 	collision with: 2 1 0  and 10 3 0 
1121432		 # 	collision with: 5 4 0  and 6 4 0 
1121436		 # 	collision with: 2 2 0  and 3 2 0 
1121438		 # 	collision with: 4 0 0  and 1 2 0 
1121440		 # 	collision with: 1 5 0  and 2 5 0 
1121442		 # 	collision with: 7 4 0  and 4 6 0 
1121444		 # 	collision with: 0 1 0  and 2 1 0 
1121446		 # 	collision with: 0 2 0  and 8 4 0 
1121448		 # 	collision with: 3 3 0  and 5 3 0 
1121450		 # 	collision with: 1 3 0  and 5 4 0 
1121452		 # 	collision with: 0 8 0  and 1 8 0 
1121454		 # 	collision with: 5 1 0  and 9 2 0 
1121456		 # 	collision with: 3 10 0  and 4 10 0 
1121458		 # 	collision with: 8 5 0  and 1 6 0 
1121460		 # 	collision with: 2 6 0  and 4 6 0 
1121462		 # 	collision with: 3 2 0  and 7 3 0 
1121464		 # 	collision with: 1 9 0  and 3 9 0 
1121466		 # 	collision with: 10 4 0  and 3 5 0 
1121468		 # 	collision with: 4 7 0  and 5 7 0 
1121470		 # 	collision with: 6 8 0  and 3 0 1 
1121491		 # 	collision with: 6 5 0  and 1 6 0 
1121502		 # 	collision with: 7 1 0  and 0 3 0 
1121528		 # 	collision with: 0 0 0  and 2 1 0 
1121530		 # 	collision with: 0 1 0  and 9 3 0 
1121545		 # 	collision with: 9 10 0  and 5 0 1 
1121547		 # 	collision with: 2 1 1  and 4 1 1 
1121597		 # 	collision with: 3 1 0  and 9 2 0 
1121599		 # 	collision with: 5 0 0  and 6 2 0 
1121600		 # 	collision with: 3 2 0  and 4 4 0 
1121602		 # 	collision with: 7 1 0  and 8 3 0 
1121628		 # 	collision with: 2 7 0  and 6 0 1 
1121630		 # 	collision with: 6 1 0  and 8 3 0 
1121637		 # 	collision with: 8 9 0  and 7 0 1 
1121639		 # 	collision with: 6 0 0  and 4 1 0 
1121656		 # 	collision with: 5 2 0  and 8 3 0 
1121658		 # 	collision with: 2 2 0  and 3 2 0 
1121681		 # 	collision with: 0 10 0  and 10 0 1 
1121683		 # 	collision with: 9 4 0  and 0 0 1 
1121705		 # 	collision with: 1 3 0  and 2 4 0 
1121707		 # 	collision with: 5 0 0  and 10 2 0 
1121728		 # 	collision with: 9 0 0  and 8 2 0 
1121730		 # 	collision with: 1 9 0  and 3 9 0 
1121749		 # 	collision with: 3 4 0  and 1 5 0 
1121751		 # 	collision with: 4 4 0  and 4 5 0 
1121756		 # 	collision with: 6 1 0  and 10 0 1 
1121758		 # 	collision with: 3 3 0  and 5 3 0 
1121784		 # 	collision with: 8 4 0  and 1 5 0 
1121786		 # 	collision with: 9 1 0  and 4 3 0 
1121789		 # 	collision with: 7 9 0  and 4 1 1 
1121791		 # 	collision with: 6 10 0  and 3 0 1 
1121841		 # 	collision with: 0 2 0  and 7 4 1 
1121843		 # 	collision with: 4 0 0  and 1 2 0 
1121856		 # 	collision with: 7 3 0  and 4 0 1 
1121884		 # 	collision with: 0 6 0  and 3 2 1 
1121886		 # 	collision with: 0 1 0  and 2 1 0 
1121897		 # 	collision with: 10 3 0  and 1 5 0 
1121899		 # 	collision with: 6 1 0  and 0 3 0 
1121912		 # 	collision with: 0 7 0  and 3 1 1 
1121914		 # 	collision with: 4 3 0  and 10 5 0 
1121916		 # 	collision with: 3 3 0  and 5 3 0 
1121918		 # 	collision with: 1 2 0  and 7 4 0 
1121920		 # 	collision with: 4 7 0  and 5 7 0 
1121922		 # 	collision with: 6 0 0  and 9 1 0 
1121924		 # 	collision with: 0 1 0  and 2 1 0 
1121926		 # 	collision with: 7 4 0  and 2 6 0 
1121928		 # 	collision with: 1 9 0  and 3 9 0 
1121930		 # 	collision with: 9 1 0  and 1 2 0 
1121932		 # 	collision with: 1 5 0  and 2 5 0 
1121934		 # 	collision with: 10 5 0  and 2 6 0 
1121936		 # 	collision with: 2 6 0  and 4 6 0 
1121938		 # 	collision with: 6 0 0  and 1 2 0 
1121940		 # 	collision with: 2 2 0  and 3 2 0 
1121942		 # 	collision with: 3 9 0  and 2 0 1 
1121944		 # 	collision with: 3 10 0  and 4 10 0 
1121946		 # 	collision with: 1 2 0  and 4 3 0 
1121948		 # 	collision with: 5 4 0  and 6 4 0 
1121952		 # 	collision with: 0 8 0  and 1 8 0 
1121954		 # 	collision with: 9 1 0  and 4 3 0 
1121973		 # 	collision with: 1 8 0  and 3 0 1 
1121975		 # 	collision with: 10 4 0  and 0 5 0 
1121984		 # 	collision with: 2 7 0  and 3 0 1 
1121986		 # 	collision with: 9 0 0  and 5 2 0 
9.61658secs	6328
