# prime 11
# degree 2
# input variables 3
# output variables 4
# reload computed balance functions from file balance-1857of3248-p11d2m3-debug.log
# p = 11
# n = 4
# smalldomain p^m 1331
# domain p^n 14641
#	 p^2 = 121
#	 p^3 = 1331
#	 p^4 = 14641
#	 p^5 = 161051
#	 p^6 = 1771561
#	 p^7 = 19487171
#	 p^8 = 214358881
#	 p^9 = 2357947691
opening file : balance-1857of3248-p11d2m3-debug.log
reloading for step2...
11142000		 # 	collision with: 3 0 1 0  and 3 2 1 0 
11142002		 # 	collision with: 6 1 1 0  and 6 2 1 0 
11142016		 # 	collision with: 4 1 0 0  and 3 0 1 0 
11142018		 # 	collision with: 2 2 0 0  and 2 2 1 0 
11142029		 # 	collision with: 6 1 1 0  and 6 3 1 0 
11142045		 # 	collision with: 7 1 1 0  and 1 0 2 0 
11142052		 # 	collision with: 1 1 0 0  and 4 0 1 0 
11142054		 # 	collision with: 5 8 0 0  and 7 0 2 0 
11142064		 # 	collision with: 9 2 0 0  and 6 6 1 0 
11142066		 # 	collision with: 10 0 0 0  and 6 1 2 0 
11142073		 # 	collision with: 6 1 1 0  and 6 3 1 0 
11142075		 # 	collision with: 2 6 0 0  and 9 7 1 0 
11142104		 # 	collision with: 7 2 0 0  and 9 2 1 0 
11142109		 # 	collision with: 8 1 0 0  and 3 2 0 0 
11142111		 # 	collision with: 4 6 0 0  and 6 6 0 0 
11142112		 # 	collision with: 9 8 1 0  and 4 10 3 0 
11142114		 # 	collision with: 8 0 0 0  and 7 6 1 0 
11142156		 # 	collision with: 8 6 0 0  and 8 3 1 0 
11142158		 # 	collision with: 0 6 0 0  and 6 3 1 0 
11142160		 # 	collision with: 3 2 0 0  and 4 9 1 0 
11142162		 # 	collision with: 6 1 0 0  and 10 0 1 0 
11142164		 # 	collision with: 6 4 0 0  and 7 8 1 0 
11142166		 # 	collision with: 10 0 0 0  and 1 4 1 0 
11142212		 # 	collision with: 8 1 0 0  and 4 1 2 0 
11142214		 # 	collision with: 0 8 0 0  and 5 2 1 0 
11142216		 # 	collision with: 3 7 0 0  and 10 1 1 0 
11142218		 # 	collision with: 10 7 0 0  and 5 1 1 0 
11142260		 # 	collision with: 5 3 1 0  and 5 4 1 0 
11142262		 # 	collision with: 3 0 1 0  and 5 0 1 0 
11142265		 # 	collision with: 10 0 0 0  and 1 2 0 0 
11142267		 # 	collision with: 7 8 1 0  and 2 1 2 0 
11142268		 # 	collision with: 0 2 0 0  and 5 5 1 0 
11142270		 # 	collision with: 4 6 0 0  and 6 6 0 0 
11142303		 # 	collision with: 4 4 0 0  and 3 0 1 0 
11142308		 # 	collision with: 8 6 0 0  and 0 2 1 0 
11142310		 # 	collision with: 4 0 0 0  and 0 3 1 0 
11142320		 # 	collision with: 9 10 1 0  and 0 5 2 0 
11142322		 # 	collision with: 6 10 0 0  and 7 4 1 0 
11142329		 # 	collision with: 5 7 0 0  and 7 3 1 0 
11142331		 # 	collision with: 4 6 0 0  and 3 2 1 0 
11142341		 # 	collision with: 0 9 0 0  and 5 2 1 0 
11142343		 # 	collision with: 8 2 0 0  and 10 3 1 0 
11142345		 # 	collision with: 2 1 0 0  and 6 2 1 0 
11142347		 # 	collision with: 8 9 0 0  and 7 1 1 0 
11142356		 # 	collision with: 7 8 0 0  and 2 5 2 0 
11142374		 # 	collision with: 0 3 0 0  and 3 5 1 0 
11142404		 # 	collision with: 10 1 0 0  and 2 4 1 0 
11142406		 # 	collision with: 6 5 0 0  and 0 5 1 0 
11142424		 # 	collision with: 5 9 0 0  and 6 9 0 0 
11142426		 # 	collision with: 4 2 0 0  and 0 4 1 0 
11142432		 # 	collision with: 9 5 0 0  and 10 7 1 0 
11142452		 # 	collision with: 5 2 2 0  and 8 3 3 0 
11142454		 # 	collision with: 4 6 0 0  and 4 6 1 0 
11142473		 # 	collision with: 2 4 0 0  and 10 2 1 0 
11142475		 # 	collision with: 4 0 0 0  and 9 3 1 0 
11142484		 # 	collision with: 5 7 0 0  and 5 0 1 0 
11142486		 # 	collision with: 6 6 0 0  and 3 2 1 0 
11142502		 # 	collision with: 6 3 0 0  and 0 6 1 0 
11142513		 # 	collision with: 5 9 0 0  and 6 9 0 0 
11142515		 # 	collision with: 10 0 0 0  and 10 2 0 0 
11142531		 # 	collision with: 9 4 0 0  and 3 0 1 0 
11142536		 # 	collision with: 6 8 0 0  and 7 1 2 0 
11142538		 # 	collision with: 10 0 0 0  and 6 1 1 0 
11142548		 # 	collision with: 8 4 0 0  and 3 1 1 0 
11142550		 # 	collision with: 0 4 0 0  and 7 1 1 0 
11142557		 # 	collision with: 5 9 0 0  and 6 9 0 0 
11142559		 # 	collision with: 10 0 0 0  and 10 2 0 0 
11142588		 # 	collision with: 10 0 0 0  and 3 5 1 0 
11142590		 # 	collision with: 10 7 0 0  and 2 0 1 0 
11142593		 # 	collision with: 5 6 0 0  and 8 2 1 0 
11142595		 # 	collision with: 7 8 0 0  and 10 1 1 0 
11142596		 # 	collision with: 10 4 0 0  and 3 4 1 0 
11142598		 # 	collision with: 6 5 1 0  and 5 9 2 0 
11142640		 # 	collision with: 0 10 0 0  and 2 7 1 0 
11142642		 # 	collision with: 3 2 0 0  and 5 3 1 0 
11142644		 # 	collision with: 5 9 0 0  and 6 9 0 0 
11142646		 # 	collision with: 4 2 0 0  and 0 4 1 0 
11142648		 # 	collision with: 0 10 0 0  and 1 7 1 0 
11142650		 # 	collision with: 2 5 1 0  and 5 0 3 0 
11142696		 # 	collision with: 10 3 0 0  and 9 0 1 0 
11142698		 # 	collision with: 1 3 0 0  and 8 3 1 0 
11142700		 # 	collision with: 7 1 0 0  and 8 2 1 0 
11142702		 # 	collision with: 4 6 0 0  and 6 6 0 0 
11142744		 # 	collision with: 3 10 1 0  and 6 3 2 0 
11142749		 # 	collision with: 5 0 0 0  and 8 1 1 0 
11142751		 # 	collision with: 1 5 0 0  and 0 6 2 0 
11142754		 # 	collision with: 7 10 0 0  and 4 2 2 0 
11142785		 # 	collision with: 3 0 0 0  and 8 1 0 0 
11142787		 # 	collision with: 3 0 0 0  and 3 1 0 0 
11142792		 # 	collision with: 2 2 2 0  and 3 2 2 0 
11142794		 # 	collision with: 4 5 1 0  and 4 4 2 0 
11142804		 # 	collision with: 8 7 0 0  and 6 8 1 0 
11142813		 # 	collision with: 3 10 0 0  and 10 5 1 0 
11142815		 # 	collision with: 2 1 1 0  and 2 3 1 0 
11142825		 # 	collision with: 7 0 1 0  and 7 1 1 0 
11142827		 # 	collision with: 3 0 1 0  and 3 1 1 0 
11142829		 # 	collision with: 3 0 0 0  and 8 1 0 0 
11142831		 # 	collision with: 3 0 0 0  and 3 1 0 0 
11142840		 # 	collision with: 3 8 0 0  and 4 2 1 0 
11142842		 # 	collision with: 9 3 0 0  and 4 0 1 0 
11142856		 # 	collision with: 9 0 0 0  and 1 2 1 0 
11142858		 # 	collision with: 9 1 0 0  and 4 5 1 0 
11142888		 # 	collision with: 5 9 0 0  and 6 9 0 0 
11142890		 # 	collision with: 7 8 1 0  and 2 1 2 0 
11142908		 # 	collision with: 8 0 1 0  and 3 4 2 0 
11142910		 # 	collision with: 7 10 0 0  and 8 9 1 0 
11142916		 # 	collision with: 2 3 0 0  and 2 3 1 0 
11142918		 # 	collision with: 0 3 0 0  and 9 2 1 0 
11142936		 # 	collision with: 9 0 2 0  and 1 2 2 0 
11142938		 # 	collision with: 2 1 2 0  and 7 3 2 0 
11142957		 # 	collision with: 7 0 1 0  and 7 1 1 0 
11142968		 # 	collision with: 2 10 0 0  and 5 2 1 0 
11142970		 # 	collision with: 2 2 0 0  and 6 6 1 0 
11142984		 # 	collision with: 0 3 1 0  and 2 5 3 0 
11142986		 # 	collision with: 1 7 1 0  and 2 7 1 0 
11142997		 # 	collision with: 1 10 1 0  and 3 10 1 0 
11142999		 # 	collision with: 10 4 0 0  and 3 8 1 0 
11143013		 # 	collision with: 0 6 0 0  and 3 0 1 0 
11143015		 # 	collision with: 0 6 0 0  and 2 0 1 0 
11143020		 # 	collision with: 5 9 0 0  and 6 9 0 0 
11143022		 # 	collision with: 1 3 0 0  and 10 0 1 0 
11143032		 # 	collision with: 7 8 0 0  and 7 4 1 0 
11143034		 # 	collision with: 7 10 0 0  and 7 10 1 0 
11143041		 # 	collision with: 0 6 0 0  and 3 0 1 0 
11143043		 # 	collision with: 0 6 0 0  and 2 0 1 0 
11143072		 # 	collision with: 8 6 0 0  and 1 5 1 0 
11143074		 # 	collision with: 7 6 0 0  and 10 5 1 0 
11143077		 # 	collision with: 0 2 0 0  and 2 10 1 0 
11143082		 # 	collision with: 9 2 0 0  and 4 0 2 0 
11143124		 # 	collision with: 0 4 2 0  and 2 4 2 0 
11143126		 # 	collision with: 4 5 1 0  and 3 1 2 0 
11143128		 # 	collision with: 1 6 0 0  and 3 5 2 0 
11143130		 # 	collision with: 9 4 0 0  and 5 6 1 0 
11143153		 # 	collision with: 3 0 2 0  and 8 1 2 0 
11143155		 # 	collision with: 7 6 0 0  and 10 9 1 0 
11143157		 # 	collision with: 7 9 0 0  and 2 10 1 0 
11143159		 # 	collision with: 9 4 0 0  and 7 4 1 0 
11143177		 # 	collision with: 5 9 0 0  and 6 9 0 0 
11143179		 # 	collision with: 4 10 0 0  and 7 5 1 0 
11143189		 # 	collision with: 6 3 0 0  and 1 0 1 0 
11143191		 # 	collision with: 0 3 0 0  and 3 1 2 0 
11143235		 # 	collision with: 4 2 1 0  and 2 6 2 0 
11143373		 # 	collision with: 9 7 0 0  and 4 7 1 0 
11143375		 # 	collision with: 2 7 0 0  and 2 7 1 0 
11143393		 # 	collision with: 2 2 0 0  and 4 3 1 0 
11143395		 # 	collision with: 4 10 0 0  and 6 10 0 0 
11143401		 # 	collision with: 2 3 0 0  and 9 10 1 0 
11143403		 # 	collision with: 7 2 0 0  and 0 2 1 0 
11143421		 # 	collision with: 6 2 1 0  and 10 3 1 0 
11143423		 # 	collision with: 4 6 0 0  and 1 2 1 0 
11143563		 # 	collision with: 4 5 0 0  and 6 6 0 0 
11143573		 # 	collision with: 5 9 0 0  and 6 9 0 0 
11143575		 # 	collision with: 8 6 0 0  and 4 4 1 0 
11143605		 # 	collision with: 9 5 1 0  and 10 1 2 0 
11143607		 # 	collision with: 4 5 0 0  and 6 6 0 0 
11143616		 # 	collision with: 5 9 0 0  and 1 7 2 0 
11143618		 # 	collision with: 3 1 0 0  and 0 3 1 0 
11143637		 # 	collision with: 0 10 0 0  and 8 8 1 0 
11143639		 # 	collision with: 9 3 0 0  and 10 9 1 0 
11143641		 # 	collision with: 5 9 0 0  and 6 9 0 0 
11143643		 # 	collision with: 9 8 0 0  and 0 1 1 0 
11143661		 # 	collision with: 5 9 0 0  and 7 0 2 0 
11143663		 # 	collision with: 4 10 0 0  and 6 10 0 0 
11143673		 # 	collision with: 8 6 1 0  and 5 9 2 0 
11143675		 # 	collision with: 4 4 0 0  and 6 6 0 0 
11143717		 # 	collision with: 1 6 0 0  and 10 0 1 0 
11143859		 # 	collision with: 0 9 0 0  and 7 0 2 0 
11143877		 # 	collision with: 8 9 1 0  and 8 0 2 0 
11143879		 # 	collision with: 0 9 0 0  and 7 0 2 0 
11143905		 # 	collision with: 5 9 0 0  and 6 9 0 0 
11143907		 # 	collision with: 9 8 0 0  and 0 1 1 0 
11144045		 # 	collision with: 9 1 0 0  and 6 5 1 0 
11144047		 # 	collision with: 5 0 0 0  and 9 6 1 0 
11144057		 # 	collision with: 6 9 1 0  and 8 6 2 0 
11144059		 # 	collision with: 4 10 0 0  and 6 10 0 0 
11144089		 # 	collision with: 0 7 0 0  and 5 3 1 0 
11144091		 # 	collision with: 8 3 0 0  and 9 3 1 0 
11144100		 # 	collision with: 0 4 0 0  and 3 5 1 0 
11144102		 # 	collision with: 1 5 0 0  and 10 6 1 0 
11144121		 # 	collision with: 9 8 0 0  and 1 5 1 0 
11144123		 # 	collision with: 6 3 0 0  and 3 1 2 0 
11144127		 # 	collision with: 9 10 1 0  and 5 0 2 0 
11144145		 # 	collision with: 8 4 0 0  and 8 5 0 0 
11144147		 # 	collision with: 4 4 0 0  and 4 5 0 0 
11144157		 # 	collision with: 9 3 0 0  and 7 1 1 0 
11144159		 # 	collision with: 8 2 1 0  and 1 4 1 0 
11144201		 # 	collision with: 4 8 0 0  and 4 8 1 0 
11144203		 # 	collision with: 9 2 1 0  and 10 4 1 0 
11144341		 # 	collision with: 6 1 1 0  and 0 3 1 0 
11144343		 # 	collision with: 5 1 0 0  and 0 3 2 0 
11144361		 # 	collision with: 5 1 0 0  and 3 1 2 0 
11144363		 # 	collision with: 8 10 0 0  and 7 7 1 0 
11144369		 # 	collision with: 5 9 0 0  and 6 9 0 0 
11144371		 # 	collision with: 4 10 0 0  and 6 10 0 0 
11144389		 # 	collision with: 4 1 1 0  and 1 2 1 0 
11144391		 # 	collision with: 5 4 0 0  and 5 4 1 0 
11144529		 # 	collision with: 8 4 0 0  and 9 0 2 0 
11144531		 # 	collision with: 7 9 0 0  and 7 2 1 0 
11144541		 # 	collision with: 8 4 0 0  and 8 5 0 0 
11144543		 # 	collision with: 4 4 0 0  and 4 5 0 0 
11144573		 # 	collision with: 1 9 0 0  and 5 2 1 0 
11144575		 # 	collision with: 5 0 0 0  and 7 2 1 0 
11144584		 # 	collision with: 6 4 0 0  and 0 1 1 0 
11144586		 # 	collision with: 7 8 0 0  and 6 5 1 0 
11144605		 # 	collision with: 4 9 0 0  and 10 0 1 0 
11144607		 # 	collision with: 0 3 0 0  and 10 5 0 0 
11144609		 # 	collision with: 3 0 1 0  and 3 2 1 0 
11144611		 # 	collision with: 1 4 0 0  and 4 4 1 0 
11144629		 # 	collision with: 1 3 1 0  and 1 5 1 0 
11144631		 # 	collision with: 8 3 1 0  and 8 5 1 0 
11144641		 # 	collision with: 1 3 0 0  and 1 5 0 0 
11144643		 # 	collision with: 3 0 0 0  and 2 8 1 0 
11144685		 # 	collision with: 1 3 0 0  and 1 5 0 0 
11144687		 # 	collision with: 9 8 0 0  and 9 8 1 0 
11144825		 # 	collision with: 8 9 0 0  and 8 0 1 0 
11144827		 # 	collision with: 0 3 0 0  and 10 5 0 0 
11144845		 # 	collision with: 2 3 1 0  and 4 3 1 0 
11144847		 # 	collision with: 8 3 0 0  and 8 5 0 0 
11144853		 # 	collision with: 9 3 0 0  and 2 5 0 0 
11144855		 # 	collision with: 1 9 2 0  and 7 6 3 0 
11144873		 # 	collision with: 3 0 1 0  and 3 2 1 0 
11144875		 # 	collision with: 4 0 1 0  and 0 2 1 0 
11145013		 # 	collision with: 6 3 0 0  and 1 8 1 0 
11145015		 # 	collision with: 0 8 1 0  and 1 8 1 0 
11145025		 # 	collision with: 4 10 0 0  and 4 0 1 0 
11145027		 # 	collision with: 8 3 1 0  and 8 5 1 0 
11145057		 # 	collision with: 10 2 0 0  and 6 10 1 0 
11145059		 # 	collision with: 1 6 0 0  and 3 10 1 0 
11145068		 # 	collision with: 2 9 0 0  and 0 4 1 0 
11145070		 # 	collision with: 8 3 0 0  and 1 9 1 0 
11145089		 # 	collision with: 4 10 1 0  and 8 2 2 0 
11145093		 # 	collision with: 3 3 0 0  and 2 8 1 0 
11145095		 # 	collision with: 1 3 0 0  and 1 4 0 0 
11145113		 # 	collision with: 6 6 0 0  and 6 9 1 0 
11145115		 # 	collision with: 9 3 0 0  and 7 5 1 0 
11145125		 # 	collision with: 4 4 0 0  and 10 6 1 0 
11145127		 # 	collision with: 4 10 0 0  and 6 10 0 0 
11145169		 # 	collision with: 3 3 0 0  and 10 6 2 0 
11145171		 # 	collision with: 4 10 0 0  and 6 10 0 0 
11145309		 # 	collision with: 7 7 0 0  and 6 7 1 0 
11145311		 # 	collision with: 3 5 0 0  and 4 3 1 0 
11145329		 # 	collision with: 5 3 0 0  and 5 4 0 0 
11145331		 # 	collision with: 3 10 0 0  and 4 2 1 0 
11145337		 # 	collision with: 0 1 0 0  and 10 10 1 0 
11145339		 # 	collision with: 0 5 1 0  and 6 8 2 0 
11145357		 # 	collision with: 4 5 3 0  and 0 6 3 0 
11145359		 # 	collision with: 1 3 0 0  and 1 4 0 0 
11145497		 # 	collision with: 1 2 0 0  and 4 1 2 0 
11145499		 # 	collision with: 1 2 1 0  and 10 6 2 0 
11145509		 # 	collision with: 6 9 0 0  and 7 1 2 0 
11145541		 # 	collision with: 0 0 0 0  and 3 1 1 0 
11145543		 # 	collision with: 5 0 2 0  and 7 2 2 0 
11145552		 # 	collision with: 8 4 0 0  and 9 0 1 0 
11145554		 # 	collision with: 1 10 0 0  and 5 6 1 0 
11145573		 # 	collision with: 3 0 1 0  and 8 1 1 0 
11145575		 # 	collision with: 7 1 0 0  and 2 6 1 0 
11145577		 # 	collision with: 8 3 0 0  and 5 9 1 0 
11145579		 # 	collision with: 2 7 0 0  and 0 3 1 0 
11145599		 # 	collision with: 4 9 0 0  and 1 10 1 0 
11145609		 # 	collision with: 7 10 0 0  and 4 4 2 0 
11145653		 # 	collision with: 5 8 0 0  and 7 8 1 0 
11145655		 # 	collision with: 3 10 0 0  and 4 2 1 0 
11145793		 # 	collision with: 1 7 0 0  and 7 1 2 0 
11145795		 # 	collision with: 1 0 1 0  and 4 1 1 0 
11145813		 # 	collision with: 1 3 1 0  and 5 4 1 0 
11145815		 # 	collision with: 2 4 1 0  and 3 4 1 0 
11145821		 # 	collision with: 9 2 0 0  and 9 4 0 0 
11145823		 # 	collision with: 8 8 0 0  and 4 1 1 0 
11145841		 # 	collision with: 0 3 0 0  and 3 9 1 0 
11145981		 # 	collision with: 5 9 0 0  and 6 9 0 0 
11145983		 # 	collision with: 1 4 1 0  and 0 5 1 0 
11145993		 # 	collision with: 7 2 0 0  and 4 4 0 0 
11145995		 # 	collision with: 8 2 2 0  and 4 4 2 0 
11146027		 # 	collision with: 6 3 0 0  and 3 0 2 0 
11146036		 # 	collision with: 8 10 1 0  and 6 2 2 0 
11146038		 # 	collision with: 4 8 0 0  and 5 4 2 0 
11146057		 # 	collision with: 4 8 0 0  and 3 2 1 0 
11146059		 # 	collision with: 6 2 0 0  and 4 3 0 0 
11146061		 # 	collision with: 2 2 0 0  and 2 3 0 0 
11146063		 # 	collision with: 6 2 0 0  and 4 3 0 0 
11146081		 # 	collision with: 7 2 1 0  and 3 3 1 0 
11146083		 # 	collision with: 6 2 0 0  and 4 3 0 0 
11146095		 # 	collision with: 6 2 0 0  and 4 3 0 0 
11146137		 # 	collision with: 5 9 0 0  and 6 9 0 0 
11146139		 # 	collision with: 6 2 0 0  and 4 3 0 0 
11146277		 # 	collision with: 1 8 0 0  and 8 9 1 0 
11146297		 # 	collision with: 10 2 0 0  and 8 7 1 0 
11146299		 # 	collision with: 6 2 0 0  and 4 3 0 0 
11146305		 # 	collision with: 8 2 0 0  and 8 2 1 0 
11146307		 # 	collision with: 6 2 0 0  and 4 3 0 0 
11146325		 # 	collision with: 2 2 0 0  and 2 3 0 0 
11146327		 # 	collision with: 6 2 0 0  and 4 3 0 0 
11146465		 # 	collision with: 4 9 0 0  and 4 1 2 0 
11146467		 # 	collision with: 6 2 0 0  and 4 3 0 0 
11146479		 # 	collision with: 6 2 0 0  and 4 3 0 0 
11146509		 # 	collision with: 5 1 1 0  and 0 0 2 0 
11146520		 # 	collision with: 4 6 2 0  and 3 3 3 0 
11146522		 # 	collision with: 6 7 0 0  and 9 1 1 0 
11146541		 # 	collision with: 3 7 0 0  and 10 7 1 0 
11146543		 # 	collision with: 8 2 0 0  and 6 6 1 0 
11146545		 # 	collision with: 7 4 1 0  and 4 5 1 0 
11146565		 # 	collision with: 8 8 1 0  and 4 2 3 0 
11146577		 # 	collision with: 7 0 1 0  and 7 1 1 0 
11146579		 # 	collision with: 3 8 0 0  and 3 4 1 0 
11146621		 # 	collision with: 7 0 1 0  and 7 1 1 0 
11146623		 # 	collision with: 1 7 0 0  and 5 2 2 0 
11146761		 # 	collision with: 2 3 1 0  and 4 3 1 0 
11146763		 # 	collision with: 9 4 0 0  and 3 9 1 0 
11146781		 # 	collision with: 2 2 1 0  and 2 3 1 0 
11146783		 # 	collision with: 10 1 0 0  and 9 1 2 0 
11146789		 # 	collision with: 2 4 1 0  and 3 4 1 0 
11146791		 # 	collision with: 6 2 0 0  and 6 2 1 0 
11146809		 # 	collision with: 3 4 1 0  and 2 1 2 0 
11146811		 # 	collision with: 4 10 0 0  and 6 10 0 0 
11146949		 # 	collision with: 6 1 0 0  and 6 3 0 0 
11146951		 # 	collision with: 10 0 0 0  and 4 4 2 0 
11146961		 # 	collision with: 5 8 0 0  and 3 6 1 0 
11146963		 # 	collision with: 5 1 0 0  and 0 7 1 0 
11146993		 # 	collision with: 6 1 0 0  and 6 3 0 0 
11146995		 # 	collision with: 1 8 0 0  and 7 2 1 0 
11147004		 # 	collision with: 8 10 0 0  and 1 2 1 0 
11147006		 # 	collision with: 8 2 0 0  and 4 5 1 0 
11147025		 # 	collision with: 6 2 0 0  and 4 9 1 0 
11147027		 # 	collision with: 5 6 1 0  and 5 0 2 0 
11147029		 # 	collision with: 1 5 1 0  and 1 3 2 0 
11147031		 # 	collision with: 3 1 3 0  and 5 1 4 0 
11147049		 # 	collision with: 2 2 0 0  and 2 3 1 0 
11147051		 # 	collision with: 9 4 0 0  and 6 7 1 0 
11147061		 # 	collision with: 5 9 1 0  and 7 0 2 0 
11147063		 # 	collision with: 6 1 0 0  and 6 2 0 0 
11147105		 # 	collision with: 3 1 0 0  and 9 0 1 0 
11147107		 # 	collision with: 6 1 0 0  and 6 2 0 0 
11147245		 # 	collision with: 4 1 0 0  and 10 0 1 0 
11147247		 # 	collision with: 3 3 0 0  and 9 4 1 0 
11147265		 # 	collision with: 10 1 0 0  and 4 0 1 0 
11147267		 # 	collision with: 4 1 0 0  and 0 4 1 0 
11147273		 # 	collision with: 3 1 0 0  and 0 0 1 0 
11147275		 # 	collision with: 3 5 1 0  and 2 1 2 0 
11147293		 # 	collision with: 0 8 0 0  and 8 9 1 0 
11147295		 # 	collision with: 5 6 0 0  and 7 9 1 0 
11147433		 # 	collision with: 10 0 0 0  and 10 3 1 0 
11147435		 # 	collision with: 1 4 0 0  and 4 5 2 0 
11147445		 # 	collision with: 0 8 0 0  and 2 1 1 0 
11147447		 # 	collision with: 4 3 0 0  and 1 2 2 0 
11147477		 # 	collision with: 9 2 1 0  and 9 4 1 0 
11147479		 # 	collision with: 1 4 2 0  and 0 5 2 0 
11147488		 # 	collision with: 3 4 0 0  and 0 3 1 0 
11147490		 # 	collision with: 6 9 1 0  and 0 0 2 0 
11147511		 # 	collision with: 0 3 1 0  and 10 5 1 0 
11147513		 # 	collision with: 0 4 0 0  and 1 3 1 0 
11147515		 # 	collision with: 8 0 0 0  and 2 2 0 0 
11147533		 # 	collision with: 0 0 0 0  and 7 7 1 0 
11147535		 # 	collision with: 2 8 1 0  and 3 0 2 0 
11147545		 # 	collision with: 2 10 0 0  and 6 2 2 0 
11147547		 # 	collision with: 3 1 2 0  and 5 1 2 0 
11147589		 # 	collision with: 9 6 1 0  and 3 1 2 0 
11147591		 # 	collision with: 3 1 1 0  and 5 1 1 0 
11147729		 # 	collision with: 4 9 0 0  and 1 2 1 0 
11147731		 # 	collision with: 0 3 1 0  and 5 5 1 0 
11147749		 # 	collision with: 5 9 0 0  and 6 9 0 0 
11147751		 # 	collision with: 3 4 1 0  and 2 0 2 0 
11147757		 # 	collision with: 10 0 0 0  and 1 2 0 0 
11147759		 # 	collision with: 10 0 0 0  and 10 2 0 0 
11147777		 # 	collision with: 2 4 1 0  and 3 4 1 0 
11147779		 # 	collision with: 8 0 0 0  and 2 2 0 0 
11147917		 # 	collision with: 5 3 0 0  and 5 3 1 0 
11147919		 # 	collision with: 4 10 0 0  and 6 10 0 0 
11147929		 # 	collision with: 4 0 1 0  and 8 2 1 0 
11147931		 # 	collision with: 2 1 2 0  and 1 2 3 0 
11147961		 # 	collision with: 10 3 0 0  and 10 3 1 0 
11147963		 # 	collision with: 4 10 0 0  and 6 10 0 0 
11147972		 # 	collision with: 10 0 0 0  and 6 2 2 0 
11147974		 # 	collision with: 0 7 1 0  and 3 0 2 0 
11147993		 # 	collision with: 7 0 0 0  and 7 1 0 0 
11147995		 # 	collision with: 6 6 0 0  and 4 4 1 0 
11147997		 # 	collision with: 3 7 0 0  and 3 6 1 0 
11147999		 # 	collision with: 10 3 0 0  and 6 9 2 0 
19.798secs	7351
