# prime 11
# degree 2
# input variables 3
# output variables 4
# reload computed balance functions from file balance-2077of3248-p11d2m3-debug.log
# p = 11
# n = 4
# smalldomain p^m 1331
# domain p^n 14641
#	 p^2 = 121
#	 p^3 = 1331
#	 p^4 = 14641
#	 p^5 = 161051
#	 p^6 = 1771561
#	 p^7 = 19487171
#	 p^8 = 214358881
#	 p^9 = 2357947691
opening file : balance-2077of3248-p11d2m3-debug.log
reloading for step2...
12462017		 # 	collision with: 8 6 1 0  and 7 0 2 0 
12462019		 # 	collision with: 0 6 1 0  and 4 1 2 0 
12462032		 # 	collision with: 1 3 1 0  and 9 10 2 0 
12462034		 # 	collision with: 6 6 0 0  and 7 4 1 0 
12462037		 # 	collision with: 1 10 0 0  and 5 1 2 0 
12462039		 # 	collision with: 8 0 1 0  and 2 4 2 0 
12462073		 # 	collision with: 10 1 0 0  and 10 2 0 0 
12462075		 # 	collision with: 4 5 0 0  and 0 5 1 0 
12462093		 # 	collision with: 10 4 0 0  and 8 0 2 0 
12462095		 # 	collision with: 1 3 0 0  and 6 2 1 0 
12462117		 # 	collision with: 10 1 0 0  and 10 2 0 0 
12462119		 # 	collision with: 4 5 0 0  and 0 5 1 0 
12462133		 # 	collision with: 5 1 0 0  and 6 1 0 0 
12462135		 # 	collision with: 4 6 1 0  and 1 1 2 0 
12462281		 # 	collision with: 6 5 0 0  and 9 1 1 0 
12462283		 # 	collision with: 0 3 1 0  and 5 4 1 0 
12462287		 # 	collision with: 5 2 1 0  and 5 4 1 0 
12462309		 # 	collision with: 5 1 0 0  and 6 1 0 0 
12462311		 # 	collision with: 1 5 1 0  and 3 5 1 0 
12462315		 # 	collision with: 2 7 0 0  and 3 3 1 0 
12462461		 # 	collision with: 4 4 1 0  and 1 6 2 0 
12462463		 # 	collision with: 2 0 0 0  and 6 1 1 0 
12462477		 # 	collision with: 8 2 0 0  and 1 5 1 0 
12462479		 # 	collision with: 9 4 0 0  and 2 1 1 0 
12462501		 # 	collision with: 0 2 1 0  and 1 2 1 0 
12462503		 # 	collision with: 10 6 0 0  and 10 6 2 0 
12462516		 # 	collision with: 5 3 0 0  and 7 0 1 0 
12462518		 # 	collision with: 6 9 0 0  and 1 0 2 0 
12462521		 # 	collision with: 8 6 0 0  and 8 3 2 0 
12462523		 # 	collision with: 3 0 1 0  and 3 1 1 0 
12462557		 # 	collision with: 6 10 0 0  and 9 1 1 0 
12462577		 # 	collision with: 1 4 1 0  and 9 5 1 0 
12462579		 # 	collision with: 4 4 1 0  and 4 5 1 0 
12462601		 # 	collision with: 7 1 1 0  and 3 2 1 0 
12462603		 # 	collision with: 10 8 0 0  and 8 0 2 0 
12462617		 # 	collision with: 3 0 0 0  and 3 2 0 0 
12462619		 # 	collision with: 9 3 2 0  and 8 4 2 0 
12462765		 # 	collision with: 4 9 0 0  and 5 4 1 0 
12462767		 # 	collision with: 0 3 1 0  and 7 9 3 0 
12462769		 # 	collision with: 9 2 0 0  and 8 6 1 0 
12462793		 # 	collision with: 3 0 0 0  and 3 2 0 0 
12462795		 # 	collision with: 6 4 1 0  and 9 3 2 0 
12462797		 # 	collision with: 2 6 1 0  and 3 6 1 0 
12462799		 # 	collision with: 6 7 0 0  and 7 2 1 0 
12462945		 # 	collision with: 0 3 1 0  and 2 3 1 0 
12462947		 # 	collision with: 10 4 0 0  and 3 1 2 0 
12462961		 # 	collision with: 0 2 1 0  and 1 2 1 0 
12462963		 # 	collision with: 3 0 1 0  and 3 1 1 0 
12462985		 # 	collision with: 0 10 1 0  and 1 5 2 0 
12462987		 # 	collision with: 0 2 0 0  and 1 5 1 0 
12463000		 # 	collision with: 2 9 0 0  and 4 3 1 0 
12463002		 # 	collision with: 6 10 2 0  and 10 1 4 0 
12463005		 # 	collision with: 5 1 0 0  and 6 1 0 0 
12463007		 # 	collision with: 1 9 0 0  and 9 1 1 0 
12463041		 # 	collision with: 5 10 0 0  and 6 4 1 0 
12463043		 # 	collision with: 9 10 0 0  and 10 2 2 0 
12463061		 # 	collision with: 7 0 0 0  and 7 1 0 0 
12463063		 # 	collision with: 5 1 0 0  and 2 4 1 0 
12463085		 # 	collision with: 10 7 0 0  and 7 5 1 0 
12463087		 # 	collision with: 7 2 0 0  and 2 1 2 0 
12463101		 # 	collision with: 1 4 4 0  and 2 4 4 0 
12463103		 # 	collision with: 7 0 0 0  and 3 1 0 0 
12463249		 # 	collision with: 2 8 0 0  and 10 7 2 0 
12463251		 # 	collision with: 8 8 0 0  and 6 1 1 0 
12463253		 # 	collision with: 6 10 0 0  and 2 1 1 0 
12463255		 # 	collision with: 10 0 1 0  and 2 2 2 0 
12463277		 # 	collision with: 6 0 0 0  and 7 7 2 0 
12463279		 # 	collision with: 7 0 0 0  and 3 1 0 0 
12463281		 # 	collision with: 7 0 0 0  and 7 1 0 0 
12463283		 # 	collision with: 9 4 0 0  and 9 1 2 0 
12463429		 # 	collision with: 5 3 2 0  and 5 4 2 0 
12463445		 # 	collision with: 5 1 0 0  and 6 1 0 0 
12463469		 # 	collision with: 0 8 0 0  and 1 1 1 0 
12463471		 # 	collision with: 6 4 0 0  and 8 4 1 0 
12463501		 # 	collision with: 1 0 1 0  and 3 2 2 0 
12463503		 # 	collision with: 1 3 1 0  and 9 4 1 0 
12463513		 # 	collision with: 7 3 2 0  and 4 5 2 0 
12463515		 # 	collision with: 10 3 1 0  and 5 4 2 0 
12463553		 # 	collision with: 10 8 1 0  and 2 0 2 0 
12463555		 # 	collision with: 8 5 0 0  and 2 6 0 0 
12463561		 # 	collision with: 1 4 1 0  and 10 3 2 0 
12463563		 # 	collision with: 4 7 1 0  and 5 7 1 0 
12463587		 # 	collision with: 4 4 0 0  and 6 4 0 0 
12463705		 # 	collision with: 5 1 0 0  and 6 1 0 0 
12463707		 # 	collision with: 7 5 1 0  and 7 6 1 0 
12463721		 # 	collision with: 3 0 1 0  and 1 0 3 0 
12463749		 # 	collision with: 5 1 0 0  and 6 1 0 0 
12463751		 # 	collision with: 2 2 0 0  and 10 3 1 0 
12463777		 # 	collision with: 10 5 0 0  and 5 3 1 0 
12463915		 # 	collision with: 5 8 1 0  and 7 9 2 0 
12463937		 # 	collision with: 1 9 0 0  and 0 9 1 0 
12463939		 # 	collision with: 4 4 0 0  and 6 4 0 0 
12463945		 # 	collision with: 9 2 1 0  and 9 4 1 0 
12463947		 # 	collision with: 2 8 0 0  and 7 4 1 0 
12463968		 # 	collision with: 9 6 0 0  and 6 0 1 0 
12463970		 # 	collision with: 1 7 0 0  and 3 1 1 0 
12463985		 # 	collision with: 5 3 0 0  and 10 5 1 0 
12463987		 # 	collision with: 1 3 0 0  and 10 5 1 0 
12463997		 # 	collision with: 9 8 1 0  and 0 6 2 0 
12463999		 # 	collision with: 9 8 0 0  and 0 0 1 0 
12464037		 # 	collision with: 5 1 0 0  and 3 2 1 0 
12464039		 # 	collision with: 10 4 0 0  and 0 6 0 0 
12464047		 # 	collision with: 9 9 0 0  and 3 3 2 0 
12464069		 # 	collision with: 4 4 0 0  and 4 6 0 0 
12464189		 # 	collision with: 10 4 0 0  and 1 6 0 0 
12464191		 # 	collision with: 4 4 0 0  and 6 4 0 0 
12464205		 # 	collision with: 8 7 0 0  and 10 1 1 0 
12464207		 # 	collision with: 8 7 0 0  and 0 8 2 0 
12464233		 # 	collision with: 10 4 0 0  and 1 6 0 0 
12464235		 # 	collision with: 4 4 0 0  and 6 4 0 0 
12464261		 # 	collision with: 8 7 0 0  and 1 7 1 0 
12464263		 # 	collision with: 9 8 0 0  and 0 0 1 0 
12464397		 # 	collision with: 4 8 0 0  and 3 2 1 0 
12464399		 # 	collision with: 9 10 0 0  and 6 7 2 0 
12464421		 # 	collision with: 4 4 0 0  and 4 6 0 0 
12464423		 # 	collision with: 1 3 1 0  and 1 4 1 0 
12464452		 # 	collision with: 2 10 0 0  and 0 6 2 0 
12464454		 # 	collision with: 9 1 0 0  and 6 8 2 0 
12464469		 # 	collision with: 8 4 0 0  and 8 5 0 0 
12464471		 # 	collision with: 1 0 1 0  and 3 0 3 0 
12464481		 # 	collision with: 6 9 1 0  and 3 5 2 0 
12464483		 # 	collision with: 10 0 1 0  and 10 2 1 0 
12464521		 # 	collision with: 6 4 0 0  and 0 8 1 0 
12464523		 # 	collision with: 7 6 0 0  and 7 5 2 0 
12464529		 # 	collision with: 10 0 1 0  and 0 1 1 0 
12464553		 # 	collision with: 7 9 0 0  and 5 9 1 0 
12464555		 # 	collision with: 4 0 0 0  and 4 9 1 0 
12464673		 # 	collision with: 8 0 0 0  and 4 1 2 0 
12464675		 # 	collision with: 4 1 0 0  and 10 7 1 0 
12464691		 # 	collision with: 5 5 0 0  and 3 4 1 0 
12464719		 # 	collision with: 0 0 0 0  and 1 1 2 0 
12464745		 # 	collision with: 8 7 0 0  and 6 6 1 0 
12464747		 # 	collision with: 10 0 1 0  and 10 2 1 0 
12464881		 # 	collision with: 0 8 0 0  and 9 6 1 0 
12464883		 # 	collision with: 4 4 0 0  and 6 4 0 0 
12464905		 # 	collision with: 10 5 0 0  and 7 7 1 0 
12464907		 # 	collision with: 5 2 0 0  and 4 3 1 0 
12464913		 # 	collision with: 1 5 0 0  and 5 2 1 0 
12464915		 # 	collision with: 5 4 1 0  and 5 4 2 0 
12464936		 # 	collision with: 5 10 0 0  and 0 8 1 0 
12464938		 # 	collision with: 6 10 0 0  and 8 8 1 0 
12464953		 # 	collision with: 4 0 0 0  and 10 5 1 0 
12464955		 # 	collision with: 2 1 1 0  and 2 3 1 0 
12464965		 # 	collision with: 3 3 0 0  and 4 4 1 0 
12464967		 # 	collision with: 0 0 1 0  and 10 1 1 0 
12465005		 # 	collision with: 10 9 0 0  and 5 3 1 0 
12465007		 # 	collision with: 4 7 1 0  and 5 7 1 0 
12465013		 # 	collision with: 5 1 0 0  and 6 1 0 0 
12465015		 # 	collision with: 7 2 0 0  and 7 9 1 0 
12465037		 # 	collision with: 10 8 0 0  and 7 3 1 0 
12465039		 # 	collision with: 5 9 0 0  and 1 7 1 0 
12465157		 # 	collision with: 9 1 0 0  and 0 9 1 0 
12465159		 # 	collision with: 1 8 1 0  and 1 10 2 0 
12465173		 # 	collision with: 10 2 1 0  and 8 7 2 0 
12465175		 # 	collision with: 2 1 1 0  and 2 3 1 0 
12465201		 # 	collision with: 3 6 0 0  and 3 7 1 0 
12465203		 # 	collision with: 7 1 0 0  and 1 10 1 0 
12465229		 # 	collision with: 1 1 0 0  and 1 1 2 0 
12465231		 # 	collision with: 7 5 0 0  and 1 4 1 0 
12465365		 # 	collision with: 5 1 0 0  and 6 1 0 0 
12465367		 # 	collision with: 2 4 0 0  and 2 0 1 0 
12465389		 # 	collision with: 1 8 0 0  and 6 3 1 0 
12465391		 # 	collision with: 4 4 0 0  and 7 0 1 0 
12465397		 # 	collision with: 4 1 0 0  and 4 1 1 0 
12465399		 # 	collision with: 4 4 0 0  and 6 4 0 0 
12465420		 # 	collision with: 9 5 0 0  and 0 9 1 0 
12465422		 # 	collision with: 2 5 0 0  and 1 9 1 0 
12465439		 # 	collision with: 2 1 0 0  and 7 5 1 0 
12465449		 # 	collision with: 5 1 0 0  and 6 1 0 0 
12465451		 # 	collision with: 2 4 0 0  and 3 2 1 0 
12465489		 # 	collision with: 10 3 0 0  and 1 4 0 0 
12465491		 # 	collision with: 1 3 0 0  and 1 4 0 0 
12465497		 # 	collision with: 10 2 1 0  and 3 5 2 0 
12465499		 # 	collision with: 5 4 1 0  and 4 6 1 0 
12465521		 # 	collision with: 7 0 2 0  and 7 1 2 0 
12465523		 # 	collision with: 10 6 0 0  and 4 8 1 0 
12465641		 # 	collision with: 5 3 2 0  and 5 4 2 0 
12465643		 # 	collision with: 10 7 0 0  and 10 6 1 0 
12465657		 # 	collision with: 10 0 1 0  and 1 4 2 0 
12465659		 # 	collision with: 7 1 1 0  and 9 2 1 0 
12465685		 # 	collision with: 5 3 2 0  and 5 4 2 0 
12465687		 # 	collision with: 3 9 0 0  and 0 3 2 0 
12465713		 # 	collision with: 5 1 0 0  and 6 1 0 0 
12465715		 # 	collision with: 7 7 0 0  and 2 7 1 0 
12465849		 # 	collision with: 2 8 0 0  and 1 1 1 0 
12465851		 # 	collision with: 1 1 1 0  and 4 0 2 0 
12465873		 # 	collision with: 7 0 2 0  and 7 1 2 0 
12465875		 # 	collision with: 2 1 0 0  and 10 8 1 0 
12465881		 # 	collision with: 3 0 1 0  and 3 2 1 0 
12465883		 # 	collision with: 5 1 0 0  and 5 1 1 0 
12465904		 # 	collision with: 8 4 0 0  and 9 5 1 0 
12465906		 # 	collision with: 9 2 0 0  and 5 3 1 0 
12465921		 # 	collision with: 8 2 0 0  and 6 9 1 0 
12465923		 # 	collision with: 7 9 0 0  and 8 1 1 0 
12465933		 # 	collision with: 0 1 1 0  and 5 0 2 0 
12465973		 # 	collision with: 5 1 0 0  and 6 1 0 0 
12465975		 # 	collision with: 6 7 1 0  and 3 7 2 0 
12465981		 # 	collision with: 1 2 0 0  and 10 4 0 0 
12465983		 # 	collision with: 4 5 0 0  and 4 5 2 0 
12466005		 # 	collision with: 2 1 1 0  and 7 2 1 0 
12466007		 # 	collision with: 5 2 0 0  and 5 4 0 0 
12466125		 # 	collision with: 8 0 0 0  and 4 9 1 0 
12466141		 # 	collision with: 8 9 0 0  and 4 1 1 0 
12466143		 # 	collision with: 10 8 0 0  and 2 1 1 0 
12466169		 # 	collision with: 6 7 1 0  and 6 8 2 0 
12466171		 # 	collision with: 8 0 0 0  and 0 9 1 0 
12466197		 # 	collision with: 7 1 1 0  and 2 3 2 0 
12466199		 # 	collision with: 10 7 0 0  and 5 3 1 0 
12466333		 # 	collision with: 1 2 0 0  and 10 4 0 0 
12466335		 # 	collision with: 6 4 1 0  and 0 1 2 0 
12466357		 # 	collision with: 6 9 0 0  and 6 9 1 0 
12466359		 # 	collision with: 5 2 0 0  and 5 4 0 0 
12466365		 # 	collision with: 7 0 1 0  and 7 1 1 0 
12466367		 # 	collision with: 8 10 1 0  and 4 0 2 0 
12466388		 # 	collision with: 2 2 1 0  and 8 9 2 0 
12466390		 # 	collision with: 9 10 0 0  and 3 5 2 0 
12466405		 # 	collision with: 0 1 0 0  and 9 4 1 0 
12466417		 # 	collision with: 3 2 0 0  and 8 3 0 0 
12466419		 # 	collision with: 4 4 0 0  and 6 4 0 0 
12466457		 # 	collision with: 7 9 0 0  and 4 5 1 0 
12466459		 # 	collision with: 10 4 3 0  and 8 5 3 0 
12466465		 # 	collision with: 4 2 0 0  and 4 2 1 0 
12466467		 # 	collision with: 8 8 2 0  and 7 0 3 0 
12466489		 # 	collision with: 2 0 1 0  and 3 6 2 0 
12466491		 # 	collision with: 2 9 0 0  and 2 9 1 0 
12466609		 # 	collision with: 8 3 2 0  and 5 1 3 0 
12466611		 # 	collision with: 3 10 0 0  and 2 0 1 0 
12466625		 # 	collision with: 1 6 0 0  and 8 1 1 0 
12466627		 # 	collision with: 10 2 0 0  and 0 3 0 0 
12466653		 # 	collision with: 0 8 1 0  and 9 0 2 0 
12466681		 # 	collision with: 3 2 0 0  and 8 3 0 0 
12466683		 # 	collision with: 4 4 0 0  and 6 4 0 0 
12466817		 # 	collision with: 9 2 0 0  and 9 2 1 0 
12466819		 # 	collision with: 5 2 0 0  and 4 6 1 0 
12466841		 # 	collision with: 8 2 0 0  and 10 1 1 0 
12466843		 # 	collision with: 7 9 0 0  and 7 9 1 0 
12466849		 # 	collision with: 5 1 0 0  and 6 1 0 0 
12466851		 # 	collision with: 5 4 0 0  and 10 10 1 0 
12466872		 # 	collision with: 10 5 1 0  and 4 0 2 0 
12466874		 # 	collision with: 6 8 0 0  and 9 4 1 0 
12466889		 # 	collision with: 5 1 0 0  and 6 1 0 0 
12466891		 # 	collision with: 4 4 0 0  and 6 4 0 0 
12466903		 # 	collision with: 3 0 2 0  and 3 1 2 0 
12466941		 # 	collision with: 3 7 0 0  and 3 6 1 0 
12466943		 # 	collision with: 8 1 2 0  and 0 2 2 0 
12466949		 # 	collision with: 0 3 0 0  and 6 0 2 0 
12466951		 # 	collision with: 3 2 0 0  and 3 2 1 0 
12466973		 # 	collision with: 10 10 0 0  and 1 2 2 0 
12466975		 # 	collision with: 9 1 0 0  and 1 3 0 0 
12467093		 # 	collision with: 6 1 0 0  and 6 3 0 0 
12467095		 # 	collision with: 2 1 0 0  and 2 3 0 0 
12467109		 # 	collision with: 5 1 0 0  and 6 1 0 0 
12467111		 # 	collision with: 4 4 0 0  and 6 4 0 0 
12467137		 # 	collision with: 6 1 0 0  and 6 3 0 0 
12467139		 # 	collision with: 2 1 0 0  and 2 3 0 0 
12467165		 # 	collision with: 2 6 1 0  and 2 6 2 0 
12467167		 # 	collision with: 3 0 2 0  and 3 1 2 0 
12467301		 # 	collision with: 10 5 0 0  and 5 3 1 0 
12467303		 # 	collision with: 4 2 0 0  and 4 2 1 0 
12467325		 # 	collision with: 2 9 0 0  and 9 3 2 0 
12467327		 # 	collision with: 9 1 0 0  and 1 3 0 0 
12467333		 # 	collision with: 4 4 1 0  and 4 6 1 0 
12467335		 # 	collision with: 5 1 1 0  and 6 1 1 0 
12467356		 # 	collision with: 6 8 0 0  and 3 7 2 0 
12467358		 # 	collision with: 4 8 0 0  and 7 10 1 0 
12467373		 # 	collision with: 6 4 0 0  and 4 4 1 0 
12467375		 # 	collision with: 4 9 1 0  and 4 0 2 0 
12467385		 # 	collision with: 5 6 0 0  and 4 2 1 0 
12467387		 # 	collision with: 6 1 0 0  and 6 2 0 0 
12467425		 # 	collision with: 2 10 0 0  and 2 10 1 0 
12467427		 # 	collision with: 7 9 0 0  and 8 1 1 0 
12467433		 # 	collision with: 9 1 0 0  and 2 4 1 0 
12467435		 # 	collision with: 0 8 1 0  and 8 1 2 0 
12467457		 # 	collision with: 5 1 0 0  and 6 1 0 0 
12467459		 # 	collision with: 1 6 0 0  and 1 1 1 0 
12467577		 # 	collision with: 4 1 1 0  and 2 2 1 0 
12467579		 # 	collision with: 7 7 0 0  and 6 1 2 0 
12467593		 # 	collision with: 5 10 0 0  and 9 6 1 0 
12467595		 # 	collision with: 4 8 0 0  and 5 3 1 0 
12467621		 # 	collision with: 9 1 1 0  and 7 2 1 0 
12467623		 # 	collision with: 8 7 0 0  and 3 0 1 0 
12467649		 # 	collision with: 5 6 0 0  and 3 2 1 0 
12467651		 # 	collision with: 6 1 0 0  and 6 2 0 0 
12467785		 # 	collision with: 10 8 2 0  and 2 0 4 0 
12467787		 # 	collision with: 6 1 0 0  and 1 2 1 0 
12467809		 # 	collision with: 5 1 0 0  and 6 1 0 0 
12467811		 # 	collision with: 3 8 0 0  and 6 1 1 0 
12467817		 # 	collision with: 2 9 0 0  and 9 3 1 0 
12467819		 # 	collision with: 9 1 0 0  and 2 1 1 0 
12467840		 # 	collision with: 10 10 0 0  and 6 2 1 0 
12467842		 # 	collision with: 1 6 0 0  and 8 10 2 0 
12467857		 # 	collision with: 0 4 0 0  and 10 4 1 0 
12467859		 # 	collision with: 10 0 0 0  and 10 2 0 0 
12467869		 # 	collision with: 2 7 0 0  and 4 10 1 0 
12467871		 # 	collision with: 5 7 0 0  and 4 7 1 0 
12467909		 # 	collision with: 3 0 0 0  and 3 2 0 0 
12467911		 # 	collision with: 1 10 0 0  and 1 10 1 0 
12467917		 # 	collision with: 4 2 1 0  and 6 3 1 0 
12467919		 # 	collision with: 3 2 0 0  and 4 2 1 0 
12467941		 # 	collision with: 5 3 1 0  and 5 3 2 0 
12467943		 # 	collision with: 8 8 0 0  and 1 9 2 0 
8.28454secs	6045
