# prime 11
# degree 2
# input variables 3
# output variables 4
# reload computed balance functions from file balance-2374of3248-p11d2m3-debug.log
# p = 11
# n = 4
# smalldomain p^m 1331
# domain p^n 14641
#	 p^2 = 121
#	 p^3 = 1331
#	 p^4 = 14641
#	 p^5 = 161051
#	 p^6 = 1771561
#	 p^7 = 19487171
#	 p^8 = 214358881
#	 p^9 = 2357947691
opening file : balance-2374of3248-p11d2m3-debug.log
reloading for step2...
14244049		 # 	collision with: 6 2 0 0  and 9 5 1 0 
14244051		 # 	collision with: 8 0 0 0  and 8 1 1 0 
14244057		 # 	collision with: 1 0 1 0  and 0 1 1 0 
14244059		 # 	collision with: 0 3 0 0  and 2 6 1 0 
14244120		 # 	collision with: 8 3 0 0  and 10 7 1 0 
14244122		 # 	collision with: 3 3 0 0  and 0 8 2 0 
14244229		 # 	collision with: 8 4 0 0  and 8 4 1 0 
14244231		 # 	collision with: 5 6 0 0  and 1 7 1 0 
14244237		 # 	collision with: 7 2 1 0  and 7 0 2 0 
14244239		 # 	collision with: 5 2 0 0  and 3 3 1 0 
14244313		 # 	collision with: 7 0 1 0  and 7 2 1 0 
14244315		 # 	collision with: 2 2 0 0  and 3 4 0 0 
14244333		 # 	collision with: 7 3 0 0  and 4 8 1 0 
14244335		 # 	collision with: 1 1 0 0  and 4 1 1 0 
14244349		 # 	collision with: 5 9 0 0  and 7 4 2 0 
14244351		 # 	collision with: 8 3 0 0  and 2 0 1 0 
14244365		 # 	collision with: 5 7 0 0  and 3 4 1 0 
14244367		 # 	collision with: 9 2 0 0  and 9 4 0 0 
14244405		 # 	collision with: 10 4 0 0  and 10 4 1 0 
14244407		 # 	collision with: 5 3 0 0  and 9 1 1 0 
14244421		 # 	collision with: 6 1 0 0  and 4 4 2 0 
14244423		 # 	collision with: 8 2 0 0  and 8 2 2 0 
14244437		 # 	collision with: 7 4 0 0  and 6 6 1 0 
14244439		 # 	collision with: 5 3 0 0  and 8 4 1 0 
14244457		 # 	collision with: 6 6 0 0  and 2 6 1 0 
14244459		 # 	collision with: 9 0 0 0  and 7 4 1 0 
14244533		 # 	collision with: 7 0 1 0  and 7 2 1 0 
14244535		 # 	collision with: 2 2 0 0  and 3 4 0 0 
14244541		 # 	collision with: 4 0 0 0  and 2 3 1 0 
14244543		 # 	collision with: 9 2 0 0  and 9 4 0 0 
14244604		 # 	collision with: 10 9 1 0  and 8 8 2 0 
14244606		 # 	collision with: 6 1 0 0  and 7 8 1 0 
14244713		 # 	collision with: 2 2 0 0  and 8 5 1 0 
14244715		 # 	collision with: 2 4 0 0  and 2 4 1 0 
14244721		 # 	collision with: 8 6 0 0  and 0 6 1 0 
14244723		 # 	collision with: 1 3 1 0  and 3 3 1 0 
14244797		 # 	collision with: 10 7 0 0  and 1 4 1 0 
14244799		 # 	collision with: 1 5 1 0  and 2 5 1 0 
14244817		 # 	collision with: 4 4 1 0  and 5 4 1 0 
14244819		 # 	collision with: 8 3 2 0  and 7 4 3 0 
14244833		 # 	collision with: 4 5 0 0  and 6 1 1 0 
14244835		 # 	collision with: 7 7 1 0  and 4 0 2 0 
14244849		 # 	collision with: 1 5 1 0  and 2 5 1 0 
14244851		 # 	collision with: 7 2 0 0  and 9 3 0 0 
14244889		 # 	collision with: 2 3 1 0  and 0 4 2 0 
14244891		 # 	collision with: 8 7 0 0  and 5 1 1 0 
14244905		 # 	collision with: 6 4 1 0  and 0 3 2 0 
14244907		 # 	collision with: 0 7 1 0  and 2 7 1 0 
14244921		 # 	collision with: 10 5 0 0  and 10 1 1 0 
14244923		 # 	collision with: 2 4 1 0  and 4 5 2 0 
14244941		 # 	collision with: 8 6 0 0  and 0 6 1 0 
14244943		 # 	collision with: 3 1 0 0  and 2 1 2 0 
14245017		 # 	collision with: 0 9 0 0  and 10 4 1 0 
14245019		 # 	collision with: 5 0 1 0  and 1 1 1 0 
14245025		 # 	collision with: 2 4 1 0  and 2 6 1 0 
14245027		 # 	collision with: 7 2 0 0  and 9 3 0 0 
14245088		 # 	collision with: 1 8 0 0  and 5 3 1 0 
14245090		 # 	collision with: 7 8 0 0  and 3 3 1 0 
14245197		 # 	collision with: 1 9 1 0  and 7 1 2 0 
14245199		 # 	collision with: 2 0 0 0  and 9 6 1 0 
14245205		 # 	collision with: 4 2 1 0  and 6 2 1 0 
14245207		 # 	collision with: 2 1 0 0  and 2 3 0 0 
14245281		 # 	collision with: 6 0 0 0  and 10 3 1 0 
14245283		 # 	collision with: 9 5 0 0  and 9 5 1 0 
14245301		 # 	collision with: 6 1 0 0  and 10 5 1 0 
14245303		 # 	collision with: 5 9 0 0  and 2 1 2 0 
14245317		 # 	collision with: 9 6 0 0  and 0 1 1 0 
14245319		 # 	collision with: 9 7 0 0  and 6 9 1 0 
14245333		 # 	collision with: 0 5 0 0  and 6 8 1 0 
14245335		 # 	collision with: 3 1 0 0  and 2 3 0 0 
14245373		 # 	collision with: 3 0 0 0  and 5 7 2 0 
14245375		 # 	collision with: 7 5 3 0  and 0 6 3 0 
14245389		 # 	collision with: 8 1 0 0  and 5 0 2 0 
14245391		 # 	collision with: 10 1 0 0  and 6 1 1 0 
14245405		 # 	collision with: 9 6 0 0  and 0 1 1 0 
14245407		 # 	collision with: 0 5 0 0  and 9 10 1 0 
14245425		 # 	collision with: 2 6 0 0  and 2 6 1 0 
14245427		 # 	collision with: 2 1 0 0  and 2 3 0 0 
14245501		 # 	collision with: 5 4 1 0  and 5 4 2 0 
14245503		 # 	collision with: 4 5 0 0  and 4 5 1 0 
14245509		 # 	collision with: 7 4 1 0  and 5 5 1 0 
14245511		 # 	collision with: 3 1 0 0  and 2 3 0 0 
14245572		 # 	collision with: 9 1 0 0  and 0 9 1 0 
14245574		 # 	collision with: 1 4 0 0  and 7 1 1 0 
14245681		 # 	collision with: 10 9 0 0  and 1 2 1 0 
14245683		 # 	collision with: 4 4 0 0  and 1 5 1 0 
14245689		 # 	collision with: 10 4 1 0  and 0 9 2 0 
14245691		 # 	collision with: 1 6 0 0  and 1 6 1 0 
14245765		 # 	collision with: 3 8 2 0  and 4 8 2 0 
14245767		 # 	collision with: 4 1 0 0  and 4 2 0 0 
14245785		 # 	collision with: 10 6 0 0  and 5 2 1 0 
14245787		 # 	collision with: 2 1 0 0  and 3 1 0 0 
14245801		 # 	collision with: 8 10 0 0  and 9 2 1 0 
14245803		 # 	collision with: 3 6 1 0  and 5 6 1 0 
14245817		 # 	collision with: 6 3 1 0  and 8 5 1 0 
14245819		 # 	collision with: 7 4 1 0  and 2 0 2 0 
14245857		 # 	collision with: 6 4 0 0  and 7 5 1 0 
14245859		 # 	collision with: 1 4 0 0  and 9 5 1 0 
14245873		 # 	collision with: 3 6 0 0  and 2 2 1 0 
14245875		 # 	collision with: 2 1 0 0  and 3 1 0 0 
14245889		 # 	collision with: 5 4 0 0  and 5 10 1 0 
14245891		 # 	collision with: 8 3 1 0  and 2 0 2 0 
14245909		 # 	collision with: 0 7 1 0  and 2 7 1 0 
14245985		 # 	collision with: 1 10 0 0  and 10 1 1 0 
14245993		 # 	collision with: 10 1 0 0  and 10 5 1 0 
14245995		 # 	collision with: 8 1 0 0  and 2 5 1 0 
14246056		 # 	collision with: 9 8 0 0  and 4 9 1 0 
14246058		 # 	collision with: 3 8 1 0  and 10 0 2 0 
14246165		 # 	collision with: 0 2 0 0  and 2 10 1 0 
14246173		 # 	collision with: 6 5 0 0  and 6 3 1 0 
14246175		 # 	collision with: 0 10 0 0  and 3 2 2 0 
14246249		 # 	collision with: 8 5 0 0  and 6 5 1 0 
14246251		 # 	collision with: 3 5 0 0  and 3 4 1 0 
14246269		 # 	collision with: 8 6 1 0  and 8 1 2 0 
14246271		 # 	collision with: 7 6 0 0  and 1 4 1 0 
14246285		 # 	collision with: 5 0 0 0  and 1 8 1 0 
14246287		 # 	collision with: 9 6 0 0  and 9 0 1 0 
14246301		 # 	collision with: 0 3 0 0  and 7 5 1 0 
14246341		 # 	collision with: 7 0 0 0  and 8 9 1 0 
14246343		 # 	collision with: 4 1 2 0  and 6 2 2 0 
14246357		 # 	collision with: 4 6 0 0  and 8 0 1 0 
14246359		 # 	collision with: 10 1 1 0  and 3 3 1 0 
14246373		 # 	collision with: 7 2 0 0  and 2 3 1 0 
14246375		 # 	collision with: 0 3 2 0  and 2 6 3 0 
14246393		 # 	collision with: 1 3 0 0  and 9 2 2 0 
14246395		 # 	collision with: 3 7 1 0  and 6 3 2 0 
14246469		 # 	collision with: 0 9 1 0  and 1 9 1 0 
14246471		 # 	collision with: 3 5 0 0  and 0 5 1 0 
14246477		 # 	collision with: 6 9 0 0  and 10 0 2 0 
14246479		 # 	collision with: 5 7 0 0  and 5 7 1 0 
14246540		 # 	collision with: 7 8 1 0  and 0 3 2 0 
14246542		 # 	collision with: 0 9 0 0  and 6 0 1 0 
14246649		 # 	collision with: 3 2 0 0  and 4 0 1 0 
14246651		 # 	collision with: 3 8 0 0  and 4 8 2 0 
14246657		 # 	collision with: 0 10 0 0  and 10 0 1 0 
14246659		 # 	collision with: 2 1 0 0  and 3 1 0 0 
14246733		 # 	collision with: 3 1 2 0  and 3 3 2 0 
14246735		 # 	collision with: 10 4 0 0  and 7 2 1 0 
14246753		 # 	collision with: 0 7 1 0  and 4 0 2 0 
14246769		 # 	collision with: 6 9 1 0  and 1 5 2 0 
14246785		 # 	collision with: 0 5 0 0  and 3 10 1 0 
14246787		 # 	collision with: 3 9 0 0  and 9 8 2 0 
14246825		 # 	collision with: 8 3 1 0  and 8 4 1 0 
14246827		 # 	collision with: 5 3 1 0  and 8 4 1 0 
14246841		 # 	collision with: 3 10 0 0  and 10 3 1 0 
14246843		 # 	collision with: 9 8 0 0  and 3 9 1 0 
14246857		 # 	collision with: 9 6 0 0  and 5 2 1 0 
14246859		 # 	collision with: 5 2 0 0  and 7 10 1 0 
14246877		 # 	collision with: 6 7 0 0  and 10 1 1 0 
14246879		 # 	collision with: 2 1 0 0  and 3 1 0 0 
14246953		 # 	collision with: 1 2 0 0  and 8 8 1 0 
14246955		 # 	collision with: 3 9 0 0  and 8 1 1 0 
14246961		 # 	collision with: 3 10 0 0  and 5 0 1 0 
14246963		 # 	collision with: 1 10 0 0  and 10 0 1 0 
14247115		 # 	collision with: 10 5 0 0  and 10 6 0 0 
14247223		 # 	collision with: 3 3 0 0  and 9 1 1 0 
14247235		 # 	collision with: 0 9 0 0  and 7 2 2 0 
14247259		 # 	collision with: 0 10 1 0  and 9 0 2 0 
14247267		 # 	collision with: 7 1 0 0  and 1 0 2 0 
14247315		 # 	collision with: 2 8 0 0  and 1 6 1 0 
14247323		 # 	collision with: 2 6 0 0  and 1 0 1 0 
14247347		 # 	collision with: 7 6 0 0  and 10 0 1 0 
14247359		 # 	collision with: 3 6 0 0  and 4 5 1 0 
14247423		 # 	collision with: 10 5 0 0  and 10 6 0 0 
14247508		 # 	collision with: 1 2 0 0  and 0 1 2 0 
14247510		 # 	collision with: 10 1 0 0  and 3 0 2 0 
14247597		 # 	collision with: 8 10 1 0  and 3 1 2 0 
14247601		 # 	collision with: 10 10 0 0  and 10 7 1 0 
14247603		 # 	collision with: 9 3 0 0  and 3 0 2 0 
14247705		 # 	collision with: 4 6 1 0  and 5 6 1 0 
14247707		 # 	collision with: 1 2 0 0  and 7 7 1 0 
14247717		 # 	collision with: 10 9 0 0  and 0 1 1 0 
14247719		 # 	collision with: 6 0 1 0  and 6 2 1 0 
14247741		 # 	collision with: 7 9 0 0  and 10 4 1 0 
14247743		 # 	collision with: 1 4 0 0  and 1 6 0 0 
14247749		 # 	collision with: 4 2 0 0  and 4 7 1 0 
14247751		 # 	collision with: 0 2 0 0  and 2 7 1 0 
14247797		 # 	collision with: 7 1 1 0  and 1 3 1 0 
14247799		 # 	collision with: 7 5 0 0  and 6 5 1 0 
14247805		 # 	collision with: 10 9 0 0  and 0 1 1 0 
14247807		 # 	collision with: 6 0 1 0  and 6 2 1 0 
14247829		 # 	collision with: 7 10 0 0  and 8 8 1 0 
14247831		 # 	collision with: 1 4 0 0  and 1 6 0 0 
14247841		 # 	collision with: 10 0 0 0  and 2 3 1 0 
14247843		 # 	collision with: 1 3 0 0  and 3 9 2 0 
14247905		 # 	collision with: 0 8 1 0  and 1 8 1 0 
14247907		 # 	collision with: 7 7 0 0  and 7 0 2 0 
14247945		 # 	collision with: 2 9 1 0  and 2 9 2 0 
14247947		 # 	collision with: 8 4 0 0  and 4 6 2 0 
14247992		 # 	collision with: 1 1 0 0  and 0 5 1 0 
14247994		 # 	collision with: 1 0 1 0  and 3 10 3 0 
14248081		 # 	collision with: 5 3 2 0  and 7 9 3 0 
14248083		 # 	collision with: 2 4 1 0  and 9 6 2 0 
14248085		 # 	collision with: 3 5 0 0  and 1 6 1 0 
14248087		 # 	collision with: 1 8 0 0  and 0 8 1 0 
14248189		 # 	collision with: 3 2 0 0  and 4 5 1 0 
14248191		 # 	collision with: 4 1 0 0  and 0 0 1 0 
14248201		 # 	collision with: 2 1 0 0  and 2 1 1 0 
14248203		 # 	collision with: 0 0 1 0  and 3 1 1 0 
14248225		 # 	collision with: 0 10 0 0  and 4 10 1 0 
14248227		 # 	collision with: 3 2 1 0  and 5 4 1 0 
14248233		 # 	collision with: 7 6 0 0  and 2 6 1 0 
14248235		 # 	collision with: 4 1 0 0  and 0 0 1 0 
14248281		 # 	collision with: 5 1 0 0  and 3 0 1 0 
14248283		 # 	collision with: 7 4 0 0  and 9 5 0 0 
14248289		 # 	collision with: 5 1 0 0  and 5 1 1 0 
14248291		 # 	collision with: 3 0 1 0  and 10 1 1 0 
14248313		 # 	collision with: 0 2 0 0  and 8 9 1 0 
14248315		 # 	collision with: 0 5 1 0  and 4 2 3 0 
14248325		 # 	collision with: 9 1 0 0  and 4 3 1 0 
14248327		 # 	collision with: 7 4 0 0  and 9 5 0 0 
14248389		 # 	collision with: 0 5 2 0  and 2 5 2 0 
14248391		 # 	collision with: 7 0 0 0  and 7 7 1 0 
14248429		 # 	collision with: 9 0 0 0  and 6 5 1 0 
14248431		 # 	collision with: 2 7 0 0  and 3 7 0 0 
14248476		 # 	collision with: 5 10 0 0  and 0 6 2 0 
14248478		 # 	collision with: 8 0 0 0  and 10 10 1 0 
14248565		 # 	collision with: 9 5 0 0  and 9 7 1 0 
14248567		 # 	collision with: 7 9 0 0  and 9 4 1 0 
14248569		 # 	collision with: 4 3 0 0  and 9 1 2 0 
14248571		 # 	collision with: 7 3 0 0  and 9 5 0 0 
14248673		 # 	collision with: 7 9 0 0  and 1 7 1 0 
14248675		 # 	collision with: 0 2 0 0  and 1 6 1 0 
14248685		 # 	collision with: 2 1 0 0  and 5 1 1 0 
14248687		 # 	collision with: 10 1 0 0  and 10 1 1 0 
14248709		 # 	collision with: 0 6 0 0  and 1 4 1 0 
14248711		 # 	collision with: 0 10 0 0  and 9 6 1 0 
14248717		 # 	collision with: 10 1 0 0  and 10 1 2 0 
14248765		 # 	collision with: 1 6 1 0  and 4 0 3 0 
14248767		 # 	collision with: 5 0 1 0  and 8 2 1 0 
14248773		 # 	collision with: 10 7 0 0  and 6 1 1 0 
14248775		 # 	collision with: 3 1 0 0  and 3 1 1 0 
14248797		 # 	collision with: 10 4 0 0  and 1 7 1 0 
14248799		 # 	collision with: 4 6 0 0  and 1 1 1 0 
14248809		 # 	collision with: 0 3 1 0  and 3 6 2 0 
14248873		 # 	collision with: 6 2 0 0  and 8 5 1 0 
14248875		 # 	collision with: 2 8 0 0  and 0 2 2 0 
14248913		 # 	collision with: 6 4 0 0  and 8 8 1 0 
14248915		 # 	collision with: 4 8 0 0  and 9 2 1 0 
14248960		 # 	collision with: 7 8 1 0  and 6 3 2 0 
14248962		 # 	collision with: 1 6 0 0  and 2 8 1 0 
14249049		 # 	collision with: 8 10 0 0  and 3 1 1 0 
14249051		 # 	collision with: 0 3 0 0  and 5 4 0 0 
14249053		 # 	collision with: 7 3 0 0  and 5 7 1 0 
14249055		 # 	collision with: 2 2 1 0  and 1 2 2 0 
14249157		 # 	collision with: 0 6 0 0  and 1 1 2 0 
14249159		 # 	collision with: 2 7 0 0  and 3 7 0 0 
14249169		 # 	collision with: 4 2 0 0  and 7 4 1 0 
14249171		 # 	collision with: 7 3 0 0  and 7 4 0 0 
14249193		 # 	collision with: 3 1 1 0  and 3 3 1 0 
14249195		 # 	collision with: 4 3 0 0  and 2 2 1 0 
14249201		 # 	collision with: 1 2 1 0  and 2 2 1 0 
14249203		 # 	collision with: 2 7 0 0  and 3 7 0 0 
14249249		 # 	collision with: 10 2 0 0  and 6 0 2 0 
14249251		 # 	collision with: 1 7 1 0  and 3 0 2 0 
14249257		 # 	collision with: 10 5 0 0  and 1 6 1 0 
14249259		 # 	collision with: 7 3 0 0  and 7 4 0 0 
14249281		 # 	collision with: 3 1 1 0  and 3 3 1 0 
14249283		 # 	collision with: 2 7 0 0  and 10 3 1 0 
14249293		 # 	collision with: 1 8 1 0  and 6 2 2 0 
14249295		 # 	collision with: 4 1 0 0  and 4 2 1 0 
14249357		 # 	collision with: 5 8 0 0  and 9 1 1 0 
14249359		 # 	collision with: 0 3 0 0  and 5 4 0 0 
14249397		 # 	collision with: 8 3 0 0  and 8 3 1 0 
14249399		 # 	collision with: 2 8 1 0  and 1 4 2 0 
14249444		 # 	collision with: 10 8 0 0  and 9 3 1 0 
14249446		 # 	collision with: 8 10 0 0  and 3 5 1 0 
14249533		 # 	collision with: 5 9 1 0  and 6 2 3 0 
14249535		 # 	collision with: 1 10 1 0  and 3 10 1 0 
14249537		 # 	collision with: 8 2 0 0  and 8 5 1 0 
14249539		 # 	collision with: 1 6 1 0  and 10 3 2 0 
14249641		 # 	collision with: 1 1 0 0  and 6 1 2 0 
14249643		 # 	collision with: 0 0 1 0  and 3 1 1 0 
14249653		 # 	collision with: 7 2 0 0  and 4 0 1 0 
14249677		 # 	collision with: 6 4 0 0  and 3 3 1 0 
14249685		 # 	collision with: 4 0 1 0  and 10 1 1 0 
14249687		 # 	collision with: 8 0 1 0  and 8 1 1 0 
14249733		 # 	collision with: 6 1 0 0  and 0 6 1 0 
14249735		 # 	collision with: 7 8 1 0  and 6 0 2 0 
14249741		 # 	collision with: 5 9 0 0  and 8 5 1 0 
14249743		 # 	collision with: 2 7 0 0  and 3 7 0 0 
14249765		 # 	collision with: 10 1 1 0  and 7 0 2 0 
14249767		 # 	collision with: 3 1 1 0  and 4 1 1 0 
14249777		 # 	collision with: 0 5 1 0  and 2 5 1 0 
14249779		 # 	collision with: 5 7 0 0  and 8 9 1 0 
14249841		 # 	collision with: 9 8 0 0  and 8 3 1 0 
14249843		 # 	collision with: 7 1 0 0  and 6 4 1 0 
14249881		 # 	collision with: 6 4 0 0  and 0 7 1 0 
14249883		 # 	collision with: 0 2 0 0  and 5 4 0 0 
14249928		 # 	collision with: 6 1 0 0  and 0 6 1 0 
14249930		 # 	collision with: 10 5 0 0  and 7 10 1 0 
13.0351secs	6093
