# prime 11
# degree 2
# input variables 3
# output variables 3
# reload computed balance functions from file balance-2774of3248-p11d2m3-debug.log
# p = 11
# n = 3
# smalldomain p^m 1331
# domain p^n 1331
#	 p^2 = 121
#	 p^3 = 1331
#	 p^4 = 14641
#	 p^5 = 161051
#	 p^6 = 1771561
#	 p^7 = 19487171
#	 p^8 = 214358881
#	 p^9 = 2357947691
opening file : balance-2774of3248-p11d2m3-debug.log
reloading for step2...
16644021		 # 	collision with: 5 2 0  and 2 3 0 
16644023		 # 	collision with: 5 2 0  and 4 1 1 
16644029		 # 	collision with: 7 4 0  and 8 6 0 
16644031		 # 	collision with: 5 3 0  and 6 4 0 
16644085		 # 	collision with: 3 7 0  and 10 0 1 
16644087		 # 	collision with: 8 3 0  and 5 5 0 
16644093		 # 	collision with: 0 4 0  and 3 2 1 
16644095		 # 	collision with: 6 2 0  and 0 3 0 
16644125		 # 	collision with: 10 9 0  and 0 0 1 
16644127		 # 	collision with: 9 1 0  and 1 3 0 
16644137		 # 	collision with: 2 4 0  and 7 6 0 
16644139		 # 	collision with: 4 0 0  and 1 2 0 
16644213		 # 	collision with: 4 10 0  and 6 2 1 
16644215		 # 	collision with: 9 10 0  and 3 1 1 
16644217		 # 	collision with: 0 4 0  and 5 5 0 
16644219		 # 	collision with: 4 4 0  and 1 0 1 
16644276		 # 	collision with: 10 1 0  and 0 0 1 
16644278		 # 	collision with: 9 2 0  and 1 3 0 
16644381		 # 	collision with: 4 5 0  and 1 6 0 
16644383		 # 	collision with: 2 4 0  and 10 6 0 
16644385		 # 	collision with: 1 10 0  and 10 0 1 
16644387		 # 	collision with: 7 0 0  and 9 1 0 
16644461		 # 	collision with: 0 3 0  and 7 4 0 
16644463		 # 	collision with: 9 2 0  and 1 3 0 
16644473		 # 	collision with: 8 4 0  and 4 5 0 
16644475		 # 	collision with: 0 4 0  and 1 0 1 
16644505		 # 	collision with: 6 2 0  and 2 4 0 
16644507		 # 	collision with: 3 2 0  and 0 4 0 
16644513		 # 	collision with: 5 2 0  and 5 3 0 
16644515		 # 	collision with: 7 0 0  and 4 1 1 
16644569		 # 	collision with: 6 5 0  and 9 0 1 
16644571		 # 	collision with: 6 4 0  and 10 6 0 
16644577		 # 	collision with: 9 3 0  and 7 0 1 
16644579		 # 	collision with: 4 4 0  and 5 0 1 
16644609		 # 	collision with: 9 3 0  and 0 4 0 
16644611		 # 	collision with: 1 10 0  and 2 10 0 
16644621		 # 	collision with: 5 5 0  and 7 0 1 
16644623		 # 	collision with: 10 6 0  and 6 7 0 
16644697		 # 	collision with: 4 4 0  and 2 5 0 
16644699		 # 	collision with: 8 0 0  and 8 2 0 
16644701		 # 	collision with: 8 2 0  and 0 3 0 
16644703		 # 	collision with: 1 9 0  and 0 0 1 
16644760		 # 	collision with: 6 3 0  and 10 4 0 
16644762		 # 	collision with: 7 0 1  and 9 1 1 
16644865		 # 	collision with: 10 1 0  and 1 0 1 
16644867		 # 	collision with: 3 2 0  and 8 4 0 
16644869		 # 	collision with: 9 1 0  and 6 2 0 
16644871		 # 	collision with: 4 6 0  and 6 6 0 
16644947		 # 	collision with: 0 2 0  and 7 3 0 
16644957		 # 	collision with: 8 2 0  and 1 4 0 
16644959		 # 	collision with: 6 0 0  and 2 1 0 
16644989		 # 	collision with: 9 3 0  and 0 4 0 
16644991		 # 	collision with: 2 1 0  and 2 2 1 
16644997		 # 	collision with: 2 0 0  and 6 1 0 
16644999		 # 	collision with: 5 1 0  and 3 2 0 
16645053		 # 	collision with: 1 10 0  and 2 10 0 
16645061		 # 	collision with: 9 0 0  and 5 1 0 
16645063		 # 	collision with: 3 5 0  and 6 6 0 
16645095		 # 	collision with: 10 4 0  and 6 0 1 
16645105		 # 	collision with: 1 1 0  and 3 3 0 
16645107		 # 	collision with: 2 1 0  and 9 3 0 
16645181		 # 	collision with: 7 1 0  and 0 2 0 
16645183		 # 	collision with: 8 0 0  and 9 2 0 
16645185		 # 	collision with: 3 0 0  and 4 1 0 
16645187		 # 	collision with: 0 0 0  and 1 2 0 
16645244		 # 	collision with: 8 4 0  and 1 0 1 
16645246		 # 	collision with: 0 0 0  and 1 1 1 
16645351		 # 	collision with: 6 4 0  and 10 0 1 
16645353		 # 	collision with: 5 5 0  and 0 7 0 
16645355		 # 	collision with: 3 1 0  and 10 2 0 
16645429		 # 	collision with: 9 3 0  and 4 5 0 
16645431		 # 	collision with: 3 1 0  and 1 0 1 
16645441		 # 	collision with: 4 10 0  and 6 1 1 
16645443		 # 	collision with: 3 4 0  and 5 4 0 
16645473		 # 	collision with: 1 3 0  and 9 5 0 
16645475		 # 	collision with: 1 8 0  and 9 0 1 
16645481		 # 	collision with: 3 1 0  and 3 0 1 
16645483		 # 	collision with: 8 8 0  and 8 1 1 
16645537		 # 	collision with: 6 3 0  and 0 5 0 
16645539		 # 	collision with: 3 3 0  and 4 3 0 
16645545		 # 	collision with: 8 2 0  and 1 4 0 
16645547		 # 	collision with: 1 5 0  and 5 0 1 
16645577		 # 	collision with: 9 2 0  and 7 3 0 
16645579		 # 	collision with: 6 2 0  and 2 0 1 
16645589		 # 	collision with: 8 1 0  and 1 3 0 
16645591		 # 	collision with: 2 1 0  and 7 2 0 
16645667		 # 	collision with: 4 10 0  and 5 3 1 
16645669		 # 	collision with: 7 5 0  and 5 6 0 
16645671		 # 	collision with: 6 0 0  and 2 1 0 
16645728		 # 	collision with: 8 7 0  and 0 0 1 
16645730		 # 	collision with: 1 5 0  and 4 0 1 
16645833		 # 	collision with: 4 0 0  and 7 2 0 
16645835		 # 	collision with: 6 7 0  and 4 0 1 
16645839		 # 	collision with: 8 1 0  and 0 0 1 
16645913		 # 	collision with: 6 7 0  and 5 0 1 
16645915		 # 	collision with: 3 4 0  and 5 4 0 
16645925		 # 	collision with: 4 4 0  and 2 5 0 
16645927		 # 	collision with: 0 0 0  and 1 1 1 
16645957		 # 	collision with: 4 4 0  and 7 5 0 
16645959		 # 	collision with: 5 0 0  and 6 2 0 
16645965		 # 	collision with: 6 3 0  and 9 5 0 
16645967		 # 	collision with: 7 3 0  and 9 4 0 
16646021		 # 	collision with: 7 3 0  and 7 4 0 
16646023		 # 	collision with: 4 4 0  and 5 5 0 
16646029		 # 	collision with: 2 0 0  and 4 2 0 
16646031		 # 	collision with: 9 1 0  and 5 2 1 
16646061		 # 	collision with: 0 3 0  and 1 0 1 
16646063		 # 	collision with: 0 0 0  and 1 2 0 
16646073		 # 	collision with: 1 3 0  and 3 0 1 
16646075		 # 	collision with: 1 10 0  and 2 10 0 
16646149		 # 	collision with: 2 1 0  and 3 2 0 
16646151		 # 	collision with: 10 7 0  and 0 1 1 
16646155		 # 	collision with: 4 3 0  and 1 0 1 
16646212		 # 	collision with: 0 2 0  and 2 4 0 
16646214		 # 	collision with: 9 0 0  and 2 1 0 
16646317		 # 	collision with: 5 2 0  and 5 3 0 
16646319		 # 	collision with: 7 0 0  and 7 1 0 
16646321		 # 	collision with: 0 4 0  and 4 5 0 
16646323		 # 	collision with: 7 1 0  and 1 3 0 
16646397		 # 	collision with: 1 9 0  and 9 0 1 
16646399		 # 	collision with: 6 1 0  and 2 0 1 
16646411		 # 	collision with: 1 7 0  and 7 0 1 
16646441		 # 	collision with: 0 4 0  and 1 6 0 
16646443		 # 	collision with: 2 1 0  and 9 3 0 
16646449		 # 	collision with: 4 0 0  and 10 2 0 
16646505		 # 	collision with: 4 5 0  and 9 6 0 
16646507		 # 	collision with: 0 4 0  and 2 0 1 
16646513		 # 	collision with: 8 0 0  and 5 2 0 
16646515		 # 	collision with: 7 5 0  and 9 6 0 
16646545		 # 	collision with: 3 4 0  and 4 6 0 
16646547		 # 	collision with: 2 0 0  and 5 1 0 
16646559		 # 	collision with: 6 4 0  and 10 6 0 
16646633		 # 	collision with: 3 6 0  and 1 0 1 
16646635		 # 	collision with: 0 4 0  and 7 6 0 
16646637		 # 	collision with: 7 3 0  and 7 4 0 
16646639		 # 	collision with: 6 0 0  and 3 1 0 
16646696		 # 	collision with: 9 3 0  and 0 4 0 
16646698		 # 	collision with: 9 0 0  and 10 2 0 
16646801		 # 	collision with: 8 2 0  and 7 4 0 
16646803		 # 	collision with: 0 1 0  and 3 2 0 
16646805		 # 	collision with: 8 3 0  and 1 5 0 
16646807		 # 	collision with: 10 0 0  and 6 2 0 
16646881		 # 	collision with: 9 0 1  and 2 1 1 
16646883		 # 	collision with: 0 3 0  and 9 4 0 
16646893		 # 	collision with: 9 10 0  and 2 0 1 
16646895		 # 	collision with: 2 1 0  and 7 2 0 
16646925		 # 	collision with: 4 5 0  and 9 6 0 
16646927		 # 	collision with: 3 4 0  and 10 0 1 
16646933		 # 	collision with: 2 2 0  and 4 2 0 
16646935		 # 	collision with: 7 0 0  and 7 1 0 
16646989		 # 	collision with: 4 0 0  and 10 2 0 
16646991		 # 	collision with: 1 2 0  and 7 4 0 
16646997		 # 	collision with: 5 4 0  and 6 6 0 
16646999		 # 	collision with: 4 0 0  and 5 2 0 
16647029		 # 	collision with: 6 10 0  and 5 0 1 
16647031		 # 	collision with: 8 0 0  and 8 2 0 
16647041		 # 	collision with: 0 2 0  and 2 0 1 
16647043		 # 	collision with: 0 10 0  and 3 1 1 
16647117		 # 	collision with: 3 0 0  and 8 2 1 
16647119		 # 	collision with: 6 2 0  and 7 3 0 
16647121		 # 	collision with: 8 4 0  and 4 5 0 
16647123		 # 	collision with: 4 3 0  and 3 5 0 
16647180		 # 	collision with: 6 3 0  and 9 4 0 
16647182		 # 	collision with: 2 7 0  and 4 2 1 
16647285		 # 	collision with: 4 10 0  and 0 0 1 
16647287		 # 	collision with: 9 1 0  and 1 3 0 
16647289		 # 	collision with: 9 2 0  and 7 3 0 
16647291		 # 	collision with: 7 4 0  and 0 5 0 
16647365		 # 	collision with: 0 0 0  and 7 2 0 
16647367		 # 	collision with: 1 1 0  and 1 0 1 
16647377		 # 	collision with: 5 2 0  and 2 3 0 
16647379		 # 	collision with: 6 5 0  and 6 6 0 
16647409		 # 	collision with: 9 0 0  and 5 1 0 
16647411		 # 	collision with: 5 4 0  and 5 6 0 
16647417		 # 	collision with: 0 6 0  and 3 1 1 
16647419		 # 	collision with: 3 1 0  and 10 2 0 
16647473		 # 	collision with: 9 4 0  and 10 6 0 
16647475		 # 	collision with: 7 5 0  and 2 0 1 
16647481		 # 	collision with: 2 8 0  and 10 0 1 
16647483		 # 	collision with: 2 4 0  and 10 6 0 
16647513		 # 	collision with: 10 5 0  and 0 4 1 
16647515		 # 	collision with: 0 7 0  and 5 1 1 
16647525		 # 	collision with: 6 1 0  and 2 2 0 
16647601		 # 	collision with: 4 10 0  and 0 1 1 
16647605		 # 	collision with: 1 3 0  and 9 5 0 
16647607		 # 	collision with: 5 2 0  and 7 4 0 
16647664		 # 	collision with: 8 5 0  and 3 4 1 
16647666		 # 	collision with: 10 3 0  and 4 5 0 
16647769		 # 	collision with: 4 1 0  and 4 0 1 
16647773		 # 	collision with: 3 3 0  and 4 1 1 
16647775		 # 	collision with: 6 5 0  and 6 6 0 
16647849		 # 	collision with: 5 3 0  and 9 0 1 
16647851		 # 	collision with: 5 2 0  and 7 4 0 
16647861		 # 	collision with: 9 4 0  and 9 5 0 
16647863		 # 	collision with: 9 0 0  and 10 2 0 
16647895		 # 	collision with: 4 0 1  and 4 1 1 
16647901		 # 	collision with: 10 1 0  and 4 2 0 
16647903		 # 	collision with: 1 2 0  and 7 4 0 
16647959		 # 	collision with: 1 2 0  and 1 4 0 
16647965		 # 	collision with: 8 2 0  and 0 3 0 
16647997		 # 	collision with: 9 4 0  and 0 6 0 
16647999		 # 	collision with: 8 2 0  and 1 3 0 
16648009		 # 	collision with: 8 5 0  and 6 0 1 
16648011		 # 	collision with: 10 3 0  and 5 5 0 
16648085		 # 	collision with: 8 2 0  and 7 4 0 
16648087		 # 	collision with: 7 1 0  and 1 3 0 
16648089		 # 	collision with: 1 5 0  and 5 0 1 
16648091		 # 	collision with: 7 8 0  and 0 0 1 
16648249		 # 	collision with: 0 2 0  and 1 4 0 
16648261		 # 	collision with: 9 2 0  and 6 4 0 
16648263		 # 	collision with: 3 0 0  and 7 1 0 
16648357		 # 	collision with: 5 2 0  and 0 0 1 
16648359		 # 	collision with: 2 5 0  and 1 1 1 
16648365		 # 	collision with: 3 2 0  and 8 3 0 
16648367		 # 	collision with: 10 0 0  and 3 1 0 
16648369		 # 	collision with: 1 9 0  and 9 0 1 
16648371		 # 	collision with: 8 4 0  and 3 6 0 
16648393		 # 	collision with: 7 1 0  and 7 0 1 
16648395		 # 	collision with: 3 4 0  and 8 5 0 
16648413		 # 	collision with: 10 9 0  and 3 0 1 
16648415		 # 	collision with: 2 1 0  and 4 0 1 
16648433		 # 	collision with: 4 0 0  and 7 2 0 
16648435		 # 	collision with: 8 2 0  and 3 2 1 
16648461		 # 	collision with: 10 2 0  and 2 4 0 
16648463		 # 	collision with: 6 5 0  and 8 7 0 
16648469		 # 	collision with: 0 1 0  and 10 3 0 
16648471		 # 	collision with: 7 1 0  and 2 0 1 
16648565		 # 	collision with: 9 4 0  and 8 5 0 
16648567		 # 	collision with: 7 0 0  and 5 2 0 
16648577		 # 	collision with: 3 1 0  and 5 0 1 
16648632		 # 	collision with: 6 5 0  and 6 0 1 
16648634		 # 	collision with: 10 1 0  and 2 3 0 
16648733		 # 	collision with: 10 2 0  and 5 3 0 
16648735		 # 	collision with: 3 8 0  and 5 8 0 
16648745		 # 	collision with: 1 2 0  and 8 3 0 
16648841		 # 	collision with: 5 1 0  and 7 2 0 
16648843		 # 	collision with: 2 4 0  and 1 0 1 
16648849		 # 	collision with: 6 0 0  and 5 1 0 
16648851		 # 	collision with: 2 2 0  and 4 4 0 
16648853		 # 	collision with: 1 2 0  and 8 3 0 
16648855		 # 	collision with: 10 2 0  and 9 4 0 
16648877		 # 	collision with: 1 2 0  and 8 3 0 
16648879		 # 	collision with: 9 1 0  and 4 3 0 
16648897		 # 	collision with: 1 2 0  and 8 3 0 
16648899		 # 	collision with: 7 1 0  and 10 2 0 
16648917		 # 	collision with: 9 1 0  and 5 3 0 
16648919		 # 	collision with: 6 5 0  and 0 1 1 
16648945		 # 	collision with: 1 2 0  and 8 3 0 
16648947		 # 	collision with: 1 10 0  and 1 0 1 
16648953		 # 	collision with: 1 2 0  and 3 2 0 
16648955		 # 	collision with: 3 1 0  and 4 1 0 
16649049		 # 	collision with: 0 0 0  and 9 2 0 
16649051		 # 	collision with: 3 2 0  and 1 4 0 
16649061		 # 	collision with: 4 1 0  and 1 2 0 
16649063		 # 	collision with: 9 1 0  and 8 3 0 
16649116		 # 	collision with: 9 0 0  and 6 1 0 
16649118		 # 	collision with: 2 1 0  and 9 3 0 
16649217		 # 	collision with: 3 1 0  and 4 3 0 
16649219		 # 	collision with: 1 2 0  and 8 4 0 
16649231		 # 	collision with: 5 2 0  and 0 0 1 
16649325		 # 	collision with: 8 8 0  and 7 0 1 
16649327		 # 	collision with: 1 1 0  and 8 2 0 
16649333		 # 	collision with: 2 1 0  and 7 2 0 
16649335		 # 	collision with: 2 0 0  and 1 1 0 
16649337		 # 	collision with: 9 4 0  and 0 2 1 
16649339		 # 	collision with: 4 9 0  and 5 0 1 
16649361		 # 	collision with: 7 3 0  and 7 4 0 
16649363		 # 	collision with: 4 0 0  and 8 1 0 
16649381		 # 	collision with: 4 2 0  and 6 0 1 
16649383		 # 	collision with: 6 5 0  and 8 7 0 
16649401		 # 	collision with: 2 1 0  and 8 2 0 
16649403		 # 	collision with: 2 0 0  and 7 2 0 
16649429		 # 	collision with: 6 0 0  and 8 2 0 
16649431		 # 	collision with: 3 1 1  and 1 3 1 
16649437		 # 	collision with: 1 2 0  and 0 4 0 
16649439		 # 	collision with: 5 3 0  and 3 0 1 
16649533		 # 	collision with: 7 2 0  and 5 4 0 
16649535		 # 	collision with: 8 0 0  and 1 1 0 
16649547		 # 	collision with: 8 0 1  and 1 2 1 
16649600		 # 	collision with: 2 2 0  and 10 4 0 
16649602		 # 	collision with: 8 0 0  and 6 1 0 
16649701		 # 	collision with: 2 1 0  and 8 2 0 
16649703		 # 	collision with: 2 8 0  and 10 0 1 
16649713		 # 	collision with: 7 10 0  and 0 1 1 
16649715		 # 	collision with: 8 5 0  and 0 4 1 
16649809		 # 	collision with: 10 5 0  and 8 6 0 
16649811		 # 	collision with: 9 3 0  and 3 5 0 
16649817		 # 	collision with: 4 1 0  and 3 2 0 
16649819		 # 	collision with: 7 0 0  and 5 2 0 
16649821		 # 	collision with: 4 10 0  and 10 0 1 
16649845		 # 	collision with: 9 7 0  and 2 2 1 
16649847		 # 	collision with: 1 2 0  and 2 0 1 
16649865		 # 	collision with: 6 4 0  and 2 6 0 
16649867		 # 	collision with: 3 1 1  and 1 3 1 
16649885		 # 	collision with: 0 0 0  and 6 2 0 
16649887		 # 	collision with: 7 3 0  and 1 0 1 
16649913		 # 	collision with: 9 1 0  and 5 2 0 
16649915		 # 	collision with: 3 1 0  and 4 1 0 
16649921		 # 	collision with: 4 3 0  and 9 4 0 
3.86274secs	2439
