# prime 11
# degree 2
# input variables 3
# output variables 3
# reload computed balance functions from file balance-1568of3248-p11d2m3-debug.log
# p = 11
# n = 3
# smalldomain p^m 1331
# domain p^n 1331
#	 p^2 = 121
#	 p^3 = 1331
#	 p^4 = 14641
#	 p^5 = 161051
#	 p^6 = 1771561
#	 p^7 = 19487171
#	 p^8 = 214358881
#	 p^9 = 2357947691
opening file : balance-1568of3248-p11d2m3-debug.log
reloading for step2...
9408013		 # 	collision with: 2 2 0  and 10 4 0 
9408015		 # 	collision with: 4 3 0  and 3 4 0 
9408019		 # 	collision with: 0 0 0  and 6 1 0 
9408065		 # 	collision with: 8 1 0  and 0 1 1 
9408067		 # 	collision with: 4 3 0  and 3 4 0 
9408077		 # 	collision with: 5 0 0  and 3 1 0 
9408079		 # 	collision with: 4 3 0  and 3 4 0 
9408105		 # 	collision with: 4 3 0  and 5 4 0 
9408217		 # 	collision with: 1 1 0  and 9 3 0 
9408219		 # 	collision with: 4 3 0  and 3 4 0 
9408241		 # 	collision with: 9 1 0  and 8 2 0 
9408243		 # 	collision with: 4 3 0  and 3 4 0 
9408273		 # 	collision with: 5 6 0  and 6 0 1 
9408275		 # 	collision with: 7 1 0  and 0 3 0 
9408297		 # 	collision with: 9 0 0  and 4 2 0 
9408299		 # 	collision with: 4 3 0  and 3 4 0 
9408409		 # 	collision with: 9 0 0  and 7 1 0 
9408411		 # 	collision with: 0 1 0  and 8 2 0 
9408437		 # 	collision with: 5 2 0  and 9 4 0 
9408439		 # 	collision with: 4 3 0  and 3 4 0 
9408449		 # 	collision with: 5 7 0  and 7 0 1 
9408451		 # 	collision with: 6 2 0  and 7 3 0 
9408476		 # 	collision with: 6 0 0  and 1 1 0 
9408478		 # 	collision with: 0 0 0  and 6 1 0 
9408497		 # 	collision with: 2 1 0  and 5 3 0 
9408499		 # 	collision with: 4 0 0  and 7 2 0 
9408501		 # 	collision with: 4 1 0  and 9 3 0 
9408503		 # 	collision with: 2 1 0  and 3 2 0 
9408549		 # 	collision with: 7 0 0  and 7 2 0 
9408551		 # 	collision with: 10 0 0  and 2 1 0 
9408561		 # 	collision with: 9 0 0  and 7 1 0 
9408563		 # 	collision with: 3 8 0  and 2 0 1 
9408589		 # 	collision with: 5 2 0  and 6 4 0 
9408591		 # 	collision with: 5 3 0  and 8 0 1 
9408701		 # 	collision with: 0 3 0  and 7 4 0 
9408703		 # 	collision with: 2 0 0  and 9 1 0 
9408725		 # 	collision with: 4 0 0  and 3 1 0 
9408727		 # 	collision with: 10 2 0  and 9 3 0 
9408757		 # 	collision with: 2 1 0  and 3 1 0 
9408759		 # 	collision with: 3 6 0  and 4 6 0 
9408781		 # 	collision with: 4 3 0  and 5 4 0 
9408783		 # 	collision with: 5 4 0  and 6 6 0 
9408893		 # 	collision with: 0 0 0  and 9 1 0 
9408895		 # 	collision with: 0 0 0  and 6 1 0 
9408921		 # 	collision with: 4 5 0  and 0 2 1 
9408923		 # 	collision with: 0 2 0  and 5 3 0 
9408933		 # 	collision with: 5 1 0  and 5 2 0 
9408935		 # 	collision with: 0 2 0  and 1 2 0 
9408960		 # 	collision with: 4 9 0  and 0 0 1 
9408962		 # 	collision with: 8 4 0  and 1 0 1 
9408981		 # 	collision with: 2 0 0  and 0 1 0 
9408983		 # 	collision with: 6 2 0  and 7 3 0 
9408985		 # 	collision with: 2 0 0  and 0 1 0 
9408987		 # 	collision with: 4 5 0  and 8 6 0 
9409033		 # 	collision with: 2 0 0  and 0 1 0 
9409035		 # 	collision with: 1 7 0  and 2 7 0 
9409047		 # 	collision with: 3 1 0  and 9 2 0 
9409073		 # 	collision with: 2 0 0  and 0 1 0 
9409075		 # 	collision with: 6 3 0  and 6 4 0 
9409185		 # 	collision with: 2 0 0  and 0 1 0 
9409187		 # 	collision with: 9 1 0  and 0 3 0 
9409209		 # 	collision with: 2 0 0  and 0 1 0 
9409211		 # 	collision with: 5 1 0  and 4 2 0 
9409241		 # 	collision with: 2 0 0  and 0 1 0 
9409265		 # 	collision with: 2 0 0  and 0 1 0 
9409377		 # 	collision with: 2 0 0  and 0 1 0 
9409379		 # 	collision with: 8 2 0  and 7 4 0 
9409405		 # 	collision with: 2 0 0  and 0 1 0 
9409407		 # 	collision with: 5 0 0  and 5 2 0 
9409419		 # 	collision with: 3 5 0  and 5 0 1 
9409444		 # 	collision with: 10 5 0  and 1 1 1 
9409446		 # 	collision with: 1 1 0  and 6 2 0 
9409465		 # 	collision with: 7 1 0  and 8 2 0 
9409467		 # 	collision with: 2 0 0  and 7 1 0 
9409469		 # 	collision with: 4 3 0  and 3 0 1 
9409471		 # 	collision with: 6 3 0  and 6 4 0 
9409517		 # 	collision with: 3 3 0  and 5 3 0 
9409519		 # 	collision with: 6 9 0  and 10 0 1 
9409529		 # 	collision with: 6 0 0  and 4 1 0 
9409531		 # 	collision with: 1 7 0  and 2 7 0 
9409557		 # 	collision with: 1 2 0  and 1 3 0 
9409559		 # 	collision with: 1 3 0  and 3 0 1 
9409669		 # 	collision with: 10 0 0  and 1 2 0 
9409671		 # 	collision with: 7 3 0  and 6 5 0 
9409693		 # 	collision with: 0 3 0  and 9 5 0 
9409695		 # 	collision with: 0 0 0  and 10 1 0 
9409725		 # 	collision with: 7 3 0  and 3 1 1 
9409727		 # 	collision with: 2 4 0  and 9 5 0 
9409749		 # 	collision with: 6 4 0  and 0 1 1 
9409751		 # 	collision with: 4 1 0  and 6 2 0 
9409861		 # 	collision with: 4 0 0  and 2 1 0 
9409863		 # 	collision with: 1 2 0  and 5 3 0 
9409889		 # 	collision with: 10 2 0  and 10 4 0 
9409891		 # 	collision with: 7 1 0  and 0 3 0 
9409901		 # 	collision with: 8 3 0  and 2 5 0 
9409903		 # 	collision with: 1 10 0  and 2 3 1 
9409928		 # 	collision with: 5 0 0  and 3 1 0 
9409930		 # 	collision with: 8 9 0  and 1 0 1 
9409949		 # 	collision with: 5 2 0  and 6 4 0 
9409951		 # 	collision with: 4 8 0  and 6 8 0 
9409953		 # 	collision with: 8 1 0  and 1 2 0 
9409955		 # 	collision with: 0 3 0  and 8 2 1 
9410001		 # 	collision with: 2 5 0  and 3 1 1 
9410003		 # 	collision with: 10 10 0  and 10 2 1 
9410013		 # 	collision with: 10 0 0  and 8 1 0 
9410015		 # 	collision with: 10 10 0  and 4 1 1 
9410041		 # 	collision with: 8 1 0  and 1 3 0 
9410043		 # 	collision with: 2 3 0  and 7 0 1 
9410155		 # 	collision with: 2 1 0  and 3 1 0 
9410177		 # 	collision with: 9 0 0  and 4 2 0 
9410179		 # 	collision with: 8 2 0  and 7 4 0 
9410211		 # 	collision with: 0 6 0  and 9 0 1 
9410233		 # 	collision with: 2 1 0  and 4 2 1 
9410235		 # 	collision with: 7 5 0  and 10 6 0 
9410345		 # 	collision with: 6 0 0  and 4 1 0 
9410347		 # 	collision with: 1 4 0  and 4 5 0 
9410373		 # 	collision with: 1 1 0  and 1 0 1 
9410385		 # 	collision with: 2 0 0  and 5 1 0 
9410412		 # 	collision with: 0 1 0  and 7 2 0 
9410414		 # 	collision with: 6 5 0  and 9 1 1 
9410433		 # 	collision with: 7 2 0  and 6 4 0 
9410435		 # 	collision with: 10 2 0  and 10 3 0 
9410437		 # 	collision with: 1 2 0  and 1 3 0 
9410439		 # 	collision with: 2 4 0  and 9 5 0 
9410485		 # 	collision with: 4 4 0  and 4 0 1 
9410497		 # 	collision with: 3 0 0  and 1 1 0 
9410525		 # 	collision with: 6 8 0  and 7 0 1 
9410527		 # 	collision with: 6 4 0  and 3 5 0 
9410637		 # 	collision with: 7 5 0  and 1 6 0 
9410639		 # 	collision with: 5 0 0  and 5 2 0 
9410663		 # 	collision with: 9 0 0  and 6 1 0 
9410693		 # 	collision with: 1 10 0  and 8 0 1 
9410695		 # 	collision with: 2 3 0  and 3 5 0 
9410719		 # 	collision with: 3 4 0  and 10 6 0 
9410829		 # 	collision with: 8 0 0  and 6 1 0 
9410831		 # 	collision with: 4 1 0  and 7 3 0 
9410857		 # 	collision with: 9 3 0  and 1 4 0 
9410859		 # 	collision with: 10 0 0  and 2 1 0 
9410869		 # 	collision with: 0 2 0  and 6 0 1 
9410871		 # 	collision with: 5 6 0  and 2 0 1 
9410896		 # 	collision with: 4 2 0  and 8 1 1 
9410898		 # 	collision with: 6 3 0  and 8 5 0 
9410917		 # 	collision with: 8 0 0  and 10 1 0 
9410919		 # 	collision with: 6 3 0  and 3 5 0 
9410921		 # 	collision with: 10 9 0  and 0 1 1 
9410923		 # 	collision with: 7 7 0  and 1 3 1 
9410969		 # 	collision with: 0 3 0  and 8 4 0 
9410971		 # 	collision with: 8 2 0  and 3 0 1 
9410981		 # 	collision with: 7 0 0  and 5 1 0 
9410983		 # 	collision with: 4 1 0  and 4 0 1 
9411009		 # 	collision with: 5 4 0  and 4 6 0 
9411011		 # 	collision with: 1 4 0  and 4 5 0 
9411121		 # 	collision with: 8 1 0  and 1 3 0 
9411123		 # 	collision with: 7 4 0  and 4 6 0 
9411145		 # 	collision with: 0 2 0  and 1 2 0 
9411147		 # 	collision with: 2 2 0  and 0 4 0 
9411177		 # 	collision with: 0 2 0  and 7 3 0 
9411179		 # 	collision with: 8 4 0  and 3 6 0 
9411201		 # 	collision with: 2 1 0  and 3 1 0 
9411203		 # 	collision with: 2 3 0  and 0 1 1 
9411313		 # 	collision with: 10 0 0  and 8 1 0 
9411315		 # 	collision with: 6 10 0  and 5 0 1 
9411341		 # 	collision with: 0 7 0  and 5 0 1 
9411343		 # 	collision with: 10 8 0  and 3 0 1 
9411353		 # 	collision with: 0 4 0  and 8 2 1 
9411355		 # 	collision with: 9 10 0  and 3 1 1 
9411380		 # 	collision with: 1 5 0  and 2 6 0 
9411382		 # 	collision with: 4 3 0  and 3 4 0 
9411401		 # 	collision with: 5 5 0  and 6 5 0 
9411403		 # 	collision with: 6 4 0  and 2 6 0 
9411405		 # 	collision with: 4 3 0  and 10 4 0 
9411407		 # 	collision with: 4 8 0  and 6 8 0 
9411455		 # 	collision with: 0 1 0  and 8 2 0 
9411465		 # 	collision with: 0 0 0  and 9 1 0 
9411467		 # 	collision with: 2 0 0  and 7 1 0 
9411493		 # 	collision with: 7 4 0  and 0 0 1 
9411495		 # 	collision with: 10 0 0  and 3 2 0 
9411605		 # 	collision with: 0 2 0  and 1 2 0 
9411629		 # 	collision with: 2 1 0  and 5 3 0 
9411661		 # 	collision with: 2 4 0  and 10 1 1 
9411663		 # 	collision with: 1 1 0  and 2 0 1 
9411685		 # 	collision with: 5 10 0  and 5 0 1 
9411687		 # 	collision with: 9 4 0  and 3 5 0 
9411797		 # 	collision with: 2 5 0  and 9 7 0 
9411799		 # 	collision with: 10 5 0  and 8 0 1 
9411827		 # 	collision with: 0 2 0  and 1 2 0 
9411837		 # 	collision with: 7 5 0  and 1 6 0 
9411839		 # 	collision with: 6 0 0  and 1 2 0 
9411864		 # 	collision with: 4 5 0  and 3 7 0 
9411866		 # 	collision with: 6 0 0  and 1 2 0 
9411885		 # 	collision with: 4 1 0  and 10 3 0 
9411887		 # 	collision with: 4 5 0  and 10 6 0 
9411889		 # 	collision with: 2 3 0  and 6 5 0 
9411891		 # 	collision with: 0 2 0  and 5 3 0 
9411937		 # 	collision with: 1 1 0  and 9 3 0 
9411939		 # 	collision with: 2 1 0  and 3 2 0 
9411949		 # 	collision with: 4 0 0  and 2 1 0 
9411951		 # 	collision with: 8 3 0  and 9 0 1 
9411977		 # 	collision with: 5 8 0  and 0 0 1 
9411979		 # 	collision with: 0 5 0  and 10 0 1 
9412089		 # 	collision with: 5 3 0  and 0 5 0 
9412091		 # 	collision with: 3 1 0  and 9 2 0 
9412113		 # 	collision with: 2 4 0  and 1 5 0 
9412115		 # 	collision with: 3 0 0  and 1 2 0 
9412145		 # 	collision with: 5 2 0  and 9 4 0 
9412147		 # 	collision with: 5 0 0  and 7 2 0 
9412169		 # 	collision with: 1 2 0  and 7 3 0 
9412171		 # 	collision with: 1 8 0  and 4 0 1 
9412281		 # 	collision with: 3 0 0  and 1 1 0 
9412283		 # 	collision with: 5 7 0  and 0 3 1 
9412309		 # 	collision with: 10 5 0  and 0 0 1 
9412311		 # 	collision with: 10 7 0  and 7 0 1 
9412321		 # 	collision with: 7 9 0  and 2 1 1 
9412323		 # 	collision with: 7 3 0  and 6 5 0 
9412348		 # 	collision with: 3 3 0  and 0 5 0 
9412350		 # 	collision with: 3 3 0  and 4 1 1 
9412371		 # 	collision with: 9 4 0  and 2 6 0 
9412373		 # 	collision with: 4 4 0  and 1 0 1 
9412375		 # 	collision with: 1 7 0  and 6 0 1 
9412421		 # 	collision with: 3 0 0  and 4 1 0 
9412423		 # 	collision with: 7 4 0  and 4 6 0 
9412433		 # 	collision with: 8 0 0  and 6 1 0 
9412435		 # 	collision with: 4 3 0  and 4 5 0 
9412461		 # 	collision with: 0 5 0  and 7 6 0 
9412463		 # 	collision with: 5 7 0  and 4 0 1 
9412573		 # 	collision with: 10 2 0  and 10 4 0 
9412575		 # 	collision with: 10 0 0  and 3 2 0 
9412597		 # 	collision with: 8 3 0  and 7 4 0 
9412599		 # 	collision with: 2 1 0  and 3 1 0 
9412629		 # 	collision with: 1 5 0  and 2 6 0 
9412631		 # 	collision with: 1 2 0  and 5 3 0 
9412653		 # 	collision with: 4 1 0  and 9 3 0 
9412655		 # 	collision with: 3 6 0  and 4 6 0 
9412765		 # 	collision with: 5 0 0  and 3 1 0 
9412793		 # 	collision with: 2 0 0  and 7 2 0 
9412795		 # 	collision with: 6 2 0  and 4 0 1 
9412805		 # 	collision with: 2 3 0  and 6 5 0 
9412807		 # 	collision with: 2 10 0  and 4 1 1 
9412884		 # 	collision with: 7 4 0  and 0 6 0 
9412886		 # 	collision with: 0 0 0  and 1 1 1 
9412892		 # 	collision with: 5 5 0  and 10 6 0 
9412894		 # 	collision with: 4 0 0  and 9 2 0 
9412936		 # 	collision with: 10 1 0  and 3 2 0 
9412938		 # 	collision with: 8 4 0  and 3 6 0 
9412947		 # 	collision with: 8 2 0  and 8 4 0 
9412952		 # 	collision with: 0 2 0  and 3 4 0 
9412954		 # 	collision with: 4 4 0  and 7 6 0 
9412968		 # 	collision with: 6 3 0  and 9 4 0 
9412970		 # 	collision with: 6 2 0  and 8 3 0 
9412973		 # 	collision with: 1 2 0  and 6 3 0 
9412975		 # 	collision with: 4 1 0  and 0 0 1 
9412985		 # 	collision with: 5 4 0  and 4 5 0 
9412987		 # 	collision with: 0 1 0  and 3 2 0 
9412988		 # 	collision with: 5 0 0  and 9 1 1 
9412990		 # 	collision with: 4 9 0  and 4 1 1 
9413009		 # 	collision with: 5 4 0  and 4 5 0 
9413011		 # 	collision with: 2 0 0  and 9 1 0 
9413017		 # 	collision with: 9 3 0  and 5 4 0 
9413019		 # 	collision with: 2 6 0  and 6 2 1 
9413028		 # 	collision with: 6 2 0  and 10 4 0 
9413030		 # 	collision with: 10 9 0  and 3 0 1 
9413040		 # 	collision with: 9 3 0  and 7 5 0 
9413042		 # 	collision with: 0 1 0  and 9 3 0 
9413088		 # 	collision with: 10 0 0  and 4 2 0 
9413090		 # 	collision with: 3 1 0  and 9 3 0 
9413092		 # 	collision with: 0 0 0  and 1 1 1 
9413094		 # 	collision with: 0 4 0  and 2 6 0 
9413100		 # 	collision with: 5 1 0  and 0 2 0 
9413102		 # 	collision with: 4 1 0  and 0 3 0 
9413104		 # 	collision with: 8 1 0  and 8 0 1 
9413106		 # 	collision with: 2 4 0  and 4 6 0 
9413141		 # 	collision with: 5 4 0  and 4 5 0 
9413143		 # 	collision with: 9 1 0  and 2 1 1 
9413152		 # 	collision with: 2 0 0  and 1 2 0 
9413154		 # 	collision with: 8 2 0  and 1 4 0 
9413164		 # 	collision with: 7 3 0  and 1 1 1 
9413166		 # 	collision with: 7 4 0  and 2 5 0 
9413177		 # 	collision with: 5 4 0  and 4 5 0 
9413179		 # 	collision with: 1 1 0  and 1 3 0 
9413204		 # 	collision with: 9 3 0  and 4 5 0 
9413206		 # 	collision with: 9 2 0  and 6 4 0 
9413209		 # 	collision with: 7 1 0  and 4 2 0 
9413211		 # 	collision with: 8 2 0  and 1 4 0 
9413221		 # 	collision with: 8 2 0  and 0 3 0 
9413223		 # 	collision with: 4 2 0  and 10 2 1 
9413224		 # 	collision with: 3 1 0  and 5 0 1 
9413226		 # 	collision with: 0 6 0  and 9 7 0 
9413240		 # 	collision with: 4 1 0  and 3 2 0 
9413242		 # 	collision with: 7 2 0  and 6 3 0 
9413251		 # 	collision with: 0 1 0  and 9 3 0 
9413256		 # 	collision with: 9 4 0  and 6 5 0 
9413258		 # 	collision with: 4 1 0  and 9 0 1 
9413300		 # 	collision with: 0 0 0  and 2 2 0 
9413302		 # 	collision with: 6 4 0  and 2 0 1 
9413308		 # 	collision with: 3 5 0  and 3 0 1 
9413310		 # 	collision with: 3 4 0  and 0 5 0 
9413316		 # 	collision with: 9 3 0  and 5 4 0 
9413318		 # 	collision with: 1 1 0  and 7 2 0 
9413368		 # 	collision with: 10 4 0  and 6 6 0 
9413370		 # 	collision with: 0 6 0  and 9 7 0 
9413376		 # 	collision with: 3 0 0  and 5 1 0 
9413378		 # 	collision with: 2 3 0  and 0 4 0 
9413420		 # 	collision with: 2 8 0  and 4 8 0 
9413429		 # 	collision with: 7 2 0  and 2 3 0 
9413436		 # 	collision with: 7 6 0  and 8 7 0 
9413454		 # 	collision with: 8 9 0  and 4 0 1 
9413457		 # 	collision with: 5 7 0  and 0 2 1 
9413459		 # 	collision with: 4 2 0  and 2 4 0 
9413469		 # 	collision with: 6 10 0  and 1 0 1 
9413471		 # 	collision with: 4 2 0  and 2 4 0 
9413472		 # 	collision with: 5 2 0  and 6 4 0 
9413474		 # 	collision with: 9 2 0  and 1 3 0 
9413493		 # 	collision with: 8 7 0  and 8 1 1 
9413495		 # 	collision with: 4 2 0  and 2 4 0 
9413501		 # 	collision with: 0 3 0  and 8 5 0 
9413503		 # 	collision with: 4 2 0  and 2 4 0 
9413512		 # 	collision with: 8 3 0  and 8 4 0 
9413514		 # 	collision with: 10 2 0  and 5 0 1 
9413524		 # 	collision with: 8 0 0  and 6 2 0 
9413526		 # 	collision with: 4 4 0  and 3 5 0 
9413572		 # 	collision with: 0 2 0  and 8 0 1 
9413574		 # 	collision with: 0 6 0  and 2 6 0 
9413576		 # 	collision with: 7 4 0  and 0 6 0 
9413578		 # 	collision with: 8 5 0  and 8 2 1 
9413584		 # 	collision with: 1 2 0  and 0 4 0 
9413586		 # 	collision with: 5 9 0  and 9 0 1 
9413588		 # 	collision with: 7 1 0  and 1 2 0 
9413590		 # 	collision with: 2 5 0  and 4 6 0 
9413625		 # 	collision with: 9 4 0  and 3 6 0 
9413627		 # 	collision with: 8 0 0  and 7 2 0 
9413636		 # 	collision with: 3 1 0  and 3 3 0 
9413638		 # 	collision with: 7 9 0  and 0 0 1 
9413648		 # 	collision with: 6 5 0  and 10 6 0 
9413650		 # 	collision with: 0 1 0  and 3 2 0 
9413661		 # 	collision with: 7 1 0  and 4 2 0 
9413663		 # 	collision with: 4 2 0  and 2 4 0 
9413690		 # 	collision with: 2 2 0  and 3 2 0 
9413693		 # 	collision with: 1 1 0  and 10 3 0 
9413695		 # 	collision with: 4 2 0  and 2 4 0 
9413705		 # 	collision with: 8 6 0  and 4 1 1 
9413707		 # 	collision with: 4 2 0  and 2 4 0 
9413708		 # 	collision with: 1 1 0  and 2 1 0 
9413710		 # 	collision with: 1 0 1  and 10 1 1 
9413724		 # 	collision with: 3 0 0  and 9 1 0 
9413726		 # 	collision with: 7 0 0  and 5 2 0 
9413733		 # 	collision with: 9 5 0  and 8 6 0 
9413735		 # 	collision with: 10 0 0  and 5 1 0 
9413740		 # 	collision with: 8 3 0  and 1 4 0 
9413742		 # 	collision with: 1 1 0  and 9 2 0 
9413784		 # 	collision with: 5 3 0  and 8 3 1 
9413786		 # 	collision with: 4 0 0  and 9 3 1 
9413792		 # 	collision with: 7 1 0  and 4 2 0 
9413794		 # 	collision with: 1 1 0  and 1 3 0 
9413800		 # 	collision with: 6 5 0  and 10 6 0 
9413802		 # 	collision with: 8 2 0  and 1 4 0 
9413852		 # 	collision with: 1 3 0  and 6 5 0 
9413854		 # 	collision with: 9 0 0  and 2 1 1 
9413860		 # 	collision with: 1 9 0  and 10 0 1 
9413862		 # 	collision with: 3 2 0  and 0 0 1 
9413904		 # 	collision with: 2 3 0  and 5 0 1 
9413906		 # 	collision with: 6 4 0  and 0 5 0 
9413913		 # 	collision with: 7 3 0  and 1 0 1 
9413915		 # 	collision with: 9 5 0  and 4 6 0 
9413920		 # 	collision with: 2 8 0  and 4 8 0 
9413922		 # 	collision with: 4 4 0  and 6 6 0 
9413936		 # 	collision with: 8 2 0  and 0 3 0 
9413938		 # 	collision with: 2 2 0  and 0 0 1 
9413941		 # 	collision with: 2 2 0  and 3 2 0 
9413943		 # 	collision with: 4 1 0  and 7 3 0 
9413953		 # 	collision with: 8 3 0  and 8 4 0 
9413955		 # 	collision with: 1 1 0  and 1 0 1 
9413956		 # 	collision with: 1 7 0  and 5 3 1 
9413958		 # 	collision with: 2 3 0  and 9 4 0 
9413977		 # 	collision with: 5 0 0  and 7 2 0 
9413985		 # 	collision with: 5 9 0  and 1 0 1 
9413996		 # 	collision with: 1 1 0  and 1 0 1 
4.3125secs	2745
