# prime 11
# degree 2
# input variables 3
# output variables 5
# reload computed balance functions from file balance-3097of3248-p11d2m3-debug.log
# p = 11
# n = 5
# smalldomain p^m 1331
# domain p^n 161051
#	 p^2 = 121
#	 p^3 = 1331
#	 p^4 = 14641
#	 p^5 = 161051
#	 p^6 = 1771561
#	 p^7 = 19487171
#	 p^8 = 214358881
#	 p^9 = 2357947691
opening file : balance-3097of3248-p11d2m3-debug.log
reloading for step2...
68134001		 # 	collision with: 3 0 2 0 0  and 3 1 4 0 0 
68134003		 # 	collision with: 2 10 0 0 0  and 4 10 0 0 0 
68134005		 # 	collision with: 10 5 2 0 0  and 1 2 4 0 0 
68134007		 # 	collision with: 2 1 3 0 0  and 2 2 3 0 0 
68134132		 # 	collision with: 3 8 9 0 0  and 1 9 0 1 0 
68134134		 # 	collision with: 4 1 9 0 0  and 5 0 0 1 0 
68134143		 # 	collision with: 9 3 4 0 0  and 8 5 4 0 0 
68134169		 # 	collision with: 10 3 1 0 0  and 10 4 1 0 0 
68134171		 # 	collision with: 2 3 2 0 0  and 2 0 3 0 0 
68134265		 # 	collision with: 3 0 2 0 0  and 3 1 3 0 0 
68134267		 # 	collision with: 8 2 5 0 0  and 8 3 5 0 0 
68134305		 # 	collision with: 4 2 0 0 0  and 4 3 0 0 0 
68134307		 # 	collision with: 7 4 2 0 0  and 7 4 3 0 0 
68134317		 # 	collision with: 9 1 1 0 0  and 9 2 1 0 0 
68134325		 # 	collision with: 7 2 0 0 0  and 4 3 0 0 0 
68134327		 # 	collision with: 8 1 2 0 0  and 9 0 3 0 0 
68134357		 # 	collision with: 6 0 3 0 0  and 6 2 3 0 0 
68134359		 # 	collision with: 2 10 0 0 0  and 4 10 0 0 0 
68134437		 # 	collision with: 4 2 0 0 0  and 4 3 0 0 0 
68134439		 # 	collision with: 3 3 2 0 0  and 3 4 3 0 0 
68134469		 # 	collision with: 6 0 2 0 0  and 5 2 2 0 0 
68134471		 # 	collision with: 8 1 2 0 0  and 8 1 3 0 0 
68134477		 # 	collision with: 10 3 1 0 0  and 10 4 1 0 0 
68134479		 # 	collision with: 10 2 2 0 0  and 10 2 3 0 0 
68134485		 # 	collision with: 5 2 2 0 0  and 6 2 2 0 0 
68134487		 # 	collision with: 2 10 4 0 0  and 4 10 4 0 0 
68134489		 # 	collision with: 6 0 3 0 0  and 6 2 3 0 0 
68134491		 # 	collision with: 2 10 0 0 0  and 4 10 0 0 0 
68134616		 # 	collision with: 6 5 3 0 0  and 10 2 0 1 0 
68134618		 # 	collision with: 7 0 3 0 0  and 8 0 0 1 0 
68134625		 # 	collision with: 5 2 0 0 0  and 6 2 0 0 0 
68134627		 # 	collision with: 2 10 0 0 0  and 4 10 0 0 0 
68134653		 # 	collision with: 10 6 1 0 0  and 1 0 3 0 0 
68134655		 # 	collision with: 6 1 0 0 0  and 0 3 0 0 0 
68134751		 # 	collision with: 5 1 0 0 0  and 5 3 0 0 0 
68134789		 # 	collision with: 5 2 2 0 0  and 6 2 2 0 0 
68134791		 # 	collision with: 7 2 1 0 0  and 10 3 1 0 0 
68134801		 # 	collision with: 5 2 0 0 0  and 6 2 0 0 0 
68134803		 # 	collision with: 2 10 0 0 0  and 4 10 0 0 0 
68134809		 # 	collision with: 2 0 1 0 0  and 2 0 3 0 0 
68134811		 # 	collision with: 10 0 1 0 0  and 10 0 3 0 0 
68134841		 # 	collision with: 6 0 1 0 0  and 6 0 3 0 0 
68134921		 # 	collision with: 5 2 1 0 0  and 6 2 1 0 0 
68134923		 # 	collision with: 3 0 1 0 0  and 3 0 3 0 0 
68134953		 # 	collision with: 10 3 1 0 0  and 1 5 1 0 0 
68134955		 # 	collision with: 6 3 1 0 0  and 6 5 1 0 0 
68134961		 # 	collision with: 9 0 1 0 0  and 9 0 3 0 0 
68134963		 # 	collision with: 6 1 0 0 0  and 0 3 0 0 0 
68134969		 # 	collision with: 1 1 0 0 0  and 1 3 0 0 0 
68134975		 # 	collision with: 2 3 1 0 0  and 2 0 3 0 0 
68135100		 # 	collision with: 1 6 5 0 0  and 4 1 1 1 0 
68135102		 # 	collision with: 10 4 4 0 0  and 6 0 0 1 0 
68135109		 # 	collision with: 1 0 1 0 0  and 10 1 1 0 0 
68135137		 # 	collision with: 9 1 0 0 0  and 9 2 0 0 0 
68135139		 # 	collision with: 7 2 1 0 0  and 10 3 1 0 0 
68135233		 # 	collision with: 5 2 1 0 0  and 6 2 1 0 0 
68135235		 # 	collision with: 9 0 1 0 0  and 8 4 2 0 0 
68135273		 # 	collision with: 9 1 0 0 0  and 2 2 0 0 0 
68135275		 # 	collision with: 9 6 1 0 0  and 9 3 2 0 0 
68135287		 # 	collision with: 2 1 0 0 0  and 2 2 0 0 0 
68135293		 # 	collision with: 1 4 1 0 0  and 10 6 1 0 0 
68135295		 # 	collision with: 1 1 0 0 0  and 5 2 0 0 0 
68135325		 # 	collision with: 1 0 2 0 0  and 10 1 2 0 0 
68135327		 # 	collision with: 7 0 2 0 0  and 7 1 2 0 0 
68135405		 # 	collision with: 9 1 0 0 0  and 2 2 0 0 0 
68135407		 # 	collision with: 1 9 1 0 0  and 5 2 2 0 0 
68135445		 # 	collision with: 9 1 0 0 0  and 9 2 0 0 0 
68135447		 # 	collision with: 8 1 1 0 0  and 9 0 2 0 0 
68135453		 # 	collision with: 1 0 1 0 0  and 1 4 2 0 0 
68135455		 # 	collision with: 2 10 1 0 0  and 4 10 1 0 0 
68135457		 # 	collision with: 5 4 1 0 0  and 5 4 2 0 0 
68135459		 # 	collision with: 7 0 2 0 0  and 7 1 2 0 0 
68135584		 # 	collision with: 4 1 8 0 0  and 2 2 2 1 0 
68135586		 # 	collision with: 10 3 6 0 0  and 1 6 0 1 0 
68135593		 # 	collision with: 1 1 0 0 0  and 1 3 2 0 0 
68135595		 # 	collision with: 4 5 1 0 0  and 4 6 1 0 0 
68135621		 # 	collision with: 7 4 0 0 0  and 4 3 2 0 0 
68135623		 # 	collision with: 7 9 0 0 0  and 7 3 2 0 0 
68135717		 # 	collision with: 6 0 1 0 0  and 6 2 1 0 0 
68135719		 # 	collision with: 10 0 1 0 0  and 10 2 1 0 0 
68135757		 # 	collision with: 8 3 0 0 0  and 8 3 2 0 0 
68135759		 # 	collision with: 6 6 0 0 0  and 6 2 2 0 0 
68135769		 # 	collision with: 4 3 0 0 0  and 4 2 2 0 0 
68135771		 # 	collision with: 4 5 1 0 0  and 4 6 1 0 0 
68135777		 # 	collision with: 10 2 0 0 0  and 1 2 2 0 0 
68135779		 # 	collision with: 2 10 0 0 0  and 4 10 0 0 0 
68135809		 # 	collision with: 5 2 0 0 0  and 6 2 0 0 0 
68135811		 # 	collision with: 2 1 0 0 0  and 2 2 2 0 0 
68135889		 # 	collision with: 1 3 0 0 0  and 1 1 2 0 0 
68135891		 # 	collision with: 2 10 1 0 0  and 4 10 1 0 0 
68135921		 # 	collision with: 4 2 1 0 0  and 7 4 1 0 0 
68135923		 # 	collision with: 9 9 0 0 0  and 9 9 2 0 0 
68135929		 # 	collision with: 4 2 2 0 0  and 7 4 2 0 0 
68135931		 # 	collision with: 5 7 0 0 0  and 5 7 2 0 0 
68135937		 # 	collision with: 6 0 1 0 0  and 6 2 1 0 0 
68135939		 # 	collision with: 10 0 1 0 0  and 10 2 1 0 0 
68135941		 # 	collision with: 5 2 0 0 0  and 6 2 0 0 0 
68135943		 # 	collision with: 2 10 1 0 0  and 4 10 1 0 0 
68136068		 # 	collision with: 9 9 1 0 0  and 8 8 0 1 0 
68136070		 # 	collision with: 5 5 4 0 0  and 0 5 3 1 0 
68136077		 # 	collision with: 10 6 0 0 0  and 1 4 1 0 0 
68136079		 # 	collision with: 7 4 1 0 0  and 10 6 1 0 0 
68136105		 # 	collision with: 2 6 0 0 0  and 9 1 1 0 0 
68136107		 # 	collision with: 9 0 0 0 0  and 8 1 0 0 0 
68136201		 # 	collision with: 4 1 0 0 0  and 7 8 1 0 0 
68136203		 # 	collision with: 10 6 0 0 0  and 10 7 1 0 0 
68136241		 # 	collision with: 3 5 0 0 0  and 8 1 1 0 0 
68136243		 # 	collision with: 3 10 0 0 0  and 3 10 1 0 0 
68136253		 # 	collision with: 5 6 0 0 0  and 5 6 1 0 0 
68136255		 # 	collision with: 2 6 0 0 0  and 2 6 1 0 0 
68136261		 # 	collision with: 3 0 0 0 0  and 3 1 0 0 0 
68136263		 # 	collision with: 8 3 0 0 0  and 8 3 1 0 0 
68136293		 # 	collision with: 2 5 0 0 0  and 9 7 0 0 0 
68136295		 # 	collision with: 3 1 0 0 0  and 3 1 1 0 0 
68136373		 # 	collision with: 2 7 0 0 0  and 2 1 1 0 0 
68136375		 # 	collision with: 10 10 0 0 0  and 10 3 1 0 0 
68136405		 # 	collision with: 10 8 0 0 0  and 10 8 1 0 0 
68136407		 # 	collision with: 0 3 0 0 0  and 6 1 1 0 0 
68136413		 # 	collision with: 4 5 0 0 0  and 4 5 1 0 0 
68136415		 # 	collision with: 9 0 0 0 0  and 8 1 0 0 0 
68136421		 # 	collision with: 7 4 0 0 0  and 4 2 1 0 0 
68136423		 # 	collision with: 1 8 0 0 0  and 1 2 1 0 0 
68136425		 # 	collision with: 2 5 0 0 0  and 9 7 0 0 0 
68136427		 # 	collision with: 6 1 0 0 0  and 6 1 1 0 0 
68136601		 # 	collision with: 10 3 3 0 0  and 1 5 3 0 0 
68136603		 # 	collision with: 2 1 4 0 0  and 4 1 4 0 0 
68136621		 # 	collision with: 8 10 5 0 0  and 8 10 6 0 0 
68136623		 # 	collision with: 1 1 3 0 0  and 5 3 3 0 0 
68136628		 # 	collision with: 10 3 0 0 0  and 10 4 0 0 0 
68136630		 # 	collision with: 5 1 0 0 0  and 5 3 0 0 0 
68136636		 # 	collision with: 6 0 0 0 0  and 5 2 0 0 0 
68136638		 # 	collision with: 1 4 0 0 0  and 1 6 0 0 0 
68136660		 # 	collision with: 9 1 0 0 0  and 9 2 0 0 0 
68136662		 # 	collision with: 10 0 0 0 0  and 10 2 0 0 0 
68136665		 # 	collision with: 5 2 5 0 0  and 6 2 5 0 0 
68136667		 # 	collision with: 10 4 4 0 0  and 7 5 4 0 0 
68136673		 # 	collision with: 5 2 3 0 0  and 6 2 3 0 0 
68136675		 # 	collision with: 2 1 4 0 0  and 4 1 4 0 0 
68136676		 # 	collision with: 7 2 0 0 0  and 7 4 0 0 0 
68136678		 # 	collision with: 9 4 0 0 0  and 9 5 0 0 0 
68136692		 # 	collision with: 9 1 0 0 0  and 2 2 0 0 0 
68136694		 # 	collision with: 10 2 0 0 0  and 7 4 0 0 0 
68136716		 # 	collision with: 10 3 0 0 0  and 10 4 0 0 0 
68136718		 # 	collision with: 5 1 0 0 0  and 5 3 0 0 0 
68136756		 # 	collision with: 1 1 0 0 0  and 1 3 0 0 0 
68136758		 # 	collision with: 6 3 0 0 0  and 6 5 0 0 0 
68136768		 # 	collision with: 6 0 0 0 0  and 5 2 0 0 0 
68136770		 # 	collision with: 1 4 0 0 0  and 1 6 0 0 0 
68136779		 # 	collision with: 2 1 3 0 0  and 4 1 3 0 0 
68136796		 # 	collision with: 4 2 0 0 0  and 4 3 0 0 0 
68136798		 # 	collision with: 2 1 0 0 0  and 2 2 0 0 0 
68136800		 # 	collision with: 1 1 0 0 0  and 1 3 0 0 0 
68136802		 # 	collision with: 6 3 0 0 0  and 6 5 0 0 0 
68136832		 # 	collision with: 8 4 0 0 0  and 8 6 0 0 0 
68136834		 # 	collision with: 4 5 0 0 0  and 4 6 0 0 0 
68136836		 # 	collision with: 9 1 0 0 0  and 9 2 0 0 0 
68136838		 # 	collision with: 10 0 0 0 0  and 10 2 0 0 0 
68136859		 # 	collision with: 2 1 1 0 0  and 4 1 1 0 0 
68136864		 # 	collision with: 6 0 0 0 0  and 6 2 0 0 0 
68136866		 # 	collision with: 1 1 0 0 0  and 5 3 0 0 0 
68136876		 # 	collision with: 8 4 0 0 0  and 8 6 0 0 0 
68136878		 # 	collision with: 4 5 0 0 0  and 4 6 0 0 0 
68136916		 # 	collision with: 4 2 0 0 0  and 7 4 0 0 0 
68136918		 # 	collision with: 8 2 0 0 0  and 8 3 0 0 0 
68136940		 # 	collision with: 7 2 0 0 0  and 7 4 0 0 0 
68136942		 # 	collision with: 9 4 0 0 0  and 9 5 0 0 0 
68136956		 # 	collision with: 9 1 0 0 0  and 2 2 0 0 0 
68136958		 # 	collision with: 10 2 0 0 0  and 7 4 0 0 0 
68136961		 # 	collision with: 5 2 3 0 0  and 6 2 3 0 0 
68136963		 # 	collision with: 2 0 5 0 0  and 4 5 6 0 0 
68136969		 # 	collision with: 6 0 4 0 0  and 5 2 4 0 0 
68136971		 # 	collision with: 2 1 0 0 0  and 4 1 0 0 0 
68136972		 # 	collision with: 4 2 0 0 0  and 4 3 0 0 0 
68136974		 # 	collision with: 2 1 0 0 0  and 2 2 0 0 0 
68136996		 # 	collision with: 6 0 0 0 0  and 6 2 0 0 0 
68136998		 # 	collision with: 1 1 0 0 0  and 5 3 0 0 0 
68137004		 # 	collision with: 4 2 0 0 0  and 7 4 0 0 0 
68137006		 # 	collision with: 8 2 0 0 0  and 8 3 0 0 0 
68137013		 # 	collision with: 8 1 5 0 0  and 8 1 6 0 0 
68137015		 # 	collision with: 2 1 0 0 0  and 4 1 0 0 0 
68137033		 # 	collision with: 1 0 1 0 0  and 10 1 1 0 0 
68137035		 # 	collision with: 10 0 2 0 0  and 10 2 2 0 0 
68137036		 # 	collision with: 5 4 2 0 0  and 3 1 2 1 0 
68137038		 # 	collision with: 0 1 0 0 0  and 1 2 0 1 0 
68137085		 # 	collision with: 1 10 4 0 0  and 1 5 6 0 0 
68137087		 # 	collision with: 2 1 3 0 0  and 4 1 3 0 0 
68137107		 # 	collision with: 9 4 2 0 0  and 9 5 2 0 0 
68137112		 # 	collision with: 9 1 4 0 0  and 2 2 4 0 0 
68137114		 # 	collision with: 2 1 2 0 0  and 4 1 2 0 0 
68137120		 # 	collision with: 5 2 1 0 0  and 6 2 1 0 0 
68137122		 # 	collision with: 2 1 0 0 0  and 4 1 0 0 0 
68137144		 # 	collision with: 5 2 0 0 0  and 6 2 0 0 0 
68137149		 # 	collision with: 9 1 3 0 0  and 9 2 3 0 0 
68137151		 # 	collision with: 9 4 2 0 0  and 9 5 2 0 0 
68137157		 # 	collision with: 7 2 4 0 0  and 4 3 6 0 0 
68137159		 # 	collision with: 2 1 5 0 0  and 2 2 5 0 0 
68137160		 # 	collision with: 7 2 6 0 0  and 4 3 6 0 0 
68137162		 # 	collision with: 2 1 6 0 0  and 4 1 6 0 0 
68137178		 # 	collision with: 10 4 5 0 0  and 7 5 5 0 0 
68137200		 # 	collision with: 1 1 4 0 0  and 1 3 4 0 0 
68137202		 # 	collision with: 7 0 4 0 0  and 7 1 4 0 0 
68137240		 # 	collision with: 5 4 3 0 0  and 5 5 3 0 0 
68137242		 # 	collision with: 10 0 3 0 0  and 10 2 3 0 0 
68137252		 # 	collision with: 6 0 1 0 0  and 5 2 1 0 0 
68137254		 # 	collision with: 2 1 0 0 0  and 4 1 0 0 0 
68137261		 # 	collision with: 10 3 2 0 0  and 1 5 2 0 0 
68137263		 # 	collision with: 2 1 5 0 0  and 4 1 5 0 0 
68137280		 # 	collision with: 5 2 4 0 0  and 6 2 4 0 0 
68137282		 # 	collision with: 2 1 3 0 0  and 4 1 3 0 0 
68137284		 # 	collision with: 4 2 3 0 0  and 7 4 3 0 0 
68137286		 # 	collision with: 10 0 3 0 0  and 10 2 3 0 0 
68137316		 # 	collision with: 5 2 4 0 0  and 6 2 4 0 0 
68137318		 # 	collision with: 2 1 1 0 0  and 4 1 1 0 0 
68137320		 # 	collision with: 5 2 0 0 0  and 6 2 0 0 0 
68137322		 # 	collision with: 4 1 2 0 0  and 2 2 2 0 0 
68137341		 # 	collision with: 5 2 2 0 0  and 6 2 2 0 0 
68137343		 # 	collision with: 1 4 0 0 0  and 1 6 0 0 0 
68137348		 # 	collision with: 5 2 9 0 0  and 6 2 9 0 0 
68137350		 # 	collision with: 2 1 6 0 0  and 4 1 6 0 0 
68137360		 # 	collision with: 5 2 5 0 0  and 6 2 5 0 0 
68137362		 # 	collision with: 2 1 4 0 0  and 4 1 4 0 0 
68137402		 # 	collision with: 2 1 5 0 0  and 4 1 5 0 0 
68137424		 # 	collision with: 9 1 6 0 0  and 2 2 6 0 0 
68137426		 # 	collision with: 10 0 6 0 0  and 10 2 6 0 0 
68137440		 # 	collision with: 4 2 5 0 0  and 7 4 5 0 0 
68137442		 # 	collision with: 7 0 5 0 0  and 10 1 5 0 0 
68137445		 # 	collision with: 3 0 3 0 0  and 3 1 3 0 0 
68137447		 # 	collision with: 9 4 4 0 0  and 9 5 4 0 0 
68137453		 # 	collision with: 5 2 0 0 0  and 6 2 0 0 0 
68137455		 # 	collision with: 9 4 0 0 0  and 8 6 0 0 0 
68137456		 # 	collision with: 5 2 1 0 0  and 6 2 1 0 0 
68137458		 # 	collision with: 2 1 9 0 0  and 4 1 9 0 0 
68137480		 # 	collision with: 5 2 3 0 0  and 6 2 3 0 0 
68137488		 # 	collision with: 5 2 7 0 0  and 6 2 7 0 0 
68137490		 # 	collision with: 2 1 4 0 0  and 4 1 4 0 0 
68137497		 # 	collision with: 5 2 0 0 0  and 6 2 0 0 0 
68137499		 # 	collision with: 9 4 0 0 0  and 8 6 0 0 0 
68137519		 # 	collision with: 1 4 0 0 0  and 1 6 0 0 0 
68137520		 # 	collision with: 9 4 1 0 0  and 7 1 1 1 0 
68137522		 # 	collision with: 3 7 0 0 0  and 4 2 0 1 0 
68137569		 # 	collision with: 1 4 4 0 0  and 1 0 5 0 0 
68137571		 # 	collision with: 10 4 0 0 0  and 7 5 0 0 0 
68137589		 # 	collision with: 9 1 1 0 0  and 2 2 1 0 0 
68137596		 # 	collision with: 5 2 4 0 0  and 6 2 4 0 0 
68137598		 # 	collision with: 2 1 1 0 0  and 4 1 1 0 0 
68137604		 # 	collision with: 5 2 0 0 0  and 6 2 0 0 0 
68137606		 # 	collision with: 10 0 2 0 0  and 10 2 2 0 0 
68137628		 # 	collision with: 2 3 4 0 0  and 2 5 4 0 0 
68137630		 # 	collision with: 2 1 2 0 0  and 4 1 2 0 0 
68137633		 # 	collision with: 6 0 3 0 0  and 5 2 3 0 0 
68137635		 # 	collision with: 2 1 4 0 0  and 4 1 4 0 0 
68137641		 # 	collision with: 5 2 2 0 0  and 6 2 2 0 0 
68137643		 # 	collision with: 2 1 3 0 0  and 4 1 3 0 0 
68137644		 # 	collision with: 9 1 1 0 0  and 2 2 1 0 0 
68137646		 # 	collision with: 2 1 0 0 0  and 4 1 0 0 0 
68137660		 # 	collision with: 5 2 9 0 0  and 6 2 9 0 0 
68137662		 # 	collision with: 2 1 6 0 0  and 4 1 6 0 0 
68137684		 # 	collision with: 5 2 5 0 0  and 6 2 5 0 0 
68137686		 # 	collision with: 2 1 4 0 0  and 4 1 4 0 0 
68137724		 # 	collision with: 1 0 6 0 0  and 10 1 6 0 0 
68137726		 # 	collision with: 2 1 6 0 0  and 4 1 6 0 0 
68137736		 # 	collision with: 5 2 0 0 0  and 6 2 0 0 0 
68137745		 # 	collision with: 10 1 4 0 0  and 1 0 5 0 0 
68137747		 # 	collision with: 10 4 0 0 0  and 7 5 0 0 0 
68137766		 # 	collision with: 2 1 5 0 0  and 4 1 5 0 0 
68137768		 # 	collision with: 9 1 6 0 0  and 9 2 6 0 0 
68137770		 # 	collision with: 1 1 6 0 0  and 5 3 6 0 0 
68137802		 # 	collision with: 7 0 5 0 0  and 10 1 5 0 0 
68137804		 # 	collision with: 9 1 4 0 0  and 2 2 4 0 0 
68137806		 # 	collision with: 3 3 4 0 0  and 3 4 4 0 0 
68137825		 # 	collision with: 5 2 0 0 0  and 6 2 0 0 0 
68137827		 # 	collision with: 10 0 4 0 0  and 7 4 5 0 0 
68137832		 # 	collision with: 5 2 1 0 0  and 6 2 1 0 0 
68137834		 # 	collision with: 2 1 9 0 0  and 4 1 9 0 0 
68137844		 # 	collision with: 10 3 5 0 0  and 10 4 5 0 0 
68137846		 # 	collision with: 6 3 5 0 0  and 6 5 5 0 0 
68137884		 # 	collision with: 3 0 3 0 0  and 3 1 3 0 0 
68137886		 # 	collision with: 7 0 3 0 0  and 10 1 3 0 0 
68137908		 # 	collision with: 9 1 1 0 0  and 9 2 1 0 0 
68137910		 # 	collision with: 2 1 0 0 0  and 4 1 0 0 0 
68137924		 # 	collision with: 5 2 3 0 0  and 6 2 3 0 0 
68137929		 # 	collision with: 5 4 0 0 0  and 5 5 0 0 0 
68137931		 # 	collision with: 2 1 0 0 0  and 4 1 0 0 0 
68137937		 # 	collision with: 3 3 4 0 0  and 3 3 5 0 0 
68137939		 # 	collision with: 2 1 1 0 0  and 4 1 1 0 0 
68137940		 # 	collision with: 5 2 7 0 0  and 6 2 7 0 0 
68137942		 # 	collision with: 2 1 4 0 0  and 4 1 4 0 0 
68137964		 # 	collision with: 5 2 4 0 0  and 6 2 4 0 0 
68137966		 # 	collision with: 2 1 3 0 0  and 4 1 3 0 0 
68137972		 # 	collision with: 3 0 3 0 0  and 3 1 3 0 0 
68137974		 # 	collision with: 6 3 3 0 0  and 6 5 3 0 0 
68137981		 # 	collision with: 5 2 1 0 0  and 6 2 1 0 0 
68137983		 # 	collision with: 2 1 2 0 0  and 4 1 2 0 0 
68138001		 # 	collision with: 5 2 0 0 0  and 6 2 0 0 0 
68138003		 # 	collision with: 4 1 5 0 0  and 2 2 5 0 0 
68138004		 # 	collision with: 2 4 0 0 0  and 0 1 0 1 0 
68138006		 # 	collision with: 6 7 0 0 0  and 10 0 0 1 0 
68138053		 # 	collision with: 4 3 1 0 0  and 7 4 1 0 0 
68138073		 # 	collision with: 7 2 4 0 0  and 7 4 4 0 0 
68138075		 # 	collision with: 7 0 3 0 0  and 7 1 3 0 0 
68138080		 # 	collision with: 7 2 1 0 0  and 4 3 1 0 0 
68138082		 # 	collision with: 2 1 0 0 0  and 4 1 0 0 0 
68138088		 # 	collision with: 10 3 3 0 0  and 10 4 3 0 0 
68138090		 # 	collision with: 4 1 3 0 0  and 2 2 3 0 0 
68138112		 # 	collision with: 4 2 6 0 0  and 4 3 6 0 0 
68138114		 # 	collision with: 7 0 6 0 0  and 10 1 6 0 0 
68138117		 # 	collision with: 1 0 3 0 0  and 10 1 3 0 0 
68138125		 # 	collision with: 9 9 3 0 0  and 2 8 5 0 0 
68138127		 # 	collision with: 4 1 2 0 0  and 2 2 2 0 0 
68138130		 # 	collision with: 2 1 5 0 0  and 4 1 5 0 0 
68138144		 # 	collision with: 1 0 4 0 0  and 10 1 4 0 0 
68138146		 # 	collision with: 2 1 2 0 0  and 4 1 2 0 0 
68138168		 # 	collision with: 5 2 1 0 0  and 6 2 1 0 0 
68138170		 # 	collision with: 2 1 0 0 0  and 4 1 0 0 0 
68138208		 # 	collision with: 5 2 4 0 0  and 6 2 4 0 0 
68138210		 # 	collision with: 2 1 3 0 0  and 4 1 3 0 0 
68138220		 # 	collision with: 9 1 3 0 0  and 2 2 3 0 0 
68138222		 # 	collision with: 9 4 3 0 0  and 9 5 3 0 0 
68138229		 # 	collision with: 2 9 3 0 0  and 2 9 5 0 0 
68138231		 # 	collision with: 10 2 2 0 0  and 7 4 2 0 0 
68138248		 # 	collision with: 1 0 5 0 0  and 10 1 5 0 0 
68138250		 # 	collision with: 3 3 5 0 0  and 3 4 5 0 0 
68138252		 # 	collision with: 5 2 1 0 0  and 6 2 1 0 0 
68138254		 # 	collision with: 2 1 9 0 0  and 4 1 9 0 0 
68138284		 # 	collision with: 5 2 0 0 0  and 6 2 0 0 0 
68138288		 # 	collision with: 4 2 6 0 0  and 4 3 6 0 0 
68138290		 # 	collision with: 2 1 6 0 0  and 4 1 6 0 0 
68138309		 # 	collision with: 2 3 0 0 0  and 2 5 0 0 0 
68138311		 # 	collision with: 9 5 3 0 0  and 8 6 3 0 0 
68138316		 # 	collision with: 5 2 4 0 0  and 6 2 4 0 0 
68138318		 # 	collision with: 2 1 1 0 0  and 4 1 1 0 0 
68138328		 # 	collision with: 5 2 0 0 0  and 6 2 0 0 0 
68138330		 # 	collision with: 7 0 2 0 0  and 7 1 2 0 0 
68138368		 # 	collision with: 5 2 3 0 0  and 6 2 3 0 0 
68138392		 # 	collision with: 5 2 7 0 0  and 6 2 7 0 0 
68138394		 # 	collision with: 2 1 4 0 0  and 4 1 4 0 0 
68138408		 # 	collision with: 6 0 4 0 0  and 5 2 4 0 0 
68138410		 # 	collision with: 10 4 4 0 0  and 7 5 4 0 0 
68138413		 # 	collision with: 9 7 3 0 0  and 2 3 5 0 0 
68138415		 # 	collision with: 10 3 3 0 0  and 10 3 5 0 0 
68138421		 # 	collision with: 5 2 1 0 0  and 6 2 1 0 0 
68138423		 # 	collision with: 3 4 3 0 0  and 3 4 5 0 0 
68138426		 # 	collision with: 3 3 5 0 0  and 3 4 5 0 0 
68138448		 # 	collision with: 5 2 5 0 0  and 6 2 5 0 0 
68138450		 # 	collision with: 2 1 4 0 0  and 4 1 4 0 0 
68138456		 # 	collision with: 5 2 9 0 0  and 6 2 9 0 0 
68138458		 # 	collision with: 2 1 6 0 0  and 4 1 6 0 0 
68138465		 # 	collision with: 5 2 2 0 0  and 6 2 2 0 0 
68138467		 # 	collision with: 2 1 3 0 0  and 4 1 3 0 0 
68138485		 # 	collision with: 2 3 0 0 0  and 2 5 0 0 0 
68138487		 # 	collision with: 10 2 3 0 0  and 10 0 5 0 0 
68138488		 # 	collision with: 8 5 0 0 0  and 0 0 0 1 0 
68138490		 # 	collision with: 0 5 2 0 0  and 3 4 2 1 0 
68138537		 # 	collision with: 10 1 3 0 0  and 1 0 4 0 0 
68138539		 # 	collision with: 2 1 0 0 0  and 4 1 0 0 0 
68138557		 # 	collision with: 4 2 2 0 0  and 7 4 2 0 0 
68138559		 # 	collision with: 9 6 3 0 0  and 9 6 4 0 0 
68138566		 # 	collision with: 2 1 5 0 0  and 2 2 5 0 0 
68138572		 # 	collision with: 9 1 4 0 0  and 9 2 4 0 0 
68138574		 # 	collision with: 8 2 4 0 0  and 8 3 4 0 0 
68138596		 # 	collision with: 5 2 4 0 0  and 6 2 4 0 0 
68138598		 # 	collision with: 2 1 1 0 0  and 4 1 1 0 0 
68138603		 # 	collision with: 10 2 2 0 0  and 7 4 2 0 0 
68138609		 # 	collision with: 10 3 0 0 0  and 10 4 0 0 0 
68138611		 # 	collision with: 2 1 2 0 0  and 4 1 2 0 0 
68138612		 # 	collision with: 5 2 0 0 0  and 6 2 0 0 0 
68138614		 # 	collision with: 2 1 2 0 0  and 2 2 2 0 0 
68138628		 # 	collision with: 5 2 1 0 0  and 6 2 1 0 0 
68138630		 # 	collision with: 2 1 9 0 0  and 4 1 9 0 0 
68138652		 # 	collision with: 7 2 5 0 0  and 7 4 5 0 0 
68138654		 # 	collision with: 2 1 5 0 0  and 2 2 5 0 0 
68138692		 # 	collision with: 6 0 1 0 0  and 5 2 1 0 0 
68138694		 # 	collision with: 2 1 0 0 0  and 4 1 0 0 0 
68138704		 # 	collision with: 6 0 4 0 0  and 5 2 4 0 0 
68138706		 # 	collision with: 2 1 2 0 0  and 4 1 2 0 0 
68138713		 # 	collision with: 5 2 1 0 0  and 6 2 1 0 0 
68138715		 # 	collision with: 2 1 0 0 0  and 4 1 0 0 0 
68138732		 # 	collision with: 6 0 3 0 0  and 5 2 3 0 0 
68138734		 # 	collision with: 7 0 3 0 0  and 7 1 3 0 0 
68138736		 # 	collision with: 6 0 1 0 0  and 6 2 1 0 0 
68138738		 # 	collision with: 2 1 0 0 0  and 4 1 0 0 0 
68138768		 # 	collision with: 5 2 9 0 0  and 6 2 9 0 0 
68138770		 # 	collision with: 2 1 6 0 0  and 4 1 6 0 0 
68138772		 # 	collision with: 5 2 5 0 0  and 6 2 5 0 0 
68138774		 # 	collision with: 2 1 4 0 0  and 4 1 4 0 0 
68138793		 # 	collision with: 2 1 3 0 0  and 2 7 4 0 0 
68138800		 # 	collision with: 5 2 7 0 0  and 6 2 7 0 0 
68138802		 # 	collision with: 2 1 4 0 0  and 4 1 4 0 0 
68138812		 # 	collision with: 5 2 3 0 0  and 6 2 3 0 0 
68138852		 # 	collision with: 1 1 6 0 0  and 1 3 6 0 0 
68138854		 # 	collision with: 2 1 6 0 0  and 4 1 6 0 0 
68138876		 # 	collision with: 5 2 0 0 0  and 6 2 0 0 0 
68138892		 # 	collision with: 5 2 4 0 0  and 6 2 4 0 0 
68138894		 # 	collision with: 2 1 3 0 0  and 4 1 3 0 0 
68138905		 # 	collision with: 2 5 3 0 0  and 2 5 4 0 0 
68138907		 # 	collision with: 2 1 2 0 0  and 4 1 2 0 0 
68138908		 # 	collision with: 1 0 3 0 0  and 10 1 3 0 0 
68138910		 # 	collision with: 7 0 3 0 0  and 7 1 3 0 0 
68138934		 # 	collision with: 2 1 5 0 0  and 4 1 5 0 0 
68138940		 # 	collision with: 1 1 6 0 0  and 1 3 6 0 0 
68138942		 # 	collision with: 5 2 6 0 0  and 1 3 6 0 0 
68138949		 # 	collision with: 5 2 3 0 0  and 6 2 3 0 0 
68138951		 # 	collision with: 2 1 3 0 0  and 2 2 3 0 0 
68138969		 # 	collision with: 5 2 2 0 0  and 6 2 2 0 0 
68138971		 # 	collision with: 8 4 3 0 0  and 8 1 4 0 0 
68138972		 # 	collision with: 2 1 0 0 0  and 1 8 0 1 0 
68138974		 # 	collision with: 4 3 1 0 0  and 6 6 1 1 0 
68139021		 # 	collision with: 5 2 4 0 0  and 6 2 4 0 0 
68139023		 # 	collision with: 4 10 2 0 0  and 2 1 4 0 0 
68139041		 # 	collision with: 3 7 2 0 0  and 8 1 4 0 0 
68139043		 # 	collision with: 5 1 4 0 0  and 5 3 4 0 0 
68139048		 # 	collision with: 5 2 1 0 0  and 6 2 1 0 0 
68139050		 # 	collision with: 2 1 9 0 0  and 4 1 9 0 0 
68139056		 # 	collision with: 8 4 5 0 0  and 8 6 5 0 0 
68139058		 # 	collision with: 7 0 5 0 0  and 7 1 5 0 0 
68139080		 # 	collision with: 5 2 9 0 0  and 6 2 9 0 0 
68139082		 # 	collision with: 2 1 6 0 0  and 4 1 6 0 0 
68139085		 # 	collision with: 10 6 2 0 0  and 1 4 4 0 0 
68139087		 # 	collision with: 5 2 2 0 0  and 1 3 2 0 0 
68139093		 # 	collision with: 5 4 1 0 0  and 5 5 1 0 0 
68139095		 # 	collision with: 4 1 2 0 0  and 2 1 4 0 0 
68139096		 # 	collision with: 5 2 5 0 0  and 6 2 5 0 0 
68139098		 # 	collision with: 2 1 4 0 0  and 4 1 4 0 0 
68139112		 # 	collision with: 10 4 3 0 0  and 1 5 3 0 0 
68139114		 # 	collision with: 9 5 3 0 0  and 8 6 3 0 0 
68139136		 # 	collision with: 5 2 4 0 0  and 6 2 4 0 0 
68139138		 # 	collision with: 2 1 3 0 0  and 4 1 3 0 0 
68139176		 # 	collision with: 10 3 4 0 0  and 10 4 4 0 0 
68139178		 # 	collision with: 7 0 4 0 0  and 10 1 4 0 0 
68139190		 # 	collision with: 7 0 5 0 0  and 7 1 5 0 0 
68139197		 # 	collision with: 5 2 3 0 0  and 6 2 3 0 0 
68139199		 # 	collision with: 2 1 2 0 0  and 4 1 2 0 0 
68139216		 # 	collision with: 5 2 1 0 0  and 6 2 1 0 0 
68139218		 # 	collision with: 2 1 0 0 0  and 4 1 0 0 0 
68139220		 # 	collision with: 10 3 4 0 0  and 10 4 4 0 0 
68139222		 # 	collision with: 2 1 2 0 0  and 4 1 2 0 0 
68139252		 # 	collision with: 5 2 7 0 0  and 6 2 7 0 0 
68139254		 # 	collision with: 2 1 4 0 0  and 4 1 4 0 0 
68139256		 # 	collision with: 5 2 3 0 0  and 6 2 3 0 0 
68139277		 # 	collision with: 4 3 1 0 0  and 7 4 1 0 0 
68139279		 # 	collision with: 2 1 2 0 0  and 4 1 2 0 0 
68139284		 # 	collision with: 10 3 6 0 0  and 10 4 6 0 0 
68139286		 # 	collision with: 7 0 6 0 0  and 7 1 6 0 0 
68139298		 # 	collision with: 2 1 5 0 0  and 4 1 5 0 0 
68139336		 # 	collision with: 5 2 0 0 0  and 6 2 0 0 0 
68139338		 # 	collision with: 3 3 2 0 0  and 3 4 2 0 0 
68139360		 # 	collision with: 5 2 4 0 0  and 6 2 4 0 0 
68139362		 # 	collision with: 2 1 1 0 0  and 4 1 1 0 0 
68139376		 # 	collision with: 10 3 3 0 0  and 1 5 3 0 0 
68139378		 # 	collision with: 2 1 9 0 0  and 4 1 9 0 0 
68139381		 # 	collision with: 5 2 0 0 0  and 6 2 0 0 0 
68139383		 # 	collision with: 4 1 1 0 0  and 2 2 1 0 0 
68139389		 # 	collision with: 4 2 0 0 0  and 7 4 0 0 0 
68139391		 # 	collision with: 2 6 2 0 0  and 2 6 4 0 0 
68139392		 # 	collision with: 9 1 1 0 0  and 2 2 1 0 0 
68139394		 # 	collision with: 2 1 0 0 0  and 4 1 0 0 0 
68139416		 # 	collision with: 10 3 6 0 0  and 10 4 6 0 0 
68139418		 # 	collision with: 2 1 6 0 0  and 4 1 6 0 0 
68139424		 # 	collision with: 5 2 0 0 0  and 6 2 0 0 0 
68139433		 # 	collision with: 4 2 0 0 0  and 7 4 0 0 0 
68139435		 # 	collision with: 7 0 1 0 0  and 10 1 1 0 0 
68139453		 # 	collision with: 5 2 3 0 0  and 6 2 3 0 0 
68139455		 # 	collision with: 9 4 3 0 0  and 9 5 3 0 0 
68139456		 # 	collision with: 0 2 0 0 0  and 6 6 0 1 0 
68139458		 # 	collision with: 3 9 0 0 0  and 8 0 0 1 0 
68139505		 # 	collision with: 7 2 0 0 0  and 4 3 0 0 0 
68139507		 # 	collision with: 4 2 2 0 0  and 4 2 3 0 0 
68139525		 # 	collision with: 4 2 0 0 0  and 4 3 0 0 0 
68139527		 # 	collision with: 9 4 1 0 0  and 8 6 1 0 0 
68139532		 # 	collision with: 5 2 0 0 0  and 6 2 0 0 0 
68139540		 # 	collision with: 7 2 6 0 0  and 7 4 6 0 0 
68139542		 # 	collision with: 2 1 6 0 0  and 4 1 6 0 0 
68139564		 # 	collision with: 10 3 1 0 0  and 10 4 1 0 0 
68139566		 # 	collision with: 2 1 0 0 0  and 4 1 0 0 0 
68139569		 # 	collision with: 4 2 0 0 0  and 4 3 0 0 0 
68139571		 # 	collision with: 2 1 2 0 0  and 4 1 2 0 0 
68139577		 # 	collision with: 5 2 0 0 0  and 6 2 0 0 0 
68139579		 # 	collision with: 2 1 1 0 0  and 4 1 1 0 0 
68139580		 # 	collision with: 2 3 3 0 0  and 2 5 3 0 0 
68139582		 # 	collision with: 4 5 3 0 0  and 4 6 3 0 0 
68139596		 # 	collision with: 5 2 4 0 0  and 6 2 4 0 0 
68139598		 # 	collision with: 2 1 1 0 0  and 4 1 1 0 0 
68139620		 # 	collision with: 5 2 0 0 0  and 6 2 0 0 0 
68139622		 # 	collision with: 7 0 2 0 0  and 10 1 2 0 0 
68139662		 # 	collision with: 2 1 5 0 0  and 4 1 5 0 0 
68139672		 # 	collision with: 1 0 6 0 0  and 10 1 6 0 0 
68139674		 # 	collision with: 6 3 6 0 0  and 6 5 6 0 0 
68139681		 # 	collision with: 7 2 0 0 0  and 4 3 0 0 0 
68139683		 # 	collision with: 10 1 2 0 0  and 7 0 3 0 0 
68139700		 # 	collision with: 5 2 3 0 0  and 6 2 3 0 0 
68139704		 # 	collision with: 3 0 7 0 0  and 3 1 7 0 0 
68139706		 # 	collision with: 2 1 4 0 0  and 4 1 4 0 0 
68139736		 # 	collision with: 3 0 4 0 0  and 3 1 4 0 0 
68139738		 # 	collision with: 2 1 2 0 0  and 4 1 2 0 0 
68139740		 # 	collision with: 5 2 1 0 0  and 6 2 1 0 0 
68139742		 # 	collision with: 2 1 0 0 0  and 4 1 0 0 0 
68139761		 # 	collision with: 8 8 2 0 0  and 3 2 3 0 0 
68139763		 # 	collision with: 2 1 0 0 0  and 4 1 0 0 0 
68139770		 # 	collision with: 10 0 5 0 0  and 10 2 5 0 0 
68139780		 # 	collision with: 3 0 4 0 0  and 3 1 4 0 0 
68139782		 # 	collision with: 10 0 4 0 0  and 10 2 4 0 0 
68139820		 # 	collision with: 5 2 4 0 0  and 6 2 4 0 0 
68139822		 # 	collision with: 2 1 3 0 0  and 4 1 3 0 0 
68139844		 # 	collision with: 2 3 3 0 0  and 2 5 3 0 0 
68139846		 # 	collision with: 4 5 3 0 0  and 4 6 3 0 0 
68139860		 # 	collision with: 5 2 5 0 0  and 6 2 5 0 0 
68139862		 # 	collision with: 2 1 4 0 0  and 4 1 4 0 0 
68139865		 # 	collision with: 1 4 2 0 0  and 10 6 2 0 0 
68139867		 # 	collision with: 8 2 0 0 0  and 8 3 0 0 0 
68139873		 # 	collision with: 2 6 2 0 0  and 2 2 3 0 0 
68139875		 # 	collision with: 2 1 3 0 0  and 4 1 3 0 0 
68139876		 # 	collision with: 5 2 9 0 0  and 6 2 9 0 0 
68139878		 # 	collision with: 2 1 6 0 0  and 4 1 6 0 0 
68139900		 # 	collision with: 6 0 5 0 0  and 5 2 5 0 0 
68139902		 # 	collision with: 10 0 5 0 0  and 10 2 5 0 0 
68139908		 # 	collision with: 5 2 1 0 0  and 6 2 1 0 0 
68139910		 # 	collision with: 2 1 9 0 0  and 4 1 9 0 0 
68139917		 # 	collision with: 9 7 2 0 0  and 2 5 3 0 0 
68139919		 # 	collision with: 3 1 2 0 0  and 3 6 3 0 0 
68139937		 # 	collision with: 7 9 2 0 0  and 7 9 3 0 0 
68139939		 # 	collision with: 2 1 0 0 0  and 4 1 0 0 0 
68139940		 # 	collision with: 0 7 0 0 0  and 8 1 0 1 0 
68139942		 # 	collision with: 9 7 4 0 0  and 2 1 4 1 0 
68139989		 # 	collision with: 5 2 2 0 0  and 6 2 2 0 0 
68139991		 # 	collision with: 3 5 1 0 0  and 3 2 3 0 0 
68140009		 # 	collision with: 10 7 1 0 0  and 10 0 3 0 0 
68140011		 # 	collision with: 2 1 3 0 0  and 4 1 3 0 0 
68140016		 # 	collision with: 2 3 6 0 0  and 2 5 6 0 0 
68140018		 # 	collision with: 8 2 6 0 0  and 8 3 6 0 0 
68140026		 # 	collision with: 2 1 5 0 0  and 4 1 5 0 0 
68140048		 # 	collision with: 1 1 3 0 0  and 1 3 3 0 0 
68140050		 # 	collision with: 2 1 3 0 0  and 2 2 3 0 0 
68140053		 # 	collision with: 3 3 1 0 0  and 3 3 3 0 0 
68140055		 # 	collision with: 8 3 1 0 0  and 8 3 3 0 0 
68140064		 # 	collision with: 5 2 4 0 0  and 6 2 4 0 0 
68140066		 # 	collision with: 2 1 3 0 0  and 4 1 3 0 0 
68140080		 # 	collision with: 5 2 0 0 0  and 6 2 0 0 0 
68140104		 # 	collision with: 2 3 6 0 0  and 2 5 6 0 0 
68140106		 # 	collision with: 2 1 6 0 0  and 4 1 6 0 0 
68140144		 # 	collision with: 5 2 3 0 0  and 6 2 3 0 0 
68140156		 # 	collision with: 6 0 7 0 0  and 5 2 7 0 0 
68140158		 # 	collision with: 2 1 4 0 0  and 4 1 4 0 0 
68140165		 # 	collision with: 7 2 1 0 0  and 7 4 3 0 0 
68140184		 # 	collision with: 5 2 5 0 0  and 6 2 5 0 0 
68140186		 # 	collision with: 2 1 4 0 0  and 4 1 4 0 0 
68140188		 # 	collision with: 5 2 9 0 0  and 6 2 9 0 0 
68140190		 # 	collision with: 2 1 6 0 0  and 4 1 6 0 0 
68140220		 # 	collision with: 1 0 1 0 0  and 10 1 1 0 0 
68140222		 # 	collision with: 2 1 0 0 0  and 4 1 0 0 0 
68140224		 # 	collision with: 1 1 3 0 0  and 1 3 3 0 0 
68140226		 # 	collision with: 2 1 3 0 0  and 2 2 3 0 0 
68140245		 # 	collision with: 5 2 1 0 0  and 6 2 1 0 0 
68140247		 # 	collision with: 5 4 1 0 0  and 5 4 3 0 0 
68140252		 # 	collision with: 7 2 4 0 0  and 4 3 4 0 0 
68140254		 # 	collision with: 2 1 2 0 0  and 4 1 2 0 0 
68140264		 # 	collision with: 5 2 1 0 0  and 6 2 1 0 0 
68140266		 # 	collision with: 2 1 0 0 0  and 4 1 0 0 0 
68140304		 # 	collision with: 9 1 5 0 0  and 9 2 5 0 0 
68140306		 # 	collision with: 4 1 5 0 0  and 2 2 5 0 0 
68140328		 # 	collision with: 5 2 1 0 0  and 6 2 1 0 0 
68140330		 # 	collision with: 2 1 9 0 0  and 4 1 9 0 0 
68140344		 # 	collision with: 5 2 0 0 0  and 6 2 0 0 0 
68140346		 # 	collision with: 9 4 2 0 0  and 8 6 2 0 0 
68140349		 # 	collision with: 5 2 1 0 0  and 6 2 1 0 0 
68140351		 # 	collision with: 10 0 1 0 0  and 7 4 3 0 0 
68140359		 # 	collision with: 3 6 1 0 0  and 3 1 3 0 0 
68140360		 # 	collision with: 5 2 4 0 0  and 6 2 4 0 0 
68140362		 # 	collision with: 2 1 1 0 0  and 4 1 1 0 0 
68140384		 # 	collision with: 4 2 4 0 0  and 7 4 4 0 0 
68140386		 # 	collision with: 2 1 4 0 0  and 2 2 4 0 0 
68140394		 # 	collision with: 1 4 5 0 0  and 1 6 5 0 0 
68140401		 # 	collision with: 1 4 1 0 0  and 10 6 1 0 0 
68140403		 # 	collision with: 9 4 1 0 0  and 8 6 1 0 0 
68140421		 # 	collision with: 4 2 2 0 0  and 7 4 2 0 0 
68140423		 # 	collision with: 2 1 1 0 0  and 4 1 1 0 0 
68140424		 # 	collision with: 7 6 2 0 0  and 3 7 2 1 0 
68140426		 # 	collision with: 3 1 1 0 0  and 1 7 1 1 0 
68140473		 # 	collision with: 5 2 1 0 0  and 6 2 1 0 0 
68140475		 # 	collision with: 8 1 1 0 0  and 8 1 2 0 0 
68140493		 # 	collision with: 2 3 1 0 0  and 2 5 1 0 0 
68140495		 # 	collision with: 2 1 0 0 0  and 2 2 0 0 0 
68140500		 # 	collision with: 5 2 9 0 0  and 6 2 9 0 0 
68140502		 # 	collision with: 2 1 6 0 0  and 4 1 6 0 0 
68140508		 # 	collision with: 5 2 5 0 0  and 6 2 5 0 0 
68140510		 # 	collision with: 2 1 4 0 0  and 4 1 4 0 0 
68140534		 # 	collision with: 4 5 5 0 0  and 4 6 5 0 0 
68140537		 # 	collision with: 5 2 1 0 0  and 6 2 1 0 0 
68140539		 # 	collision with: 2 1 0 0 0  and 2 2 0 0 0 
68140545		 # 	collision with: 8 7 1 0 0  and 8 7 2 0 0 
68140547		 # 	collision with: 2 1 0 0 0  and 4 1 0 0 0 
68140548		 # 	collision with: 4 2 4 0 0  and 4 3 4 0 0 
68140550		 # 	collision with: 6 3 4 0 0  and 6 5 4 0 0 
68140564		 # 	collision with: 5 2 7 0 0  and 6 2 7 0 0 
68140566		 # 	collision with: 2 1 4 0 0  and 4 1 4 0 0 
68140588		 # 	collision with: 5 2 3 0 0  and 6 2 3 0 0 
68140628		 # 	collision with: 5 2 0 0 0  and 6 2 0 0 0 
68140630		 # 	collision with: 5 2 2 0 0  and 1 3 2 0 0 
68140640		 # 	collision with: 5 2 4 0 0  and 6 2 4 0 0 
68140642		 # 	collision with: 2 1 1 0 0  and 4 1 1 0 0 
68140649		 # 	collision with: 4 1 1 0 0  and 4 1 2 0 0 
68140651		 # 	collision with: 6 1 1 0 0  and 6 1 2 0 0 
68140668		 # 	collision with: 3 0 6 0 0  and 3 1 6 0 0 
68140670		 # 	collision with: 2 1 6 0 0  and 4 1 6 0 0 
68140672		 # 	collision with: 5 2 0 0 0  and 6 2 0 0 0 
68140704		 # 	collision with: 5 2 1 0 0  and 6 2 1 0 0 
68140706		 # 	collision with: 2 1 9 0 0  and 4 1 9 0 0 
68140708		 # 	collision with: 3 0 5 0 0  and 3 1 5 0 0 
68140710		 # 	collision with: 4 5 5 0 0  and 4 6 5 0 0 
68140729		 # 	collision with: 1 1 1 0 0  and 1 3 1 0 0 
68140731		 # 	collision with: 4 5 1 0 0  and 4 6 2 0 0 
68140736		 # 	collision with: 8 4 3 0 0  and 8 6 3 0 0 
68140738		 # 	collision with: 7 0 3 0 0  and 10 1 3 0 0 
68140748		 # 	collision with: 5 2 4 0 0  and 6 2 4 0 0 
68140750		 # 	collision with: 2 1 3 0 0  and 4 1 3 0 0 
68140788		 # 	collision with: 5 2 1 0 0  and 6 2 1 0 0 
68140790		 # 	collision with: 2 1 0 0 0  and 4 1 0 0 0 
68140812		 # 	collision with: 4 2 4 0 0  and 4 3 4 0 0 
68140814		 # 	collision with: 2 1 2 0 0  and 4 1 2 0 0 
68140830		 # 	collision with: 2 1 5 0 0  and 4 1 5 0 0 
68140833		 # 	collision with: 2 4 1 0 0  and 2 4 2 0 0 
68140835		 # 	collision with: 9 5 1 0 0  and 8 6 1 0 0 
68140841		 # 	collision with: 9 1 0 0 0  and 9 2 0 0 0 
68140844		 # 	collision with: 3 0 6 0 0  and 3 1 6 0 0 
68140846		 # 	collision with: 4 1 6 0 0  and 2 2 6 0 0 
68140868		 # 	collision with: 8 4 3 0 0  and 8 6 3 0 0 
68140870		 # 	collision with: 5 1 3 0 0  and 5 3 3 0 0 
68140876		 # 	collision with: 8 4 1 0 0  and 8 6 1 0 0 
68140878		 # 	collision with: 2 1 0 0 0  and 4 1 0 0 0 
68140885		 # 	collision with: 9 1 0 0 0  and 9 2 0 0 0 
68140887		 # 	collision with: 6 10 1 0 0  and 0 0 2 0 0 
68140905		 # 	collision with: 1 1 1 0 0  and 1 3 1 0 0 
68140908		 # 	collision with: 7 5 0 0 0  and 9 4 0 1 0 
68140910		 # 	collision with: 5 10 0 0 0  and 8 4 0 1 0 
68140957		 # 	collision with: 6 0 0 0 0  and 5 2 0 0 0 
68140959		 # 	collision with: 7 0 1 0 0  and 10 1 1 0 0 
68140977		 # 	collision with: 5 2 1 0 0  and 6 2 1 0 0 
68140979		 # 	collision with: 2 1 1 0 0  and 4 1 1 0 0 
68140984		 # 	collision with: 6 0 3 0 0  and 6 2 3 0 0 
68140986		 # 	collision with: 1 4 3 0 0  and 1 6 3 0 0 
68140992		 # 	collision with: 5 2 4 0 0  and 6 2 4 0 0 
68140994		 # 	collision with: 2 1 3 0 0  and 4 1 3 0 0 
68141016		 # 	collision with: 5 2 7 0 0  and 6 2 7 0 0 
68141018		 # 	collision with: 2 1 4 0 0  and 4 1 4 0 0 
68141021		 # 	collision with: 9 1 0 0 0  and 9 1 2 0 0 
68141023		 # 	collision with: 3 1 0 0 0  and 3 1 2 0 0 
68141029		 # 	collision with: 10 1 0 0 0  and 1 0 2 0 0 
68141031		 # 	collision with: 6 3 2 0 0  and 6 5 2 0 0 
68141032		 # 	collision with: 5 2 3 0 0  and 6 2 3 0 0 
68141048		 # 	collision with: 5 2 3 0 0  and 6 2 3 0 0 
68141050		 # 	collision with: 2 1 0 0 0  and 4 1 0 0 0 
68141072		 # 	collision with: 9 1 3 0 0  and 2 2 3 0 0 
68141074		 # 	collision with: 1 4 3 0 0  and 1 6 3 0 0 
68141112		 # 	collision with: 4 2 5 0 0  and 4 3 5 0 0 
68141114		 # 	collision with: 10 2 5 0 0  and 7 4 5 0 0 
68141124		 # 	collision with: 5 2 1 0 0  and 6 2 1 0 0 
68141126		 # 	collision with: 2 1 9 0 0  and 4 1 9 0 0 
68141133		 # 	collision with: 6 0 0 0 0  and 5 2 0 0 0 
68141135		 # 	collision with: 7 0 0 0 0  and 10 1 2 0 0 
68141152		 # 	collision with: 7 2 4 0 0  and 7 4 4 0 0 
68141154		 # 	collision with: 5 1 4 0 0  and 5 3 4 0 0 
68141158		 # 	collision with: 9 4 5 0 0  and 9 5 5 0 0 
68141188		 # 	collision with: 6 0 6 0 0  and 6 2 6 0 0 
68141190		 # 	collision with: 2 1 6 0 0  and 2 2 6 0 0 
68141194		 # 	collision with: 2 1 5 0 0  and 4 1 5 0 0 
68141213		 # 	collision with: 5 5 0 0 0  and 5 5 2 0 0 
68141215		 # 	collision with: 9 1 0 0 0  and 8 4 2 0 0 
68141220		 # 	collision with: 5 2 0 0 0  and 6 2 0 0 0 
68141232		 # 	collision with: 9 1 6 0 0  and 2 2 6 0 0 
68141234		 # 	collision with: 2 1 6 0 0  and 4 1 6 0 0 
68141272		 # 	collision with: 5 2 5 0 0  and 6 2 5 0 0 
68141274		 # 	collision with: 2 1 4 0 0  and 4 1 4 0 0 
68141296		 # 	collision with: 5 2 9 0 0  and 6 2 9 0 0 
68141298		 # 	collision with: 2 1 6 0 0  and 4 1 6 0 0 
68141312		 # 	collision with: 5 2 1 0 0  and 6 2 1 0 0 
68141314		 # 	collision with: 2 1 0 0 0  and 4 1 0 0 0 
68141317		 # 	collision with: 8 4 1 0 0  and 8 6 1 0 0 
68141319		 # 	collision with: 7 1 0 0 0  and 7 0 2 0 0 
68141325		 # 	collision with: 10 1 0 0 0  and 1 0 2 0 0 
68141327		 # 	collision with: 10 0 0 0 0  and 10 2 0 0 0 
68141328		 # 	collision with: 7 2 4 0 0  and 7 4 4 0 0 
68141330		 # 	collision with: 2 1 2 0 0  and 4 1 2 0 0 
68141352		 # 	collision with: 5 2 0 0 0  and 6 2 0 0 0 
68141354		 # 	collision with: 8 2 2 0 0  and 8 3 2 0 0 
68141360		 # 	collision with: 5 2 4 0 0  and 6 2 4 0 0 
68141362		 # 	collision with: 2 1 1 0 0  and 4 1 1 0 0 
68141369		 # 	collision with: 7 9 0 0 0  and 4 1 2 0 0 
68141389		 # 	collision with: 9 1 1 0 0  and 2 2 1 0 0 
68141391		 # 	collision with: 10 1 0 0 0  and 7 0 2 0 0 
68141392		 # 	collision with: 9 1 1 0 0  and 3 7 1 1 0 
68141394		 # 	collision with: 1 6 0 0 0  and 6 5 0 1 0 
68141443		 # 	collision with: 9 5 1 0 0  and 8 6 1 0 0 
68141461		 # 	collision with: 5 2 0 0 0  and 6 2 0 0 0 
68141463		 # 	collision with: 2 1 0 0 0  and 4 1 0 0 0 
68141468		 # 	collision with: 5 2 7 0 0  and 6 2 7 0 0 
68141470		 # 	collision with: 2 1 4 0 0  and 4 1 4 0 0 
68141476		 # 	collision with: 5 2 3 0 0  and 6 2 3 0 0 
68141500		 # 	collision with: 5 2 1 0 0  and 6 2 1 0 0 
68141502		 # 	collision with: 2 1 9 0 0  and 4 1 9 0 0 
68141505		 # 	collision with: 5 2 0 0 0  and 6 2 0 0 0 
68141507		 # 	collision with: 2 1 0 0 0  and 4 1 0 0 0 
68141513		 # 	collision with: 7 8 0 0 0  and 7 9 1 0 0 
68141515		 # 	collision with: 6 0 0 0 0  and 6 0 1 0 0 
68141516		 # 	collision with: 6 0 5 0 0  and 6 2 5 0 0 
68141518		 # 	collision with: 8 2 5 0 0  and 8 3 5 0 0 
68141532		 # 	collision with: 1 4 6 0 0  and 10 6 6 0 0 
68141534		 # 	collision with: 2 1 7 0 0  and 4 1 7 0 0 
68141558		 # 	collision with: 2 1 5 0 0  and 4 1 5 0 0 
68141596		 # 	collision with: 5 2 5 0 0  and 6 2 5 0 0 
68141598		 # 	collision with: 2 1 4 0 0  and 4 1 4 0 0 
68141608		 # 	collision with: 5 2 9 0 0  and 6 2 9 0 0 
68141610		 # 	collision with: 2 1 6 0 0  and 4 1 6 0 0 
68141617		 # 	collision with: 7 0 0 0 0  and 7 0 1 0 0 
68141619		 # 	collision with: 9 0 0 0 0  and 9 0 1 0 0 
68141636		 # 	collision with: 5 2 0 0 0  and 6 2 0 0 0 
68141638		 # 	collision with: 9 4 2 0 0  and 9 5 2 0 0 
68141640		 # 	collision with: 5 2 4 0 0  and 6 2 4 0 0 
68141642		 # 	collision with: 2 1 1 0 0  and 4 1 1 0 0 
68141672		 # 	collision with: 7 2 3 0 0  and 7 4 3 0 0 
68141674		 # 	collision with: 4 1 3 0 0  and 2 2 3 0 0 
68141676		 # 	collision with: 5 2 4 0 0  and 6 2 4 0 0 
68141678		 # 	collision with: 2 1 3 0 0  and 4 1 3 0 0 
68141697		 # 	collision with: 4 0 0 0 0  and 4 0 1 0 0 
68141699		 # 	collision with: 2 0 0 0 0  and 2 0 1 0 0 
68141704		 # 	collision with: 3 0 1 0 0  and 3 1 1 0 0 
68141706		 # 	collision with: 2 1 0 0 0  and 4 1 0 0 0 
68141716		 # 	collision with: 7 2 3 0 0  and 7 4 3 0 0 
68141718		 # 	collision with: 3 3 3 0 0  and 3 4 3 0 0 
68141756		 # 	collision with: 1 0 4 0 0  and 10 1 4 0 0 
68141758		 # 	collision with: 9 4 4 0 0  and 9 5 4 0 0 
68141782		 # 	collision with: 8 2 5 0 0  and 8 3 5 0 0 
68141796		 # 	collision with: 5 2 7 0 0  and 6 2 7 0 0 
68141798		 # 	collision with: 2 1 6 0 0  and 4 1 6 0 0 
68141801		 # 	collision with: 10 0 0 0 0  and 10 0 1 0 0 
68141803		 # 	collision with: 5 0 0 0 0  and 5 0 1 0 0 
68141809		 # 	collision with: 10 0 0 0 0  and 10 0 1 0 0 
68141811		 # 	collision with: 5 0 0 0 0  and 5 0 1 0 0 
68141812		 # 	collision with: 5 2 0 0 0  and 6 2 0 0 0 
68141836		 # 	collision with: 3 0 1 0 0  and 3 1 1 0 0 
68141838		 # 	collision with: 2 1 0 0 0  and 4 1 0 0 0 
68141844		 # 	collision with: 6 0 4 0 0  and 6 2 4 0 0 
68141846		 # 	collision with: 2 1 2 0 0  and 4 1 2 0 0 
68141855		 # 	collision with: 10 0 0 0 0  and 10 0 1 0 0 
68141873		 # 	collision with: 9 0 0 0 0  and 9 0 1 0 0 
68141875		 # 	collision with: 10 0 0 0 0  and 10 0 1 0 0 
68141881		 # 	collision with: 3 1 5 0 0  and 3 0 6 0 0 
68141883		 # 	collision with: 4 4 1 0 0  and 2 6 1 0 0 
68141917		 # 	collision with: 5 10 5 0 0  and 6 6 6 0 0 
68141919		 # 	collision with: 10 5 5 0 0  and 10 8 6 0 0 
68142017		 # 	collision with: 5 2 6 0 0  and 6 2 6 0 0 
68142019		 # 	collision with: 7 0 5 0 0  and 7 1 5 0 0 
68142041		 # 	collision with: 5 2 2 0 0  and 6 2 2 0 0 
68142043		 # 	collision with: 2 3 1 0 0  and 4 3 1 0 0 
68142085		 # 	collision with: 6 2 5 0 0  and 5 2 6 0 0 
68142087		 # 	collision with: 6 0 4 0 0  and 0 1 4 0 0 
68142089		 # 	collision with: 5 2 1 0 0  and 6 2 1 0 0 
68142091		 # 	collision with: 2 3 0 0 0  and 4 3 0 0 0 
68142103		 # 	collision with: 0 1 5 0 0  and 6 0 6 0 0 
68142183		 # 	collision with: 2 3 5 0 0  and 4 3 5 0 0 
68142193		 # 	collision with: 5 2 1 0 0  and 6 2 1 0 0 
68142195		 # 	collision with: 2 3 3 0 0  and 4 3 3 0 0 
68142197		 # 	collision with: 1 4 4 0 0  and 10 6 4 0 0 
68142199		 # 	collision with: 2 3 1 0 0  and 4 3 1 0 0 
68142241		 # 	collision with: 5 2 2 0 0  and 6 2 2 0 0 
68142243		 # 	collision with: 2 3 5 0 0  and 4 3 5 0 0 
68142265		 # 	collision with: 1 1 2 0 0  and 1 3 2 0 0 
68142267		 # 	collision with: 2 3 0 0 0  and 4 3 0 0 0 
68142360		 # 	collision with: 3 8 2 0 0  and 9 4 1 1 0 
68142362		 # 	collision with: 0 10 1 0 0  and 1 1 0 1 0 
68142367		 # 	collision with: 9 4 1 0 0  and 9 5 1 0 0 
68142401		 # 	collision with: 10 6 4 0 0  and 10 1 6 0 0 
68142403		 # 	collision with: 6 8 4 0 0  and 0 1 6 0 0 
68142501		 # 	collision with: 1 4 0 0 0  and 10 6 0 0 0 
68142503		 # 	collision with: 4 4 0 0 0  and 2 6 0 0 0 
68142525		 # 	collision with: 9 1 5 0 0  and 2 2 5 0 0 
68142527		 # 	collision with: 10 0 4 0 0  and 10 0 6 0 0 
68142569		 # 	collision with: 5 2 4 0 0  and 6 2 4 0 0 
68142571		 # 	collision with: 1 0 1 0 0  and 5 2 1 0 0 
68142573		 # 	collision with: 9 1 2 0 0  and 9 2 2 0 0 
68142575		 # 	collision with: 8 2 3 0 0  and 8 3 3 0 0 
68142585		 # 	collision with: 4 2 4 0 0  and 7 4 4 0 0 
68142587		 # 	collision with: 9 4 1 0 0  and 9 5 1 0 0 
68142665		 # 	collision with: 5 2 2 0 0  and 6 2 2 0 0 
68142667		 # 	collision with: 2 3 3 0 0  and 4 3 3 0 0 
68142677		 # 	collision with: 1 4 0 0 0  and 10 6 0 0 0 
68142679		 # 	collision with: 4 4 0 0 0  and 2 6 0 0 0 
68142681		 # 	collision with: 1 0 3 0 0  and 10 1 3 0 0 
68142683		 # 	collision with: 6 0 3 0 0  and 0 1 3 0 0 
68142725		 # 	collision with: 8 0 4 0 0  and 8 0 6 0 0 
68142727		 # 	collision with: 1 0 4 0 0  and 1 0 6 0 0 
68142749		 # 	collision with: 9 1 2 0 0  and 9 2 2 0 0 
68142751		 # 	collision with: 8 2 3 0 0  and 8 3 3 0 0 
68142844		 # 	collision with: 0 2 6 0 0  and 1 8 0 1 0 
68142846		 # 	collision with: 9 0 7 0 0  and 1 10 1 1 0 
68142849		 # 	collision with: 7 2 4 0 0  and 7 4 5 0 0 
68142851		 # 	collision with: 2 3 0 0 0  and 4 3 0 0 0 
68142885		 # 	collision with: 5 2 0 0 0  and 6 2 0 0 0 
68142887		 # 	collision with: 7 10 4 0 0  and 7 2 5 0 0 
68142985		 # 	collision with: 9 1 3 0 0  and 9 2 3 0 0 
68142987		 # 	collision with: 8 2 2 0 0  and 9 3 2 0 0 
68143009		 # 	collision with: 3 0 1 0 0  and 3 1 1 0 0 
68143011		 # 	collision with: 9 4 0 0 0  and 9 5 0 0 0 
68143053		 # 	collision with: 3 0 1 0 0  and 3 1 1 0 0 
68143057		 # 	collision with: 6 0 2 0 0  and 6 2 2 0 0 
68143059		 # 	collision with: 5 1 3 0 0  and 5 3 3 0 0 
68143069		 # 	collision with: 7 2 4 0 0  and 4 3 4 0 0 
68143071		 # 	collision with: 2 3 0 0 0  and 4 3 0 0 0 
68143149		 # 	collision with: 5 2 0 0 0  and 6 2 0 0 0 
68143151		 # 	collision with: 2 3 1 0 0  and 4 3 1 0 0 
68143161		 # 	collision with: 7 2 2 0 0  and 4 3 2 0 0 
68143163		 # 	collision with: 10 0 4 0 0  and 10 2 5 0 0 
68143165		 # 	collision with: 4 2 1 0 0  and 7 4 1 0 0 
68143167		 # 	collision with: 5 5 3 0 0  and 1 6 3 0 0 
68143209		 # 	collision with: 10 3 4 0 0  and 1 5 4 0 0 
68143211		 # 	collision with: 2 3 2 0 0  and 4 3 2 0 0 
68143233		 # 	collision with: 6 0 2 0 0  and 6 2 2 0 0 
68143328		 # 	collision with: 9 8 4 0 0  and 0 1 0 1 0 
68143330		 # 	collision with: 7 9 4 0 0  and 2 9 0 1 0 
68143333		 # 	collision with: 10 3 1 0 0  and 10 4 1 0 0 
68143335		 # 	collision with: 2 1 5 0 0  and 2 2 5 0 0 
68143369		 # 	collision with: 7 0 3 0 0  and 7 6 5 0 0 
68143371		 # 	collision with: 0 3 0 0 0  and 6 5 0 0 0 
68143469		 # 	collision with: 5 2 5 0 0  and 6 2 5 0 0 
68143471		 # 	collision with: 6 3 0 0 0  and 6 5 0 0 0 
68143495		 # 	collision with: 2 3 0 0 0  and 4 3 0 0 0 
68143537		 # 	collision with: 9 1 2 0 0  and 2 2 2 0 0 
68143539		 # 	collision with: 2 3 0 0 0  and 4 3 0 0 0 
68143541		 # 	collision with: 1 4 1 0 0  and 10 6 1 0 0 
68143543		 # 	collision with: 2 3 2 0 0  and 4 3 2 0 0 
68143553		 # 	collision with: 10 3 1 0 0  and 10 4 1 0 0 
68143555		 # 	collision with: 2 3 2 0 0  and 4 3 2 0 0 
68143633		 # 	collision with: 10 4 1 0 0  and 1 5 1 0 0 
68143635		 # 	collision with: 0 3 0 0 0  and 6 5 0 0 0 
68143645		 # 	collision with: 4 2 3 0 0  and 7 4 5 0 0 
68143647		 # 	collision with: 6 3 0 0 0  and 6 5 0 0 0 
68143649		 # 	collision with: 10 3 4 0 0  and 10 4 4 0 0 
68143651		 # 	collision with: 4 8 3 0 0  and 2 3 5 0 0 
68143693		 # 	collision with: 5 2 3 0 0  and 6 2 3 0 0 
68143695		 # 	collision with: 1 0 2 0 0  and 5 2 2 0 0 
68143719		 # 	collision with: 2 3 1 0 0  and 4 3 1 0 0 
68143812		 # 	collision with: 8 0 3 0 0  and 0 2 0 1 0 
68143814		 # 	collision with: 0 9 3 0 0  and 3 8 0 1 0 
68143817		 # 	collision with: 4 2 1 0 0  and 7 4 1 0 0 
68143819		 # 	collision with: 5 1 3 0 0  and 1 3 3 0 0 
68143853		 # 	collision with: 4 3 0 0 0  and 7 4 0 0 0 
68143855		 # 	collision with: 0 3 1 0 0  and 6 5 1 0 0 
68143953		 # 	collision with: 5 2 1 0 0  and 6 2 1 0 0 
68143955		 # 	collision with: 2 1 2 0 0  and 2 2 2 0 0 
68143977		 # 	collision with: 6 5 3 0 0  and 6 5 4 0 0 
68143979		 # 	collision with: 2 0 3 0 0  and 2 3 4 0 0 
68144021		 # 	collision with: 10 5 3 0 0  and 10 5 4 0 0 
68144023		 # 	collision with: 4 4 1 0 0  and 2 6 1 0 0 
68144025		 # 	collision with: 5 2 0 0 0  and 6 2 0 0 0 
68144027		 # 	collision with: 10 0 3 0 0  and 10 2 3 0 0 
68144037		 # 	collision with: 5 2 1 0 0  and 6 2 1 0 0 
68144039		 # 	collision with: 2 3 4 0 0  and 4 3 4 0 0 
68144117		 # 	collision with: 4 3 0 0 0  and 7 4 0 0 0 
68144129		 # 	collision with: 5 2 2 0 0  and 6 2 2 0 0 
68144133		 # 	collision with: 1 0 2 0 0  and 10 1 2 0 0 
68144135		 # 	collision with: 2 3 2 0 0  and 4 3 2 0 0 
68144177		 # 	collision with: 5 4 3 0 0  and 5 5 3 0 0 
68144179		 # 	collision with: 9 10 3 0 0  and 8 5 4 0 0 
68144201		 # 	collision with: 5 2 0 0 0  and 6 2 0 0 0 
68144203		 # 	collision with: 5 5 2 0 0  and 1 6 2 0 0 
68144296		 # 	collision with: 5 9 9 0 0  and 0 3 0 1 0 
68144298		 # 	collision with: 4 4 9 0 0  and 0 0 0 1 0 
68144301		 # 	collision with: 10 2 2 0 0  and 1 2 4 0 0 
68144337		 # 	collision with: 4 3 1 0 0  and 7 4 1 0 0 
68144339		 # 	collision with: 0 3 2 0 0  and 6 5 2 0 0 
68144437		 # 	collision with: 6 0 2 0 0  and 5 2 2 0 0 
68144439		 # 	collision with: 5 5 3 0 0  and 1 6 3 0 0 
68144461		 # 	collision with: 5 2 4 0 0  and 6 2 4 0 0 
68144463		 # 	collision with: 2 3 3 0 0  and 4 3 3 0 0 
68144507		 # 	collision with: 5 1 3 0 0  and 1 3 3 0 0 
68144509		 # 	collision with: 8 4 2 0 0  and 8 6 2 0 0 
68144511		 # 	collision with: 0 3 1 0 0  and 6 5 1 0 0 
68144521		 # 	collision with: 5 2 3 0 0  and 6 2 3 0 0 
68144523		 # 	collision with: 10 2 2 0 0  and 10 2 4 0 0 
68144601		 # 	collision with: 10 4 3 0 0  and 1 5 3 0 0 
68144603		 # 	collision with: 10 9 2 0 0  and 10 9 4 0 0 
68144615		 # 	collision with: 5 1 1 0 0  and 1 3 1 0 0 
68144617		 # 	collision with: 5 2 0 0 0  and 6 2 0 0 0 
68144619		 # 	collision with: 1 10 2 0 0  and 5 2 4 0 0 
68144661		 # 	collision with: 5 2 0 0 0  and 6 2 0 0 0 
68144685		 # 	collision with: 8 4 2 0 0  and 8 6 2 0 0 
68144687		 # 	collision with: 7 0 3 0 0  and 7 1 3 0 0 
68144780		 # 	collision with: 8 7 2 0 0  and 10 6 0 1 0 
68144782		 # 	collision with: 6 5 2 0 0  and 2 2 0 1 0 
68144785		 # 	collision with: 6 0 3 0 0  and 5 2 3 0 0 
68144787		 # 	collision with: 8 2 0 0 0  and 8 3 0 0 0 
68144821		 # 	collision with: 4 3 2 0 0  and 7 4 2 0 0 
68144921		 # 	collision with: 4 2 0 0 0  and 4 3 0 0 0 
68144923		 # 	collision with: 7 4 2 0 0  and 7 4 3 0 0 
68144945		 # 	collision with: 5 2 0 0 0  and 6 2 0 0 0 
68144989		 # 	collision with: 5 2 0 0 0  and 6 2 0 0 0 
68144991		 # 	collision with: 6 3 1 0 0  and 6 5 1 0 0 
68144995		 # 	collision with: 4 5 3 0 0  and 4 6 3 0 0 
68145005		 # 	collision with: 9 1 2 0 0  and 2 2 2 0 0 
68145007		 # 	collision with: 8 2 0 0 0  and 8 3 0 0 0 
68145085		 # 	collision with: 5 2 3 0 0  and 6 2 3 0 0 
68145087		 # 	collision with: 3 3 2 0 0  and 3 3 3 0 0 
68145097		 # 	collision with: 4 2 0 0 0  and 4 3 0 0 0 
68145099		 # 	collision with: 3 4 2 0 0  and 3 4 3 0 0 
68145103		 # 	collision with: 4 10 2 0 0  and 4 10 3 0 0 
68145145		 # 	collision with: 6 0 1 0 0  and 6 2 1 0 0 
68145147		 # 	collision with: 7 9 2 0 0  and 10 3 3 0 0 
68145169		 # 	collision with: 7 2 0 0 0  and 4 3 0 0 0 
68145171		 # 	collision with: 2 3 2 0 0  and 4 3 2 0 0 
68145264		 # 	collision with: 0 7 8 0 0  and 8 3 0 1 0 
68145266		 # 	collision with: 10 2 9 0 0  and 8 1 1 1 0 
68145269		 # 	collision with: 9 1 1 0 0  and 2 2 1 0 0 
68145271		 # 	collision with: 10 0 2 0 0  and 10 2 2 0 0 
68145305		 # 	collision with: 4 3 3 0 0  and 7 4 3 0 0 
68145307		 # 	collision with: 5 10 1 0 0  and 5 5 3 0 0 
68145405		 # 	collision with: 5 2 0 0 0  and 6 2 0 0 0 
68145407		 # 	collision with: 2 3 1 0 0  and 4 3 1 0 0 
68145429		 # 	collision with: 10 6 1 0 0  and 1 0 3 0 0 
68145431		 # 	collision with: 4 8 1 0 0  and 2 3 3 0 0 
68145473		 # 	collision with: 4 10 1 0 0  and 4 10 3 0 0 
68145475		 # 	collision with: 1 0 3 0 0  and 5 2 3 0 0 
68145477		 # 	collision with: 5 2 2 0 0  and 6 2 2 0 0 
68145489		 # 	collision with: 2 6 1 0 0  and 2 2 3 0 0 
68145569		 # 	collision with: 5 2 1 0 0  and 6 2 1 0 0 
68145571		 # 	collision with: 2 3 2 0 0  and 4 3 2 0 0 
68145581		 # 	collision with: 5 2 0 0 0  and 6 2 0 0 0 
68145583		 # 	collision with: 2 3 2 0 0  and 4 3 2 0 0 
68145585		 # 	collision with: 1 1 0 0 0  and 1 3 0 0 0 
68145587		 # 	collision with: 2 3 0 0 0  and 4 3 0 0 0 
68145629		 # 	collision with: 1 1 0 0 0  and 1 3 0 0 0 
68145631		 # 	collision with: 2 3 0 0 0  and 4 3 0 0 0 
68145653		 # 	collision with: 5 2 1 0 0  and 6 2 1 0 0 
68145655		 # 	collision with: 1 4 1 0 0  and 1 4 3 0 0 
68145748		 # 	collision with: 0 10 9 0 0  and 9 8 2 1 0 
68145750		 # 	collision with: 2 7 7 0 0  and 10 1 0 1 0 
68145753		 # 	collision with: 9 1 0 0 0  and 9 2 0 0 0 
68145755		 # 	collision with: 3 7 1 0 0  and 3 0 2 0 0 
68145789		 # 	collision with: 10 2 1 0 0  and 1 2 2 0 0 
68145791		 # 	collision with: 2 1 0 0 0  and 2 2 0 0 0 
68145891		 # 	collision with: 8 1 1 0 0  and 8 4 2 0 0 
68145913		 # 	collision with: 6 3 1 0 0  and 5 0 2 0 0 
68145915		 # 	collision with: 2 3 1 0 0  and 2 0 2 0 0 
68145957		 # 	collision with: 1 5 1 0 0  and 10 3 2 0 0 
68145959		 # 	collision with: 1 9 1 0 0  and 1 1 2 0 0 
68145961		 # 	collision with: 9 1 0 0 0  and 2 2 0 0 0 
68145963		 # 	collision with: 2 1 1 0 0  and 2 1 2 0 0 
68145973		 # 	collision with: 9 1 0 0 0  and 9 2 0 0 0 
68145975		 # 	collision with: 2 3 1 0 0  and 4 3 1 0 0 
68146053		 # 	collision with: 2 2 1 0 0  and 2 2 2 0 0 
68146055		 # 	collision with: 2 1 0 0 0  and 2 2 0 0 0 
68146065		 # 	collision with: 2 10 1 0 0  and 2 10 2 0 0 
68146067		 # 	collision with: 5 2 1 0 0  and 1 0 2 0 0 
68146069		 # 	collision with: 9 1 1 0 0  and 9 2 2 0 0 
68146071		 # 	collision with: 2 3 1 0 0  and 2 3 2 0 0 
68146115		 # 	collision with: 0 3 1 0 0  and 6 3 2 0 0 
68146137		 # 	collision with: 9 1 0 0 0  and 2 2 0 0 0 
68146139		 # 	collision with: 8 2 1 0 0  and 9 3 1 0 0 
68146232		 # 	collision with: 9 10 6 0 0  and 6 3 1 1 0 
68146234		 # 	collision with: 2 4 5 0 0  and 3 7 0 1 0 
68146237		 # 	collision with: 5 2 0 0 0  and 6 2 0 0 0 
68146239		 # 	collision with: 9 8 0 0 0  and 9 1 2 0 0 
68146273		 # 	collision with: 3 5 0 0 0  and 8 9 2 0 0 
68146275		 # 	collision with: 2 0 0 0 0  and 4 3 2 0 0 
68146373		 # 	collision with: 9 2 0 0 0  and 2 2 2 0 0 
68146397		 # 	collision with: 6 0 0 0 0  and 6 2 0 0 0 
68146399		 # 	collision with: 2 6 0 0 0  and 4 7 0 0 0 
68146441		 # 	collision with: 6 0 0 0 0  and 6 2 0 0 0 
68146443		 # 	collision with: 2 6 0 0 0  and 4 7 0 0 0 
68146445		 # 	collision with: 6 10 0 0 0  and 5 0 2 0 0 
68146447		 # 	collision with: 1 10 0 0 0  and 1 0 2 0 0 
68146457		 # 	collision with: 5 2 0 0 0  and 6 2 0 0 0 
68146459		 # 	collision with: 3 4 0 0 0  and 3 4 2 0 0 
68146537		 # 	collision with: 6 3 0 0 0  and 5 0 2 0 0 
68146539		 # 	collision with: 9 10 0 0 0  and 8 0 2 0 0 
68146549		 # 	collision with: 6 3 0 0 0  and 5 0 2 0 0 
68146551		 # 	collision with: 4 5 1 0 0  and 4 6 1 0 0 
68146553		 # 	collision with: 5 2 1 0 0  and 6 2 1 0 0 
68146597		 # 	collision with: 7 9 0 0 0  and 4 1 2 0 0 
68146599		 # 	collision with: 1 4 1 0 0  and 1 6 1 0 0 
68146621		 # 	collision with: 7 2 2 0 0  and 7 4 2 0 0 
68146623		 # 	collision with: 1 9 0 0 0  and 1 9 2 0 0 
68146716		 # 	collision with: 3 1 1 0 0  and 6 6 2 1 0 
68146718		 # 	collision with: 6 5 0 0 0  and 9 2 1 1 0 
68146721		 # 	collision with: 10 3 0 0 0  and 10 4 1 0 0 
68146723		 # 	collision with: 10 4 0 0 0  and 7 0 1 0 0 
68146759		 # 	collision with: 6 8 0 0 0  and 6 0 1 0 0 
68146857		 # 	collision with: 2 5 0 0 0  and 2 5 1 0 0 
68146859		 # 	collision with: 2 3 0 0 0  and 4 3 0 0 0 
68146881		 # 	collision with: 1 4 0 0 0  and 1 4 1 0 0 
68146883		 # 	collision with: 4 8 0 0 0  and 2 0 1 0 0 
68146925		 # 	collision with: 2 5 0 0 0  and 2 3 1 0 0 
68146927		 # 	collision with: 2 3 1 0 0  and 4 3 1 0 0 
68146929		 # 	collision with: 1 4 0 0 0  and 1 0 1 0 0 
68146931		 # 	collision with: 2 6 0 0 0  and 2 6 1 0 0 
68146941		 # 	collision with: 1 4 0 0 0  and 1 0 1 0 0 
68146943		 # 	collision with: 6 8 0 0 0  and 6 0 1 0 0 
68147021		 # 	collision with: 4 8 0 0 0  and 7 0 1 0 0 
68147023		 # 	collision with: 6 0 0 0 0  and 0 1 1 0 0 
68147033		 # 	collision with: 4 5 0 0 0  and 4 5 1 0 0 
68147035		 # 	collision with: 2 3 0 0 0  and 4 3 0 0 0 
68147037		 # 	collision with: 2 5 0 0 0  and 9 7 0 0 0 
68147039		 # 	collision with: 7 0 0 0 0  and 7 1 0 0 0 
68147081		 # 	collision with: 2 5 0 0 0  and 9 7 0 0 0 
68147083		 # 	collision with: 7 0 0 0 0  and 7 1 0 0 0 
68147105		 # 	collision with: 8 6 0 0 0  and 8 6 1 0 0 
68147107		 # 	collision with: 4 8 0 0 0  and 2 0 1 0 0 
68147217		 # 	collision with: 8 4 3 0 0  and 8 6 3 0 0 
68147219		 # 	collision with: 4 5 0 0 0  and 4 6 0 0 0 
68147229		 # 	collision with: 6 0 6 0 0  and 6 2 6 0 0 
68147231		 # 	collision with: 5 1 1 0 0  and 5 3 1 0 0 
68147349		 # 	collision with: 5 2 1 0 0  and 6 2 1 0 0 
68147351		 # 	collision with: 4 5 0 0 0  and 4 6 0 0 0 
68147357		 # 	collision with: 9 1 5 0 0  and 9 2 5 0 0 
68147359		 # 	collision with: 5 1 3 0 0  and 5 3 3 0 0 
68147381		 # 	collision with: 10 4 2 0 0  and 1 5 2 0 0 
68147383		 # 	collision with: 2 5 0 0 0  and 4 5 0 0 0 
68147397		 # 	collision with: 3 0 2 0 0  and 3 1 2 0 0 
68147399		 # 	collision with: 2 5 0 0 0  and 4 6 0 0 0 
68147427		 # 	collision with: 2 5 0 0 0  and 4 5 0 0 0 
68147507		 # 	collision with: 4 2 5 0 0  and 2 3 5 0 0 
68147533		 # 	collision with: 5 2 3 0 0  and 6 2 3 0 0 
68147535		 # 	collision with: 4 2 1 0 0  and 2 3 1 0 0 
68147549		 # 	collision with: 5 2 5 0 0  and 6 2 5 0 0 
68147551		 # 	collision with: 2 5 3 0 0  and 4 5 3 0 0 
68147573		 # 	collision with: 3 0 2 0 0  and 3 1 2 0 0 
68147575		 # 	collision with: 2 5 0 0 0  and 4 6 0 0 0 
68147581		 # 	collision with: 5 2 1 0 0  and 6 2 1 0 0 
68147583		 # 	collision with: 5 1 1 0 0  and 5 3 1 0 0 
68147684		 # 	collision with: 5 5 2 0 0  and 3 3 0 1 0 
68147686		 # 	collision with: 9 8 3 0 0  and 6 3 1 1 0 
68147701		 # 	collision with: 1 4 0 0 0  and 10 6 0 0 0 
68147703		 # 	collision with: 5 8 4 0 0  and 1 1 6 0 0 
68147713		 # 	collision with: 8 4 0 0 0  and 8 6 0 0 0 
68147715		 # 	collision with: 7 0 6 0 0  and 7 1 6 0 0 
68147833		 # 	collision with: 1 4 0 0 0  and 10 6 0 0 0 
68147841		 # 	collision with: 5 2 3 0 0  and 6 2 3 0 0 
68147843		 # 	collision with: 1 2 4 0 0  and 1 2 6 0 0 
68147865		 # 	collision with: 5 2 2 0 0  and 6 2 2 0 0 
68147867		 # 	collision with: 1 4 0 0 0  and 1 6 0 0 0 
68147881		 # 	collision with: 5 2 0 0 0  and 6 2 0 0 0 
68147909		 # 	collision with: 4 3 3 0 0  and 7 4 3 0 0 
68147911		 # 	collision with: 1 4 0 0 0  and 1 6 0 0 0 
68147989		 # 	collision with: 5 2 2 0 0  and 6 2 2 0 0 
68147991		 # 	collision with: 7 0 2 0 0  and 7 1 2 0 0 
68148017		 # 	collision with: 10 2 4 0 0  and 1 2 6 0 0 
68148019		 # 	collision with: 2 5 1 0 0  and 4 5 1 0 0 
68148033		 # 	collision with: 1 0 2 0 0  and 10 1 2 0 0 
68148035		 # 	collision with: 7 0 2 0 0  and 7 1 2 0 0 
68148057		 # 	collision with: 5 2 0 0 0  and 6 2 0 0 0 
68148059		 # 	collision with: 3 3 5 0 0  and 3 4 5 0 0 
68148065		 # 	collision with: 8 4 0 0 0  and 8 6 0 0 0 
68148067		 # 	collision with: 2 5 3 0 0  and 4 5 3 0 0 
68148168		 # 	collision with: 6 3 2 0 0  and 2 8 1 1 0 
68148170		 # 	collision with: 3 2 2 0 0  and 4 1 1 1 0 
68148185		 # 	collision with: 1 2 4 0 0  and 10 2 5 0 0 
68148187		 # 	collision with: 9 4 0 0 0  and 8 5 0 0 0 
68148197		 # 	collision with: 7 4 4 0 0  and 4 2 5 0 0 
68148199		 # 	collision with: 9 4 0 0 0  and 9 5 0 0 0 
68148319		 # 	collision with: 9 4 0 0 0  and 8 5 0 0 0 
68148325		 # 	collision with: 5 4 0 0 0  and 5 5 0 0 0 
68148327		 # 	collision with: 2 5 2 0 0  and 4 5 2 0 0 
68148349		 # 	collision with: 4 2 4 0 0  and 4 3 4 0 0 
68148351		 # 	collision with: 2 0 4 0 0  and 2 3 5 0 0 
68148365		 # 	collision with: 8 4 2 0 0  and 8 6 2 0 0 
68148367		 # 	collision with: 2 5 0 0 0  and 4 5 0 0 0 
68148393		 # 	collision with: 4 2 4 0 0  and 4 3 4 0 0 
68148395		 # 	collision with: 6 3 1 0 0  and 0 5 1 0 0 
68148473		 # 	collision with: 5 2 0 0 0  and 6 2 0 0 0 
68148475		 # 	collision with: 2 3 4 0 0  and 2 0 5 0 0 
68148501		 # 	collision with: 5 4 0 0 0  and 5 5 0 0 0 
68148503		 # 	collision with: 2 5 4 0 0  and 4 5 4 0 0 
68148517		 # 	collision with: 5 2 0 0 0  and 6 2 0 0 0 
68148519		 # 	collision with: 10 3 4 0 0  and 10 3 5 0 0 
68148543		 # 	collision with: 2 5 0 0 0  and 4 5 0 0 0 
68148549		 # 	collision with: 3 10 4 0 0  and 3 2 5 0 0 
68148551		 # 	collision with: 9 4 0 0 0  and 9 5 0 0 0 
68148652		 # 	collision with: 7 8 9 0 0  and 10 7 1 1 0 
68148654		 # 	collision with: 7 7 10 0 0  and 4 0 2 1 0 
68148671		 # 	collision with: 8 5 3 0 0  and 9 4 5 0 0 
68148681		 # 	collision with: 4 8 3 0 0  and 7 0 5 0 0 
68148683		 # 	collision with: 2 5 0 0 0  and 4 5 0 0 0 
68148801		 # 	collision with: 5 2 0 0 0  and 6 2 0 0 0 
68148803		 # 	collision with: 3 6 3 0 0  and 3 1 5 0 0 
68148809		 # 	collision with: 6 0 1 0 0  and 5 2 1 0 0 
68148833		 # 	collision with: 9 1 5 0 0  and 2 2 5 0 0 
68148835		 # 	collision with: 3 3 1 0 0  and 3 4 1 0 0 
68148849		 # 	collision with: 5 4 2 0 0  and 5 5 2 0 0 
68148851		 # 	collision with: 9 4 2 0 0  and 8 5 2 0 0 
68148877		 # 	collision with: 4 2 2 0 0  and 7 4 2 0 0 
68148879		 # 	collision with: 3 3 1 0 0  and 3 4 1 0 0 
68148957		 # 	collision with: 6 0 5 0 0  and 5 2 5 0 0 
68148959		 # 	collision with: 6 3 0 0 0  and 0 5 0 0 0 
68148985		 # 	collision with: 5 2 1 0 0  and 6 2 1 0 0 
68148987		 # 	collision with: 10 0 1 0 0  and 10 2 1 0 0 
68149001		 # 	collision with: 10 4 1 0 0  and 1 5 1 0 0 
68149025		 # 	collision with: 5 4 2 0 0  and 5 5 2 0 0 
68149027		 # 	collision with: 2 5 4 0 0  and 4 5 4 0 0 
68149033		 # 	collision with: 5 2 2 0 0  and 6 2 2 0 0 
68149035		 # 	collision with: 2 5 0 0 0  and 4 5 0 0 0 
68149136		 # 	collision with: 10 10 6 0 0  and 5 0 0 1 0 
68149138		 # 	collision with: 4 8 6 0 0  and 9 6 0 1 0 
68149153		 # 	collision with: 2 6 3 0 0  and 2 2 4 0 0 
68149165		 # 	collision with: 2 8 3 0 0  and 2 0 4 0 0 
68149167		 # 	collision with: 2 5 1 0 0  and 4 6 1 0 0 
68149285		 # 	collision with: 1 0 3 0 0  and 1 0 4 0 0 
68149287		 # 	collision with: 2 5 1 0 0  and 4 5 1 0 0 
68149293		 # 	collision with: 5 2 2 0 0  and 6 2 2 0 0 
68149295		 # 	collision with: 8 0 3 0 0  and 8 0 4 0 0 
68149319		 # 	collision with: 6 0 3 0 0  and 6 0 4 0 0 
68149333		 # 	collision with: 5 2 2 0 0  and 6 2 2 0 0 
68149335		 # 	collision with: 6 0 3 0 0  and 6 0 4 0 0 
68149361		 # 	collision with: 5 2 1 0 0  and 6 2 1 0 0 
68149363		 # 	collision with: 7 0 3 0 0  and 7 0 4 0 0 
68149441		 # 	collision with: 6 10 3 0 0  and 5 0 4 0 0 
68149471		 # 	collision with: 2 5 3 0 0  and 4 6 3 0 0 
68149485		 # 	collision with: 10 3 1 0 0  and 1 5 1 0 0 
68149487		 # 	collision with: 1 4 3 0 0  and 1 6 3 0 0 
68149509		 # 	collision with: 5 2 1 0 0  and 6 2 1 0 0 
68149511		 # 	collision with: 2 0 1 0 0  and 4 2 1 0 0 
68149517		 # 	collision with: 10 0 3 0 0  and 10 0 4 0 0 
68149519		 # 	collision with: 3 0 3 0 0  and 3 0 4 0 0 
68149620		 # 	collision with: 1 6 7 0 0  and 8 2 0 1 0 
68149622		 # 	collision with: 5 2 7 0 0  and 4 0 0 1 0 
68149637		 # 	collision with: 1 1 2 0 0  and 1 3 4 0 0 
68149639		 # 	collision with: 2 0 1 0 0  and 4 2 1 0 0 
68149649		 # 	collision with: 1 4 1 0 0  and 10 6 1 0 0 
68149651		 # 	collision with: 6 3 2 0 0  and 0 5 4 0 0 
68149769		 # 	collision with: 6 0 1 0 0  and 5 2 1 0 0 
68149771		 # 	collision with: 9 4 2 0 0  and 9 5 2 0 0 
68149777		 # 	collision with: 4 2 0 0 0  and 7 4 0 0 0 
68149779		 # 	collision with: 2 5 1 0 0  and 4 5 1 0 0 
68149801		 # 	collision with: 7 2 0 0 0  and 7 4 0 0 0 
68149803		 # 	collision with: 5 1 2 0 0  and 5 3 2 0 0 
68149817		 # 	collision with: 10 3 2 0 0  and 10 4 2 0 0 
68149819		 # 	collision with: 2 5 2 0 0  and 4 5 2 0 0 
68149845		 # 	collision with: 7 2 0 0 0  and 7 4 0 0 0 
68149847		 # 	collision with: 5 1 2 0 0  and 5 3 2 0 0 
68149925		 # 	collision with: 5 4 3 0 0  and 5 5 3 0 0 
68149927		 # 	collision with: 7 9 2 0 0  and 7 3 4 0 0 
68149953		 # 	collision with: 4 2 0 0 0  and 7 4 0 0 0 
68149955		 # 	collision with: 2 5 2 0 0  and 4 5 2 0 0 
68149969		 # 	collision with: 5 4 3 0 0  and 5 5 3 0 0 
68149971		 # 	collision with: 8 4 2 0 0  and 8 4 4 0 0 
68149993		 # 	collision with: 10 3 2 0 0  and 10 4 2 0 0 
68149995		 # 	collision with: 2 5 1 0 0  and 4 5 1 0 0 
68150001		 # 	collision with: 6 1 2 0 0  and 6 1 4 0 0 
68150003		 # 	collision with: 10 1 2 0 0  and 10 1 4 0 0 
68150104		 # 	collision with: 3 3 4 0 0  and 10 4 0 1 0 
68150106		 # 	collision with: 6 8 6 0 0  and 4 1 2 1 0 
68150121		 # 	collision with: 3 0 1 0 0  and 3 1 1 0 0 
68150123		 # 	collision with: 10 0 9 0 0  and 10 2 9 0 0 
68150133		 # 	collision with: 4 2 2 0 0  and 7 2 3 0 0 
68150135		 # 	collision with: 9 4 2 0 0  and 8 0 3 0 0 
68150253		 # 	collision with: 3 0 1 0 0  and 3 1 1 0 0 
68150255		 # 	collision with: 9 3 2 0 0  and 8 8 3 0 0 
68150261		 # 	collision with: 7 2 0 0 0  and 4 3 0 0 0 
68150263		 # 	collision with: 5 3 2 0 0  and 1 0 3 0 0 
68150285		 # 	collision with: 2 3 2 0 0  and 2 3 3 0 0 
68150287		 # 	collision with: 0 1 1 0 0  and 6 3 1 0 0 
68150301		 # 	collision with: 7 2 2 0 0  and 7 4 2 0 0 
68150303		 # 	collision with: 1 5 2 0 0  and 5 5 3 0 0 
68150329		 # 	collision with: 6 0 3 0 0  and 5 2 3 0 0 
68150331		 # 	collision with: 2 5 1 0 0  and 4 5 1 0 0 
68150409		 # 	collision with: 6 10 2 0 0  and 5 0 3 0 0 
68150411		 # 	collision with: 8 2 0 0 0  and 8 3 0 0 0 
68150437		 # 	collision with: 7 2 0 0 0  and 4 3 0 0 0 
68150439		 # 	collision with: 5 1 2 0 0  and 1 0 3 0 0 
68150453		 # 	collision with: 5 2 1 0 0  and 6 2 1 0 0 
68150455		 # 	collision with: 8 2 0 0 0  and 8 3 0 0 0 
68150477		 # 	collision with: 7 2 2 0 0  and 7 4 2 0 0 
68150479		 # 	collision with: 4 2 2 0 0  and 2 3 3 0 0 
68150485		 # 	collision with: 2 2 2 0 0  and 2 2 3 0 0 
68150487		 # 	collision with: 2 5 1 0 0  and 4 5 1 0 0 
68150588		 # 	collision with: 4 2 5 0 0  and 6 8 0 1 0 
68150590		 # 	collision with: 7 1 5 0 0  and 8 10 0 1 0 
68150605		 # 	collision with: 3 0 1 0 0  and 3 1 3 0 0 
68150607		 # 	collision with: 2 5 0 0 0  and 4 5 0 0 0 
68150617		 # 	collision with: 10 5 1 0 0  and 1 2 3 0 0 
68150737		 # 	collision with: 6 0 1 0 0  and 5 2 3 0 0 
68150739		 # 	collision with: 2 5 0 0 0  and 4 5 0 0 0 
68150745		 # 	collision with: 5 2 1 0 0  and 6 2 1 0 0 
68150747		 # 	collision with: 2 1 2 0 0  and 2 2 2 0 0 
68150769		 # 	collision with: 9 1 1 0 0  and 9 2 1 0 0 
68150771		 # 	collision with: 2 5 1 0 0  and 4 5 1 0 0 
68150787		 # 	collision with: 6 2 1 0 0  and 6 2 3 0 0 
68150813		 # 	collision with: 9 1 1 0 0  and 9 2 1 0 0 
68150893		 # 	collision with: 1 1 0 0 0  and 1 3 0 0 0 
68150895		 # 	collision with: 9 1 1 0 0  and 9 1 3 0 0 
68150921		 # 	collision with: 5 2 2 0 0  and 6 2 2 0 0 
68150923		 # 	collision with: 2 1 2 0 0  and 2 2 2 0 0 
68150939		 # 	collision with: 4 2 1 0 0  and 2 3 1 0 0 
68150961		 # 	collision with: 1 4 1 0 0  and 10 6 1 0 0 
68150963		 # 	collision with: 4 2 2 0 0  and 2 3 2 0 0 
68150969		 # 	collision with: 9 3 1 0 0  and 9 3 3 0 0 
68150971		 # 	collision with: 2 3 1 0 0  and 2 3 3 0 0 
68151072		 # 	collision with: 0 5 3 0 0  and 9 3 0 1 0 
68151074		 # 	collision with: 7 3 3 0 0  and 0 5 0 1 0 
68151089		 # 	collision with: 5 4 4 0 0  and 5 5 4 0 0 
68151091		 # 	collision with: 1 4 1 0 0  and 1 6 1 0 0 
68151103		 # 	collision with: 6 1 0 0 0  and 0 2 0 0 0 
68151221		 # 	collision with: 3 0 1 0 0  and 3 1 2 0 0 
68151223		 # 	collision with: 1 4 1 0 0  and 1 6 1 0 0 
68151229		 # 	collision with: 2 7 1 0 0  and 2 1 2 0 0 
68151231		 # 	collision with: 2 5 0 0 0  and 4 5 0 0 0 
68151253		 # 	collision with: 6 6 1 0 0  and 6 6 2 0 0 
68151269		 # 	collision with: 5 2 1 0 0  and 6 2 1 0 0 
68151271		 # 	collision with: 6 10 1 0 0  and 6 10 2 0 0 
68151297		 # 	collision with: 1 10 1 0 0  and 1 5 2 0 0 
68151299		 # 	collision with: 9 6 1 0 0  and 9 6 2 0 0 
68151377		 # 	collision with: 6 10 1 0 0  and 5 0 2 0 0 
68151379		 # 	collision with: 9 7 1 0 0  and 9 2 2 0 0 
68151405		 # 	collision with: 6 1 1 0 0  and 6 1 2 0 0 
68151407		 # 	collision with: 2 5 0 0 0  and 4 5 0 0 0 
68151421		 # 	collision with: 9 5 1 0 0  and 2 0 2 0 0 
68151423		 # 	collision with: 8 5 1 0 0  and 8 0 2 0 0 
68151445		 # 	collision with: 10 4 1 0 0  and 1 5 1 0 0 
68151453		 # 	collision with: 5 2 0 0 0  and 6 2 0 0 0 
68151455		 # 	collision with: 6 1 0 0 0  and 0 2 0 0 0 
68151556		 # 	collision with: 4 9 10 0 0  and 9 2 0 1 0 
68151558		 # 	collision with: 10 6 10 0 0  and 5 5 0 1 0 
68151573		 # 	collision with: 6 0 0 0 0  and 6 2 0 0 0 
68151575		 # 	collision with: 6 3 0 0 0  and 0 1 2 0 0 
68151585		 # 	collision with: 5 7 0 0 0  and 6 2 2 0 0 
68151587		 # 	collision with: 7 9 0 0 0  and 7 3 2 0 0 
68151705		 # 	collision with: 6 0 0 0 0  and 6 2 0 0 0 
68151707		 # 	collision with: 6 3 0 0 0  and 0 1 2 0 0 
68151715		 # 	collision with: 1 0 2 0 0  and 5 1 2 0 0 
68151737		 # 	collision with: 5 2 0 0 0  and 6 2 0 0 0 
68151739		 # 	collision with: 5 2 0 0 0  and 5 2 2 0 0 
68151753		 # 	collision with: 9 1 2 0 0  and 9 2 2 0 0 
68151755		 # 	collision with: 2 0 0 0 0  and 4 2 0 0 0 
68151781		 # 	collision with: 5 2 0 0 0  and 6 2 0 0 0 
68151783		 # 	collision with: 4 2 0 0 0  and 4 2 2 0 0 
68151861		 # 	collision with: 1 4 0 0 0  and 10 6 2 0 0 
68151863		 # 	collision with: 2 1 1 0 0  and 2 2 1 0 0 
68151889		 # 	collision with: 5 6 0 0 0  and 5 3 2 0 0 
68151891		 # 	collision with: 10 4 0 0 0  and 10 4 2 0 0 
68151905		 # 	collision with: 6 9 0 0 0  and 6 9 2 0 0 
68151907		 # 	collision with: 2 1 1 0 0  and 2 2 1 0 0 
68151929		 # 	collision with: 9 1 2 0 0  and 9 2 2 0 0 
68151931		 # 	collision with: 2 0 0 0 0  and 4 2 0 0 0 
68151939		 # 	collision with: 7 2 1 0 0  and 10 4 1 0 0 
68152040		 # 	collision with: 2 9 0 0 0  and 8 8 2 1 0 
68152042		 # 	collision with: 0 4 9 0 0  and 9 9 0 1 0 
68152057		 # 	collision with: 2 5 0 0 0  and 9 7 0 0 0 
68152059		 # 	collision with: 10 2 0 0 0  and 10 0 1 0 0 
68152069		 # 	collision with: 3 7 0 0 0  and 8 1 1 0 0 
68152071		 # 	collision with: 2 0 3 0 0  and 4 2 3 0 0 
68152189		 # 	collision with: 2 5 0 0 0  and 9 7 0 0 0 
68152191		 # 	collision with: 4 2 0 0 0  and 2 0 1 0 0 
68152197		 # 	collision with: 5 2 0 0 0  and 6 2 0 0 0 
68152199		 # 	collision with: 7 0 0 0 0  and 7 1 0 0 0 
68152221		 # 	collision with: 4 3 0 0 0  and 7 2 1 0 0 
68152223		 # 	collision with: 5 1 0 0 0  and 5 3 1 0 0 
68152237		 # 	collision with: 9 4 0 0 0  and 9 4 1 0 0 
68152239		 # 	collision with: 6 4 0 0 0  and 6 4 1 0 0 
68152265		 # 	collision with: 4 3 0 0 0  and 4 2 1 0 0 
68152267		 # 	collision with: 10 2 0 0 0  and 10 0 1 0 0 
68152345		 # 	collision with: 6 10 0 0 0  and 5 0 1 0 0 
68152347		 # 	collision with: 2 5 0 0 0  and 4 5 0 0 0 
68152373		 # 	collision with: 5 2 0 0 0  and 6 2 0 0 0 
68152389		 # 	collision with: 4 4 0 0 0  and 4 1 1 0 0 
68152391		 # 	collision with: 2 5 0 0 0  and 4 5 0 0 0 
68152413		 # 	collision with: 7 8 0 0 0  and 4 4 1 0 0 
68152415		 # 	collision with: 1 10 0 0 0  and 1 0 1 0 0 
68152421		 # 	collision with: 3 5 0 0 0  and 8 1 1 0 0 
68152537		 # 	collision with: 10 3 5 0 0  and 10 4 5 0 0 
68152539		 # 	collision with: 7 5 0 0 0  and 10 6 0 0 0 
68152557		 # 	collision with: 9 1 1 0 0  and 9 2 1 0 0 
68152559		 # 	collision with: 6 3 10 0 0  and 6 5 10 0 0 
68152669		 # 	collision with: 10 3 5 0 0  and 10 4 5 0 0 
68152671		 # 	collision with: 7 5 0 0 0  and 10 6 0 0 0 
68152685		 # 	collision with: 2 2 5 0 0  and 2 6 6 0 0 
68152687		 # 	collision with: 2 7 0 0 0  and 4 7 0 0 0 
68152729		 # 	collision with: 5 2 2 0 0  and 6 2 2 0 0 
68152741		 # 	collision with: 5 2 6 0 0  and 6 2 6 0 0 
68152743		 # 	collision with: 2 7 3 0 0  and 4 7 3 0 0 
68152751		 # 	collision with: 2 7 4 0 0  and 4 7 4 0 0 
68152831		 # 	collision with: 2 7 2 0 0  and 4 7 2 0 0 
68152837		 # 	collision with: 5 4 2 0 0  and 5 5 2 0 0 
68152839		 # 	collision with: 4 3 3 0 0  and 2 5 3 0 0 
68152849		 # 	collision with: 10 3 1 0 0  and 10 4 1 0 0 
68152893		 # 	collision with: 10 3 1 0 0  and 10 4 1 0 0 
68152895		 # 	collision with: 4 5 0 0 0  and 4 6 0 0 0 
68152909		 # 	collision with: 9 1 1 0 0  and 9 2 1 0 0 
68152911		 # 	collision with: 2 2 5 0 0  and 2 2 6 0 0 
68153008		 # 	collision with: 5 0 4 0 0  and 8 0 1 1 0 
68153010		 # 	collision with: 6 5 3 0 0  and 1 8 0 1 0 
68153021		 # 	collision with: 8 4 0 0 0  and 8 6 0 0 0 
68153023		 # 	collision with: 6 0 4 0 0  and 0 4 6 0 0 
68153041		 # 	collision with: 2 3 3 0 0  and 2 5 3 0 0 
68153043		 # 	collision with: 10 0 1 0 0  and 10 2 1 0 0 
68153155		 # 	collision with: 5 0 4 0 0  and 5 4 6 0 0 
68153169		 # 	collision with: 1 1 4 0 0  and 1 3 4 0 0 
68153171		 # 	collision with: 3 3 2 0 0  and 3 4 2 0 0 
68153213		 # 	collision with: 1 1 4 0 0  and 1 3 4 0 0 
68153215		 # 	collision with: 3 3 2 0 0  and 3 4 2 0 0 
68153225		 # 	collision with: 5 2 3 0 0  and 6 2 3 0 0 
68153227		 # 	collision with: 2 7 0 0 0  and 4 7 0 0 0 
68153233		 # 	collision with: 2 3 2 0 0  and 2 5 2 0 0 
68153235		 # 	collision with: 5 2 4 0 0  and 5 2 6 0 0 
68153313		 # 	collision with: 5 2 2 0 0  and 6 2 2 0 0 
68153315		 # 	collision with: 2 7 0 0 0  and 4 7 0 0 0 
68153321		 # 	collision with: 2 3 2 0 0  and 2 5 2 0 0 
68153323		 # 	collision with: 2 2 4 0 0  and 2 2 6 0 0 
68153333		 # 	collision with: 3 0 5 0 0  and 3 1 5 0 0 
68153335		 # 	collision with: 5 2 1 0 0  and 1 4 1 0 0 
68153379		 # 	collision with: 8 2 4 0 0  and 8 3 4 0 0 
68153393		 # 	collision with: 5 2 2 0 0  and 6 2 2 0 0 
68153395		 # 	collision with: 10 0 1 0 0  and 10 2 1 0 0 
68153492		 # 	collision with: 6 5 7 0 0  and 2 3 0 1 0 
68153494		 # 	collision with: 5 6 7 0 0  and 10 9 0 1 0 
68153505		 # 	collision with: 6 0 6 0 0  and 6 2 6 0 0 
68153507		 # 	collision with: 8 2 5 0 0  and 8 3 5 0 0 
68153525		 # 	collision with: 10 4 0 0 0  and 1 5 0 0 0 
68153637		 # 	collision with: 5 2 1 0 0  and 6 2 1 0 0 
68153639		 # 	collision with: 6 2 5 0 0  and 0 3 5 0 0 
68153653		 # 	collision with: 5 2 2 0 0  and 6 2 2 0 0 
68153655		 # 	collision with: 2 7 3 0 0  and 4 7 3 0 0 
68153697		 # 	collision with: 9 1 4 0 0  and 2 2 4 0 0 
68153699		 # 	collision with: 1 3 4 0 0  and 1 3 5 0 0 
68153711		 # 	collision with: 10 0 4 0 0  and 10 2 4 0 0 
68153717		 # 	collision with: 10 3 2 0 0  and 10 4 2 0 0 
68153719		 # 	collision with: 5 10 4 0 0  and 5 10 5 0 0 
68153797		 # 	collision with: 5 2 0 0 0  and 6 2 0 0 0 
68153799		 # 	collision with: 10 0 4 0 0  and 10 2 4 0 0 
68153805		 # 	collision with: 5 2 1 0 0  and 6 2 1 0 0 
68153819		 # 	collision with: 7 5 5 0 0  and 10 6 5 0 0 
68153861		 # 	collision with: 8 8 4 0 0  and 8 8 5 0 0 
68153863		 # 	collision with: 2 7 1 0 0  and 4 7 1 0 0 
68153877		 # 	collision with: 10 4 0 0 0  and 1 5 0 0 0 
68153879		 # 	collision with: 3 3 3 0 0  and 3 4 3 0 0 
68153976		 # 	collision with: 3 2 1 0 0  and 4 0 0 1 0 
68153978		 # 	collision with: 7 7 2 0 0  and 4 0 1 1 0 
68153989		 # 	collision with: 4 2 1 0 0  and 4 3 1 0 0 
68153991		 # 	collision with: 6 3 0 0 0  and 6 5 0 0 0 
68154009		 # 	collision with: 10 3 7 0 0  and 10 4 7 0 0 
68154011		 # 	collision with: 7 0 5 0 0  and 7 1 5 0 0 
68154121		 # 	collision with: 4 2 1 0 0  and 4 3 1 0 0 
68154123		 # 	collision with: 6 3 0 0 0  and 6 5 0 0 0 
68154137		 # 	collision with: 10 1 3 0 0  and 10 1 5 0 0 
68154139		 # 	collision with: 9 4 3 0 0  and 9 5 3 0 0 
68154181		 # 	collision with: 5 2 4 0 0  and 6 2 4 0 0 
68154183		 # 	collision with: 2 7 2 0 0  and 4 7 2 0 0 
68154193		 # 	collision with: 7 4 3 0 0  and 7 4 5 0 0 
68154195		 # 	collision with: 9 4 1 0 0  and 9 5 1 0 0 
68154201		 # 	collision with: 10 3 0 0 0  and 1 5 0 0 0 
68154203		 # 	collision with: 3 6 3 0 0  and 3 1 5 0 0 
68154281		 # 	collision with: 5 0 3 0 0  and 6 3 5 0 0 
68154283		 # 	collision with: 9 4 1 0 0  and 9 5 1 0 0 
68154289		 # 	collision with: 10 3 0 0 0  and 1 5 0 0 0 
68154291		 # 	collision with: 2 7 4 0 0  and 4 7 4 0 0 
68154301		 # 	collision with: 5 2 0 0 0  and 6 2 0 0 0 
68154303		 # 	collision with: 5 1 1 0 0  and 5 3 1 0 0 
68154345		 # 	collision with: 5 2 0 0 0  and 6 2 0 0 0 
68154361		 # 	collision with: 8 5 3 0 0  and 8 5 5 0 0 
68154363		 # 	collision with: 7 0 5 0 0  and 7 1 5 0 0 
68154460		 # 	collision with: 10 9 9 0 0  and 5 9 0 1 0 
68154462		 # 	collision with: 6 3 9 0 0  and 3 0 0 1 0 
68154475		 # 	collision with: 2 10 3 0 0  and 2 4 4 0 0 
68154493		 # 	collision with: 4 10 3 0 0  and 4 6 4 0 0 
68154495		 # 	collision with: 2 7 0 0 0  and 4 7 0 0 0 
68154605		 # 	collision with: 5 2 4 0 0  and 6 2 4 0 0 
68154607		 # 	collision with: 2 4 3 0 0  and 4 5 3 0 0 
68154621		 # 	collision with: 10 3 0 0 0  and 10 4 0 0 0 
68154623		 # 	collision with: 9 10 3 0 0  and 8 2 4 0 0 
68154665		 # 	collision with: 10 3 0 0 0  and 10 4 0 0 0 
68154667		 # 	collision with: 7 5 1 0 0  and 10 6 1 0 0 
68154677		 # 	collision with: 1 4 3 0 0  and 10 6 3 0 0 
68154679		 # 	collision with: 2 7 2 0 0  and 4 7 2 0 0 
68154685		 # 	collision with: 5 2 1 0 0  and 6 2 1 0 0 
68154687		 # 	collision with: 2 7 1 0 0  and 4 7 1 0 0 
68154765		 # 	collision with: 10 3 3 0 0  and 10 4 4 0 0 
68154773		 # 	collision with: 4 2 2 0 0  and 4 3 2 0 0 
68154775		 # 	collision with: 10 2 3 0 0  and 10 0 4 0 0 
68154785		 # 	collision with: 5 2 3 0 0  and 6 2 3 0 0 
68154787		 # 	collision with: 7 1 3 0 0  and 7 1 4 0 0 
68154829		 # 	collision with: 9 1 1 0 0  and 2 2 1 0 0 
68154831		 # 	collision with: 2 1 3 0 0  and 2 1 4 0 0 
68154845		 # 	collision with: 5 2 3 0 0  and 6 2 3 0 0 
68154944		 # 	collision with: 1 6 6 0 0  and 3 3 1 1 0 
68154946		 # 	collision with: 4 7 7 0 0  and 0 5 2 1 0 
68154957		 # 	collision with: 5 2 0 0 0  and 6 2 0 0 0 
68154959		 # 	collision with: 2 1 1 0 0  and 2 2 1 0 0 
68154977		 # 	collision with: 7 2 0 0 0  and 7 4 0 0 0 
68154979		 # 	collision with: 4 7 2 0 0  and 2 7 4 0 0 
68155089		 # 	collision with: 5 2 0 0 0  and 6 2 0 0 0 
68155091		 # 	collision with: 2 1 1 0 0  and 2 2 1 0 0 
68155105		 # 	collision with: 5 2 1 0 0  and 6 2 1 0 0 
68155107		 # 	collision with: 5 2 0 0 0  and 1 4 0 0 0 
68155149		 # 	collision with: 9 8 2 0 0  and 9 8 4 0 0 
68155151		 # 	collision with: 5 2 0 0 0  and 1 4 0 0 0 
68155161		 # 	collision with: 5 2 2 0 0  and 6 2 2 0 0 
68155163		 # 	collision with: 9 9 2 0 0  and 9 0 4 0 0 
68155169		 # 	collision with: 4 2 0 0 0  and 7 4 0 0 0 
68155171		 # 	collision with: 2 7 3 0 0  and 4 7 3 0 0 
68155249		 # 	collision with: 10 3 2 0 0  and 1 5 2 0 0 
68155251		 # 	collision with: 2 7 3 0 0  and 4 7 3 0 0 
68155257		 # 	collision with: 4 2 0 0 0  and 7 4 0 0 0 
68155259		 # 	collision with: 6 2 1 0 0  and 0 3 1 0 0 
68155269		 # 	collision with: 6 0 1 0 0  and 5 2 1 0 0 
68155271		 # 	collision with: 8 9 2 0 0  and 9 2 4 0 0 
68155313		 # 	collision with: 4 3 2 0 0  and 4 3 4 0 0 
68155315		 # 	collision with: 2 7 2 0 0  and 4 7 2 0 0 
68155329		 # 	collision with: 7 2 0 0 0  and 7 4 0 0 0 
68155331		 # 	collision with: 2 4 1 0 0  and 4 5 1 0 0 
68155428		 # 	collision with: 0 4 6 0 0  and 6 7 0 1 0 
68155430		 # 	collision with: 0 7 6 0 0  and 2 8 0 1 0 
68155441		 # 	collision with: 7 2 0 0 0  and 4 3 0 0 0 
68155443		 # 	collision with: 2 7 0 0 0  and 4 7 0 0 0 
68155461		 # 	collision with: 5 2 0 0 0  and 6 2 0 0 0 
68155463		 # 	collision with: 8 2 0 0 0  and 8 3 0 0 0 
68155573		 # 	collision with: 7 2 0 0 0  and 4 3 0 0 0 
68155575		 # 	collision with: 2 7 0 0 0  and 4 7 0 0 0 
68155589		 # 	collision with: 5 4 1 0 0  and 5 5 1 0 0 
68155591		 # 	collision with: 6 2 0 0 0  and 0 3 0 0 0 
68155633		 # 	collision with: 5 4 1 0 0  and 5 5 1 0 0 
68155635		 # 	collision with: 6 2 0 0 0  and 0 3 0 0 0 
68155645		 # 	collision with: 7 2 1 0 0  and 7 4 1 0 0 
68155647		 # 	collision with: 5 2 1 0 0  and 1 4 1 0 0 
68155653		 # 	collision with: 9 1 2 0 0  and 9 2 2 0 0 
68155655		 # 	collision with: 4 4 2 0 0  and 2 7 3 0 0 
68155733		 # 	collision with: 7 2 1 0 0  and 7 4 1 0 0 
68155735		 # 	collision with: 2 7 1 0 0  and 4 7 1 0 0 
68155741		 # 	collision with: 9 1 2 0 0  and 2 2 2 0 0 
68155743		 # 	collision with: 2 7 2 0 0  and 4 7 2 0 0 
68155753		 # 	collision with: 1 1 3 0 0  and 1 3 3 0 0 
68155755		 # 	collision with: 6 3 2 0 0  and 6 5 2 0 0 
68155797		 # 	collision with: 5 2 1 0 0  and 6 2 1 0 0 
68155799		 # 	collision with: 6 3 2 0 0  and 6 5 2 0 0 
68155813		 # 	collision with: 5 2 0 0 0  and 6 2 0 0 0 
68155815		 # 	collision with: 8 2 0 0 0  and 8 3 0 0 0 
68155912		 # 	collision with: 4 10 5 0 0  and 6 8 3 1 0 
68155914		 # 	collision with: 10 10 3 0 0  and 8 1 1 1 0 
68155925		 # 	collision with: 4 2 1 0 0  and 7 2 3 0 0 
68155927		 # 	collision with: 9 4 2 0 0  and 9 5 2 0 0 
68155947		 # 	collision with: 1 4 2 0 0  and 1 6 2 0 0 
141.771secs	62096
