# prime 11
# degree 2
# input variables 3
# output variables 4
# reload computed balance functions from file balance-2654of3248-p11d2m3-debug.log
# p = 11
# n = 4
# smalldomain p^m 1331
# domain p^n 14641
#	 p^2 = 121
#	 p^3 = 1331
#	 p^4 = 14641
#	 p^5 = 161051
#	 p^6 = 1771561
#	 p^7 = 19487171
#	 p^8 = 214358881
#	 p^9 = 2357947691
opening file : balance-2654of3248-p11d2m3-debug.log
reloading for step2...
15924025		 # 	collision with: 0 0 0 0  and 1 0 1 0 
15924029		 # 	collision with: 0 0 0 0  and 1 0 1 0 
15924031		 # 	collision with: 3 1 0 0  and 9 4 1 0 
15924181		 # 	collision with: 10 0 0 0  and 8 10 1 0 
15924183		 # 	collision with: 3 5 0 0  and 8 4 1 0 
15924193		 # 	collision with: 4 10 0 0  and 8 4 2 0 
15924195		 # 	collision with: 6 2 1 0  and 6 4 1 0 
15924285		 # 	collision with: 8 2 0 0  and 1 9 1 0 
15924287		 # 	collision with: 1 8 1 0  and 2 8 1 0 
15924293		 # 	collision with: 8 0 0 0  and 8 5 1 0 
15924295		 # 	collision with: 0 3 2 0  and 1 3 2 0 
15924317		 # 	collision with: 8 7 0 0  and 10 2 2 0 
15924341		 # 	collision with: 7 8 0 0  and 9 4 1 0 
15924343		 # 	collision with: 3 3 0 0  and 2 4 1 0 
15924357		 # 	collision with: 3 4 1 0  and 5 4 1 0 
15924359		 # 	collision with: 1 3 2 0  and 1 4 2 0 
15924381		 # 	collision with: 7 1 0 0  and 2 3 1 0 
15924405		 # 	collision with: 6 4 0 0  and 4 7 1 0 
15924407		 # 	collision with: 2 2 0 0  and 3 2 0 0 
15924413		 # 	collision with: 8 10 0 0  and 3 0 1 0 
15924415		 # 	collision with: 6 2 1 0  and 6 4 1 0 
15924505		 # 	collision with: 10 3 0 0  and 1 6 2 0 
15924507		 # 	collision with: 6 1 0 0  and 6 5 1 0 
15924517		 # 	collision with: 2 0 0 0  and 5 1 1 0 
15924519		 # 	collision with: 6 6 0 0  and 6 6 1 0 
15924568		 # 	collision with: 9 4 0 0  and 3 3 1 0 
15924570		 # 	collision with: 10 3 0 0  and 2 3 2 0 
15924665		 # 	collision with: 6 10 0 0  and 9 6 1 0 
15924667		 # 	collision with: 6 2 2 0  and 6 4 2 0 
15924677		 # 	collision with: 8 2 1 0  and 8 3 1 0 
15924679		 # 	collision with: 8 3 0 0  and 6 0 1 0 
15924769		 # 	collision with: 5 4 0 0  and 5 6 0 0 
15924771		 # 	collision with: 2 6 0 0  and 10 3 1 0 
15924777		 # 	collision with: 4 1 1 0  and 5 1 1 0 
15924779		 # 	collision with: 2 2 0 0  and 3 2 0 0 
15924803		 # 	collision with: 3 10 0 0  and 7 4 1 0 
15924825		 # 	collision with: 5 6 0 0  and 6 6 0 0 
15924827		 # 	collision with: 1 4 2 0  and 1 4 3 0 
15924843		 # 	collision with: 3 7 0 0  and 5 0 1 0 
15924865		 # 	collision with: 7 3 0 0  and 7 0 1 0 
15924867		 # 	collision with: 2 2 0 0  and 3 2 0 0 
15924889		 # 	collision with: 5 4 0 0  and 6 6 0 0 
15924891		 # 	collision with: 6 7 0 0  and 1 0 1 0 
15924897		 # 	collision with: 8 2 1 0  and 8 3 1 0 
15924899		 # 	collision with: 0 0 0 0  and 2 0 2 0 
15924989		 # 	collision with: 5 4 0 0  and 5 6 0 0 
15924991		 # 	collision with: 6 4 0 0  and 9 3 1 0 
15925001		 # 	collision with: 5 6 0 0  and 6 6 0 0 
15925003		 # 	collision with: 2 3 1 0  and 2 6 2 0 
15925052		 # 	collision with: 1 3 0 0  and 0 8 1 0 
15925054		 # 	collision with: 10 6 0 0  and 2 0 1 0 
15925149		 # 	collision with: 7 7 0 0  and 6 9 1 0 
15925151		 # 	collision with: 2 2 0 0  and 3 2 0 0 
15925161		 # 	collision with: 2 0 0 0  and 0 0 2 0 
15925163		 # 	collision with: 1 5 1 0  and 3 5 1 0 
15925253		 # 	collision with: 2 0 0 0  and 0 0 2 0 
15925255		 # 	collision with: 10 1 1 0  and 10 2 1 0 
15925261		 # 	collision with: 7 4 0 0  and 4 5 0 0 
15925263		 # 	collision with: 7 4 0 0  and 9 5 0 0 
15925285		 # 	collision with: 6 2 0 0  and 8 7 1 0 
15925287		 # 	collision with: 6 2 1 0  and 2 4 1 0 
15925309		 # 	collision with: 2 0 0 0  and 0 0 2 0 
15925311		 # 	collision with: 2 4 0 0  and 2 5 0 0 
15925325		 # 	collision with: 9 3 1 0  and 10 4 1 0 
15925327		 # 	collision with: 2 2 0 0  and 3 2 0 0 
15925349		 # 	collision with: 7 4 0 0  and 4 5 0 0 
15925351		 # 	collision with: 7 4 0 0  and 9 5 0 0 
15925373		 # 	collision with: 0 0 1 0  and 2 0 1 0 
15925375		 # 	collision with: 4 6 0 0  and 7 2 1 0 
15925381		 # 	collision with: 0 0 1 0  and 2 0 1 0 
15925383		 # 	collision with: 8 10 1 0  and 9 2 2 0 
15925473		 # 	collision with: 3 2 0 0  and 10 8 1 0 
15925475		 # 	collision with: 6 1 1 0  and 0 2 1 0 
15925485		 # 	collision with: 2 10 0 0  and 6 3 1 0 
15925487		 # 	collision with: 2 4 0 0  and 2 5 0 0 
15925536		 # 	collision with: 7 9 0 0  and 8 5 1 0 
15925538		 # 	collision with: 7 2 1 0  and 4 6 2 0 
15925633		 # 	collision with: 9 5 0 0  and 9 5 1 0 
15925635		 # 	collision with: 2 0 0 0  and 0 0 2 0 
15925645		 # 	collision with: 5 6 0 0  and 6 6 0 0 
15925647		 # 	collision with: 7 3 0 0  and 6 7 1 0 
15925737		 # 	collision with: 4 1 1 0  and 5 1 1 0 
15925739		 # 	collision with: 8 10 0 0  and 3 4 1 0 
15925745		 # 	collision with: 2 3 1 0  and 6 5 2 0 
15925747		 # 	collision with: 3 5 1 0  and 3 6 1 0 
15925769		 # 	collision with: 4 7 0 0  and 6 8 2 0 
15925771		 # 	collision with: 5 4 0 0  and 9 2 1 0 
15925793		 # 	collision with: 10 3 0 0  and 9 2 1 0 
15925795		 # 	collision with: 3 3 0 0  and 2 5 0 0 
15925809		 # 	collision with: 3 5 0 0  and 3 5 1 0 
15925833		 # 	collision with: 10 7 0 0  and 2 6 1 0 
15925835		 # 	collision with: 0 0 1 0  and 2 0 1 0 
15925857		 # 	collision with: 10 4 0 0  and 1 2 1 0 
15925859		 # 	collision with: 1 4 0 0  and 1 3 1 0 
15925865		 # 	collision with: 5 6 0 0  and 6 6 0 0 
15925867		 # 	collision with: 2 0 0 0  and 0 0 2 0 
15925957		 # 	collision with: 6 9 0 0  and 4 9 1 0 
15925969		 # 	collision with: 5 10 0 0  and 8 5 1 0 
15925971		 # 	collision with: 3 3 0 0  and 2 5 0 0 
15926020		 # 	collision with: 0 1 0 0  and 8 9 1 0 
15926022		 # 	collision with: 3 10 0 0  and 9 7 1 0 
15926117		 # 	collision with: 8 5 0 0  and 7 5 1 0 
15926129		 # 	collision with: 3 2 0 0  and 3 2 1 0 
15926131		 # 	collision with: 1 3 0 0  and 1 4 0 0 
15926223		 # 	collision with: 1 5 0 0  and 9 1 1 0 
15926229		 # 	collision with: 1 0 2 0  and 1 2 2 0 
15926231		 # 	collision with: 3 3 0 0  and 2 4 0 0 
15926253		 # 	collision with: 4 3 0 0  and 7 4 0 0 
15926255		 # 	collision with: 10 1 1 0  and 9 3 1 0 
15926277		 # 	collision with: 10 6 0 0  and 10 3 1 0 
15926279		 # 	collision with: 6 2 0 0  and 9 9 1 0 
15926293		 # 	collision with: 1 5 0 0  and 7 0 1 0 
15926295		 # 	collision with: 1 5 0 0  and 1 5 1 0 
15926317		 # 	collision with: 0 0 0 0  and 2 0 2 0 
15926319		 # 	collision with: 3 3 0 0  and 2 4 0 0 
15926343		 # 	collision with: 3 8 0 0  and 10 2 1 0 
15926349		 # 	collision with: 0 2 0 0  and 3 0 1 0 
15926441		 # 	collision with: 5 2 0 0  and 3 0 1 0 
15926443		 # 	collision with: 9 2 0 0  and 5 0 1 0 
15926453		 # 	collision with: 4 0 1 0  and 10 1 2 0 
15926455		 # 	collision with: 7 2 0 0  and 5 0 1 0 
15926504		 # 	collision with: 0 1 1 0  and 6 10 2 0 
15926506		 # 	collision with: 5 2 0 0  and 7 4 1 0 
15926601		 # 	collision with: 5 3 1 0  and 6 1 3 0 
15926603		 # 	collision with: 8 5 0 0  and 7 5 1 0 
15926615		 # 	collision with: 8 2 0 0  and 8 2 1 0 
15926705		 # 	collision with: 5 6 0 0  and 9 0 2 0 
15926707		 # 	collision with: 2 2 0 0  and 3 2 0 0 
15926713		 # 	collision with: 1 2 0 0  and 10 4 0 0 
15926715		 # 	collision with: 6 2 0 0  and 6 4 0 0 
15926737		 # 	collision with: 6 9 0 0  and 0 4 1 0 
15926739		 # 	collision with: 0 0 0 0  and 2 0 2 0 
15926761		 # 	collision with: 5 6 0 0  and 3 2 1 0 
15926763		 # 	collision with: 0 0 0 0  and 2 0 2 0 
15926777		 # 	collision with: 10 3 0 0  and 10 6 1 0 
15926779		 # 	collision with: 3 1 0 0  and 6 5 1 0 
15926801		 # 	collision with: 1 2 0 0  and 10 4 0 0 
15926803		 # 	collision with: 6 2 0 0  and 6 4 0 0 
15926825		 # 	collision with: 6 9 0 0  and 0 4 1 0 
15926833		 # 	collision with: 3 2 0 0  and 3 4 0 0 
15926835		 # 	collision with: 7 2 0 0  and 7 2 1 0 
15926925		 # 	collision with: 0 3 1 0  and 1 3 1 0 
15926927		 # 	collision with: 2 2 0 0  and 3 2 0 0 
15926939		 # 	collision with: 10 9 0 0  and 2 1 1 0 
15926988		 # 	collision with: 1 4 0 0  and 8 2 1 0 
15926990		 # 	collision with: 3 6 0 0  and 8 4 1 0 
15927087		 # 	collision with: 1 5 1 0  and 3 5 1 0 
15927097		 # 	collision with: 9 5 1 0  and 1 6 1 0 
15927099		 # 	collision with: 3 2 0 0  and 2 2 1 0 
15927189		 # 	collision with: 10 7 0 0  and 8 9 1 0 
15927191		 # 	collision with: 0 3 2 0  and 1 3 2 0 
15927197		 # 	collision with: 3 0 0 0  and 0 2 1 0 
15927221		 # 	collision with: 3 7 0 0  and 3 7 1 0 
15927223		 # 	collision with: 5 2 0 0  and 0 3 0 0 
15927245		 # 	collision with: 8 10 0 0  and 3 6 1 0 
15927247		 # 	collision with: 8 5 0 0  and 7 3 1 0 
15927261		 # 	collision with: 5 1 1 0  and 4 1 3 0 
15927263		 # 	collision with: 9 1 1 0  and 4 2 1 0 
15927285		 # 	collision with: 3 0 0 0  and 0 2 1 0 
15927287		 # 	collision with: 7 1 2 0  and 5 10 3 0 
15927309		 # 	collision with: 10 7 0 0  and 10 7 1 0 
15927311		 # 	collision with: 5 2 0 0  and 0 3 0 0 
15927317		 # 	collision with: 3 5 0 0  and 6 0 2 0 
15927319		 # 	collision with: 3 7 1 0  and 4 7 1 0 
15927411		 # 	collision with: 5 7 0 0  and 3 9 1 0 
15927421		 # 	collision with: 3 3 1 0  and 9 4 1 0 
15927423		 # 	collision with: 5 8 0 0  and 3 2 1 0 
15927472		 # 	collision with: 5 9 0 0  and 4 1 1 0 
15927474		 # 	collision with: 3 5 1 0  and 4 2 2 0 
15927569		 # 	collision with: 10 0 1 0  and 0 2 1 0 
15927571		 # 	collision with: 3 5 2 0  and 3 6 2 0 
15927581		 # 	collision with: 10 8 0 0  and 5 4 1 0 
15927583		 # 	collision with: 2 2 0 0  and 3 2 0 0 
15927673		 # 	collision with: 7 1 2 0  and 7 2 2 0 
15927683		 # 	collision with: 5 6 0 0  and 8 7 1 0 
15927705		 # 	collision with: 5 9 0 0  and 5 1 1 0 
15927707		 # 	collision with: 9 7 0 0  and 6 5 1 0 
15927729		 # 	collision with: 6 6 0 0  and 9 0 1 0 
15927731		 # 	collision with: 6 2 1 0  and 2 4 1 0 
15927745		 # 	collision with: 5 9 0 0  and 2 0 1 0 
15927747		 # 	collision with: 3 5 2 0  and 3 6 2 0 
15927769		 # 	collision with: 5 6 0 0  and 6 6 0 0 
15927771		 # 	collision with: 2 1 1 0  and 2 8 2 0 
15927793		 # 	collision with: 6 1 0 0  and 5 7 2 0 
15927795		 # 	collision with: 2 7 0 0  and 2 7 1 0 
15927803		 # 	collision with: 2 2 0 0  and 3 2 0 0 
15927893		 # 	collision with: 7 1 2 0  and 7 2 2 0 
15927895		 # 	collision with: 5 2 1 0  and 5 2 2 0 
15927905		 # 	collision with: 0 3 1 0  and 1 3 1 0 
15927956		 # 	collision with: 7 2 0 0  and 10 6 1 0 
15927958		 # 	collision with: 1 5 1 0  and 9 1 2 0 
15928053		 # 	collision with: 7 0 1 0  and 3 1 1 0 
15928055		 # 	collision with: 1 5 0 0  and 3 5 1 0 
15928065		 # 	collision with: 2 1 2 0  and 2 3 2 0 
15928157		 # 	collision with: 5 6 0 0  and 6 6 0 0 
15928159		 # 	collision with: 1 4 0 0  and 6 5 2 0 
15928165		 # 	collision with: 7 1 0 0  and 7 2 0 0 
15928167		 # 	collision with: 6 4 0 0  and 6 4 1 0 
15928189		 # 	collision with: 10 5 1 0  and 4 6 1 0 
15928191		 # 	collision with: 3 4 1 0  and 5 4 1 0 
15928213		 # 	collision with: 6 4 0 0  and 4 7 1 0 
15928229		 # 	collision with: 6 9 0 0  and 7 7 1 0 
15928231		 # 	collision with: 9 1 0 0  and 8 6 1 0 
15928253		 # 	collision with: 7 1 0 0  and 7 2 0 0 
15928255		 # 	collision with: 4 4 0 0  and 4 4 1 0 
15928277		 # 	collision with: 1 7 2 0  and 7 1 3 0 
15928279		 # 	collision with: 4 3 0 0  and 7 0 2 0 
15928285		 # 	collision with: 6 1 0 0  and 5 7 1 0 
15928287		 # 	collision with: 5 10 0 0  and 2 8 1 0 
15928377		 # 	collision with: 5 6 0 0  and 6 6 0 0 
15928379		 # 	collision with: 2 0 0 0  and 1 6 1 0 
15928389		 # 	collision with: 0 4 0 0  and 4 9 1 0 
15928391		 # 	collision with: 0 0 0 0  and 2 0 2 0 
15928440		 # 	collision with: 0 8 0 0  and 1 3 1 0 
15928442		 # 	collision with: 8 6 0 0  and 9 1 1 0 
15928537		 # 	collision with: 9 0 0 0  and 2 2 0 0 
15928539		 # 	collision with: 3 1 0 0  and 0 3 1 0 
15928549		 # 	collision with: 4 9 1 0  and 6 9 1 0 
15928551		 # 	collision with: 10 2 1 0  and 9 3 2 0 
15928641		 # 	collision with: 3 9 0 0  and 3 9 1 0 
15928643		 # 	collision with: 8 7 0 0  and 2 10 2 0 
15928649		 # 	collision with: 0 7 1 0  and 1 1 2 0 
15928651		 # 	collision with: 2 8 0 0  and 0 9 1 0 
15928673		 # 	collision with: 2 7 0 0  and 5 7 1 0 
15928675		 # 	collision with: 0 5 1 0  and 1 6 3 0 
15928697		 # 	collision with: 1 9 0 0  and 8 2 1 0 
15928699		 # 	collision with: 9 3 0 0  and 6 4 2 0 
15928713		 # 	collision with: 9 0 0 0  and 2 2 0 0 
15928715		 # 	collision with: 3 1 0 0  and 0 3 1 0 
15928737		 # 	collision with: 3 4 1 0  and 5 4 1 0 
15928739		 # 	collision with: 2 8 0 0  and 0 9 1 0 
15928761		 # 	collision with: 3 4 1 0  and 3 4 2 0 
15928763		 # 	collision with: 3 7 1 0  and 4 7 1 0 
15928769		 # 	collision with: 3 2 0 0  and 5 6 1 0 
15928771		 # 	collision with: 7 0 1 0  and 8 3 3 0 
15928861		 # 	collision with: 6 0 0 0  and 7 3 1 0 
15928863		 # 	collision with: 0 2 0 0  and 1 4 1 0 
15928873		 # 	collision with: 7 0 0 0  and 1 8 1 0 
15928875		 # 	collision with: 3 5 1 0  and 9 1 2 0 
15928924		 # 	collision with: 7 9 1 0  and 0 8 2 0 
15928926		 # 	collision with: 2 3 0 0  and 10 3 2 0 
15929021		 # 	collision with: 5 6 0 0  and 6 6 0 0 
15929023		 # 	collision with: 3 4 0 0  and 5 0 1 0 
15929033		 # 	collision with: 1 8 0 0  and 7 0 1 0 
15929035		 # 	collision with: 5 5 0 0  and 0 7 0 0 
15929125		 # 	collision with: 6 5 2 0  and 1 6 2 0 
15929127		 # 	collision with: 9 0 0 0  and 9 1 0 0 
15929133		 # 	collision with: 2 7 0 0  and 6 1 1 0 
15929135		 # 	collision with: 9 4 0 0  and 2 2 2 0 
15929157		 # 	collision with: 1 9 0 0  and 0 5 2 0 
15929159		 # 	collision with: 4 4 1 0  and 4 4 2 0 
15929183		 # 	collision with: 2 2 0 0  and 3 2 0 0 
15929197		 # 	collision with: 5 6 0 0  and 6 6 0 0 
15929199		 # 	collision with: 1 1 0 0  and 2 0 2 0 
15929223		 # 	collision with: 8 5 0 0  and 7 3 1 0 
15929245		 # 	collision with: 1 9 0 0  and 0 5 2 0 
15929247		 # 	collision with: 1 4 1 0  and 6 5 1 0 
15929253		 # 	collision with: 5 8 0 0  and 3 0 1 0 
15929255		 # 	collision with: 5 5 0 0  and 0 7 0 0 
15929345		 # 	collision with: 10 4 0 0  and 4 6 1 0 
15929347		 # 	collision with: 9 0 0 0  and 9 1 0 0 
15929357		 # 	collision with: 6 0 0 0  and 6 1 0 0 
15929359		 # 	collision with: 2 2 0 0  and 3 2 0 0 
15929413		 # 	collision with: 7 1 0 0  and 6 7 2 0 
15929449		 # 	collision with: 3 6 2 0  and 1 0 3 0 
15929452		 # 	collision with: 5 8 0 0  and 6 8 0 0 
15929454		 # 	collision with: 2 8 0 0  and 3 8 0 0 
15929468		 # 	collision with: 5 0 0 0  and 5 2 0 0 
15929470		 # 	collision with: 5 3 0 0  and 5 4 0 0 
15929477		 # 	collision with: 10 8 0 0  and 6 1 1 0 
15929479		 # 	collision with: 7 4 0 0  and 5 7 1 0 
15929489		 # 	collision with: 5 0 1 0  and 5 2 1 0 
15929491		 # 	collision with: 2 8 0 0  and 3 8 0 0 
15929496		 # 	collision with: 5 8 0 0  and 6 8 0 0 
15929498		 # 	collision with: 2 8 0 0  and 3 8 0 0 
15929528		 # 	collision with: 8 0 0 0  and 8 1 0 0 
15929530		 # 	collision with: 8 2 0 0  and 8 4 0 0 
15929540		 # 	collision with: 5 8 0 0  and 6 8 0 0 
15929542		 # 	collision with: 2 8 0 0  and 3 8 0 0 
15929544		 # 	collision with: 2 0 0 0  and 9 1 0 0 
15929546		 # 	collision with: 9 0 0 0  and 9 2 0 0 
15929557		 # 	collision with: 1 2 0 0  and 2 0 2 0 
15929559		 # 	collision with: 6 5 0 0  and 0 2 1 0 
15929573		 # 	collision with: 6 8 0 0  and 1 8 1 0 
15929575		 # 	collision with: 7 8 0 0  and 7 8 1 0 
15929584		 # 	collision with: 5 8 0 0  and 6 8 0 0 
15929586		 # 	collision with: 2 8 0 0  and 3 8 0 0 
15929604		 # 	collision with: 7 0 0 0  and 4 2 0 0 
15929606		 # 	collision with: 4 5 0 0  and 4 6 0 0 
15929628		 # 	collision with: 5 8 0 0  and 6 8 0 0 
15929630		 # 	collision with: 2 8 0 0  and 3 8 0 0 
15929664		 # 	collision with: 1 3 0 0  and 1 4 0 0 
15929666		 # 	collision with: 1 5 0 0  and 1 7 0 0 
15929672		 # 	collision with: 5 8 0 0  and 6 8 0 0 
15929674		 # 	collision with: 2 8 0 0  and 3 8 0 0 
15929680		 # 	collision with: 10 1 0 0  and 10 3 0 0 
15929682		 # 	collision with: 10 4 0 0  and 10 5 0 0 
15929716		 # 	collision with: 5 8 0 0  and 6 8 0 0 
15929718		 # 	collision with: 2 8 0 0  and 3 8 0 0 
15929740		 # 	collision with: 7 2 0 0  and 7 3 0 0 
15929742		 # 	collision with: 9 0 0 0  and 7 1 0 0 
15929760		 # 	collision with: 5 8 0 0  and 6 8 0 0 
15929762		 # 	collision with: 2 8 0 0  and 3 8 0 0 
15929773		 # 	collision with: 4 2 2 0  and 10 3 2 0 
15929775		 # 	collision with: 4 8 0 0  and 4 3 1 0 
15929789		 # 	collision with: 0 10 0 0  and 1 7 1 0 
15929791		 # 	collision with: 5 5 0 0  and 0 6 0 0 
15929800		 # 	collision with: 2 1 0 0  and 2 2 0 0 
15929802		 # 	collision with: 2 3 0 0  and 2 5 0 0 
15929804		 # 	collision with: 5 8 0 0  and 6 8 0 0 
15929806		 # 	collision with: 2 8 0 0  and 3 8 0 0 
15929816		 # 	collision with: 3 4 0 0  and 3 6 0 0 
15929818		 # 	collision with: 3 1 0 0  and 3 3 0 0 
15929848		 # 	collision with: 5 8 0 0  and 6 8 0 0 
15929850		 # 	collision with: 2 8 0 0  and 3 8 0 0 
15929857		 # 	collision with: 6 4 1 0  and 6 5 1 0 
15929859		 # 	collision with: 8 5 1 0  and 3 0 2 0 
15929869		 # 	collision with: 1 4 0 0  and 1 4 1 0 
15929871		 # 	collision with: 4 5 0 0  and 4 6 0 0 
15929876		 # 	collision with: 6 4 0 0  and 6 5 0 0 
15929878		 # 	collision with: 6 1 0 0  and 6 2 0 0 
15929892		 # 	collision with: 9 3 0 0  and 3 1 1 0 
15929894		 # 	collision with: 9 6 0 0  and 8 2 2 0 
15929897		 # 	collision with: 9 1 0 0  and 5 9 1 0 
15929899		 # 	collision with: 1 2 0 0  and 10 3 1 0 
15929933		 # 	collision with: 5 9 1 0  and 1 2 2 0 
15929935		 # 	collision with: 6 2 0 0  and 3 9 1 0 
15929936		 # 	collision with: 10 2 0 0  and 6 0 1 0 
15929938		 # 	collision with: 2 4 1 0  and 4 2 2 0 
15929952		 # 	collision with: 5 8 0 0  and 6 8 0 0 
15929954		 # 	collision with: 2 8 0 0  and 3 8 0 0 
15929961		 # 	collision with: 10 7 0 0  and 0 8 1 0 
15929963		 # 	collision with: 7 4 0 0  and 7 6 0 0 
15929973		 # 	collision with: 1 4 0 0  and 10 6 0 0 
15929975		 # 	collision with: 7 9 0 0  and 9 0 1 0 
15929980		 # 	collision with: 1 3 0 0  and 2 1 1 0 
15929982		 # 	collision with: 5 10 0 0  and 10 8 1 0 
14.7485secs	6104
