# prime 11
# degree 2
# input variables 3
# output variables 5
# reload computed balance functions from file balance-426of3248-p11d2m3-debug.log
# p = 11
# n = 5
# smalldomain p^m 1331
# domain p^n 161051
#	 p^2 = 121
#	 p^3 = 1331
#	 p^4 = 14641
#	 p^5 = 161051
#	 p^6 = 1771561
#	 p^7 = 19487171
#	 p^8 = 214358881
#	 p^9 = 2357947691
opening file : balance-426of3248-p11d2m3-debug.log
reloading for step2...
2556004		 # 	collision with: 4 8 8 5 0  and 5 0 0 0 1 
2556006		 # 	collision with: 2 2 10 0 0  and 1 5 0 1 0 
2556008		 # 	collision with: 0 10 0 0 0  and 1 10 0 0 0 
2556010		 # 	collision with: 1 1 10 0 0  and 1 3 10 0 0 
2556012		 # 	collision with: 2 5 0 0 0  and 3 5 0 0 0 
2556014		 # 	collision with: 1 5 5 0 0  and 1 6 5 0 0 
2556016		 # 	collision with: 4 7 0 0 0  and 6 7 0 0 0 
2556018		 # 	collision with: 1 3 7 0 0  and 1 5 7 0 0 
2556020		 # 	collision with: 3 8 0 0 0  and 4 8 0 0 0 
2556022		 # 	collision with: 1 3 8 0 0  and 1 5 8 0 0 
2556024		 # 	collision with: 1 2 0 0 0  and 2 2 0 0 0 
2556026		 # 	collision with: 1 3 2 0 0  and 1 4 2 0 0 
2556028		 # 	collision with: 1 9 0 0 0  and 3 9 0 0 0 
2556030		 # 	collision with: 1 5 9 0 0  and 1 6 9 0 0 
2556032		 # 	collision with: 5 3 0 0 0  and 6 3 0 0 0 
2556034		 # 	collision with: 1 4 3 0 0  and 1 6 3 0 0 
2556036		 # 	collision with: 3 4 0 0 0  and 5 4 0 0 0 
2556038		 # 	collision with: 1 4 4 0 0  and 1 6 4 0 0 
2556040		 # 	collision with: 0 6 0 0 0  and 2 6 0 0 0 
2556042		 # 	collision with: 1 3 6 0 0  and 1 4 6 0 0 
2556044		 # 	collision with: 2 1 0 0 0  and 4 1 0 0 0 
2556061		 # 	collision with: 8 4 0 0 0  and 0 6 0 0 0 
2556063		 # 	collision with: 4 5 4 0 0  and 4 5 6 0 0 
2556064		 # 	collision with: 3 8 0 0 0  and 4 8 0 0 0 
2556101		 # 	collision with: 0 4 0 0 0  and 2 6 0 0 0 
2556103		 # 	collision with: 1 5 5 0 0  and 1 6 5 0 0 
2556124		 # 	collision with: 3 4 0 0 0  and 5 4 0 0 0 
2556126		 # 	collision with: 1 4 4 0 0  and 1 6 4 0 0 
2556140		 # 	collision with: 0 10 0 0 0  and 1 10 0 0 0 
2556142		 # 	collision with: 1 1 10 0 0  and 1 3 10 0 0 
2556169		 # 	collision with: 1 9 0 0 0  and 3 9 0 0 0 
2556171		 # 	collision with: 1 2 2 0 0  and 1 3 2 0 0 
2556189		 # 	collision with: 0 4 0 0 0  and 2 6 0 0 0 
2556191		 # 	collision with: 1 5 5 0 0  and 1 6 5 0 0 
2556200		 # 	collision with: 1 2 0 0 0  and 2 2 0 0 0 
2556202		 # 	collision with: 1 3 2 0 0  and 1 4 2 0 0 
2556225		 # 	collision with: 4 7 0 0 0  and 6 7 0 0 0 
2556227		 # 	collision with: 1 4 7 0 0  and 1 6 7 0 0 
2556260		 # 	collision with: 0 6 0 0 0  and 2 6 0 0 0 
2556262		 # 	collision with: 1 3 6 0 0  and 1 4 6 0 0 
2556269		 # 	collision with: 4 7 0 0 0  and 6 7 0 0 0 
2556271		 # 	collision with: 1 7 4 0 0  and 1 6 6 0 0 
2556276		 # 	collision with: 2 5 0 0 0  and 3 5 0 0 0 
2556278		 # 	collision with: 1 5 5 0 0  and 1 6 5 0 0 
2556338		 # 	collision with: 1 5 9 0 0  and 1 6 9 0 0 
2556351		 # 	collision with: 1 2 3 0 0  and 1 3 3 0 0 
2556369		 # 	collision with: 8 4 0 0 0  and 0 6 0 0 0 
2556371		 # 	collision with: 6 5 4 0 0  and 6 5 6 0 0 
2556396		 # 	collision with: 2 1 0 0 0  and 4 1 0 0 0 
2556398		 # 	collision with: 1 1 1 0 0  and 1 2 1 0 0 
2556412		 # 	collision with: 4 7 0 0 0  and 6 7 0 0 0 
2556414		 # 	collision with: 1 3 7 0 0  and 1 5 7 0 0 
2556437		 # 	collision with: 1 2 0 0 0  and 2 2 0 0 0 
2556439		 # 	collision with: 1 2 3 0 0  and 1 3 3 0 0 
2556472		 # 	collision with: 5 3 0 0 0  and 6 3 0 0 0 
2556474		 # 	collision with: 1 4 3 0 0  and 1 6 3 0 0 
2556477		 # 	collision with: 1 9 0 0 0  and 3 9 0 0 0 
2556479		 # 	collision with: 1 2 2 0 0  and 1 3 2 0 0 
2556488		 # 	collision with: 4 4 9 10 0  and 1 3 0 0 1 
2556490		 # 	collision with: 0 4 5 0 0  and 9 5 0 1 0 
2556492		 # 	collision with: 1 9 0 0 0  and 3 9 0 0 0 
2556494		 # 	collision with: 1 3 9 0 0  and 1 4 9 0 0 
2556496		 # 	collision with: 0 10 0 0 0  and 1 10 0 0 0 
2556498		 # 	collision with: 1 3 10 0 0  and 1 4 10 0 0 
2556500		 # 	collision with: 5 3 0 0 0  and 6 3 0 0 0 
2556502		 # 	collision with: 1 4 3 0 0  and 1 5 3 0 0 
2556504		 # 	collision with: 2 5 0 0 0  and 3 5 0 0 0 
2556506		 # 	collision with: 1 2 5 0 0  and 1 4 5 0 0 
2556508		 # 	collision with: 3 4 0 0 0  and 5 4 0 0 0 
2556510		 # 	collision with: 1 0 4 0 0  and 1 1 4 0 0 
2556512		 # 	collision with: 4 7 0 0 0  and 6 7 0 0 0 
2556514		 # 	collision with: 1 2 7 0 0  and 1 4 7 0 0 
2556516		 # 	collision with: 0 6 0 0 0  and 2 6 0 0 0 
2556518		 # 	collision with: 1 0 6 0 0  and 1 1 6 0 0 
2556520		 # 	collision with: 3 8 0 0 0  and 4 8 0 0 0 
2556522		 # 	collision with: 1 4 8 0 0  and 1 5 8 0 0 
2556524		 # 	collision with: 2 1 0 0 0  and 4 1 0 0 0 
2556528		 # 	collision with: 1 2 0 0 0  and 2 2 0 0 0 
2556530		 # 	collision with: 1 5 2 0 0  and 1 6 2 0 0 
2556545		 # 	collision with: 4 0 0 0 0  and 5 0 0 0 0 
2556548		 # 	collision with: 2 5 0 0 0  and 3 5 0 0 0 
2556550		 # 	collision with: 1 2 5 0 0  and 1 4 5 0 0 
2556585		 # 	collision with: 4 0 0 0 0  and 5 0 0 0 0 
2556587		 # 	collision with: 5 0 4 0 0  and 5 0 5 0 0 
2556608		 # 	collision with: 3 8 0 0 0  and 4 8 0 0 0 
2556626		 # 	collision with: 1 3 9 0 0  and 1 4 9 0 0 
2556655		 # 	collision with: 1 4 4 0 0  and 1 6 4 0 0 
2556673		 # 	collision with: 4 0 0 0 0  and 5 0 0 0 0 
2556675		 # 	collision with: 8 0 4 0 0  and 8 0 5 0 0 
2556684		 # 	collision with: 3 4 0 0 0  and 5 4 0 0 0 
2556686		 # 	collision with: 1 0 4 0 0  and 1 1 4 0 0 
2556709		 # 	collision with: 4 0 0 0 0  and 5 0 0 0 0 
2556711		 # 	collision with: 1 4 0 0 0  and 1 5 0 0 0 
2556744		 # 	collision with: 2 1 0 0 0  and 4 1 0 0 0 
2556746		 # 	collision with: 1 5 1 0 0  and 1 6 1 0 0 
2556753		 # 	collision with: 4 0 0 0 0  and 5 0 0 0 0 
2556755		 # 	collision with: 1 4 0 0 0  and 1 5 0 0 0 
2556760		 # 	collision with: 0 10 0 0 0  and 1 10 0 0 0 
2556762		 # 	collision with: 1 3 10 0 0  and 1 4 10 0 0 
2556820		 # 	collision with: 4 7 0 0 0  and 6 7 0 0 0 
2556822		 # 	collision with: 1 2 7 0 0  and 1 4 7 0 0 
2556833		 # 	collision with: 4 0 0 0 0  and 5 0 0 0 0 
2556835		 # 	collision with: 1 5 1 0 0  and 1 6 1 0 0 
2556853		 # 	collision with: 4 0 0 0 0  and 5 0 0 0 0 
2556855		 # 	collision with: 4 0 4 0 0  and 4 0 5 0 0 
2556880		 # 	collision with: 1 2 0 0 0  and 2 2 0 0 0 
2556882		 # 	collision with: 1 5 2 0 0  and 1 6 2 0 0 
2556896		 # 	collision with: 5 3 0 0 0  and 6 3 0 0 0 
2556898		 # 	collision with: 1 4 3 0 0  and 1 5 3 0 0 
2556921		 # 	collision with: 4 0 0 0 0  and 5 0 0 0 0 
2556923		 # 	collision with: 1 5 1 0 0  and 1 6 1 0 0 
2556956		 # 	collision with: 0 6 0 0 0  and 2 6 0 0 0 
2556958		 # 	collision with: 1 0 6 0 0  and 1 1 6 0 0 
2556961		 # 	collision with: 4 0 0 0 0  and 5 0 0 0 0 
2556963		 # 	collision with: 1 4 4 0 0  and 1 6 4 0 0 
2556972		 # 	collision with: 10 9 7 2 0  and 4 1 0 0 1 
2556974		 # 	collision with: 1 7 7 0 0  and 9 7 0 1 0 
2556976		 # 	collision with: 3 8 0 0 0  and 4 8 0 0 0 
2556978		 # 	collision with: 1 4 8 0 0  and 1 6 8 0 0 
2556980		 # 	collision with: 3 4 0 0 0  and 5 4 0 0 0 
2556982		 # 	collision with: 1 1 4 0 0  and 1 2 4 0 0 
2556984		 # 	collision with: 0 10 0 0 0  and 1 10 0 0 0 
2556986		 # 	collision with: 1 4 10 0 0  and 1 6 10 0 0 
2556988		 # 	collision with: 1 2 0 0 0  and 2 2 0 0 0 
2556990		 # 	collision with: 1 1 2 0 0  and 1 3 2 0 0 
2556992		 # 	collision with: 0 6 0 0 0  and 2 6 0 0 0 
2556994		 # 	collision with: 1 2 6 0 0  and 1 4 6 0 0 
2556996		 # 	collision with: 2 5 0 0 0  and 3 5 0 0 0 
2556998		 # 	collision with: 1 0 5 0 0  and 1 1 5 0 0 
2557000		 # 	collision with: 1 9 0 0 0  and 3 9 0 0 0 
2557002		 # 	collision with: 1 1 9 0 0  and 1 2 9 0 0 
2557004		 # 	collision with: 2 1 0 0 0  and 4 1 0 0 0 
2557008		 # 	collision with: 4 7 0 0 0  and 6 7 0 0 0 
2557010		 # 	collision with: 1 1 7 0 0  and 1 3 7 0 0 
2557012		 # 	collision with: 5 3 0 0 0  and 6 3 0 0 0 
2557014		 # 	collision with: 1 3 3 0 0  and 1 5 3 0 0 
2557029		 # 	collision with: 6 3 0 0 0  and 9 5 0 0 0 
2557031		 # 	collision with: 5 6 3 0 0  and 5 6 5 0 0 
2557032		 # 	collision with: 1 2 0 0 0  and 2 2 0 0 0 
2557034		 # 	collision with: 1 1 2 0 0  and 1 3 2 0 0 
2557069		 # 	collision with: 2 1 0 0 0  and 4 1 0 0 0 
2557071		 # 	collision with: 4 9 3 0 0  and 4 9 5 0 0 
2557092		 # 	collision with: 2 1 0 0 0  and 4 1 0 0 0 
2557094		 # 	collision with: 1 3 1 0 0  and 1 5 1 0 0 
2557108		 # 	collision with: 3 8 0 0 0  and 4 8 0 0 0 
2557137		 # 	collision with: 1 2 0 0 0  and 2 2 0 0 0 
2557139		 # 	collision with: 1 4 3 0 0  and 1 3 5 0 0 
2557157		 # 	collision with: 2 1 0 0 0  and 4 1 0 0 0 
2557159		 # 	collision with: 1 4 3 0 0  and 1 0 5 0 0 
2557168		 # 	collision with: 0 6 0 0 0  and 2 6 0 0 0 
2557170		 # 	collision with: 1 2 6 0 0  and 1 4 6 0 0 
2557193		 # 	collision with: 3 4 0 0 0  and 5 4 0 0 0 
2557228		 # 	collision with: 4 7 0 0 0  and 6 7 0 0 0 
2557230		 # 	collision with: 1 1 7 0 0  and 1 3 7 0 0 
2557237		 # 	collision with: 3 4 0 0 0  and 5 4 0 0 0 
2557239		 # 	collision with: 1 3 4 0 0  and 1 5 4 0 0 
2557244		 # 	collision with: 3 4 0 0 0  and 5 4 0 0 0 
2557246		 # 	collision with: 1 1 4 0 0  and 1 2 4 0 0 
2557304		 # 	collision with: 2 5 0 0 0  and 3 5 0 0 0 
2557306		 # 	collision with: 1 0 5 0 0  and 1 1 5 0 0 
2557317		 # 	collision with: 1 9 0 0 0  and 3 9 0 0 0 
2557319		 # 	collision with: 8 2 3 0 0  and 8 2 5 0 0 
2557337		 # 	collision with: 6 3 0 0 0  and 9 5 0 0 0 
2557339		 # 	collision with: 1 9 3 0 0  and 1 5 5 0 0 
2557364		 # 	collision with: 5 3 0 0 0  and 6 3 0 0 0 
2557366		 # 	collision with: 1 3 3 0 0  and 1 5 3 0 0 
2557380		 # 	collision with: 0 10 0 0 0  and 1 10 0 0 0 
2557382		 # 	collision with: 1 4 10 0 0  and 1 6 10 0 0 
2557405		 # 	collision with: 1 9 0 0 0  and 3 9 0 0 0 
2557442		 # 	collision with: 1 1 9 0 0  and 1 2 9 0 0 
2557447		 # 	collision with: 7 5 3 0 0  and 7 5 5 0 0 
2557456		 # 	collision with: 1 7 8 7 0  and 4 1 0 0 1 
2557458		 # 	collision with: 0 10 8 0 0  and 7 4 0 1 0 
2557460		 # 	collision with: 4 7 0 0 0  and 6 7 0 0 0 
2557462		 # 	collision with: 1 0 7 0 0  and 1 2 7 0 0 
2557464		 # 	collision with: 1 9 0 0 0  and 3 9 0 0 0 
2557466		 # 	collision with: 1 4 9 0 0  and 1 6 9 0 0 
2557468		 # 	collision with: 0 6 0 0 0  and 2 6 0 0 0 
2557470		 # 	collision with: 1 5 6 0 0  and 1 6 6 0 0 
2557472		 # 	collision with: 0 10 0 0 0  and 1 10 0 0 0 
2557474		 # 	collision with: 1 0 10 0 0  and 1 2 10 0 0 
2557476		 # 	collision with: 3 8 0 0 0  and 4 8 0 0 0 
2557478		 # 	collision with: 1 5 8 0 0  and 1 6 8 0 0 
2557480		 # 	collision with: 5 3 0 0 0  and 6 3 0 0 0 
2557482		 # 	collision with: 1 3 3 0 0  and 1 4 3 0 0 
2557484		 # 	collision with: 2 1 0 0 0  and 4 1 0 0 0 
2557488		 # 	collision with: 2 5 0 0 0  and 3 5 0 0 0 
2557490		 # 	collision with: 1 3 5 0 0  and 1 4 5 0 0 
2557492		 # 	collision with: 1 2 0 0 0  and 2 2 0 0 0 
2557494		 # 	collision with: 1 3 2 0 0  and 1 5 2 0 0 
2557496		 # 	collision with: 3 4 0 0 0  and 5 4 0 0 0 
2557498		 # 	collision with: 1 2 4 0 0  and 1 3 4 0 0 
2557513		 # 	collision with: 3 3 0 0 0  and 10 4 0 0 0 
2557515		 # 	collision with: 1 3 0 0 0  and 1 4 0 0 0 
2557516		 # 	collision with: 0 10 0 0 0  and 1 10 0 0 0 
2557518		 # 	collision with: 1 0 10 0 0  and 1 2 10 0 0 
2557553		 # 	collision with: 1 2 0 0 0  and 2 2 0 0 0 
2557555		 # 	collision with: 3 7 3 0 0  and 3 7 4 0 0 
2557576		 # 	collision with: 2 5 0 0 0  and 3 5 0 0 0 
2557578		 # 	collision with: 1 3 5 0 0  and 1 4 5 0 0 
2557592		 # 	collision with: 4 7 0 0 0  and 6 7 0 0 0 
2557594		 # 	collision with: 1 0 7 0 0  and 1 2 7 0 0 
2557621		 # 	collision with: 3 4 0 0 0  and 5 4 0 0 0 
2557623		 # 	collision with: 1 9 3 0 0  and 1 4 4 0 0 
2557641		 # 	collision with: 1 2 0 0 0  and 2 2 0 0 0 
2557643		 # 	collision with: 1 7 3 0 0  and 1 3 4 0 0 
2557652		 # 	collision with: 3 8 0 0 0  and 4 8 0 0 0 
2557677		 # 	collision with: 3 8 0 0 0  and 4 8 0 0 0 
2557679		 # 	collision with: 1 3 8 0 0  and 1 4 8 0 0 
2557712		 # 	collision with: 1 2 0 0 0  and 2 2 0 0 0 
2557714		 # 	collision with: 1 3 2 0 0  and 1 5 2 0 0 
2557723		 # 	collision with: 1 10 3 0 0  and 1 0 4 0 0 
2557730		 # 	collision with: 1 4 9 0 0  and 1 6 9 0 0 
2557788		 # 	collision with: 5 3 0 0 0  and 6 3 0 0 0 
2557790		 # 	collision with: 1 3 3 0 0  and 1 4 3 0 0 
2557801		 # 	collision with: 4 7 0 0 0  and 6 7 0 0 0 
2557821		 # 	collision with: 3 3 0 0 0  and 10 4 0 0 0 
2557848		 # 	collision with: 3 4 0 0 0  and 5 4 0 0 0 
2557850		 # 	collision with: 1 2 4 0 0  and 1 3 4 0 0 
2557864		 # 	collision with: 0 6 0 0 0  and 2 6 0 0 0 
2557866		 # 	collision with: 1 5 6 0 0  and 1 6 6 0 0 
2557889		 # 	collision with: 4 7 0 0 0  and 6 7 0 0 0 
2557891		 # 	collision with: 1 9 3 0 0  and 1 0 4 0 0 
2557924		 # 	collision with: 2 1 0 0 0  and 4 1 0 0 0 
2557926		 # 	collision with: 1 2 1 0 0  and 1 3 1 0 0 
2557929		 # 	collision with: 3 4 0 0 0  and 5 4 0 0 0 
2557931		 # 	collision with: 1 6 3 0 0  and 1 9 4 0 0 
2557940		 # 	collision with: 8 9 1 6 0  and 2 1 0 0 1 
2557942		 # 	collision with: 6 8 2 0 0  and 1 8 0 1 0 
2557944		 # 	collision with: 0 6 0 0 0  and 2 6 0 0 0 
2557946		 # 	collision with: 1 2 6 0 0  and 1 3 6 0 0 
2557948		 # 	collision with: 5 3 0 0 0  and 6 3 0 0 0 
2557950		 # 	collision with: 1 2 3 0 0  and 1 4 3 0 0 
2557952		 # 	collision with: 1 2 0 0 0  and 2 2 0 0 0 
2557954		 # 	collision with: 1 0 2 0 0  and 1 1 2 0 0 
2557956		 # 	collision with: 4 7 0 0 0  and 6 7 0 0 0 
2557958		 # 	collision with: 1 5 7 0 0  and 1 6 7 0 0 
2557960		 # 	collision with: 0 10 0 0 0  and 1 10 0 0 0 
2557962		 # 	collision with: 1 2 10 0 0  and 1 3 10 0 0 
2557964		 # 	collision with: 2 1 0 0 0  and 4 1 0 0 0 
2557968		 # 	collision with: 3 4 0 0 0  and 5 4 0 0 0 
2557970		 # 	collision with: 1 3 4 0 0  and 1 4 4 0 0 
2557972		 # 	collision with: 1 9 0 0 0  and 3 9 0 0 0 
2557974		 # 	collision with: 1 2 9 0 0  and 1 4 9 0 0 
2557976		 # 	collision with: 3 8 0 0 0  and 4 8 0 0 0 
2557978		 # 	collision with: 1 0 8 0 0  and 1 1 8 0 0 
2557980		 # 	collision with: 2 5 0 0 0  and 3 5 0 0 0 
2557982		 # 	collision with: 1 0 5 0 0  and 1 2 5 0 0 
2557997		 # 	collision with: 4 2 0 0 0  and 7 4 0 0 0 
2557999		 # 	collision with: 6 7 2 0 0  and 6 7 4 0 0 
2558000		 # 	collision with: 4 7 0 0 0  and 6 7 0 0 0 
2558002		 # 	collision with: 1 5 7 0 0  and 1 6 7 0 0 
2558039		 # 	collision with: 1 6 2 0 0  and 1 0 4 0 0 
2558062		 # 	collision with: 1 2 9 0 0  and 1 4 9 0 0 
2558076		 # 	collision with: 0 6 0 0 0  and 2 6 0 0 0 
2558078		 # 	collision with: 1 2 6 0 0  and 1 3 6 0 0 
2558105		 # 	collision with: 8 2 0 0 0  and 3 4 0 0 0 
2558107		 # 	collision with: 1 4 2 0 0  and 1 4 4 0 0 
2558125		 # 	collision with: 5 3 0 0 0  and 6 3 0 0 0 
2558127		 # 	collision with: 1 5 2 0 0  and 1 5 4 0 0 
2558136		 # 	collision with: 0 10 0 0 0  and 1 10 0 0 0 
2558138		 # 	collision with: 1 2 10 0 0  and 1 3 10 0 0 
2558161		 # 	collision with: 2 1 0 0 0  and 4 1 0 0 0 
2558163		 # 	collision with: 1 2 1 0 0  and 1 4 1 0 0 
2558196		 # 	collision with: 3 8 0 0 0  and 4 8 0 0 0 
2558205		 # 	collision with: 2 1 0 0 0  and 4 1 0 0 0 
2558207		 # 	collision with: 1 2 1 0 0  and 1 4 1 0 0 
2558212		 # 	collision with: 5 3 0 0 0  and 6 3 0 0 0 
2558214		 # 	collision with: 1 2 3 0 0  and 1 4 3 0 0 
2558272		 # 	collision with: 2 1 0 0 0  and 4 1 0 0 0 
2558274		 # 	collision with: 1 0 1 0 0  and 1 2 1 0 0 
2558285		 # 	collision with: 10 2 0 0 0  and 1 4 0 0 0 
2558287		 # 	collision with: 7 6 2 0 0  and 7 6 4 0 0 
2558305		 # 	collision with: 4 2 0 0 0  and 7 4 0 0 0 
2558307		 # 	collision with: 9 7 2 0 0  and 9 7 4 0 0 
2558332		 # 	collision with: 2 5 0 0 0  and 3 5 0 0 0 
2558334		 # 	collision with: 1 0 5 0 0  and 1 2 5 0 0 
2558348		 # 	collision with: 1 2 0 0 0  and 2 2 0 0 0 
2558350		 # 	collision with: 1 0 2 0 0  and 1 1 2 0 0 
2558373		 # 	collision with: 10 2 0 0 0  and 1 4 0 0 0 
2558375		 # 	collision with: 1 9 2 0 0  and 1 3 4 0 0 
2558408		 # 	collision with: 3 4 0 0 0  and 5 4 0 0 0 
2558410		 # 	collision with: 1 3 4 0 0  and 1 4 4 0 0 
2558413		 # 	collision with: 8 2 0 0 0  and 3 4 0 0 0 
2558415		 # 	collision with: 8 4 2 0 0  and 8 4 4 0 0 
2558424		 # 	collision with: 2 2 5 4 0  and 8 1 0 0 1 
2558426		 # 	collision with: 7 4 9 0 0  and 1 2 0 1 0 
2558428		 # 	collision with: 2 5 0 0 0  and 3 5 0 0 0 
2558430		 # 	collision with: 1 3 5 0 0  and 1 5 5 0 0 
2558432		 # 	collision with: 3 8 0 0 0  and 4 8 0 0 0 
2558434		 # 	collision with: 1 0 8 0 0  and 1 2 8 0 0 
2558436		 # 	collision with: 1 9 0 0 0  and 3 9 0 0 0 
2558438		 # 	collision with: 1 0 9 0 0  and 1 2 9 0 0 
2558440		 # 	collision with: 3 4 0 0 0  and 5 4 0 0 0 
2558442		 # 	collision with: 1 4 4 0 0  and 1 5 4 0 0 
2558444		 # 	collision with: 2 1 0 0 0  and 4 1 0 0 0 
2558448		 # 	collision with: 0 10 0 0 0  and 1 10 0 0 0 
2558450		 # 	collision with: 1 3 10 0 0  and 1 5 10 0 0 
2558452		 # 	collision with: 4 7 0 0 0  and 6 7 0 0 0 
2558454		 # 	collision with: 1 4 7 0 0  and 1 5 7 0 0 
2558456		 # 	collision with: 1 2 0 0 0  and 2 2 0 0 0 
2558458		 # 	collision with: 1 2 2 0 0  and 1 3 2 0 0 
2558460		 # 	collision with: 5 3 0 0 0  and 6 3 0 0 0 
2558462		 # 	collision with: 1 2 3 0 0  and 1 3 3 0 0 
2558464		 # 	collision with: 0 6 0 0 0  and 2 6 0 0 0 
2558466		 # 	collision with: 1 4 6 0 0  and 1 6 6 0 0 
2558481		 # 	collision with: 1 2 0 0 0  and 8 3 0 0 0 
2558483		 # 	collision with: 1 2 2 0 0  and 1 2 3 0 0 
2558484		 # 	collision with: 3 4 0 0 0  and 5 4 0 0 0 
2558486		 # 	collision with: 1 4 4 0 0  and 1 5 4 0 0 
2558521		 # 	collision with: 1 2 0 0 0  and 8 3 0 0 0 
2558523		 # 	collision with: 1 3 2 0 0  and 1 3 3 0 0 
2558544		 # 	collision with: 1 2 0 0 0  and 2 2 0 0 0 
2558546		 # 	collision with: 1 2 2 0 0  and 1 3 2 0 0 
2558560		 # 	collision with: 2 5 0 0 0  and 3 5 0 0 0 
2558562		 # 	collision with: 1 3 5 0 0  and 1 5 5 0 0 
2558589		 # 	collision with: 1 2 0 0 0  and 8 3 0 0 0 
2558591		 # 	collision with: 1 3 1 0 0  and 1 5 1 0 0 
2558609		 # 	collision with: 1 2 0 0 0  and 8 3 0 0 0 
2558611		 # 	collision with: 6 3 2 0 0  and 6 3 3 0 0 
2558620		 # 	collision with: 2 1 0 0 0  and 4 1 0 0 0 
2558622		 # 	collision with: 1 4 1 0 0  and 1 6 1 0 0 
2558645		 # 	collision with: 3 2 0 0 0  and 0 3 0 0 0 
2558647		 # 	collision with: 1 2 5 0 0  and 1 3 5 0 0 
2558680		 # 	collision with: 5 3 0 0 0  and 6 3 0 0 0 
2558682		 # 	collision with: 1 2 3 0 0  and 1 3 3 0 0 
2558689		 # 	collision with: 3 2 0 0 0  and 0 3 0 0 0 
2558691		 # 	collision with: 1 2 5 0 0  and 1 3 5 0 0 
2558696		 # 	collision with: 3 8 0 0 0  and 4 8 0 0 0 
2558756		 # 	collision with: 0 10 0 0 0  and 1 10 0 0 0 
2558758		 # 	collision with: 1 3 10 0 0  and 1 5 10 0 0 
2558769		 # 	collision with: 1 2 0 0 0  and 3 3 0 0 0 
2558771		 # 	collision with: 1 7 2 0 0  and 1 6 3 0 0 
2558789		 # 	collision with: 1 2 0 0 0  and 8 3 0 0 0 
2558791		 # 	collision with: 7 2 2 0 0  and 7 2 3 0 0 
2558816		 # 	collision with: 0 6 0 0 0  and 2 6 0 0 0 
2558818		 # 	collision with: 1 4 6 0 0  and 1 6 6 0 0 
2558834		 # 	collision with: 1 0 9 0 0  and 1 2 9 0 0 
2558859		 # 	collision with: 2 8 2 0 0  and 2 8 3 0 0 
2558892		 # 	collision with: 4 7 0 0 0  and 6 7 0 0 0 
2558894		 # 	collision with: 1 4 7 0 0  and 1 5 7 0 0 
2558897		 # 	collision with: 1 2 0 0 0  and 8 3 0 0 0 
2558899		 # 	collision with: 1 3 1 0 0  and 1 5 1 0 0 
2558908		 # 	collision with: 10 3 8 8 0  and 9 0 0 0 1 
2558910		 # 	collision with: 2 9 3 0 0  and 6 5 0 1 0 
2558912		 # 	collision with: 3 4 0 0 0  and 5 4 0 0 0 
2558914		 # 	collision with: 1 5 4 0 0  and 1 6 4 0 0 
2558916		 # 	collision with: 1 2 0 0 0  and 2 2 0 0 0 
2558918		 # 	collision with: 1 4 2 0 0  and 1 5 2 0 0 
2558920		 # 	collision with: 2 5 0 0 0  and 3 5 0 0 0 
2558922		 # 	collision with: 1 1 5 0 0  and 1 2 5 0 0 
2558924		 # 	collision with: 2 1 0 0 0  and 4 1 0 0 0 
2558928		 # 	collision with: 5 3 0 0 0  and 6 3 0 0 0 
2558930		 # 	collision with: 1 1 3 0 0  and 1 3 3 0 0 
2558932		 # 	collision with: 3 8 0 0 0  and 4 8 0 0 0 
2558934		 # 	collision with: 1 1 8 0 0  and 1 2 8 0 0 
2558936		 # 	collision with: 0 10 0 0 0  and 1 10 0 0 0 
2558938		 # 	collision with: 1 5 10 0 0  and 1 6 10 0 0 
2558940		 # 	collision with: 0 6 0 0 0  and 2 6 0 0 0 
2558942		 # 	collision with: 1 1 6 0 0  and 1 3 6 0 0 
2558944		 # 	collision with: 1 9 0 0 0  and 3 9 0 0 0 
2558946		 # 	collision with: 1 4 9 0 0  and 1 5 9 0 0 
2558948		 # 	collision with: 4 7 0 0 0  and 6 7 0 0 0 
2558950		 # 	collision with: 1 3 7 0 0  and 1 4 7 0 0 
2558965		 # 	collision with: 2 1 0 0 0  and 5 3 0 0 0 
2558967		 # 	collision with: 7 8 1 0 0  and 7 8 3 0 0 
2558968		 # 	collision with: 2 1 0 0 0  and 4 1 0 0 0 
2558970		 # 	collision with: 1 3 1 0 0  and 1 4 1 0 0 
2559005		 # 	collision with: 2 1 0 0 0  and 6 3 0 0 0 
2559007		 # 	collision with: 1 1 0 0 0  and 1 3 0 0 0 
2559028		 # 	collision with: 0 6 0 0 0  and 2 6 0 0 0 
2559030		 # 	collision with: 1 1 6 0 0  and 1 3 6 0 0 
2559044		 # 	collision with: 3 4 0 0 0  and 5 4 0 0 0 
2559046		 # 	collision with: 1 5 4 0 0  and 1 6 4 0 0 
2559073		 # 	collision with: 0 10 0 0 0  and 1 10 0 0 0 
2559093		 # 	collision with: 2 1 0 0 0  and 6 3 0 0 0 
2559104		 # 	collision with: 5 3 0 0 0  and 6 3 0 0 0 
2559106		 # 	collision with: 1 1 3 0 0  and 1 3 3 0 0 
2559131		 # 	collision with: 1 6 1 0 0  and 1 5 3 0 0 
2559166		 # 	collision with: 1 4 9 0 0  and 1 5 9 0 0 
2559173		 # 	collision with: 1 9 0 0 0  and 3 9 0 0 0 
2559175		 # 	collision with: 1 9 1 0 0  and 1 5 3 0 0 
2559180		 # 	collision with: 1 2 0 0 0  and 2 2 0 0 0 
2559182		 # 	collision with: 1 4 2 0 0  and 1 5 2 0 0 
2559240		 # 	collision with: 3 8 0 0 0  and 4 8 0 0 0 
2559253		 # 	collision with: 2 1 0 0 0  and 4 1 0 0 0 
2559255		 # 	collision with: 1 3 2 0 0  and 1 5 2 0 0 
2559273		 # 	collision with: 2 1 0 0 0  and 5 3 0 0 0 
2559275		 # 	collision with: 1 5 1 0 0  and 1 3 3 0 0 
2559300		 # 	collision with: 4 7 0 0 0  and 6 7 0 0 0 
2559302		 # 	collision with: 1 3 7 0 0  and 1 4 7 0 0 
2559316		 # 	collision with: 2 5 0 0 0  and 3 5 0 0 0 
2559318		 # 	collision with: 1 1 5 0 0  and 1 2 5 0 0 
2559341		 # 	collision with: 2 1 0 0 0  and 4 1 0 0 0 
2559343		 # 	collision with: 1 3 2 0 0  and 1 5 2 0 0 
2559376		 # 	collision with: 0 10 0 0 0  and 1 10 0 0 0 
2559378		 # 	collision with: 1 5 10 0 0  and 1 6 10 0 0 
2559381		 # 	collision with: 0 10 0 0 0  and 1 10 0 0 0 
2559383		 # 	collision with: 1 0 3 0 0  and 1 2 3 0 0 
2559392		 # 	collision with: 6 7 4 2 0  and 5 5 0 0 1 
2559394		 # 	collision with: 10 9 4 0 0  and 2 1 0 1 0 
2559396		 # 	collision with: 5 3 0 0 0  and 6 3 0 0 0 
2559398		 # 	collision with: 1 1 3 0 0  and 1 2 3 0 0 
2559400		 # 	collision with: 4 7 0 0 0  and 6 7 0 0 0 
2559402		 # 	collision with: 1 2 7 0 0  and 1 3 7 0 0 
2559404		 # 	collision with: 2 1 0 0 0  and 4 1 0 0 0 
2559408		 # 	collision with: 1 9 0 0 0  and 3 9 0 0 0 
2559410		 # 	collision with: 1 2 9 0 0  and 1 3 9 0 0 
2559412		 # 	collision with: 2 5 0 0 0  and 3 5 0 0 0 
2559414		 # 	collision with: 1 4 5 0 0  and 1 5 5 0 0 
2559416		 # 	collision with: 0 6 0 0 0  and 2 6 0 0 0 
2559418		 # 	collision with: 1 4 6 0 0  and 1 5 6 0 0 
2559420		 # 	collision with: 1 2 0 0 0  and 2 2 0 0 0 
2559422		 # 	collision with: 1 0 2 0 0  and 1 2 2 0 0 
2559424		 # 	collision with: 0 10 0 0 0  and 1 10 0 0 0 
2559426		 # 	collision with: 1 1 10 0 0  and 1 2 10 0 0 
2559428		 # 	collision with: 3 4 0 0 0  and 5 4 0 0 0 
2559430		 # 	collision with: 1 0 4 0 0  and 1 2 4 0 0 
2559432		 # 	collision with: 3 8 0 0 0  and 4 8 0 0 0 
2559434		 # 	collision with: 1 1 8 0 0  and 1 3 8 0 0 
2559451		 # 	collision with: 2 3 1 0 0  and 2 3 2 0 0 
2559454		 # 	collision with: 1 2 9 0 0  and 1 3 9 0 0 
2559489		 # 	collision with: 0 6 0 0 0  and 2 6 0 0 0 
2559512		 # 	collision with: 0 10 0 0 0  and 1 10 0 0 0 
2559514		 # 	collision with: 1 1 10 0 0  and 1 2 10 0 0 
2559528		 # 	collision with: 5 3 0 0 0  and 6 3 0 0 0 
2559530		 # 	collision with: 1 1 3 0 0  and 1 2 3 0 0 
2559557		 # 	collision with: 2 1 0 0 0  and 4 1 0 0 0 
2559559		 # 	collision with: 1 1 1 0 0  and 1 3 2 0 0 
2559577		 # 	collision with: 0 6 0 0 0  and 2 6 0 0 0 
2559579		 # 	collision with: 1 0 1 0 0  and 1 1 1 0 0 
2559588		 # 	collision with: 2 5 0 0 0  and 3 5 0 0 0 
2559590		 # 	collision with: 1 4 5 0 0  and 1 5 5 0 0 
2559613		 # 	collision with: 1 2 0 0 0  and 2 2 0 0 0 
2559615		 # 	collision with: 1 3 1 0 0  and 1 1 2 0 0 
2559648		 # 	collision with: 3 4 0 0 0  and 5 4 0 0 0 
2559650		 # 	collision with: 1 0 4 0 0  and 1 2 4 0 0 
2559657		 # 	collision with: 1 2 0 0 0  and 2 2 0 0 0 
2559664		 # 	collision with: 4 7 0 0 0  and 6 7 0 0 0 
2559666		 # 	collision with: 1 2 7 0 0  and 1 3 7 0 0 
2559724		 # 	collision with: 0 6 0 0 0  and 2 6 0 0 0 
2559726		 # 	collision with: 1 4 6 0 0  and 1 5 6 0 0 
2559737		 # 	collision with: 0 10 0 0 0  and 1 10 0 0 0 
2559739		 # 	collision with: 1 1 0 0 0  and 1 2 0 0 0 
2559757		 # 	collision with: 10 1 0 0 0  and 6 2 0 0 0 
2559759		 # 	collision with: 1 1 1 0 0  and 1 2 2 0 0 
2559784		 # 	collision with: 3 8 0 0 0  and 4 8 0 0 0 
2559800		 # 	collision with: 2 1 0 0 0  and 4 1 0 0 0 
2559802		 # 	collision with: 1 1 1 0 0  and 1 3 1 0 0 
2559825		 # 	collision with: 0 10 0 0 0  and 1 10 0 0 0 
2559827		 # 	collision with: 1 1 0 0 0  and 1 2 0 0 0 
2559860		 # 	collision with: 1 2 0 0 0  and 2 2 0 0 0 
2559862		 # 	collision with: 1 0 2 0 0  and 1 2 2 0 0 
2559865		 # 	collision with: 2 1 0 0 0  and 4 1 0 0 0 
2559867		 # 	collision with: 4 8 1 0 0  and 4 8 2 0 0 
2559876		 # 	collision with: 5 3 7 4 0  and 7 0 0 0 1 
2559878		 # 	collision with: 5 1 6 0 0  and 7 4 0 1 0 
2559880		 # 	collision with: 1 2 0 0 0  and 2 2 0 0 0 
2559882		 # 	collision with: 1 2 2 0 0  and 1 4 2 0 0 
2559884		 # 	collision with: 2 1 0 0 0  and 4 1 0 0 0 
2559888		 # 	collision with: 3 8 0 0 0  and 4 8 0 0 0 
2559890		 # 	collision with: 1 2 8 0 0  and 1 3 8 0 0 
2559892		 # 	collision with: 0 6 0 0 0  and 2 6 0 0 0 
2559894		 # 	collision with: 1 1 6 0 0  and 1 2 6 0 0 
2559896		 # 	collision with: 4 7 0 0 0  and 6 7 0 0 0 
2559898		 # 	collision with: 1 1 7 0 0  and 1 2 7 0 0 
2559900		 # 	collision with: 3 4 0 0 0  and 5 4 0 0 0 
2559902		 # 	collision with: 1 1 4 0 0  and 1 3 4 0 0 
2559904		 # 	collision with: 2 5 0 0 0  and 3 5 0 0 0 
2559906		 # 	collision with: 1 1 5 0 0  and 1 3 5 0 0 
2559908		 # 	collision with: 5 3 0 0 0  and 6 3 0 0 0 
2559910		 # 	collision with: 1 0 3 0 0  and 1 2 3 0 0 
2559912		 # 	collision with: 0 10 0 0 0  and 1 10 0 0 0 
2559914		 # 	collision with: 1 2 10 0 0  and 1 4 10 0 0 
2559916		 # 	collision with: 1 9 0 0 0  and 3 9 0 0 0 
2559918		 # 	collision with: 1 0 9 0 0  and 1 1 9 0 0 
2559933		 # 	collision with: 0 0 0 0 0  and 3 2 0 0 0 
2559935		 # 	collision with: 8 9 0 0 0  and 8 9 2 0 0 
2559936		 # 	collision with: 0 6 0 0 0  and 2 6 0 0 0 
2559938		 # 	collision with: 1 1 6 0 0  and 1 2 6 0 0 
2559973		 # 	collision with: 3 0 0 0 0  and 4 2 0 0 0 
2559975		 # 	collision with: 1 4 2 0 0  and 1 5 2 0 0 
2559996		 # 	collision with: 5 3 0 0 0  and 6 3 0 0 0 
2559998		 # 	collision with: 1 0 3 0 0  and 1 2 3 0 0 
2560012		 # 	collision with: 1 2 0 0 0  and 2 2 0 0 0 
2560014		 # 	collision with: 1 2 2 0 0  and 1 4 2 0 0 
2560041		 # 	collision with: 9 0 0 0 0  and 3 2 0 0 0 
2560043		 # 	collision with: 4 2 0 0 0  and 4 2 2 0 0 
2560061		 # 	collision with: 3 0 0 0 0  and 4 2 0 0 0 
2560063		 # 	collision with: 1 10 0 0 0  and 1 4 2 0 0 
2560072		 # 	collision with: 4 7 0 0 0  and 6 7 0 0 0 
2560074		 # 	collision with: 1 1 7 0 0  and 1 2 7 0 0 
2560097		 # 	collision with: 0 6 0 0 0  and 2 6 0 0 0 
2560099		 # 	collision with: 1 3 0 0 0  and 1 6 2 0 0 
2560132		 # 	collision with: 0 10 0 0 0  and 1 10 0 0 0 
2560134		 # 	collision with: 1 2 10 0 0  and 1 4 10 0 0 
2560141		 # 	collision with: 0 6 0 0 0  and 2 6 0 0 0 
2560143		 # 	collision with: 1 5 0 0 0  and 1 3 2 0 0 
2560148		 # 	collision with: 2 1 0 0 0  and 4 1 0 0 0 
2560150		 # 	collision with: 1 0 1 0 0  and 1 1 1 0 0 
2560208		 # 	collision with: 3 4 0 0 0  and 5 4 0 0 0 
2560210		 # 	collision with: 1 1 4 0 0  and 1 3 4 0 0 
2560221		 # 	collision with: 3 8 0 0 0  and 4 8 0 0 0 
2560223		 # 	collision with: 5 3 0 0 0  and 5 3 2 0 0 
2560243		 # 	collision with: 1 9 0 0 0  and 1 9 2 0 0 
2560270		 # 	collision with: 1 0 9 0 0  and 1 1 9 0 0 
2560284		 # 	collision with: 3 8 0 0 0  and 4 8 0 0 0 
2560309		 # 	collision with: 3 8 0 0 0  and 4 8 0 0 0 
2560311		 # 	collision with: 10 3 0 0 0  and 10 3 2 0 0 
2560344		 # 	collision with: 2 5 0 0 0  and 3 5 0 0 0 
2560346		 # 	collision with: 1 1 5 0 0  and 1 3 5 0 0 
2560349		 # 	collision with: 9 0 0 0 0  and 3 2 0 0 0 
2560360		 # 	collision with: 1 10 6 3 0  and 2 0 0 0 1 
2560362		 # 	collision with: 9 8 1 0 0  and 10 10 0 1 0 
2560364		 # 	collision with: 2 1 0 0 0  and 4 1 0 0 0 
2560368		 # 	collision with: 0 6 0 0 0  and 2 6 0 0 0 
2560370		 # 	collision with: 1 3 6 0 0  and 1 5 6 0 0 
2560372		 # 	collision with: 3 4 0 0 0  and 5 4 0 0 0 
2560374		 # 	collision with: 1 2 4 0 0  and 1 4 4 0 0 
2560376		 # 	collision with: 5 3 0 0 0  and 6 3 0 0 0 
2560378		 # 	collision with: 1 0 3 0 0  and 1 1 3 0 0 
2560380		 # 	collision with: 1 9 0 0 0  and 3 9 0 0 0 
2560382		 # 	collision with: 1 3 9 0 0  and 1 5 9 0 0 
2560384		 # 	collision with: 1 2 0 0 0  and 2 2 0 0 0 
2560386		 # 	collision with: 1 4 2 0 0  and 1 6 2 0 0 
2560388		 # 	collision with: 3 8 0 0 0  and 4 8 0 0 0 
2560390		 # 	collision with: 1 2 8 0 0  and 1 4 8 0 0 
2560392		 # 	collision with: 4 7 0 0 0  and 6 7 0 0 0 
2560394		 # 	collision with: 1 0 7 0 0  and 1 1 7 0 0 
2560396		 # 	collision with: 2 5 0 0 0  and 3 5 0 0 0 
2560398		 # 	collision with: 1 4 5 0 0  and 1 6 5 0 0 
2560400		 # 	collision with: 0 10 0 0 0  and 1 10 0 0 0 
2560402		 # 	collision with: 1 4 10 0 0  and 1 5 10 0 0 
2560417		 # 	collision with: 8 0 0 0 0  and 4 1 0 0 0 
2560419		 # 	collision with: 3 4 0 0 0  and 3 4 1 0 0 
2560420		 # 	collision with: 5 3 0 0 0  and 6 3 0 0 0 
2560422		 # 	collision with: 1 0 3 0 0  and 1 1 3 0 0 
2560457		 # 	collision with: 3 8 0 0 0  and 4 8 0 0 0 
2560459		 # 	collision with: 1 1 0 0 0  and 1 3 1 0 0 
2560480		 # 	collision with: 4 7 0 0 0  and 6 7 0 0 0 
2560482		 # 	collision with: 1 0 7 0 0  and 1 1 7 0 0 
2560496		 # 	collision with: 2 1 0 0 0  and 4 1 0 0 0 
2560498		 # 	collision with: 1 4 1 0 0  and 1 5 1 0 0 
2560525		 # 	collision with: 0 0 0 0 0  and 6 1 0 0 0 
2560527		 # 	collision with: 1 3 0 0 0  and 1 2 1 0 0 
2560547		 # 	collision with: 4 6 0 0 0  and 4 6 1 0 0 
2560558		 # 	collision with: 1 3 9 0 0  and 1 5 9 0 0 
2560581		 # 	collision with: 8 0 0 0 0  and 2 1 0 0 0 
2560583		 # 	collision with: 1 0 10 0 0  and 1 1 10 0 0 
2560616		 # 	collision with: 2 5 0 0 0  and 3 5 0 0 0 
2560618		 # 	collision with: 1 4 5 0 0  and 1 6 5 0 0 
2560625		 # 	collision with: 8 0 0 0 0  and 2 1 0 0 0 
2560627		 # 	collision with: 1 0 10 0 0  and 1 1 10 0 0 
2560632		 # 	collision with: 0 6 0 0 0  and 2 6 0 0 0 
2560634		 # 	collision with: 1 3 6 0 0  and 1 5 6 0 0 
2560692		 # 	collision with: 1 2 0 0 0  and 2 2 0 0 0 
2560694		 # 	collision with: 1 4 2 0 0  and 1 6 2 0 0 
2560705		 # 	collision with: 9 0 0 0 0  and 6 1 0 0 0 
2560707		 # 	collision with: 10 5 0 0 0  and 10 5 1 0 0 
2560725		 # 	collision with: 8 0 0 0 0  and 4 1 0 0 0 
2560727		 # 	collision with: 10 4 0 0 0  and 10 4 1 0 0 
2560752		 # 	collision with: 0 10 0 0 0  and 1 10 0 0 0 
2560754		 # 	collision with: 1 4 10 0 0  and 1 5 10 0 0 
2560768		 # 	collision with: 3 4 0 0 0  and 5 4 0 0 0 
2560770		 # 	collision with: 1 2 4 0 0  and 1 4 4 0 0 
2560793		 # 	collision with: 9 0 0 0 0  and 6 1 0 0 0 
2560795		 # 	collision with: 1 6 0 0 0  and 1 2 1 0 0 
2560828		 # 	collision with: 3 8 0 0 0  and 4 8 0 0 0 
2560833		 # 	collision with: 0 0 0 0 0  and 6 1 0 0 0 
2560835		 # 	collision with: 5 7 0 0 0  and 5 7 1 0 0 
2560850		 # 	collision with: 1 2 0 0 0  and 1 3 0 0 0 
2560854		 # 	collision with: 1 4 0 0 0  and 1 5 0 0 0 
2560858		 # 	collision with: 1 6 0 0 0  and 1 7 0 0 0 
2560862		 # 	collision with: 1 2 0 0 0  and 1 4 0 0 0 
2560866		 # 	collision with: 1 4 0 0 0  and 1 6 0 0 0 
2560870		 # 	collision with: 1 1 0 0 0  and 1 2 0 0 0 
2560874		 # 	collision with: 1 3 0 0 0  and 1 4 0 0 0 
2560878		 # 	collision with: 1 5 0 0 0  and 1 6 0 0 0 
2560882		 # 	collision with: 1 1 0 0 0  and 1 3 0 0 0 
2560886		 # 	collision with: 1 3 0 0 0  and 1 5 0 0 0 
2560897		 # 	collision with: 7 5 0 0 0  and 2 6 0 0 0 
2560899		 # 	collision with: 3 4 5 0 0  and 3 4 6 0 0 
2560900		 # 	collision with: 5 0 0 0 0  and 7 0 0 0 0 
2560933		 # 	collision with: 5 3 0 0 0  and 6 3 0 0 0 
2560935		 # 	collision with: 1 5 3 0 0  and 1 6 3 0 0 
2560956		 # 	collision with: 5 0 0 0 0  and 7 0 0 0 0 
2560997		 # 	collision with: 2 5 0 0 0  and 6 6 0 0 0 
2560999		 # 	collision with: 1 2 1 0 0  and 1 4 1 0 0 
2561012		 # 	collision with: 5 0 0 0 0  and 7 0 0 0 0 
2561024		 # 	collision with: 5 0 0 0 0  and 7 0 0 0 0 
2561057		 # 	collision with: 1 2 0 0 0  and 3 2 0 0 0 
2561059		 # 	collision with: 7 7 5 0 0  and 7 7 6 0 0 
2561080		 # 	collision with: 5 0 0 0 0  and 7 0 0 0 0 
2561089		 # 	collision with: 1 5 0 0 0  and 2 5 0 0 0 
2561091		 # 	collision with: 1 4 4 0 0  and 1 5 4 0 0 
2561129		 # 	collision with: 2 5 0 0 0  and 6 6 0 0 0 
2561131		 # 	collision with: 1 2 1 0 0  and 1 4 1 0 0 
2561136		 # 	collision with: 5 0 0 0 0  and 7 0 0 0 0 
2561161		 # 	collision with: 7 5 0 0 0  and 2 6 0 0 0 
2561163		 # 	collision with: 2 4 5 0 0  and 2 4 6 0 0 
2561192		 # 	collision with: 5 0 0 0 0  and 7 0 0 0 0 
2561204		 # 	collision with: 5 0 0 0 0  and 7 0 0 0 0 
2561221		 # 	collision with: 1 5 0 0 0  and 2 5 0 0 0 
2561223		 # 	collision with: 1 4 4 0 0  and 1 5 4 0 0 
2561241		 # 	collision with: 5 3 0 0 0  and 6 3 0 0 0 
2561243		 # 	collision with: 1 5 3 0 0  and 1 6 3 0 0 
2561260		 # 	collision with: 5 0 0 0 0  and 7 0 0 0 0 
2561316		 # 	collision with: 5 0 0 0 0  and 7 0 0 0 0 
2561321		 # 	collision with: 1 2 0 0 0  and 3 2 0 0 0 
2561323		 # 	collision with: 1 4 5 0 0  and 1 3 6 0 0 
2561328		 # 	collision with: 4 9 3 8 0  and 3 0 0 0 1 
2561330		 # 	collision with: 7 3 0 0 0  and 6 2 0 1 0 
2561332		 # 	collision with: 2 10 0 0 0  and 3 10 0 0 0 
2561334		 # 	collision with: 1 4 10 0 0  and 1 5 10 0 0 
2561336		 # 	collision with: 1 5 0 0 0  and 2 5 0 0 0 
2561338		 # 	collision with: 1 5 5 0 0  and 1 6 5 0 0 
2561340		 # 	collision with: 2 7 0 0 0  and 4 7 0 0 0 
2561342		 # 	collision with: 1 3 7 0 0  and 1 4 7 0 0 
2561344		 # 	collision with: 0 8 0 0 0  and 2 8 0 0 0 
2561346		 # 	collision with: 1 3 8 0 0  and 1 4 8 0 0 
2561348		 # 	collision with: 1 2 0 0 0  and 3 2 0 0 0 
2561350		 # 	collision with: 1 0 2 0 0  and 1 2 2 0 0 
2561352		 # 	collision with: 4 9 0 0 0  and 5 9 0 0 0 
2561354		 # 	collision with: 1 5 9 0 0  and 1 6 9 0 0 
2561356		 # 	collision with: 5 3 0 0 0  and 6 3 0 0 0 
2561358		 # 	collision with: 1 2 3 0 0  and 1 4 3 0 0 
2561360		 # 	collision with: 3 4 0 0 0  and 4 4 0 0 0 
2561362		 # 	collision with: 1 2 4 0 0  and 1 4 4 0 0 
2561364		 # 	collision with: 4 6 0 0 0  and 6 6 0 0 0 
2561366		 # 	collision with: 1 0 6 0 0  and 1 2 6 0 0 
2561368		 # 	collision with: 3 1 0 0 0  and 5 1 0 0 0 
2561381		 # 	collision with: 3 1 0 0 0  and 5 1 0 0 0 
2561384		 # 	collision with: 2 7 0 0 0  and 4 7 0 0 0 
2561386		 # 	collision with: 1 3 7 0 0  and 1 4 7 0 0 
2561417		 # 	collision with: 7 4 0 0 0  and 0 6 0 0 0 
2561419		 # 	collision with: 1 4 6 0 0  and 1 6 6 0 0 
2561440		 # 	collision with: 4 9 0 0 0  and 5 9 0 0 0 
2561442		 # 	collision with: 1 5 9 0 0  and 1 6 9 0 0 
2561481		 # 	collision with: 4 9 0 0 0  and 5 9 0 0 0 
2561483		 # 	collision with: 1 4 0 0 0  and 1 6 0 0 0 
2561496		 # 	collision with: 4 6 0 0 0  and 6 6 0 0 0 
2561498		 # 	collision with: 1 0 6 0 0  and 1 2 6 0 0 
2561508		 # 	collision with: 2 10 0 0 0  and 3 10 0 0 0 
2561510		 # 	collision with: 1 4 10 0 0  and 1 5 10 0 0 
2561541		 # 	collision with: 3 4 0 0 0  and 4 4 0 0 0 
2561543		 # 	collision with: 6 3 4 0 0  and 6 3 6 0 0 
2561564		 # 	collision with: 0 8 0 0 0  and 2 8 0 0 0 
2561566		 # 	collision with: 1 3 8 0 0  and 1 4 8 0 0 
2561573		 # 	collision with: 2 10 0 0 0  and 3 10 0 0 0 
2561575		 # 	collision with: 4 10 4 0 0  and 4 10 6 0 0 
2561613		 # 	collision with: 4 9 0 0 0  and 5 9 0 0 0 
2561615		 # 	collision with: 1 4 0 0 0  and 1 6 0 0 0 
2561620		 # 	collision with: 5 3 0 0 0  and 6 3 0 0 0 
2561622		 # 	collision with: 1 2 3 0 0  and 1 4 3 0 0 
2561647		 # 	collision with: 1 5 5 0 0  and 1 6 5 0 0 
2561678		 # 	collision with: 1 1 1 0 0  and 1 3 1 0 0 
2561688		 # 	collision with: 1 5 0 0 0  and 2 5 0 0 0 
2561690		 # 	collision with: 1 5 5 0 0  and 1 6 5 0 0 
2561705		 # 	collision with: 2 10 0 0 0  and 3 10 0 0 0 
2561707		 # 	collision with: 1 0 4 0 0  and 1 3 6 0 0 
2561725		 # 	collision with: 7 4 0 0 0  and 0 6 0 0 0 
2561727		 # 	collision with: 1 6 4 0 0  and 1 5 6 0 0 
2561744		 # 	collision with: 1 2 0 0 0  and 3 2 0 0 0 
2561746		 # 	collision with: 1 0 2 0 0  and 1 2 2 0 0 
2561800		 # 	collision with: 3 4 0 0 0  and 4 4 0 0 0 
2561802		 # 	collision with: 1 2 4 0 0  and 1 4 4 0 0 
2561805		 # 	collision with: 3 4 0 0 0  and 4 4 0 0 0 
2561807		 # 	collision with: 9 3 4 0 0  and 9 3 6 0 0 
2561812		 # 	collision with: 4 3 1 6 0  and 10 0 0 0 1 
2561814		 # 	collision with: 9 3 0 0 0  and 7 8 0 1 0 
2561816		 # 	collision with: 4 9 0 0 0  and 5 9 0 0 0 
2561818		 # 	collision with: 1 0 9 0 0  and 1 2 9 0 0 
2561820		 # 	collision with: 2 10 0 0 0  and 3 10 0 0 0 
2561822		 # 	collision with: 1 0 10 0 0  and 1 2 10 0 0 
2561824		 # 	collision with: 5 3 0 0 0  and 6 3 0 0 0 
2561826		 # 	collision with: 1 0 3 0 0  and 1 1 3 0 0 
2561828		 # 	collision with: 1 5 0 0 0  and 2 5 0 0 0 
2561830		 # 	collision with: 1 3 5 0 0  and 1 5 5 0 0 
2561832		 # 	collision with: 3 4 0 0 0  and 4 4 0 0 0 
2561834		 # 	collision with: 1 2 4 0 0  and 1 3 4 0 0 
2561836		 # 	collision with: 2 7 0 0 0  and 4 7 0 0 0 
2561838		 # 	collision with: 1 3 7 0 0  and 1 5 7 0 0 
2561840		 # 	collision with: 4 6 0 0 0  and 6 6 0 0 0 
2561842		 # 	collision with: 1 2 6 0 0  and 1 3 6 0 0 
2561844		 # 	collision with: 0 8 0 0 0  and 2 8 0 0 0 
2561846		 # 	collision with: 1 0 8 0 0  and 1 1 8 0 0 
2561848		 # 	collision with: 3 1 0 0 0  and 5 1 0 0 0 
2561852		 # 	collision with: 1 2 0 0 0  and 3 2 0 0 0 
2561854		 # 	collision with: 1 5 2 0 0  and 1 6 2 0 0 
2561865		 # 	collision with: 7 4 0 0 0  and 0 5 0 0 0 
2561867		 # 	collision with: 1 4 0 0 0  and 1 5 0 0 0 
2561868		 # 	collision with: 5 3 0 0 0  and 6 3 0 0 0 
2561870		 # 	collision with: 1 0 3 0 0  and 1 1 3 0 0 
2561901		 # 	collision with: 4 9 0 0 0  and 5 9 0 0 0 
2561903		 # 	collision with: 1 4 4 0 0  and 1 3 5 0 0 
2561924		 # 	collision with: 2 7 0 0 0  and 4 7 0 0 0 
2561926		 # 	collision with: 1 3 7 0 0  and 1 5 7 0 0 
2561967		 # 	collision with: 1 1 4 0 0  and 1 4 5 0 0 
2561982		 # 	collision with: 1 5 1 0 0  and 1 6 1 0 0 
2561992		 # 	collision with: 4 9 0 0 0  and 5 9 0 0 0 
2561994		 # 	collision with: 1 0 9 0 0  and 1 2 9 0 0 
118.872secs	46257
