# prime 11
# degree 2
# input variables 3
# output variables 5
# reload computed balance functions from file balance-96of3248-p11d2m3-debug.log
# p = 11
# n = 5
# smalldomain p^m 1331
# domain p^n 161051
#	 p^2 = 121
#	 p^3 = 1331
#	 p^4 = 14641
#	 p^5 = 161051
#	 p^6 = 1771561
#	 p^7 = 19487171
#	 p^8 = 214358881
#	 p^9 = 2357947691
opening file : balance-96of3248-p11d2m3-debug.log
reloading for step2...
576000		 # 	collision with: 4 2 0 0 0  and 5 2 0 0 0 
576002		 # 	collision with: 6 2 2 0 0  and 6 4 2 0 0 
576008		 # 	collision with: 0 9 0 0 0  and 2 9 0 0 0 
576010		 # 	collision with: 6 2 9 0 0  and 6 3 9 0 0 
576045		 # 	collision with: 4 1 0 0 0  and 6 1 0 0 0 
576047		 # 	collision with: 6 1 5 0 0  and 6 2 5 0 0 
576053		 # 	collision with: 9 4 0 0 0  and 7 5 0 0 0 
576055		 # 	collision with: 1 7 4 0 0  and 1 7 5 0 0 
576056		 # 	collision with: 0 10 0 0 0  and 1 10 0 0 0 
576058		 # 	collision with: 6 3 10 0 0  and 6 4 10 0 0 
576104		 # 	collision with: 3 3 0 0 0  and 5 3 0 0 0 
576106		 # 	collision with: 6 2 3 0 0  and 6 4 3 0 0 
576117		 # 	collision with: 3 4 0 0 0  and 4 4 0 0 0 
576119		 # 	collision with: 9 3 4 0 0  and 9 3 5 0 0 
576152		 # 	collision with: 2 5 0 0 0  and 4 5 0 0 0 
576173		 # 	collision with: 1 8 0 0 0  and 2 8 0 0 0 
576175		 # 	collision with: 9 2 4 0 0  and 9 2 5 0 0 
576200		 # 	collision with: 3 4 0 0 0  and 4 4 0 0 0 
576202		 # 	collision with: 6 5 4 0 0  and 6 6 4 0 0 
576217		 # 	collision with: 1 8 0 0 0  and 2 8 0 0 0 
576219		 # 	collision with: 5 2 4 0 0  and 5 2 5 0 0 
576233		 # 	collision with: 0 9 0 0 0  and 2 9 0 0 0 
576235		 # 	collision with: 6 1 3 0 0  and 6 2 3 0 0 
576248		 # 	collision with: 1 7 0 0 0  and 3 7 0 0 0 
576250		 # 	collision with: 6 5 7 0 0  and 6 6 7 0 0 
576277		 # 	collision with: 0 9 0 0 0  and 2 9 0 0 0 
576279		 # 	collision with: 6 1 3 0 0  and 6 2 3 0 0 
576296		 # 	collision with: 2 6 0 0 0  and 3 6 0 0 0 
576298		 # 	collision with: 6 1 6 0 0  and 6 3 6 0 0 
576333		 # 	collision with: 2 5 0 0 0  and 4 5 0 0 0 
576335		 # 	collision with: 6 5 4 0 0  and 6 6 4 0 0 
576344		 # 	collision with: 1 8 0 0 0  and 2 8 0 0 0 
576346		 # 	collision with: 6 2 8 0 0  and 6 3 8 0 0 
576392		 # 	collision with: 4 1 0 0 0  and 6 1 0 0 0 
576394		 # 	collision with: 6 1 1 0 0  and 6 3 1 0 0 
576397		 # 	collision with: 4 1 0 0 0  and 6 1 0 0 0 
576399		 # 	collision with: 6 1 5 0 0  and 6 2 5 0 0 
576405		 # 	collision with: 9 4 0 0 0  and 7 5 0 0 0 
576407		 # 	collision with: 6 3 4 0 0  and 6 6 5 0 0 
576440		 # 	collision with: 4 2 0 0 0  and 5 2 0 0 0 
576442		 # 	collision with: 6 2 2 0 0  and 6 4 2 0 0 
576444		 # 	collision with: 7 3 6 3 0  and 0 0 0 0 1 
576446		 # 	collision with: 9 7 3 0 0  and 6 8 0 1 0 
576448		 # 	collision with: 1 8 0 0 0  and 2 8 0 0 0 
576450		 # 	collision with: 6 2 8 0 0  and 6 4 8 0 0 
576452		 # 	collision with: 3 4 0 0 0  and 4 4 0 0 0 
576454		 # 	collision with: 6 0 4 0 0  and 6 2 4 0 0 
576456		 # 	collision with: 0 10 0 0 0  and 1 10 0 0 0 
576458		 # 	collision with: 6 4 10 0 0  and 6 6 10 0 0 
576460		 # 	collision with: 4 2 0 0 0  and 5 2 0 0 0 
576462		 # 	collision with: 6 4 2 0 0  and 6 6 2 0 0 
576464		 # 	collision with: 2 6 0 0 0  and 3 6 0 0 0 
576468		 # 	collision with: 2 5 0 0 0  and 4 5 0 0 0 
576470		 # 	collision with: 6 0 5 0 0  and 6 2 5 0 0 
576472		 # 	collision with: 0 9 0 0 0  and 2 9 0 0 0 
576474		 # 	collision with: 6 0 9 0 0  and 6 1 9 0 0 
576476		 # 	collision with: 4 1 0 0 0  and 6 1 0 0 0 
576478		 # 	collision with: 6 0 1 0 0  and 6 1 1 0 0 
576480		 # 	collision with: 1 7 0 0 0  and 3 7 0 0 0 
576482		 # 	collision with: 6 4 7 0 0  and 6 5 7 0 0 
576484		 # 	collision with: 3 3 0 0 0  and 5 3 0 0 0 
576486		 # 	collision with: 6 2 3 0 0  and 6 3 3 0 0 
576492		 # 	collision with: 1 8 0 0 0  and 2 8 0 0 0 
576494		 # 	collision with: 6 2 8 0 0  and 6 4 8 0 0 
576529		 # 	collision with: 4 3 0 0 0  and 5 5 0 0 0 
576531		 # 	collision with: 6 3 0 0 0  and 6 5 0 0 0 
576537		 # 	collision with: 3 3 0 0 0  and 10 5 0 0 0 
576539		 # 	collision with: 6 0 3 0 0  and 6 5 5 0 0 
576540		 # 	collision with: 3 4 0 0 0  and 4 4 0 0 0 
576542		 # 	collision with: 6 0 4 0 0  and 6 2 4 0 0 
576588		 # 	collision with: 0 10 0 0 0  and 1 10 0 0 0 
576590		 # 	collision with: 6 4 10 0 0  and 6 6 10 0 0 
576601		 # 	collision with: 8 3 0 0 0  and 0 5 0 0 0 
576603		 # 	collision with: 10 10 3 0 0  and 10 10 5 0 0 
576636		 # 	collision with: 4 2 0 0 0  and 5 2 0 0 0 
576638		 # 	collision with: 6 4 2 0 0  and 6 6 2 0 0 
576657		 # 	collision with: 4 1 0 0 0  and 6 1 0 0 0 
576659		 # 	collision with: 4 3 3 0 0  and 4 3 5 0 0 
576684		 # 	collision with: 2 6 0 0 0  and 3 6 0 0 0 
576686		 # 	collision with: 6 4 6 0 0  and 6 5 6 0 0 
576701		 # 	collision with: 4 1 0 0 0  and 6 1 0 0 0 
576703		 # 	collision with: 1 3 3 0 0  and 1 3 5 0 0 
576717		 # 	collision with: 1 8 0 0 0  and 2 8 0 0 0 
576719		 # 	collision with: 6 1 2 0 0  and 6 3 2 0 0 
576732		 # 	collision with: 2 5 0 0 0  and 4 5 0 0 0 
576761		 # 	collision with: 1 8 0 0 0  and 2 8 0 0 0 
576763		 # 	collision with: 6 1 2 0 0  and 6 3 2 0 0 
576780		 # 	collision with: 0 9 0 0 0  and 2 9 0 0 0 
576782		 # 	collision with: 6 0 9 0 0  and 6 1 9 0 0 
576817		 # 	collision with: 4 2 0 0 0  and 5 2 0 0 0 
576819		 # 	collision with: 6 1 1 0 0  and 6 2 1 0 0 
576828		 # 	collision with: 4 1 0 0 0  and 6 1 0 0 0 
576830		 # 	collision with: 6 0 1 0 0  and 6 1 1 0 0 
576876		 # 	collision with: 1 7 0 0 0  and 3 7 0 0 0 
576878		 # 	collision with: 6 4 7 0 0  and 6 5 7 0 0 
576881		 # 	collision with: 4 3 0 0 0  and 5 5 0 0 0 
576883		 # 	collision with: 6 3 0 0 0  and 6 5 0 0 0 
576889		 # 	collision with: 3 3 0 0 0  and 10 5 0 0 0 
576891		 # 	collision with: 2 5 3 0 0  and 2 5 5 0 0 
576924		 # 	collision with: 3 3 0 0 0  and 5 3 0 0 0 
576926		 # 	collision with: 6 2 3 0 0  and 6 3 3 0 0 
576928		 # 	collision with: 6 5 6 10 0  and 1 1 0 0 1 
576930		 # 	collision with: 6 2 5 0 0  and 2 3 0 1 0 
576932		 # 	collision with: 1 7 0 0 0  and 3 7 0 0 0 
576934		 # 	collision with: 6 3 7 0 0  and 6 4 7 0 0 
576936		 # 	collision with: 0 9 0 0 0  and 2 9 0 0 0 
576938		 # 	collision with: 6 3 9 0 0  and 6 5 9 0 0 
576940		 # 	collision with: 2 6 0 0 0  and 3 6 0 0 0 
576944		 # 	collision with: 0 10 0 0 0  and 1 10 0 0 0 
576946		 # 	collision with: 6 0 10 0 0  and 6 2 10 0 0 
576948		 # 	collision with: 1 8 0 0 0  and 2 8 0 0 0 
576950		 # 	collision with: 6 3 8 0 0  and 6 4 8 0 0 
576952		 # 	collision with: 3 3 0 0 0  and 5 3 0 0 0 
576954		 # 	collision with: 6 1 3 0 0  and 6 3 3 0 0 
576956		 # 	collision with: 4 1 0 0 0  and 6 1 0 0 0 
576958		 # 	collision with: 6 4 1 0 0  and 6 5 1 0 0 
576960		 # 	collision with: 2 5 0 0 0  and 4 5 0 0 0 
576962		 # 	collision with: 6 3 5 0 0  and 6 5 5 0 0 
576964		 # 	collision with: 4 2 0 0 0  and 5 2 0 0 0 
576966		 # 	collision with: 6 1 2 0 0  and 6 2 2 0 0 
576968		 # 	collision with: 3 4 0 0 0  and 4 4 0 0 0 
576970		 # 	collision with: 6 1 4 0 0  and 6 3 4 0 0 
576976		 # 	collision with: 1 7 0 0 0  and 3 7 0 0 0 
576978		 # 	collision with: 6 3 7 0 0  and 6 4 7 0 0 
577013		 # 	collision with: 4 2 0 0 0  and 5 2 0 0 0 
577015		 # 	collision with: 4 8 3 0 0  and 4 8 4 0 0 
577021		 # 	collision with: 6 3 0 0 0  and 4 4 0 0 0 
577023		 # 	collision with: 8 3 3 0 0  and 8 3 4 0 0 
577024		 # 	collision with: 0 9 0 0 0  and 2 9 0 0 0 
577026		 # 	collision with: 6 3 9 0 0  and 6 5 9 0 0 
577072		 # 	collision with: 2 6 0 0 0  and 3 6 0 0 0 
577074		 # 	collision with: 6 1 6 0 0  and 6 2 6 0 0 
577085		 # 	collision with: 2 3 0 0 0  and 4 4 0 0 0 
577087		 # 	collision with: 6 3 0 0 0  and 6 4 0 0 0 
577120		 # 	collision with: 0 10 0 0 0  and 1 10 0 0 0 
577122		 # 	collision with: 6 0 10 0 0  and 6 2 10 0 0 
577141		 # 	collision with: 2 5 0 0 0  and 4 5 0 0 0 
577143		 # 	collision with: 6 0 3 0 0  and 6 2 3 0 0 
577168		 # 	collision with: 1 8 0 0 0  and 2 8 0 0 0 
577170		 # 	collision with: 6 3 8 0 0  and 6 4 8 0 0 
577185		 # 	collision with: 2 5 0 0 0  and 4 5 0 0 0 
577187		 # 	collision with: 6 0 3 0 0  and 6 2 3 0 0 
577201		 # 	collision with: 1 7 0 0 0  and 3 7 0 0 0 
577203		 # 	collision with: 6 2 1 0 0  and 6 3 1 0 0 
577216		 # 	collision with: 3 3 0 0 0  and 5 3 0 0 0 
577218		 # 	collision with: 6 1 3 0 0  and 6 3 3 0 0 
577245		 # 	collision with: 1 7 0 0 0  and 3 7 0 0 0 
577247		 # 	collision with: 6 2 1 0 0  and 6 3 1 0 0 
577264		 # 	collision with: 4 1 0 0 0  and 6 1 0 0 0 
577266		 # 	collision with: 6 4 1 0 0  and 6 5 1 0 0 
577301		 # 	collision with: 0 10 0 0 0  and 1 10 0 0 0 
577303		 # 	collision with: 6 9 3 0 0  and 6 5 4 0 0 
577312		 # 	collision with: 2 5 0 0 0  and 4 5 0 0 0 
577360		 # 	collision with: 4 2 0 0 0  and 5 2 0 0 0 
577362		 # 	collision with: 6 1 2 0 0  and 6 2 2 0 0 
577365		 # 	collision with: 4 2 0 0 0  and 5 2 0 0 0 
577373		 # 	collision with: 6 3 0 0 0  and 4 4 0 0 0 
577408		 # 	collision with: 3 4 0 0 0  and 4 4 0 0 0 
577410		 # 	collision with: 6 1 4 0 0  and 6 3 4 0 0 
577412		 # 	collision with: 2 4 6 9 0  and 4 1 0 0 1 
577414		 # 	collision with: 0 5 4 0 0  and 6 5 0 1 0 
577416		 # 	collision with: 2 6 0 0 0  and 3 6 0 0 0 
577420		 # 	collision with: 3 3 0 0 0  and 5 3 0 0 0 
577422		 # 	collision with: 6 1 3 0 0  and 6 2 3 0 0 
577424		 # 	collision with: 4 2 0 0 0  and 5 2 0 0 0 
577426		 # 	collision with: 6 3 2 0 0  and 6 4 2 0 0 
577428		 # 	collision with: 1 7 0 0 0  and 3 7 0 0 0 
577430		 # 	collision with: 6 2 7 0 0  and 6 3 7 0 0 
577432		 # 	collision with: 0 10 0 0 0  and 1 10 0 0 0 
577434		 # 	collision with: 6 2 10 0 0  and 6 3 10 0 0 
577436		 # 	collision with: 4 1 0 0 0  and 6 1 0 0 0 
577438		 # 	collision with: 6 2 1 0 0  and 6 4 1 0 0 
577440		 # 	collision with: 3 4 0 0 0  and 4 4 0 0 0 
577442		 # 	collision with: 6 2 4 0 0  and 6 4 4 0 0 
577444		 # 	collision with: 0 9 0 0 0  and 2 9 0 0 0 
577446		 # 	collision with: 6 1 9 0 0  and 6 3 9 0 0 
577448		 # 	collision with: 1 8 0 0 0  and 2 8 0 0 0 
577450		 # 	collision with: 6 3 8 0 0  and 6 5 8 0 0 
577452		 # 	collision with: 2 5 0 0 0  and 4 5 0 0 0 
577454		 # 	collision with: 6 1 5 0 0  and 6 2 5 0 0 
577460		 # 	collision with: 2 6 0 0 0  and 3 6 0 0 0 
577462		 # 	collision with: 6 3 6 0 0  and 6 5 6 0 0 
577497		 # 	collision with: 9 2 0 0 0  and 0 4 0 0 0 
577499		 # 	collision with: 6 3 1 0 0  and 6 4 1 0 0 
577505		 # 	collision with: 0 2 0 0 0  and 7 4 0 0 0 
577507		 # 	collision with: 6 1 2 0 0  and 6 1 4 0 0 
577508		 # 	collision with: 3 3 0 0 0  and 5 3 0 0 0 
577510		 # 	collision with: 6 1 3 0 0  and 6 2 3 0 0 
577556		 # 	collision with: 4 2 0 0 0  and 5 2 0 0 0 
577558		 # 	collision with: 6 3 2 0 0  and 6 4 2 0 0 
577569		 # 	collision with: 10 2 0 0 0  and 3 4 0 0 0 
577571		 # 	collision with: 6 2 2 0 0  and 6 3 2 0 0 
577604		 # 	collision with: 1 7 0 0 0  and 3 7 0 0 0 
577606		 # 	collision with: 6 2 7 0 0  and 6 3 7 0 0 
577625		 # 	collision with: 0 9 0 0 0  and 2 9 0 0 0 
577652		 # 	collision with: 0 10 0 0 0  and 1 10 0 0 0 
577654		 # 	collision with: 6 2 10 0 0  and 6 3 10 0 0 
577669		 # 	collision with: 0 9 0 0 0  and 2 9 0 0 0 
577671		 # 	collision with: 4 5 2 0 0  and 4 5 4 0 0 
577685		 # 	collision with: 2 6 0 0 0  and 3 6 0 0 0 
577700		 # 	collision with: 4 1 0 0 0  and 6 1 0 0 0 
577702		 # 	collision with: 6 2 1 0 0  and 6 4 1 0 0 
577729		 # 	collision with: 2 6 0 0 0  and 3 6 0 0 0 
577731		 # 	collision with: 6 2 0 0 0  and 6 4 0 0 0 
577748		 # 	collision with: 3 4 0 0 0  and 4 4 0 0 0 
577750		 # 	collision with: 6 2 4 0 0  and 6 4 4 0 0 
577785		 # 	collision with: 1 7 0 0 0  and 3 7 0 0 0 
577787		 # 	collision with: 9 9 2 0 0  and 9 9 4 0 0 
577796		 # 	collision with: 0 9 0 0 0  and 2 9 0 0 0 
577798		 # 	collision with: 6 1 9 0 0  and 6 3 9 0 0 
577844		 # 	collision with: 1 8 0 0 0  and 2 8 0 0 0 
577846		 # 	collision with: 6 3 8 0 0  and 6 5 8 0 0 
577849		 # 	collision with: 9 2 0 0 0  and 0 4 0 0 0 
577851		 # 	collision with: 6 3 1 0 0  and 6 4 1 0 0 
577857		 # 	collision with: 0 2 0 0 0  and 7 4 0 0 0 
577859		 # 	collision with: 10 1 2 0 0  and 10 1 4 0 0 
577892		 # 	collision with: 2 5 0 0 0  and 4 5 0 0 0 
577896		 # 	collision with: 10 4 9 7 0  and 0 0 0 0 1 
577898		 # 	collision with: 5 7 7 0 0  and 10 7 0 1 0 
577900		 # 	collision with: 2 5 0 0 0  and 4 5 0 0 0 
577902		 # 	collision with: 6 4 5 0 0  and 6 5 5 0 0 
577904		 # 	collision with: 1 8 0 0 0  and 2 8 0 0 0 
577906		 # 	collision with: 6 4 8 0 0  and 6 5 8 0 0 
577908		 # 	collision with: 0 9 0 0 0  and 2 9 0 0 0 
577910		 # 	collision with: 6 5 9 0 0  and 6 6 9 0 0 
577912		 # 	collision with: 3 4 0 0 0  and 4 4 0 0 0 
577914		 # 	collision with: 6 3 4 0 0  and 6 5 4 0 0 
577916		 # 	collision with: 4 1 0 0 0  and 6 1 0 0 0 
577918		 # 	collision with: 6 1 1 0 0  and 6 2 1 0 0 
577920		 # 	collision with: 0 10 0 0 0  and 1 10 0 0 0 
577922		 # 	collision with: 6 3 10 0 0  and 6 5 10 0 0 
577924		 # 	collision with: 1 7 0 0 0  and 3 7 0 0 0 
577926		 # 	collision with: 6 1 7 0 0  and 6 2 7 0 0 
577928		 # 	collision with: 4 2 0 0 0  and 5 2 0 0 0 
577930		 # 	collision with: 6 5 2 0 0  and 6 6 2 0 0 
577932		 # 	collision with: 3 3 0 0 0  and 5 3 0 0 0 
577934		 # 	collision with: 6 0 3 0 0  and 6 2 3 0 0 
577936		 # 	collision with: 2 6 0 0 0  and 3 6 0 0 0 
577944		 # 	collision with: 2 5 0 0 0  and 4 5 0 0 0 
577981		 # 	collision with: 6 2 0 0 0  and 1 3 0 0 0 
577983		 # 	collision with: 1 1 2 0 0  and 1 1 3 0 0 
577989		 # 	collision with: 3 2 0 0 0  and 1 3 0 0 0 
577991		 # 	collision with: 6 0 2 0 0  and 6 1 3 0 0 
577992		 # 	collision with: 1 8 0 0 0  and 2 8 0 0 0 
577994		 # 	collision with: 6 4 8 0 0  and 6 5 8 0 0 
578040		 # 	collision with: 0 9 0 0 0  and 2 9 0 0 0 
578042		 # 	collision with: 6 5 9 0 0  and 6 6 9 0 0 
578053		 # 	collision with: 4 1 0 0 0  and 6 1 0 0 0 
578055		 # 	collision with: 2 9 2 0 0  and 2 9 3 0 0 
578088		 # 	collision with: 3 4 0 0 0  and 4 4 0 0 0 
578090		 # 	collision with: 6 3 4 0 0  and 6 5 4 0 0 
578109		 # 	collision with: 4 2 0 0 0  and 5 2 0 0 0 
578111		 # 	collision with: 6 2 0 0 0  and 6 3 0 0 0 
578136		 # 	collision with: 4 1 0 0 0  and 6 1 0 0 0 
578138		 # 	collision with: 6 1 1 0 0  and 6 2 1 0 0 
578153		 # 	collision with: 4 2 0 0 0  and 5 2 0 0 0 
578169		 # 	collision with: 2 5 0 0 0  and 4 5 0 0 0 
578171		 # 	collision with: 7 5 2 0 0  and 7 5 3 0 0 
578184		 # 	collision with: 0 10 0 0 0  and 1 10 0 0 0 
578186		 # 	collision with: 6 3 10 0 0  and 6 5 10 0 0 
578213		 # 	collision with: 2 5 0 0 0  and 4 5 0 0 0 
578232		 # 	collision with: 1 7 0 0 0  and 3 7 0 0 0 
578234		 # 	collision with: 6 1 7 0 0  and 6 2 7 0 0 
578269		 # 	collision with: 3 4 0 0 0  and 4 4 0 0 0 
578271		 # 	collision with: 6 0 3 0 0  and 6 1 3 0 0 
578280		 # 	collision with: 4 2 0 0 0  and 5 2 0 0 0 
578282		 # 	collision with: 6 5 2 0 0  and 6 6 2 0 0 
578328		 # 	collision with: 3 3 0 0 0  and 5 3 0 0 0 
578330		 # 	collision with: 6 0 3 0 0  and 6 2 3 0 0 
578333		 # 	collision with: 6 2 0 0 0  and 1 3 0 0 0 
578335		 # 	collision with: 5 1 2 0 0  and 5 1 3 0 0 
578341		 # 	collision with: 3 2 0 0 0  and 1 3 0 0 0 
578343		 # 	collision with: 6 2 2 0 0  and 6 4 3 0 0 
578376		 # 	collision with: 2 6 0 0 0  and 3 6 0 0 0 
578378		 # 	collision with: 6 0 6 0 0  and 6 2 6 0 0 
578380		 # 	collision with: 5 2 4 6 0  and 0 0 0 0 1 
578382		 # 	collision with: 6 7 6 0 0  and 10 6 0 1 0 
578384		 # 	collision with: 3 4 0 0 0  and 4 4 0 0 0 
578386		 # 	collision with: 6 4 4 0 0  and 6 6 4 0 0 
578388		 # 	collision with: 4 2 0 0 0  and 5 2 0 0 0 
578390		 # 	collision with: 6 1 2 0 0  and 6 3 2 0 0 
578392		 # 	collision with: 2 5 0 0 0  and 4 5 0 0 0 
578394		 # 	collision with: 6 1 5 0 0  and 6 3 5 0 0 
578396		 # 	collision with: 4 1 0 0 0  and 6 1 0 0 0 
578398		 # 	collision with: 6 5 1 0 0  and 6 6 1 0 0 
578400		 # 	collision with: 3 3 0 0 0  and 5 3 0 0 0 
578402		 # 	collision with: 6 0 3 0 0  and 6 1 3 0 0 
578404		 # 	collision with: 1 8 0 0 0  and 2 8 0 0 0 
578406		 # 	collision with: 6 4 8 0 0  and 6 6 8 0 0 
578408		 # 	collision with: 0 10 0 0 0  and 1 10 0 0 0 
578410		 # 	collision with: 6 5 10 0 0  and 6 6 10 0 0 
578412		 # 	collision with: 2 6 0 0 0  and 3 6 0 0 0 
578416		 # 	collision with: 0 9 0 0 0  and 2 9 0 0 0 
578418		 # 	collision with: 6 3 9 0 0  and 6 4 9 0 0 
578420		 # 	collision with: 1 7 0 0 0  and 3 7 0 0 0 
578422		 # 	collision with: 6 0 7 0 0  and 6 1 7 0 0 
578428		 # 	collision with: 3 4 0 0 0  and 4 4 0 0 0 
578430		 # 	collision with: 6 4 4 0 0  and 6 6 4 0 0 
578465		 # 	collision with: 10 1 0 0 0  and 0 3 0 0 0 
578473		 # 	collision with: 8 1 0 0 0  and 4 3 0 0 0 
578476		 # 	collision with: 4 2 0 0 0  and 5 2 0 0 0 
578478		 # 	collision with: 6 1 2 0 0  and 6 3 2 0 0 
578524		 # 	collision with: 2 5 0 0 0  and 4 5 0 0 0 
578537		 # 	collision with: 3 3 0 0 0  and 5 3 0 0 0 
578539		 # 	collision with: 3 5 1 0 0  and 3 5 3 0 0 
578572		 # 	collision with: 4 1 0 0 0  and 6 1 0 0 0 
578574		 # 	collision with: 6 5 1 0 0  and 6 6 1 0 0 
578593		 # 	collision with: 2 6 0 0 0  and 3 6 0 0 0 
578595		 # 	collision with: 6 1 1 0 0  and 6 0 3 0 0 
578620		 # 	collision with: 3 3 0 0 0  and 5 3 0 0 0 
578622		 # 	collision with: 6 0 3 0 0  and 6 1 3 0 0 
578637		 # 	collision with: 2 6 0 0 0  and 3 6 0 0 0 
578639		 # 	collision with: 6 10 1 0 0  and 6 3 3 0 0 
578653		 # 	collision with: 3 4 0 0 0  and 4 4 0 0 0 
578655		 # 	collision with: 6 3 1 0 0  and 6 2 3 0 0 
578668		 # 	collision with: 1 8 0 0 0  and 2 8 0 0 0 
578670		 # 	collision with: 6 4 8 0 0  and 6 6 8 0 0 
578697		 # 	collision with: 3 4 0 0 0  and 4 4 0 0 0 
578699		 # 	collision with: 1 4 1 0 0  and 1 4 3 0 0 
578716		 # 	collision with: 0 10 0 0 0  and 1 10 0 0 0 
578718		 # 	collision with: 6 5 10 0 0  and 6 6 10 0 0 
578753		 # 	collision with: 4 1 0 0 0  and 6 1 0 0 0 
578755		 # 	collision with: 6 1 0 0 0  and 6 3 0 0 0 
578764		 # 	collision with: 2 6 0 0 0  and 3 6 0 0 0 
578766		 # 	collision with: 6 3 6 0 0  and 6 4 6 0 0 
578812		 # 	collision with: 0 9 0 0 0  and 2 9 0 0 0 
578814		 # 	collision with: 6 3 9 0 0  and 6 4 9 0 0 
578817		 # 	collision with: 10 1 0 0 0  and 0 3 0 0 0 
578819		 # 	collision with: 6 2 2 0 0  and 6 4 2 0 0 
578825		 # 	collision with: 8 1 0 0 0  and 4 3 0 0 0 
578827		 # 	collision with: 6 4 1 0 0  and 6 5 3 0 0 
578860		 # 	collision with: 1 7 0 0 0  and 3 7 0 0 0 
578862		 # 	collision with: 6 0 7 0 0  and 6 1 7 0 0 
578864		 # 	collision with: 10 10 1 2 0  and 2 1 0 0 1 
578866		 # 	collision with: 0 7 8 0 0  and 3 6 0 1 0 
578868		 # 	collision with: 3 3 0 0 0  and 5 3 0 0 0 
578870		 # 	collision with: 6 5 3 0 0  and 6 6 3 0 0 
578872		 # 	collision with: 1 7 0 0 0  and 3 7 0 0 0 
578874		 # 	collision with: 6 4 7 0 0  and 6 6 7 0 0 
578876		 # 	collision with: 4 1 0 0 0  and 6 1 0 0 0 
578878		 # 	collision with: 6 3 1 0 0  and 6 5 1 0 0 
578880		 # 	collision with: 0 9 0 0 0  and 2 9 0 0 0 
578882		 # 	collision with: 6 1 9 0 0  and 6 2 9 0 0 
578884		 # 	collision with: 2 5 0 0 0  and 4 5 0 0 0 
578886		 # 	collision with: 6 4 5 0 0  and 6 6 5 0 0 
578888		 # 	collision with: 2 6 0 0 0  and 3 6 0 0 0 
578892		 # 	collision with: 4 2 0 0 0  and 5 2 0 0 0 
578894		 # 	collision with: 6 3 2 0 0  and 6 5 2 0 0 
578896		 # 	collision with: 0 10 0 0 0  and 1 10 0 0 0 
578898		 # 	collision with: 6 1 10 0 0  and 6 2 10 0 0 
578900		 # 	collision with: 3 4 0 0 0  and 4 4 0 0 0 
578902		 # 	collision with: 6 0 4 0 0  and 6 1 4 0 0 
578904		 # 	collision with: 1 8 0 0 0  and 2 8 0 0 0 
578906		 # 	collision with: 6 5 8 0 0  and 6 6 8 0 0 
578912		 # 	collision with: 3 3 0 0 0  and 5 3 0 0 0 
578914		 # 	collision with: 6 5 3 0 0  and 6 6 3 0 0 
578949		 # 	collision with: 10 1 0 0 0  and 0 2 0 0 0 
578951		 # 	collision with: 6 6 1 0 0  and 6 4 2 0 0 
578957		 # 	collision with: 0 1 0 0 0  and 9 2 0 0 0 
578959		 # 	collision with: 6 1 0 0 0  and 6 2 0 0 0 
578960		 # 	collision with: 1 7 0 0 0  and 3 7 0 0 0 
578962		 # 	collision with: 6 4 7 0 0  and 6 6 7 0 0 
579008		 # 	collision with: 4 1 0 0 0  and 6 1 0 0 0 
579010		 # 	collision with: 6 3 1 0 0  and 6 5 1 0 0 
579021		 # 	collision with: 9 1 0 0 0  and 5 2 0 0 0 
579023		 # 	collision with: 4 1 1 0 0  and 4 1 2 0 0 
579056		 # 	collision with: 0 9 0 0 0  and 2 9 0 0 0 
579058		 # 	collision with: 6 1 9 0 0  and 6 2 9 0 0 
579077		 # 	collision with: 0 10 0 0 0  and 1 10 0 0 0 
579079		 # 	collision with: 1 8 1 0 0  and 1 8 2 0 0 
579104		 # 	collision with: 2 5 0 0 0  and 4 5 0 0 0 
579121		 # 	collision with: 0 10 0 0 0  and 1 10 0 0 0 
579123		 # 	collision with: 6 2 1 0 0  and 6 7 2 0 0 
579137		 # 	collision with: 3 3 0 0 0  and 5 3 0 0 0 
579139		 # 	collision with: 10 3 1 0 0  and 10 3 2 0 0 
579152		 # 	collision with: 2 6 0 0 0  and 3 6 0 0 0 
579154		 # 	collision with: 6 0 6 0 0  and 6 1 6 0 0 
579181		 # 	collision with: 3 3 0 0 0  and 5 3 0 0 0 
579183		 # 	collision with: 6 9 1 0 0  and 6 3 2 0 0 
579200		 # 	collision with: 4 2 0 0 0  and 5 2 0 0 0 
579202		 # 	collision with: 6 3 2 0 0  and 6 5 2 0 0 
579237		 # 	collision with: 0 9 0 0 0  and 2 9 0 0 0 
579239		 # 	collision with: 6 6 1 0 0  and 6 8 2 0 0 
579248		 # 	collision with: 0 10 0 0 0  and 1 10 0 0 0 
579250		 # 	collision with: 6 1 10 0 0  and 6 2 10 0 0 
579296		 # 	collision with: 3 4 0 0 0  and 4 4 0 0 0 
579298		 # 	collision with: 6 0 4 0 0  and 6 1 4 0 0 
579301		 # 	collision with: 10 1 0 0 0  and 0 2 0 0 0 
579303		 # 	collision with: 1 5 1 0 0  and 1 5 2 0 0 
579309		 # 	collision with: 0 1 0 0 0  and 9 2 0 0 0 
579311		 # 	collision with: 6 1 0 0 0  and 6 2 0 0 0 
579344		 # 	collision with: 1 8 0 0 0  and 2 8 0 0 0 
579346		 # 	collision with: 6 5 8 0 0  and 6 6 8 0 0 
579348		 # 	collision with: 9 9 6 4 0  and 3 3 0 0 1 
579350		 # 	collision with: 2 2 2 0 0  and 4 10 1 1 0 
579352		 # 	collision with: 4 2 0 0 0  and 5 2 0 0 0 
579354		 # 	collision with: 6 0 2 0 0  and 6 1 2 0 0 
579356		 # 	collision with: 4 1 0 0 0  and 6 1 0 0 0 
579358		 # 	collision with: 6 2 1 0 0  and 6 3 1 0 0 
579360		 # 	collision with: 1 8 0 0 0  and 2 8 0 0 0 
579362		 # 	collision with: 6 0 8 0 0  and 6 1 8 0 0 
579364		 # 	collision with: 2 6 0 0 0  and 3 6 0 0 0 
579368		 # 	collision with: 1 7 0 0 0  and 3 7 0 0 0 
579370		 # 	collision with: 6 3 7 0 0  and 6 5 7 0 0 
579372		 # 	collision with: 3 4 0 0 0  and 4 4 0 0 0 
579374		 # 	collision with: 6 1 4 0 0  and 6 2 4 0 0 
579376		 # 	collision with: 2 5 0 0 0  and 4 5 0 0 0 
579378		 # 	collision with: 6 2 5 0 0  and 6 3 5 0 0 
579380		 # 	collision with: 3 3 0 0 0  and 5 3 0 0 0 
579382		 # 	collision with: 6 4 3 0 0  and 6 6 3 0 0 
579384		 # 	collision with: 0 10 0 0 0  and 1 10 0 0 0 
579386		 # 	collision with: 6 2 10 0 0  and 6 4 10 0 0 
579388		 # 	collision with: 0 9 0 0 0  and 2 9 0 0 0 
579390		 # 	collision with: 6 4 9 0 0  and 6 6 9 0 0 
579396		 # 	collision with: 4 2 0 0 0  and 5 2 0 0 0 
579398		 # 	collision with: 6 0 2 0 0  and 6 1 2 0 0 
579433		 # 	collision with: 2 0 0 0 0  and 3 2 0 0 0 
579435		 # 	collision with: 6 2 0 0 0  and 6 1 2 0 0 
579441		 # 	collision with: 5 0 0 0 0  and 1 2 0 0 0 
579443		 # 	collision with: 6 9 0 0 0  and 6 4 2 0 0 
579444		 # 	collision with: 4 1 0 0 0  and 6 1 0 0 0 
579446		 # 	collision with: 6 2 1 0 0  and 6 3 1 0 0 
579492		 # 	collision with: 1 8 0 0 0  and 2 8 0 0 0 
579494		 # 	collision with: 6 0 8 0 0  and 6 1 8 0 0 
579505		 # 	collision with: 2 0 0 0 0  and 6 2 0 0 0 
579507		 # 	collision with: 6 3 0 0 0  and 6 1 2 0 0 
579540		 # 	collision with: 2 6 0 0 0  and 3 6 0 0 0 
579542		 # 	collision with: 6 2 6 0 0  and 6 4 6 0 0 
579561		 # 	collision with: 3 3 0 0 0  and 5 3 0 0 0 
579563		 # 	collision with: 6 1 1 0 0  and 6 3 1 0 0 
579588		 # 	collision with: 1 7 0 0 0  and 3 7 0 0 0 
579590		 # 	collision with: 6 3 7 0 0  and 6 5 7 0 0 
579605		 # 	collision with: 3 3 0 0 0  and 5 3 0 0 0 
579607		 # 	collision with: 6 1 1 0 0  and 6 3 1 0 0 
579621		 # 	collision with: 4 2 0 0 0  and 5 2 0 0 0 
579623		 # 	collision with: 6 10 0 0 0  and 6 0 2 0 0 
579636		 # 	collision with: 3 4 0 0 0  and 4 4 0 0 0 
579638		 # 	collision with: 6 1 4 0 0  and 6 2 4 0 0 
579665		 # 	collision with: 4 2 0 0 0  and 5 2 0 0 0 
579667		 # 	collision with: 2 2 0 0 0  and 2 2 2 0 0 
579684		 # 	collision with: 2 5 0 0 0  and 4 5 0 0 0 
579721		 # 	collision with: 2 6 0 0 0  and 3 6 0 0 0 
579723		 # 	collision with: 2 3 0 0 0  and 2 3 2 0 0 
579732		 # 	collision with: 3 3 0 0 0  and 5 3 0 0 0 
579734		 # 	collision with: 6 4 3 0 0  and 6 6 3 0 0 
579780		 # 	collision with: 0 10 0 0 0  and 1 10 0 0 0 
579782		 # 	collision with: 6 2 10 0 0  and 6 4 10 0 0 
579785		 # 	collision with: 2 0 0 0 0  and 3 2 0 0 0 
579787		 # 	collision with: 6 4 0 0 0  and 6 5 2 0 0 
579793		 # 	collision with: 5 0 0 0 0  and 1 2 0 0 0 
579795		 # 	collision with: 4 4 0 0 0  and 4 4 2 0 0 
579828		 # 	collision with: 0 9 0 0 0  and 2 9 0 0 0 
579830		 # 	collision with: 6 4 9 0 0  and 6 6 9 0 0 
579832		 # 	collision with: 2 2 1 4 0  and 1 1 0 0 1 
579834		 # 	collision with: 10 0 2 0 0  and 0 9 0 1 0 
579836		 # 	collision with: 4 1 0 0 0  and 6 1 0 0 0 
579838		 # 	collision with: 6 0 1 0 0  and 6 2 1 0 0 
579840		 # 	collision with: 2 6 0 0 0  and 3 6 0 0 0 
579844		 # 	collision with: 3 4 0 0 0  and 4 4 0 0 0 
579846		 # 	collision with: 6 2 4 0 0  and 6 3 4 0 0 
579848		 # 	collision with: 3 3 0 0 0  and 5 3 0 0 0 
579850		 # 	collision with: 6 4 3 0 0  and 6 5 3 0 0 
579852		 # 	collision with: 0 9 0 0 0  and 2 9 0 0 0 
579854		 # 	collision with: 6 2 9 0 0  and 6 4 9 0 0 
579856		 # 	collision with: 4 2 0 0 0  and 5 2 0 0 0 
579858		 # 	collision with: 6 2 2 0 0  and 6 3 2 0 0 
579860		 # 	collision with: 1 8 0 0 0  and 2 8 0 0 0 
579862		 # 	collision with: 6 0 8 0 0  and 6 2 8 0 0 
579864		 # 	collision with: 1 7 0 0 0  and 3 7 0 0 0 
579866		 # 	collision with: 6 2 7 0 0  and 6 4 7 0 0 
579868		 # 	collision with: 2 5 0 0 0  and 4 5 0 0 0 
579870		 # 	collision with: 6 5 5 0 0  and 6 6 5 0 0 
579872		 # 	collision with: 0 10 0 0 0  and 1 10 0 0 0 
579874		 # 	collision with: 6 4 10 0 0  and 6 5 10 0 0 
579880		 # 	collision with: 4 1 0 0 0  and 6 1 0 0 0 
579882		 # 	collision with: 6 0 1 0 0  and 6 2 1 0 0 
579917		 # 	collision with: 3 0 0 0 0  and 4 1 0 0 0 
579919		 # 	collision with: 6 2 0 0 0  and 6 8 1 0 0 
579925		 # 	collision with: 8 0 0 0 0  and 6 1 0 0 0 
579927		 # 	collision with: 6 5 0 0 0  and 6 0 1 0 0 
579928		 # 	collision with: 2 6 0 0 0  and 3 6 0 0 0 
579930		 # 	collision with: 6 5 6 0 0  and 6 6 6 0 0 
579976		 # 	collision with: 3 4 0 0 0  and 4 4 0 0 0 
579978		 # 	collision with: 6 2 4 0 0  and 6 3 4 0 0 
579989		 # 	collision with: 8 0 0 0 0  and 4 1 0 0 0 
579991		 # 	collision with: 6 4 0 0 0  and 6 2 1 0 0 
580024		 # 	collision with: 3 3 0 0 0  and 5 3 0 0 0 
580026		 # 	collision with: 6 4 3 0 0  and 6 5 3 0 0 
580045		 # 	collision with: 1 7 0 0 0  and 3 7 0 0 0 
580047		 # 	collision with: 2 10 0 0 0  and 2 10 1 0 0 
580072		 # 	collision with: 0 9 0 0 0  and 2 9 0 0 0 
580074		 # 	collision with: 6 2 9 0 0  and 6 4 9 0 0 
580089		 # 	collision with: 1 7 0 0 0  and 3 7 0 0 0 
580091		 # 	collision with: 6 6 0 0 0  and 6 5 1 0 0 
580105		 # 	collision with: 4 1 0 0 0  and 6 1 0 0 0 
580107		 # 	collision with: 2 1 0 0 0  and 2 1 1 0 0 
580120		 # 	collision with: 4 2 0 0 0  and 5 2 0 0 0 
580122		 # 	collision with: 6 2 2 0 0  and 6 3 2 0 0 
580149		 # 	collision with: 4 1 0 0 0  and 6 1 0 0 0 
580151		 # 	collision with: 6 5 0 0 0  and 6 0 1 0 0 
580168		 # 	collision with: 1 8 0 0 0  and 2 8 0 0 0 
580170		 # 	collision with: 6 0 8 0 0  and 6 2 8 0 0 
580205		 # 	collision with: 3 3 0 0 0  and 5 3 0 0 0 
580207		 # 	collision with: 3 7 0 0 0  and 3 7 1 0 0 
580216		 # 	collision with: 1 7 0 0 0  and 3 7 0 0 0 
580218		 # 	collision with: 6 2 7 0 0  and 6 4 7 0 0 
580264		 # 	collision with: 2 5 0 0 0  and 4 5 0 0 0 
580269		 # 	collision with: 3 0 0 0 0  and 4 1 0 0 0 
580271		 # 	collision with: 6 0 0 0 0  and 6 7 1 0 0 
580277		 # 	collision with: 8 0 0 0 0  and 6 1 0 0 0 
580279		 # 	collision with: 8 2 0 0 0  and 8 2 1 0 0 
580312		 # 	collision with: 0 10 0 0 0  and 1 10 0 0 0 
580314		 # 	collision with: 6 4 10 0 0  and 6 5 10 0 0 
580322		 # 	collision with: 6 2 0 0 0  and 6 4 0 0 0 
580326		 # 	collision with: 6 0 0 0 0  and 6 1 0 0 0 
580330		 # 	collision with: 6 3 0 0 0  and 6 4 0 0 0 
580334		 # 	collision with: 6 0 0 0 0  and 6 2 0 0 0 
580338		 # 	collision with: 6 3 0 0 0  and 6 5 0 0 0 
580342		 # 	collision with: 6 1 0 0 0  and 6 2 0 0 0 
580346		 # 	collision with: 6 4 0 0 0  and 6 5 0 0 0 
580350		 # 	collision with: 6 1 0 0 0  and 6 3 0 0 0 
580354		 # 	collision with: 6 4 0 0 0  and 6 6 0 0 0 
580358		 # 	collision with: 6 2 0 0 0  and 6 3 0 0 0 
580379		 # 	collision with: 10 0 5 0 0  and 10 0 6 0 0 
580386		 # 	collision with: 6 1 0 0 0  and 6 2 0 0 0 
580407		 # 	collision with: 6 5 0 0 0  and 6 6 0 0 0 
580410		 # 	collision with: 6 2 0 0 0  and 6 4 0 0 0 
580478		 # 	collision with: 6 4 0 0 0  and 6 5 0 0 0 
580491		 # 	collision with: 7 0 5 0 0  and 7 0 6 0 0 
580502		 # 	collision with: 6 0 0 0 0  and 6 1 0 0 0 
580523		 # 	collision with: 8 0 5 0 0  and 8 0 6 0 0 
580543		 # 	collision with: 2 0 5 0 0  and 2 0 6 0 0 
580570		 # 	collision with: 6 1 0 0 0  and 6 3 0 0 0 
580594		 # 	collision with: 6 3 0 0 0  and 6 4 0 0 0 
580623		 # 	collision with: 9 0 5 0 0  and 9 0 6 0 0 
580643		 # 	collision with: 3 0 5 0 0  and 3 0 6 0 0 
580662		 # 	collision with: 6 4 0 0 0  and 6 6 0 0 0 
580675		 # 	collision with: 4 0 5 0 0  and 4 0 6 0 0 
580686		 # 	collision with: 6 0 0 0 0  and 6 2 0 0 0 
580715		 # 	collision with: 6 5 0 0 0  and 6 6 0 0 0 
580754		 # 	collision with: 6 2 0 0 0  and 6 3 0 0 0 
580778		 # 	collision with: 6 3 0 0 0  and 6 5 0 0 0 
580787		 # 	collision with: 1 0 5 0 0  and 1 0 6 0 0 
580800		 # 	collision with: 8 10 4 2 0  and 4 0 0 0 1 
580802		 # 	collision with: 6 2 10 0 0  and 5 0 0 1 0 
580804		 # 	collision with: 0 10 0 0 0  and 2 10 0 0 0 
580806		 # 	collision with: 6 3 10 0 0  and 6 5 10 0 0 
580808		 # 	collision with: 0 5 0 0 0  and 1 5 0 0 0 
580810		 # 	collision with: 6 0 5 0 0  and 6 2 5 0 0 
580812		 # 	collision with: 3 7 0 0 0  and 5 7 0 0 0 
580814		 # 	collision with: 6 1 7 0 0  and 6 3 7 0 0 
580816		 # 	collision with: 2 8 0 0 0  and 4 8 0 0 0 
580818		 # 	collision with: 6 3 8 0 0  and 6 5 8 0 0 
580820		 # 	collision with: 3 2 0 0 0  and 4 2 0 0 0 
580822		 # 	collision with: 6 1 2 0 0  and 6 3 2 0 0 
580824		 # 	collision with: 1 9 0 0 0  and 3 9 0 0 0 
580826		 # 	collision with: 6 3 9 0 0  and 6 4 9 0 0 
580828		 # 	collision with: 2 3 0 0 0  and 3 3 0 0 0 
580830		 # 	collision with: 6 1 3 0 0  and 6 2 3 0 0 
580832		 # 	collision with: 1 4 0 0 0  and 2 4 0 0 0 
580834		 # 	collision with: 6 3 4 0 0  and 6 4 4 0 0 
580836		 # 	collision with: 4 6 0 0 0  and 6 6 0 0 0 
580840		 # 	collision with: 4 1 0 0 0  and 5 1 0 0 0 
580842		 # 	collision with: 6 1 1 0 0  and 6 2 1 0 0 
580861		 # 	collision with: 0 5 0 0 0  and 1 5 0 0 0 
580863		 # 	collision with: 6 2 4 0 0  and 6 3 4 0 0 
580868		 # 	collision with: 1 9 0 0 0  and 3 9 0 0 0 
580870		 # 	collision with: 6 3 9 0 0  and 6 4 9 0 0 
580889		 # 	collision with: 4 6 0 0 0  and 6 6 0 0 0 
580892		 # 	collision with: 0 10 0 0 0  and 2 10 0 0 0 
580894		 # 	collision with: 6 3 10 0 0  and 6 5 10 0 0 
580960		 # 	collision with: 2 3 0 0 0  and 3 3 0 0 0 
580962		 # 	collision with: 6 1 3 0 0  and 6 2 3 0 0 
580973		 # 	collision with: 1 4 0 0 0  and 2 4 0 0 0 
580975		 # 	collision with: 6 0 2 0 0  and 6 1 2 0 0 
580984		 # 	collision with: 0 5 0 0 0  and 1 5 0 0 0 
581005		 # 	collision with: 3 2 0 0 0  and 4 2 0 0 0 
581007		 # 	collision with: 4 3 4 0 0  and 4 3 6 0 0 
581025		 # 	collision with: 4 1 0 0 0  and 5 1 0 0 0 
581027		 # 	collision with: 6 3 4 0 0  and 6 0 6 0 0 
581052		 # 	collision with: 1 4 0 0 0  and 2 4 0 0 0 
581054		 # 	collision with: 6 3 4 0 0  and 6 4 4 0 0 
581076		 # 	collision with: 3 7 0 0 0  and 5 7 0 0 0 
581078		 # 	collision with: 6 1 7 0 0  and 6 3 7 0 0 
581105		 # 	collision with: 1 4 0 0 0  and 2 4 0 0 0 
581107		 # 	collision with: 6 0 2 0 0  and 6 1 2 0 0 
581125		 # 	collision with: 0 5 0 0 0  and 1 5 0 0 0 
581127		 # 	collision with: 6 2 4 0 0  and 6 3 4 0 0 
581144		 # 	collision with: 4 6 0 0 0  and 6 6 0 0 0 
581146		 # 	collision with: 6 4 6 0 0  and 6 5 6 0 0 
581157		 # 	collision with: 4 1 0 0 0  and 5 1 0 0 0 
581159		 # 	collision with: 1 10 4 0 0  and 1 10 6 0 0 
581168		 # 	collision with: 2 8 0 0 0  and 4 8 0 0 0 
581170		 # 	collision with: 6 3 8 0 0  and 6 5 8 0 0 
581197		 # 	collision with: 4 6 0 0 0  and 6 6 0 0 0 
581199		 # 	collision with: 6 4 6 0 0  and 6 6 6 0 0 
581236		 # 	collision with: 4 1 0 0 0  and 5 1 0 0 0 
581238		 # 	collision with: 6 1 1 0 0  and 6 2 1 0 0 
581260		 # 	collision with: 3 2 0 0 0  and 4 2 0 0 0 
581262		 # 	collision with: 6 1 2 0 0  and 6 3 2 0 0 
581269		 # 	collision with: 3 2 0 0 0  and 4 2 0 0 0 
581271		 # 	collision with: 6 3 4 0 0  and 6 3 6 0 0 
581284		 # 	collision with: 5 7 6 10 0  and 6 6 0 0 1 
581286		 # 	collision with: 6 8 5 0 0  and 4 6 0 1 0 
581288		 # 	collision with: 1 9 0 0 0  and 3 9 0 0 0 
581290		 # 	collision with: 6 4 9 0 0  and 6 6 9 0 0 
581292		 # 	collision with: 0 10 0 0 0  and 2 10 0 0 0 
581294		 # 	collision with: 6 1 10 0 0  and 6 2 10 0 0 
581296		 # 	collision with: 2 3 0 0 0  and 3 3 0 0 0 
581298		 # 	collision with: 6 0 3 0 0  and 6 1 3 0 0 
581300		 # 	collision with: 0 5 0 0 0  and 1 5 0 0 0 
581302		 # 	collision with: 6 1 5 0 0  and 6 2 5 0 0 
581304		 # 	collision with: 1 4 0 0 0  and 2 4 0 0 0 
581306		 # 	collision with: 6 5 4 0 0  and 6 6 4 0 0 
581308		 # 	collision with: 3 7 0 0 0  and 5 7 0 0 0 
581310		 # 	collision with: 6 5 7 0 0  and 6 6 7 0 0 
581312		 # 	collision with: 4 6 0 0 0  and 6 6 0 0 0 
581316		 # 	collision with: 2 8 0 0 0  and 4 8 0 0 0 
581318		 # 	collision with: 6 4 8 0 0  and 6 6 8 0 0 
581320		 # 	collision with: 4 1 0 0 0  and 5 1 0 0 0 
581322		 # 	collision with: 6 3 1 0 0  and 6 5 1 0 0 
581324		 # 	collision with: 3 2 0 0 0  and 4 2 0 0 0 
581326		 # 	collision with: 6 0 2 0 0  and 6 1 2 0 0 
581345		 # 	collision with: 2 4 0 0 0  and 7 5 0 0 0 
581347		 # 	collision with: 9 5 4 0 0  and 9 5 5 0 0 
581352		 # 	collision with: 3 7 0 0 0  and 5 7 0 0 0 
581354		 # 	collision with: 6 5 7 0 0  and 6 6 7 0 0 
581373		 # 	collision with: 4 1 0 0 0  and 5 1 0 0 0 
581375		 # 	collision with: 6 4 1 0 0  and 6 5 1 0 0 
581376		 # 	collision with: 1 9 0 0 0  and 3 9 0 0 0 
581378		 # 	collision with: 6 4 9 0 0  and 6 6 9 0 0 
581444		 # 	collision with: 4 6 0 0 0  and 6 6 0 0 0 
581446		 # 	collision with: 6 3 6 0 0  and 6 5 6 0 0 
581457		 # 	collision with: 0 4 0 0 0  and 1 5 0 0 0 
581468		 # 	collision with: 0 10 0 0 0  and 2 10 0 0 0 
581470		 # 	collision with: 6 1 10 0 0  and 6 2 10 0 0 
581489		 # 	collision with: 1 4 0 0 0  and 2 4 0 0 0 
581491		 # 	collision with: 6 4 0 0 0  and 6 5 0 0 0 
581509		 # 	collision with: 3 2 0 0 0  and 4 2 0 0 0 
581536		 # 	collision with: 2 8 0 0 0  and 4 8 0 0 0 
581538		 # 	collision with: 6 4 8 0 0  and 6 6 8 0 0 
581560		 # 	collision with: 2 3 0 0 0  and 3 3 0 0 0 
581562		 # 	collision with: 6 0 3 0 0  and 6 1 3 0 0 
581589		 # 	collision with: 0 4 0 0 0  and 1 5 0 0 0 
581591		 # 	collision with: 6 2 4 0 0  and 6 2 5 0 0 
581609		 # 	collision with: 2 4 0 0 0  and 7 5 0 0 0 
581611		 # 	collision with: 6 2 4 0 0  and 6 4 5 0 0 
581628		 # 	collision with: 4 1 0 0 0  and 5 1 0 0 0 
581630		 # 	collision with: 6 3 1 0 0  and 6 5 1 0 0 
581641		 # 	collision with: 3 2 0 0 0  and 4 2 0 0 0 
581643		 # 	collision with: 6 9 4 0 0  and 6 6 5 0 0 
581652		 # 	collision with: 0 5 0 0 0  and 1 5 0 0 0 
581681		 # 	collision with: 4 1 0 0 0  and 5 1 0 0 0 
581683		 # 	collision with: 6 4 1 0 0  and 6 5 1 0 0 
581720		 # 	collision with: 3 2 0 0 0  and 4 2 0 0 0 
581722		 # 	collision with: 6 0 2 0 0  and 6 1 2 0 0 
581744		 # 	collision with: 1 4 0 0 0  and 2 4 0 0 0 
581746		 # 	collision with: 6 5 4 0 0  and 6 6 4 0 0 
581753		 # 	collision with: 1 4 0 0 0  and 2 4 0 0 0 
581755		 # 	collision with: 6 4 0 0 0  and 6 5 0 0 0 
581768		 # 	collision with: 1 9 4 1 0  and 9 1 0 0 1 
581770		 # 	collision with: 2 6 7 0 0  and 10 4 0 1 0 
581772		 # 	collision with: 2 8 0 0 0  and 4 8 0 0 0 
581774		 # 	collision with: 6 0 8 0 0  and 6 1 8 0 0 
581776		 # 	collision with: 1 4 0 0 0  and 2 4 0 0 0 
581778		 # 	collision with: 6 1 4 0 0  and 6 3 4 0 0 
581780		 # 	collision with: 0 10 0 0 0  and 2 10 0 0 0 
581782		 # 	collision with: 6 4 10 0 0  and 6 5 10 0 0 
581784		 # 	collision with: 3 2 0 0 0  and 4 2 0 0 0 
581786		 # 	collision with: 6 4 2 0 0  and 6 5 2 0 0 
581788		 # 	collision with: 4 6 0 0 0  and 6 6 0 0 0 
581792		 # 	collision with: 0 5 0 0 0  and 1 5 0 0 0 
581794		 # 	collision with: 6 1 5 0 0  and 6 3 5 0 0 
581796		 # 	collision with: 1 9 0 0 0  and 3 9 0 0 0 
581798		 # 	collision with: 6 0 9 0 0  and 6 2 9 0 0 
581800		 # 	collision with: 4 1 0 0 0  and 5 1 0 0 0 
581802		 # 	collision with: 6 0 1 0 0  and 6 2 1 0 0 
581804		 # 	collision with: 3 7 0 0 0  and 5 7 0 0 0 
581806		 # 	collision with: 6 3 7 0 0  and 6 4 7 0 0 
581808		 # 	collision with: 2 3 0 0 0  and 3 3 0 0 0 
581810		 # 	collision with: 6 4 3 0 0  and 6 6 3 0 0 
581829		 # 	collision with: 1 4 0 0 0  and 2 4 0 0 0 
581831		 # 	collision with: 6 3 3 0 0  and 6 4 3 0 0 
581836		 # 	collision with: 0 5 0 0 0  and 1 5 0 0 0 
581857		 # 	collision with: 3 7 0 0 0  and 5 7 0 0 0 
581859		 # 	collision with: 6 4 3 0 0  and 6 0 5 0 0 
581860		 # 	collision with: 2 8 0 0 0  and 4 8 0 0 0 
581862		 # 	collision with: 6 0 8 0 0  and 6 1 8 0 0 
581928		 # 	collision with: 1 9 0 0 0  and 3 9 0 0 0 
581930		 # 	collision with: 6 0 9 0 0  and 6 2 9 0 0 
581941		 # 	collision with: 4 1 0 0 0  and 5 1 0 0 0 
581943		 # 	collision with: 6 7 3 0 0  and 6 1 5 0 0 
581952		 # 	collision with: 1 4 0 0 0  and 2 4 0 0 0 
581954		 # 	collision with: 6 1 4 0 0  and 6 3 4 0 0 
581973		 # 	collision with: 4 6 0 0 0  and 6 6 0 0 0 
581975		 # 	collision with: 6 2 2 0 0  and 6 3 2 0 0 
581993		 # 	collision with: 2 3 0 0 0  and 3 3 0 0 0 
581995		 # 	collision with: 6 6 3 0 0  and 6 3 5 0 0 
111.994secs	42966
