# prime 11
# degree 2
# input variables 3
# output variables 3
# reload computed balance functions from file balance-1509of3248-p11d2m3-debug.log
# p = 11
# n = 3
# smalldomain p^m 1331
# domain p^n 1331
#	 p^2 = 121
#	 p^3 = 1331
#	 p^4 = 14641
#	 p^5 = 161051
#	 p^6 = 1771561
#	 p^7 = 19487171
#	 p^8 = 214358881
#	 p^9 = 2357947691
opening file : balance-1509of3248-p11d2m3-debug.log
reloading for step2...
9054004		 # 	collision with: 4 2 0  and 2 4 0 
9054006		 # 	collision with: 3 10 0  and 3 0 1 
9054029		 # 	collision with: 8 4 0  and 10 6 0 
9054031		 # 	collision with: 9 5 0  and 10 7 0 
9054032		 # 	collision with: 4 2 0  and 2 4 0 
9054034		 # 	collision with: 1 10 0  and 1 0 1 
9054036		 # 	collision with: 4 2 0  and 2 4 0 
9054038		 # 	collision with: 9 2 0  and 2 1 1 
9054041		 # 	collision with: 5 1 0  and 3 2 0 
9054043		 # 	collision with: 0 0 0  and 4 1 0 
9054060		 # 	collision with: 4 2 0  and 2 4 0 
9054062		 # 	collision with: 9 4 0  and 2 5 0 
9054077		 # 	collision with: 7 4 0  and 4 6 0 
9054079		 # 	collision with: 0 2 0  and 3 4 0 
9054081		 # 	collision with: 3 1 0  and 5 3 0 
9054083		 # 	collision with: 4 4 0  and 1 6 0 
9054096		 # 	collision with: 4 2 0  and 2 4 0 
9054098		 # 	collision with: 3 5 0  and 9 6 0 
9054101		 # 	collision with: 2 8 0  and 3 8 0 
9054103		 # 	collision with: 2 3 0  and 3 3 0 
9054112		 # 	collision with: 4 2 0  and 2 4 0 
9054114		 # 	collision with: 0 2 0  and 3 4 0 
9054132		 # 	collision with: 4 2 0  and 2 4 0 
9054134		 # 	collision with: 2 10 0  and 2 0 1 
9054160		 # 	collision with: 4 2 0  and 2 4 0 
9054172		 # 	collision with: 2 0 0  and 7 1 0 
9054174		 # 	collision with: 0 8 0  and 2 0 1 
9054188		 # 	collision with: 10 4 0  and 8 0 1 
9054190		 # 	collision with: 4 0 0  and 9 1 0 
9054248		 # 	collision with: 0 1 0  and 3 2 0 
9054260		 # 	collision with: 4 2 0  and 3 4 0 
9054262		 # 	collision with: 7 2 0  and 8 3 0 
9054277		 # 	collision with: 9 3 0  and 0 4 0 
9054279		 # 	collision with: 1 10 0  and 2 1 1 
9054288		 # 	collision with: 0 0 0  and 1 1 1 
9054290		 # 	collision with: 4 7 0  and 2 0 1 
9054308		 # 	collision with: 10 3 0  and 4 2 1 
9054310		 # 	collision with: 3 7 0  and 2 0 1 
9054324		 # 	collision with: 6 2 0  and 1 3 0 
9054326		 # 	collision with: 0 6 0  and 10 0 1 
9054341		 # 	collision with: 2 2 0  and 3 2 0 
9054343		 # 	collision with: 5 1 0  and 8 3 0 
9054347		 # 	collision with: 2 9 0  and 3 9 0 
9054360		 # 	collision with: 10 5 0  and 6 6 0 
9054362		 # 	collision with: 9 5 0  and 6 0 1 
9054381		 # 	collision with: 4 4 0  and 5 6 0 
9054383		 # 	collision with: 1 4 0  and 4 6 0 
9054384		 # 	collision with: 8 2 0  and 10 0 1 
9054386		 # 	collision with: 4 4 0  and 1 6 0 
9054390		 # 	collision with: 6 5 0  and 3 0 1 
9054393		 # 	collision with: 2 0 0  and 9 1 0 
9054395		 # 	collision with: 7 3 0  and 0 5 0 
9054416		 # 	collision with: 10 0 1  and 4 1 1 
9054418		 # 	collision with: 1 4 0  and 4 6 0 
9054444		 # 	collision with: 7 0 0  and 10 2 0 
9054446		 # 	collision with: 4 5 0  and 3 6 0 
9054460		 # 	collision with: 5 0 1  and 3 1 1 
9054462		 # 	collision with: 2 1 0  and 4 3 0 
9054488		 # 	collision with: 3 1 0  and 6 0 1 
9054490		 # 	collision with: 9 1 0  and 2 3 0 
9054513		 # 	collision with: 3 7 0  and 6 0 1 
9054515		 # 	collision with: 5 1 0  and 6 0 1 
9054516		 # 	collision with: 7 5 0  and 1 0 1 
9054518		 # 	collision with: 1 8 0  and 8 0 1 
9054522		 # 	collision with: 1 6 0  and 0 0 1 
9054525		 # 	collision with: 7 0 0  and 10 2 0 
9054527		 # 	collision with: 1 7 0  and 5 0 1 
9054544		 # 	collision with: 4 5 0  and 9 0 1 
9054561		 # 	collision with: 6 5 0  and 6 6 0 
9054563		 # 	collision with: 2 2 0  and 3 2 0 
9054567		 # 	collision with: 8 9 0  and 9 0 1 
9054580		 # 	collision with: 4 4 0  and 5 5 0 
9054582		 # 	collision with: 6 2 0  and 2 3 0 
9054585		 # 	collision with: 0 1 0  and 6 3 0 
9054587		 # 	collision with: 5 4 0  and 0 6 0 
9054596		 # 	collision with: 6 5 0  and 10 6 0 
9054598		 # 	collision with: 3 4 0  and 1 5 0 
9054616		 # 	collision with: 4 1 0  and 8 3 0 
9054618		 # 	collision with: 6 7 0  and 4 0 1 
9054644		 # 	collision with: 0 0 0  and 9 2 0 
9054646		 # 	collision with: 6 0 0  and 3 2 0 
9054656		 # 	collision with: 4 6 0  and 1 1 1 
9054658		 # 	collision with: 8 2 0  and 1 4 0 
9054672		 # 	collision with: 8 3 0  and 9 5 0 
9054674		 # 	collision with: 4 0 0  and 7 1 0 
9054732		 # 	collision with: 8 4 0  and 6 5 0 
9054734		 # 	collision with: 5 1 0  and 8 3 0 
9054744		 # 	collision with: 3 1 0  and 5 3 0 
9054746		 # 	collision with: 5 7 0  and 9 0 1 
9054761		 # 	collision with: 6 5 0  and 10 6 0 
9054763		 # 	collision with: 4 0 0  and 6 2 0 
9054772		 # 	collision with: 6 6 0  and 3 1 1 
9054774		 # 	collision with: 1 6 0  and 6 0 1 
9054792		 # 	collision with: 0 1 0  and 10 3 0 
9054794		 # 	collision with: 7 2 0  and 8 3 0 
9054808		 # 	collision with: 10 9 0  and 2 0 1 
9054810		 # 	collision with: 10 2 0  and 0 4 0 
9054825		 # 	collision with: 9 3 0  and 8 2 1 
9054827		 # 	collision with: 3 3 0  and 5 4 0 
9054829		 # 	collision with: 9 0 0  and 6 2 0 
9054831		 # 	collision with: 5 1 0  and 9 2 0 
9054846		 # 	collision with: 2 5 0  and 7 6 0 
9054865		 # 	collision with: 3 2 0  and 6 3 0 
9054867		 # 	collision with: 3 3 0  and 5 4 0 
9054868		 # 	collision with: 2 0 0  and 9 1 0 
9054870		 # 	collision with: 1 2 0  and 2 0 1 
9054872		 # 	collision with: 1 1 0  and 5 1 1 
9054874		 # 	collision with: 0 6 0  and 2 2 1 
9054877		 # 	collision with: 0 1 0  and 6 3 0 
9054879		 # 	collision with: 0 2 0  and 2 4 0 
9054900		 # 	collision with: 2 2 0  and 9 4 0 
9054902		 # 	collision with: 3 3 0  and 2 0 1 
9054928		 # 	collision with: 0 0 0  and 9 2 0 
9054930		 # 	collision with: 2 4 0  and 1 5 0 
9054944		 # 	collision with: 8 4 0  and 10 6 0 
9054946		 # 	collision with: 5 1 0  and 7 2 0 
9054972		 # 	collision with: 9 4 0  and 4 6 0 
9054997		 # 	collision with: 4 0 0  and 2 1 0 
9054999		 # 	collision with: 3 3 0  and 5 4 0 
9055000		 # 	collision with: 9 0 0  and 6 2 0 
9055002		 # 	collision with: 5 2 0  and 2 4 0 
9055004		 # 	collision with: 2 2 0  and 10 3 0 
9055006		 # 	collision with: 2 0 1  and 0 2 1 
9055009		 # 	collision with: 4 10 0  and 7 0 1 
9055028		 # 	collision with: 10 5 0  and 6 0 1 
9055030		 # 	collision with: 7 7 0  and 0 0 1 
9055045		 # 	collision with: 5 4 0  and 7 2 1 
9055049		 # 	collision with: 3 3 0  and 10 5 0 
9055051		 # 	collision with: 3 3 0  and 5 4 0 
9055066		 # 	collision with: 3 8 0  and 2 0 1 
9055069		 # 	collision with: 10 2 0  and 4 3 0 
9055071		 # 	collision with: 3 3 0  and 5 4 0 
9055080		 # 	collision with: 2 5 0  and 2 0 1 
9055100		 # 	collision with: 5 1 0  and 2 2 0 
9055102		 # 	collision with: 7 1 1  and 10 2 1 
9055128		 # 	collision with: 1 4 0  and 0 5 0 
9055130		 # 	collision with: 7 1 0  and 6 2 0 
9055140		 # 	collision with: 4 5 0  and 4 0 1 
9055142		 # 	collision with: 5 6 0  and 2 7 0 
9055156		 # 	collision with: 10 5 0  and 6 6 0 
9055158		 # 	collision with: 4 4 0  and 1 6 0 
9055216		 # 	collision with: 2 5 0  and 2 6 0 
9055218		 # 	collision with: 5 4 0  and 0 0 1 
9055228		 # 	collision with: 8 10 0  and 4 0 1 
9055230		 # 	collision with: 2 5 0  and 3 5 0 
9055245		 # 	collision with: 3 1 0  and 5 3 0 
9055247		 # 	collision with: 5 2 0  and 10 1 1 
9055258		 # 	collision with: 1 4 0  and 1 6 0 
9055276		 # 	collision with: 2 3 0  and 3 3 0 
9055278		 # 	collision with: 7 4 0  and 2 5 0 
9055292		 # 	collision with: 2 2 0  and 3 2 0 
9055294		 # 	collision with: 7 1 0  and 0 0 1 
9055309		 # 	collision with: 9 4 0  and 1 6 0 
9055311		 # 	collision with: 4 2 0  and 6 3 0 
9055313		 # 	collision with: 8 9 0  and 9 0 1 
9055315		 # 	collision with: 8 9 0  and 3 0 1 
9055328		 # 	collision with: 4 3 0  and 9 0 1 
9055330		 # 	collision with: 8 4 0  and 8 6 0 
9055349		 # 	collision with: 2 1 0  and 5 3 0 
9055351		 # 	collision with: 0 3 0  and 6 4 0 
9055352		 # 	collision with: 0 5 0  and 5 6 0 
9055354		 # 	collision with: 0 1 0  and 7 2 0 
9055356		 # 	collision with: 3 6 0  and 5 1 1 
9055361		 # 	collision with: 9 0 0  and 10 2 0 
9055363		 # 	collision with: 10 0 0  and 2 2 0 
9055384		 # 	collision with: 6 5 0  and 8 7 0 
9055386		 # 	collision with: 2 1 0  and 3 1 0 
9055412		 # 	collision with: 3 5 0  and 2 6 0 
9055414		 # 	collision with: 10 2 0  and 2 3 0 
9055428		 # 	collision with: 2 1 0  and 3 1 0 
9055456		 # 	collision with: 1 4 0  and 5 6 0 
9055458		 # 	collision with: 5 4 0  and 0 6 0 
9055481		 # 	collision with: 5 8 0  and 4 2 1 
9055483		 # 	collision with: 3 5 0  and 7 6 0 
9055484		 # 	collision with: 7 3 0  and 5 4 0 
9055486		 # 	collision with: 1 4 0  and 4 6 0 
9055488		 # 	collision with: 2 4 0  and 3 4 0 
9055490		 # 	collision with: 1 5 0  and 3 6 0 
9055493		 # 	collision with: 8 3 0  and 9 5 0 
9055495		 # 	collision with: 5 0 0  and 1 1 0 
9055512		 # 	collision with: 8 2 0  and 5 4 0 
9055514		 # 	collision with: 2 2 0  and 3 2 0 
9055529		 # 	collision with: 0 0 0  and 1 1 1 
9055531		 # 	collision with: 1 5 0  and 2 2 1 
9055533		 # 	collision with: 4 1 0  and 4 0 1 
9055535		 # 	collision with: 8 6 0  and 4 0 1 
9055548		 # 	collision with: 3 5 0  and 3 6 0 
9055550		 # 	collision with: 2 1 0  and 1 3 0 
9055553		 # 	collision with: 6 5 0  and 9 0 1 
9055555		 # 	collision with: 7 1 0  and 3 3 0 
9055566		 # 	collision with: 2 3 0  and 0 1 1 
9055584		 # 	collision with: 3 5 0  and 2 0 1 
9055586		 # 	collision with: 2 3 0  and 3 3 0 
9055612		 # 	collision with: 8 2 0  and 7 3 0 
9055614		 # 	collision with: 2 6 0  and 3 6 0 
9055624		 # 	collision with: 2 5 0  and 3 5 0 
9055626		 # 	collision with: 6 0 0  and 2 2 0 
9055640		 # 	collision with: 7 10 0  and 3 1 1 
9055642		 # 	collision with: 5 3 0  and 6 4 0 
9055700		 # 	collision with: 3 3 0  and 8 4 0 
9055702		 # 	collision with: 7 1 0  and 3 3 0 
9055714		 # 	collision with: 3 4 0  and 10 0 1 
9055729		 # 	collision with: 7 4 0  and 8 0 1 
9055731		 # 	collision with: 4 1 0  and 5 0 1 
9055740		 # 	collision with: 8 1 0  and 2 0 1 
9055760		 # 	collision with: 7 8 0  and 1 0 1 
9055762		 # 	collision with: 2 3 0  and 8 0 1 
9055776		 # 	collision with: 0 1 0  and 6 3 0 
9055793		 # 	collision with: 4 4 0  and 5 5 0 
9055795		 # 	collision with: 6 0 0  and 2 2 0 
9055797		 # 	collision with: 0 1 0  and 5 1 1 
9055799		 # 	collision with: 7 9 0  and 1 1 1 
9055812		 # 	collision with: 6 1 0  and 0 2 0 
9055814		 # 	collision with: 3 1 0  and 4 3 0 
9055833		 # 	collision with: 7 4 0  and 1 5 0 
9055835		 # 	collision with: 3 7 0  and 5 0 1 
9055836		 # 	collision with: 4 2 0  and 7 1 1 
9055838		 # 	collision with: 5 4 0  and 8 5 0 
9055840		 # 	collision with: 4 4 0  and 5 5 0 
9055842		 # 	collision with: 1 8 0  and 8 0 1 
9055847		 # 	collision with: 4 2 0  and 6 3 0 
9055868		 # 	collision with: 5 1 0  and 10 3 0 
9055870		 # 	collision with: 4 5 0  and 2 6 0 
9055896		 # 	collision with: 1 4 0  and 0 5 0 
9055898		 # 	collision with: 9 2 0  and 8 3 0 
9055912		 # 	collision with: 2 2 0  and 7 4 0 
9055914		 # 	collision with: 8 4 0  and 3 1 1 
9055940		 # 	collision with: 9 4 0  and 3 0 1 
9055942		 # 	collision with: 6 8 0  and 3 1 1 
9055965		 # 	collision with: 1 4 0  and 0 6 0 
9055968		 # 	collision with: 7 1 1  and 10 3 1 
9055970		 # 	collision with: 8 3 0  and 5 0 1 
9055972		 # 	collision with: 2 3 0  and 6 5 0 
9055974		 # 	collision with: 6 7 0  and 7 0 1 
9055979		 # 	collision with: 1 2 0  and 10 3 0 
9055996		 # 	collision with: 5 0 0  and 9 2 0 
9055998		 # 	collision with: 6 2 0  and 3 3 0 
9056013		 # 	collision with: 3 3 0  and 6 5 0 
9056015		 # 	collision with: 6 8 0  and 10 0 1 
9056017		 # 	collision with: 6 1 0  and 3 0 1 
9056019		 # 	collision with: 1 3 0  and 8 4 0 
9056032		 # 	collision with: 5 4 0  and 6 2 1 
9056034		 # 	collision with: 3 5 0  and 5 0 1 
9056037		 # 	collision with: 8 2 0  and 0 4 0 
9056048		 # 	collision with: 9 4 0  and 1 6 0 
9056050		 # 	collision with: 9 1 0  and 6 2 0 
9056068		 # 	collision with: 7 10 0  and 8 1 1 
9056070		 # 	collision with: 5 1 0  and 9 2 0 
9056096		 # 	collision with: 4 0 0  and 3 1 0 
9056098		 # 	collision with: 5 2 0  and 3 4 0 
9056110		 # 	collision with: 10 0 0  and 2 2 0 
9056176		 # 	collision with: 5 0 0  and 8 2 0 
9056178		 # 	collision with: 8 0 1  and 3 1 1 
9056204		 # 	collision with: 3 3 0  and 7 5 0 
9056206		 # 	collision with: 6 6 0  and 9 0 1 
9056215		 # 	collision with: 0 3 0  and 5 4 0 
9056228		 # 	collision with: 0 5 0  and 1 0 1 
9056230		 # 	collision with: 6 3 0  and 1 5 0 
9056240		 # 	collision with: 3 8 0  and 6 0 1 
9056242		 # 	collision with: 5 1 0  and 5 0 1 
9056269		 # 	collision with: 3 2 0  and 2 3 0 
9056271		 # 	collision with: 10 3 0  and 3 0 1 
9056276		 # 	collision with: 2 7 0  and 5 0 1 
9056278		 # 	collision with: 7 1 0  and 7 0 1 
9056280		 # 	collision with: 5 1 0  and 4 2 1 
9056282		 # 	collision with: 0 9 0  and 3 0 1 
9056289		 # 	collision with: 3 2 0  and 2 3 0 
9056291		 # 	collision with: 6 0 0  and 10 1 0 
9056309		 # 	collision with: 3 2 0  and 2 3 0 
9056311		 # 	collision with: 5 2 0  and 9 4 0 
9056312		 # 	collision with: 4 1 0  and 9 2 0 
9056314		 # 	collision with: 8 1 0  and 8 0 1 
9056332		 # 	collision with: 5 1 0  and 6 1 1 
9056334		 # 	collision with: 10 2 0  and 7 4 0 
9056337		 # 	collision with: 3 2 0  and 2 3 0 
9056348		 # 	collision with: 8 3 0  and 4 4 0 
9056350		 # 	collision with: 4 1 0  and 10 3 0 
9056384		 # 	collision with: 5 1 0  and 9 2 0 
9056386		 # 	collision with: 5 3 0  and 3 4 0 
9056392		 # 	collision with: 0 6 0  and 10 0 1 
9056394		 # 	collision with: 7 2 0  and 4 0 1 
9056428		 # 	collision with: 8 0 0  and 6 2 0 
9056430		 # 	collision with: 9 5 0  and 8 6 0 
9056441		 # 	collision with: 10 0 0  and 4 1 0 
9056444		 # 	collision with: 9 5 0  and 0 6 0 
9056446		 # 	collision with: 0 0 0  and 1 1 1 
9056464		 # 	collision with: 2 3 0  and 6 0 1 
9056466		 # 	collision with: 6 2 0  and 5 4 0 
9056469		 # 	collision with: 3 2 0  and 2 3 0 
9056471		 # 	collision with: 1 2 0  and 4 2 1 
9056489		 # 	collision with: 3 2 0  and 2 3 0 
9056491		 # 	collision with: 3 2 0  and 0 3 0 
9056496		 # 	collision with: 4 1 0  and 6 3 0 
9056498		 # 	collision with: 1 9 0  and 4 0 1 
9056500		 # 	collision with: 1 4 0  and 7 6 0 
9056502		 # 	collision with: 8 0 0  and 10 2 0 
9056509		 # 	collision with: 3 2 0  and 2 3 0 
9056511		 # 	collision with: 7 4 0  and 6 1 1 
9056523		 # 	collision with: 6 8 0  and 0 0 1 
9056536		 # 	collision with: 0 2 0  and 6 3 0 
9056538		 # 	collision with: 1 1 0  and 3 2 0 
9056548		 # 	collision with: 9 0 0  and 8 1 0 
9056550		 # 	collision with: 7 0 0  and 8 1 0 
9056572		 # 	collision with: 4 9 0  and 6 0 1 
9056574		 # 	collision with: 2 2 0  and 6 3 0 
9056600		 # 	collision with: 7 2 0  and 6 0 1 
9056602		 # 	collision with: 2 0 0  and 3 2 0 
9056608		 # 	collision with: 0 3 0  and 3 5 0 
9056610		 # 	collision with: 7 3 0  and 10 4 0 
9056660		 # 	collision with: 1 5 0  and 1 0 1 
9056662		 # 	collision with: 6 8 0  and 0 0 1 
9056688		 # 	collision with: 0 0 0  and 1 1 1 
9056690		 # 	collision with: 9 8 0  and 8 0 1 
9056697		 # 	collision with: 10 2 0  and 8 3 0 
9056712		 # 	collision with: 6 6 0  and 4 0 1 
9056714		 # 	collision with: 7 7 0  and 5 0 1 
9056724		 # 	collision with: 7 8 0  and 4 0 1 
9056726		 # 	collision with: 5 1 0  and 10 3 0 
9056753		 # 	collision with: 5 6 0  and 2 7 0 
9056755		 # 	collision with: 4 3 0  and 3 4 0 
9056760		 # 	collision with: 10 4 0  and 3 5 0 
9056764		 # 	collision with: 4 5 0  and 4 0 1 
9056766		 # 	collision with: 0 0 0  and 1 1 1 
9056773		 # 	collision with: 9 3 0  and 10 4 0 
9056775		 # 	collision with: 4 3 0  and 3 4 0 
9056793		 # 	collision with: 4 6 0  and 5 6 0 
9056795		 # 	collision with: 4 3 0  and 3 4 0 
9056796		 # 	collision with: 6 10 0  and 10 1 1 
9056798		 # 	collision with: 5 0 0  and 7 1 0 
9056816		 # 	collision with: 3 5 0  and 3 0 1 
9056818		 # 	collision with: 7 3 0  and 2 1 1 
9056821		 # 	collision with: 10 0 0  and 4 1 0 
9056823		 # 	collision with: 4 3 0  and 3 4 0 
9056834		 # 	collision with: 10 8 0  and 9 0 1 
9056868		 # 	collision with: 9 5 0  and 9 0 1 
9056870		 # 	collision with: 1 1 0  and 9 3 0 
9056878		 # 	collision with: 3 6 0  and 2 0 1 
9056912		 # 	collision with: 10 0 0  and 5 1 0 
9056914		 # 	collision with: 7 2 0  and 6 3 0 
9056925		 # 	collision with: 0 3 0  and 6 5 0 
9056927		 # 	collision with: 4 3 0  and 3 4 0 
9056928		 # 	collision with: 10 1 0  and 7 2 0 
9056948		 # 	collision with: 8 0 0  and 3 2 0 
9056950		 # 	collision with: 0 3 0  and 10 5 0 
9056953		 # 	collision with: 4 5 0  and 5 5 0 
9056955		 # 	collision with: 5 0 0  and 7 1 0 
9056973		 # 	collision with: 10 0 0  and 5 1 0 
9056975		 # 	collision with: 4 3 0  and 3 4 0 
9056980		 # 	collision with: 9 5 0  and 0 6 0 
9056982		 # 	collision with: 4 1 0  and 1 2 0 
9056984		 # 	collision with: 9 2 0  and 3 3 0 
9056986		 # 	collision with: 3 2 0  and 5 4 0 
9056993		 # 	collision with: 10 4 0  and 10 0 1 
9057005		 # 	collision with: 8 6 0  and 0 0 1 
9057007		 # 	collision with: 4 3 0  and 3 4 0 
9057020		 # 	collision with: 10 9 0  and 6 1 1 
9057022		 # 	collision with: 8 1 0  and 3 2 0 
9057032		 # 	collision with: 5 1 0  and 3 3 0 
9057034		 # 	collision with: 7 0 0  and 1 1 0 
9057056		 # 	collision with: 7 2 0  and 0 4 0 
9057058		 # 	collision with: 0 4 0  and 7 5 0 
9057084		 # 	collision with: 3 3 0  and 8 4 0 
9057086		 # 	collision with: 8 1 0  and 0 0 1 
9057092		 # 	collision with: 0 2 0  and 3 3 0 
9057094		 # 	collision with: 8 4 0  and 1 6 0 
9057146		 # 	collision with: 3 0 0  and 10 1 0 
9057172		 # 	collision with: 2 1 0  and 3 0 1 
9057174		 # 	collision with: 4 1 0  and 5 1 0 
9057181		 # 	collision with: 4 1 0  and 5 1 0 
9057183		 # 	collision with: 3 2 0  and 4 4 0 
9057196		 # 	collision with: 4 1 0  and 0 2 0 
9057198		 # 	collision with: 10 5 0  and 0 2 1 
9057208		 # 	collision with: 0 1 0  and 4 3 0 
9057210		 # 	collision with: 4 6 0  and 5 6 0 
9057237		 # 	collision with: 2 5 0  and 7 6 0 
9057239		 # 	collision with: 3 4 0  and 2 1 1 
9057244		 # 	collision with: 5 5 0  and 1 0 1 
9057246		 # 	collision with: 4 4 0  and 5 4 0 
9057248		 # 	collision with: 1 4 0  and 7 5 0 
9057257		 # 	collision with: 9 1 0  and 4 3 0 
9057259		 # 	collision with: 2 4 0  and 7 6 0 
9057279		 # 	collision with: 2 2 0  and 3 3 0 
9057280		 # 	collision with: 8 3 0  and 8 1 1 
9057282		 # 	collision with: 4 3 0  and 5 3 0 
9057300		 # 	collision with: 9 3 0  and 3 3 1 
9057302		 # 	collision with: 5 2 0  and 0 4 0 
9057305		 # 	collision with: 9 5 0  and 0 0 1 
9057307		 # 	collision with: 6 5 0  and 0 0 1 
9057316		 # 	collision with: 1 10 0  and 2 1 1 
9057318		 # 	collision with: 4 4 0  and 4 6 0 
9057352		 # 	collision with: 4 1 0  and 3 3 0 
9057354		 # 	collision with: 0 1 0  and 7 3 0 
9057360		 # 	collision with: 7 8 0  and 10 2 1 
9057362		 # 	collision with: 9 6 0  and 4 0 1 
9057396		 # 	collision with: 9 0 0  and 8 1 0 
9057411		 # 	collision with: 5 0 0  and 10 1 1 
9057412		 # 	collision with: 7 4 0  and 2 1 1 
9057414		 # 	collision with: 9 2 0  and 3 0 1 
9057432		 # 	collision with: 3 1 0  and 4 2 0 
9057434		 # 	collision with: 5 4 0  and 4 6 0 
9057437		 # 	collision with: 0 0 0  and 1 1 0 
9057439		 # 	collision with: 3 3 0  and 8 5 0 
9057457		 # 	collision with: 6 5 0  and 3 6 0 
9057459		 # 	collision with: 0 1 0  and 2 3 0 
9057464		 # 	collision with: 1 9 0  and 9 0 1 
9057466		 # 	collision with: 6 0 0  and 1 2 1 
9057468		 # 	collision with: 1 5 0  and 2 2 1 
9057470		 # 	collision with: 9 4 0  and 0 6 0 
9057477		 # 	collision with: 9 5 0  and 4 1 1 
9057479		 # 	collision with: 4 1 0  and 7 0 1 
9057489		 # 	collision with: 4 10 0  and 5 10 0 
9057491		 # 	collision with: 4 5 0  and 5 5 0 
9057504		 # 	collision with: 3 3 0  and 8 4 0 
9057506		 # 	collision with: 4 5 0  and 5 5 0 
9057516		 # 	collision with: 0 3 0  and 10 4 0 
9057518		 # 	collision with: 10 1 0  and 0 2 0 
9057542		 # 	collision with: 2 4 0  and 2 6 0 
9057568		 # 	collision with: 5 0 0  and 1 2 0 
9057570		 # 	collision with: 3 3 0  and 8 5 0 
9057576		 # 	collision with: 9 3 0  and 10 4 0 
9057578		 # 	collision with: 4 8 0  and 3 0 1 
9057628		 # 	collision with: 10 0 0  and 4 1 0 
9057630		 # 	collision with: 2 0 0  and 8 1 0 
9057656		 # 	collision with: 1 3 0  and 6 0 1 
9057658		 # 	collision with: 6 10 0  and 0 1 1 
9057665		 # 	collision with: 2 0 0  and 0 1 0 
9057667		 # 	collision with: 1 2 0  and 2 0 1 
9057680		 # 	collision with: 9 3 0  and 6 5 0 
9057682		 # 	collision with: 10 1 0  and 9 0 1 
9057692		 # 	collision with: 6 4 0  and 0 2 1 
9057694		 # 	collision with: 0 3 0  and 4 4 0 
9057723		 # 	collision with: 3 4 0  and 0 0 1 
9057728		 # 	collision with: 0 3 0  and 6 5 0 
9057730		 # 	collision with: 3 2 0  and 4 4 0 
9057732		 # 	collision with: 5 6 0  and 2 7 0 
9057734		 # 	collision with: 10 6 0  and 7 0 1 
9057741		 # 	collision with: 2 0 0  and 0 1 0 
9057743		 # 	collision with: 4 4 0  and 5 4 0 
9057761		 # 	collision with: 2 0 0  and 0 1 0 
9057763		 # 	collision with: 0 0 0  and 1 1 1 
9057766		 # 	collision with: 3 2 0  and 0 3 0 
9057784		 # 	collision with: 2 9 0  and 4 0 1 
9057786		 # 	collision with: 8 8 0  and 7 0 1 
9057789		 # 	collision with: 2 0 0  and 0 1 0 
9057791		 # 	collision with: 1 4 0  and 9 5 0 
9057800		 # 	collision with: 3 4 0  and 7 0 1 
9057802		 # 	collision with: 9 10 0  and 6 1 1 
9057836		 # 	collision with: 9 1 0  and 4 3 0 
9057838		 # 	collision with: 8 3 0  and 4 5 0 
9057844		 # 	collision with: 2 2 0  and 9 4 0 
9057846		 # 	collision with: 9 3 0  and 5 4 0 
9057880		 # 	collision with: 2 2 0  and 0 4 0 
9057882		 # 	collision with: 9 1 0  and 7 3 0 
9057893		 # 	collision with: 2 0 0  and 0 1 0 
9057895		 # 	collision with: 9 5 0  and 8 0 1 
9057898		 # 	collision with: 5 6 0  and 0 1 1 
9057916		 # 	collision with: 0 5 0  and 9 6 0 
9057918		 # 	collision with: 7 0 0  and 1 1 0 
9057921		 # 	collision with: 2 0 0  and 0 1 0 
9057923		 # 	collision with: 8 1 0  and 9 3 0 
9057943		 # 	collision with: 4 7 0  and 5 7 0 
9057948		 # 	collision with: 7 5 0  and 9 0 1 
9057950		 # 	collision with: 2 7 0  and 2 1 1 
9057952		 # 	collision with: 5 1 0  and 6 3 0 
9057954		 # 	collision with: 10 1 0  and 0 2 0 
9057961		 # 	collision with: 2 0 0  and 0 1 0 
9057963		 # 	collision with: 4 4 0  and 10 5 0 
9057973		 # 	collision with: 2 0 0  and 0 1 0 
9057975		 # 	collision with: 6 0 0  and 9 2 0 
9057988		 # 	collision with: 4 0 0  and 8 2 0 
9058000		 # 	collision with: 7 4 0  and 5 6 0 
9058002		 # 	collision with: 10 1 0  and 9 2 0 
9058024		 # 	collision with: 8 4 0  and 1 0 1 
9058026		 # 	collision with: 3 0 0  and 9 2 0 
9058052		 # 	collision with: 9 5 0  and 0 6 0 
9058060		 # 	collision with: 9 5 0  and 0 6 0 
9058062		 # 	collision with: 1 1 0  and 6 2 0 
9058112		 # 	collision with: 10 0 0  and 5 1 0 
9058114		 # 	collision with: 1 1 0  and 6 2 0 
9058140		 # 	collision with: 4 2 0  and 5 2 0 
9058149		 # 	collision with: 9 2 0  and 1 4 0 
9058151		 # 	collision with: 4 0 0  and 7 1 0 
9058166		 # 	collision with: 1 1 0  and 6 2 0 
9058176		 # 	collision with: 4 1 0  and 5 1 0 
9058178		 # 	collision with: 1 1 0  and 6 2 0 
9058205		 # 	collision with: 1 4 0  and 7 5 0 
9058207		 # 	collision with: 8 1 0  and 6 2 0 
9058212		 # 	collision with: 7 5 0  and 2 6 0 
9058214		 # 	collision with: 3 0 0  and 10 1 0 
9058216		 # 	collision with: 10 1 0  and 2 2 0 
9058218		 # 	collision with: 1 1 0  and 6 2 0 
9058225		 # 	collision with: 0 2 0  and 6 3 0 
9058245		 # 	collision with: 9 4 0  and 4 0 1 
9058248		 # 	collision with: 4 6 0  and 5 6 0 
9058250		 # 	collision with: 1 1 0  and 6 2 0 
9058268		 # 	collision with: 5 6 0  and 7 0 1 
9058270		 # 	collision with: 1 1 0  and 6 2 0 
9058273		 # 	collision with: 4 4 0  and 7 1 1 
9058275		 # 	collision with: 6 0 0  and 9 2 0 
9058284		 # 	collision with: 2 5 0  and 7 6 0 
9058286		 # 	collision with: 2 0 0  and 3 2 0 
9058320		 # 	collision with: 8 3 0  and 5 4 0 
9058322		 # 	collision with: 4 0 0  and 2 1 0 
9058328		 # 	collision with: 0 2 0  and 8 4 0 
9058364		 # 	collision with: 4 4 0  and 5 4 0 
9058366		 # 	collision with: 1 1 0  and 6 2 0 
9058377		 # 	collision with: 4 0 0  and 1 2 0 
9058379		 # 	collision with: 6 0 0  and 10 1 0 
9058380		 # 	collision with: 7 1 0  and 10 3 0 
9058382		 # 	collision with: 1 1 0  and 6 2 0 
9058400		 # 	collision with: 4 5 0  and 5 5 0 
9058402		 # 	collision with: 1 1 0  and 6 2 0 
9058405		 # 	collision with: 9 3 0  and 6 5 0 
9058407		 # 	collision with: 10 2 0  and 7 4 0 
9058425		 # 	collision with: 4 3 0  and 5 3 0 
9058427		 # 	collision with: 5 5 0  and 5 1 1 
9058432		 # 	collision with: 10 4 0  and 6 6 0 
9058434		 # 	collision with: 1 1 0  and 6 2 0 
9058436		 # 	collision with: 4 3 0  and 5 3 0 
9058438		 # 	collision with: 1 1 0  and 6 2 0 
9058445		 # 	collision with: 2 0 0  and 9 1 0 
9058447		 # 	collision with: 1 4 0  and 9 5 0 
9058457		 # 	collision with: 6 3 0  and 8 4 0 
9058459		 # 	collision with: 7 0 0  and 3 2 0 
9058474		 # 	collision with: 1 1 0  and 6 2 0 
9058484		 # 	collision with: 8 0 0  and 6 2 0 
9058486		 # 	collision with: 1 1 0  and 6 2 0 
9058508		 # 	collision with: 6 5 0  and 3 6 0 
9058510		 # 	collision with: 1 1 0  and 6 2 0 
9058536		 # 	collision with: 10 3 0  and 1 5 0 
9058538		 # 	collision with: 1 1 0  and 6 2 0 
9058544		 # 	collision with: 3 2 0  and 2 3 0 
9058546		 # 	collision with: 5 5 0  and 3 0 1 
9058596		 # 	collision with: 0 0 0  and 8 1 0 
9058598		 # 	collision with: 1 9 0  and 9 0 1 
9058624		 # 	collision with: 3 2 0  and 2 3 0 
9058626		 # 	collision with: 9 1 0  and 2 3 0 
9058633		 # 	collision with: 6 3 0  and 2 5 0 
9058635		 # 	collision with: 7 2 0  and 3 3 0 
9058648		 # 	collision with: 8 0 0  and 3 2 0 
9058660		 # 	collision with: 3 2 0  and 2 3 0 
9058662		 # 	collision with: 10 7 0  and 0 0 1 
9058689		 # 	collision with: 1 3 0  and 4 4 0 
9058691		 # 	collision with: 2 2 0  and 6 3 0 
9058698		 # 	collision with: 1 5 0  and 9 2 1 
9058700		 # 	collision with: 3 2 0  and 2 3 0 
9058702		 # 	collision with: 5 0 0  and 7 3 1 
9058709		 # 	collision with: 1 5 0  and 10 0 1 
9058711		 # 	collision with: 6 4 0  and 6 6 0 
9058729		 # 	collision with: 6 1 0  and 1 0 1 
9058731		 # 	collision with: 7 0 0  and 1 1 0 
9058732		 # 	collision with: 3 2 0  and 2 3 0 
9058752		 # 	collision with: 3 2 0  and 2 3 0 
9058754		 # 	collision with: 5 0 0  and 2 1 0 
9058757		 # 	collision with: 0 2 0  and 3 3 0 
9058759		 # 	collision with: 7 9 0  and 2 0 1 
9058768		 # 	collision with: 10 1 0  and 2 2 0 
9058770		 # 	collision with: 4 2 0  and 9 4 0 
9058804		 # 	collision with: 3 2 0  and 2 3 0 
9058806		 # 	collision with: 1 2 0  and 10 3 0 
9058812		 # 	collision with: 3 2 0  and 2 3 0 
9058814		 # 	collision with: 0 3 0  and 4 4 0 
9058848		 # 	collision with: 10 0 0  and 9 2 0 
9058850		 # 	collision with: 10 1 0  and 9 2 0 
9058861		 # 	collision with: 4 5 0  and 4 6 0 
9058863		 # 	collision with: 0 1 0  and 2 3 0 
9058864		 # 	collision with: 3 2 0  and 2 3 0 
9058866		 # 	collision with: 8 4 0  and 1 6 0 
9058884		 # 	collision with: 3 2 0  and 2 3 0 
9058886		 # 	collision with: 6 0 0  and 10 1 0 
9058889		 # 	collision with: 8 2 0  and 2 0 1 
9058891		 # 	collision with: 3 4 0  and 7 0 1 
9058909		 # 	collision with: 5 4 0  and 4 1 1 
9058911		 # 	collision with: 0 1 0  and 7 3 0 
9058918		 # 	collision with: 4 6 0  and 1 3 1 
9058920		 # 	collision with: 2 0 0  and 9 1 0 
9058922		 # 	collision with: 0 5 0  and 1 6 0 
9058929		 # 	collision with: 1 8 0  and 4 0 1 
9058931		 # 	collision with: 5 1 0  and 1 2 0 
9058941		 # 	collision with: 3 1 0  and 2 2 1 
9058943		 # 	collision with: 0 3 0  and 4 4 0 
9058956		 # 	collision with: 3 2 0  and 2 3 0 
9058958		 # 	collision with: 6 0 0  and 9 2 0 
9058968		 # 	collision with: 3 2 0  and 2 3 0 
9058970		 # 	collision with: 3 2 0  and 5 4 0 
9058992		 # 	collision with: 3 2 0  and 2 3 0 
9058994		 # 	collision with: 3 0 1  and 4 1 1 
9059020		 # 	collision with: 3 2 0  and 2 3 0 
9059022		 # 	collision with: 1 3 0  and 4 5 0 
9059028		 # 	collision with: 8 1 0  and 2 2 1 
9059030		 # 	collision with: 5 1 0  and 1 2 0 
9059080		 # 	collision with: 4 6 0  and 0 0 1 
9059082		 # 	collision with: 4 2 0  and 9 4 0 
9059108		 # 	collision with: 7 7 0  and 3 0 1 
9059110		 # 	collision with: 9 5 0  and 1 6 0 
9059117		 # 	collision with: 2 2 0  and 9 4 0 
9059119		 # 	collision with: 2 9 0  and 4 1 1 
9059132		 # 	collision with: 4 1 0  and 9 2 0 
9059134		 # 	collision with: 8 4 0  and 1 6 0 
9059144		 # 	collision with: 7 4 0  and 8 0 1 
9059146		 # 	collision with: 4 7 0  and 4 0 1 
9059173		 # 	collision with: 0 2 0  and 3 1 1 
9059175		 # 	collision with: 4 10 0  and 6 1 1 
9059180		 # 	collision with: 5 0 0  and 8 2 0 
9059182		 # 	collision with: 2 5 0  and 7 0 1 
9059186		 # 	collision with: 6 7 0  and 0 2 1 
9059193		 # 	collision with: 8 4 0  and 2 6 0 
9059195		 # 	collision with: 7 0 0  and 1 1 0 
9059213		 # 	collision with: 4 5 0  and 4 6 0 
9059215		 # 	collision with: 2 3 0  and 10 4 0 
9059216		 # 	collision with: 10 3 0  and 1 5 0 
9059218		 # 	collision with: 2 7 0  and 2 0 1 
9059236		 # 	collision with: 3 3 0  and 1 4 0 
9059238		 # 	collision with: 10 5 0  and 5 6 0 
9059241		 # 	collision with: 1 4 0  and 7 5 0 
9059243		 # 	collision with: 3 7 0  and 3 0 1 
9059252		 # 	collision with: 0 0 0  and 8 1 0 
9059254		 # 	collision with: 6 7 0  and 6 0 1 
9059288		 # 	collision with: 5 1 0  and 6 3 0 
9059290		 # 	collision with: 9 4 0  and 7 5 0 
9059296		 # 	collision with: 2 4 0  and 0 0 1 
9059298		 # 	collision with: 3 0 0  and 9 2 0 
9059332		 # 	collision with: 7 4 0  and 5 6 0 
9059334		 # 	collision with: 3 3 0  and 1 5 0 
9059345		 # 	collision with: 9 2 0  and 1 4 0 
9059347		 # 	collision with: 8 4 0  and 1 6 0 
9059348		 # 	collision with: 4 0 0  and 1 2 0 
9059350		 # 	collision with: 8 4 0  and 1 0 1 
9059368		 # 	collision with: 6 3 0  and 8 4 0 
9059373		 # 	collision with: 10 2 0  and 4 4 0 
9059375		 # 	collision with: 4 1 1  and 10 2 1 
9059393		 # 	collision with: 8 3 0  and 4 4 0 
9059395		 # 	collision with: 9 1 0  and 2 3 0 
9059400		 # 	collision with: 9 0 0  and 1 1 0 
9059402		 # 	collision with: 2 2 0  and 6 3 0 
9059406		 # 	collision with: 0 1 0  and 2 3 0 
9059413		 # 	collision with: 0 1 0  and 4 3 0 
9059415		 # 	collision with: 9 3 0  and 2 1 1 
9059425		 # 	collision with: 0 2 0  and 6 3 0 
9059427		 # 	collision with: 3 2 0  and 0 3 0 
9059440		 # 	collision with: 10 1 0  and 0 1 1 
9059442		 # 	collision with: 5 0 0  and 2 1 0 
9059452		 # 	collision with: 10 3 0  and 8 5 0 
9059476		 # 	collision with: 4 1 0  and 3 3 0 
9059478		 # 	collision with: 3 7 0  and 3 0 1 
9059504		 # 	collision with: 5 5 0  and 3 0 1 
9059506		 # 	collision with: 9 9 0  and 4 1 1 
9059512		 # 	collision with: 0 5 0  and 9 6 0 
9059514		 # 	collision with: 6 3 0  and 8 5 0 
9059564		 # 	collision with: 4 2 0  and 5 2 0 
9059566		 # 	collision with: 6 3 0  and 8 5 0 
9059592		 # 	collision with: 9 2 0  and 8 4 0 
9059594		 # 	collision with: 8 1 0  and 0 3 0 
9059601		 # 	collision with: 9 1 0  and 5 3 0 
9059603		 # 	collision with: 6 5 0  and 6 0 1 
9059616		 # 	collision with: 4 1 0  and 5 1 0 
9059618		 # 	collision with: 6 3 0  and 8 5 0 
9059630		 # 	collision with: 6 3 0  and 8 5 0 
9059657		 # 	collision with: 8 2 0  and 6 1 1 
9059659		 # 	collision with: 0 4 0  and 5 1 1 
9059664		 # 	collision with: 0 0 0  and 1 1 0 
9059666		 # 	collision with: 6 3 0  and 8 5 0 
9059668		 # 	collision with: 9 5 0  and 0 6 0 
9059670		 # 	collision with: 6 3 0  and 8 5 0 
9059677		 # 	collision with: 1 2 0  and 2 0 1 
9059679		 # 	collision with: 4 0 0  and 2 1 0 
9059697		 # 	collision with: 2 0 0  and 9 1 0 
9059699		 # 	collision with: 4 3 0  and 5 3 0 
9059700		 # 	collision with: 9 1 0  and 9 0 1 
9059702		 # 	collision with: 6 3 0  and 8 5 0 
9059720		 # 	collision with: 1 5 0  and 1 6 0 
9059722		 # 	collision with: 6 3 0  and 8 5 0 
9059725		 # 	collision with: 7 1 0  and 10 3 0 
9059727		 # 	collision with: 9 4 0  and 7 5 0 
9059736		 # 	collision with: 10 5 0  and 1 0 1 
9059738		 # 	collision with: 10 2 0  and 7 4 0 
9059772		 # 	collision with: 3 5 0  and 3 6 0 
9059780		 # 	collision with: 4 4 0  and 5 4 0 
9059782		 # 	collision with: 6 3 0  and 8 5 0 
9059816		 # 	collision with: 4 1 0  and 0 2 0 
9059818		 # 	collision with: 2 0 0  and 8 1 0 
9059829		 # 	collision with: 8 4 0  and 6 0 1 
9059831		 # 	collision with: 0 6 0  and 1 0 1 
9059832		 # 	collision with: 4 5 0  and 5 5 0 
9059834		 # 	collision with: 4 1 0  and 8 2 0 
9059852		 # 	collision with: 2 1 0  and 2 0 1 
9059854		 # 	collision with: 6 3 0  and 8 5 0 
9059857		 # 	collision with: 9 1 0  and 4 3 0 
9059877		 # 	collision with: 8 4 0  and 7 6 0 
9059884		 # 	collision with: 4 3 0  and 5 3 0 
9059886		 # 	collision with: 4 0 0  and 7 1 0 
9059888		 # 	collision with: 10 10 0  and 6 0 1 
9059890		 # 	collision with: 6 3 0  and 8 5 0 
9059897		 # 	collision with: 4 1 0  and 3 3 0 
9059899		 # 	collision with: 10 9 0  and 6 1 1 
9059909		 # 	collision with: 3 1 0  and 1 0 1 
9059911		 # 	collision with: 8 2 0  and 10 3 0 
9059924		 # 	collision with: 4 1 0  and 4 0 1 
9059926		 # 	collision with: 6 3 0  and 8 5 0 
9059938		 # 	collision with: 6 2 0  and 0 3 0 
9059960		 # 	collision with: 2 4 0  and 5 5 0 
9059988		 # 	collision with: 8 5 0  and 1 6 0 
9059990		 # 	collision with: 6 3 0  and 8 5 0 
9059996		 # 	collision with: 3 3 0  and 2 5 0 
9059998		 # 	collision with: 4 3 0  and 3 4 0 
8.76844secs	5532
