# prime 11
# degree 2
# input variables 3
# output variables 5
# reload computed balance functions from file balance-535of3248-p11d2m3-debug.log
# p = 11
# n = 5
# smalldomain p^m 1331
# domain p^n 161051
#	 p^2 = 121
#	 p^3 = 1331
#	 p^4 = 14641
#	 p^5 = 161051
#	 p^6 = 1771561
#	 p^7 = 19487171
#	 p^8 = 214358881
#	 p^9 = 2357947691
opening file : balance-535of3248-p11d2m3-debug.log
reloading for step2...
3210000		 # 	collision with: 3 2 0 0 0  and 5 2 0 0 0 
3210002		 # 	collision with: 1 4 2 0 0  and 1 6 2 0 0 
3210043		 # 	collision with: 4 2 0 0 0  and 4 2 1 0 0 
3210058		 # 	collision with: 1 4 5 0 0  and 1 6 5 0 0 
3210068		 # 	collision with: 0 1 0 0 0  and 1 1 0 0 0 
3210070		 # 	collision with: 1 2 1 0 0  and 1 3 1 0 0 
3210101		 # 	collision with: 2 8 0 0 0  and 4 8 0 0 0 
3210124		 # 	collision with: 1 3 0 0 0  and 3 3 0 0 0 
3210126		 # 	collision with: 1 4 3 0 0  and 1 5 3 0 0 
3210133		 # 	collision with: 0 9 0 0 0  and 2 9 0 0 0 
3210135		 # 	collision with: 6 9 0 0 0  and 6 9 1 0 0 
3210173		 # 	collision with: 6 0 0 0 0  and 9 1 0 0 0 
3210175		 # 	collision with: 2 2 0 0 0  and 2 2 1 0 0 
3210180		 # 	collision with: 2 8 0 0 0  and 4 8 0 0 0 
3210182		 # 	collision with: 1 0 8 0 0  and 1 1 8 0 0 
3210205		 # 	collision with: 10 0 0 0 0  and 3 1 0 0 0 
3210207		 # 	collision with: 10 5 0 0 0  and 10 5 1 0 0 
3210236		 # 	collision with: 4 10 0 0 0  and 5 10 0 0 0 
3210238		 # 	collision with: 1 2 10 0 0  and 1 3 10 0 0 
3210248		 # 	collision with: 1 6 0 0 0  and 2 6 0 0 0 
3210250		 # 	collision with: 1 5 6 0 0  and 1 6 6 0 0 
3210265		 # 	collision with: 0 9 0 0 0  and 2 9 0 0 0 
3210285		 # 	collision with: 0 1 0 0 0  and 1 1 0 0 0 
3210287		 # 	collision with: 1 0 1 0 0  and 1 1 1 0 0 
3210304		 # 	collision with: 0 9 0 0 0  and 2 9 0 0 0 
3210306		 # 	collision with: 1 5 9 0 0  and 1 6 9 0 0 
3210360		 # 	collision with: 4 7 0 0 0  and 6 7 0 0 0 
3210362		 # 	collision with: 1 4 7 0 0  and 1 5 7 0 0 
3210365		 # 	collision with: 2 8 0 0 0  and 4 8 0 0 0 
3210367		 # 	collision with: 1 8 0 0 0  and 1 0 1 0 0 
3210378		 # 	collision with: 1 3 0 0 0  and 1 5 0 0 0 
3210382		 # 	collision with: 1 1 0 0 0  and 1 2 0 0 0 
3210386		 # 	collision with: 1 4 0 0 0  and 1 5 0 0 0 
3210390		 # 	collision with: 1 1 0 0 0  and 1 3 0 0 0 
3210394		 # 	collision with: 1 4 0 0 0  and 1 6 0 0 0 
3210398		 # 	collision with: 1 2 0 0 0  and 1 3 0 0 0 
3210402		 # 	collision with: 1 5 0 0 0  and 1 6 0 0 0 
3210406		 # 	collision with: 1 2 0 0 0  and 1 4 0 0 0 
3210410		 # 	collision with: 1 5 0 0 0  and 1 7 0 0 0 
3210414		 # 	collision with: 1 3 0 0 0  and 1 4 0 0 0 
3210421		 # 	collision with: 1 7 0 0 0  and 3 7 0 0 0 
3210423		 # 	collision with: 1 2 6 0 0  and 1 3 6 0 0 
3210424		 # 	collision with: 0 0 0 0 0  and 2 0 0 0 0 
3210426		 # 	collision with: 1 1 0 0 0  and 1 2 0 0 0 
3210476		 # 	collision with: 0 0 0 0 0  and 2 0 0 0 0 
3210478		 # 	collision with: 1 1 0 0 0  and 1 3 0 0 0 
3210497		 # 	collision with: 2 3 0 0 0  and 4 3 0 0 0 
3210499		 # 	collision with: 6 2 5 0 0  and 6 2 6 0 0 
3210513		 # 	collision with: 4 6 0 0 0  and 6 6 0 0 0 
3210515		 # 	collision with: 1 2 5 0 0  and 1 4 6 0 0 
3210528		 # 	collision with: 0 0 0 0 0  and 2 0 0 0 0 
3210530		 # 	collision with: 1 2 0 0 0  and 1 3 0 0 0 
3210569		 # 	collision with: 0 2 0 0 0  and 1 2 0 0 0 
3210571		 # 	collision with: 1 7 5 0 0  and 1 3 6 0 0 
3210580		 # 	collision with: 0 0 0 0 0  and 2 0 0 0 0 
3210582		 # 	collision with: 1 2 0 0 0  and 1 4 0 0 0 
3210597		 # 	collision with: 1 7 0 0 0  and 3 7 0 0 0 
3210599		 # 	collision with: 1 2 6 0 0  and 1 3 6 0 0 
3210632		 # 	collision with: 0 0 0 0 0  and 2 0 0 0 0 
3210634		 # 	collision with: 1 3 0 0 0  and 1 4 0 0 0 
3210640		 # 	collision with: 0 0 0 0 0  and 2 0 0 0 0 
3210642		 # 	collision with: 1 3 0 0 0  and 1 5 0 0 0 
3210677		 # 	collision with: 2 5 0 0 0  and 3 5 0 0 0 
3210679		 # 	collision with: 1 0 1 0 0  and 1 1 1 0 0 
3210692		 # 	collision with: 0 0 0 0 0  and 2 0 0 0 0 
3210694		 # 	collision with: 1 4 0 0 0  and 1 5 0 0 0 
3210705		 # 	collision with: 10 5 0 0 0  and 8 6 0 0 0 
3210707		 # 	collision with: 5 3 5 0 0  and 5 3 6 0 0 
3210744		 # 	collision with: 0 0 0 0 0  and 2 0 0 0 0 
3210746		 # 	collision with: 1 4 0 0 0  and 1 6 0 0 0 
3210761		 # 	collision with: 2 3 0 0 0  and 4 3 0 0 0 
3210763		 # 	collision with: 7 2 5 0 0  and 7 2 6 0 0 
3210777		 # 	collision with: 4 6 0 0 0  and 6 6 0 0 0 
3210779		 # 	collision with: 7 9 5 0 0  and 7 9 6 0 0 
3210796		 # 	collision with: 0 0 0 0 0  and 2 0 0 0 0 
3210798		 # 	collision with: 1 5 0 0 0  and 1 6 0 0 0 
3210848		 # 	collision with: 0 0 0 0 0  and 2 0 0 0 0 
3210850		 # 	collision with: 1 5 0 0 0  and 1 7 0 0 0 
3210853		 # 	collision with: 2 5 0 0 0  and 3 5 0 0 0 
3210855		 # 	collision with: 1 0 1 0 0  and 1 1 1 0 0 
3210856		 # 	collision with: 7 10 5 9 0  and 4 1 0 0 1 
3210858		 # 	collision with: 9 7 2 0 0  and 8 6 0 1 0 
3210860		 # 	collision with: 3 10 0 0 0  and 5 10 0 0 0 
3210862		 # 	collision with: 1 1 10 0 0  and 1 2 10 0 0 
3210864		 # 	collision with: 2 5 0 0 0  and 3 5 0 0 0 
3210866		 # 	collision with: 1 2 5 0 0  and 1 4 5 0 0 
3210868		 # 	collision with: 1 7 0 0 0  and 3 7 0 0 0 
3210870		 # 	collision with: 1 5 7 0 0  and 1 6 7 0 0 
3210872		 # 	collision with: 4 8 0 0 0  and 5 8 0 0 0 
3210874		 # 	collision with: 1 5 8 0 0  and 1 6 8 0 0 
3210876		 # 	collision with: 0 2 0 0 0  and 1 2 0 0 0 
3210878		 # 	collision with: 1 4 2 0 0  and 1 5 2 0 0 
3210880		 # 	collision with: 1 9 0 0 0  and 2 9 0 0 0 
3210882		 # 	collision with: 1 2 9 0 0  and 1 4 9 0 0 
3210884		 # 	collision with: 2 3 0 0 0  and 4 3 0 0 0 
3210886		 # 	collision with: 1 1 3 0 0  and 1 3 3 0 0 
3210888		 # 	collision with: 5 4 0 0 0  and 6 4 0 0 0 
3210890		 # 	collision with: 1 1 4 0 0  and 1 3 4 0 0 
3210892		 # 	collision with: 4 6 0 0 0  and 6 6 0 0 0 
3210894		 # 	collision with: 1 4 6 0 0  and 1 5 6 0 0 
3210896		 # 	collision with: 3 1 0 0 0  and 4 1 0 0 0 
3210905		 # 	collision with: 2 5 0 0 0  and 3 5 0 0 0 
3210907		 # 	collision with: 1 2 4 0 0  and 1 4 4 0 0 
3210908		 # 	collision with: 2 5 0 0 0  and 3 5 0 0 0 
3210910		 # 	collision with: 1 2 5 0 0  and 1 4 5 0 0 
3210960		 # 	collision with: 4 8 0 0 0  and 5 8 0 0 0 
3210962		 # 	collision with: 1 5 8 0 0  and 1 6 8 0 0 
3210981		 # 	collision with: 3 10 0 0 0  and 5 10 0 0 0 
3210983		 # 	collision with: 1 2 3 0 0  and 1 3 3 0 0 
3210997		 # 	collision with: 3 4 0 0 0  and 4 6 0 0 0 
3210999		 # 	collision with: 1 3 1 0 0  and 1 5 1 0 0 
3211012		 # 	collision with: 1 9 0 0 0  and 2 9 0 0 0 
3211014		 # 	collision with: 1 2 9 0 0  and 1 4 9 0 0 
3211053		 # 	collision with: 2 3 0 0 0  and 4 3 0 0 0 
3211055		 # 	collision with: 1 4 0 0 0  and 1 6 0 0 0 
3211064		 # 	collision with: 5 4 0 0 0  and 6 4 0 0 0 
3211066		 # 	collision with: 1 1 4 0 0  and 1 3 4 0 0 
3211081		 # 	collision with: 2 5 0 0 0  and 3 5 0 0 0 
3211083		 # 	collision with: 1 2 4 0 0  and 1 4 4 0 0 
3211116		 # 	collision with: 3 1 0 0 0  and 4 1 0 0 0 
3211124		 # 	collision with: 3 10 0 0 0  and 5 10 0 0 0 
3211126		 # 	collision with: 1 1 10 0 0  and 1 2 10 0 0 
3211161		 # 	collision with: 0 2 0 0 0  and 1 2 0 0 0 
3211176		 # 	collision with: 1 7 0 0 0  and 3 7 0 0 0 
3211178		 # 	collision with: 1 5 7 0 0  and 1 6 7 0 0 
3211189		 # 	collision with: 8 4 0 0 0  and 4 6 0 0 0 
3211191		 # 	collision with: 1 0 4 0 0  and 1 4 6 0 0 
3211230		 # 	collision with: 1 4 2 0 0  and 1 5 2 0 0 
3211247		 # 	collision with: 1 2 3 0 0  and 1 3 3 0 0 
3211261		 # 	collision with: 3 4 0 0 0  and 4 6 0 0 0 
3211263		 # 	collision with: 1 3 1 0 0  and 1 5 1 0 0 
3211280		 # 	collision with: 2 3 0 0 0  and 4 3 0 0 0 
3211282		 # 	collision with: 1 1 3 0 0  and 1 3 3 0 0 
3211332		 # 	collision with: 4 6 0 0 0  and 6 6 0 0 0 
3211334		 # 	collision with: 1 4 6 0 0  and 1 5 6 0 0 
3211337		 # 	collision with: 0 2 0 0 0  and 1 2 0 0 0 
3211340		 # 	collision with: 7 3 4 8 0  and 8 1 0 0 1 
3211342		 # 	collision with: 8 2 1 0 0  and 6 8 0 1 0 
3211344		 # 	collision with: 1 9 0 0 0  and 2 9 0 0 0 
3211346		 # 	collision with: 1 4 9 0 0  and 1 5 9 0 0 
3211348		 # 	collision with: 3 10 0 0 0  and 5 10 0 0 0 
3211350		 # 	collision with: 1 4 10 0 0  and 1 5 10 0 0 
3211352		 # 	collision with: 2 3 0 0 0  and 4 3 0 0 0 
3211354		 # 	collision with: 1 0 3 0 0  and 1 2 3 0 0 
3211356		 # 	collision with: 2 5 0 0 0  and 3 5 0 0 0 
3211358		 # 	collision with: 1 3 5 0 0  and 1 4 5 0 0 
3211360		 # 	collision with: 5 4 0 0 0  and 6 4 0 0 0 
3211362		 # 	collision with: 1 3 4 0 0  and 1 5 4 0 0 
3211364		 # 	collision with: 1 7 0 0 0  and 3 7 0 0 0 
3211366		 # 	collision with: 1 3 7 0 0  and 1 4 7 0 0 
3211368		 # 	collision with: 4 6 0 0 0  and 6 6 0 0 0 
3211370		 # 	collision with: 1 3 6 0 0  and 1 5 6 0 0 
3211372		 # 	collision with: 4 8 0 0 0  and 5 8 0 0 0 
3211374		 # 	collision with: 1 0 8 0 0  and 1 2 8 0 0 
3211376		 # 	collision with: 3 1 0 0 0  and 4 1 0 0 0 
3211380		 # 	collision with: 0 2 0 0 0  and 1 2 0 0 0 
3211382		 # 	collision with: 1 2 2 0 0  and 1 4 2 0 0 
3211389		 # 	collision with: 2 3 0 0 0  and 4 3 0 0 0 
3211391		 # 	collision with: 1 3 2 0 0  and 1 4 2 0 0 
3211392		 # 	collision with: 3 10 0 0 0  and 5 10 0 0 0 
3211394		 # 	collision with: 1 4 10 0 0  and 1 5 10 0 0 
3211444		 # 	collision with: 2 5 0 0 0  and 3 5 0 0 0 
3211446		 # 	collision with: 1 3 5 0 0  and 1 4 5 0 0 
3211465		 # 	collision with: 7 4 0 0 0  and 2 5 0 0 0 
3211481		 # 	collision with: 3 1 0 0 0  and 4 1 0 0 0 
3211483		 # 	collision with: 1 0 4 0 0  and 1 1 4 0 0 
3211496		 # 	collision with: 1 7 0 0 0  and 3 7 0 0 0 
3211498		 # 	collision with: 1 3 7 0 0  and 1 4 7 0 0 
3211537		 # 	collision with: 5 4 0 0 0  and 6 4 0 0 0 
3211539		 # 	collision with: 1 1 1 0 0  and 1 3 1 0 0 
3211548		 # 	collision with: 4 8 0 0 0  and 5 8 0 0 0 
3211550		 # 	collision with: 1 0 8 0 0  and 1 2 8 0 0 
3211567		 # 	collision with: 1 3 2 0 0  and 1 4 2 0 0 
3211602		 # 	collision with: 1 2 2 0 0  and 1 4 2 0 0 
3211608		 # 	collision with: 1 9 0 0 0  and 2 9 0 0 0 
3211610		 # 	collision with: 1 4 9 0 0  and 1 5 9 0 0 
3211645		 # 	collision with: 4 4 0 0 0  and 3 5 0 0 0 
3211647		 # 	collision with: 1 9 4 0 0  and 1 3 5 0 0 
3211660		 # 	collision with: 2 3 0 0 0  and 4 3 0 0 0 
3211662		 # 	collision with: 1 0 3 0 0  and 1 2 3 0 0 
3211673		 # 	collision with: 4 4 0 0 0  and 2 5 0 0 0 
3211675		 # 	collision with: 1 8 4 0 0  and 1 0 5 0 0 
3211712		 # 	collision with: 5 4 0 0 0  and 6 4 0 0 0 
3211714		 # 	collision with: 1 3 4 0 0  and 1 5 4 0 0 
3211729		 # 	collision with: 7 4 0 0 0  and 2 5 0 0 0 
3211745		 # 	collision with: 3 1 0 0 0  and 4 1 0 0 0 
3211747		 # 	collision with: 1 0 4 0 0  and 1 1 4 0 0 
3211764		 # 	collision with: 4 6 0 0 0  and 6 6 0 0 0 
3211766		 # 	collision with: 1 3 6 0 0  and 1 5 6 0 0 
3211816		 # 	collision with: 3 1 0 0 0  and 4 1 0 0 0 
3211821		 # 	collision with: 4 4 0 0 0  and 3 5 0 0 0 
3211823		 # 	collision with: 4 8 4 0 0  and 4 8 5 0 0 
3211824		 # 	collision with: 5 9 5 7 0  and 3 2 0 0 1 
3211826		 # 	collision with: 2 4 8 0 0  and 10 1 0 1 0 
3211828		 # 	collision with: 4 8 0 0 0  and 5 8 0 0 0 
3211830		 # 	collision with: 1 1 8 0 0  and 1 3 8 0 0 
3211832		 # 	collision with: 5 4 0 0 0  and 6 4 0 0 0 
3211834		 # 	collision with: 1 0 4 0 0  and 1 1 4 0 0 
3211836		 # 	collision with: 3 10 0 0 0  and 5 10 0 0 0 
3211838		 # 	collision with: 1 1 10 0 0  and 1 3 10 0 0 
3211840		 # 	collision with: 0 2 0 0 0  and 1 2 0 0 0 
3211842		 # 	collision with: 1 1 2 0 0  and 1 2 2 0 0 
3211844		 # 	collision with: 4 6 0 0 0  and 6 6 0 0 0 
3211846		 # 	collision with: 1 3 6 0 0  and 1 4 6 0 0 
3211848		 # 	collision with: 2 5 0 0 0  and 3 5 0 0 0 
3211850		 # 	collision with: 1 3 5 0 0  and 1 5 5 0 0 
3211852		 # 	collision with: 1 9 0 0 0  and 2 9 0 0 0 
3211854		 # 	collision with: 1 0 9 0 0  and 1 1 9 0 0 
3211856		 # 	collision with: 3 1 0 0 0  and 4 1 0 0 0 
3211860		 # 	collision with: 1 7 0 0 0  and 3 7 0 0 0 
3211862		 # 	collision with: 1 1 7 0 0  and 1 2 7 0 0 
3211864		 # 	collision with: 2 3 0 0 0  and 4 3 0 0 0 
3211866		 # 	collision with: 1 5 3 0 0  and 1 6 3 0 0 
3211873		 # 	collision with: 3 1 0 0 0  and 4 1 0 0 0 
3211875		 # 	collision with: 1 3 0 0 0  and 1 5 0 0 0 
3211876		 # 	collision with: 5 4 0 0 0  and 6 4 0 0 0 
3211878		 # 	collision with: 1 0 4 0 0  and 1 1 4 0 0 
3211930		 # 	collision with: 1 1 2 0 0  and 1 2 2 0 0 
3211951		 # 	collision with: 2 5 3 0 0  and 2 5 5 0 0 
3211965		 # 	collision with: 5 4 0 0 0  and 6 4 0 0 0 
3211967		 # 	collision with: 9 6 3 0 0  and 9 6 5 0 0 
3211980		 # 	collision with: 2 5 0 0 0  and 3 5 0 0 0 
3211982		 # 	collision with: 1 3 5 0 0  and 1 5 5 0 0 
3212021		 # 	collision with: 10 3 0 0 0  and 1 5 0 0 0 
3212023		 # 	collision with: 1 4 2 0 0  and 1 5 2 0 0 
3212032		 # 	collision with: 3 1 0 0 0  and 4 1 0 0 0 
3212049		 # 	collision with: 3 1 0 0 0  and 4 1 0 0 0 
3212051		 # 	collision with: 1 3 0 0 0  and 1 5 0 0 0 
3212084		 # 	collision with: 2 3 0 0 0  and 4 3 0 0 0 
3212086		 # 	collision with: 1 5 3 0 0  and 1 6 3 0 0 
3212092		 # 	collision with: 4 8 0 0 0  and 5 8 0 0 0 
3212094		 # 	collision with: 1 1 8 0 0  and 1 3 8 0 0 
3212129		 # 	collision with: 8 3 0 0 0  and 2 5 0 0 0 
3212131		 # 	collision with: 1 5 3 0 0  and 1 6 3 0 0 
3212144		 # 	collision with: 3 10 0 0 0  and 5 10 0 0 0 
3212146		 # 	collision with: 1 1 10 0 0  and 1 3 10 0 0 
3212157		 # 	collision with: 2 3 0 0 0  and 9 5 0 0 0 
3212159		 # 	collision with: 8 2 3 0 0  and 8 2 5 0 0 
3212196		 # 	collision with: 4 6 0 0 0  and 6 6 0 0 0 
3212198		 # 	collision with: 1 3 6 0 0  and 1 4 6 0 0 
3212213		 # 	collision with: 0 2 0 0 0  and 1 2 0 0 0 
3212215		 # 	collision with: 6 5 3 0 0  and 6 5 5 0 0 
3212229		 # 	collision with: 5 4 0 0 0  and 6 4 0 0 0 
3212231		 # 	collision with: 3 6 3 0 0  and 3 6 5 0 0 
3212248		 # 	collision with: 1 9 0 0 0  and 2 9 0 0 0 
3212250		 # 	collision with: 1 0 9 0 0  and 1 1 9 0 0 
3212300		 # 	collision with: 1 7 0 0 0  and 3 7 0 0 0 
3212302		 # 	collision with: 1 1 7 0 0  and 1 2 7 0 0 
3212305		 # 	collision with: 8 3 0 0 0  and 2 5 0 0 0 
3212307		 # 	collision with: 1 5 3 0 0  and 1 6 3 0 0 
3212308		 # 	collision with: 6 6 1 6 0  and 0 5 0 0 1 
3212310		 # 	collision with: 3 9 7 0 0  and 10 2 1 1 0 
3212312		 # 	collision with: 1 7 0 0 0  and 3 7 0 0 0 
3212314		 # 	collision with: 1 4 7 0 0  and 1 6 7 0 0 
3212316		 # 	collision with: 1 9 0 0 0  and 2 9 0 0 0 
3212318		 # 	collision with: 1 1 9 0 0  and 1 3 9 0 0 
3212320		 # 	collision with: 4 6 0 0 0  and 6 6 0 0 0 
3212322		 # 	collision with: 1 2 6 0 0  and 1 4 6 0 0 
3212324		 # 	collision with: 3 10 0 0 0  and 5 10 0 0 0 
3212326		 # 	collision with: 1 4 10 0 0  and 1 6 10 0 0 
3212328		 # 	collision with: 4 8 0 0 0  and 5 8 0 0 0 
3212330		 # 	collision with: 1 2 8 0 0  and 1 4 8 0 0 
3212332		 # 	collision with: 2 3 0 0 0  and 4 3 0 0 0 
3212334		 # 	collision with: 1 4 3 0 0  and 1 5 3 0 0 
3212336		 # 	collision with: 3 1 0 0 0  and 4 1 0 0 0 
3212340		 # 	collision with: 2 5 0 0 0  and 3 5 0 0 0 
3212342		 # 	collision with: 1 4 5 0 0  and 1 5 5 0 0 
3212344		 # 	collision with: 0 2 0 0 0  and 1 2 0 0 0 
3212346		 # 	collision with: 1 5 2 0 0  and 1 6 2 0 0 
3212348		 # 	collision with: 5 4 0 0 0  and 6 4 0 0 0 
3212350		 # 	collision with: 1 2 4 0 0  and 1 3 4 0 0 
3212357		 # 	collision with: 6 3 0 0 0  and 0 4 0 0 0 
3212359		 # 	collision with: 1 10 3 0 0  and 1 4 4 0 0 
3212360		 # 	collision with: 1 9 0 0 0  and 2 9 0 0 0 
3212362		 # 	collision with: 1 1 9 0 0  and 1 3 9 0 0 
3212412		 # 	collision with: 3 10 0 0 0  and 5 10 0 0 0 
3212414		 # 	collision with: 1 4 10 0 0  and 1 6 10 0 0 
3212433		 # 	collision with: 1 9 0 0 0  and 2 9 0 0 0 
3212435		 # 	collision with: 1 5 2 0 0  and 1 6 2 0 0 
3212449		 # 	collision with: 1 7 0 0 0  and 3 7 0 0 0 
3212451		 # 	collision with: 5 5 3 0 0  and 5 5 4 0 0 
3212464		 # 	collision with: 2 3 0 0 0  and 4 3 0 0 0 
3212466		 # 	collision with: 1 4 3 0 0  and 1 5 3 0 0 
3212505		 # 	collision with: 4 6 0 0 0  and 6 6 0 0 0 
3212507		 # 	collision with: 1 1 3 0 0  and 1 2 3 0 0 
3212516		 # 	collision with: 2 5 0 0 0  and 3 5 0 0 0 
3212518		 # 	collision with: 1 4 5 0 0  and 1 5 5 0 0 
3212533		 # 	collision with: 6 3 0 0 0  and 0 4 0 0 0 
3212535		 # 	collision with: 1 6 3 0 0  and 1 0 4 0 0 
3212568		 # 	collision with: 5 4 0 0 0  and 6 4 0 0 0 
3212570		 # 	collision with: 1 2 4 0 0  and 1 3 4 0 0 
3212576		 # 	collision with: 1 7 0 0 0  and 3 7 0 0 0 
3212578		 # 	collision with: 1 4 7 0 0  and 1 6 7 0 0 
3212613		 # 	collision with: 8 3 0 0 0  and 4 4 0 0 0 
3212615		 # 	collision with: 1 3 0 0 0  and 1 4 0 0 0 
3212628		 # 	collision with: 4 6 0 0 0  and 6 6 0 0 0 
3212630		 # 	collision with: 1 2 6 0 0  and 1 4 6 0 0 
3212641		 # 	collision with: 9 3 0 0 0  and 7 4 0 0 0 
3212643		 # 	collision with: 9 9 3 0 0  and 9 9 4 0 0 
3212680		 # 	collision with: 4 8 0 0 0  and 5 8 0 0 0 
3212682		 # 	collision with: 1 2 8 0 0  and 1 4 8 0 0 
3212697		 # 	collision with: 1 9 0 0 0  and 2 9 0 0 0 
3212699		 # 	collision with: 1 5 2 0 0  and 1 6 2 0 0 
3212713		 # 	collision with: 1 7 0 0 0  and 3 7 0 0 0 
3212715		 # 	collision with: 1 2 3 0 0  and 1 3 4 0 0 
3212732		 # 	collision with: 3 1 0 0 0  and 4 1 0 0 0 
3212786		 # 	collision with: 1 5 2 0 0  and 1 6 2 0 0 
3212791		 # 	collision with: 1 3 0 0 0  and 1 4 0 0 0 
3212792		 # 	collision with: 4 7 1 4 0  and 4 0 0 0 1 
3212794		 # 	collision with: 9 7 9 0 0  and 4 4 2 1 0 
3212796		 # 	collision with: 4 6 0 0 0  and 6 6 0 0 0 
3212798		 # 	collision with: 1 2 6 0 0  and 1 3 6 0 0 
3212800		 # 	collision with: 2 3 0 0 0  and 4 3 0 0 0 
3212802		 # 	collision with: 1 3 3 0 0  and 1 4 3 0 0 
3212804		 # 	collision with: 0 2 0 0 0  and 1 2 0 0 0 
3212806		 # 	collision with: 1 3 2 0 0  and 1 5 2 0 0 
3212808		 # 	collision with: 1 7 0 0 0  and 3 7 0 0 0 
3212810		 # 	collision with: 1 2 7 0 0  and 1 4 7 0 0 
3212812		 # 	collision with: 3 10 0 0 0  and 5 10 0 0 0 
3212814		 # 	collision with: 1 2 10 0 0  and 1 3 10 0 0 
3212816		 # 	collision with: 3 1 0 0 0  and 4 1 0 0 0 
3212820		 # 	collision with: 5 4 0 0 0  and 6 4 0 0 0 
3212822		 # 	collision with: 1 4 4 0 0  and 1 5 4 0 0 
3212824		 # 	collision with: 1 9 0 0 0  and 2 9 0 0 0 
3212826		 # 	collision with: 1 3 9 0 0  and 1 4 9 0 0 
3212828		 # 	collision with: 4 8 0 0 0  and 5 8 0 0 0 
3212830		 # 	collision with: 1 3 8 0 0  and 1 5 8 0 0 
3212832		 # 	collision with: 2 5 0 0 0  and 3 5 0 0 0 
3212834		 # 	collision with: 1 4 5 0 0  and 1 6 5 0 0 
3212841		 # 	collision with: 7 2 0 0 0  and 8 4 0 0 0 
3212843		 # 	collision with: 1 1 2 0 0  and 1 7 4 0 0 
3212844		 # 	collision with: 2 3 0 0 0  and 4 3 0 0 0 
3212846		 # 	collision with: 1 3 3 0 0  and 1 4 3 0 0 
3212896		 # 	collision with: 1 7 0 0 0  and 3 7 0 0 0 
3212898		 # 	collision with: 1 2 7 0 0  and 1 4 7 0 0 
3212917		 # 	collision with: 2 5 0 0 0  and 3 5 0 0 0 
3212919		 # 	collision with: 1 8 2 0 0  and 1 3 4 0 0 
3212933		 # 	collision with: 3 10 0 0 0  and 5 10 0 0 0 
3212935		 # 	collision with: 1 0 2 0 0  and 1 2 2 0 0 
3212948		 # 	collision with: 3 1 0 0 0  and 4 1 0 0 0 
3212989		 # 	collision with: 4 2 0 0 0  and 1 4 0 0 0 
3212991		 # 	collision with: 1 3 4 0 0  and 1 5 4 0 0 
3213000		 # 	collision with: 1 9 0 0 0  and 2 9 0 0 0 
3213002		 # 	collision with: 1 3 9 0 0  and 1 4 9 0 0 
3213017		 # 	collision with: 7 2 0 0 0  and 8 4 0 0 0 
3213019		 # 	collision with: 1 7 2 0 0  and 1 5 4 0 0 
3213052		 # 	collision with: 2 5 0 0 0  and 3 5 0 0 0 
3213054		 # 	collision with: 1 4 5 0 0  and 1 6 5 0 0 
3213060		 # 	collision with: 4 6 0 0 0  and 6 6 0 0 0 
3213062		 # 	collision with: 1 2 6 0 0  and 1 3 6 0 0 
3213097		 # 	collision with: 3 1 0 0 0  and 4 1 0 0 0 
3213099		 # 	collision with: 4 3 2 0 0  and 4 3 4 0 0 
3213114		 # 	collision with: 1 3 2 0 0  and 1 5 2 0 0 
3213164		 # 	collision with: 3 10 0 0 0  and 5 10 0 0 0 
3213166		 # 	collision with: 1 2 10 0 0  and 1 3 10 0 0 
3213181		 # 	collision with: 2 5 0 0 0  and 3 5 0 0 0 
3213183		 # 	collision with: 9 7 2 0 0  and 9 7 4 0 0 
3213197		 # 	collision with: 3 10 0 0 0  and 5 10 0 0 0 
3213199		 # 	collision with: 1 0 2 0 0  and 1 2 2 0 0 
3213216		 # 	collision with: 5 4 0 0 0  and 6 4 0 0 0 
3213218		 # 	collision with: 1 4 4 0 0  and 1 5 4 0 0 
3213268		 # 	collision with: 4 8 0 0 0  and 5 8 0 0 0 
3213270		 # 	collision with: 1 3 8 0 0  and 1 5 8 0 0 
3213273		 # 	collision with: 3 1 0 0 0  and 4 1 0 0 0 
3213275		 # 	collision with: 9 3 2 0 0  and 9 3 4 0 0 
3213276		 # 	collision with: 10 1 7 1 0  and 7 1 0 0 1 
3213278		 # 	collision with: 10 3 4 0 0  and 4 2 0 1 0 
3213280		 # 	collision with: 2 5 0 0 0  and 3 5 0 0 0 
3213282		 # 	collision with: 1 5 5 0 0  and 1 6 5 0 0 
3213284		 # 	collision with: 4 8 0 0 0  and 5 8 0 0 0 
3213286		 # 	collision with: 1 4 8 0 0  and 1 6 8 0 0 
3213288		 # 	collision with: 1 9 0 0 0  and 2 9 0 0 0 
3213290		 # 	collision with: 1 4 9 0 0  and 1 6 9 0 0 
3213292		 # 	collision with: 5 4 0 0 0  and 6 4 0 0 0 
3213294		 # 	collision with: 1 0 4 0 0  and 1 2 4 0 0 
3213296		 # 	collision with: 3 1 0 0 0  and 4 1 0 0 0 
3213300		 # 	collision with: 3 10 0 0 0  and 5 10 0 0 0 
3213302		 # 	collision with: 1 5 10 0 0  and 1 6 10 0 0 
3213304		 # 	collision with: 1 7 0 0 0  and 3 7 0 0 0 
3213306		 # 	collision with: 1 0 7 0 0  and 1 2 7 0 0 
3213308		 # 	collision with: 0 2 0 0 0  and 1 2 0 0 0 
3213310		 # 	collision with: 1 2 2 0 0  and 1 3 2 0 0 
3213312		 # 	collision with: 2 3 0 0 0  and 4 3 0 0 0 
3213314		 # 	collision with: 1 2 3 0 0  and 1 3 3 0 0 
3213316		 # 	collision with: 4 6 0 0 0  and 6 6 0 0 0 
3213318		 # 	collision with: 1 1 6 0 0  and 1 3 6 0 0 
3213325		 # 	collision with: 4 6 0 0 0  and 6 6 0 0 0 
3213327		 # 	collision with: 1 4 2 0 0  and 1 1 3 0 0 
3213328		 # 	collision with: 4 8 0 0 0  and 5 8 0 0 0 
3213330		 # 	collision with: 1 4 8 0 0  and 1 6 8 0 0 
3213380		 # 	collision with: 5 4 0 0 0  and 6 4 0 0 0 
3213382		 # 	collision with: 1 0 4 0 0  and 1 2 4 0 0 
3213401		 # 	collision with: 3 1 0 0 0  and 4 1 0 0 0 
3213403		 # 	collision with: 1 8 2 0 0  and 1 3 3 0 0 
3213417		 # 	collision with: 0 2 0 0 0  and 1 2 0 0 0 
3213419		 # 	collision with: 1 1 2 0 0  and 1 2 3 0 0 
3213432		 # 	collision with: 3 10 0 0 0  and 5 10 0 0 0 
3213434		 # 	collision with: 1 5 10 0 0  and 1 6 10 0 0 
3213486		 # 	collision with: 1 2 2 0 0  and 1 3 2 0 0 
3213501		 # 	collision with: 4 6 0 0 0  and 6 6 0 0 0 
3213503		 # 	collision with: 1 10 2 0 0  and 1 1 3 0 0 
3213536		 # 	collision with: 4 6 0 0 0  and 6 6 0 0 0 
3213538		 # 	collision with: 1 1 6 0 0  and 1 3 6 0 0 
3213544		 # 	collision with: 2 5 0 0 0  and 3 5 0 0 0 
3213546		 # 	collision with: 1 5 5 0 0  and 1 6 5 0 0 
3213581		 # 	collision with: 1 2 0 0 0  and 0 3 0 0 0 
3213583		 # 	collision with: 1 7 2 0 0  and 1 4 3 0 0 
3213596		 # 	collision with: 1 9 0 0 0  and 2 9 0 0 0 
3213598		 # 	collision with: 1 4 9 0 0  and 1 6 9 0 0 
3213609		 # 	collision with: 3 2 0 0 0  and 1 3 0 0 0 
3213611		 # 	collision with: 1 2 0 0 0  and 1 3 0 0 0 
3213648		 # 	collision with: 3 1 0 0 0  and 4 1 0 0 0 
3213665		 # 	collision with: 3 1 0 0 0  and 4 1 0 0 0 
3213667		 # 	collision with: 5 8 2 0 0  and 5 8 3 0 0 
3213681		 # 	collision with: 0 2 0 0 0  and 1 2 0 0 0 
3213683		 # 	collision with: 10 3 2 0 0  and 10 3 3 0 0 
3213700		 # 	collision with: 1 7 0 0 0  and 3 7 0 0 0 
3213702		 # 	collision with: 1 0 7 0 0  and 1 2 7 0 0 
3213752		 # 	collision with: 2 3 0 0 0  and 4 3 0 0 0 
3213754		 # 	collision with: 1 2 3 0 0  and 1 3 3 0 0 
3213757		 # 	collision with: 1 2 0 0 0  and 0 3 0 0 0 
3213759		 # 	collision with: 1 6 2 0 0  and 1 0 3 0 0 
3213760		 # 	collision with: 10 8 4 10 0  and 9 0 0 0 1 
3213762		 # 	collision with: 2 1 5 0 0  and 6 6 0 1 0 
3213764		 # 	collision with: 5 4 0 0 0  and 6 4 0 0 0 
3213766		 # 	collision with: 1 2 4 0 0  and 1 4 4 0 0 
3213768		 # 	collision with: 0 2 0 0 0  and 1 2 0 0 0 
3213770		 # 	collision with: 1 0 2 0 0  and 1 2 2 0 0 
3213772		 # 	collision with: 2 5 0 0 0  and 3 5 0 0 0 
3213774		 # 	collision with: 1 0 5 0 0  and 1 1 5 0 0 
3213776		 # 	collision with: 3 1 0 0 0  and 4 1 0 0 0 
3213780		 # 	collision with: 2 3 0 0 0  and 4 3 0 0 0 
3213782		 # 	collision with: 1 1 3 0 0  and 1 2 3 0 0 
3213784		 # 	collision with: 4 8 0 0 0  and 5 8 0 0 0 
3213786		 # 	collision with: 1 0 8 0 0  and 1 1 8 0 0 
3213788		 # 	collision with: 3 10 0 0 0  and 5 10 0 0 0 
3213790		 # 	collision with: 1 2 10 0 0  and 1 4 10 0 0 
3213792		 # 	collision with: 4 6 0 0 0  and 6 6 0 0 0 
3213794		 # 	collision with: 1 1 6 0 0  and 1 2 6 0 0 
3213796		 # 	collision with: 1 9 0 0 0  and 2 9 0 0 0 
3213798		 # 	collision with: 1 0 9 0 0  and 1 2 9 0 0 
3213800		 # 	collision with: 1 7 0 0 0  and 3 7 0 0 0 
3213802		 # 	collision with: 1 4 7 0 0  and 1 5 7 0 0 
3213811		 # 	collision with: 1 0 3 0 0  and 1 1 3 0 0 
3213814		 # 	collision with: 1 0 2 0 0  and 1 2 2 0 0 
3213864		 # 	collision with: 3 1 0 0 0  and 4 1 0 0 0 
3213885		 # 	collision with: 4 8 0 0 0  and 5 8 0 0 0 
3213887		 # 	collision with: 1 2 1 0 0  and 1 4 1 0 0 
3213901		 # 	collision with: 2 5 0 0 0  and 3 5 0 0 0 
3213903		 # 	collision with: 1 3 1 0 0  and 1 0 3 0 0 
3213916		 # 	collision with: 4 8 0 0 0  and 5 8 0 0 0 
3213918		 # 	collision with: 1 0 8 0 0  and 1 1 8 0 0 
3213957		 # 	collision with: 1 9 0 0 0  and 2 9 0 0 0 
3213959		 # 	collision with: 6 3 1 0 0  and 6 3 3 0 0 
3213968		 # 	collision with: 4 6 0 0 0  and 6 6 0 0 0 
3213970		 # 	collision with: 1 1 6 0 0  and 1 2 6 0 0 
3213985		 # 	collision with: 0 1 0 0 0  and 6 3 0 0 0 
3213987		 # 	collision with: 1 0 3 0 0  and 1 1 3 0 0 
3214020		 # 	collision with: 1 7 0 0 0  and 3 7 0 0 0 
3214022		 # 	collision with: 1 4 7 0 0  and 1 5 7 0 0 
3214028		 # 	collision with: 5 4 0 0 0  and 6 4 0 0 0 
3214030		 # 	collision with: 1 2 4 0 0  and 1 4 4 0 0 
3214065		 # 	collision with: 7 1 0 0 0  and 0 3 0 0 0 
3214067		 # 	collision with: 1 2 2 0 0  and 1 4 2 0 0 
3214080		 # 	collision with: 2 5 0 0 0  and 3 5 0 0 0 
3214082		 # 	collision with: 1 0 5 0 0  and 1 1 5 0 0 
3214093		 # 	collision with: 1 1 0 0 0  and 8 3 0 0 0 
3214095		 # 	collision with: 1 8 1 0 0  and 1 8 3 0 0 
3214132		 # 	collision with: 2 3 0 0 0  and 4 3 0 0 0 
3214134		 # 	collision with: 1 1 3 0 0  and 1 2 3 0 0 
3214149		 # 	collision with: 4 8 0 0 0  and 5 8 0 0 0 
3214151		 # 	collision with: 1 2 1 0 0  and 1 4 1 0 0 
3214165		 # 	collision with: 2 5 0 0 0  and 3 5 0 0 0 
3214167		 # 	collision with: 5 2 1 0 0  and 5 2 3 0 0 
3214184		 # 	collision with: 3 10 0 0 0  and 5 10 0 0 0 
3214186		 # 	collision with: 1 2 10 0 0  and 1 4 10 0 0 
3214236		 # 	collision with: 1 9 0 0 0  and 2 9 0 0 0 
3214238		 # 	collision with: 1 0 9 0 0  and 1 2 9 0 0 
3214241		 # 	collision with: 7 1 0 0 0  and 0 3 0 0 0 
3214243		 # 	collision with: 1 2 2 0 0  and 1 4 2 0 0 
3214244		 # 	collision with: 3 1 2 4 0  and 3 0 0 0 1 
3214246		 # 	collision with: 0 5 3 0 0  and 3 0 0 1 0 
3214248		 # 	collision with: 2 3 0 0 0  and 4 3 0 0 0 
3214250		 # 	collision with: 1 0 3 0 0  and 1 1 3 0 0 
3214252		 # 	collision with: 1 7 0 0 0  and 3 7 0 0 0 
3214254		 # 	collision with: 1 2 7 0 0  and 1 3 7 0 0 
3214256		 # 	collision with: 3 1 0 0 0  and 4 1 0 0 0 
3214260		 # 	collision with: 1 9 0 0 0  and 2 9 0 0 0 
3214262		 # 	collision with: 1 2 9 0 0  and 1 3 9 0 0 
3214264		 # 	collision with: 2 5 0 0 0  and 3 5 0 0 0 
3214266		 # 	collision with: 1 0 5 0 0  and 1 2 5 0 0 
3214268		 # 	collision with: 4 6 0 0 0  and 6 6 0 0 0 
3214270		 # 	collision with: 1 0 6 0 0  and 1 2 6 0 0 
3214272		 # 	collision with: 0 2 0 0 0  and 1 2 0 0 0 
3214274		 # 	collision with: 1 4 2 0 0  and 1 6 2 0 0 
3214276		 # 	collision with: 3 10 0 0 0  and 5 10 0 0 0 
3214278		 # 	collision with: 1 0 10 0 0  and 1 1 10 0 0 
3214280		 # 	collision with: 5 4 0 0 0  and 6 4 0 0 0 
3214282		 # 	collision with: 1 4 4 0 0  and 1 6 4 0 0 
3214284		 # 	collision with: 4 8 0 0 0  and 5 8 0 0 0 
3214286		 # 	collision with: 1 1 8 0 0  and 1 2 8 0 0 
3214293		 # 	collision with: 0 2 0 0 0  and 1 2 0 0 0 
3214295		 # 	collision with: 1 0 1 0 0  and 1 2 1 0 0 
3214296		 # 	collision with: 1 7 0 0 0  and 3 7 0 0 0 
3214298		 # 	collision with: 1 2 7 0 0  and 1 3 7 0 0 
3214348		 # 	collision with: 1 9 0 0 0  and 2 9 0 0 0 
3214350		 # 	collision with: 1 2 9 0 0  and 1 3 9 0 0 
3214369		 # 	collision with: 7 1 0 0 0  and 1 2 0 0 0 
3214371		 # 	collision with: 1 9 1 0 0  and 1 1 2 0 0 
3214385		 # 	collision with: 7 1 0 0 0  and 0 2 0 0 0 
3214387		 # 	collision with: 1 1 0 0 0  and 1 2 0 0 0 
3214400		 # 	collision with: 4 6 0 0 0  and 6 6 0 0 0 
3214402		 # 	collision with: 1 0 6 0 0  and 1 2 6 0 0 
3214441		 # 	collision with: 10 1 0 0 0  and 6 2 0 0 0 
3214443		 # 	collision with: 7 7 1 0 0  and 7 7 2 0 0 
3214452		 # 	collision with: 3 10 0 0 0  and 5 10 0 0 0 
3214454		 # 	collision with: 1 0 10 0 0  and 1 1 10 0 0 
3214469		 # 	collision with: 0 2 0 0 0  and 1 2 0 0 0 
3214471		 # 	collision with: 1 0 1 0 0  and 1 2 1 0 0 
3214504		 # 	collision with: 4 8 0 0 0  and 5 8 0 0 0 
3214506		 # 	collision with: 1 1 8 0 0  and 1 2 8 0 0 
3214512		 # 	collision with: 2 3 0 0 0  and 4 3 0 0 0 
3214514		 # 	collision with: 1 0 3 0 0  and 1 1 3 0 0 
3214549		 # 	collision with: 5 1 0 0 0  and 4 2 0 0 0 
3214551		 # 	collision with: 5 9 1 0 0  and 5 9 2 0 0 
3214564		 # 	collision with: 3 1 0 0 0  and 4 1 0 0 0 
3214577		 # 	collision with: 8 1 0 0 0  and 6 2 0 0 0 
3214579		 # 	collision with: 2 4 1 0 0  and 2 4 2 0 0 
3214616		 # 	collision with: 2 5 0 0 0  and 3 5 0 0 0 
3214618		 # 	collision with: 1 0 5 0 0  and 1 2 5 0 0 
3214633		 # 	collision with: 7 1 0 0 0  and 1 2 0 0 0 
3214635		 # 	collision with: 8 10 1 0 0  and 8 10 2 0 0 
3214651		 # 	collision with: 1 1 0 0 0  and 1 2 0 0 0 
3214670		 # 	collision with: 1 4 2 0 0  and 1 6 2 0 0 
3214720		 # 	collision with: 5 4 0 0 0  and 6 4 0 0 0 
3214722		 # 	collision with: 1 4 4 0 0  and 1 6 4 0 0 
3214725		 # 	collision with: 5 1 0 0 0  and 4 2 0 0 0 
3214727		 # 	collision with: 3 9 1 0 0  and 3 9 2 0 0 
3214728		 # 	collision with: 4 9 9 6 0  and 3 0 0 0 1 
3214730		 # 	collision with: 1 9 10 0 0  and 3 7 0 1 0 
3214732		 # 	collision with: 0 2 0 0 0  and 1 2 0 0 0 
3214734		 # 	collision with: 1 3 2 0 0  and 1 4 2 0 0 
3214736		 # 	collision with: 3 1 0 0 0  and 4 1 0 0 0 
3214740		 # 	collision with: 4 8 0 0 0  and 5 8 0 0 0 
3214742		 # 	collision with: 1 2 8 0 0  and 1 3 8 0 0 
3214744		 # 	collision with: 4 6 0 0 0  and 6 6 0 0 0 
3214746		 # 	collision with: 1 0 6 0 0  and 1 1 6 0 0 
3214748		 # 	collision with: 1 7 0 0 0  and 3 7 0 0 0 
3214750		 # 	collision with: 1 0 7 0 0  and 1 1 7 0 0 
3214752		 # 	collision with: 5 4 0 0 0  and 6 4 0 0 0 
3214754		 # 	collision with: 1 1 4 0 0  and 1 2 4 0 0 
3214756		 # 	collision with: 2 5 0 0 0  and 3 5 0 0 0 
3214758		 # 	collision with: 1 1 5 0 0  and 1 2 5 0 0 
3214760		 # 	collision with: 2 3 0 0 0  and 4 3 0 0 0 
3214762		 # 	collision with: 1 4 3 0 0  and 1 6 3 0 0 
3214764		 # 	collision with: 3 10 0 0 0  and 5 10 0 0 0 
3214766		 # 	collision with: 1 3 10 0 0  and 1 4 10 0 0 
3214768		 # 	collision with: 1 9 0 0 0  and 2 9 0 0 0 
3214770		 # 	collision with: 1 3 9 0 0  and 1 5 9 0 0 
3214777		 # 	collision with: 0 0 0 0 0  and 2 0 0 0 0 
3214779		 # 	collision with: 10 0 0 0 0  and 10 0 2 0 0 
3214780		 # 	collision with: 3 1 0 0 0  and 4 1 0 0 0 
3214832		 # 	collision with: 4 6 0 0 0  and 6 6 0 0 0 
3214834		 # 	collision with: 1 0 6 0 0  and 1 1 6 0 0 
3214853		 # 	collision with: 0 0 0 0 0  and 2 0 0 0 0 
3214855		 # 	collision with: 5 0 0 0 0  and 5 0 2 0 0 
3214869		 # 	collision with: 0 0 0 0 0  and 2 0 0 0 0 
3214884		 # 	collision with: 5 4 0 0 0  and 6 4 0 0 0 
3214886		 # 	collision with: 1 1 4 0 0  and 1 2 4 0 0 
3214925		 # 	collision with: 0 0 0 0 0  and 2 0 0 0 0 
3214927		 # 	collision with: 1 2 0 0 0  and 1 0 2 0 0 
3214936		 # 	collision with: 2 3 0 0 0  and 4 3 0 0 0 
3214938		 # 	collision with: 1 4 3 0 0  and 1 6 3 0 0 
3214953		 # 	collision with: 0 0 0 0 0  and 2 0 0 0 0 
3214955		 # 	collision with: 2 0 0 0 0  and 2 0 2 0 0 
3214988		 # 	collision with: 1 9 0 0 0  and 2 9 0 0 0 
3214990		 # 	collision with: 1 3 9 0 0  and 1 5 9 0 0 
3214998		 # 	collision with: 1 3 2 0 0  and 1 4 2 0 0 
3215035		 # 	collision with: 9 0 0 0 0  and 9 0 2 0 0 
3215048		 # 	collision with: 4 8 0 0 0  and 5 8 0 0 0 
3215050		 # 	collision with: 1 2 8 0 0  and 1 3 8 0 0 
3215061		 # 	collision with: 0 0 0 0 0  and 2 0 0 0 0 
3215063		 # 	collision with: 3 0 0 0 0  and 3 0 2 0 0 
3215100		 # 	collision with: 1 7 0 0 0  and 3 7 0 0 0 
3215102		 # 	collision with: 1 0 7 0 0  and 1 1 7 0 0 
3215117		 # 	collision with: 0 0 0 0 0  and 2 0 0 0 0 
3215119		 # 	collision with: 1 2 0 0 0  and 1 0 2 0 0 
3215133		 # 	collision with: 0 0 0 0 0  and 2 0 0 0 0 
3215152		 # 	collision with: 2 5 0 0 0  and 3 5 0 0 0 
3215154		 # 	collision with: 1 1 5 0 0  and 1 2 5 0 0 
3215204		 # 	collision with: 3 10 0 0 0  and 5 10 0 0 0 
3215206		 # 	collision with: 1 3 10 0 0  and 1 4 10 0 0 
3215209		 # 	collision with: 0 0 0 0 0  and 2 0 0 0 0 
3215211		 # 	collision with: 1 1 0 0 0  and 1 8 2 0 0 
3215212		 # 	collision with: 2 9 2 1 0  and 3 0 0 0 1 
3215214		 # 	collision with: 0 2 9 0 0  and 1 8 0 1 0 
3215216		 # 	collision with: 3 1 0 0 0  and 4 1 0 0 0 
3215220		 # 	collision with: 4 6 0 0 0  and 6 6 0 0 0 
3215222		 # 	collision with: 1 5 6 0 0  and 1 6 6 0 0 
3215224		 # 	collision with: 5 4 0 0 0  and 6 4 0 0 0 
3215226		 # 	collision with: 1 3 4 0 0  and 1 4 4 0 0 
3215228		 # 	collision with: 2 3 0 0 0  and 4 3 0 0 0 
3215230		 # 	collision with: 1 3 3 0 0  and 1 5 3 0 0 
3215232		 # 	collision with: 1 9 0 0 0  and 2 9 0 0 0 
3215234		 # 	collision with: 1 5 9 0 0  and 1 6 9 0 0 
3215236		 # 	collision with: 0 2 0 0 0  and 1 2 0 0 0 
3215238		 # 	collision with: 1 1 2 0 0  and 1 3 2 0 0 
3215240		 # 	collision with: 4 8 0 0 0  and 5 8 0 0 0 
3215242		 # 	collision with: 1 3 8 0 0  and 1 4 8 0 0 
3215244		 # 	collision with: 1 7 0 0 0  and 3 7 0 0 0 
3215246		 # 	collision with: 1 3 7 0 0  and 1 5 7 0 0 
3215248		 # 	collision with: 2 5 0 0 0  and 3 5 0 0 0 
3215250		 # 	collision with: 1 1 5 0 0  and 1 3 5 0 0 
3215252		 # 	collision with: 3 10 0 0 0  and 5 10 0 0 0 
3215254		 # 	collision with: 1 0 10 0 0  and 1 2 10 0 0 
3215261		 # 	collision with: 2 0 0 0 0  and 0 1 0 0 0 
3215264		 # 	collision with: 4 6 0 0 0  and 6 6 0 0 0 
3215266		 # 	collision with: 1 5 6 0 0  and 1 6 6 0 0 
3215316		 # 	collision with: 2 3 0 0 0  and 4 3 0 0 0 
3215318		 # 	collision with: 1 3 3 0 0  and 1 5 3 0 0 
3215337		 # 	collision with: 2 0 0 0 0  and 0 1 0 0 0 
3215339		 # 	collision with: 1 5 0 0 0  and 1 7 0 0 0 
3215355		 # 	collision with: 1 2 0 0 0  and 1 0 1 0 0 
3215370		 # 	collision with: 1 1 2 0 0  and 1 3 2 0 0 
3215409		 # 	collision with: 2 0 0 0 0  and 0 1 0 0 0 
3215411		 # 	collision with: 9 4 0 0 0  and 9 4 1 0 0 
3215420		 # 	collision with: 1 7 0 0 0  and 3 7 0 0 0 
3215422		 # 	collision with: 1 3 7 0 0  and 1 5 7 0 0 
3215437		 # 	collision with: 2 0 0 0 0  and 0 1 0 0 0 
3215472		 # 	collision with: 3 10 0 0 0  and 5 10 0 0 0 
3215474		 # 	collision with: 1 0 10 0 0  and 1 2 10 0 0 
3215480		 # 	collision with: 3 1 0 0 0  and 4 1 0 0 0 
3215517		 # 	collision with: 2 0 0 0 0  and 0 1 0 0 0 
3215519		 # 	collision with: 2 2 0 0 0  and 2 2 1 0 0 
3215532		 # 	collision with: 5 4 0 0 0  and 6 4 0 0 0 
3215534		 # 	collision with: 1 3 4 0 0  and 1 4 4 0 0 
3215545		 # 	collision with: 2 0 0 0 0  and 0 1 0 0 0 
3215547		 # 	collision with: 1 2 0 0 0  and 1 6 1 0 0 
3215584		 # 	collision with: 1 9 0 0 0  and 2 9 0 0 0 
3215586		 # 	collision with: 1 5 9 0 0  and 1 6 9 0 0 
3215601		 # 	collision with: 2 0 0 0 0  and 0 1 0 0 0 
3215603		 # 	collision with: 1 5 0 0 0  and 1 7 0 0 0 
3215617		 # 	collision with: 2 0 0 0 0  and 0 1 0 0 0 
3215619		 # 	collision with: 1 10 0 0 0  and 1 10 1 0 0 
3215636		 # 	collision with: 4 8 0 0 0  and 5 8 0 0 0 
3215638		 # 	collision with: 1 3 8 0 0  and 1 4 8 0 0 
3215688		 # 	collision with: 2 5 0 0 0  and 3 5 0 0 0 
3215690		 # 	collision with: 1 1 5 0 0  and 1 3 5 0 0 
3215693		 # 	collision with: 2 0 0 0 0  and 0 1 0 0 0 
3215695		 # 	collision with: 10 2 0 0 0  and 10 2 1 0 0 
3215702		 # 	collision with: 1 2 0 0 0  and 1 3 0 0 0 
3215706		 # 	collision with: 1 2 0 0 0  and 1 4 0 0 0 
3215710		 # 	collision with: 1 3 0 0 0  and 1 4 0 0 0 
3215714		 # 	collision with: 1 3 0 0 0  and 1 5 0 0 0 
3215718		 # 	collision with: 1 4 0 0 0  and 1 5 0 0 0 
3215722		 # 	collision with: 1 4 0 0 0  and 1 6 0 0 0 
3215726		 # 	collision with: 1 5 0 0 0  and 1 6 0 0 0 
3215730		 # 	collision with: 1 5 0 0 0  and 1 7 0 0 0 
3215734		 # 	collision with: 1 6 0 0 0  and 1 7 0 0 0 
3215738		 # 	collision with: 1 1 0 0 0  and 1 2 0 0 0 
3215741		 # 	collision with: 5 4 0 0 0  and 6 4 0 0 0 
3215743		 # 	collision with: 1 5 4 0 0  and 1 6 4 0 0 
3215744		 # 	collision with: 0 0 0 0 0  and 4 0 0 0 0 
3215746		 # 	collision with: 1 2 0 0 0  and 1 3 0 0 0 
3215792		 # 	collision with: 0 0 0 0 0  and 4 0 0 0 0 
3215794		 # 	collision with: 1 2 0 0 0  and 1 4 0 0 0 
3215813		 # 	collision with: 0 3 0 0 0  and 1 3 0 0 0 
3215840		 # 	collision with: 0 0 0 0 0  and 4 0 0 0 0 
3215842		 # 	collision with: 1 3 0 0 0  and 1 4 0 0 0 
3215869		 # 	collision with: 0 2 0 0 0  and 2 2 0 0 0 
3215871		 # 	collision with: 1 4 5 0 0  and 1 4 6 0 0 
3215877		 # 	collision with: 10 5 0 0 0  and 9 6 0 0 0 
3215879		 # 	collision with: 7 7 5 0 0  and 7 7 6 0 0 
3215888		 # 	collision with: 0 0 0 0 0  and 4 0 0 0 0 
3215890		 # 	collision with: 1 3 0 0 0  and 1 5 0 0 0 
3215936		 # 	collision with: 0 0 0 0 0  and 4 0 0 0 0 
3215938		 # 	collision with: 1 4 0 0 0  and 1 5 0 0 0 
3215945		 # 	collision with: 0 3 0 0 0  and 1 3 0 0 0 
3215947		 # 	collision with: 1 5 0 0 0  and 1 6 0 0 0 
3215977		 # 	collision with: 4 6 0 0 0  and 5 6 0 0 0 
3215979		 # 	collision with: 1 3 1 0 0  and 1 4 1 0 0 
3215984		 # 	collision with: 0 0 0 0 0  and 4 0 0 0 0 
3215986		 # 	collision with: 1 4 0 0 0  and 1 6 0 0 0 
101.736secs	40748
