# prime 11
# degree 2
# input variables 3
# output variables 3
# reload computed balance functions from file balance-220of3248-p11d2m3-debug.log
# p = 11
# n = 3
# smalldomain p^m 1331
# domain p^n 1331
#	 p^2 = 121
#	 p^3 = 1331
#	 p^4 = 14641
#	 p^5 = 161051
#	 p^6 = 1771561
#	 p^7 = 19487171
#	 p^8 = 214358881
#	 p^9 = 2357947691
opening file : balance-220of3248-p11d2m3-debug.log
reloading for step2...
1320354		 # 	collision with: 1 9 0  and 4 1 1 
1320355		 # 	collision with: 6 5 0  and 0 1 1 
1320358		 # 	collision with: 8 7 0  and 0 0 1 
1320359		 # 	collision with: 6 0 0  and 2 2 0 
1320362		 # 	collision with: 6 8 0  and 9 0 1 
1320363		 # 	collision with: 4 3 0  and 8 4 0 
1320366		 # 	collision with: 6 8 0  and 6 1 1 
1320367		 # 	collision with: 5 0 0  and 4 1 0 
1320370		 # 	collision with: 7 0 0  and 6 1 1 
1320371		 # 	collision with: 9 8 0  and 5 1 1 
1320374		 # 	collision with: 10 0 1  and 5 1 1 
1320375		 # 	collision with: 2 3 0  and 8 5 0 
1320378		 # 	collision with: 9 5 0  and 1 0 1 
1320379		 # 	collision with: 10 8 0  and 0 0 1 
1320382		 # 	collision with: 9 6 0  and 1 0 1 
1320383		 # 	collision with: 6 2 0  and 5 4 0 
1320386		 # 	collision with: 1 7 0  and 4 0 1 
1320387		 # 	collision with: 3 7 0  and 0 0 1 
1320390		 # 	collision with: 6 5 0  and 9 0 1 
1320391		 # 	collision with: 2 4 0  and 4 5 0 
1320394		 # 	collision with: 1 4 0  and 4 0 1 
1320395		 # 	collision with: 9 8 0  and 10 0 1 
1320836		 # 	collision with: 4 8 0  and 8 0 1 
1320838		 # 	collision with: 5 4 0  and 4 5 0 
1320839		 # 	collision with: 9 3 0  and 1 4 0 
1320842		 # 	collision with: 5 0 0  and 4 1 0 
1320843		 # 	collision with: 3 2 0  and 8 3 0 
1320846		 # 	collision with: 5 4 0  and 4 5 0 
1320847		 # 	collision with: 1 1 0  and 2 3 0 
1320850		 # 	collision with: 5 4 0  and 4 5 0 
1320851		 # 	collision with: 5 5 0  and 4 6 0 
1320854		 # 	collision with: 5 4 0  and 4 5 0 
1320855		 # 	collision with: 7 6 0  and 2 1 1 
1320858		 # 	collision with: 5 4 0  and 4 5 0 
1320859		 # 	collision with: 6 0 0  and 4 3 1 
1320862		 # 	collision with: 5 4 0  and 4 5 0 
1320863		 # 	collision with: 3 1 0  and 10 2 0 
1320866		 # 	collision with: 5 4 0  and 4 5 0 
1320867		 # 	collision with: 5 0 0  and 3 1 0 
1320870		 # 	collision with: 5 4 0  and 4 5 0 
1320871		 # 	collision with: 4 5 0  and 1 3 1 
1320874		 # 	collision with: 5 4 0  and 4 5 0 
1320875		 # 	collision with: 0 9 0  and 5 0 1 
1320878		 # 	collision with: 5 4 0  and 4 5 0 
1320879		 # 	collision with: 5 0 0  and 10 2 0 
1321320		 # 	collision with: 2 4 0  and 10 0 1 
1321322		 # 	collision with: 6 1 0  and 2 3 0 
1321323		 # 	collision with: 4 2 0  and 8 3 0 
1321326		 # 	collision with: 6 1 0  and 2 3 0 
1321327		 # 	collision with: 4 1 0  and 10 2 0 
1321330		 # 	collision with: 6 1 0  and 2 3 0 
1321331		 # 	collision with: 1 4 0  and 6 0 1 
1321334		 # 	collision with: 6 1 0  and 2 3 0 
1321335		 # 	collision with: 5 0 0  and 8 2 0 
1321338		 # 	collision with: 6 1 0  and 2 3 0 
1321339		 # 	collision with: 5 8 0  and 0 0 1 
1321342		 # 	collision with: 6 1 0  and 2 3 0 
1321343		 # 	collision with: 2 3 0  and 4 4 0 
1321346		 # 	collision with: 5 0 0  and 3 1 0 
1321347		 # 	collision with: 1 3 0  and 8 0 1 
1321350		 # 	collision with: 6 1 0  and 2 3 0 
1321351		 # 	collision with: 9 9 0  and 1 0 1 
1321354		 # 	collision with: 6 1 0  and 2 3 0 
1321355		 # 	collision with: 6 0 0  and 9 1 1 
1321358		 # 	collision with: 6 1 0  and 2 3 0 
1321359		 # 	collision with: 9 0 0  and 6 1 0 
1321362		 # 	collision with: 6 1 0  and 2 3 0 
1321363		 # 	collision with: 5 5 0  and 3 6 0 
1321804		 # 	collision with: 7 10 0  and 1 0 1 
1321806		 # 	collision with: 9 1 0  and 6 2 0 
1321807		 # 	collision with: 5 4 0  and 4 5 0 
1321810		 # 	collision with: 5 2 0  and 10 4 0 
1321811		 # 	collision with: 5 4 0  and 4 5 0 
1321814		 # 	collision with: 9 0 0  and 6 1 0 
1321815		 # 	collision with: 5 4 0  and 4 5 0 
1321818		 # 	collision with: 5 3 0  and 10 5 0 
1321819		 # 	collision with: 5 4 0  and 4 5 0 
1321822		 # 	collision with: 5 1 0  and 1 3 1 
1321823		 # 	collision with: 9 2 0  and 1 3 0 
1321826		 # 	collision with: 5 0 0  and 10 2 0 
1321827		 # 	collision with: 5 4 0  and 4 5 0 
1321830		 # 	collision with: 9 4 0  and 6 5 0 
1321831		 # 	collision with: 2 3 0  and 3 4 0 
1321834		 # 	collision with: 5 1 0  and 10 3 0 
1321835		 # 	collision with: 5 4 0  and 4 5 0 
1321838		 # 	collision with: 9 3 0  and 6 4 0 
1321839		 # 	collision with: 2 1 0  and 10 3 0 
1321842		 # 	collision with: 9 5 0  and 6 6 0 
1321843		 # 	collision with: 5 4 0  and 4 5 0 
1321846		 # 	collision with: 5 4 0  and 10 6 0 
1321847		 # 	collision with: 3 0 0  and 10 1 0 
1322288		 # 	collision with: 1 2 0  and 8 0 1 
1322290		 # 	collision with: 5 2 0  and 8 4 0 
1322291		 # 	collision with: 3 5 0  and 10 6 0 
1322294		 # 	collision with: 5 2 0  and 8 4 0 
1322295		 # 	collision with: 8 1 0  and 5 0 1 
1322298		 # 	collision with: 5 2 0  and 8 4 0 
1322299		 # 	collision with: 6 0 0  and 5 2 0 
1322302		 # 	collision with: 3 0 0  and 10 1 0 
1322303		 # 	collision with: 0 3 0  and 9 5 0 
1322306		 # 	collision with: 5 2 0  and 8 4 0 
1322307		 # 	collision with: 4 1 0  and 8 2 0 
1322310		 # 	collision with: 5 2 0  and 8 4 0 
1322311		 # 	collision with: 2 4 0  and 4 2 1 
1322314		 # 	collision with: 5 2 0  and 8 4 0 
1322315		 # 	collision with: 4 0 0  and 10 1 0 
1322318		 # 	collision with: 5 2 0  and 8 4 0 
1322319		 # 	collision with: 6 1 0  and 3 0 1 
1322322		 # 	collision with: 5 2 0  and 8 4 0 
1322323		 # 	collision with: 5 4 0  and 10 6 0 
1322326		 # 	collision with: 5 2 0  and 8 4 0 
1322327		 # 	collision with: 10 9 0  and 6 1 1 
1322330		 # 	collision with: 5 2 0  and 8 4 0 
1322331		 # 	collision with: 2 2 0  and 4 3 0 
1322772		 # 	collision with: 7 6 0  and 2 0 1 
1322774		 # 	collision with: 4 6 0  and 10 7 0 
1322775		 # 	collision with: 3 0 0  and 8 1 0 
1322778		 # 	collision with: 4 1 0  and 10 2 0 
1322779		 # 	collision with: 1 1 0  and 5 3 0 
1322782		 # 	collision with: 4 4 0  and 10 5 0 
1322783		 # 	collision with: 8 9 0  and 9 2 1 
1322786		 # 	collision with: 1 2 0  and 2 4 0 
1322787		 # 	collision with: 9 1 0  and 1 2 0 
1322790		 # 	collision with: 1 1 0  and 2 3 0 
1322791		 # 	collision with: 8 1 0  and 6 0 1 
1322794		 # 	collision with: 4 0 0  and 10 1 0 
1322795		 # 	collision with: 2 0 0  and 10 2 0 
1322798		 # 	collision with: 4 3 0  and 10 4 0 
1322799		 # 	collision with: 6 3 0  and 2 5 0 
1322802		 # 	collision with: 1 3 0  and 2 5 0 
1322803		 # 	collision with: 2 2 0  and 3 3 0 
1322806		 # 	collision with: 4 5 0  and 10 6 0 
1322807		 # 	collision with: 1 5 0  and 10 0 1 
1322810		 # 	collision with: 7 7 0  and 3 3 1 
1322811		 # 	collision with: 10 1 0  and 8 0 1 
1322814		 # 	collision with: 1 4 0  and 2 6 0 
1322815		 # 	collision with: 10 3 0  and 4 0 1 
1323256		 # 	collision with: 8 5 0  and 9 0 1 
1323258		 # 	collision with: 6 0 0  and 5 2 0 
1323259		 # 	collision with: 2 1 0  and 4 2 0 
1323262		 # 	collision with: 6 1 0  and 5 3 0 
1323263		 # 	collision with: 4 0 0  and 8 1 0 
1323266		 # 	collision with: 5 10 0  and 2 0 1 
1323267		 # 	collision with: 5 3 0  and 10 5 0 
1323270		 # 	collision with: 3 3 0  and 8 4 0 
1323271		 # 	collision with: 0 2 0  and 9 4 0 
1323274		 # 	collision with: 3 4 0  and 8 5 0 
1323275		 # 	collision with: 7 1 0  and 9 3 0 
1323278		 # 	collision with: 6 2 0  and 5 4 0 
1323279		 # 	collision with: 0 5 0  and 3 0 1 
1323282		 # 	collision with: 6 4 0  and 5 6 0 
1323283		 # 	collision with: 2 0 0  and 8 2 0 
1323286		 # 	collision with: 6 3 0  and 5 5 0 
1323287		 # 	collision with: 4 8 0  and 9 0 1 
1323290		 # 	collision with: 3 1 0  and 8 2 0 
1323291		 # 	collision with: 4 9 0  and 10 0 1 
1323294		 # 	collision with: 3 0 0  and 8 1 0 
1323295		 # 	collision with: 5 3 0  and 3 4 0 
1323298		 # 	collision with: 3 2 0  and 8 3 0 
1323299		 # 	collision with: 9 5 0  and 1 0 1 
1323740		 # 	collision with: 3 9 0  and 9 0 1 
1323742		 # 	collision with: 2 2 0  and 10 4 0 
1323743		 # 	collision with: 9 3 0  and 6 4 0 
1323746		 # 	collision with: 4 0 0  and 8 1 0 
1323747		 # 	collision with: 1 8 0  and 3 0 1 
1323750		 # 	collision with: 4 4 0  and 8 5 0 
1323751		 # 	collision with: 2 1 0  and 2 0 1 
1323754		 # 	collision with: 4 3 0  and 8 4 0 
1323755		 # 	collision with: 2 1 0  and 3 2 0 
1323758		 # 	collision with: 2 1 0  and 10 3 0 
1323759		 # 	collision with: 6 2 0  and 2 4 0 
1323762		 # 	collision with: 2 4 0  and 10 6 0 
1323763		 # 	collision with: 4 4 0  and 10 5 0 
1323766		 # 	collision with: 4 5 0  and 8 6 0 
1323767		 # 	collision with: 1 3 0  and 1 0 1 
1323770		 # 	collision with: 4 1 0  and 8 2 0 
1323771		 # 	collision with: 9 0 0  and 1 1 0 
1323774		 # 	collision with: 9 5 0  and 3 0 1 
1323775		 # 	collision with: 6 4 0  and 5 6 0 
1323778		 # 	collision with: 2 0 0  and 10 2 0 
1323779		 # 	collision with: 5 3 0  and 8 5 0 
1323782		 # 	collision with: 4 2 0  and 8 3 0 
1323783		 # 	collision with: 5 3 0  and 5 0 1 
1324224		 # 	collision with: 6 1 0  and 7 0 1 
1324226		 # 	collision with: 9 1 0  and 1 2 0 
1324227		 # 	collision with: 5 2 0  and 3 3 0 
1324230		 # 	collision with: 9 0 0  and 1 1 0 
1324231		 # 	collision with: 9 7 0  and 7 0 1 
1324234		 # 	collision with: 9 3 0  and 1 4 0 
1324235		 # 	collision with: 2 0 0  and 4 1 0 
1324238		 # 	collision with: 9 2 0  and 1 3 0 
1324239		 # 	collision with: 0 1 0  and 9 3 0 
1324242		 # 	collision with: 9 4 0  and 1 5 0 
1324243		 # 	collision with: 3 3 0  and 6 0 1 
1324246		 # 	collision with: 2 2 0  and 8 4 0 
1324247		 # 	collision with: 5 2 0  and 10 4 0 
1324250		 # 	collision with: 2 3 0  and 8 5 0 
1324251		 # 	collision with: 3 4 0  and 8 5 0 
1324254		 # 	collision with: 5 8 0  and 6 0 1 
1324255		 # 	collision with: 10 3 0  and 2 0 1 
1324258		 # 	collision with: 9 5 0  and 1 6 0 
1324259		 # 	collision with: 7 0 0  and 9 2 0 
1324262		 # 	collision with: 2 0 0  and 8 2 0 
1324263		 # 	collision with: 3 4 0  and 3 1 1 
1324266		 # 	collision with: 2 4 0  and 8 6 0 
1324267		 # 	collision with: 10 0 1  and 2 1 1 
1324708		 # 	collision with: 9 8 0  and 0 1 1 
1324710		 # 	collision with: 1 1 0  and 5 3 0 
1324711		 # 	collision with: 2 0 0  and 3 1 0 
1324714		 # 	collision with: 2 1 0  and 4 2 0 
1324715		 # 	collision with: 4 5 0  and 0 0 1 
1324718		 # 	collision with: 2 2 0  and 4 3 0 
1324719		 # 	collision with: 9 1 0  and 0 0 1 
1324722		 # 	collision with: 2 4 0  and 4 5 0 
1324723		 # 	collision with: 5 1 0  and 4 2 0 
1324726		 # 	collision with: 1 4 0  and 5 6 0 
1324727		 # 	collision with: 2 5 0  and 4 6 0 
1324730		 # 	collision with: 8 5 0  and 9 1 1 
1324731		 # 	collision with: 8 1 0  and 6 1 1 
1324734		 # 	collision with: 1 2 0  and 5 4 0 
1324735		 # 	collision with: 3 7 0  and 3 1 1 
1324738		 # 	collision with: 2 3 0  and 4 4 0 
1324739		 # 	collision with: 4 4 0  and 8 5 0 
1324742		 # 	collision with: 2 5 0  and 4 6 0 
1324743		 # 	collision with: 0 4 0  and 4 1 1 
1324746		 # 	collision with: 2 6 0  and 4 7 0 
1324747		 # 	collision with: 6 3 0  and 5 5 0 
1324750		 # 	collision with: 2 0 0  and 4 1 0 
1324751		 # 	collision with: 4 3 0  and 10 4 0 
1325192		 # 	collision with: 8 3 0  and 3 0 1 
1325194		 # 	collision with: 2 4 0  and 3 5 0 
1325195		 # 	collision with: 8 5 0  and 9 0 1 
1325198		 # 	collision with: 7 0 0  and 9 2 0 
1325199		 # 	collision with: 6 8 0  and 6 2 1 
1325202		 # 	collision with: 2 3 0  and 3 4 0 
1325203		 # 	collision with: 2 5 0  and 3 6 0 
1325206		 # 	collision with: 7 1 0  and 9 3 0 
1325207		 # 	collision with: 0 0 0  and 9 2 0 
1325210		 # 	collision with: 2 5 0  and 3 6 0 
1325211		 # 	collision with: 10 8 0  and 10 1 1 
1325214		 # 	collision with: 2 0 0  and 3 1 0 
1325215		 # 	collision with: 5 1 0  and 3 2 0 
1325218		 # 	collision with: 7 3 0  and 9 5 0 
1325219		 # 	collision with: 3 9 0  and 1 0 1 
1325222		 # 	collision with: 2 2 0  and 3 3 0 
1325223		 # 	collision with: 5 1 0  and 10 3 0 
1325226		 # 	collision with: 7 4 0  and 9 6 0 
1325227		 # 	collision with: 3 2 0  and 10 3 0 
1325230		 # 	collision with: 2 1 0  and 3 2 0 
1325231		 # 	collision with: 1 2 0  and 2 4 0 
1325234		 # 	collision with: 9 1 0  and 0 0 1 
1325235		 # 	collision with: 6 7 0  and 7 0 1 
1325678		 # 	collision with: 4 2 0  and 6 1 1 
1325679		 # 	collision with: 6 2 0  and 5 4 0 
1325682		 # 	collision with: 0 0 0  and 1 1 1 
1325683		 # 	collision with: 3 9 0  and 9 0 1 
1325686		 # 	collision with: 2 8 0  and 4 0 1 
1325687		 # 	collision with: 0 3 0  and 4 4 0 
1325690		 # 	collision with: 1 3 0  and 3 0 1 
1325691		 # 	collision with: 0 4 0  and 2 5 0 
1325694		 # 	collision with: 0 9 0  and 4 5 1 
1325695		 # 	collision with: 4 1 0  and 1 2 0 
1325698		 # 	collision with: 10 9 0  and 1 0 1 
1325699		 # 	collision with: 2 0 0  and 1 1 0 
1325702		 # 	collision with: 2 2 0  and 4 0 1 
1325703		 # 	collision with: 1 6 0  and 6 0 1 
1325706		 # 	collision with: 7 5 0  and 9 0 1 
1325707		 # 	collision with: 0 5 0  and 8 1 1 
1325710		 # 	collision with: 9 9 0  and 0 0 1 
1325711		 # 	collision with: 9 7 0  and 7 2 1 
1325714		 # 	collision with: 8 0 1  and 10 1 1 
1325715		 # 	collision with: 3 1 0  and 7 1 1 
1325718		 # 	collision with: 6 5 0  and 8 0 1 
1325719		 # 	collision with: 3 2 0  and 9 3 0 
3.33193secs	2246
