# prime 11
# degree 2
# input variables 3
# output variables 5
# reload computed balance functions from file balance-2074of3248-p11d2m3-debug.log
# p = 11
# n = 5
# smalldomain p^m 1331
# domain p^n 161051
#	 p^2 = 121
#	 p^3 = 1331
#	 p^4 = 14641
#	 p^5 = 161051
#	 p^6 = 1771561
#	 p^7 = 19487171
#	 p^8 = 214358881
#	 p^9 = 2357947691
opening file : balance-2074of3248-p11d2m3-debug.log
reloading for step2...
12444068		 # 	collision with: 5 1 0 0 0  and 6 1 0 0 0 
12444069		 # 	collision with: 5 1 0 0 0  and 6 1 0 0 0 
12444070		 # 	collision with: 4 4 1 0 0  and 4 5 1 0 0 
12444071		 # 	collision with: 6 1 2 0 0  and 6 2 2 0 0 
12444096		 # 	collision with: 5 1 2 0 0  and 6 3 2 0 0 
12444097		 # 	collision with: 6 1 1 0 0  and 6 3 1 0 0 
12444098		 # 	collision with: 4 10 10 0 0  and 6 10 10 0 0 
12444099		 # 	collision with: 4 3 3 0 0  and 6 1 5 0 0 
12444124		 # 	collision with: 7 1 7 0 0  and 10 6 1 1 0 
12444125		 # 	collision with: 8 7 3 0 0  and 8 2 4 0 0 
12444126		 # 	collision with: 9 9 6 0 0  and 6 5 0 1 0 
12444127		 # 	collision with: 3 3 0 0 0  and 7 4 0 0 0 
12444196		 # 	collision with: 5 1 0 0 0  and 6 1 0 0 0 
12444197		 # 	collision with: 5 1 0 0 0  and 6 1 0 0 0 
12444198		 # 	collision with: 9 2 1 0 0  and 9 3 1 0 0 
12444199		 # 	collision with: 10 2 3 0 0  and 10 0 4 0 0 
12444224		 # 	collision with: 5 1 2 0 0  and 6 1 2 0 0 
12444225		 # 	collision with: 5 1 2 0 0  and 6 1 2 0 0 
12444226		 # 	collision with: 4 10 5 0 0  and 6 10 5 0 0 
12444227		 # 	collision with: 4 10 0 0 0  and 6 10 0 0 0 
12444296		 # 	collision with: 4 4 4 0 0  and 4 6 4 0 0 
12444297		 # 	collision with: 10 3 0 0 0  and 1 4 0 0 0 
12444298		 # 	collision with: 4 10 2 0 0  and 6 10 2 0 0 
12444299		 # 	collision with: 4 4 2 0 0  and 4 5 2 0 0 
12444324		 # 	collision with: 5 1 3 0 0  and 6 1 3 0 0 
12444325		 # 	collision with: 5 1 3 0 0  and 6 1 3 0 0 
12444326		 # 	collision with: 5 2 3 0 0  and 5 4 3 0 0 
12444327		 # 	collision with: 4 5 3 0 0  and 6 6 3 0 0 
12444352		 # 	collision with: 5 1 1 0 0  and 6 1 1 0 0 
12444353		 # 	collision with: 5 1 1 0 0  and 6 1 1 0 0 
12444354		 # 	collision with: 4 10 4 0 0  and 6 10 4 0 0 
12444355		 # 	collision with: 4 10 2 0 0  and 6 10 2 0 0 
12444424		 # 	collision with: 6 1 2 0 0  and 6 3 2 0 0 
12444425		 # 	collision with: 5 3 0 0 0  and 5 4 0 0 0 
12444426		 # 	collision with: 2 0 2 0 0  and 8 1 2 0 0 
12444427		 # 	collision with: 4 10 1 0 0  and 6 10 1 0 0 
12444452		 # 	collision with: 5 1 5 0 0  and 6 1 5 0 0 
12444453		 # 	collision with: 1 1 3 0 0  and 10 2 3 0 0 
12444454		 # 	collision with: 7 1 8 0 0  and 3 2 8 0 0 
12444455		 # 	collision with: 0 3 2 0 0  and 10 5 2 0 0 
12444480		 # 	collision with: 6 1 7 0 0  and 6 3 7 0 0 
12444481		 # 	collision with: 5 7 3 0 0  and 5 0 4 0 0 
12444482		 # 	collision with: 4 10 1 0 0  and 6 10 1 0 0 
12444483		 # 	collision with: 1 3 0 0 0  and 1 4 0 0 0 
12444552		 # 	collision with: 8 4 5 0 0  and 8 5 5 0 0 
12444553		 # 	collision with: 3 2 3 0 0  and 8 3 3 0 0 
12444554		 # 	collision with: 1 3 5 0 0  and 1 4 5 0 0 
12444555		 # 	collision with: 4 10 3 0 0  and 6 10 3 0 0 
12444580		 # 	collision with: 5 1 8 0 0  and 6 1 8 0 0 
12444581		 # 	collision with: 10 1 1 0 0  and 10 2 1 0 0 
12444582		 # 	collision with: 4 10 0 0 0  and 6 10 0 0 0 
12444583		 # 	collision with: 6 3 3 0 0  and 6 3 4 0 0 
12444608		 # 	collision with: 8 0 7 0 0  and 9 5 0 1 0 
12444609		 # 	collision with: 1 2 0 0 0  and 10 4 0 0 0 
12444610		 # 	collision with: 8 10 9 0 0  and 7 2 2 1 0 
12444611		 # 	collision with: 5 2 2 0 0  and 5 4 2 0 0 
12444680		 # 	collision with: 8 4 4 0 0  and 8 5 4 0 0 
12444681		 # 	collision with: 10 1 2 0 0  and 10 2 2 0 0 
12444682		 # 	collision with: 4 10 2 0 0  and 6 10 2 0 0 
12444683		 # 	collision with: 4 10 3 0 0  and 6 10 3 0 0 
12444708		 # 	collision with: 3 0 2 0 0  and 3 2 2 0 0 
12444709		 # 	collision with: 5 2 2 0 0  and 5 2 4 0 0 
12444710		 # 	collision with: 9 2 2 0 0  and 9 3 2 0 0 
12444711		 # 	collision with: 6 1 1 0 0  and 6 2 1 0 0 
12444780		 # 	collision with: 9 2 5 0 0  and 9 4 5 0 0 
12444781		 # 	collision with: 10 3 1 0 0  and 1 4 1 0 0 
12444782		 # 	collision with: 8 3 5 0 0  and 8 5 5 0 0 
12444783		 # 	collision with: 5 2 0 0 0  and 5 4 0 0 0 
12444808		 # 	collision with: 5 1 0 0 0  and 6 1 0 0 0 
12444809		 # 	collision with: 5 1 0 0 0  and 6 1 0 0 0 
12444810		 # 	collision with: 8 3 1 0 0  and 8 5 1 0 0 
12444811		 # 	collision with: 4 4 3 0 0  and 6 6 3 0 0 
12444836		 # 	collision with: 5 1 3 0 0  and 6 1 3 0 0 
12444837		 # 	collision with: 5 1 3 0 0  and 6 1 3 0 0 
12444838		 # 	collision with: 6 1 3 0 0  and 6 2 3 0 0 
12444839		 # 	collision with: 10 0 2 0 0  and 10 2 2 0 0 
12444908		 # 	collision with: 5 1 5 0 0  and 6 1 5 0 0 
12444909		 # 	collision with: 7 0 3 0 0  and 4 1 3 0 0 
12444910		 # 	collision with: 8 0 8 0 0  and 2 2 8 0 0 
12444911		 # 	collision with: 4 4 2 0 0  and 4 5 4 0 0 
12444936		 # 	collision with: 5 1 8 0 0  and 6 1 8 0 0 
12444937		 # 	collision with: 7 0 1 0 0  and 4 1 1 0 0 
12444938		 # 	collision with: 4 10 0 0 0  and 6 10 0 0 0 
12444939		 # 	collision with: 10 0 3 0 0  and 10 2 3 0 0 
12444964		 # 	collision with: 5 1 2 0 0  and 6 1 2 0 0 
12444965		 # 	collision with: 5 1 2 0 0  and 6 1 2 0 0 
12444966		 # 	collision with: 4 10 5 0 0  and 6 10 5 0 0 
12444967		 # 	collision with: 4 10 1 0 0  and 6 10 1 0 0 
12445036		 # 	collision with: 5 1 1 0 0  and 6 1 1 0 0 
12445037		 # 	collision with: 9 2 0 0 0  and 9 4 0 0 0 
12445038		 # 	collision with: 4 10 4 0 0  and 6 10 4 0 0 
12445039		 # 	collision with: 4 4 1 0 0  and 4 5 1 0 0 
12445064		 # 	collision with: 10 3 7 0 0  and 1 4 7 0 0 
12445065		 # 	collision with: 3 0 1 0 0  and 3 2 1 0 0 
12445066		 # 	collision with: 4 10 1 0 0  and 6 10 1 0 0 
12445067		 # 	collision with: 4 10 0 0 0  and 6 10 0 0 0 
12445092		 # 	collision with: 9 10 5 0 0  and 3 9 1 1 0 
12445093		 # 	collision with: 2 2 0 0 0  and 2 3 0 0 0 
12445094		 # 	collision with: 2 3 5 0 0  and 0 0 1 1 0 
12445095		 # 	collision with: 9 2 0 0 0  and 9 3 0 0 0 
12445164		 # 	collision with: 5 3 7 0 0  and 5 4 7 0 0 
12445165		 # 	collision with: 6 0 2 0 0  and 6 0 3 0 0 
12445166		 # 	collision with: 4 10 1 0 0  and 6 10 1 0 0 
12445167		 # 	collision with: 4 10 2 0 0  and 6 10 2 0 0 
12445192		 # 	collision with: 5 1 1 0 0  and 6 1 1 0 0 
12445193		 # 	collision with: 5 1 1 0 0  and 6 1 1 0 0 
12445194		 # 	collision with: 4 10 4 0 0  and 6 10 4 0 0 
12445195		 # 	collision with: 8 0 2 0 0  and 8 0 3 0 0 
12445264		 # 	collision with: 5 1 2 0 0  and 6 1 2 0 0 
12445265		 # 	collision with: 5 1 2 0 0  and 6 1 2 0 0 
12445266		 # 	collision with: 4 10 5 0 0  and 6 10 5 0 0 
12445267		 # 	collision with: 8 7 2 0 0  and 2 0 3 0 0 
12445292		 # 	collision with: 5 1 8 0 0  and 6 1 8 0 0 
12445293		 # 	collision with: 7 0 2 0 0  and 7 0 3 0 0 
12445294		 # 	collision with: 4 10 0 0 0  and 6 10 0 0 0 
12445295		 # 	collision with: 4 0 2 0 0  and 4 0 3 0 0 
12445320		 # 	collision with: 5 1 5 0 0  and 6 1 5 0 0 
12445321		 # 	collision with: 3 2 0 0 0  and 8 3 0 0 0 
12445322		 # 	collision with: 8 3 8 0 0  and 8 5 8 0 0 
12445323		 # 	collision with: 1 0 2 0 0  and 1 0 3 0 0 
12445392		 # 	collision with: 5 1 3 0 0  and 6 1 3 0 0 
12445393		 # 	collision with: 1 0 2 0 0  and 1 0 3 0 0 
12445394		 # 	collision with: 2 1 3 0 0  and 2 3 3 0 0 
12445395		 # 	collision with: 1 3 1 0 0  and 1 4 1 0 0 
12445420		 # 	collision with: 5 1 0 0 0  and 6 1 0 0 0 
12445421		 # 	collision with: 5 1 0 0 0  and 6 1 0 0 0 
12445422		 # 	collision with: 6 1 1 0 0  and 4 3 1 0 0 
12445423		 # 	collision with: 4 10 0 0 0  and 6 10 0 0 0 
12445448		 # 	collision with: 4 4 5 0 0  and 4 6 5 0 0 
12445449		 # 	collision with: 9 0 2 0 0  and 9 0 3 0 0 
12445450		 # 	collision with: 6 1 5 0 0  and 6 2 5 0 0 
12445451		 # 	collision with: 2 1 1 0 0  and 2 3 1 0 0 
12445520		 # 	collision with: 2 2 2 0 0  and 2 3 2 0 0 
12445521		 # 	collision with: 8 0 2 0 0  and 8 0 3 0 0 
12445522		 # 	collision with: 6 1 2 0 0  and 6 2 2 0 0 
12445523		 # 	collision with: 3 0 2 0 0  and 3 0 3 0 0 
12445548		 # 	collision with: 7 3 4 0 0  and 4 5 4 0 0 
12445549		 # 	collision with: 7 0 1 0 0  and 7 1 1 0 0 
12445550		 # 	collision with: 4 10 2 0 0  and 6 10 2 0 0 
12445551		 # 	collision with: 4 10 1 0 0  and 6 10 1 0 0 
12445576		 # 	collision with: 10 8 5 0 0  and 7 0 0 1 0 
12445577		 # 	collision with: 5 1 6 0 0  and 6 3 6 0 0 
12445578		 # 	collision with: 5 7 7 0 0  and 7 6 2 1 0 
12445579		 # 	collision with: 6 1 0 0 0  and 4 3 0 0 0 
12445648		 # 	collision with: 5 1 8 0 0  and 6 1 8 0 0 
12445649		 # 	collision with: 5 1 0 0 0  and 6 3 0 0 0 
12445650		 # 	collision with: 4 10 0 0 0  and 6 10 0 0 0 
12445651		 # 	collision with: 4 10 1 0 0  and 6 10 1 0 0 
12445676		 # 	collision with: 7 0 5 0 0  and 4 1 5 0 0 
12445677		 # 	collision with: 1 9 1 0 0  and 1 9 3 0 0 
12445678		 # 	collision with: 2 0 5 0 0  and 8 1 5 0 0 
12445679		 # 	collision with: 2 0 1 0 0  and 8 1 1 0 0 
12445748		 # 	collision with: 3 2 7 0 0  and 8 3 7 0 0 
12445749		 # 	collision with: 6 1 0 0 0  and 6 3 0 0 0 
12445750		 # 	collision with: 4 10 1 0 0  and 6 10 1 0 0 
12445751		 # 	collision with: 7 10 1 0 0  and 7 1 3 0 0 
12445776		 # 	collision with: 5 1 5 0 0  and 6 1 5 0 0 
12445777		 # 	collision with: 7 7 1 0 0  and 7 5 3 0 0 
12445778		 # 	collision with: 3 0 8 0 0  and 3 1 8 0 0 
12445779		 # 	collision with: 4 10 0 0 0  and 6 10 0 0 0 
12445804		 # 	collision with: 7 0 2 0 0  and 7 1 2 0 0 
12445805		 # 	collision with: 9 5 1 0 0  and 9 1 3 0 0 
12445806		 # 	collision with: 10 0 2 0 0  and 10 2 2 0 0 
12445807		 # 	collision with: 3 8 1 0 0  and 3 8 3 0 0 
12445876		 # 	collision with: 5 1 1 0 0  and 6 1 1 0 0 
12445877		 # 	collision with: 5 1 1 0 0  and 6 1 1 0 0 
12445878		 # 	collision with: 4 10 4 0 0  and 6 10 4 0 0 
12445879		 # 	collision with: 3 10 1 0 0  and 3 2 3 0 0 
12445904		 # 	collision with: 5 1 3 0 0  and 6 1 3 0 0 
12445905		 # 	collision with: 10 1 1 0 0  and 1 1 3 0 0 
12445906		 # 	collision with: 10 0 3 0 0  and 10 2 3 0 0 
12445907		 # 	collision with: 2 1 1 0 0  and 2 1 3 0 0 
12445932		 # 	collision with: 7 0 4 0 0  and 4 1 4 0 0 
12445933		 # 	collision with: 10 5 1 0 0  and 10 5 3 0 0 
12445934		 # 	collision with: 4 10 2 0 0  and 6 10 2 0 0 
12445935		 # 	collision with: 4 6 1 0 0  and 4 3 3 0 0 
12446004		 # 	collision with: 5 1 2 0 0  and 6 1 2 0 0 
12446005		 # 	collision with: 5 1 2 0 0  and 6 1 2 0 0 
12446006		 # 	collision with: 4 10 5 0 0  and 6 10 5 0 0 
12446007		 # 	collision with: 2 1 0 0 0  and 2 3 0 0 0 
12446032		 # 	collision with: 5 1 0 0 0  and 6 1 0 0 0 
12446033		 # 	collision with: 5 1 0 0 0  and 6 1 0 0 0 
12446034		 # 	collision with: 8 0 1 0 0  and 2 2 1 0 0 
12446035		 # 	collision with: 4 10 2 0 0  and 6 10 2 0 0 
12446060		 # 	collision with: 10 8 3 0 0  and 9 0 0 1 0 
12446061		 # 	collision with: 2 0 1 0 0  and 2 5 2 0 0 
12446062		 # 	collision with: 6 6 6 0 0  and 3 8 3 1 0 
12446063		 # 	collision with: 1 9 1 0 0  and 9 2 2 0 0 
12446132		 # 	collision with: 10 1 2 0 0  and 10 2 2 0 0 
12446133		 # 	collision with: 10 3 1 0 0  and 10 3 2 0 0 
12446134		 # 	collision with: 8 3 2 0 0  and 8 5 2 0 0 
12446135		 # 	collision with: 4 10 0 0 0  and 6 10 0 0 0 
12446160		 # 	collision with: 5 1 0 0 0  and 6 1 0 0 0 
12446161		 # 	collision with: 5 1 0 0 0  and 6 1 0 0 0 
12446162		 # 	collision with: 6 1 1 0 0  and 6 2 1 0 0 
12446163		 # 	collision with: 4 5 1 0 0  and 6 6 1 0 0 
12446232		 # 	collision with: 5 1 5 0 0  and 6 1 5 0 0 
12446233		 # 	collision with: 6 1 1 0 0  and 5 1 2 0 0 
12446234		 # 	collision with: 1 3 8 0 0  and 1 4 8 0 0 
12446235		 # 	collision with: 4 10 1 0 0  and 6 10 1 0 0 
12446260		 # 	collision with: 5 1 2 0 0  and 6 1 2 0 0 
12446261		 # 	collision with: 1 1 0 0 0  and 10 2 0 0 0 
12446262		 # 	collision with: 4 10 5 0 0  and 6 10 5 0 0 
12446263		 # 	collision with: 7 1 0 0 0  and 3 2 0 0 0 
12446288		 # 	collision with: 9 2 7 0 0  and 9 4 7 0 0 
12446289		 # 	collision with: 3 5 1 0 0  and 3 5 2 0 0 
12446290		 # 	collision with: 4 10 1 0 0  and 6 10 1 0 0 
12446291		 # 	collision with: 3 0 1 0 0  and 3 1 1 0 0 
12446360		 # 	collision with: 7 0 4 0 0  and 7 1 4 0 0 
12446361		 # 	collision with: 10 0 1 0 0  and 1 4 2 0 0 
12446362		 # 	collision with: 4 10 2 0 0  and 6 10 2 0 0 
12446363		 # 	collision with: 6 1 0 0 0  and 6 2 0 0 0 
12446388		 # 	collision with: 10 1 5 0 0  and 10 2 5 0 0 
12446389		 # 	collision with: 5 2 1 0 0  and 5 2 2 0 0 
12446390		 # 	collision with: 4 4 5 0 0  and 4 5 5 0 0 
12446391		 # 	collision with: 8 2 1 0 0  and 8 2 2 0 0 
12446416		 # 	collision with: 5 1 3 0 0  and 6 1 3 0 0 
12446417		 # 	collision with: 10 1 0 0 0  and 10 2 0 0 0 
12446418		 # 	collision with: 6 2 3 0 0  and 4 3 3 0 0 
12446419		 # 	collision with: 8 0 1 0 0  and 2 2 1 0 0 
12446488		 # 	collision with: 5 1 8 0 0  and 6 1 8 0 0 
12446489		 # 	collision with: 1 2 1 0 0  and 10 4 1 0 0 
12446490		 # 	collision with: 4 10 0 0 0  and 6 10 0 0 0 
12446491		 # 	collision with: 8 4 1 0 0  and 8 4 2 0 0 
12446516		 # 	collision with: 5 1 1 0 0  and 6 1 1 0 0 
12446517		 # 	collision with: 5 1 1 0 0  and 6 1 1 0 0 
12446518		 # 	collision with: 4 10 4 0 0  and 6 10 4 0 0 
12446519		 # 	collision with: 6 8 1 0 0  and 6 8 2 0 0 
12446544		 # 	collision with: 1 8 10 0 0  and 6 10 0 1 0 
12446545		 # 	collision with: 8 3 0 0 0  and 3 0 2 0 0 
12446546		 # 	collision with: 2 3 10 0 0  and 5 0 0 1 0 
12446547		 # 	collision with: 10 3 0 0 0  and 0 0 2 0 0 
12446616		 # 	collision with: 7 0 5 0 0  and 7 1 5 0 0 
12446617		 # 	collision with: 10 4 2 0 0  and 1 6 2 0 0 
12446618		 # 	collision with: 5 2 5 0 0  and 5 4 5 0 0 
12446619		 # 	collision with: 10 0 0 0 0  and 10 2 0 0 0 
12446644		 # 	collision with: 5 1 5 0 0  and 6 1 5 0 0 
12446645		 # 	collision with: 5 10 0 0 0  and 6 0 2 0 0 
12446646		 # 	collision with: 5 2 8 0 0  and 5 4 8 0 0 
12446647		 # 	collision with: 8 0 0 0 0  and 2 2 0 0 0 
12446716		 # 	collision with: 5 1 1 0 0  and 6 1 1 0 0 
12446717		 # 	collision with: 5 1 1 0 0  and 6 1 1 0 0 
12446718		 # 	collision with: 4 10 4 0 0  and 6 10 4 0 0 
12446719		 # 	collision with: 6 8 0 0 0  and 6 6 2 0 0 
12446744		 # 	collision with: 1 1 4 0 0  and 10 2 4 0 0 
12446745		 # 	collision with: 10 3 0 0 0  and 10 0 2 0 0 
12446746		 # 	collision with: 4 10 2 0 0  and 6 10 2 0 0 
12446747		 # 	collision with: 10 10 0 0 0  and 0 0 2 0 0 
12446772		 # 	collision with: 5 1 0 0 0  and 6 1 0 0 0 
12446773		 # 	collision with: 5 1 0 0 0  and 6 1 0 0 0 
12446774		 # 	collision with: 3 0 1 0 0  and 3 1 1 0 0 
12446775		 # 	collision with: 4 10 1 0 0  and 6 10 1 0 0 
12446844		 # 	collision with: 5 1 8 0 0  and 6 1 8 0 0 
12446845		 # 	collision with: 7 4 0 0 0  and 7 8 2 0 0 
12446846		 # 	collision with: 4 10 0 0 0  and 6 10 0 0 0 
12446847		 # 	collision with: 6 1 1 0 0  and 4 3 1 0 0 
12446872		 # 	collision with: 4 4 7 0 0  and 4 6 7 0 0 
12446873		 # 	collision with: 3 0 0 0 0  and 3 2 0 0 0 
12446874		 # 	collision with: 4 10 1 0 0  and 6 10 1 0 0 
12446875		 # 	collision with: 3 3 0 0 0  and 3 3 2 0 0 
12446900		 # 	collision with: 1 3 2 0 0  and 1 5 2 0 0 
12446901		 # 	collision with: 1 4 0 0 0  and 1 4 2 0 0 
12446902		 # 	collision with: 3 0 2 0 0  and 3 1 2 0 0 
12446903		 # 	collision with: 5 4 0 0 0  and 5 4 2 0 0 
12446972		 # 	collision with: 5 1 3 0 0  and 6 1 3 0 0 
12446973		 # 	collision with: 10 6 0 0 0  and 10 6 2 0 0 
12446974		 # 	collision with: 8 3 3 0 0  and 8 5 3 0 0 
12446975		 # 	collision with: 4 10 0 0 0  and 6 10 0 0 0 
12447000		 # 	collision with: 5 1 2 0 0  and 6 1 2 0 0 
12447001		 # 	collision with: 8 4 1 0 0  and 8 5 1 0 0 
12447002		 # 	collision with: 4 10 5 0 0  and 6 10 5 0 0 
12447003		 # 	collision with: 6 1 0 0 0  and 6 1 2 0 0 
12447028		 # 	collision with: 6 7 9 0 0  and 9 4 0 1 0 
12447029		 # 	collision with: 10 1 0 0 0  and 1 7 1 0 0 
12447030		 # 	collision with: 3 5 9 0 0  and 1 3 0 1 0 
12447031		 # 	collision with: 3 0 3 0 0  and 3 1 3 0 0 
12447100		 # 	collision with: 5 1 5 0 0  and 6 1 5 0 0 
12447101		 # 	collision with: 7 0 0 0 0  and 4 1 0 0 0 
12447102		 # 	collision with: 2 1 8 0 0  and 2 3 8 0 0 
12447103		 # 	collision with: 2 2 0 0 0  and 8 0 1 0 0 
12447128		 # 	collision with: 9 2 4 0 0  and 9 4 4 0 0 
12447129		 # 	collision with: 6 3 0 0 0  and 6 3 1 0 0 
12447130		 # 	collision with: 4 10 2 0 0  and 6 10 2 0 0 
12447131		 # 	collision with: 3 0 0 0 0  and 3 1 0 0 0 
12447200		 # 	collision with: 5 1 8 0 0  and 6 1 8 0 0 
12447201		 # 	collision with: 5 2 0 0 0  and 5 2 1 0 0 
12447202		 # 	collision with: 4 10 0 0 0  and 6 10 0 0 0 
12447203		 # 	collision with: 1 2 0 0 0  and 1 2 1 0 0 
12447228		 # 	collision with: 7 0 2 0 0  and 4 1 2 0 0 
12447229		 # 	collision with: 7 0 0 0 0  and 7 1 0 0 0 
12447230		 # 	collision with: 1 3 2 0 0  and 1 4 2 0 0 
12447231		 # 	collision with: 10 5 0 0 0  and 0 7 1 0 0 
12447256		 # 	collision with: 5 1 2 0 0  and 6 1 2 0 0 
12447257		 # 	collision with: 6 1 0 0 0  and 5 6 1 0 0 
12447258		 # 	collision with: 4 10 5 0 0  and 6 10 5 0 0 
12447259		 # 	collision with: 8 10 0 0 0  and 2 10 1 0 0 
12447328		 # 	collision with: 2 2 5 0 0  and 2 3 5 0 0 
12447329		 # 	collision with: 3 1 0 0 0  and 3 1 1 0 0 
12447330		 # 	collision with: 3 0 5 0 0  and 3 1 5 0 0 
12447331		 # 	collision with: 4 10 0 0 0  and 6 10 0 0 0 
12447356		 # 	collision with: 5 1 1 0 0  and 6 1 1 0 0 
12447357		 # 	collision with: 3 2 0 0 0  and 3 0 1 0 0 
12447358		 # 	collision with: 4 10 4 0 0  and 6 10 4 0 0 
12447359		 # 	collision with: 3 8 0 0 0  and 3 4 1 0 0 
12447384		 # 	collision with: 5 1 0 0 0  and 6 1 0 0 0 
12447385		 # 	collision with: 5 1 0 0 0  and 6 1 0 0 0 
12447386		 # 	collision with: 2 0 1 0 0  and 8 1 1 0 0 
12447387		 # 	collision with: 6 9 0 0 0  and 6 9 1 0 0 
12447456		 # 	collision with: 5 1 7 0 0  and 6 3 7 0 0 
12447457		 # 	collision with: 8 7 0 0 0  and 8 2 1 0 0 
12447458		 # 	collision with: 4 10 1 0 0  and 6 10 1 0 0 
12447459		 # 	collision with: 2 8 0 0 0  and 2 8 1 0 0 
12447484		 # 	collision with: 5 1 3 0 0  and 6 1 3 0 0 
12447485		 # 	collision with: 1 3 1 0 0  and 1 5 1 0 0 
12447486		 # 	collision with: 7 1 3 0 0  and 3 2 3 0 0 
12447487		 # 	collision with: 2 0 0 0 0  and 8 1 0 0 0 
12447521		 # 	collision with: 5 3 2 0 0  and 5 4 2 0 0 
12447523		 # 	collision with: 7 5 0 0 0  and 7 6 0 0 0 
12447549		 # 	collision with: 1 3 4 0 0  and 1 5 4 0 0 
12447551		 # 	collision with: 2 2 3 0 0  and 8 4 3 0 0 
12447561		 # 	collision with: 10 4 1 0 0  and 1 6 1 0 0 
12447563		 # 	collision with: 2 3 3 0 0  and 8 5 3 0 0 
12447565		 # 	collision with: 5 3 2 0 0  and 5 4 2 0 0 
12447567		 # 	collision with: 7 5 0 0 0  and 7 6 0 0 0 
12447615		 # 	collision with: 9 1 5 0 0  and 9 1 6 0 0 
12447737		 # 	collision with: 5 1 2 0 0  and 6 1 2 0 0 
12447739		 # 	collision with: 4 3 4 0 0  and 6 3 4 0 0 
12447745		 # 	collision with: 6 1 5 0 0  and 5 1 6 0 0 
12447747		 # 	collision with: 4 3 5 0 0  and 6 3 5 0 0 
12447809		 # 	collision with: 5 1 6 0 0  and 6 1 6 0 0 
12447811		 # 	collision with: 6 1 1 0 0  and 6 2 1 0 0 
12447817		 # 	collision with: 5 1 2 0 0  and 6 1 2 0 0 
12447819		 # 	collision with: 9 5 0 0 0  and 1 6 0 0 0 
12447943		 # 	collision with: 6 1 1 0 0  and 6 2 1 0 0 
12447989		 # 	collision with: 1 3 4 0 0  and 1 5 4 0 0 
12447991		 # 	collision with: 4 2 3 0 0  and 6 4 3 0 0 
12447993		 # 	collision with: 1 1 3 0 0  and 10 2 3 0 0 
12447995		 # 	collision with: 9 5 0 0 0  and 1 6 0 0 0 
12447996		 # 	collision with: 4 0 3 0 0  and 2 0 0 1 0 
12447998		 # 	collision with: 6 2 4 0 0  and 5 1 1 1 0 
12448005		 # 	collision with: 2 2 8 0 0  and 2 3 8 0 0 
12448033		 # 	collision with: 9 1 4 0 0  and 2 1 6 0 0 
12448035		 # 	collision with: 3 0 1 0 0  and 3 1 1 0 0 
12448045		 # 	collision with: 2 2 5 0 0  and 2 3 5 0 0 
12448047		 # 	collision with: 2 4 0 0 0  and 8 6 0 0 0 
12448049		 # 	collision with: 7 3 1 0 0  and 4 5 1 0 0 
12448051		 # 	collision with: 7 2 2 0 0  and 3 4 2 0 0 
12448097		 # 	collision with: 7 0 3 0 0  and 7 1 3 0 0 
12448221		 # 	collision with: 5 1 4 0 0  and 6 1 4 0 0 
12448223		 # 	collision with: 2 4 0 0 0  and 8 6 0 0 0 
12448229		 # 	collision with: 7 0 3 0 0  and 7 1 3 0 0 
12448231		 # 	collision with: 2 1 2 0 0  and 2 3 2 0 0 
12448293		 # 	collision with: 3 2 2 0 0  and 8 3 2 0 0 
12448295		 # 	collision with: 9 5 4 0 0  and 1 6 4 0 0 
12448301		 # 	collision with: 5 1 0 0 0  and 6 1 0 0 0 
12448303		 # 	collision with: 9 0 2 0 0  and 1 1 2 0 0 
12448425		 # 	collision with: 10 1 5 0 0  and 10 2 5 0 0 
12448427		 # 	collision with: 4 3 1 0 0  and 6 3 1 0 0 
12448473		 # 	collision with: 2 1 4 0 0  and 2 1 6 0 0 
12448475		 # 	collision with: 3 0 1 0 0  and 3 1 1 0 0 
12448477		 # 	collision with: 5 1 0 0 0  and 6 1 0 0 0 
12448479		 # 	collision with: 9 1 4 0 0  and 1 2 4 0 0 
12448480		 # 	collision with: 6 6 7 0 0  and 1 10 0 1 0 
12448482		 # 	collision with: 9 9 7 0 0  and 10 7 0 1 0 
12448489		 # 	collision with: 10 1 3 0 0  and 10 2 3 0 0 
12448491		 # 	collision with: 1 3 1 0 0  and 1 4 1 0 0 
12448517		 # 	collision with: 5 1 0 0 0  and 6 1 0 0 0 
12448519		 # 	collision with: 2 1 3 0 0  and 8 3 3 0 0 
12448529		 # 	collision with: 1 4 4 0 0  and 1 4 5 0 0 
12448531		 # 	collision with: 4 4 0 0 0  and 4 5 0 0 0 
12448535		 # 	collision with: 1 3 1 0 0  and 1 4 1 0 0 
12448581		 # 	collision with: 2 4 0 0 0  and 9 5 0 0 0 
12448583		 # 	collision with: 1 2 1 0 0  and 9 4 1 0 0 
12448705		 # 	collision with: 1 2 3 0 0  and 10 4 3 0 0 
12448713		 # 	collision with: 2 4 0 0 0  and 9 5 0 0 0 
12448715		 # 	collision with: 4 2 1 0 0  and 6 4 1 0 0 
12448777		 # 	collision with: 5 1 2 0 0  and 6 1 2 0 0 
12448779		 # 	collision with: 2 1 2 0 0  and 8 3 2 0 0 
12448785		 # 	collision with: 6 0 4 0 0  and 6 4 5 0 0 
12448787		 # 	collision with: 2 0 4 0 0  and 8 2 4 0 0 
12448909		 # 	collision with: 5 3 3 0 0  and 5 4 3 0 0 
12448911		 # 	collision with: 9 0 1 0 0  and 1 1 1 0 0 
12448957		 # 	collision with: 5 1 0 0 0  and 6 1 0 0 0 
12448963		 # 	collision with: 10 0 4 0 0  and 10 2 4 0 0 
12448964		 # 	collision with: 10 2 1 0 0  and 8 10 0 1 0 
12448966		 # 	collision with: 4 7 2 0 0  and 8 3 1 1 0 
12448973		 # 	collision with: 2 6 3 0 0  and 9 9 5 0 0 
12448975		 # 	collision with: 8 2 1 0 0  and 2 4 1 0 0 
12449003		 # 	collision with: 9 1 3 0 0  and 1 2 3 0 0 
12449013		 # 	collision with: 7 0 3 0 0  and 7 1 5 0 0 
12449017		 # 	collision with: 9 5 3 0 0  and 2 4 5 0 0 
12449019		 # 	collision with: 4 2 1 0 0  and 6 4 1 0 0 
12449065		 # 	collision with: 5 3 4 0 0  and 5 4 4 0 0 
12449067		 # 	collision with: 4 3 0 0 0  and 6 3 0 0 0 
12449189		 # 	collision with: 3 5 3 0 0  and 8 2 5 0 0 
12449191		 # 	collision with: 5 2 2 0 0  and 5 4 2 0 0 
12449197		 # 	collision with: 5 1 1 0 0  and 6 1 1 0 0 
12449261		 # 	collision with: 5 1 0 0 0  and 6 1 0 0 0 
12449263		 # 	collision with: 2 3 0 0 0  and 8 5 0 0 0 
12449269		 # 	collision with: 1 3 0 0 0  and 1 5 0 0 0 
12449271		 # 	collision with: 4 3 2 0 0  and 6 3 2 0 0 
12449393		 # 	collision with: 5 1 0 0 0  and 6 1 0 0 0 
12449395		 # 	collision with: 2 3 0 0 0  and 8 5 0 0 0 
12449441		 # 	collision with: 5 1 1 0 0  and 6 1 1 0 0 
12449443		 # 	collision with: 5 6 3 0 0  and 5 6 5 0 0 
12449445		 # 	collision with: 1 3 0 0 0  and 1 5 0 0 0 
12449447		 # 	collision with: 9 4 1 0 0  and 1 5 1 0 0 
12449448		 # 	collision with: 7 1 9 0 0  and 10 0 0 1 0 
12449450		 # 	collision with: 8 8 10 0 0  and 9 0 1 1 0 
12449457		 # 	collision with: 4 4 4 0 0  and 4 6 4 0 0 
12449459		 # 	collision with: 6 1 2 0 0  and 6 2 2 0 0 
12449485		 # 	collision with: 10 3 0 0 0  and 1 4 0 0 0 
12449487		 # 	collision with: 7 5 2 0 0  and 7 6 2 0 0 
12449497		 # 	collision with: 5 3 0 0 0  and 5 4 0 0 0 
12449499		 # 	collision with: 3 2 1 0 0  and 7 4 1 0 0 
12449501		 # 	collision with: 5 6 3 0 0  and 5 1 4 0 0 
12449503		 # 	collision with: 9 1 2 0 0  and 1 2 2 0 0 
12449549		 # 	collision with: 5 1 2 0 0  and 6 1 2 0 0 
12449551		 # 	collision with: 9 0 2 0 0  and 1 1 2 0 0 
12449673		 # 	collision with: 5 3 0 0 0  and 5 4 0 0 0 
12449675		 # 	collision with: 4 3 1 0 0  and 6 3 1 0 0 
12449683		 # 	collision with: 4 3 2 0 0  and 6 3 2 0 0 
12449745		 # 	collision with: 10 4 1 0 0  and 1 6 1 0 0 
12449747		 # 	collision with: 4 3 1 0 0  and 6 3 1 0 0 
12449755		 # 	collision with: 4 3 0 0 0  and 6 3 0 0 0 
12449877		 # 	collision with: 5 10 3 0 0  and 6 0 4 0 0 
12449879		 # 	collision with: 2 6 3 0 0  and 8 0 4 0 0 
12449925		 # 	collision with: 10 3 0 0 0  and 1 4 0 0 0 
12449927		 # 	collision with: 7 5 2 0 0  and 7 6 2 0 0 
12449929		 # 	collision with: 7 3 1 0 0  and 4 5 1 0 0 
12449931		 # 	collision with: 4 3 0 0 0  and 6 3 0 0 0 
12449932		 # 	collision with: 4 1 5 0 0  and 0 8 0 1 0 
12449934		 # 	collision with: 0 3 5 0 0  and 8 1 0 1 0 
12449941		 # 	collision with: 1 2 0 0 0  and 10 4 0 0 0 
12449943		 # 	collision with: 6 2 0 0 0  and 4 4 0 0 0 
12449969		 # 	collision with: 4 4 2 0 0  and 4 6 2 0 0 
12449971		 # 	collision with: 10 2 0 0 0  and 0 4 0 0 0 
12449981		 # 	collision with: 6 1 2 0 0  and 6 3 2 0 0 
12449983		 # 	collision with: 1 2 0 0 0  and 9 4 0 0 0 
12449985		 # 	collision with: 1 2 0 0 0  and 10 4 0 0 0 
12449987		 # 	collision with: 6 2 0 0 0  and 4 4 0 0 0 
38.4936secs	19003
