# prime 11
# degree 2
# input variables 3
# output variables 5
# reload computed balance functions from file balance-2141of3248-p11d2m3-debug.log
# p = 11
# n = 5
# smalldomain p^m 1331
# domain p^n 161051
#	 p^2 = 121
#	 p^3 = 1331
#	 p^4 = 14641
#	 p^5 = 161051
#	 p^6 = 1771561
#	 p^7 = 19487171
#	 p^8 = 214358881
#	 p^9 = 2357947691
opening file : balance-2141of3248-p11d2m3-debug.log
reloading for step2...
12846056		 # 	collision with: 2 0 10 0 0  and 2 2 10 0 0 
12846057		 # 	collision with: 4 1 1 0 0  and 4 3 1 0 0 
12846058		 # 	collision with: 4 5 3 0 0  and 6 5 3 0 0 
12846059		 # 	collision with: 1 7 0 0 0  and 1 7 2 0 0 
12846076		 # 	collision with: 5 8 0 0 0  and 6 8 0 0 0 
12846077		 # 	collision with: 5 8 0 0 0  and 6 8 0 0 0 
12846078		 # 	collision with: 4 5 4 0 0  and 6 5 4 0 0 
12846079		 # 	collision with: 4 5 2 0 0  and 6 5 2 0 0 
12846140		 # 	collision with: 5 8 8 0 0  and 6 8 8 0 0 
12846141		 # 	collision with: 9 1 0 0 0  and 9 1 2 0 0 
12846142		 # 	collision with: 4 5 1 0 0  and 6 5 1 0 0 
12846143		 # 	collision with: 3 2 1 0 0  and 7 3 1 0 0 
12846160		 # 	collision with: 3 1 1 0 0  and 3 2 1 0 0 
12846161		 # 	collision with: 4 1 0 0 0  and 4 3 2 0 0 
12846162		 # 	collision with: 8 1 1 0 0  and 2 2 1 0 0 
12846163		 # 	collision with: 8 4 0 0 0  and 8 4 2 0 0 
12846224		 # 	collision with: 3 1 5 0 0  and 3 2 5 0 0 
12846225		 # 	collision with: 5 0 0 0 0  and 6 2 0 0 0 
12846226		 # 	collision with: 4 5 0 0 0  and 6 5 0 0 0 
12846227		 # 	collision with: 9 3 0 0 0  and 9 5 2 0 0 
12846244		 # 	collision with: 4 1 2 0 0  and 4 3 2 0 0 
12846245		 # 	collision with: 1 0 1 0 0  and 1 1 1 0 0 
12846246		 # 	collision with: 2 0 2 0 0  and 2 1 2 0 0 
12846247		 # 	collision with: 4 5 1 0 0  and 6 5 1 0 0 
12846308		 # 	collision with: 5 8 2 0 0  and 6 8 2 0 0 
12846309		 # 	collision with: 2 3 1 0 0  and 9 4 1 0 0 
12846310		 # 	collision with: 6 2 4 0 0  and 6 3 4 0 0 
12846311		 # 	collision with: 6 5 0 0 0  and 4 5 2 0 0 
12846328		 # 	collision with: 9 1 0 0 0  and 4 2 0 1 0 
12846329		 # 	collision with: 1 5 0 0 0  and 1 7 0 0 0 
12846330		 # 	collision with: 7 10 0 0 0  and 1 1 0 1 0 
12846331		 # 	collision with: 2 0 0 0 0  and 2 1 0 0 0 
12846392		 # 	collision with: 5 8 5 0 0  and 6 8 5 0 0 
12846393		 # 	collision with: 10 0 0 0 0  and 10 0 1 0 0 
12846394		 # 	collision with: 6 2 9 0 0  and 6 3 9 0 0 
12846395		 # 	collision with: 9 0 0 0 0  and 9 0 1 0 0 
12846456		 # 	collision with: 1 0 10 0 0  and 1 1 10 0 0 
12846457		 # 	collision with: 5 0 0 0 0  and 5 0 1 0 0 
12846458		 # 	collision with: 4 5 3 0 0  and 6 5 3 0 0 
12846459		 # 	collision with: 10 0 0 0 0  and 10 0 1 0 0 
12846476		 # 	collision with: 4 1 3 0 0  and 4 3 3 0 0 
12846477		 # 	collision with: 1 1 0 0 0  and 1 0 1 0 0 
12846478		 # 	collision with: 4 5 1 0 0  and 6 5 1 0 0 
12846479		 # 	collision with: 2 1 0 0 0  and 2 0 1 0 0 
12846540		 # 	collision with: 8 3 5 0 0  and 8 5 5 0 0 
12846541		 # 	collision with: 8 0 0 0 0  and 8 0 1 0 0 
12846542		 # 	collision with: 4 5 0 0 0  and 6 5 0 0 0 
12846543		 # 	collision with: 5 0 0 0 0  and 5 0 1 0 0 
12846560		 # 	collision with: 5 8 2 0 0  and 6 8 2 0 0 
12846561		 # 	collision with: 2 0 0 0 0  and 2 0 1 0 0 
12846562		 # 	collision with: 9 3 4 0 0  and 9 5 4 0 0 
12846563		 # 	collision with: 8 5 0 0 0  and 2 7 0 0 0 
12846624		 # 	collision with: 5 8 6 0 0  and 6 8 6 0 0 
12846625		 # 	collision with: 9 0 0 0 0  and 9 0 1 0 0 
12846626		 # 	collision with: 10 0 7 0 0  and 0 2 7 0 0 
12846627		 # 	collision with: 7 0 0 0 0  and 7 0 1 0 0 
12846644		 # 	collision with: 5 8 1 0 0  and 6 8 1 0 0 
12846645		 # 	collision with: 3 0 0 0 0  and 8 1 0 0 0 
12846646		 # 	collision with: 4 5 5 0 0  and 6 5 5 0 0 
12846647		 # 	collision with: 6 0 0 0 0  and 6 0 1 0 0 
12846708		 # 	collision with: 5 8 0 0 0  and 6 8 0 0 0 
12846709		 # 	collision with: 5 8 0 0 0  and 6 8 0 0 0 
12846710		 # 	collision with: 4 5 4 0 0  and 6 5 4 0 0 
12846711		 # 	collision with: 4 5 0 0 0  and 6 5 0 0 0 
12846728		 # 	collision with: 1 0 1 0 0  and 1 1 1 0 0 
12846729		 # 	collision with: 6 0 0 0 0  and 6 0 1 0 0 
12846730		 # 	collision with: 10 4 1 0 0  and 10 5 1 0 0 
12846731		 # 	collision with: 1 5 0 0 0  and 9 3 1 0 0 
12846792		 # 	collision with: 3 1 2 0 0  and 3 2 2 0 0 
12846793		 # 	collision with: 5 8 3 0 0  and 6 8 3 0 0 
12846794		 # 	collision with: 3 2 2 0 0  and 7 3 2 0 0 
12846795		 # 	collision with: 2 0 0 0 0  and 2 0 1 0 0 
12846821		 # 	collision with: 3 1 4 0 0  and 3 2 4 0 0 
12846823		 # 	collision with: 2 0 5 0 0  and 2 1 5 0 0 
12846849		 # 	collision with: 2 0 1 0 0  and 2 2 1 0 0 
12846851		 # 	collision with: 7 2 3 0 0  and 3 4 3 0 0 
12846857		 # 	collision with: 5 8 0 0 0  and 6 8 0 0 0 
12846859		 # 	collision with: 4 4 1 0 0  and 6 4 1 0 0 
12846897		 # 	collision with: 6 8 5 0 0  and 5 8 6 0 0 
12846899		 # 	collision with: 3 0 2 0 0  and 3 2 2 0 0 
12846943		 # 	collision with: 3 0 2 0 0  and 3 2 2 0 0 
12847041		 # 	collision with: 3 1 4 0 0  and 3 2 4 0 0 
12847043		 # 	collision with: 4 4 3 0 0  and 6 4 3 0 0 
12847049		 # 	collision with: 4 9 5 0 0  and 4 9 6 0 0 
12847051		 # 	collision with: 7 1 2 0 0  and 3 2 2 0 0 
12847105		 # 	collision with: 4 2 5 0 0  and 4 2 6 0 0 
12847107		 # 	collision with: 4 4 1 0 0  and 6 4 1 0 0 
12847113		 # 	collision with: 2 0 1 0 0  and 2 2 1 0 0 
12847115		 # 	collision with: 3 0 6 0 0  and 7 1 6 0 0 
12847215		 # 	collision with: 10 3 5 0 0  and 10 3 6 0 0 
12847253		 # 	collision with: 5 8 0 0 0  and 6 8 0 0 0 
12847255		 # 	collision with: 1 5 8 0 0  and 1 6 8 0 0 
12847257		 # 	collision with: 6 2 5 0 0  and 6 4 5 0 0 
12847259		 # 	collision with: 4 4 3 0 0  and 6 4 3 0 0 
12847296		 # 	collision with: 9 7 2 0 0  and 5 5 1 1 0 
12847298		 # 	collision with: 3 5 1 0 0  and 0 4 0 1 0 
12847305		 # 	collision with: 8 3 1 0 0  and 8 5 1 0 0 
12847307		 # 	collision with: 7 2 2 0 0  and 7 4 2 0 0 
12847333		 # 	collision with: 3 0 1 0 0  and 8 1 1 0 0 
12847335		 # 	collision with: 10 4 0 0 0  and 0 6 0 0 0 
12847341		 # 	collision with: 7 4 1 0 0  and 4 6 1 0 0 
12847343		 # 	collision with: 4 4 0 0 0  and 6 4 0 0 0 
12847381		 # 	collision with: 2 0 3 0 0  and 2 2 3 0 0 
12847383		 # 	collision with: 3 0 2 0 0  and 7 1 2 0 0 
12847425		 # 	collision with: 2 0 3 0 0  and 2 2 3 0 0 
12847525		 # 	collision with: 8 3 1 0 0  and 8 5 1 0 0 
12847533		 # 	collision with: 7 4 0 0 0  and 4 6 0 0 0 
12847535		 # 	collision with: 1 7 4 0 0  and 1 4 6 0 0 
12847589		 # 	collision with: 3 3 4 0 0  and 3 0 6 0 0 
12847591		 # 	collision with: 5 1 4 0 0  and 5 3 4 0 0 
12847597		 # 	collision with: 8 8 4 0 0  and 8 0 6 0 0 
12847599		 # 	collision with: 10 4 0 0 0  and 0 6 0 0 0 
12847697		 # 	collision with: 1 9 4 0 0  and 1 3 6 0 0 
12847699		 # 	collision with: 4 4 2 0 0  and 6 4 2 0 0 
12847737		 # 	collision with: 5 8 1 0 0  and 6 8 1 0 0 
12847739		 # 	collision with: 4 4 0 0 0  and 6 4 0 0 0 
12847741		 # 	collision with: 6 4 1 0 0  and 5 5 1 0 0 
12847743		 # 	collision with: 4 4 4 0 0  and 6 4 4 0 0 
12847780		 # 	collision with: 4 0 6 0 0  and 6 2 0 1 0 
12847782		 # 	collision with: 9 9 6 0 0  and 10 5 0 1 0 
12847789		 # 	collision with: 6 4 0 0 0  and 5 5 0 0 0 
12847791		 # 	collision with: 0 4 0 0 0  and 10 5 0 0 0 
12847817		 # 	collision with: 5 7 4 0 0  and 6 5 5 0 0 
12847819		 # 	collision with: 5 1 3 0 0  and 5 3 3 0 0 
12847827		 # 	collision with: 10 4 0 0 0  and 10 5 0 0 0 
12847865		 # 	collision with: 2 0 4 0 0  and 2 0 5 0 0 
12847867		 # 	collision with: 4 4 3 0 0  and 6 4 3 0 0 
12847909		 # 	collision with: 5 8 3 0 0  and 6 8 3 0 0 
12847911		 # 	collision with: 6 0 4 0 0  and 6 0 5 0 0 
12848009		 # 	collision with: 6 4 0 0 0  and 5 5 0 0 0 
12848011		 # 	collision with: 0 4 0 0 0  and 10 5 0 0 0 
12848017		 # 	collision with: 5 8 2 0 0  and 6 8 2 0 0 
12848019		 # 	collision with: 4 4 1 0 0  and 6 4 1 0 0 
12848073		 # 	collision with: 7 1 4 0 0  and 4 2 4 0 0 
12848075		 # 	collision with: 4 1 4 0 0  and 4 2 4 0 0 
12848081		 # 	collision with: 4 0 4 0 0  and 4 0 5 0 0 
12848083		 # 	collision with: 5 1 3 0 0  and 5 3 3 0 0 
12848181		 # 	collision with: 10 0 4 0 0  and 10 0 5 0 0 
12848183		 # 	collision with: 5 0 4 0 0  and 5 0 5 0 0 
12848221		 # 	collision with: 9 4 0 0 0  and 9 5 0 0 0 
12848223		 # 	collision with: 10 4 0 0 0  and 10 5 0 0 0 
12848227		 # 	collision with: 9 2 4 0 0  and 1 3 4 0 0 
12848264		 # 	collision with: 6 5 4 0 0  and 0 0 0 1 0 
12848266		 # 	collision with: 4 3 4 0 0  and 2 5 0 1 0 
12848273		 # 	collision with: 9 2 3 0 0  and 9 7 5 0 0 
12848303		 # 	collision with: 9 3 0 0 0  and 9 5 0 0 0 
12848309		 # 	collision with: 2 3 4 0 0  and 9 5 4 0 0 
12848311		 # 	collision with: 9 3 7 0 0  and 9 5 7 0 0 
12848349		 # 	collision with: 6 6 3 0 0  and 6 0 5 0 0 
12848351		 # 	collision with: 10 4 1 0 0  and 10 5 1 0 0 
12848393		 # 	collision with: 3 0 4 0 0  and 8 1 4 0 0 
12848395		 # 	collision with: 4 4 1 0 0  and 6 4 1 0 0 
12848493		 # 	collision with: 1 2 3 0 0  and 1 2 5 0 0 
12848495		 # 	collision with: 3 2 3 0 0  and 3 2 5 0 0 
12848501		 # 	collision with: 5 8 4 0 0  and 6 8 4 0 0 
12848503		 # 	collision with: 4 4 3 0 0  and 6 4 3 0 0 
12848557		 # 	collision with: 2 3 0 0 0  and 9 5 0 0 0 
12848559		 # 	collision with: 3 0 4 0 0  and 3 2 4 0 0 
12848565		 # 	collision with: 3 1 3 0 0  and 3 2 3 0 0 
12848567		 # 	collision with: 9 3 0 0 0  and 9 5 0 0 0 
12848665		 # 	collision with: 5 8 0 0 0  and 6 8 0 0 0 
12848667		 # 	collision with: 7 2 2 0 0  and 3 4 2 0 0 
12848705		 # 	collision with: 5 8 3 0 0  and 6 8 3 0 0 
12848707		 # 	collision with: 4 4 2 0 0  and 6 4 2 0 0 
12848709		 # 	collision with: 5 8 0 0 0  and 6 8 0 0 0 
12848748		 # 	collision with: 3 4 4 0 0  and 7 3 1 1 0 
12848750		 # 	collision with: 2 1 7 0 0  and 9 2 4 1 0 
12848757		 # 	collision with: 1 0 3 0 0  and 1 1 3 0 0 
12848759		 # 	collision with: 4 4 0 0 0  and 6 4 0 0 0 
12848785		 # 	collision with: 7 3 0 0 0  and 7 4 0 0 0 
12848787		 # 	collision with: 8 0 3 0 0  and 2 2 3 0 0 
12848793		 # 	collision with: 7 3 3 0 0  and 7 4 3 0 0 
12848833		 # 	collision with: 9 4 2 0 0  and 9 5 2 0 0 
12848835		 # 	collision with: 4 4 1 0 0  and 6 4 1 0 0 
12848877		 # 	collision with: 6 4 2 0 0  and 5 5 2 0 0 
12848879		 # 	collision with: 3 3 3 0 0  and 3 3 4 0 0 
12848977		 # 	collision with: 7 1 2 0 0  and 4 2 2 0 0 
12848979		 # 	collision with: 4 4 0 0 0  and 6 4 0 0 0 
12849041		 # 	collision with: 5 8 1 0 0  and 6 8 1 0 0 
12849043		 # 	collision with: 2 0 4 0 0  and 2 1 4 0 0 
12849051		 # 	collision with: 0 4 1 0 0  and 10 5 1 0 0 
12849149		 # 	collision with: 5 9 3 0 0  and 6 1 4 0 0 
12849151		 # 	collision with: 8 3 0 0 0  and 8 4 0 0 0 
12849189		 # 	collision with: 7 3 3 0 0  and 7 4 3 0 0 
12849191		 # 	collision with: 8 3 3 0 0  and 2 4 3 0 0 
12849193		 # 	collision with: 5 8 1 0 0  and 6 8 1 0 0 
12849195		 # 	collision with: 8 3 0 0 0  and 8 4 0 0 0 
12849232		 # 	collision with: 6 4 10 0 0  and 8 3 1 1 0 
12849234		 # 	collision with: 0 8 9 0 0  and 8 1 0 1 0 
12849241		 # 	collision with: 6 2 0 0 0  and 6 4 0 0 0 
12849243		 # 	collision with: 7 2 0 0 0  and 3 4 0 0 0 
12849269		 # 	collision with: 5 8 0 0 0  and 6 8 0 0 0 
12849271		 # 	collision with: 10 4 2 0 0  and 0 6 2 0 0 
12849277		 # 	collision with: 3 0 2 0 0  and 3 3 4 0 0 
12849279		 # 	collision with: 4 4 7 0 0  and 6 4 7 0 0 
12849317		 # 	collision with: 5 8 3 0 0  and 6 8 3 0 0 
12849319		 # 	collision with: 4 4 0 0 0  and 6 4 0 0 0 
12849361		 # 	collision with: 10 10 2 0 0  and 10 0 4 0 0 
12849363		 # 	collision with: 4 4 0 0 0  and 6 4 0 0 0 
12849461		 # 	collision with: 6 2 0 0 0  and 6 4 0 0 0 
12849463		 # 	collision with: 7 2 0 0 0  and 3 4 0 0 0 
12849469		 # 	collision with: 5 0 1 0 0  and 6 2 1 0 0 
12849471		 # 	collision with: 9 2 3 0 0  and 1 3 3 0 0 
12849525		 # 	collision with: 7 4 1 0 0  and 4 6 1 0 0 
12849527		 # 	collision with: 10 4 1 0 0  and 0 6 1 0 0 
12849533		 # 	collision with: 5 8 0 0 0  and 6 8 0 0 0 
12849535		 # 	collision with: 9 6 2 0 0  and 1 3 4 0 0 
12849633		 # 	collision with: 5 8 1 0 0  and 6 8 1 0 0 
12849635		 # 	collision with: 6 2 1 0 0  and 6 3 1 0 0 
12849673		 # 	collision with: 10 2 2 0 0  and 1 4 2 0 0 
12849675		 # 	collision with: 4 4 4 0 0  and 6 4 4 0 0 
12849677		 # 	collision with: 5 8 2 0 0  and 6 8 2 0 0 
12849679		 # 	collision with: 6 2 1 0 0  and 6 3 1 0 0 
12849716		 # 	collision with: 3 5 2 0 0  and 5 1 0 1 0 
12849718		 # 	collision with: 8 10 2 0 0  and 0 4 0 1 0 
12849725		 # 	collision with: 5 8 0 0 0  and 6 8 0 0 0 
12849727		 # 	collision with: 3 0 2 0 0  and 7 1 2 0 0 
12849753		 # 	collision with: 3 0 2 0 0  and 8 7 3 0 0 
12849755		 # 	collision with: 10 4 2 0 0  and 10 5 2 0 0 
12849761		 # 	collision with: 2 0 2 0 0  and 2 2 3 0 0 
12849763		 # 	collision with: 9 2 6 0 0  and 1 3 6 0 0 
12849801		 # 	collision with: 5 8 2 0 0  and 6 8 2 0 0 
12849803		 # 	collision with: 6 2 0 0 0  and 6 3 0 0 0 
12849845		 # 	collision with: 5 8 1 0 0  and 6 8 1 0 0 
12849847		 # 	collision with: 6 2 0 0 0  and 6 3 0 0 0 
12849945		 # 	collision with: 5 8 0 0 0  and 6 8 0 0 0 
12849947		 # 	collision with: 7 8 2 0 0  and 7 8 3 0 0 
12849953		 # 	collision with: 2 4 2 0 0  and 2 4 3 0 0 
12849955		 # 	collision with: 10 4 2 0 0  and 0 4 3 0 0 
12850009		 # 	collision with: 4 7 2 0 0  and 4 7 3 0 0 
12850011		 # 	collision with: 4 4 0 0 0  and 6 4 0 0 0 
12850017		 # 	collision with: 6 4 2 0 0  and 5 5 2 0 0 
12850019		 # 	collision with: 10 4 2 0 0  and 10 5 2 0 0 
12850117		 # 	collision with: 5 2 0 0 0  and 5 3 0 0 0 
12850119		 # 	collision with: 4 1 2 0 0  and 4 2 2 0 0 
12850157		 # 	collision with: 5 2 6 0 0  and 5 3 6 0 0 
12850159		 # 	collision with: 0 0 2 0 0  and 10 3 3 0 0 
12850161		 # 	collision with: 5 2 0 0 0  and 5 3 0 0 0 
12850163		 # 	collision with: 4 1 2 0 0  and 4 2 2 0 0 
12850200		 # 	collision with: 0 1 10 0 0  and 2 7 2 1 0 
12850202		 # 	collision with: 4 1 8 0 0  and 9 4 0 1 0 
12850209		 # 	collision with: 6 8 1 0 0  and 6 9 3 0 0 
12850211		 # 	collision with: 10 5 2 0 0  and 0 6 2 0 0 
12850237		 # 	collision with: 8 1 0 0 0  and 3 3 0 0 0 
12850239		 # 	collision with: 2 8 1 0 0  and 8 3 3 0 0 
12850245		 # 	collision with: 4 1 2 0 0  and 4 3 2 0 0 
12850247		 # 	collision with: 5 1 2 0 0  and 5 3 2 0 0 
12850285		 # 	collision with: 5 2 1 0 0  and 5 3 1 0 0 
12850287		 # 	collision with: 8 2 1 0 0  and 8 2 3 0 0 
12850329		 # 	collision with: 5 2 1 0 0  and 5 3 1 0 0 
12850331		 # 	collision with: 9 2 1 0 0  and 1 3 1 0 0 
12850431		 # 	collision with: 7 5 1 0 0  and 3 0 3 0 0 
12850437		 # 	collision with: 5 8 1 0 0  and 6 8 1 0 0 
12850439		 # 	collision with: 5 1 0 0 0  and 5 3 0 0 0 
12850501		 # 	collision with: 8 1 0 0 0  and 3 3 0 0 0 
12850503		 # 	collision with: 3 1 1 0 0  and 3 1 3 0 0 
12850601		 # 	collision with: 3 1 1 0 0  and 3 2 1 0 0 
12850603		 # 	collision with: 2 0 3 0 0  and 2 1 3 0 0 
12850641		 # 	collision with: 4 1 2 0 0  and 4 3 2 0 0 
12850645		 # 	collision with: 3 1 1 0 0  and 3 2 1 0 0 
12850647		 # 	collision with: 1 10 1 0 0  and 1 1 3 0 0 
12850684		 # 	collision with: 10 7 8 0 0  and 9 7 1 1 0 
12850686		 # 	collision with: 5 5 9 0 0  and 0 1 2 1 0 
12850695		 # 	collision with: 9 3 3 0 0  and 9 5 3 0 0 
12850721		 # 	collision with: 1 0 10 0 0  and 1 1 10 0 0 
12850729		 # 	collision with: 5 8 3 0 0  and 6 8 3 0 0 
12850731		 # 	collision with: 1 6 1 0 0  and 9 1 2 0 0 
12850769		 # 	collision with: 5 8 0 0 0  and 6 8 0 0 0 
12850813		 # 	collision with: 5 8 0 0 0  and 6 8 0 0 0 
12850815		 # 	collision with: 6 9 1 0 0  and 6 7 2 0 0 
12850913		 # 	collision with: 4 1 1 0 0  and 4 1 2 0 0 
12850915		 # 	collision with: 6 1 1 0 0  and 6 1 2 0 0 
12850921		 # 	collision with: 7 1 0 0 0  and 4 2 0 0 0 
12850923		 # 	collision with: 5 4 1 0 0  and 5 0 2 0 0 
12850977		 # 	collision with: 5 4 1 0 0  and 5 1 2 0 0 
12850979		 # 	collision with: 2 5 1 0 0  and 2 5 2 0 0 
12850985		 # 	collision with: 8 7 1 0 0  and 8 1 2 0 0 
12850987		 # 	collision with: 4 4 2 0 0  and 6 4 2 0 0 
12851085		 # 	collision with: 1 0 2 0 0  and 1 1 2 0 0 
12851087		 # 	collision with: 4 4 0 0 0  and 6 4 0 0 0 
12851125		 # 	collision with: 9 8 1 0 0  and 9 1 2 0 0 
12851127		 # 	collision with: 10 8 1 0 0  and 10 1 2 0 0 
12851129		 # 	collision with: 1 0 2 0 0  and 1 1 2 0 0 
12851131		 # 	collision with: 4 4 0 0 0  and 6 4 0 0 0 
12851168		 # 	collision with: 10 4 5 0 0  and 6 6 0 1 0 
12851170		 # 	collision with: 0 3 5 0 0  and 1 0 0 1 0 
12851177		 # 	collision with: 3 6 0 0 0  and 8 8 2 0 0 
12851179		 # 	collision with: 3 0 0 0 0  and 3 2 0 0 0 
12851205		 # 	collision with: 3 7 0 0 0  and 8 2 2 0 0 
12851207		 # 	collision with: 4 4 0 0 0  and 6 4 0 0 0 
12851213		 # 	collision with: 5 8 2 0 0  and 6 8 2 0 0 
12851215		 # 	collision with: 8 10 0 0 0  and 8 8 2 0 0 
12851255		 # 	collision with: 2 1 0 0 0  and 2 0 2 0 0 
12851297		 # 	collision with: 8 1 0 0 0  and 3 0 2 0 0 
12851299		 # 	collision with: 6 1 0 0 0  and 6 4 2 0 0 
12851397		 # 	collision with: 1 1 0 0 0  and 1 0 2 0 0 
12851399		 # 	collision with: 3 0 0 0 0  and 3 2 0 0 0 
12851405		 # 	collision with: 6 4 1 0 0  and 5 5 1 0 0 
12851407		 # 	collision with: 8 0 0 0 0  and 2 2 0 0 0 
12851461		 # 	collision with: 5 2 0 0 0  and 5 3 2 0 0 
12851463		 # 	collision with: 2 4 0 0 0  and 2 4 2 0 0 
12851469		 # 	collision with: 8 6 0 0 0  and 8 2 2 0 0 
12851471		 # 	collision with: 4 4 0 0 0  and 6 4 0 0 0 
12851569		 # 	collision with: 3 2 0 0 0  and 3 1 2 0 0 
12851571		 # 	collision with: 3 2 0 0 0  and 7 1 2 0 0 
12851611		 # 	collision with: 7 1 0 0 0  and 3 0 2 0 0 
12851613		 # 	collision with: 1 1 0 0 0  and 1 0 2 0 0 
12851615		 # 	collision with: 4 4 1 0 0  and 6 4 1 0 0 
12851652		 # 	collision with: 2 1 10 0 0  and 4 6 0 1 0 
12851654		 # 	collision with: 5 7 1 0 0  and 4 5 2 1 0 
12851661		 # 	collision with: 9 4 7 0 0  and 9 5 7 0 0 
12851663		 # 	collision with: 9 8 0 0 0  and 9 0 1 0 0 
12851689		 # 	collision with: 9 4 4 0 0  and 9 5 4 0 0 
12851691		 # 	collision with: 4 1 1 0 0  and 4 2 1 0 0 
12851697		 # 	collision with: 1 0 1 0 0  and 1 1 1 0 0 
12851699		 # 	collision with: 2 0 1 0 0  and 2 1 1 0 0 
12851737		 # 	collision with: 1 5 0 0 0  and 1 7 0 0 0 
12851739		 # 	collision with: 10 1 0 0 0  and 10 1 1 0 0 
12851781		 # 	collision with: 1 5 0 0 0  and 1 7 0 0 0 
12851783		 # 	collision with: 5 1 0 0 0  and 5 1 1 0 0 
12851881		 # 	collision with: 8 8 0 0 0  and 8 0 1 0 0 
12851883		 # 	collision with: 4 4 1 0 0  and 6 4 1 0 0 
12851889		 # 	collision with: 6 4 0 0 0  and 5 0 1 0 0 
12851891		 # 	collision with: 9 8 0 0 0  and 9 0 1 0 0 
12851945		 # 	collision with: 5 8 0 0 0  and 6 8 0 0 0 
12851947		 # 	collision with: 1 9 0 0 0  and 1 2 1 0 0 
12851953		 # 	collision with: 8 8 0 0 0  and 8 0 1 0 0 
39.3476secs	13813
