# prime 11
# degree 2
# input variables 3
# output variables 3
# reload computed balance functions from file balance-3243of3248-p11d2m3-debug.log
# p = 11
# n = 3
# smalldomain p^m 1331
# domain p^n 1331
#	 p^2 = 121
#	 p^3 = 1331
#	 p^4 = 14641
#	 p^5 = 161051
#	 p^6 = 1771561
#	 p^7 = 19487171
#	 p^8 = 214358881
#	 p^9 = 2357947691
opening file : balance-3243of3248-p11d2m3-debug.log
reloading for step2...
71346053		 # 	collision with: 2 0 0  and 3 1 0 
71346055		 # 	collision with: 5 8 0  and 6 0 1 
71346061		 # 	collision with: 3 2 0  and 6 0 1 
71346063		 # 	collision with: 5 6 0  and 3 0 1 
71346105		 # 	collision with: 0 3 0  and 9 5 0 
71346107		 # 	collision with: 3 2 0  and 9 3 0 
71346109		 # 	collision with: 9 5 0  and 6 0 1 
71346111		 # 	collision with: 6 1 0  and 3 0 1 
71346201		 # 	collision with: 1 3 0  and 1 5 0 
71346203		 # 	collision with: 10 4 0  and 2 5 0 
71346213		 # 	collision with: 1 5 0  and 5 0 1 
71346215		 # 	collision with: 10 1 0  and 0 3 0 
71346229		 # 	collision with: 1 6 0  and 9 0 1 
71346231		 # 	collision with: 3 6 0  and 2 0 1 
71346241		 # 	collision with: 9 0 0  and 4 1 0 
71346243		 # 	collision with: 4 1 0  and 0 2 0 
71346333		 # 	collision with: 7 0 0  and 7 1 0 
71346335		 # 	collision with: 3 4 0  and 9 6 0 
71346337		 # 	collision with: 4 4 0  and 6 5 0 
71346339		 # 	collision with: 9 3 0  and 9 4 0 
71346381		 # 	collision with: 8 7 0  and 0 0 1 
71346383		 # 	collision with: 0 0 1  and 7 2 1 
71346389		 # 	collision with: 10 0 0  and 9 1 0 
71346391		 # 	collision with: 5 0 0  and 10 2 0 
71346440		 # 	collision with: 9 4 0  and 5 5 0 
71346442		 # 	collision with: 8 1 0  and 6 0 1 
71346537		 # 	collision with: 3 2 0  and 5 4 0 
71346539		 # 	collision with: 4 0 0  and 7 2 0 
71346545		 # 	collision with: 4 1 0  and 6 0 1 
71346547		 # 	collision with: 2 7 0  and 2 1 1 
71346589		 # 	collision with: 6 1 0  and 4 3 0 
71346591		 # 	collision with: 4 0 0  and 6 1 0 
71346593		 # 	collision with: 4 1 0  and 4 0 1 
71346595		 # 	collision with: 2 2 0  and 2 4 0 
71346685		 # 	collision with: 6 1 0  and 6 3 0 
71346687		 # 	collision with: 8 1 0  and 0 3 0 
71346697		 # 	collision with: 6 7 0  and 5 1 1 
71346699		 # 	collision with: 0 3 0  and 2 4 0 
71346713		 # 	collision with: 1 9 0  and 9 0 1 
71346715		 # 	collision with: 3 0 0  and 9 2 0 
71346725		 # 	collision with: 0 2 0  and 1 4 0 
71346817		 # 	collision with: 9 2 0  and 9 4 0 
71346821		 # 	collision with: 6 4 0  and 10 6 0 
71346823		 # 	collision with: 10 0 0  and 5 1 0 
71346865		 # 	collision with: 1 10 0  and 6 0 1 
71346867		 # 	collision with: 9 1 0  and 2 3 1 
71346873		 # 	collision with: 2 0 0  and 3 1 0 
71346875		 # 	collision with: 7 0 0  and 6 1 0 
71347015		 # 	collision with: 7 1 0  and 7 0 1 
71347039		 # 	collision with: 0 1 0  and 9 2 0 
71347071		 # 	collision with: 10 3 0  and 3 5 0 
71347083		 # 	collision with: 6 4 0  and 5 5 0 
71347159		 # 	collision with: 1 2 0  and 10 3 0 
71347223		 # 	collision with: 8 6 0  and 10 0 1 
71347299		 # 	collision with: 8 0 0  and 5 1 0 
71347311		 # 	collision with: 4 1 0  and 6 0 1 
71347323		 # 	collision with: 10 2 0  and 8 4 0 
71347343		 # 	collision with: 9 3 0  and 9 4 0 
71347408		 # 	collision with: 5 0 0  and 4 2 0 
71347410		 # 	collision with: 5 4 0  and 0 6 0 
71347497		 # 	collision with: 10 3 0  and 7 4 0 
71347521		 # 	collision with: 8 3 0  and 3 5 0 
71347523		 # 	collision with: 10 3 0  and 2 5 0 
71347553		 # 	collision with: 9 8 0  and 6 7 1 
71347555		 # 	collision with: 1 4 0  and 2 6 0 
71347565		 # 	collision with: 4 4 0  and 2 6 0 
71347567		 # 	collision with: 8 2 0  and 0 4 0 
71347633		 # 	collision with: 7 4 0  and 8 5 0 
71347635		 # 	collision with: 10 1 0  and 10 3 0 
71347641		 # 	collision with: 7 9 0  and 2 0 1 
71347643		 # 	collision with: 5 0 0  and 2 2 0 
71347705		 # 	collision with: 6 4 0  and 3 0 1 
71347707		 # 	collision with: 3 1 0  and 3 2 0 
71347713		 # 	collision with: 7 0 0  and 1 2 0 
71347715		 # 	collision with: 2 0 0  and 6 2 1 
71347781		 # 	collision with: 1 8 0  and 8 0 1 
71347783		 # 	collision with: 7 6 0  and 2 0 1 
71347793		 # 	collision with: 0 5 0  and 6 6 0 
71347795		 # 	collision with: 0 4 0  and 5 6 0 
71347805		 # 	collision with: 2 2 0  and 1 3 0 
71347807		 # 	collision with: 10 1 0  and 1 2 0 
71347825		 # 	collision with: 8 2 0  and 3 4 0 
71347827		 # 	collision with: 6 4 0  and 10 6 0 
71347892		 # 	collision with: 4 1 0  and 3 3 0 
71347894		 # 	collision with: 1 2 0  and 10 3 0 
71347981		 # 	collision with: 2 1 0  and 10 2 0 
71347983		 # 	collision with: 5 1 0  and 0 3 0 
71348005		 # 	collision with: 4 2 0  and 7 3 0 
71348007		 # 	collision with: 10 5 0  and 3 6 0 
71348037		 # 	collision with: 10 3 0  and 10 0 1 
71348039		 # 	collision with: 9 3 0  and 0 5 0 
71348049		 # 	collision with: 1 4 0  and 0 5 0 
71348051		 # 	collision with: 1 3 0  and 0 4 0 
71348117		 # 	collision with: 9 3 0  and 10 4 0 
71348119		 # 	collision with: 0 3 0  and 10 0 1 
71348125		 # 	collision with: 9 3 0  and 8 0 1 
71348127		 # 	collision with: 10 1 0  and 1 2 0 
71348189		 # 	collision with: 3 4 0  and 7 0 1 
71348191		 # 	collision with: 3 6 0  and 2 1 1 
71348197		 # 	collision with: 0 1 0  and 5 3 0 
71348199		 # 	collision with: 3 1 0  and 10 0 1 
71348265		 # 	collision with: 5 1 0  and 5 0 1 
71348267		 # 	collision with: 0 0 0  and 1 1 0 
71348277		 # 	collision with: 3 5 0  and 9 6 0 
71348279		 # 	collision with: 6 2 0  and 8 3 0 
71348289		 # 	collision with: 4 4 0  and 2 6 0 
71348291		 # 	collision with: 7 2 0  and 6 3 0 
71348309		 # 	collision with: 4 0 0  and 7 1 0 
71348311		 # 	collision with: 0 10 0  and 6 0 1 
71348376		 # 	collision with: 3 2 0  and 2 4 0 
71348378		 # 	collision with: 2 0 0  and 0 2 1 
71348465		 # 	collision with: 1 4 0  and 6 6 0 
71348467		 # 	collision with: 3 1 0  and 10 2 0 
71348489		 # 	collision with: 8 0 0  and 3 2 0 
71348491		 # 	collision with: 3 0 0  and 5 1 0 
71348521		 # 	collision with: 5 3 0  and 9 0 1 
71348523		 # 	collision with: 4 9 0  and 2 0 1 
71348533		 # 	collision with: 10 3 0  and 8 5 0 
71348601		 # 	collision with: 0 2 0  and 1 3 0 
71348603		 # 	collision with: 6 1 0  and 9 3 0 
71348609		 # 	collision with: 2 8 0  and 1 0 1 
71348611		 # 	collision with: 9 2 0  and 2 0 1 
71348673		 # 	collision with: 0 6 0  and 7 2 1 
71348675		 # 	collision with: 4 4 0  and 1 6 0 
71348681		 # 	collision with: 4 2 0  and 9 4 0 
71348683		 # 	collision with: 5 5 0  and 10 6 0 
71348749		 # 	collision with: 3 2 0  and 1 1 1 
71348751		 # 	collision with: 8 6 0  and 4 2 1 
71348761		 # 	collision with: 6 5 0  and 1 6 0 
71348763		 # 	collision with: 1 5 0  and 4 6 0 
71348773		 # 	collision with: 0 1 0  and 9 3 0 
71348775		 # 	collision with: 9 4 0  and 7 6 0 
71348793		 # 	collision with: 8 0 0  and 10 2 0 
71348860		 # 	collision with: 2 3 0  and 1 5 0 
71348862		 # 	collision with: 9 5 0  and 3 1 1 
71348949		 # 	collision with: 4 2 0  and 9 4 0 
71348951		 # 	collision with: 2 2 0  and 4 2 1 
71348973		 # 	collision with: 8 4 0  and 3 6 0 
71348975		 # 	collision with: 4 9 0  and 4 0 1 
71349005		 # 	collision with: 2 8 0  and 4 0 1 
71349007		 # 	collision with: 8 2 0  and 2 3 0 
71349017		 # 	collision with: 7 3 0  and 6 4 0 
71349019		 # 	collision with: 7 2 0  and 6 3 0 
71349085		 # 	collision with: 2 1 0  and 3 2 0 
71349087		 # 	collision with: 0 0 0  and 1 1 1 
71349093		 # 	collision with: 3 7 0  and 3 1 1 
71349095		 # 	collision with: 8 0 0  and 5 1 0 
71349157		 # 	collision with: 2 1 1  and 5 2 1 
71349159		 # 	collision with: 0 2 0  and 2 2 0 
71349165		 # 	collision with: 8 3 0  and 2 5 0 
71349167		 # 	collision with: 1 5 0  and 2 6 0 
71349233		 # 	collision with: 3 3 0  and 10 1 1 
71349235		 # 	collision with: 1 3 0  and 2 3 0 
71349245		 # 	collision with: 9 5 0  and 4 6 0 
71349247		 # 	collision with: 1 2 0  and 10 3 0 
71349257		 # 	collision with: 1 4 0  and 0 5 0 
71349259		 # 	collision with: 1 1 0  and 9 2 0 
71349277		 # 	collision with: 8 0 0  and 3 2 0 
71349279		 # 	collision with: 7 0 0  and 6 2 0 
71349344		 # 	collision with: 1 4 0  and 0 6 0 
71349346		 # 	collision with: 3 8 0  and 4 0 1 
71349433		 # 	collision with: 7 0 0  and 1 2 0 
71349435		 # 	collision with: 7 2 0  and 3 1 1 
71349457		 # 	collision with: 4 3 0  and 7 4 0 
71349459		 # 	collision with: 4 5 0  and 4 0 1 
71349489		 # 	collision with: 5 7 0  and 7 0 1 
71349501		 # 	collision with: 5 2 0  and 3 4 0 
71349503		 # 	collision with: 5 0 0  and 2 2 0 
71349569		 # 	collision with: 4 0 0  and 5 1 0 
71349571		 # 	collision with: 10 2 0  and 7 4 0 
71349577		 # 	collision with: 2 7 0  and 3 0 1 
71349579		 # 	collision with: 4 3 0  and 4 3 1 
71349641		 # 	collision with: 3 10 0  and 4 1 1 
71349649		 # 	collision with: 1 4 0  and 6 6 0 
71349651		 # 	collision with: 6 0 0  and 2 2 0 
71349717		 # 	collision with: 10 10 0  and 5 1 1 
71349719		 # 	collision with: 0 0 0  and 4 2 0 
71349729		 # 	collision with: 1 5 0  and 7 6 0 
71349731		 # 	collision with: 2 2 0  and 8 0 1 
71349741		 # 	collision with: 8 1 0  and 7 2 0 
71349743		 # 	collision with: 10 3 0  and 2 5 0 
71349761		 # 	collision with: 9 3 0  and 10 4 0 
71349763		 # 	collision with: 3 1 0  and 10 2 0 
71349828		 # 	collision with: 8 0 0  and 2 1 0 
71349830		 # 	collision with: 3 4 0  and 4 5 0 
71349917		 # 	collision with: 3 4 0  and 0 5 0 
71349919		 # 	collision with: 2 1 0  and 1 2 0 
71349941		 # 	collision with: 8 1 0  and 3 3 0 
71349943		 # 	collision with: 2 1 0  and 1 2 0 
71349973		 # 	collision with: 1 8 0  and 8 0 1 
71349975		 # 	collision with: 2 1 0  and 1 2 0 
71349985		 # 	collision with: 2 2 0  and 1 3 0 
71349987		 # 	collision with: 2 1 0  and 1 2 0 
71350053		 # 	collision with: 0 4 0  and 2 6 0 
71350055		 # 	collision with: 2 1 0  and 1 2 0 
71350061		 # 	collision with: 8 4 0  and 2 0 1 
71350125		 # 	collision with: 4 9 0  and 10 0 1 
71350127		 # 	collision with: 2 1 0  and 1 2 0 
71350133		 # 	collision with: 9 0 0  and 6 1 0 
71350135		 # 	collision with: 2 1 0  and 1 2 0 
71350201		 # 	collision with: 7 6 0  and 2 2 1 
71350203		 # 	collision with: 2 1 0  and 1 2 0 
71350213		 # 	collision with: 4 5 0  and 10 6 0 
71350225		 # 	collision with: 10 3 0  and 8 5 0 
71350227		 # 	collision with: 2 1 0  and 1 2 0 
71350245		 # 	collision with: 4 1 0  and 7 2 0 
71350247		 # 	collision with: 2 1 0  and 1 2 0 
71350312		 # 	collision with: 7 1 0  and 1 2 0 
71350314		 # 	collision with: 5 10 0  and 7 0 1 
71350401		 # 	collision with: 6 2 0  and 3 3 0 
71350403		 # 	collision with: 10 4 0  and 0 6 0 
71350425		 # 	collision with: 4 0 0  and 7 1 0 
71350427		 # 	collision with: 4 10 0  and 6 10 0 
71350457		 # 	collision with: 6 5 0  and 2 0 1 
71350459		 # 	collision with: 0 1 0  and 4 2 0 
71350469		 # 	collision with: 0 1 0  and 9 3 0 
71350471		 # 	collision with: 0 0 0  and 9 2 0 
71350537		 # 	collision with: 2 3 0  and 4 5 0 
71350539		 # 	collision with: 6 0 0  and 2 2 0 
71350545		 # 	collision with: 3 6 0  and 0 2 1 
71350547		 # 	collision with: 1 1 0  and 4 2 0 
71350609		 # 	collision with: 1 2 0  and 3 0 1 
71350611		 # 	collision with: 0 0 0  and 1 1 1 
71350617		 # 	collision with: 2 1 0  and 10 2 0 
71350619		 # 	collision with: 4 2 0  and 6 0 1 
71350685		 # 	collision with: 7 5 0  and 10 0 1 
71350687		 # 	collision with: 1 4 0  and 4 5 0 
71350697		 # 	collision with: 7 5 0  and 2 6 0 
71350699		 # 	collision with: 10 5 0  and 3 6 0 
71350709		 # 	collision with: 6 0 0  and 4 2 0 
71350711		 # 	collision with: 1 4 0  and 3 4 0 
71350729		 # 	collision with: 4 0 0  and 5 1 0 
71350731		 # 	collision with: 4 5 0  and 2 6 0 
71350796		 # 	collision with: 6 2 0  and 0 3 0 
71350798		 # 	collision with: 7 3 0  and 3 4 0 
71350885		 # 	collision with: 9 0 0  and 6 1 0 
71350887		 # 	collision with: 4 3 0  and 3 5 0 
71350909		 # 	collision with: 4 4 0  and 7 5 0 
71350941		 # 	collision with: 4 7 0  and 4 0 1 
71350943		 # 	collision with: 7 8 0  and 5 0 1 
71350953		 # 	collision with: 8 1 0  and 7 2 0 
71350955		 # 	collision with: 8 0 0  and 7 1 0 
71351021		 # 	collision with: 4 2 0  and 6 4 0 
71351023		 # 	collision with: 10 0 1  and 2 1 1 
71351029		 # 	collision with: 2 1 0  and 2 0 1 
71351031		 # 	collision with: 0 5 0  and 7 6 0 
71351093		 # 	collision with: 0 0 0  and 1 1 1 
71351095		 # 	collision with: 6 1 0  and 5 3 0 
71351101		 # 	collision with: 6 2 0  and 3 3 0 
71351103		 # 	collision with: 8 4 0  and 8 6 0 
71351169		 # 	collision with: 9 8 0  and 3 0 1 
71351181		 # 	collision with: 10 5 0  and 5 6 0 
71351183		 # 	collision with: 8 2 0  and 0 4 0 
71351193		 # 	collision with: 7 3 0  and 6 4 0 
71351195		 # 	collision with: 0 0 0  and 9 2 0 
71351213		 # 	collision with: 8 1 0  and 3 3 0 
71351215		 # 	collision with: 0 4 0  and 5 6 0 
71351280		 # 	collision with: 5 3 0  and 10 4 0 
71351282		 # 	collision with: 2 1 0  and 1 2 0 
71351369		 # 	collision with: 8 3 0  and 2 5 0 
71351371		 # 	collision with: 9 7 0  and 1 1 1 
71351393		 # 	collision with: 8 2 0  and 3 4 0 
71351395		 # 	collision with: 1 6 0  and 0 0 1 
71351425		 # 	collision with: 8 10 0  and 8 0 1 
71351427		 # 	collision with: 1 2 0  and 2 0 1 
71351437		 # 	collision with: 6 0 0  and 4 2 0 
71351439		 # 	collision with: 2 5 0  and 3 5 0 
71351505		 # 	collision with: 6 1 0  and 8 3 0 
71351507		 # 	collision with: 5 2 0  and 0 4 0 
71351513		 # 	collision with: 7 10 0  and 3 0 1 
71351515		 # 	collision with: 6 2 0  and 6 3 0 
71351577		 # 	collision with: 1 7 0  and 1 0 1 
71351579		 # 	collision with: 6 1 0  and 9 3 0 
71351585		 # 	collision with: 10 3 0  and 7 4 0 
71351587		 # 	collision with: 1 4 0  and 3 0 1 
71351653		 # 	collision with: 0 0 0  and 1 1 1 
71351655		 # 	collision with: 9 3 0  and 9 4 0 
71351665		 # 	collision with: 2 5 0  and 8 6 0 
71351667		 # 	collision with: 9 3 0  and 0 5 0 
71351677		 # 	collision with: 3 0 0  and 2 1 0 
71351679		 # 	collision with: 8 2 0  and 2 3 0 
71351697		 # 	collision with: 4 2 0  and 6 4 0 
71351699		 # 	collision with: 1 4 0  and 3 4 0 
71351764		 # 	collision with: 4 4 0  and 9 5 0 
71351766		 # 	collision with: 8 2 0  and 1 3 0 
71351853		 # 	collision with: 0 1 0  and 5 3 0 
71351855		 # 	collision with: 5 5 0  and 7 6 0 
71351877		 # 	collision with: 4 1 0  and 7 2 0 
71351879		 # 	collision with: 1 5 0  and 2 6 0 
71351909		 # 	collision with: 7 5 0  and 1 0 1 
71351911		 # 	collision with: 5 1 0  and 0 3 0 
71351921		 # 	collision with: 3 0 0  and 2 1 0 
71351923		 # 	collision with: 5 2 0  and 0 4 0 
71351989		 # 	collision with: 8 0 0  and 10 2 0 
71351991		 # 	collision with: 3 0 0  and 5 1 0 
71351997		 # 	collision with: 1 9 0  and 2 1 1 
71351999		 # 	collision with: 4 0 0  and 6 2 0 
71352061		 # 	collision with: 3 0 1  and 4 1 1 
71352063		 # 	collision with: 4 1 0  and 4 0 1 
71352069		 # 	collision with: 3 4 0  and 0 5 0 
71352071		 # 	collision with: 0 5 0  and 7 6 0 
71352137		 # 	collision with: 5 10 0  and 8 0 1 
71352139		 # 	collision with: 10 0 0  and 4 1 0 
71352149		 # 	collision with: 5 5 0  and 0 6 0 
71352151		 # 	collision with: 4 3 0  and 3 5 0 
71352161		 # 	collision with: 5 2 0  and 3 4 0 
71352181		 # 	collision with: 2 1 0  and 3 2 0 
71352183		 # 	collision with: 1 7 0  and 7 0 1 
71352271		 # 	collision with: 9 3 0  and 1 3 1 
71352275		 # 	collision with: 7 8 0  and 6 0 1 
71352310		 # 	collision with: 7 6 0  and 5 1 1 
71352319		 # 	collision with: 4 4 0  and 9 5 0 
71352327		 # 	collision with: 2 0 0  and 3 1 0 
71352334		 # 	collision with: 8 10 0  and 3 1 1 
71352370		 # 	collision with: 2 5 0  and 2 0 1 
71352374		 # 	collision with: 1 4 0  and 4 1 1 
71352386		 # 	collision with: 3 1 0  and 5 3 0 
71352414		 # 	collision with: 0 3 0  and 5 5 0 
71352446		 # 	collision with: 0 4 0  and 10 5 0 
71352454		 # 	collision with: 5 4 0  and 8 5 0 
71352459		 # 	collision with: 5 2 0  and 2 4 0 
71352494		 # 	collision with: 2 0 0  and 3 1 0 
71352506		 # 	collision with: 6 1 0  and 0 3 0 
71352522		 # 	collision with: 9 1 0  and 0 0 1 
71352534		 # 	collision with: 6 0 0  and 8 1 0 
71352571		 # 	collision with: 5 0 0  and 10 1 1 
71352574		 # 	collision with: 3 3 0  and 4 0 1 
71352582		 # 	collision with: 9 3 0  and 4 5 0 
71352614		 # 	collision with: 1 7 0  and 1 0 1 
71352642		 # 	collision with: 8 4 0  and 4 0 1 
71352654		 # 	collision with: 4 1 0  and 10 2 0 
71352658		 # 	collision with: 0 4 0  and 2 5 0 
71352694		 # 	collision with: 0 3 0  and 7 5 0 
71352703		 # 	collision with: 6 1 0  and 0 3 0 
71352711		 # 	collision with: 2 0 0  and 6 1 0 
71352718		 # 	collision with: 6 9 0  and 5 1 1 
71352732		 # 	collision with: 6 10 0  and 10 1 1 
71352734		 # 	collision with: 5 2 0  and 1 4 0 
71352753		 # 	collision with: 4 3 0  and 1 5 0 
71352755		 # 	collision with: 6 1 0  and 4 2 0 
71352757		 # 	collision with: 3 3 0  and 7 5 0 
71352759		 # 	collision with: 8 4 0  and 8 6 0 
71352792		 # 	collision with: 0 0 0  and 8 1 0 
71352794		 # 	collision with: 3 1 0  and 4 2 0 
71352801		 # 	collision with: 8 1 0  and 3 3 0 
71352803		 # 	collision with: 10 1 0  and 6 2 0 
71352809		 # 	collision with: 5 1 0  and 7 2 0 
71352811		 # 	collision with: 1 4 0  and 1 5 0 
71352816		 # 	collision with: 1 3 0  and 0 5 0 
71352818		 # 	collision with: 3 1 0  and 5 3 0 
71352852		 # 	collision with: 4 4 0  and 6 6 0 
71352854		 # 	collision with: 1 2 0  and 10 3 0 
71352856		 # 	collision with: 2 6 0  and 8 0 1 
71352858		 # 	collision with: 9 0 0  and 6 1 0 
71352868		 # 	collision with: 7 0 0  and 7 1 0 
71352870		 # 	collision with: 0 0 0  and 9 1 0 
71352896		 # 	collision with: 5 1 0  and 0 2 0 
71352898		 # 	collision with: 9 4 0  and 6 6 0 
71352925		 # 	collision with: 4 1 0  and 7 2 0 
71352927		 # 	collision with: 2 6 0  and 6 0 1 
71352928		 # 	collision with: 3 3 0  and 7 5 0 
71352930		 # 	collision with: 9 4 0  and 8 5 0 
71352936		 # 	collision with: 2 1 0  and 2 0 1 
71352938		 # 	collision with: 9 4 0  and 6 6 0 
71352941		 # 	collision with: 2 8 0  and 1 0 1 
71352943		 # 	collision with: 1 9 0  and 3 9 0 
71352976		 # 	collision with: 2 10 0  and 5 1 1 
71352978		 # 	collision with: 9 4 0  and 6 6 0 
71352988		 # 	collision with: 1 4 0  and 6 1 1 
71352990		 # 	collision with: 9 4 0  and 6 6 0 
71353004		 # 	collision with: 8 4 0  and 7 6 0 
71353006		 # 	collision with: 10 1 0  and 6 3 0 
71353016		 # 	collision with: 10 2 0  and 5 1 1 
71353053		 # 	collision with: 5 7 0  and 1 1 1 
71353055		 # 	collision with: 9 0 1  and 3 1 1 
71353056		 # 	collision with: 1 4 0  and 4 1 1 
71353058		 # 	collision with: 9 4 0  and 6 6 0 
71353064		 # 	collision with: 1 6 0  and 2 2 1 
71353069		 # 	collision with: 9 4 0  and 0 0 1 
71353071		 # 	collision with: 3 1 0  and 4 2 0 
71353096		 # 	collision with: 1 1 0  and 2 2 0 
71353098		 # 	collision with: 9 4 0  and 6 6 0 
71353124		 # 	collision with: 2 6 0  and 3 1 1 
71353126		 # 	collision with: 4 1 0  and 5 1 0 
71353136		 # 	collision with: 8 1 0  and 2 3 0 
71353138		 # 	collision with: 9 4 0  and 6 6 0 
71353140		 # 	collision with: 3 7 0  and 5 7 0 
71353142		 # 	collision with: 0 3 0  and 7 5 0 
71353176		 # 	collision with: 3 3 0  and 10 4 0 
71353178		 # 	collision with: 1 4 0  and 5 6 0 
71353185		 # 	collision with: 10 4 0  and 7 5 0 
71353187		 # 	collision with: 9 0 0  and 3 2 0 
71353193		 # 	collision with: 0 0 0  and 1 1 0 
71353195		 # 	collision with: 5 2 0  and 8 3 0 
71353200		 # 	collision with: 8 5 0  and 2 1 1 
71353202		 # 	collision with: 4 2 0  and 8 4 0 
71353216		 # 	collision with: 5 9 0  and 8 0 1 
71353218		 # 	collision with: 8 6 0  and 3 0 1 
71353237		 # 	collision with: 3 2 0  and 7 3 0 
71353239		 # 	collision with: 2 5 0  and 3 0 1 
71353241		 # 	collision with: 9 2 0  and 0 3 0 
71353243		 # 	collision with: 0 5 0  and 1 5 0 
71353276		 # 	collision with: 0 0 0  and 5 2 0 
71353278		 # 	collision with: 1 8 0  and 5 0 1 
71353285		 # 	collision with: 8 3 0  and 3 5 0 
71353287		 # 	collision with: 0 0 0  and 1 1 1 
71353293		 # 	collision with: 10 2 0  and 3 4 0 
71353295		 # 	collision with: 3 7 0  and 5 7 0 
71353300		 # 	collision with: 4 2 0  and 9 3 0 
71353336		 # 	collision with: 4 4 0  and 5 5 0 
71353338		 # 	collision with: 2 8 0  and 4 8 0 
71353340		 # 	collision with: 0 2 1  and 3 3 1 
71353342		 # 	collision with: 10 1 0  and 6 2 0 
71353352		 # 	collision with: 3 0 0  and 3 2 0 
71353380		 # 	collision with: 10 2 0  and 0 4 0 
71353382		 # 	collision with: 10 1 0  and 6 3 0 
71353409		 # 	collision with: 8 2 0  and 3 4 0 
71353411		 # 	collision with: 7 3 0  and 4 0 1 
71353412		 # 	collision with: 9 2 0  and 0 3 0 
71353414		 # 	collision with: 7 4 0  and 6 5 0 
71353420		 # 	collision with: 8 3 0  and 2 0 1 
71353422		 # 	collision with: 5 3 0  and 5 0 1 
71353425		 # 	collision with: 9 1 0  and 2 1 1 
71353427		 # 	collision with: 8 3 0  and 1 5 0 
71353460		 # 	collision with: 4 4 0  and 10 0 1 
71353462		 # 	collision with: 3 2 0  and 0 3 0 
71353472		 # 	collision with: 7 5 0  and 8 0 1 
71353474		 # 	collision with: 3 9 0  and 8 2 1 
71353488		 # 	collision with: 7 4 0  and 1 5 0 
71353490		 # 	collision with: 10 1 0  and 1 2 0 
71353500		 # 	collision with: 1 4 0  and 4 0 1 
71353502		 # 	collision with: 1 4 0  and 2 4 0 
71353537		 # 	collision with: 3 7 0  and 2 2 1 
71353539		 # 	collision with: 0 1 0  and 1 3 0 
71353540		 # 	collision with: 5 10 0  and 8 0 1 
71353542		 # 	collision with: 6 1 0  and 5 3 0 
71353548		 # 	collision with: 6 9 0  and 5 0 1 
71353550		 # 	collision with: 10 4 0  and 5 2 1 
71353553		 # 	collision with: 10 10 0  and 2 0 1 
71353555		 # 	collision with: 5 9 0  and 3 1 1 
71353580		 # 	collision with: 2 2 0  and 4 4 0 
71353582		 # 	collision with: 9 4 0  and 4 5 0 
71353608		 # 	collision with: 9 6 0  and 1 0 1 
71353610		 # 	collision with: 5 3 0  and 2 0 1 
71353620		 # 	collision with: 4 3 0  and 1 5 0 
71353622		 # 	collision with: 4 1 0  and 8 2 0 
71353624		 # 	collision with: 2 3 0  and 3 3 0 
71353626		 # 	collision with: 2 0 0  and 4 2 0 
71353660		 # 	collision with: 4 1 0  and 0 2 0 
71353662		 # 	collision with: 10 1 0  and 1 0 1 
71353669		 # 	collision with: 2 3 0  and 10 4 0 
71353671		 # 	collision with: 9 3 0  and 9 4 0 
71353677		 # 	collision with: 0 0 0  and 2 2 0 
71353679		 # 	collision with: 1 4 0  and 5 6 0 
71353684		 # 	collision with: 3 8 0  and 2 0 1 
71353686		 # 	collision with: 4 2 0  and 0 3 0 
71353700		 # 	collision with: 9 1 0  and 0 2 1 
71353702		 # 	collision with: 6 0 0  and 1 1 0 
71353721		 # 	collision with: 9 0 0  and 6 2 0 
71353723		 # 	collision with: 4 2 0  and 6 4 0 
71353725		 # 	collision with: 2 0 0  and 6 2 0 
71353727		 # 	collision with: 8 3 0  and 1 4 0 
71353760		 # 	collision with: 9 0 0  and 1 2 0 
71353762		 # 	collision with: 1 2 0  and 6 3 0 
71353769		 # 	collision with: 4 0 0  and 7 1 0 
71353771		 # 	collision with: 9 4 0  and 10 1 1 
71353777		 # 	collision with: 6 4 0  and 8 5 0 
71353779		 # 	collision with: 3 6 0  and 7 7 0 
71353784		 # 	collision with: 2 0 0  and 1 2 0 
71353786		 # 	collision with: 5 4 0  and 4 5 0 
71353820		 # 	collision with: 3 3 0  and 5 5 0 
71353822		 # 	collision with: 2 2 0  and 8 3 0 
71353824		 # 	collision with: 8 10 0  and 0 1 1 
71353826		 # 	collision with: 5 4 0  and 4 5 0 
71353836		 # 	collision with: 10 1 0  and 10 2 0 
71353838		 # 	collision with: 5 4 0  and 4 5 0 
71353864		 # 	collision with: 10 4 0  and 5 5 0 
71353866		 # 	collision with: 5 4 0  and 4 5 0 
71353893		 # 	collision with: 4 4 0  and 7 5 0 
71353895		 # 	collision with: 1 4 0  and 5 6 0 
71353896		 # 	collision with: 2 0 0  and 6 2 0 
71353898		 # 	collision with: 2 0 0  and 3 1 0 
71353904		 # 	collision with: 7 3 0  and 1 0 1 
71353906		 # 	collision with: 5 4 0  and 4 5 0 
71353909		 # 	collision with: 5 7 0  and 4 0 1 
71353911		 # 	collision with: 2 6 0  and 1 0 1 
71353944		 # 	collision with: 8 9 0  and 0 0 1 
71353946		 # 	collision with: 5 4 0  and 4 5 0 
71353956		 # 	collision with: 7 1 0  and 7 0 1 
71353958		 # 	collision with: 5 4 0  and 4 5 0 
71353972		 # 	collision with: 1 3 0  and 0 5 0 
71353974		 # 	collision with: 1 4 0  and 2 4 0 
71353984		 # 	collision with: 0 10 0  and 3 0 1 
71353986		 # 	collision with: 5 4 0  and 4 5 0 
71354021		 # 	collision with: 9 10 0  and 5 0 1 
71354023		 # 	collision with: 8 3 0  and 1 5 0 
71354024		 # 	collision with: 1 6 0  and 2 1 1 
71354032		 # 	collision with: 2 1 0  and 0 1 1 
71354034		 # 	collision with: 2 0 0  and 3 2 0 
71354037		 # 	collision with: 10 8 0  and 4 0 1 
71354039		 # 	collision with: 4 6 0  and 6 6 0 
71354064		 # 	collision with: 5 2 0  and 3 3 0 
71354066		 # 	collision with: 4 2 0  and 8 4 0 
71354092		 # 	collision with: 8 6 0  and 5 0 1 
71354094		 # 	collision with: 4 0 0  and 7 2 0 
71354104		 # 	collision with: 10 0 0  and 3 1 0 
71354106		 # 	collision with: 7 0 0  and 7 2 0 
71354108		 # 	collision with: 0 10 0  and 2 10 0 
71354110		 # 	collision with: 0 1 0  and 1 3 0 
71354144		 # 	collision with: 3 0 0  and 3 2 0 
71354146		 # 	collision with: 9 0 0  and 3 1 0 
71354153		 # 	collision with: 5 2 0  and 2 3 0 
71354155		 # 	collision with: 0 3 0  and 6 4 0 
71354161		 # 	collision with: 1 1 0  and 2 2 0 
71354163		 # 	collision with: 2 2 0  and 8 3 0 
71354168		 # 	collision with: 10 10 0  and 10 0 1 
71354184		 # 	collision with: 10 5 0  and 5 0 1 
71354186		 # 	collision with: 9 0 1  and 6 1 1 
71354205		 # 	collision with: 6 4 0  and 3 6 0 
71354207		 # 	collision with: 9 1 0  and 1 3 0 
71354209		 # 	collision with: 7 4 0  and 0 6 0 
71354211		 # 	collision with: 9 4 0  and 4 6 0 
71354244		 # 	collision with: 4 0 0  and 7 1 0 
71354246		 # 	collision with: 9 0 0  and 2 2 1 
71354253		 # 	collision with: 4 2 0  and 7 3 0 
71354255		 # 	collision with: 8 4 0  and 8 6 0 
71354261		 # 	collision with: 0 5 0  and 4 7 0 
71354268		 # 	collision with: 5 1 0  and 7 2 0 
71354270		 # 	collision with: 0 1 0  and 1 3 0 
71354304		 # 	collision with: 3 3 0  and 4 4 0 
71354306		 # 	collision with: 10 7 0  and 8 0 1 
71354308		 # 	collision with: 5 10 0  and 3 1 1 
71354320		 # 	collision with: 6 1 0  and 6 3 0 
71354322		 # 	collision with: 2 9 0  and 6 0 1 
71354348		 # 	collision with: 7 0 0  and 2 1 0 
71354350		 # 	collision with: 2 0 0  and 4 2 0 
71354377		 # 	collision with: 4 0 0  and 7 1 0 
71354379		 # 	collision with: 4 2 0  and 0 3 0 
71354380		 # 	collision with: 7 4 0  and 0 6 0 
71354382		 # 	collision with: 10 1 0  and 10 3 0 
71354388		 # 	collision with: 6 3 0  and 0 0 1 
71354390		 # 	collision with: 0 1 0  and 4 3 0 
71354393		 # 	collision with: 3 5 0  and 3 0 1 
71354395		 # 	collision with: 6 1 0  and 4 2 0 
71354428		 # 	collision with: 10 9 0  and 6 1 1 
71354430		 # 	collision with: 2 3 0  and 3 3 0 
71354440		 # 	collision with: 6 10 0  and 1 1 1 
71354442		 # 	collision with: 7 5 0  and 8 6 0 
71354456		 # 	collision with: 0 3 0  and 5 4 0 
71354468		 # 	collision with: 1 5 0  and 2 0 1 
71354470		 # 	collision with: 9 0 0  and 3 2 0 
71354505		 # 	collision with: 5 9 0  and 9 1 1 
71354508		 # 	collision with: 6 7 0  and 9 1 1 
71354510		 # 	collision with: 5 2 0  and 8 3 0 
71354516		 # 	collision with: 2 1 0  and 4 1 1 
71354518		 # 	collision with: 9 7 0  and 8 1 1 
71354521		 # 	collision with: 2 1 0  and 8 0 1 
71354523		 # 	collision with: 2 2 0  and 10 0 1 
71354548		 # 	collision with: 0 0 0  and 1 1 0 
71354550		 # 	collision with: 4 4 0  and 9 5 0 
71354576		 # 	collision with: 3 1 0  and 3 0 1 
71354578		 # 	collision with: 8 3 0  and 1 5 0 
71354588		 # 	collision with: 5 2 0  and 2 3 0 
71354590		 # 	collision with: 1 5 0  and 5 6 0 
71354592		 # 	collision with: 4 6 0  and 6 6 0 
71354594		 # 	collision with: 6 1 0  and 5 3 0 
71354628		 # 	collision with: 8 2 0  and 0 4 0 
71354630		 # 	collision with: 2 10 0  and 7 0 1 
71354637		 # 	collision with: 8 1 0  and 5 2 0 
71354639		 # 	collision with: 0 3 0  and 8 4 0 
71354645		 # 	collision with: 1 1 0  and 3 3 0 
71354647		 # 	collision with: 9 10 0  and 7 6 1 
71354652		 # 	collision with: 10 1 0  and 7 1 1 
71354654		 # 	collision with: 0 0 0  and 1 1 1 
71354668		 # 	collision with: 4 1 1  and 0 2 1 
71354670		 # 	collision with: 6 7 0  and 10 0 1 
71354689		 # 	collision with: 5 3 0  and 9 4 0 
71354691		 # 	collision with: 5 4 0  and 4 5 0 
71354693		 # 	collision with: 2 3 0  and 4 4 0 
71354728		 # 	collision with: 5 2 0  and 2 3 0 
71354730		 # 	collision with: 3 2 0  and 5 3 0 
71354737		 # 	collision with: 4 4 0  and 7 5 0 
71354739		 # 	collision with: 0 4 0  and 2 5 0 
71354745		 # 	collision with: 6 1 0  and 10 3 0 
71354747		 # 	collision with: 5 4 0  and 4 5 0 
71354752		 # 	collision with: 0 3 0  and 5 4 0 
71354754		 # 	collision with: 10 7 0  and 0 0 1 
71354788		 # 	collision with: 2 2 0  and 4 4 0 
71354792		 # 	collision with: 8 9 0  and 8 0 1 
71354794		 # 	collision with: 4 2 0  and 5 3 0 
71354804		 # 	collision with: 2 2 0  and 2 3 0 
71354806		 # 	collision with: 7 5 0  and 7 3 1 
71354832		 # 	collision with: 1 1 0  and 2 3 0 
71354834		 # 	collision with: 4 0 0  and 7 2 0 
71354861		 # 	collision with: 8 1 0  and 3 3 0 
71354863		 # 	collision with: 3 1 0  and 4 2 0 
71354864		 # 	collision with: 2 3 0  and 4 4 0 
71354866		 # 	collision with: 1 4 0  and 0 5 0 
71354872		 # 	collision with: 1 8 0  and 6 0 1 
71354874		 # 	collision with: 5 7 0  and 5 1 1 
71354877		 # 	collision with: 7 5 0  and 7 2 1 
71354879		 # 	collision with: 5 4 0  and 4 5 0 
71354912		 # 	collision with: 7 6 0  and 8 0 1 
71354914		 # 	collision with: 2 4 0  and 0 5 0 
71354924		 # 	collision with: 9 8 0  and 7 0 1 
71354926		 # 	collision with: 9 3 0  and 5 4 0 
71354940		 # 	collision with: 5 2 0  and 4 4 0 
71354942		 # 	collision with: 4 5 0  and 8 1 1 
71354952		 # 	collision with: 1 2 0  and 4 1 1 
71354954		 # 	collision with: 9 1 0  and 4 3 0 
71354989		 # 	collision with: 2 5 0  and 9 0 1 
71354991		 # 	collision with: 10 4 0  and 3 5 0 
71354992		 # 	collision with: 6 5 0  and 6 1 1 
71354994		 # 	collision with: 0 3 0  and 6 4 0 
71355000		 # 	collision with: 10 8 0  and 7 1 1 
71355002		 # 	collision with: 5 5 0  and 0 0 1 
71355005		 # 	collision with: 0 5 0  and 9 0 1 
71355007		 # 	collision with: 5 0 0  and 1 1 0 
71355032		 # 	collision with: 4 0 0  and 2 1 0 
71355060		 # 	collision with: 2 2 0  and 6 0 1 
71355062		 # 	collision with: 5 0 0  and 8 1 0 
71355072		 # 	collision with: 2 3 0  and 3 3 0 
71355074		 # 	collision with: 3 1 0  and 0 3 0 
71355076		 # 	collision with: 3 2 0  and 4 2 0 
71355078		 # 	collision with: 8 4 0  and 5 5 0 
71355112		 # 	collision with: 9 0 0  and 1 2 0 
71355114		 # 	collision with: 3 2 0  and 8 4 0 
71355121		 # 	collision with: 0 0 0  and 8 1 0 
71355123		 # 	collision with: 10 1 0  and 6 2 0 
71355129		 # 	collision with: 2 2 0  and 3 3 0 
71355136		 # 	collision with: 1 5 0  and 5 0 1 
71355138		 # 	collision with: 4 2 0  and 1 0 1 
71355152		 # 	collision with: 1 10 0  and 0 0 1 
71355154		 # 	collision with: 8 4 0  and 2 6 0 
71355173		 # 	collision with: 0 1 0  and 8 3 0 
71355177		 # 	collision with: 6 1 0  and 10 3 0 
71355179		 # 	collision with: 6 1 0  and 3 2 0 
71355212		 # 	collision with: 3 1 0  and 6 3 0 
71355214		 # 	collision with: 4 6 0  and 0 0 1 
71355221		 # 	collision with: 8 0 0  and 3 2 0 
71355229		 # 	collision with: 2 3 0  and 4 4 0 
71355231		 # 	collision with: 9 0 0  and 6 1 0 
71355236		 # 	collision with: 9 1 0  and 8 3 0 
71355238		 # 	collision with: 2 10 0  and 1 0 1 
71355272		 # 	collision with: 2 2 0  and 3 3 0 
71355274		 # 	collision with: 10 0 0  and 9 2 0 
71355276		 # 	collision with: 5 6 0  and 2 0 1 
71355278		 # 	collision with: 7 7 0  and 3 1 1 
71355288		 # 	collision with: 9 2 0  and 9 4 0 
71355290		 # 	collision with: 9 1 0  and 1 3 0 
71355316		 # 	collision with: 1 3 0  and 7 4 0 
71355345		 # 	collision with: 4 3 0  and 7 4 0 
71355347		 # 	collision with: 6 1 0  and 3 2 0 
71355348		 # 	collision with: 6 1 0  and 10 3 0 
71355350		 # 	collision with: 10 4 0  and 9 5 0 
71355356		 # 	collision with: 2 10 0  and 8 0 1 
71355358		 # 	collision with: 5 4 0  and 6 6 0 
71355361		 # 	collision with: 0 5 0  and 6 1 1 
71355363		 # 	collision with: 6 1 0  and 3 2 0 
71355396		 # 	collision with: 3 8 0  and 0 1 1 
71355398		 # 	collision with: 5 1 0  and 10 2 0 
71355408		 # 	collision with: 3 5 0  and 0 1 1 
71355410		 # 	collision with: 2 3 0  and 3 3 0 
71355424		 # 	collision with: 4 2 0  and 9 3 0 
71355426		 # 	collision with: 1 1 0  and 1 0 1 
71355436		 # 	collision with: 8 8 0  and 5 1 1 
71355438		 # 	collision with: 10 1 0  and 10 3 0 
71355473		 # 	collision with: 8 7 0  and 3 4 1 
71355475		 # 	collision with: 6 1 0  and 3 2 0 
71355476		 # 	collision with: 2 5 0  and 5 0 1 
71355478		 # 	collision with: 9 8 0  and 2 0 1 
71355484		 # 	collision with: 9 10 0  and 6 1 1 
71355486		 # 	collision with: 7 9 0  and 9 1 1 
71355489		 # 	collision with: 3 5 0  and 5 0 1 
71355491		 # 	collision with: 6 1 0  and 3 2 0 
71355516		 # 	collision with: 4 2 0  and 7 3 0 
71355518		 # 	collision with: 6 10 0  and 0 0 1 
71355544		 # 	collision with: 7 6 0  and 8 0 1 
71355546		 # 	collision with: 2 2 0  and 2 4 0 
71355556		 # 	collision with: 0 0 0  and 5 2 0 
71355558		 # 	collision with: 7 3 0  and 4 5 0 
71355560		 # 	collision with: 1 9 0  and 3 9 0 
71355596		 # 	collision with: 6 1 0  and 6 3 0 
71355598		 # 	collision with: 9 4 0  and 0 0 1 
71355605		 # 	collision with: 10 4 0  and 4 6 0 
71355607		 # 	collision with: 6 1 0  and 3 2 0 
71355613		 # 	collision with: 2 2 0  and 4 4 0 
71355615		 # 	collision with: 6 1 0  and 3 2 0 
71355620		 # 	collision with: 1 4 1  and 3 4 1 
71355622		 # 	collision with: 0 4 0  and 4 0 1 
71355636		 # 	collision with: 3 5 0  and 8 0 1 
71355638		 # 	collision with: 1 1 0  and 3 1 1 
71355657		 # 	collision with: 10 0 0  and 3 1 0 
71355659		 # 	collision with: 0 1 0  and 1 3 0 
71355661		 # 	collision with: 0 5 0  and 4 7 0 
71355663		 # 	collision with: 8 5 0  and 6 6 0 
71355696		 # 	collision with: 10 0 0  and 6 1 0 
71355698		 # 	collision with: 9 10 0  and 2 2 1 
71355705		 # 	collision with: 8 2 0  and 3 4 0 
71355707		 # 	collision with: 2 2 0  and 8 3 0 
71355713		 # 	collision with: 7 4 0  and 0 6 0 
71355715		 # 	collision with: 0 0 0  and 9 1 0 
71355720		 # 	collision with: 3 3 0  and 7 5 0 
71355722		 # 	collision with: 4 2 0  and 0 3 0 
71355756		 # 	collision with: 1 1 0  and 3 3 0 
71355758		 # 	collision with: 0 7 0  and 5 1 1 
71355760		 # 	collision with: 1 10 0  and 5 1 1 
71355762		 # 	collision with: 2 0 0  and 3 2 0 
71355772		 # 	collision with: 5 3 0  and 5 4 0 
71355774		 # 	collision with: 5 3 0  and 8 4 0 
71355800		 # 	collision with: 6 4 0  and 7 6 0 
71355802		 # 	collision with: 0 5 0  and 5 6 0 
71355829		 # 	collision with: 8 4 0  and 3 6 0 
71355831		 # 	collision with: 10 7 0  and 1 2 1 
71355832		 # 	collision with: 3 5 0  and 2 6 0 
71355834		 # 	collision with: 8 4 0  and 7 5 0 
71355840		 # 	collision with: 4 9 0  and 0 0 1 
71355842		 # 	collision with: 2 7 0  and 9 0 1 
71355845		 # 	collision with: 6 1 0  and 2 1 1 
71355880		 # 	collision with: 6 10 0  and 0 0 1 
71355882		 # 	collision with: 0 4 0  and 2 5 0 
71355892		 # 	collision with: 1 8 0  and 6 1 1 
71355908		 # 	collision with: 9 1 0  and 8 3 0 
71355910		 # 	collision with: 5 0 0  and 1 1 0 
71355920		 # 	collision with: 5 9 0  and 1 0 1 
71355922		 # 	collision with: 1 2 0  and 0 0 1 
71355957		 # 	collision with: 4 1 0  and 4 0 1 
71355959		 # 	collision with: 9 3 0  and 9 4 0 
71355960		 # 	collision with: 9 10 0  and 6 1 1 
71355962		 # 	collision with: 1 6 0  and 7 0 1 
71355968		 # 	collision with: 6 6 0  and 6 0 1 
71355970		 # 	collision with: 5 3 0  and 7 5 0 
71355973		 # 	collision with: 0 0 0  and 1 1 1 
71355975		 # 	collision with: 4 8 0  and 5 0 1 
71356000		 # 	collision with: 8 1 0  and 3 3 0 
71356002		 # 	collision with: 7 4 0  and 8 0 1 
71356028		 # 	collision with: 2 9 0  and 6 0 1 
71356030		 # 	collision with: 6 0 0  and 10 1 1 
71356040		 # 	collision with: 3 2 0  and 4 2 0 
71356044		 # 	collision with: 0 5 0  and 1 5 0 
71356046		 # 	collision with: 9 3 0  and 9 4 0 
71356080		 # 	collision with: 7 0 0  and 7 1 0 
71356082		 # 	collision with: 9 0 0  and 4 2 0 
71356089		 # 	collision with: 2 3 0  and 7 5 0 
71356097		 # 	collision with: 3 3 0  and 4 4 0 
71356099		 # 	collision with: 8 3 0  and 0 5 0 
71356104		 # 	collision with: 5 10 0  and 10 0 1 
71356106		 # 	collision with: 0 10 0  and 2 10 0 
71356120		 # 	collision with: 5 5 0  and 8 0 1 
71356122		 # 	collision with: 7 3 0  and 9 4 0 
71356141		 # 	collision with: 7 4 0  and 0 5 0 
71356143		 # 	collision with: 2 7 0  and 0 0 1 
71356145		 # 	collision with: 6 4 0  and 8 5 0 
71356147		 # 	collision with: 9 4 0  and 4 5 0 
71356180		 # 	collision with: 8 0 0  and 3 2 0 
71356189		 # 	collision with: 8 4 0  and 3 6 0 
71356191		 # 	collision with: 4 1 0  and 1 0 1 
71356197		 # 	collision with: 2 0 0  and 6 2 0 
71356199		 # 	collision with: 2 0 0  and 3 2 0 
71356204		 # 	collision with: 10 2 0  and 3 4 0 
71356206		 # 	collision with: 1 9 0  and 9 0 1 
71356240		 # 	collision with: 1 1 0  and 2 2 0 
71356242		 # 	collision with: 3 4 0  and 10 5 0 
71356244		 # 	collision with: 4 2 0  and 7 3 1 
71356246		 # 	collision with: 4 1 1  and 2 2 1 
71356256		 # 	collision with: 1 3 0  and 1 5 0 
71356258		 # 	collision with: 6 8 0  and 4 0 1 
71356284		 # 	collision with: 3 0 0  and 4 2 0 
71356286		 # 	collision with: 1 4 0  and 1 5 0 
71356313		 # 	collision with: 8 0 0  and 3 2 0 
71356315		 # 	collision with: 3 6 0  and 1 1 1 
71356316		 # 	collision with: 6 4 0  and 8 5 0 
71356318		 # 	collision with: 6 4 0  and 5 5 0 
71356324		 # 	collision with: 0 2 0  and 6 0 1 
71356329		 # 	collision with: 8 2 0  and 4 0 1 
71356331		 # 	collision with: 5 0 0  and 1 1 0 
71356364		 # 	collision with: 1 8 0  and 8 0 1 
71356366		 # 	collision with: 5 0 0  and 1 1 0 
71356376		 # 	collision with: 1 9 0  and 9 0 1 
71356378		 # 	collision with: 5 3 0  and 5 5 0 
71356392		 # 	collision with: 8 1 0  and 2 2 0 
71356394		 # 	collision with: 10 2 0  and 5 0 1 
71356404		 # 	collision with: 10 8 0  and 0 0 1 
71356406		 # 	collision with: 9 3 0  and 8 5 0 
71356441		 # 	collision with: 10 6 0  and 0 2 1 
71356443		 # 	collision with: 7 8 0  and 0 1 1 
71356444		 # 	collision with: 1 7 0  and 6 0 1 
71356446		 # 	collision with: 0 3 0  and 8 4 0 
71356452		 # 	collision with: 8 4 0  and 6 0 1 
71356454		 # 	collision with: 0 5 0  and 5 6 0 
71356457		 # 	collision with: 0 2 0  and 4 1 1 
71356459		 # 	collision with: 0 0 0  and 9 1 0 
71356484		 # 	collision with: 0 0 0  and 2 2 0 
71356486		 # 	collision with: 4 1 0  and 5 1 0 
71356512		 # 	collision with: 6 3 0  and 0 1 1 
71356514		 # 	collision with: 2 0 1  and 0 2 1 
71356524		 # 	collision with: 6 4 0  and 3 6 0 
71356526		 # 	collision with: 5 0 0  and 8 1 0 
71356528		 # 	collision with: 4 1 0  and 5 1 0 
71356530		 # 	collision with: 0 2 0  and 10 0 1 
71356564		 # 	collision with: 10 0 0  and 6 1 0 
71356566		 # 	collision with: 2 2 0  and 8 3 0 
71356573		 # 	collision with: 5 2 0  and 10 4 0 
71356575		 # 	collision with: 1 2 0  and 6 3 0 
71356581		 # 	collision with: 3 3 0  and 5 5 0 
71356583		 # 	collision with: 3 1 0  and 3 0 1 
71356588		 # 	collision with: 9 1 0  and 9 0 1 
71356590		 # 	collision with: 9 0 0  and 6 1 0 
71356604		 # 	collision with: 0 0 1  and 5 2 1 
71356606		 # 	collision with: 4 2 0  and 6 4 0 
71356625		 # 	collision with: 2 2 0  and 10 4 0 
71356627		 # 	collision with: 3 2 0  and 5 3 0 
71356629		 # 	collision with: 10 2 0  and 3 4 0 
71356631		 # 	collision with: 3 4 0  and 10 5 0 
71356664		 # 	collision with: 4 2 0  and 7 3 0 
71356666		 # 	collision with: 1 6 0  and 5 2 1 
71356673		 # 	collision with: 4 1 0  and 7 2 0 
71356675		 # 	collision with: 2 6 0  and 5 1 1 
71356681		 # 	collision with: 9 2 0  and 0 3 0 
71356683		 # 	collision with: 8 3 0  and 0 5 0 
71356688		 # 	collision with: 6 1 0  and 10 3 0 
71356690		 # 	collision with: 2 2 0  and 2 4 0 
71356724		 # 	collision with: 0 0 0  and 2 2 0 
71356726		 # 	collision with: 1 4 0  and 1 5 0 
71356728		 # 	collision with: 8 6 0  and 4 0 1 
71356730		 # 	collision with: 1 2 0  and 6 3 0 
71356740		 # 	collision with: 8 4 0  and 8 5 0 
71356742		 # 	collision with: 3 2 0  and 4 2 0 
71356768		 # 	collision with: 3 2 0  and 9 3 0 
71356770		 # 	collision with: 3 2 0  and 5 3 0 
71356797		 # 	collision with: 4 2 0  and 7 3 0 
71356799		 # 	collision with: 9 0 0  and 3 1 0 
71356800		 # 	collision with: 10 2 0  and 3 4 0 
71356802		 # 	collision with: 9 0 0  and 4 2 0 
71356808		 # 	collision with: 10 4 0  and 3 0 1 
71356810		 # 	collision with: 8 3 0  and 0 5 0 
71356813		 # 	collision with: 7 1 0  and 7 0 1 
71356815		 # 	collision with: 2 0 0  and 4 2 0 
71356848		 # 	collision with: 1 3 0  and 3 0 1 
71356850		 # 	collision with: 7 3 0  and 8 5 0 
71356860		 # 	collision with: 7 10 0  and 9 0 1 
71356862		 # 	collision with: 0 1 0  and 4 3 0 
71356876		 # 	collision with: 2 0 0  and 1 2 0 
71356878		 # 	collision with: 9 1 1  and 7 2 1 
71356888		 # 	collision with: 10 6 0  and 10 0 1 
71356890		 # 	collision with: 8 7 0  and 5 0 1 
71356925		 # 	collision with: 8 7 0  and 1 0 1 
71356927		 # 	collision with: 1 7 0  and 7 0 1 
71356928		 # 	collision with: 1 1 0  and 8 0 1 
71356930		 # 	collision with: 0 0 0  and 9 1 0 
71356936		 # 	collision with: 10 3 0  and 2 0 1 
71356938		 # 	collision with: 9 9 0  and 0 0 1 
71356941		 # 	collision with: 2 4 0  and 6 0 1 
71356943		 # 	collision with: 3 1 0  and 3 2 0 
71356968		 # 	collision with: 8 0 0  and 3 2 0 
71356970		 # 	collision with: 5 5 0  and 2 6 0 
71356996		 # 	collision with: 9 8 0  and 5 5 1 
71357008		 # 	collision with: 4 1 0  and 5 1 0 
71357010		 # 	collision with: 10 4 0  and 3 5 0 
71357012		 # 	collision with: 2 8 0  and 4 8 0 
71357014		 # 	collision with: 6 3 0  and 0 1 1 
71357048		 # 	collision with: 9 2 0  and 9 4 0 
71357057		 # 	collision with: 8 1 0  and 2 3 0 
71357059		 # 	collision with: 4 1 0  and 8 2 0 
71357065		 # 	collision with: 4 4 0  and 5 5 0 
71357067		 # 	collision with: 8 6 0  and 4 3 1 
71357072		 # 	collision with: 10 4 0  and 9 0 1 
71357074		 # 	collision with: 5 4 0  and 4 6 0 
71357088		 # 	collision with: 6 3 0  and 2 0 1 
71357090		 # 	collision with: 0 6 0  and 10 0 1 
71357109		 # 	collision with: 1 1 0  and 5 2 0 
71357111		 # 	collision with: 9 2 0  and 2 0 1 
71357113		 # 	collision with: 5 1 0  and 7 2 0 
71357115		 # 	collision with: 9 0 0  and 3 1 0 
71357148		 # 	collision with: 4 1 0  and 0 2 0 
71357150		 # 	collision with: 5 9 0  and 9 1 1 
71357157		 # 	collision with: 4 3 0  and 7 4 0 
71357159		 # 	collision with: 10 10 0  and 1 0 1 
71357165		 # 	collision with: 3 3 0  and 7 5 0 
71357167		 # 	collision with: 8 3 0  and 2 4 0 
71357172		 # 	collision with: 8 1 0  and 2 2 0 
71357174		 # 	collision with: 6 1 0  and 0 3 0 
71357208		 # 	collision with: 0 0 0  and 1 1 0 
71357210		 # 	collision with: 6 0 0  and 8 1 0 
71357212		 # 	collision with: 7 5 0  and 2 0 1 
71357214		 # 	collision with: 1 1 0  and 1 0 1 
71357224		 # 	collision with: 4 4 0  and 4 6 0 
71357226		 # 	collision with: 3 5 0  and 1 0 1 
71357252		 # 	collision with: 8 3 0  and 9 5 0 
71357254		 # 	collision with: 9 4 0  and 4 6 0 
71357281		 # 	collision with: 8 3 0  and 3 5 0 
71357283		 # 	collision with: 2 0 0  and 3 2 0 
71357284		 # 	collision with: 5 1 0  and 7 2 0 
71357292		 # 	collision with: 0 3 0  and 5 0 1 
71357294		 # 	collision with: 3 1 0  and 3 2 0 
71357297		 # 	collision with: 8 3 0  and 2 0 1 
71357299		 # 	collision with: 5 5 0  and 8 6 0 
71357332		 # 	collision with: 1 5 0  and 5 0 1 
71357344		 # 	collision with: 6 5 0  and 6 1 1 
71357346		 # 	collision with: 5 2 0  and 8 3 0 
71357360		 # 	collision with: 4 5 0  and 3 7 0 
71357362		 # 	collision with: 4 2 0  and 5 3 0 
71357372		 # 	collision with: 7 3 0  and 5 0 1 
71357374		 # 	collision with: 7 5 0  and 2 6 0 
71357409		 # 	collision with: 0 0 0  and 2 1 1 
71357411		 # 	collision with: 3 4 0  and 4 0 1 
71357412		 # 	collision with: 4 1 0  and 1 0 1 
71357414		 # 	collision with: 10 1 0  and 1 2 0 
71357420		 # 	collision with: 10 5 0  and 6 3 1 
71357422		 # 	collision with: 8 4 0  and 8 6 0 
71357425		 # 	collision with: 5 1 1  and 5 2 1 
71357427		 # 	collision with: 5 2 0  and 8 3 0 
71357452		 # 	collision with: 4 0 0  and 7 1 0 
71357454		 # 	collision with: 9 1 0  and 1 3 0 
71357480		 # 	collision with: 6 7 0  and 8 2 1 
71357482		 # 	collision with: 2 6 0  and 6 0 1 
71357492		 # 	collision with: 5 3 0  and 9 4 0 
71357494		 # 	collision with: 3 6 0  and 7 7 0 
71357496		 # 	collision with: 1 4 0  and 2 4 0 
71357498		 # 	collision with: 10 1 0  and 6 2 0 
71357532		 # 	collision with: 10 1 0  and 10 2 0 
71357534		 # 	collision with: 0 0 0  and 1 1 1 
71357541		 # 	collision with: 0 0 0  and 5 2 0 
71357543		 # 	collision with: 3 2 0  and 8 4 0 
71357549		 # 	collision with: 4 4 0  and 6 6 0 
71357551		 # 	collision with: 10 2 0  and 3 1 1 
71357556		 # 	collision with: 4 3 0  and 10 1 1 
71357558		 # 	collision with: 1 2 0  and 2 0 1 
71357699		 # 	collision with: 3 1 0  and 7 2 0 
71357715		 # 	collision with: 3 1 0  and 7 2 0 
71357735		 # 	collision with: 3 1 0  and 7 2 0 
71357795		 # 	collision with: 3 1 0  and 7 2 0 
71357811		 # 	collision with: 3 1 0  and 7 2 0 
71357839		 # 	collision with: 3 1 0  and 7 2 0 
71357867		 # 	collision with: 3 1 0  and 7 2 0 
71357943		 # 	collision with: 3 1 0  and 7 2 0 
71357963		 # 	collision with: 3 1 0  and 7 2 0 
71357979		 # 	collision with: 3 1 0  and 7 2 0 
71358056		 # 	collision with: 0 4 0  and 10 5 0 
71358058		 # 	collision with: 6 4 0  and 5 5 0 
71358177		 # 	collision with: 0 7 0  and 7 0 1 
71358179		 # 	collision with: 2 7 0  and 0 0 1 
71358181		 # 	collision with: 0 2 0  and 2 0 1 
71358183		 # 	collision with: 0 5 0  and 7 0 1 
71358197		 # 	collision with: 1 4 0  and 8 5 0 
71358199		 # 	collision with: 6 0 0  and 7 1 0 
71358217		 # 	collision with: 8 4 0  and 5 6 0 
71358219		 # 	collision with: 2 0 0  and 10 2 0 
71358277		 # 	collision with: 4 2 0  and 6 2 0 
71358279		 # 	collision with: 9 3 0  and 0 4 0 
71358293		 # 	collision with: 5 3 0  and 5 4 0 
71358295		 # 	collision with: 5 4 0  and 2 6 0 
71358321		 # 	collision with: 1 2 0  and 6 0 1 
71358323		 # 	collision with: 9 0 0  and 8 2 1 
71358349		 # 	collision with: 10 1 0  and 0 2 0 
71358425		 # 	collision with: 2 2 0  and 2 3 0 
71358445		 # 	collision with: 5 3 0  and 7 5 0 
71358447		 # 	collision with: 0 7 0  and 2 7 0 
71358461		 # 	collision with: 2 9 0  and 2 1 1 
71358463		 # 	collision with: 4 3 0  and 10 2 1 
71358465		 # 	collision with: 0 2 0  and 6 3 0 
71358467		 # 	collision with: 3 2 0  and 8 4 0 
71358540		 # 	collision with: 5 3 0  and 4 4 0 
71358542		 # 	collision with: 0 3 0  and 10 4 0 
71358661		 # 	collision with: 5 2 0  and 1 1 1 
71358663		 # 	collision with: 6 4 0  and 9 5 0 
71358665		 # 	collision with: 1 3 0  and 3 0 1 
71358667		 # 	collision with: 7 2 0  and 0 0 1 
71358681		 # 	collision with: 0 3 0  and 7 4 0 
71358683		 # 	collision with: 3 6 0  and 5 6 0 
71358701		 # 	collision with: 0 4 0  and 4 5 0 
71358703		 # 	collision with: 5 0 0  and 9 1 0 
71358761		 # 	collision with: 6 1 0  and 0 2 0 
71358763		 # 	collision with: 4 0 0  and 3 2 0 
71358777		 # 	collision with: 2 1 0  and 3 1 0 
71358779		 # 	collision with: 9 2 0  and 6 4 0 
71358805		 # 	collision with: 8 7 0  and 8 0 1 
71358807		 # 	collision with: 7 2 0  and 8 4 0 
71358833		 # 	collision with: 9 2 0  and 0 4 0 
71358835		 # 	collision with: 8 1 0  and 6 2 0 
71358909		 # 	collision with: 10 2 0  and 6 3 0 
71358911		 # 	collision with: 4 2 0  and 9 3 0 
71358929		 # 	collision with: 6 2 0  and 7 3 0 
71358945		 # 	collision with: 5 9 0  and 6 0 1 
71358949		 # 	collision with: 0 4 0  and 1 6 0 
71358951		 # 	collision with: 5 3 0  and 5 5 0 
71359024		 # 	collision with: 10 2 0  and 9 3 0 
71359026		 # 	collision with: 6 1 0  and 1 2 0 
71359145		 # 	collision with: 0 5 0  and 9 0 1 
71359147		 # 	collision with: 4 4 0  and 5 4 0 
71359149		 # 	collision with: 10 1 0  and 1 0 1 
71359151		 # 	collision with: 8 4 0  and 2 5 0 
71359165		 # 	collision with: 10 2 0  and 6 3 0 
71359167		 # 	collision with: 6 0 0  and 9 1 0 
71359185		 # 	collision with: 10 3 0  and 7 5 0 
71359187		 # 	collision with: 10 0 0  and 5 2 0 
71359245		 # 	collision with: 5 4 0  and 4 6 0 
71359247		 # 	collision with: 0 1 0  and 7 3 0 
71359261		 # 	collision with: 4 4 0  and 4 6 0 
71359263		 # 	collision with: 2 0 0  and 10 2 0 
71359289		 # 	collision with: 0 0 0  and 1 1 1 
71359291		 # 	collision with: 8 4 0  and 2 5 0 
71359317		 # 	collision with: 9 4 0  and 10 5 0 
71359319		 # 	collision with: 8 4 0  and 2 5 0 
71359393		 # 	collision with: 4 0 0  and 9 1 0 
71359395		 # 	collision with: 8 4 0  and 2 5 0 
71359413		 # 	collision with: 6 0 0  and 8 2 0 
71359415		 # 	collision with: 8 4 0  and 2 5 0 
71359429		 # 	collision with: 8 8 0  and 6 0 1 
71359431		 # 	collision with: 8 4 0  and 2 5 0 
71359433		 # 	collision with: 3 1 0  and 4 3 0 
71359435		 # 	collision with: 8 4 0  and 2 5 0 
71359508		 # 	collision with: 4 1 0  and 3 2 0 
71359510		 # 	collision with: 10 1 0  and 9 2 0 
71359629		 # 	collision with: 7 7 0  and 0 0 1 
71359631		 # 	collision with: 10 1 0  and 3 0 1 
71359633		 # 	collision with: 2 1 1  and 0 2 1 
71359635		 # 	collision with: 4 2 0  and 6 3 0 
71359649		 # 	collision with: 9 1 0  and 5 2 0 
71359651		 # 	collision with: 10 8 0  and 6 1 1 
71359669		 # 	collision with: 2 3 0  and 6 4 0 
71359671		 # 	collision with: 4 2 0  and 9 4 0 
71359729		 # 	collision with: 1 2 0  and 0 4 0 
71359731		 # 	collision with: 4 2 0  and 9 3 0 
71359745		 # 	collision with: 4 2 0  and 6 2 0 
71359747		 # 	collision with: 8 4 0  and 1 5 0 
71359773		 # 	collision with: 2 6 0  and 9 0 1 
71359801		 # 	collision with: 3 0 0  and 4 1 0 
71359803		 # 	collision with: 2 2 0  and 2 4 0 
71359877		 # 	collision with: 8 2 0  and 2 3 0 
71359879		 # 	collision with: 4 0 0  and 3 2 0 
71359897		 # 	collision with: 1 4 0  and 3 6 0 
71359899		 # 	collision with: 10 1 0  and 10 3 0 
71359913		 # 	collision with: 7 10 0  and 5 1 1 
71359915		 # 	collision with: 4 0 0  and 2 1 0 
71359917		 # 	collision with: 9 4 0  and 4 5 0 
71359919		 # 	collision with: 5 3 0  and 9 5 0 
71359992		 # 	collision with: 9 0 0  and 8 1 0 
71359994		 # 	collision with: 4 0 0  and 3 1 0 
71360113		 # 	collision with: 9 4 0  and 0 0 1 
71360115		 # 	collision with: 0 8 0  and 9 0 1 
71360117		 # 	collision with: 5 1 0  and 2 2 1 
71360119		 # 	collision with: 7 2 0  and 8 4 0 
71360133		 # 	collision with: 8 0 0  and 4 1 0 
71360135		 # 	collision with: 3 5 0  and 8 1 1 
71360153		 # 	collision with: 1 2 0  and 9 4 0 
71360155		 # 	collision with: 8 4 0  and 1 5 0 
71360213		 # 	collision with: 8 0 0  and 7 2 0 
71360215		 # 	collision with: 0 0 0  and 5 1 0 
71360229		 # 	collision with: 5 0 0  and 2 2 0 
71360231		 # 	collision with: 1 2 0  and 5 3 0 
71360257		 # 	collision with: 0 1 0  and 5 2 1 
71360259		 # 	collision with: 2 10 0  and 4 10 0 
71360285		 # 	collision with: 2 1 0  and 4 3 0 
71360287		 # 	collision with: 10 3 0  and 5 5 0 
71360361		 # 	collision with: 10 1 0  and 10 2 0 
71360363		 # 	collision with: 8 2 0  and 7 4 0 
71360381		 # 	collision with: 2 3 0  and 3 4 0 
71360383		 # 	collision with: 6 2 0  and 9 3 0 
71360397		 # 	collision with: 5 1 0  and 1 2 1 
71360399		 # 	collision with: 0 5 0  and 6 2 1 
71360401		 # 	collision with: 1 1 0  and 7 2 0 
71360403		 # 	collision with: 4 0 0  and 7 2 0 
71360476		 # 	collision with: 8 2 0  and 2 3 0 
71360478		 # 	collision with: 0 1 0  and 8 3 0 
71360597		 # 	collision with: 1 10 0  and 4 2 1 
71360599		 # 	collision with: 7 0 0  and 7 2 0 
71360601		 # 	collision with: 6 1 0  and 0 0 1 
71360603		 # 	collision with: 4 1 0  and 4 0 1 
71360617		 # 	collision with: 9 4 0  and 1 6 0 
71360619		 # 	collision with: 5 3 0  and 9 5 0 
71360637		 # 	collision with: 4 2 0  and 8 3 0 
71360639		 # 	collision with: 7 3 0  and 4 5 0 
71360697		 # 	collision with: 2 1 0  and 3 1 0 
71360699		 # 	collision with: 6 2 0  and 9 3 0 
71360713		 # 	collision with: 1 3 0  and 3 3 0 
71360715		 # 	collision with: 5 0 0  and 9 1 0 
71360741		 # 	collision with: 1 1 0  and 1 0 1 
71360743		 # 	collision with: 7 0 0  and 3 2 0 
71360769		 # 	collision with: 2 3 0  and 3 4 0 
71360771		 # 	collision with: 7 3 0  and 10 5 0 
71360845		 # 	collision with: 8 0 0  and 7 2 0 
71360847		 # 	collision with: 4 0 0  and 2 1 0 
71360865		 # 	collision with: 2 1 0  and 4 3 0 
71360867		 # 	collision with: 0 4 0  and 7 5 0 
71360881		 # 	collision with: 3 2 0  and 6 0 1 
71360883		 # 	collision with: 6 1 0  and 10 3 0 
71360885		 # 	collision with: 1 3 0  and 2 5 0 
71360887		 # 	collision with: 10 0 0  and 5 2 0 
71360960		 # 	collision with: 10 1 0  and 9 3 0 
71360962		 # 	collision with: 9 3 0  and 7 5 0 
71361081		 # 	collision with: 1 7 0  and 7 0 1 
71361083		 # 	collision with: 5 0 0  and 7 1 0 
71361085		 # 	collision with: 8 5 0  and 7 1 1 
71361087		 # 	collision with: 5 3 0  and 3 4 0 
71361101		 # 	collision with: 8 3 0  and 0 5 0 
71361103		 # 	collision with: 5 1 0  and 5 0 1 
71361121		 # 	collision with: 3 1 0  and 0 3 0 
71361123		 # 	collision with: 10 3 0  and 3 4 0 
71361181		 # 	collision with: 8 2 0  and 2 3 0 
71361197		 # 	collision with: 2 2 0  and 2 3 0 
71361199		 # 	collision with: 4 2 0  and 6 3 0 
71361225		 # 	collision with: 6 5 0  and 6 1 1 
71361227		 # 	collision with: 6 7 0  and 6 0 1 
71361253		 # 	collision with: 1 4 0  and 3 6 0 
71361255		 # 	collision with: 6 7 0  and 1 1 1 
71361329		 # 	collision with: 8 0 0  and 4 1 0 
71361331		 # 	collision with: 2 1 0  and 7 2 0 
71361349		 # 	collision with: 3 0 0  and 4 1 0 
71361351		 # 	collision with: 6 3 0  and 7 5 0 
71361365		 # 	collision with: 4 7 0  and 6 2 1 
71361367		 # 	collision with: 2 1 0  and 8 0 1 
71361369		 # 	collision with: 4 0 0  and 5 2 0 
71361371		 # 	collision with: 10 5 0  and 8 0 1 
71361444		 # 	collision with: 6 1 0  and 0 2 0 
71361446		 # 	collision with: 3 2 0  and 1 4 0 
71361565		 # 	collision with: 8 1 0  and 0 0 1 
71361567		 # 	collision with: 2 0 0  and 0 2 0 
71361569		 # 	collision with: 3 6 0  and 0 1 1 
71361571		 # 	collision with: 2 0 0  and 0 2 0 
71361585		 # 	collision with: 7 2 0  and 10 4 0 
71361587		 # 	collision with: 2 0 0  and 0 2 0 
71361605		 # 	collision with: 6 1 0  and 10 2 0 
71361607		 # 	collision with: 7 0 0  and 2 1 0 
71361665		 # 	collision with: 4 0 0  and 9 1 0 
71361667		 # 	collision with: 2 0 0  and 0 2 0 
71361681		 # 	collision with: 8 0 0  and 1 1 0 
71361683		 # 	collision with: 2 0 0  and 0 2 0 
71361709		 # 	collision with: 9 5 0  and 1 0 1 
71361711		 # 	collision with: 2 0 0  and 0 2 0 
71361737		 # 	collision with: 6 0 0  and 8 2 0 
71361739		 # 	collision with: 4 0 0  and 3 1 0 
71361813		 # 	collision with: 5 3 0  and 5 4 0 
71361815		 # 	collision with: 2 0 0  and 0 2 0 
71361833		 # 	collision with: 9 4 0  and 10 5 0 
71361835		 # 	collision with: 2 0 0  and 0 2 0 
71361849		 # 	collision with: 7 2 0  and 5 0 1 
71361851		 # 	collision with: 2 0 0  and 0 2 0 
71361853		 # 	collision with: 10 3 0  and 5 4 0 
71361855		 # 	collision with: 2 0 0  and 0 2 0 
71361928		 # 	collision with: 8 0 0  and 7 2 0 
71361930		 # 	collision with: 10 1 0  and 1 2 0 
71362049		 # 	collision with: 10 1 0  and 10 0 1 
71362051		 # 	collision with: 0 0 0  and 1 1 1 
71362053		 # 	collision with: 3 9 0  and 5 0 1 
71362069		 # 	collision with: 6 1 0  and 9 3 0 
71362089		 # 	collision with: 5 0 0  and 2 2 0 
71362091		 # 	collision with: 1 2 0  and 5 3 0 
71362149		 # 	collision with: 3 3 0  and 2 5 0 
71362151		 # 	collision with: 6 3 0  and 0 4 0 
71362165		 # 	collision with: 1 3 0  and 1 5 0 
71362167		 # 	collision with: 6 0 0  and 7 1 0 
71362193		 # 	collision with: 9 4 0  and 4 1 1 
71362195		 # 	collision with: 6 0 0  and 9 1 0 
71362221		 # 	collision with: 6 2 0  and 7 3 0 
71362223		 # 	collision with: 6 1 0  and 10 3 0 
71362297		 # 	collision with: 7 0 0  and 7 1 0 
71362299		 # 	collision with: 7 0 0  and 2 1 0 
71362317		 # 	collision with: 9 2 0  and 0 4 0 
71362319		 # 	collision with: 5 0 0  and 7 1 0 
71362333		 # 	collision with: 1 4 0  and 4 0 1 
71362335		 # 	collision with: 10 3 0  and 6 4 0 
71362337		 # 	collision with: 2 0 0  and 8 1 0 
71362339		 # 	collision with: 2 7 0  and 9 0 1 
71362412		 # 	collision with: 4 0 0  and 9 1 0 
71362414		 # 	collision with: 2 0 0  and 0 2 0 
71362533		 # 	collision with: 0 8 0  and 1 0 1 
71362535		 # 	collision with: 1 1 0  and 1 0 1 
71362537		 # 	collision with: 4 4 0  and 2 0 1 
71362539		 # 	collision with: 4 0 0  and 7 2 0 
71362553		 # 	collision with: 5 0 0  and 8 2 0 
71362555		 # 	collision with: 8 4 0  and 8 6 0 
71362573		 # 	collision with: 8 0 0  and 1 1 0 
71362633		 # 	collision with: 10 1 0  and 9 3 0 
71362635		 # 	collision with: 2 1 0  and 7 2 0 
71362649		 # 	collision with: 3 1 0  and 0 3 0 
71362677		 # 	collision with: 8 1 0  and 9 1 1 
71362679		 # 	collision with: 1 4 0  and 4 0 1 
71362705		 # 	collision with: 5 3 0  and 7 5 0 
71362707		 # 	collision with: 0 2 0  and 5 4 0 
71362781		 # 	collision with: 9 1 0  and 5 2 0 
71362783		 # 	collision with: 6 1 0  and 5 3 0 
71362801		 # 	collision with: 10 1 0  and 0 2 0 
71362803		 # 	collision with: 8 2 0  and 2 4 0 
71362817		 # 	collision with: 1 8 0  and 6 0 1 
71362819		 # 	collision with: 3 8 0  and 4 8 0 
71362821		 # 	collision with: 2 2 0  and 3 4 0 
71362823		 # 	collision with: 6 1 0  and 1 0 1 
71362898		 # 	collision with: 0 2 0  and 1 2 0 
71362899		 # 	collision with: 4 5 0  and 4 6 0 
71362970		 # 	collision with: 2 4 0  and 9 0 1 
71362971		 # 	collision with: 8 6 0  and 0 0 1 
71362998		 # 	collision with: 5 10 0  and 1 0 1 
71362999		 # 	collision with: 2 2 0  and 4 3 0 
71363070		 # 	collision with: 0 2 0  and 10 3 0 
71363071		 # 	collision with: 7 4 0  and 5 5 0 
71363098		 # 	collision with: 1 2 0  and 10 3 0 
71363099		 # 	collision with: 3 6 0  and 1 1 1 
71363126		 # 	collision with: 6 1 0  and 5 3 0 
71363127		 # 	collision with: 9 4 0  and 0 6 0 
71363198		 # 	collision with: 2 0 0  and 6 2 0 
71363199		 # 	collision with: 5 0 0  and 4 1 0 
71363226		 # 	collision with: 7 4 0  and 3 5 0 
71363227		 # 	collision with: 2 10 0  and 3 10 0 
71363254		 # 	collision with: 3 3 0  and 0 4 0 
71363255		 # 	collision with: 5 6 0  and 8 0 1 
71363326		 # 	collision with: 6 1 0  and 6 0 1 
71363327		 # 	collision with: 4 0 0  and 9 1 0 
71363354		 # 	collision with: 5 4 0  and 9 5 0 
71363355		 # 	collision with: 10 4 0  and 7 6 0 
71363380		 # 	collision with: 6 2 0  and 9 3 0 
71363382		 # 	collision with: 5 7 0  and 2 0 1 
71363383		 # 	collision with: 8 5 0  and 2 6 0 
71363454		 # 	collision with: 2 2 0  and 5 0 1 
71363455		 # 	collision with: 2 1 0  and 6 0 1 
71363482		 # 	collision with: 7 4 0  and 3 5 0 
71363483		 # 	collision with: 10 5 0  and 6 6 0 
71363554		 # 	collision with: 8 1 0  and 7 2 0 
71363555		 # 	collision with: 1 2 0  and 10 3 0 
71363582		 # 	collision with: 10 6 0  and 0 1 1 
71363583		 # 	collision with: 2 2 0  and 3 3 0 
71363610		 # 	collision with: 9 2 0  and 8 4 0 
71363611		 # 	collision with: 10 1 0  and 10 3 0 
71363682		 # 	collision with: 3 9 0  and 5 1 1 
71363683		 # 	collision with: 7 0 0  and 5 2 0 
71363710		 # 	collision with: 3 1 0  and 3 2 0 
71363711		 # 	collision with: 8 0 0  and 2 2 0 
71363738		 # 	collision with: 8 0 0  and 2 2 0 
71363739		 # 	collision with: 4 0 0  and 8 1 0 
71363810		 # 	collision with: 6 0 1  and 5 2 1 
71363811		 # 	collision with: 10 1 0  and 1 2 0 
71363838		 # 	collision with: 9 4 0  and 0 6 0 
71363839		 # 	collision with: 3 10 0  and 5 2 1 
71363864		 # 	collision with: 3 0 0  and 0 1 0 
71363866		 # 	collision with: 3 6 0  and 3 2 1 
71363867		 # 	collision with: 2 6 0  and 3 0 1 
71363938		 # 	collision with: 4 4 0  and 0 6 0 
71363939		 # 	collision with: 5 4 0  and 3 0 1 
71363966		 # 	collision with: 3 3 0  and 4 3 0 
71363967		 # 	collision with: 7 1 0  and 0 2 0 
71364038		 # 	collision with: 5 0 0  and 4 1 0 
71364039		 # 	collision with: 6 0 0  and 4 1 0 
71364066		 # 	collision with: 3 4 0  and 7 6 0 
71364067		 # 	collision with: 7 9 0  and 2 2 1 
71364094		 # 	collision with: 1 3 0  and 0 5 0 
71364095		 # 	collision with: 9 4 0  and 3 6 0 
71364166		 # 	collision with: 10 7 0  and 8 0 1 
71364167		 # 	collision with: 8 1 0  and 7 2 0 
71364194		 # 	collision with: 8 4 0  and 9 5 0 
71364195		 # 	collision with: 0 5 0  and 1 6 0 
71364222		 # 	collision with: 4 0 0  and 8 1 0 
71364223		 # 	collision with: 6 4 0  and 0 1 1 
71364294		 # 	collision with: 0 0 0  and 1 1 1 
71364295		 # 	collision with: 5 3 0  and 5 5 0 
71364322		 # 	collision with: 2 2 0  and 2 4 0 
71364323		 # 	collision with: 3 8 0  and 0 0 1 
71364348		 # 	collision with: 3 1 0  and 9 3 0 
71364350		 # 	collision with: 3 4 0  and 1 1 1 
71364351		 # 	collision with: 7 1 0  and 8 3 0 
71364422		 # 	collision with: 4 9 0  and 6 9 0 
71364423		 # 	collision with: 10 2 0  and 0 4 0 
71364450		 # 	collision with: 10 1 0  and 1 2 0 
71364451		 # 	collision with: 4 0 0  and 5 2 0 
71364522		 # 	collision with: 7 4 0  and 3 5 0 
71364523		 # 	collision with: 6 2 0  and 1 3 0 
71364550		 # 	collision with: 7 5 0  and 1 0 1 
71364551		 # 	collision with: 3 1 0  and 9 2 0 
71364578		 # 	collision with: 4 4 0  and 3 6 0 
71364579		 # 	collision with: 2 1 0  and 4 1 0 
71364650		 # 	collision with: 4 3 0  and 2 4 0 
71364651		 # 	collision with: 10 1 0  and 8 3 0 
71364678		 # 	collision with: 4 1 0  and 6 1 1 
71364679		 # 	collision with: 1 4 0  and 7 5 0 
71364706		 # 	collision with: 8 1 0  and 5 2 0 
71364707		 # 	collision with: 0 0 0  and 6 1 0 
71364778		 # 	collision with: 2 3 0  and 9 0 1 
71364779		 # 	collision with: 2 3 0  and 3 5 0 
71364806		 # 	collision with: 0 0 1  and 5 1 1 
71364807		 # 	collision with: 5 4 0  and 10 5 0 
71364832		 # 	collision with: 6 0 0  and 0 2 0 
71364834		 # 	collision with: 5 3 0  and 3 5 0 
71364835		 # 	collision with: 6 1 0  and 2 3 0 
71364906		 # 	collision with: 5 3 0  and 3 5 0 
71364907		 # 	collision with: 6 1 0  and 2 3 0 
71364934		 # 	collision with: 5 3 0  and 3 5 0 
71364935		 # 	collision with: 6 1 0  and 2 3 0 
71365006		 # 	collision with: 0 4 0  and 2 4 0 
71365007		 # 	collision with: 6 1 0  and 2 3 0 
71365034		 # 	collision with: 5 3 0  and 3 5 0 
71365035		 # 	collision with: 6 1 0  and 2 3 0 
71365062		 # 	collision with: 4 0 0  and 9 1 0 
71365063		 # 	collision with: 6 1 0  and 2 3 0 
71365134		 # 	collision with: 5 3 0  and 3 5 0 
71365135		 # 	collision with: 6 1 0  and 2 3 0 
71365162		 # 	collision with: 5 3 0  and 3 5 0 
71365163		 # 	collision with: 6 1 0  and 2 3 0 
71365190		 # 	collision with: 5 3 0  and 6 4 0 
71365191		 # 	collision with: 7 0 0  and 8 1 0 
71365262		 # 	collision with: 5 3 0  and 7 4 0 
71365263		 # 	collision with: 6 1 0  and 2 3 0 
71365290		 # 	collision with: 5 3 0  and 3 5 0 
71365291		 # 	collision with: 6 1 0  and 2 3 0 
71365316		 # 	collision with: 3 1 0  and 6 2 0 
71365318		 # 	collision with: 9 2 0  and 5 0 1 
71365319		 # 	collision with: 5 0 1  and 2 1 1 
71365390		 # 	collision with: 7 3 0  and 1 1 1 
71365391		 # 	collision with: 8 2 0  and 1 4 0 
71365418		 # 	collision with: 9 10 0  and 5 0 1 
71365419		 # 	collision with: 8 2 0  and 6 1 1 
71365490		 # 	collision with: 2 2 0  and 0 4 0 
71365491		 # 	collision with: 10 5 0  and 8 6 0 
71365518		 # 	collision with: 7 4 0  and 3 5 0 
71365519		 # 	collision with: 1 6 0  and 2 6 0 
71365546		 # 	collision with: 7 1 0  and 1 2 0 
71365547		 # 	collision with: 7 9 0  and 0 1 1 
71365618		 # 	collision with: 8 5 0  and 1 6 0 
71365619		 # 	collision with: 2 2 0  and 0 4 0 
71365646		 # 	collision with: 2 10 0  and 3 10 0 
71365647		 # 	collision with: 10 5 0  and 6 6 0 
71365674		 # 	collision with: 6 0 0  and 4 1 0 
71365675		 # 	collision with: 1 4 0  and 1 5 0 
71365746		 # 	collision with: 4 5 0  and 0 0 1 
71365747		 # 	collision with: 5 4 0  and 9 5 0 
71365774		 # 	collision with: 1 10 0  and 10 0 1 
71365775		 # 	collision with: 5 0 0  and 2 1 0 
71365800		 # 	collision with: 6 1 0  and 3 2 0 
71365802		 # 	collision with: 2 3 0  and 6 4 0 
71365803		 # 	collision with: 10 5 0  and 6 6 0 
71365874		 # 	collision with: 10 9 0  and 6 1 1 
71365875		 # 	collision with: 0 2 0  and 3 2 1 
71365902		 # 	collision with: 7 4 0  and 5 5 0 
71365903		 # 	collision with: 7 0 0  and 7 2 0 
71365974		 # 	collision with: 10 1 0  and 8 3 0 
71365975		 # 	collision with: 4 3 0  and 2 4 0 
71366002		 # 	collision with: 2 2 0  and 3 3 0 
71366003		 # 	collision with: 7 9 0  and 5 0 1 
71366030		 # 	collision with: 10 2 0  and 4 3 0 
71366031		 # 	collision with: 9 2 0  and 8 4 0 
71366102		 # 	collision with: 1 2 1  and 6 3 1 
71366103		 # 	collision with: 3 3 0  and 2 4 0 
71366130		 # 	collision with: 7 1 0  and 3 0 1 
71366131		 # 	collision with: 8 5 0  and 1 6 0 
71366158		 # 	collision with: 3 5 0  and 5 5 0 
71366159		 # 	collision with: 6 4 0  and 3 5 0 
71366230		 # 	collision with: 0 7 0  and 2 0 1 
71366231		 # 	collision with: 5 6 0  and 9 1 1 
71366258		 # 	collision with: 7 4 0  and 3 5 0 
71366259		 # 	collision with: 2 7 0  and 2 0 1 
71366284		 # 	collision with: 0 0 0  and 6 2 0 
71366286		 # 	collision with: 7 1 0  and 8 3 0 
71366287		 # 	collision with: 5 3 0  and 3 5 0 
71366358		 # 	collision with: 3 1 0  and 9 2 0 
71366359		 # 	collision with: 5 3 0  and 3 5 0 
71366386		 # 	collision with: 0 0 0  and 6 1 0 
71366387		 # 	collision with: 5 3 0  and 3 5 0 
71366458		 # 	collision with: 7 0 0  and 5 2 0 
71366459		 # 	collision with: 9 1 0  and 7 2 0 
71366486		 # 	collision with: 2 3 0  and 7 4 0 
71366487		 # 	collision with: 5 3 0  and 3 5 0 
71366514		 # 	collision with: 2 3 0  and 7 4 0 
71366515		 # 	collision with: 5 3 0  and 3 5 0 
71366586		 # 	collision with: 4 0 0  and 5 2 0 
71366587		 # 	collision with: 9 0 0  and 6 2 0 
71366614		 # 	collision with: 7 1 0  and 0 2 0 
71366615		 # 	collision with: 5 3 0  and 3 5 0 
71366642		 # 	collision with: 0 2 0  and 8 3 0 
71366643		 # 	collision with: 5 3 0  and 3 5 0 
71366714		 # 	collision with: 6 2 0  and 1 3 0 
71366715		 # 	collision with: 5 3 0  and 3 5 0 
71366742		 # 	collision with: 2 3 0  and 7 4 0 
71366743		 # 	collision with: 2 0 0  and 6 2 0 
71366768		 # 	collision with: 9 1 0  and 3 3 0 
71366770		 # 	collision with: 7 0 0  and 9 1 0 
71366771		 # 	collision with: 3 10 0  and 7 0 1 
71366842		 # 	collision with: 10 1 0  and 0 2 0 
71366843		 # 	collision with: 1 1 0  and 9 3 0 
71366870		 # 	collision with: 7 0 0  and 7 2 0 
71366871		 # 	collision with: 5 0 0  and 4 2 1 
71366942		 # 	collision with: 9 5 0  and 8 6 0 
71366943		 # 	collision with: 4 4 0  and 0 6 0 
71366970		 # 	collision with: 1 6 0  and 2 6 0 
71366971		 # 	collision with: 8 1 0  and 5 2 0 
71366998		 # 	collision with: 5 4 0  and 10 5 0 
71366999		 # 	collision with: 0 5 0  and 2 6 0 
71367070		 # 	collision with: 9 9 0  and 8 1 1 
71367071		 # 	collision with: 6 1 0  and 5 3 0 
71367098		 # 	collision with: 3 1 0  and 1 1 1 
71367099		 # 	collision with: 3 1 0  and 3 0 1 
71367126		 # 	collision with: 9 5 0  and 6 6 0 
71367127		 # 	collision with: 10 5 0  and 6 6 0 
71367198		 # 	collision with: 3 5 0  and 5 0 1 
71367199		 # 	collision with: 10 1 0  and 0 2 0 
71367226		 # 	collision with: 9 1 0  and 7 2 0 
71367227		 # 	collision with: 1 8 0  and 3 8 0 
71367252		 # 	collision with: 0 0 0  and 3 1 0 
71367254		 # 	collision with: 3 9 0  and 2 0 1 
71367255		 # 	collision with: 0 3 0  and 1 0 1 
71367326		 # 	collision with: 2 3 0  and 7 0 1 
71367327		 # 	collision with: 10 5 0  and 6 6 0 
71367354		 # 	collision with: 4 2 0  and 1 4 0 
71367355		 # 	collision with: 7 1 0  and 1 2 0 
71367426		 # 	collision with: 8 0 0  and 10 2 0 
71367427		 # 	collision with: 9 2 0  and 5 4 0 
71367454		 # 	collision with: 6 2 0  and 6 3 0 
71367455		 # 	collision with: 2 6 0  and 4 2 1 
71367482		 # 	collision with: 2 1 0  and 4 1 0 
71367483		 # 	collision with: 4 2 0  and 1 4 0 
71367554		 # 	collision with: 7 4 0  and 3 5 0 
71367555		 # 	collision with: 8 4 0  and 6 6 0 
71367582		 # 	collision with: 2 2 0  and 4 3 0 
71367583		 # 	collision with: 3 1 0  and 3 2 0 
71367610		 # 	collision with: 3 2 0  and 8 4 0 
71367611		 # 	collision with: 3 5 0  and 5 5 0 
71367682		 # 	collision with: 4 3 0  and 3 0 1 
71367683		 # 	collision with: 10 7 0  and 8 0 1 
71367710		 # 	collision with: 10 3 0  and 0 0 1 
71367711		 # 	collision with: 8 4 0  and 9 5 0 
71367736		 # 	collision with: 9 2 0  and 6 3 0 
71367738		 # 	collision with: 7 10 0  and 1 0 1 
71367739		 # 	collision with: 0 2 0  and 1 2 0 
71367810		 # 	collision with: 7 4 0  and 3 5 0 
71367811		 # 	collision with: 9 10 0  and 2 0 1 
71367838		 # 	collision with: 6 4 0  and 8 0 1 
71367839		 # 	collision with: 1 1 0  and 6 0 1 
71367910		 # 	collision with: 3 3 0  and 2 4 0 
71367911		 # 	collision with: 3 0 0  and 10 2 0 
71367938		 # 	collision with: 9 0 0  and 6 2 0 
71367939		 # 	collision with: 3 0 0  and 2 2 0 
71367966		 # 	collision with: 3 0 0  and 2 2 0 
71367967		 # 	collision with: 10 5 0  and 6 6 0 
16.9456secs	11120
