# prime 11
# degree 2
# input variables 3
# output variables 4
# reload computed balance functions from file balance-2765of3248-p11d2m3-debug.log
# p = 11
# n = 4
# smalldomain p^m 1331
# domain p^n 14641
#	 p^2 = 121
#	 p^3 = 1331
#	 p^4 = 14641
#	 p^5 = 161051
#	 p^6 = 1771561
#	 p^7 = 19487171
#	 p^8 = 214358881
#	 p^9 = 2357947691
opening file : balance-2765of3248-p11d2m3-debug.log
reloading for step2...
16590005		 # 	collision with: 0 2 1 0  and 1 2 1 0 
16590007		 # 	collision with: 6 1 0 0  and 0 6 1 0 
16590013		 # 	collision with: 0 3 2 0  and 2 3 2 0 
16590015		 # 	collision with: 0 2 2 0  and 7 4 2 0 
16590068		 # 	collision with: 0 3 0 0  and 7 8 1 0 
16590070		 # 	collision with: 6 1 0 0  and 0 6 1 0 
16590169		 # 	collision with: 1 8 0 0  and 10 0 1 0 
16590171		 # 	collision with: 5 8 0 0  and 8 0 1 0 
16590177		 # 	collision with: 10 9 0 0  and 0 1 1 0 
16590179		 # 	collision with: 6 4 0 0  and 5 7 1 0 
16590245		 # 	collision with: 3 4 0 0  and 3 6 0 0 
16590247		 # 	collision with: 7 4 0 0  and 7 6 0 0 
16590265		 # 	collision with: 10 9 0 0  and 0 1 1 0 
16590267		 # 	collision with: 10 8 1 0  and 10 1 2 0 
16590293		 # 	collision with: 1 5 0 0  and 3 5 1 0 
16590295		 # 	collision with: 10 5 2 0  and 2 7 3 0 
16590321		 # 	collision with: 1 2 0 0  and 0 2 1 0 
16590323		 # 	collision with: 7 4 0 0  and 9 6 0 0 
16590345		 # 	collision with: 1 10 1 0  and 8 2 2 0 
16590347		 # 	collision with: 2 2 1 0  and 4 0 2 0 
16590373		 # 	collision with: 5 1 0 0  and 6 1 0 0 
16590375		 # 	collision with: 2 6 0 0  and 3 6 0 0 
16590377		 # 	collision with: 3 4 0 0  and 3 6 0 0 
16590379		 # 	collision with: 7 4 0 0  and 7 6 0 0 
16590401		 # 	collision with: 1 8 0 0  and 0 0 1 0 
16590403		 # 	collision with: 6 8 0 0  and 1 4 1 0 
16590489		 # 	collision with: 1 8 0 0  and 0 0 1 0 
16590491		 # 	collision with: 4 10 0 0  and 5 10 1 0 
16590497		 # 	collision with: 6 8 0 0  and 10 0 1 0 
16590499		 # 	collision with: 7 4 0 0  and 9 6 0 0 
16590552		 # 	collision with: 0 4 0 0  and 3 6 2 0 
16590554		 # 	collision with: 10 6 0 0  and 3 3 1 0 
16590653		 # 	collision with: 7 4 0 0  and 4 5 0 0 
16590655		 # 	collision with: 9 7 0 0  and 2 3 1 0 
16590661		 # 	collision with: 10 8 1 0  and 8 4 2 0 
16590663		 # 	collision with: 1 5 1 0  and 3 5 1 0 
16590729		 # 	collision with: 9 7 0 0  and 7 5 1 0 
16590731		 # 	collision with: 1 1 0 0  and 3 2 1 0 
16590751		 # 	collision with: 5 8 0 0  and 4 1 1 0 
16590777		 # 	collision with: 9 3 1 0  and 9 5 1 0 
16590779		 # 	collision with: 2 4 0 0  and 10 3 1 0 
16590805		 # 	collision with: 4 0 1 0  and 10 1 1 0 
16590829		 # 	collision with: 7 4 0 0  and 4 5 0 0 
16590831		 # 	collision with: 6 4 0 0  and 1 7 1 0 
16590857		 # 	collision with: 8 7 1 0  and 7 0 2 0 
16590859		 # 	collision with: 9 4 1 0  and 4 6 1 0 
16590863		 # 	collision with: 1 10 0 0  and 7 6 1 0 
16590885		 # 	collision with: 6 4 0 0  and 6 5 0 0 
16590973		 # 	collision with: 6 4 0 0  and 6 5 0 0 
16590975		 # 	collision with: 7 4 0 0  and 7 6 1 0 
16590981		 # 	collision with: 3 2 0 0  and 2 10 1 0 
16590983		 # 	collision with: 5 4 0 0  and 0 5 0 0 
16591036		 # 	collision with: 2 9 0 0  and 10 3 2 0 
16591038		 # 	collision with: 4 10 0 0  and 5 8 1 0 
16591137		 # 	collision with: 3 9 2 0  and 0 3 3 0 
16591139		 # 	collision with: 2 3 0 0  and 2 5 0 0 
16591147		 # 	collision with: 7 7 0 0  and 2 2 2 0 
16591213		 # 	collision with: 1 0 1 0  and 0 6 2 0 
16591215		 # 	collision with: 5 2 0 0  and 2 7 1 0 
16591233		 # 	collision with: 4 10 1 0  and 5 10 1 0 
16591235		 # 	collision with: 10 7 0 0  and 10 2 1 0 
16591261		 # 	collision with: 10 0 0 0  and 5 1 1 0 
16591263		 # 	collision with: 10 3 0 0  and 7 5 1 0 
16591289		 # 	collision with: 5 1 0 0  and 6 1 0 0 
16591291		 # 	collision with: 5 4 0 0  and 10 0 1 0 
16591313		 # 	collision with: 3 9 1 0  and 5 9 1 0 
16591315		 # 	collision with: 2 3 0 0  and 2 5 0 0 
16591341		 # 	collision with: 1 10 0 0  and 6 8 1 0 
16591343		 # 	collision with: 10 8 1 0  and 10 1 2 0 
16591345		 # 	collision with: 2 0 0 0  and 8 1 2 0 
16591347		 # 	collision with: 0 8 1 0  and 7 2 2 0 
16591369		 # 	collision with: 9 10 0 0  and 7 3 1 0 
16591371		 # 	collision with: 2 6 0 0  and 3 6 0 0 
16591457		 # 	collision with: 0 9 0 0  and 5 3 1 0 
16591459		 # 	collision with: 2 6 0 0  and 3 6 0 0 
16591467		 # 	collision with: 4 6 0 0  and 9 9 1 0 
16591520		 # 	collision with: 4 10 0 0  and 5 3 1 0 
16591522		 # 	collision with: 3 1 0 0  and 7 5 1 0 
16591621		 # 	collision with: 2 7 1 0  and 2 7 2 0 
16591623		 # 	collision with: 3 0 2 0  and 0 1 2 0 
16591629		 # 	collision with: 5 8 0 0  and 2 6 1 0 
16591631		 # 	collision with: 4 10 0 0  and 8 6 1 0 
16591697		 # 	collision with: 5 9 2 0  and 8 0 3 0 
16591717		 # 	collision with: 10 10 0 0  and 3 6 1 0 
16591719		 # 	collision with: 10 1 0 0  and 1 1 1 0 
16591745		 # 	collision with: 4 2 1 0  and 4 4 1 0 
16591747		 # 	collision with: 2 5 1 0  and 1 2 2 0 
16591773		 # 	collision with: 1 4 1 0  and 2 4 1 0 
16591775		 # 	collision with: 2 4 1 0  and 6 6 1 0 
16591797		 # 	collision with: 10 0 2 0  and 6 1 2 0 
16591799		 # 	collision with: 3 0 0 0  and 9 5 1 0 
16591825		 # 	collision with: 2 3 0 0  and 9 4 0 0 
16591827		 # 	collision with: 2 3 1 0  and 2 5 1 0 
16591829		 # 	collision with: 10 0 0 0  and 5 1 1 0 
16591831		 # 	collision with: 3 9 0 0  and 10 2 1 0 
16591853		 # 	collision with: 1 5 0 0  and 8 9 1 0 
16591855		 # 	collision with: 3 8 1 0  and 4 8 1 0 
16591941		 # 	collision with: 5 9 0 0  and 9 4 1 0 
16591949		 # 	collision with: 8 7 1 0  and 3 0 2 0 
16591951		 # 	collision with: 7 2 0 0  and 5 2 1 0 
16592004		 # 	collision with: 0 1 0 0  and 5 2 1 0 
16592006		 # 	collision with: 9 0 0 0  and 10 1 1 0 
16592105		 # 	collision with: 4 2 0 0  and 4 4 0 0 
16592113		 # 	collision with: 9 1 0 0  and 7 0 1 0 
16592115		 # 	collision with: 7 1 0 0  and 4 1 1 0 
16592181		 # 	collision with: 3 1 1 0  and 7 8 2 0 
16592183		 # 	collision with: 9 3 1 0  and 3 8 3 0 
16592201		 # 	collision with: 7 0 1 0  and 2 1 1 0 
16592203		 # 	collision with: 4 5 0 0  and 10 0 1 0 
16592229		 # 	collision with: 6 0 0 0  and 3 3 1 0 
16592231		 # 	collision with: 10 5 1 0  and 4 7 2 0 
16592259		 # 	collision with: 4 4 0 0  and 7 2 1 0 
16592281		 # 	collision with: 4 2 0 0  and 4 4 0 0 
16592283		 # 	collision with: 0 3 1 0  and 2 3 1 0 
16592313		 # 	collision with: 9 7 0 0  and 3 0 2 0 
16592315		 # 	collision with: 5 2 1 0  and 5 5 3 0 
16592337		 # 	collision with: 5 1 0 0  and 6 1 0 0 
16592339		 # 	collision with: 7 0 0 0  and 0 4 1 0 
16592425		 # 	collision with: 5 1 0 0  and 6 1 0 0 
16592427		 # 	collision with: 7 0 0 0  and 0 4 1 0 
16592433		 # 	collision with: 2 5 0 0  and 4 0 1 0 
16592435		 # 	collision with: 9 3 0 0  and 9 3 2 0 
16592488		 # 	collision with: 5 7 0 0  and 0 6 1 0 
16592490		 # 	collision with: 10 6 0 0  and 7 5 1 0 
16592589		 # 	collision with: 2 7 0 0  and 8 9 1 0 
16592591		 # 	collision with: 9 0 1 0  and 9 2 1 0 
16592597		 # 	collision with: 5 1 0 0  and 6 1 0 0 
16592599		 # 	collision with: 8 9 1 0  and 3 2 2 0 
16592665		 # 	collision with: 8 10 0 0  and 0 0 1 0 
16592667		 # 	collision with: 2 6 0 0  and 3 6 0 0 
16592685		 # 	collision with: 5 1 0 0  and 6 1 0 0 
16592687		 # 	collision with: 1 4 1 0  and 2 4 1 0 
16592741		 # 	collision with: 5 2 0 0  and 6 3 0 0 
16592743		 # 	collision with: 2 2 0 0  and 3 6 1 0 
16592767		 # 	collision with: 0 6 0 0  and 6 2 1 0 
16592793		 # 	collision with: 7 2 0 0  and 7 3 0 0 
16592795		 # 	collision with: 0 3 1 0  and 2 3 1 0 
16592797		 # 	collision with: 8 10 0 0  and 0 0 1 0 
16592799		 # 	collision with: 2 6 0 0  and 3 6 0 0 
16592821		 # 	collision with: 1 10 0 0  and 10 0 1 0 
16592823		 # 	collision with: 7 1 0 0  and 1 3 1 0 
16592909		 # 	collision with: 3 1 0 0  and 0 3 1 0 
16592911		 # 	collision with: 10 6 1 0  and 8 1 2 0 
16592917		 # 	collision with: 5 2 0 0  and 6 3 0 0 
16592972		 # 	collision with: 8 1 0 0  and 0 8 1 0 
16592974		 # 	collision with: 9 7 0 0  and 2 3 1 0 
16593073		 # 	collision with: 2 9 0 0  and 10 3 1 0 
16593075		 # 	collision with: 8 0 1 0  and 7 1 1 0 
16593081		 # 	collision with: 10 6 0 0  and 5 2 1 0 
16593149		 # 	collision with: 5 2 0 0  and 10 6 1 0 
16593151		 # 	collision with: 7 4 1 0  and 8 7 2 0 
16593169		 # 	collision with: 2 4 1 0  and 7 6 1 0 
16593171		 # 	collision with: 4 1 0 0  and 1 3 0 0 
16593197		 # 	collision with: 2 1 1 0  and 2 2 1 0 
16593199		 # 	collision with: 5 6 0 0  and 3 7 1 0 
16593225		 # 	collision with: 9 4 0 0  and 3 1 1 0 
16593227		 # 	collision with: 5 2 0 0  and 5 2 1 0 
16593249		 # 	collision with: 6 9 0 0  and 6 9 1 0 
16593251		 # 	collision with: 1 6 0 0  and 10 9 1 0 
16593277		 # 	collision with: 2 0 0 0  and 0 3 1 0 
16593279		 # 	collision with: 6 1 1 0  and 5 1 2 0 
16593281		 # 	collision with: 10 1 1 0  and 3 3 1 0 
16593305		 # 	collision with: 10 8 0 0  and 4 3 1 0 
16593307		 # 	collision with: 3 1 0 0  and 3 3 0 0 
16593393		 # 	collision with: 9 8 0 0  and 0 6 1 0 
16593395		 # 	collision with: 3 1 0 0  and 3 3 0 0 
16593401		 # 	collision with: 0 2 1 0  and 1 2 1 0 
16593403		 # 	collision with: 4 2 0 0  and 4 2 1 0 
16593456		 # 	collision with: 8 2 0 0  and 4 4 1 0 
16593458		 # 	collision with: 5 9 0 0  and 4 0 1 0 
16593559		 # 	collision with: 5 0 0 0  and 6 4 1 0 
16593565		 # 	collision with: 2 1 0 0  and 2 2 0 0 
16593567		 # 	collision with: 9 1 0 0  and 7 2 0 0 
16593633		 # 	collision with: 9 1 0 0  and 2 2 0 0 
16593635		 # 	collision with: 1 9 1 0  and 7 1 2 0 
16593653		 # 	collision with: 2 1 0 0  and 2 2 0 0 
16593655		 # 	collision with: 9 1 0 0  and 7 2 0 0 
16593681		 # 	collision with: 5 0 1 0  and 5 2 1 0 
16593683		 # 	collision with: 9 2 0 0  and 9 2 2 0 
16593709		 # 	collision with: 3 1 0 0  and 9 4 1 0 
16593711		 # 	collision with: 10 7 0 0  and 3 6 1 0 
16593733		 # 	collision with: 5 1 0 0  and 6 1 0 0 
16593735		 # 	collision with: 4 9 0 0  and 4 9 1 0 
16593761		 # 	collision with: 3 6 0 0  and 2 6 1 0 
16593763		 # 	collision with: 1 5 0 0  and 5 7 2 0 
16593765		 # 	collision with: 9 1 0 0  and 2 2 0 0 
16593767		 # 	collision with: 6 7 0 0  and 9 0 1 0 
16593789		 # 	collision with: 1 9 0 0  and 7 7 1 0 
16593791		 # 	collision with: 5 5 0 0  and 2 1 1 0 
16593879		 # 	collision with: 0 4 0 0  and 2 9 2 0 
16593885		 # 	collision with: 2 2 1 0  and 7 5 2 0 
16593887		 # 	collision with: 2 0 0 0  and 5 8 1 0 
16593940		 # 	collision with: 6 10 0 0  and 2 2 1 0 
16593942		 # 	collision with: 8 6 1 0  and 7 1 2 0 
16594041		 # 	collision with: 5 3 1 0  and 4 7 2 0 
16594043		 # 	collision with: 5 2 1 0  and 9 1 2 0 
16594049		 # 	collision with: 6 1 0 0  and 6 1 1 0 
16594051		 # 	collision with: 2 6 0 0  and 3 6 0 0 
16594119		 # 	collision with: 2 10 0 0  and 3 4 1 0 
16594137		 # 	collision with: 3 1 0 0  and 3 1 1 0 
16594165		 # 	collision with: 8 0 1 0  and 8 1 1 0 
16594167		 # 	collision with: 9 5 0 0  and 9 5 1 0 
16594193		 # 	collision with: 9 7 0 0  and 9 1 1 0 
16594195		 # 	collision with: 6 0 1 0  and 2 2 2 0 
16594217		 # 	collision with: 3 8 0 0  and 7 6 1 0 
16594245		 # 	collision with: 9 1 0 0  and 6 10 1 0 
16594247		 # 	collision with: 9 0 0 0  and 9 2 0 0 
16594249		 # 	collision with: 2 9 0 0  and 1 6 1 0 
16594251		 # 	collision with: 2 3 0 0  and 7 4 1 0 
16594275		 # 	collision with: 2 0 0 0  and 7 1 1 0 
16594361		 # 	collision with: 7 2 0 0  and 0 1 1 0 
16594363		 # 	collision with: 2 7 1 0  and 4 7 1 0 
16594369		 # 	collision with: 5 0 0 0  and 7 2 1 0 
16594371		 # 	collision with: 5 6 0 0  and 5 1 1 0 
16594424		 # 	collision with: 3 0 1 0  and 9 1 2 0 
16594426		 # 	collision with: 5 6 0 0  and 6 1 1 0 
16594525		 # 	collision with: 4 0 1 0  and 6 0 1 0 
16594527		 # 	collision with: 2 6 0 0  and 3 6 0 0 
16594533		 # 	collision with: 4 0 1 0  and 6 0 1 0 
16594535		 # 	collision with: 1 5 0 0  and 1 7 0 0 
16594601		 # 	collision with: 8 0 0 0  and 3 1 0 0 
16594603		 # 	collision with: 1 3 0 0  and 8 0 1 0 
16594621		 # 	collision with: 1 8 1 0  and 0 0 3 0 
16594623		 # 	collision with: 1 5 0 0  and 1 7 0 0 
16594649		 # 	collision with: 5 1 0 0  and 6 1 0 0 
16594651		 # 	collision with: 2 6 1 0  and 3 9 2 0 
16594677		 # 	collision with: 10 4 1 0  and 4 4 2 0 
16594679		 # 	collision with: 2 6 0 0  and 2 2 2 0 
16594701		 # 	collision with: 2 9 2 0  and 10 1 3 0 
16594703		 # 	collision with: 2 6 0 0  and 3 6 0 0 
16594729		 # 	collision with: 2 6 2 0  and 3 4 3 0 
16594731		 # 	collision with: 5 9 0 0  and 2 2 1 0 
16594733		 # 	collision with: 8 0 0 0  and 3 1 0 0 
16594735		 # 	collision with: 7 0 1 0  and 0 1 1 0 
16594757		 # 	collision with: 0 2 0 0  and 2 7 1 0 
16594759		 # 	collision with: 5 3 0 0  and 0 0 1 0 
16594845		 # 	collision with: 8 2 1 0  and 4 4 1 0 
16594847		 # 	collision with: 5 3 0 0  and 0 0 1 0 
16594853		 # 	collision with: 2 8 0 0  and 3 6 2 0 
16594855		 # 	collision with: 0 1 0 0  and 6 5 1 0 
16595033		 # 	collision with: 1 8 0 0  and 8 7 1 0 
16595035		 # 	collision with: 3 2 0 0  and 7 4 1 0 
16595037		 # 	collision with: 6 7 0 0  and 5 5 1 0 
16595039		 # 	collision with: 2 5 0 0  and 3 6 0 0 
16595089		 # 	collision with: 8 3 0 0  and 1 1 1 0 
16595091		 # 	collision with: 10 4 1 0  and 4 6 1 0 
16595101		 # 	collision with: 5 1 0 0  and 2 6 1 0 
16595103		 # 	collision with: 8 5 0 0  and 6 9 1 0 
16595129		 # 	collision with: 5 1 0 0  and 6 1 0 0 
16595131		 # 	collision with: 6 7 0 0  and 8 3 1 0 
16595165		 # 	collision with: 9 8 1 0  and 4 0 2 0 
16595173		 # 	collision with: 5 1 0 0  and 6 1 0 0 
16595175		 # 	collision with: 2 0 0 0  and 1 2 1 0 
16595181		 # 	collision with: 8 1 0 0  and 4 2 2 0 
16595245		 # 	collision with: 2 1 1 0  and 0 3 1 0 
16595247		 # 	collision with: 2 4 0 0  and 3 4 0 0 
16595257		 # 	collision with: 5 9 0 0  and 4 6 1 0 
16595259		 # 	collision with: 2 5 0 0  and 3 6 0 0 
16595309		 # 	collision with: 6 4 0 0  and 6 4 1 0 
16595311		 # 	collision with: 5 2 0 0  and 9 5 1 0 
16595313		 # 	collision with: 0 6 1 0  and 1 6 1 0 
16595315		 # 	collision with: 4 5 0 0  and 4 6 0 0 
16595392		 # 	collision with: 8 2 0 0  and 5 6 1 0 
16595394		 # 	collision with: 5 5 0 0  and 2 9 1 0 
16595517		 # 	collision with: 10 1 0 0  and 10 3 1 0 
16595519		 # 	collision with: 7 4 0 0  and 3 2 2 0 
16595521		 # 	collision with: 5 1 0 0  and 6 1 0 0 
16595523		 # 	collision with: 1 0 2 0  and 1 1 2 0 
16595573		 # 	collision with: 5 10 0 0  and 5 3 1 0 
16595575		 # 	collision with: 5 4 0 0  and 5 4 1 0 
16595585		 # 	collision with: 3 4 0 0  and 3 6 0 0 
16595587		 # 	collision with: 2 4 0 0  and 3 4 0 0 
16595615		 # 	collision with: 3 4 0 0  and 7 9 1 0 
16595649		 # 	collision with: 4 4 0 0  and 4 2 1 0 
16595651		 # 	collision with: 8 0 1 0  and 8 6 2 0 
16595657		 # 	collision with: 5 4 0 0  and 5 4 2 0 
16595659		 # 	collision with: 2 5 0 0  and 5 3 1 0 
16595667		 # 	collision with: 2 7 1 0  and 6 0 2 0 
16595729		 # 	collision with: 8 0 0 0  and 4 4 1 0 
16595731		 # 	collision with: 10 2 0 0  and 6 9 1 0 
16595741		 # 	collision with: 5 1 0 0  and 6 1 0 0 
16595743		 # 	collision with: 0 0 0 0  and 2 0 2 0 
16595793		 # 	collision with: 6 10 0 0  and 10 3 1 0 
16595795		 # 	collision with: 1 4 0 0  and 1 4 1 0 
16595797		 # 	collision with: 3 1 1 0  and 5 0 2 0 
16595799		 # 	collision with: 6 0 0 0  and 9 1 1 0 
16595876		 # 	collision with: 7 0 0 0  and 9 2 1 0 
16595878		 # 	collision with: 7 6 0 0  and 8 8 1 0 
10.5615secs	5409
