# prime 11
# degree 2
# input variables 3
# output variables 5
# reload computed balance functions from file balance-2730of3248-p11d2m3-debug.log
# p = 11
# n = 5
# smalldomain p^m 1331
# domain p^n 161051
#	 p^2 = 121
#	 p^3 = 1331
#	 p^4 = 14641
#	 p^5 = 161051
#	 p^6 = 1771561
#	 p^7 = 19487171
#	 p^8 = 214358881
#	 p^9 = 2357947691
opening file : balance-2730of3248-p11d2m3-debug.log
reloading for step2...
16380005		 # 	collision with: 8 2 0 0 0  and 3 3 0 0 0 
16380007		 # 	collision with: 1 10 2 0 0  and 1 4 3 0 0 
16380012		 # 	collision with: 10 7 3 0 0  and 5 6 0 1 0 
16380014		 # 	collision with: 3 9 3 0 0  and 1 0 0 1 0 
16380025		 # 	collision with: 1 4 2 0 0  and 1 5 2 0 0 
16380027		 # 	collision with: 2 7 0 0 0  and 3 7 0 0 0 
16380045		 # 	collision with: 3 3 1 0 0  and 8 4 1 0 0 
16380047		 # 	collision with: 0 4 2 0 0  and 5 6 2 0 0 
16380057		 # 	collision with: 1 2 1 0 0  and 10 0 3 0 0 
16380059		 # 	collision with: 6 1 6 0 0  and 6 3 6 0 0 
16380065		 # 	collision with: 5 2 0 0 0  and 6 2 0 0 0 
16380067		 # 	collision with: 9 1 1 0 0  and 9 1 3 0 0 
16380082		 # 	collision with: 2 7 6 0 0  and 3 7 6 0 0 
16380084		 # 	collision with: 5 2 1 0 0  and 6 2 1 0 0 
16380086		 # 	collision with: 8 5 10 0 0  and 8 6 10 0 0 
16380104		 # 	collision with: 5 2 1 0 0  and 6 2 1 0 0 
16380106		 # 	collision with: 5 2 4 0 0  and 5 4 4 0 0 
16380112		 # 	collision with: 5 2 10 0 0  and 6 2 10 0 0 
16380114		 # 	collision with: 5 0 5 0 0  and 0 1 5 0 0 
16380172		 # 	collision with: 5 2 4 0 0  and 6 2 4 0 0 
16380174		 # 	collision with: 2 7 7 0 0  and 3 7 7 0 0 
16380179		 # 	collision with: 4 3 1 0 0  and 4 3 3 0 0 
16380181		 # 	collision with: 8 2 1 0 0  and 8 4 1 0 0 
16380183		 # 	collision with: 2 8 1 0 0  and 2 4 3 0 0 
16380184		 # 	collision with: 5 2 2 0 0  and 6 2 2 0 0 
16380186		 # 	collision with: 2 7 0 0 0  and 3 7 0 0 0 
16380196		 # 	collision with: 5 2 0 0 0  and 6 2 0 0 0 
16380198		 # 	collision with: 2 0 2 0 0  and 2 1 2 0 0 
16380212		 # 	collision with: 3 2 8 0 0  and 3 3 8 0 0 
16380214		 # 	collision with: 2 7 7 0 0  and 3 7 7 0 0 
16380240		 # 	collision with: 5 2 0 0 0  and 6 2 0 0 0 
16380242		 # 	collision with: 2 0 2 0 0  and 2 1 2 0 0 
16380264		 # 	collision with: 5 2 2 0 0  and 6 2 2 0 0 
16380266		 # 	collision with: 2 7 5 0 0  and 3 7 5 0 0 
16380288		 # 	collision with: 10 0 5 0 0  and 1 2 5 0 0 
16380290		 # 	collision with: 2 7 10 0 0  and 3 7 10 0 0 
16380312		 # 	collision with: 5 2 5 0 0  and 6 2 5 0 0 
16380314		 # 	collision with: 2 7 3 0 0  and 3 7 3 0 0 
16380340		 # 	collision with: 9 1 3 0 0  and 9 3 3 0 0 
16380342		 # 	collision with: 10 2 3 0 0  and 6 4 3 0 0 
16380356		 # 	collision with: 10 0 9 0 0  and 1 2 9 0 0 
16380358		 # 	collision with: 2 7 1 0 0  and 3 7 1 0 0 
16380368		 # 	collision with: 5 2 3 0 0  and 6 2 3 0 0 
16380370		 # 	collision with: 2 7 1 0 0  and 3 7 1 0 0 
16380375		 # 	collision with: 8 1 1 0 0  and 8 1 3 0 0 
16380377		 # 	collision with: 1 4 2 0 0  and 1 5 2 0 0 
16380379		 # 	collision with: 2 7 0 0 0  and 3 7 0 0 0 
16380380		 # 	collision with: 4 1 1 0 0  and 4 2 1 0 0 
16380382		 # 	collision with: 2 0 1 0 0  and 2 1 1 0 0 
16380440		 # 	collision with: 10 0 6 0 0  and 1 2 6 0 0 
16380448		 # 	collision with: 5 0 7 0 0  and 5 1 7 0 0 
16380450		 # 	collision with: 2 7 0 0 0  and 3 7 0 0 0 
16380453		 # 	collision with: 9 1 6 0 0  and 9 3 6 0 0 
16380455		 # 	collision with: 2 7 1 0 0  and 3 7 1 0 0 
16380470		 # 	collision with: 2 0 1 0 0  and 2 1 1 0 0 
16380472		 # 	collision with: 9 1 3 0 0  and 9 3 3 0 0 
16380489		 # 	collision with: 8 2 1 0 0  and 8 4 1 0 0 
16380491		 # 	collision with: 5 10 1 0 0  and 5 10 3 0 0 
16380496		 # 	collision with: 8 6 4 0 0  and 4 2 0 1 0 
16380498		 # 	collision with: 5 0 4 0 0  and 4 0 0 1 0 
16380509		 # 	collision with: 7 3 2 0 0  and 7 5 2 0 0 
16380511		 # 	collision with: 3 3 1 0 0  and 2 5 2 0 0 
16380529		 # 	collision with: 6 9 1 0 0  and 6 1 2 0 0 
16380531		 # 	collision with: 0 8 1 0 0  and 5 1 2 0 0 
16380541		 # 	collision with: 4 1 1 0 0  and 7 2 1 0 0 
16380543		 # 	collision with: 1 1 5 0 0  and 1 2 5 0 0 
16380551		 # 	collision with: 0 4 2 0 0  and 5 6 2 0 0 
16380564		 # 	collision with: 5 2 2 0 0  and 6 2 2 0 0 
16380566		 # 	collision with: 2 7 5 0 0  and 3 7 5 0 0 
16380568		 # 	collision with: 5 2 0 0 0  and 6 2 0 0 0 
16380570		 # 	collision with: 5 2 2 0 0  and 5 4 2 0 0 
16380588		 # 	collision with: 10 0 3 0 0  and 1 2 3 0 0 
16380598		 # 	collision with: 2 7 2 0 0  and 3 7 2 0 0 
16380656		 # 	collision with: 5 2 0 0 0  and 6 2 0 0 0 
16380658		 # 	collision with: 5 2 2 0 0  and 5 4 2 0 0 
16380661		 # 	collision with: 2 1 1 0 0  and 2 6 2 0 0 
16380663		 # 	collision with: 10 2 1 0 0  and 6 4 1 0 0 
16380665		 # 	collision with: 4 1 1 0 0  and 4 1 2 0 0 
16380668		 # 	collision with: 6 4 8 0 0  and 6 6 8 0 0 
16380670		 # 	collision with: 2 7 7 0 0  and 3 7 7 0 0 
16380680		 # 	collision with: 9 1 7 0 0  and 9 3 7 0 0 
16380682		 # 	collision with: 2 7 0 0 0  and 3 7 0 0 0 
16380696		 # 	collision with: 5 2 6 0 0  and 6 2 6 0 0 
16380724		 # 	collision with: 5 2 2 0 0  and 6 2 2 0 0 
16380726		 # 	collision with: 2 7 0 0 0  and 3 7 0 0 0 
16380748		 # 	collision with: 5 2 4 0 0  and 6 2 4 0 0 
16380750		 # 	collision with: 2 7 7 0 0  and 3 7 7 0 0 
16380772		 # 	collision with: 2 3 1 0 0  and 9 5 1 0 0 
16380774		 # 	collision with: 2 3 1 0 0  and 3 4 1 0 0 
16380796		 # 	collision with: 5 2 3 0 0  and 6 2 3 0 0 
16380798		 # 	collision with: 2 7 1 0 0  and 3 7 1 0 0 
16380824		 # 	collision with: 5 0 5 0 0  and 5 1 5 0 0 
16380826		 # 	collision with: 1 1 5 0 0  and 4 3 5 0 0 
16380840		 # 	collision with: 5 2 1 0 0  and 6 2 1 0 0 
16380842		 # 	collision with: 5 0 4 0 0  and 0 1 4 0 0 
16380852		 # 	collision with: 2 3 3 0 0  and 2 4 3 0 0 
16380854		 # 	collision with: 3 4 3 0 0  and 3 6 3 0 0 
16380857		 # 	collision with: 10 10 1 0 0  and 1 0 2 0 0 
16380859		 # 	collision with: 1 10 1 0 0  and 1 10 2 0 0 
16380861		 # 	collision with: 5 2 1 0 0  and 6 2 1 0 0 
16380863		 # 	collision with: 10 3 1 0 0  and 10 3 2 0 0 
16380864		 # 	collision with: 9 0 9 0 0  and 2 1 9 0 0 
16380866		 # 	collision with: 2 7 1 0 0  and 3 7 1 0 0 
16380924		 # 	collision with: 5 2 1 0 0  and 6 2 1 0 0 
16380926		 # 	collision with: 5 0 10 0 0  and 0 1 10 0 0 
16380934		 # 	collision with: 2 7 6 0 0  and 3 7 6 0 0 
16380939		 # 	collision with: 2 7 2 0 0  and 3 7 2 0 0 
16380952		 # 	collision with: 5 2 5 0 0  and 6 2 5 0 0 
16380954		 # 	collision with: 2 7 3 0 0  and 3 7 3 0 0 
16380956		 # 	collision with: 5 0 5 0 0  and 5 1 5 0 0 
16380958		 # 	collision with: 4 3 5 0 0  and 4 5 5 0 0 
16380973		 # 	collision with: 9 4 1 0 0  and 2 1 2 0 0 
16380975		 # 	collision with: 1 1 0 0 0  and 1 2 0 0 0 
16380980		 # 	collision with: 2 7 6 0 0  and 4 5 0 1 0 
16380982		 # 	collision with: 2 8 6 0 0  and 10 1 0 1 0 
16380993		 # 	collision with: 7 6 0 0 0  and 4 2 2 0 0 
16380995		 # 	collision with: 10 2 0 0 0  and 6 4 2 0 0 
16381015		 # 	collision with: 4 3 2 0 0  and 4 5 2 0 0 
16381025		 # 	collision with: 9 0 0 0 0  and 2 1 2 0 0 
16381027		 # 	collision with: 7 0 4 0 0  and 7 2 4 0 0 
16381033		 # 	collision with: 8 8 0 0 0  and 8 8 2 0 0 
16381035		 # 	collision with: 7 8 0 0 0  and 7 8 2 0 0 
16381048		 # 	collision with: 5 2 1 0 0  and 6 2 1 0 0 
16381050		 # 	collision with: 3 3 4 0 0  and 2 5 4 0 0 
16381052		 # 	collision with: 8 2 5 0 0  and 8 4 5 0 0 
16381054		 # 	collision with: 2 0 5 0 0  and 2 1 5 0 0 
16381072		 # 	collision with: 5 2 0 0 0  and 6 2 0 0 0 
16381074		 # 	collision with: 1 1 2 0 0  and 1 2 2 0 0 
16381080		 # 	collision with: 10 0 8 0 0  and 1 2 8 0 0 
16381082		 # 	collision with: 2 7 7 0 0  and 3 7 7 0 0 
16381140		 # 	collision with: 8 2 5 0 0  and 8 4 5 0 0 
16381142		 # 	collision with: 2 0 5 0 0  and 2 1 5 0 0 
16381145		 # 	collision with: 3 2 1 0 0  and 3 3 1 0 0 
16381147		 # 	collision with: 3 2 0 0 0  and 3 2 2 0 0 
16381149		 # 	collision with: 5 2 2 0 0  and 6 2 2 0 0 
16381151		 # 	collision with: 2 7 0 0 0  and 3 7 0 0 0 
16381152		 # 	collision with: 5 2 5 0 0  and 6 2 5 0 0 
16381154		 # 	collision with: 2 7 3 0 0  and 3 7 3 0 0 
16381164		 # 	collision with: 7 3 1 0 0  and 7 5 1 0 0 
16381166		 # 	collision with: 9 4 1 0 0  and 9 5 1 0 0 
16381180		 # 	collision with: 5 2 3 0 0  and 6 2 3 0 0 
16381182		 # 	collision with: 2 7 1 0 0  and 3 7 1 0 0 
16381210		 # 	collision with: 9 4 1 0 0  and 9 5 1 0 0 
16381232		 # 	collision with: 8 2 3 0 0  and 8 4 3 0 0 
16381258		 # 	collision with: 2 7 6 0 0  and 3 7 6 0 0 
16381280		 # 	collision with: 5 2 1 0 0  and 6 2 1 0 0 
16381282		 # 	collision with: 9 4 10 0 0  and 9 5 10 0 0 
16381308		 # 	collision with: 5 2 2 0 0  and 6 2 2 0 0 
16381310		 # 	collision with: 2 7 0 0 0  and 3 7 0 0 0 
16381324		 # 	collision with: 5 2 4 0 0  and 6 2 4 0 0 
16381326		 # 	collision with: 2 7 7 0 0  and 3 7 7 0 0 
16381336		 # 	collision with: 5 2 0 0 0  and 6 2 0 0 0 
16381338		 # 	collision with: 1 1 2 0 0  and 1 2 2 0 0 
16381341		 # 	collision with: 4 10 0 0 0  and 4 4 2 0 0 
16381343		 # 	collision with: 2 7 2 0 0  and 3 7 2 0 0 
16381345		 # 	collision with: 2 3 2 0 0  and 2 4 2 0 0 
16381347		 # 	collision with: 7 6 0 0 0  and 9 2 2 0 0 
16381348		 # 	collision with: 5 2 2 0 0  and 6 2 2 0 0 
16381350		 # 	collision with: 2 7 5 0 0  and 3 7 5 0 0 
16381408		 # 	collision with: 8 2 3 0 0  and 8 4 3 0 0 
16381410		 # 	collision with: 1 1 3 0 0  and 1 2 3 0 0 
16381416		 # 	collision with: 5 2 9 0 0  and 6 2 9 0 0 
16381418		 # 	collision with: 2 7 1 0 0  and 3 7 1 0 0 
16381421		 # 	collision with: 10 0 4 0 0  and 10 2 4 0 0 
16381423		 # 	collision with: 2 3 0 0 0  and 3 6 2 0 0 
16381436		 # 	collision with: 5 2 6 0 0  and 6 2 6 0 0 
16381440		 # 	collision with: 3 2 7 0 0  and 8 4 7 0 0 
16381442		 # 	collision with: 2 7 0 0 0  and 3 7 0 0 0 
16381457		 # 	collision with: 5 3 0 0 0  and 5 3 2 0 0 
16381459		 # 	collision with: 2 7 0 0 0  and 3 7 0 0 0 
16381464		 # 	collision with: 6 4 1 0 0  and 8 7 0 1 0 
16381466		 # 	collision with: 5 7 1 0 0  and 6 0 0 1 0 
16381477		 # 	collision with: 5 10 0 0 0  and 6 8 1 0 0 
16381479		 # 	collision with: 6 2 0 0 0  and 10 8 1 0 0 
16381497		 # 	collision with: 9 0 0 0 0  and 2 1 0 0 0 
16381499		 # 	collision with: 2 5 0 0 0  and 3 7 1 0 0 
16381509		 # 	collision with: 5 2 1 0 0  and 6 2 1 0 0 
16381511		 # 	collision with: 5 0 1 0 0  and 0 1 1 0 0 
16381517		 # 	collision with: 9 1 0 0 0  and 9 3 1 0 0 
16381519		 # 	collision with: 9 8 0 0 0  and 9 1 1 0 0 
16381532		 # 	collision with: 5 2 0 0 0  and 6 2 0 0 0 
16381534		 # 	collision with: 3 4 2 0 0  and 3 6 2 0 0 
16381536		 # 	collision with: 5 0 8 0 0  and 5 1 8 0 0 
16381538		 # 	collision with: 2 7 7 0 0  and 3 7 7 0 0 
16381556		 # 	collision with: 9 1 1 0 0  and 9 3 1 0 0 
16381558		 # 	collision with: 6 0 1 0 0  and 10 2 1 0 0 
16381564		 # 	collision with: 5 2 3 0 0  and 6 2 3 0 0 
16381566		 # 	collision with: 2 7 1 0 0  and 3 7 1 0 0 
16381626		 # 	collision with: 2 7 6 0 0  and 3 7 6 0 0 
16381629		 # 	collision with: 9 0 0 0 0  and 2 1 0 0 0 
16381633		 # 	collision with: 5 0 0 0 0  and 5 1 0 0 0 
16381635		 # 	collision with: 7 5 0 0 0  and 7 5 1 0 0 
16381636		 # 	collision with: 5 2 1 0 0  and 6 2 1 0 0 
16381638		 # 	collision with: 3 4 10 0 0  and 3 6 10 0 0 
16381648		 # 	collision with: 5 2 2 0 0  and 6 2 2 0 0 
16381650		 # 	collision with: 2 7 5 0 0  and 3 7 5 0 0 
16381664		 # 	collision with: 5 2 0 0 0  and 6 2 0 0 0 
16381666		 # 	collision with: 6 0 2 0 0  and 10 2 2 0 0 
16381692		 # 	collision with: 9 0 6 0 0  and 2 1 6 0 0 
16381716		 # 	collision with: 7 3 7 0 0  and 7 5 7 0 0 
16381718		 # 	collision with: 2 7 0 0 0  and 3 7 0 0 0 
16381740		 # 	collision with: 5 2 1 0 0  and 6 2 1 0 0 
16381742		 # 	collision with: 2 7 4 0 0  and 3 7 4 0 0 
16381764		 # 	collision with: 9 1 5 0 0  and 9 3 5 0 0 
16381766		 # 	collision with: 5 2 5 0 0  and 5 4 5 0 0 
16381792		 # 	collision with: 5 2 5 0 0  and 6 2 5 0 0 
16381794		 # 	collision with: 2 7 3 0 0  and 3 7 3 0 0 
16381808		 # 	collision with: 9 1 5 0 0  and 9 3 5 0 0 
16381810		 # 	collision with: 5 2 5 0 0  and 5 4 5 0 0 
16381822		 # 	collision with: 10 3 1 0 0  and 10 4 1 0 0 
16381825		 # 	collision with: 1 8 0 0 0  and 1 1 1 0 0 
16381827		 # 	collision with: 0 8 0 0 0  and 5 1 1 0 0 
16381829		 # 	collision with: 6 4 0 0 0  and 6 4 1 0 0 
16381831		 # 	collision with: 10 4 0 0 0  and 10 4 1 0 0 
16381832		 # 	collision with: 7 3 3 0 0  and 7 5 3 0 0 
16381892		 # 	collision with: 5 2 2 0 0  and 6 2 2 0 0 
16381894		 # 	collision with: 2 7 0 0 0  and 3 7 0 0 0 
16381900		 # 	collision with: 5 2 4 0 0  and 6 2 4 0 0 
16381902		 # 	collision with: 2 7 7 0 0  and 3 7 7 0 0 
16381905		 # 	collision with: 8 4 0 0 0  and 8 2 1 0 0 
16381907		 # 	collision with: 2 0 3 0 0  and 2 1 3 0 0 
16381920		 # 	collision with: 3 2 3 0 0  and 8 4 3 0 0 
16381922		 # 	collision with: 5 2 3 0 0  and 5 4 3 0 0 
16381924		 # 	collision with: 5 2 9 0 0  and 6 2 9 0 0 
16381926		 # 	collision with: 2 7 1 0 0  and 3 7 1 0 0 
16381941		 # 	collision with: 5 0 0 0 0  and 5 1 0 0 0 
16382041		 # 	collision with: 2 3 4 0 0  and 2 4 4 0 0 
16382043		 # 	collision with: 8 5 0 0 0  and 8 6 0 0 0 
16382049		 # 	collision with: 3 3 5 0 0  and 8 4 5 0 0 
16382051		 # 	collision with: 2 3 4 0 0  and 3 3 4 0 0 
16382129		 # 	collision with: 2 4 2 0 0  and 9 5 2 0 0 
16382131		 # 	collision with: 8 5 0 0 0  and 8 6 0 0 0 
16382153		 # 	collision with: 5 2 2 0 0  and 6 2 2 0 0 
16382155		 # 	collision with: 1 3 2 0 0  and 4 5 2 0 0 
16382181		 # 	collision with: 5 2 1 0 0  and 6 2 1 0 0 
16382197		 # 	collision with: 5 2 6 0 0  and 6 2 6 0 0 
16382199		 # 	collision with: 6 1 1 0 0  and 10 3 1 0 0 
16382229		 # 	collision with: 8 2 4 0 0  and 8 4 4 0 0 
16382231		 # 	collision with: 4 2 5 0 0  and 4 2 6 0 0 
16382245		 # 	collision with: 5 2 1 0 0  and 6 2 1 0 0 
16382273		 # 	collision with: 5 2 2 0 0  and 6 2 2 0 0 
16382275		 # 	collision with: 5 2 5 0 0  and 5 2 6 0 0 
16382297		 # 	collision with: 5 2 5 0 0  and 6 2 5 0 0 
16382299		 # 	collision with: 2 10 5 0 0  and 2 2 6 0 0 
16382377		 # 	collision with: 2 4 3 0 0  and 9 5 3 0 0 
16382379		 # 	collision with: 2 1 1 0 0  and 3 2 1 0 0 
16382385		 # 	collision with: 10 0 2 0 0  and 1 2 2 0 0 
16382387		 # 	collision with: 2 3 1 0 0  and 3 3 1 0 0 
16382432		 # 	collision with: 9 10 1 0 0  and 8 4 1 1 0 
16382434		 # 	collision with: 0 2 1 0 0  and 2 6 1 1 0 
16382525		 # 	collision with: 5 2 4 0 0  and 6 2 4 0 0 
16382527		 # 	collision with: 2 3 1 0 0  and 3 3 1 0 0 
16382533		 # 	collision with: 5 2 2 0 0  and 6 2 2 0 0 
16382535		 # 	collision with: 6 1 2 0 0  and 10 3 2 0 0 
16382613		 # 	collision with: 5 2 2 0 0  and 6 2 2 0 0 
16382615		 # 	collision with: 9 4 1 0 0  and 9 5 1 0 0 
16382637		 # 	collision with: 2 3 5 0 0  and 9 5 5 0 0 
16382639		 # 	collision with: 0 9 4 0 0  and 5 0 6 0 0 
16382665		 # 	collision with: 5 2 3 0 0  and 6 2 3 0 0 
16382667		 # 	collision with: 2 1 6 0 0  and 3 2 6 0 0 
16382681		 # 	collision with: 2 6 4 0 0  and 9 0 6 0 0 
16382683		 # 	collision with: 6 1 4 0 0  and 10 3 4 0 0 
16382713		 # 	collision with: 10 0 2 0 0  and 1 2 2 0 0 
16382715		 # 	collision with: 7 0 2 0 0  and 7 2 2 0 0 
16382729		 # 	collision with: 9 4 0 0 0  and 2 6 0 0 0 
16382731		 # 	collision with: 1 1 5 0 0  and 1 2 5 0 0 
16382757		 # 	collision with: 5 2 5 0 0  and 6 2 5 0 0 
16382759		 # 	collision with: 7 0 2 0 0  and 7 2 2 0 0 
16382781		 # 	collision with: 6 4 0 0 0  and 6 6 0 0 0 
16382783		 # 	collision with: 6 7 4 0 0  and 10 2 6 0 0 
16382861		 # 	collision with: 9 4 0 0 0  and 2 6 0 0 0 
16382863		 # 	collision with: 2 3 4 0 0  and 3 3 4 0 0 
16382869		 # 	collision with: 6 4 0 0 0  and 6 6 0 0 0 
16382871		 # 	collision with: 3 7 4 0 0  and 3 3 6 0 0 
16382916		 # 	collision with: 2 7 0 0 0  and 6 6 0 1 0 
16382918		 # 	collision with: 10 7 0 0 0  and 2 0 0 1 0 
16383009		 # 	collision with: 2 3 1 0 0  and 9 5 1 0 0 
16383011		 # 	collision with: 10 3 2 0 0  and 10 4 2 0 0 
16383017		 # 	collision with: 2 1 4 0 0  and 2 6 5 0 0 
16383019		 # 	collision with: 2 3 3 0 0  and 3 3 3 0 0 
16383099		 # 	collision with: 10 3 2 0 0  and 10 4 2 0 0 
16383121		 # 	collision with: 7 5 4 0 0  and 7 5 5 0 0 
16383123		 # 	collision with: 2 0 1 0 0  and 3 2 1 0 0 
16383149		 # 	collision with: 6 10 4 0 0  and 6 0 5 0 0 
16383151		 # 	collision with: 7 7 4 0 0  and 7 6 5 0 0 
16383165		 # 	collision with: 2 1 4 0 0  and 9 0 5 0 0 
16383167		 # 	collision with: 2 3 1 0 0  and 3 3 1 0 0 
16383197		 # 	collision with: 5 2 2 0 0  and 6 2 2 0 0 
16383199		 # 	collision with: 1 9 4 0 0  and 1 5 5 0 0 
16383213		 # 	collision with: 2 4 0 0 0  and 9 5 0 0 0 
16383215		 # 	collision with: 2 3 4 0 0  and 3 3 4 0 0 
16383243		 # 	collision with: 2 3 2 0 0  and 3 3 2 0 0 
16383265		 # 	collision with: 5 2 0 0 0  and 6 2 0 0 0 
16383267		 # 	collision with: 9 4 0 0 0  and 9 5 0 0 0 
16383345		 # 	collision with: 2 4 0 0 0  and 9 5 0 0 0 
16383347		 # 	collision with: 10 3 4 0 0  and 10 3 5 0 0 
16383353		 # 	collision with: 5 2 0 0 0  and 6 2 0 0 0 
16383355		 # 	collision with: 9 4 0 0 0  and 9 5 0 0 0 
16383400		 # 	collision with: 7 1 0 0 0  and 8 4 0 1 0 
16383402		 # 	collision with: 7 4 0 0 0  and 1 3 0 1 0 
16383493		 # 	collision with: 5 2 3 0 0  and 6 2 3 0 0 
16383495		 # 	collision with: 2 3 0 0 0  and 3 3 0 0 0 
16383503		 # 	collision with: 1 3 0 0 0  and 4 5 0 0 0 
16383581		 # 	collision with: 3 3 1 0 0  and 8 4 1 0 0 
16383583		 # 	collision with: 2 3 0 0 0  and 3 3 0 0 0 
16383605		 # 	collision with: 2 4 3 0 0  and 9 5 3 0 0 
16383607		 # 	collision with: 2 3 1 0 0  and 3 3 1 0 0 
16383633		 # 	collision with: 7 3 0 0 0  and 7 5 0 0 0 
16383635		 # 	collision with: 1 3 0 0 0  and 4 5 0 0 0 
16383649		 # 	collision with: 5 2 1 0 0  and 6 2 1 0 0 
16383651		 # 	collision with: 2 3 3 0 0  and 3 3 3 0 0 
16383681		 # 	collision with: 5 2 0 0 0  and 6 2 0 0 0 
16383697		 # 	collision with: 1 4 4 0 0  and 1 5 4 0 0 
16383699		 # 	collision with: 4 3 0 0 0  and 4 5 0 0 0 
16383725		 # 	collision with: 5 2 0 0 0  and 6 2 0 0 0 
16383727		 # 	collision with: 6 3 3 0 0  and 10 4 3 0 0 
16383749		 # 	collision with: 5 2 3 0 0  and 6 2 3 0 0 
16383751		 # 	collision with: 3 4 2 0 0  and 3 6 2 0 0 
16383829		 # 	collision with: 3 2 3 0 0  and 8 4 3 0 0 
16383839		 # 	collision with: 3 4 2 0 0  and 3 6 2 0 0 
16383884		 # 	collision with: 4 10 0 0 0  and 6 4 0 1 0 
16383886		 # 	collision with: 3 10 0 0 0  and 7 1 0 1 0 
16383977		 # 	collision with: 1 7 3 0 0  and 1 7 4 0 0 
16383985		 # 	collision with: 9 1 1 0 0  and 9 3 1 0 0 
16383987		 # 	collision with: 2 3 2 0 0  and 3 3 2 0 0 
16384065		 # 	collision with: 3 2 1 0 0  and 8 4 1 0 0 
16384067		 # 	collision with: 1 1 4 0 0  and 1 2 4 0 0 
16384089		 # 	collision with: 5 2 1 0 0  and 6 2 1 0 0 
16384091		 # 	collision with: 9 1 3 0 0  and 9 1 4 0 0 
16384117		 # 	collision with: 9 1 1 0 0  and 9 3 1 0 0 
16384119		 # 	collision with: 2 3 3 0 0  and 3 3 3 0 0 
16384133		 # 	collision with: 5 2 3 0 0  and 6 2 3 0 0 
16384135		 # 	collision with: 6 1 2 0 0  and 10 3 2 0 0 
16384165		 # 	collision with: 3 4 3 0 0  and 3 1 4 0 0 
16384167		 # 	collision with: 10 3 0 0 0  and 10 4 0 0 0 
16384181		 # 	collision with: 9 4 1 0 0  and 2 6 1 0 0 
16384183		 # 	collision with: 2 3 0 0 0  and 3 3 0 0 0 
16384209		 # 	collision with: 5 2 3 0 0  and 6 2 3 0 0 
16384233		 # 	collision with: 9 1 3 0 0  and 9 3 4 0 0 
16384235		 # 	collision with: 3 6 3 0 0  and 3 4 4 0 0 
16384313		 # 	collision with: 4 0 3 0 0  and 4 3 4 0 0 
16384315		 # 	collision with: 2 3 0 0 0  and 3 3 0 0 0 
16384321		 # 	collision with: 5 2 1 0 0  and 6 2 1 0 0 
16384323		 # 	collision with: 2 3 3 0 0  and 3 3 3 0 0 
16384368		 # 	collision with: 0 4 2 0 0  and 6 2 2 1 0 
16384370		 # 	collision with: 7 8 0 0 0  and 10 3 0 1 0 
16384461		 # 	collision with: 5 2 2 0 0  and 6 2 2 0 0 
16384463		 # 	collision with: 2 4 2 0 0  and 2 4 4 0 0 
16384469		 # 	collision with: 5 2 0 0 0  and 6 2 0 0 0 
16384471		 # 	collision with: 5 2 0 0 0  and 5 4 0 0 0 
16384549		 # 	collision with: 5 2 1 0 0  and 6 2 1 0 0 
16384551		 # 	collision with: 0 2 1 0 0  and 5 3 1 0 0 
16384573		 # 	collision with: 10 7 2 0 0  and 10 6 4 0 0 
16384575		 # 	collision with: 6 10 2 0 0  and 6 10 4 0 0 
16384603		 # 	collision with: 5 2 0 0 0  and 5 4 0 0 0 
16384617		 # 	collision with: 3 4 2 0 0  and 3 1 4 0 0 
16384619		 # 	collision with: 4 6 2 0 0  and 4 2 4 0 0 
16384651		 # 	collision with: 2 3 0 0 0  and 3 3 0 0 0 
16384665		 # 	collision with: 5 2 2 0 0  and 6 2 2 0 0 
16384667		 # 	collision with: 3 6 2 0 0  and 3 6 4 0 0 
16384693		 # 	collision with: 3 2 0 0 0  and 8 4 0 0 0 
16384695		 # 	collision with: 2 3 0 0 0  and 3 3 0 0 0 
16384717		 # 	collision with: 4 7 2 0 0  and 7 3 4 0 0 
16384797		 # 	collision with: 2 4 1 0 0  and 9 5 1 0 0 
16384799		 # 	collision with: 4 4 1 0 0  and 1 5 1 0 0 
16384805		 # 	collision with: 3 3 1 0 0  and 8 4 1 0 0 
16384807		 # 	collision with: 0 10 2 0 0  and 5 2 4 0 0 
16384852		 # 	collision with: 9 5 0 0 0  and 10 1 0 1 0 
16384854		 # 	collision with: 9 7 3 0 0  and 5 10 3 1 0 
16384945		 # 	collision with: 4 1 2 0 0  and 4 1 3 0 0 
16384947		 # 	collision with: 6 1 1 0 0  and 10 3 1 0 0 
16384953		 # 	collision with: 2 3 3 0 0  and 2 4 3 0 0 
16384955		 # 	collision with: 0 2 0 0 0  and 5 3 0 0 0 
16385033		 # 	collision with: 2 1 2 0 0  and 2 1 3 0 0 
16385057		 # 	collision with: 6 8 2 0 0  and 6 8 3 0 0 
16385059		 # 	collision with: 2 3 3 0 0  and 3 3 3 0 0 
16385085		 # 	collision with: 5 2 2 0 0  and 6 2 2 0 0 
16385087		 # 	collision with: 0 2 0 0 0  and 5 3 0 0 0 
16385103		 # 	collision with: 9 1 2 0 0  and 7 6 3 0 0 
16385133		 # 	collision with: 3 2 0 0 0  and 3 3 0 0 0 
16385135		 # 	collision with: 3 3 2 0 0  and 2 3 3 0 0 
16385151		 # 	collision with: 7 8 2 0 0  and 7 5 3 0 0 
16385177		 # 	collision with: 3 2 0 0 0  and 3 3 0 0 0 
16385179		 # 	collision with: 6 3 2 0 0  and 6 1 3 0 0 
16385201		 # 	collision with: 5 2 1 0 0  and 6 2 1 0 0 
16385203		 # 	collision with: 2 3 2 0 0  and 3 3 2 0 0 
16385281		 # 	collision with: 5 2 0 0 0  and 6 2 0 0 0 
16385283		 # 	collision with: 2 3 1 0 0  and 3 3 1 0 0 
16385289		 # 	collision with: 5 2 2 0 0  and 6 2 2 0 0 
16385291		 # 	collision with: 6 1 2 0 0  and 10 4 3 0 0 
16385336		 # 	collision with: 5 8 0 0 0  and 4 3 0 1 0 
16385338		 # 	collision with: 3 0 0 0 0  and 4 9 0 1 0 
16385429		 # 	collision with: 9 1 0 0 0  and 9 3 0 0 0 
16385431		 # 	collision with: 8 10 1 0 0  and 8 1 3 0 0 
16385437		 # 	collision with: 1 3 1 0 0  and 1 3 3 0 0 
16385439		 # 	collision with: 9 4 2 0 0  and 9 5 2 0 0 
16385517		 # 	collision with: 9 1 0 0 0  and 9 3 0 0 0 
16385519		 # 	collision with: 3 10 1 0 0  and 3 0 3 0 0 
16385541		 # 	collision with: 5 2 3 0 0  and 6 2 3 0 0 
16385569		 # 	collision with: 7 3 1 0 0  and 7 3 3 0 0 
16385571		 # 	collision with: 9 4 2 0 0  and 9 5 2 0 0 
16385585		 # 	collision with: 9 0 1 0 0  and 2 1 3 0 0 
16385587		 # 	collision with: 2 3 0 0 0  and 3 3 0 0 0 
16385617		 # 	collision with: 4 1 3 0 0  and 4 2 3 0 0 
16385619		 # 	collision with: 7 2 1 0 0  and 7 0 3 0 0 
16385633		 # 	collision with: 9 4 2 0 0  and 2 6 2 0 0 
16385635		 # 	collision with: 10 3 1 0 0  and 10 4 1 0 0 
16385661		 # 	collision with: 5 2 1 0 0  and 6 2 1 0 0 
16385663		 # 	collision with: 0 9 1 0 0  and 5 0 3 0 0 
16385685		 # 	collision with: 3 2 1 0 0  and 3 3 1 0 0 
16385687		 # 	collision with: 7 2 1 0 0  and 7 2 3 0 0 
16385765		 # 	collision with: 9 8 1 0 0  and 9 8 3 0 0 
16385767		 # 	collision with: 10 3 1 0 0  and 10 4 1 0 0 
16385773		 # 	collision with: 3 2 1 0 0  and 3 3 1 0 0 
16385820		 # 	collision with: 4 10 3 0 0  and 10 0 3 1 0 
16385822		 # 	collision with: 6 10 0 0 0  and 8 0 0 1 0 
16385915		 # 	collision with: 2 1 0 0 0  and 3 2 0 0 0 
16385921		 # 	collision with: 2 7 1 0 0  and 2 0 2 0 0 
51.7252secs	19799
