# prime 11
# degree 2
# input variables 3
# output variables 4
# reload computed balance functions from file balance-968of3248-p11d2m3-debug.log
# p = 11
# n = 4
# smalldomain p^m 1331
# domain p^n 14641
#	 p^2 = 121
#	 p^3 = 1331
#	 p^4 = 14641
#	 p^5 = 161051
#	 p^6 = 1771561
#	 p^7 = 19487171
#	 p^8 = 214358881
#	 p^9 = 2357947691
opening file : balance-968of3248-p11d2m3-debug.log
reloading for step2...
5808000		 # 	collision with: 6 10 1 0  and 3 0 0 1 
5808002		 # 	collision with: 1 7 0 0  and 2 6 1 0 
5808003		 # 	collision with: 2 0 0 0  and 0 0 2 0 
5808006		 # 	collision with: 1 1 0 0  and 2 0 1 0 
5808007		 # 	collision with: 2 0 0 0  and 0 0 2 0 
5808009		 # 	collision with: 6 0 0 0  and 6 1 0 0 
5808010		 # 	collision with: 4 4 0 0  and 5 8 1 0 
5808011		 # 	collision with: 2 0 0 0  and 0 0 2 0 
5808014		 # 	collision with: 8 3 0 0  and 9 10 1 0 
5808015		 # 	collision with: 2 0 0 0  and 0 0 2 0 
5808018		 # 	collision with: 4 0 0 0  and 5 4 1 0 
5808019		 # 	collision with: 2 0 0 0  and 0 0 2 0 
5808022		 # 	collision with: 0 0 0 0  and 2 0 2 0 
5808023		 # 	collision with: 2 0 0 0  and 0 0 2 0 
5808026		 # 	collision with: 7 0 0 0  and 8 9 1 0 
5808027		 # 	collision with: 2 0 0 0  and 0 0 2 0 
5808030		 # 	collision with: 0 0 0 0  and 2 0 2 0 
5808031		 # 	collision with: 2 0 0 0  and 0 0 2 0 
5808034		 # 	collision with: 8 5 0 0  and 9 1 1 0 
5808035		 # 	collision with: 2 0 0 0  and 0 0 2 0 
5808037		 # 	collision with: 5 0 0 0  and 5 1 0 0 
5808038		 # 	collision with: 0 0 0 0  and 2 0 2 0 
5808039		 # 	collision with: 2 0 0 0  and 0 0 2 0 
5808042		 # 	collision with: 2 5 0 0  and 3 2 1 0 
5808043		 # 	collision with: 2 0 0 0  and 0 0 2 0 
5808486		 # 	collision with: 5 4 9 1  and 1 0 0 2 
5808487		 # 	collision with: 1 1 0 0  and 0 1 1 0 
5808490		 # 	collision with: 2 3 6 0  and 2 1 0 1 
5808491		 # 	collision with: 2 10 0 0  and 1 3 1 0 
5808494		 # 	collision with: 2 4 4 0  and 2 0 0 1 
5808495		 # 	collision with: 7 6 1 0  and 4 0 2 0 
5808498		 # 	collision with: 4 1 10 0  and 4 0 0 1 
5808499		 # 	collision with: 4 8 0 0  and 3 9 1 0 
5808502		 # 	collision with: 5 9 6 0  and 5 0 0 1 
5808503		 # 	collision with: 10 0 1 0  and 7 8 2 0 
5808506		 # 	collision with: 3 5 10 0  and 3 1 0 1 
5808507		 # 	collision with: 2 9 0 0  and 9 1 2 0 
5808510		 # 	collision with: 5 0 3 0  and 5 3 0 1 
5808511		 # 	collision with: 0 7 0 0  and 10 3 1 0 
5808514		 # 	collision with: 8 2 6 0  and 8 1 0 1 
5808515		 # 	collision with: 7 9 1 0  and 10 1 3 0 
5808518		 # 	collision with: 4 10 6 0  and 4 0 0 1 
5808519		 # 	collision with: 7 2 0 0  and 6 4 1 0 
5808522		 # 	collision with: 3 5 1 0  and 3 0 0 1 
5808523		 # 	collision with: 4 2 0 0  and 0 4 2 0 
5808526		 # 	collision with: 5 8 10 0  and 5 2 0 1 
5808527		 # 	collision with: 1 6 1 0  and 9 5 2 0 
5808968		 # 	collision with: 5 9 4 0  and 6 0 0 2 
5808970		 # 	collision with: 1 1 0 0  and 0 1 1 0 
5808971		 # 	collision with: 6 9 0 0  and 4 1 1 0 
5808974		 # 	collision with: 2 3 0 0  and 0 7 2 0 
5808975		 # 	collision with: 2 1 0 0  and 0 5 1 0 
5808978		 # 	collision with: 5 9 0 0  and 4 3 1 0 
5808979		 # 	collision with: 10 2 1 0  and 6 1 2 0 
5808982		 # 	collision with: 9 5 0 0  and 8 4 1 0 
5808983		 # 	collision with: 4 5 1 0  and 5 0 3 0 
5808986		 # 	collision with: 0 5 0 0  and 10 1 1 0 
5808987		 # 	collision with: 4 5 1 0  and 0 7 2 0 
5808990		 # 	collision with: 2 4 0 0  and 1 8 1 0 
5808991		 # 	collision with: 4 8 0 0  and 2 6 1 0 
5808994		 # 	collision with: 6 6 0 0  and 5 4 1 0 
5808995		 # 	collision with: 1 5 0 0  and 10 1 1 0 
5808998		 # 	collision with: 10 6 0 0  and 9 9 1 0 
5808999		 # 	collision with: 9 2 0 0  and 7 7 1 0 
5809002		 # 	collision with: 10 9 0 0  and 9 1 1 0 
5809003		 # 	collision with: 3 10 0 0  and 1 0 1 0 
5809006		 # 	collision with: 5 3 0 0  and 4 8 1 0 
5809007		 # 	collision with: 3 0 0 0  and 1 1 1 0 
5809010		 # 	collision with: 6 0 0 0  and 5 9 1 0 
5809011		 # 	collision with: 10 6 0 0  and 8 8 1 0 
5809452		 # 	collision with: 1 9 2 0  and 7 0 0 2 
5809454		 # 	collision with: 4 8 1 0  and 2 6 2 0 
5809455		 # 	collision with: 5 3 0 0  and 2 6 1 0 
5809458		 # 	collision with: 9 7 0 0  and 7 1 1 0 
5809459		 # 	collision with: 0 3 0 0  and 8 1 1 0 
5809462		 # 	collision with: 0 2 0 0  and 9 1 1 0 
5809463		 # 	collision with: 10 2 0 0  and 7 10 1 0 
5809466		 # 	collision with: 6 9 1 0  and 4 1 2 0 
5809467		 # 	collision with: 1 4 0 0  and 9 3 1 0 
5809470		 # 	collision with: 4 3 0 0  and 2 1 1 0 
5809471		 # 	collision with: 4 9 0 0  and 1 0 1 0 
5809474		 # 	collision with: 2 8 1 0  and 9 0 3 0 
5809475		 # 	collision with: 10 10 0 0  and 7 7 1 0 
5809478		 # 	collision with: 1 2 0 0  and 8 0 2 0 
5809479		 # 	collision with: 5 0 0 0  and 2 3 1 0 
5809482		 # 	collision with: 2 6 1 0  and 0 10 2 0 
5809483		 # 	collision with: 4 10 0 0  and 1 1 1 0 
5809486		 # 	collision with: 1 3 2 0  and 8 1 4 0 
5809487		 # 	collision with: 5 6 0 0  and 8 0 2 0 
5809490		 # 	collision with: 9 0 0 0  and 7 5 1 0 
5809491		 # 	collision with: 9 6 0 0  and 6 2 1 0 
5809494		 # 	collision with: 4 4 1 0  and 2 2 2 0 
5809495		 # 	collision with: 0 1 1 0  and 10 8 3 0 
5809936		 # 	collision with: 7 5 5 1  and 2 0 0 2 
5809938		 # 	collision with: 8 7 1 0  and 5 2 2 0 
5809939		 # 	collision with: 7 1 0 0  and 3 7 1 0 
5809942		 # 	collision with: 7 6 2 0  and 4 0 3 0 
5809943		 # 	collision with: 3 6 0 0  and 10 3 1 0 
5809946		 # 	collision with: 1 5 0 0  and 6 0 2 0 
5809947		 # 	collision with: 6 4 0 0  and 2 5 1 0 
5809950		 # 	collision with: 5 0 2 0  and 2 3 3 0 
5809951		 # 	collision with: 1 3 0 0  and 8 1 1 0 
5809954		 # 	collision with: 3 10 1 0  and 0 0 2 0 
5809955		 # 	collision with: 2 8 0 0  and 9 0 1 0 
5809958		 # 	collision with: 5 4 0 0  and 2 7 1 0 
5809959		 # 	collision with: 4 10 0 0  and 0 1 1 0 
5809962		 # 	collision with: 0 2 0 0  and 5 6 2 0 
5809963		 # 	collision with: 10 6 2 0  and 2 6 3 0 
5809966		 # 	collision with: 7 7 0 0  and 4 1 1 0 
5809967		 # 	collision with: 3 10 0 0  and 10 7 1 0 
5809970		 # 	collision with: 3 4 1 0  and 0 5 2 0 
5809971		 # 	collision with: 6 1 0 0  and 2 2 1 0 
5809974		 # 	collision with: 4 9 0 0  and 9 10 2 0 
5809975		 # 	collision with: 1 3 2 0  and 4 1 3 0 
5809978		 # 	collision with: 7 10 0 0  and 4 4 1 0 
5809979		 # 	collision with: 4 1 0 0  and 0 3 1 0 
5810420		 # 	collision with: 10 10 2 1  and 0 0 1 2 
5810422		 # 	collision with: 0 10 0 0  and 3 9 2 0 
5810423		 # 	collision with: 1 7 0 0  and 7 0 1 0 
5810426		 # 	collision with: 10 2 1 0  and 6 1 2 0 
5810427		 # 	collision with: 8 7 1 0  and 1 9 2 0 
5810430		 # 	collision with: 3 9 0 0  and 10 6 1 0 
5810431		 # 	collision with: 7 9 0 0  and 2 1 1 0 
5810434		 # 	collision with: 1 9 1 0  and 8 7 2 0 
5810435		 # 	collision with: 5 2 0 0  and 0 9 1 0 
5810438		 # 	collision with: 0 3 0 0  and 7 7 1 0 
5810439		 # 	collision with: 10 9 0 0  and 5 6 1 0 
5810442		 # 	collision with: 6 10 2 0  and 2 0 3 0 
5810443		 # 	collision with: 0 7 0 0  and 10 3 2 0 
5810446		 # 	collision with: 0 7 1 0  and 7 0 2 0 
5810447		 # 	collision with: 1 5 1 0  and 5 9 2 0 
5810450		 # 	collision with: 4 0 0 0  and 0 2 1 0 
5810451		 # 	collision with: 7 1 0 0  and 2 4 1 0 
5810454		 # 	collision with: 3 10 0 0  and 10 7 1 0 
5810455		 # 	collision with: 5 9 0 0  and 4 3 2 0 
5810458		 # 	collision with: 8 2 1 0  and 0 4 3 0 
5810459		 # 	collision with: 5 3 0 0  and 0 10 1 0 
5810462		 # 	collision with: 5 7 1 0  and 1 3 2 0 
5810463		 # 	collision with: 10 0 0 0  and 5 8 1 0 
5810904		 # 	collision with: 0 2 3 0  and 3 0 0 2 
5810906		 # 	collision with: 9 9 0 0  and 10 6 2 0 
5810907		 # 	collision with: 8 7 0 0  and 5 2 2 0 
5810910		 # 	collision with: 7 4 0 0  and 2 7 1 0 
5810911		 # 	collision with: 6 1 0 0  and 0 6 1 0 
5810914		 # 	collision with: 9 9 0 0  and 4 8 1 0 
5810915		 # 	collision with: 7 9 0 0  and 1 5 1 0 
5810918		 # 	collision with: 0 6 0 0  and 6 1 1 0 
5810919		 # 	collision with: 3 5 2 0  and 4 4 3 0 
5810922		 # 	collision with: 5 9 0 0  and 0 5 1 0 
5810923		 # 	collision with: 10 0 0 0  and 4 2 1 0 
5810926		 # 	collision with: 10 6 0 0  and 5 3 1 0 
5810927		 # 	collision with: 3 2 0 0  and 0 3 2 0 
5810930		 # 	collision with: 4 0 0 0  and 10 9 1 0 
5810931		 # 	collision with: 6 6 0 0  and 0 0 1 0 
5810934		 # 	collision with: 2 9 0 0  and 3 1 2 0 
5810935		 # 	collision with: 1 3 0 0  and 6 9 1 0 
5810938		 # 	collision with: 7 6 2 0  and 2 9 3 0 
5810939		 # 	collision with: 10 3 0 0  and 4 5 1 0 
5810942		 # 	collision with: 4 8 0 0  and 10 6 1 0 
5810943		 # 	collision with: 5 1 0 0  and 10 4 1 0 
5810946		 # 	collision with: 10 10 0 0  and 5 7 1 0 
5810947		 # 	collision with: 0 8 0 0  and 5 1 1 0 
5811388		 # 	collision with: 9 7 8 0  and 1 0 0 2 
5811390		 # 	collision with: 5 1 1 0  and 10 4 2 0 
5811391		 # 	collision with: 8 7 0 0  and 1 9 1 0 
5811394		 # 	collision with: 9 7 1 0  and 3 7 2 0 
5811395		 # 	collision with: 2 5 0 0  and 6 4 1 0 
5811398		 # 	collision with: 7 5 0 0  and 1 1 1 0 
5811399		 # 	collision with: 1 4 0 0  and 5 8 1 0 
5811402		 # 	collision with: 3 3 0 0  and 8 2 1 0 
5811403		 # 	collision with: 8 6 1 0  and 10 4 2 0 
5811406		 # 	collision with: 5 9 0 0  and 10 1 1 0 
5811407		 # 	collision with: 1 10 0 0  and 5 3 1 0 
5811410		 # 	collision with: 9 8 1 0  and 3 8 2 0 
5811411		 # 	collision with: 2 7 0 0  and 6 6 1 0 
5811414		 # 	collision with: 1 10 0 0  and 6 5 1 0 
5811415		 # 	collision with: 0 10 0 0  and 4 8 1 0 
5811418		 # 	collision with: 2 4 0 0  and 7 1 1 0 
5811419		 # 	collision with: 0 6 1 0  and 2 2 2 0 
5811422		 # 	collision with: 9 5 1 0  and 3 5 2 0 
5811423		 # 	collision with: 8 1 0 0  and 1 3 1 0 
5811426		 # 	collision with: 10 4 0 0  and 4 6 1 0 
5811427		 # 	collision with: 6 9 1 0  and 8 1 2 0 
5811430		 # 	collision with: 3 6 0 0  and 8 5 1 0 
5811431		 # 	collision with: 5 5 0 0  and 9 0 1 0 
5811872		 # 	collision with: 10 2 10 0  and 9 1 0 2 
5811874		 # 	collision with: 6 1 1 0  and 10 2 2 0 
5811875		 # 	collision with: 5 1 0 0  and 0 0 5 1 
5811878		 # 	collision with: 2 1 2 0  and 10 1 4 0 
5811879		 # 	collision with: 6 2 0 0  and 9 6 1 0 
5811882		 # 	collision with: 5 1 1 0  and 2 4 3 0 
5811883		 # 	collision with: 5 7 0 0  and 8 1 1 0 
5811886		 # 	collision with: 3 9 0 0  and 7 3 1 0 
5811887		 # 	collision with: 3 4 0 0  and 6 0 1 0 
5811890		 # 	collision with: 10 0 0 0  and 3 3 1 0 
5811891		 # 	collision with: 6 8 1 0  and 7 6 2 0 
5811894		 # 	collision with: 1 9 0 0  and 9 8 2 0 
5811895		 # 	collision with: 5 9 0 0  and 8 3 1 0 
5811898		 # 	collision with: 2 4 0 0  and 6 3 1 0 
5811899		 # 	collision with: 9 6 1 0  and 10 3 2 0 
5811902		 # 	collision with: 7 8 0 0  and 0 4 1 0 
5811903		 # 	collision with: 8 2 1 0  and 9 3 2 0 
5811906		 # 	collision with: 5 7 1 0  and 9 2 2 0 
5811907		 # 	collision with: 3 6 0 0  and 6 2 1 0 
5811910		 # 	collision with: 1 8 1 0  and 5 1 2 0 
5811911		 # 	collision with: 7 5 0 0  and 10 8 1 0 
5811914		 # 	collision with: 10 7 0 0  and 3 10 1 0 
5811915		 # 	collision with: 9 4 0 0  and 1 5 1 0 
5812356		 # 	collision with: 9 9 6 0  and 5 0 0 2 
5812358		 # 	collision with: 6 1 0 0  and 1 6 2 0 
5812359		 # 	collision with: 10 5 0 0  and 1 9 1 0 
5812362		 # 	collision with: 2 5 0 0  and 5 2 1 0 
5812363		 # 	collision with: 3 9 0 0  and 5 3 2 0 
5812366		 # 	collision with: 0 5 0 0  and 3 4 1 0 
5812367		 # 	collision with: 7 4 0 0  and 9 10 2 0 
5812370		 # 	collision with: 2 2 0 0  and 8 4 2 0 
5812371		 # 	collision with: 4 3 0 0  and 6 0 1 0 
5812374		 # 	collision with: 6 10 0 0  and 9 3 1 0 
5812375		 # 	collision with: 0 1 0 0  and 2 8 2 0 
5812378		 # 	collision with: 1 2 1 0  and 4 0 2 0 
5812379		 # 	collision with: 9 10 0 0  and 0 0 2 0 
5812382		 # 	collision with: 8 1 2 0  and 0 3 3 0 
5812383		 # 	collision with: 6 4 0 0  and 8 7 1 0 
5812386		 # 	collision with: 4 6 0 0  and 7 1 1 0 
5812387		 # 	collision with: 6 3 2 0  and 4 6 3 0 
5812390		 # 	collision with: 5 1 0 0  and 8 6 1 0 
5812391		 # 	collision with: 10 8 0 0  and 1 1 2 0 
5812394		 # 	collision with: 6 10 1 0  and 9 3 2 0 
5812395		 # 	collision with: 7 6 0 0  and 9 1 1 0 
5812398		 # 	collision with: 8 3 0 0  and 0 5 1 0 
5812399		 # 	collision with: 2 5 0 0  and 4 7 1 0 
5812840		 # 	collision with: 1 6 9 1  and 4 0 0 2 
5812842		 # 	collision with: 8 3 0 0  and 1 5 2 0 
5812843		 # 	collision with: 0 0 0 0  and 1 0 1 0 
5812846		 # 	collision with: 4 8 0 0  and 6 5 1 0 
5812847		 # 	collision with: 0 0 0 0  and 1 0 1 0 
5812850		 # 	collision with: 7 0 0 0  and 9 6 1 0 
5812851		 # 	collision with: 0 0 0 0  and 1 0 1 0 
5812854		 # 	collision with: 1 4 0 0  and 3 3 1 0 
5812855		 # 	collision with: 0 0 0 0  and 1 0 1 0 
5812858		 # 	collision with: 10 9 0 0  and 1 2 1 0 
5812859		 # 	collision with: 0 0 0 0  and 1 0 1 0 
5812862		 # 	collision with: 4 4 0 0  and 6 1 1 0 
5812863		 # 	collision with: 0 0 0 0  and 1 0 1 0 
5812866		 # 	collision with: 5 3 1 0  and 7 3 2 0 
5812867		 # 	collision with: 0 0 0 0  and 1 0 1 0 
5812870		 # 	collision with: 4 3 1 0  and 6 0 2 0 
5812871		 # 	collision with: 0 0 0 0  and 1 0 1 0 
5812874		 # 	collision with: 8 9 0 0  and 1 0 2 0 
5812875		 # 	collision with: 0 0 0 0  and 1 0 1 0 
5812878		 # 	collision with: 5 2 1 0  and 7 2 2 0 
5812879		 # 	collision with: 0 0 0 0  and 1 0 1 0 
5812882		 # 	collision with: 5 4 1 0  and 7 4 2 0 
5812883		 # 	collision with: 0 0 0 0  and 1 0 1 0 
5813324		 # 	collision with: 0 7 7 0  and 4 0 0 2 
5813326		 # 	collision with: 0 0 0 0  and 1 0 1 0 
5813327		 # 	collision with: 0 3 0 0  and 9 2 2 0 
5813330		 # 	collision with: 0 0 0 0  and 1 0 1 0 
5813331		 # 	collision with: 0 4 1 0  and 9 3 2 0 
5813334		 # 	collision with: 0 0 0 0  and 1 0 1 0 
5813335		 # 	collision with: 2 10 1 0  and 0 3 2 0 
5813338		 # 	collision with: 0 0 0 0  and 1 0 1 0 
5813339		 # 	collision with: 1 0 1 0  and 10 7 2 0 
5813342		 # 	collision with: 0 0 0 0  and 1 0 1 0 
5813343		 # 	collision with: 2 8 0 0  and 0 1 2 0 
5813346		 # 	collision with: 0 0 0 0  and 1 0 1 0 
5813347		 # 	collision with: 1 2 1 0  and 10 9 2 0 
5813350		 # 	collision with: 0 0 0 0  and 1 0 1 0 
5813351		 # 	collision with: 2 8 1 0  and 0 1 2 0 
5813354		 # 	collision with: 0 0 0 0  and 1 0 1 0 
5813355		 # 	collision with: 8 4 1 0  and 6 1 2 0 
5813358		 # 	collision with: 0 0 0 0  and 1 0 1 0 
5813359		 # 	collision with: 10 6 2 0  and 6 5 3 0 
5813362		 # 	collision with: 0 0 0 0  and 1 0 1 0 
5813363		 # 	collision with: 3 5 1 0  and 1 6 2 0 
5813366		 # 	collision with: 0 0 0 0  and 1 0 1 0 
5813367		 # 	collision with: 5 1 1 0  and 3 7 2 0 
5813810		 # 	collision with: 4 3 1 0  and 3 0 0 1 
5813811		 # 	collision with: 3 7 0 0  and 2 9 1 0 
5813813		 # 	collision with: 3 3 0 0  and 5 3 0 0 
5813814		 # 	collision with: 0 4 4 0  and 10 0 0 1 
5813815		 # 	collision with: 4 0 1 0  and 1 6 2 0 
5813818		 # 	collision with: 6 1 9 0  and 5 0 0 1 
5813819		 # 	collision with: 8 4 0 0  and 7 3 1 0 
5813822		 # 	collision with: 6 6 5 0  and 5 0 0 1 
5813823		 # 	collision with: 7 0 1 0  and 10 7 3 0 
5813826		 # 	collision with: 0 1 10 0  and 10 0 0 1 
5813827		 # 	collision with: 7 9 1 0  and 4 3 2 0 
5813830		 # 	collision with: 4 7 2 0  and 3 0 0 1 
5813831		 # 	collision with: 1 10 0 0  and 0 0 1 0 
5813834		 # 	collision with: 1 0 1 0  and 0 1 0 1 
5813835		 # 	collision with: 5 2 1 0  and 2 4 2 0 
5813838		 # 	collision with: 7 5 9 0  and 6 0 0 1 
5813839		 # 	collision with: 6 3 0 0  and 5 1 1 0 
5813842		 # 	collision with: 1 0 1 0  and 0 1 0 1 
5813843		 # 	collision with: 8 2 1 0  and 5 3 2 0 
5813846		 # 	collision with: 1 0 1 0  and 0 1 0 1 
5813847		 # 	collision with: 1 4 0 0  and 0 5 1 0 
5813849		 # 	collision with: 5 5 0 0  and 3 6 0 0 
5813850		 # 	collision with: 1 0 1 0  and 0 1 0 1 
5813851		 # 	collision with: 7 6 0 0  and 6 10 1 0 
28.5288secs	13306
