# prime 11
# degree 2
# input variables 3
# output variables 3
# reload computed balance functions from file balance-516of3248-p11d2m3-debug.log
# p = 11
# n = 3
# smalldomain p^m 1331
# domain p^n 1331
#	 p^2 = 121
#	 p^3 = 1331
#	 p^4 = 14641
#	 p^5 = 161051
#	 p^6 = 1771561
#	 p^7 = 19487171
#	 p^8 = 214358881
#	 p^9 = 2357947691
opening file : balance-516of3248-p11d2m3-debug.log
reloading for step2...
3096013		 # 	collision with: 1 4 0  and 7 5 0 
3096015		 # 	collision with: 2 0 0  and 5 1 0 
3096052		 # 	collision with: 1 5 0  and 6 6 0 
3096054		 # 	collision with: 8 9 0  and 0 0 1 
3096057		 # 	collision with: 1 5 0  and 6 6 0 
3096059		 # 	collision with: 4 3 0  and 3 4 0 
3096069		 # 	collision with: 1 1 0  and 7 3 0 
3096071		 # 	collision with: 4 3 0  and 3 4 0 
3096084		 # 	collision with: 7 2 0  and 2 4 0 
3096086		 # 	collision with: 9 3 0  and 0 5 0 
3096118		 # 	collision with: 6 1 0  and 4 0 1 
3096148		 # 	collision with: 10 4 0  and 0 0 1 
3096150		 # 	collision with: 4 2 0  and 3 4 0 
3096152		 # 	collision with: 5 5 0  and 6 5 0 
3096154		 # 	collision with: 2 5 0  and 7 6 0 
3096156		 # 	collision with: 0 8 0  and 1 8 0 
3096158		 # 	collision with: 7 4 0  and 6 6 0 
3096160		 # 	collision with: 2 9 0  and 3 9 0 
3096162		 # 	collision with: 10 3 0  and 4 4 0 
3096164		 # 	collision with: 3 4 0  and 4 4 0 
3096168		 # 	collision with: 2 1 0  and 4 1 0 
3096170		 # 	collision with: 0 3 0  and 10 5 0 
3096172		 # 	collision with: 4 10 0  and 5 10 0 
3096174		 # 	collision with: 3 2 0  and 8 3 0 
3096176		 # 	collision with: 3 7 0  and 5 7 0 
3096178		 # 	collision with: 8 1 0  and 7 3 0 
3096180		 # 	collision with: 4 2 0  and 6 2 0 
3096182		 # 	collision with: 6 4 0  and 0 5 0 
3096184		 # 	collision with: 1 3 0  and 2 3 0 
3096186		 # 	collision with: 0 0 0  and 5 1 0 
3096188		 # 	collision with: 1 6 0  and 3 6 0 
3096190		 # 	collision with: 7 1 0  and 1 2 0 
3096226		 # 	collision with: 0 0 0  and 7 2 0 
3096256		 # 	collision with: 0 7 0  and 4 1 1 
3096258		 # 	collision with: 7 4 0  and 9 6 0 
3096273		 # 	collision with: 0 9 0  and 7 0 1 
3096275		 # 	collision with: 1 4 0  and 4 0 1 
3096285		 # 	collision with: 10 1 0  and 6 3 0 
3096287		 # 	collision with: 4 1 0  and 4 3 0 
3096288		 # 	collision with: 4 2 0  and 2 3 0 
3096290		 # 	collision with: 10 3 0  and 3 4 0 
3096329		 # 	collision with: 6 9 0  and 1 0 1 
3096331		 # 	collision with: 4 0 0  and 6 2 0 
3096364		 # 	collision with: 0 6 0  and 7 1 1 
3096366		 # 	collision with: 4 5 0  and 4 6 0 
3096377		 # 	collision with: 5 1 0  and 5 1 1 
3096379		 # 	collision with: 0 8 0  and 8 1 1 
3096396		 # 	collision with: 7 0 0  and 1 2 0 
3096398		 # 	collision with: 5 1 0  and 8 3 0 
3096428		 # 	collision with: 4 3 0  and 2 5 0 
3096430		 # 	collision with: 2 0 0  and 1 1 0 
3096449		 # 	collision with: 9 3 0  and 3 4 0 
3096451		 # 	collision with: 0 0 0  and 1 1 1 
3096460		 # 	collision with: 3 2 0  and 1 0 1 
3096462		 # 	collision with: 10 9 0  and 6 0 1 
3096497		 # 	collision with: 0 3 1  and 7 4 1 
3096499		 # 	collision with: 0 0 0  and 7 2 0 
3096536		 # 	collision with: 4 4 0  and 7 6 0 
3096538		 # 	collision with: 10 8 0  and 4 0 1 
3096541		 # 	collision with: 7 4 0  and 0 5 0 
3096543		 # 	collision with: 4 2 0  and 3 4 0 
3096553		 # 	collision with: 7 8 0  and 8 0 1 
3096568		 # 	collision with: 1 1 0  and 2 2 0 
3096570		 # 	collision with: 4 6 0  and 5 0 1 
3096600		 # 	collision with: 2 0 0  and 6 1 0 
3096613		 # 	collision with: 0 0 0  and 1 1 1 
3096615		 # 	collision with: 1 5 0  and 2 6 0 
3096632		 # 	collision with: 3 9 0  and 4 1 1 
3096634		 # 	collision with: 6 2 0  and 10 3 0 
3096636		 # 	collision with: 3 4 0  and 4 4 0 
3096640		 # 	collision with: 4 2 0  and 6 2 0 
3096642		 # 	collision with: 3 4 0  and 0 6 0 
3096644		 # 	collision with: 5 5 0  and 6 5 0 
3096646		 # 	collision with: 2 1 0  and 10 3 0 
3096648		 # 	collision with: 2 1 0  and 4 1 0 
3096650		 # 	collision with: 2 1 0  and 6 2 0 
3096652		 # 	collision with: 1 3 0  and 2 3 0 
3096654		 # 	collision with: 7 5 0  and 0 6 0 
3096656		 # 	collision with: 0 8 0  and 1 8 0 
3096658		 # 	collision with: 10 9 0  and 3 0 1 
3096660		 # 	collision with: 4 10 0  and 5 10 0 
3096662		 # 	collision with: 9 0 0  and 2 1 0 
3096664		 # 	collision with: 1 6 0  and 3 6 0 
3096666		 # 	collision with: 3 4 0  and 7 5 0 
3096668		 # 	collision with: 2 9 0  and 3 9 0 
3096670		 # 	collision with: 10 3 0  and 7 5 0 
3096672		 # 	collision with: 3 7 0  and 5 7 0 
3096674		 # 	collision with: 9 0 0  and 6 2 0 
3096697		 # 	collision with: 5 3 0  and 3 4 0 
3096699		 # 	collision with: 4 10 0  and 5 10 0 
3096708		 # 	collision with: 7 1 0  and 7 2 1 
3096710		 # 	collision with: 4 3 0  and 4 4 0 
3096740		 # 	collision with: 10 0 0  and 2 1 0 
3096742		 # 	collision with: 10 5 0  and 2 6 0 
3096757		 # 	collision with: 0 5 0  and 4 6 0 
3096759		 # 	collision with: 1 5 0  and 2 6 0 
3096771		 # 	collision with: 3 7 0  and 5 7 0 
3096774		 # 	collision with: 0 0 0  and 1 1 0 
3096813		 # 	collision with: 1 1 0  and 2 2 0 
3096815		 # 	collision with: 4 2 0  and 5 1 1 
3096848		 # 	collision with: 7 0 0  and 1 2 0 
3096850		 # 	collision with: 5 6 0  and 0 0 1 
3096861		 # 	collision with: 5 2 0  and 10 4 0 
3096863		 # 	collision with: 4 2 0  and 4 4 0 
3096880		 # 	collision with: 10 9 0  and 2 0 1 
3096882		 # 	collision with: 2 2 0  and 9 2 1 
3096912		 # 	collision with: 2 4 0  and 1 5 0 
3096914		 # 	collision with: 6 6 0  and 5 7 0 
3096933		 # 	collision with: 9 4 0  and 2 6 0 
3096935		 # 	collision with: 2 0 0  and 3 2 0 
3096944		 # 	collision with: 0 1 0  and 3 3 0 
3096946		 # 	collision with: 3 3 0  and 10 5 0 
3096981		 # 	collision with: 3 4 0  and 8 6 0 
3096983		 # 	collision with: 2 0 0  and 7 2 0 
3097020		 # 	collision with: 7 5 0  and 5 6 0 
3097025		 # 	collision with: 1 7 0  and 8 0 1 
3097027		 # 	collision with: 0 9 0  and 6 0 1 
3097037		 # 	collision with: 9 3 0  and 3 4 0 
3097039		 # 	collision with: 8 9 0  and 8 0 1 
3097052		 # 	collision with: 7 4 0  and 4 6 0 
3097054		 # 	collision with: 5 1 0  and 6 3 0 
3097084		 # 	collision with: 4 10 0  and 9 0 1 
3097086		 # 	collision with: 5 6 0  and 9 0 1 
3097097		 # 	collision with: 7 0 0  and 9 2 0 
3097099		 # 	collision with: 10 3 0  and 4 4 0 
3097116		 # 	collision with: 2 0 1  and 0 2 1 
3097118		 # 	collision with: 8 1 0  and 0 2 0 
3097120		 # 	collision with: 1 3 0  and 2 3 0 
3097122		 # 	collision with: 4 1 0  and 10 3 0 
3097124		 # 	collision with: 3 7 0  and 5 7 0 
3097126		 # 	collision with: 0 4 0  and 6 6 0 
3097128		 # 	collision with: 2 1 0  and 4 1 0 
3097130		 # 	collision with: 9 3 0  and 1 4 0 
3097132		 # 	collision with: 2 9 0  and 3 9 0 
3097134		 # 	collision with: 3 2 0  and 6 3 0 
3097136		 # 	collision with: 5 5 0  and 6 5 0 
3097138		 # 	collision with: 9 0 0  and 4 2 0 
3097140		 # 	collision with: 1 6 0  and 3 6 0 
3097142		 # 	collision with: 5 3 0  and 0 5 0 
3097144		 # 	collision with: 4 2 0  and 6 2 0 
3097146		 # 	collision with: 4 4 0  and 7 5 0 
3097148		 # 	collision with: 4 10 0  and 5 10 0 
3097150		 # 	collision with: 2 0 0  and 5 1 0 
3097152		 # 	collision with: 3 4 0  and 4 4 0 
3097156		 # 	collision with: 0 8 0  and 1 8 0 
3097158		 # 	collision with: 10 5 0  and 2 6 0 
3097181		 # 	collision with: 4 2 0  and 2 3 0 
3097183		 # 	collision with: 5 3 0  and 1 4 0 
3097192		 # 	collision with: 0 2 0  and 7 4 0 
3097194		 # 	collision with: 2 1 0  and 6 2 0 
3097224		 # 	collision with: 5 4 0  and 1 5 0 
3097226		 # 	collision with: 6 1 0  and 2 2 0 
3097241		 # 	collision with: 1 3 0  and 6 0 1 
3097243		 # 	collision with: 0 0 0  and 7 2 0 
3097253		 # 	collision with: 1 3 0  and 8 5 0 
3097256		 # 	collision with: 7 0 0  and 1 2 0 
3097258		 # 	collision with: 0 1 0  and 2 2 0 
3097297		 # 	collision with: 1 5 0  and 6 6 0 
3097299		 # 	collision with: 5 3 0  and 1 4 0 
3097332		 # 	collision with: 7 1 0  and 7 0 1 
3097334		 # 	collision with: 10 1 0  and 1 2 0 
3097347		 # 	collision with: 4 2 0  and 6 2 0 
3097366		 # 	collision with: 5 1 0  and 3 2 0 
3097396		 # 	collision with: 1 4 0  and 10 6 0 
3097417		 # 	collision with: 7 8 0  and 5 1 1 
3097419		 # 	collision with: 5 3 0  and 1 4 0 
3097428		 # 	collision with: 6 2 0  and 1 3 0 
3097430		 # 	collision with: 7 1 0  and 1 2 0 
3097465		 # 	collision with: 5 4 0  and 1 5 0 
3097467		 # 	collision with: 5 3 0  and 1 4 0 
3097504		 # 	collision with: 1 1 0  and 7 3 0 
3097506		 # 	collision with: 3 1 0  and 5 2 0 
3097509		 # 	collision with: 10 2 0  and 0 4 0 
3097511		 # 	collision with: 5 3 0  and 1 4 0 
3097521		 # 	collision with: 3 2 0  and 5 4 0 
3097523		 # 	collision with: 4 1 0  and 10 3 0 
3097536		 # 	collision with: 10 0 0  and 4 1 0 
3097538		 # 	collision with: 1 1 0  and 3 2 0 
3097568		 # 	collision with: 1 9 0  and 9 0 1 
3097570		 # 	collision with: 2 1 0  and 4 1 0 
3097581		 # 	collision with: 10 5 0  and 6 6 0 
3097583		 # 	collision with: 9 1 0  and 0 2 0 
3097600		 # 	collision with: 5 7 0  and 1 1 1 
3097602		 # 	collision with: 8 5 0  and 1 1 1 
3097604		 # 	collision with: 4 2 0  and 6 2 0 
3097606		 # 	collision with: 2 1 0  and 4 2 0 
3097608		 # 	collision with: 2 1 0  and 4 1 0 
3097610		 # 	collision with: 10 1 0  and 1 2 0 
3097612		 # 	collision with: 0 8 0  and 1 8 0 
3097614		 # 	collision with: 9 1 0  and 0 2 0 
3097616		 # 	collision with: 1 6 0  and 3 6 0 
3097618		 # 	collision with: 3 1 0  and 5 2 0 
3097620		 # 	collision with: 3 7 0  and 5 7 0 
3097622		 # 	collision with: 6 1 0  and 8 2 0 
3097624		 # 	collision with: 3 4 0  and 4 4 0 
3097628		 # 	collision with: 5 5 0  and 6 5 0 
3097630		 # 	collision with: 0 1 0  and 2 2 0 
3097632		 # 	collision with: 1 3 0  and 2 3 0 
3097634		 # 	collision with: 5 1 0  and 7 2 0 
3097636		 # 	collision with: 4 10 0  and 5 10 0 
3097638		 # 	collision with: 4 1 0  and 6 2 0 
3097640		 # 	collision with: 2 9 0  and 3 9 0 
3097642		 # 	collision with: 1 1 0  and 3 2 0 
3097665		 # 	collision with: 0 0 0  and 2 0 0 
3097667		 # 	collision with: 0 2 0  and 5 4 0 
3097676		 # 	collision with: 3 8 0  and 9 0 1 
3097678		 # 	collision with: 0 1 0  and 8 2 0 
3097708		 # 	collision with: 7 0 0  and 1 2 0 
3097710		 # 	collision with: 2 7 0  and 8 1 1 
3097725		 # 	collision with: 0 0 0  and 2 0 0 
3097727		 # 	collision with: 3 4 0  and 0 6 0 
3097737		 # 	collision with: 0 0 0  and 2 0 0 
3097739		 # 	collision with: 9 4 0  and 3 6 0 
3097740		 # 	collision with: 1 6 0  and 6 0 1 
3097742		 # 	collision with: 9 6 0  and 3 1 1 
3097781		 # 	collision with: 0 0 0  and 2 0 0 
3097783		 # 	collision with: 2 0 0  and 5 1 0 
3097816		 # 	collision with: 2 2 0  and 7 3 0 
3097829		 # 	collision with: 0 0 0  and 2 0 0 
3097831		 # 	collision with: 7 9 0  and 2 2 1 
3097848		 # 	collision with: 6 3 0  and 9 4 0 
3097850		 # 	collision with: 10 2 0  and 3 0 1 
3097880		 # 	collision with: 1 1 0  and 8 2 0 
3097882		 # 	collision with: 2 0 0  and 3 2 0 
3097901		 # 	collision with: 0 0 0  and 2 0 0 
3097903		 # 	collision with: 9 5 0  and 8 0 1 
3097914		 # 	collision with: 4 2 0  and 0 1 1 
3097951		 # 	collision with: 9 5 0  and 4 1 1 
3097988		 # 	collision with: 7 1 0  and 8 3 0 
3097990		 # 	collision with: 3 1 0  and 3 2 1 
3097993		 # 	collision with: 0 0 0  and 2 0 0 
3097995		 # 	collision with: 0 6 0  and 2 3 1 
3098005		 # 	collision with: 0 0 0  and 2 0 0 
3098007		 # 	collision with: 2 9 0  and 3 0 1 
3098020		 # 	collision with: 10 5 0  and 10 1 1 
3098022		 # 	collision with: 8 4 0  and 6 5 0 
3098052		 # 	collision with: 9 5 0  and 9 1 1 
3098054		 # 	collision with: 9 0 0  and 2 1 0 
3098065		 # 	collision with: 0 0 0  and 2 0 0 
3098067		 # 	collision with: 8 3 0  and 2 0 1 
3098084		 # 	collision with: 6 9 0  and 0 0 1 
3098086		 # 	collision with: 5 3 0  and 6 4 0 
3098088		 # 	collision with: 2 1 0  and 4 1 0 
3098090		 # 	collision with: 2 1 0  and 4 3 0 
3098092		 # 	collision with: 1 6 0  and 3 6 0 
3098094		 # 	collision with: 4 0 0  and 6 2 0 
3098096		 # 	collision with: 3 4 0  and 4 4 0 
3098100		 # 	collision with: 1 3 0  and 2 3 0 
3098102		 # 	collision with: 7 2 0  and 8 3 0 
3098104		 # 	collision with: 2 9 0  and 3 9 0 
3098106		 # 	collision with: 0 2 0  and 2 4 0 
3098108		 # 	collision with: 4 2 0  and 6 2 0 
3098110		 # 	collision with: 3 4 0  and 4 5 0 
3098112		 # 	collision with: 0 8 0  and 1 8 0 
3098114		 # 	collision with: 9 5 0  and 2 1 1 
3098116		 # 	collision with: 3 7 0  and 5 7 0 
3098118		 # 	collision with: 9 3 0  and 0 5 0 
3098120		 # 	collision with: 5 5 0  and 6 5 0 
3098122		 # 	collision with: 1 5 0  and 2 6 0 
3098124		 # 	collision with: 4 10 0  and 5 10 0 
3098126		 # 	collision with: 0 0 0  and 1 1 0 
3098149		 # 	collision with: 2 0 0  and 0 1 0 
3098151		 # 	collision with: 9 3 0  and 0 5 0 
3098160		 # 	collision with: 7 0 0  and 1 2 0 
3098162		 # 	collision with: 9 10 0  and 6 0 1 
3098192		 # 	collision with: 0 3 0  and 9 2 1 
3098209		 # 	collision with: 2 0 0  and 0 1 0 
3098211		 # 	collision with: 5 5 0  and 6 5 0 
3098221		 # 	collision with: 2 0 0  and 0 1 0 
3098223		 # 	collision with: 3 4 0  and 4 5 0 
3098224		 # 	collision with: 3 1 0  and 9 2 0 
3098226		 # 	collision with: 0 1 0  and 8 2 0 
3098265		 # 	collision with: 2 0 0  and 0 1 0 
3098267		 # 	collision with: 7 3 0  and 5 4 0 
3098300		 # 	collision with: 6 4 0  and 3 0 1 
3098302		 # 	collision with: 2 5 0  and 7 6 0 
3098313		 # 	collision with: 2 0 0  and 0 1 0 
3098315		 # 	collision with: 7 5 0  and 5 2 1 
3098332		 # 	collision with: 6 3 0  and 1 0 1 
3098334		 # 	collision with: 8 6 0  and 1 0 1 
3098364		 # 	collision with: 3 0 0  and 2 1 0 
3098366		 # 	collision with: 7 2 0  and 6 3 0 
3098385		 # 	collision with: 2 0 0  and 0 1 0 
3098396		 # 	collision with: 5 3 0  and 3 4 0 
3098398		 # 	collision with: 9 0 0  and 4 1 0 
3098433		 # 	collision with: 2 0 0  and 0 1 0 
3098472		 # 	collision with: 6 1 0  and 3 3 0 
3098474		 # 	collision with: 4 4 0  and 7 5 0 
3098477		 # 	collision with: 2 0 0  and 0 1 0 
3098479		 # 	collision with: 4 1 0  and 10 3 0 
3098491		 # 	collision with: 1 8 0  and 8 0 1 
3098506		 # 	collision with: 0 0 0  and 3 2 0 
3098536		 # 	collision with: 4 5 0  and 5 6 0 
3098538		 # 	collision with: 0 6 0  and 7 1 1 
3098549		 # 	collision with: 2 0 0  and 0 1 0 
3098551		 # 	collision with: 2 1 0  and 4 1 0 
3098574		 # 	collision with: 4 3 0  and 4 5 0 
3098578		 # 	collision with: 4 0 0  and 4 1 0 
3098582		 # 	collision with: 4 2 0  and 4 3 0 
3098586		 # 	collision with: 4 4 0  and 4 5 0 
3098590		 # 	collision with: 4 0 0  and 4 2 0 
3098594		 # 	collision with: 4 2 0  and 4 4 0 
3098598		 # 	collision with: 4 4 0  and 4 6 0 
3098602		 # 	collision with: 4 1 0  and 4 2 0 
3098606		 # 	collision with: 4 3 0  and 4 4 0 
3098610		 # 	collision with: 4 5 0  and 4 6 0 
3098617		 # 	collision with: 6 1 0  and 7 2 0 
3098619		 # 	collision with: 2 4 0  and 8 6 0 
3098628		 # 	collision with: 0 0 0  and 4 0 0 
3098661		 # 	collision with: 1 4 0  and 10 6 0 
3098663		 # 	collision with: 7 2 0  and 5 4 0 
3098688		 # 	collision with: 0 0 0  and 4 0 0 
3098701		 # 	collision with: 1 1 0  and 0 2 0 
3098703		 # 	collision with: 10 3 0  and 8 5 0 
3098704		 # 	collision with: 0 0 0  and 4 0 0 
3098764		 # 	collision with: 0 0 0  and 4 0 0 
3098773		 # 	collision with: 8 2 0  and 4 3 0 
3098775		 # 	collision with: 6 2 0  and 7 4 0 
3098805		 # 	collision with: 4 4 0  and 9 5 0 
3098807		 # 	collision with: 1 10 0  and 3 0 1 
3098824		 # 	collision with: 0 0 0  and 4 0 0 
3098840		 # 	collision with: 0 0 0  and 4 0 0 
3098861		 # 	collision with: 1 1 0  and 6 3 0 
3098863		 # 	collision with: 9 0 0  and 8 2 0 
3098893		 # 	collision with: 9 2 0  and 0 3 0 
3098895		 # 	collision with: 6 5 0  and 2 0 1 
3098900		 # 	collision with: 0 0 0  and 4 0 0 
3098921		 # 	collision with: 5 4 0  and 2 6 0 
3098923		 # 	collision with: 8 8 0  and 1 0 1 
3098960		 # 	collision with: 0 0 0  and 4 0 0 
3098976		 # 	collision with: 0 0 0  and 4 0 0 
3099005		 # 	collision with: 10 4 0  and 1 6 0 
3099007		 # 	collision with: 4 2 0  and 0 1 1 
3099036		 # 	collision with: 0 0 0  and 4 0 0 
3099049		 # 	collision with: 10 6 0  and 9 0 1 
3099051		 # 	collision with: 0 1 0  and 1 1 0 
3099052		 # 	collision with: 5 7 0  and 6 0 1 
3099054		 # 	collision with: 2 1 0  and 1 2 0 
3099056		 # 	collision with: 3 10 0  and 4 10 0 
3099058		 # 	collision with: 10 0 0  and 9 1 0 
3099060		 # 	collision with: 5 5 0  and 6 5 0 
3099062		 # 	collision with: 2 1 0  and 1 2 0 
3099064		 # 	collision with: 2 7 0  and 3 7 0 
3099066		 # 	collision with: 2 1 0  and 1 2 0 
3099068		 # 	collision with: 0 8 0  and 2 8 0 
3099070		 # 	collision with: 2 1 0  and 1 2 0 
3099072		 # 	collision with: 4 2 0  and 5 2 0 
3099074		 # 	collision with: 2 1 0  and 1 2 0 
3099076		 # 	collision with: 4 9 0  and 6 9 0 
3099078		 # 	collision with: 2 1 0  and 1 2 0 
3099080		 # 	collision with: 2 3 0  and 4 3 0 
3099082		 # 	collision with: 2 1 0  and 1 2 0 
3099084		 # 	collision with: 1 4 0  and 2 4 0 
3099088		 # 	collision with: 3 6 0  and 5 6 0 
3099090		 # 	collision with: 2 1 0  and 1 2 0 
3099092		 # 	collision with: 0 1 0  and 1 1 0 
3099094		 # 	collision with: 2 1 0  and 1 2 0 
3099101		 # 	collision with: 1 2 0  and 2 0 1 
3099112		 # 	collision with: 0 10 0  and 3 2 1 
3099114		 # 	collision with: 2 1 0  and 1 2 0 
3099147		 # 	collision with: 6 6 0  and 5 7 0 
3099174		 # 	collision with: 2 1 0  and 1 2 0 
3099185		 # 	collision with: 2 5 0  and 1 6 0 
3099187		 # 	collision with: 5 2 0  and 4 3 0 
3099188		 # 	collision with: 3 0 0  and 7 2 0 
3099190		 # 	collision with: 2 1 0  and 1 2 0 
3099248		 # 	collision with: 2 1 0  and 5 2 0 
3099250		 # 	collision with: 2 1 0  and 1 2 0 
3099257		 # 	collision with: 10 4 0  and 2 5 0 
3099259		 # 	collision with: 7 0 0  and 1 1 0 
3099289		 # 	collision with: 6 2 0  and 10 4 0 
3099291		 # 	collision with: 8 1 0  and 5 2 0 
3099308		 # 	collision with: 6 3 0  and 0 5 0 
3099310		 # 	collision with: 2 1 0  and 1 2 0 
3099324		 # 	collision with: 9 7 0  and 9 1 1 
3099326		 # 	collision with: 2 1 0  and 1 2 0 
3099345		 # 	collision with: 10 2 0  and 9 4 0 
3099347		 # 	collision with: 6 4 0  and 10 6 0 
3099377		 # 	collision with: 10 3 0  and 8 4 0 
3099379		 # 	collision with: 3 8 0  and 6 2 1 
3099384		 # 	collision with: 6 10 0  and 8 0 1 
3099386		 # 	collision with: 6 0 0  and 2 1 0 
3099405		 # 	collision with: 6 0 0  and 8 1 0 
3099407		 # 	collision with: 1 6 0  and 0 0 1 
3099444		 # 	collision with: 2 6 0  and 0 0 1 
3099446		 # 	collision with: 2 1 0  and 1 2 0 
3099460		 # 	collision with: 1 4 0  and 10 6 0 
3099462		 # 	collision with: 2 1 0  and 1 2 0 
3099489		 # 	collision with: 8 6 0  and 0 7 0 
3099491		 # 	collision with: 10 1 0  and 1 2 0 
3099520		 # 	collision with: 0 0 0  and 1 1 0 
3099522		 # 	collision with: 2 1 0  and 1 2 0 
3099533		 # 	collision with: 1 4 0  and 3 0 1 
3099535		 # 	collision with: 2 0 0  and 6 1 0 
3099536		 # 	collision with: 5 1 0  and 1 1 1 
3099538		 # 	collision with: 8 5 0  and 6 6 0 
3099540		 # 	collision with: 4 9 0  and 6 9 0 
3099542		 # 	collision with: 7 3 0  and 3 5 0 
3099544		 # 	collision with: 3 10 0  and 4 10 0 
3099546		 # 	collision with: 8 1 0  and 4 3 0 
3099548		 # 	collision with: 2 3 0  and 4 3 0 
3099550		 # 	collision with: 4 2 0  and 2 3 0 
3099552		 # 	collision with: 5 5 0  and 6 5 0 
3099554		 # 	collision with: 5 0 0  and 3 1 0 
3099556		 # 	collision with: 1 4 0  and 2 4 0 
3099560		 # 	collision with: 2 7 0  and 3 7 0 
3099562		 # 	collision with: 10 1 0  and 8 2 0 
3099564		 # 	collision with: 3 6 0  and 5 6 0 
3099566		 # 	collision with: 9 3 0  and 7 4 0 
3099568		 # 	collision with: 0 8 0  and 2 8 0 
3099570		 # 	collision with: 1 9 0  and 3 0 1 
3099572		 # 	collision with: 0 1 0  and 1 1 0 
3099574		 # 	collision with: 3 0 0  and 10 2 0 
3099576		 # 	collision with: 4 2 0  and 5 2 0 
3099578		 # 	collision with: 2 2 0  and 9 4 0 
3099585		 # 	collision with: 3 0 0  and 7 2 0 
3099587		 # 	collision with: 7 5 0  and 7 0 1 
3099596		 # 	collision with: 8 5 0  and 10 6 0 
3099598		 # 	collision with: 3 1 0  and 3 0 1 
3099629		 # 	collision with: 0 0 0  and 9 2 0 
3099631		 # 	collision with: 0 4 0  and 10 5 0 
3099656		 # 	collision with: 10 6 0  and 1 0 1 
3099658		 # 	collision with: 4 5 0  and 2 0 1 
3099669		 # 	collision with: 9 3 0  and 7 5 0 
3099671		 # 	collision with: 6 6 0  and 5 7 0 
3099672		 # 	collision with: 5 1 0  and 3 1 1 
3099674		 # 	collision with: 6 8 0  and 1 0 1 
3099734		 # 	collision with: 10 2 0  and 0 3 0 
3099743		 # 	collision with: 6 5 0  and 1 6 0 
3099773		 # 	collision with: 4 3 0  and 6 5 0 
3099775		 # 	collision with: 3 5 0  and 6 6 0 
3099792		 # 	collision with: 7 8 0  and 5 0 1 
3099794		 # 	collision with: 4 3 0  and 4 4 0 
3099808		 # 	collision with: 0 1 0  and 9 2 0 
3099810		 # 	collision with: 10 1 0  and 1 2 0 
3099829		 # 	collision with: 9 3 0  and 4 5 0 
3099861		 # 	collision with: 10 3 0  and 6 4 0 
3099863		 # 	collision with: 7 1 0  and 10 2 0 
3099868		 # 	collision with: 3 8 0  and 2 1 1 
3099870		 # 	collision with: 5 5 0  and 0 0 1 
3099889		 # 	collision with: 8 4 0  and 3 6 0 
3099891		 # 	collision with: 3 1 0  and 3 0 1 
3099928		 # 	collision with: 10 2 0  and 9 4 0 
3099930		 # 	collision with: 3 3 0  and 2 5 0 
3099944		 # 	collision with: 4 0 0  and 1 1 0 
3099946		 # 	collision with: 0 0 0  and 5 2 0 
3099973		 # 	collision with: 3 1 0  and 2 0 1 
3099975		 # 	collision with: 1 5 0  and 5 0 1 
3100004		 # 	collision with: 4 4 0  and 7 6 0 
3100006		 # 	collision with: 6 2 0  and 7 4 0 
3100017		 # 	collision with: 2 4 0  and 9 6 0 
3100019		 # 	collision with: 3 0 0  and 7 1 0 
3100020		 # 	collision with: 10 6 0  and 6 0 1 
3100022		 # 	collision with: 5 2 0  and 10 4 0 
3100024		 # 	collision with: 0 8 0  and 2 8 0 
3100026		 # 	collision with: 2 3 0  and 10 4 0 
3100028		 # 	collision with: 1 4 0  and 2 4 0 
3100032		 # 	collision with: 3 10 0  and 4 10 0 
3100034		 # 	collision with: 5 2 0  and 2 3 0 
3100036		 # 	collision with: 4 2 0  and 5 2 0 
3100038		 # 	collision with: 8 1 0  and 5 2 0 
3100040		 # 	collision with: 3 6 0  and 5 6 0 
3100042		 # 	collision with: 10 4 0  and 4 6 0 
3100044		 # 	collision with: 5 5 0  and 6 5 0 
3100046		 # 	collision with: 10 4 0  and 7 5 0 
3100048		 # 	collision with: 4 9 0  and 6 9 0 
3100050		 # 	collision with: 0 0 0  and 1 1 1 
3100052		 # 	collision with: 0 1 0  and 1 1 0 
3100054		 # 	collision with: 0 0 0  and 5 2 0 
3100056		 # 	collision with: 2 7 0  and 3 7 0 
3100058		 # 	collision with: 0 0 0  and 8 1 0 
3100060		 # 	collision with: 2 3 0  and 4 3 0 
3100062		 # 	collision with: 2 3 0  and 7 5 0 
3100069		 # 	collision with: 3 8 0  and 4 0 1 
3100071		 # 	collision with: 7 1 0  and 0 3 0 
3100080		 # 	collision with: 5 4 0  and 6 6 0 
3100082		 # 	collision with: 10 4 0  and 3 1 1 
3100113		 # 	collision with: 10 4 0  and 9 5 0 
3100115		 # 	collision with: 5 2 0  and 4 3 0 
3100140		 # 	collision with: 6 3 0  and 0 4 0 
3100142		 # 	collision with: 4 1 0  and 4 2 0 
3100153		 # 	collision with: 4 2 0  and 3 3 0 
3100155		 # 	collision with: 2 4 0  and 0 6 0 
3100156		 # 	collision with: 7 0 0  and 10 2 0 
3100158		 # 	collision with: 7 10 0  and 9 1 1 
3100216		 # 	collision with: 9 2 0  and 0 4 0 
3100218		 # 	collision with: 5 9 0  and 7 1 1 
3100225		 # 	collision with: 3 0 0  and 7 2 0 
3100257		 # 	collision with: 9 1 0  and 5 3 0 
3100259		 # 	collision with: 2 0 1  and 0 2 1 
3100276		 # 	collision with: 3 0 0  and 6 1 0 
3100278		 # 	collision with: 6 0 0  and 8 2 0 
3100294		 # 	collision with: 4 2 0  and 2 3 0 
3100315		 # 	collision with: 3 5 0  and 6 6 0 
3100345		 # 	collision with: 0 0 0  and 1 1 0 
3100347		 # 	collision with: 3 6 0  and 8 1 1 
3100352		 # 	collision with: 8 3 0  and 4 5 0 
3100354		 # 	collision with: 10 4 0  and 4 5 0 
3100373		 # 	collision with: 3 1 0  and 5 3 0 
3100375		 # 	collision with: 2 4 0  and 8 6 0 
3100412		 # 	collision with: 4 1 0  and 4 0 1 
3100414		 # 	collision with: 1 3 0  and 8 4 0 
3100428		 # 	collision with: 2 5 0  and 1 6 0 
3100430		 # 	collision with: 4 1 0  and 2 3 0 
3100457		 # 	collision with: 6 3 0  and 3 4 0 
3100459		 # 	collision with: 9 7 0  and 3 0 1 
3100488		 # 	collision with: 6 7 0  and 8 0 1 
3100490		 # 	collision with: 3 0 0  and 5 1 0 
3100501		 # 	collision with: 1 1 0  and 9 2 0 
3100503		 # 	collision with: 4 0 0  and 8 1 0 
3100504		 # 	collision with: 1 2 0  and 2 0 1 
3100506		 # 	collision with: 6 4 0  and 9 6 0 
3100508		 # 	collision with: 2 7 0  and 3 7 0 
3100510		 # 	collision with: 6 0 0  and 2 1 0 
3100512		 # 	collision with: 4 9 0  and 6 9 0 
3100514		 # 	collision with: 3 4 0  and 10 5 0 
3100516		 # 	collision with: 3 6 0  and 5 6 0 
3100518		 # 	collision with: 9 0 0  and 1 2 0 
3100520		 # 	collision with: 3 10 0  and 4 10 0 
3100522		 # 	collision with: 5 5 0  and 1 6 0 
3100524		 # 	collision with: 0 8 0  and 2 8 0 
3100526		 # 	collision with: 2 2 0  and 5 4 0 
3100528		 # 	collision with: 2 3 0  and 4 3 0 
3100530		 # 	collision with: 0 1 0  and 3 3 0 
3100532		 # 	collision with: 0 1 0  and 1 1 0 
3100534		 # 	collision with: 4 3 0  and 7 5 0 
3100536		 # 	collision with: 5 5 0  and 6 5 0 
3100538		 # 	collision with: 10 2 0  and 6 3 0 
3100540		 # 	collision with: 4 2 0  and 5 2 0 
3100542		 # 	collision with: 1 3 0  and 8 4 0 
3100544		 # 	collision with: 1 4 0  and 2 4 0 
3100553		 # 	collision with: 9 1 0  and 5 3 0 
3100555		 # 	collision with: 5 2 0  and 10 4 0 
3100564		 # 	collision with: 8 2 0  and 4 3 0 
3100566		 # 	collision with: 3 10 0  and 4 10 0 
3100597		 # 	collision with: 4 2 0  and 3 3 0 
3100599		 # 	collision with: 10 0 0  and 9 1 0 
3100624		 # 	collision with: 3 3 0  and 7 1 1 
3100626		 # 	collision with: 5 5 0  and 6 5 0 
3100637		 # 	collision with: 0 0 0  and 9 2 0 
3100640		 # 	collision with: 9 0 1  and 6 2 1 
3100642		 # 	collision with: 2 7 0  and 3 7 0 
3100700		 # 	collision with: 3 4 0  and 0 5 0 
3100702		 # 	collision with: 0 8 0  and 2 8 0 
3100709		 # 	collision with: 5 10 0  and 6 1 1 
3100711		 # 	collision with: 3 2 0  and 9 3 0 
3100741		 # 	collision with: 9 3 0  and 4 5 0 
3100743		 # 	collision with: 4 4 0  and 4 5 0 
3100760		 # 	collision with: 6 1 0  and 7 2 0 
3100762		 # 	collision with: 4 2 0  and 5 2 0 
3100776		 # 	collision with: 2 6 0  and 2 0 1 
3100778		 # 	collision with: 4 9 0  and 6 9 0 
3100797		 # 	collision with: 10 4 0  and 1 6 0 
3100799		 # 	collision with: 2 3 0  and 4 5 0 
3100829		 # 	collision with: 9 0 0  and 4 1 0 
3100831		 # 	collision with: 2 3 0  and 4 3 0 
3100836		 # 	collision with: 8 3 0  and 6 1 1 
3100838		 # 	collision with: 2 3 0  and 4 3 0 
3100859		 # 	collision with: 0 0 0  and 8 1 0 
3100898		 # 	collision with: 1 4 0  and 2 4 0 
3100912		 # 	collision with: 6 2 0  and 4 4 0 
3100914		 # 	collision with: 2 4 0  and 0 6 0 
3100941		 # 	collision with: 3 5 0  and 6 2 1 
3100943		 # 	collision with: 9 0 0  and 1 2 0 
3100972		 # 	collision with: 9 0 0  and 4 1 0 
3100974		 # 	collision with: 0 1 0  and 1 1 0 
3100985		 # 	collision with: 6 4 0  and 5 6 0 
3100987		 # 	collision with: 5 0 0  and 9 1 0 
3100988		 # 	collision with: 6 7 0  and 4 0 1 
3100990		 # 	collision with: 9 5 0  and 10 7 0 
3100992		 # 	collision with: 3 6 0  and 5 6 0 
3100994		 # 	collision with: 4 3 0  and 10 4 0 
3100996		 # 	collision with: 2 3 0  and 4 3 0 
3100998		 # 	collision with: 6 2 0  and 7 4 0 
3101000		 # 	collision with: 4 2 0  and 5 2 0 
3101002		 # 	collision with: 5 1 0  and 6 3 0 
3101004		 # 	collision with: 2 7 0  and 3 7 0 
3101006		 # 	collision with: 5 4 0  and 0 5 0 
3101008		 # 	collision with: 3 10 0  and 4 10 0 
3101010		 # 	collision with: 0 0 0  and 1 1 1 
3101012		 # 	collision with: 0 1 0  and 1 1 0 
3101014		 # 	collision with: 6 5 0  and 1 6 0 
3101016		 # 	collision with: 1 4 0  and 2 4 0 
3101020		 # 	collision with: 4 9 0  and 6 9 0 
3101022		 # 	collision with: 2 1 0  and 8 2 0 
3101024		 # 	collision with: 0 8 0  and 2 8 0 
3101026		 # 	collision with: 4 0 0  and 5 2 0 
3101028		 # 	collision with: 5 5 0  and 6 5 0 
3101030		 # 	collision with: 7 3 0  and 8 5 0 
3101037		 # 	collision with: 5 10 0  and 4 0 1 
3101039		 # 	collision with: 5 3 0  and 6 4 0 
3101048		 # 	collision with: 9 1 1  and 5 2 1 
3101050		 # 	collision with: 0 0 0  and 1 1 1 
3101081		 # 	collision with: 9 0 0  and 8 1 0 
3101083		 # 	collision with: 10 3 0  and 8 5 0 
3101108		 # 	collision with: 8 5 0  and 9 6 0 
3101110		 # 	collision with: 7 2 0  and 1 0 1 
3101121		 # 	collision with: 1 4 0  and 10 6 0 
3101123		 # 	collision with: 4 1 0  and 2 3 0 
3101124		 # 	collision with: 10 3 0  and 8 4 0 
3101126		 # 	collision with: 5 3 0  and 6 4 0 
3101184		 # 	collision with: 4 4 0  and 9 5 0 
3101186		 # 	collision with: 8 1 0  and 4 3 0 
3101193		 # 	collision with: 3 1 0  and 5 3 0 
3101195		 # 	collision with: 4 0 0  and 5 2 0 
3101225		 # 	collision with: 10 8 0  and 9 1 1 
3101227		 # 	collision with: 4 2 0  and 5 2 0 
3101244		 # 	collision with: 9 6 0  and 2 3 1 
3101246		 # 	collision with: 4 8 0  and 0 1 1 
3101260		 # 	collision with: 0 4 0  and 9 0 1 
3101262		 # 	collision with: 7 2 0  and 6 0 1 
3101281		 # 	collision with: 8 3 0  and 0 0 1 
3101283		 # 	collision with: 8 3 0  and 7 1 1 
3101313		 # 	collision with: 8 5 0  and 5 1 1 
3101315		 # 	collision with: 0 8 0  and 10 0 1 
3101320		 # 	collision with: 9 2 0  and 0 3 0 
3101322		 # 	collision with: 4 2 0  and 4 4 0 
3101341		 # 	collision with: 8 10 0  and 0 1 1 
3101343		 # 	collision with: 4 0 1  and 5 1 1 
3101380		 # 	collision with: 4 0 0  and 9 2 0 
3101382		 # 	collision with: 7 5 0  and 5 1 1 
3101396		 # 	collision with: 9 0 0  and 8 1 0 
3101398		 # 	collision with: 5 2 0  and 4 3 0 
3101425		 # 	collision with: 0 4 0  and 8 6 0 
3101458		 # 	collision with: 9 0 0  and 1 2 0 
3101471		 # 	collision with: 6 0 0  and 10 1 0 
3101472		 # 	collision with: 1 5 0  and 2 0 1 
3101474		 # 	collision with: 7 0 0  and 1 1 0 
3101476		 # 	collision with: 5 5 0  and 6 5 0 
3101478		 # 	collision with: 1 4 0  and 0 6 0 
3101480		 # 	collision with: 0 8 0  and 2 8 0 
3101482		 # 	collision with: 8 5 0  and 2 6 0 
3101484		 # 	collision with: 4 9 0  and 6 9 0 
3101486		 # 	collision with: 3 3 0  and 2 5 0 
3101488		 # 	collision with: 1 4 0  and 2 4 0 
3101492		 # 	collision with: 0 1 0  and 1 1 0 
3101494		 # 	collision with: 1 3 0  and 6 4 0 
3101496		 # 	collision with: 3 10 0  and 4 10 0 
3101498		 # 	collision with: 5 1 0  and 10 2 0 
3101500		 # 	collision with: 2 7 0  and 3 7 0 
3101502		 # 	collision with: 9 0 0  and 8 2 0 
3101504		 # 	collision with: 4 2 0  and 5 2 0 
3101506		 # 	collision with: 7 7 0  and 10 0 1 
3101508		 # 	collision with: 2 3 0  and 4 3 0 
3101510		 # 	collision with: 5 2 0  and 4 4 0 
3101512		 # 	collision with: 3 6 0  and 5 6 0 
3101514		 # 	collision with: 3 2 0  and 8 3 0 
3101523		 # 	collision with: 7 0 0  and 0 1 0 
3101534		 # 	collision with: 1 1 0  and 3 3 0 
3101565		 # 	collision with: 9 3 0  and 7 5 0 
3101592		 # 	collision with: 9 2 0  and 3 4 0 
3101594		 # 	collision with: 4 5 0  and 3 0 1 
3101605		 # 	collision with: 7 3 0  and 6 4 0 
3101607		 # 	collision with: 7 0 0  and 0 1 0 
3101608		 # 	collision with: 4 3 0  and 6 5 0 
3101610		 # 	collision with: 0 0 0  and 1 1 1 
3101668		 # 	collision with: 6 0 0  and 4 1 0 
3101670		 # 	collision with: 4 0 0  and 4 2 0 
3101677		 # 	collision with: 9 2 0  and 3 4 0 
3101679		 # 	collision with: 7 0 0  and 0 1 0 
3101709		 # 	collision with: 8 4 0  and 5 6 0 
3101711		 # 	collision with: 7 0 0  and 0 1 0 
3101728		 # 	collision with: 3 5 0  and 10 6 0 
3101730		 # 	collision with: 3 3 0  and 9 5 0 
3101744		 # 	collision with: 9 0 1  and 3 1 1 
3101746		 # 	collision with: 4 1 0  and 1 0 1 
3101765		 # 	collision with: 6 0 0  and 8 1 0 
3101767		 # 	collision with: 7 0 0  and 0 1 0 
3101797		 # 	collision with: 3 2 0  and 0 0 1 
3101799		 # 	collision with: 7 0 0  and 0 1 0 
3101804		 # 	collision with: 0 2 0  and 6 3 0 
3101806		 # 	collision with: 2 1 0  and 8 2 0 
3101825		 # 	collision with: 2 5 0  and 0 0 1 
3101827		 # 	collision with: 7 0 0  and 0 1 0 
3101864		 # 	collision with: 3 2 0  and 7 2 1 
3101866		 # 	collision with: 2 3 0  and 10 4 0 
3101880		 # 	collision with: 7 3 0  and 6 4 0 
3101882		 # 	collision with: 3 5 0  and 2 6 0 
3101909		 # 	collision with: 10 1 0  and 3 3 0 
3101911		 # 	collision with: 7 0 0  and 0 1 0 
3101940		 # 	collision with: 2 1 0  and 4 2 0 
3101942		 # 	collision with: 3 4 0  and 1 5 0 
3101953		 # 	collision with: 4 2 0  and 2 0 1 
3101955		 # 	collision with: 7 0 0  and 0 1 0 
3101956		 # 	collision with: 10 9 0  and 2 0 1 
3101958		 # 	collision with: 9 9 0  and 4 0 1 
3101960		 # 	collision with: 1 4 0  and 2 4 0 
3101964		 # 	collision with: 4 2 0  and 5 2 0 
3101966		 # 	collision with: 8 0 0  and 1 1 0 
3101968		 # 	collision with: 5 5 0  and 6 5 0 
3101970		 # 	collision with: 4 0 0  and 8 1 0 
3101972		 # 	collision with: 0 1 0  and 1 1 0 
3101974		 # 	collision with: 2 0 0  and 6 1 0 
3101976		 # 	collision with: 2 3 0  and 4 3 0 
3101978		 # 	collision with: 3 0 0  and 7 1 0 
3101980		 # 	collision with: 0 8 0  and 2 8 0 
3101982		 # 	collision with: 0 0 0  and 4 1 0 
3101984		 # 	collision with: 3 10 0  and 4 10 0 
3101986		 # 	collision with: 10 5 0  and 7 7 0 
3101988		 # 	collision with: 3 6 0  and 5 6 0 
3101990		 # 	collision with: 10 0 0  and 3 1 0 
3101992		 # 	collision with: 4 9 0  and 6 9 0 
3101994		 # 	collision with: 6 0 0  and 10 1 0 
3101996		 # 	collision with: 2 7 0  and 3 7 0 
3101998		 # 	collision with: 5 0 0  and 9 1 0 
7.52167secs	4880
