# prime 11
# degree 2
# input variables 3
# output variables 4
# reload computed balance functions from file balance-1421of3248-p11d2m3-debug.log
# p = 11
# n = 4
# smalldomain p^m 1331
# domain p^n 14641
#	 p^2 = 121
#	 p^3 = 1331
#	 p^4 = 14641
#	 p^5 = 161051
#	 p^6 = 1771561
#	 p^7 = 19487171
#	 p^8 = 214358881
#	 p^9 = 2357947691
opening file : balance-1421of3248-p11d2m3-debug.log
reloading for step2...
8526093		 # 	collision with: 9 8 1 0  and 9 7 2 0 
8526095		 # 	collision with: 10 8 0 0  and 3 0 1 0 
8526105		 # 	collision with: 5 4 0 0  and 7 3 1 0 
8526107		 # 	collision with: 6 7 0 0  and 6 2 2 0 
8526135		 # 	collision with: 2 0 2 0  and 10 2 2 0 
8526144		 # 	collision with: 5 8 0 0  and 8 2 1 0 
8526146		 # 	collision with: 0 7 0 0  and 2 1 1 0 
8526159		 # 	collision with: 2 2 0 0  and 2 4 0 0 
8526177		 # 	collision with: 1 4 1 0  and 1 5 1 0 
8526179		 # 	collision with: 3 6 0 0  and 8 8 1 0 
8526201		 # 	collision with: 9 2 0 0  and 2 4 0 0 
8526203		 # 	collision with: 2 2 0 0  and 2 4 0 0 
8526229		 # 	collision with: 2 3 1 0  and 2 4 1 0 
8526231		 # 	collision with: 8 8 0 0  and 0 8 1 0 
8526241		 # 	collision with: 7 3 0 0  and 10 10 1 0 
8526243		 # 	collision with: 6 5 0 0  and 5 2 2 0 
8526369		 # 	collision with: 1 3 0 0  and 5 3 1 0 
8526371		 # 	collision with: 8 2 0 0  and 2 4 0 0 
8526401		 # 	collision with: 8 2 0 0  and 8 4 0 0 
8526403		 # 	collision with: 4 2 0 0  and 6 2 0 0 
8526417		 # 	collision with: 10 3 0 0  and 10 10 1 0 
8526419		 # 	collision with: 1 9 1 0  and 3 9 1 0 
8526449		 # 	collision with: 2 3 1 0  and 2 4 1 0 
8526451		 # 	collision with: 8 8 0 0  and 0 8 1 0 
8526577		 # 	collision with: 8 2 0 0  and 8 4 0 0 
8526579		 # 	collision with: 4 2 0 0  and 6 2 0 0 
8526589		 # 	collision with: 6 4 0 0  and 6 6 1 0 
8526591		 # 	collision with: 8 2 0 0  and 2 4 0 0 
8526617		 # 	collision with: 9 9 0 0  and 7 2 1 0 
8526619		 # 	collision with: 4 5 0 0  and 9 0 2 0 
8526628		 # 	collision with: 2 6 1 0  and 3 10 2 0 
8526630		 # 	collision with: 7 10 1 0  and 2 3 2 0 
8526641		 # 	collision with: 7 0 0 0  and 8 10 1 0 
8526643		 # 	collision with: 4 2 0 0  and 6 2 0 0 
8526663		 # 	collision with: 5 10 0 0  and 7 9 1 0 
8526685		 # 	collision with: 3 1 1 0  and 1 3 2 0 
8526687		 # 	collision with: 4 2 0 0  and 6 2 0 0 
8526713		 # 	collision with: 3 0 0 0  and 9 2 1 0 
8526715		 # 	collision with: 4 7 0 0  and 5 1 1 0 
8526725		 # 	collision with: 5 0 2 0  and 5 1 2 0 
8526727		 # 	collision with: 10 6 0 0  and 7 2 1 0 
8526853		 # 	collision with: 9 2 0 0  and 2 3 0 0 
8526855		 # 	collision with: 2 6 1 0  and 3 6 1 0 
8526885		 # 	collision with: 2 3 1 0  and 4 3 1 0 
8526887		 # 	collision with: 2 2 0 0  and 8 3 0 0 
8526901		 # 	collision with: 8 1 0 0  and 8 5 1 0 
8526903		 # 	collision with: 3 1 0 0  and 10 5 1 0 
8526933		 # 	collision with: 2 6 1 0  and 3 6 1 0 
8526935		 # 	collision with: 7 9 0 0  and 5 1 1 0 
8527061		 # 	collision with: 2 3 3 0  and 4 3 3 0 
8527063		 # 	collision with: 2 2 0 0  and 8 3 0 0 
8527073		 # 	collision with: 9 2 0 0  and 2 3 0 0 
8527075		 # 	collision with: 9 1 2 0  and 9 2 2 0 
8527101		 # 	collision with: 4 1 0 0  and 5 6 1 0 
8527103		 # 	collision with: 2 3 1 0  and 9 5 1 0 
8527112		 # 	collision with: 4 0 1 0  and 3 5 2 0 
8527114		 # 	collision with: 1 9 0 0  and 2 0 1 0 
8527125		 # 	collision with: 0 5 0 0  and 5 6 1 0 
8527127		 # 	collision with: 8 1 0 0  and 6 1 1 0 
8527145		 # 	collision with: 1 2 0 0  and 2 4 1 0 
8527147		 # 	collision with: 4 2 0 0  and 6 2 0 0 
8527171		 # 	collision with: 10 1 1 0  and 8 5 2 0 
8527197		 # 	collision with: 7 2 1 0  and 3 3 1 0 
8527199		 # 	collision with: 3 7 0 0  and 3 8 1 0 
8527209		 # 	collision with: 9 1 0 0  and 9 3 0 0 
8527211		 # 	collision with: 2 10 0 0  and 9 4 1 0 
8527337		 # 	collision with: 6 9 0 0  and 1 4 1 0 
8527339		 # 	collision with: 5 3 0 0  and 5 3 1 0 
8527369		 # 	collision with: 7 9 1 0  and 6 3 2 0 
8527371		 # 	collision with: 1 8 0 0  and 2 3 1 0 
8527385		 # 	collision with: 9 1 0 0  and 9 3 0 0 
8527417		 # 	collision with: 0 2 1 0  and 7 7 2 0 
8527419		 # 	collision with: 5 2 1 0  and 10 3 1 0 
8527545		 # 	collision with: 8 3 1 0  and 5 1 2 0 
8527547		 # 	collision with: 9 3 2 0  and 5 5 2 0 
8527559		 # 	collision with: 4 1 0 0  and 1 3 1 0 
8527585		 # 	collision with: 0 1 0 0  and 5 9 2 0 
8527596		 # 	collision with: 3 0 0 0  and 9 2 2 0 
8527598		 # 	collision with: 4 4 0 0  and 3 3 1 0 
8527609		 # 	collision with: 6 2 0 0  and 4 1 1 0 
8527629		 # 	collision with: 5 10 0 0  and 6 10 0 0 
8527631		 # 	collision with: 10 10 0 0  and 1 10 1 0 
8527653		 # 	collision with: 9 3 1 0  and 5 0 2 0 
8527655		 # 	collision with: 6 0 0 0  and 0 5 1 0 
8527681		 # 	collision with: 9 5 1 0  and 4 1 2 0 
8527693		 # 	collision with: 0 5 0 0  and 4 2 1 0 
8527695		 # 	collision with: 4 2 0 0  and 6 2 0 0 
8527823		 # 	collision with: 1 7 0 0  and 2 1 2 0 
8527853		 # 	collision with: 7 4 0 0  and 7 4 1 0 
8527855		 # 	collision with: 9 1 0 0  and 1 2 0 0 
8527871		 # 	collision with: 4 2 0 0  and 6 2 0 0 
8527901		 # 	collision with: 5 4 0 0  and 2 2 1 0 
8527903		 # 	collision with: 9 1 0 0  and 9 2 0 0 
8528029		 # 	collision with: 0 4 1 0  and 2 4 1 0 
8528031		 # 	collision with: 9 1 0 0  and 1 2 0 0 
8528041		 # 	collision with: 8 1 0 0  and 3 2 0 0 
8528043		 # 	collision with: 10 0 2 0  and 10 1 2 0 
8528069		 # 	collision with: 5 10 0 0  and 6 10 0 0 
8528071		 # 	collision with: 9 5 0 0  and 2 3 1 0 
8528080		 # 	collision with: 10 7 0 0  and 5 0 1 0 
8528082		 # 	collision with: 8 2 0 0  and 5 6 1 0 
8528093		 # 	collision with: 10 0 0 0  and 10 2 0 0 
8528095		 # 	collision with: 1 2 0 0  and 1 6 2 0 
8528113		 # 	collision with: 6 0 0 0  and 5 2 0 0 
8528115		 # 	collision with: 2 2 1 0  and 8 3 1 0 
8528137		 # 	collision with: 10 0 0 0  and 10 2 0 0 
8528139		 # 	collision with: 9 3 0 0  and 8 2 1 0 
8528165		 # 	collision with: 10 10 1 0  and 5 4 3 0 
8528167		 # 	collision with: 9 9 0 0  and 1 0 1 0 
8528177		 # 	collision with: 1 10 0 0  and 2 2 2 0 
8528179		 # 	collision with: 4 0 0 0  and 4 2 0 0 
8528305		 # 	collision with: 10 9 3 0  and 3 4 4 0 
8528307		 # 	collision with: 1 1 0 0  and 7 2 1 0 
8528337		 # 	collision with: 5 10 0 0  and 6 10 0 0 
8528339		 # 	collision with: 3 1 1 0  and 3 3 1 0 
8528353		 # 	collision with: 10 4 0 0  and 3 4 2 0 
8528355		 # 	collision with: 4 0 0 0  and 4 2 0 0 
8528385		 # 	collision with: 9 9 0 0  and 3 3 1 0 
8528387		 # 	collision with: 1 1 1 0  and 3 2 1 0 
8528513		 # 	collision with: 5 10 0 0  and 6 10 0 0 
8528515		 # 	collision with: 3 1 1 0  and 3 3 1 0 
8528525		 # 	collision with: 0 4 0 0  and 4 0 1 0 
8528527		 # 	collision with: 10 10 1 0  and 0 2 2 0 
8528553		 # 	collision with: 6 0 0 0  and 5 2 0 0 
8528555		 # 	collision with: 10 8 0 0  and 10 4 1 0 
8528564		 # 	collision with: 6 7 0 0  and 9 4 1 0 
8528566		 # 	collision with: 7 10 1 0  and 1 8 2 0 
8528577		 # 	collision with: 10 4 0 0  and 1 6 1 0 
8528579		 # 	collision with: 5 8 0 0  and 5 3 1 0 
8528597		 # 	collision with: 10 5 0 0  and 1 9 1 0 
8528599		 # 	collision with: 10 0 0 0  and 10 1 0 0 
8528621		 # 	collision with: 3 1 0 0  and 4 8 1 0 
8528623		 # 	collision with: 9 1 0 0  and 5 1 1 0 
8528649		 # 	collision with: 5 10 0 0  and 6 10 0 0 
8528651		 # 	collision with: 5 7 1 0  and 0 10 2 0 
8528661		 # 	collision with: 5 9 1 0  and 0 1 2 0 
8528663		 # 	collision with: 4 5 0 0  and 9 3 1 0 
8528789		 # 	collision with: 5 9 0 0  and 4 8 1 0 
8528791		 # 	collision with: 4 2 0 0  and 6 2 0 0 
8528821		 # 	collision with: 4 3 0 0  and 9 2 1 0 
8528823		 # 	collision with: 0 1 0 0  and 3 3 2 0 
8528837		 # 	collision with: 2 6 1 0  and 3 6 1 0 
8528839		 # 	collision with: 3 7 0 0  and 9 7 1 0 
8528869		 # 	collision with: 5 10 0 0  and 6 10 0 0 
8528997		 # 	collision with: 5 9 0 0  and 3 1 1 0 
8529009		 # 	collision with: 9 3 1 0  and 5 0 2 0 
8529011		 # 	collision with: 4 2 0 0  and 6 2 0 0 
8529037		 # 	collision with: 0 7 1 0  and 1 7 1 0 
8529039		 # 	collision with: 10 0 0 0  and 10 1 0 0 
8529112		 # 	collision with: 10 0 0 0  and 10 2 0 0 
8529114		 # 	collision with: 8 2 0 0  and 8 3 0 0 
8529124		 # 	collision with: 4 1 0 0  and 4 2 0 0 
8529126		 # 	collision with: 1 3 0 0  and 1 5 0 0 
8529147		 # 	collision with: 4 9 1 0  and 4 4 2 0 
8529156		 # 	collision with: 10 0 0 0  and 10 2 0 0 
8529158		 # 	collision with: 8 2 0 0  and 8 3 0 0 
8529176		 # 	collision with: 2 0 0 0  and 9 1 0 0 
8529178		 # 	collision with: 7 3 0 0  and 7 4 0 0 
8529188		 # 	collision with: 2 3 0 0  and 2 4 0 0 
8529190		 # 	collision with: 9 0 0 0  and 1 1 0 0 
8529196		 # 	collision with: 9 2 0 0  and 2 3 0 0 
8529198		 # 	collision with: 4 3 0 0  and 6 4 0 0 
8529213		 # 	collision with: 0 8 0 0  and 2 3 1 0 
8529215		 # 	collision with: 10 3 0 0  and 3 3 1 0 
8529217		 # 	collision with: 7 8 0 0  and 7 0 1 0 
8529219		 # 	collision with: 1 8 0 0  and 5 0 1 0 
8529225		 # 	collision with: 5 10 0 0  and 6 10 0 0 
8529227		 # 	collision with: 6 10 1 0  and 4 0 2 0 
8529257		 # 	collision with: 0 10 0 0  and 6 3 2 0 
8529259		 # 	collision with: 3 3 0 0  and 6 0 1 0 
8529260		 # 	collision with: 7 3 0 0  and 7 5 0 0 
8529262		 # 	collision with: 10 0 0 0  and 10 1 0 0 
8529264		 # 	collision with: 2 0 0 0  and 9 1 0 0 
8529266		 # 	collision with: 7 3 0 0  and 7 4 0 0 
8529280		 # 	collision with: 3 3 0 0  and 8 5 0 0 
8529282		 # 	collision with: 8 0 0 0  and 2 2 0 0 
8529296		 # 	collision with: 5 0 0 0  and 5 1 0 0 
8529298		 # 	collision with: 4 0 0 0  and 4 2 0 0 
8529328		 # 	collision with: 9 2 0 0  and 2 3 0 0 
8529330		 # 	collision with: 4 3 0 0  and 6 4 0 0 
8529344		 # 	collision with: 4 1 0 0  and 4 2 0 0 
8529346		 # 	collision with: 1 3 0 0  and 1 5 0 0 
8529357		 # 	collision with: 5 10 0 0  and 6 10 0 0 
8529359		 # 	collision with: 4 1 1 0  and 5 0 2 0 
8529360		 # 	collision with: 1 3 0 0  and 10 4 0 0 
8529362		 # 	collision with: 7 1 0 0  and 3 2 0 0 
8529364		 # 	collision with: 2 3 0 0  and 2 4 0 0 
8529366		 # 	collision with: 9 0 0 0  and 1 1 0 0 
8529369		 # 	collision with: 6 7 1 0  and 9 7 2 0 
8529371		 # 	collision with: 10 2 2 0  and 8 3 2 0 
8529409		 # 	collision with: 1 1 0 0  and 0 1 1 0 
8529411		 # 	collision with: 4 0 0 0  and 3 2 2 0 
8529413		 # 	collision with: 2 0 2 0  and 4 0 2 0 
8529415		 # 	collision with: 3 7 2 0  and 0 1 3 0 
8529428		 # 	collision with: 5 0 0 0  and 5 1 0 0 
8529430		 # 	collision with: 4 0 0 0  and 4 2 0 0 
8529436		 # 	collision with: 7 3 0 0  and 7 5 0 0 
8529438		 # 	collision with: 10 0 0 0  and 10 1 0 0 
8529448		 # 	collision with: 1 3 0 0  and 10 4 0 0 
8529450		 # 	collision with: 7 1 0 0  and 3 2 0 0 
8529468		 # 	collision with: 8 1 0 0  and 3 2 0 0 
8529470		 # 	collision with: 9 1 0 0  and 9 2 0 0 
8529483		 # 	collision with: 1 5 2 0  and 2 5 2 0 
8529500		 # 	collision with: 3 3 0 0  and 8 5 0 0 
8529502		 # 	collision with: 8 0 0 0  and 2 2 0 0 
8529512		 # 	collision with: 8 1 0 0  and 3 2 0 0 
8529514		 # 	collision with: 9 1 0 0  and 9 2 0 0 
8529532		 # 	collision with: 5 6 0 0  and 1 7 2 0 
8529534		 # 	collision with: 5 0 0 0  and 8 1 2 0 
8529596		 # 	collision with: 6 1 0 0  and 1 6 1 0 
8529598		 # 	collision with: 5 10 0 0  and 4 0 2 0 
8529608		 # 	collision with: 6 10 0 0  and 1 5 1 0 
8529610		 # 	collision with: 4 0 0 0  and 3 2 2 0 
8529629		 # 	collision with: 3 3 1 0  and 6 5 1 0 
8529640		 # 	collision with: 6 10 0 0  and 5 2 1 0 
8529642		 # 	collision with: 10 6 0 0  and 6 5 1 0 
8529660		 # 	collision with: 10 9 0 0  and 9 4 1 0 
8529662		 # 	collision with: 2 2 1 0  and 2 4 1 0 
8529672		 # 	collision with: 1 1 0 0  and 0 1 1 0 
8529674		 # 	collision with: 6 5 0 0  and 10 6 1 0 
8529680		 # 	collision with: 4 10 0 0  and 7 9 1 0 
8529682		 # 	collision with: 4 8 0 0  and 6 8 0 0 
8529697		 # 	collision with: 3 6 0 0  and 5 0 1 0 
8529703		 # 	collision with: 6 0 0 0  and 9 2 1 0 
8529709		 # 	collision with: 8 6 0 0  and 9 0 1 0 
8529711		 # 	collision with: 4 8 0 0  and 6 8 0 0 
8529741		 # 	collision with: 10 8 0 0  and 4 9 1 0 
8529743		 # 	collision with: 2 0 1 0  and 4 0 1 0 
8529744		 # 	collision with: 0 3 0 0  and 3 6 1 0 
8529746		 # 	collision with: 9 4 0 0  and 0 2 2 0 
8529750		 # 	collision with: 2 2 1 0  and 2 4 1 0 
8529764		 # 	collision with: 9 5 0 0  and 2 10 1 0 
8529766		 # 	collision with: 2 4 0 0  and 3 7 1 0 
8529780		 # 	collision with: 10 3 1 0  and 3 3 2 0 
8529782		 # 	collision with: 2 5 0 0  and 2 5 1 0 
8529812		 # 	collision with: 5 8 0 0  and 3 1 2 0 
8529828		 # 	collision with: 4 1 1 0  and 8 5 2 0 
8529830		 # 	collision with: 1 6 0 0  and 9 7 1 0 
8529841		 # 	collision with: 1 8 0 0  and 7 5 1 0 
8529843		 # 	collision with: 4 8 0 0  and 6 8 0 0 
8529844		 # 	collision with: 5 10 0 0  and 6 10 0 0 
8529846		 # 	collision with: 1 9 1 0  and 8 2 2 0 
8529850		 # 	collision with: 0 3 0 0  and 9 9 1 0 
8529853		 # 	collision with: 10 4 0 0  and 1 6 0 0 
8529855		 # 	collision with: 0 6 0 0  and 1 0 1 0 
8529893		 # 	collision with: 1 5 1 0  and 2 5 1 0 
8529895		 # 	collision with: 1 1 0 0  and 0 1 1 0 
8529899		 # 	collision with: 7 10 0 0  and 10 6 2 0 
8529912		 # 	collision with: 1 5 1 0  and 2 5 1 0 
8529914		 # 	collision with: 4 5 0 0  and 4 5 1 0 
8529920		 # 	collision with: 7 10 0 0  and 4 10 1 0 
8529922		 # 	collision with: 7 2 0 0  and 2 7 1 0 
8529932		 # 	collision with: 5 10 0 0  and 6 10 0 0 
8529934		 # 	collision with: 6 9 0 0  and 6 0 1 0 
8529952		 # 	collision with: 6 10 0 0  and 6 0 2 0 
8529954		 # 	collision with: 4 2 0 0  and 6 10 1 0 
8529965		 # 	collision with: 7 6 0 0  and 10 1 1 0 
8529967		 # 	collision with: 0 6 0 0  and 5 0 1 0 
8529984		 # 	collision with: 4 3 1 0  and 2 0 2 0 
8529986		 # 	collision with: 2 7 0 0  and 7 5 1 0 
8529996		 # 	collision with: 1 2 0 0  and 1 7 2 0 
8530016		 # 	collision with: 4 5 0 0  and 1 0 2 0 
8530018		 # 	collision with: 0 9 0 0  and 4 10 1 0 
8530080		 # 	collision with: 5 8 0 0  and 3 1 1 0 
8530082		 # 	collision with: 4 6 1 0  and 5 6 1 0 
8530092		 # 	collision with: 5 1 0 0  and 7 7 1 0 
8530113		 # 	collision with: 5 10 0 0  and 6 10 0 0 
8530115		 # 	collision with: 6 4 0 0  and 6 5 0 0 
8530124		 # 	collision with: 4 6 0 0  and 1 2 1 0 
8530126		 # 	collision with: 0 9 0 0  and 10 6 1 0 
8530144		 # 	collision with: 7 1 2 0  and 0 3 2 0 
8530146		 # 	collision with: 3 4 1 0  and 5 4 1 0 
8530156		 # 	collision with: 5 10 0 0  and 6 10 0 0 
8530158		 # 	collision with: 1 1 0 0  and 0 1 1 0 
8530166		 # 	collision with: 3 0 0 0  and 3 4 1 0 
8530181		 # 	collision with: 5 10 0 0  and 6 0 2 0 
8530183		 # 	collision with: 6 5 1 0  and 0 1 2 0 
8530185		 # 	collision with: 5 1 0 0  and 8 7 1 0 
8530193		 # 	collision with: 2 0 0 0  and 5 4 1 0 
8530195		 # 	collision with: 2 4 0 0  and 4 3 1 0 
8530225		 # 	collision with: 4 0 1 0  and 3 1 1 0 
8530227		 # 	collision with: 10 5 1 0  and 6 1 2 0 
8530228		 # 	collision with: 10 10 0 0  and 4 2 1 0 
8530230		 # 	collision with: 6 4 1 0  and 6 5 1 0 
8530232		 # 	collision with: 6 0 0 0  and 2 2 1 0 
8530234		 # 	collision with: 1 1 0 0  and 6 4 1 0 
8530248		 # 	collision with: 8 1 0 0  and 10 3 1 0 
8530250		 # 	collision with: 4 9 0 0  and 4 4 1 0 
8530264		 # 	collision with: 2 3 0 0  and 0 8 2 0 
8530266		 # 	collision with: 6 10 0 0  and 4 0 1 0 
8530296		 # 	collision with: 7 6 0 0  and 7 6 1 0 
8530298		 # 	collision with: 9 6 0 0  and 0 6 1 0 
8530312		 # 	collision with: 3 10 0 0  and 1 0 1 0 
8530314		 # 	collision with: 4 8 0 0  and 6 8 0 0 
8530325		 # 	collision with: 9 7 1 0  and 1 8 3 0 
8530328		 # 	collision with: 6 10 0 0  and 6 0 1 0 
8530330		 # 	collision with: 7 7 0 0  and 10 1 2 0 
8530332		 # 	collision with: 5 10 0 0  and 6 10 0 0 
8530334		 # 	collision with: 1 1 0 0  and 0 1 1 0 
8530337		 # 	collision with: 0 1 0 0  and 1 8 1 0 
8530339		 # 	collision with: 7 0 0 0  and 1 3 1 0 
8530377		 # 	collision with: 5 10 0 0  and 6 10 0 0 
8530379		 # 	collision with: 6 4 0 0  and 6 5 0 0 
8530381		 # 	collision with: 10 1 2 0  and 7 2 2 0 
8530383		 # 	collision with: 8 8 0 0  and 3 9 1 0 
8530396		 # 	collision with: 0 9 0 0  and 2 1 1 0 
8530398		 # 	collision with: 8 5 1 0  and 8 0 2 0 
8530406		 # 	collision with: 8 2 1 0  and 5 3 1 0 
8530416		 # 	collision with: 7 10 0 0  and 3 0 1 0 
8530436		 # 	collision with: 2 3 0 0  and 7 1 1 0 
8530438		 # 	collision with: 8 5 1 0  and 5 2 2 0 
8530449		 # 	collision with: 7 1 1 0  and 1 0 2 0 
8530451		 # 	collision with: 4 9 1 0  and 8 3 2 0 
8530468		 # 	collision with: 10 5 1 0  and 2 3 2 0 
8530470		 # 	collision with: 9 2 0 0  and 0 10 1 0 
8530480		 # 	collision with: 0 3 0 0  and 5 1 1 0 
8530482		 # 	collision with: 0 9 0 0  and 3 8 1 0 
8530500		 # 	collision with: 2 0 0 0  and 3 4 2 0 
8530502		 # 	collision with: 4 3 0 0  and 8 0 1 0 
8530564		 # 	collision with: 2 1 0 0  and 7 2 1 0 
8530566		 # 	collision with: 1 1 1 0  and 0 9 2 0 
8530578		 # 	collision with: 4 0 1 0  and 5 1 1 0 
8530597		 # 	collision with: 7 1 2 0  and 0 3 2 0 
8530599		 # 	collision with: 9 1 0 0  and 9 1 1 0 
8530608		 # 	collision with: 0 2 0 0  and 2 1 1 0 
8530610		 # 	collision with: 6 4 0 0  and 4 10 1 0 
8530628		 # 	collision with: 5 1 0 0  and 0 8 1 0 
8530630		 # 	collision with: 6 5 0 0  and 4 3 1 0 
8530640		 # 	collision with: 10 1 0 0  and 10 1 1 0 
8530642		 # 	collision with: 0 6 0 0  and 8 4 1 0 
8530648		 # 	collision with: 3 4 1 0  and 5 4 1 0 
8530650		 # 	collision with: 10 6 0 0  and 10 6 1 0 
8530665		 # 	collision with: 1 6 0 0  and 8 0 2 0 
8530667		 # 	collision with: 1 3 0 0  and 1 5 0 0 
8530669		 # 	collision with: 7 3 0 0  and 7 5 0 0 
8530671		 # 	collision with: 6 7 0 0  and 1 2 1 0 
8530679		 # 	collision with: 2 2 1 0  and 4 10 2 0 
8530709		 # 	collision with: 4 5 0 0  and 2 3 1 0 
8530711		 # 	collision with: 1 3 0 0  and 1 5 0 0 
8530712		 # 	collision with: 5 1 1 0  and 1 0 2 0 
8530714		 # 	collision with: 2 0 0 0  and 4 2 1 0 
8530716		 # 	collision with: 2 3 0 0  and 5 0 1 0 
8530718		 # 	collision with: 5 4 1 0  and 10 7 2 0 
8530732		 # 	collision with: 5 10 0 0  and 6 10 0 0 
8530734		 # 	collision with: 6 8 1 0  and 5 4 2 0 
8530748		 # 	collision with: 2 2 1 0  and 1 5 2 0 
8530750		 # 	collision with: 5 1 0 0  and 2 6 1 0 
8530780		 # 	collision with: 8 7 0 0  and 10 8 1 0 
8530782		 # 	collision with: 5 6 0 0  and 5 6 1 0 
8530796		 # 	collision with: 2 0 1 0  and 3 1 1 0 
8530798		 # 	collision with: 10 3 0 0  and 3 1 1 0 
8530809		 # 	collision with: 0 3 1 0  and 4 5 1 0 
8530811		 # 	collision with: 2 2 0 0  and 9 0 2 0 
8530812		 # 	collision with: 7 1 0 0  and 2 3 2 0 
8530816		 # 	collision with: 9 1 0 0  and 9 1 1 0 
8530818		 # 	collision with: 3 10 0 0  and 1 2 1 0 
8530823		 # 	collision with: 10 1 1 0  and 10 1 3 0 
8530861		 # 	collision with: 7 5 0 0  and 1 1 2 0 
8530863		 # 	collision with: 5 9 0 0  and 8 0 1 0 
8530865		 # 	collision with: 5 10 0 0  and 6 10 0 0 
8530867		 # 	collision with: 0 3 1 0  and 2 3 1 0 
8530880		 # 	collision with: 8 10 0 0  and 7 1 1 0 
8530888		 # 	collision with: 10 4 0 0  and 1 3 1 0 
8530890		 # 	collision with: 9 9 1 0  and 2 3 2 0 
8530900		 # 	collision with: 5 1 0 0  and 2 4 1 0 
8530902		 # 	collision with: 4 8 0 0  and 6 8 0 0 
8530920		 # 	collision with: 5 1 0 0  and 0 3 1 0 
8530922		 # 	collision with: 6 2 0 0  and 9 7 1 0 
8530933		 # 	collision with: 7 3 0 0  and 7 5 0 0 
8530935		 # 	collision with: 0 1 1 0  and 1 1 1 0 
8530952		 # 	collision with: 5 10 0 0  and 6 10 0 0 
8530954		 # 	collision with: 2 8 0 0  and 1 4 2 0 
8530966		 # 	collision with: 5 8 0 0  and 4 9 1 0 
8530984		 # 	collision with: 0 8 0 0  and 5 0 2 0 
8530986		 # 	collision with: 4 8 0 0  and 3 0 2 0 
8531048		 # 	collision with: 2 5 0 0  and 0 0 1 0 
8531050		 # 	collision with: 4 8 0 0  and 6 8 0 0 
8531060		 # 	collision with: 10 8 0 0  and 5 1 1 0 
8531062		 # 	collision with: 5 8 1 0  and 10 2 2 0 
8531081		 # 	collision with: 2 3 0 0  and 2 4 0 0 
8531083		 # 	collision with: 7 1 0 0  and 5 1 1 0 
8531092		 # 	collision with: 2 5 0 0  and 0 0 1 0 
8531112		 # 	collision with: 2 1 0 0  and 0 2 1 0 
8531114		 # 	collision with: 5 2 0 0  and 1 7 1 0 
8531124		 # 	collision with: 5 6 0 0  and 6 8 1 0 
8531126		 # 	collision with: 6 1 0 0  and 6 1 1 0 
8531132		 # 	collision with: 5 10 0 0  and 6 10 0 0 
8531134		 # 	collision with: 5 0 0 0  and 4 1 2 0 
8531149		 # 	collision with: 10 6 1 0  and 8 9 2 0 
8531151		 # 	collision with: 10 3 1 0  and 6 0 2 0 
8531153		 # 	collision with: 2 8 0 0  and 2 10 1 0 
8531155		 # 	collision with: 4 3 0 0  and 6 4 0 0 
8531161		 # 	collision with: 4 4 0 0  and 0 5 1 0 
8531163		 # 	collision with: 7 3 2 0  and 7 4 2 0 
8531193		 # 	collision with: 9 9 0 0  and 4 4 1 0 
8531195		 # 	collision with: 3 9 0 0  and 7 4 1 0 
8531196		 # 	collision with: 3 9 0 0  and 6 8 1 0 
8531198		 # 	collision with: 10 0 0 0  and 10 1 1 0 
8531200		 # 	collision with: 10 3 0 0  and 8 1 1 0 
8531202		 # 	collision with: 5 2 1 0  and 7 8 2 0 
8531216		 # 	collision with: 4 7 2 0  and 10 0 3 0 
8531218		 # 	collision with: 8 9 0 0  and 8 7 1 0 
8531234		 # 	collision with: 1 0 1 0  and 4 1 1 0 
8531264		 # 	collision with: 5 10 0 0  and 6 10 0 0 
8531266		 # 	collision with: 7 4 0 0  and 3 6 2 0 
8531282		 # 	collision with: 1 7 1 0  and 3 7 1 0 
8531293		 # 	collision with: 4 4 0 0  and 0 5 1 0 
8531295		 # 	collision with: 3 8 0 0  and 6 4 1 0 
8531296		 # 	collision with: 7 7 0 0  and 6 6 1 0 
8531298		 # 	collision with: 1 6 0 0  and 1 6 2 0 
8531300		 # 	collision with: 5 3 0 0  and 7 6 1 0 
8531305		 # 	collision with: 1 3 0 0  and 10 4 0 0 
8531307		 # 	collision with: 8 9 1 0  and 7 0 2 0 
8531345		 # 	collision with: 2 3 0 0  and 2 4 0 0 
8531347		 # 	collision with: 8 2 1 0  and 8 3 1 0 
8531349		 # 	collision with: 1 3 0 0  and 10 4 0 0 
8531351		 # 	collision with: 6 7 1 0  and 6 7 2 0 
8531364		 # 	collision with: 10 0 1 0  and 10 2 1 0 
8531366		 # 	collision with: 0 1 1 0  and 2 2 1 0 
8531372		 # 	collision with: 0 8 0 0  and 6 6 1 0 
8531374		 # 	collision with: 0 6 1 0  and 4 1 2 0 
8531384		 # 	collision with: 4 3 0 0  and 3 4 2 0 
8531386		 # 	collision with: 3 6 0 0  and 6 3 1 0 
8531404		 # 	collision with: 6 3 0 0  and 1 8 1 0 
8531406		 # 	collision with: 2 5 0 0  and 10 0 1 0 
8531417		 # 	collision with: 5 5 2 0  and 10 6 2 0 
8531419		 # 	collision with: 4 3 0 0  and 6 4 0 0 
8531436		 # 	collision with: 0 3 2 0  and 2 3 2 0 
8531438		 # 	collision with: 5 10 1 0  and 6 10 1 0 
8531448		 # 	collision with: 1 9 0 0  and 6 6 1 0 
8531450		 # 	collision with: 4 3 0 0  and 7 8 1 0 
8531468		 # 	collision with: 7 4 0 0  and 0 0 1 0 
8531470		 # 	collision with: 10 0 0 0  and 8 7 1 0 
8531532		 # 	collision with: 5 10 0 0  and 6 10 0 0 
8531534		 # 	collision with: 6 7 0 0  and 6 7 1 0 
8531544		 # 	collision with: 4 6 2 0  and 5 6 2 0 
8531546		 # 	collision with: 10 4 1 0  and 7 2 3 0 
8531565		 # 	collision with: 9 2 0 0  and 2 4 0 0 
8531567		 # 	collision with: 9 1 1 0  and 10 3 1 0 
8531576		 # 	collision with: 5 10 0 0  and 6 10 0 0 
8531578		 # 	collision with: 3 7 0 0  and 3 7 1 0 
8531598		 # 	collision with: 8 7 0 0  and 10 1 2 0 
8531608		 # 	collision with: 4 1 0 0  and 8 1 1 0 
8531610		 # 	collision with: 3 5 0 0  and 9 7 1 0 
8531616		 # 	collision with: 8 4 0 0  and 7 0 1 0 
8531618		 # 	collision with: 3 0 1 0  and 10 5 2 0 
8531633		 # 	collision with: 8 4 1 0  and 7 8 2 0 
8531635		 # 	collision with: 0 5 0 0  and 6 2 1 0 
8531637		 # 	collision with: 2 8 0 0  and 9 5 1 0 
8531639		 # 	collision with: 3 2 1 0  and 4 2 1 0 
8531645		 # 	collision with: 8 2 0 0  and 8 4 0 0 
8531647		 # 	collision with: 2 2 0 0  and 2 4 0 0 
8531677		 # 	collision with: 4 1 0 0  and 3 2 1 0 
8531679		 # 	collision with: 8 0 0 0  and 6 4 1 0 
8531680		 # 	collision with: 7 5 1 0  and 7 3 2 0 
8531682		 # 	collision with: 4 8 0 0  and 6 8 0 0 
8531684		 # 	collision with: 7 7 0 0  and 7 1 1 0 
8531686		 # 	collision with: 3 8 1 0  and 9 3 2 0 
8531700		 # 	collision with: 0 3 0 0  and 1 9 1 0 
8531702		 # 	collision with: 10 1 2 0  and 1 3 2 0 
8531716		 # 	collision with: 4 9 0 0  and 0 3 1 0 
8531718		 # 	collision with: 3 7 1 0  and 0 9 2 0 
8531748		 # 	collision with: 4 5 0 0  and 0 3 1 0 
8531750		 # 	collision with: 1 5 0 0  and 1 3 1 0 
8531764		 # 	collision with: 0 3 0 0  and 3 6 2 0 
8531777		 # 	collision with: 8 2 0 0  and 8 4 0 0 
8531779		 # 	collision with: 2 2 0 0  and 2 4 0 0 
8531780		 # 	collision with: 7 2 0 0  and 0 2 1 0 
8531782		 # 	collision with: 4 2 0 0  and 4 0 2 0 
8531784		 # 	collision with: 5 1 1 0  and 0 8 2 0 
8531786		 # 	collision with: 1 5 1 0  and 2 5 1 0 
8531789		 # 	collision with: 7 8 0 0  and 7 8 1 0 
8531829		 # 	collision with: 9 2 0 0  and 2 4 0 0 
8531831		 # 	collision with: 4 9 0 0  and 10 2 1 0 
8531833		 # 	collision with: 2 8 0 0  and 2 8 1 0 
8531835		 # 	collision with: 6 2 0 0  and 6 2 2 0 
8531848		 # 	collision with: 8 4 0 0  and 10 0 1 0 
8531850		 # 	collision with: 5 7 0 0  and 3 4 1 0 
8531856		 # 	collision with: 6 4 0 0  and 1 0 1 0 
8531868		 # 	collision with: 7 2 0 0  and 0 2 1 0 
8531870		 # 	collision with: 6 10 0 0  and 5 1 2 0 
8531890		 # 	collision with: 9 2 1 0  and 3 3 1 0 
8531901		 # 	collision with: 9 9 1 0  and 0 5 2 0 
8531903		 # 	collision with: 3 8 0 0  and 2 2 2 0 
8531920		 # 	collision with: 7 7 1 0  and 5 0 2 0 
8531922		 # 	collision with: 5 10 0 0  and 5 1 1 0 
8531932		 # 	collision with: 6 4 1 0  and 6 6 1 0 
8531934		 # 	collision with: 1 3 1 0  and 1 5 1 0 
8531952		 # 	collision with: 8 7 0 0  and 5 0 1 0 
8531954		 # 	collision with: 3 7 1 0  and 8 5 2 0 
21.9378secs	9303
