# prime 11
# degree 2
# input variables 3
# output variables 3
# reload computed balance functions from file balance-945of3248-p11d2m3-debug.log
# p = 11
# n = 3
# smalldomain p^m 1331
# domain p^n 1331
#	 p^2 = 121
#	 p^3 = 1331
#	 p^4 = 14641
#	 p^5 = 161051
#	 p^6 = 1771561
#	 p^7 = 19487171
#	 p^8 = 214358881
#	 p^9 = 2357947691
opening file : balance-945of3248-p11d2m3-debug.log
reloading for step2...
5670008		 # 	collision with: 5 3 0  and 9 0 1 
5670010		 # 	collision with: 3 7 0  and 2 2 1 
5670027		 # 	collision with: 7 5 0  and 1 0 1 
5670058		 # 	collision with: 2 4 0  and 4 5 0 
5670066		 # 	collision with: 4 2 0  and 4 4 0 
5670070		 # 	collision with: 4 3 0  and 4 5 0 
5670074		 # 	collision with: 4 4 0  and 4 6 0 
5670078		 # 	collision with: 4 0 0  and 4 1 0 
5670082		 # 	collision with: 4 1 0  and 4 2 0 
5670086		 # 	collision with: 4 2 0  and 4 3 0 
5670090		 # 	collision with: 4 3 0  and 4 4 0 
5670094		 # 	collision with: 4 4 0  and 4 5 0 
5670098		 # 	collision with: 4 5 0  and 4 6 0 
5670102		 # 	collision with: 4 0 0  and 4 2 0 
5670125		 # 	collision with: 1 4 0  and 10 5 0 
5670127		 # 	collision with: 2 2 0  and 1 4 0 
5670136		 # 	collision with: 0 0 0  and 4 0 0 
5670168		 # 	collision with: 0 0 0  and 4 0 0 
5670185		 # 	collision with: 2 4 0  and 4 5 0 
5670187		 # 	collision with: 2 2 0  and 1 4 0 
5670197		 # 	collision with: 6 2 0  and 2 4 0 
5670199		 # 	collision with: 2 2 0  and 1 4 0 
5670200		 # 	collision with: 0 0 0  and 4 0 0 
5670241		 # 	collision with: 8 1 0  and 2 0 1 
5670243		 # 	collision with: 2 2 0  and 1 4 0 
5670276		 # 	collision with: 0 0 0  and 4 0 0 
5670289		 # 	collision with: 2 3 0  and 0 0 1 
5670291		 # 	collision with: 4 0 0  and 8 2 0 
5670308		 # 	collision with: 0 0 0  and 4 0 0 
5670340		 # 	collision with: 0 0 0  and 4 0 0 
5670361		 # 	collision with: 10 5 0  and 2 3 1 
5670363		 # 	collision with: 2 2 0  and 1 4 0 
5670372		 # 	collision with: 0 0 0  and 4 0 0 
5670409		 # 	collision with: 1 9 0  and 9 0 1 
5670411		 # 	collision with: 1 1 0  and 3 3 0 
5670448		 # 	collision with: 0 0 0  and 4 0 0 
5670453		 # 	collision with: 9 1 0  and 5 2 0 
5670455		 # 	collision with: 2 2 0  and 1 4 0 
5670465		 # 	collision with: 0 1 0  and 5 3 0 
5670467		 # 	collision with: 3 3 0  and 0 4 0 
5670480		 # 	collision with: 0 0 0  and 4 0 0 
5670512		 # 	collision with: 0 0 0  and 4 0 0 
5670525		 # 	collision with: 8 1 0  and 0 2 0 
5670527		 # 	collision with: 8 2 0  and 1 3 0 
5670544		 # 	collision with: 1 6 0  and 8 2 1 
5670546		 # 	collision with: 5 4 0  and 4 5 0 
5670548		 # 	collision with: 5 10 0  and 6 10 0 
5670550		 # 	collision with: 5 4 0  and 4 5 0 
5670552		 # 	collision with: 0 5 0  and 2 5 0 
5670554		 # 	collision with: 5 4 0  and 4 5 0 
5670556		 # 	collision with: 4 7 0  and 6 7 0 
5670558		 # 	collision with: 5 4 0  and 4 5 0 
5670560		 # 	collision with: 1 8 0  and 2 8 0 
5670562		 # 	collision with: 5 4 0  and 4 5 0 
5670564		 # 	collision with: 0 2 0  and 1 2 0 
5670566		 # 	collision with: 5 4 0  and 4 5 0 
5670568		 # 	collision with: 3 9 0  and 4 9 0 
5670570		 # 	collision with: 5 4 0  and 4 5 0 
5670572		 # 	collision with: 2 3 0  and 3 3 0 
5670574		 # 	collision with: 5 4 0  and 4 5 0 
5670576		 # 	collision with: 4 4 0  and 5 4 0 
5670580		 # 	collision with: 2 6 0  and 4 6 0 
5670582		 # 	collision with: 5 4 0  and 4 5 0 
5670584		 # 	collision with: 3 1 0  and 5 1 0 
5670586		 # 	collision with: 6 0 0  and 5 1 0 
5670622		 # 	collision with: 5 4 0  and 4 5 0 
5670652		 # 	collision with: 0 0 0  and 1 1 1 
5670654		 # 	collision with: 5 4 0  and 4 5 0 
5670669		 # 	collision with: 1 6 0  and 6 0 1 
5670671		 # 	collision with: 0 5 0  and 5 6 0 
5670681		 # 	collision with: 7 3 0  and 3 5 0 
5670683		 # 	collision with: 4 1 0  and 8 2 0 
5670684		 # 	collision with: 8 4 0  and 4 6 0 
5670686		 # 	collision with: 5 4 0  and 4 5 0 
5670725		 # 	collision with: 10 9 0  and 6 0 1 
5670727		 # 	collision with: 3 0 0  and 7 2 0 
5670760		 # 	collision with: 3 3 0  and 0 0 1 
5670762		 # 	collision with: 3 0 0  and 5 2 0 
5670773		 # 	collision with: 6 3 0  and 1 0 1 
5670775		 # 	collision with: 9 0 0  and 3 1 0 
5670792		 # 	collision with: 0 1 0  and 5 3 0 
5670794		 # 	collision with: 5 4 0  and 4 5 0 
5670824		 # 	collision with: 1 2 0  and 0 3 0 
5670826		 # 	collision with: 3 1 0  and 10 2 0 
5670845		 # 	collision with: 4 1 0  and 9 2 0 
5670847		 # 	collision with: 8 0 0  and 1 2 0 
5670856		 # 	collision with: 5 7 0  and 4 2 1 
5670858		 # 	collision with: 5 4 0  and 4 5 0 
5670893		 # 	collision with: 3 7 0  and 4 0 1 
5670895		 # 	collision with: 6 10 0  and 10 0 1 
5670932		 # 	collision with: 2 4 0  and 9 5 0 
5670934		 # 	collision with: 5 4 0  and 4 5 0 
5670937		 # 	collision with: 5 3 0  and 9 4 0 
5670939		 # 	collision with: 1 4 0  and 4 0 1 
5670949		 # 	collision with: 4 1 0  and 4 0 1 
5670951		 # 	collision with: 10 7 0  and 7 0 1 
5670964		 # 	collision with: 2 2 0  and 4 4 0 
5670966		 # 	collision with: 2 3 0  and 0 4 0 
5670996		 # 	collision with: 4 0 0  and 1 2 0 
5670998		 # 	collision with: 5 4 0  and 4 5 0 
5671009		 # 	collision with: 1 2 0  and 4 2 1 
5671011		 # 	collision with: 0 0 0  and 1 1 1 
5671028		 # 	collision with: 0 5 0  and 6 0 1 
5671030		 # 	collision with: 6 0 0  and 2 2 0 
5671032		 # 	collision with: 3 9 0  and 4 9 0 
5671034		 # 	collision with: 1 2 0  and 10 3 0 
5671036		 # 	collision with: 5 10 0  and 6 10 0 
5671038		 # 	collision with: 2 3 0  and 0 4 0 
5671040		 # 	collision with: 2 3 0  and 3 3 0 
5671042		 # 	collision with: 10 4 0  and 6 6 0 
5671044		 # 	collision with: 0 5 0  and 2 5 0 
5671046		 # 	collision with: 7 1 0  and 3 3 0 
5671048		 # 	collision with: 4 4 0  and 5 4 0 
5671052		 # 	collision with: 4 7 0  and 6 7 0 
5671054		 # 	collision with: 4 5 0  and 2 6 0 
5671056		 # 	collision with: 2 6 0  and 4 6 0 
5671058		 # 	collision with: 10 3 0  and 5 1 1 
5671060		 # 	collision with: 1 8 0  and 2 8 0 
5671062		 # 	collision with: 10 0 0  and 8 1 0 
5671064		 # 	collision with: 3 1 0  and 5 1 0 
5671066		 # 	collision with: 3 4 0  and 1 5 0 
5671068		 # 	collision with: 0 2 0  and 1 2 0 
5671070		 # 	collision with: 9 3 0  and 5 5 0 
5671093		 # 	collision with: 10 2 0  and 8 3 0 
5671095		 # 	collision with: 1 8 0  and 8 0 1 
5671104		 # 	collision with: 10 4 0  and 1 5 0 
5671106		 # 	collision with: 5 1 0  and 10 2 0 
5671138		 # 	collision with: 4 2 0  and 1 3 0 
5671155		 # 	collision with: 1 2 0  and 6 3 0 
5671165		 # 	collision with: 8 4 0  and 4 6 0 
5671167		 # 	collision with: 9 5 0  and 4 6 0 
5671168		 # 	collision with: 4 4 0  and 6 5 0 
5671170		 # 	collision with: 9 5 0  and 4 6 0 
5671209		 # 	collision with: 2 1 0  and 2 0 1 
5671211		 # 	collision with: 6 2 0  and 7 3 0 
5671244		 # 	collision with: 0 3 0  and 2 5 0 
5671246		 # 	collision with: 0 9 0  and 5 0 1 
5671257		 # 	collision with: 7 3 0  and 10 5 0 
5671259		 # 	collision with: 8 3 0  and 2 4 0 
5671276		 # 	collision with: 10 2 0  and 8 3 0 
5671278		 # 	collision with: 4 3 0  and 4 4 0 
5671308		 # 	collision with: 0 2 0  and 9 4 0 
5671310		 # 	collision with: 4 4 0  and 2 6 0 
5671329		 # 	collision with: 1 0 1  and 9 2 1 
5671340		 # 	collision with: 7 4 0  and 9 5 0 
5671342		 # 	collision with: 10 3 0  and 0 0 1 
5671377		 # 	collision with: 10 5 0  and 2 6 0 
5671379		 # 	collision with: 8 10 0  and 0 0 1 
5671416		 # 	collision with: 9 4 0  and 0 5 0 
5671418		 # 	collision with: 8 2 0  and 5 4 0 
5671421		 # 	collision with: 7 1 0  and 8 1 1 
5671423		 # 	collision with: 1 1 0  and 8 1 1 
5671433		 # 	collision with: 2 2 0  and 8 3 0 
5671435		 # 	collision with: 8 2 0  and 4 3 0 
5671448		 # 	collision with: 0 0 0  and 1 2 0 
5671450		 # 	collision with: 8 3 0  and 9 0 1 
5671480		 # 	collision with: 8 0 0  and 2 1 0 
5671482		 # 	collision with: 0 6 0  and 8 0 1 
5671493		 # 	collision with: 7 1 0  and 7 0 1 
5671495		 # 	collision with: 3 0 0  and 5 2 0 
5671512		 # 	collision with: 10 10 0  and 3 0 1 
5671514		 # 	collision with: 4 2 0  and 1 3 0 
5671516		 # 	collision with: 1 8 0  and 2 8 0 
5671518		 # 	collision with: 6 0 0  and 3 1 0 
5671520		 # 	collision with: 4 4 0  and 5 4 0 
5671524		 # 	collision with: 5 10 0  and 6 10 0 
5671526		 # 	collision with: 3 4 0  and 8 6 0 
5671528		 # 	collision with: 0 2 0  and 1 2 0 
5671530		 # 	collision with: 5 1 0  and 2 2 0 
5671532		 # 	collision with: 2 6 0  and 4 6 0 
5671534		 # 	collision with: 7 0 0  and 1 2 0 
5671536		 # 	collision with: 0 5 0  and 2 5 0 
5671538		 # 	collision with: 5 2 0  and 10 4 0 
5671540		 # 	collision with: 3 9 0  and 4 9 0 
5671542		 # 	collision with: 2 4 0  and 10 5 0 
5671544		 # 	collision with: 3 1 0  and 5 1 0 
5671546		 # 	collision with: 6 1 0  and 0 3 0 
5671548		 # 	collision with: 4 7 0  and 6 7 0 
5671550		 # 	collision with: 1 5 0  and 9 6 0 
5671552		 # 	collision with: 2 3 0  and 3 3 0 
5671554		 # 	collision with: 10 6 0  and 0 0 1 
5671577		 # 	collision with: 9 1 0  and 7 2 0 
5671579		 # 	collision with: 5 4 0  and 4 5 0 
5671588		 # 	collision with: 0 10 0  and 3 0 1 
5671590		 # 	collision with: 9 3 0  and 5 5 0 
5671620		 # 	collision with: 9 0 0  and 4 2 0 
5671622		 # 	collision with: 5 0 0  and 8 1 0 
5671637		 # 	collision with: 2 5 0  and 6 6 0 
5671639		 # 	collision with: 5 4 0  and 4 5 0 
5671651		 # 	collision with: 5 4 0  and 4 5 0 
5671654		 # 	collision with: 4 1 0  and 1 3 0 
5671693		 # 	collision with: 2 2 0  and 4 4 0 
5671728		 # 	collision with: 7 0 0  and 2 1 0 
5671730		 # 	collision with: 9 4 0  and 7 1 1 
5671741		 # 	collision with: 0 0 0  and 8 1 0 
5671743		 # 	collision with: 10 0 0  and 9 2 0 
5671760		 # 	collision with: 10 9 0  and 8 0 1 
5671762		 # 	collision with: 3 5 0  and 6 0 1 
5671792		 # 	collision with: 9 3 0  and 8 4 0 
5671794		 # 	collision with: 10 2 0  and 1 4 0 
5671813		 # 	collision with: 10 4 0  and 1 5 0 
5671815		 # 	collision with: 5 4 0  and 4 5 0 
5671824		 # 	collision with: 7 3 0  and 10 5 0 
5671826		 # 	collision with: 7 10 0  and 0 1 1 
5671861		 # 	collision with: 7 4 0  and 4 5 0 
5671863		 # 	collision with: 6 0 0  and 3 1 0 
5671900		 # 	collision with: 2 5 0  and 0 6 0 
5671902		 # 	collision with: 6 8 0  and 5 0 1 
5671905		 # 	collision with: 4 5 0  and 3 1 1 
5671907		 # 	collision with: 10 0 0  and 8 1 0 
5671917		 # 	collision with: 4 1 0  and 9 2 0 
5671919		 # 	collision with: 0 2 0  and 6 3 0 
5671932		 # 	collision with: 9 4 0  and 2 5 0 
5671934		 # 	collision with: 5 3 0  and 0 0 1 
5671964		 # 	collision with: 10 6 0  and 5 0 1 
5671966		 # 	collision with: 8 5 0  and 6 0 1 
5671977		 # 	collision with: 4 1 0  and 6 3 0 
5671979		 # 	collision with: 5 4 0  and 4 5 0 
5671996		 # 	collision with: 10 9 0  and 6 1 1 
5671998		 # 	collision with: 2 3 0  and 9 4 0 
5672000		 # 	collision with: 4 7 0  and 6 7 0 
5672002		 # 	collision with: 8 2 0  and 4 3 0 
5672004		 # 	collision with: 3 9 0  and 4 9 0 
5672006		 # 	collision with: 9 0 0  and 5 1 0 
5672008		 # 	collision with: 2 6 0  and 4 6 0 
5672010		 # 	collision with: 1 5 0  and 8 6 0 
5672012		 # 	collision with: 5 10 0  and 6 10 0 
5672014		 # 	collision with: 1 1 0  and 6 0 1 
5672016		 # 	collision with: 1 8 0  and 2 8 0 
5672018		 # 	collision with: 2 1 0  and 5 3 0 
5672020		 # 	collision with: 2 3 0  and 3 3 0 
5672022		 # 	collision with: 3 1 0  and 10 2 0 
5672024		 # 	collision with: 3 1 0  and 5 1 0 
5672026		 # 	collision with: 6 4 0  and 9 6 0 
5672028		 # 	collision with: 0 5 0  and 2 5 0 
5672030		 # 	collision with: 1 3 0  and 4 5 0 
5672032		 # 	collision with: 0 2 0  and 1 2 0 
5672034		 # 	collision with: 7 4 0  and 3 5 0 
5672036		 # 	collision with: 4 4 0  and 5 4 0 
5672061		 # 	collision with: 8 0 0  and 6 1 0 
5672063		 # 	collision with: 4 1 0  and 4 2 0 
5672072		 # 	collision with: 7 4 0  and 2 0 1 
5672074		 # 	collision with: 8 9 0  and 0 0 1 
5672104		 # 	collision with: 6 2 0  and 2 4 0 
5672106		 # 	collision with: 10 6 0  and 3 0 1 
5672121		 # 	collision with: 4 1 0  and 6 3 0 
5672123		 # 	collision with: 0 1 0  and 3 2 0 
5672133		 # 	collision with: 9 1 0  and 7 2 0 
5672136		 # 	collision with: 3 0 0  and 6 2 0 
5672138		 # 	collision with: 7 1 0  and 2 3 0 
5672179		 # 	collision with: 8 2 0  and 5 4 0 
5672214		 # 	collision with: 6 4 0  and 1 5 0 
5672225		 # 	collision with: 8 1 0  and 0 2 0 
5672227		 # 	collision with: 6 2 0  and 7 3 0 
5672244		 # 	collision with: 5 3 0  and 6 0 1 
5672246		 # 	collision with: 3 1 0  and 3 0 1 
5672276		 # 	collision with: 2 0 0  and 3 1 0 
5672278		 # 	collision with: 6 0 0  and 5 1 0 
5672297		 # 	collision with: 7 3 0  and 10 5 0 
5672299		 # 	collision with: 1 1 0  and 3 3 0 
5672308		 # 	collision with: 3 2 0  and 6 3 0 
5672310		 # 	collision with: 0 10 0  and 5 0 1 
5672345		 # 	collision with: 5 3 0  and 2 5 0 
5672347		 # 	collision with: 0 0 0  and 8 2 0 
5672384		 # 	collision with: 2 8 0  and 0 0 1 
5672386		 # 	collision with: 3 3 0  and 4 1 1 
5672389		 # 	collision with: 8 4 0  and 2 6 0 
5672391		 # 	collision with: 7 0 0  and 1 2 0 
5672401		 # 	collision with: 1 4 0  and 5 0 1 
5672403		 # 	collision with: 2 6 0  and 4 6 0 
5672416		 # 	collision with: 0 1 0  and 5 3 0 
5672418		 # 	collision with: 4 2 0  and 1 3 0 
5672448		 # 	collision with: 10 6 0  and 3 0 1 
5672450		 # 	collision with: 0 0 0  and 8 2 0 
5672461		 # 	collision with: 1 3 0  and 8 1 1 
5672463		 # 	collision with: 6 1 0  and 4 4 1 
5672480		 # 	collision with: 9 1 1  and 7 2 1 
5672482		 # 	collision with: 7 3 0  and 8 5 0 
5672484		 # 	collision with: 2 6 0  and 4 6 0 
5672486		 # 	collision with: 9 0 0  and 10 2 0 
5672488		 # 	collision with: 2 3 0  and 3 3 0 
5672490		 # 	collision with: 10 4 0  and 0 6 0 
5672492		 # 	collision with: 0 2 0  and 1 2 0 
5672494		 # 	collision with: 4 2 0  and 5 4 0 
5672496		 # 	collision with: 4 7 0  and 6 7 0 
5672498		 # 	collision with: 3 3 0  and 9 4 0 
5672500		 # 	collision with: 5 10 0  and 6 10 0 
5672502		 # 	collision with: 8 1 0  and 3 2 0 
5672504		 # 	collision with: 3 1 0  and 5 1 0 
5672506		 # 	collision with: 9 5 0  and 4 6 0 
5672508		 # 	collision with: 4 4 0  and 5 4 0 
5672512		 # 	collision with: 3 9 0  and 4 9 0 
5672514		 # 	collision with: 6 4 0  and 1 5 0 
5672516		 # 	collision with: 1 8 0  and 2 8 0 
5672518		 # 	collision with: 8 1 0  and 5 2 1 
5672520		 # 	collision with: 0 5 0  and 2 5 0 
5672522		 # 	collision with: 1 1 0  and 2 3 0 
5672545		 # 	collision with: 8 4 0  and 4 6 0 
5672547		 # 	collision with: 5 10 0  and 6 10 0 
5672556		 # 	collision with: 8 0 0  and 6 1 0 
5672558		 # 	collision with: 0 7 0  and 2 0 1 
5672588		 # 	collision with: 8 3 0  and 4 4 0 
5672590		 # 	collision with: 9 0 0  and 5 1 0 
5672605		 # 	collision with: 6 8 0  and 5 0 1 
5672607		 # 	collision with: 4 4 0  and 9 5 0 
5672617		 # 	collision with: 10 2 0  and 8 3 0 
5672619		 # 	collision with: 4 7 0  and 6 7 0 
5672620		 # 	collision with: 0 1 0  and 1 2 0 
5672622		 # 	collision with: 2 2 0  and 0 1 1 
5672661		 # 	collision with: 10 5 0  and 4 6 0 
5672663		 # 	collision with: 2 10 0  and 5 1 1 
5672696		 # 	collision with: 2 7 0  and 1 0 1 
5672698		 # 	collision with: 3 9 0  and 2 0 1 
5672711		 # 	collision with: 5 1 0  and 10 2 0 
5672730		 # 	collision with: 6 4 0  and 8 6 0 
5672760		 # 	collision with: 6 4 0  and 5 5 0 
5672762		 # 	collision with: 5 0 0  and 3 2 0 
5672781		 # 	collision with: 9 4 0  and 3 2 1 
5672783		 # 	collision with: 5 1 0  and 10 0 1 
5672792		 # 	collision with: 1 4 0  and 2 6 0 
5672794		 # 	collision with: 4 2 0  and 1 3 0 
5672829		 # 	collision with: 8 3 0  and 4 4 0 
5672831		 # 	collision with: 0 1 0  and 9 2 0 
5672868		 # 	collision with: 5 3 0  and 0 5 0 
5672870		 # 	collision with: 5 6 0  and 3 0 1 
5672873		 # 	collision with: 7 0 0  and 2 1 0 
5672875		 # 	collision with: 4 3 0  and 5 4 0 
5672885		 # 	collision with: 2 0 0  and 3 1 0 
5672900		 # 	collision with: 9 0 0  and 8 2 0 
5672902		 # 	collision with: 9 0 1  and 10 1 1 
5672932		 # 	collision with: 7 1 0  and 10 0 1 
5672934		 # 	collision with: 6 1 0  and 5 3 0 
5672945		 # 	collision with: 7 5 0  and 3 6 0 
5672947		 # 	collision with: 2 3 0  and 9 4 0 
5672964		 # 	collision with: 5 4 0  and 5 0 1 
5672966		 # 	collision with: 9 3 0  and 8 5 0 
5672968		 # 	collision with: 0 5 0  and 2 5 0 
5672970		 # 	collision with: 1 2 0  and 6 3 0 
5672972		 # 	collision with: 1 8 0  and 2 8 0 
5672974		 # 	collision with: 5 4 0  and 4 6 0 
5672976		 # 	collision with: 3 9 0  and 4 9 0 
5672978		 # 	collision with: 5 1 0  and 10 2 0 
5672980		 # 	collision with: 4 4 0  and 5 4 0 
5672984		 # 	collision with: 3 1 0  and 5 1 0 
5672986		 # 	collision with: 4 4 0  and 9 5 0 
5672988		 # 	collision with: 5 10 0  and 6 10 0 
5672990		 # 	collision with: 10 0 0  and 9 2 0 
5672992		 # 	collision with: 4 7 0  and 6 7 0 
5672994		 # 	collision with: 8 3 0  and 2 4 0 
5672996		 # 	collision with: 0 2 0  and 1 2 0 
5672998		 # 	collision with: 6 1 0  and 5 3 0 
5673000		 # 	collision with: 2 3 0  and 3 3 0 
5673002		 # 	collision with: 0 5 0  and 5 6 0 
5673004		 # 	collision with: 2 6 0  and 4 6 0 
5673006		 # 	collision with: 9 0 0  and 3 1 0 
5673029		 # 	collision with: 7 3 0  and 3 5 0 
5673031		 # 	collision with: 3 1 0  and 10 2 0 
5673040		 # 	collision with: 8 1 0  and 1 2 0 
5673042		 # 	collision with: 1 10 0  and 6 0 1 
5673072		 # 	collision with: 2 1 0  and 7 1 1 
5673074		 # 	collision with: 3 3 0  and 9 4 0 
5673089		 # 	collision with: 9 3 0  and 1 4 0 
5673101		 # 	collision with: 0 3 0  and 9 4 0 
5673103		 # 	collision with: 2 3 0  and 9 4 0 
5673104		 # 	collision with: 1 4 0  and 4 1 1 
5673106		 # 	collision with: 7 2 0  and 0 0 1 
5673145		 # 	collision with: 10 8 0  and 1 0 1 
5673147		 # 	collision with: 7 2 0  and 2 0 1 
5673180		 # 	collision with: 2 5 0  and 8 0 1 
5673182		 # 	collision with: 4 0 0  and 4 2 0 
5673193		 # 	collision with: 9 3 0  and 10 5 0 
5673195		 # 	collision with: 0 2 0  and 1 2 0 
5673212		 # 	collision with: 9 2 0  and 10 3 0 
5673214		 # 	collision with: 4 2 0  and 1 3 0 
5673246		 # 	collision with: 3 1 0  and 2 2 0 
5673267		 # 	collision with: 7 3 0  and 8 5 0 
5673276		 # 	collision with: 6 3 0  and 8 1 1 
5673278		 # 	collision with: 7 1 0  and 3 3 0 
5673313		 # 	collision with: 9 2 0  and 6 0 1 
5673315		 # 	collision with: 5 0 0  and 8 1 0 
5673352		 # 	collision with: 0 1 0  and 5 3 0 
5673354		 # 	collision with: 2 4 0  and 2 0 1 
5673357		 # 	collision with: 1 6 0  and 6 0 1 
5673359		 # 	collision with: 4 4 0  and 5 4 0 
5673369		 # 	collision with: 3 4 0  and 5 5 0 
5673371		 # 	collision with: 0 8 0  and 2 0 1 
5673384		 # 	collision with: 0 3 0  and 9 4 0 
5673386		 # 	collision with: 3 4 0  and 9 6 0 
5673416		 # 	collision with: 10 5 0  and 2 6 0 
5673418		 # 	collision with: 7 2 0  and 10 4 0 
5673429		 # 	collision with: 1 7 0  and 7 0 1 
5673431		 # 	collision with: 6 0 0  and 7 2 1 
5673448		 # 	collision with: 10 3 0  and 1 1 1 
5673450		 # 	collision with: 1 3 0  and 5 4 0 
5673452		 # 	collision with: 4 4 0  and 5 4 0 
5673456		 # 	collision with: 0 2 0  and 1 2 0 
5673458		 # 	collision with: 8 2 0  and 1 3 0 
5673460		 # 	collision with: 0 5 0  and 2 5 0 
5673462		 # 	collision with: 4 1 0  and 8 2 0 
5673464		 # 	collision with: 3 1 0  and 5 1 0 
5673466		 # 	collision with: 5 4 0  and 2 6 0 
5673468		 # 	collision with: 2 3 0  and 3 3 0 
5673470		 # 	collision with: 5 4 0  and 9 5 0 
5673472		 # 	collision with: 1 8 0  and 2 8 0 
5673474		 # 	collision with: 8 6 0  and 0 0 1 
5673476		 # 	collision with: 5 10 0  and 6 10 0 
5673478		 # 	collision with: 0 0 0  and 8 2 0 
5673480		 # 	collision with: 2 6 0  and 4 6 0 
5673482		 # 	collision with: 0 0 0  and 4 1 0 
5673484		 # 	collision with: 3 9 0  and 4 9 0 
5673486		 # 	collision with: 1 3 0  and 9 5 0 
5673488		 # 	collision with: 4 7 0  and 6 7 0 
5673490		 # 	collision with: 8 2 0  and 5 4 0 
5673513		 # 	collision with: 0 0 0  and 4 0 0 
5673515		 # 	collision with: 2 4 0  and 10 5 0 
5673524		 # 	collision with: 10 1 0  and 2 1 1 
5673526		 # 	collision with: 4 4 0  and 4 5 0 
5673556		 # 	collision with: 0 1 0  and 5 3 0 
5673558		 # 	collision with: 2 1 0  and 2 0 1 
5673573		 # 	collision with: 0 0 0  and 4 0 0 
5673575		 # 	collision with: 0 1 0  and 9 2 0 
5673585		 # 	collision with: 0 0 0  and 4 0 0 
5673587		 # 	collision with: 5 2 0  and 10 4 0 
5673588		 # 	collision with: 1 3 0  and 3 0 1 
5673590		 # 	collision with: 4 2 0  and 1 3 0 
5673629		 # 	collision with: 0 0 0  and 4 0 0 
5673631		 # 	collision with: 2 1 0  and 5 3 0 
5673664		 # 	collision with: 4 4 0  and 3 6 0 
5673666		 # 	collision with: 1 8 0  and 8 0 1 
5673677		 # 	collision with: 0 0 0  and 4 0 0 
5673679		 # 	collision with: 6 1 0  and 5 3 0 
5673696		 # 	collision with: 8 1 0  and 0 2 0 
5673698		 # 	collision with: 7 8 0  and 2 0 1 
5673728		 # 	collision with: 4 0 0  and 8 1 0 
5673730		 # 	collision with: 2 1 0  and 0 3 0 
5673749		 # 	collision with: 0 0 0  and 4 0 0 
5673751		 # 	collision with: 2 6 0  and 4 0 1 
5673762		 # 	collision with: 9 0 0  and 3 1 0 
5673799		 # 	collision with: 2 1 0  and 2 0 1 
5673836		 # 	collision with: 9 3 0  and 10 5 0 
5673838		 # 	collision with: 8 1 0  and 9 2 0 
5673841		 # 	collision with: 0 0 0  and 4 0 0 
5673853		 # 	collision with: 0 0 0  and 4 0 0 
5673855		 # 	collision with: 9 10 0  and 9 0 1 
5673868		 # 	collision with: 10 3 0  and 5 1 1 
5673870		 # 	collision with: 0 1 1  and 6 3 1 
5673900		 # 	collision with: 9 6 0  and 6 0 1 
5673902		 # 	collision with: 8 1 0  and 5 0 1 
5673913		 # 	collision with: 0 0 0  and 4 0 0 
5673915		 # 	collision with: 6 2 0  and 9 3 0 
5673932		 # 	collision with: 0 0 0  and 1 1 1 
5673934		 # 	collision with: 6 2 0  and 9 3 0 
5673936		 # 	collision with: 2 3 0  and 3 3 0 
5673938		 # 	collision with: 3 4 0  and 9 6 0 
5673940		 # 	collision with: 4 7 0  and 6 7 0 
5673942		 # 	collision with: 1 3 0  and 4 4 0 
5673944		 # 	collision with: 3 1 0  and 5 1 0 
5673946		 # 	collision with: 0 1 0  and 3 2 0 
5673948		 # 	collision with: 3 9 0  and 4 9 0 
5673950		 # 	collision with: 7 1 0  and 2 3 0 
5673952		 # 	collision with: 0 5 0  and 2 5 0 
5673954		 # 	collision with: 2 5 0  and 5 6 0 
5673956		 # 	collision with: 2 6 0  and 4 6 0 
5673958		 # 	collision with: 8 3 0  and 3 5 0 
5673960		 # 	collision with: 0 2 0  and 1 2 0 
5673962		 # 	collision with: 8 6 0  and 0 7 0 
5673964		 # 	collision with: 5 10 0  and 6 10 0 
5673966		 # 	collision with: 2 2 0  and 8 4 0 
5673968		 # 	collision with: 4 4 0  and 5 4 0 
5673972		 # 	collision with: 1 8 0  and 2 8 0 
5673974		 # 	collision with: 5 0 0  and 8 1 0 
5673997		 # 	collision with: 5 1 0  and 1 3 0 
5673999		 # 	collision with: 8 1 0  and 9 2 0 
5674008		 # 	collision with: 4 1 0  and 9 2 0 
5674010		 # 	collision with: 4 2 0  and 1 3 0 
5674040		 # 	collision with: 5 3 0  and 0 4 0 
5674042		 # 	collision with: 0 5 0  and 2 5 0 
5674057		 # 	collision with: 5 7 0  and 6 0 1 
5674059		 # 	collision with: 10 0 0  and 9 2 0 
5674069		 # 	collision with: 2 5 0  and 0 6 0 
5674071		 # 	collision with: 6 4 0  and 8 6 0 
5674072		 # 	collision with: 8 2 0  and 9 2 1 
5674074		 # 	collision with: 4 7 0  and 6 7 0 
5674113		 # 	collision with: 3 1 0  and 3 2 1 
5674115		 # 	collision with: 5 0 0  and 8 1 0 
5674148		 # 	collision with: 6 9 0  and 0 1 1 
5674150		 # 	collision with: 1 2 0  and 6 3 0 
5674161		 # 	collision with: 2 2 0  and 4 4 0 
5674163		 # 	collision with: 5 4 0  and 4 6 0 
5674180		 # 	collision with: 7 5 0  and 3 6 0 
5674182		 # 	collision with: 0 2 0  and 1 2 0 
5674212		 # 	collision with: 7 0 0  and 6 1 0 
5674214		 # 	collision with: 8 2 0  and 1 3 0 
5674233		 # 	collision with: 8 1 0  and 5 3 0 
5674235		 # 	collision with: 10 4 0  and 8 0 1 
5674244		 # 	collision with: 0 1 0  and 5 3 0 
5674246		 # 	collision with: 2 3 0  and 3 3 0 
5674281		 # 	collision with: 9 0 0  and 8 2 0 
5674322		 # 	collision with: 4 4 0  and 5 4 0 
5674327		 # 	collision with: 3 1 0  and 10 2 0 
5674337		 # 	collision with: 7 4 0  and 1 0 1 
5674339		 # 	collision with: 3 1 0  and 0 0 1 
5674352		 # 	collision with: 4 4 0  and 4 1 1 
5674354		 # 	collision with: 4 2 0  and 4 3 0 
5674384		 # 	collision with: 7 3 0  and 3 5 0 
5674386		 # 	collision with: 3 1 0  and 5 1 0 
5674397		 # 	collision with: 1 2 0  and 5 3 0 
5674399		 # 	collision with: 3 1 0  and 5 1 0 
5674416		 # 	collision with: 4 7 0  and 3 0 1 
5674418		 # 	collision with: 7 0 0  and 0 2 0 
5674420		 # 	collision with: 0 2 0  and 1 2 0 
5674422		 # 	collision with: 7 0 0  and 0 2 0 
5674424		 # 	collision with: 3 1 0  and 5 1 0 
5674426		 # 	collision with: 7 0 0  and 0 2 0 
5674428		 # 	collision with: 1 8 0  and 2 8 0 
5674430		 # 	collision with: 7 0 0  and 0 2 0 
5674432		 # 	collision with: 2 6 0  and 4 6 0 
5674434		 # 	collision with: 7 0 0  and 0 2 0 
5674436		 # 	collision with: 4 7 0  and 6 7 0 
5674438		 # 	collision with: 7 0 0  and 0 2 0 
5674440		 # 	collision with: 4 4 0  and 5 4 0 
5674444		 # 	collision with: 0 5 0  and 2 5 0 
5674446		 # 	collision with: 7 0 0  and 0 2 0 
5674448		 # 	collision with: 2 3 0  and 3 3 0 
5674450		 # 	collision with: 7 0 0  and 0 2 0 
5674452		 # 	collision with: 5 10 0  and 6 10 0 
5674454		 # 	collision with: 7 0 0  and 0 2 0 
5674456		 # 	collision with: 3 9 0  and 4 9 0 
5674458		 # 	collision with: 7 0 0  and 0 2 0 
5674481		 # 	collision with: 4 0 0  and 0 2 0 
5674483		 # 	collision with: 2 6 0  and 0 6 1 
5674492		 # 	collision with: 0 1 0  and 5 3 0 
5674494		 # 	collision with: 7 0 0  and 0 2 0 
5674524		 # 	collision with: 9 9 0  and 9 0 1 
5674526		 # 	collision with: 7 0 0  and 0 2 0 
5674541		 # 	collision with: 4 0 0  and 0 2 0 
5674543		 # 	collision with: 3 0 0  and 5 2 0 
5674553		 # 	collision with: 4 0 0  and 0 2 0 
5674555		 # 	collision with: 0 1 0  and 3 2 0 
5674556		 # 	collision with: 6 2 0  and 7 4 0 
5674558		 # 	collision with: 7 0 0  and 0 2 0 
5674597		 # 	collision with: 4 0 0  and 0 2 0 
5674599		 # 	collision with: 9 3 0  and 5 5 0 
5674632		 # 	collision with: 2 8 0  and 1 1 1 
5674634		 # 	collision with: 7 0 0  and 0 2 0 
5674645		 # 	collision with: 4 0 0  and 0 2 0 
5674664		 # 	collision with: 5 6 0  and 3 1 1 
5674666		 # 	collision with: 7 0 0  and 0 2 0 
5674696		 # 	collision with: 6 0 0  and 4 2 0 
5674698		 # 	collision with: 4 0 0  and 4 1 0 
5674717		 # 	collision with: 7 0 0  and 2 1 0 
5674719		 # 	collision with: 4 5 0  and 4 6 0 
5674728		 # 	collision with: 9 1 0  and 7 2 0 
5674730		 # 	collision with: 7 0 0  and 0 2 0 
5674765		 # 	collision with: 4 0 0  and 0 2 0 
5674767		 # 	collision with: 2 3 0  and 3 3 0 
5674804		 # 	collision with: 5 3 0  and 2 5 0 
5674806		 # 	collision with: 7 0 0  and 0 2 0 
5674809		 # 	collision with: 4 0 0  and 0 2 0 
5674811		 # 	collision with: 7 3 0  and 8 5 0 
5674823		 # 	collision with: 8 2 0  and 1 3 0 
5674838		 # 	collision with: 7 0 0  and 0 2 0 
5674868		 # 	collision with: 3 5 0  and 4 6 0 
5674870		 # 	collision with: 7 0 0  and 0 2 0 
5674881		 # 	collision with: 4 0 0  and 0 2 0 
5674883		 # 	collision with: 10 0 0  and 8 1 0 
5674900		 # 	collision with: 9 3 0  and 3 0 1 
5674902		 # 	collision with: 2 4 0  and 3 5 0 
5674904		 # 	collision with: 3 1 0  and 5 1 0 
5674906		 # 	collision with: 8 1 0  and 9 2 0 
5674908		 # 	collision with: 2 6 0  and 4 6 0 
5674910		 # 	collision with: 6 4 0  and 8 6 0 
5674912		 # 	collision with: 4 4 0  and 5 4 0 
5674916		 # 	collision with: 2 3 0  and 3 3 0 
5674918		 # 	collision with: 6 2 0  and 7 3 0 
5674920		 # 	collision with: 3 9 0  and 4 9 0 
5674922		 # 	collision with: 4 3 0  and 5 4 0 
5674924		 # 	collision with: 0 2 0  and 1 2 0 
5674926		 # 	collision with: 3 0 0  and 5 2 0 
5674928		 # 	collision with: 1 8 0  and 2 8 0 
5674930		 # 	collision with: 9 1 0  and 2 1 1 
5674932		 # 	collision with: 4 7 0  and 6 7 0 
5674934		 # 	collision with: 0 5 0  and 1 6 0 
5674936		 # 	collision with: 0 5 0  and 2 5 0 
5674938		 # 	collision with: 10 2 0  and 1 4 0 
5674940		 # 	collision with: 5 10 0  and 6 10 0 
5674942		 # 	collision with: 8 3 0  and 10 5 0 
5674965		 # 	collision with: 2 5 0  and 0 6 0 
5674967		 # 	collision with: 4 0 0  and 8 2 0 
5674976		 # 	collision with: 0 0 0  and 1 1 1 
5674978		 # 	collision with: 2 5 0  and 5 6 0 
5675008		 # 	collision with: 1 2 0  and 9 4 0 
5675010		 # 	collision with: 0 0 0  and 4 1 0 
5675025		 # 	collision with: 6 1 0  and 9 0 1 
5675027		 # 	collision with: 9 0 0  and 3 1 0 
5675037		 # 	collision with: 5 1 0  and 1 3 0 
5675039		 # 	collision with: 6 0 0  and 10 2 0 
5675040		 # 	collision with: 8 3 0  and 1 0 1 
5675042		 # 	collision with: 4 3 0  and 4 5 0 
5675081		 # 	collision with: 6 6 0  and 10 0 1 
5675083		 # 	collision with: 9 10 0  and 6 1 1 
5675116		 # 	collision with: 6 4 0  and 0 1 1 
5675118		 # 	collision with: 1 1 0  and 1 0 1 
5675129		 # 	collision with: 5 3 0  and 2 5 0 
5675131		 # 	collision with: 0 5 0  and 5 6 0 
5675148		 # 	collision with: 2 2 0  and 8 3 0 
5675150		 # 	collision with: 2 1 0  and 5 3 0 
5675180		 # 	collision with: 4 1 0  and 3 2 0 
5675182		 # 	collision with: 8 3 0  and 7 4 0 
5675201		 # 	collision with: 5 4 0  and 6 1 1 
5675203		 # 	collision with: 1 5 0  and 8 6 0 
5675212		 # 	collision with: 6 0 0  and 8 2 0 
5675214		 # 	collision with: 0 0 0  and 1 1 1 
5675249		 # 	collision with: 5 3 0  and 0 4 0 
5675251		 # 	collision with: 4 5 0  and 9 0 1 
5675288		 # 	collision with: 10 5 0  and 4 6 0 
5675290		 # 	collision with: 8 1 0  and 3 2 0 
5675293		 # 	collision with: 10 5 0  and 4 6 0 
5675295		 # 	collision with: 4 0 0  and 4 2 0 
5675305		 # 	collision with: 1 2 0  and 5 3 0 
5675307		 # 	collision with: 6 1 0  and 3 2 1 
5675320		 # 	collision with: 2 0 0  and 5 1 0 
5675322		 # 	collision with: 5 4 0  and 6 0 1 
5675354		 # 	collision with: 3 2 0  and 8 1 1 
5675390		 # 	collision with: 4 0 0  and 4 1 0 
5675394		 # 	collision with: 4 2 0  and 4 3 0 
5675398		 # 	collision with: 4 4 0  and 4 5 0 
5675402		 # 	collision with: 4 0 0  and 4 2 0 
5675406		 # 	collision with: 4 2 0  and 4 4 0 
5675410		 # 	collision with: 4 4 0  and 4 6 0 
5675414		 # 	collision with: 4 1 0  and 4 2 0 
5675418		 # 	collision with: 4 3 0  and 4 4 0 
5675422		 # 	collision with: 4 5 0  and 4 6 0 
5675426		 # 	collision with: 4 1 0  and 4 3 0 
5675433		 # 	collision with: 1 2 0  and 3 4 0 
5675435		 # 	collision with: 4 4 0  and 0 5 0 
5675444		 # 	collision with: 3 0 0  and 5 0 0 
5675446		 # 	collision with: 5 2 0  and 5 2 1 
5675477		 # 	collision with: 6 4 0  and 5 5 0 
5675479		 # 	collision with: 1 2 0  and 0 3 0 
5675504		 # 	collision with: 3 0 0  and 5 0 0 
5675506		 # 	collision with: 10 0 0  and 2 2 0 
5675517		 # 	collision with: 2 2 0  and 0 4 0 
5675520		 # 	collision with: 3 0 0  and 5 0 0 
5675522		 # 	collision with: 4 1 0  and 6 3 0 
5675580		 # 	collision with: 3 0 0  and 5 0 0 
5675582		 # 	collision with: 1 2 0  and 10 3 0 
5675589		 # 	collision with: 8 4 0  and 1 5 0 
5675591		 # 	collision with: 1 2 0  and 5 4 0 
5675621		 # 	collision with: 5 3 0  and 10 4 0 
5675623		 # 	collision with: 4 0 0  and 4 2 0 
5675640		 # 	collision with: 3 0 0  and 5 0 0 
5675642		 # 	collision with: 3 5 0  and 5 6 0 
5675656		 # 	collision with: 3 0 0  and 5 0 0 
5675658		 # 	collision with: 4 10 0  and 8 0 1 
5675677		 # 	collision with: 10 3 0  and 4 5 0 
5675679		 # 	collision with: 1 9 0  and 2 9 0 
5675709		 # 	collision with: 7 4 0  and 0 6 0 
5675711		 # 	collision with: 4 3 0  and 6 3 0 
5675716		 # 	collision with: 3 0 0  and 5 0 0 
5675718		 # 	collision with: 10 6 0  and 2 1 1 
5675737		 # 	collision with: 5 4 0  and 9 5 0 
5675776		 # 	collision with: 3 0 0  and 5 0 0 
5675778		 # 	collision with: 3 4 0  and 0 5 0 
5675792		 # 	collision with: 3 0 0  and 5 0 0 
5675794		 # 	collision with: 6 0 0  and 5 1 0 
5675821		 # 	collision with: 5 4 0  and 6 5 0 
5675823		 # 	collision with: 0 5 0  and 4 6 0 
5675852		 # 	collision with: 3 0 0  and 5 0 0 
5675854		 # 	collision with: 0 0 0  and 1 1 1 
5675865		 # 	collision with: 0 10 0  and 2 0 1 
5675867		 # 	collision with: 4 1 0  and 4 3 0 
5675868		 # 	collision with: 5 2 0  and 2 1 1 
5675870		 # 	collision with: 4 3 0  and 3 4 0 
5675872		 # 	collision with: 5 10 0  and 6 10 0 
5675874		 # 	collision with: 6 0 0  and 5 1 0 
5675876		 # 	collision with: 1 5 0  and 3 5 0 
5675878		 # 	collision with: 4 3 0  and 3 4 0 
5675880		 # 	collision with: 4 7 0  and 5 7 0 
5675882		 # 	collision with: 4 3 0  and 3 4 0 
5675884		 # 	collision with: 2 8 0  and 4 8 0 
5675886		 # 	collision with: 4 3 0  and 3 4 0 
5675888		 # 	collision with: 0 2 0  and 2 2 0 
5675890		 # 	collision with: 4 3 0  and 3 4 0 
5675892		 # 	collision with: 1 9 0  and 2 9 0 
5675894		 # 	collision with: 4 3 0  and 3 4 0 
5675896		 # 	collision with: 4 3 0  and 6 3 0 
5675898		 # 	collision with: 4 3 0  and 3 4 0 
5675900		 # 	collision with: 3 4 0  and 4 4 0 
5675904		 # 	collision with: 0 6 0  and 1 6 0 
5675906		 # 	collision with: 4 3 0  and 3 4 0 
5675908		 # 	collision with: 2 1 0  and 3 1 0 
5675910		 # 	collision with: 4 3 0  and 3 4 0 
5675919		 # 	collision with: 1 5 0  and 7 6 0 
5675930		 # 	collision with: 4 3 0  and 3 4 0 
5675961		 # 	collision with: 0 2 0  and 10 3 0 
5675963		 # 	collision with: 6 0 0  and 5 1 0 
5675988		 # 	collision with: 8 0 0  and 5 1 0 
7.30981secs	4846
