# prime 11
# degree 2
# input variables 3
# output variables 5
# reload computed balance functions from file balance-2197of3248-p11d2m3-debug.log
# p = 11
# n = 5
# smalldomain p^m 1331
# domain p^n 161051
#	 p^2 = 121
#	 p^3 = 1331
#	 p^4 = 14641
#	 p^5 = 161051
#	 p^6 = 1771561
#	 p^7 = 19487171
#	 p^8 = 214358881
#	 p^9 = 2357947691
opening file : balance-2197of3248-p11d2m3-debug.log
reloading for step2...
13182004		 # 	collision with: 5 7 2 0 0  and 6 7 2 0 0 
13182006		 # 	collision with: 4 7 2 0 0  and 6 7 2 0 0 
13182036		 # 	collision with: 5 7 0 0 0  and 6 7 0 0 0 
13182038		 # 	collision with: 4 7 0 0 0  and 6 7 0 0 0 
13182048		 # 	collision with: 5 7 8 0 0  and 6 7 8 0 0 
13182050		 # 	collision with: 4 7 8 0 0  and 6 7 8 0 0 
13182056		 # 	collision with: 6 1 6 0 0  and 5 3 6 0 0 
13182058		 # 	collision with: 8 1 6 0 0  and 8 2 6 0 0 
13182065		 # 	collision with: 5 6 0 0 0  and 5 6 1 0 0 
13182067		 # 	collision with: 2 10 0 0 0  and 2 1 1 0 0 
13182085		 # 	collision with: 8 2 0 0 0  and 3 10 1 0 0 
13182087		 # 	collision with: 5 7 0 0 0  and 5 0 1 0 0 
13182120		 # 	collision with: 5 7 5 0 0  and 6 7 5 0 0 
13182122		 # 	collision with: 4 7 5 0 0  and 6 7 5 0 0 
13182125		 # 	collision with: 5 7 0 0 0  and 6 7 0 0 0 
13182127		 # 	collision with: 2 3 0 0 0  and 2 3 1 0 0 
13182133		 # 	collision with: 3 6 0 0 0  and 3 1 1 0 0 
13182135		 # 	collision with: 5 3 0 0 0  and 5 4 1 0 0 
13182136		 # 	collision with: 5 7 5 0 0  and 6 7 5 0 0 
13182138		 # 	collision with: 4 7 5 0 0  and 6 7 5 0 0 
13182140		 # 	collision with: 8 1 1 0 0  and 8 3 1 0 0 
13182142		 # 	collision with: 10 0 1 0 0  and 0 1 1 0 0 
13182161		 # 	collision with: 9 8 0 0 0  and 9 2 1 0 0 
13182180		 # 	collision with: 5 7 10 0 0  and 6 7 10 0 0 
13182182		 # 	collision with: 4 7 10 0 0  and 6 7 10 0 0 
13182204		 # 	collision with: 6 1 2 0 0  and 6 2 2 0 0 
13182206		 # 	collision with: 6 0 2 0 0  and 6 2 2 0 0 
13182229		 # 	collision with: 9 4 1 0 0  and 9 6 1 0 0 
13182231		 # 	collision with: 2 5 0 0 0  and 2 6 0 0 0 
13182265		 # 	collision with: 1 2 6 0 0  and 1 4 6 0 0 
13182267		 # 	collision with: 4 0 1 0 0  and 4 1 1 0 0 
13182269		 # 	collision with: 5 7 0 0 0  and 6 7 0 0 0 
13182271		 # 	collision with: 4 5 1 0 0  and 6 5 1 0 0 
13182289		 # 	collision with: 1 0 2 0 0  and 10 1 2 0 0 
13182335		 # 	collision with: 7 3 5 0 0  and 7 5 5 0 0 
13182449		 # 	collision with: 9 4 1 0 0  and 9 6 1 0 0 
13182451		 # 	collision with: 2 5 0 0 0  and 2 6 0 0 0 
13182453		 # 	collision with: 6 1 4 0 0  and 6 2 4 0 0 
13182455		 # 	collision with: 1 1 5 0 0  and 1 1 6 0 0 
13182525		 # 	collision with: 3 10 5 0 0  and 8 2 6 0 0 
13182527		 # 	collision with: 4 5 0 0 0  and 6 5 0 0 0 
13182529		 # 	collision with: 5 7 3 0 0  and 6 7 3 0 0 
13182531		 # 	collision with: 4 0 1 0 0  and 4 1 1 0 0 
13182647		 # 	collision with: 2 2 1 0 0  and 8 3 1 0 0 
13182665		 # 	collision with: 5 7 0 0 0  and 6 7 0 0 0 
13182667		 # 	collision with: 5 1 5 0 0  and 5 6 6 0 0 
13182689		 # 	collision with: 8 4 4 0 0  and 3 5 4 0 0 
13182708		 # 	collision with: 2 1 10 0 0  and 5 3 0 1 0 
13182710		 # 	collision with: 7 9 10 0 0  and 0 10 0 1 0 
13182713		 # 	collision with: 7 9 4 0 0  and 7 0 6 0 0 
13182715		 # 	collision with: 7 8 4 0 0  and 7 0 6 0 0 
13182749		 # 	collision with: 4 0 3 0 0  and 4 2 3 0 0 
13182751		 # 	collision with: 7 1 4 0 0  and 3 2 4 0 0 
13182753		 # 	collision with: 10 4 4 0 0  and 1 6 4 0 0 
13182775		 # 	collision with: 5 3 5 0 0  and 5 4 5 0 0 
13182817		 # 	collision with: 5 7 4 0 0  and 6 7 4 0 0 
13182933		 # 	collision with: 5 7 5 0 0  and 6 7 5 0 0 
13182935		 # 	collision with: 2 2 5 0 0  and 8 3 5 0 0 
13182937		 # 	collision with: 8 1 3 0 0  and 8 3 3 0 0 
13182939		 # 	collision with: 1 4 4 0 0  and 1 1 6 0 0 
13183009		 # 	collision with: 2 0 1 0 0  and 2 1 1 0 0 
13183011		 # 	collision with: 0 0 1 0 0  and 10 1 1 0 0 
13183013		 # 	collision with: 5 7 1 0 0  and 6 7 1 0 0 
13183015		 # 	collision with: 2 0 4 0 0  and 8 6 6 0 0 
13183129		 # 	collision with: 8 1 1 0 0  and 8 3 1 0 0 
13183131		 # 	collision with: 4 5 4 0 0  and 6 5 4 0 0 
13183151		 # 	collision with: 4 5 0 0 0  and 6 5 0 0 0 
13183173		 # 	collision with: 8 1 1 0 0  and 8 3 1 0 0 
13183175		 # 	collision with: 7 1 3 0 0  and 3 2 3 0 0 
13183192		 # 	collision with: 0 9 6 0 0  and 3 2 1 1 0 
13183194		 # 	collision with: 9 6 5 0 0  and 0 7 0 1 0 
13183197		 # 	collision with: 10 2 4 0 0  and 10 3 4 0 0 
13183233		 # 	collision with: 7 4 0 0 0  and 7 5 0 0 0 
13183235		 # 	collision with: 10 1 6 0 0  and 10 3 6 0 0 
13183237		 # 	collision with: 7 4 3 0 0  and 7 5 3 0 0 
13183239		 # 	collision with: 9 4 3 0 0  and 9 5 3 0 0 
13183257		 # 	collision with: 8 4 0 0 0  and 3 5 0 0 0 
13183259		 # 	collision with: 8 3 4 0 0  and 8 3 5 0 0 
13183301		 # 	collision with: 8 4 0 0 0  and 3 5 0 0 0 
13183303		 # 	collision with: 8 5 4 0 0  and 2 6 4 0 0 
13183419		 # 	collision with: 4 5 1 0 0  and 6 5 1 0 0 
13183421		 # 	collision with: 10 2 2 0 0  and 10 3 2 0 0 
13183423		 # 	collision with: 4 5 0 0 0  and 6 5 0 0 0 
13183497		 # 	collision with: 7 4 0 0 0  and 7 5 0 0 0 
13183499		 # 	collision with: 9 7 4 0 0  and 9 7 5 0 0 
13183613		 # 	collision with: 5 7 0 0 0  and 6 7 0 0 0 
13183615		 # 	collision with: 9 4 0 0 0  and 1 5 0 0 0 
13183633		 # 	collision with: 5 7 2 0 0  and 6 7 2 0 0 
13183635		 # 	collision with: 4 5 1 0 0  and 6 5 1 0 0 
13183657		 # 	collision with: 5 7 0 0 0  and 6 7 0 0 0 
13183659		 # 	collision with: 9 4 0 0 0  and 1 5 0 0 0 
13183676		 # 	collision with: 9 10 7 0 0  and 10 3 0 1 0 
13183678		 # 	collision with: 3 4 8 0 0  and 4 7 1 1 0 
13183681		 # 	collision with: 5 3 0 0 0  and 5 5 0 0 0 
13183683		 # 	collision with: 2 5 3 0 0  and 8 5 5 0 0 
13183717		 # 	collision with: 2 5 3 0 0  and 2 7 5 0 0 
13183719		 # 	collision with: 2 5 3 0 0  and 2 6 3 0 0 
13183721		 # 	collision with: 5 3 1 0 0  and 5 5 1 0 0 
13183723		 # 	collision with: 7 3 1 0 0  and 7 5 1 0 0 
13183741		 # 	collision with: 9 1 3 0 0  and 9 1 5 0 0 
13183743		 # 	collision with: 7 1 1 0 0  and 3 2 1 0 0 
13183785		 # 	collision with: 5 7 3 0 0  and 6 7 3 0 0 
13183787		 # 	collision with: 4 5 3 0 0  and 6 5 3 0 0 
13183901		 # 	collision with: 5 3 0 0 0  and 5 5 0 0 0 
13183903		 # 	collision with: 4 5 3 0 0  and 6 5 3 0 0 
13183905		 # 	collision with: 1 2 1 0 0  and 1 4 1 0 0 
13183907		 # 	collision with: 4 5 2 0 0  and 6 5 2 0 0 
13183977		 # 	collision with: 5 7 0 0 0  and 6 7 0 0 0 
13183979		 # 	collision with: 8 1 3 0 0  and 8 2 3 0 0 
13183981		 # 	collision with: 10 1 3 0 0  and 1 0 5 0 0 
13183983		 # 	collision with: 2 5 3 0 0  and 2 6 3 0 0 
13184097		 # 	collision with: 3 3 2 0 0  and 3 4 2 0 0 
13184099		 # 	collision with: 4 2 4 0 0  and 6 4 4 0 0 
13184117		 # 	collision with: 5 3 1 0 0  and 5 5 1 0 0 
13184119		 # 	collision with: 7 3 1 0 0  and 7 5 1 0 0 
13184141		 # 	collision with: 5 7 1 0 0  and 6 7 1 0 0 
13184143		 # 	collision with: 3 2 3 0 0  and 7 1 5 0 0 
13184160		 # 	collision with: 3 9 9 0 0  and 7 7 1 1 0 
13184162		 # 	collision with: 8 6 9 0 0  and 9 1 1 1 0 
13184165		 # 	collision with: 5 7 0 0 0  and 6 7 0 0 0 
13184167		 # 	collision with: 7 5 3 0 0  and 7 3 4 0 0 
13184203		 # 	collision with: 5 3 0 0 0  and 5 4 0 0 0 
13184205		 # 	collision with: 2 3 0 0 0  and 9 4 0 0 0 
13184207		 # 	collision with: 10 1 3 0 0  and 0 0 4 0 0 
13184225		 # 	collision with: 6 1 3 0 0  and 5 3 4 0 0 
13184227		 # 	collision with: 8 10 3 0 0  and 8 10 4 0 0 
13184269		 # 	collision with: 6 2 3 0 0  and 5 3 4 0 0 
13184271		 # 	collision with: 8 0 1 0 0  and 2 2 1 0 0 
13184385		 # 	collision with: 5 7 0 0 0  and 6 7 0 0 0 
13184387		 # 	collision with: 10 6 3 0 0  and 10 6 4 0 0 
13184389		 # 	collision with: 3 3 0 0 0  and 3 4 0 0 0 
13184391		 # 	collision with: 4 0 3 0 0  and 4 1 3 0 0 
13184461		 # 	collision with: 5 8 3 0 0  and 5 8 4 0 0 
13184463		 # 	collision with: 4 5 3 0 0  and 6 5 3 0 0 
13184465		 # 	collision with: 2 5 3 0 0  and 2 5 4 0 0 
13184581		 # 	collision with: 5 7 1 0 0  and 6 7 1 0 0 
13184583		 # 	collision with: 4 5 0 0 0  and 6 5 0 0 0 
13184601		 # 	collision with: 2 3 0 0 0  and 9 4 0 0 0 
13184603		 # 	collision with: 4 5 3 0 0  and 6 5 3 0 0 
13184625		 # 	collision with: 5 7 2 0 0  and 6 7 2 0 0 
13184627		 # 	collision with: 4 5 0 0 0  and 6 5 0 0 0 
13184644		 # 	collision with: 7 10 2 0 0  and 0 1 0 1 0 
13184646		 # 	collision with: 2 8 4 0 0  and 7 5 2 1 0 
13184649		 # 	collision with: 6 1 3 0 0  and 6 2 3 0 0 
13184651		 # 	collision with: 10 1 2 0 0  and 10 3 2 0 0 
13184685		 # 	collision with: 5 3 2 0 0  and 5 5 2 0 0 
13184687		 # 	collision with: 4 2 0 0 0  and 6 4 0 0 0 
13184689		 # 	collision with: 3 2 0 0 0  and 8 4 0 0 0 
13184691		 # 	collision with: 8 0 2 0 0  and 2 2 4 0 0 
13184709		 # 	collision with: 5 5 2 0 0  and 6 1 4 0 0 
13184711		 # 	collision with: 8 2 2 0 0  and 8 1 4 0 0 
13184753		 # 	collision with: 5 7 2 0 0  and 6 7 2 0 0 
13184755		 # 	collision with: 4 5 2 0 0  and 6 5 2 0 0 
13184869		 # 	collision with: 5 7 2 0 0  and 6 7 2 0 0 
13184871		 # 	collision with: 10 1 2 0 0  and 10 3 2 0 0 
13184873		 # 	collision with: 6 1 1 0 0  and 5 3 1 0 0 
13184875		 # 	collision with: 6 0 2 0 0  and 6 2 2 0 0 
13184945		 # 	collision with: 9 4 2 0 0  and 9 6 2 0 0 
13184947		 # 	collision with: 4 5 1 0 0  and 6 5 1 0 0 
13184949		 # 	collision with: 5 3 2 0 0  and 5 5 2 0 0 
13184951		 # 	collision with: 4 2 0 0 0  and 6 4 0 0 0 
13185065		 # 	collision with: 9 4 3 0 0  and 9 6 3 0 0 
13185067		 # 	collision with: 3 2 0 0 0  and 3 4 0 0 0 
13185085		 # 	collision with: 3 2 0 0 0  and 8 4 0 0 0 
13185087		 # 	collision with: 7 6 2 0 0  and 7 2 4 0 0 
13185109		 # 	collision with: 10 4 3 0 0  and 1 6 3 0 0 
13185111		 # 	collision with: 3 2 0 0 0  and 3 4 0 0 0 
13185128		 # 	collision with: 3 3 10 0 0  and 5 10 1 1 0 
13185130		 # 	collision with: 5 5 9 0 0  and 1 6 0 1 0 
13185133		 # 	collision with: 6 2 0 0 0  and 5 3 0 0 0 
13185135		 # 	collision with: 7 3 8 0 0  and 3 5 8 0 0 
13185169		 # 	collision with: 3 2 1 0 0  and 8 4 1 0 0 
13185171		 # 	collision with: 4 5 0 0 0  and 6 5 0 0 0 
13185173		 # 	collision with: 5 7 5 0 0  and 6 7 5 0 0 
13185175		 # 	collision with: 2 2 0 0 0  and 8 3 0 0 0 
13185193		 # 	collision with: 3 2 2 0 0  and 8 4 2 0 0 
13185195		 # 	collision with: 4 5 3 0 0  and 6 5 3 0 0 
13185237		 # 	collision with: 8 4 2 0 0  and 8 0 3 0 0 
13185239		 # 	collision with: 3 2 2 0 0  and 7 1 3 0 0 
13185353		 # 	collision with: 6 2 0 0 0  and 5 3 0 0 0 
13185355		 # 	collision with: 1 0 2 0 0  and 9 4 3 0 0 
13185357		 # 	collision with: 3 5 2 0 0  and 3 2 3 0 0 
13185359		 # 	collision with: 8 1 1 0 0  and 8 2 1 0 0 
13185429		 # 	collision with: 8 3 2 0 0  and 8 1 3 0 0 
13185431		 # 	collision with: 5 3 1 0 0  and 5 4 1 0 0 
13185433		 # 	collision with: 5 7 2 0 0  and 6 7 2 0 0 
13185435		 # 	collision with: 4 5 0 0 0  and 6 5 0 0 0 
13185549		 # 	collision with: 5 7 2 0 0  and 6 7 2 0 0 
13185551		 # 	collision with: 4 5 1 0 0  and 6 5 1 0 0 
13185569		 # 	collision with: 4 6 2 0 0  and 7 7 3 0 0 
13185571		 # 	collision with: 2 2 0 0 0  and 8 3 0 0 0 
13185593		 # 	collision with: 8 5 2 0 0  and 8 5 3 0 0 
13185595		 # 	collision with: 4 5 2 0 0  and 6 5 2 0 0 
13185612		 # 	collision with: 7 7 4 0 0  and 3 9 1 1 0 
13185614		 # 	collision with: 1 3 3 0 0  and 8 0 0 1 0 
13185619		 # 	collision with: 4 5 0 0 0  and 6 5 0 0 0 
13185653		 # 	collision with: 5 7 0 0 0  and 6 7 0 0 0 
13185655		 # 	collision with: 3 2 2 0 0  and 3 4 2 0 0 
13185657		 # 	collision with: 6 1 4 0 0  and 5 3 4 0 0 
13185659		 # 	collision with: 9 6 1 0 0  and 9 3 3 0 0 
13185677		 # 	collision with: 5 7 2 0 0  and 6 7 2 0 0 
13185679		 # 	collision with: 4 5 2 0 0  and 6 5 2 0 0 
13185721		 # 	collision with: 5 7 1 0 0  and 6 7 1 0 0 
13185723		 # 	collision with: 4 5 1 0 0  and 6 5 1 0 0 
13185837		 # 	collision with: 2 9 1 0 0  and 2 3 3 0 0 
13185841		 # 	collision with: 5 8 1 0 0  and 5 0 3 0 0 
13185843		 # 	collision with: 10 1 0 0 0  and 10 3 0 0 0 
13185913		 # 	collision with: 4 1 1 0 0  and 4 1 3 0 0 
13185915		 # 	collision with: 2 1 1 0 0  and 2 1 3 0 0 
13185917		 # 	collision with: 5 7 0 0 0  and 6 7 0 0 0 
13185919		 # 	collision with: 3 2 2 0 0  and 3 4 2 0 0 
13186033		 # 	collision with: 2 9 1 0 0  and 2 3 3 0 0 
13186035		 # 	collision with: 9 4 1 0 0  and 9 5 1 0 0 
13186053		 # 	collision with: 9 6 1 0 0  and 2 3 3 0 0 
13186055		 # 	collision with: 10 1 4 0 0  and 10 3 4 0 0 
13186077		 # 	collision with: 6 7 1 0 0  and 5 1 3 0 0 
13186079		 # 	collision with: 9 4 1 0 0  and 9 5 1 0 0 
13186096		 # 	collision with: 3 0 4 0 0  and 10 5 0 1 0 
13186098		 # 	collision with: 5 3 5 0 0  and 10 0 1 1 0 
13186101		 # 	collision with: 2 0 2 0 0  and 2 1 2 0 0 
13186103		 # 	collision with: 6 0 1 0 0  and 6 2 1 0 0 
13186137		 # 	collision with: 5 3 1 0 0  and 6 1 2 0 0 
13186139		 # 	collision with: 8 6 1 0 0  and 2 0 2 0 0 
13186141		 # 	collision with: 6 1 2 0 0  and 6 2 2 0 0 
13186143		 # 	collision with: 5 5 1 0 0  and 5 2 2 0 0 
13186161		 # 	collision with: 5 7 1 0 0  and 6 7 1 0 0 
13186163		 # 	collision with: 4 5 1 0 0  and 6 5 1 0 0 
13186205		 # 	collision with: 10 2 1 0 0  and 10 2 2 0 0 
13186207		 # 	collision with: 4 2 1 0 0  and 4 2 2 0 0 
13186321		 # 	collision with: 2 0 2 0 0  and 2 1 2 0 0 
13186323		 # 	collision with: 6 0 1 0 0  and 6 2 1 0 0 
13186325		 # 	collision with: 5 7 0 0 0  and 6 7 0 0 0 
13186327		 # 	collision with: 4 5 1 0 0  and 6 5 1 0 0 
13186397		 # 	collision with: 6 1 0 0 0  and 6 2 0 0 0 
13186399		 # 	collision with: 9 6 1 0 0  and 9 6 2 0 0 
13186401		 # 	collision with: 7 9 1 0 0  and 7 0 2 0 0 
13186403		 # 	collision with: 4 1 1 0 0  and 4 1 2 0 0 
13186517		 # 	collision with: 2 9 1 0 0  and 2 9 2 0 0 
13186519		 # 	collision with: 7 1 0 0 0  and 3 2 0 0 0 
13186537		 # 	collision with: 6 1 2 0 0  and 6 2 2 0 0 
13186539		 # 	collision with: 8 1 2 0 0  and 8 2 2 0 0 
13186561		 # 	collision with: 2 0 1 0 0  and 2 1 2 0 0 
13186563		 # 	collision with: 7 1 0 0 0  and 3 2 0 0 0 
13186580		 # 	collision with: 1 10 6 0 0  and 6 4 0 1 0 
13186582		 # 	collision with: 4 4 6 0 0  and 0 4 0 1 0 
13186585		 # 	collision with: 3 5 0 0 0  and 3 2 2 0 0 
13186587		 # 	collision with: 8 0 0 0 0  and 2 2 0 0 0 
13186621		 # 	collision with: 6 1 1 0 0  and 6 2 1 0 0 
13186625		 # 	collision with: 4 0 0 0 0  and 4 2 0 0 0 
13186627		 # 	collision with: 6 0 0 0 0  and 6 2 0 0 0 
13186645		 # 	collision with: 5 7 0 0 0  and 6 7 0 0 0 
13186647		 # 	collision with: 4 5 0 0 0  and 6 5 0 0 0 
13186689		 # 	collision with: 5 7 0 0 0  and 6 7 0 0 0 
13186691		 # 	collision with: 4 5 0 0 0  and 6 5 0 0 0 
13186805		 # 	collision with: 4 0 0 0 0  and 4 0 2 0 0 
13186807		 # 	collision with: 8 0 0 0 0  and 2 2 0 0 0 
13186881		 # 	collision with: 7 0 0 0 0  and 7 0 2 0 0 
13186883		 # 	collision with: 5 0 0 0 0  and 5 0 2 0 0 
13186887		 # 	collision with: 5 0 0 0 0  and 5 0 2 0 0 
13187001		 # 	collision with: 10 4 0 0 0  and 1 6 2 0 0 
13187003		 # 	collision with: 7 0 0 0 0  and 7 0 2 0 0 
13187021		 # 	collision with: 4 0 0 0 0  and 4 2 0 0 0 
13187023		 # 	collision with: 6 0 0 0 0  and 6 2 0 0 0 
13187045		 # 	collision with: 2 0 0 0 0  and 2 0 2 0 0 
13187047		 # 	collision with: 3 0 0 0 0  and 3 0 2 0 0 
13187064		 # 	collision with: 5 6 1 0 0  and 9 8 0 1 0 
13187066		 # 	collision with: 7 10 3 0 0  and 9 8 2 1 0 
13187069		 # 	collision with: 2 5 0 0 0  and 9 7 0 0 0 
13187071		 # 	collision with: 0 0 0 0 0  and 10 1 0 0 0 
13187105		 # 	collision with: 5 7 0 0 0  and 5 1 1 0 0 
13187107		 # 	collision with: 0 10 0 0 0  and 10 3 1 0 0 
13187111		 # 	collision with: 6 4 0 0 0  and 4 10 1 0 0 
13187129		 # 	collision with: 4 0 0 0 0  and 4 2 1 0 0 
13187131		 # 	collision with: 2 7 0 0 0  and 2 4 1 0 0 
13187173		 # 	collision with: 3 5 0 0 0  and 8 4 1 0 0 
13187175		 # 	collision with: 7 1 0 0 0  and 3 2 1 0 0 
13187289		 # 	collision with: 2 5 0 0 0  and 9 7 0 0 0 
13187291		 # 	collision with: 0 0 0 0 0  and 10 1 0 0 0 
13187293		 # 	collision with: 10 8 0 0 0  and 1 1 1 0 0 
13187295		 # 	collision with: 0 0 0 0 0  and 10 3 1 0 0 
13187365		 # 	collision with: 3 5 0 0 0  and 3 5 1 0 0 
13187367		 # 	collision with: 1 5 0 0 0  and 1 5 1 0 0 
13187369		 # 	collision with: 1 5 0 0 0  and 1 1 1 0 0 
13187371		 # 	collision with: 7 7 0 0 0  and 7 1 1 0 0 
13187485		 # 	collision with: 2 0 0 0 0  and 2 1 0 0 0 
13187505		 # 	collision with: 1 0 3 0 0  and 10 1 3 0 0 
13187531		 # 	collision with: 1 2 0 0 0  and 1 2 1 0 0 
13187565		 # 	collision with: 8 4 6 0 0  and 3 5 6 0 0 
13187567		 # 	collision with: 4 3 0 0 0  and 6 3 0 0 0 
13187577		 # 	collision with: 6 2 5 0 0  and 6 1 6 0 0 
13187579		 # 	collision with: 0 4 5 0 0  and 10 5 6 0 0 
13187621		 # 	collision with: 8 5 5 0 0  and 8 5 6 0 0 
13187623		 # 	collision with: 4 3 2 0 0  and 6 3 2 0 0 
13187629		 # 	collision with: 8 1 2 0 0  and 8 3 2 0 0 
13187631		 # 	collision with: 10 4 5 0 0  and 10 0 6 0 0 
13187659		 # 	collision with: 10 5 0 0 0  and 0 6 0 0 0 
13187789		 # 	collision with: 5 7 4 0 0  and 6 7 4 0 0 
13187791		 # 	collision with: 10 5 0 0 0  and 0 6 0 0 0 
13187805		 # 	collision with: 8 1 2 0 0  and 8 3 2 0 0 
13187821		 # 	collision with: 6 2 3 0 0  and 5 3 3 0 0 
13187837		 # 	collision with: 5 7 4 0 0  and 6 7 4 0 0 
13187839		 # 	collision with: 8 1 5 0 0  and 8 2 5 0 0 
13187971		 # 	collision with: 4 3 3 0 0  and 6 3 3 0 0 
13187997		 # 	collision with: 5 7 3 0 0  and 6 7 3 0 0 
13187999		 # 	collision with: 7 0 5 0 0  and 3 1 5 0 0 
50.0345secs	13039
