# prime 11
# degree 2
# input variables 3
# output variables 4
# reload computed balance functions from file balance-1550of3248-p11d2m3-debug.log
# p = 11
# n = 4
# smalldomain p^m 1331
# domain p^n 14641
#	 p^2 = 121
#	 p^3 = 1331
#	 p^4 = 14641
#	 p^5 = 161051
#	 p^6 = 1771561
#	 p^7 = 19487171
#	 p^8 = 214358881
#	 p^9 = 2357947691
opening file : balance-1550of3248-p11d2m3-debug.log
reloading for step2...
9300001		 # 	collision with: 5 2 0 0  and 6 2 0 0 
9300003		 # 	collision with: 4 3 1 0  and 8 4 1 0 
9300049		 # 	collision with: 10 9 1 0  and 7 0 2 0 
9300051		 # 	collision with: 0 6 0 0  and 10 4 2 0 
9300057		 # 	collision with: 7 2 2 0  and 7 3 2 0 
9300059		 # 	collision with: 6 1 0 0  and 4 2 0 0 
9300060		 # 	collision with: 5 4 1 0  and 4 1 2 0 
9300062		 # 	collision with: 0 0 0 0  and 1 0 1 0 
9300077		 # 	collision with: 0 0 0 0  and 1 0 1 0 
9300079		 # 	collision with: 6 2 0 0  and 6 6 2 0 
9300089		 # 	collision with: 0 0 0 0  and 1 0 1 0 
9300091		 # 	collision with: 2 0 0 0  and 2 2 0 0 
9300109		 # 	collision with: 5 2 0 0  and 6 2 0 0 
9300111		 # 	collision with: 4 0 0 0  and 6 2 0 0 
9300117		 # 	collision with: 4 2 1 0  and 7 2 2 0 
9300119		 # 	collision with: 10 2 1 0  and 10 2 2 0 
9300165		 # 	collision with: 4 6 1 0  and 5 6 1 0 
9300167		 # 	collision with: 4 5 0 0  and 6 6 1 0 
9300287		 # 	collision with: 4 0 0 0  and 6 2 0 0 
9300313		 # 	collision with: 5 0 0 0  and 6 2 0 0 
9300315		 # 	collision with: 4 5 0 0  and 3 6 2 0 
9300339		 # 	collision with: 6 2 0 0  and 8 0 1 0 
9300365		 # 	collision with: 1 7 0 0  and 7 3 2 0 
9300367		 # 	collision with: 0 1 1 0  and 4 2 1 0 
9300485		 # 	collision with: 7 0 0 0  and 5 2 2 0 
9300487		 # 	collision with: 2 0 0 0  and 2 2 0 0 
9300533		 # 	collision with: 5 0 0 0  and 6 2 0 0 
9300541		 # 	collision with: 7 1 2 0  and 6 3 2 0 
9300543		 # 	collision with: 0 0 0 0  and 1 0 1 0 
9300544		 # 	collision with: 0 0 0 0  and 1 0 1 0 
9300546		 # 	collision with: 8 9 0 0  and 5 3 2 0 
9300561		 # 	collision with: 6 1 0 0  and 6 8 1 0 
9300563		 # 	collision with: 2 9 0 0  and 8 4 1 0 
9300573		 # 	collision with: 8 1 0 0  and 8 0 1 0 
9300575		 # 	collision with: 5 1 0 0  and 5 0 1 0 
9300593		 # 	collision with: 3 10 1 0  and 4 7 3 0 
9300603		 # 	collision with: 3 4 1 0  and 3 5 1 0 
9300649		 # 	collision with: 5 2 1 0  and 7 5 2 0 
9300651		 # 	collision with: 0 7 0 0  and 8 9 1 0 
9300769		 # 	collision with: 2 1 1 0  and 4 1 1 0 
9300771		 # 	collision with: 2 5 0 0  and 6 8 1 0 
9300797		 # 	collision with: 7 6 2 0  and 1 2 3 0 
9300799		 # 	collision with: 10 6 0 0  and 0 3 1 0 
9300821		 # 	collision with: 4 10 0 0  and 2 5 1 0 
9300823		 # 	collision with: 3 4 1 0  and 3 5 1 0 
9300849		 # 	collision with: 2 1 2 0  and 2 2 2 0 
9300851		 # 	collision with: 5 10 0 0  and 3 6 1 0 
9300969		 # 	collision with: 6 3 0 0  and 3 6 1 0 
9301017		 # 	collision with: 0 0 0 0  and 1 0 1 0 
9301019		 # 	collision with: 10 6 0 0  and 0 3 1 0 
9301027		 # 	collision with: 5 3 1 0  and 8 2 2 0 
9301041		 # 	collision with: 7 2 2 0  and 7 3 2 0 
9301043		 # 	collision with: 1 7 0 0  and 7 1 1 0 
9301061		 # 	collision with: 4 1 0 0  and 9 0 1 0 
9301063		 # 	collision with: 4 7 0 0  and 6 7 0 0 
9301073		 # 	collision with: 5 2 0 0  and 6 2 0 0 
9301075		 # 	collision with: 10 9 0 0  and 10 5 1 0 
9301089		 # 	collision with: 1 8 0 0  and 0 8 1 0 
9301091		 # 	collision with: 6 10 0 0  and 7 7 1 0 
9301135		 # 	collision with: 0 10 0 0  and 2 7 1 0 
9301261		 # 	collision with: 2 10 0 0  and 4 0 1 0 
9301263		 # 	collision with: 4 7 2 0  and 6 1 3 0 
9301273		 # 	collision with: 9 2 0 0  and 4 9 1 0 
9301275		 # 	collision with: 8 2 0 0  and 3 7 1 0 
9301313		 # 	collision with: 10 10 0 0  and 0 0 1 0 
9301315		 # 	collision with: 5 1 0 0  and 2 0 1 0 
9301325		 # 	collision with: 4 9 0 0  and 7 1 2 0 
9301327		 # 	collision with: 4 7 0 0  and 6 7 0 0 
9301455		 # 	collision with: 0 8 1 0  and 1 8 1 0 
9301469		 # 	collision with: 5 2 0 0  and 6 2 0 0 
9301471		 # 	collision with: 2 5 1 0  and 9 6 1 0 
9301497		 # 	collision with: 10 10 0 0  and 1 4 1 0 
9301499		 # 	collision with: 1 8 0 0  and 10 3 1 0 
9301512		 # 	collision with: 7 3 1 0  and 2 6 2 0 
9301514		 # 	collision with: 9 2 0 0  and 0 4 2 0 
9301525		 # 	collision with: 9 1 1 0  and 0 1 2 0 
9301527		 # 	collision with: 0 7 0 0  and 6 0 1 0 
9301545		 # 	collision with: 4 7 0 0  and 6 2 1 0 
9301547		 # 	collision with: 0 7 0 0  and 6 0 1 0 
9301557		 # 	collision with: 0 6 0 0  and 6 5 1 0 
9301559		 # 	collision with: 4 7 0 0  and 6 7 0 0 
9301573		 # 	collision with: 4 2 1 0  and 4 4 1 0 
9301575		 # 	collision with: 8 7 0 0  and 6 6 1 0 
9301617		 # 	collision with: 4 2 1 0  and 4 4 1 0 
9301745		 # 	collision with: 4 4 0 0  and 2 8 1 0 
9301747		 # 	collision with: 5 9 0 0  and 10 2 1 0 
9301797		 # 	collision with: 5 2 0 0  and 6 2 0 0 
9301799		 # 	collision with: 9 5 0 0  and 4 1 1 0 
9301811		 # 	collision with: 4 2 2 0  and 4 3 2 0 
9301937		 # 	collision with: 1 3 0 0  and 1 3 1 0 
9301939		 # 	collision with: 7 4 0 0  and 7 0 2 0 
9301953		 # 	collision with: 6 8 0 0  and 9 5 2 0 
9301955		 # 	collision with: 4 7 0 0  and 6 7 0 0 
9301981		 # 	collision with: 2 3 0 0  and 2 3 1 0 
9301983		 # 	collision with: 10 1 1 0  and 1 2 1 0 
9301996		 # 	collision with: 5 8 0 0  and 10 2 1 0 
9301998		 # 	collision with: 10 6 0 0  and 4 0 1 0 
9302011		 # 	collision with: 4 7 0 0  and 6 7 0 0 
9302029		 # 	collision with: 6 4 0 0  and 6 5 0 0 
9302031		 # 	collision with: 3 5 0 0  and 4 8 1 0 
9302041		 # 	collision with: 9 3 0 0  and 3 1 1 0 
9302043		 # 	collision with: 3 4 1 0  and 3 5 1 0 
9302057		 # 	collision with: 1 4 0 0  and 10 5 0 0 
9302059		 # 	collision with: 7 3 0 0  and 7 3 2 0 
9302101		 # 	collision with: 1 4 0 0  and 10 5 0 0 
9302103		 # 	collision with: 9 3 0 0  and 9 3 2 0 
9302229		 # 	collision with: 7 7 0 0  and 3 7 1 0 
9302231		 # 	collision with: 4 7 0 0  and 6 7 0 0 
9302241		 # 	collision with: 10 6 1 0  and 10 6 2 0 
9302243		 # 	collision with: 9 4 0 0  and 1 5 0 0 
9302281		 # 	collision with: 8 4 0 0  and 10 6 1 0 
9302283		 # 	collision with: 3 4 0 0  and 3 5 0 0 
9302293		 # 	collision with: 6 4 0 0  and 6 5 0 0 
9302295		 # 	collision with: 1 4 1 0  and 3 4 1 0 
9302421		 # 	collision with: 0 1 0 0  and 9 7 1 0 
9302423		 # 	collision with: 7 3 0 0  and 7 3 1 0 
9302437		 # 	collision with: 7 8 0 0  and 2 4 1 0 
9302439		 # 	collision with: 8 6 0 0  and 5 1 1 0 
9302465		 # 	collision with: 2 9 0 0  and 4 1 1 0 
9302467		 # 	collision with: 3 3 0 0  and 3 3 1 0 
9302480		 # 	collision with: 1 9 1 0  and 8 10 2 0 
9302482		 # 	collision with: 10 2 0 0  and 5 9 1 0 
9302493		 # 	collision with: 3 7 0 0  and 7 7 1 0 
9302495		 # 	collision with: 3 3 0 0  and 5 6 1 0 
9302513		 # 	collision with: 8 4 0 0  and 7 4 1 0 
9302525		 # 	collision with: 1 10 0 0  and 5 0 2 0 
9302527		 # 	collision with: 7 6 0 0  and 2 10 1 0 
9302541		 # 	collision with: 5 2 0 0  and 6 2 0 0 
9302543		 # 	collision with: 6 3 0 0  and 6 5 0 0 
9302585		 # 	collision with: 5 2 0 0  and 6 2 0 0 
9302587		 # 	collision with: 6 3 0 0  and 6 5 0 0 
9302713		 # 	collision with: 3 1 0 0  and 8 7 1 0 
9302715		 # 	collision with: 0 6 2 0  and 4 4 3 0 
9302725		 # 	collision with: 5 0 1 0  and 5 2 1 0 
9302727		 # 	collision with: 4 7 0 0  and 6 7 0 0 
9302765		 # 	collision with: 2 1 1 0  and 2 2 1 0 
9302767		 # 	collision with: 1 4 1 0  and 3 4 1 0 
9302777		 # 	collision with: 0 2 0 0  and 4 3 1 0 
9302779		 # 	collision with: 0 1 0 0  and 2 5 1 0 
9302905		 # 	collision with: 1 3 0 0  and 10 5 0 0 
9302907		 # 	collision with: 8 7 0 0  and 6 6 2 0 
9302921		 # 	collision with: 4 0 0 0  and 4 6 1 0 
9302949		 # 	collision with: 1 3 0 0  and 10 5 0 0 
9302951		 # 	collision with: 6 3 0 0  and 7 3 1 0 
9302964		 # 	collision with: 8 4 0 0  and 7 1 1 0 
9302966		 # 	collision with: 1 5 0 0  and 4 2 1 0 
9302977		 # 	collision with: 4 7 0 0  and 0 8 1 0 
9302979		 # 	collision with: 7 7 0 0  and 10 10 2 0 
9302997		 # 	collision with: 4 4 0 0  and 0 4 1 0 
9302999		 # 	collision with: 10 3 0 0  and 2 4 1 0 
9303009		 # 	collision with: 1 3 0 0  and 1 4 0 0 
9303011		 # 	collision with: 9 3 0 0  and 9 4 0 0 
9303025		 # 	collision with: 5 6 0 0  and 6 10 1 0 
9303069		 # 	collision with: 3 6 0 0  and 3 4 1 0 
9303071		 # 	collision with: 7 4 0 0  and 5 2 1 0 
9303197		 # 	collision with: 4 7 0 0  and 0 8 1 0 
9303209		 # 	collision with: 1 3 0 0  and 10 5 1 0 
9303211		 # 	collision with: 5 2 0 0  and 7 0 1 0 
9303249		 # 	collision with: 1 2 0 0  and 4 0 1 0 
9303251		 # 	collision with: 4 3 0 0  and 6 4 0 0 
9303261		 # 	collision with: 4 4 0 0  and 0 4 1 0 
9303263		 # 	collision with: 4 1 2 0  and 5 1 2 0 
9303389		 # 	collision with: 7 5 0 0  and 0 0 1 0 
9303391		 # 	collision with: 8 3 0 0  and 4 8 1 0 
9303405		 # 	collision with: 1 3 0 0  and 1 4 0 0 
9303407		 # 	collision with: 9 3 0 0  and 9 4 0 0 
9303433		 # 	collision with: 7 5 0 0  and 0 0 1 0 
9303435		 # 	collision with: 2 4 0 0  and 10 3 1 0 
9303448		 # 	collision with: 3 1 0 0  and 9 3 1 0 
9303450		 # 	collision with: 0 6 1 0  and 2 0 2 0 
9303461		 # 	collision with: 5 2 0 0  and 6 2 0 0 
9303463		 # 	collision with: 5 0 0 0  and 9 5 1 0 
9303481		 # 	collision with: 3 7 1 0  and 10 1 2 0 
9303483		 # 	collision with: 5 2 1 0  and 0 0 2 0 
9303493		 # 	collision with: 7 2 0 0  and 4 4 0 0 
9303495		 # 	collision with: 2 0 1 0  and 0 4 2 0 
9303511		 # 	collision with: 2 0 1 0  and 2 2 1 0 
9303553		 # 	collision with: 7 2 0 0  and 10 7 1 0 
9303555		 # 	collision with: 2 0 1 0  and 2 2 1 0 
9303681		 # 	collision with: 5 2 0 0  and 6 2 0 0 
9303683		 # 	collision with: 9 7 0 0  and 1 7 1 0 
9303693		 # 	collision with: 6 9 0 0  and 0 1 2 0 
9303695		 # 	collision with: 8 5 1 0  and 8 6 1 0 
9303733		 # 	collision with: 4 2 0 0  and 4 4 0 0 
9303735		 # 	collision with: 4 0 1 0  and 0 1 1 0 
9303745		 # 	collision with: 10 4 0 0  and 10 4 1 0 
9303747		 # 	collision with: 0 8 0 0  and 5 6 1 0 
9303873		 # 	collision with: 5 4 0 0  and 9 9 1 0 
9303875		 # 	collision with: 4 8 1 0  and 10 2 2 0 
9303891		 # 	collision with: 8 6 1 0  and 4 4 2 0 
9303917		 # 	collision with: 6 7 0 0  and 6 2 1 0 
9303919		 # 	collision with: 4 3 0 0  and 5 7 1 0 
9303932		 # 	collision with: 2 7 0 0  and 8 5 1 0 
9303934		 # 	collision with: 4 3 0 0  and 5 7 2 0 
9303945		 # 	collision with: 7 7 0 0  and 8 6 1 0 
9303947		 # 	collision with: 10 0 1 0  and 0 2 1 0 
9303965		 # 	collision with: 5 2 0 0  and 6 2 0 0 
9303967		 # 	collision with: 4 5 0 0  and 9 6 1 0 
9303979		 # 	collision with: 4 8 1 0  and 1 2 2 0 
9303993		 # 	collision with: 4 7 0 0  and 4 10 1 0 
9303995		 # 	collision with: 4 7 0 0  and 6 7 0 0 
9304037		 # 	collision with: 8 0 1 0  and 1 1 1 0 
9304039		 # 	collision with: 4 7 0 0  and 6 7 0 0 
9304165		 # 	collision with: 10 0 0 0  and 8 1 1 0 
9304167		 # 	collision with: 1 1 1 0  and 8 1 2 0 
9304177		 # 	collision with: 1 4 1 0  and 5 6 1 0 
9304179		 # 	collision with: 9 9 0 0  and 10 1 1 0 
9304217		 # 	collision with: 5 6 0 0  and 1 4 1 0 
9304219		 # 	collision with: 4 9 1 0  and 4 7 2 0 
9304229		 # 	collision with: 5 2 0 0  and 6 2 0 0 
9304231		 # 	collision with: 5 0 0 0  and 9 2 1 0 
9304357		 # 	collision with: 3 4 1 0  and 10 5 1 0 
9304359		 # 	collision with: 0 2 0 0  and 10 3 0 0 
9304373		 # 	collision with: 4 2 0 0  and 7 3 0 0 
9304375		 # 	collision with: 5 6 0 0  and 10 3 1 0 
9304403		 # 	collision with: 0 2 0 0  and 10 3 0 0 
9304416		 # 	collision with: 7 8 0 0  and 3 0 1 0 
9304418		 # 	collision with: 7 1 0 0  and 4 6 2 0 
9304429		 # 	collision with: 10 0 1 0  and 1 1 1 0 
9304431		 # 	collision with: 10 6 1 0  and 3 0 2 0 
9304449		 # 	collision with: 1 2 1 0  and 10 2 3 0 
9304451		 # 	collision with: 10 8 1 0  and 3 0 2 0 
9304461		 # 	collision with: 0 7 0 0  and 6 6 2 0 
9304463		 # 	collision with: 10 1 0 0  and 1 2 1 0 
9304477		 # 	collision with: 6 7 0 0  and 2 3 1 0 
9304479		 # 	collision with: 5 7 0 0  and 9 3 1 0 
9304521		 # 	collision with: 4 1 1 0  and 5 1 1 0 
9304523		 # 	collision with: 2 8 0 0  and 10 8 1 0 
9304649		 # 	collision with: 2 5 1 0  and 4 5 1 0 
9304651		 # 	collision with: 5 7 0 0  and 5 7 1 0 
9304661		 # 	collision with: 10 1 0 0  and 10 3 0 0 
9304663		 # 	collision with: 2 10 1 0  and 3 10 1 0 
9304701		 # 	collision with: 2 2 0 0  and 4 8 1 0 
9304703		 # 	collision with: 4 1 2 0  and 5 1 2 0 
9304713		 # 	collision with: 4 2 0 0  and 6 6 2 0 
9304841		 # 	collision with: 4 6 0 0  and 4 0 1 0 
9304843		 # 	collision with: 7 1 0 0  and 7 3 0 0 
9304857		 # 	collision with: 3 6 1 0  and 7 0 3 0 
9304859		 # 	collision with: 2 9 0 0  and 8 0 1 0 
9304885		 # 	collision with: 1 5 2 0  and 1 2 3 0 
9304900		 # 	collision with: 1 6 0 0  and 9 10 1 0 
9304902		 # 	collision with: 8 10 0 0  and 4 3 1 0 
9304913		 # 	collision with: 7 2 1 0  and 7 3 2 0 
9304933		 # 	collision with: 3 8 1 0  and 3 2 2 0 
9304935		 # 	collision with: 10 1 0 0  and 10 2 0 0 
9304945		 # 	collision with: 9 3 0 0  and 8 5 1 0 
9304961		 # 	collision with: 0 2 0 0  and 9 5 1 0 
9304963		 # 	collision with: 4 1 1 0  and 5 1 1 0 
9305005		 # 	collision with: 9 4 1 0  and 0 6 1 0 
9305007		 # 	collision with: 2 5 2 0  and 9 6 3 0 
9305133		 # 	collision with: 7 9 0 0  and 10 3 1 0 
9305135		 # 	collision with: 4 10 0 0  and 0 5 1 0 
9305145		 # 	collision with: 2 3 0 0  and 5 2 1 0 
9305147		 # 	collision with: 7 5 0 0  and 9 10 1 0 
9305185		 # 	collision with: 4 2 0 0  and 4 2 1 0 
9305187		 # 	collision with: 2 4 0 0  and 1 8 1 0 
9305197		 # 	collision with: 4 7 0 0  and 1 8 1 0 
9305199		 # 	collision with: 10 1 0 0  and 10 2 0 0 
9305325		 # 	collision with: 2 1 0 0  and 2 2 0 0 
9305327		 # 	collision with: 10 0 0 0  and 2 4 1 0 
9305341		 # 	collision with: 4 1 1 0  and 8 2 1 0 
9305343		 # 	collision with: 6 3 0 0  and 0 5 1 0 
9305369		 # 	collision with: 2 1 0 0  and 2 2 0 0 
9305371		 # 	collision with: 3 2 0 0  and 6 10 1 0 
9305384		 # 	collision with: 6 10 0 0  and 7 5 1 0 
9305386		 # 	collision with: 6 8 0 0  and 0 3 1 0 
9305397		 # 	collision with: 10 4 1 0  and 1 6 1 0 
9305399		 # 	collision with: 6 4 0 0  and 4 3 2 0 
9305419		 # 	collision with: 10 10 0 0  and 7 8 1 0 
9305429		 # 	collision with: 3 9 1 0  and 0 2 2 0 
9305431		 # 	collision with: 6 5 2 0  and 9 0 3 0 
9305445		 # 	collision with: 5 0 0 0  and 6 2 0 0 
9305447		 # 	collision with: 6 10 0 0  and 10 4 1 0 
9305489		 # 	collision with: 5 0 0 0  and 6 2 0 0 
9305491		 # 	collision with: 8 5 0 0  and 5 1 1 0 
9305617		 # 	collision with: 9 7 0 0  and 8 3 1 0 
9305619		 # 	collision with: 4 3 0 0  and 8 1 2 0 
9305629		 # 	collision with: 9 6 0 0  and 9 2 1 0 
9305631		 # 	collision with: 2 0 0 0  and 2 2 0 0 
9305669		 # 	collision with: 4 2 0 0  and 6 6 1 0 
9305671		 # 	collision with: 2 2 0 0  and 2 2 1 0 
9305681		 # 	collision with: 4 1 1 0  and 8 2 2 0 
9305683		 # 	collision with: 10 9 0 0  and 6 1 1 0 
9305809		 # 	collision with: 9 8 1 0  and 2 5 2 0 
9305811		 # 	collision with: 3 10 0 0  and 2 3 1 0 
9305825		 # 	collision with: 3 0 2 0  and 10 2 2 0 
9305827		 # 	collision with: 9 2 0 0  and 5 1 1 0 
9305853		 # 	collision with: 7 9 0 0  and 3 7 1 0 
9305855		 # 	collision with: 5 2 1 0  and 6 2 1 0 
9305868		 # 	collision with: 9 0 0 0  and 4 1 1 0 
9305870		 # 	collision with: 0 10 0 0  and 7 0 1 0 
9305881		 # 	collision with: 10 4 0 0  and 10 0 1 0 
9305883		 # 	collision with: 9 4 1 0  and 1 5 1 0 
9305901		 # 	collision with: 4 8 0 0  and 7 4 1 0 
9305903		 # 	collision with: 7 1 1 0  and 7 3 1 0 
9305913		 # 	collision with: 10 2 0 0  and 7 8 1 0 
9305915		 # 	collision with: 8 2 1 0  and 10 4 3 0 
9305929		 # 	collision with: 8 0 0 0  and 8 1 0 0 
9305931		 # 	collision with: 7 3 0 0  and 2 1 2 0 
9305973		 # 	collision with: 8 0 0 0  and 8 1 0 0 
9305975		 # 	collision with: 2 1 0 0  and 4 6 1 0 
12.828secs	5833
