# prime 11
# degree 2
# input variables 3
# output variables 3
# reload computed balance functions from file balance-2339of3248-p11d2m3-debug.log
# p = 11
# n = 3
# smalldomain p^m 1331
# domain p^n 1331
#	 p^2 = 121
#	 p^3 = 1331
#	 p^4 = 14641
#	 p^5 = 161051
#	 p^6 = 1771561
#	 p^7 = 19487171
#	 p^8 = 214358881
#	 p^9 = 2357947691
opening file : balance-2339of3248-p11d2m3-debug.log
reloading for step2...
14034025		 # 	collision with: 4 0 0  and 3 2 0 
14034027		 # 	collision with: 4 4 0  and 9 1 1 
14034029		 # 	collision with: 5 2 0  and 0 3 0 
14034031		 # 	collision with: 2 5 0  and 0 0 1 
14034112		 # 	collision with: 0 2 0  and 7 4 0 
14034114		 # 	collision with: 6 0 0  and 9 2 0 
14034136		 # 	collision with: 10 0 0  and 7 1 0 
14034138		 # 	collision with: 0 1 0  and 8 2 0 
14034160		 # 	collision with: 10 3 0  and 7 4 0 
14034162		 # 	collision with: 0 0 0  and 8 1 0 
14034164		 # 	collision with: 0 4 0  and 1 5 0 
14034166		 # 	collision with: 6 1 0  and 7 3 0 
14034187		 # 	collision with: 9 1 0  and 9 3 0 
14034197		 # 	collision with: 2 0 0  and 0 2 0 
14034205		 # 	collision with: 2 0 0  and 0 2 0 
14034207		 # 	collision with: 10 2 0  and 1 3 0 
14034208		 # 	collision with: 8 2 0  and 6 0 1 
14034210		 # 	collision with: 0 1 0  and 4 2 0 
14034236		 # 	collision with: 6 3 0  and 10 2 1 
14034238		 # 	collision with: 1 1 0  and 1 0 1 
14034249		 # 	collision with: 2 0 0  and 0 2 0 
14034251		 # 	collision with: 8 0 0  and 8 1 0 
14034256		 # 	collision with: 0 2 0  and 10 3 0 
14034258		 # 	collision with: 2 2 0  and 0 4 0 
14034264		 # 	collision with: 4 8 0  and 10 1 1 
14034266		 # 	collision with: 7 10 0  and 2 0 1 
14034273		 # 	collision with: 10 0 0  and 7 1 0 
14034275		 # 	collision with: 1 8 0  and 8 0 1 
14034292		 # 	collision with: 5 1 0  and 3 2 0 
14034294		 # 	collision with: 4 1 0  and 7 3 0 
14034304		 # 	collision with: 10 8 0  and 5 0 1 
14034306		 # 	collision with: 10 1 0  and 4 1 1 
14034352		 # 	collision with: 3 4 0  and 4 5 0 
14034354		 # 	collision with: 10 10 0  and 2 0 1 
14034364		 # 	collision with: 4 3 0  and 9 4 0 
14034366		 # 	collision with: 4 9 0  and 2 1 1 
14034385		 # 	collision with: 2 0 0  and 0 2 0 
14034387		 # 	collision with: 0 1 0  and 8 2 0 
14034392		 # 	collision with: 10 8 0  and 0 1 1 
14034394		 # 	collision with: 9 4 0  and 8 6 0 
14034400		 # 	collision with: 7 5 0  and 9 6 0 
14034402		 # 	collision with: 4 0 0  and 0 2 1 
14034409		 # 	collision with: 2 0 0  and 0 2 0 
14034411		 # 	collision with: 3 1 0  and 10 2 0 
14034417		 # 	collision with: 2 0 0  and 0 2 0 
14034420		 # 	collision with: 3 5 0  and 10 6 0 
14034422		 # 	collision with: 6 5 0  and 7 6 0 
14034448		 # 	collision with: 7 7 0  and 7 0 1 
14034450		 # 	collision with: 0 0 0  and 2 1 0 
14034453		 # 	collision with: 2 0 0  and 0 2 0 
14034455		 # 	collision with: 5 3 0  and 1 0 1 
14034475		 # 	collision with: 4 6 0  and 6 0 1 
14034492		 # 	collision with: 9 8 0  and 0 1 1 
14034494		 # 	collision with: 10 7 0  and 4 0 1 
14034496		 # 	collision with: 2 2 0  and 7 3 0 
14034498		 # 	collision with: 5 3 0  and 2 1 1 
14034520		 # 	collision with: 2 4 0  and 4 5 0 
14034522		 # 	collision with: 10 1 0  and 8 2 0 
14034544		 # 	collision with: 1 6 0  and 3 0 1 
14034546		 # 	collision with: 10 1 0  and 4 2 0 
14034548		 # 	collision with: 0 1 1  and 5 2 1 
14034550		 # 	collision with: 7 4 0  and 0 5 0 
14034596		 # 	collision with: 2 8 0  and 3 0 1 
14034598		 # 	collision with: 0 5 0  and 8 6 0 
14034620		 # 	collision with: 4 1 0  and 3 3 0 
14034622		 # 	collision with: 4 1 0  and 7 3 0 
14034644		 # 	collision with: 10 4 0  and 9 6 0 
14034646		 # 	collision with: 0 3 0  and 3 5 0 
14034648		 # 	collision with: 4 3 0  and 7 4 0 
14034650		 # 	collision with: 8 4 0  and 4 6 0 
14034669		 # 	collision with: 1 9 0  and 3 9 0 
14034681		 # 	collision with: 9 4 0  and 2 2 1 
14034683		 # 	collision with: 3 1 0  and 1 3 0 
14034689		 # 	collision with: 6 1 0  and 0 3 0 
14034691		 # 	collision with: 3 1 0  and 1 3 0 
14034692		 # 	collision with: 0 0 0  and 1 1 1 
14034694		 # 	collision with: 5 7 0  and 6 7 0 
14034720		 # 	collision with: 8 10 0  and 3 0 1 
14034722		 # 	collision with: 7 4 0  and 7 5 0 
14034733		 # 	collision with: 4 6 0  and 5 6 0 
14034735		 # 	collision with: 3 1 0  and 1 3 0 
14034740		 # 	collision with: 5 1 0  and 3 2 0 
14034742		 # 	collision with: 0 4 0  and 9 6 0 
14034748		 # 	collision with: 9 5 0  and 6 0 1 
14034750		 # 	collision with: 5 1 0  and 10 3 1 
14034757		 # 	collision with: 8 2 0  and 8 0 1 
14034776		 # 	collision with: 4 1 0  and 1 0 1 
14034778		 # 	collision with: 3 3 0  and 8 4 0 
14034790		 # 	collision with: 2 2 0  and 2 3 0 
14034836		 # 	collision with: 9 2 0  and 9 3 0 
14034838		 # 	collision with: 10 2 0  and 1 3 0 
14034850		 # 	collision with: 8 0 0  and 5 1 1 
14034869		 # 	collision with: 8 5 0  and 7 6 0 
14034871		 # 	collision with: 3 1 0  and 1 3 0 
14034876		 # 	collision with: 3 4 0  and 3 5 0 
14034878		 # 	collision with: 7 1 0  and 2 3 0 
14034884		 # 	collision with: 3 2 0  and 9 3 0 
14034886		 # 	collision with: 1 9 0  and 6 0 1 
14034893		 # 	collision with: 0 0 0  and 1 1 1 
14034895		 # 	collision with: 3 0 0  and 9 1 0 
14034901		 # 	collision with: 10 6 0  and 3 0 1 
14034903		 # 	collision with: 3 1 0  and 1 3 0 
14034904		 # 	collision with: 8 3 0  and 10 4 0 
14034906		 # 	collision with: 7 2 0  and 1 4 0 
14034932		 # 	collision with: 9 5 0  and 3 1 1 
14034937		 # 	collision with: 0 0 0  and 8 2 0 
14034939		 # 	collision with: 3 1 0  and 1 3 0 
14034957		 # 	collision with: 10 1 0  and 7 2 0 
14034959		 # 	collision with: 3 1 0  and 1 3 0 
14034976		 # 	collision with: 6 1 0  and 0 3 0 
14034980		 # 	collision with: 7 4 0  and 2 6 0 
14034982		 # 	collision with: 7 4 0  and 8 6 0 
14035004		 # 	collision with: 4 7 0  and 3 0 1 
14035006		 # 	collision with: 8 1 0  and 8 0 1 
14035028		 # 	collision with: 5 1 0  and 9 2 0 
14035030		 # 	collision with: 7 6 0  and 10 0 1 
14035032		 # 	collision with: 2 0 0  and 0 2 0 
14035034		 # 	collision with: 9 4 0  and 0 5 0 
14035080		 # 	collision with: 2 0 0  and 0 2 0 
14035082		 # 	collision with: 4 5 0  and 5 6 0 
14035106		 # 	collision with: 8 5 0  and 0 6 0 
14035128		 # 	collision with: 2 0 0  and 0 2 0 
14035130		 # 	collision with: 5 4 0  and 0 6 0 
14035132		 # 	collision with: 2 0 0  and 0 2 0 
14035134		 # 	collision with: 0 4 0  and 8 5 0 
14035153		 # 	collision with: 3 2 0  and 9 3 0 
14035155		 # 	collision with: 8 4 0  and 5 6 0 
14035165		 # 	collision with: 2 2 0  and 6 0 1 
14035167		 # 	collision with: 6 0 0  and 9 2 0 
14035173		 # 	collision with: 6 3 0  and 0 0 1 
14035175		 # 	collision with: 6 5 0  and 2 6 0 
14035176		 # 	collision with: 2 0 0  and 0 2 0 
14035178		 # 	collision with: 4 8 0  and 0 1 1 
14035204		 # 	collision with: 2 0 0  and 0 2 0 
14035206		 # 	collision with: 9 10 0  and 0 0 1 
14035217		 # 	collision with: 7 3 0  and 2 4 0 
14035219		 # 	collision with: 5 0 0  and 9 1 0 
14035224		 # 	collision with: 2 0 0  and 0 2 0 
14035226		 # 	collision with: 3 1 0  and 2 2 0 
14035232		 # 	collision with: 2 0 0  and 0 2 0 
14035234		 # 	collision with: 2 3 0  and 9 0 1 
14035243		 # 	collision with: 5 5 0  and 3 6 0 
14035260		 # 	collision with: 9 0 0  and 3 1 0 
14035262		 # 	collision with: 4 3 0  and 6 1 1 
14035272		 # 	collision with: 2 0 0  and 0 2 0 
14035320		 # 	collision with: 2 0 0  and 0 2 0 
14035322		 # 	collision with: 8 5 0  and 9 0 1 
14035332		 # 	collision with: 2 0 0  and 0 2 0 
14035334		 # 	collision with: 1 3 0  and 5 4 0 
14035353		 # 	collision with: 9 4 0  and 8 5 0 
14035355		 # 	collision with: 4 0 0  and 7 1 0 
14035360		 # 	collision with: 2 0 0  and 0 2 0 
14035368		 # 	collision with: 2 0 0  and 0 2 0 
14035370		 # 	collision with: 5 8 0  and 2 1 1 
14035379		 # 	collision with: 1 6 0  and 1 7 0 
14035385		 # 	collision with: 0 1 0  and 5 2 0 
14035387		 # 	collision with: 6 2 0  and 10 4 0 
14035388		 # 	collision with: 2 0 0  and 0 2 0 
14035390		 # 	collision with: 3 1 0  and 2 3 0 
14035416		 # 	collision with: 2 0 0  and 0 2 0 
14035418		 # 	collision with: 7 6 0  and 9 1 1 
14035421		 # 	collision with: 8 4 0  and 9 5 0 
14035423		 # 	collision with: 9 1 0  and 5 3 0 
14035441		 # 	collision with: 1 9 0  and 9 0 1 
14035443		 # 	collision with: 7 10 0  and 9 0 1 
14035460		 # 	collision with: 2 0 0  and 0 2 0 
14035462		 # 	collision with: 4 1 0  and 4 0 1 
14035464		 # 	collision with: 2 0 0  and 0 2 0 
14035466		 # 	collision with: 3 1 0  and 10 2 0 
14035488		 # 	collision with: 2 0 0  and 0 2 0 
14035490		 # 	collision with: 2 5 0  and 3 6 0 
14035514		 # 	collision with: 0 2 0  and 1 2 0 
14035516		 # 	collision with: 6 4 0  and 0 5 0 
14035518		 # 	collision with: 5 6 0  and 10 2 1 
14035564		 # 	collision with: 0 1 0  and 7 2 0 
14035566		 # 	collision with: 0 8 0  and 2 8 0 
14035588		 # 	collision with: 7 4 0  and 2 6 0 
14035590		 # 	collision with: 0 5 0  and 1 6 0 
14035612		 # 	collision with: 6 0 0  and 9 1 0 
14035616		 # 	collision with: 4 2 1  and 6 2 1 
14035618		 # 	collision with: 2 3 0  and 5 4 0 
14035637		 # 	collision with: 2 0 0  and 9 1 0 
14035639		 # 	collision with: 5 0 0  and 1 1 0 
14035651		 # 	collision with: 7 3 0  and 1 0 1 
14035657		 # 	collision with: 1 2 0  and 0 0 1 
14035660		 # 	collision with: 5 1 0  and 4 0 1 
14035662		 # 	collision with: 3 3 0  and 8 4 0 
14035688		 # 	collision with: 5 4 0  and 6 5 0 
14035690		 # 	collision with: 0 0 0  and 8 1 0 
14035701		 # 	collision with: 7 3 0  and 3 4 0 
14035710		 # 	collision with: 1 3 0  and 0 4 0 
14035716		 # 	collision with: 1 2 0  and 1 0 1 
14035718		 # 	collision with: 8 0 0  and 2 1 0 
14035725		 # 	collision with: 2 2 0  and 3 4 0 
14035727		 # 	collision with: 1 1 0  and 5 0 1 
14035744		 # 	collision with: 3 5 0  and 10 6 0 
14035756		 # 	collision with: 6 6 0  and 0 1 1 
14035758		 # 	collision with: 0 4 0  and 8 5 0 
14035804		 # 	collision with: 6 1 0  and 0 3 0 
14035806		 # 	collision with: 8 4 0  and 4 5 0 
14035816		 # 	collision with: 9 1 0  and 0 2 0 
14035818		 # 	collision with: 2 0 0  and 9 2 0 
14035837		 # 	collision with: 10 3 0  and 9 4 0 
14035839		 # 	collision with: 3 3 0  and 8 4 0 
14035846		 # 	collision with: 7 2 0  and 2 2 1 
14035852		 # 	collision with: 6 1 0  and 3 3 0 
14035854		 # 	collision with: 7 2 0  and 0 0 1 
14035861		 # 	collision with: 2 4 0  and 3 4 0 
14035863		 # 	collision with: 6 0 0  and 3 2 0 
14035869		 # 	collision with: 8 7 0  and 4 0 1 
14035871		 # 	collision with: 6 2 0  and 10 3 0 
14035872		 # 	collision with: 8 0 0  and 4 2 0 
14035874		 # 	collision with: 4 3 0  and 6 4 0 
14035900		 # 	collision with: 6 10 0  and 9 4 1 
14035902		 # 	collision with: 5 2 0  and 0 2 1 
14035907		 # 	collision with: 1 9 0  and 3 9 0 
14035925		 # 	collision with: 4 1 0  and 7 0 1 
14035927		 # 	collision with: 8 0 0  and 2 1 0 
14035944		 # 	collision with: 3 2 0  and 9 3 0 
14035946		 # 	collision with: 2 0 0  and 3 2 0 
14035948		 # 	collision with: 4 0 0  and 6 1 0 
14035950		 # 	collision with: 8 5 0  and 0 6 0 
14035972		 # 	collision with: 10 4 0  and 0 0 1 
14035974		 # 	collision with: 0 2 0  and 1 2 0 
14035996		 # 	collision with: 1 3 0  and 2 3 0 
14035998		 # 	collision with: 2 1 0  and 5 1 1 
14036000		 # 	collision with: 3 4 0  and 4 5 0 
14036002		 # 	collision with: 4 1 0  and 7 3 0 
14036048		 # 	collision with: 10 1 0  and 5 1 1 
14036050		 # 	collision with: 0 2 0  and 7 0 1 
14036072		 # 	collision with: 4 1 0  and 6 1 0 
14036074		 # 	collision with: 10 2 0  and 1 3 0 
14036096		 # 	collision with: 1 9 0  and 3 9 0 
14036098		 # 	collision with: 6 2 0  and 10 4 0 
14036102		 # 	collision with: 4 6 0  and 5 6 0 
14036121		 # 	collision with: 8 0 0  and 8 2 0 
14036123		 # 	collision with: 2 0 0  and 9 2 0 
14036133		 # 	collision with: 3 5 0  and 4 5 0 
14036135		 # 	collision with: 1 9 0  and 4 0 1 
14036141		 # 	collision with: 8 6 0  and 1 0 1 
14036143		 # 	collision with: 7 3 0  and 6 0 1 
14036144		 # 	collision with: 5 0 0  and 6 2 0 
14036146		 # 	collision with: 4 5 0  and 5 6 0 
14036172		 # 	collision with: 3 3 0  and 1 0 1 
14036185		 # 	collision with: 1 1 0  and 1 2 0 
14036187		 # 	collision with: 1 3 0  and 8 5 0 
14036192		 # 	collision with: 9 4 0  and 7 6 0 
14036194		 # 	collision with: 10 3 0  and 10 4 0 
14036200		 # 	collision with: 3 5 0  and 10 6 0 
14036202		 # 	collision with: 7 1 0  and 10 2 0 
14036209		 # 	collision with: 9 0 0  and 3 1 0 
14036211		 # 	collision with: 9 1 0  and 9 3 0 
14036228		 # 	collision with: 7 5 0  and 0 6 0 
14036230		 # 	collision with: 8 0 0  and 8 1 0 
14036240		 # 	collision with: 7 6 0  and 6 1 1 
14036242		 # 	collision with: 3 2 0  and 0 0 1 
14036288		 # 	collision with: 5 4 0  and 1 5 0 
14036290		 # 	collision with: 1 3 0  and 2 3 0 
14036300		 # 	collision with: 4 4 0  and 2 5 0 
14036302		 # 	collision with: 0 2 0  and 6 3 0 
14036321		 # 	collision with: 0 2 0  and 10 3 0 
14036323		 # 	collision with: 0 4 0  and 10 5 0 
14036328		 # 	collision with: 4 0 0  and 6 1 0 
14036330		 # 	collision with: 2 7 0  and 4 2 1 
14036336		 # 	collision with: 0 1 0  and 5 2 0 
14036338		 # 	collision with: 6 2 0  and 10 3 0 
14036345		 # 	collision with: 5 1 0  and 9 2 0 
14036347		 # 	collision with: 0 5 0  and 2 1 1 
14036353		 # 	collision with: 0 2 0  and 4 3 0 
14036355		 # 	collision with: 10 1 0  and 4 2 0 
14036356		 # 	collision with: 1 2 0  and 7 4 0 
14036358		 # 	collision with: 0 1 0  and 4 2 0 
14036384		 # 	collision with: 6 0 0  and 1 2 0 
14036386		 # 	collision with: 5 7 0  and 7 0 1 
14036389		 # 	collision with: 9 5 0  and 6 0 1 
14036391		 # 	collision with: 7 2 0  and 4 4 0 
14036409		 # 	collision with: 9 1 0  and 4 3 0 
14036411		 # 	collision with: 5 5 0  and 4 0 1 
14036428		 # 	collision with: 5 8 0  and 10 0 1 
14036430		 # 	collision with: 2 1 0  and 8 1 1 
14036434		 # 	collision with: 8 0 0  and 2 1 0 
14036456		 # 	collision with: 4 0 0  and 4 1 0 
14036458		 # 	collision with: 10 10 0  and 2 0 1 
14036480		 # 	collision with: 3 2 0  and 5 3 0 
14036484		 # 	collision with: 3 3 0  and 6 0 1 
14036486		 # 	collision with: 3 1 0  and 1 3 0 
14036532		 # 	collision with: 0 2 0  and 4 3 0 
14036534		 # 	collision with: 3 1 0  and 1 3 0 
14036556		 # 	collision with: 1 2 0  and 10 3 0 
14036580		 # 	collision with: 8 0 0  and 4 2 0 
14036582		 # 	collision with: 3 1 0  and 1 3 0 
14036584		 # 	collision with: 10 2 0  and 7 3 0 
14036586		 # 	collision with: 3 1 0  and 1 3 0 
14036605		 # 	collision with: 3 2 0  and 5 3 0 
14036607		 # 	collision with: 9 5 0  and 10 6 0 
14036617		 # 	collision with: 6 4 0  and 9 6 0 
14036619		 # 	collision with: 3 3 0  and 3 5 0 
14036625		 # 	collision with: 1 1 0  and 1 2 0 
14036627		 # 	collision with: 6 2 0  and 10 3 0 
14036630		 # 	collision with: 3 1 0  and 1 3 0 
14036656		 # 	collision with: 3 5 0  and 4 5 0 
14036658		 # 	collision with: 3 1 0  and 1 3 0 
14036669		 # 	collision with: 9 4 0  and 2 6 0 
14036671		 # 	collision with: 4 5 0  and 5 6 0 
14036676		 # 	collision with: 1 1 0  and 0 2 0 
14036678		 # 	collision with: 3 1 0  and 1 3 0 
14036684		 # 	collision with: 1 3 0  and 3 0 1 
14036686		 # 	collision with: 3 1 0  and 1 3 0 
14036693		 # 	collision with: 0 0 0  and 1 1 1 
14036695		 # 	collision with: 9 4 0  and 0 5 0 
14036712		 # 	collision with: 9 4 0  and 2 6 0 
14036714		 # 	collision with: 5 0 0  and 9 1 0 
14036724		 # 	collision with: 9 1 0  and 1 2 0 
14036726		 # 	collision with: 3 1 0  and 1 3 0 
14036772		 # 	collision with: 0 2 0  and 5 2 1 
14036774		 # 	collision with: 4 0 0  and 10 2 0 
14036784		 # 	collision with: 1 4 0  and 2 5 0 
14036786		 # 	collision with: 3 1 0  and 1 3 0 
14036805		 # 	collision with: 1 1 0  and 0 2 0 
14036807		 # 	collision with: 1 3 0  and 0 4 0 
14036812		 # 	collision with: 6 0 0  and 1 2 0 
14036814		 # 	collision with: 3 1 0  and 1 3 0 
14036820		 # 	collision with: 2 4 0  and 3 4 0 
14036829		 # 	collision with: 2 3 0  and 2 0 1 
14036831		 # 	collision with: 0 3 0  and 8 4 0 
14036837		 # 	collision with: 6 3 0  and 0 5 0 
14036839		 # 	collision with: 6 1 0  and 6 0 1 
14036842		 # 	collision with: 3 1 0  and 1 3 0 
14036868		 # 	collision with: 6 0 0  and 1 1 0 
14036870		 # 	collision with: 3 1 0  and 1 3 0 
14036873		 # 	collision with: 6 1 0  and 0 3 0 
14036875		 # 	collision with: 8 0 0  and 2 1 0 
14036893		 # 	collision with: 6 3 0  and 6 4 0 
14036895		 # 	collision with: 1 3 0  and 8 5 0 
14036912		 # 	collision with: 8 0 0  and 8 2 0 
14036914		 # 	collision with: 3 1 0  and 1 3 0 
14036916		 # 	collision with: 7 6 0  and 3 0 1 
14036918		 # 	collision with: 3 1 0  and 1 3 0 
14036940		 # 	collision with: 3 7 0  and 3 1 1 
14036942		 # 	collision with: 5 1 0  and 7 2 0 
14036964		 # 	collision with: 5 1 0  and 5 3 0 
14036966		 # 	collision with: 3 1 0  and 1 3 0 
14036968		 # 	collision with: 5 6 0  and 0 0 1 
14036970		 # 	collision with: 0 0 0  and 1 1 1 
14037016		 # 	collision with: 2 0 0  and 1 2 0 
14037018		 # 	collision with: 0 2 0  and 6 3 0 
14037040		 # 	collision with: 4 3 0  and 8 5 0 
14037042		 # 	collision with: 5 1 0  and 5 2 0 
14037064		 # 	collision with: 0 0 0  and 4 2 0 
14037066		 # 	collision with: 8 0 0  and 8 1 0 
14037068		 # 	collision with: 8 5 0  and 2 6 0 
14037070		 # 	collision with: 10 1 0  and 4 2 0 
14037089		 # 	collision with: 10 4 0  and 0 5 0 
14037091		 # 	collision with: 7 4 0  and 8 6 0 
14037101		 # 	collision with: 10 3 0  and 10 5 0 
14037103		 # 	collision with: 1 2 0  and 6 3 0 
14037109		 # 	collision with: 6 5 0  and 1 1 1 
14037111		 # 	collision with: 5 2 0  and 1 4 0 
14037112		 # 	collision with: 9 1 0  and 4 3 0 
14037114		 # 	collision with: 7 1 0  and 10 2 0 
14037142		 # 	collision with: 4 1 0  and 7 3 0 
14037153		 # 	collision with: 5 4 0  and 6 5 0 
14037155		 # 	collision with: 3 0 0  and 9 1 0 
14037160		 # 	collision with: 4 0 0  and 4 1 0 
14037168		 # 	collision with: 3 4 0  and 1 0 1 
14037170		 # 	collision with: 3 0 0  and 1 1 0 
14037177		 # 	collision with: 1 2 0  and 7 4 0 
14037179		 # 	collision with: 4 7 0  and 6 1 1 
14037196		 # 	collision with: 1 1 0  and 1 2 0 
14037198		 # 	collision with: 0 0 0  and 2 1 0 
14037208		 # 	collision with: 4 3 0  and 3 0 1 
14037210		 # 	collision with: 5 1 0  and 7 2 0 
14037256		 # 	collision with: 7 5 0  and 0 6 0 
14037258		 # 	collision with: 8 4 0  and 4 6 0 
14037268		 # 	collision with: 6 3 0  and 0 5 0 
14037270		 # 	collision with: 1 3 0  and 2 3 0 
14037289		 # 	collision with: 2 0 0  and 1 1 0 
14037291		 # 	collision with: 2 2 0  and 1 3 0 
14037296		 # 	collision with: 10 4 0  and 0 5 0 
14037298		 # 	collision with: 8 4 0  and 5 6 0 
14037304		 # 	collision with: 6 4 0  and 0 1 1 
14037306		 # 	collision with: 1 2 0  and 0 0 1 
14037313		 # 	collision with: 4 7 0  and 0 0 1 
14037315		 # 	collision with: 8 8 0  and 3 3 1 
14037321		 # 	collision with: 0 10 0  and 3 0 1 
14037323		 # 	collision with: 0 1 0  and 8 2 0 
14037324		 # 	collision with: 1 5 0  and 5 0 1 
14037326		 # 	collision with: 4 6 0  and 2 0 1 
14037354		 # 	collision with: 1 4 0  and 4 0 1 
14037357		 # 	collision with: 3 2 0  and 5 3 0 
14037359		 # 	collision with: 7 1 0  and 1 3 0 
14037377		 # 	collision with: 1 7 0  and 7 0 1 
14037379		 # 	collision with: 3 4 0  and 6 1 1 
14037396		 # 	collision with: 5 8 0  and 2 0 1 
14037398		 # 	collision with: 5 0 1  and 6 1 1 
14037400		 # 	collision with: 8 0 1  and 9 1 1 
14037402		 # 	collision with: 7 2 0  and 1 4 0 
14037424		 # 	collision with: 9 0 0  and 7 1 0 
14037448		 # 	collision with: 3 4 0  and 10 6 0 
14037450		 # 	collision with: 4 1 1  and 7 2 1 
14037452		 # 	collision with: 1 2 0  and 4 3 0 
14037454		 # 	collision with: 10 4 0  and 0 0 1 
14037500		 # 	collision with: 3 4 0  and 4 5 0 
14037524		 # 	collision with: 3 5 0  and 10 6 0 
14037526		 # 	collision with: 1 3 0  and 8 5 0 
14037550		 # 	collision with: 2 3 0  and 0 4 0 
14037552		 # 	collision with: 5 4 0  and 1 1 1 
14037554		 # 	collision with: 3 5 0  and 4 6 0 
14037573		 # 	collision with: 10 0 0  and 3 1 0 
14037575		 # 	collision with: 3 1 0  and 2 3 0 
14037585		 # 	collision with: 10 0 0  and 7 1 0 
14037587		 # 	collision with: 0 3 0  and 4 5 0 
14037593		 # 	collision with: 2 2 0  and 3 4 0 
14037595		 # 	collision with: 7 1 0  and 1 3 0 
14037596		 # 	collision with: 3 5 0  and 4 5 0 
14037598		 # 	collision with: 4 5 0  and 0 1 1 
14037624		 # 	collision with: 5 1 0  and 5 3 0 
14037626		 # 	collision with: 5 4 0  and 9 6 0 
14037637		 # 	collision with: 1 2 0  and 9 4 0 
14037639		 # 	collision with: 10 1 0  and 4 2 0 
14037644		 # 	collision with: 8 5 0  and 7 6 0 
14037646		 # 	collision with: 4 0 0  and 3 1 0 
14037652		 # 	collision with: 3 1 0  and 3 0 1 
14037654		 # 	collision with: 7 1 0  and 2 2 0 
14037661		 # 	collision with: 0 7 0  and 4 0 1 
14037663		 # 	collision with: 2 4 0  and 3 4 0 
14037680		 # 	collision with: 0 2 0  and 1 2 0 
14037682		 # 	collision with: 8 8 0  and 6 0 1 
14037692		 # 	collision with: 1 2 0  and 9 4 0 
14037694		 # 	collision with: 1 6 0  and 6 0 1 
14037740		 # 	collision with: 7 2 0  and 2 0 1 
14037742		 # 	collision with: 5 0 0  and 9 1 0 
14037752		 # 	collision with: 2 3 0  and 3 0 1 
14037754		 # 	collision with: 1 6 0  and 4 0 1 
14037773		 # 	collision with: 2 2 0  and 7 3 0 
14037775		 # 	collision with: 3 1 0  and 2 2 0 
14037780		 # 	collision with: 6 5 0  and 3 0 1 
14037782		 # 	collision with: 1 4 0  and 4 0 1 
14037788		 # 	collision with: 7 1 0  and 10 1 1 
14037790		 # 	collision with: 2 10 0  and 4 10 0 
14037797		 # 	collision with: 7 4 0  and 7 6 0 
14037799		 # 	collision with: 6 9 0  and 9 0 1 
14037805		 # 	collision with: 9 10 0  and 6 1 1 
14037807		 # 	collision with: 8 5 0  and 0 6 0 
14037808		 # 	collision with: 3 9 0  and 4 2 1 
14037836		 # 	collision with: 4 3 0  and 9 4 0 
14037838		 # 	collision with: 7 1 0  and 2 3 0 
14037841		 # 	collision with: 7 9 0  and 2 0 1 
14037843		 # 	collision with: 1 3 0  and 5 1 1 
14037861		 # 	collision with: 2 0 0  and 1 2 0 
14037863		 # 	collision with: 0 3 0  and 8 4 0 
14037882		 # 	collision with: 7 0 0  and 1 2 0 
14037884		 # 	collision with: 7 3 0  and 0 0 1 
14037886		 # 	collision with: 4 1 0  and 7 0 1 
14037908		 # 	collision with: 0 2 0  and 4 3 0 
14037910		 # 	collision with: 4 1 0  and 7 3 0 
14037932		 # 	collision with: 6 3 0  and 5 1 1 
14037934		 # 	collision with: 0 2 0  and 8 3 0 
14037936		 # 	collision with: 4 1 0  and 0 3 0 
14037938		 # 	collision with: 9 1 0  and 5 3 0 
14037984		 # 	collision with: 6 4 0  and 0 6 0 
14037986		 # 	collision with: 10 2 0  and 2 3 0 
14038008		 # 	collision with: 5 1 0  and 9 2 0 
14038010		 # 	collision with: 7 3 0  and 6 5 0 
14038032		 # 	collision with: 10 0 0  and 3 1 0 
14038034		 # 	collision with: 9 4 0  and 8 6 0 
14038036		 # 	collision with: 5 7 0  and 2 1 1 
14038038		 # 	collision with: 1 7 0  and 0 0 1 
14038057		 # 	collision with: 6 0 0  and 1 2 0 
14038059		 # 	collision with: 5 1 0  and 7 2 0 
14038069		 # 	collision with: 0 0 0  and 8 2 0 
14038071		 # 	collision with: 5 1 0  and 5 0 1 
14038079		 # 	collision with: 4 0 0  and 7 1 0 
14038080		 # 	collision with: 9 0 0  and 3 1 0 
14038082		 # 	collision with: 2 2 0  and 5 4 0 
14038108		 # 	collision with: 7 10 0  and 8 2 1 
14038110		 # 	collision with: 10 2 0  and 0 4 0 
14038121		 # 	collision with: 9 0 0  and 4 1 1 
14038123		 # 	collision with: 0 3 0  and 4 5 0 
14038128		 # 	collision with: 1 1 0  and 10 3 0 
14038130		 # 	collision with: 2 2 0  and 1 3 0 
14038138		 # 	collision with: 0 2 0  and 8 3 0 
14038145		 # 	collision with: 1 4 0  and 2 5 0 
14038147		 # 	collision with: 9 4 0  and 8 6 0 
14038164		 # 	collision with: 1 6 0  and 6 0 1 
14038166		 # 	collision with: 7 1 0  and 4 1 1 
14038176		 # 	collision with: 3 4 0  and 4 5 0 
14038178		 # 	collision with: 1 3 0  and 5 4 0 
14038224		 # 	collision with: 1 2 0  and 7 4 0 
14038226		 # 	collision with: 6 2 0  and 6 4 0 
14038236		 # 	collision with: 1 2 0  and 4 1 1 
14038257		 # 	collision with: 10 3 0  and 8 5 0 
14038259		 # 	collision with: 4 0 0  and 3 1 0 
14038264		 # 	collision with: 2 8 0  and 9 1 1 
14038266		 # 	collision with: 2 2 0  and 2 3 0 
14038274		 # 	collision with: 7 1 0  and 1 3 0 
14038281		 # 	collision with: 7 3 0  and 2 4 0 
14038291		 # 	collision with: 5 5 0  and 3 6 0 
14038292		 # 	collision with: 10 1 0  and 7 2 0 
14038294		 # 	collision with: 1 9 0  and 9 0 1 
14038320		 # 	collision with: 9 4 0  and 2 6 0 
14038322		 # 	collision with: 7 1 0  and 2 2 0 
14038325		 # 	collision with: 2 0 0  and 1 2 0 
14038345		 # 	collision with: 10 0 0  and 3 1 0 
14038347		 # 	collision with: 4 5 0  and 4 6 0 
14038364		 # 	collision with: 0 9 0  and 3 0 1 
14038366		 # 	collision with: 1 1 0  and 4 2 1 
14038368		 # 	collision with: 6 8 0  and 1 0 1 
14038392		 # 	collision with: 6 0 0  and 9 1 0 
14038394		 # 	collision with: 7 2 0  and 4 4 0 
14038416		 # 	collision with: 6 1 0  and 1 2 1 
14038418		 # 	collision with: 3 5 0  and 5 6 0 
14038420		 # 	collision with: 9 2 0  and 1 2 1 
14038422		 # 	collision with: 0 7 0  and 5 1 1 
14038470		 # 	collision with: 3 0 0  and 1 1 0 
14038492		 # 	collision with: 2 2 0  and 2 4 0 
14038494		 # 	collision with: 1 1 0  and 9 3 0 
14038516		 # 	collision with: 1 1 0  and 1 2 0 
14038518		 # 	collision with: 6 0 0  and 3 2 0 
14038520		 # 	collision with: 0 5 0  and 9 6 0 
14038522		 # 	collision with: 4 1 0  and 7 3 0 
14038541		 # 	collision with: 6 4 0  and 0 5 0 
14038543		 # 	collision with: 4 6 0  and 5 6 0 
14038553		 # 	collision with: 7 5 0  and 2 0 1 
14038555		 # 	collision with: 7 2 0  and 4 4 0 
14038561		 # 	collision with: 0 2 0  and 4 3 0 
14038563		 # 	collision with: 3 5 0  and 4 6 0 
14038564		 # 	collision with: 9 1 0  and 0 2 0 
14038566		 # 	collision with: 1 1 0  and 5 3 0 
14038592		 # 	collision with: 4 10 0  and 3 0 1 
14038594		 # 	collision with: 8 1 0  and 2 0 1 
14038607		 # 	collision with: 2 4 0  and 3 4 0 
14038612		 # 	collision with: 6 3 0  and 7 5 0 
14038614		 # 	collision with: 0 4 0  and 10 5 0 
14038620		 # 	collision with: 6 0 0  and 1 1 0 
14038629		 # 	collision with: 4 6 0  and 5 6 0 
14038631		 # 	collision with: 10 8 0  and 1 1 1 
14038648		 # 	collision with: 7 1 1  and 1 2 1 
14038650		 # 	collision with: 10 2 0  and 2 3 0 
14038660		 # 	collision with: 7 7 0  and 9 0 1 
14038662		 # 	collision with: 1 2 0  and 7 0 1 
14038708		 # 	collision with: 6 2 0  and 5 4 0 
14038720		 # 	collision with: 4 3 0  and 10 5 0 
14038722		 # 	collision with: 7 3 0  and 1 5 0 
14038743		 # 	collision with: 10 5 0  and 0 6 0 
14038748		 # 	collision with: 10 2 0  and 2 2 1 
14038750		 # 	collision with: 10 5 0  and 0 6 0 
14038756		 # 	collision with: 4 3 0  and 7 4 0 
14038758		 # 	collision with: 2 0 0  and 3 2 0 
14038765		 # 	collision with: 10 1 0  and 7 2 0 
14038767		 # 	collision with: 4 10 0  and 0 0 1 
14038773		 # 	collision with: 0 8 0  and 2 8 0 
14038775		 # 	collision with: 5 6 0  and 9 1 1 
14038776		 # 	collision with: 2 8 0  and 0 0 1 
14038778		 # 	collision with: 8 4 0  and 3 5 0 
14038804		 # 	collision with: 9 0 0  and 7 1 0 
14038806		 # 	collision with: 5 0 0  and 1 1 0 
14038809		 # 	collision with: 1 2 0  and 7 4 0 
14038811		 # 	collision with: 5 1 0  and 7 2 0 
14038829		 # 	collision with: 10 5 0  and 1 1 1 
14038831		 # 	collision with: 8 4 0  and 5 6 0 
14038848		 # 	collision with: 10 0 0  and 3 1 0 
14038850		 # 	collision with: 3 5 0  and 1 0 1 
14038852		 # 	collision with: 3 4 0  and 4 5 0 
14038854		 # 	collision with: 9 5 0  and 7 1 1 
14038878		 # 	collision with: 1 2 0  and 6 3 0 
14038900		 # 	collision with: 10 2 0  and 2 4 0 
14038902		 # 	collision with: 1 7 0  and 9 0 1 
14038904		 # 	collision with: 2 0 1  and 0 2 1 
14038906		 # 	collision with: 3 0 0  and 9 1 0 
14038952		 # 	collision with: 4 1 0  and 6 1 0 
14038954		 # 	collision with: 9 3 0  and 7 1 1 
14038976		 # 	collision with: 2 4 0  and 3 5 0 
14038978		 # 	collision with: 0 8 0  and 2 8 0 
14039000		 # 	collision with: 3 4 0  and 4 5 0 
14039002		 # 	collision with: 4 6 0  and 5 6 0 
14039004		 # 	collision with: 6 3 0  and 6 4 0 
14039025		 # 	collision with: 8 3 0  and 6 4 0 
14039027		 # 	collision with: 4 0 0  and 10 2 0 
14039037		 # 	collision with: 8 3 0  and 6 4 0 
14039039		 # 	collision with: 7 2 0  and 2 1 1 
14039045		 # 	collision with: 9 1 0  and 1 2 0 
14039047		 # 	collision with: 9 2 0  and 9 0 1 
14039048		 # 	collision with: 0 0 0  and 8 2 0 
14039076		 # 	collision with: 7 5 0  and 9 6 0 
14039078		 # 	collision with: 6 5 0  and 0 0 1 
14039089		 # 	collision with: 8 3 0  and 6 4 0 
14039091		 # 	collision with: 0 0 0  and 1 1 1 
14039096		 # 	collision with: 2 0 0  and 1 1 0 
14039098		 # 	collision with: 4 0 0  and 2 2 0 
14039104		 # 	collision with: 9 1 0  and 4 3 0 
14039106		 # 	collision with: 6 5 0  and 4 0 1 
14039113		 # 	collision with: 8 0 0  and 8 2 0 
14039115		 # 	collision with: 7 0 0  and 1 2 0 
14039134		 # 	collision with: 5 1 0  and 5 0 1 
14039144		 # 	collision with: 2 0 0  and 9 1 0 
14039146		 # 	collision with: 10 3 0  and 6 4 0 
14039194		 # 	collision with: 7 0 0  and 1 2 0 
14039204		 # 	collision with: 9 1 0  and 10 3 0 
14039206		 # 	collision with: 4 0 0  and 7 1 0 
14039225		 # 	collision with: 1 1 0  and 10 3 0 
14039232		 # 	collision with: 10 4 0  and 9 6 0 
14039234		 # 	collision with: 0 5 0  and 8 6 0 
14039240		 # 	collision with: 4 4 0  and 2 5 0 
14039242		 # 	collision with: 2 3 0  and 5 4 0 
14039249		 # 	collision with: 8 3 0  and 6 4 0 
14039251		 # 	collision with: 3 4 0  and 3 4 1 
14039257		 # 	collision with: 8 3 0  and 6 4 0 
14039259		 # 	collision with: 5 5 0  and 6 0 1 
14039260		 # 	collision with: 10 8 0  and 0 1 1 
14039262		 # 	collision with: 2 3 0  and 0 4 0 
14039288		 # 	collision with: 8 9 0  and 2 0 1 
14039290		 # 	collision with: 5 4 0  and 10 5 0 
14039293		 # 	collision with: 8 3 0  and 6 4 0 
14039295		 # 	collision with: 10 3 0  and 6 4 0 
14039313		 # 	collision with: 8 3 0  and 6 4 0 
14039332		 # 	collision with: 3 5 0  and 10 6 0 
14039334		 # 	collision with: 6 0 0  and 3 2 0 
14039336		 # 	collision with: 9 8 0  and 0 0 1 
14039338		 # 	collision with: 0 3 0  and 4 5 0 
14039360		 # 	collision with: 1 3 0  and 2 3 0 
14039362		 # 	collision with: 10 3 0  and 10 4 0 
14039384		 # 	collision with: 7 3 0  and 2 4 0 
14039386		 # 	collision with: 6 4 0  and 5 1 1 
14039393		 # 	collision with: 9 2 0  and 6 4 0 
14039395		 # 	collision with: 6 1 0  and 2 2 0 
14039429		 # 	collision with: 9 0 0  and 6 1 0 
14039431		 # 	collision with: 3 0 0  and 10 1 0 
14039437		 # 	collision with: 5 3 0  and 3 5 0 
14039439		 # 	collision with: 3 3 0  and 3 5 0 
14039461		 # 	collision with: 5 3 0  and 3 5 0 
14039463		 # 	collision with: 8 3 0  and 1 0 1 
14039511		 # 	collision with: 3 3 1  and 0 5 1 
14039621		 # 	collision with: 5 3 0  and 3 5 0 
14039623		 # 	collision with: 7 3 0  and 1 4 0 
14039625		 # 	collision with: 5 3 0  and 3 5 0 
14039627		 # 	collision with: 7 4 0  and 7 5 0 
14039681		 # 	collision with: 5 3 0  and 3 5 0 
14039683		 # 	collision with: 0 1 0  and 2 2 0 
14039685		 # 	collision with: 5 0 0  and 8 1 0 
14039687		 # 	collision with: 4 4 0  and 8 0 1 
14039799		 # 	collision with: 3 4 0  and 1 6 0 
14039845		 # 	collision with: 1 1 0  and 4 2 0 
14039847		 # 	collision with: 5 1 0  and 0 2 0 
14039869		 # 	collision with: 5 3 0  and 3 5 0 
14039871		 # 	collision with: 7 3 0  and 10 1 1 
14039872		 # 	collision with: 0 0 0  and 3 2 0 
14039874		 # 	collision with: 8 1 0  and 2 0 1 
14039877		 # 	collision with: 0 4 0  and 10 5 0 
14039913		 # 	collision with: 7 1 0  and 0 0 1 
14039915		 # 	collision with: 3 2 0  and 2 3 0 
14039921		 # 	collision with: 9 6 0  and 6 2 1 
14039923		 # 	collision with: 3 2 0  and 2 3 0 
14039945		 # 	collision with: 2 0 0  and 9 1 0 
14039947		 # 	collision with: 0 1 0  and 3 2 0 
14039993		 # 	collision with: 8 1 1  and 0 2 1 
7.88591secs	4915
