# prime 11
# degree 2
# input variables 3
# output variables 5
# reload computed balance functions from file balance-919of3248-p11d2m3-debug.log
# p = 11
# n = 5
# smalldomain p^m 1331
# domain p^n 161051
#	 p^2 = 121
#	 p^3 = 1331
#	 p^4 = 14641
#	 p^5 = 161051
#	 p^6 = 1771561
#	 p^7 = 19487171
#	 p^8 = 214358881
#	 p^9 = 2357947691
opening file : balance-919of3248-p11d2m3-debug.log
reloading for step2...
5514001		 # 	collision with: 4 8 0 0 0  and 6 8 0 0 0 
5514003		 # 	collision with: 4 5 1 0 0  and 4 5 3 0 0 
5514048		 # 	collision with: 2 5 0 0 0  and 4 5 0 0 0 
5514065		 # 	collision with: 3 1 0 0 0  and 5 1 0 0 0 
5514067		 # 	collision with: 2 3 1 0 0  and 2 3 3 0 0 
5514095		 # 	collision with: 9 6 1 0 0  and 9 5 3 0 0 
5514102		 # 	collision with: 9 2 3 0 0  and 9 4 3 0 0 
5514141		 # 	collision with: 2 5 0 0 0  and 4 5 0 0 0 
5514143		 # 	collision with: 8 8 1 0 0  and 8 8 3 0 0 
5514152		 # 	collision with: 4 10 0 0 0  and 5 10 0 0 0 
5514154		 # 	collision with: 9 0 10 0 0  and 9 1 10 0 0 
5514181		 # 	collision with: 2 7 0 0 0  and 3 7 0 0 0 
5514183		 # 	collision with: 10 7 1 0 0  and 10 7 3 0 0 
5514204		 # 	collision with: 1 9 0 0 0  and 3 9 0 0 0 
5514206		 # 	collision with: 9 5 9 0 0  and 9 6 9 0 0 
5514212		 # 	collision with: 6 4 6 8 0  and 0 1 0 0 1 
5514214		 # 	collision with: 8 6 8 0 0  and 0 4 0 1 0 
5514216		 # 	collision with: 3 3 0 0 0  and 4 3 0 0 0 
5514218		 # 	collision with: 9 4 3 0 0  and 9 5 3 0 0 
5514220		 # 	collision with: 2 7 0 0 0  and 3 7 0 0 0 
5514222		 # 	collision with: 9 4 7 0 0  and 9 5 7 0 0 
5514224		 # 	collision with: 3 1 0 0 0  and 5 1 0 0 0 
5514226		 # 	collision with: 9 1 1 0 0  and 9 2 1 0 0 
5514228		 # 	collision with: 1 9 0 0 0  and 3 9 0 0 0 
5514232		 # 	collision with: 2 5 0 0 0  and 4 5 0 0 0 
5514234		 # 	collision with: 9 2 5 0 0  and 9 3 5 0 0 
5514236		 # 	collision with: 5 6 0 0 0  and 6 6 0 0 0 
5514238		 # 	collision with: 9 0 6 0 0  and 9 1 6 0 0 
5514240		 # 	collision with: 0 2 0 0 0  and 2 2 0 0 0 
5514242		 # 	collision with: 9 2 2 0 0  and 9 3 2 0 0 
5514244		 # 	collision with: 4 10 0 0 0  and 5 10 0 0 0 
5514246		 # 	collision with: 9 1 10 0 0  and 9 2 10 0 0 
5514248		 # 	collision with: 0 4 0 0 0  and 1 4 0 0 0 
5514250		 # 	collision with: 9 3 4 0 0  and 9 5 4 0 0 
5514252		 # 	collision with: 4 8 0 0 0  and 6 8 0 0 0 
5514254		 # 	collision with: 9 3 8 0 0  and 9 5 8 0 0 
5514264		 # 	collision with: 2 7 0 0 0  and 3 7 0 0 0 
5514266		 # 	collision with: 9 4 7 0 0  and 9 5 7 0 0 
5514289		 # 	collision with: 0 0 0 0 0  and 3 0 0 0 0 
5514291		 # 	collision with: 10 0 1 0 0  and 10 0 2 0 0 
5514316		 # 	collision with: 1 9 0 0 0  and 3 9 0 0 0 
5514318		 # 	collision with: 9 0 9 0 0  and 9 1 9 0 0 
5514329		 # 	collision with: 0 0 0 0 0  and 3 0 0 0 0 
5514368		 # 	collision with: 5 6 0 0 0  and 6 6 0 0 0 
5514370		 # 	collision with: 9 0 6 0 0  and 9 1 6 0 0 
5514377		 # 	collision with: 0 0 0 0 0  and 3 0 0 0 0 
5514379		 # 	collision with: 7 0 1 0 0  and 7 0 2 0 0 
5514405		 # 	collision with: 0 0 0 0 0  and 3 0 0 0 0 
5514407		 # 	collision with: 8 0 1 0 0  and 8 0 2 0 0 
5514420		 # 	collision with: 4 10 0 0 0  and 5 10 0 0 0 
5514422		 # 	collision with: 9 1 10 0 0  and 9 2 10 0 0 
5514469		 # 	collision with: 0 0 0 0 0  and 3 0 0 0 0 
5514471		 # 	collision with: 2 0 1 0 0  and 2 0 2 0 0 
5514472		 # 	collision with: 4 8 0 0 0  and 6 8 0 0 0 
5514474		 # 	collision with: 9 3 8 0 0  and 9 5 8 0 0 
5514482		 # 	collision with: 9 4 3 0 0  and 9 5 3 0 0 
5514532		 # 	collision with: 3 1 0 0 0  and 5 1 0 0 0 
5514534		 # 	collision with: 9 1 1 0 0  and 9 2 1 0 0 
5514549		 # 	collision with: 0 0 0 0 0  and 3 0 0 0 0 
5514551		 # 	collision with: 3 0 1 0 0  and 3 0 2 0 0 
5514577		 # 	collision with: 0 0 0 0 0  and 3 0 0 0 0 
5514579		 # 	collision with: 4 0 1 0 0  and 4 0 2 0 0 
5514584		 # 	collision with: 2 5 0 0 0  and 4 5 0 0 0 
5514625		 # 	collision with: 0 0 0 0 0  and 3 0 0 0 0 
5514627		 # 	collision with: 6 0 1 0 0  and 6 0 2 0 0 
5514636		 # 	collision with: 0 2 0 0 0  and 2 2 0 0 0 
5514638		 # 	collision with: 9 2 2 0 0  and 9 3 2 0 0 
5514665		 # 	collision with: 0 0 0 0 0  and 3 0 0 0 0 
5514667		 # 	collision with: 1 0 1 0 0  and 1 0 2 0 0 
5514688		 # 	collision with: 0 4 0 0 0  and 1 4 0 0 0 
5514690		 # 	collision with: 9 3 4 0 0  and 9 5 4 0 0 
5514696		 # 	collision with: 1 0 10 1 0  and 0 1 0 0 1 
5514698		 # 	collision with: 3 4 1 0 0  and 5 0 0 1 0 
5514700		 # 	collision with: 0 2 0 0 0  and 2 2 0 0 0 
5514702		 # 	collision with: 9 1 2 0 0  and 9 3 2 0 0 
5514704		 # 	collision with: 3 1 0 0 0  and 5 1 0 0 0 
5514706		 # 	collision with: 9 0 1 0 0  and 9 1 1 0 0 
5514708		 # 	collision with: 4 8 0 0 0  and 6 8 0 0 0 
5514710		 # 	collision with: 9 2 8 0 0  and 9 3 8 0 0 
5514712		 # 	collision with: 5 6 0 0 0  and 6 6 0 0 0 
5514714		 # 	collision with: 9 3 6 0 0  and 9 5 6 0 0 
5514716		 # 	collision with: 2 7 0 0 0  and 3 7 0 0 0 
5514718		 # 	collision with: 9 1 7 0 0  and 9 3 7 0 0 
5514720		 # 	collision with: 0 4 0 0 0  and 1 4 0 0 0 
5514722		 # 	collision with: 9 0 4 0 0  and 9 2 4 0 0 
5514724		 # 	collision with: 2 5 0 0 0  and 4 5 0 0 0 
5514726		 # 	collision with: 9 4 5 0 0  and 9 5 5 0 0 
5514728		 # 	collision with: 3 3 0 0 0  and 4 3 0 0 0 
5514730		 # 	collision with: 9 0 3 0 0  and 9 1 3 0 0 
5514732		 # 	collision with: 4 10 0 0 0  and 5 10 0 0 0 
5514734		 # 	collision with: 9 2 10 0 0  and 9 3 10 0 0 
5514736		 # 	collision with: 1 9 0 0 0  and 3 9 0 0 0 
5514748		 # 	collision with: 3 1 0 0 0  and 5 1 0 0 0 
5514750		 # 	collision with: 9 0 1 0 0  and 9 1 1 0 0 
5514773		 # 	collision with: 2 5 0 0 0  and 4 5 0 0 0 
5514775		 # 	collision with: 1 7 0 0 0  and 1 7 2 0 0 
5514800		 # 	collision with: 5 6 0 0 0  and 6 6 0 0 0 
5514802		 # 	collision with: 9 3 6 0 0  and 9 5 6 0 0 
5514813		 # 	collision with: 4 10 0 0 0  and 5 10 0 0 0 
5514815		 # 	collision with: 3 8 0 0 0  and 3 8 2 0 0 
5514852		 # 	collision with: 0 4 0 0 0  and 1 4 0 0 0 
5514854		 # 	collision with: 9 0 4 0 0  and 9 2 4 0 0 
5514861		 # 	collision with: 2 5 0 0 0  and 4 5 0 0 0 
5514863		 # 	collision with: 9 8 0 0 0  and 9 4 2 0 0 
5514891		 # 	collision with: 9 3 0 0 0  and 9 3 2 0 0 
5514906		 # 	collision with: 9 0 3 0 0  and 9 1 3 0 0 
5514953		 # 	collision with: 5 0 0 0 0  and 1 2 0 0 0 
5514955		 # 	collision with: 9 1 1 0 0  and 9 3 1 0 0 
5514956		 # 	collision with: 1 9 0 0 0  and 3 9 0 0 0 
5514958		 # 	collision with: 9 0 9 0 0  and 9 2 9 0 0 
5514964		 # 	collision with: 0 2 0 0 0  and 2 2 0 0 0 
5514966		 # 	collision with: 9 1 2 0 0  and 9 3 2 0 0 
5514969		 # 	collision with: 3 3 0 0 0  and 4 3 0 0 0 
5514971		 # 	collision with: 3 6 0 0 0  and 3 6 2 0 0 
5515016		 # 	collision with: 4 8 0 0 0  and 6 8 0 0 0 
5515018		 # 	collision with: 9 2 8 0 0  and 9 3 8 0 0 
5515033		 # 	collision with: 4 10 0 0 0  and 5 10 0 0 0 
5515035		 # 	collision with: 9 2 0 0 0  and 9 1 2 0 0 
5515061		 # 	collision with: 0 4 0 0 0  and 1 4 0 0 0 
5515063		 # 	collision with: 1 4 0 0 0  and 1 4 2 0 0 
5515068		 # 	collision with: 2 7 0 0 0  and 3 7 0 0 0 
5515070		 # 	collision with: 9 1 7 0 0  and 9 3 7 0 0 
5515109		 # 	collision with: 3 0 0 0 0  and 2 2 0 0 0 
5515111		 # 	collision with: 4 3 0 0 0  and 4 3 2 0 0 
5515120		 # 	collision with: 2 5 0 0 0  and 4 5 0 0 0 
5515149		 # 	collision with: 0 4 0 0 0  and 1 4 0 0 0 
5515172		 # 	collision with: 4 10 0 0 0  and 5 10 0 0 0 
5515174		 # 	collision with: 9 2 10 0 0  and 9 3 10 0 0 
5515180		 # 	collision with: 3 9 9 1 0  and 2 0 0 0 1 
5515182		 # 	collision with: 8 5 2 0 0  and 9 8 0 1 0 
5515184		 # 	collision with: 3 1 0 0 0  and 5 1 0 0 0 
5515186		 # 	collision with: 9 4 1 0 0  and 9 6 1 0 0 
5515188		 # 	collision with: 5 6 0 0 0  and 6 6 0 0 0 
5515190		 # 	collision with: 9 1 6 0 0  and 9 3 6 0 0 
5515192		 # 	collision with: 0 4 0 0 0  and 1 4 0 0 0 
5515194		 # 	collision with: 9 3 4 0 0  and 9 4 4 0 0 
5515196		 # 	collision with: 3 3 0 0 0  and 4 3 0 0 0 
5515198		 # 	collision with: 9 1 3 0 0  and 9 3 3 0 0 
5515200		 # 	collision with: 1 9 0 0 0  and 3 9 0 0 0 
5515204		 # 	collision with: 0 2 0 0 0  and 2 2 0 0 0 
5515206		 # 	collision with: 9 1 2 0 0  and 9 2 2 0 0 
5515208		 # 	collision with: 4 8 0 0 0  and 6 8 0 0 0 
5515210		 # 	collision with: 9 0 8 0 0  and 9 2 8 0 0 
5515212		 # 	collision with: 2 7 0 0 0  and 3 7 0 0 0 
5515214		 # 	collision with: 9 4 7 0 0  and 9 6 7 0 0 
5515216		 # 	collision with: 2 5 0 0 0  and 4 5 0 0 0 
5515218		 # 	collision with: 9 0 5 0 0  and 9 2 5 0 0 
5515220		 # 	collision with: 4 10 0 0 0  and 5 10 0 0 0 
5515222		 # 	collision with: 9 3 10 0 0  and 9 4 10 0 0 
5515232		 # 	collision with: 5 6 0 0 0  and 6 6 0 0 0 
5515234		 # 	collision with: 9 1 6 0 0  and 9 3 6 0 0 
5515257		 # 	collision with: 7 0 0 0 0  and 4 1 0 0 0 
5515259		 # 	collision with: 9 9 0 0 0  and 9 1 1 0 0 
5515286		 # 	collision with: 9 1 3 0 0  and 9 3 3 0 0 
5515299		 # 	collision with: 1 5 0 0 0  and 1 5 1 0 0 
5515336		 # 	collision with: 0 2 0 0 0  and 2 2 0 0 0 
5515338		 # 	collision with: 9 1 2 0 0  and 9 2 2 0 0 
5515345		 # 	collision with: 7 0 0 0 0  and 4 1 0 0 0 
5515347		 # 	collision with: 1 3 0 0 0  and 1 3 1 0 0 
5515373		 # 	collision with: 10 0 0 0 0  and 1 1 0 0 0 
5515375		 # 	collision with: 10 6 0 0 0  and 10 6 1 0 0 
5515388		 # 	collision with: 2 7 0 0 0  and 3 7 0 0 0 
5515390		 # 	collision with: 9 4 7 0 0  and 9 6 7 0 0 
5515437		 # 	collision with: 6 0 0 0 0  and 5 1 0 0 0 
5515439		 # 	collision with: 1 10 0 0 0  and 1 10 1 0 0 
5515440		 # 	collision with: 4 10 0 0 0  and 5 10 0 0 0 
5515442		 # 	collision with: 9 3 10 0 0  and 9 4 10 0 0 
5515448		 # 	collision with: 3 1 0 0 0  and 5 1 0 0 0 
5515450		 # 	collision with: 9 4 1 0 0  and 9 6 1 0 0 
5515453		 # 	collision with: 5 6 0 0 0  and 6 6 0 0 0 
5515455		 # 	collision with: 9 7 0 0 0  and 9 0 1 0 0 
5515500		 # 	collision with: 0 4 0 0 0  and 1 4 0 0 0 
5515502		 # 	collision with: 9 3 4 0 0  and 9 4 4 0 0 
5515517		 # 	collision with: 4 0 0 0 0  and 7 1 0 0 0 
5515519		 # 	collision with: 5 5 0 0 0  and 5 5 1 0 0 
5515545		 # 	collision with: 4 0 0 0 0  and 1 1 0 0 0 
5515547		 # 	collision with: 9 0 0 0 0  and 9 4 1 0 0 
5515552		 # 	collision with: 1 9 0 0 0  and 3 9 0 0 0 
5515554		 # 	collision with: 9 1 9 0 0  and 9 2 9 0 0 
5515593		 # 	collision with: 10 0 0 0 0  and 1 1 0 0 0 
5515595		 # 	collision with: 9 7 0 0 0  and 9 0 1 0 0 
5515604		 # 	collision with: 4 8 0 0 0  and 6 8 0 0 0 
5515606		 # 	collision with: 9 0 8 0 0  and 9 2 8 0 0 
5515633		 # 	collision with: 4 0 0 0 0  and 1 1 0 0 0 
5515635		 # 	collision with: 9 10 0 0 0  and 9 6 1 0 0 
5515656		 # 	collision with: 2 5 0 0 0  and 4 5 0 0 0 
5515670		 # 	collision with: 9 3 0 0 0  and 9 5 0 0 0 
5515674		 # 	collision with: 9 4 0 0 0  and 9 5 0 0 0 
5515678		 # 	collision with: 9 4 0 0 0  and 9 6 0 0 0 
5515682		 # 	collision with: 9 5 0 0 0  and 9 6 0 0 0 
5515686		 # 	collision with: 9 0 0 0 0  and 9 1 0 0 0 
5515690		 # 	collision with: 9 0 0 0 0  and 9 2 0 0 0 
5515694		 # 	collision with: 9 1 0 0 0  and 9 2 0 0 0 
5515698		 # 	collision with: 9 1 0 0 0  and 9 3 0 0 0 
5515702		 # 	collision with: 9 2 0 0 0  and 9 3 0 0 0 
5515706		 # 	collision with: 9 2 0 0 0  and 9 4 0 0 0 
5515724		 # 	collision with: 3 0 0 0 0  and 4 0 0 0 0 
5515726		 # 	collision with: 9 5 0 0 0  and 9 6 0 0 0 
5515749		 # 	collision with: 4 10 0 0 0  and 6 10 0 0 0 
5515751		 # 	collision with: 9 0 5 0 0  and 9 2 6 0 0 
5515753		 # 	collision with: 10 5 0 0 0  and 2 6 0 0 0 
5515784		 # 	collision with: 3 0 0 0 0  and 4 0 0 0 0 
5515786		 # 	collision with: 9 1 0 0 0  and 9 3 0 0 0 
5515800		 # 	collision with: 3 0 0 0 0  and 4 0 0 0 0 
5515802		 # 	collision with: 9 3 0 0 0  and 9 5 0 0 0 
5515809		 # 	collision with: 1 5 0 0 0  and 3 6 0 0 0 
5515811		 # 	collision with: 5 1 5 0 0  and 5 1 6 0 0 
5515845		 # 	collision with: 0 9 0 0 0  and 2 9 0 0 0 
5515847		 # 	collision with: 9 3 4 0 0  and 9 4 4 0 0 
5515860		 # 	collision with: 3 0 0 0 0  and 4 0 0 0 0 
5515862		 # 	collision with: 9 0 0 0 0  and 9 1 0 0 0 
5515917		 # 	collision with: 4 3 0 0 0  and 5 3 0 0 0 
5515919		 # 	collision with: 9 1 5 0 0  and 9 0 6 0 0 
5515920		 # 	collision with: 3 0 0 0 0  and 4 0 0 0 0 
5515922		 # 	collision with: 9 2 0 0 0  and 9 3 0 0 0 
5515936		 # 	collision with: 3 0 0 0 0  and 4 0 0 0 0 
5515938		 # 	collision with: 9 4 0 0 0  and 9 5 0 0 0 
5515941		 # 	collision with: 1 5 0 0 0  and 3 6 0 0 0 
5515943		 # 	collision with: 8 1 5 0 0  and 8 1 6 0 0 
5515996		 # 	collision with: 3 0 0 0 0  and 4 0 0 0 0 
5515998		 # 	collision with: 9 0 0 0 0  and 9 2 0 0 0 
5516013		 # 	collision with: 4 10 0 0 0  and 6 10 0 0 0 
5516015		 # 	collision with: 4 8 5 0 0  and 4 8 6 0 0 
5516049		 # 	collision with: 4 3 0 0 0  and 5 3 0 0 0 
5516051		 # 	collision with: 9 3 5 0 0  and 9 0 6 0 0 
5516056		 # 	collision with: 3 0 0 0 0  and 4 0 0 0 0 
5516058		 # 	collision with: 9 2 0 0 0  and 9 4 0 0 0 
5516061		 # 	collision with: 10 5 0 0 0  and 2 6 0 0 0 
5516072		 # 	collision with: 3 0 0 0 0  and 4 0 0 0 0 
5516074		 # 	collision with: 9 4 0 0 0  and 9 6 0 0 0 
5516109		 # 	collision with: 0 9 0 0 0  and 2 9 0 0 0 
5516111		 # 	collision with: 9 3 4 0 0  and 9 4 4 0 0 
5516132		 # 	collision with: 3 0 0 0 0  and 4 0 0 0 0 
5516134		 # 	collision with: 9 1 0 0 0  and 9 2 0 0 0 
5516148		 # 	collision with: 1 4 6 10 0  and 0 0 0 0 1 
5516150		 # 	collision with: 4 3 0 0 0  and 3 8 1 1 0 
5516152		 # 	collision with: 4 10 0 0 0  and 6 10 0 0 0 
5516154		 # 	collision with: 9 5 10 0 0  and 9 6 10 0 0 
5516156		 # 	collision with: 1 5 0 0 0  and 2 5 0 0 0 
5516158		 # 	collision with: 9 2 5 0 0  and 9 3 5 0 0 
5516160		 # 	collision with: 3 7 0 0 0  and 5 7 0 0 0 
5516162		 # 	collision with: 9 5 7 0 0  and 9 6 7 0 0 
5516164		 # 	collision with: 2 8 0 0 0  and 3 8 0 0 0 
5516166		 # 	collision with: 9 4 8 0 0  and 9 5 8 0 0 
5516168		 # 	collision with: 0 2 0 0 0  and 1 2 0 0 0 
5516170		 # 	collision with: 9 2 2 0 0  and 9 4 2 0 0 
5516172		 # 	collision with: 0 9 0 0 0  and 2 9 0 0 0 
5516176		 # 	collision with: 4 3 0 0 0  and 5 3 0 0 0 
5516178		 # 	collision with: 9 2 3 0 0  and 9 3 3 0 0 
5516180		 # 	collision with: 2 4 0 0 0  and 4 4 0 0 0 
5516182		 # 	collision with: 9 1 4 0 0  and 9 2 4 0 0 
5516184		 # 	collision with: 5 6 0 0 0  and 6 6 0 0 0 
5516186		 # 	collision with: 9 4 6 0 0  and 9 5 6 0 0 
5516188		 # 	collision with: 1 1 0 0 0  and 3 1 0 0 0 
5516190		 # 	collision with: 9 1 1 0 0  and 9 2 1 0 0 
5516208		 # 	collision with: 2 8 0 0 0  and 3 8 0 0 0 
5516210		 # 	collision with: 9 4 8 0 0  and 9 5 8 0 0 
5516233		 # 	collision with: 0 2 0 0 0  and 1 2 0 0 0 
5516235		 # 	collision with: 7 6 4 0 0  and 7 6 6 0 0 
5516237		 # 	collision with: 4 4 0 0 0  and 5 6 0 0 0 
5516239		 # 	collision with: 9 1 4 0 0  and 9 3 6 0 0 
5516268		 # 	collision with: 2 4 0 0 0  and 4 4 0 0 0 
5516270		 # 	collision with: 9 1 4 0 0  and 9 2 4 0 0 
5516284		 # 	collision with: 4 10 0 0 0  and 6 10 0 0 0 
5516286		 # 	collision with: 9 5 10 0 0  and 9 6 10 0 0 
5516293		 # 	collision with: 2 4 0 0 0  and 6 6 0 0 0 
5516295		 # 	collision with: 9 4 0 0 0  and 9 6 0 0 0 
5516329		 # 	collision with: 2 4 0 0 0  and 4 4 0 0 0 
5516331		 # 	collision with: 6 5 4 0 0  and 6 5 6 0 0 
5516344		 # 	collision with: 0 2 0 0 0  and 1 2 0 0 0 
5516346		 # 	collision with: 9 2 2 0 0  and 9 4 2 0 0 
5516401		 # 	collision with: 1 5 0 0 0  and 2 5 0 0 0 
5516403		 # 	collision with: 4 2 4 0 0  and 4 2 6 0 0 
5516404		 # 	collision with: 5 6 0 0 0  and 6 6 0 0 0 
5516406		 # 	collision with: 9 4 6 0 0  and 9 5 6 0 0 
5516420		 # 	collision with: 1 5 0 0 0  and 2 5 0 0 0 
5516422		 # 	collision with: 9 2 5 0 0  and 9 3 5 0 0 
5516425		 # 	collision with: 2 4 0 0 0  and 6 6 0 0 0 
5516427		 # 	collision with: 9 4 0 0 0  and 9 6 0 0 0 
5516480		 # 	collision with: 0 9 0 0 0  and 2 9 0 0 0 
5516497		 # 	collision with: 0 2 0 0 0  and 1 2 0 0 0 
5516499		 # 	collision with: 1 6 4 0 0  and 1 6 6 0 0 
5516533		 # 	collision with: 1 5 0 0 0  and 2 5 0 0 0 
5516535		 # 	collision with: 8 2 4 0 0  and 8 2 6 0 0 
5516540		 # 	collision with: 1 1 0 0 0  and 3 1 0 0 0 
5516542		 # 	collision with: 9 1 1 0 0  and 9 2 1 0 0 
5516547		 # 	collision with: 9 4 10 0 0  and 9 6 10 0 0 
5516558		 # 	collision with: 9 5 7 0 0  and 9 6 7 0 0 
5516593		 # 	collision with: 2 4 0 0 0  and 4 4 0 0 0 
5516595		 # 	collision with: 9 5 4 0 0  and 9 5 6 0 0 
5516616		 # 	collision with: 4 3 0 0 0  and 5 3 0 0 0 
5516618		 # 	collision with: 9 2 3 0 0  and 9 3 3 0 0 
5516632		 # 	collision with: 9 7 3 8 0  and 1 1 0 0 1 
5516634		 # 	collision with: 9 2 5 0 0  and 7 8 0 1 0 
5516636		 # 	collision with: 0 9 0 0 0  and 2 9 0 0 0 
5516640		 # 	collision with: 4 10 0 0 0  and 6 10 0 0 0 
5516642		 # 	collision with: 9 0 10 0 0  and 9 1 10 0 0 
5516644		 # 	collision with: 4 3 0 0 0  and 5 3 0 0 0 
5516646		 # 	collision with: 9 0 3 0 0  and 9 1 3 0 0 
5516648		 # 	collision with: 1 5 0 0 0  and 2 5 0 0 0 
5516650		 # 	collision with: 9 3 5 0 0  and 9 4 5 0 0 
5516652		 # 	collision with: 2 4 0 0 0  and 4 4 0 0 0 
5516654		 # 	collision with: 9 5 4 0 0  and 9 6 4 0 0 
5516656		 # 	collision with: 3 7 0 0 0  and 5 7 0 0 0 
5516658		 # 	collision with: 9 1 7 0 0  and 9 2 7 0 0 
5516660		 # 	collision with: 5 6 0 0 0  and 6 6 0 0 0 
5516662		 # 	collision with: 9 3 6 0 0  and 9 4 6 0 0 
5516664		 # 	collision with: 2 8 0 0 0  and 3 8 0 0 0 
5516666		 # 	collision with: 9 0 8 0 0  and 9 2 8 0 0 
5516668		 # 	collision with: 1 1 0 0 0  and 3 1 0 0 0 
5516670		 # 	collision with: 9 0 1 0 0  and 9 2 1 0 0 
5516672		 # 	collision with: 0 2 0 0 0  and 1 2 0 0 0 
5516674		 # 	collision with: 9 5 2 0 0  and 9 6 2 0 0 
5516692		 # 	collision with: 1 5 0 0 0  and 2 5 0 0 0 
5516694		 # 	collision with: 9 3 5 0 0  and 9 4 5 0 0 
5516717		 # 	collision with: 1 5 0 0 0  and 2 5 0 0 0 
5516719		 # 	collision with: 9 5 2 0 0  and 9 6 2 0 0 
5516721		 # 	collision with: 4 3 0 0 0  and 5 3 0 0 0 
5516723		 # 	collision with: 9 4 3 0 0  and 9 5 3 0 0 
5516752		 # 	collision with: 2 8 0 0 0  and 3 8 0 0 0 
5516754		 # 	collision with: 9 0 8 0 0  and 9 2 8 0 0 
5516768		 # 	collision with: 0 9 0 0 0  and 2 9 0 0 0 
5516777		 # 	collision with: 5 4 0 0 0  and 7 5 0 0 0 
5516779		 # 	collision with: 9 1 4 0 0  and 9 0 5 0 0 
5516813		 # 	collision with: 7 4 0 0 0  and 8 5 0 0 0 
5516828		 # 	collision with: 2 4 0 0 0  and 4 4 0 0 0 
5516830		 # 	collision with: 9 5 4 0 0  and 9 6 4 0 0 
5516885		 # 	collision with: 3 7 0 0 0  and 5 7 0 0 0 
5516887		 # 	collision with: 9 0 1 0 0  and 9 1 1 0 0 
5516888		 # 	collision with: 1 1 0 0 0  and 3 1 0 0 0 
5516890		 # 	collision with: 9 0 1 0 0  and 9 2 1 0 0 
5516904		 # 	collision with: 4 10 0 0 0  and 6 10 0 0 0 
5516906		 # 	collision with: 9 0 10 0 0  and 9 1 10 0 0 
5516909		 # 	collision with: 5 4 0 0 0  and 7 5 0 0 0 
5516911		 # 	collision with: 9 8 4 0 0  and 9 4 5 0 0 
5516966		 # 	collision with: 9 1 7 0 0  and 9 2 7 0 0 
5516983		 # 	collision with: 9 5 2 0 0  and 9 6 2 0 0 
5517017		 # 	collision with: 3 7 0 0 0  and 5 7 0 0 0 
5517019		 # 	collision with: 9 0 1 0 0  and 9 1 1 0 0 
5517024		 # 	collision with: 0 2 0 0 0  and 1 2 0 0 0 
5517026		 # 	collision with: 9 5 2 0 0  and 9 6 2 0 0 
5517029		 # 	collision with: 4 3 0 0 0  and 5 3 0 0 0 
5517031		 # 	collision with: 9 4 3 0 0  and 9 5 3 0 0 
5517040		 # 	collision with: 4 3 0 0 0  and 5 3 0 0 0 
5517042		 # 	collision with: 9 0 3 0 0  and 9 1 3 0 0 
5517077		 # 	collision with: 7 4 0 0 0  and 8 5 0 0 0 
5517100		 # 	collision with: 5 6 0 0 0  and 6 6 0 0 0 
5517102		 # 	collision with: 9 3 6 0 0  and 9 4 6 0 0 
5517116		 # 	collision with: 6 8 2 10 0  and 7 1 0 0 1 
5517118		 # 	collision with: 5 2 7 0 0  and 2 9 0 1 0 
5517120		 # 	collision with: 2 8 0 0 0  and 3 8 0 0 0 
5517122		 # 	collision with: 9 2 8 0 0  and 9 4 8 0 0 
5517124		 # 	collision with: 2 4 0 0 0  and 4 4 0 0 0 
5517126		 # 	collision with: 9 3 4 0 0  and 9 5 4 0 0 
5517128		 # 	collision with: 4 10 0 0 0  and 6 10 0 0 0 
5517130		 # 	collision with: 9 0 10 0 0  and 9 2 10 0 0 
5517132		 # 	collision with: 0 2 0 0 0  and 1 2 0 0 0 
5517134		 # 	collision with: 9 2 2 0 0  and 9 3 2 0 0 
5517136		 # 	collision with: 5 6 0 0 0  and 6 6 0 0 0 
5517138		 # 	collision with: 9 2 6 0 0  and 9 3 6 0 0 
5517140		 # 	collision with: 1 5 0 0 0  and 2 5 0 0 0 
5517142		 # 	collision with: 9 4 5 0 0  and 9 5 5 0 0 
5517144		 # 	collision with: 0 9 0 0 0  and 2 9 0 0 0 
5517148		 # 	collision with: 1 1 0 0 0  and 3 1 0 0 0 
5517150		 # 	collision with: 9 0 1 0 0  and 9 1 1 0 0 
5517152		 # 	collision with: 3 7 0 0 0  and 5 7 0 0 0 
5517154		 # 	collision with: 9 2 7 0 0  and 9 4 7 0 0 
5517156		 # 	collision with: 4 3 0 0 0  and 5 3 0 0 0 
5517158		 # 	collision with: 9 3 3 0 0  and 9 5 3 0 0 
5517176		 # 	collision with: 0 2 0 0 0  and 1 2 0 0 0 
5517178		 # 	collision with: 9 2 2 0 0  and 9 3 2 0 0 
5517201		 # 	collision with: 9 3 0 0 0  and 0 5 0 0 0 
5517203		 # 	collision with: 9 2 3 0 0  and 9 0 5 0 0 
5517205		 # 	collision with: 0 3 0 0 0  and 3 5 0 0 0 
5517207		 # 	collision with: 9 7 3 0 0  and 9 0 5 0 0 
5517236		 # 	collision with: 1 1 0 0 0  and 3 1 0 0 0 
5517238		 # 	collision with: 9 0 1 0 0  and 9 1 1 0 0 
5517252		 # 	collision with: 2 8 0 0 0  and 3 8 0 0 0 
5517254		 # 	collision with: 9 2 8 0 0  and 9 4 8 0 0 
5517261		 # 	collision with: 6 3 0 0 0  and 10 5 0 0 0 
5517263		 # 	collision with: 1 3 3 0 0  and 1 3 5 0 0 
5517297		 # 	collision with: 1 5 0 0 0  and 2 5 0 0 0 
5517299		 # 	collision with: 9 3 0 0 0  and 9 5 0 0 0 
5517312		 # 	collision with: 5 6 0 0 0  and 6 6 0 0 0 
5517314		 # 	collision with: 9 2 6 0 0  and 9 3 6 0 0 
5517371		 # 	collision with: 9 2 3 0 0  and 9 4 3 0 0 
5517374		 # 	collision with: 9 2 7 0 0  and 9 4 7 0 0 
5517388		 # 	collision with: 2 4 0 0 0  and 4 4 0 0 0 
5517390		 # 	collision with: 9 3 4 0 0  and 9 5 4 0 0 
5517393		 # 	collision with: 6 3 0 0 0  and 10 5 0 0 0 
5517395		 # 	collision with: 9 3 3 0 0  and 9 1 5 0 0 
5517448		 # 	collision with: 1 5 0 0 0  and 2 5 0 0 0 
5517450		 # 	collision with: 9 4 5 0 0  and 9 5 5 0 0 
5517465		 # 	collision with: 9 3 0 0 0  and 0 5 0 0 0 
5517467		 # 	collision with: 9 9 3 0 0  and 9 0 5 0 0 
5517501		 # 	collision with: 0 9 0 0 0  and 2 9 0 0 0 
5517503		 # 	collision with: 9 2 3 0 0  and 9 4 3 0 0 
5517508		 # 	collision with: 4 3 0 0 0  and 5 3 0 0 0 
5517510		 # 	collision with: 9 3 3 0 0  and 9 5 3 0 0 
5517513		 # 	collision with: 0 3 0 0 0  and 3 5 0 0 0 
5517515		 # 	collision with: 9 3 7 0 0  and 9 5 7 0 0 
5517524		 # 	collision with: 4 10 0 0 0  and 6 10 0 0 0 
5517526		 # 	collision with: 9 0 10 0 0  and 9 2 10 0 0 
5517561		 # 	collision with: 1 5 0 0 0  and 2 5 0 0 0 
5517563		 # 	collision with: 9 3 0 0 0  and 9 5 0 0 0 
5517584		 # 	collision with: 0 9 0 0 0  and 2 9 0 0 0 
5517600		 # 	collision with: 6 7 3 1 0  and 10 0 0 0 1 
5517602		 # 	collision with: 1 8 9 0 0  and 8 10 1 1 0 
5517604		 # 	collision with: 3 7 0 0 0  and 5 7 0 0 0 
5517606		 # 	collision with: 9 4 7 0 0  and 9 5 7 0 0 
5517608		 # 	collision with: 0 9 0 0 0  and 2 9 0 0 0 
5517612		 # 	collision with: 5 6 0 0 0  and 6 6 0 0 0 
5517614		 # 	collision with: 9 1 6 0 0  and 9 2 6 0 0 
5517616		 # 	collision with: 4 10 0 0 0  and 6 10 0 0 0 
5517618		 # 	collision with: 9 1 10 0 0  and 9 2 10 0 0 
5517620		 # 	collision with: 2 8 0 0 0  and 3 8 0 0 0 
5517622		 # 	collision with: 9 4 8 0 0  and 9 6 8 0 0 
5517624		 # 	collision with: 4 3 0 0 0  and 5 3 0 0 0 
5517626		 # 	collision with: 9 1 3 0 0  and 9 3 3 0 0 
5517628		 # 	collision with: 1 1 0 0 0  and 3 1 0 0 0 
5517630		 # 	collision with: 9 5 1 0 0  and 9 6 1 0 0 
5517632		 # 	collision with: 1 5 0 0 0  and 2 5 0 0 0 
5517634		 # 	collision with: 9 5 5 0 0  and 9 6 5 0 0 
5517636		 # 	collision with: 0 2 0 0 0  and 1 2 0 0 0 
5517638		 # 	collision with: 9 4 2 0 0  and 9 6 2 0 0 
5517640		 # 	collision with: 2 4 0 0 0  and 4 4 0 0 0 
5517642		 # 	collision with: 9 2 4 0 0  and 9 3 4 0 0 
5517660		 # 	collision with: 4 10 0 0 0  and 6 10 0 0 0 
5517662		 # 	collision with: 9 1 10 0 0  and 9 2 10 0 0 
5517685		 # 	collision with: 3 0 0 0 0  and 4 0 0 0 0 
5517687		 # 	collision with: 10 0 3 0 0  and 10 0 4 0 0 
5517689		 # 	collision with: 3 0 0 0 0  and 4 0 0 0 0 
5517691		 # 	collision with: 9 3 0 0 0  and 9 4 0 0 0 
5517720		 # 	collision with: 1 5 0 0 0  and 2 5 0 0 0 
5517722		 # 	collision with: 9 5 5 0 0  and 9 6 5 0 0 
5517738		 # 	collision with: 9 4 7 0 0  and 9 5 7 0 0 
5517747		 # 	collision with: 7 0 3 0 0  and 7 0 4 0 0 
5517781		 # 	collision with: 3 0 0 0 0  and 4 0 0 0 0 
5517783		 # 	collision with: 8 0 3 0 0  and 8 0 4 0 0 
5517796		 # 	collision with: 2 8 0 0 0  and 3 8 0 0 0 
5517798		 # 	collision with: 9 4 8 0 0  and 9 6 8 0 0 
5517853		 # 	collision with: 3 0 0 0 0  and 4 0 0 0 0 
5517855		 # 	collision with: 2 0 3 0 0  and 2 0 4 0 0 
5517856		 # 	collision with: 0 2 0 0 0  and 1 2 0 0 0 
5517858		 # 	collision with: 9 4 2 0 0  and 9 6 2 0 0 
5517872		 # 	collision with: 0 9 0 0 0  and 2 9 0 0 0 
5517877		 # 	collision with: 3 0 0 0 0  and 4 0 0 0 0 
5517879		 # 	collision with: 9 0 3 0 0  and 9 0 4 0 0 
5517932		 # 	collision with: 4 3 0 0 0  and 5 3 0 0 0 
5517934		 # 	collision with: 9 1 3 0 0  and 9 3 3 0 0 
5517949		 # 	collision with: 3 0 0 0 0  and 4 0 0 0 0 
5517951		 # 	collision with: 3 0 3 0 0  and 3 0 4 0 0 
5517985		 # 	collision with: 3 0 0 0 0  and 4 0 0 0 0 
5517987		 # 	collision with: 4 0 3 0 0  and 4 0 4 0 0 
5517992		 # 	collision with: 2 4 0 0 0  and 4 4 0 0 0 
5517994		 # 	collision with: 9 2 4 0 0  and 9 3 4 0 0 
5517997		 # 	collision with: 3 0 0 0 0  and 4 0 0 0 0 
5517999		 # 	collision with: 9 3 0 0 0  and 9 4 0 0 0 
5518008		 # 	collision with: 5 6 0 0 0  and 6 6 0 0 0 
5518010		 # 	collision with: 9 1 6 0 0  and 9 2 6 0 0 
5518045		 # 	collision with: 3 0 0 0 0  and 4 0 0 0 0 
5518047		 # 	collision with: 1 0 3 0 0  and 1 0 4 0 0 
5518068		 # 	collision with: 1 1 0 0 0  and 3 1 0 0 0 
5518070		 # 	collision with: 9 5 1 0 0  and 9 6 1 0 0 
5518084		 # 	collision with: 7 2 10 8 0  and 5 0 0 0 1 
5518086		 # 	collision with: 6 1 2 0 0  and 1 10 0 1 0 
5518088		 # 	collision with: 5 6 0 0 0  and 6 6 0 0 0 
5518090		 # 	collision with: 9 0 6 0 0  and 9 1 6 0 0 
5518092		 # 	collision with: 4 3 0 0 0  and 5 3 0 0 0 
5518094		 # 	collision with: 9 5 3 0 0  and 9 6 3 0 0 
5518096		 # 	collision with: 0 2 0 0 0  and 1 2 0 0 0 
5518098		 # 	collision with: 9 1 2 0 0  and 9 3 2 0 0 
5518100		 # 	collision with: 3 7 0 0 0  and 5 7 0 0 0 
5518102		 # 	collision with: 9 0 7 0 0  and 9 1 7 0 0 
5518104		 # 	collision with: 4 10 0 0 0  and 6 10 0 0 0 
5518106		 # 	collision with: 9 1 10 0 0  and 9 3 10 0 0 
5518108		 # 	collision with: 1 1 0 0 0  and 3 1 0 0 0 
5518110		 # 	collision with: 9 4 1 0 0  and 9 6 1 0 0 
5518112		 # 	collision with: 2 4 0 0 0  and 4 4 0 0 0 
5518114		 # 	collision with: 9 0 4 0 0  and 9 2 4 0 0 
5518116		 # 	collision with: 0 9 0 0 0  and 2 9 0 0 0 
5518120		 # 	collision with: 2 8 0 0 0  and 3 8 0 0 0 
5518122		 # 	collision with: 9 1 8 0 0  and 9 2 8 0 0 
5518124		 # 	collision with: 1 5 0 0 0  and 2 5 0 0 0 
5518126		 # 	collision with: 9 0 5 0 0  and 9 2 5 0 0 
5518146		 # 	collision with: 9 0 7 0 0  and 9 1 7 0 0 
5518171		 # 	collision with: 9 2 0 0 0  and 9 4 0 0 0 
5518173		 # 	collision with: 3 2 0 0 0  and 1 4 0 0 0 
5518175		 # 	collision with: 9 2 4 0 0  and 9 4 4 0 0 
5518204		 # 	collision with: 0 9 0 0 0  and 2 9 0 0 0 
5518220		 # 	collision with: 5 6 0 0 0  and 6 6 0 0 0 
5518222		 # 	collision with: 9 0 6 0 0  and 9 1 6 0 0 
5518229		 # 	collision with: 10 2 0 0 0  and 3 4 0 0 0 
5518231		 # 	collision with: 2 8 2 0 0  and 2 8 4 0 0 
5518265		 # 	collision with: 5 6 0 0 0  and 6 6 0 0 0 
5518267		 # 	collision with: 9 2 1 0 0  and 9 3 1 0 0 
5518280		 # 	collision with: 4 10 0 0 0  and 6 10 0 0 0 
5518282		 # 	collision with: 9 1 10 0 0  and 9 3 10 0 0 
5518337		 # 	collision with: 0 2 0 0 0  and 1 2 0 0 0 
5518340		 # 	collision with: 2 8 0 0 0  and 3 8 0 0 0 
5518342		 # 	collision with: 9 1 8 0 0  and 9 2 8 0 0 
5518356		 # 	collision with: 4 3 0 0 0  and 5 3 0 0 0 
5518358		 # 	collision with: 9 5 3 0 0  and 9 6 3 0 0 
5518361		 # 	collision with: 10 2 0 0 0  and 3 4 0 0 0 
5518363		 # 	collision with: 9 1 2 0 0  and 9 2 4 0 0 
5518416		 # 	collision with: 1 1 0 0 0  and 3 1 0 0 0 
5518418		 # 	collision with: 9 4 1 0 0  and 9 6 1 0 0 
5518433		 # 	collision with: 4 3 0 0 0  and 5 3 0 0 0 
5518435		 # 	collision with: 9 2 0 0 0  and 9 4 0 0 0 
5518469		 # 	collision with: 0 2 0 0 0  and 1 2 0 0 0 
5518476		 # 	collision with: 1 5 0 0 0  and 2 5 0 0 0 
5518478		 # 	collision with: 9 0 5 0 0  and 9 2 5 0 0 
5518481		 # 	collision with: 3 2 0 0 0  and 1 4 0 0 0 
5518483		 # 	collision with: 9 2 4 0 0  and 9 4 4 0 0 
5518492		 # 	collision with: 0 2 0 0 0  and 1 2 0 0 0 
5518494		 # 	collision with: 9 1 2 0 0  and 9 3 2 0 0 
5518529		 # 	collision with: 5 6 0 0 0  and 6 6 0 0 0 
5518531		 # 	collision with: 9 2 1 0 0  and 9 3 1 0 0 
5518552		 # 	collision with: 2 4 0 0 0  and 4 4 0 0 0 
5518554		 # 	collision with: 9 0 4 0 0  and 9 2 4 0 0 
5518568		 # 	collision with: 5 6 5 9 0  and 0 0 0 0 1 
5518570		 # 	collision with: 5 8 10 0 0  and 10 6 1 1 0 
5518572		 # 	collision with: 1 5 0 0 0  and 2 5 0 0 0 
5518574		 # 	collision with: 9 1 5 0 0  and 9 3 5 0 0 
5518576		 # 	collision with: 2 8 0 0 0  and 3 8 0 0 0 
5518578		 # 	collision with: 9 3 8 0 0  and 9 4 8 0 0 
5518580		 # 	collision with: 0 9 0 0 0  and 2 9 0 0 0 
5518584		 # 	collision with: 2 4 0 0 0  and 4 4 0 0 0 
5518586		 # 	collision with: 9 4 4 0 0  and 9 6 4 0 0 
5518588		 # 	collision with: 1 1 0 0 0  and 3 1 0 0 0 
5518590		 # 	collision with: 9 4 1 0 0  and 9 5 1 0 0 
5518592		 # 	collision with: 4 10 0 0 0  and 6 10 0 0 0 
5518594		 # 	collision with: 9 2 10 0 0  and 9 3 10 0 0 
5518596		 # 	collision with: 3 7 0 0 0  and 5 7 0 0 0 
5518598		 # 	collision with: 9 1 7 0 0  and 9 3 7 0 0 
5518600		 # 	collision with: 0 2 0 0 0  and 1 2 0 0 0 
5518602		 # 	collision with: 9 4 2 0 0  and 9 5 2 0 0 
5518604		 # 	collision with: 4 3 0 0 0  and 5 3 0 0 0 
5518606		 # 	collision with: 9 3 3 0 0  and 9 4 3 0 0 
5518608		 # 	collision with: 5 6 0 0 0  and 6 6 0 0 0 
5518610		 # 	collision with: 9 4 6 0 0  and 9 6 6 0 0 
5518628		 # 	collision with: 2 4 0 0 0  and 4 4 0 0 0 
5518630		 # 	collision with: 9 4 4 0 0  and 9 6 4 0 0 
5518653		 # 	collision with: 1 2 0 0 0  and 9 3 0 0 0 
5518655		 # 	collision with: 9 3 3 0 0  and 9 5 3 0 0 
5518657		 # 	collision with: 1 2 0 0 0  and 0 3 0 0 0 
5518659		 # 	collision with: 9 9 2 0 0  and 9 4 3 0 0 
5518688		 # 	collision with: 0 2 0 0 0  and 1 2 0 0 0 
5518690		 # 	collision with: 9 4 2 0 0  and 9 5 2 0 0 
5518704		 # 	collision with: 1 5 0 0 0  and 2 5 0 0 0 
5518706		 # 	collision with: 9 1 5 0 0  and 9 3 5 0 0 
5518713		 # 	collision with: 2 2 0 0 0  and 4 3 0 0 0 
5518749		 # 	collision with: 1 1 0 0 0  and 3 1 0 0 0 
5518751		 # 	collision with: 9 6 2 0 0  and 9 0 3 0 0 
5518764		 # 	collision with: 1 1 0 0 0  and 3 1 0 0 0 
5518766		 # 	collision with: 9 4 1 0 0  and 9 5 1 0 0 
5518821		 # 	collision with: 2 4 0 0 0  and 4 4 0 0 0 
5518823		 # 	collision with: 8 6 2 0 0  and 8 6 3 0 0 
5518824		 # 	collision with: 4 3 0 0 0  and 5 3 0 0 0 
5518826		 # 	collision with: 9 3 3 0 0  and 9 4 3 0 0 
5518840		 # 	collision with: 2 8 0 0 0  and 3 8 0 0 0 
5518842		 # 	collision with: 9 3 8 0 0  and 9 4 8 0 0 
5518845		 # 	collision with: 2 2 0 0 0  and 4 3 0 0 0 
5518900		 # 	collision with: 4 10 0 0 0  and 6 10 0 0 0 
5518902		 # 	collision with: 9 2 10 0 0  and 9 3 10 0 0 
5518917		 # 	collision with: 1 2 0 0 0  and 9 3 0 0 0 
5518919		 # 	collision with: 9 3 3 0 0  and 9 5 3 0 0 
5518953		 # 	collision with: 2 4 0 0 0  and 4 4 0 0 0 
5518955		 # 	collision with: 5 6 2 0 0  and 5 6 3 0 0 
5518960		 # 	collision with: 5 6 0 0 0  and 6 6 0 0 0 
5518962		 # 	collision with: 9 4 6 0 0  and 9 6 6 0 0 
5518965		 # 	collision with: 1 2 0 0 0  and 0 3 0 0 0 
5518967		 # 	collision with: 9 8 2 0 0  and 9 6 3 0 0 
5518976		 # 	collision with: 0 9 0 0 0  and 2 9 0 0 0 
5519015		 # 	collision with: 9 6 2 0 0  and 9 2 3 0 0 
5519038		 # 	collision with: 9 1 7 0 0  and 9 3 7 0 0 
5519052		 # 	collision with: 5 5 8 1 0  and 5 0 0 0 1 
5519054		 # 	collision with: 4 7 3 0 0  and 8 5 0 1 0 
5519056		 # 	collision with: 2 4 0 0 0  and 4 4 0 0 0 
5519058		 # 	collision with: 9 3 4 0 0  and 9 4 4 0 0 
5519060		 # 	collision with: 0 2 0 0 0  and 1 2 0 0 0 
5519062		 # 	collision with: 9 1 2 0 0  and 9 2 2 0 0 
5519064		 # 	collision with: 1 5 0 0 0  and 2 5 0 0 0 
5519066		 # 	collision with: 9 2 5 0 0  and 9 4 5 0 0 
5519068		 # 	collision with: 1 1 0 0 0  and 3 1 0 0 0 
5519070		 # 	collision with: 9 3 1 0 0  and 9 5 1 0 0 
5519072		 # 	collision with: 4 3 0 0 0  and 5 3 0 0 0 
5519074		 # 	collision with: 9 1 3 0 0  and 9 2 3 0 0 
5519076		 # 	collision with: 2 8 0 0 0  and 3 8 0 0 0 
5519078		 # 	collision with: 9 5 8 0 0  and 9 6 8 0 0 
5519080		 # 	collision with: 4 10 0 0 0  and 6 10 0 0 0 
5519082		 # 	collision with: 9 2 10 0 0  and 9 4 10 0 0 
5519084		 # 	collision with: 5 6 0 0 0  and 6 6 0 0 0 
5519086		 # 	collision with: 9 3 6 0 0  and 9 5 6 0 0 
5519088		 # 	collision with: 0 9 0 0 0  and 2 9 0 0 0 
5519092		 # 	collision with: 3 7 0 0 0  and 5 7 0 0 0 
5519094		 # 	collision with: 9 3 7 0 0  and 9 4 7 0 0 
5519112		 # 	collision with: 1 1 0 0 0  and 3 1 0 0 0 
5519114		 # 	collision with: 9 3 1 0 0  and 9 5 1 0 0 
5519137		 # 	collision with: 0 9 0 0 0  and 2 9 0 0 0 
5519139		 # 	collision with: 2 5 1 0 0  and 2 5 3 0 0 
5519141		 # 	collision with: 1 1 0 0 0  and 3 1 0 0 0 
5519143		 # 	collision with: 9 1 1 0 0  and 9 3 1 0 0 
5519172		 # 	collision with: 5 6 0 0 0  and 6 6 0 0 0 
5519174		 # 	collision with: 9 3 6 0 0  and 9 5 6 0 0 
5519188		 # 	collision with: 2 4 0 0 0  and 4 4 0 0 0 
5519190		 # 	collision with: 9 3 4 0 0  and 9 4 4 0 0 
5519197		 # 	collision with: 3 1 0 0 0  and 7 3 0 0 0 
5519199		 # 	collision with: 3 2 1 0 0  and 3 2 3 0 0 
5519233		 # 	collision with: 3 7 0 0 0  and 5 7 0 0 0 
5519235		 # 	collision with: 9 0 2 0 0  and 9 2 2 0 0 
5519248		 # 	collision with: 4 3 0 0 0  and 5 3 0 0 0 
5519250		 # 	collision with: 9 1 3 0 0  and 9 2 3 0 0 
5519305		 # 	collision with: 4 1 0 0 0  and 0 3 0 0 0 
5519307		 # 	collision with: 9 1 0 0 0  and 9 3 0 0 0 
5519308		 # 	collision with: 0 9 0 0 0  and 2 9 0 0 0 
5519324		 # 	collision with: 0 2 0 0 0  and 1 2 0 0 0 
5519326		 # 	collision with: 9 1 2 0 0  and 9 2 2 0 0 
5519329		 # 	collision with: 3 1 0 0 0  and 7 3 0 0 0 
5519331		 # 	collision with: 7 2 1 0 0  and 7 2 3 0 0 
5519384		 # 	collision with: 2 8 0 0 0  and 3 8 0 0 0 
5519386		 # 	collision with: 9 5 8 0 0  and 9 6 8 0 0 
5519401		 # 	collision with: 0 9 0 0 0  and 2 9 0 0 0 
5519403		 # 	collision with: 5 5 1 0 0  and 5 5 3 0 0 
5519439		 # 	collision with: 9 1 0 0 0  and 9 3 0 0 0 
5519446		 # 	collision with: 9 3 7 0 0  and 9 4 7 0 0 
5519449		 # 	collision with: 1 1 0 0 0  and 3 1 0 0 0 
5519451		 # 	collision with: 9 1 1 0 0  and 9 3 1 0 0 
5519460		 # 	collision with: 1 5 0 0 0  and 2 5 0 0 0 
5519462		 # 	collision with: 9 2 5 0 0  and 9 4 5 0 0 
5519497		 # 	collision with: 3 7 0 0 0  and 5 7 0 0 0 
5519499		 # 	collision with: 9 0 2 0 0  and 9 2 2 0 0 
5519520		 # 	collision with: 4 10 0 0 0  and 6 10 0 0 0 
5519522		 # 	collision with: 9 2 10 0 0  and 9 4 10 0 0 
5519536		 # 	collision with: 1 3 1 9 0  and 3 0 0 0 1 
5519538		 # 	collision with: 0 7 4 0 0  and 3 8 0 1 0 
5519540		 # 	collision with: 4 3 0 0 0  and 5 3 0 0 0 
5519542		 # 	collision with: 9 4 3 0 0  and 9 6 3 0 0 
5519544		 # 	collision with: 3 7 0 0 0  and 5 7 0 0 0 
5519546		 # 	collision with: 9 4 7 0 0  and 9 6 7 0 0 
5519548		 # 	collision with: 1 1 0 0 0  and 3 1 0 0 0 
5519550		 # 	collision with: 9 3 1 0 0  and 9 4 1 0 0 
5519552		 # 	collision with: 0 9 0 0 0  and 2 9 0 0 0 
5519556		 # 	collision with: 1 5 0 0 0  and 2 5 0 0 0 
5519558		 # 	collision with: 9 3 5 0 0  and 9 5 5 0 0 
5519560		 # 	collision with: 5 6 0 0 0  and 6 6 0 0 0 
5519562		 # 	collision with: 9 2 6 0 0  and 9 4 6 0 0 
5519564		 # 	collision with: 0 2 0 0 0  and 1 2 0 0 0 
5519566		 # 	collision with: 9 3 2 0 0  and 9 5 2 0 0 
5519568		 # 	collision with: 4 10 0 0 0  and 6 10 0 0 0 
5519570		 # 	collision with: 9 3 10 0 0  and 9 4 10 0 0 
5519572		 # 	collision with: 2 4 0 0 0  and 4 4 0 0 0 
5519574		 # 	collision with: 9 1 4 0 0  and 9 3 4 0 0 
5519576		 # 	collision with: 2 8 0 0 0  and 3 8 0 0 0 
5519578		 # 	collision with: 9 1 8 0 0  and 9 3 8 0 0 
5519596		 # 	collision with: 0 9 0 0 0  and 2 9 0 0 0 
5519621		 # 	collision with: 1 1 0 0 0  and 3 1 0 0 0 
5519623		 # 	collision with: 9 7 1 0 0  and 9 1 2 0 0 
5519625		 # 	collision with: 6 1 0 0 0  and 4 2 0 0 0 
5519627		 # 	collision with: 9 9 1 0 0  and 9 6 2 0 0 
5519656		 # 	collision with: 4 10 0 0 0  and 6 10 0 0 0 
5519658		 # 	collision with: 9 3 10 0 0  and 9 4 10 0 0 
5519672		 # 	collision with: 4 3 0 0 0  and 5 3 0 0 0 
5519674		 # 	collision with: 9 4 3 0 0  and 9 6 3 0 0 
5519681		 # 	collision with: 6 1 0 0 0  and 8 2 0 0 0 
5519683		 # 	collision with: 9 10 1 0 0  and 9 10 2 0 0 
5519717		 # 	collision with: 0 2 0 0 0  and 1 2 0 0 0 
5519719		 # 	collision with: 7 8 1 0 0  and 7 8 2 0 0 
5519732		 # 	collision with: 1 5 0 0 0  and 2 5 0 0 0 
5519734		 # 	collision with: 9 3 5 0 0  and 9 5 5 0 0 
5519789		 # 	collision with: 4 1 0 0 0  and 0 2 0 0 0 
5519791		 # 	collision with: 9 4 1 0 0  and 9 0 2 0 0 
5519792		 # 	collision with: 2 4 0 0 0  and 4 4 0 0 0 
5519794		 # 	collision with: 9 1 4 0 0  and 9 3 4 0 0 
5519810		 # 	collision with: 9 4 7 0 0  and 9 6 7 0 0 
5519815		 # 	collision with: 9 1 1 0 0  and 9 10 2 0 0 
5519868		 # 	collision with: 5 6 0 0 0  and 6 6 0 0 0 
5519870		 # 	collision with: 9 2 6 0 0  and 9 4 6 0 0 
5519885		 # 	collision with: 1 1 0 0 0  and 3 1 0 0 0 
5519887		 # 	collision with: 2 3 1 0 0  and 2 3 2 0 0 
5519921		 # 	collision with: 4 1 0 0 0  and 0 2 0 0 0 
5519923		 # 	collision with: 6 1 1 0 0  and 6 1 2 0 0 
5519928		 # 	collision with: 2 8 0 0 0  and 3 8 0 0 0 
5519930		 # 	collision with: 9 1 8 0 0  and 9 3 8 0 0 
5519933		 # 	collision with: 6 1 0 0 0  and 4 2 0 0 0 
5519935		 # 	collision with: 9 5 1 0 0  and 9 6 2 0 0 
5519944		 # 	collision with: 1 1 0 0 0  and 3 1 0 0 0 
5519946		 # 	collision with: 9 3 1 0 0  and 9 4 1 0 0 
5519981		 # 	collision with: 0 2 0 0 0  and 1 2 0 0 0 
5519983		 # 	collision with: 9 10 1 0 0  and 9 1 2 0 0 
118.533secs	41902
