# prime 11
# degree 2
# input variables 3
# output variables 3
# reload computed balance functions from file balance-1333of3248-p11d2m3-debug.log
# p = 11
# n = 3
# smalldomain p^m 1331
# domain p^n 1331
#	 p^2 = 121
#	 p^3 = 1331
#	 p^4 = 14641
#	 p^5 = 161051
#	 p^6 = 1771561
#	 p^7 = 19487171
#	 p^8 = 214358881
#	 p^9 = 2357947691
opening file : balance-1333of3248-p11d2m3-debug.log
reloading for step2...
7998016		 # 	collision with: 2 0 0  and 0 2 0 
7998018		 # 	collision with: 7 1 0  and 6 2 0 
7998020		 # 	collision with: 2 0 0  and 0 2 0 
7998022		 # 	collision with: 7 2 0  and 4 0 1 
7998041		 # 	collision with: 3 1 0  and 3 0 1 
7998043		 # 	collision with: 7 4 0  and 5 1 1 
7998060		 # 	collision with: 0 0 0  and 5 1 0 
7998062		 # 	collision with: 0 3 0  and 2 4 0 
7998082		 # 	collision with: 10 0 0  and 3 1 0 
7998100		 # 	collision with: 2 2 0  and 10 3 0 
7998102		 # 	collision with: 7 0 0  and 2 2 0 
7998164		 # 	collision with: 2 5 0  and 0 6 0 
7998166		 # 	collision with: 4 2 0  and 8 0 1 
7998184		 # 	collision with: 10 0 0  and 6 1 0 
7998186		 # 	collision with: 3 3 0  and 4 3 0 
7998205		 # 	collision with: 8 2 0  and 0 3 0 
7998207		 # 	collision with: 2 2 0  and 1 0 1 
7998224		 # 	collision with: 0 5 0  and 5 6 0 
7998226		 # 	collision with: 0 2 0  and 3 3 0 
7998228		 # 	collision with: 4 2 0  and 4 4 0 
7998230		 # 	collision with: 7 5 0  and 5 6 0 
7998248		 # 	collision with: 8 0 0  and 4 1 0 
7998250		 # 	collision with: 1 2 0  and 3 2 0 
7998253		 # 	collision with: 3 1 0  and 5 3 0 
7998255		 # 	collision with: 6 9 0  and 5 1 1 
7998263		 # 	collision with: 8 0 0  and 1 3 1 
7998264		 # 	collision with: 6 0 0  and 2 1 1 
7998266		 # 	collision with: 10 1 0  and 10 2 0 
7998277		 # 	collision with: 1 1 0  and 5 2 0 
7998279		 # 	collision with: 9 2 0  and 0 3 0 
7998297		 # 	collision with: 3 5 0  and 9 6 0 
7998299		 # 	collision with: 3 1 0  and 10 3 0 
7998304		 # 	collision with: 2 1 0  and 2 2 0 
7998306		 # 	collision with: 5 1 0  and 0 3 0 
7998314		 # 	collision with: 4 0 0  and 5 1 0 
7998332		 # 	collision with: 3 2 0  and 2 4 0 
7998334		 # 	collision with: 9 8 0  and 9 0 1 
7998344		 # 	collision with: 2 1 0  and 10 3 0 
7998346		 # 	collision with: 1 3 0  and 7 5 0 
7998384		 # 	collision with: 4 4 0  and 9 0 1 
7998386		 # 	collision with: 3 2 0  and 9 4 0 
7998396		 # 	collision with: 7 7 0  and 1 0 1 
7998398		 # 	collision with: 8 3 0  and 3 1 1 
7998409		 # 	collision with: 4 7 0  and 7 0 1 
7998411		 # 	collision with: 3 4 0  and 3 5 0 
7998416		 # 	collision with: 5 1 0  and 2 0 1 
7998418		 # 	collision with: 6 3 0  and 0 4 0 
7998426		 # 	collision with: 4 0 0  and 7 1 0 
7998433		 # 	collision with: 7 0 0  and 9 1 0 
7998435		 # 	collision with: 6 4 0  and 0 5 0 
7998464		 # 	collision with: 0 2 0  and 2 3 0 
7998466		 # 	collision with: 10 4 0  and 5 6 0 
7998469		 # 	collision with: 8 2 0  and 7 3 0 
7998471		 # 	collision with: 9 0 0  and 7 2 0 
7998479		 # 	collision with: 4 3 0  and 1 0 1 
7998480		 # 	collision with: 5 7 0  and 3 1 1 
7998482		 # 	collision with: 1 2 0  and 1 4 0 
7998500		 # 	collision with: 8 2 0  and 7 3 0 
7998502		 # 	collision with: 3 2 0  and 1 4 0 
7998504		 # 	collision with: 1 3 0  and 10 0 1 
7998525		 # 	collision with: 5 0 0  and 1 1 0 
7998527		 # 	collision with: 0 1 0  and 1 1 0 
7998544		 # 	collision with: 7 1 0  and 6 0 1 
7998546		 # 	collision with: 0 2 0  and 4 3 0 
7998564		 # 	collision with: 0 0 0  and 4 1 1 
7998584		 # 	collision with: 2 2 0  and 8 2 1 
7998586		 # 	collision with: 9 5 0  and 6 6 0 
7998648		 # 	collision with: 7 2 0  and 7 3 0 
7998650		 # 	collision with: 3 8 0  and 1 0 1 
7998668		 # 	collision with: 4 2 0  and 6 4 0 
7998689		 # 	collision with: 3 5 0  and 9 6 0 
7998691		 # 	collision with: 6 0 0  and 1 1 0 
7998710		 # 	collision with: 4 1 0  and 4 0 1 
7998712		 # 	collision with: 4 2 0  and 0 0 1 
7998714		 # 	collision with: 4 9 0  and 0 0 1 
7998732		 # 	collision with: 2 0 0  and 4 2 0 
7998734		 # 	collision with: 1 2 0  and 9 4 0 
7998737		 # 	collision with: 6 3 0  and 1 0 1 
7998739		 # 	collision with: 0 5 0  and 8 0 1 
7998745		 # 	collision with: 6 3 0  and 1 4 0 
7998748		 # 	collision with: 5 10 0  and 4 0 1 
7998750		 # 	collision with: 0 4 0  and 7 5 0 
7998761		 # 	collision with: 4 2 0  and 2 3 0 
7998781		 # 	collision with: 9 1 0  and 0 2 0 
7998783		 # 	collision with: 5 8 0  and 6 8 0 
7998788		 # 	collision with: 4 1 0  and 9 3 0 
7998790		 # 	collision with: 4 5 0  and 3 1 1 
7998796		 # 	collision with: 3 2 0  and 2 4 0 
7998798		 # 	collision with: 6 3 0  and 0 4 0 
7998816		 # 	collision with: 5 7 0  and 2 0 1 
7998818		 # 	collision with: 6 1 0  and 4 0 1 
7998828		 # 	collision with: 0 0 0  and 7 1 0 
7998830		 # 	collision with: 5 10 0  and 9 0 1 
7998868		 # 	collision with: 7 6 0  and 3 0 1 
7998870		 # 	collision with: 5 0 0  and 9 2 0 
7998880		 # 	collision with: 4 0 0  and 5 2 0 
7998893		 # 	collision with: 9 0 0  and 7 1 0 
7998895		 # 	collision with: 3 8 0  and 9 0 1 
7998900		 # 	collision with: 7 0 0  and 9 1 0 
7998902		 # 	collision with: 1 1 0  and 1 0 1 
7998908		 # 	collision with: 3 7 0  and 5 0 1 
7998910		 # 	collision with: 8 4 0  and 10 6 0 
7998917		 # 	collision with: 2 5 0  and 5 6 0 
7998919		 # 	collision with: 6 1 0  and 0 2 0 
7998948		 # 	collision with: 10 10 0  and 9 1 1 
7998950		 # 	collision with: 5 0 0  and 5 1 0 
7998953		 # 	collision with: 6 0 0  and 2 1 0 
7998955		 # 	collision with: 7 1 0  and 6 2 0 
7998961		 # 	collision with: 8 0 0  and 4 1 0 
7998963		 # 	collision with: 10 4 0  and 5 6 0 
7998964		 # 	collision with: 0 7 0  and 3 0 1 
7998966		 # 	collision with: 4 5 0  and 6 6 0 
7998986		 # 	collision with: 6 2 0  and 7 3 0 
7998988		 # 	collision with: 5 3 0  and 6 5 0 
7998990		 # 	collision with: 7 2 0  and 7 0 1 
7999009		 # 	collision with: 1 2 0  and 3 2 0 
7999011		 # 	collision with: 6 6 0  and 8 1 1 
7999028		 # 	collision with: 7 0 0  and 4 2 0 
7999030		 # 	collision with: 0 5 0  and 8 1 1 
7999048		 # 	collision with: 5 1 0  and 5 1 1 
7999050		 # 	collision with: 4 2 0  and 4 3 0 
7999068		 # 	collision with: 6 5 0  and 8 6 0 
7999070		 # 	collision with: 3 7 0  and 10 0 1 
7999132		 # 	collision with: 10 6 0  and 9 0 1 
7999134		 # 	collision with: 6 3 0  and 0 4 0 
7999152		 # 	collision with: 0 4 0  and 5 5 0 
7999154		 # 	collision with: 0 4 0  and 6 5 0 
7999173		 # 	collision with: 7 9 0  and 10 0 1 
7999175		 # 	collision with: 1 9 0  and 2 9 0 
7999192		 # 	collision with: 3 4 0  and 3 6 0 
7999194		 # 	collision with: 9 2 0  and 0 3 0 
7999196		 # 	collision with: 8 3 0  and 4 0 1 
7999218		 # 	collision with: 10 4 0  and 0 6 0 
7999221		 # 	collision with: 3 1 0  and 2 3 0 
7999223		 # 	collision with: 2 4 0  and 9 5 0 
7999229		 # 	collision with: 5 7 0  and 2 1 1 
7999231		 # 	collision with: 7 3 0  and 9 5 0 
7999232		 # 	collision with: 5 0 1  and 8 1 1 
7999234		 # 	collision with: 4 8 0  and 10 1 1 
7999245		 # 	collision with: 2 4 0  and 3 0 1 
7999247		 # 	collision with: 3 0 0  and 1 1 0 
7999265		 # 	collision with: 5 2 0  and 7 1 1 
7999267		 # 	collision with: 0 6 0  and 5 2 1 
7999272		 # 	collision with: 2 0 0  and 3 1 0 
7999280		 # 	collision with: 5 0 0  and 10 2 0 
7999282		 # 	collision with: 7 1 0  and 7 3 0 
7999300		 # 	collision with: 2 2 0  and 8 3 0 
7999302		 # 	collision with: 3 0 0  and 1 1 0 
7999312		 # 	collision with: 10 10 0  and 6 0 1 
7999314		 # 	collision with: 6 5 0  and 0 6 0 
7999352		 # 	collision with: 3 1 0  and 0 2 0 
7999354		 # 	collision with: 0 4 0  and 5 6 0 
7999364		 # 	collision with: 9 8 0  and 9 0 1 
7999366		 # 	collision with: 5 1 0  and 9 2 0 
7999377		 # 	collision with: 9 6 0  and 2 0 1 
7999379		 # 	collision with: 6 1 0  and 4 2 0 
7999384		 # 	collision with: 9 0 0  and 7 1 0 
7999386		 # 	collision with: 2 4 0  and 6 6 0 
7999392		 # 	collision with: 1 5 0  and 3 0 1 
7999394		 # 	collision with: 0 2 0  and 2 0 1 
7999401		 # 	collision with: 8 2 0  and 5 4 0 
7999403		 # 	collision with: 9 3 0  and 8 5 0 
7999434		 # 	collision with: 1 4 0  and 8 5 0 
7999437		 # 	collision with: 5 3 0  and 4 4 0 
7999439		 # 	collision with: 6 1 0  and 4 3 0 
7999445		 # 	collision with: 7 4 0  and 2 6 0 
7999447		 # 	collision with: 0 0 0  and 1 1 1 
7999448		 # 	collision with: 9 0 0  and 5 1 0 
7999450		 # 	collision with: 4 4 0  and 0 5 0 
7999468		 # 	collision with: 10 5 0  and 9 6 0 
7999470		 # 	collision with: 10 0 0  and 9 1 0 
7999472		 # 	collision with: 3 3 0  and 4 0 1 
7999474		 # 	collision with: 10 0 0  and 3 1 0 
7999493		 # 	collision with: 3 3 0  and 8 0 1 
7999495		 # 	collision with: 10 4 0  and 0 6 0 
7999512		 # 	collision with: 7 4 0  and 2 0 1 
7999514		 # 	collision with: 2 6 0  and 3 6 0 
7999532		 # 	collision with: 0 1 0  and 1 1 0 
7999534		 # 	collision with: 1 2 0  and 2 0 1 
7999552		 # 	collision with: 2 0 1  and 0 2 1 
7999554		 # 	collision with: 2 9 0  and 3 3 1 
7999616		 # 	collision with: 1 6 0  and 4 1 1 
7999618		 # 	collision with: 4 2 0  and 0 0 1 
7999636		 # 	collision with: 2 6 0  and 3 6 0 
7999638		 # 	collision with: 2 7 0  and 0 0 1 
7999657		 # 	collision with: 4 3 0  and 3 1 1 
7999659		 # 	collision with: 8 5 0  and 8 6 0 
7999676		 # 	collision with: 10 4 0  and 5 5 0 
7999678		 # 	collision with: 2 4 0  and 10 6 0 
7999680		 # 	collision with: 3 2 0  and 2 4 0 
7999682		 # 	collision with: 2 4 0  and 4 5 0 
7999700		 # 	collision with: 4 4 0  and 6 4 0 
7999702		 # 	collision with: 5 1 0  and 0 3 0 
7999705		 # 	collision with: 0 2 0  and 2 3 0 
7999707		 # 	collision with: 5 9 0  and 10 0 1 
7999713		 # 	collision with: 4 4 0  and 6 4 0 
7999715		 # 	collision with: 9 6 0  and 7 1 1 
7999718		 # 	collision with: 1 2 0  and 3 2 0 
7999729		 # 	collision with: 7 1 0  and 7 0 1 
7999731		 # 	collision with: 5 1 0  and 9 2 0 
7999749		 # 	collision with: 0 5 0  and 2 5 0 
7999751		 # 	collision with: 10 4 0  and 5 6 0 
7999756		 # 	collision with: 8 4 0  and 1 5 0 
7999758		 # 	collision with: 0 4 0  and 1 0 1 
7999764		 # 	collision with: 6 0 0  and 10 1 0 
7999766		 # 	collision with: 6 7 0  and 2 0 1 
7999784		 # 	collision with: 4 4 0  and 8 6 0 
7999786		 # 	collision with: 1 3 0  and 6 5 0 
7999796		 # 	collision with: 5 0 0  and 10 2 0 
7999798		 # 	collision with: 0 3 0  and 4 5 0 
7999836		 # 	collision with: 3 5 0  and 5 0 1 
7999838		 # 	collision with: 9 4 0  and 8 6 0 
7999848		 # 	collision with: 7 10 0  and 1 0 1 
7999850		 # 	collision with: 10 1 0  and 10 2 0 
7999861		 # 	collision with: 0 0 1  and 9 1 1 
7999863		 # 	collision with: 5 10 0  and 8 0 1 
7999868		 # 	collision with: 5 4 0  and 6 2 1 
7999870		 # 	collision with: 10 4 0  and 6 5 0 
7999876		 # 	collision with: 3 5 0  and 6 0 1 
7999885		 # 	collision with: 10 5 0  and 1 1 1 
7999887		 # 	collision with: 9 0 0  and 8 2 0 
7999916		 # 	collision with: 1 8 0  and 6 1 1 
7999918		 # 	collision with: 10 4 0  and 7 5 0 
7999921		 # 	collision with: 4 0 0  and 1 1 0 
7999923		 # 	collision with: 4 2 0  and 3 3 0 
7999929		 # 	collision with: 8 7 0  and 0 1 1 
7999931		 # 	collision with: 5 5 0  and 4 0 1 
7999934		 # 	collision with: 7 5 0  and 0 6 0 
7999952		 # 	collision with: 0 1 0  and 10 2 0 
7999956		 # 	collision with: 7 4 0  and 4 3 1 
7999958		 # 	collision with: 10 3 0  and 9 1 1 
7999977		 # 	collision with: 0 4 0  and 7 0 1 
7999979		 # 	collision with: 1 2 0  and 9 4 0 
7999996		 # 	collision with: 9 1 0  and 0 2 0 
7999998		 # 	collision with: 9 1 0  and 10 3 0 
8000016		 # 	collision with: 6 1 0  and 9 0 1 
8000018		 # 	collision with: 4 0 0  and 6 2 0 
8000036		 # 	collision with: 0 10 0  and 10 0 1 
8000038		 # 	collision with: 6 2 0  and 8 4 0 
8000100		 # 	collision with: 3 2 0  and 2 4 0 
8000102		 # 	collision with: 3 3 0  and 4 3 0 
8000120		 # 	collision with: 4 2 0  and 4 4 0 
8000122		 # 	collision with: 3 4 0  and 10 5 0 
8000141		 # 	collision with: 0 7 0  and 8 1 1 
8000143		 # 	collision with: 3 0 0  and 1 1 0 
8000160		 # 	collision with: 4 3 0  and 3 0 1 
8000162		 # 	collision with: 10 4 0  and 0 6 0 
8000166		 # 	collision with: 2 0 0  and 2 2 0 
8000184		 # 	collision with: 5 0 0  and 5 2 0 
8000186		 # 	collision with: 5 4 0  and 1 5 0 
8000189		 # 	collision with: 7 2 0  and 7 3 0 
8000191		 # 	collision with: 0 3 0  and 4 5 0 
8000197		 # 	collision with: 9 9 0  and 3 0 1 
8000199		 # 	collision with: 2 4 0  and 4 5 0 
8000200		 # 	collision with: 8 1 0  and 9 3 0 
8000202		 # 	collision with: 4 5 0  and 6 6 0 
8000213		 # 	collision with: 3 1 0  and 0 2 0 
8000215		 # 	collision with: 3 8 0  and 5 5 1 
8000233		 # 	collision with: 0 5 0  and 6 1 1 
8000235		 # 	collision with: 9 5 0  and 6 6 0 
8000240		 # 	collision with: 9 3 0  and 6 0 1 
8000242		 # 	collision with: 1 2 0  and 1 4 0 
8000248		 # 	collision with: 10 0 0  and 6 1 0 
8000250		 # 	collision with: 10 4 0  and 8 0 1 
8000268		 # 	collision with: 1 4 0  and 6 6 0 
8000280		 # 	collision with: 2 0 0  and 4 2 0 
8000282		 # 	collision with: 3 3 0  and 9 0 1 
8000320		 # 	collision with: 7 7 0  and 0 0 1 
8000322		 # 	collision with: 1 4 0  and 2 0 1 
8000332		 # 	collision with: 3 1 0  and 4 2 0 
8000334		 # 	collision with: 0 0 0  and 7 2 0 
8000345		 # 	collision with: 5 1 0  and 8 1 1 
8000352		 # 	collision with: 7 4 0  and 2 6 0 
8000354		 # 	collision with: 10 0 1  and 6 1 1 
8000360		 # 	collision with: 2 3 0  and 6 4 0 
8000362		 # 	collision with: 1 5 0  and 3 3 1 
8000369		 # 	collision with: 0 0 0  and 1 1 1 
8000371		 # 	collision with: 6 3 0  and 0 4 0 
8000400		 # 	collision with: 4 0 0  and 1 1 0 
8000402		 # 	collision with: 1 8 0  and 9 0 1 
8000405		 # 	collision with: 2 4 0  and 1 5 0 
8000413		 # 	collision with: 2 5 0  and 0 6 0 
8000415		 # 	collision with: 4 2 0  and 4 3 0 
8000416		 # 	collision with: 0 2 0  and 9 0 1 
8000418		 # 	collision with: 4 0 0  and 7 1 0 
8000436		 # 	collision with: 7 2 0  and 5 4 0 
8000438		 # 	collision with: 1 3 0  and 0 4 0 
8000442		 # 	collision with: 1 3 0  and 6 5 0 
8000461		 # 	collision with: 4 4 0  and 7 5 0 
8000463		 # 	collision with: 1 2 0  and 1 4 0 
8000480		 # 	collision with: 3 0 0  and 10 1 0 
8000500		 # 	collision with: 6 0 0  and 2 2 0 
8000502		 # 	collision with: 10 3 0  and 5 0 1 
8000520		 # 	collision with: 3 2 0  and 2 4 0 
8000522		 # 	collision with: 9 3 0  and 5 5 0 
8000584		 # 	collision with: 4 1 0  and 4 0 1 
8000604		 # 	collision with: 7 2 0  and 0 3 0 
8000606		 # 	collision with: 9 3 0  and 8 5 0 
8000625		 # 	collision with: 3 7 0  and 5 7 0 
8000627		 # 	collision with: 6 0 0  and 0 1 0 
8000644		 # 	collision with: 7 4 0  and 3 6 0 
8000648		 # 	collision with: 3 1 0  and 6 0 1 
8000650		 # 	collision with: 8 4 0  and 10 6 0 
8000668		 # 	collision with: 8 2 0  and 5 4 0 
8000670		 # 	collision with: 6 3 0  and 0 4 0 
8000675		 # 	collision with: 6 0 0  and 0 1 0 
8000681		 # 	collision with: 7 0 0  and 3 1 0 
8000683		 # 	collision with: 6 0 0  and 0 1 0 
8000684		 # 	collision with: 9 1 0  and 5 3 0 
8000686		 # 	collision with: 4 0 0  and 5 1 0 
8000697		 # 	collision with: 7 0 0  and 9 1 0 
8000699		 # 	collision with: 6 0 0  and 0 1 0 
8000717		 # 	collision with: 5 0 0  and 1 1 0 
8000719		 # 	collision with: 6 0 0  and 0 1 0 
8000726		 # 	collision with: 1 3 0  and 10 4 0 
8000732		 # 	collision with: 5 3 0  and 6 4 0 
8000734		 # 	collision with: 8 4 0  and 1 1 1 
8000752		 # 	collision with: 5 0 0  and 1 1 0 
8000754		 # 	collision with: 5 0 0  and 5 1 0 
8000764		 # 	collision with: 9 0 0  and 7 1 0 
8000766		 # 	collision with: 9 2 0  and 7 3 0 
8000804		 # 	collision with: 7 3 0  and 5 4 0 
8000806		 # 	collision with: 6 2 0  and 2 4 0 
8000816		 # 	collision with: 2 10 0  and 4 10 0 
8000818		 # 	collision with: 6 3 0  and 7 5 0 
8000829		 # 	collision with: 1 9 0  and 2 9 0 
8000831		 # 	collision with: 6 0 0  and 0 1 0 
8000838		 # 	collision with: 3 6 0  and 4 0 1 
8000844		 # 	collision with: 2 5 0  and 0 6 0 
8000846		 # 	collision with: 6 1 0  and 4 2 0 
8000853		 # 	collision with: 1 1 0  and 4 0 1 
8000855		 # 	collision with: 6 0 0  and 0 1 0 
8000884		 # 	collision with: 10 1 0  and 10 3 0 
8000886		 # 	collision with: 3 1 0  and 10 3 0 
8000891		 # 	collision with: 6 0 0  and 0 1 0 
8000897		 # 	collision with: 2 0 1  and 5 1 1 
8000899		 # 	collision with: 6 0 0  and 0 1 0 
8000900		 # 	collision with: 0 0 0  and 10 1 1 
8000902		 # 	collision with: 7 2 0  and 2 1 1 
8000920		 # 	collision with: 9 1 0  and 4 2 0 
8000922		 # 	collision with: 8 4 0  and 6 6 0 
8000924		 # 	collision with: 4 2 0  and 2 3 0 
8000926		 # 	collision with: 0 0 0  and 7 2 0 
8000945		 # 	collision with: 7 3 0  and 0 0 1 
8000947		 # 	collision with: 6 0 0  and 0 1 0 
8000964		 # 	collision with: 1 1 0  and 10 2 0 
8000966		 # 	collision with: 4 4 0  and 2 5 0 
8000984		 # 	collision with: 8 0 0  and 8 1 0 
8000986		 # 	collision with: 2 6 0  and 3 6 0 
8001004		 # 	collision with: 1 1 0  and 5 2 0 
8001006		 # 	collision with: 6 3 0  and 0 4 0 
8001070		 # 	collision with: 6 1 0  and 4 2 0 
8001088		 # 	collision with: 7 4 0  and 9 0 1 
8001090		 # 	collision with: 2 0 0  and 2 2 0 
8001109		 # 	collision with: 3 1 0  and 5 3 0 
8001111		 # 	collision with: 7 6 0  and 4 0 1 
8001128		 # 	collision with: 0 5 0  and 1 0 1 
8001130		 # 	collision with: 0 6 0  and 2 0 1 
8001132		 # 	collision with: 1 2 0  and 2 4 0 
8001134		 # 	collision with: 6 4 0  and 2 5 0 
8001152		 # 	collision with: 1 1 0  and 10 2 0 
8001154		 # 	collision with: 8 5 0  and 8 6 0 
8001157		 # 	collision with: 5 8 0  and 3 0 1 
8001159		 # 	collision with: 1 2 0  and 9 4 0 
8001165		 # 	collision with: 5 1 0  and 3 0 1 
8001167		 # 	collision with: 5 4 0  and 1 5 0 
8001168		 # 	collision with: 1 7 0  and 2 0 1 
8001170		 # 	collision with: 0 0 0  and 1 1 1 
8001183		 # 	collision with: 3 5 0  and 5 1 1 
8001201		 # 	collision with: 0 2 0  and 5 3 0 
8001203		 # 	collision with: 4 4 0  and 0 5 0 
8001208		 # 	collision with: 5 0 0  and 1 1 0 
8001210		 # 	collision with: 6 1 0  and 3 3 0 
8001216		 # 	collision with: 4 6 0  and 1 1 1 
8001218		 # 	collision with: 0 0 0  and 8 2 0 
8001236		 # 	collision with: 7 1 0  and 4 1 1 
8001238		 # 	collision with: 2 5 0  and 1 0 1 
8001248		 # 	collision with: 5 4 0  and 0 0 1 
8001288		 # 	collision with: 5 2 0  and 8 0 1 
8001290		 # 	collision with: 1 8 0  and 8 0 1 
8001300		 # 	collision with: 7 6 0  and 4 1 1 
8001302		 # 	collision with: 2 1 0  and 6 1 1 
8001313		 # 	collision with: 9 1 0  and 0 2 0 
8001315		 # 	collision with: 2 1 0  and 10 2 0 
8001320		 # 	collision with: 4 4 0  and 5 1 1 
8001322		 # 	collision with: 10 10 0  and 1 1 1 
8001328		 # 	collision with: 5 0 0  and 5 2 0 
8001330		 # 	collision with: 0 0 0  and 1 1 1 
8001339		 # 	collision with: 4 0 0  and 5 1 0 
8001368		 # 	collision with: 0 2 0  and 5 3 0 
8001370		 # 	collision with: 1 3 0  and 3 0 1 
8001373		 # 	collision with: 0 2 0  and 2 3 0 
8001375		 # 	collision with: 0 3 0  and 9 5 0 
8001381		 # 	collision with: 1 6 0  and 7 0 1 
8001383		 # 	collision with: 4 4 0  and 2 5 0 
8001384		 # 	collision with: 7 10 0  and 3 0 1 
8001404		 # 	collision with: 3 0 0  and 2 1 0 
8001406		 # 	collision with: 9 0 0  and 7 2 0 
8001408		 # 	collision with: 1 4 0  and 6 6 0 
8001410		 # 	collision with: 0 1 0  and 1 1 0 
8001429		 # 	collision with: 6 2 0  and 6 0 1 
8001431		 # 	collision with: 3 1 0  and 8 3 0 
8001450		 # 	collision with: 2 2 0  and 7 4 0 
8001468		 # 	collision with: 3 2 0  and 2 4 0 
8001470		 # 	collision with: 3 2 0  and 9 4 0 
8001488		 # 	collision with: 6 0 0  and 2 1 0 
8001490		 # 	collision with: 8 5 0  and 9 0 1 
8001552		 # 	collision with: 3 5 0  and 7 6 0 
8001554		 # 	collision with: 2 4 0  and 10 6 0 
8001572		 # 	collision with: 3 5 0  and 9 6 0 
8001574		 # 	collision with: 2 4 0  and 2 0 1 
8001593		 # 	collision with: 5 0 0  and 5 2 0 
8001595		 # 	collision with: 6 9 0  and 1 0 1 
8001612		 # 	collision with: 0 4 0  and 8 5 0 
8001614		 # 	collision with: 4 0 0  and 6 2 0 
8001616		 # 	collision with: 5 5 0  and 0 7 0 
8001618		 # 	collision with: 8 1 0  and 5 1 1 
8001636		 # 	collision with: 10 4 0  and 5 5 0 
8001638		 # 	collision with: 4 4 0  and 2 5 0 
8001641		 # 	collision with: 8 3 0  and 10 2 1 
8001649		 # 	collision with: 4 1 0  and 4 0 1 
8001651		 # 	collision with: 5 5 0  and 8 6 0 
8001652		 # 	collision with: 9 1 0  and 2 3 0 
8001654		 # 	collision with: 9 2 0  and 8 4 0 
8001665		 # 	collision with: 8 1 0  and 9 3 0 
8001667		 # 	collision with: 9 9 0  and 1 0 1 
8001685		 # 	collision with: 4 0 0  and 1 1 0 
8001687		 # 	collision with: 0 0 0  and 1 1 1 
8001692		 # 	collision with: 4 2 0  and 0 1 1 
8001694		 # 	collision with: 1 2 0  and 9 3 0 
8001700		 # 	collision with: 0 5 0  and 2 5 0 
8001720		 # 	collision with: 4 6 0  and 2 1 1 
8001722		 # 	collision with: 8 1 0  and 8 0 1 
8001734		 # 	collision with: 2 2 0  and 3 4 0 
8001772		 # 	collision with: 3 1 0  and 2 3 0 
8001774		 # 	collision with: 6 4 0  and 2 5 0 
8001786		 # 	collision with: 4 0 0  and 9 2 0 
8001797		 # 	collision with: 7 2 0  and 0 3 0 
8001799		 # 	collision with: 10 0 0  and 3 1 0 
8001804		 # 	collision with: 10 1 0  and 10 0 1 
8001806		 # 	collision with: 10 0 1  and 2 1 1 
8001812		 # 	collision with: 9 2 0  and 0 0 1 
8001814		 # 	collision with: 8 5 0  and 8 6 0 
8001821		 # 	collision with: 3 1 0  and 4 2 0 
8001823		 # 	collision with: 6 5 0  and 0 6 0 
8001852		 # 	collision with: 6 0 0  and 10 1 0 
8001857		 # 	collision with: 3 0 0  and 2 1 0 
8001859		 # 	collision with: 9 4 0  and 8 5 0 
8001865		 # 	collision with: 7 0 0  and 4 2 0 
8001867		 # 	collision with: 6 1 0  and 3 3 0 
8001868		 # 	collision with: 3 1 0  and 5 3 0 
8001870		 # 	collision with: 6 3 0  and 0 4 0 
8001888		 # 	collision with: 10 1 0  and 8 3 0 
8001890		 # 	collision with: 0 1 0  and 1 1 0 
8001892		 # 	collision with: 10 6 0  and 7 0 1 
8001894		 # 	collision with: 2 4 0  and 4 5 0 
8001913		 # 	collision with: 9 4 0  and 10 6 0 
8001932		 # 	collision with: 0 1 0  and 1 1 0 
8001934		 # 	collision with: 10 9 0  and 7 2 1 
8001952		 # 	collision with: 10 5 0  and 7 6 0 
8001954		 # 	collision with: 1 4 0  and 8 5 0 
8001977		 # 	collision with: 7 3 0  and 0 5 0 
8001979		 # 	collision with: 8 3 0  and 7 5 0 
8002013		 # 	collision with: 5 4 0  and 4 5 0 
8002015		 # 	collision with: 8 3 0  and 7 5 0 
8002037		 # 	collision with: 5 4 0  and 4 5 0 
8002057		 # 	collision with: 10 1 0  and 7 2 0 
8002059		 # 	collision with: 10 0 0  and 5 2 0 
8002079		 # 	collision with: 7 3 0  and 4 5 0 
8002209		 # 	collision with: 5 4 0  and 4 5 0 
8002211		 # 	collision with: 7 1 0  and 0 2 0 
8002213		 # 	collision with: 5 4 0  and 4 5 0 
8002215		 # 	collision with: 8 3 0  and 7 5 0 
8002261		 # 	collision with: 5 4 0  and 4 5 0 
8002263		 # 	collision with: 8 3 0  and 7 5 0 
8002265		 # 	collision with: 0 3 0  and 3 4 0 
8002267		 # 	collision with: 1 1 0  and 3 1 0 
8002399		 # 	collision with: 8 3 0  and 7 5 0 
8002417		 # 	collision with: 9 1 0  and 2 3 0 
8002419		 # 	collision with: 8 3 0  and 7 5 0 
8002437		 # 	collision with: 5 4 0  and 4 5 0 
8002456		 # 	collision with: 1 8 0  and 5 0 1 
8002458		 # 	collision with: 6 5 0  and 5 6 0 
8002461		 # 	collision with: 6 1 0  and 2 3 0 
8002463		 # 	collision with: 6 5 0  and 5 6 0 
8002497		 # 	collision with: 6 1 0  and 2 3 0 
8002499		 # 	collision with: 6 5 0  and 5 6 0 
8002521		 # 	collision with: 6 1 0  and 2 3 0 
8002523		 # 	collision with: 6 5 0  and 5 6 0 
8002541		 # 	collision with: 6 1 0  and 2 3 0 
8002561		 # 	collision with: 6 1 0  and 2 3 0 
8002693		 # 	collision with: 10 0 0  and 3 2 0 
8002695		 # 	collision with: 6 5 0  and 5 6 0 
8002699		 # 	collision with: 2 3 0  and 4 3 0 
8002745		 # 	collision with: 6 1 0  and 2 3 0 
8002747		 # 	collision with: 1 1 0  and 3 1 0 
8002751		 # 	collision with: 4 2 0  and 6 4 0 
8002881		 # 	collision with: 6 1 0  and 2 3 0 
8002883		 # 	collision with: 9 0 0  and 6 2 0 
8002901		 # 	collision with: 7 0 0  and 1 2 0 
8002903		 # 	collision with: 10 0 0  and 8 1 0 
8002921		 # 	collision with: 6 1 0  and 2 3 0 
8002923		 # 	collision with: 4 2 0  and 1 4 0 
8002940		 # 	collision with: 8 2 0  and 6 0 1 
8002942		 # 	collision with: 5 4 0  and 1 1 1 
8002947		 # 	collision with: 0 9 0  and 4 0 1 
8002981		 # 	collision with: 1 3 0  and 6 5 0 
8003005		 # 	collision with: 7 5 0  and 3 6 0 
8003007		 # 	collision with: 1 3 0  and 10 4 0 
8003025		 # 	collision with: 8 0 0  and 8 1 0 
8003027		 # 	collision with: 8 7 0  and 10 0 1 
8003045		 # 	collision with: 0 10 0  and 2 10 0 
8003047		 # 	collision with: 7 4 0  and 0 6 0 
8003177		 # 	collision with: 9 2 0  and 1 1 1 
8003179		 # 	collision with: 3 1 0  and 0 0 1 
8003181		 # 	collision with: 4 2 0  and 6 3 0 
8003183		 # 	collision with: 10 4 0  and 2 6 0 
8003229		 # 	collision with: 10 1 0  and 7 2 0 
8003231		 # 	collision with: 2 7 0  and 3 0 1 
8003233		 # 	collision with: 5 1 0  and 7 3 0 
8003365		 # 	collision with: 6 3 0  and 1 5 0 
8003367		 # 	collision with: 7 2 0  and 2 4 0 
8003385		 # 	collision with: 2 8 0  and 6 3 1 
8003387		 # 	collision with: 7 3 0  and 6 1 1 
8003405		 # 	collision with: 8 5 0  and 0 6 0 
8003407		 # 	collision with: 3 1 0  and 9 3 0 
8003424		 # 	collision with: 6 10 0  and 0 1 1 
8003426		 # 	collision with: 7 0 0  and 8 2 0 
8003429		 # 	collision with: 5 3 0  and 6 5 0 
8003431		 # 	collision with: 9 2 0  and 2 4 0 
8003465		 # 	collision with: 2 1 0  and 7 0 1 
8003467		 # 	collision with: 4 2 0  and 1 4 0 
8003489		 # 	collision with: 9 1 0  and 2 3 0 
8003491		 # 	collision with: 5 0 0  and 10 2 0 
8003509		 # 	collision with: 3 4 0  and 6 6 0 
8003511		 # 	collision with: 1 5 0  and 5 0 1 
8003529		 # 	collision with: 1 7 0  and 7 0 1 
8003531		 # 	collision with: 6 4 0  and 6 0 1 
8003661		 # 	collision with: 4 0 0  and 3 2 0 
8003663		 # 	collision with: 4 9 0  and 2 0 1 
8003665		 # 	collision with: 1 10 0  and 10 0 1 
8003667		 # 	collision with: 0 0 0  and 1 2 0 
8003713		 # 	collision with: 0 1 0  and 10 2 1 
8003715		 # 	collision with: 3 0 0  and 4 2 0 
8003717		 # 	collision with: 4 2 0  and 6 3 0 
8003719		 # 	collision with: 2 3 0  and 6 4 0 
8003849		 # 	collision with: 1 2 0  and 6 3 0 
8003851		 # 	collision with: 0 2 0  and 7 3 0 
8003869		 # 	collision with: 4 2 0  and 0 3 0 
8003871		 # 	collision with: 0 0 0  and 4 2 0 
8003889		 # 	collision with: 6 3 0  and 3 4 0 
8003891		 # 	collision with: 4 3 0  and 1 4 0 
8003908		 # 	collision with: 1 2 0  and 8 1 1 
8003910		 # 	collision with: 1 7 0  and 0 0 1 
8003913		 # 	collision with: 6 1 0  and 1 1 1 
8003915		 # 	collision with: 1 5 0  and 5 0 1 
8003949		 # 	collision with: 10 10 0  and 2 0 1 
8003951		 # 	collision with: 10 0 0  and 8 1 0 
8003973		 # 	collision with: 7 4 0  and 4 1 1 
8003975		 # 	collision with: 1 3 0  and 8 4 0 
8003993		 # 	collision with: 1 10 0  and 0 0 1 
8003995		 # 	collision with: 7 0 0  and 8 2 0 
6.68897secs	4427
