# prime 11
# degree 2
# input variables 3
# output variables 5
# reload computed balance functions from file balance-465of3248-p11d2m3-debug.log
# p = 11
# n = 5
# smalldomain p^m 1331
# domain p^n 161051
#	 p^2 = 121
#	 p^3 = 1331
#	 p^4 = 14641
#	 p^5 = 161051
#	 p^6 = 1771561
#	 p^7 = 19487171
#	 p^8 = 214358881
#	 p^9 = 2357947691
opening file : balance-465of3248-p11d2m3-debug.log
reloading for step2...
2790005		 # 	collision with: 10 5 0 0 0  and 6 6 0 0 0 
2790007		 # 	collision with: 7 2 5 0 0  and 7 4 6 0 0 
2790028		 # 	collision with: 5 0 0 0 0  and 7 0 0 0 0 
2790030		 # 	collision with: 7 1 0 0 0  and 7 3 0 0 0 
2790052		 # 	collision with: 5 0 0 0 0  and 7 0 0 0 0 
2790054		 # 	collision with: 7 4 0 0 0  and 7 5 0 0 0 
2790077		 # 	collision with: 2 3 0 0 0  and 4 3 0 0 0 
2790079		 # 	collision with: 8 2 5 0 0  and 8 2 6 0 0 
2790085		 # 	collision with: 2 5 0 0 0  and 0 6 0 0 0 
2790087		 # 	collision with: 7 5 6 0 0  and 7 6 6 0 0 
2790120		 # 	collision with: 5 0 0 0 0  and 7 0 0 0 0 
2790122		 # 	collision with: 7 1 0 0 0  and 7 2 0 0 0 
2790141		 # 	collision with: 1 10 0 0 0  and 2 10 0 0 0 
2790143		 # 	collision with: 7 2 2 0 0  and 7 3 2 0 0 
2790144		 # 	collision with: 5 0 0 0 0  and 7 0 0 0 0 
2790146		 # 	collision with: 7 3 0 0 0  and 7 5 0 0 0 
2790185		 # 	collision with: 1 10 0 0 0  and 2 10 0 0 0 
2790187		 # 	collision with: 7 2 2 0 0  and 7 3 2 0 0 
2790212		 # 	collision with: 5 0 0 0 0  and 7 0 0 0 0 
2790214		 # 	collision with: 7 0 0 0 0  and 7 2 0 0 0 
2790225		 # 	collision with: 10 5 0 0 0  and 6 6 0 0 0 
2790227		 # 	collision with: 7 8 5 0 0  and 7 5 6 0 0 
2790236		 # 	collision with: 5 0 0 0 0  and 7 0 0 0 0 
2790238		 # 	collision with: 7 3 0 0 0  and 7 4 0 0 0 
2790260		 # 	collision with: 7 4 10 6 0  and 2 0 0 0 1 
2790262		 # 	collision with: 6 8 0 0 0  and 5 7 0 1 0 
2790264		 # 	collision with: 1 10 0 0 0  and 2 10 0 0 0 
2790266		 # 	collision with: 7 0 10 0 0  and 7 2 10 0 0 
2790268		 # 	collision with: 0 5 0 0 0  and 2 5 0 0 0 
2790270		 # 	collision with: 7 5 5 0 0  and 7 6 5 0 0 
2790272		 # 	collision with: 4 7 0 0 0  and 5 7 0 0 0 
2790276		 # 	collision with: 3 8 0 0 0  and 4 8 0 0 0 
2790278		 # 	collision with: 7 1 8 0 0  and 7 2 8 0 0 
2790280		 # 	collision with: 3 2 0 0 0  and 5 2 0 0 0 
2790282		 # 	collision with: 7 1 2 0 0  and 7 2 2 0 0 
2790284		 # 	collision with: 2 9 0 0 0  and 3 9 0 0 0 
2790286		 # 	collision with: 7 4 9 0 0  and 7 6 9 0 0 
2790288		 # 	collision with: 2 3 0 0 0  and 4 3 0 0 0 
2790290		 # 	collision with: 7 4 3 0 0  and 7 6 3 0 0 
2790292		 # 	collision with: 1 4 0 0 0  and 3 4 0 0 0 
2790294		 # 	collision with: 7 3 4 0 0  and 7 4 4 0 0 
2790296		 # 	collision with: 5 6 0 0 0  and 6 6 0 0 0 
2790298		 # 	collision with: 7 0 6 0 0  and 7 2 6 0 0 
2790300		 # 	collision with: 4 1 0 0 0  and 6 1 0 0 0 
2790302		 # 	collision with: 7 5 1 0 0  and 7 6 1 0 0 
2790328		 # 	collision with: 2 9 0 0 0  and 3 9 0 0 0 
2790330		 # 	collision with: 7 4 9 0 0  and 7 6 9 0 0 
2790341		 # 	collision with: 5 6 0 0 0  and 6 6 0 0 0 
2790343		 # 	collision with: 7 0 1 0 0  and 7 1 1 0 0 
2790352		 # 	collision with: 1 10 0 0 0  and 2 10 0 0 0 
2790354		 # 	collision with: 7 0 10 0 0  and 7 2 10 0 0 
2790381		 # 	collision with: 4 4 0 0 0  and 0 6 0 0 0 
2790420		 # 	collision with: 2 3 0 0 0  and 4 3 0 0 0 
2790422		 # 	collision with: 7 4 3 0 0  and 7 6 3 0 0 
2790425		 # 	collision with: 4 4 0 0 0  and 0 6 0 0 0 
2790427		 # 	collision with: 7 0 1 0 0  and 7 2 1 0 0 
2790437		 # 	collision with: 4 1 0 0 0  and 6 1 0 0 0 
2790439		 # 	collision with: 7 4 1 0 0  and 7 6 1 0 0 
2790444		 # 	collision with: 0 5 0 0 0  and 2 5 0 0 0 
2790489		 # 	collision with: 9 4 0 0 0  and 1 6 0 0 0 
2790491		 # 	collision with: 7 4 0 0 0  and 7 6 0 0 0 
2790512		 # 	collision with: 1 4 0 0 0  and 3 4 0 0 0 
2790514		 # 	collision with: 7 3 4 0 0  and 7 4 4 0 0 
2790536		 # 	collision with: 4 7 0 0 0  and 5 7 0 0 0 
2790538		 # 	collision with: 7 2 7 0 0  and 7 4 7 0 0 
2790561		 # 	collision with: 5 6 0 0 0  and 6 6 0 0 0 
2790563		 # 	collision with: 7 0 1 0 0  and 7 1 1 0 0 
2790569		 # 	collision with: 4 1 0 0 0  and 6 1 0 0 0 
2790571		 # 	collision with: 7 4 1 0 0  and 7 6 1 0 0 
2790604		 # 	collision with: 5 6 0 0 0  and 6 6 0 0 0 
2790606		 # 	collision with: 7 0 6 0 0  and 7 2 6 0 0 
2790625		 # 	collision with: 2 9 0 0 0  and 3 9 0 0 0 
2790627		 # 	collision with: 7 3 1 0 0  and 7 4 1 0 0 
2790628		 # 	collision with: 3 8 0 0 0  and 4 8 0 0 0 
2790630		 # 	collision with: 7 1 8 0 0  and 7 2 8 0 0 
2790671		 # 	collision with: 7 3 1 0 0  and 7 4 1 0 0 
2790698		 # 	collision with: 7 5 1 0 0  and 7 6 1 0 0 
2790709		 # 	collision with: 9 4 0 0 0  and 1 6 0 0 0 
2790711		 # 	collision with: 7 4 0 0 0  and 7 6 0 0 0 
2790720		 # 	collision with: 3 2 0 0 0  and 5 2 0 0 0 
2790722		 # 	collision with: 7 1 2 0 0  and 7 2 2 0 0 
2790744		 # 	collision with: 8 7 5 6 0  and 4 1 0 0 1 
2790746		 # 	collision with: 6 10 0 0 0  and 4 4 0 1 0 
2790748		 # 	collision with: 2 9 0 0 0  and 3 9 0 0 0 
2790750		 # 	collision with: 7 1 9 0 0  and 7 3 9 0 0 
2790752		 # 	collision with: 1 10 0 0 0  and 2 10 0 0 0 
2790754		 # 	collision with: 7 0 10 0 0  and 7 1 10 0 0 
2790756		 # 	collision with: 2 3 0 0 0  and 4 3 0 0 0 
2790758		 # 	collision with: 7 1 3 0 0  and 7 2 3 0 0 
2790760		 # 	collision with: 0 5 0 0 0  and 2 5 0 0 0 
2790762		 # 	collision with: 7 4 5 0 0  and 7 5 5 0 0 
2790764		 # 	collision with: 1 4 0 0 0  and 3 4 0 0 0 
2790766		 # 	collision with: 7 4 4 0 0  and 7 6 4 0 0 
2790768		 # 	collision with: 4 7 0 0 0  and 5 7 0 0 0 
2790772		 # 	collision with: 5 6 0 0 0  and 6 6 0 0 0 
2790774		 # 	collision with: 7 1 6 0 0  and 7 3 6 0 0 
2790776		 # 	collision with: 3 8 0 0 0  and 4 8 0 0 0 
2790778		 # 	collision with: 7 4 8 0 0  and 7 6 8 0 0 
2790780		 # 	collision with: 4 1 0 0 0  and 6 1 0 0 0 
2790782		 # 	collision with: 7 0 1 0 0  and 7 1 1 0 0 
2790784		 # 	collision with: 3 2 0 0 0  and 5 2 0 0 0 
2790786		 # 	collision with: 7 4 2 0 0  and 7 5 2 0 0 
2790812		 # 	collision with: 4 7 0 0 0  and 5 7 0 0 0 
2790814		 # 	collision with: 7 1 7 0 0  and 7 2 7 0 0 
2790825		 # 	collision with: 8 4 0 0 0  and 1 5 0 0 0 
2790827		 # 	collision with: 7 2 4 0 0  and 7 4 4 0 0 
2790836		 # 	collision with: 2 9 0 0 0  and 3 9 0 0 0 
2790838		 # 	collision with: 7 1 9 0 0  and 7 3 9 0 0 
2790865		 # 	collision with: 0 5 0 0 0  and 2 5 0 0 0 
2790867		 # 	collision with: 7 3 4 0 0  and 7 0 5 0 0 
2790904		 # 	collision with: 5 6 0 0 0  and 6 6 0 0 0 
2790906		 # 	collision with: 7 1 6 0 0  and 7 3 6 0 0 
2790909		 # 	collision with: 0 5 0 0 0  and 2 5 0 0 0 
2790921		 # 	collision with: 1 4 0 0 0  and 4 5 0 0 0 
2790923		 # 	collision with: 7 4 7 0 0  and 7 5 7 0 0 
2790928		 # 	collision with: 1 10 0 0 0  and 2 10 0 0 0 
2790930		 # 	collision with: 7 0 10 0 0  and 7 1 10 0 0 
2790973		 # 	collision with: 4 4 0 0 0  and 0 5 0 0 0 
2790996		 # 	collision with: 3 8 0 0 0  and 4 8 0 0 0 
2790998		 # 	collision with: 7 4 8 0 0  and 7 6 8 0 0 
2791020		 # 	collision with: 2 3 0 0 0  and 4 3 0 0 0 
2791022		 # 	collision with: 7 1 3 0 0  and 7 2 3 0 0 
2791045		 # 	collision with: 8 4 0 0 0  and 1 5 0 0 0 
2791047		 # 	collision with: 7 2 4 0 0  and 7 4 4 0 0 
2791055		 # 	collision with: 7 1 4 0 0  and 7 5 5 0 0 
2791090		 # 	collision with: 7 0 1 0 0  and 7 1 1 0 0 
2791109		 # 	collision with: 4 4 0 0 0  and 2 5 0 0 0 
2791111		 # 	collision with: 7 4 0 0 0  and 7 5 0 0 0 
2791112		 # 	collision with: 0 5 0 0 0  and 2 5 0 0 0 
2791153		 # 	collision with: 4 4 0 0 0  and 2 5 0 0 0 
2791155		 # 	collision with: 7 4 0 0 0  and 7 5 0 0 0 
2791180		 # 	collision with: 3 2 0 0 0  and 5 2 0 0 0 
2791182		 # 	collision with: 7 4 2 0 0  and 7 5 2 0 0 
2791193		 # 	collision with: 4 4 0 0 0  and 0 5 0 0 0 
2791195		 # 	collision with: 5 5 4 0 0  and 5 5 5 0 0 
2791204		 # 	collision with: 1 4 0 0 0  and 3 4 0 0 0 
2791206		 # 	collision with: 7 4 4 0 0  and 7 6 4 0 0 
2791228		 # 	collision with: 0 4 5 4 0  and 4 1 0 0 1 
2791230		 # 	collision with: 7 10 0 0 0  and 4 6 0 1 0 
2791232		 # 	collision with: 3 8 0 0 0  and 4 8 0 0 0 
2791234		 # 	collision with: 7 2 8 0 0  and 7 4 8 0 0 
2791236		 # 	collision with: 1 4 0 0 0  and 3 4 0 0 0 
2791238		 # 	collision with: 7 0 4 0 0  and 7 2 4 0 0 
2791240		 # 	collision with: 1 10 0 0 0  and 2 10 0 0 0 
2791242		 # 	collision with: 7 5 10 0 0  and 7 6 10 0 0 
2791244		 # 	collision with: 3 2 0 0 0  and 5 2 0 0 0 
2791246		 # 	collision with: 7 1 2 0 0  and 7 3 2 0 0 
2791248		 # 	collision with: 5 6 0 0 0  and 6 6 0 0 0 
2791250		 # 	collision with: 7 2 6 0 0  and 7 4 6 0 0 
2791252		 # 	collision with: 0 5 0 0 0  and 2 5 0 0 0 
2791254		 # 	collision with: 7 3 5 0 0  and 7 4 5 0 0 
2791256		 # 	collision with: 2 9 0 0 0  and 3 9 0 0 0 
2791258		 # 	collision with: 7 4 9 0 0  and 7 5 9 0 0 
2791260		 # 	collision with: 4 1 0 0 0  and 6 1 0 0 0 
2791262		 # 	collision with: 7 0 1 0 0  and 7 2 1 0 0 
2791264		 # 	collision with: 4 7 0 0 0  and 5 7 0 0 0 
2791268		 # 	collision with: 2 3 0 0 0  and 4 3 0 0 0 
2791270		 # 	collision with: 7 3 3 0 0  and 7 4 3 0 0 
2791296		 # 	collision with: 0 5 0 0 0  and 2 5 0 0 0 
2791309		 # 	collision with: 4 1 0 0 0  and 6 1 0 0 0 
2791311		 # 	collision with: 7 5 3 0 0  and 7 0 5 0 0 
2791320		 # 	collision with: 3 8 0 0 0  and 4 8 0 0 0 
2791322		 # 	collision with: 7 2 8 0 0  and 7 4 8 0 0 
2791349		 # 	collision with: 2 3 0 0 0  and 4 3 0 0 0 
2791351		 # 	collision with: 7 8 3 0 0  and 7 3 5 0 0 
2791388		 # 	collision with: 2 9 0 0 0  and 3 9 0 0 0 
2791390		 # 	collision with: 7 4 9 0 0  and 7 5 9 0 0 
2791393		 # 	collision with: 2 3 0 0 0  and 4 3 0 0 0 
2791395		 # 	collision with: 7 8 3 0 0  and 7 9 5 0 0 
2791405		 # 	collision with: 3 2 0 0 0  and 5 2 0 0 0 
2791407		 # 	collision with: 7 3 2 0 0  and 7 5 2 0 0 
2791412		 # 	collision with: 1 4 0 0 0  and 3 4 0 0 0 
2791414		 # 	collision with: 7 0 4 0 0  and 7 2 4 0 0 
2791459		 # 	collision with: 9 3 3 0 0  and 9 3 5 0 0 
2791482		 # 	collision with: 7 0 1 0 0  and 7 2 1 0 0 
2791504		 # 	collision with: 1 10 0 0 0  and 2 10 0 0 0 
2791506		 # 	collision with: 7 5 10 0 0  and 7 6 10 0 0 
2791529		 # 	collision with: 4 1 0 0 0  and 6 1 0 0 0 
2791531		 # 	collision with: 7 0 3 0 0  and 7 5 5 0 0 
2791537		 # 	collision with: 3 2 0 0 0  and 5 2 0 0 0 
2791539		 # 	collision with: 7 3 2 0 0  and 7 5 2 0 0 
2791572		 # 	collision with: 4 7 0 0 0  and 5 7 0 0 0 
2791574		 # 	collision with: 7 5 7 0 0  and 7 6 7 0 0 
2791593		 # 	collision with: 4 7 0 0 0  and 5 7 0 0 0 
2791595		 # 	collision with: 6 2 3 0 0  and 6 2 5 0 0 
2791596		 # 	collision with: 3 2 0 0 0  and 5 2 0 0 0 
2791598		 # 	collision with: 7 1 2 0 0  and 7 3 2 0 0 
2791637		 # 	collision with: 4 7 0 0 0  and 5 7 0 0 0 
2791639		 # 	collision with: 7 8 3 0 0  and 7 2 5 0 0 
2791664		 # 	collision with: 2 3 0 0 0  and 4 3 0 0 0 
2791666		 # 	collision with: 7 3 3 0 0  and 7 4 3 0 0 
2791677		 # 	collision with: 3 3 0 0 0  and 6 5 0 0 0 
2791679		 # 	collision with: 10 3 3 0 0  and 10 3 5 0 0 
2791688		 # 	collision with: 5 6 0 0 0  and 6 6 0 0 0 
2791690		 # 	collision with: 7 2 6 0 0  and 7 4 6 0 0 
2791712		 # 	collision with: 4 9 2 10 0  and 6 0 0 0 1 
2791714		 # 	collision with: 2 10 0 0 0  and 9 7 0 1 0 
2791716		 # 	collision with: 4 7 0 0 0  and 5 7 0 0 0 
2791720		 # 	collision with: 2 9 0 0 0  and 3 9 0 0 0 
2791722		 # 	collision with: 7 1 9 0 0  and 7 2 9 0 0 
2791724		 # 	collision with: 5 6 0 0 0  and 6 6 0 0 0 
2791726		 # 	collision with: 7 3 6 0 0  and 7 5 6 0 0 
2791728		 # 	collision with: 1 10 0 0 0  and 2 10 0 0 0 
2791730		 # 	collision with: 7 4 10 0 0  and 7 6 10 0 0 
2791732		 # 	collision with: 3 8 0 0 0  and 4 8 0 0 0 
2791734		 # 	collision with: 7 0 8 0 0  and 7 2 8 0 0 
2791736		 # 	collision with: 2 3 0 0 0  and 4 3 0 0 0 
2791738		 # 	collision with: 7 5 3 0 0  and 7 6 3 0 0 
2791740		 # 	collision with: 4 1 0 0 0  and 6 1 0 0 0 
2791742		 # 	collision with: 7 1 1 0 0  and 7 2 1 0 0 
2791744		 # 	collision with: 0 5 0 0 0  and 2 5 0 0 0 
2791746		 # 	collision with: 7 2 5 0 0  and 7 3 5 0 0 
2791748		 # 	collision with: 3 2 0 0 0  and 5 2 0 0 0 
2791750		 # 	collision with: 7 4 2 0 0  and 7 6 2 0 0 
2791752		 # 	collision with: 1 4 0 0 0  and 3 4 0 0 0 
2791754		 # 	collision with: 7 2 4 0 0  and 7 3 4 0 0 
2791780		 # 	collision with: 2 3 0 0 0  and 4 3 0 0 0 
2791782		 # 	collision with: 7 5 3 0 0  and 7 6 3 0 0 
2791793		 # 	collision with: 1 4 0 0 0  and 3 4 0 0 0 
2791804		 # 	collision with: 4 7 0 0 0  and 5 7 0 0 0 
2791806		 # 	collision with: 7 3 7 0 0  and 7 5 7 0 0 
2791833		 # 	collision with: 4 1 0 0 0  and 6 1 0 0 0 
2791835		 # 	collision with: 6 3 3 0 0  and 6 3 4 0 0 
2791874		 # 	collision with: 7 1 1 0 0  and 7 2 1 0 0 
2791879		 # 	collision with: 4 3 3 0 0  and 4 3 4 0 0 
2791889		 # 	collision with: 3 8 0 0 0  and 4 8 0 0 0 
2791896		 # 	collision with: 2 9 0 0 0  and 3 9 0 0 0 
2791898		 # 	collision with: 7 1 9 0 0  and 7 2 9 0 0 
2791941		 # 	collision with: 9 3 0 0 0  and 5 4 0 0 0 
2791943		 # 	collision with: 8 1 3 0 0  and 8 1 4 0 0 
2791964		 # 	collision with: 0 5 0 0 0  and 2 5 0 0 0 
2791988		 # 	collision with: 5 6 0 0 0  and 6 6 0 0 0 
2791990		 # 	collision with: 7 3 6 0 0  and 7 5 6 0 0 
2792013		 # 	collision with: 1 4 0 0 0  and 3 4 0 0 0 
2792015		 # 	collision with: 7 10 3 0 0  and 7 5 4 0 0 
2792021		 # 	collision with: 3 8 0 0 0  and 4 8 0 0 0 
2792023		 # 	collision with: 7 3 8 0 0  and 7 4 8 0 0 
2792056		 # 	collision with: 3 2 0 0 0  and 5 2 0 0 0 
2792058		 # 	collision with: 7 4 2 0 0  and 7 6 2 0 0 
2792077		 # 	collision with: 5 6 0 0 0  and 6 6 0 0 0 
2792079		 # 	collision with: 7 0 3 0 0  and 7 3 4 0 0 
2792080		 # 	collision with: 1 10 0 0 0  and 2 10 0 0 0 
2792082		 # 	collision with: 7 4 10 0 0  and 7 6 10 0 0 
2792121		 # 	collision with: 5 6 0 0 0  and 6 6 0 0 0 
2792123		 # 	collision with: 7 8 3 0 0  and 7 8 4 0 0 
2792148		 # 	collision with: 1 4 0 0 0  and 3 4 0 0 0 
2792150		 # 	collision with: 7 2 4 0 0  and 7 3 4 0 0 
2792161		 # 	collision with: 9 3 0 0 0  and 5 4 0 0 0 
2792163		 # 	collision with: 4 1 3 0 0  and 4 1 4 0 0 
2792172		 # 	collision with: 3 8 0 0 0  and 4 8 0 0 0 
2792174		 # 	collision with: 7 0 8 0 0  and 7 2 8 0 0 
2792196		 # 	collision with: 1 8 6 2 0  and 7 0 0 0 1 
2792198		 # 	collision with: 8 0 0 0 0  and 3 2 0 1 0 
2792200		 # 	collision with: 5 6 0 0 0  and 6 6 0 0 0 
2792202		 # 	collision with: 7 4 6 0 0  and 7 6 6 0 0 
2792204		 # 	collision with: 2 3 0 0 0  and 4 3 0 0 0 
2792206		 # 	collision with: 7 1 3 0 0  and 7 3 3 0 0 
2792208		 # 	collision with: 3 2 0 0 0  and 5 2 0 0 0 
2792210		 # 	collision with: 7 2 2 0 0  and 7 3 2 0 0 
2792212		 # 	collision with: 4 7 0 0 0  and 5 7 0 0 0 
2792216		 # 	collision with: 1 10 0 0 0  and 2 10 0 0 0 
2792218		 # 	collision with: 7 4 10 0 0  and 7 5 10 0 0 
2792220		 # 	collision with: 4 1 0 0 0  and 6 1 0 0 0 
2792222		 # 	collision with: 7 1 1 0 0  and 7 3 1 0 0 
2792224		 # 	collision with: 1 4 0 0 0  and 3 4 0 0 0 
2792226		 # 	collision with: 7 3 4 0 0  and 7 5 4 0 0 
2792228		 # 	collision with: 2 9 0 0 0  and 3 9 0 0 0 
2792230		 # 	collision with: 7 3 9 0 0  and 7 5 9 0 0 
2792232		 # 	collision with: 3 8 0 0 0  and 4 8 0 0 0 
2792234		 # 	collision with: 7 4 8 0 0  and 7 5 8 0 0 
2792236		 # 	collision with: 0 5 0 0 0  and 2 5 0 0 0 
2792238		 # 	collision with: 7 1 5 0 0  and 7 2 5 0 0 
2792266		 # 	collision with: 7 1 1 0 0  and 7 3 1 0 0 
2792279		 # 	collision with: 7 4 2 0 0  and 7 6 2 0 0 
2792288		 # 	collision with: 5 6 0 0 0  and 6 6 0 0 0 
2792290		 # 	collision with: 7 4 6 0 0  and 7 6 6 0 0 
2792317		 # 	collision with: 1 10 0 0 0  and 2 10 0 0 0 
2792319		 # 	collision with: 7 5 2 0 0  and 7 1 4 0 0 
2792356		 # 	collision with: 1 4 0 0 0  and 3 4 0 0 0 
2792358		 # 	collision with: 7 3 4 0 0  and 7 5 4 0 0 
2792361		 # 	collision with: 1 10 0 0 0  and 2 10 0 0 0 
2792363		 # 	collision with: 7 7 2 0 0  and 7 1 4 0 0 
2792373		 # 	collision with: 2 3 0 0 0  and 4 3 0 0 0 
2792375		 # 	collision with: 7 2 3 0 0  and 7 4 3 0 0 
2792380		 # 	collision with: 2 3 0 0 0  and 4 3 0 0 0 
2792382		 # 	collision with: 7 1 3 0 0  and 7 3 3 0 0 
2792425		 # 	collision with: 8 2 0 0 0  and 0 4 0 0 0 
2792427		 # 	collision with: 7 10 2 0 0  and 7 10 4 0 0 
2792448		 # 	collision with: 2 9 0 0 0  and 3 9 0 0 0 
2792450		 # 	collision with: 7 3 9 0 0  and 7 5 9 0 0 
2792472		 # 	collision with: 3 2 0 0 0  and 5 2 0 0 0 
2792474		 # 	collision with: 7 2 2 0 0  and 7 3 2 0 0 
2792497		 # 	collision with: 4 7 0 0 0  and 5 7 0 0 0 
2792499		 # 	collision with: 7 4 2 0 0  and 7 6 2 0 0 
2792505		 # 	collision with: 2 3 0 0 0  and 4 3 0 0 0 
2792507		 # 	collision with: 7 2 3 0 0  and 7 4 3 0 0 
2792540		 # 	collision with: 3 8 0 0 0  and 4 8 0 0 0 
2792542		 # 	collision with: 7 4 8 0 0  and 7 5 8 0 0 
2792561		 # 	collision with: 3 2 0 0 0  and 2 4 0 0 0 
2792563		 # 	collision with: 7 3 2 0 0  and 7 3 4 0 0 
2792564		 # 	collision with: 4 7 0 0 0  and 5 7 0 0 0 
2792566		 # 	collision with: 7 2 7 0 0  and 7 3 7 0 0 
2792605		 # 	collision with: 3 2 0 0 0  and 2 4 0 0 0 
2792607		 # 	collision with: 5 3 2 0 0  and 5 3 4 0 0 
2792632		 # 	collision with: 0 5 0 0 0  and 2 5 0 0 0 
2792645		 # 	collision with: 8 2 0 0 0  and 0 4 0 0 0 
2792647		 # 	collision with: 7 9 2 0 0  and 7 6 4 0 0 
2792656		 # 	collision with: 1 10 0 0 0  and 2 10 0 0 0 
2792658		 # 	collision with: 7 4 10 0 0  and 7 5 10 0 0 
2792680		 # 	collision with: 0 0 8 8 0  and 5 2 0 0 1 
2792682		 # 	collision with: 1 1 0 0 0  and 6 10 0 1 0 
2792684		 # 	collision with: 0 5 0 0 0  and 2 5 0 0 0 
2792686		 # 	collision with: 7 0 5 0 0  and 7 1 5 0 0 
2792688		 # 	collision with: 3 8 0 0 0  and 4 8 0 0 0 
2792690		 # 	collision with: 7 2 8 0 0  and 7 3 8 0 0 
2792692		 # 	collision with: 2 9 0 0 0  and 3 9 0 0 0 
2792694		 # 	collision with: 7 0 9 0 0  and 7 2 9 0 0 
2792696		 # 	collision with: 1 4 0 0 0  and 3 4 0 0 0 
2792698		 # 	collision with: 7 5 4 0 0  and 7 6 4 0 0 
2792700		 # 	collision with: 4 1 0 0 0  and 6 1 0 0 0 
2792702		 # 	collision with: 7 2 1 0 0  and 7 3 1 0 0 
2792704		 # 	collision with: 1 10 0 0 0  and 2 10 0 0 0 
2792706		 # 	collision with: 7 3 10 0 0  and 7 5 10 0 0 
2792708		 # 	collision with: 4 7 0 0 0  and 5 7 0 0 0 
2792712		 # 	collision with: 3 2 0 0 0  and 5 2 0 0 0 
2792714		 # 	collision with: 7 5 2 0 0  and 7 6 2 0 0 
2792716		 # 	collision with: 2 3 0 0 0  and 4 3 0 0 0 
2792718		 # 	collision with: 7 3 3 0 0  and 7 5 3 0 0 
2792720		 # 	collision with: 5 6 0 0 0  and 6 6 0 0 0 
2792722		 # 	collision with: 7 0 6 0 0  and 7 1 6 0 0 
2792748		 # 	collision with: 1 10 0 0 0  and 2 10 0 0 0 
2792750		 # 	collision with: 7 3 10 0 0  and 7 5 10 0 0 
2792761		 # 	collision with: 1 10 0 0 0  and 2 10 0 0 0 
2792763		 # 	collision with: 1 3 2 0 0  and 1 3 3 0 0 
2792772		 # 	collision with: 0 5 0 0 0  and 2 5 0 0 0 
2792801		 # 	collision with: 4 2 0 0 0  and 5 3 0 0 0 
2792803		 # 	collision with: 7 5 2 0 0  and 7 6 2 0 0 
2792840		 # 	collision with: 4 7 0 0 0  and 5 7 0 0 0 
2792842		 # 	collision with: 7 0 7 0 0  and 7 2 7 0 0 
2792845		 # 	collision with: 4 2 0 0 0  and 5 3 0 0 0 
2792847		 # 	collision with: 7 5 2 0 0  and 7 6 2 0 0 
2792857		 # 	collision with: 2 9 0 0 0  and 3 9 0 0 0 
2792859		 # 	collision with: 7 2 9 0 0  and 7 3 9 0 0 
2792864		 # 	collision with: 3 8 0 0 0  and 4 8 0 0 0 
2792866		 # 	collision with: 7 2 8 0 0  and 7 3 8 0 0 
2792909		 # 	collision with: 3 2 0 0 0  and 10 3 0 0 0 
2792911		 # 	collision with: 7 3 2 0 0  and 7 0 3 0 0 
2792932		 # 	collision with: 3 2 0 0 0  and 5 2 0 0 0 
2792934		 # 	collision with: 7 5 2 0 0  and 7 6 2 0 0 
2792956		 # 	collision with: 2 9 0 0 0  and 3 9 0 0 0 
2792958		 # 	collision with: 7 0 9 0 0  and 7 2 9 0 0 
2792981		 # 	collision with: 1 10 0 0 0  and 2 10 0 0 0 
2792983		 # 	collision with: 2 3 2 0 0  and 2 3 3 0 0 
2792989		 # 	collision with: 2 9 0 0 0  and 3 9 0 0 0 
2792991		 # 	collision with: 7 5 2 0 0  and 7 2 3 0 0 
2793024		 # 	collision with: 2 3 0 0 0  and 4 3 0 0 0 
2793026		 # 	collision with: 7 3 3 0 0  and 7 5 3 0 0 
2793045		 # 	collision with: 8 2 0 0 0  and 0 3 0 0 0 
2793047		 # 	collision with: 7 2 2 0 0  and 7 0 3 0 0 
2793048		 # 	collision with: 1 4 0 0 0  and 3 4 0 0 0 
2793050		 # 	collision with: 7 5 4 0 0  and 7 6 4 0 0 
2793089		 # 	collision with: 8 2 0 0 0  and 0 3 0 0 0 
2793091		 # 	collision with: 3 9 2 0 0  and 3 9 3 0 0 
2793116		 # 	collision with: 5 6 0 0 0  and 6 6 0 0 0 
2793118		 # 	collision with: 7 0 6 0 0  and 7 1 6 0 0 
2793131		 # 	collision with: 7 4 2 0 0  and 7 2 3 0 0 
2793142		 # 	collision with: 7 2 1 0 0  and 7 3 1 0 0 
2793164		 # 	collision with: 6 6 10 4 0  and 2 0 0 0 1 
2793166		 # 	collision with: 4 2 0 0 0  and 8 5 0 1 0 
2793168		 # 	collision with: 1 4 0 0 0  and 3 4 0 0 0 
2793170		 # 	collision with: 7 1 4 0 0  and 7 2 4 0 0 
2793172		 # 	collision with: 3 2 0 0 0  and 5 2 0 0 0 
2793174		 # 	collision with: 7 2 2 0 0  and 7 4 2 0 0 
2793176		 # 	collision with: 0 5 0 0 0  and 2 5 0 0 0 
2793178		 # 	collision with: 7 4 5 0 0  and 7 6 5 0 0 
2793180		 # 	collision with: 4 1 0 0 0  and 6 1 0 0 0 
2793182		 # 	collision with: 7 2 1 0 0  and 7 4 1 0 0 
2793184		 # 	collision with: 2 3 0 0 0  and 4 3 0 0 0 
2793186		 # 	collision with: 7 0 3 0 0  and 7 1 3 0 0 
2793188		 # 	collision with: 3 8 0 0 0  and 4 8 0 0 0 
2793190		 # 	collision with: 7 0 8 0 0  and 7 1 8 0 0 
2793192		 # 	collision with: 1 10 0 0 0  and 2 10 0 0 0 
2793194		 # 	collision with: 7 3 10 0 0  and 7 4 10 0 0 
2793196		 # 	collision with: 5 6 0 0 0  and 6 6 0 0 0 
2793198		 # 	collision with: 7 1 6 0 0  and 7 2 6 0 0 
2793200		 # 	collision with: 2 9 0 0 0  and 3 9 0 0 0 
2793202		 # 	collision with: 7 3 9 0 0  and 7 4 9 0 0 
2793204		 # 	collision with: 4 7 0 0 0  and 5 7 0 0 0 
2793232		 # 	collision with: 3 8 0 0 0  and 4 8 0 0 0 
2793234		 # 	collision with: 7 0 8 0 0  and 7 1 8 0 0 
2793245		 # 	collision with: 3 2 0 0 0  and 5 2 0 0 0 
2793247		 # 	collision with: 7 0 1 0 0  and 7 1 3 0 0 
2793256		 # 	collision with: 1 4 0 0 0  and 3 4 0 0 0 
2793258		 # 	collision with: 7 1 4 0 0  and 7 2 4 0 0 
2793285		 # 	collision with: 8 1 0 0 0  and 1 3 0 0 0 
2793287		 # 	collision with: 7 1 0 0 0  and 7 3 0 0 0 
2793324		 # 	collision with: 1 10 0 0 0  and 2 10 0 0 0 
2793326		 # 	collision with: 7 3 10 0 0  and 7 4 10 0 0 
2793329		 # 	collision with: 8 1 0 0 0  and 1 3 0 0 0 
2793331		 # 	collision with: 7 1 0 0 0  and 7 3 0 0 0 
2793341		 # 	collision with: 1 4 0 0 0  and 3 4 0 0 0 
2793343		 # 	collision with: 7 1 4 0 0  and 7 3 4 0 0 
2793348		 # 	collision with: 3 2 0 0 0  and 5 2 0 0 0 
2793350		 # 	collision with: 7 2 2 0 0  and 7 4 2 0 0 
2793393		 # 	collision with: 2 1 0 0 0  and 5 3 0 0 0 
2793395		 # 	collision with: 5 6 1 0 0  and 5 6 3 0 0 
2793416		 # 	collision with: 5 6 0 0 0  and 6 6 0 0 0 
2793418		 # 	collision with: 7 1 6 0 0  and 7 2 6 0 0 
2793440		 # 	collision with: 0 5 0 0 0  and 2 5 0 0 0 
2793465		 # 	collision with: 3 2 0 0 0  and 5 2 0 0 0 
2793467		 # 	collision with: 1 5 1 0 0  and 1 5 3 0 0 
2793473		 # 	collision with: 1 4 0 0 0  and 3 4 0 0 0 
2793508		 # 	collision with: 2 9 0 0 0  and 3 9 0 0 0 
2793510		 # 	collision with: 7 3 9 0 0  and 7 4 9 0 0 
2793531		 # 	collision with: 7 8 1 0 0  and 7 2 3 0 0 
2793534		 # 	collision with: 7 2 1 0 0  and 7 4 1 0 0 
2793573		 # 	collision with: 1 1 0 0 0  and 3 3 0 0 0 
2793575		 # 	collision with: 7 5 1 0 0  and 7 0 3 0 0 
2793600		 # 	collision with: 4 7 0 0 0  and 5 7 0 0 0 
2793602		 # 	collision with: 7 4 7 0 0  and 7 6 7 0 0 
2793613		 # 	collision with: 2 1 0 0 0  and 5 3 0 0 0 
2793624		 # 	collision with: 2 3 0 0 0  and 4 3 0 0 0 
2793626		 # 	collision with: 7 0 3 0 0  and 7 1 3 0 0 
2793648		 # 	collision with: 1 10 1 10 0  and 1 0 0 0 1 
2793650		 # 	collision with: 1 2 0 0 0  and 4 6 0 1 0 
2793652		 # 	collision with: 2 3 0 0 0  and 4 3 0 0 0 
2793654		 # 	collision with: 7 2 3 0 0  and 7 3 3 0 0 
2793656		 # 	collision with: 4 7 0 0 0  and 5 7 0 0 0 
2793660		 # 	collision with: 4 1 0 0 0  and 6 1 0 0 0 
2793662		 # 	collision with: 7 3 1 0 0  and 7 4 1 0 0 
2793664		 # 	collision with: 2 9 0 0 0  and 3 9 0 0 0 
2793666		 # 	collision with: 7 0 9 0 0  and 7 1 9 0 0 
2793668		 # 	collision with: 0 5 0 0 0  and 2 5 0 0 0 
2793670		 # 	collision with: 7 3 5 0 0  and 7 5 5 0 0 
2793672		 # 	collision with: 5 6 0 0 0  and 6 6 0 0 0 
2793674		 # 	collision with: 7 2 6 0 0  and 7 3 6 0 0 
2793676		 # 	collision with: 3 2 0 0 0  and 5 2 0 0 0 
2793678		 # 	collision with: 7 0 2 0 0  and 7 1 2 0 0 
2793680		 # 	collision with: 1 10 0 0 0  and 2 10 0 0 0 
2793682		 # 	collision with: 7 2 10 0 0  and 7 4 10 0 0 
2793684		 # 	collision with: 1 4 0 0 0  and 3 4 0 0 0 
2793686		 # 	collision with: 7 2 4 0 0  and 7 4 4 0 0 
2793688		 # 	collision with: 3 8 0 0 0  and 4 8 0 0 0 
2793690		 # 	collision with: 7 3 8 0 0  and 7 5 8 0 0 
2793716		 # 	collision with: 5 6 0 0 0  and 6 6 0 0 0 
2793718		 # 	collision with: 7 2 6 0 0  and 7 3 6 0 0 
2793729		 # 	collision with: 8 1 0 0 0  and 4 2 0 0 0 
2793731		 # 	collision with: 7 1 0 0 0  and 7 2 0 0 0 
2793740		 # 	collision with: 2 3 0 0 0  and 4 3 0 0 0 
2793742		 # 	collision with: 7 2 3 0 0  and 7 3 3 0 0 
2793769		 # 	collision with: 8 1 0 0 0  and 4 2 0 0 0 
2793771		 # 	collision with: 9 1 1 0 0  and 9 1 2 0 0 
2793808		 # 	collision with: 3 2 0 0 0  and 5 2 0 0 0 
2793810		 # 	collision with: 7 0 2 0 0  and 7 1 2 0 0 
2793813		 # 	collision with: 8 1 0 0 0  and 4 2 0 0 0 
2793815		 # 	collision with: 7 2 1 0 0  and 7 0 2 0 0 
2793825		 # 	collision with: 8 1 0 0 0  and 4 2 0 0 0 
2793827		 # 	collision with: 7 1 10 0 0  and 7 2 10 0 0 
2793832		 # 	collision with: 4 7 0 0 0  and 5 7 0 0 0 
2793834		 # 	collision with: 7 3 7 0 0  and 7 4 7 0 0 
2793877		 # 	collision with: 8 1 0 0 0  and 4 2 0 0 0 
2793879		 # 	collision with: 4 4 1 0 0  and 4 4 2 0 0 
2793900		 # 	collision with: 1 10 0 0 0  and 2 10 0 0 0 
2793902		 # 	collision with: 7 2 10 0 0  and 7 4 10 0 0 
2793926		 # 	collision with: 7 3 1 0 0  and 7 4 1 0 0 
2793951		 # 	collision with: 7 1 0 0 0  and 7 2 0 0 0 
2793957		 # 	collision with: 8 1 0 0 0  and 4 2 0 0 0 
2793959		 # 	collision with: 7 1 10 0 0  and 7 2 10 0 0 
2793992		 # 	collision with: 1 4 0 0 0  and 3 4 0 0 0 
2793994		 # 	collision with: 7 2 4 0 0  and 7 4 4 0 0 
2794013		 # 	collision with: 8 1 0 0 0  and 4 2 0 0 0 
2794015		 # 	collision with: 7 6 1 0 0  and 7 0 2 0 0 
2794016		 # 	collision with: 2 9 0 0 0  and 3 9 0 0 0 
2794018		 # 	collision with: 7 0 9 0 0  and 7 1 9 0 0 
2794057		 # 	collision with: 8 1 0 0 0  and 4 2 0 0 0 
2794059		 # 	collision with: 10 10 1 0 0  and 10 10 2 0 0 
2794084		 # 	collision with: 3 8 0 0 0  and 4 8 0 0 0 
2794086		 # 	collision with: 7 3 8 0 0  and 7 5 8 0 0 
2794097		 # 	collision with: 8 1 0 0 0  and 4 2 0 0 0 
2794099		 # 	collision with: 2 4 1 0 0  and 2 4 2 0 0 
2794108		 # 	collision with: 0 5 0 0 0  and 2 5 0 0 0 
2794132		 # 	collision with: 6 9 9 4 0  and 1 0 0 0 1 
2794134		 # 	collision with: 10 2 0 0 0  and 1 8 0 1 0 
2794136		 # 	collision with: 3 2 0 0 0  and 5 2 0 0 0 
2794138		 # 	collision with: 7 3 2 0 0  and 7 4 2 0 0 
2794140		 # 	collision with: 4 1 0 0 0  and 6 1 0 0 0 
2794142		 # 	collision with: 7 3 1 0 0  and 7 5 1 0 0 
2794144		 # 	collision with: 3 8 0 0 0  and 4 8 0 0 0 
2794146		 # 	collision with: 7 1 8 0 0  and 7 3 8 0 0 
2794148		 # 	collision with: 5 6 0 0 0  and 6 6 0 0 0 
2794150		 # 	collision with: 7 3 6 0 0  and 7 4 6 0 0 
2794152		 # 	collision with: 4 7 0 0 0  and 5 7 0 0 0 
2794156		 # 	collision with: 1 4 0 0 0  and 3 4 0 0 0 
2794158		 # 	collision with: 7 4 4 0 0  and 7 5 4 0 0 
2794160		 # 	collision with: 0 5 0 0 0  and 2 5 0 0 0 
2794162		 # 	collision with: 7 2 5 0 0  and 7 4 5 0 0 
2794164		 # 	collision with: 2 3 0 0 0  and 4 3 0 0 0 
2794166		 # 	collision with: 7 4 3 0 0  and 7 5 3 0 0 
2794168		 # 	collision with: 1 10 0 0 0  and 2 10 0 0 0 
2794170		 # 	collision with: 7 2 10 0 0  and 7 3 10 0 0 
2794172		 # 	collision with: 2 9 0 0 0  and 3 9 0 0 0 
2794174		 # 	collision with: 7 2 9 0 0  and 7 4 9 0 0 
2794200		 # 	collision with: 1 4 0 0 0  and 3 4 0 0 0 
2794202		 # 	collision with: 7 4 4 0 0  and 7 5 4 0 0 
2794213		 # 	collision with: 3 8 0 0 0  and 4 8 0 0 0 
2794215		 # 	collision with: 5 9 0 0 0  and 5 9 2 0 0 
2794224		 # 	collision with: 3 2 0 0 0  and 5 2 0 0 0 
2794226		 # 	collision with: 7 3 2 0 0  and 7 4 2 0 0 
2794253		 # 	collision with: 3 2 0 0 0  and 5 2 0 0 0 
2794255		 # 	collision with: 7 6 0 0 0  and 7 6 2 0 0 
2794292		 # 	collision with: 0 5 0 0 0  and 2 5 0 0 0 
2794297		 # 	collision with: 3 2 0 0 0  and 5 2 0 0 0 
2794299		 # 	collision with: 1 6 0 0 0  and 1 6 2 0 0 
2794311		 # 	collision with: 7 10 0 0 0  and 7 0 2 0 0 
2794318		 # 	collision with: 7 3 1 0 0  and 7 5 1 0 0 
2794361		 # 	collision with: 7 0 0 0 0  and 10 2 0 0 0 
2794363		 # 	collision with: 3 2 0 0 0  and 3 2 2 0 0 
2794384		 # 	collision with: 2 3 0 0 0  and 4 3 0 0 0 
2794386		 # 	collision with: 7 4 3 0 0  and 7 5 3 0 0 
2794408		 # 	collision with: 3 8 0 0 0  and 4 8 0 0 0 
2794410		 # 	collision with: 7 1 8 0 0  and 7 3 8 0 0 
2794433		 # 	collision with: 3 8 0 0 0  and 4 8 0 0 0 
2794441		 # 	collision with: 0 5 0 0 0  and 2 5 0 0 0 
2794443		 # 	collision with: 7 0 5 0 0  and 7 2 5 0 0 
2794476		 # 	collision with: 1 10 0 0 0  and 2 10 0 0 0 
2794478		 # 	collision with: 7 2 10 0 0  and 7 3 10 0 0 
2794497		 # 	collision with: 4 1 0 0 0  and 6 1 0 0 0 
2794500		 # 	collision with: 5 6 0 0 0  and 6 6 0 0 0 
2794502		 # 	collision with: 7 3 6 0 0  and 7 4 6 0 0 
2794541		 # 	collision with: 4 1 0 0 0  and 6 1 0 0 0 
2794543		 # 	collision with: 7 7 0 0 0  and 7 4 2 0 0 
2794568		 # 	collision with: 2 9 0 0 0  and 3 9 0 0 0 
2794570		 # 	collision with: 7 2 9 0 0  and 7 4 9 0 0 
2794581		 # 	collision with: 7 0 0 0 0  and 10 2 0 0 0 
2794583		 # 	collision with: 7 2 0 0 0  and 7 2 2 0 0 
2794592		 # 	collision with: 4 7 0 0 0  and 5 7 0 0 0 
2794594		 # 	collision with: 7 1 7 0 0  and 7 3 7 0 0 
2794616		 # 	collision with: 4 6 8 5 0  and 2 0 0 0 1 
2794618		 # 	collision with: 1 4 0 0 0  and 2 5 0 1 0 
2794620		 # 	collision with: 4 1 0 0 0  and 6 1 0 0 0 
2794622		 # 	collision with: 7 4 1 0 0  and 7 5 1 0 0 
2794624		 # 	collision with: 5 6 0 0 0  and 6 6 0 0 0 
2794626		 # 	collision with: 7 4 6 0 0  and 7 5 6 0 0 
2794628		 # 	collision with: 1 4 0 0 0  and 3 4 0 0 0 
2794630		 # 	collision with: 7 0 4 0 0  and 7 1 4 0 0 
2794632		 # 	collision with: 2 3 0 0 0  and 4 3 0 0 0 
2794634		 # 	collision with: 7 0 3 0 0  and 7 2 3 0 0 
2794636		 # 	collision with: 2 9 0 0 0  and 3 9 0 0 0 
2794638		 # 	collision with: 7 5 9 0 0  and 7 6 9 0 0 
2794640		 # 	collision with: 3 2 0 0 0  and 5 2 0 0 0 
2794642		 # 	collision with: 7 0 2 0 0  and 7 2 2 0 0 
2794644		 # 	collision with: 3 8 0 0 0  and 4 8 0 0 0 
2794646		 # 	collision with: 7 5 8 0 0  and 7 6 8 0 0 
2794648		 # 	collision with: 4 7 0 0 0  and 5 7 0 0 0 
2794652		 # 	collision with: 0 5 0 0 0  and 2 5 0 0 0 
2794654		 # 	collision with: 7 1 5 0 0  and 7 3 5 0 0 
2794656		 # 	collision with: 1 10 0 0 0  and 2 10 0 0 0 
2794658		 # 	collision with: 7 1 10 0 0  and 7 3 10 0 0 
2794684		 # 	collision with: 3 2 0 0 0  and 5 2 0 0 0 
2794686		 # 	collision with: 7 0 2 0 0  and 7 2 2 0 0 
2794697		 # 	collision with: 5 0 0 0 0  and 7 0 0 0 0 
2794699		 # 	collision with: 7 1 0 0 0  and 7 0 1 0 0 
2794710		 # 	collision with: 7 4 1 0 0  and 7 5 1 0 0 
2794739		 # 	collision with: 5 0 0 0 0  and 5 0 1 0 0 
2794776		 # 	collision with: 3 8 0 0 0  and 4 8 0 0 0 
2794778		 # 	collision with: 7 5 8 0 0  and 7 6 8 0 0 
2794781		 # 	collision with: 5 0 0 0 0  and 7 0 0 0 0 
2794783		 # 	collision with: 7 0 0 0 0  and 7 0 1 0 0 
2794793		 # 	collision with: 5 0 0 0 0  and 7 0 0 0 0 
2794795		 # 	collision with: 7 0 0 0 0  and 7 1 0 0 0 
2794800		 # 	collision with: 5 6 0 0 0  and 6 6 0 0 0 
2794802		 # 	collision with: 7 4 6 0 0  and 7 5 6 0 0 
2794845		 # 	collision with: 5 0 0 0 0  and 7 0 0 0 0 
2794847		 # 	collision with: 2 0 0 0 0  and 2 0 1 0 0 
2794868		 # 	collision with: 4 7 0 0 0  and 5 7 0 0 0 
2794870		 # 	collision with: 7 0 7 0 0  and 7 1 7 0 0 
2794892		 # 	collision with: 1 4 0 0 0  and 3 4 0 0 0 
2794894		 # 	collision with: 7 0 4 0 0  and 7 1 4 0 0 
2794917		 # 	collision with: 5 0 0 0 0  and 7 0 0 0 0 
2794919		 # 	collision with: 9 0 0 0 0  and 9 0 1 0 0 
2794925		 # 	collision with: 5 0 0 0 0  and 7 0 0 0 0 
2794927		 # 	collision with: 7 0 0 0 0  and 7 1 0 0 0 
2794960		 # 	collision with: 0 5 0 0 0  and 2 5 0 0 0 
2794981		 # 	collision with: 5 0 0 0 0  and 7 0 0 0 0 
2794983		 # 	collision with: 4 0 0 0 0  and 4 0 1 0 0 
2794984		 # 	collision with: 2 3 0 0 0  and 4 3 0 0 0 
2794986		 # 	collision with: 7 0 3 0 0  and 7 2 3 0 0 
2795025		 # 	collision with: 5 0 0 0 0  and 7 0 0 0 0 
2795052		 # 	collision with: 1 10 0 0 0  and 2 10 0 0 0 
2795054		 # 	collision with: 7 1 10 0 0  and 7 3 10 0 0 
2795065		 # 	collision with: 5 0 0 0 0  and 7 0 0 0 0 
2795067		 # 	collision with: 7 10 0 0 0  and 7 1 1 0 0 
2795076		 # 	collision with: 2 9 0 0 0  and 3 9 0 0 0 
2795078		 # 	collision with: 7 5 9 0 0  and 7 6 9 0 0 
2795106		 # 	collision with: 7 5 0 0 0  and 7 6 0 0 0 
2795110		 # 	collision with: 7 2 0 0 0  and 7 4 0 0 0 
2795114		 # 	collision with: 7 0 0 0 0  and 7 1 0 0 0 
2795118		 # 	collision with: 7 3 0 0 0  and 7 4 0 0 0 
2795122		 # 	collision with: 7 0 0 0 0  and 7 2 0 0 0 
2795126		 # 	collision with: 7 3 0 0 0  and 7 5 0 0 0 
2795130		 # 	collision with: 7 1 0 0 0  and 7 2 0 0 0 
2795134		 # 	collision with: 7 4 0 0 0  and 7 5 0 0 0 
2795138		 # 	collision with: 7 1 0 0 0  and 7 3 0 0 0 
2795142		 # 	collision with: 7 4 0 0 0  and 7 6 0 0 0 
2795153		 # 	collision with: 3 2 0 0 0  and 4 2 0 0 0 
2795155		 # 	collision with: 5 9 5 0 0  and 5 9 6 0 0 
2795184		 # 	collision with: 2 0 0 0 0  and 3 0 0 0 0 
2795186		 # 	collision with: 7 4 0 0 0  and 7 6 0 0 0 
2795209		 # 	collision with: 2 1 0 0 0  and 4 1 0 0 0 
2795211		 # 	collision with: 4 8 5 0 0  and 4 8 6 0 0 
2795224		 # 	collision with: 2 0 0 0 0  and 3 0 0 0 0 
2795226		 # 	collision with: 7 1 0 0 0  and 7 3 0 0 0 
2795264		 # 	collision with: 2 0 0 0 0  and 3 0 0 0 0 
2795266		 # 	collision with: 7 4 0 0 0  and 7 5 0 0 0 
2795269		 # 	collision with: 4 5 0 0 0  and 6 5 0 0 0 
2795271		 # 	collision with: 7 3 4 0 0  and 7 5 4 0 0 
2795297		 # 	collision with: 2 1 0 0 0  and 4 1 0 0 0 
2795299		 # 	collision with: 7 1 5 0 0  and 7 0 6 0 0 
2795304		 # 	collision with: 2 0 0 0 0  and 3 0 0 0 0 
2795306		 # 	collision with: 7 1 0 0 0  and 7 2 0 0 0 
2795321		 # 	collision with: 7 5 0 0 0  and 1 6 0 0 0 
2795323		 # 	collision with: 7 5 6 0 0  and 7 6 6 0 0 
2795344		 # 	collision with: 2 0 0 0 0  and 3 0 0 0 0 
2795346		 # 	collision with: 7 3 0 0 0  and 7 5 0 0 0 
2795365		 # 	collision with: 7 5 0 0 0  and 1 6 0 0 0 
2795367		 # 	collision with: 7 5 6 0 0  and 7 6 6 0 0 
2795384		 # 	collision with: 2 0 0 0 0  and 3 0 0 0 0 
2795386		 # 	collision with: 7 0 0 0 0  and 7 2 0 0 0 
2795424		 # 	collision with: 2 0 0 0 0  and 3 0 0 0 0 
2795426		 # 	collision with: 7 3 0 0 0  and 7 4 0 0 0 
2795433		 # 	collision with: 4 4 0 0 0  and 5 4 0 0 0 
2795435		 # 	collision with: 7 4 2 0 0  and 7 6 2 0 0 
2795461		 # 	collision with: 3 2 0 0 0  and 4 2 0 0 0 
2795463		 # 	collision with: 7 2 5 0 0  and 7 4 6 0 0 
2795464		 # 	collision with: 2 0 0 0 0  and 3 0 0 0 0 
2795466		 # 	collision with: 7 0 0 0 0  and 7 1 0 0 0 
2795504		 # 	collision with: 2 0 0 0 0  and 3 0 0 0 0 
2795506		 # 	collision with: 7 2 0 0 0  and 7 4 0 0 0 
2795521		 # 	collision with: 4 4 0 0 0  and 5 4 0 0 0 
2795523		 # 	collision with: 7 4 2 0 0  and 7 6 2 0 0 
2795544		 # 	collision with: 2 0 0 0 0  and 3 0 0 0 0 
2795546		 # 	collision with: 7 5 0 0 0  and 7 6 0 0 0 
2795577		 # 	collision with: 4 5 0 0 0  and 6 5 0 0 0 
2795579		 # 	collision with: 7 3 4 0 0  and 7 5 4 0 0 
2795584		 # 	collision with: 1 0 10 1 0  and 0 1 0 0 1 
2795586		 # 	collision with: 10 3 1 0 0  and 9 3 0 1 0 
2795588		 # 	collision with: 1 10 0 0 0  and 3 10 0 0 0 
2795590		 # 	collision with: 7 4 10 0 0  and 7 6 10 0 0 
2795592		 # 	collision with: 4 5 0 0 0  and 6 5 0 0 0 
2795594		 # 	collision with: 7 5 5 0 0  and 7 6 5 0 0 
2795596		 # 	collision with: 0 7 0 0 0  and 1 7 0 0 0 
2795600		 # 	collision with: 0 8 0 0 0  and 2 8 0 0 0 
2795602		 # 	collision with: 7 1 8 0 0  and 7 3 8 0 0 
2795604		 # 	collision with: 3 2 0 0 0  and 4 2 0 0 0 
2795606		 # 	collision with: 7 1 2 0 0  and 7 3 2 0 0 
2795608		 # 	collision with: 1 9 0 0 0  and 2 9 0 0 0 
2795610		 # 	collision with: 7 2 9 0 0  and 7 4 9 0 0 
2795612		 # 	collision with: 3 3 0 0 0  and 5 3 0 0 0 
2795614		 # 	collision with: 7 2 3 0 0  and 7 4 3 0 0 
2795616		 # 	collision with: 4 4 0 0 0  and 5 4 0 0 0 
2795618		 # 	collision with: 7 0 4 0 0  and 7 2 4 0 0 
2795620		 # 	collision with: 5 6 0 0 0  and 6 6 0 0 0 
2795622		 # 	collision with: 7 4 6 0 0  and 7 6 6 0 0 
2795624		 # 	collision with: 2 1 0 0 0  and 4 1 0 0 0 
2795626		 # 	collision with: 7 5 1 0 0  and 7 6 1 0 0 
2795637		 # 	collision with: 3 4 0 0 0  and 9 6 0 0 0 
2795639		 # 	collision with: 7 5 5 0 0  and 7 6 5 0 0 
2795668		 # 	collision with: 2 1 0 0 0  and 4 1 0 0 0 
2795670		 # 	collision with: 7 5 1 0 0  and 7 6 1 0 0 
2795693		 # 	collision with: 1 10 0 0 0  and 3 10 0 0 0 
2795695		 # 	collision with: 7 3 5 0 0  and 7 4 5 0 0 
2795708		 # 	collision with: 5 6 0 0 0  and 6 6 0 0 0 
2795710		 # 	collision with: 7 4 6 0 0  and 7 6 6 0 0 
2795748		 # 	collision with: 4 4 0 0 0  and 5 4 0 0 0 
2795750		 # 	collision with: 7 0 4 0 0  and 7 2 4 0 0 
2795753		 # 	collision with: 5 6 0 0 0  and 6 6 0 0 0 
2795755		 # 	collision with: 7 4 5 0 0  and 7 5 5 0 0 
2795781		 # 	collision with: 1 10 0 0 0  and 3 10 0 0 0 
2795783		 # 	collision with: 7 3 5 0 0  and 7 4 5 0 0 
2795788		 # 	collision with: 3 3 0 0 0  and 5 3 0 0 0 
2795790		 # 	collision with: 7 2 3 0 0  and 7 4 3 0 0 
2795805		 # 	collision with: 4 5 0 0 0  and 6 5 0 0 0 
2795807		 # 	collision with: 7 4 5 0 0  and 7 6 5 0 0 
2795828		 # 	collision with: 1 9 0 0 0  and 2 9 0 0 0 
2795849		 # 	collision with: 4 5 0 0 0  and 6 5 0 0 0 
2795868		 # 	collision with: 3 2 0 0 0  and 4 2 0 0 0 
2795870		 # 	collision with: 7 1 2 0 0  and 7 3 2 0 0 
2795908		 # 	collision with: 0 8 0 0 0  and 2 8 0 0 0 
2795910		 # 	collision with: 7 1 8 0 0  and 7 3 8 0 0 
2795917		 # 	collision with: 1 4 0 0 0  and 5 6 0 0 0 
2795919		 # 	collision with: 7 0 5 0 0  and 7 2 5 0 0 
2795945		 # 	collision with: 3 4 0 0 0  and 9 6 0 0 0 
2795947		 # 	collision with: 7 5 5 0 0  and 7 6 5 0 0 
2795948		 # 	collision with: 0 7 0 0 0  and 1 7 0 0 0 
2795950		 # 	collision with: 7 3 7 0 0  and 7 5 7 0 0 
2795990		 # 	collision with: 7 5 5 0 0  and 7 6 5 0 0 
115.147secs	42890
