# prime 11
# degree 2
# input variables 3
# output variables 3
# reload computed balance functions from file balance-1177of3248-p11d2m3-debug.log
# p = 11
# n = 3
# smalldomain p^m 1331
# domain p^n 1331
#	 p^2 = 121
#	 p^3 = 1331
#	 p^4 = 14641
#	 p^5 = 161051
#	 p^6 = 1771561
#	 p^7 = 19487171
#	 p^8 = 214358881
#	 p^9 = 2357947691
opening file : balance-1177of3248-p11d2m3-debug.log
reloading for step2...
7062024		 # 	collision with: 3 2 0  and 0 3 1 
7062026		 # 	collision with: 10 5 0  and 0 6 0 
7062029		 # 	collision with: 2 0 0  and 6 2 0 
7062044		 # 	collision with: 7 6 0  and 2 1 1 
7062046		 # 	collision with: 2 3 0  and 3 5 0 
7062048		 # 	collision with: 1 6 0  and 2 6 0 
7062050		 # 	collision with: 3 0 0  and 9 1 0 
7062052		 # 	collision with: 3 3 0  and 5 3 0 
7062054		 # 	collision with: 2 5 0  and 4 0 1 
7062056		 # 	collision with: 2 2 0  and 4 2 0 
7062058		 # 	collision with: 0 3 0  and 6 4 0 
7062060		 # 	collision with: 2 7 0  and 3 7 0 
7062062		 # 	collision with: 9 5 0  and 4 6 0 
7062064		 # 	collision with: 5 10 0  and 6 10 0 
7062066		 # 	collision with: 1 2 0  and 7 3 0 
7062068		 # 	collision with: 1 1 0  and 3 1 0 
7062072		 # 	collision with: 4 4 0  and 6 4 0 
7062074		 # 	collision with: 10 4 0  and 5 5 0 
7062076		 # 	collision with: 4 9 0  and 5 9 0 
7062078		 # 	collision with: 1 4 0  and 2 6 0 
7062080		 # 	collision with: 3 8 0  and 4 8 0 
7062082		 # 	collision with: 3 2 0  and 4 4 0 
7062084		 # 	collision with: 0 5 0  and 1 5 0 
7062086		 # 	collision with: 2 1 0  and 8 2 0 
7062105		 # 	collision with: 3 0 0  and 4 2 0 
7062107		 # 	collision with: 1 2 0  and 1 3 0 
7062108		 # 	collision with: 1 4 0  and 2 5 0 
7062110		 # 	collision with: 5 10 0  and 6 10 0 
7062149		 # 	collision with: 5 5 0  and 1 6 0 
7062151		 # 	collision with: 7 3 0  and 9 4 0 
7062172		 # 	collision with: 9 4 0  and 10 5 0 
7062174		 # 	collision with: 0 5 0  and 1 5 0 
7062177		 # 	collision with: 4 4 0  and 1 6 0 
7062179		 # 	collision with: 6 3 0  and 9 5 0 
7062192		 # 	collision with: 3 0 0  and 2 2 0 
7062194		 # 	collision with: 1 3 0  and 0 5 0 
7062245		 # 	collision with: 1 4 0  and 10 5 0 
7062256		 # 	collision with: 0 3 0  and 10 4 0 
7062258		 # 	collision with: 4 3 0  and 2 5 0 
7062278		 # 	collision with: 2 2 0  and 4 2 0 
7062287		 # 	collision with: 6 5 0  and 7 6 0 
7062333		 # 	collision with: 0 0 0  and 1 1 1 
7062340		 # 	collision with: 0 1 0  and 6 2 0 
7062342		 # 	collision with: 1 3 0  and 1 5 0 
7062360		 # 	collision with: 0 0 0  and 4 1 0 
7062362		 # 	collision with: 3 3 0  and 5 3 0 
7062373		 # 	collision with: 2 9 0  and 6 0 1 
7062375		 # 	collision with: 0 4 0  and 8 6 0 
7062397		 # 	collision with: 0 0 0  and 6 2 0 
7062399		 # 	collision with: 6 1 0  and 6 0 1 
7062424		 # 	collision with: 4 4 0  and 5 5 0 
7062426		 # 	collision with: 4 4 0  and 6 4 0 
7062444		 # 	collision with: 3 4 0  and 4 5 0 
7062446		 # 	collision with: 1 6 0  and 2 6 0 
7062469		 # 	collision with: 5 5 0  and 5 0 1 
7062471		 # 	collision with: 1 1 0  and 4 0 1 
7062508		 # 	collision with: 0 4 0  and 1 5 0 
7062513		 # 	collision with: 6 2 0  and 0 3 0 
7062515		 # 	collision with: 3 5 0  and 10 6 0 
7062528		 # 	collision with: 7 5 0  and 3 1 1 
7062530		 # 	collision with: 1 3 0  and 0 5 0 
7062532		 # 	collision with: 0 5 0  and 1 5 0 
7062534		 # 	collision with: 3 2 0  and 8 3 0 
7062536		 # 	collision with: 3 8 0  and 4 8 0 
7062538		 # 	collision with: 8 2 0  and 7 4 0 
7062540		 # 	collision with: 4 9 0  and 5 9 0 
7062542		 # 	collision with: 4 1 0  and 3 3 0 
7062544		 # 	collision with: 4 4 0  and 6 4 0 
7062546		 # 	collision with: 4 5 0  and 9 6 0 
7062548		 # 	collision with: 1 1 0  and 3 1 0 
7062552		 # 	collision with: 5 10 0  and 6 10 0 
7062554		 # 	collision with: 3 6 0  and 1 1 1 
7062556		 # 	collision with: 2 7 0  and 3 7 0 
7062558		 # 	collision with: 10 1 0  and 4 2 0 
7062560		 # 	collision with: 2 2 0  and 4 2 0 
7062562		 # 	collision with: 0 0 0  and 10 2 0 
7062564		 # 	collision with: 3 3 0  and 5 3 0 
7062566		 # 	collision with: 0 4 0  and 5 5 0 
7062568		 # 	collision with: 1 6 0  and 2 6 0 
7062570		 # 	collision with: 7 3 0  and 1 4 0 
7062589		 # 	collision with: 0 3 0  and 1 5 0 
7062591		 # 	collision with: 5 0 0  and 0 2 0 
7062592		 # 	collision with: 7 1 0  and 2 3 0 
7062633		 # 	collision with: 6 10 0  and 0 0 1 
7062635		 # 	collision with: 5 0 0  and 0 2 0 
7062656		 # 	collision with: 0 7 0  and 7 0 1 
7062658		 # 	collision with: 3 1 0  and 5 2 0 
7062661		 # 	collision with: 8 2 0  and 7 0 1 
7062663		 # 	collision with: 5 0 0  and 0 2 0 
7062676		 # 	collision with: 6 7 0  and 2 0 1 
7062678		 # 	collision with: 9 2 0  and 1 2 1 
7062729		 # 	collision with: 4 0 0  and 1 1 0 
7062731		 # 	collision with: 5 0 0  and 0 2 0 
7062740		 # 	collision with: 9 3 0  and 7 5 0 
7062742		 # 	collision with: 3 0 0  and 6 1 0 
7062760		 # 	collision with: 6 2 0  and 8 3 0 
7062762		 # 	collision with: 1 3 0  and 1 4 0 
7062769		 # 	collision with: 9 0 0  and 3 1 0 
7062819		 # 	collision with: 5 0 0  and 0 2 0 
7062826		 # 	collision with: 0 4 0  and 8 6 0 
7062844		 # 	collision with: 9 5 0  and 10 7 0 
7062846		 # 	collision with: 2 5 0  and 0 6 0 
7062857		 # 	collision with: 6 3 0  and 6 0 1 
7062881		 # 	collision with: 9 3 0  and 6 4 0 
7062883		 # 	collision with: 5 0 0  and 0 2 0 
7062908		 # 	collision with: 3 0 0  and 2 2 0 
7062910		 # 	collision with: 7 6 0  and 2 0 1 
7062928		 # 	collision with: 5 5 0  and 1 6 0 
7062930		 # 	collision with: 2 0 0  and 7 2 0 
7062953		 # 	collision with: 1 4 0  and 10 5 0 
7062955		 # 	collision with: 5 0 0  and 0 2 0 
7062992		 # 	collision with: 2 4 0  and 7 6 0 
7062994		 # 	collision with: 1 5 0  and 2 1 1 
7062997		 # 	collision with: 6 4 0  and 2 6 0 
7062999		 # 	collision with: 5 0 0  and 0 2 0 
7063012		 # 	collision with: 2 2 0  and 2 0 1 
7063014		 # 	collision with: 7 0 0  and 0 1 0 
7063016		 # 	collision with: 4 4 0  and 6 4 0 
7063018		 # 	collision with: 7 0 0  and 0 1 0 
7063020		 # 	collision with: 2 2 0  and 4 2 0 
7063022		 # 	collision with: 7 0 0  and 0 1 0 
7063024		 # 	collision with: 0 5 0  and 1 5 0 
7063026		 # 	collision with: 7 0 0  and 0 1 0 
7063028		 # 	collision with: 1 1 0  and 3 1 0 
7063032		 # 	collision with: 3 3 0  and 5 3 0 
7063034		 # 	collision with: 7 0 0  and 0 1 0 
7063036		 # 	collision with: 3 8 0  and 4 8 0 
7063038		 # 	collision with: 7 0 0  and 0 1 0 
7063040		 # 	collision with: 5 10 0  and 6 10 0 
7063042		 # 	collision with: 7 0 0  and 0 1 0 
7063044		 # 	collision with: 1 6 0  and 2 6 0 
7063046		 # 	collision with: 7 0 0  and 0 1 0 
7063048		 # 	collision with: 4 9 0  and 5 9 0 
7063050		 # 	collision with: 7 0 0  and 0 1 0 
7063052		 # 	collision with: 2 7 0  and 3 7 0 
7063054		 # 	collision with: 7 0 0  and 0 1 0 
7063073		 # 	collision with: 0 1 0  and 6 2 0 
7063076		 # 	collision with: 1 7 0  and 4 0 1 
7063078		 # 	collision with: 7 0 0  and 0 1 0 
7063117		 # 	collision with: 7 4 0  and 4 5 0 
7063140		 # 	collision with: 3 0 0  and 2 2 0 
7063142		 # 	collision with: 7 0 0  and 0 1 0 
7063145		 # 	collision with: 8 4 0  and 9 5 0 
7063147		 # 	collision with: 2 3 0  and 9 5 0 
7063160		 # 	collision with: 10 3 0  and 6 4 0 
7063213		 # 	collision with: 2 0 0  and 6 2 0 
7063215		 # 	collision with: 5 6 0  and 3 0 1 
7063224		 # 	collision with: 6 4 0  and 5 5 0 
7063226		 # 	collision with: 7 0 0  and 0 1 0 
7063244		 # 	collision with: 10 3 0  and 5 5 0 
7063246		 # 	collision with: 7 0 0  and 0 1 0 
7063253		 # 	collision with: 5 4 0  and 6 5 0 
7063255		 # 	collision with: 3 2 0  and 0 1 1 
7063301		 # 	collision with: 8 3 0  and 10 4 0 
7063303		 # 	collision with: 9 4 0  and 1 6 0 
7063308		 # 	collision with: 3 8 0  and 3 0 1 
7063310		 # 	collision with: 7 0 0  and 0 1 0 
7063330		 # 	collision with: 7 0 0  and 0 1 0 
7063343		 # 	collision with: 0 1 0  and 3 3 0 
7063365		 # 	collision with: 6 9 0  and 1 0 1 
7063367		 # 	collision with: 3 7 0  and 10 0 1 
7063392		 # 	collision with: 2 7 0  and 9 0 1 
7063394		 # 	collision with: 7 0 0  and 0 1 0 
7063412		 # 	collision with: 2 1 0  and 2 0 1 
7063414		 # 	collision with: 7 0 0  and 0 1 0 
7063437		 # 	collision with: 0 0 0  and 4 1 0 
7063439		 # 	collision with: 5 3 0  and 5 0 1 
7063476		 # 	collision with: 3 10 0  and 9 0 1 
7063478		 # 	collision with: 7 0 0  and 0 1 0 
7063481		 # 	collision with: 5 3 0  and 1 0 1 
7063483		 # 	collision with: 5 7 0  and 1 2 1 
7063496		 # 	collision with: 8 7 0  and 4 0 1 
7063498		 # 	collision with: 9 4 0  and 1 5 0 
7063500		 # 	collision with: 3 3 0  and 5 3 0 
7063502		 # 	collision with: 10 9 0  and 1 0 1 
7063504		 # 	collision with: 2 7 0  and 3 7 0 
7063506		 # 	collision with: 8 2 0  and 3 4 0 
7063508		 # 	collision with: 1 1 0  and 3 1 0 
7063512		 # 	collision with: 4 9 0  and 5 9 0 
7063514		 # 	collision with: 2 3 0  and 5 4 0 
7063516		 # 	collision with: 0 5 0  and 1 5 0 
7063518		 # 	collision with: 10 1 0  and 2 2 0 
7063520		 # 	collision with: 1 6 0  and 2 6 0 
7063522		 # 	collision with: 6 2 0  and 9 3 0 
7063524		 # 	collision with: 2 2 0  and 4 2 0 
7063526		 # 	collision with: 0 4 0  and 6 6 0 
7063528		 # 	collision with: 5 10 0  and 6 10 0 
7063530		 # 	collision with: 3 0 0  and 6 1 0 
7063532		 # 	collision with: 4 4 0  and 6 4 0 
7063534		 # 	collision with: 4 3 0  and 10 5 0 
7063536		 # 	collision with: 3 8 0  and 4 8 0 
7063538		 # 	collision with: 5 5 0  and 8 6 0 
7063557		 # 	collision with: 8 4 0  and 3 5 0 
7063559		 # 	collision with: 3 1 0  and 1 3 0 
7063560		 # 	collision with: 6 2 0  and 10 4 0 
7063562		 # 	collision with: 9 3 0  and 9 0 1 
7063601		 # 	collision with: 0 0 0  and 6 2 0 
7063603		 # 	collision with: 3 1 0  and 1 3 0 
7063624		 # 	collision with: 4 1 0  and 0 2 0 
7063626		 # 	collision with: 5 2 0  and 1 4 0 
7063629		 # 	collision with: 10 0 0  and 4 2 0 
7063631		 # 	collision with: 3 1 0  and 1 3 0 
7063644		 # 	collision with: 9 0 0  and 1 1 0 
7063646		 # 	collision with: 1 2 0  and 1 3 0 
7063697		 # 	collision with: 7 8 0  and 8 1 1 
7063699		 # 	collision with: 3 1 0  and 1 3 0 
7063708		 # 	collision with: 4 1 0  and 0 3 0 
7063710		 # 	collision with: 7 5 0  and 6 6 0 
7063728		 # 	collision with: 7 3 0  and 9 1 1 
7063737		 # 	collision with: 8 3 0  and 0 5 0 
7063739		 # 	collision with: 3 1 0  and 1 3 0 
7063785		 # 	collision with: 0 0 0  and 4 1 0 
7063787		 # 	collision with: 3 1 0  and 1 3 0 
7063792		 # 	collision with: 7 4 0  and 3 0 1 
7063794		 # 	collision with: 1 1 0  and 5 2 0 
7063812		 # 	collision with: 3 0 0  and 2 2 0 
7063814		 # 	collision with: 7 0 0  and 4 1 0 
7063825		 # 	collision with: 1 5 0  and 3 6 0 
7063827		 # 	collision with: 3 1 0  and 1 3 0 
7063851		 # 	collision with: 3 1 0  and 1 3 0 
7063878		 # 	collision with: 9 6 0  and 2 0 1 
7063896		 # 	collision with: 7 7 0  and 3 0 1 
7063898		 # 	collision with: 3 1 0  and 7 0 1 
7063921		 # 	collision with: 5 1 0  and 6 0 1 
7063923		 # 	collision with: 3 1 0  and 1 3 0 
7063960		 # 	collision with: 0 3 0  and 1 5 0 
7063962		 # 	collision with: 8 7 0  and 0 1 1 
7063965		 # 	collision with: 1 8 0  and 6 0 1 
7063967		 # 	collision with: 3 1 0  and 1 3 0 
7063980		 # 	collision with: 1 6 0  and 6 0 1 
7063982		 # 	collision with: 9 4 0  and 2 6 0 
7063984		 # 	collision with: 2 2 0  and 4 2 0 
7063986		 # 	collision with: 5 2 0  and 9 4 0 
7063988		 # 	collision with: 1 1 0  and 3 1 0 
7063992		 # 	collision with: 3 8 0  and 4 8 0 
7063994		 # 	collision with: 2 6 0  and 4 7 0 
7063996		 # 	collision with: 1 6 0  and 2 6 0 
7063998		 # 	collision with: 3 1 0  and 7 3 0 
7064000		 # 	collision with: 2 7 0  and 3 7 0 
7064002		 # 	collision with: 0 5 0  and 2 6 0 
7064004		 # 	collision with: 4 4 0  and 6 4 0 
7064006		 # 	collision with: 3 1 0  and 5 2 0 
7064008		 # 	collision with: 0 5 0  and 1 5 0 
7064010		 # 	collision with: 0 5 0  and 4 7 0 
7064012		 # 	collision with: 3 3 0  and 5 3 0 
7064014		 # 	collision with: 0 0 0  and 1 1 1 
7064016		 # 	collision with: 5 10 0  and 6 10 0 
7064018		 # 	collision with: 9 4 0  and 0 5 0 
7064020		 # 	collision with: 4 9 0  and 5 9 0 
7064022		 # 	collision with: 7 3 0  and 9 4 0 
7064041		 # 	collision with: 0 0 0  and 2 0 0 
7064043		 # 	collision with: 9 4 0  and 1 6 0 
7064044		 # 	collision with: 3 0 0  and 2 2 0 
7064046		 # 	collision with: 0 3 0  and 5 0 1 
7064085		 # 	collision with: 0 0 0  and 2 0 0 
7064087		 # 	collision with: 0 5 0  and 1 6 0 
7064108		 # 	collision with: 7 8 0  and 6 1 1 
7064110		 # 	collision with: 1 1 0  and 1 3 0 
7064113		 # 	collision with: 0 0 0  and 2 0 0 
7064115		 # 	collision with: 10 1 0  and 4 2 0 
7064128		 # 	collision with: 6 6 0  and 6 1 1 
7064130		 # 	collision with: 4 10 0  and 4 0 1 
7064181		 # 	collision with: 0 0 0  and 2 0 0 
7064183		 # 	collision with: 1 6 0  and 4 0 1 
7064192		 # 	collision with: 1 5 0  and 0 6 0 
7064194		 # 	collision with: 10 0 0  and 9 1 0 
7064212		 # 	collision with: 2 1 0  and 10 2 0 
7064214		 # 	collision with: 0 0 0  and 1 1 1 
7064221		 # 	collision with: 0 0 0  and 2 0 0 
7064223		 # 	collision with: 3 4 0  and 0 0 1 
7064269		 # 	collision with: 0 0 0  and 2 0 0 
7064271		 # 	collision with: 8 2 0  and 0 0 1 
7064276		 # 	collision with: 2 0 0  and 4 1 0 
7064278		 # 	collision with: 6 2 0  and 10 3 0 
7064296		 # 	collision with: 7 3 0  and 7 0 1 
7064309		 # 	collision with: 0 0 0  and 2 0 0 
7064311		 # 	collision with: 4 2 0  and 2 0 1 
7064333		 # 	collision with: 0 0 0  and 2 0 0 
7064335		 # 	collision with: 1 1 0  and 5 2 0 
7064360		 # 	collision with: 1 2 0  and 2 4 0 
7064362		 # 	collision with: 5 4 0  and 3 5 0 
7064382		 # 	collision with: 9 9 0  and 0 0 1 
7064407		 # 	collision with: 5 10 0  and 7 4 1 
7064444		 # 	collision with: 0 4 0  and 3 6 0 
7064446		 # 	collision with: 2 1 0  and 9 2 0 
7064449		 # 	collision with: 0 0 0  and 2 0 0 
7064451		 # 	collision with: 3 8 0  and 8 0 1 
7064464		 # 	collision with: 1 6 0  and 0 0 1 
7064466		 # 	collision with: 8 6 0  and 1 3 1 
7064468		 # 	collision with: 1 1 0  and 3 1 0 
7064472		 # 	collision with: 1 6 0  and 2 6 0 
7064474		 # 	collision with: 6 5 0  and 7 6 0 
7064476		 # 	collision with: 4 4 0  and 6 4 0 
7064478		 # 	collision with: 2 5 0  and 3 6 0 
7064480		 # 	collision with: 3 3 0  and 5 3 0 
7064482		 # 	collision with: 0 5 0  and 1 6 0 
7064484		 # 	collision with: 4 9 0  and 5 9 0 
7064486		 # 	collision with: 1 5 0  and 2 6 0 
7064488		 # 	collision with: 2 2 0  and 4 2 0 
7064490		 # 	collision with: 9 5 0  and 10 6 0 
7064492		 # 	collision with: 3 8 0  and 4 8 0 
7064494		 # 	collision with: 10 5 0  and 0 6 0 
7064496		 # 	collision with: 2 7 0  and 3 7 0 
7064498		 # 	collision with: 8 5 0  and 9 6 0 
7064500		 # 	collision with: 0 5 0  and 1 5 0 
7064502		 # 	collision with: 4 5 0  and 5 6 0 
7064504		 # 	collision with: 5 10 0  and 6 10 0 
7064506		 # 	collision with: 3 5 0  and 4 6 0 
7064525		 # 	collision with: 10 4 0  and 0 6 0 
7064527		 # 	collision with: 6 1 0  and 3 1 1 
7064528		 # 	collision with: 10 5 0  and 4 0 1 
7064530		 # 	collision with: 1 1 0  and 1 2 0 
7064569		 # 	collision with: 6 2 0  and 10 4 0 
7064571		 # 	collision with: 9 1 0  and 9 0 1 
7064592		 # 	collision with: 7 5 0  and 7 1 1 
7064594		 # 	collision with: 2 1 0  and 0 0 1 
7064597		 # 	collision with: 10 0 0  and 3 2 1 
7064599		 # 	collision with: 0 5 0  and 4 7 0 
7064612		 # 	collision with: 3 7 0  and 2 1 1 
7064614		 # 	collision with: 7 1 0  and 7 0 1 
7064665		 # 	collision with: 10 2 0  and 9 1 1 
7064667		 # 	collision with: 10 9 0  and 6 1 1 
7064676		 # 	collision with: 4 0 0  and 3 1 0 
7064678		 # 	collision with: 8 0 0  and 6 2 0 
7064696		 # 	collision with: 2 1 0  and 3 3 0 
7064698		 # 	collision with: 2 2 0  and 7 1 1 
7064705		 # 	collision with: 7 6 0  and 7 0 1 
7064707		 # 	collision with: 2 0 0  and 7 2 0 
7064753		 # 	collision with: 7 1 0  and 2 3 0 
7064755		 # 	collision with: 6 0 0  and 4 1 0 
7064760		 # 	collision with: 3 0 0  and 2 2 0 
7064762		 # 	collision with: 0 3 0  and 4 4 0 
7064780		 # 	collision with: 4 4 0  and 7 5 0 
7064782		 # 	collision with: 9 4 0  and 1 6 0 
7064793		 # 	collision with: 4 3 0  and 2 4 0 
7064795		 # 	collision with: 3 3 0  and 5 3 0 
7064817		 # 	collision with: 5 10 0  and 10 0 1 
7064819		 # 	collision with: 10 0 0  and 6 1 0 
7064844		 # 	collision with: 7 6 0  and 5 0 1 
7064846		 # 	collision with: 9 10 0  and 6 1 1 
7064864		 # 	collision with: 8 3 0  and 10 4 0 
7064889		 # 	collision with: 0 2 0  and 8 3 0 
7064891		 # 	collision with: 0 3 0  and 4 4 0 
7064930		 # 	collision with: 1 3 0  and 0 5 0 
7064935		 # 	collision with: 1 4 0  and 2 6 0 
7064954		 # 	collision with: 1 5 0  and 1 6 0 
7064958		 # 	collision with: 1 1 0  and 1 2 0 
7064962		 # 	collision with: 1 2 0  and 1 4 0 
7064966		 # 	collision with: 1 4 0  and 1 5 0 
7064970		 # 	collision with: 1 5 0  and 1 7 0 
7064974		 # 	collision with: 1 1 0  and 1 3 0 
7064978		 # 	collision with: 1 3 0  and 1 4 0 
7064982		 # 	collision with: 1 4 0  and 1 6 0 
7064986		 # 	collision with: 1 6 0  and 1 7 0 
7064990		 # 	collision with: 1 2 0  and 1 3 0 
7065005		 # 	collision with: 8 1 0  and 8 0 1 
7065007		 # 	collision with: 9 4 0  and 2 6 0 
7065008		 # 	collision with: 3 0 0  and 5 0 0 
7065010		 # 	collision with: 10 2 0  and 2 3 0 
7065045		 # 	collision with: 8 1 0  and 6 2 0 
7065047		 # 	collision with: 6 1 0  and 3 3 0 
7065068		 # 	collision with: 3 0 0  and 5 0 0 
7065070		 # 	collision with: 8 1 0  and 5 3 0 
7065084		 # 	collision with: 3 0 0  and 5 0 0 
7065086		 # 	collision with: 5 1 0  and 2 3 0 
7065113		 # 	collision with: 1 8 0  and 6 0 1 
7065115		 # 	collision with: 5 10 0  and 3 1 1 
7065133		 # 	collision with: 7 0 0  and 5 2 0 
7065135		 # 	collision with: 3 0 0  and 6 2 0 
7065144		 # 	collision with: 3 0 0  and 5 0 0 
7065146		 # 	collision with: 9 1 0  and 6 3 0 
7065169		 # 	collision with: 2 4 0  and 8 6 0 
7065171		 # 	collision with: 8 0 0  and 1 3 1 
7065204		 # 	collision with: 3 0 0  and 5 0 0 
7065206		 # 	collision with: 7 1 0  and 4 3 0 
7065213		 # 	collision with: 8 4 0  and 6 6 0 
7065215		 # 	collision with: 2 0 0  and 8 1 0 
7065220		 # 	collision with: 3 0 0  and 5 0 0 
7065222		 # 	collision with: 2 1 0  and 10 3 0 
7065280		 # 	collision with: 3 0 0  and 5 0 0 
7065282		 # 	collision with: 5 1 0  and 10 2 0 
7065293		 # 	collision with: 0 0 0  and 1 1 1 
7065295		 # 	collision with: 8 4 0  and 1 0 1 
7065313		 # 	collision with: 4 7 0  and 8 0 1 
7065315		 # 	collision with: 3 2 0  and 8 3 0 
7065340		 # 	collision with: 3 0 0  and 5 0 0 
7065342		 # 	collision with: 4 1 0  and 1 3 0 
7065356		 # 	collision with: 3 0 0  and 5 0 0 
7065358		 # 	collision with: 1 1 0  and 9 3 0 
7065381		 # 	collision with: 1 4 0  and 5 5 0 
7065383		 # 	collision with: 5 0 0  and 7 2 0 
7065416		 # 	collision with: 3 0 0  and 5 0 0 
7065418		 # 	collision with: 0 0 0  and 7 1 0 
7065421		 # 	collision with: 1 4 0  and 5 0 1 
7065423		 # 	collision with: 0 1 0  and 3 2 0 
7065432		 # 	collision with: 10 10 0  and 7 0 1 
7065434		 # 	collision with: 3 2 0  and 2 3 0 
7065436		 # 	collision with: 5 10 0  and 6 10 0 
7065438		 # 	collision with: 3 2 0  and 2 3 0 
7065440		 # 	collision with: 1 5 0  and 3 5 0 
7065442		 # 	collision with: 3 2 0  and 2 3 0 
7065444		 # 	collision with: 4 7 0  and 5 7 0 
7065446		 # 	collision with: 3 2 0  and 2 3 0 
7065448		 # 	collision with: 2 8 0  and 4 8 0 
7065450		 # 	collision with: 8 0 0  and 7 1 0 
7065452		 # 	collision with: 0 2 0  and 2 2 0 
7065454		 # 	collision with: 3 2 0  and 2 3 0 
7065456		 # 	collision with: 1 9 0  and 2 9 0 
7065458		 # 	collision with: 3 2 0  and 2 3 0 
7065460		 # 	collision with: 4 3 0  and 6 3 0 
7065462		 # 	collision with: 3 2 0  and 2 3 0 
7065464		 # 	collision with: 3 4 0  and 4 4 0 
7065466		 # 	collision with: 3 2 0  and 2 3 0 
7065468		 # 	collision with: 0 6 0  and 1 6 0 
7065470		 # 	collision with: 3 2 0  and 2 3 0 
7065472		 # 	collision with: 2 1 0  and 3 1 0 
7065491		 # 	collision with: 1 1 0  and 9 3 0 
7065494		 # 	collision with: 5 1 0  and 3 2 0 
7065529		 # 	collision with: 0 0 0  and 1 1 1 
7065531		 # 	collision with: 4 7 0  and 1 0 1 
7065552		 # 	collision with: 2 6 0  and 4 7 0 
7065554		 # 	collision with: 3 2 0  and 2 3 0 
7065568		 # 	collision with: 10 1 0  and 8 3 0 
7065570		 # 	collision with: 3 2 0  and 2 3 0 
7065597		 # 	collision with: 1 1 0  and 1 0 1 
7065599		 # 	collision with: 4 7 0  and 5 7 0 
7065617		 # 	collision with: 10 1 0  and 8 3 0 
7065628		 # 	collision with: 2 4 0  and 4 6 0 
7065630		 # 	collision with: 3 2 0  and 2 3 0 
7065653		 # 	collision with: 10 3 0  and 0 5 0 
7065688		 # 	collision with: 1 4 0  and 4 0 1 
7065690		 # 	collision with: 3 2 0  and 2 3 0 
7065697		 # 	collision with: 7 0 0  and 5 2 0 
7065699		 # 	collision with: 9 4 0  and 8 5 0 
7065704		 # 	collision with: 1 5 0  and 6 6 0 
7065706		 # 	collision with: 7 0 0  and 4 1 0 
7065764		 # 	collision with: 7 4 0  and 4 5 0 
7065766		 # 	collision with: 3 1 0  and 0 3 0 
7065777		 # 	collision with: 3 7 0  and 1 0 1 
7065779		 # 	collision with: 0 8 0  and 5 0 1 
7065797		 # 	collision with: 6 2 0  and 1 3 0 
7065799		 # 	collision with: 2 1 0  and 10 3 0 
7065824		 # 	collision with: 6 2 0  and 9 3 0 
7065826		 # 	collision with: 10 0 0  and 5 2 0 
7065840		 # 	collision with: 5 1 0  and 0 2 0 
7065865		 # 	collision with: 0 5 0  and 1 6 0 
7065867		 # 	collision with: 5 1 0  and 3 2 0 
7065900		 # 	collision with: 3 0 0  and 1 1 0 
7065902		 # 	collision with: 4 1 0  and 1 3 0 
7065905		 # 	collision with: 8 1 0  and 6 2 0 
7065907		 # 	collision with: 5 9 0  and 10 0 1 
7065916		 # 	collision with: 4 10 0  and 8 0 1 
7065918		 # 	collision with: 4 3 0  and 2 4 0 
7065920		 # 	collision with: 1 9 0  and 2 9 0 
7065922		 # 	collision with: 0 0 0  and 9 1 0 
7065924		 # 	collision with: 5 10 0  and 6 10 0 
7065926		 # 	collision with: 7 4 0  and 3 6 0 
7065928		 # 	collision with: 4 3 0  and 6 3 0 
7065930		 # 	collision with: 9 4 0  and 7 5 0 
7065932		 # 	collision with: 1 5 0  and 3 5 0 
7065934		 # 	collision with: 3 1 0  and 10 3 0 
7065936		 # 	collision with: 3 4 0  and 4 4 0 
7065938		 # 	collision with: 2 3 0  and 9 5 0 
7065940		 # 	collision with: 4 7 0  and 5 7 0 
7065942		 # 	collision with: 5 1 0  and 3 2 0 
7065944		 # 	collision with: 0 6 0  and 1 6 0 
7065946		 # 	collision with: 9 0 0  and 5 2 0 
7065948		 # 	collision with: 2 8 0  and 4 8 0 
7065950		 # 	collision with: 3 5 0  and 1 6 0 
7065952		 # 	collision with: 2 1 0  and 3 1 0 
7065956		 # 	collision with: 0 2 0  and 2 2 0 
7065958		 # 	collision with: 8 5 0  and 8 1 1 
7065973		 # 	collision with: 7 2 0  and 6 0 1 
7065975		 # 	collision with: 3 1 0  and 4 2 0 
7065976		 # 	collision with: 10 1 0  and 2 3 0 
7065978		 # 	collision with: 7 0 0  and 1 2 0 
7066015		 # 	collision with: 2 1 0  and 9 2 0 
7066038		 # 	collision with: 7 1 0  and 4 3 0 
7066052		 # 	collision with: 9 5 0  and 8 6 0 
7066054		 # 	collision with: 8 0 0  and 7 1 0 
7066081		 # 	collision with: 4 2 0  and 8 4 0 
7066083		 # 	collision with: 8 5 0  and 2 6 0 
7066101		 # 	collision with: 2 2 0  and 0 4 0 
7066103		 # 	collision with: 5 2 0  and 3 4 0 
7066112		 # 	collision with: 8 4 0  and 3 5 0 
7066114		 # 	collision with: 3 1 0  and 0 3 0 
7066137		 # 	collision with: 10 10 0  and 2 0 1 
7066139		 # 	collision with: 5 1 0  and 8 3 0 
7066172		 # 	collision with: 3 0 0  and 4 1 0 
7066174		 # 	collision with: 0 1 0  and 8 3 0 
7066181		 # 	collision with: 0 2 0  and 10 3 0 
7066183		 # 	collision with: 8 0 0  and 7 1 0 
7066188		 # 	collision with: 2 2 0  and 0 3 0 
7066190		 # 	collision with: 9 1 0  and 6 3 0 
7066248		 # 	collision with: 6 1 0  and 6 0 1 
7066261		 # 	collision with: 3 8 0  and 0 0 1 
7066263		 # 	collision with: 1 6 0  and 1 7 0 
7066281		 # 	collision with: 2 6 0  and 4 7 0 
7066283		 # 	collision with: 3 3 0  and 7 1 1 
7066308		 # 	collision with: 9 1 0  and 3 2 0 
7066310		 # 	collision with: 1 1 0  and 9 3 0 
7066324		 # 	collision with: 6 0 0  and 1 2 0 
7066326		 # 	collision with: 3 1 0  and 9 2 0 
7066349		 # 	collision with: 7 3 0  and 5 4 0 
7066351		 # 	collision with: 6 0 0  and 8 1 0 
7066384		 # 	collision with: 8 3 0  and 2 0 1 
7066386		 # 	collision with: 9 2 0  and 0 3 0 
7066389		 # 	collision with: 0 4 0  and 4 0 1 
7066391		 # 	collision with: 4 3 0  and 2 4 0 
7066400		 # 	collision with: 6 2 0  and 0 0 1 
7066402		 # 	collision with: 4 1 0  and 1 2 0 
7066404		 # 	collision with: 2 8 0  and 4 8 0 
7066406		 # 	collision with: 6 4 0  and 3 5 0 
7066408		 # 	collision with: 3 4 0  and 4 4 0 
7066410		 # 	collision with: 9 3 0  and 6 4 0 
7066412		 # 	collision with: 5 10 0  and 6 10 0 
7066414		 # 	collision with: 3 5 0  and 0 6 0 
7066416		 # 	collision with: 0 2 0  and 2 2 0 
7066418		 # 	collision with: 9 3 0  and 3 5 0 
7066420		 # 	collision with: 0 6 0  and 1 6 0 
7066422		 # 	collision with: 6 4 0  and 0 6 0 
7066424		 # 	collision with: 1 5 0  and 3 5 0 
7066426		 # 	collision with: 10 9 0  and 0 1 1 
7066428		 # 	collision with: 1 9 0  and 2 9 0 
7066430		 # 	collision with: 7 0 0  and 1 2 0 
7066432		 # 	collision with: 2 1 0  and 3 1 0 
7066436		 # 	collision with: 4 7 0  and 5 7 0 
7066438		 # 	collision with: 7 0 0  and 4 1 0 
7066440		 # 	collision with: 4 3 0  and 6 3 0 
7066442		 # 	collision with: 1 2 0  and 9 3 0 
7066457		 # 	collision with: 3 0 0  and 5 0 0 
7066459		 # 	collision with: 5 10 0  and 6 10 0 
7066460		 # 	collision with: 4 5 0  and 1 6 0 
7066462		 # 	collision with: 5 0 0  and 7 2 0 
7066497		 # 	collision with: 3 0 0  and 5 0 0 
7066499		 # 	collision with: 4 3 0  and 2 4 0 
7066520		 # 	collision with: 8 1 0  and 9 3 0 
7066522		 # 	collision with: 1 1 0  and 9 3 0 
7066538		 # 	collision with: 7 0 0  and 1 1 0 
7066567		 # 	collision with: 9 4 0  and 10 6 0 
7066585		 # 	collision with: 3 0 0  and 5 0 0 
7066587		 # 	collision with: 10 2 0  and 8 3 0 
7066596		 # 	collision with: 1 4 0  and 10 5 0 
7066598		 # 	collision with: 0 1 0  and 8 3 0 
7066621		 # 	collision with: 3 0 0  and 5 0 0 
7066623		 # 	collision with: 6 5 0  and 2 1 1 
7066656		 # 	collision with: 4 0 0  and 6 1 0 
7066665		 # 	collision with: 3 0 0  and 5 0 0 
7066667		 # 	collision with: 2 1 0  and 0 3 0 
7066672		 # 	collision with: 0 3 0  and 4 1 1 
7066674		 # 	collision with: 7 1 0  and 4 3 0 
7066732		 # 	collision with: 2 4 0  and 8 6 0 
7066734		 # 	collision with: 9 1 0  and 6 3 0 
7066745		 # 	collision with: 3 0 0  and 5 0 0 
7066747		 # 	collision with: 4 1 0  and 1 2 0 
7066765		 # 	collision with: 3 0 0  and 5 0 0 
7066792		 # 	collision with: 5 6 0  and 1 0 1 
7066794		 # 	collision with: 1 2 0  and 1 3 0 
7066808		 # 	collision with: 9 2 0  and 8 4 0 
7066810		 # 	collision with: 8 1 0  and 5 3 0 
7066833		 # 	collision with: 3 0 0  and 5 0 0 
7066835		 # 	collision with: 7 0 0  and 1 2 0 
7066868		 # 	collision with: 9 5 0  and 3 0 1 
7066870		 # 	collision with: 6 1 0  and 3 3 0 
7066873		 # 	collision with: 3 0 0  and 5 0 0 
7066875		 # 	collision with: 3 6 0  and 0 0 1 
7066884		 # 	collision with: 5 2 0  and 2 1 1 
7066886		 # 	collision with: 5 1 0  and 8 3 0 
7066888		 # 	collision with: 4 7 0  and 5 7 0 
7066890		 # 	collision with: 6 3 0  and 2 4 0 
7066892		 # 	collision with: 1 9 0  and 2 9 0 
7066894		 # 	collision with: 8 4 0  and 4 5 0 
7066896		 # 	collision with: 0 6 0  and 1 6 0 
7066898		 # 	collision with: 0 0 0  and 7 1 0 
7066900		 # 	collision with: 5 10 0  and 6 10 0 
7066902		 # 	collision with: 7 2 0  and 10 4 0 
7066904		 # 	collision with: 2 8 0  and 4 8 0 
7066906		 # 	collision with: 4 2 0  and 0 3 0 
7066908		 # 	collision with: 4 3 0  and 6 3 0 
7066910		 # 	collision with: 3 0 0  and 6 2 0 
7066912		 # 	collision with: 2 1 0  and 3 1 0 
7066916		 # 	collision with: 1 5 0  and 3 5 0 
7066918		 # 	collision with: 2 1 0  and 9 2 0 
7066920		 # 	collision with: 0 2 0  and 2 2 0 
7066922		 # 	collision with: 10 5 0  and 6 6 0 
7066924		 # 	collision with: 3 4 0  and 4 4 0 
7066926		 # 	collision with: 0 4 0  and 3 6 0 
7066941		 # 	collision with: 0 1 0  and 2 2 0 
7066943		 # 	collision with: 1 2 0  and 1 4 0 
7066944		 # 	collision with: 4 2 0  and 5 3 0 
7066946		 # 	collision with: 10 1 0  and 3 3 0 
7066981		 # 	collision with: 7 0 0  and 8 2 0 
7066983		 # 	collision with: 4 1 0  and 1 2 0 
7067004		 # 	collision with: 0 7 0  and 6 3 1 
7067006		 # 	collision with: 0 1 0  and 2 3 0 
7067020		 # 	collision with: 8 1 0  and 7 2 0 
7067049		 # 	collision with: 2 1 0  and 6 0 1 
7067051		 # 	collision with: 8 0 0  and 9 1 0 
7067071		 # 	collision with: 1 1 0  and 1 2 0 
7067082		 # 	collision with: 8 1 0  and 5 3 0 
7067105		 # 	collision with: 2 2 0  and 0 3 0 
7067107		 # 	collision with: 9 4 0  and 2 6 0 
7067140		 # 	collision with: 0 6 0  and 9 7 0 
7067142		 # 	collision with: 0 2 0  and 2 2 0 
7067149		 # 	collision with: 9 5 0  and 8 6 0 
7067151		 # 	collision with: 6 3 0  and 5 4 0 
7067156		 # 	collision with: 0 4 0  and 1 6 0 
7067158		 # 	collision with: 5 1 0  and 2 3 0 
7067216		 # 	collision with: 4 2 0  and 8 4 0 
7067218		 # 	collision with: 1 1 0  and 1 3 0 
7067229		 # 	collision with: 5 1 0  and 2 2 0 
7067231		 # 	collision with: 5 3 0  and 0 4 0 
7067249		 # 	collision with: 10 4 0  and 3 5 0 
7067251		 # 	collision with: 0 0 0  and 1 1 1 
7067276		 # 	collision with: 8 0 0  and 5 1 0 
7067278		 # 	collision with: 9 1 0  and 6 3 0 
7067292		 # 	collision with: 4 5 0  and 0 6 0 
7067294		 # 	collision with: 3 1 0  and 0 3 0 
7067317		 # 	collision with: 10 3 0  and 4 5 0 
7067319		 # 	collision with: 8 4 0  and 4 5 0 
7067352		 # 	collision with: 1 2 0  and 0 0 1 
7067354		 # 	collision with: 2 1 0  and 3 1 0 
7067357		 # 	collision with: 10 4 0  and 3 0 1 
7067359		 # 	collision with: 9 3 0  and 6 4 0 
7067368		 # 	collision with: 5 7 0  and 4 0 1 
7067370		 # 	collision with: 9 4 0  and 10 6 0 
7067372		 # 	collision with: 0 6 0  and 1 6 0 
7067374		 # 	collision with: 2 0 0  and 8 1 0 
7067376		 # 	collision with: 4 3 0  and 6 3 0 
7067378		 # 	collision with: 5 0 0  and 6 2 0 
7067380		 # 	collision with: 0 2 0  and 2 2 0 
7067382		 # 	collision with: 5 3 0  and 0 4 0 
7067384		 # 	collision with: 4 7 0  and 5 7 0 
7067386		 # 	collision with: 3 1 0  and 9 2 0 
7067388		 # 	collision with: 5 10 0  and 6 10 0 
7067390		 # 	collision with: 8 3 0  and 9 5 0 
7067392		 # 	collision with: 2 1 0  and 3 1 0 
7067396		 # 	collision with: 3 4 0  and 4 4 0 
7067398		 # 	collision with: 7 5 0  and 2 6 0 
7067400		 # 	collision with: 1 9 0  and 2 9 0 
7067402		 # 	collision with: 7 2 0  and 8 4 0 
7067404		 # 	collision with: 2 8 0  and 4 8 0 
7067406		 # 	collision with: 7 2 0  and 2 0 1 
7067408		 # 	collision with: 1 5 0  and 3 5 0 
7067410		 # 	collision with: 6 1 0  and 7 3 0 
7067425		 # 	collision with: 8 0 0  and 5 1 0 
7067427		 # 	collision with: 6 4 0  and 0 6 0 
7067428		 # 	collision with: 2 10 0  and 6 1 1 
7067465		 # 	collision with: 7 3 0  and 6 5 0 
7067488		 # 	collision with: 5 1 0  and 0 3 0 
7067490		 # 	collision with: 0 1 0  and 8 3 0 
7067504		 # 	collision with: 8 0 0  and 2 2 0 
7067506		 # 	collision with: 7 1 0  and 4 3 0 
7067533		 # 	collision with: 3 8 0  and 6 0 1 
7067535		 # 	collision with: 2 9 0  and 0 0 1 
7067553		 # 	collision with: 5 0 0  and 4 1 0 
7067555		 # 	collision with: 8 0 0  and 7 1 0 
7067564		 # 	collision with: 6 5 0  and 8 6 0 
7067566		 # 	collision with: 5 1 0  and 2 3 0 
7067591		 # 	collision with: 1 2 0  and 9 3 0 
7067626		 # 	collision with: 6 1 0  and 3 3 0 
7067633		 # 	collision with: 8 1 0  and 7 2 0 
7067635		 # 	collision with: 0 4 0  and 9 6 0 
7067640		 # 	collision with: 0 8 0  and 10 0 1 
7067642		 # 	collision with: 1 1 0  and 1 2 0 
7067700		 # 	collision with: 2 4 0  and 9 5 0 
7067702		 # 	collision with: 4 1 0  and 1 3 0 
7067713		 # 	collision with: 5 10 0  and 1 0 1 
7067715		 # 	collision with: 3 1 0  and 4 2 0 
7067733		 # 	collision with: 5 1 0  and 0 3 0 
7067735		 # 	collision with: 6 4 0  and 1 5 0 
7067760		 # 	collision with: 9 3 0  and 6 0 1 
7067762		 # 	collision with: 2 1 0  and 10 3 0 
7067776		 # 	collision with: 5 6 0  and 3 0 1 
7067778		 # 	collision with: 3 0 0  and 6 2 0 
7067801		 # 	collision with: 8 2 0  and 2 0 1 
7067803		 # 	collision with: 0 1 0  and 8 3 0 
7067836		 # 	collision with: 0 0 0  and 5 1 0 
7067838		 # 	collision with: 8 1 0  and 5 3 0 
7067841		 # 	collision with: 3 1 0  and 3 0 1 
7067852		 # 	collision with: 2 8 0  and 2 0 1 
7067854		 # 	collision with: 1 4 0  and 0 6 0 
7067856		 # 	collision with: 1 5 0  and 3 5 0 
7067858		 # 	collision with: 1 3 0  and 6 4 0 
7067860		 # 	collision with: 2 8 0  and 4 8 0 
7067862		 # 	collision with: 5 2 0  and 4 4 0 
7067864		 # 	collision with: 1 9 0  and 2 9 0 
7067866		 # 	collision with: 8 5 0  and 2 6 0 
7067868		 # 	collision with: 3 4 0  and 4 4 0 
7067870		 # 	collision with: 5 1 0  and 10 2 0 
7067872		 # 	collision with: 2 1 0  and 3 1 0 
7067876		 # 	collision with: 5 10 0  and 6 10 0 
7067878		 # 	collision with: 3 3 0  and 2 5 0 
7067880		 # 	collision with: 4 7 0  and 5 7 0 
7067882		 # 	collision with: 9 0 0  and 8 2 0 
7067884		 # 	collision with: 0 2 0  and 2 2 0 
7067886		 # 	collision with: 7 0 0  and 1 1 0 
7067888		 # 	collision with: 4 3 0  and 6 3 0 
7067890		 # 	collision with: 10 4 0  and 4 5 0 
7067892		 # 	collision with: 0 6 0  and 1 6 0 
7067894		 # 	collision with: 5 2 0  and 2 0 1 
7067909		 # 	collision with: 7 3 0  and 2 4 0 
7067912		 # 	collision with: 2 1 1  and 4 1 1 
7067914		 # 	collision with: 0 1 0  and 8 3 0 
7067949		 # 	collision with: 9 6 0  and 0 1 1 
7067951		 # 	collision with: 1 1 0  and 1 2 0 
7067972		 # 	collision with: 2 1 0  and 7 0 1 
7067974		 # 	collision with: 0 0 0  and 9 1 0 
7067988		 # 	collision with: 2 2 0  and 0 4 0 
7067990		 # 	collision with: 3 1 0  and 0 3 0 
7.60342secs	4774
