# prime 11
# degree 2
# input variables 3
# output variables 3
# reload computed balance functions from file balance-2912of3248-p11d2m3-debug.log
# p = 11
# n = 3
# smalldomain p^m 1331
# domain p^n 1331
#	 p^2 = 121
#	 p^3 = 1331
#	 p^4 = 14641
#	 p^5 = 161051
#	 p^6 = 1771561
#	 p^7 = 19487171
#	 p^8 = 214358881
#	 p^9 = 2357947691
opening file : balance-2912of3248-p11d2m3-debug.log
reloading for step2...
64064015		 # 	collision with: 10 2 0  and 0 3 0 
64064023		 # 	collision with: 1 3 0  and 3 0 1 
64064079		 # 	collision with: 10 4 0  and 0 5 0 
64064083		 # 	collision with: 5 2 0  and 4 4 0 
64064176		 # 	collision with: 5 4 0  and 3 5 0 
64064178		 # 	collision with: 3 2 0  and 4 4 0 
64064185		 # 	collision with: 5 0 0  and 9 1 0 
64064213		 # 	collision with: 3 5 0  and 1 1 1 
64064215		 # 	collision with: 6 1 0  and 3 2 0 
64064317		 # 	collision with: 2 1 0  and 2 3 0 
64064319		 # 	collision with: 6 1 0  and 3 2 0 
64064321		 # 	collision with: 6 3 0  and 3 4 0 
64064323		 # 	collision with: 6 1 0  and 3 2 0 
64064377		 # 	collision with: 10 6 0  and 9 1 1 
64064379		 # 	collision with: 6 1 0  and 3 2 0 
64064385		 # 	collision with: 3 2 0  and 6 3 0 
64064387		 # 	collision with: 6 1 0  and 3 2 0 
64064421		 # 	collision with: 8 0 0  and 2 1 0 
64064423		 # 	collision with: 6 1 0  and 3 2 0 
64064461		 # 	collision with: 0 2 0  and 8 3 0 
64064463		 # 	collision with: 6 1 0  and 3 2 0 
64064497		 # 	collision with: 5 2 0  and 0 1 1 
64064499		 # 	collision with: 6 1 0  and 3 2 0 
64064505		 # 	collision with: 5 3 0  and 10 4 0 
64064507		 # 	collision with: 6 1 0  and 3 2 0 
64064561		 # 	collision with: 3 10 0  and 4 10 0 
64064563		 # 	collision with: 6 1 0  and 3 2 0 
64064565		 # 	collision with: 2 0 0  and 5 2 0 
64064660		 # 	collision with: 9 3 0  and 7 4 0 
64064662		 # 	collision with: 9 1 0  and 5 2 0 
64064669		 # 	collision with: 10 0 0  and 7 2 0 
64064671		 # 	collision with: 5 2 0  and 4 4 0 
64064697		 # 	collision with: 1 7 0  and 7 0 1 
64064699		 # 	collision with: 7 3 0  and 1 4 0 
64064801		 # 	collision with: 4 3 0  and 4 5 0 
64064803		 # 	collision with: 10 1 0  and 0 2 0 
64064805		 # 	collision with: 5 1 0  and 2 2 0 
64064807		 # 	collision with: 1 4 0  and 6 6 0 
64064861		 # 	collision with: 6 3 0  and 10 0 1 
64064863		 # 	collision with: 5 5 0  and 1 0 1 
64064869		 # 	collision with: 5 1 0  and 6 2 0 
64064871		 # 	collision with: 8 4 0  and 8 0 1 
64064905		 # 	collision with: 5 0 0  and 4 2 0 
64064907		 # 	collision with: 1 3 0  and 10 1 1 
64064945		 # 	collision with: 0 4 0  and 5 6 0 
64064947		 # 	collision with: 6 3 0  and 0 5 0 
64064981		 # 	collision with: 7 5 0  and 7 0 1 
64064983		 # 	collision with: 5 8 0  and 5 0 1 
64064989		 # 	collision with: 7 1 0  and 1 2 0 
64064991		 # 	collision with: 1 1 0  and 3 1 0 
64065045		 # 	collision with: 1 9 0  and 2 9 0 
64065047		 # 	collision with: 0 5 0  and 7 0 1 
64065049		 # 	collision with: 5 1 0  and 0 3 0 
64065051		 # 	collision with: 5 8 0  and 10 0 1 
64065144		 # 	collision with: 2 2 0  and 0 3 0 
64065146		 # 	collision with: 1 1 0  and 1 0 1 
64065153		 # 	collision with: 8 1 0  and 1 2 0 
64065155		 # 	collision with: 7 2 0  and 3 0 1 
64065181		 # 	collision with: 6 5 0  and 1 0 1 
64065183		 # 	collision with: 6 1 0  and 7 3 0 
64065285		 # 	collision with: 6 0 0  and 6 1 0 
64065287		 # 	collision with: 1 7 0  and 7 0 1 
64065289		 # 	collision with: 10 0 0  and 7 2 0 
64065291		 # 	collision with: 5 2 0  and 1 4 0 
64065345		 # 	collision with: 7 3 0  and 2 2 1 
64065347		 # 	collision with: 0 3 0  and 1 3 0 
64065353		 # 	collision with: 5 1 0  and 0 3 0 
64065355		 # 	collision with: 3 4 0  and 10 5 0 
64065389		 # 	collision with: 7 1 0  and 1 2 0 
64065391		 # 	collision with: 6 5 0  and 9 1 1 
64065429		 # 	collision with: 4 1 0  and 9 3 0 
64065431		 # 	collision with: 10 0 0  and 4 2 0 
64065465		 # 	collision with: 1 3 0  and 3 0 1 
64065467		 # 	collision with: 9 2 0  and 1 3 0 
64065473		 # 	collision with: 1 4 0  and 0 6 0 
64065475		 # 	collision with: 9 1 0  and 5 2 0 
64065529		 # 	collision with: 4 8 0  and 6 8 0 
64065531		 # 	collision with: 9 4 0  and 7 5 0 
64065533		 # 	collision with: 9 2 0  and 1 4 0 
64065535		 # 	collision with: 5 1 0  and 0 2 0 
64065628		 # 	collision with: 6 1 0  and 4 2 0 
64065630		 # 	collision with: 3 4 0  and 2 0 1 
64065637		 # 	collision with: 2 1 0  and 10 3 0 
64065639		 # 	collision with: 4 8 0  and 7 0 1 
64065665		 # 	collision with: 1 9 0  and 9 0 1 
64065667		 # 	collision with: 4 9 0  and 2 0 1 
64065769		 # 	collision with: 8 2 0  and 8 3 0 
64065771		 # 	collision with: 7 4 0  and 2 5 0 
64065773		 # 	collision with: 10 2 0  and 4 4 0 
64065775		 # 	collision with: 10 0 0  and 4 2 0 
64065829		 # 	collision with: 9 5 0  and 9 1 1 
64065837		 # 	collision with: 10 2 0  and 1 4 0 
64065839		 # 	collision with: 0 4 0  and 8 0 1 
64065873		 # 	collision with: 4 1 0  and 3 3 0 
64065875		 # 	collision with: 9 1 0  and 5 3 0 
64065913		 # 	collision with: 1 4 0  and 9 5 0 
64065949		 # 	collision with: 2 9 0  and 3 0 1 
64065951		 # 	collision with: 1 1 0  and 3 1 0 
64065957		 # 	collision with: 3 2 0  and 2 4 0 
64065959		 # 	collision with: 6 8 0  and 2 1 1 
64066013		 # 	collision with: 2 7 0  and 4 7 0 
64066015		 # 	collision with: 4 1 0  and 4 0 1 
64066017		 # 	collision with: 2 3 0  and 8 5 0 
64066019		 # 	collision with: 1 6 0  and 2 2 1 
64066112		 # 	collision with: 10 0 0  and 8 1 0 
64066114		 # 	collision with: 9 1 0  and 3 2 0 
64066121		 # 	collision with: 0 2 0  and 4 3 0 
64066123		 # 	collision with: 7 0 0  and 2 2 0 
64066149		 # 	collision with: 9 4 0  and 7 0 1 
64066151		 # 	collision with: 5 2 0  and 1 4 0 
64066253		 # 	collision with: 10 4 0  and 10 5 0 
64066255		 # 	collision with: 2 3 0  and 0 4 0 
64066257		 # 	collision with: 9 0 0  and 3 2 0 
64066313		 # 	collision with: 6 1 0  and 1 2 1 
64066315		 # 	collision with: 1 2 0  and 8 0 1 
64066321		 # 	collision with: 10 0 0  and 1 2 0 
64066357		 # 	collision with: 6 2 0  and 0 3 0 
64066359		 # 	collision with: 6 2 0  and 0 3 1 
64066397		 # 	collision with: 5 1 0  and 2 2 0 
64066399		 # 	collision with: 0 0 0  and 8 1 0 
64066433		 # 	collision with: 6 7 0  and 4 1 1 
64066435		 # 	collision with: 6 2 0  and 0 0 1 
64066441		 # 	collision with: 5 0 0  and 4 2 0 
64066443		 # 	collision with: 8 0 0  and 3 1 0 
64066497		 # 	collision with: 0 6 0  and 2 6 0 
64066499		 # 	collision with: 10 3 0  and 5 4 0 
64066501		 # 	collision with: 0 3 0  and 1 3 0 
64066503		 # 	collision with: 4 3 0  and 6 5 0 
64066596		 # 	collision with: 4 4 0  and 0 6 0 
64066598		 # 	collision with: 2 3 0  and 5 4 0 
64066605		 # 	collision with: 8 2 0  and 8 3 0 
64066607		 # 	collision with: 9 4 0  and 7 5 0 
64066633		 # 	collision with: 5 2 0  and 0 0 1 
64066635		 # 	collision with: 8 2 0  and 5 4 0 
64066737		 # 	collision with: 1 6 0  and 1 7 0 
64066739		 # 	collision with: 9 2 0  and 0 3 0 
64066741		 # 	collision with: 2 1 0  and 10 3 0 
64066743		 # 	collision with: 8 0 0  and 3 1 0 
64066797		 # 	collision with: 5 0 1  and 5 1 1 
64066799		 # 	collision with: 9 1 0  and 5 2 0 
64066805		 # 	collision with: 5 4 0  and 6 5 0 
64066807		 # 	collision with: 3 4 0  and 5 0 1 
64066841		 # 	collision with: 3 2 0  and 2 4 0 
64066843		 # 	collision with: 7 0 0  and 2 2 0 
64066881		 # 	collision with: 5 3 0  and 10 5 0 
64066883		 # 	collision with: 9 0 0  and 10 2 0 
64066917		 # 	collision with: 0 8 0  and 3 2 1 
64066925		 # 	collision with: 4 4 0  and 9 5 0 
64066927		 # 	collision with: 7 2 0  and 6 0 1 
64066981		 # 	collision with: 4 5 0  and 5 5 0 
64066985		 # 	collision with: 6 0 0  and 9 1 0 
64066987		 # 	collision with: 0 4 0  and 5 0 1 
64067080		 # 	collision with: 8 3 0  and 4 5 0 
64067082		 # 	collision with: 6 5 0  and 1 0 1 
64067089		 # 	collision with: 2 1 0  and 2 3 0 
64067091		 # 	collision with: 0 2 0  and 3 0 1 
64067117		 # 	collision with: 5 9 0  and 6 0 1 
64067119		 # 	collision with: 7 5 0  and 0 2 1 
64067221		 # 	collision with: 3 2 0  and 3 4 0 
64067223		 # 	collision with: 7 3 0  and 1 0 1 
64067225		 # 	collision with: 5 0 0  and 9 1 0 
64067227		 # 	collision with: 0 0 0  and 8 1 0 
64067281		 # 	collision with: 4 6 0  and 0 0 1 
64067283		 # 	collision with: 7 4 0  and 7 5 0 
64067289		 # 	collision with: 5 2 0  and 6 3 0 
64067291		 # 	collision with: 9 1 0  and 5 3 0 
64067325		 # 	collision with: 5 3 0  and 10 4 0 
64067365		 # 	collision with: 9 0 0  and 3 2 0 
64067367		 # 	collision with: 8 5 0  and 5 6 0 
64067401		 # 	collision with: 2 2 0  and 4 0 1 
64067403		 # 	collision with: 7 3 0  and 1 1 1 
64067409		 # 	collision with: 6 2 0  and 0 3 0 
64067465		 # 	collision with: 2 4 0  and 3 4 0 
64067467		 # 	collision with: 6 1 0  and 6 0 1 
64067469		 # 	collision with: 10 1 0  and 2 2 0 
64067471		 # 	collision with: 7 1 0  and 8 3 1 
64067564		 # 	collision with: 1 2 0  and 8 4 0 
64067566		 # 	collision with: 3 2 0  and 5 3 0 
64067573		 # 	collision with: 7 1 0  and 7 2 0 
64067575		 # 	collision with: 3 0 0  and 5 1 1 
64067601		 # 	collision with: 7 10 0  and 9 0 1 
64067603		 # 	collision with: 4 1 0  and 4 2 0 
64067705		 # 	collision with: 5 4 0  and 5 6 0 
64067707		 # 	collision with: 7 3 0  and 3 1 1 
64067709		 # 	collision with: 10 0 0  and 7 1 0 
64067711		 # 	collision with: 6 3 0  and 6 4 0 
64067765		 # 	collision with: 10 5 0  and 2 0 1 
64067767		 # 	collision with: 6 5 0  and 4 0 1 
64067773		 # 	collision with: 5 0 0  and 6 1 0 
64067775		 # 	collision with: 0 3 0  and 1 3 0 
64067809		 # 	collision with: 2 3 0  and 1 5 0 
64067811		 # 	collision with: 2 2 0  and 2 0 1 
64067849		 # 	collision with: 6 3 0  and 3 4 0 
64067851		 # 	collision with: 1 2 0  and 9 3 0 
64067885		 # 	collision with: 10 5 0  and 3 2 1 
64067887		 # 	collision with: 4 3 0  and 3 5 0 
64067893		 # 	collision with: 8 0 0  and 2 1 0 
64067895		 # 	collision with: 6 4 0  and 9 5 0 
64067949		 # 	collision with: 0 3 0  and 1 3 0 
64067951		 # 	collision with: 3 2 0  and 5 3 0 
64067953		 # 	collision with: 8 2 0  and 4 3 0 
64067955		 # 	collision with: 4 2 0  and 6 3 0 
64068048		 # 	collision with: 5 1 0  and 1 3 0 
64068050		 # 	collision with: 8 1 0  and 8 0 1 
64068057		 # 	collision with: 6 4 0  and 10 5 0 
64068059		 # 	collision with: 7 5 0  and 5 7 0 
64068085		 # 	collision with: 7 5 0  and 4 0 1 
64068087		 # 	collision with: 4 4 0  and 6 6 0 
64068189		 # 	collision with: 7 1 0  and 7 2 0 
64068191		 # 	collision with: 9 2 0  and 1 3 0 
64068193		 # 	collision with: 5 2 0  and 2 4 0 
64068195		 # 	collision with: 5 1 0  and 10 3 0 
64068249		 # 	collision with: 5 1 0  and 5 0 1 
64068251		 # 	collision with: 10 3 0  and 5 4 0 
64068257		 # 	collision with: 6 0 0  and 9 1 0 
64068259		 # 	collision with: 7 5 0  and 5 7 0 
64068293		 # 	collision with: 4 4 0  and 9 5 0 
64068295		 # 	collision with: 9 2 0  and 0 3 0 
64068333		 # 	collision with: 10 0 0  and 7 1 0 
64068335		 # 	collision with: 1 4 0  and 6 6 0 
64068369		 # 	collision with: 6 5 0  and 2 0 1 
64068371		 # 	collision with: 5 1 0  and 0 2 0 
64068377		 # 	collision with: 2 3 0  and 1 5 0 
64068379		 # 	collision with: 2 0 0  and 10 2 0 
64068433		 # 	collision with: 3 2 0  and 5 2 0 
64068435		 # 	collision with: 6 4 0  and 9 5 0 
64068437		 # 	collision with: 1 1 0  and 3 1 0 
64068439		 # 	collision with: 4 1 0  and 4 2 0 
64068532		 # 	collision with: 9 0 0  and 5 2 0 
64068534		 # 	collision with: 7 5 0  and 5 7 0 
64068541		 # 	collision with: 6 0 0  and 6 1 0 
64068543		 # 	collision with: 2 10 0  and 5 0 1 
64068569		 # 	collision with: 0 9 0  and 7 0 1 
64068673		 # 	collision with: 9 3 0  and 9 4 0 
64068677		 # 	collision with: 8 1 0  and 1 2 0 
64068679		 # 	collision with: 1 2 0  and 3 3 0 
64068733		 # 	collision with: 0 3 0  and 7 0 1 
64068735		 # 	collision with: 0 2 0  and 2 3 0 
64068741		 # 	collision with: 10 1 0  and 1 3 0 
64068743		 # 	collision with: 6 4 0  and 0 5 0 
64068777		 # 	collision with: 1 4 0  and 0 6 0 
64068779		 # 	collision with: 4 3 0  and 6 5 0 
64068817		 # 	collision with: 10 2 0  and 4 4 0 
64068819		 # 	collision with: 10 1 0  and 0 2 0 
64068853		 # 	collision with: 0 0 0  and 1 1 1 
64068855		 # 	collision with: 0 4 0  and 5 1 1 
64068861		 # 	collision with: 4 1 0  and 3 3 0 
64068863		 # 	collision with: 3 10 0  and 8 0 1 
64068917		 # 	collision with: 1 1 0  and 3 1 0 
64068919		 # 	collision with: 6 3 0  and 9 5 0 
64068921		 # 	collision with: 4 4 0  and 0 5 0 
64068923		 # 	collision with: 2 0 0  and 10 2 0 
64069074		 # 	collision with: 2 0 0  and 4 0 0 
64069087		 # 	collision with: 6 0 0  and 9 1 0 
64069095		 # 	collision with: 8 1 0  and 10 2 0 
64069130		 # 	collision with: 2 0 0  and 4 0 0 
64069135		 # 	collision with: 8 4 0  and 4 5 0 
64069147		 # 	collision with: 9 0 0  and 5 2 0 
64069186		 # 	collision with: 2 0 0  and 4 0 0 
64069198		 # 	collision with: 2 0 0  and 4 0 0 
64069247		 # 	collision with: 1 3 0  and 8 4 0 
64069254		 # 	collision with: 2 0 0  and 4 0 0 
64069310		 # 	collision with: 2 0 0  and 4 0 0 
64069319		 # 	collision with: 7 0 0  and 5 2 0 
64069366		 # 	collision with: 2 0 0  and 4 0 0 
64069378		 # 	collision with: 2 0 0  and 4 0 0 
64069419		 # 	collision with: 7 0 0  and 4 1 1 
64069431		 # 	collision with: 10 1 0  and 5 3 0 
64069434		 # 	collision with: 2 0 0  and 4 0 0 
64069471		 # 	collision with: 7 9 0  and 8 1 1 
64069479		 # 	collision with: 3 1 0  and 2 2 0 
64069490		 # 	collision with: 2 0 0  and 4 0 0 
64069500		 # 	collision with: 9 8 0  and 0 0 1 
64069502		 # 	collision with: 4 5 0  and 6 2 1 
64069544		 # 	collision with: 10 1 0  and 10 2 0 
64069546		 # 	collision with: 10 4 0  and 10 5 0 
64069556		 # 	collision with: 4 1 0  and 7 2 0 
64069558		 # 	collision with: 5 2 0  and 4 1 1 
64069569		 # 	collision with: 7 4 0  and 5 5 0 
64069571		 # 	collision with: 8 4 0  and 0 6 0 
64069577		 # 	collision with: 6 1 0  and 6 0 1 
64069579		 # 	collision with: 6 4 0  and 3 0 1 
64069588		 # 	collision with: 5 3 0  and 5 4 0 
64069590		 # 	collision with: 5 0 0  and 5 2 0 
64069612		 # 	collision with: 5 0 0  and 7 1 0 
64069614		 # 	collision with: 1 9 0  and 2 1 1 
64069617		 # 	collision with: 9 1 0  and 4 2 0 
64069619		 # 	collision with: 5 1 0  and 0 0 1 
64069629		 # 	collision with: 8 1 0  and 8 0 1 
64069631		 # 	collision with: 4 5 0  and 0 6 0 
64069632		 # 	collision with: 7 0 0  and 7 1 0 
64069634		 # 	collision with: 7 3 0  and 7 4 0 
64069668		 # 	collision with: 4 0 0  and 7 1 0 
64069670		 # 	collision with: 8 1 0  and 10 2 0 
64069676		 # 	collision with: 8 4 0  and 8 5 0 
64069678		 # 	collision with: 8 1 0  and 8 3 0 
64069680		 # 	collision with: 4 4 0  and 7 5 0 
64069682		 # 	collision with: 2 0 1  and 0 2 1 
64069720		 # 	collision with: 2 2 0  and 2 3 0 
64069722		 # 	collision with: 2 5 0  and 2 6 0 
64069729		 # 	collision with: 8 3 0  and 10 2 1 
64069731		 # 	collision with: 1 2 0  and 1 0 1 
64069736		 # 	collision with: 4 2 0  and 7 3 0 
64069738		 # 	collision with: 10 4 0  and 10 1 1 
64069764		 # 	collision with: 9 2 0  and 9 4 0 
64069766		 # 	collision with: 9 0 0  and 9 1 0 
64069792		 # 	collision with: 8 2 0  and 3 4 0 
64069794		 # 	collision with: 0 1 0  and 9 3 0 
64069801		 # 	collision with: 4 0 0  and 7 1 0 
64069803		 # 	collision with: 7 2 0  and 6 3 0 
64069808		 # 	collision with: 3 0 0  and 3 2 0 
64069810		 # 	collision with: 3 3 0  and 3 5 0 
64069848		 # 	collision with: 8 0 0  and 3 2 0 
64069850		 # 	collision with: 10 1 0  and 0 2 0 
64069852		 # 	collision with: 4 4 0  and 4 6 0 
64069854		 # 	collision with: 4 2 0  and 4 3 0 
64069860		 # 	collision with: 3 2 0  and 10 3 0 
64069862		 # 	collision with: 8 3 0  and 5 4 0 
64069896		 # 	collision with: 6 1 0  and 6 3 0 
64069898		 # 	collision with: 6 4 0  and 6 6 0 
64069901		 # 	collision with: 3 1 0  and 1 2 0 
64069903		 # 	collision with: 4 8 0  and 5 0 1 
64069913		 # 	collision with: 10 4 0  and 3 5 0 
64069915		 # 	collision with: 6 1 0  and 0 3 0 
64069916		 # 	collision with: 8 1 0  and 3 3 0 
64069940		 # 	collision with: 1 3 0  and 1 5 0 
64069942		 # 	collision with: 1 1 0  and 1 2 0 
64069953		 # 	collision with: 9 4 0  and 0 6 0 
64069955		 # 	collision with: 7 1 0  and 4 2 0 
64069961		 # 	collision with: 5 2 0  and 4 3 0 
64069972		 # 	collision with: 5 1 0  and 2 2 0 
64069974		 # 	collision with: 8 4 0  and 0 6 0 
64069984		 # 	collision with: 1 2 0  and 2 0 1 
64069986		 # 	collision with: 2 4 0  and 0 1 1 
64070028		 # 	collision with: 9 2 0  and 9 4 0 
64070030		 # 	collision with: 9 0 0  and 9 1 0 
64070040		 # 	collision with: 8 2 0  and 3 4 0 
64070042		 # 	collision with: 7 4 0  and 0 0 1 
64070053		 # 	collision with: 2 3 0  and 0 4 0 
64070055		 # 	collision with: 2 9 0  and 6 1 1 
64070061		 # 	collision with: 2 6 0  and 5 0 1 
64070063		 # 	collision with: 5 2 0  and 1 3 0 
64070072		 # 	collision with: 10 1 0  and 10 2 0 
64070074		 # 	collision with: 10 4 0  and 10 5 0 
64070096		 # 	collision with: 10 0 0  and 3 2 0 
64070098		 # 	collision with: 4 4 0  and 1 6 0 
64070101		 # 	collision with: 7 2 0  and 8 4 0 
64070103		 # 	collision with: 0 4 0  and 5 0 1 
64070113		 # 	collision with: 5 8 0  and 8 0 1 
64070116		 # 	collision with: 3 0 0  and 3 2 0 
64070118		 # 	collision with: 3 3 0  and 3 5 0 
64070152		 # 	collision with: 8 0 0  and 3 2 0 
64070154		 # 	collision with: 6 0 0  and 5 2 0 
64070160		 # 	collision with: 5 3 0  and 5 4 0 
64070162		 # 	collision with: 5 0 0  and 5 2 0 
64070164		 # 	collision with: 4 3 0  and 7 4 0 
64070166		 # 	collision with: 9 1 0  and 1 3 0 
64070204		 # 	collision with: 4 4 0  and 4 6 0 
64070206		 # 	collision with: 4 2 0  and 4 3 0 
64070213		 # 	collision with: 10 9 0  and 5 0 1 
64070215		 # 	collision with: 0 5 0  and 9 0 1 
64070220		 # 	collision with: 8 4 0  and 3 6 0 
64070222		 # 	collision with: 8 10 0  and 2 2 1 
64070248		 # 	collision with: 7 0 0  and 7 1 0 
64070250		 # 	collision with: 7 3 0  and 7 4 0 
64070276		 # 	collision with: 4 0 0  and 7 1 0 
64070278		 # 	collision with: 7 0 0  and 5 2 0 
64070285		 # 	collision with: 8 0 0  and 3 2 0 
64070287		 # 	collision with: 8 3 0  and 6 5 0 
64070292		 # 	collision with: 6 1 0  and 6 3 0 
64070294		 # 	collision with: 6 4 0  and 6 6 0 
64070332		 # 	collision with: 0 1 0  and 5 2 0 
64070336		 # 	collision with: 8 4 0  and 8 5 0 
64070338		 # 	collision with: 8 1 0  and 8 3 0 
64070344		 # 	collision with: 3 0 0  and 7 1 0 
64070346		 # 	collision with: 9 3 0  and 4 0 1 
64070380		 # 	collision with: 1 3 0  and 1 5 0 
64070382		 # 	collision with: 1 1 0  and 1 2 0 
64070385		 # 	collision with: 6 2 0  and 2 4 0 
64070387		 # 	collision with: 5 1 0  and 7 3 0 
64070397		 # 	collision with: 0 3 0  and 4 4 0 
64070399		 # 	collision with: 10 5 0  and 5 6 0 
64070400		 # 	collision with: 8 3 0  and 3 5 0 
64070402		 # 	collision with: 1 2 0  and 2 3 0 
64070424		 # 	collision with: 2 2 0  and 2 3 0 
64070426		 # 	collision with: 2 5 0  and 2 6 0 
64070437		 # 	collision with: 3 4 0  and 4 5 0 
64070439		 # 	collision with: 10 0 0  and 5 2 0 
64070445		 # 	collision with: 10 4 0  and 8 6 0 
64070447		 # 	collision with: 7 0 0  and 5 2 0 
64070456		 # 	collision with: 4 2 0  and 7 3 0 
64070458		 # 	collision with: 5 6 0  and 9 1 1 
64070468		 # 	collision with: 1 2 1  and 5 4 1 
64070470		 # 	collision with: 3 1 0  and 7 0 1 
64070512		 # 	collision with: 8 4 0  and 8 5 0 
64070514		 # 	collision with: 8 1 0  and 8 3 0 
64070524		 # 	collision with: 4 4 0  and 7 5 0 
64070526		 # 	collision with: 0 0 0  and 1 1 1 
64070537		 # 	collision with: 8 2 0  and 6 3 0 
64070539		 # 	collision with: 6 9 0  and 6 0 1 
64070545		 # 	collision with: 5 1 0  and 1 0 1 
64070547		 # 	collision with: 3 1 0  and 4 0 1 
64070556		 # 	collision with: 4 4 0  and 4 6 0 
64070558		 # 	collision with: 4 2 0  and 4 3 0 
64070580		 # 	collision with: 6 1 0  and 8 2 0 
64070582		 # 	collision with: 1 1 0  and 2 3 0 
64070585		 # 	collision with: 0 4 0  and 6 5 0 
64070587		 # 	collision with: 9 3 0  and 0 5 0 
64070597		 # 	collision with: 10 3 0  and 4 0 1 
64070599		 # 	collision with: 8 0 0  and 9 1 0 
64070600		 # 	collision with: 10 1 0  and 10 2 0 
64070602		 # 	collision with: 10 4 0  and 10 5 0 
64070636		 # 	collision with: 4 1 0  and 7 2 0 
64070638		 # 	collision with: 3 1 0  and 10 3 0 
64070644		 # 	collision with: 2 2 0  and 2 3 0 
64070646		 # 	collision with: 2 5 0  and 2 6 0 
64070648		 # 	collision with: 4 2 0  and 7 3 0 
64070650		 # 	collision with: 8 9 0  and 6 0 1 
64070688		 # 	collision with: 6 1 0  and 6 3 0 
64070690		 # 	collision with: 6 4 0  and 6 6 0 
64070697		 # 	collision with: 5 6 0  and 7 1 1 
64070699		 # 	collision with: 10 4 0  and 5 6 0 
64070704		 # 	collision with: 8 1 0  and 3 3 0 
64070732		 # 	collision with: 5 3 0  and 5 4 0 
64070734		 # 	collision with: 5 0 0  and 5 2 0 
64070760		 # 	collision with: 5 2 0  and 4 3 0 
64070762		 # 	collision with: 8 5 0  and 7 6 0 
64070769		 # 	collision with: 4 1 0  and 7 2 0 
64070771		 # 	collision with: 3 2 0  and 7 3 0 
64070776		 # 	collision with: 9 2 0  and 9 4 0 
64070778		 # 	collision with: 9 0 0  and 9 1 0 
64070816		 # 	collision with: 8 2 0  and 3 4 0 
64070818		 # 	collision with: 8 4 0  and 4 5 0 
64070820		 # 	collision with: 1 3 0  and 1 5 0 
64070822		 # 	collision with: 1 1 0  and 1 2 0 
64070828		 # 	collision with: 7 1 0  and 10 3 0 
64070830		 # 	collision with: 10 10 0  and 5 0 1 
64070864		 # 	collision with: 7 0 0  and 7 1 0 
64070866		 # 	collision with: 7 3 0  and 7 4 0 
64070869		 # 	collision with: 7 4 0  and 5 5 0 
64070871		 # 	collision with: 3 4 0  and 4 6 0 
64070881		 # 	collision with: 1 2 0  and 5 3 0 
64070884		 # 	collision with: 4 0 0  and 7 1 0 
64070886		 # 	collision with: 10 0 1  and 4 2 1 
64070908		 # 	collision with: 3 0 0  and 3 2 0 
64070910		 # 	collision with: 3 3 0  and 3 5 0 
64070921		 # 	collision with: 7 3 0  and 9 5 0 
64070923		 # 	collision with: 2 6 0  and 4 7 0 
64070929		 # 	collision with: 9 1 0  and 7 3 0 
64070931		 # 	collision with: 0 3 0  and 10 4 0 
64070940		 # 	collision with: 8 0 0  and 3 2 0 
64070942		 # 	collision with: 3 2 0  and 7 3 0 
64070952		 # 	collision with: 0 7 0  and 2 1 1 
64070954		 # 	collision with: 1 1 0  and 4 0 1 
64070996		 # 	collision with: 7 0 0  and 7 1 0 
64070998		 # 	collision with: 7 3 0  and 7 4 0 
64071008		 # 	collision with: 4 0 0  and 7 1 0 
64071010		 # 	collision with: 2 2 0  and 10 3 0 
64071021		 # 	collision with: 3 1 0  and 1 2 0 
64071023		 # 	collision with: 0 5 0  and 4 6 0 
64071029		 # 	collision with: 10 7 0  and 3 1 1 
64071031		 # 	collision with: 10 1 0  and 0 2 0 
64071040		 # 	collision with: 9 2 0  and 9 4 0 
64071042		 # 	collision with: 9 0 0  and 9 1 0 
64071064		 # 	collision with: 0 1 0  and 4 3 0 
64071066		 # 	collision with: 0 2 0  and 5 3 0 
64071069		 # 	collision with: 9 5 0  and 10 7 0 
64071071		 # 	collision with: 1 4 0  and 5 5 0 
64071081		 # 	collision with: 0 6 0  and 3 4 1 
64071083		 # 	collision with: 6 3 0  and 7 5 0 
64071084		 # 	collision with: 6 1 0  and 6 3 0 
64071086		 # 	collision with: 6 4 0  and 6 6 0 
64071120		 # 	collision with: 8 1 0  and 3 3 0 
64071128		 # 	collision with: 10 1 0  and 10 2 0 
64071130		 # 	collision with: 10 4 0  and 10 5 0 
64071132		 # 	collision with: 4 1 0  and 7 2 0 
64071134		 # 	collision with: 4 1 0  and 4 0 1 
64071172		 # 	collision with: 8 4 0  and 8 5 0 
64071174		 # 	collision with: 8 1 0  and 8 3 0 
64071181		 # 	collision with: 0 8 0  and 8 2 1 
64071183		 # 	collision with: 10 3 0  and 10 0 1 
64071188		 # 	collision with: 4 4 0  and 7 5 0 
64071190		 # 	collision with: 5 4 0  and 6 5 0 
64071216		 # 	collision with: 3 0 0  and 3 2 0 
64071218		 # 	collision with: 3 3 0  and 3 5 0 
64071244		 # 	collision with: 1 1 0  and 0 2 0 
64071246		 # 	collision with: 4 4 0  and 3 5 0 
64071253		 # 	collision with: 8 0 0  and 7 1 0 
64071260		 # 	collision with: 1 3 0  and 1 5 0 
64071262		 # 	collision with: 1 1 0  and 1 2 0 
64071300		 # 	collision with: 6 2 0  and 1 3 0 
64071302		 # 	collision with: 3 2 0  and 9 1 1 
64071304		 # 	collision with: 5 3 0  and 5 4 0 
64071306		 # 	collision with: 5 0 0  and 5 2 0 
64071312		 # 	collision with: 6 0 0  and 3 2 0 
64071314		 # 	collision with: 9 2 0  and 7 0 1 
64071348		 # 	collision with: 2 2 0  and 2 3 0 
64071350		 # 	collision with: 2 5 0  and 2 6 0 
64071353		 # 	collision with: 9 0 0  and 7 1 0 
64071355		 # 	collision with: 8 5 0  and 2 7 0 
64071365		 # 	collision with: 2 1 0  and 6 2 0 
64071367		 # 	collision with: 9 4 0  and 7 5 0 
64071368		 # 	collision with: 4 2 0  and 7 3 0 
64071370		 # 	collision with: 9 1 0  and 5 2 0 
64071392		 # 	collision with: 4 4 0  and 4 6 0 
64071394		 # 	collision with: 4 2 0  and 4 3 0 
64071405		 # 	collision with: 1 3 0  and 2 4 0 
64071407		 # 	collision with: 0 0 0  and 1 1 1 
64071413		 # 	collision with: 2 4 0  and 1 5 0 
64071415		 # 	collision with: 10 0 0  and 9 1 0 
64071424		 # 	collision with: 10 0 0  and 7 1 0 
64071426		 # 	collision with: 5 1 0  and 3 2 0 
64071436		 # 	collision with: 0 5 0  and 7 0 1 
64071438		 # 	collision with: 4 2 1  and 2 4 1 
64071480		 # 	collision with: 6 1 0  and 6 3 0 
64071482		 # 	collision with: 6 4 0  and 6 6 0 
64071492		 # 	collision with: 8 1 0  and 3 3 0 
64071505		 # 	collision with: 9 0 0  and 7 1 0 
64071507		 # 	collision with: 2 0 0  and 4 0 0 
64071513		 # 	collision with: 3 5 0  and 2 2 1 
64071515		 # 	collision with: 2 0 0  and 4 0 0 
64071524		 # 	collision with: 3 0 0  and 3 2 0 
64071526		 # 	collision with: 3 3 0  and 3 5 0 
64071548		 # 	collision with: 8 0 0  and 3 2 0 
64071550		 # 	collision with: 5 4 0  and 2 0 1 
64071553		 # 	collision with: 10 1 0  and 0 3 0 
64071555		 # 	collision with: 2 0 0  and 4 0 0 
64071565		 # 	collision with: 6 6 0  and 8 0 1 
64071567		 # 	collision with: 2 0 0  and 4 0 0 
64071568		 # 	collision with: 2 2 0  and 2 3 0 
64071570		 # 	collision with: 2 5 0  and 2 6 0 
64071604		 # 	collision with: 4 2 0  and 7 3 0 
64071606		 # 	collision with: 10 6 0  and 2 3 1 
64071612		 # 	collision with: 7 0 0  and 7 1 0 
64071614		 # 	collision with: 7 3 0  and 7 4 0 
64071616		 # 	collision with: 4 0 0  and 7 1 0 
64071618		 # 	collision with: 0 5 0  and 4 1 1 
64071656		 # 	collision with: 10 1 0  and 10 2 0 
64071658		 # 	collision with: 10 4 0  and 10 5 0 
64071665		 # 	collision with: 5 7 0  and 8 0 1 
64071667		 # 	collision with: 2 0 0  and 4 0 0 
64071672		 # 	collision with: 4 1 0  and 7 2 0 
64071674		 # 	collision with: 3 0 0  and 9 1 0 
64071700		 # 	collision with: 1 3 0  and 1 5 0 
64071702		 # 	collision with: 1 1 0  and 1 2 0 
64071728		 # 	collision with: 8 0 0  and 7 1 0 
64071730		 # 	collision with: 4 0 0  and 9 1 0 
64071737		 # 	collision with: 9 1 0  and 4 2 0 
64071739		 # 	collision with: 2 0 0  and 4 0 0 
64071744		 # 	collision with: 4 4 0  and 4 6 0 
64071746		 # 	collision with: 4 2 0  and 4 3 0 
64071784		 # 	collision with: 4 0 0  and 3 2 0 
64071786		 # 	collision with: 5 2 0  and 5 0 1 
64071788		 # 	collision with: 9 2 0  and 9 4 0 
64071790		 # 	collision with: 9 0 0  and 9 1 0 
64071796		 # 	collision with: 7 1 0  and 3 2 0 
64071798		 # 	collision with: 9 0 0  and 5 2 0 
64071832		 # 	collision with: 8 4 0  and 8 5 0 
64071834		 # 	collision with: 8 1 0  and 8 3 0 
64071837		 # 	collision with: 1 1 0  and 8 3 0 
64071839		 # 	collision with: 2 0 0  and 4 0 0 
64071849		 # 	collision with: 3 0 0  and 7 1 0 
64071851		 # 	collision with: 2 0 0  and 4 0 0 
64071852		 # 	collision with: 4 4 0  and 7 5 0 
64071854		 # 	collision with: 7 3 0  and 1 5 0 
64071876		 # 	collision with: 5 3 0  and 5 4 0 
64071878		 # 	collision with: 5 0 0  and 5 2 0 
64071889		 # 	collision with: 5 2 0  and 7 4 0 
64071897		 # 	collision with: 1 1 0  and 0 2 0 
64071899		 # 	collision with: 2 0 0  and 4 0 0 
64071908		 # 	collision with: 4 1 0  and 9 3 0 
64071910		 # 	collision with: 10 3 0  and 1 4 0 
64071920		 # 	collision with: 3 9 0  and 7 0 1 
64071922		 # 	collision with: 6 5 0  and 8 0 1 
64071964		 # 	collision with: 5 3 0  and 5 4 0 
64071966		 # 	collision with: 5 0 0  and 5 2 0 
64071976		 # 	collision with: 4 3 0  and 7 4 0 
64071978		 # 	collision with: 5 10 0  and 7 0 1 
64071989		 # 	collision with: 5 4 0  and 1 6 0 
64071991		 # 	collision with: 9 3 0  and 0 5 0 
64071997		 # 	collision with: 10 8 0  and 7 0 1 
64072008		 # 	collision with: 8 4 0  and 8 5 0 
64072010		 # 	collision with: 8 1 0  and 8 3 0 
64072032		 # 	collision with: 8 2 0  and 6 3 0 
64072034		 # 	collision with: 7 4 0  and 3 0 1 
64072037		 # 	collision with: 3 3 0  and 9 4 0 
64072039		 # 	collision with: 6 5 0  and 9 6 0 
64072049		 # 	collision with: 1 9 0  and 3 0 1 
64072051		 # 	collision with: 2 3 0  and 3 0 1 
64072052		 # 	collision with: 9 2 0  and 9 4 0 
64072054		 # 	collision with: 9 0 0  and 9 1 0 
64072088		 # 	collision with: 8 2 0  and 3 4 0 
64072090		 # 	collision with: 9 5 0  and 6 6 0 
64072096		 # 	collision with: 4 4 0  and 4 6 0 
64072098		 # 	collision with: 4 2 0  and 4 3 0 
64072100		 # 	collision with: 8 4 0  and 3 6 0 
64072102		 # 	collision with: 5 0 0  and 9 1 0 
64072140		 # 	collision with: 1 3 0  and 1 5 0 
64072142		 # 	collision with: 1 1 0  and 1 2 0 
64072149		 # 	collision with: 5 10 0  and 5 0 1 
64072151		 # 	collision with: 3 0 0  and 8 3 1 
64072156		 # 	collision with: 8 3 0  and 3 5 0 
64072158		 # 	collision with: 7 2 0  and 9 0 1 
64072184		 # 	collision with: 10 1 0  and 10 2 0 
64072186		 # 	collision with: 10 4 0  and 10 5 0 
64072212		 # 	collision with: 6 0 0  and 7 1 0 
64072214		 # 	collision with: 2 0 0  and 5 2 0 
64072221		 # 	collision with: 8 2 0  and 3 4 0 
64072223		 # 	collision with: 4 4 0  and 3 5 0 
64072228		 # 	collision with: 7 0 0  and 7 1 0 
64072230		 # 	collision with: 7 3 0  and 7 4 0 
64072268		 # 	collision with: 4 0 0  and 7 1 0 
64072270		 # 	collision with: 2 7 0  and 5 0 1 
64072272		 # 	collision with: 2 2 0  and 2 3 0 
64072274		 # 	collision with: 2 5 0  and 2 6 0 
64072280		 # 	collision with: 2 1 0  and 6 2 0 
64072282		 # 	collision with: 8 2 0  and 3 3 0 
64072316		 # 	collision with: 3 0 0  and 3 2 0 
64072318		 # 	collision with: 3 3 0  and 3 5 0 
64072321		 # 	collision with: 2 3 0  and 0 4 0 
64072323		 # 	collision with: 5 3 0  and 2 5 0 
64072333		 # 	collision with: 2 4 0  and 10 6 0 
64072335		 # 	collision with: 5 6 0  and 0 0 1 
64072336		 # 	collision with: 8 0 0  and 3 2 0 
64072338		 # 	collision with: 0 0 0  and 9 1 0 
64072360		 # 	collision with: 6 1 0  and 6 3 0 
64072362		 # 	collision with: 6 4 0  and 6 6 0 
64072373		 # 	collision with: 10 2 0  and 0 3 0 
64072375		 # 	collision with: 5 3 0  and 3 0 1 
64072381		 # 	collision with: 6 3 0  and 4 5 0 
64072383		 # 	collision with: 8 5 0  and 7 6 0 
64072392		 # 	collision with: 8 1 0  and 3 3 0 
64072404		 # 	collision with: 5 7 0  and 0 3 1 
64072406		 # 	collision with: 5 7 0  and 2 0 1 
64072448		 # 	collision with: 4 4 0  and 4 6 0 
64072450		 # 	collision with: 4 2 0  and 4 3 0 
64072460		 # 	collision with: 8 4 0  and 3 6 0 
64072462		 # 	collision with: 0 4 0  and 2 5 0 
64072473		 # 	collision with: 0 3 0  and 7 5 0 
64072475		 # 	collision with: 8 2 0  and 3 3 0 
64072481		 # 	collision with: 6 7 0  and 2 0 1 
64072483		 # 	collision with: 3 4 0  and 4 6 0 
64072492		 # 	collision with: 2 2 0  and 2 3 0 
64072494		 # 	collision with: 2 5 0  and 2 6 0 
64072516		 # 	collision with: 4 2 0  and 7 3 0 
64072518		 # 	collision with: 5 1 0  and 7 3 0 
64072521		 # 	collision with: 1 4 0  and 2 6 0 
64072523		 # 	collision with: 2 7 0  and 3 1 1 
64072533		 # 	collision with: 2 3 0  and 1 1 1 
64072535		 # 	collision with: 3 3 0  and 0 0 1 
64072536		 # 	collision with: 5 3 0  and 5 4 0 
64072538		 # 	collision with: 5 0 0  and 5 2 0 
64072572		 # 	collision with: 4 3 0  and 7 4 0 
64072574		 # 	collision with: 2 4 0  and 8 5 0 
64072580		 # 	collision with: 1 3 0  and 1 5 0 
64072582		 # 	collision with: 1 1 0  and 1 2 0 
64072584		 # 	collision with: 8 3 0  and 3 5 0 
64072586		 # 	collision with: 8 9 0  and 10 2 1 
64072624		 # 	collision with: 3 0 0  and 3 2 0 
64072626		 # 	collision with: 3 3 0  and 3 5 0 
64072633		 # 	collision with: 0 4 0  and 2 2 1 
64072640		 # 	collision with: 8 0 0  and 3 2 0 
64072642		 # 	collision with: 1 3 0  and 8 4 0 
64072668		 # 	collision with: 8 4 0  and 8 5 0 
64072670		 # 	collision with: 8 1 0  and 8 3 0 
64072696		 # 	collision with: 8 1 0  and 9 2 0 
64072698		 # 	collision with: 3 1 0  and 2 2 0 
64072705		 # 	collision with: 2 0 0  and 3 2 0 
64072707		 # 	collision with: 10 0 0  and 9 1 0 
64072712		 # 	collision with: 10 1 0  and 10 2 0 
64072714		 # 	collision with: 10 4 0  and 10 5 0 
64072752		 # 	collision with: 4 1 0  and 7 2 0 
64072754		 # 	collision with: 7 1 0  and 4 2 0 
64072756		 # 	collision with: 6 1 0  and 6 3 0 
64072758		 # 	collision with: 6 4 0  and 6 6 0 
64072764		 # 	collision with: 0 0 0  and 3 2 0 
64072800		 # 	collision with: 9 2 0  and 9 4 0 
64072802		 # 	collision with: 9 0 0  and 9 1 0 
64072805		 # 	collision with: 5 4 0  and 1 6 0 
64072807		 # 	collision with: 8 4 0  and 4 5 0 
64072817		 # 	collision with: 3 3 0  and 0 5 0 
64072819		 # 	collision with: 9 1 0  and 9 0 1 
64072820		 # 	collision with: 8 2 0  and 3 4 0 
64072822		 # 	collision with: 10 8 0  and 4 0 1 
64072844		 # 	collision with: 7 0 0  and 7 1 0 
64072846		 # 	collision with: 7 3 0  and 7 4 0 
64072857		 # 	collision with: 3 1 0  and 5 3 0 
64072859		 # 	collision with: 1 3 0  and 1 0 1 
64072865		 # 	collision with: 5 0 0  and 3 2 0 
64072867		 # 	collision with: 7 2 0  and 6 3 0 
64072876		 # 	collision with: 4 0 0  and 7 1 0 
64072878		 # 	collision with: 4 1 0  and 3 3 0 
64072888		 # 	collision with: 10 6 0  and 2 0 1 
64072890		 # 	collision with: 1 8 0  and 8 0 1 
64072932		 # 	collision with: 3 0 0  and 3 2 0 
64072934		 # 	collision with: 3 3 0  and 3 5 0 
64072944		 # 	collision with: 8 0 0  and 3 2 0 
64072946		 # 	collision with: 5 8 0  and 2 0 1 
64072957		 # 	collision with: 6 2 0  and 2 4 0 
64072959		 # 	collision with: 2 2 0  and 1 4 0 
64072965		 # 	collision with: 2 9 0  and 4 1 1 
64072967		 # 	collision with: 2 2 0  and 1 4 0 
64072976		 # 	collision with: 7 0 0  and 7 1 0 
64072978		 # 	collision with: 7 3 0  and 7 4 0 
64073000		 # 	collision with: 4 0 0  and 7 1 0 
64073002		 # 	collision with: 2 0 0  and 9 1 0 
64073005		 # 	collision with: 2 0 0  and 3 2 0 
64073017		 # 	collision with: 10 8 0  and 4 2 1 
64073019		 # 	collision with: 2 2 0  and 1 4 0 
64073020		 # 	collision with: 1 3 0  and 1 5 0 
64073022		 # 	collision with: 1 1 0  and 1 2 0 
64073056		 # 	collision with: 8 3 0  and 3 5 0 
64073058		 # 	collision with: 8 0 0  and 5 2 0 
64073064		 # 	collision with: 9 2 0  and 9 4 0 
64073066		 # 	collision with: 9 0 0  and 9 1 0 
64073068		 # 	collision with: 8 2 0  and 3 4 0 
64073070		 # 	collision with: 5 4 0  and 9 6 0 
64073108		 # 	collision with: 5 3 0  and 5 4 0 
64073110		 # 	collision with: 5 0 0  and 5 2 0 
64073117		 # 	collision with: 0 5 0  and 10 1 1 
64073119		 # 	collision with: 2 2 0  and 1 4 0 
64073124		 # 	collision with: 4 3 0  and 7 4 0 
64073126		 # 	collision with: 1 6 0  and 0 0 1 
64073152		 # 	collision with: 6 1 0  and 6 3 0 
64073154		 # 	collision with: 6 4 0  and 6 6 0 
64073180		 # 	collision with: 10 2 0  and 0 3 0 
64073189		 # 	collision with: 5 0 0  and 3 2 0 
64073191		 # 	collision with: 0 1 0  and 9 3 0 
64073196		 # 	collision with: 2 2 0  and 2 3 0 
64073198		 # 	collision with: 2 5 0  and 2 6 0 
64073236		 # 	collision with: 2 0 0  and 7 1 0 
64073238		 # 	collision with: 7 4 0  and 3 6 0 
64073240		 # 	collision with: 10 1 0  and 10 2 0 
64073242		 # 	collision with: 10 4 0  and 10 5 0 
64073248		 # 	collision with: 4 1 0  and 7 2 0 
64073250		 # 	collision with: 5 5 0  and 10 6 0 
64073284		 # 	collision with: 4 4 0  and 4 6 0 
64073286		 # 	collision with: 4 2 0  and 4 3 0 
64073289		 # 	collision with: 7 0 0  and 3 2 0 
64073291		 # 	collision with: 2 2 0  and 1 4 0 
64073301		 # 	collision with: 4 2 0  and 1 4 0 
64073303		 # 	collision with: 2 2 0  and 1 4 0 
64073304		 # 	collision with: 8 4 0  and 3 6 0 
64073306		 # 	collision with: 5 9 0  and 4 0 1 
64073328		 # 	collision with: 8 4 0  and 8 5 0 
64073330		 # 	collision with: 8 1 0  and 8 3 0 
64073341		 # 	collision with: 8 1 0  and 9 2 0 
64073343		 # 	collision with: 2 2 0  and 1 4 0 
64073349		 # 	collision with: 9 3 0  and 8 4 0 
64073351		 # 	collision with: 2 2 0  and 1 4 0 
64073360		 # 	collision with: 9 0 0  and 3 2 0 
64073362		 # 	collision with: 4 0 0  and 5 2 0 
64073372		 # 	collision with: 3 1 0  and 10 1 1 
64073374		 # 	collision with: 7 2 0  and 1 0 1 
64073416		 # 	collision with: 2 2 0  and 2 3 0 
64073418		 # 	collision with: 2 5 0  and 2 6 0 
64073428		 # 	collision with: 4 2 0  and 7 3 0 
64073430		 # 	collision with: 9 3 0  and 3 4 0 
64073441		 # 	collision with: 1 1 0  and 8 3 0 
64073443		 # 	collision with: 10 8 0  and 1 0 1 
64073449		 # 	collision with: 0 0 0  and 1 1 1 
64073451		 # 	collision with: 10 2 0  and 8 3 0 
64073460		 # 	collision with: 1 3 0  and 1 5 0 
64073462		 # 	collision with: 1 1 0  and 1 2 0 
64073484		 # 	collision with: 7 0 0  and 3 2 0 
64073486		 # 	collision with: 3 4 0  and 0 5 0 
64073489		 # 	collision with: 6 2 0  and 1 3 0 
64073491		 # 	collision with: 10 2 0  and 1 0 1 
64073501		 # 	collision with: 1 9 0  and 6 0 1 
64073503		 # 	collision with: 3 2 0  and 8 0 1 
64073504		 # 	collision with: 8 4 0  and 8 5 0 
64073506		 # 	collision with: 8 1 0  and 8 3 0 
64073540		 # 	collision with: 4 4 0  and 7 5 0 
64073542		 # 	collision with: 0 6 0  and 3 2 1 
64073548		 # 	collision with: 6 1 0  and 6 3 0 
64073550		 # 	collision with: 6 4 0  and 6 6 0 
64073552		 # 	collision with: 8 1 0  and 3 3 0 
64073592		 # 	collision with: 7 0 0  and 7 1 0 
64073594		 # 	collision with: 7 3 0  and 7 4 0 
64073601		 # 	collision with: 5 5 0  and 4 3 1 
64073603		 # 	collision with: 8 0 0  and 9 1 0 
64073608		 # 	collision with: 4 0 0  and 7 1 0 
64073610		 # 	collision with: 9 4 0  and 7 5 0 
64073636		 # 	collision with: 4 4 0  and 4 6 0 
64073638		 # 	collision with: 4 2 0  and 4 3 0 
64073664		 # 	collision with: 9 1 0  and 7 3 0 
64073666		 # 	collision with: 1 4 0  and 10 6 0 
64073673		 # 	collision with: 5 2 0  and 4 3 0 
64073675		 # 	collision with: 0 3 0  and 10 4 0 
64073680		 # 	collision with: 5 3 0  and 5 4 0 
64073682		 # 	collision with: 5 0 0  and 5 2 0 
64073720		 # 	collision with: 9 1 0  and 4 2 0 
64073722		 # 	collision with: 5 3 0  and 2 5 0 
64073724		 # 	collision with: 3 0 0  and 3 2 0 
64073726		 # 	collision with: 3 3 0  and 3 5 0 
64073732		 # 	collision with: 0 0 0  and 7 1 0 
64073734		 # 	collision with: 1 5 0  and 3 6 0 
64073768		 # 	collision with: 10 1 0  and 10 2 0 
64073770		 # 	collision with: 10 4 0  and 10 5 0 
64073773		 # 	collision with: 8 2 0  and 6 3 0 
64073785		 # 	collision with: 5 1 0  and 2 3 0 
64073787		 # 	collision with: 2 1 0  and 6 3 0 
64073788		 # 	collision with: 4 1 0  and 7 2 0 
64073790		 # 	collision with: 4 5 0  and 7 0 1 
64073812		 # 	collision with: 9 2 0  and 9 4 0 
64073814		 # 	collision with: 9 0 0  and 9 1 0 
64073825		 # 	collision with: 7 6 0  and 8 7 0 
64073827		 # 	collision with: 3 2 0  and 7 3 0 
64073833		 # 	collision with: 8 0 0  and 7 1 0 
64073835		 # 	collision with: 0 1 0  and 9 3 0 
64073844		 # 	collision with: 0 2 0  and 8 3 0 
64073846		 # 	collision with: 9 3 0  and 0 5 0 
64073856		 # 	collision with: 0 4 0  and 3 1 1 
64073858		 # 	collision with: 4 9 0  and 8 1 1 
64073900		 # 	collision with: 1 3 0  and 1 5 0 
64073902		 # 	collision with: 1 1 0  and 1 2 0 
64073912		 # 	collision with: 8 3 0  and 3 5 0 
64073914		 # 	collision with: 2 3 0  and 9 5 0 
64073925		 # 	collision with: 7 0 0  and 3 2 0 
64073933		 # 	collision with: 3 9 0  and 9 0 1 
64073935		 # 	collision with: 7 1 0  and 4 2 0 
64073944		 # 	collision with: 6 1 0  and 6 3 0 
64073946		 # 	collision with: 6 4 0  and 6 6 0 
64073968		 # 	collision with: 9 0 0  and 7 1 0 
64073973		 # 	collision with: 4 3 0  and 5 5 0 
64073975		 # 	collision with: 9 2 0  and 0 3 0 
64073985		 # 	collision with: 2 5 0  and 0 1 1 
64073987		 # 	collision with: 8 1 0  and 10 2 0 
64073988		 # 	collision with: 4 4 0  and 4 6 0 
64073990		 # 	collision with: 4 2 0  and 4 3 0 
64074024		 # 	collision with: 8 4 0  and 3 6 0 
64074026		 # 	collision with: 4 5 0  and 0 6 0 
64074032		 # 	collision with: 3 0 0  and 3 2 0 
64074034		 # 	collision with: 3 3 0  and 3 5 0 
64074036		 # 	collision with: 8 0 0  and 3 2 0 
64074038		 # 	collision with: 3 4 0  and 4 6 0 
64074076		 # 	collision with: 9 2 0  and 9 4 0 
64074078		 # 	collision with: 9 0 0  and 9 1 0 
64074085		 # 	collision with: 4 8 0  and 5 0 1 
64074087		 # 	collision with: 10 5 0  and 5 6 0 
64074092		 # 	collision with: 8 2 0  and 3 4 0 
64074094		 # 	collision with: 4 1 0  and 8 2 0 
64074120		 # 	collision with: 2 2 0  and 2 3 0 
64074122		 # 	collision with: 2 5 0  and 2 6 0 
64074148		 # 	collision with: 5 0 0  and 3 2 0 
64074150		 # 	collision with: 8 3 0  and 6 5 0 
64074157		 # 	collision with: 7 2 0  and 8 4 0 
64074159		 # 	collision with: 1 4 0  and 10 6 0 
64074164		 # 	collision with: 8 4 0  and 8 5 0 
64074166		 # 	collision with: 8 1 0  and 8 3 0 
64074204		 # 	collision with: 2 1 0  and 1 3 0 
64074206		 # 	collision with: 7 0 0  and 9 1 0 
64074208		 # 	collision with: 7 0 0  and 7 1 0 
64074210		 # 	collision with: 7 3 0  and 7 4 0 
64074216		 # 	collision with: 4 0 0  and 7 1 0 
64074218		 # 	collision with: 0 4 0  and 2 6 0 
64074252		 # 	collision with: 5 3 0  and 5 4 0 
64074254		 # 	collision with: 5 0 0  and 5 2 0 
64074257		 # 	collision with: 0 3 0  and 7 5 0 
64074259		 # 	collision with: 2 1 0  and 2 1 1 
64074269		 # 	collision with: 6 0 0  and 3 2 0 
64074271		 # 	collision with: 10 8 0  and 4 0 1 
64074272		 # 	collision with: 4 3 0  and 7 4 0 
64074274		 # 	collision with: 2 1 0  and 7 2 0 
64074296		 # 	collision with: 10 1 0  and 10 2 0 
64074298		 # 	collision with: 10 4 0  and 10 5 0 
64074309		 # 	collision with: 6 0 0  and 7 1 0 
64074311		 # 	collision with: 3 5 0  and 1 6 0 
64074317		 # 	collision with: 2 2 0  and 0 4 0 
64074319		 # 	collision with: 5 2 0  and 1 3 0 
64074328		 # 	collision with: 4 1 0  and 7 2 0 
64074330		 # 	collision with: 8 5 0  and 3 0 1 
64074342		 # 	collision with: 2 1 0  and 4 1 0 
64074343		 # 	collision with: 3 1 0  and 1 3 0 
64074414		 # 	collision with: 0 5 0  and 4 7 0 
64074415		 # 	collision with: 3 1 0  and 1 3 0 
64074442		 # 	collision with: 4 0 0  and 10 1 1 
64074443		 # 	collision with: 3 1 0  and 1 3 0 
64074514		 # 	collision with: 1 4 0  and 4 6 0 
64074515		 # 	collision with: 3 1 0  and 1 3 0 
64074542		 # 	collision with: 10 1 0  and 10 0 1 
64074543		 # 	collision with: 2 0 0  and 9 1 0 
64074570		 # 	collision with: 5 4 0  and 2 5 0 
64074571		 # 	collision with: 3 1 0  and 1 3 0 
64074642		 # 	collision with: 9 3 0  and 7 5 0 
64074643		 # 	collision with: 7 0 0  and 5 1 0 
64074670		 # 	collision with: 10 4 0  and 2 1 1 
64074671		 # 	collision with: 3 1 0  and 1 3 0 
64074698		 # 	collision with: 2 3 0  and 9 5 0 
64074699		 # 	collision with: 3 1 0  and 1 3 0 
64074770		 # 	collision with: 5 4 0  and 2 6 0 
64074771		 # 	collision with: 3 1 0  and 1 3 0 
64074798		 # 	collision with: 6 0 0  and 5 2 0 
64074799		 # 	collision with: 3 1 0  and 1 3 0 
64074824		 # 	collision with: 6 1 0  and 3 2 0 
64074826		 # 	collision with: 7 4 0  and 7 1 1 
64074827		 # 	collision with: 5 2 0  and 1 0 1 
64074898		 # 	collision with: 6 2 0  and 9 0 1 
64074899		 # 	collision with: 7 1 0  and 3 3 0 
64074926		 # 	collision with: 3 6 0  and 2 0 1 
64074927		 # 	collision with: 5 5 0  and 7 6 0 
64074998		 # 	collision with: 7 3 0  and 7 4 0 
64074999		 # 	collision with: 7 1 0  and 4 3 0 
64075026		 # 	collision with: 1 4 0  and 4 6 0 
64075027		 # 	collision with: 4 0 0  and 1 1 0 
64075053		 # 	collision with: 6 2 0  and 1 4 0 
64075054		 # 	collision with: 4 0 0  and 1 1 0 
64075055		 # 	collision with: 9 4 0  and 9 0 1 
64075125		 # 	collision with: 0 4 0  and 5 5 0 
64075126		 # 	collision with: 7 0 0  and 5 1 0 
64075127		 # 	collision with: 3 1 0  and 1 0 1 
64075154		 # 	collision with: 2 3 0  and 4 2 1 
64075155		 # 	collision with: 8 5 0  and 9 6 0 
64075182		 # 	collision with: 1 9 0  and 9 0 1 
64075183		 # 	collision with: 3 3 0  and 4 3 0 
64075254		 # 	collision with: 10 2 0  and 0 3 0 
64075255		 # 	collision with: 6 2 0  and 4 4 0 
64075282		 # 	collision with: 10 1 0  and 4 2 0 
64075283		 # 	collision with: 2 0 0  and 9 1 0 
64075308		 # 	collision with: 6 2 0  and 9 3 0 
64075310		 # 	collision with: 4 1 0  and 9 2 1 
64075311		 # 	collision with: 10 3 0  and 1 4 0 
64075382		 # 	collision with: 6 10 0  and 9 0 1 
64075383		 # 	collision with: 4 2 0  and 4 3 0 
64075410		 # 	collision with: 2 2 0  and 0 3 0 
64075411		 # 	collision with: 5 3 0  and 3 4 0 
64075482		 # 	collision with: 6 4 0  and 8 6 0 
64075483		 # 	collision with: 1 2 0  and 0 4 0 
64075510		 # 	collision with: 4 7 0  and 5 7 0 
64075511		 # 	collision with: 8 4 0  and 5 1 1 
64075537		 # 	collision with: 0 0 0  and 3 1 0 
64075538		 # 	collision with: 10 1 0  and 4 3 0 
64075539		 # 	collision with: 4 0 0  and 5 1 0 
64075609		 # 	collision with: 8 3 0  and 2 4 0 
64075610		 # 	collision with: 6 2 0  and 4 4 0 
64075611		 # 	collision with: 0 6 0  and 4 0 1 
64075638		 # 	collision with: 9 7 0  and 1 0 1 
64075639		 # 	collision with: 2 2 0  and 7 4 0 
64075666		 # 	collision with: 7 2 0  and 9 3 0 
64075667		 # 	collision with: 2 4 0  and 1 0 1 
64075738		 # 	collision with: 1 1 0  and 1 2 0 
64075739		 # 	collision with: 9 3 0  and 7 5 0 
64075766		 # 	collision with: 9 1 0  and 8 3 0 
64075767		 # 	collision with: 1 9 0  and 0 0 1 
64075792		 # 	collision with: 0 0 0  and 6 2 0 
64075794		 # 	collision with: 8 1 0  and 3 1 1 
64075795		 # 	collision with: 2 0 0  and 9 1 0 
64075866		 # 	collision with: 8 4 0  and 6 5 0 
64075867		 # 	collision with: 5 0 0  and 7 2 0 
64075894		 # 	collision with: 2 10 0  and 3 10 0 
64075895		 # 	collision with: 9 1 0  and 8 3 0 
64075966		 # 	collision with: 7 9 0  and 1 2 1 
64075967		 # 	collision with: 1 10 0  and 1 0 1 
64075994		 # 	collision with: 10 3 0  and 1 4 0 
64075995		 # 	collision with: 4 1 0  and 6 2 0 
64076021		 # 	collision with: 9 3 0  and 1 4 0 
64076022		 # 	collision with: 2 3 0  and 10 4 0 
64076023		 # 	collision with: 5 4 0  and 1 6 0 
64076093		 # 	collision with: 5 2 0  and 10 3 0 
64076094		 # 	collision with: 4 2 0  and 3 3 0 
64076095		 # 	collision with: 0 2 0  and 1 2 0 
64076122		 # 	collision with: 10 7 0  and 7 1 1 
64076123		 # 	collision with: 9 7 0  and 9 2 1 
64076150		 # 	collision with: 2 6 0  and 8 0 1 
64076151		 # 	collision with: 2 7 0  and 4 3 1 
64076222		 # 	collision with: 1 6 0  and 5 2 1 
64076223		 # 	collision with: 1 4 0  and 10 6 0 
64076250		 # 	collision with: 2 2 0  and 7 3 0 
64076251		 # 	collision with: 10 0 0  and 3 1 0 
64076276		 # 	collision with: 3 0 0  and 0 1 0 
64076278		 # 	collision with: 3 1 0  and 1 3 0 
64076279		 # 	collision with: 6 0 0  and 5 2 0 
64076350		 # 	collision with: 3 1 0  and 1 3 0 
64076351		 # 	collision with: 8 4 0  and 1 6 0 
64076378		 # 	collision with: 3 1 0  and 1 3 0 
64076379		 # 	collision with: 10 2 0  and 7 3 0 
64076450		 # 	collision with: 3 1 0  and 1 3 0 
64076451		 # 	collision with: 3 5 0  and 8 0 1 
64076478		 # 	collision with: 3 1 0  and 1 3 0 
64076479		 # 	collision with: 4 7 0  and 5 7 0 
64076505		 # 	collision with: 0 0 0  and 6 2 0 
64076506		 # 	collision with: 3 1 0  and 1 3 0 
64076507		 # 	collision with: 6 4 0  and 6 6 0 
64076577		 # 	collision with: 2 1 0  and 7 2 0 
64076578		 # 	collision with: 0 2 0  and 1 2 0 
64076579		 # 	collision with: 2 0 0  and 9 1 0 
64076606		 # 	collision with: 3 1 0  and 1 3 0 
64076607		 # 	collision with: 3 1 0  and 7 0 1 
64076634		 # 	collision with: 3 1 0  and 1 3 0 
64076635		 # 	collision with: 7 7 0  and 10 0 1 
64076706		 # 	collision with: 3 1 0  and 1 3 0 
64076707		 # 	collision with: 9 0 0  and 8 1 0 
64076734		 # 	collision with: 4 0 0  and 1 2 0 
64076735		 # 	collision with: 6 8 0  and 10 0 1 
64076760		 # 	collision with: 9 1 0  and 3 3 0 
64076762		 # 	collision with: 6 5 0  and 9 0 1 
64076763		 # 	collision with: 2 1 0  and 4 1 0 
64076834		 # 	collision with: 3 5 0  and 7 6 0 
64076835		 # 	collision with: 2 0 0  and 9 1 0 
64076862		 # 	collision with: 7 7 0  and 8 0 1 
64076863		 # 	collision with: 6 5 0  and 1 6 0 
64076934		 # 	collision with: 3 5 0  and 5 5 0 
64076935		 # 	collision with: 9 1 0  and 10 3 0 
64076962		 # 	collision with: 2 2 0  and 8 0 1 
64076963		 # 	collision with: 5 1 0  and 0 2 0 
64076989		 # 	collision with: 9 3 0  and 4 5 0 
64076990		 # 	collision with: 7 0 0  and 1 2 0 
64076991		 # 	collision with: 0 3 0  and 6 4 0 
64077061		 # 	collision with: 10 0 0  and 4 1 0 
64077062		 # 	collision with: 1 1 0  and 0 2 0 
64077063		 # 	collision with: 7 4 0  and 8 6 0 
64077090		 # 	collision with: 7 7 0  and 0 0 1 
64077091		 # 	collision with: 8 2 0  and 3 3 0 
64077118		 # 	collision with: 1 4 0  and 4 6 0 
64077119		 # 	collision with: 2 0 0  and 8 1 0 
64077190		 # 	collision with: 10 6 0  and 5 1 1 
64077191		 # 	collision with: 1 1 0  and 0 2 0 
64077218		 # 	collision with: 5 0 0  and 5 2 0 
64077219		 # 	collision with: 1 2 0  and 2 4 0 
64077244		 # 	collision with: 3 1 0  and 9 3 0 
64077246		 # 	collision with: 0 4 0  and 4 5 0 
64077247		 # 	collision with: 6 9 0  and 5 0 1 
64077318		 # 	collision with: 2 0 1  and 0 2 1 
64077319		 # 	collision with: 7 2 0  and 2 0 1 
64077346		 # 	collision with: 0 8 0  and 4 0 1 
64077347		 # 	collision with: 7 10 0  and 7 0 1 
64077418		 # 	collision with: 5 5 0  and 1 0 1 
64077419		 # 	collision with: 0 3 0  and 1 0 1 
64077446		 # 	collision with: 5 4 0  and 1 6 0 
64077447		 # 	collision with: 10 2 0  and 0 3 0 
64077473		 # 	collision with: 3 1 0  and 6 2 0 
64077474		 # 	collision with: 10 2 0  and 7 3 0 
64077475		 # 	collision with: 6 9 0  and 8 0 1 
64077545		 # 	collision with: 5 5 0  and 8 6 0 
64077546		 # 	collision with: 0 0 0  and 9 2 0 
64077547		 # 	collision with: 4 0 0  and 1 2 0 
64077574		 # 	collision with: 3 1 0  and 1 1 1 
64077575		 # 	collision with: 2 0 0  and 9 1 0 
64077602		 # 	collision with: 3 3 0  and 5 5 0 
64077603		 # 	collision with: 10 1 0  and 4 3 0 
64077674		 # 	collision with: 1 4 0  and 4 6 0 
64077675		 # 	collision with: 4 2 0  and 3 3 0 
64077702		 # 	collision with: 4 3 0  and 3 5 0 
64077703		 # 	collision with: 1 6 0  and 2 6 0 
64077728		 # 	collision with: 0 0 0  and 3 1 0 
64077730		 # 	collision with: 6 0 0  and 7 2 0 
64077731		 # 	collision with: 5 4 0  and 2 5 0 
64077802		 # 	collision with: 2 0 0  and 8 1 0 
64077803		 # 	collision with: 10 7 0  and 7 0 1 
64077830		 # 	collision with: 10 1 0  and 3 3 0 
64077831		 # 	collision with: 2 0 0  and 9 1 0 
64077902		 # 	collision with: 8 3 0  and 1 4 0 
64077903		 # 	collision with: 0 2 0  and 2 4 0 
64077930		 # 	collision with: 1 2 0  and 2 4 0 
64077931		 # 	collision with: 9 0 0  and 9 1 0 
64077957		 # 	collision with: 1 4 0  and 4 5 0 
64077958		 # 	collision with: 8 2 0  and 3 3 0 
64077959		 # 	collision with: 10 2 0  and 7 4 0 
64078029		 # 	collision with: 7 3 0  and 6 5 0 
64078030		 # 	collision with: 9 0 0  and 8 1 0 
64078031		 # 	collision with: 2 4 0  and 4 5 0 
64078058		 # 	collision with: 5 0 0  and 7 2 0 
64078059		 # 	collision with: 5 3 0  and 10 4 0 
64078086		 # 	collision with: 8 4 0  and 2 5 0 
64078087		 # 	collision with: 0 5 0  and 9 6 0 
64078158		 # 	collision with: 8 4 0  and 2 5 0 
64078159		 # 	collision with: 7 3 0  and 6 4 0 
64078186		 # 	collision with: 9 1 0  and 10 3 0 
64078187		 # 	collision with: 0 3 0  and 5 2 1 
64078212		 # 	collision with: 6 0 0  and 0 2 0 
64078214		 # 	collision with: 2 2 0  and 6 4 0 
64078215		 # 	collision with: 8 10 0  and 1 0 1 
64078286		 # 	collision with: 1 6 0  and 6 0 1 
64078287		 # 	collision with: 2 2 0  and 7 3 0 
64078314		 # 	collision with: 5 2 0  and 9 3 0 
64078315		 # 	collision with: 9 1 0  and 2 2 1 
64078386		 # 	collision with: 6 5 0  and 8 0 1 
64078387		 # 	collision with: 7 1 0  and 4 2 0 
64078414		 # 	collision with: 9 0 0  and 9 1 0 
64078415		 # 	collision with: 9 9 0  and 2 0 1 
64078441		 # 	collision with: 3 1 0  and 9 3 0 
64078442		 # 	collision with: 8 5 0  and 5 6 0 
64078443		 # 	collision with: 3 9 0  and 6 0 1 
64078513		 # 	collision with: 4 2 0  and 3 4 0 
64078514		 # 	collision with: 2 5 0  and 1 6 0 
64078515		 # 	collision with: 10 4 0  and 10 5 0 
64078542		 # 	collision with: 10 4 0  and 0 0 1 
64078543		 # 	collision with: 8 3 0  and 1 1 1 
64078570		 # 	collision with: 3 3 0  and 4 3 0 
64078571		 # 	collision with: 2 0 0  and 9 1 0 
64078642		 # 	collision with: 5 3 0  and 3 4 0 
64078643		 # 	collision with: 10 4 0  and 9 5 0 
64078670		 # 	collision with: 7 4 0  and 6 6 0 
64078671		 # 	collision with: 2 3 0  and 3 4 0 
64078696		 # 	collision with: 9 2 0  and 6 3 0 
64078698		 # 	collision with: 2 3 0  and 0 1 1 
64078699		 # 	collision with: 10 2 0  and 6 4 0 
64078770		 # 	collision with: 1 4 0  and 4 6 0 
64078771		 # 	collision with: 0 10 0  and 4 1 1 
64078798		 # 	collision with: 7 5 0  and 4 1 1 
64078799		 # 	collision with: 2 10 0  and 3 10 0 
64078870		 # 	collision with: 5 3 0  and 9 5 0 
64078871		 # 	collision with: 2 0 0  and 9 1 0 
64078898		 # 	collision with: 2 1 0  and 6 2 0 
64078899		 # 	collision with: 8 3 0  and 3 0 1 
64078925		 # 	collision with: 1 4 0  and 7 6 0 
64078926		 # 	collision with: 7 1 0  and 4 2 0 
64078927		 # 	collision with: 0 5 0  and 4 7 0 
64078997		 # 	collision with: 1 1 0  and 0 3 0 
64078998		 # 	collision with: 4 0 0  and 5 1 0 
64078999		 # 	collision with: 5 3 0  and 10 5 0 
64079026		 # 	collision with: 6 3 0  and 6 1 1 
64079027		 # 	collision with: 2 1 0  and 6 2 0 
64079054		 # 	collision with: 3 3 0  and 3 5 0 
64079055		 # 	collision with: 3 3 0  and 5 5 0 
64079126		 # 	collision with: 4 2 0  and 0 1 1 
64079127		 # 	collision with: 2 5 0  and 1 6 0 
64079154		 # 	collision with: 1 6 0  and 2 6 0 
64079155		 # 	collision with: 10 1 0  and 4 2 0 
64079180		 # 	collision with: 3 1 0  and 6 2 0 
64079182		 # 	collision with: 9 1 0  and 7 0 1 
64079183		 # 	collision with: 6 5 0  and 8 0 1 
64079254		 # 	collision with: 0 2 0  and 2 4 0 
64079255		 # 	collision with: 9 3 0  and 1 2 1 
64079282		 # 	collision with: 1 4 0  and 4 6 0 
64079283		 # 	collision with: 8 6 0  and 7 1 1 
64079354		 # 	collision with: 10 9 0  and 2 0 1 
64079355		 # 	collision with: 4 7 0  and 8 1 1 
64079382		 # 	collision with: 1 2 0  and 6 1 1 
64079383		 # 	collision with: 10 1 0  and 10 0 1 
64079409		 # 	collision with: 6 2 0  and 9 3 0 
64079410		 # 	collision with: 2 2 0  and 7 4 0 
64079411		 # 	collision with: 10 4 0  and 7 0 1 
64079481		 # 	collision with: 9 0 0  and 8 2 0 
64079482		 # 	collision with: 10 4 0  and 9 5 0 
64079483		 # 	collision with: 2 1 1  and 1 2 1 
64079510		 # 	collision with: 7 1 0  and 3 3 0 
64079511		 # 	collision with: 9 4 0  and 3 0 1 
64079538		 # 	collision with: 10 0 0  and 3 1 0 
64079539		 # 	collision with: 0 7 0  and 3 2 1 
64079610		 # 	collision with: 1 6 0  and 5 0 1 
64079611		 # 	collision with: 7 0 0  and 1 1 0 
64079638		 # 	collision with: 7 0 0  and 1 1 0 
64079639		 # 	collision with: 3 3 0  and 4 1 1 
64079675		 # 	collision with: 0 2 0  and 1 4 0 
64079703		 # 	collision with: 7 0 0  and 3 1 0 
64079815		 # 	collision with: 1 4 0  and 4 0 1 
64079819		 # 	collision with: 9 3 0  and 8 4 0 
64079863		 # 	collision with: 3 3 0  and 0 1 1 
64079871		 # 	collision with: 6 5 0  and 0 0 1 
64079895		 # 	collision with: 8 1 0  and 8 1 1 
64079967		 # 	collision with: 0 10 0  and 7 0 1 
64079991		 # 	collision with: 1 1 0  and 5 2 0 
64079999		 # 	collision with: 8 0 0  and 4 1 0 
64080043		 # 	collision with: 1 2 0  and 9 4 0 
64080047		 # 	collision with: 0 0 0  and 1 1 1 
64080148		 # 	collision with: 5 4 0  and 9 6 0 
64080150		 # 	collision with: 7 5 0  and 3 0 1 
64080157		 # 	collision with: 3 6 0  and 7 7 0 
64080159		 # 	collision with: 0 0 0  and 2 2 0 
64080185		 # 	collision with: 3 4 0  and 0 0 1 
64080187		 # 	collision with: 2 4 0  and 4 6 0 
64080297		 # 	collision with: 6 10 0  and 10 1 1 
64080301		 # 	collision with: 6 2 0  and 4 4 0 
64080303		 # 	collision with: 6 0 0  and 1 2 0 
64080345		 # 	collision with: 8 5 0  and 4 6 0 
64080347		 # 	collision with: 10 3 0  and 6 1 1 
64080353		 # 	collision with: 10 4 0  and 7 6 0 
64080377		 # 	collision with: 5 1 0  and 5 0 1 
64080379		 # 	collision with: 4 1 0  and 9 3 0 
64080449		 # 	collision with: 3 10 0  and 5 10 0 
64080451		 # 	collision with: 8 1 0  and 1 3 0 
64080473		 # 	collision with: 1 5 0  and 8 6 0 
64080475		 # 	collision with: 5 7 0  and 6 1 1 
64080481		 # 	collision with: 8 4 0  and 8 5 0 
64080483		 # 	collision with: 3 7 0  and 7 0 1 
64080525		 # 	collision with: 2 2 0  and 2 3 0 
64080527		 # 	collision with: 0 0 0  and 1 1 1 
64080529		 # 	collision with: 4 3 0  and 3 0 1 
64080531		 # 	collision with: 8 2 0  and 3 3 0 
64080632		 # 	collision with: 2 4 0  and 4 5 0 
64080634		 # 	collision with: 3 5 0  and 1 0 1 
64080641		 # 	collision with: 6 1 0  and 3 3 0 
64080643		 # 	collision with: 0 0 0  and 1 1 1 
64080669		 # 	collision with: 7 8 0  and 6 0 1 
64080671		 # 	collision with: 8 6 0  and 4 0 1 
64080781		 # 	collision with: 10 9 0  and 1 1 1 
64080783		 # 	collision with: 5 1 0  and 2 0 1 
64080785		 # 	collision with: 5 0 0  and 4 1 0 
64080787		 # 	collision with: 3 3 0  and 1 5 0 
64080829		 # 	collision with: 3 5 0  and 10 6 0 
64080831		 # 	collision with: 5 4 0  and 9 0 1 
64080837		 # 	collision with: 4 4 0  and 8 5 0 
64080839		 # 	collision with: 2 8 0  and 1 0 1 
64080861		 # 	collision with: 3 6 0  and 3 3 1 
64080863		 # 	collision with: 8 2 0  and 5 1 1 
64080933		 # 	collision with: 2 9 0  and 3 9 0 
64080935		 # 	collision with: 10 10 0  and 3 0 1 
64080957		 # 	collision with: 0 5 0  and 7 6 0 
64080959		 # 	collision with: 3 7 0  and 3 1 1 
64080965		 # 	collision with: 5 3 0  and 5 4 0 
64080967		 # 	collision with: 6 0 0  and 5 2 0 
64081009		 # 	collision with: 4 4 0  and 4 6 0 
64081011		 # 	collision with: 7 1 0  and 7 0 1 
64081013		 # 	collision with: 5 1 0  and 6 0 1 
64081015		 # 	collision with: 0 0 0  and 4 2 0 
64081116		 # 	collision with: 8 3 0  and 1 5 0 
64081118		 # 	collision with: 6 2 0  and 10 3 0 
64081125		 # 	collision with: 0 2 0  and 8 4 0 
64081127		 # 	collision with: 2 1 0  and 1 2 0 
64081153		 # 	collision with: 6 4 0  and 1 2 1 
64081155		 # 	collision with: 2 1 0  and 1 2 0 
64081265		 # 	collision with: 3 2 0  and 4 1 1 
64081267		 # 	collision with: 2 1 0  and 1 2 0 
64081269		 # 	collision with: 10 3 0  and 9 4 0 
64081313		 # 	collision with: 9 5 0  and 5 6 0 
64081315		 # 	collision with: 2 1 0  and 1 2 0 
64081321		 # 	collision with: 5 3 0  and 2 5 0 
64081323		 # 	collision with: 2 1 0  and 1 2 0 
64081345		 # 	collision with: 1 4 0  and 9 1 1 
64081347		 # 	collision with: 2 1 0  and 1 2 0 
64081417		 # 	collision with: 0 8 0  and 2 8 0 
64081419		 # 	collision with: 2 1 0  and 1 2 0 
64081441		 # 	collision with: 10 5 0  and 6 6 0 
64081443		 # 	collision with: 2 1 0  and 1 2 0 
64081449		 # 	collision with: 2 2 0  and 2 3 0 
64081493		 # 	collision with: 6 1 0  and 6 3 0 
64081495		 # 	collision with: 2 1 0  and 1 2 0 
64081497		 # 	collision with: 6 8 0  and 6 0 1 
64081499		 # 	collision with: 2 1 0  and 1 2 0 
64081600		 # 	collision with: 5 3 0  and 7 4 0 
64081602		 # 	collision with: 3 9 0  and 8 0 1 
64081609		 # 	collision with: 5 3 0  and 2 5 0 
64081637		 # 	collision with: 4 5 0  and 0 0 1 
64081639		 # 	collision with: 7 3 0  and 7 4 0 
64081749		 # 	collision with: 10 8 0  and 2 0 1 
64081751		 # 	collision with: 4 1 0  and 0 1 1 
64081753		 # 	collision with: 10 0 0  and 8 2 0 
64081755		 # 	collision with: 6 3 0  and 3 5 0 
64081797		 # 	collision with: 4 5 0  and 0 6 0 
64081799		 # 	collision with: 1 1 0  and 1 2 0 
64081805		 # 	collision with: 10 3 0  and 3 4 0 
64081807		 # 	collision with: 7 6 0  and 10 0 1 
64081829		 # 	collision with: 4 1 0  and 2 0 1 
64081831		 # 	collision with: 8 7 0  and 1 0 1 
64081901		 # 	collision with: 4 7 0  and 6 7 0 
64081925		 # 	collision with: 9 5 0  and 5 6 0 
64081927		 # 	collision with: 2 3 0  and 6 5 0 
64081933		 # 	collision with: 10 1 0  and 10 2 0 
64081935		 # 	collision with: 7 1 0  and 4 2 0 
64081977		 # 	collision with: 8 4 0  and 8 5 0 
64081979		 # 	collision with: 5 5 0  and 3 6 0 
64081981		 # 	collision with: 10 3 0  and 0 2 1 
64081983		 # 	collision with: 2 4 0  and 10 5 0 
64082084		 # 	collision with: 0 2 0  and 4 4 0 
64082086		 # 	collision with: 8 1 0  and 2 0 1 
64082093		 # 	collision with: 10 4 0  and 7 6 0 
64082095		 # 	collision with: 6 2 0  and 0 4 0 
64082121		 # 	collision with: 6 6 0  and 4 1 1 
64082123		 # 	collision with: 2 3 0  and 9 5 0 
64082233		 # 	collision with: 6 2 0  and 10 2 1 
64082235		 # 	collision with: 0 4 0  and 1 4 0 
64082237		 # 	collision with: 4 3 0  and 2 5 0 
64082239		 # 	collision with: 1 1 0  and 1 2 0 
64082281		 # 	collision with: 10 5 0  and 6 6 0 
64082283		 # 	collision with: 2 7 0  and 0 1 1 
64082289		 # 	collision with: 0 2 0  and 8 4 0 
64082291		 # 	collision with: 5 0 0  and 1 2 0 
64082313		 # 	collision with: 3 2 0  and 2 0 1 
64082315		 # 	collision with: 3 1 0  and 1 0 1 
64082385		 # 	collision with: 3 6 0  and 4 6 0 
64082387		 # 	collision with: 7 1 0  and 4 2 0 
64082409		 # 	collision with: 8 5 0  and 4 6 0 
64082411		 # 	collision with: 5 6 0  and 9 1 1 
64082417		 # 	collision with: 7 0 0  and 7 1 0 
64082419		 # 	collision with: 9 5 0  and 0 1 1 
64082461		 # 	collision with: 10 1 0  and 10 2 0 
64082463		 # 	collision with: 9 0 0  and 5 1 0 
64082465		 # 	collision with: 5 6 0  and 9 1 1 
64082467		 # 	collision with: 1 5 0  and 3 5 0 
64082568		 # 	collision with: 8 2 0  and 10 3 0 
64082570		 # 	collision with: 6 0 0  and 2 1 0 
64082577		 # 	collision with: 6 0 0  and 10 1 0 
64082579		 # 	collision with: 0 6 0  and 1 0 1 
64082605		 # 	collision with: 4 3 0  and 9 0 1 
64082607		 # 	collision with: 0 0 0  and 1 1 1 
64082717		 # 	collision with: 2 9 0  and 1 0 1 
64082719		 # 	collision with: 0 4 0  and 10 6 0 
64082721		 # 	collision with: 3 1 0  and 2 2 0 
64082723		 # 	collision with: 0 0 0  and 2 2 0 
64082765		 # 	collision with: 5 5 0  and 1 6 0 
64082767		 # 	collision with: 8 2 0  and 3 3 0 
64082773		 # 	collision with: 5 2 0  and 9 3 0 
64082775		 # 	collision with: 2 4 0  and 5 5 0 
64082797		 # 	collision with: 3 6 0  and 4 0 1 
64082799		 # 	collision with: 1 1 0  and 2 1 0 
64082869		 # 	collision with: 1 5 0  and 3 5 0 
64082871		 # 	collision with: 7 3 0  and 7 4 0 
64082893		 # 	collision with: 7 5 0  and 3 6 0 
64082895		 # 	collision with: 6 7 0  and 8 1 1 
64082901		 # 	collision with: 4 4 0  and 4 6 0 
64082903		 # 	collision with: 2 3 0  and 9 5 0 
64082945		 # 	collision with: 1 3 0  and 1 5 0 
64082947		 # 	collision with: 0 2 0  and 1 4 0 
64082949		 # 	collision with: 5 10 0  and 3 1 1 
64082951		 # 	collision with: 8 6 0  and 1 0 1 
64083052		 # 	collision with: 3 1 0  and 7 3 0 
64083054		 # 	collision with: 0 4 0  and 10 6 0 
64083061		 # 	collision with: 0 1 0  and 4 2 0 
64083063		 # 	collision with: 6 4 0  and 1 6 0 
64083089		 # 	collision with: 0 0 0  and 1 1 1 
64083201		 # 	collision with: 3 8 0  and 3 1 1 
64083203		 # 	collision with: 5 2 1  and 10 3 1 
64083205		 # 	collision with: 8 4 0  and 7 5 0 
64083207		 # 	collision with: 0 2 0  and 10 3 0 
64083249		 # 	collision with: 0 5 0  and 7 6 0 
64083251		 # 	collision with: 8 1 0  and 1 3 0 
64083257		 # 	collision with: 6 1 0  and 3 3 0 
64083259		 # 	collision with: 3 0 0  and 4 1 0 
64083281		 # 	collision with: 7 3 0  and 2 0 1 
64083353		 # 	collision with: 0 4 0  and 1 4 0 
64083355		 # 	collision with: 5 3 0  and 8 1 1 
64083377		 # 	collision with: 6 5 0  and 2 6 0 
64083379		 # 	collision with: 4 1 0  and 0 3 0 
64083385		 # 	collision with: 1 3 0  and 1 5 0 
64083387		 # 	collision with: 9 0 0  and 10 2 0 
64083429		 # 	collision with: 3 0 0  and 3 2 0 
64083431		 # 	collision with: 7 8 0  and 5 2 1 
64083433		 # 	collision with: 9 10 0  and 8 0 1 
64083435		 # 	collision with: 6 4 0  and 4 5 0 
64083536		 # 	collision with: 0 1 0  and 2 2 0 
64083538		 # 	collision with: 10 3 0  and 0 4 0 
64083545		 # 	collision with: 5 2 0  and 9 3 0 
64083547		 # 	collision with: 0 5 0  and 8 0 1 
64083573		 # 	collision with: 5 9 0  and 6 0 1 
64083575		 # 	collision with: 1 1 0  and 5 2 0 
64083685		 # 	collision with: 1 10 0  and 3 0 1 
64083687		 # 	collision with: 9 0 0  and 5 1 0 
64083689		 # 	collision with: 8 1 0  and 6 3 0 
64083691		 # 	collision with: 5 5 0  and 4 6 0 
64083733		 # 	collision with: 6 5 0  and 2 6 0 
64083741		 # 	collision with: 0 1 0  and 4 2 0 
64083743		 # 	collision with: 2 7 0  and 2 2 1 
64083765		 # 	collision with: 3 1 0  and 10 0 1 
64083767		 # 	collision with: 3 6 0  and 10 0 1 
64083837		 # 	collision with: 4 3 0  and 5 3 0 
64083839		 # 	collision with: 7 5 0  and 1 1 1 
64083861		 # 	collision with: 5 5 0  and 1 6 0 
64083863		 # 	collision with: 5 4 0  and 6 5 0 
64083869		 # 	collision with: 9 2 0  and 9 4 0 
64083871		 # 	collision with: 6 0 0  and 1 2 0 
64083913		 # 	collision with: 5 3 0  and 5 4 0 
64083917		 # 	collision with: 3 1 0  and 2 0 1 
64083919		 # 	collision with: 2 0 0  and 9 1 0 
64084020		 # 	collision with: 6 0 0  and 10 2 0 
64084022		 # 	collision with: 8 3 0  and 2 5 0 
64084029		 # 	collision with: 10 3 0  and 3 4 0 
64084031		 # 	collision with: 3 0 0  and 10 1 0 
64084057		 # 	collision with: 10 7 0  and 6 2 1 
64084059		 # 	collision with: 2 2 0  and 4 2 0 
64084169		 # 	collision with: 1 2 0  and 2 0 1 
64084171		 # 	collision with: 5 2 0  and 9 4 0 
64084173		 # 	collision with: 2 4 0  and 0 6 0 
64084175		 # 	collision with: 2 0 0  and 9 1 0 
64084217		 # 	collision with: 1 5 0  and 8 6 0 
64084219		 # 	collision with: 2 3 0  and 5 4 0 
64084225		 # 	collision with: 3 6 0  and 7 7 0 
64084227		 # 	collision with: 7 8 0  and 1 1 1 
64084249		 # 	collision with: 0 0 0  and 1 1 1 
64084251		 # 	collision with: 5 1 0  and 7 2 0 
64084321		 # 	collision with: 2 2 0  and 4 2 0 
64084323		 # 	collision with: 3 1 0  and 0 0 1 
64084345		 # 	collision with: 4 5 0  and 0 6 0 
64084347		 # 	collision with: 10 5 0  and 4 6 0 
64084353		 # 	collision with: 6 1 0  and 6 3 0 
64084355		 # 	collision with: 3 10 0  and 5 10 0 
64084397		 # 	collision with: 7 0 0  and 7 1 0 
64084399		 # 	collision with: 3 2 0  and 2 4 0 
64084401		 # 	collision with: 7 2 0  and 6 1 1 
64084403		 # 	collision with: 1 10 0  and 10 0 1 
64084504		 # 	collision with: 3 0 0  and 5 1 0 
64084506		 # 	collision with: 1 4 0  and 8 6 0 
64084513		 # 	collision with: 4 4 0  and 8 5 0 
64084515		 # 	collision with: 3 2 0  and 10 4 0 
64084541		 # 	collision with: 5 0 0  and 7 3 1 
64084543		 # 	collision with: 2 4 0  and 10 5 0 
64084653		 # 	collision with: 6 1 0  and 1 1 1 
64084655		 # 	collision with: 4 7 0  and 4 1 1 
64084657		 # 	collision with: 1 2 0  and 0 3 0 
64084659		 # 	collision with: 4 0 0  and 3 1 0 
64084701		 # 	collision with: 7 5 0  and 3 6 0 
64084703		 # 	collision with: 6 4 0  and 0 5 0 
64084709		 # 	collision with: 6 0 0  and 10 1 0 
64084711		 # 	collision with: 1 4 0  and 4 0 1 
64084733		 # 	collision with: 4 4 0  and 2 1 1 
64084735		 # 	collision with: 3 3 0  and 3 5 0 
64084805		 # 	collision with: 1 1 0  and 2 1 0 
64084807		 # 	collision with: 3 0 0  and 4 1 0 
64084829		 # 	collision with: 3 5 0  and 10 6 0 
64084837		 # 	collision with: 3 0 0  and 3 2 0 
64084839		 # 	collision with: 3 10 0  and 8 0 1 
64084881		 # 	collision with: 9 2 0  and 9 4 0 
64084883		 # 	collision with: 1 5 0  and 3 5 0 
64084885		 # 	collision with: 4 5 0  and 2 1 1 
64085051		 # 	collision with: 2 2 0  and 5 4 0 
64085058		 # 	collision with: 0 8 0  and 6 0 1 
64085066		 # 	collision with: 8 3 0  and 0 0 1 
64085082		 # 	collision with: 5 8 0  and 9 1 1 
64085087		 # 	collision with: 3 2 0  and 6 3 0 
64085095		 # 	collision with: 5 8 0  and 6 0 1 
64085098		 # 	collision with: 8 0 0  and 6 1 0 
64085130		 # 	collision with: 7 1 0  and 4 2 0 
64085150		 # 	collision with: 10 2 0  and 7 0 1 
64085174		 # 	collision with: 0 5 0  and 8 0 1 
64085206		 # 	collision with: 8 2 0  and 3 3 0 
64085219		 # 	collision with: 2 4 0  and 4 0 1 
64085238		 # 	collision with: 1 1 0  and 3 2 0 
64085242		 # 	collision with: 10 9 0  and 4 2 1 
64085266		 # 	collision with: 8 4 0  and 4 0 1 
64085270		 # 	collision with: 2 4 0  and 3 5 0 
64085291		 # 	collision with: 4 5 0  and 6 5 0 
64085302		 # 	collision with: 8 2 0  and 6 4 0 
64085334		 # 	collision with: 9 4 0  and 0 5 0 
64085358		 # 	collision with: 1 1 0  and 1 0 1 
64085378		 # 	collision with: 9 1 0  and 1 0 1 
64085410		 # 	collision with: 0 0 0  and 5 1 0 
64085415		 # 	collision with: 3 1 0  and 6 2 0 
64085423		 # 	collision with: 1 2 0  and 3 2 0 
64085426		 # 	collision with: 4 2 0  and 0 4 0 
64085442		 # 	collision with: 3 3 0  and 6 4 0 
64085450		 # 	collision with: 9 3 0  and 2 0 1 
64085459		 # 	collision with: 9 4 0  and 1 4 1 
64085472		 # 	collision with: 3 4 0  and 9 5 0 
64085474		 # 	collision with: 7 2 0  and 3 3 0 
64085533		 # 	collision with: 5 4 0  and 9 5 0 
64085535		 # 	collision with: 1 4 0  and 2 5 0 
64085540		 # 	collision with: 3 4 0  and 9 5 0 
64085542		 # 	collision with: 6 7 0  and 5 0 1 
64085548		 # 	collision with: 3 4 0  and 9 5 0 
64085550		 # 	collision with: 3 4 0  and 5 4 0 
64085557		 # 	collision with: 8 1 0  and 8 0 1 
64085559		 # 	collision with: 3 2 0  and 6 3 0 
64085564		 # 	collision with: 8 2 0  and 5 3 0 
64085566		 # 	collision with: 5 0 0  and 5 2 0 
64085569		 # 	collision with: 6 9 0  and 2 0 1 
64085571		 # 	collision with: 10 1 0  and 6 2 0 
64085577		 # 	collision with: 1 3 0  and 2 0 1 
64085579		 # 	collision with: 7 0 0  and 2 2 0 
64085580		 # 	collision with: 3 4 0  and 9 5 0 
64085582		 # 	collision with: 7 1 0  and 4 2 0 
64085612		 # 	collision with: 3 4 0  and 9 5 0 
64085614		 # 	collision with: 10 6 0  and 2 0 1 
64085632		 # 	collision with: 4 0 0  and 7 1 0 
64085634		 # 	collision with: 10 1 0  and 10 0 1 
64085656		 # 	collision with: 3 4 0  and 1 5 0 
64085658		 # 	collision with: 3 4 0  and 6 5 0 
64085688		 # 	collision with: 0 1 0  and 2 1 0 
64085690		 # 	collision with: 3 1 0  and 9 2 0 
64085701		 # 	collision with: 6 2 0  and 9 4 0 
64085703		 # 	collision with: 5 5 0  and 8 0 1 
64085720		 # 	collision with: 3 4 0  and 9 5 0 
64085724		 # 	collision with: 3 4 0  and 9 5 0 
64085726		 # 	collision with: 6 0 0  and 10 2 0 
64085748		 # 	collision with: 3 4 0  and 9 5 0 
64085750		 # 	collision with: 5 9 0  and 3 0 1 
64085752		 # 	collision with: 3 4 0  and 9 5 0 
64085754		 # 	collision with: 3 2 0  and 6 3 0 
64085773		 # 	collision with: 7 0 0  and 7 1 0 
64085775		 # 	collision with: 8 4 0  and 1 5 0 
64085784		 # 	collision with: 0 2 0  and 10 3 0 
64085786		 # 	collision with: 7 5 0  and 6 6 0 
64085816		 # 	collision with: 3 0 0  and 3 2 0 
64085818		 # 	collision with: 10 2 0  and 2 0 1 
64085840		 # 	collision with: 7 1 0  and 0 3 0 
64085860		 # 	collision with: 8 3 0  and 4 4 0 
64085862		 # 	collision with: 2 4 0  and 7 5 0 
64085892		 # 	collision with: 1 3 0  and 3 4 0 
64085894		 # 	collision with: 6 4 0  and 6 6 0 
64085897		 # 	collision with: 2 3 0  and 0 0 1 
64085899		 # 	collision with: 9 0 0  and 1 2 1 
64085905		 # 	collision with: 9 2 0  and 9 4 0 
64085907		 # 	collision with: 3 0 0  and 7 1 0 
64085908		 # 	collision with: 2 3 0  and 1 4 0 
64085910		 # 	collision with: 10 1 0  and 9 2 0 
64085917		 # 	collision with: 5 9 0  and 1 0 1 
64085919		 # 	collision with: 9 1 0  and 9 0 1 
64085924		 # 	collision with: 3 4 0  and 9 5 0 
64085926		 # 	collision with: 9 5 0  and 7 6 0 
64085932		 # 	collision with: 3 4 0  and 9 5 0 
64085934		 # 	collision with: 7 1 0  and 0 2 0 
64085941		 # 	collision with: 8 2 0  and 5 4 0 
64085943		 # 	collision with: 9 5 0  and 7 6 0 
64085956		 # 	collision with: 9 3 0  and 4 4 0 
64085958		 # 	collision with: 4 2 0  and 8 4 0 
15.9359secs	10698
