# prime 11
# degree 2
# input variables 3
# output variables 3
# reload computed balance functions from file balance-2112of3248-p11d2m3-debug.log
# p = 11
# n = 3
# smalldomain p^m 1331
# domain p^n 1331
#	 p^2 = 121
#	 p^3 = 1331
#	 p^4 = 14641
#	 p^5 = 161051
#	 p^6 = 1771561
#	 p^7 = 19487171
#	 p^8 = 214358881
#	 p^9 = 2357947691
opening file : balance-2112of3248-p11d2m3-debug.log
reloading for step2...
12672016		 # 	collision with: 6 2 0  and 2 4 0 
12672017		 # 	collision with: 3 9 0  and 4 9 0 
12672018		 # 	collision with: 3 3 0  and 8 5 0 
12672019		 # 	collision with: 3 2 0  and 2 3 0 
12672052		 # 	collision with: 2 3 0  and 1 5 0 
12672053		 # 	collision with: 1 1 0  and 9 0 1 
12672054		 # 	collision with: 1 1 0  and 1 2 0 
12672055		 # 	collision with: 3 2 0  and 2 3 0 
12672088		 # 	collision with: 4 0 0  and 10 2 0 
12672089		 # 	collision with: 5 4 0  and 5 5 0 
12672090		 # 	collision with: 9 1 0  and 10 2 0 
12672091		 # 	collision with: 8 4 0  and 8 5 0 
12672168		 # 	collision with: 6 0 0  and 3 1 0 
12672169		 # 	collision with: 9 5 0  and 7 6 0 
12672170		 # 	collision with: 9 1 0  and 10 2 0 
12672171		 # 	collision with: 1 1 0  and 10 2 0 
12672204		 # 	collision with: 7 2 0  and 6 4 0 
12672205		 # 	collision with: 3 3 0  and 1 0 1 
12672206		 # 	collision with: 9 1 0  and 10 2 0 
12672207		 # 	collision with: 10 10 0  and 0 0 1 
12672240		 # 	collision with: 4 5 0  and 1 0 1 
12672241		 # 	collision with: 7 2 0  and 6 4 0 
12672242		 # 	collision with: 9 1 0  and 10 2 0 
12672243		 # 	collision with: 10 8 0  and 3 0 1 
12672276		 # 	collision with: 6 2 0  and 2 4 0 
12672277		 # 	collision with: 9 8 0  and 1 0 1 
12672278		 # 	collision with: 9 1 0  and 10 2 0 
12672279		 # 	collision with: 2 2 0  and 6 3 0 
12672312		 # 	collision with: 9 9 0  and 3 0 1 
12672313		 # 	collision with: 4 0 0  and 10 1 1 
12672314		 # 	collision with: 9 1 0  and 10 2 0 
12672315		 # 	collision with: 6 5 0  and 5 1 1 
12672392		 # 	collision with: 10 8 0  and 9 0 1 
12672393		 # 	collision with: 7 1 0  and 6 2 0 
12672394		 # 	collision with: 9 1 0  and 10 2 0 
12672395		 # 	collision with: 3 2 0  and 2 4 0 
12672428		 # 	collision with: 8 10 0  and 10 0 1 
12672429		 # 	collision with: 5 4 0  and 9 5 0 
12672430		 # 	collision with: 7 0 0  and 9 1 0 
12672431		 # 	collision with: 9 1 0  and 1 2 0 
12672464		 # 	collision with: 6 3 0  and 4 5 0 
12672465		 # 	collision with: 8 8 0  and 8 1 1 
12672466		 # 	collision with: 9 1 0  and 10 2 0 
12672467		 # 	collision with: 10 3 0  and 0 4 0 
12672500		 # 	collision with: 6 4 0  and 3 6 0 
12672501		 # 	collision with: 5 2 0  and 0 4 0 
12672502		 # 	collision with: 9 1 0  and 10 2 0 
12672503		 # 	collision with: 10 4 0  and 7 5 0 
12672536		 # 	collision with: 2 3 0  and 2 5 0 
12672537		 # 	collision with: 2 7 0  and 3 0 1 
12672538		 # 	collision with: 2 0 0  and 9 1 0 
12672539		 # 	collision with: 8 5 0  and 3 0 1 
12672572		 # 	collision with: 10 10 0  and 1 0 1 
12672573		 # 	collision with: 7 1 0  and 1 0 1 
12672574		 # 	collision with: 6 4 0  and 3 3 1 
12672575		 # 	collision with: 2 0 0  and 9 1 0 
12672652		 # 	collision with: 2 4 0  and 0 1 1 
12672653		 # 	collision with: 4 1 0  and 6 1 0 
12672654		 # 	collision with: 2 3 0  and 2 0 1 
12672655		 # 	collision with: 0 5 0  and 1 6 0 
12672688		 # 	collision with: 5 0 0  and 10 2 0 
12672689		 # 	collision with: 10 10 0  and 0 0 1 
12672690		 # 	collision with: 8 1 0  and 5 3 0 
12672691		 # 	collision with: 7 2 0  and 7 3 0 
12672724		 # 	collision with: 1 6 0  and 3 6 0 
12672725		 # 	collision with: 0 0 0  and 5 1 0 
12672726		 # 	collision with: 8 2 0  and 4 0 1 
12672727		 # 	collision with: 2 1 0  and 5 3 0 
12672760		 # 	collision with: 10 1 0  and 7 0 1 
12672761		 # 	collision with: 9 2 0  and 1 3 0 
12672762		 # 	collision with: 5 4 0  and 6 5 0 
12672763		 # 	collision with: 10 5 0  and 6 6 0 
12672796		 # 	collision with: 6 0 0  and 6 2 0 
12672797		 # 	collision with: 9 5 0  and 7 6 0 
12672798		 # 	collision with: 8 2 0  and 1 3 1 
12672799		 # 	collision with: 1 1 0  and 10 2 0 
12672876		 # 	collision with: 2 3 0  and 3 4 0 
12672877		 # 	collision with: 5 1 0  and 3 3 0 
12672878		 # 	collision with: 5 4 0  and 8 5 0 
12672879		 # 	collision with: 7 0 0  and 1 1 0 
12672912		 # 	collision with: 6 2 0  and 7 1 1 
12672913		 # 	collision with: 10 2 0  and 2 0 1 
12672914		 # 	collision with: 9 0 0  and 9 2 0 
12672915		 # 	collision with: 10 0 0  and 5 2 0 
12672948		 # 	collision with: 3 0 0  and 7 1 0 
12672949		 # 	collision with: 1 1 0  and 2 2 0 
12672950		 # 	collision with: 0 2 0  and 7 4 0 
12672951		 # 	collision with: 3 3 0  and 6 5 0 
12672984		 # 	collision with: 2 6 0  and 3 0 1 
12672985		 # 	collision with: 4 2 0  and 4 3 0 
12672986		 # 	collision with: 1 8 0  and 1 0 1 
12672987		 # 	collision with: 8 2 0  and 0 4 0 
12673020		 # 	collision with: 6 2 0  and 2 4 0 
12673021		 # 	collision with: 9 1 0  and 2 2 0 
12673022		 # 	collision with: 2 0 0  and 1 2 0 
12673023		 # 	collision with: 7 0 0  and 10 2 0 
12673056		 # 	collision with: 2 4 0  and 1 0 1 
12673057		 # 	collision with: 0 3 0  and 8 5 0 
12673058		 # 	collision with: 3 3 0  and 5 4 0 
12673059		 # 	collision with: 1 4 0  and 0 0 1 
12673136		 # 	collision with: 4 6 0  and 1 0 1 
12673137		 # 	collision with: 2 3 0  and 3 4 0 
12673138		 # 	collision with: 3 3 0  and 5 4 0 
12673139		 # 	collision with: 6 0 0  and 6 1 0 
12673172		 # 	collision with: 3 0 0  and 5 2 0 
12673173		 # 	collision with: 3 0 0  and 3 1 0 
12673174		 # 	collision with: 3 3 0  and 5 4 0 
12673175		 # 	collision with: 3 1 0  and 0 2 0 
12673208		 # 	collision with: 9 1 0  and 2 2 0 
12673209		 # 	collision with: 10 1 0  and 5 3 0 
12673210		 # 	collision with: 3 2 0  and 0 4 0 
12673211		 # 	collision with: 5 4 0  and 3 0 1 
12673244		 # 	collision with: 10 3 0  and 10 4 0 
12673245		 # 	collision with: 4 5 0  and 3 0 1 
12673246		 # 	collision with: 6 1 0  and 8 3 0 
12673247		 # 	collision with: 0 0 0  and 1 1 1 
12673280		 # 	collision with: 6 2 0  and 2 4 0 
12673281		 # 	collision with: 8 8 0  and 9 3 1 
12673282		 # 	collision with: 10 0 0  and 5 2 0 
12673283		 # 	collision with: 0 0 1  and 3 2 1 
12673360		 # 	collision with: 5 9 0  and 4 0 1 
12673361		 # 	collision with: 2 2 0  and 1 3 0 
12673362		 # 	collision with: 3 3 0  and 5 4 0 
12673363		 # 	collision with: 6 1 0  and 8 3 0 
12673396		 # 	collision with: 10 2 0  and 5 0 1 
12673397		 # 	collision with: 3 10 0  and 7 1 1 
12673398		 # 	collision with: 3 3 0  and 5 4 0 
12673399		 # 	collision with: 3 0 0  and 6 1 0 
12673432		 # 	collision with: 6 0 0  and 5 2 0 
12673433		 # 	collision with: 1 3 0  and 6 5 0 
12673434		 # 	collision with: 0 0 0  and 9 2 0 
12673435		 # 	collision with: 4 5 0  and 6 6 0 
12673468		 # 	collision with: 8 4 0  and 10 1 1 
12673469		 # 	collision with: 9 5 0  and 7 6 0 
12673470		 # 	collision with: 2 3 0  and 2 4 0 
12673471		 # 	collision with: 1 1 0  and 10 2 0 
12673504		 # 	collision with: 5 9 0  and 8 3 1 
12673505		 # 	collision with: 7 5 0  and 4 1 1 
12673506		 # 	collision with: 3 3 0  and 5 4 0 
12673507		 # 	collision with: 8 1 0  and 5 3 0 
12673540		 # 	collision with: 4 1 0  and 0 2 0 
12673541		 # 	collision with: 10 9 0  and 5 0 1 
12673542		 # 	collision with: 0 2 0  and 7 4 0 
12673543		 # 	collision with: 3 5 0  and 0 1 1 
12673620		 # 	collision with: 5 4 0  and 8 6 0 
12673621		 # 	collision with: 3 1 0  and 6 2 0 
12673622		 # 	collision with: 6 0 0  and 6 1 0 
12673623		 # 	collision with: 9 0 0  and 2 2 0 
12673656		 # 	collision with: 3 0 0  and 3 1 0 
12673657		 # 	collision with: 9 5 0  and 7 6 0 
12673658		 # 	collision with: 0 4 0  and 2 4 0 
12673659		 # 	collision with: 1 1 0  and 10 2 0 
12673692		 # 	collision with: 9 1 0  and 1 3 0 
12673693		 # 	collision with: 6 0 0  and 5 2 0 
12673694		 # 	collision with: 8 0 0  and 5 1 0 
12673695		 # 	collision with: 7 3 0  and 9 5 0 
12673728		 # 	collision with: 6 5 0  and 2 6 0 
12673729		 # 	collision with: 0 0 0  and 1 1 1 
12673730		 # 	collision with: 2 4 0  and 4 6 0 
12673731		 # 	collision with: 5 3 0  and 5 5 0 
12673764		 # 	collision with: 3 1 0  and 6 2 0 
12673765		 # 	collision with: 7 2 0  and 4 3 0 
12673766		 # 	collision with: 10 4 0  and 6 1 1 
12673767		 # 	collision with: 8 1 0  and 8 0 1 
12673844		 # 	collision with: 1 5 0  and 2 5 0 
12673845		 # 	collision with: 4 0 0  and 1 2 0 
12673846		 # 	collision with: 3 6 0  and 7 0 1 
12673847		 # 	collision with: 2 0 0  and 1 2 0 
12673880		 # 	collision with: 3 0 0  and 6 2 0 
12673881		 # 	collision with: 6 4 0  and 3 0 1 
12673882		 # 	collision with: 0 2 0  and 6 4 0 
12673883		 # 	collision with: 5 5 0  and 2 6 0 
12673916		 # 	collision with: 9 0 0  and 5 1 0 
12673917		 # 	collision with: 8 8 0  and 3 0 1 
12673918		 # 	collision with: 4 4 0  and 3 5 0 
12673919		 # 	collision with: 3 4 0  and 7 5 0 
12673952		 # 	collision with: 10 2 0  and 6 3 0 
12673953		 # 	collision with: 7 3 0  and 3 0 1 
12673954		 # 	collision with: 9 3 0  and 6 5 0 
12673955		 # 	collision with: 5 9 0  and 0 1 1 
12673988		 # 	collision with: 10 3 0  and 2 5 0 
12673989		 # 	collision with: 0 2 0  and 4 4 0 
12673990		 # 	collision with: 9 1 0  and 9 1 1 
12673991		 # 	collision with: 2 2 0  and 10 0 1 
12674024		 # 	collision with: 7 1 0  and 7 0 1 
12674025		 # 	collision with: 4 1 0  and 4 0 1 
12674026		 # 	collision with: 3 2 0  and 2 3 0 
12674027		 # 	collision with: 3 3 0  and 8 5 0 
12674104		 # 	collision with: 4 3 0  and 7 4 0 
12674105		 # 	collision with: 1 1 0  and 1 3 0 
12674106		 # 	collision with: 3 2 0  and 2 3 0 
12674107		 # 	collision with: 3 1 0  and 5 2 1 
12674140		 # 	collision with: 10 3 0  and 3 4 0 
12674141		 # 	collision with: 3 9 0  and 7 0 1 
12674142		 # 	collision with: 3 2 0  and 2 3 0 
12674143		 # 	collision with: 5 3 0  and 1 0 1 
12674176		 # 	collision with: 7 2 0  and 4 3 0 
12674177		 # 	collision with: 9 1 0  and 0 3 0 
12674178		 # 	collision with: 3 2 0  and 2 3 0 
12674179		 # 	collision with: 0 3 0  and 1 3 0 
12674212		 # 	collision with: 7 7 0  and 0 0 1 
12674213		 # 	collision with: 6 3 0  and 10 5 0 
12674214		 # 	collision with: 3 2 0  and 2 3 0 
12674215		 # 	collision with: 3 0 0  and 9 3 1 
12674248		 # 	collision with: 9 2 0  and 0 3 0 
12674249		 # 	collision with: 8 8 0  and 0 0 1 
12674250		 # 	collision with: 3 2 0  and 2 3 0 
12674251		 # 	collision with: 3 5 0  and 2 0 1 
12674328		 # 	collision with: 6 2 0  and 2 4 0 
12674329		 # 	collision with: 4 0 0  and 10 2 0 
12674330		 # 	collision with: 3 2 0  and 2 3 0 
12674331		 # 	collision with: 1 1 0  and 10 2 0 
12674364		 # 	collision with: 7 2 0  and 7 4 0 
12674365		 # 	collision with: 5 0 0  and 10 2 0 
12674366		 # 	collision with: 9 0 0  and 2 2 0 
12674367		 # 	collision with: 1 4 0  and 7 6 0 
12674400		 # 	collision with: 1 1 0  and 2 2 0 
12674401		 # 	collision with: 10 1 0  and 8 0 1 
12674402		 # 	collision with: 3 2 0  and 2 3 0 
12674403		 # 	collision with: 5 1 0  and 5 0 1 
12674436		 # 	collision with: 3 9 0  and 1 0 1 
12674437		 # 	collision with: 6 9 0  and 10 1 1 
12674438		 # 	collision with: 3 2 0  and 2 3 0 
12674439		 # 	collision with: 7 1 0  and 0 2 0 
12674472		 # 	collision with: 1 9 0  and 9 0 1 
12674473		 # 	collision with: 8 10 0  and 4 0 1 
12674474		 # 	collision with: 7 0 0  and 1 2 0 
12674475		 # 	collision with: 3 0 0  and 4 1 0 
12674508		 # 	collision with: 6 2 0  and 0 4 0 
12674509		 # 	collision with: 1 1 0  and 1 0 1 
12674510		 # 	collision with: 1 3 0  and 3 0 1 
12674511		 # 	collision with: 4 2 0  and 5 3 0 
12674588		 # 	collision with: 6 2 0  and 2 4 0 
12674589		 # 	collision with: 3 0 0  and 7 1 0 
12674590		 # 	collision with: 9 1 0  and 1 2 0 
12674591		 # 	collision with: 7 9 0  and 10 1 1 
12674624		 # 	collision with: 10 8 0  and 1 2 1 
12674625		 # 	collision with: 1 4 0  and 5 6 0 
12674626		 # 	collision with: 3 1 0  and 0 2 0 
12674627		 # 	collision with: 10 2 0  and 3 4 0 
12674660		 # 	collision with: 2 9 0  and 7 0 1 
12674661		 # 	collision with: 6 1 0  and 0 2 0 
12674662		 # 	collision with: 0 3 0  and 1 3 0 
12674663		 # 	collision with: 0 4 0  and 9 0 1 
12674696		 # 	collision with: 5 6 0  and 0 1 1 
12674697		 # 	collision with: 2 7 0  and 3 7 0 
12674698		 # 	collision with: 8 2 0  and 2 3 0 
12674699		 # 	collision with: 6 8 0  and 7 1 1 
12674732		 # 	collision with: 0 4 0  and 2 4 0 
12674733		 # 	collision with: 7 2 0  and 8 1 1 
12674734		 # 	collision with: 3 5 0  and 3 6 0 
12674735		 # 	collision with: 3 5 0  and 3 6 0 
12674812		 # 	collision with: 7 3 0  and 1 4 0 
12674813		 # 	collision with: 6 3 0  and 4 5 0 
12674814		 # 	collision with: 7 3 0  and 10 0 1 
12674815		 # 	collision with: 2 1 0  and 7 2 0 
12674848		 # 	collision with: 3 1 1  and 5 1 1 
12674849		 # 	collision with: 7 5 0  and 1 2 1 
12674850		 # 	collision with: 8 2 0  and 10 3 0 
12674851		 # 	collision with: 5 4 0  and 8 5 0 
12674884		 # 	collision with: 1 4 0  and 10 6 0 
12674885		 # 	collision with: 4 3 0  and 4 4 1 
12674886		 # 	collision with: 2 0 0  and 1 1 0 
12674887		 # 	collision with: 7 9 0  and 5 0 1 
12674920		 # 	collision with: 5 5 0  and 8 6 0 
12674921		 # 	collision with: 1 8 0  and 10 0 1 
12674922		 # 	collision with: 2 1 1  and 1 2 1 
12674923		 # 	collision with: 3 10 0  and 5 10 0 
12674956		 # 	collision with: 8 4 0  and 9 5 0 
12674957		 # 	collision with: 10 3 0  and 1 5 0 
12674958		 # 	collision with: 5 7 0  and 9 1 1 
12674959		 # 	collision with: 1 1 0  and 10 2 0 
12674992		 # 	collision with: 1 1 0  and 1 0 1 
12674993		 # 	collision with: 6 0 0  and 7 1 0 
12674994		 # 	collision with: 2 1 0  and 7 3 0 
12674995		 # 	collision with: 9 10 0  and 6 1 1 
12675072		 # 	collision with: 0 10 0  and 6 1 1 
12675073		 # 	collision with: 8 0 0  and 10 1 0 
12675074		 # 	collision with: 7 1 0  and 0 2 0 
12675075		 # 	collision with: 1 6 0  and 3 6 0 
12675108		 # 	collision with: 5 5 0  and 7 6 0 
12675109		 # 	collision with: 5 1 0  and 8 0 1 
12675110		 # 	collision with: 7 2 0  and 7 3 0 
12675111		 # 	collision with: 10 6 0  and 1 4 1 
12675144		 # 	collision with: 10 1 0  and 5 3 0 
12675145		 # 	collision with: 2 4 0  and 7 5 0 
12675146		 # 	collision with: 3 8 0  and 4 0 1 
12675147		 # 	collision with: 1 1 0  and 10 2 0 
12675180		 # 	collision with: 6 8 0  and 5 0 1 
12675181		 # 	collision with: 10 3 0  and 10 4 0 
12675182		 # 	collision with: 1 2 0  and 3 4 0 
12675183		 # 	collision with: 10 7 0  and 9 0 1 
12675216		 # 	collision with: 9 1 0  and 0 3 0 
12675217		 # 	collision with: 1 7 0  and 1 0 1 
12675218		 # 	collision with: 9 3 0  and 7 0 1 
12675219		 # 	collision with: 5 3 0  and 9 5 0 
12675296		 # 	collision with: 2 3 0  and 10 4 0 
12675297		 # 	collision with: 3 4 0  and 2 5 0 
12675298		 # 	collision with: 2 8 0  and 4 8 0 
12675299		 # 	collision with: 2 0 0  and 1 1 0 
12675332		 # 	collision with: 6 2 0  and 2 4 0 
12675333		 # 	collision with: 0 3 0  and 1 3 0 
12675334		 # 	collision with: 5 3 0  and 9 5 0 
12675335		 # 	collision with: 2 0 0  and 10 2 0 
12675368		 # 	collision with: 0 2 0  and 9 4 0 
12675369		 # 	collision with: 5 5 0  and 8 6 0 
12675370		 # 	collision with: 2 1 0  and 7 2 0 
12675371		 # 	collision with: 1 2 0  and 10 0 1 
12675404		 # 	collision with: 4 2 0  and 4 3 0 
12675405		 # 	collision with: 5 2 0  and 2 4 0 
12675406		 # 	collision with: 2 1 0  and 2 0 1 
12675407		 # 	collision with: 2 3 0  and 2 4 0 
12675440		 # 	collision with: 0 5 0  and 4 6 0 
12675441		 # 	collision with: 2 3 0  and 10 4 0 
12675442		 # 	collision with: 0 2 0  and 7 4 0 
12675443		 # 	collision with: 1 3 0  and 2 0 1 
12675476		 # 	collision with: 1 2 0  and 2 0 1 
12675477		 # 	collision with: 6 1 0  and 6 0 1 
12675478		 # 	collision with: 10 7 0  and 6 0 1 
12675479		 # 	collision with: 10 3 0  and 2 4 0 
12675556		 # 	collision with: 6 1 0  and 0 2 0 
12675557		 # 	collision with: 0 1 0  and 5 3 0 
12675558		 # 	collision with: 7 0 0  and 1 1 0 
12675559		 # 	collision with: 10 3 0  and 2 4 0 
12675592		 # 	collision with: 6 2 0  and 2 4 0 
12675593		 # 	collision with: 6 4 0  and 1 6 0 
12675594		 # 	collision with: 4 4 0  and 5 0 1 
12675595		 # 	collision with: 10 3 0  and 2 4 0 
12675628		 # 	collision with: 8 4 0  and 8 6 0 
12675629		 # 	collision with: 1 1 0  and 0 3 0 
12675630		 # 	collision with: 4 9 0  and 5 0 1 
12675631		 # 	collision with: 10 3 0  and 2 4 0 
12675664		 # 	collision with: 4 0 0  and 1 2 0 
12675665		 # 	collision with: 0 5 0  and 4 6 0 
12675666		 # 	collision with: 3 0 0  and 4 1 0 
12675667		 # 	collision with: 0 0 0  and 2 2 0 
12675700		 # 	collision with: 8 3 0  and 1 1 1 
12675701		 # 	collision with: 7 1 0  and 10 0 1 
12675702		 # 	collision with: 5 2 0  and 6 2 0 
12675703		 # 	collision with: 5 2 0  and 6 2 0 
12675780		 # 	collision with: 1 10 0  and 10 1 1 
12675781		 # 	collision with: 9 1 0  and 9 2 0 
12675782		 # 	collision with: 0 2 0  and 7 4 0 
12675783		 # 	collision with: 0 0 0  and 9 2 0 
12675816		 # 	collision with: 0 3 0  and 1 3 0 
12675817		 # 	collision with: 3 1 0  and 5 2 0 
12675818		 # 	collision with: 2 2 0  and 6 3 0 
12675819		 # 	collision with: 1 1 0  and 10 2 0 
12675852		 # 	collision with: 10 0 0  and 8 2 0 
12675853		 # 	collision with: 3 10 0  and 5 10 0 
12675854		 # 	collision with: 6 1 0  and 4 3 0 
12675855		 # 	collision with: 10 3 0  and 2 4 0 
12675888		 # 	collision with: 3 1 0  and 5 2 0 
12675889		 # 	collision with: 1 4 0  and 4 0 1 
12675890		 # 	collision with: 1 4 0  and 6 0 1 
12675891		 # 	collision with: 10 3 0  and 2 4 0 
12675924		 # 	collision with: 6 4 0  and 9 1 1 
12675925		 # 	collision with: 7 7 0  and 9 0 1 
12675926		 # 	collision with: 9 10 0  and 6 1 1 
12675927		 # 	collision with: 1 1 0  and 1 2 0 
12675960		 # 	collision with: 6 1 0  and 6 0 1 
12675961		 # 	collision with: 9 2 0  and 0 3 0 
12675962		 # 	collision with: 0 2 0  and 5 2 1 
12675963		 # 	collision with: 1 1 0  and 10 2 0 
12676040		 # 	collision with: 1 1 0  and 1 3 0 
12676041		 # 	collision with: 9 8 0  and 7 0 1 
12676042		 # 	collision with: 7 1 0  and 7 0 1 
12676043		 # 	collision with: 10 5 0  and 7 7 0 
12676076		 # 	collision with: 2 8 0  and 4 8 0 
12676077		 # 	collision with: 9 4 0  and 7 0 1 
12676078		 # 	collision with: 0 2 0  and 7 4 0 
12676079		 # 	collision with: 10 5 0  and 2 0 1 
12676112		 # 	collision with: 7 2 0  and 8 3 0 
12676113		 # 	collision with: 1 6 0  and 3 6 0 
12676114		 # 	collision with: 4 1 0  and 4 3 0 
12676115		 # 	collision with: 6 4 0  and 4 0 1 
12676148		 # 	collision with: 0 0 0  and 5 1 0 
12676149		 # 	collision with: 8 4 0  and 9 5 0 
12676150		 # 	collision with: 10 3 0  and 0 4 0 
12676151		 # 	collision with: 4 3 0  and 1 4 0 
12676184		 # 	collision with: 8 6 0  and 0 0 1 
12676185		 # 	collision with: 4 2 0  and 8 3 0 
12676186		 # 	collision with: 4 4 0  and 3 6 0 
12676187		 # 	collision with: 3 1 0  and 10 0 1 
12676264		 # 	collision with: 0 2 0  and 4 4 0 
12676265		 # 	collision with: 9 5 0  and 8 6 0 
12676266		 # 	collision with: 5 0 0  and 10 1 1 
12676267		 # 	collision with: 7 0 0  and 9 1 0 
12676300		 # 	collision with: 9 9 0  and 0 0 1 
12676301		 # 	collision with: 7 10 0  and 9 0 1 
12676302		 # 	collision with: 2 1 0  and 4 2 0 
12676303		 # 	collision with: 0 2 0  and 6 4 0 
12676336		 # 	collision with: 6 2 0  and 2 4 0 
12676337		 # 	collision with: 2 9 0  and 7 0 1 
12676338		 # 	collision with: 8 3 0  and 1 4 0 
12676339		 # 	collision with: 10 5 0  and 1 1 1 
12676372		 # 	collision with: 3 8 0  and 2 0 1 
12676373		 # 	collision with: 6 0 0  and 3 1 0 
12676374		 # 	collision with: 5 1 0  and 0 3 0 
12676375		 # 	collision with: 1 2 0  and 3 4 0 
12676408		 # 	collision with: 8 4 0  and 5 5 0 
12676409		 # 	collision with: 9 6 0  and 9 0 1 
12676410		 # 	collision with: 1 3 0  and 7 0 1 
12676411		 # 	collision with: 4 1 0  and 4 0 1 
12676453		 # 	collision with: 2 0 0  and 5 1 0 
12676455		 # 	collision with: 1 2 0  and 7 4 0 
12676481		 # 	collision with: 5 4 0  and 4 5 0 
12676483		 # 	collision with: 7 2 0  and 0 4 0 
12676501		 # 	collision with: 3 0 0  and 5 1 0 
12676503		 # 	collision with: 1 4 0  and 1 0 1 
12676505		 # 	collision with: 2 1 0  and 10 3 0 
12676507		 # 	collision with: 6 0 0  and 2 1 0 
12676563		 # 	collision with: 1 9 0  and 0 0 1 
12676665		 # 	collision with: 5 2 0  and 9 4 0 
12676667		 # 	collision with: 5 0 0  and 1 1 0 
12676673		 # 	collision with: 5 4 0  and 4 5 0 
12676675		 # 	collision with: 9 4 0  and 8 5 0 
12676709		 # 	collision with: 5 4 0  and 4 5 0 
12676711		 # 	collision with: 4 2 0  and 10 0 1 
12676745		 # 	collision with: 5 4 0  and 4 5 0 
12676747		 # 	collision with: 1 5 0  and 0 0 1 
12676859		 # 	collision with: 2 8 0  and 6 3 1 
12676913		 # 	collision with: 5 4 0  and 4 5 0 
12676915		 # 	collision with: 7 1 0  and 10 2 0 
12676917		 # 	collision with: 5 4 0  and 4 5 0 
12676919		 # 	collision with: 10 1 0  and 8 3 0 
12676928		 # 	collision with: 5 4 0  and 10 6 0 
12676930		 # 	collision with: 1 4 0  and 3 5 0 
12676937		 # 	collision with: 4 5 0  and 2 6 0 
12676939		 # 	collision with: 2 3 0  and 4 4 0 
12676965		 # 	collision with: 2 6 0  and 0 0 1 
12676985		 # 	collision with: 2 1 0  and 4 2 0 
12676987		 # 	collision with: 7 5 0  and 5 7 0 
12676989		 # 	collision with: 1 4 0  and 5 5 0 
12676991		 # 	collision with: 4 2 0  and 7 3 0 
12677045		 # 	collision with: 9 1 0  and 0 0 1 
12677149		 # 	collision with: 10 4 0  and 1 5 0 
12677151		 # 	collision with: 4 1 0  and 5 2 0 
12677157		 # 	collision with: 8 0 0  and 7 1 0 
12677159		 # 	collision with: 7 5 0  and 5 7 0 
12677193		 # 	collision with: 10 3 0  and 7 4 0 
12677195		 # 	collision with: 5 4 0  and 9 6 0 
12677229		 # 	collision with: 0 2 0  and 5 3 0 
12677231		 # 	collision with: 4 2 0  and 6 4 0 
12677341		 # 	collision with: 4 0 0  and 10 1 0 
12677343		 # 	collision with: 7 5 0  and 5 7 0 
12677397		 # 	collision with: 3 2 0  and 0 4 0 
12677399		 # 	collision with: 10 1 0  and 6 3 0 
12677401		 # 	collision with: 8 2 0  and 6 4 0 
12677403		 # 	collision with: 7 5 0  and 5 7 0 
12677412		 # 	collision with: 7 1 0  and 1 3 0 
12677414		 # 	collision with: 7 5 0  and 5 7 0 
12677421		 # 	collision with: 5 2 0  and 8 4 0 
12677423		 # 	collision with: 1 6 0  and 10 0 1 
12677449		 # 	collision with: 5 2 0  and 8 4 0 
12677451		 # 	collision with: 10 9 0  and 2 0 1 
12677469		 # 	collision with: 10 0 0  and 6 2 0 
12677471		 # 	collision with: 1 4 0  and 6 5 0 
12677475		 # 	collision with: 2 3 0  and 4 4 0 
12677529		 # 	collision with: 4 1 0  and 10 2 0 
12677531		 # 	collision with: 4 9 0  and 1 2 1 
12677633		 # 	collision with: 3 0 0  and 5 1 0 
12677635		 # 	collision with: 7 9 0  and 7 0 1 
12677641		 # 	collision with: 6 1 0  and 4 3 0 
12677677		 # 	collision with: 5 2 0  and 8 4 0 
12677679		 # 	collision with: 2 4 0  and 5 1 1 
12677713		 # 	collision with: 6 1 0  and 7 2 0 
12677715		 # 	collision with: 8 1 0  and 1 3 0 
12677825		 # 	collision with: 5 2 0  and 8 4 0 
12677827		 # 	collision with: 7 1 0  and 10 2 0 
12677881		 # 	collision with: 5 2 0  and 8 4 0 
12677883		 # 	collision with: 4 7 0  and 1 0 1 
12677896		 # 	collision with: 2 4 0  and 10 5 0 
12677898		 # 	collision with: 8 1 0  and 8 0 1 
12677905		 # 	collision with: 5 1 0  and 5 0 1 
12677907		 # 	collision with: 7 0 0  and 9 2 0 
12677935		 # 	collision with: 4 7 0  and 3 0 1 
12677953		 # 	collision with: 1 1 0  and 2 3 0 
12677955		 # 	collision with: 6 1 0  and 1 1 1 
12677957		 # 	collision with: 4 3 0  and 1 5 0 
6.89364secs	3744
