# prime 11
# degree 2
# input variables 3
# output variables 3
# reload computed balance functions from file balance-742of3248-p11d2m3-debug.log
# p = 11
# n = 3
# smalldomain p^m 1331
# domain p^n 1331
#	 p^2 = 121
#	 p^3 = 1331
#	 p^4 = 14641
#	 p^5 = 161051
#	 p^6 = 1771561
#	 p^7 = 19487171
#	 p^8 = 214358881
#	 p^9 = 2357947691
opening file : balance-742of3248-p11d2m3-debug.log
reloading for step2...
4452008		 # 	collision with: 10 1 0  and 8 0 1 
4452010		 # 	collision with: 7 1 0  and 1 7 1 
4452041		 # 	collision with: 7 6 0  and 10 0 1 
4452043		 # 	collision with: 3 9 0  and 7 1 1 
4452052		 # 	collision with: 7 0 0  and 4 1 0 
4452054		 # 	collision with: 2 4 0  and 4 2 1 
4452061		 # 	collision with: 6 1 0  and 10 3 0 
4452063		 # 	collision with: 3 7 0  and 7 0 1 
4452096		 # 	collision with: 10 10 0  and 8 1 1 
4452098		 # 	collision with: 3 4 0  and 5 0 1 
4452133		 # 	collision with: 8 1 0  and 10 2 0 
4452135		 # 	collision with: 9 0 0  and 4 1 0 
4452155		 # 	collision with: 8 9 0  and 9 0 1 
4452184		 # 	collision with: 2 10 0  and 2 0 1 
4452186		 # 	collision with: 5 5 0  and 5 0 1 
4452201		 # 	collision with: 7 2 0  and 3 4 0 
4452203		 # 	collision with: 3 2 0  and 0 3 0 
4452228		 # 	collision with: 10 3 0  and 6 1 1 
4452230		 # 	collision with: 8 0 0  and 5 1 0 
4452253		 # 	collision with: 9 5 0  and 6 0 1 
4452255		 # 	collision with: 2 6 0  and 4 6 0 
4452272		 # 	collision with: 6 8 0  and 5 0 1 
4452274		 # 	collision with: 7 9 0  and 2 2 1 
4452277		 # 	collision with: 3 1 0  and 5 3 0 
4452279		 # 	collision with: 3 0 0  and 10 1 0 
4452316		 # 	collision with: 3 4 0  and 0 0 2 
4452318		 # 	collision with: 4 8 0  and 5 0 1 
4452320		 # 	collision with: 4 9 0  and 1 0 1 
4452322		 # 	collision with: 4 1 0  and 1 3 1 
4452324		 # 	collision with: 10 3 0  and 3 10 1 
4452326		 # 	collision with: 3 1 0  and 3 0 1 
4452328		 # 	collision with: 6 1 0  and 3 0 1 
4452330		 # 	collision with: 3 5 0  and 2 2 1 
4452332		 # 	collision with: 7 0 0  and 9 2 1 
4452334		 # 	collision with: 8 3 0  and 9 0 1 
4452336		 # 	collision with: 0 6 0  and 1 6 0 
4452338		 # 	collision with: 8 0 0  and 5 1 0 
4452340		 # 	collision with: 1 7 0  and 7 0 1 
4452342		 # 	collision with: 7 10 0  and 0 1 1 
4452344		 # 	collision with: 9 2 0  and 0 0 1 
4452346		 # 	collision with: 2 5 0  and 2 0 1 
4452348		 # 	collision with: 9 9 0  and 1 0 1 
4452352		 # 	collision with: 3 1 0  and 3 0 1 
4452354		 # 	collision with: 4 8 0  and 2 0 1 
4452356		 # 	collision with: 5 8 0  and 4 0 1 
4452358		 # 	collision with: 5 0 0  and 0 5 1 
4452360		 # 	collision with: 2 10 0  and 0 0 1 
4452362		 # 	collision with: 10 9 0  and 7 0 1 
4452401		 # 	collision with: 3 3 0  and 1 0 1 
4452403		 # 	collision with: 1 6 0  and 7 0 1 
4452404		 # 	collision with: 3 3 0  and 1 0 1 
4452406		 # 	collision with: 1 1 0  and 6 0 1 
4452425		 # 	collision with: 9 1 0  and 3 2 0 
4452427		 # 	collision with: 9 0 0  and 2 2 0 
4452448		 # 	collision with: 3 1 0  and 1 2 0 
4452450		 # 	collision with: 4 6 0  and 6 0 1 
4452477		 # 	collision with: 9 5 0  and 2 1 1 
4452479		 # 	collision with: 9 2 0  and 6 4 0 
4452492		 # 	collision with: 0 4 0  and 5 0 1 
4452494		 # 	collision with: 3 8 0  and 1 1 1 
4452525		 # 	collision with: 10 1 0  and 7 2 0 
4452527		 # 	collision with: 0 0 0  and 5 2 0 
4452547		 # 	collision with: 8 7 0  and 9 0 1 
4452580		 # 	collision with: 8 1 0  and 4 1 1 
4452582		 # 	collision with: 7 0 0  and 0 4 1 
4452617		 # 	collision with: 6 5 0  and 6 0 1 
4452619		 # 	collision with: 2 4 0  and 3 5 0 
4452624		 # 	collision with: 8 7 0  and 0 0 1 
4452626		 # 	collision with: 2 8 0  and 2 0 1 
4452637		 # 	collision with: 10 0 0  and 4 2 0 
4452639		 # 	collision with: 9 4 0  and 6 5 0 
4452668		 # 	collision with: 6 7 0  and 1 1 1 
4452670		 # 	collision with: 8 9 0  and 8 0 1 
4452685		 # 	collision with: 6 3 0  and 9 4 0 
4452712		 # 	collision with: 3 10 0  and 3 0 1 
4452714		 # 	collision with: 4 6 0  and 4 2 1 
4452737		 # 	collision with: 9 0 0  and 8 2 0 
4452739		 # 	collision with: 1 4 0  and 2 6 0 
4452756		 # 	collision with: 1 2 0  and 2 0 1 
4452758		 # 	collision with: 8 4 0  and 10 1 1 
4452761		 # 	collision with: 3 2 0  and 6 4 0 
4452763		 # 	collision with: 9 10 0  and 6 1 1 
4452800		 # 	collision with: 6 10 0  and 10 0 1 
4452802		 # 	collision with: 1 4 0  and 4 0 1 
4452804		 # 	collision with: 6 8 0  and 1 1 1 
4452806		 # 	collision with: 3 0 0  and 10 1 0 
4452808		 # 	collision with: 4 1 0  and 2 0 1 
4452810		 # 	collision with: 3 9 0  and 5 0 1 
4452812		 # 	collision with: 0 6 0  and 1 6 0 
4452814		 # 	collision with: 2 1 0  and 2 0 1 
4452816		 # 	collision with: 4 6 0  and 4 0 1 
4452818		 # 	collision with: 10 10 0  and 1 0 1 
4452820		 # 	collision with: 8 4 0  and 10 1 1 
4452822		 # 	collision with: 10 4 0  and 3 1 1 
4452824		 # 	collision with: 9 8 0  and 6 1 1 
4452826		 # 	collision with: 7 8 0  and 1 0 1 
4452828		 # 	collision with: 8 4 0  and 1 1 1 
4452832		 # 	collision with: 7 7 0  and 0 0 1 
4452834		 # 	collision with: 0 4 1  and 2 0 2 
4452836		 # 	collision with: 1 6 0  and 6 1 1 
4452838		 # 	collision with: 5 9 0  and 0 1 1 
4452840		 # 	collision with: 3 0 0  and 1 2 1 
4452842		 # 	collision with: 3 5 0  and 8 2 1 
4452844		 # 	collision with: 6 1 0  and 5 1 1 
4452846		 # 	collision with: 10 0 0  and 3 1 0 
4452885		 # 	collision with: 1 2 0  and 5 3 0 
4452887		 # 	collision with: 9 2 0  and 0 0 1 
4452888		 # 	collision with: 1 6 0  and 3 0 1 
4452890		 # 	collision with: 8 1 0  and 8 0 1 
4452909		 # 	collision with: 5 1 0  and 9 2 0 
4452911		 # 	collision with: 1 2 0  and 1 3 0 
4452963		 # 	collision with: 6 2 0  and 0 4 0 
4452976		 # 	collision with: 4 10 0  and 4 0 1 
4452978		 # 	collision with: 8 3 0  and 2 0 1 
4453009		 # 	collision with: 5 2 0  and 0 1 1 
4453011		 # 	collision with: 9 3 0  and 1 0 1 
4453020		 # 	collision with: 1 5 0  and 5 0 1 
4453022		 # 	collision with: 10 4 0  and 7 0 1 
4453029		 # 	collision with: 2 1 0  and 2 0 1 
4453031		 # 	collision with: 3 1 0  and 9 2 0 
4453064		 # 	collision with: 4 6 0  and 3 0 1 
4453066		 # 	collision with: 4 4 0  and 5 0 1 
4453101		 # 	collision with: 6 10 0  and 1 0 1 
4453103		 # 	collision with: 6 1 0  and 10 1 1 
4453108		 # 	collision with: 2 4 0  and 3 0 2 
4453110		 # 	collision with: 8 4 0  and 10 0 1 
4453121		 # 	collision with: 7 1 0  and 7 0 1 
4453123		 # 	collision with: 6 0 0  and 7 1 0 
4453152		 # 	collision with: 7 9 0  and 5 0 1 
4453154		 # 	collision with: 8 10 0  and 3 0 1 
4453169		 # 	collision with: 0 5 0  and 5 0 1 
4453171		 # 	collision with: 3 0 0  and 4 2 0 
4453196		 # 	collision with: 9 0 0  and 2 1 0 
4453198		 # 	collision with: 3 4 0  and 1 0 1 
4453221		 # 	collision with: 5 9 0  and 5 2 1 
4453223		 # 	collision with: 6 4 0  and 0 5 0 
4453240		 # 	collision with: 8 7 0  and 3 2 1 
4453242		 # 	collision with: 8 6 0  and 4 0 1 
4453245		 # 	collision with: 3 0 0  and 6 1 1 
4453247		 # 	collision with: 0 0 0  and 1 1 1 
4453284		 # 	collision with: 3 9 0  and 5 0 1 
4453286		 # 	collision with: 1 1 0  and 2 0 1 
4453288		 # 	collision with: 0 6 0  and 1 6 0 
4453290		 # 	collision with: 10 7 0  and 4 1 1 
4453292		 # 	collision with: 7 6 0  and 9 0 1 
4453294		 # 	collision with: 9 0 0  and 4 1 0 
4453296		 # 	collision with: 10 9 0  and 4 4 1 
4453298		 # 	collision with: 0 10 0  and 3 0 1 
4453300		 # 	collision with: 10 7 0  and 4 0 1 
4453302		 # 	collision with: 5 2 0  and 3 1 1 
4453304		 # 	collision with: 1 1 0  and 1 0 1 
4453306		 # 	collision with: 5 9 0  and 10 0 1 
4453308		 # 	collision with: 9 3 0  and 2 1 1 
4453312		 # 	collision with: 4 8 0  and 10 0 1 
4453314		 # 	collision with: 3 4 0  and 0 0 2 
4453316		 # 	collision with: 6 10 0  and 2 1 1 
4453318		 # 	collision with: 7 9 0  and 2 1 1 
4453320		 # 	collision with: 8 3 0  and 2 0 1 
4453322		 # 	collision with: 2 8 0  and 3 1 1 
4453324		 # 	collision with: 6 0 0  and 3 2 1 
4453326		 # 	collision with: 5 9 0  and 0 0 1 
4453371		 # 	collision with: 7 6 0  and 5 1 1 
4453372		 # 	collision with: 8 10 0  and 1 1 1 
4453374		 # 	collision with: 0 10 0  and 10 0 1 
4453393		 # 	collision with: 4 10 0  and 7 0 1 
4453416		 # 	collision with: 1 8 0  and 8 0 1 
4453418		 # 	collision with: 1 2 0  and 2 0 1 
4453445		 # 	collision with: 0 4 0  and 2 6 0 
4453447		 # 	collision with: 9 6 0  and 0 0 1 
4453460		 # 	collision with: 3 10 0  and 9 1 1 
4453462		 # 	collision with: 4 2 0  and 3 3 1 
4453493		 # 	collision with: 10 3 0  and 4 4 0 
4453495		 # 	collision with: 4 5 0  and 4 2 1 
4453504		 # 	collision with: 9 2 0  and 3 1 1 
4453506		 # 	collision with: 7 0 0  and 9 2 1 
4453513		 # 	collision with: 8 3 0  and 1 4 0 
4453515		 # 	collision with: 7 3 0  and 10 4 0 
4453548		 # 	collision with: 3 0 0  and 2 3 1 
4453550		 # 	collision with: 5 6 0  and 1 1 1 
4453585		 # 	collision with: 2 1 0  and 7 3 0 
4453587		 # 	collision with: 1 7 0  and 0 0 1 
4453592		 # 	collision with: 4 3 0  and 0 1 1 
4453594		 # 	collision with: 6 0 0  and 7 1 0 
4453605		 # 	collision with: 5 1 0  and 9 2 0 
4453607		 # 	collision with: 6 1 0  and 10 2 0 
4453636		 # 	collision with: 2 6 0  and 1 0 1 
4453638		 # 	collision with: 10 8 0  and 5 2 1 
4453653		 # 	collision with: 1 4 0  and 4 0 1 
4453655		 # 	collision with: 3 4 0  and 8 1 1 
4453680		 # 	collision with: 8 7 0  and 0 1 1 
4453682		 # 	collision with: 5 2 0  and 1 0 1 
4453705		 # 	collision with: 5 1 0  and 1 3 0 
4453707		 # 	collision with: 1 6 0  and 2 6 0 
4453724		 # 	collision with: 8 10 0  and 3 0 1 
4453726		 # 	collision with: 10 6 0  and 9 1 1 
4453729		 # 	collision with: 9 1 0  and 3 2 0 
4453768		 # 	collision with: 10 1 0  and 0 0 1 
4453770		 # 	collision with: 8 10 0  and 8 3 1 
4453772		 # 	collision with: 3 8 0  and 9 1 1 
4453774		 # 	collision with: 3 4 0  and 3 3 1 
4453776		 # 	collision with: 5 9 0  and 7 0 1 
4453778		 # 	collision with: 8 7 0  and 6 0 1 
4453780		 # 	collision with: 2 6 0  and 3 0 1 
4453782		 # 	collision with: 9 5 0  and 7 0 1 
4453784		 # 	collision with: 1 4 0  and 4 0 1 
4453786		 # 	collision with: 3 4 0  and 4 1 1 
4453788		 # 	collision with: 2 3 0  and 10 0 1 
4453792		 # 	collision with: 6 5 0  and 10 1 1 
4453794		 # 	collision with: 8 9 0  and 0 1 1 
4453796		 # 	collision with: 6 8 0  and 4 1 1 
4453798		 # 	collision with: 4 0 0  and 9 1 0 
4453800		 # 	collision with: 10 9 1  and 0 0 2 
4453802		 # 	collision with: 1 5 0  and 5 1 1 
4453804		 # 	collision with: 0 4 0  and 4 0 1 
4453806		 # 	collision with: 1 7 0  and 7 1 1 
4453808		 # 	collision with: 0 6 0  and 1 6 0 
4453810		 # 	collision with: 1 10 0  and 0 0 1 
4453812		 # 	collision with: 6 0 0  and 5 1 0 
4453814		 # 	collision with: 7 0 0  and 6 1 0 
4453853		 # 	collision with: 3 4 0  and 6 5 0 
4453856		 # 	collision with: 6 3 0  and 1 0 2 
4453858		 # 	collision with: 7 6 0  and 0 0 1 
4453877		 # 	collision with: 8 3 0  and 2 5 0 
4453879		 # 	collision with: 1 1 0  and 1 2 0 
4453900		 # 	collision with: 6 4 0  and 1 1 2 
4453902		 # 	collision with: 10 7 0  and 4 2 1 
4453929		 # 	collision with: 2 1 0  and 7 3 0 
4453931		 # 	collision with: 3 0 0  and 10 1 0 
4453944		 # 	collision with: 4 3 0  and 7 1 1 
4453946		 # 	collision with: 8 4 0  and 6 0 1 
4453977		 # 	collision with: 4 3 0  and 1 5 0 
4453979		 # 	collision with: 8 9 0  and 1 2 1 
4453988		 # 	collision with: 3 5 0  and 5 3 1 
4453990		 # 	collision with: 9 3 0  and 8 1 1 
4453997		 # 	collision with: 0 4 0  and 7 6 0 
4453999		 # 	collision with: 3 2 0  and 0 3 0 
4454032		 # 	collision with: 5 6 0  and 1 2 1 
4454034		 # 	collision with: 10 5 0  and 7 1 1 
4454069		 # 	collision with: 1 1 0  and 9 3 0 
4454071		 # 	collision with: 5 4 0  and 0 1 1 
4454076		 # 	collision with: 1 8 0  and 8 1 1 
4454078		 # 	collision with: 10 4 0  and 3 0 1 
4454089		 # 	collision with: 2 4 0  and 4 5 0 
4454091		 # 	collision with: 4 1 0  and 4 0 1 
4454120		 # 	collision with: 6 5 0  and 0 0 1 
4454122		 # 	collision with: 5 10 0  and 8 2 1 
4454137		 # 	collision with: 2 9 0  and 2 0 1 
4454139		 # 	collision with: 4 2 0  and 7 4 0 
4454164		 # 	collision with: 7 10 0  and 9 0 1 
4454166		 # 	collision with: 9 3 0  and 4 0 1 
4454189		 # 	collision with: 4 3 0  and 6 4 0 
4454215		 # 	collision with: 0 0 0  and 5 2 0 
4454252		 # 	collision with: 6 6 0  and 8 0 1 
4454254		 # 	collision with: 2 10 0  and 1 0 1 
4454256		 # 	collision with: 7 8 0  and 2 1 1 
4454258		 # 	collision with: 5 2 0  and 3 3 1 
4454260		 # 	collision with: 10 3 0  and 7 0 1 
4454262		 # 	collision with: 7 10 0  and 1 3 1 
4454264		 # 	collision with: 1 10 1  and 3 0 2 
4454266		 # 	collision with: 2 10 0  and 8 0 1 
4454268		 # 	collision with: 9 4 0  and 0 0 1 
4454272		 # 	collision with: 3 4 0  and 1 1 1 
4454274		 # 	collision with: 10 1 0  and 10 0 1 
4454276		 # 	collision with: 8 2 0  and 3 0 1 
4454278		 # 	collision with: 5 8 0  and 2 0 1 
4454280		 # 	collision with: 8 8 0  and 5 0 1 
4454282		 # 	collision with: 10 0 0  and 3 1 0 
4454284		 # 	collision with: 0 6 0  and 1 6 0 
4454286		 # 	collision with: 7 3 0  and 2 0 1 
4454288		 # 	collision with: 6 1 0  and 4 1 1 
4454290		 # 	collision with: 10 1 0  and 0 0 1 
4454292		 # 	collision with: 1 9 0  and 9 0 1 
4454294		 # 	collision with: 10 8 0  and 8 10 1 
4454296		 # 	collision with: 2 10 0  and 10 1 1 
4454298		 # 	collision with: 8 5 0  and 1 0 1 
4454337		 # 	collision with: 8 1 0  and 10 2 0 
4454339		 # 	collision with: 8 2 0  and 3 3 0 
4454340		 # 	collision with: 6 2 0  and 3 1 1 
4454342		 # 	collision with: 0 4 0  and 5 0 1 
4454361		 # 	collision with: 7 2 0  and 3 4 0 
4454363		 # 	collision with: 1 6 0  and 1 7 0 
4454384		 # 	collision with: 7 8 0  and 2 0 1 
4454386		 # 	collision with: 3 0 0  and 10 1 0 
4454413		 # 	collision with: 0 7 0  and 7 0 1 
4454415		 # 	collision with: 3 2 0  and 3 0 1 
4454428		 # 	collision with: 10 4 0  and 4 10 1 
4454430		 # 	collision with: 5 9 0  and 7 0 1 
4454461		 # 	collision with: 2 1 0  and 8 2 0 
4454463		 # 	collision with: 2 0 0  and 8 2 0 
4454472		 # 	collision with: 1 3 0  and 3 0 1 
4454474		 # 	collision with: 4 7 0  and 3 0 1 
4454481		 # 	collision with: 3 9 0  and 2 0 1 
4454483		 # 	collision with: 8 9 0  and 4 0 1 
4454516		 # 	collision with: 5 7 0  and 3 1 1 
4454518		 # 	collision with: 6 5 0  and 3 2 1 
4454553		 # 	collision with: 1 4 0  and 4 0 1 
4454555		 # 	collision with: 10 4 0  and 3 1 1 
4454560		 # 	collision with: 4 1 0  and 4 0 1 
4454562		 # 	collision with: 1 9 0  and 9 0 1 
4454573		 # 	collision with: 0 4 0  and 6 6 0 
4454575		 # 	collision with: 3 1 0  and 9 2 0 
4454623		 # 	collision with: 1 6 0  and 2 0 1 
4454648		 # 	collision with: 2 0 0  and 9 1 0 
4454650		 # 	collision with: 1 1 0  and 9 0 1 
4454673		 # 	collision with: 4 3 0  and 1 5 0 
4454675		 # 	collision with: 0 6 0  and 1 6 0 
4454692		 # 	collision with: 1 2 0  and 5 0 1 
4454694		 # 	collision with: 4 5 0  and 6 2 1 
4454697		 # 	collision with: 8 2 0  and 5 4 0 
4454699		 # 	collision with: 9 4 0  and 2 0 1 
4454736		 # 	collision with: 3 4 0  and 4 1 1 
4454738		 # 	collision with: 6 6 0  and 2 0 2 
4454740		 # 	collision with: 8 6 0  and 2 0 1 
4454742		 # 	collision with: 8 8 0  and 4 0 1 
4454744		 # 	collision with: 8 8 0  and 8 0 1 
4454746		 # 	collision with: 4 3 0  and 5 0 1 
4454748		 # 	collision with: 9 1 0  and 9 0 1 
4454752		 # 	collision with: 4 6 0  and 6 4 1 
4454754		 # 	collision with: 1 2 0  and 2 0 1 
4454756		 # 	collision with: 7 10 0  and 7 2 1 
4454758		 # 	collision with: 4 6 0  and 3 1 1 
4454760		 # 	collision with: 0 6 0  and 1 6 0 
4454762		 # 	collision with: 5 5 0  and 0 2 1 
4454764		 # 	collision with: 9 3 0  and 8 1 1 
4454766		 # 	collision with: 2 6 0  and 10 0 1 
4454768		 # 	collision with: 5 1 0  and 3 1 1 
4454770		 # 	collision with: 1 2 0  and 3 0 1 
4454772		 # 	collision with: 1 9 0  and 0 0 1 
4454774		 # 	collision with: 4 3 0  and 10 0 1 
4454776		 # 	collision with: 10 2 0  and 8 1 1 
4454778		 # 	collision with: 5 0 0  and 8 1 0 
4454780		 # 	collision with: 1 4 0  and 3 1 1 
4454782		 # 	collision with: 5 5 0  and 6 3 1 
4454821		 # 	collision with: 10 2 0  and 6 3 0 
4454823		 # 	collision with: 0 7 0  and 4 0 1 
4454824		 # 	collision with: 3 1 0  and 3 0 1 
4454826		 # 	collision with: 0 9 0  and 2 0 1 
4454845		 # 	collision with: 3 3 0  and 10 4 0 
4454847		 # 	collision with: 1 5 0  and 1 7 0 
4454868		 # 	collision with: 10 0 0  and 1 1 0 
4454870		 # 	collision with: 5 3 0  and 4 0 2 
4454897		 # 	collision with: 0 5 0  and 2 6 0 
4454912		 # 	collision with: 3 7 0  and 7 3 1 
4454914		 # 	collision with: 4 1 0  and 4 0 1 
4454945		 # 	collision with: 1 8 0  and 0 0 1 
4454947		 # 	collision with: 3 3 0  and 4 4 0 
4454956		 # 	collision with: 10 9 0  and 1 0 1 
4454958		 # 	collision with: 2 10 0  and 10 0 1 
4454965		 # 	collision with: 4 0 0  and 7 1 0 
4454967		 # 	collision with: 10 3 0  and 3 0 1 
4455039		 # 	collision with: 1 4 0  and 0 6 0 
4455044		 # 	collision with: 9 10 0  and 0 0 1 
4455046		 # 	collision with: 10 7 0  and 0 0 1 
4455057		 # 	collision with: 9 2 0  and 3 0 1 
4455059		 # 	collision with: 3 4 0  and 5 5 0 
4455088		 # 	collision with: 4 0 0  and 0 2 1 
4455090		 # 	collision with: 1 1 0  and 7 0 1 
4455105		 # 	collision with: 8 0 0  and 3 1 0 
4455107		 # 	collision with: 6 0 0  and 7 1 0 
4455132		 # 	collision with: 1 8 0  and 2 0 1 
4455134		 # 	collision with: 6 4 1  and 0 0 2 
4455157		 # 	collision with: 0 10 0  and 2 0 1 
4455159		 # 	collision with: 2 2 0  and 6 3 0 
4455176		 # 	collision with: 9 8 0  and 3 0 1 
4455178		 # 	collision with: 10 2 0  and 2 0 1 
4455181		 # 	collision with: 6 1 0  and 10 3 0 
4455183		 # 	collision with: 6 0 0  and 3 2 0 
4455220		 # 	collision with: 8 9 0  and 0 1 1 
4455222		 # 	collision with: 5 7 0  and 6 2 1 
4455224		 # 	collision with: 5 0 1  and 4 1 1 
4455226		 # 	collision with: 10 2 0  and 0 0 1 
4455228		 # 	collision with: 8 1 0  and 8 0 1 
4455232		 # 	collision with: 9 7 0  and 9 0 1 
4455234		 # 	collision with: 4 4 0  and 3 1 1 
4455236		 # 	collision with: 0 6 0  and 1 6 0 
4455238		 # 	collision with: 9 7 0  and 0 0 1 
4455240		 # 	collision with: 10 7 0  and 4 2 1 
4455242		 # 	collision with: 10 2 0  and 4 0 1 
4455244		 # 	collision with: 7 3 0  and 1 0 1 
4455246		 # 	collision with: 9 3 0  and 3 2 1 
4455248		 # 	collision with: 6 8 0  and 8 6 1 
4455250		 # 	collision with: 1 3 0  and 4 0 1 
4455252		 # 	collision with: 1 8 0  and 0 0 1 
4455254		 # 	collision with: 3 4 0  and 4 0 1 
4455256		 # 	collision with: 8 3 0  and 1 0 1 
4455258		 # 	collision with: 8 1 0  and 8 0 1 
4455260		 # 	collision with: 1 5 0  and 5 0 1 
4455262		 # 	collision with: 0 0 0  and 2 1 0 
4455264		 # 	collision with: 6 9 0  and 1 2 1 
4455266		 # 	collision with: 9 4 0  and 0 1 1 
4455305		 # 	collision with: 2 3 0  and 8 0 1 
4455307		 # 	collision with: 2 0 0  and 8 2 0 
4455308		 # 	collision with: 6 2 0  and 8 0 1 
4455310		 # 	collision with: 2 7 0  and 7 0 2 
4455329		 # 	collision with: 0 5 0  and 2 6 0 
4455331		 # 	collision with: 6 1 0  and 10 2 0 
4455352		 # 	collision with: 2 1 0  and 2 0 1 
4455354		 # 	collision with: 1 5 0  and 5 0 1 
4455381		 # 	collision with: 0 5 0  and 5 6 0 
4455383		 # 	collision with: 4 2 0  and 4 0 1 
4455431		 # 	collision with: 5 2 0  and 10 3 0 
4455440		 # 	collision with: 4 0 0  and 7 1 0 
4455442		 # 	collision with: 7 4 0  and 5 1 1 
4455449		 # 	collision with: 0 0 0  and 1 1 1 
4455451		 # 	collision with: 1 4 0  and 3 6 0 
4455484		 # 	collision with: 0 10 0  and 4 0 1 
4455486		 # 	collision with: 0 8 0  and 9 0 1 
4455521		 # 	collision with: 5 4 0  and 10 5 0 
4455523		 # 	collision with: 7 2 0  and 2 4 0 
4455528		 # 	collision with: 10 5 0  and 1 1 1 
4455530		 # 	collision with: 1 1 0  and 5 0 1 
4455541		 # 	collision with: 9 1 0  and 3 2 1 
4455543		 # 	collision with: 5 1 0  and 3 0 1 
4455572		 # 	collision with: 10 1 0  and 5 0 1 
4455574		 # 	collision with: 8 6 0  and 5 0 1 
4455589		 # 	collision with: 3 8 0  and 2 5 1 
4455591		 # 	collision with: 1 2 0  and 4 0 1 
4455616		 # 	collision with: 1 9 0  and 9 0 1 
4455618		 # 	collision with: 3 1 0  and 3 0 1 
4455641		 # 	collision with: 2 7 0  and 10 0 1 
4455643		 # 	collision with: 4 6 0  and 6 6 0 
4455660		 # 	collision with: 3 3 0  and 1 3 1 
4455662		 # 	collision with: 3 6 0  and 5 0 1 
4455665		 # 	collision with: 4 10 0  and 5 1 1 
4455667		 # 	collision with: 0 2 0  and 10 4 0 
4455704		 # 	collision with: 0 7 0  and 2 0 1 
4455706		 # 	collision with: 4 2 0  and 2 4 1 
4455708		 # 	collision with: 7 4 0  and 10 0 1 
4455712		 # 	collision with: 0 6 0  and 1 6 0 
4455714		 # 	collision with: 8 10 0  and 4 3 1 
4455716		 # 	collision with: 4 5 0  and 2 1 1 
4455718		 # 	collision with: 6 9 0  and 3 1 1 
4455720		 # 	collision with: 10 5 0  and 0 0 1 
4455722		 # 	collision with: 6 0 0  and 7 1 0 
4455724		 # 	collision with: 6 10 1  and 8 0 2 
4455726		 # 	collision with: 5 5 0  and 1 4 1 
4455728		 # 	collision with: 9 6 0  and 1 0 1 
4455730		 # 	collision with: 7 1 0  and 4 0 1 
4455732		 # 	collision with: 7 1 0  and 7 0 1 
4455734		 # 	collision with: 7 3 0  and 3 7 1 
4455736		 # 	collision with: 6 7 0  and 2 0 1 
4455738		 # 	collision with: 1 6 0  and 6 0 1 
4455740		 # 	collision with: 9 2 0  and 2 2 1 
4455742		 # 	collision with: 2 9 0  and 8 0 2 
4455744		 # 	collision with: 9 2 0  and 2 3 1 
4455746		 # 	collision with: 10 4 0  and 5 0 1 
4455748		 # 	collision with: 6 10 0  and 2 2 1 
4455750		 # 	collision with: 8 6 0  and 1 1 1 
4455789		 # 	collision with: 10 5 0  and 2 0 1 
4455791		 # 	collision with: 4 2 0  and 7 4 0 
4455815		 # 	collision with: 10 1 0  and 5 3 0 
4455836		 # 	collision with: 4 5 0  and 8 2 1 
4455838		 # 	collision with: 9 2 0  and 1 0 1 
4455865		 # 	collision with: 5 1 0  and 1 3 0 
4455867		 # 	collision with: 7 3 0  and 10 4 0 
4455880		 # 	collision with: 8 0 0  and 3 1 0 
4455882		 # 	collision with: 4 6 0  and 3 0 1 
4455913		 # 	collision with: 0 4 0  and 2 6 0 
4455915		 # 	collision with: 9 0 0  and 4 1 0 
4455924		 # 	collision with: 4 10 0  and 3 0 1 
4455926		 # 	collision with: 8 7 0  and 0 0 1 
4455933		 # 	collision with: 0 5 0  and 7 6 0 
4455935		 # 	collision with: 1 1 0  and 9 0 1 
4455968		 # 	collision with: 1 1 0  and 1 0 1 
4455970		 # 	collision with: 1 1 0  and 3 0 1 
4456005		 # 	collision with: 5 1 0  and 9 0 1 
4456012		 # 	collision with: 10 1 0  and 3 0 1 
4456014		 # 	collision with: 9 0 0  and 4 1 0 
4456025		 # 	collision with: 10 1 0  and 2 3 0 
4456056		 # 	collision with: 6 0 0  and 8 3 1 
4456058		 # 	collision with: 0 5 0  and 1 0 1 
4456073		 # 	collision with: 1 3 0  and 3 5 0 
4456075		 # 	collision with: 7 2 0  and 9 3 0 
4456100		 # 	collision with: 1 5 0  and 3 1 1 
4456102		 # 	collision with: 2 4 0  and 0 2 1 
4456125		 # 	collision with: 1 3 0  and 7 4 0 
4456127		 # 	collision with: 4 6 0  and 5 6 0 
4456144		 # 	collision with: 6 3 0  and 5 0 1 
4456146		 # 	collision with: 8 10 0  and 2 0 1 
4456149		 # 	collision with: 0 5 0  and 9 6 0 
4456151		 # 	collision with: 1 4 0  and 2 6 0 
4456194		 # 	collision with: 1 1 0  and 1 3 0 
4456198		 # 	collision with: 1 1 0  and 1 2 0 
4456202		 # 	collision with: 1 6 0  and 1 7 0 
4456206		 # 	collision with: 1 5 0  and 1 7 0 
4456210		 # 	collision with: 1 5 0  and 1 6 0 
4456214		 # 	collision with: 1 4 0  and 1 6 0 
4456218		 # 	collision with: 1 4 0  and 1 5 0 
4456222		 # 	collision with: 1 3 0  and 1 5 0 
4456226		 # 	collision with: 1 3 0  and 1 4 0 
4456230		 # 	collision with: 1 2 0  and 1 4 0 
4456269		 # 	collision with: 4 2 0  and 10 4 0 
4456271		 # 	collision with: 5 2 0  and 8 3 0 
4456272		 # 	collision with: 2 0 0  and 3 0 0 
4456274		 # 	collision with: 7 3 0  and 1 5 0 
4456289		 # 	collision with: 6 0 0  and 5 1 0 
4456291		 # 	collision with: 7 0 0  and 5 2 0 
4456312		 # 	collision with: 2 0 0  and 3 0 0 
4456314		 # 	collision with: 9 3 0  and 7 4 0 
4456337		 # 	collision with: 6 0 0  and 2 3 1 
4456339		 # 	collision with: 8 3 1  and 6 4 1 
4456352		 # 	collision with: 2 0 0  and 3 0 0 
4456354		 # 	collision with: 8 5 0  and 0 0 1 
4456381		 # 	collision with: 2 0 0  and 8 1 0 
4456383		 # 	collision with: 2 9 0  and 6 2 1 
4456392		 # 	collision with: 2 0 0  and 3 0 0 
4456394		 # 	collision with: 7 0 0  and 2 2 0 
4456432		 # 	collision with: 2 0 0  and 3 0 0 
4456434		 # 	collision with: 2 5 0  and 7 6 0 
4456441		 # 	collision with: 7 0 0  and 2 1 0 
4456443		 # 	collision with: 4 0 0  and 6 2 0 
4456465		 # 	collision with: 3 2 0  and 8 3 1 
4456467		 # 	collision with: 1 1 0  and 5 1 1 
4456472		 # 	collision with: 2 0 0  and 3 0 0 
4456474		 # 	collision with: 3 1 0  and 5 2 0 
4456512		 # 	collision with: 2 0 0  and 3 0 0 
4456514		 # 	collision with: 3 2 0  and 8 1 1 
4456525		 # 	collision with: 2 0 0  and 6 2 0 
4456527		 # 	collision with: 4 2 0  and 9 3 0 
4456552		 # 	collision with: 2 0 0  and 3 0 0 
4456554		 # 	collision with: 10 5 0  and 7 7 0 
4456569		 # 	collision with: 9 4 0  and 10 5 0 
4456571		 # 	collision with: 8 5 0  and 4 6 0 
4456592		 # 	collision with: 2 0 0  and 3 0 0 
4456594		 # 	collision with: 4 1 0  and 4 0 1 
4456617		 # 	collision with: 5 0 0  and 6 1 0 
4456619		 # 	collision with: 1 3 0  and 8 4 0 
4456632		 # 	collision with: 2 0 0  and 3 0 0 
4456634		 # 	collision with: 9 10 0  and 4 0 1 
4456637		 # 	collision with: 8 2 0  and 7 4 0 
4456639		 # 	collision with: 10 5 0  and 4 0 1 
4456672		 # 	collision with: 8 7 0  and 0 0 1 
4456674		 # 	collision with: 4 2 0  and 2 4 0 
4456676		 # 	collision with: 1 10 0  and 3 10 0 
4456678		 # 	collision with: 4 2 0  and 2 4 0 
4456680		 # 	collision with: 4 5 0  and 6 5 0 
4456682		 # 	collision with: 4 2 0  and 2 4 0 
4456684		 # 	collision with: 0 7 0  and 1 7 0 
4456686		 # 	collision with: 10 0 0  and 9 1 0 
4456688		 # 	collision with: 0 8 0  and 2 8 0 
4456690		 # 	collision with: 4 2 0  and 2 4 0 
4456692		 # 	collision with: 3 2 0  and 4 2 0 
4456694		 # 	collision with: 4 2 0  and 2 4 0 
4456696		 # 	collision with: 1 9 0  and 2 9 0 
4456698		 # 	collision with: 4 2 0  and 2 4 0 
4456700		 # 	collision with: 3 3 0  and 5 3 0 
4456702		 # 	collision with: 4 2 0  and 2 4 0 
4456704		 # 	collision with: 4 4 0  and 5 4 0 
4456706		 # 	collision with: 4 2 0  and 2 4 0 
4456708		 # 	collision with: 5 6 0  and 6 6 0 
4456710		 # 	collision with: 4 2 0  and 2 4 0 
4456712		 # 	collision with: 2 1 0  and 4 1 0 
4456753		 # 	collision with: 6 5 0  and 3 6 0 
4456755		 # 	collision with: 4 10 0  and 4 1 1 
4456756		 # 	collision with: 8 3 0  and 0 5 0 
4456758		 # 	collision with: 7 0 0  and 3 1 0 
4456773		 # 	collision with: 0 4 0  and 10 5 0 
4456775		 # 	collision with: 9 2 0  and 4 3 0 
4456796		 # 	collision with: 9 7 0  and 6 0 1 
4456798		 # 	collision with: 4 2 0  and 9 3 0 
4456821		 # 	collision with: 4 2 0  and 2 3 0 
4456823		 # 	collision with: 2 5 0  and 5 0 1 
4456836		 # 	collision with: 4 0 0  and 7 1 0 
4456865		 # 	collision with: 1 4 0  and 4 0 1 
4456867		 # 	collision with: 4 7 0  and 3 0 1 
4456876		 # 	collision with: 6 1 0  and 7 2 0 
4456878		 # 	collision with: 4 2 0  and 2 4 0 
4456916		 # 	collision with: 1 7 0  and 7 1 1 
4456918		 # 	collision with: 4 2 0  and 2 4 0 
4456925		 # 	collision with: 10 7 0  and 8 0 1 
4456927		 # 	collision with: 8 5 0  and 10 0 1 
4456949		 # 	collision with: 7 9 0  and 1 1 1 
4456951		 # 	collision with: 5 7 0  and 10 0 1 
4456956		 # 	collision with: 7 6 0  and 2 0 1 
4456958		 # 	collision with: 4 2 0  and 2 4 0 
4456996		 # 	collision with: 9 2 0  and 2 3 1 
4456998		 # 	collision with: 4 0 0  and 6 2 0 
4457009		 # 	collision with: 4 5 0  and 0 1 1 
4457011		 # 	collision with: 2 1 0  and 4 0 1 
4457036		 # 	collision with: 5 2 0  and 2 0 1 
4457038		 # 	collision with: 4 2 0  and 2 4 0 
4457053		 # 	collision with: 6 1 0  and 8 3 0 
4457055		 # 	collision with: 10 3 0  and 7 4 0 
4457078		 # 	collision with: 4 2 0  and 2 4 0 
4457103		 # 	collision with: 7 3 0  and 1 5 0 
4457116		 # 	collision with: 2 3 0  and 10 4 0 
4457118		 # 	collision with: 1 1 0  and 1 3 0 
4457121		 # 	collision with: 9 8 0  and 7 0 1 
4457123		 # 	collision with: 3 2 0  and 2 4 0 
4457156		 # 	collision with: 2 7 0  and 6 1 1 
4457158		 # 	collision with: 5 4 0  and 3 5 0 
4457160		 # 	collision with: 1 9 0  and 2 9 0 
4457162		 # 	collision with: 10 0 0  and 8 1 0 
4457164		 # 	collision with: 1 10 0  and 3 10 0 
4457166		 # 	collision with: 9 3 0  and 7 4 0 
4457168		 # 	collision with: 3 3 0  and 5 3 0 
4457170		 # 	collision with: 6 1 0  and 4 2 0 
4457172		 # 	collision with: 4 5 0  and 6 5 0 
4457174		 # 	collision with: 8 5 0  and 5 0 1 
4457176		 # 	collision with: 4 4 0  and 5 4 0 
4457178		 # 	collision with: 8 3 0  and 4 5 0 
4457180		 # 	collision with: 0 7 0  and 1 7 0 
4457182		 # 	collision with: 5 1 0  and 1 3 0 
4457184		 # 	collision with: 5 6 0  and 6 6 0 
4457186		 # 	collision with: 4 4 0  and 0 6 0 
4457188		 # 	collision with: 0 8 0  and 2 8 0 
4457190		 # 	collision with: 9 0 0  and 5 2 0 
4457192		 # 	collision with: 2 1 0  and 4 1 0 
4457196		 # 	collision with: 3 2 0  and 4 2 0 
4457198		 # 	collision with: 2 2 0  and 0 3 0 
4457237		 # 	collision with: 10 5 0  and 10 0 1 
4457239		 # 	collision with: 2 1 0  and 2 0 1 
4457240		 # 	collision with: 5 1 0  and 4 3 0 
4457242		 # 	collision with: 4 0 0  and 1 1 0 
4457257		 # 	collision with: 9 1 0  and 6 2 0 
4457259		 # 	collision with: 0 3 0  and 10 4 0 
4457280		 # 	collision with: 1 8 0  and 8 0 1 
4457282		 # 	collision with: 5 2 0  and 8 3 0 
4457305		 # 	collision with: 4 0 0  and 10 1 0 
4457307		 # 	collision with: 9 3 0  and 2 4 0 
4457320		 # 	collision with: 0 3 0  and 9 4 0 
4457322		 # 	collision with: 7 8 0  and 3 1 1 
4457349		 # 	collision with: 1 2 0  and 2 0 1 
4457351		 # 	collision with: 9 2 0  and 4 3 0 
4457360		 # 	collision with: 5 9 0  and 7 0 1 
4457362		 # 	collision with: 0 3 0  and 4 5 0 
4457400		 # 	collision with: 10 2 0  and 7 4 0 
4457402		 # 	collision with: 4 0 0  and 1 2 0 
4457409		 # 	collision with: 7 5 0  and 1 6 0 
4457411		 # 	collision with: 8 2 0  and 3 3 0 
4457433		 # 	collision with: 3 2 0  and 10 4 0 
4457435		 # 	collision with: 3 5 0  and 10 0 1 
4457440		 # 	collision with: 9 1 0  and 6 0 1 
4457482		 # 	collision with: 6 1 0  and 9 3 0 
4457495		 # 	collision with: 5 2 0  and 10 4 0 
4457520		 # 	collision with: 4 6 0  and 7 1 1 
4457522		 # 	collision with: 9 4 0  and 8 6 0 
4457537		 # 	collision with: 9 4 0  and 0 6 0 
4457539		 # 	collision with: 1 3 0  and 3 0 1 
4457560		 # 	collision with: 3 5 0  and 10 6 0 
4457562		 # 	collision with: 1 1 0  and 1 2 0 
4457585		 # 	collision with: 6 1 0  and 7 2 0 
4457587		 # 	collision with: 3 2 0  and 2 4 0 
4457600		 # 	collision with: 9 3 0  and 4 5 0 
4457602		 # 	collision with: 0 9 0  and 2 0 1 
4457605		 # 	collision with: 1 6 0  and 7 1 1 
4457607		 # 	collision with: 1 8 0  and 4 0 1 
4457640		 # 	collision with: 3 2 0  and 1 0 1 
4457642		 # 	collision with: 6 1 0  and 3 2 0 
4457644		 # 	collision with: 0 8 0  and 2 8 0 
4457646		 # 	collision with: 6 1 0  and 3 2 0 
4457648		 # 	collision with: 4 4 0  and 5 4 0 
4457650		 # 	collision with: 4 0 0  and 1 1 0 
4457652		 # 	collision with: 1 10 0  and 3 10 0 
4457654		 # 	collision with: 6 1 0  and 3 2 0 
4457656		 # 	collision with: 3 2 0  and 4 2 0 
4457658		 # 	collision with: 6 1 0  and 3 2 0 
4457660		 # 	collision with: 5 6 0  and 6 6 0 
4457662		 # 	collision with: 6 1 0  and 3 2 0 
4457664		 # 	collision with: 4 5 0  and 6 5 0 
4457666		 # 	collision with: 6 1 0  and 3 2 0 
4457668		 # 	collision with: 1 9 0  and 2 9 0 
4457670		 # 	collision with: 6 1 0  and 3 2 0 
4457672		 # 	collision with: 2 1 0  and 4 1 0 
4457676		 # 	collision with: 0 7 0  and 1 7 0 
4457678		 # 	collision with: 6 1 0  and 3 2 0 
4457680		 # 	collision with: 3 3 0  and 5 3 0 
4457682		 # 	collision with: 6 1 0  and 3 2 0 
4457721		 # 	collision with: 6 1 0  and 0 2 0 
4457723		 # 	collision with: 1 3 0  and 1 4 0 
4457724		 # 	collision with: 10 1 0  and 5 3 0 
4457726		 # 	collision with: 6 1 0  and 3 2 0 
4457741		 # 	collision with: 2 0 0  and 9 1 0 
4457764		 # 	collision with: 9 4 0  and 0 6 0 
4457766		 # 	collision with: 6 1 0  and 3 2 0 
4457789		 # 	collision with: 9 6 0  and 0 0 1 
4457791		 # 	collision with: 6 8 0  and 3 0 1 
4457804		 # 	collision with: 6 5 0  and 3 6 0 
4457806		 # 	collision with: 6 0 0  and 9 1 0 
4457833		 # 	collision with: 3 5 0  and 1 6 0 
4457835		 # 	collision with: 0 5 0  and 8 0 1 
4457844		 # 	collision with: 9 0 0  and 2 1 0 
4457846		 # 	collision with: 6 1 0  and 3 2 0 
4457886		 # 	collision with: 6 1 0  and 3 2 0 
4457895		 # 	collision with: 4 4 0  and 7 5 0 
4457917		 # 	collision with: 10 1 0  and 5 3 0 
4457919		 # 	collision with: 9 0 0  and 5 2 0 
4457924		 # 	collision with: 5 5 0  and 7 0 1 
4457926		 # 	collision with: 6 1 0  and 3 2 0 
4457964		 # 	collision with: 1 3 0  and 3 4 0 
4457966		 # 	collision with: 6 1 0  and 3 2 0 
4457977		 # 	collision with: 3 0 1  and 5 1 1 
11.5585secs	7480
