# prime 11
# degree 2
# input variables 3
# output variables 5
# reload computed balance functions from file balance-2217of3248-p11d2m3-debug.log
# p = 11
# n = 5
# smalldomain p^m 1331
# domain p^n 161051
#	 p^2 = 121
#	 p^3 = 1331
#	 p^4 = 14641
#	 p^5 = 161051
#	 p^6 = 1771561
#	 p^7 = 19487171
#	 p^8 = 214358881
#	 p^9 = 2357947691
opening file : balance-2217of3248-p11d2m3-debug.log
reloading for step2...
13302008		 # 	collision with: 5 5 6 0 0  and 6 5 6 0 0 
13302010		 # 	collision with: 4 2 4 0 0  and 6 2 4 0 0 
13302028		 # 	collision with: 5 5 1 0 0  and 6 5 1 0 0 
13302030		 # 	collision with: 4 2 2 0 0  and 6 2 2 0 0 
13302044		 # 	collision with: 7 0 3 0 0  and 4 2 3 0 0 
13302046		 # 	collision with: 8 4 3 0 0  and 8 5 3 0 0 
13302064		 # 	collision with: 9 2 4 0 0  and 2 4 4 0 0 
13302066		 # 	collision with: 9 0 4 0 0  and 1 1 4 0 0 
13302089		 # 	collision with: 1 1 1 0 0  and 1 3 1 0 0 
13302091		 # 	collision with: 4 2 2 0 0  and 6 2 2 0 0 
13302093		 # 	collision with: 2 3 3 0 0  and 2 5 3 0 0 
13302095		 # 	collision with: 1 1 1 0 0  and 1 2 1 0 0 
13302104		 # 	collision with: 5 4 1 0 0  and 5 5 1 0 0 
13302106		 # 	collision with: 4 1 1 0 0  and 4 3 1 0 0 
13302120		 # 	collision with: 5 5 0 0 0  and 6 5 0 0 0 
13302122		 # 	collision with: 4 1 5 0 0  and 4 3 5 0 0 
13302132		 # 	collision with: 4 0 3 0 0  and 7 1 3 0 0 
13302134		 # 	collision with: 4 2 3 0 0  and 6 2 3 0 0 
13302141		 # 	collision with: 5 5 1 0 0  and 6 5 1 0 0 
13302143		 # 	collision with: 10 2 0 0 0  and 10 4 0 0 0 
13302157		 # 	collision with: 4 0 2 0 0  and 7 1 2 0 0 
13302159		 # 	collision with: 4 2 3 0 0  and 6 2 3 0 0 
13302166		 # 	collision with: 4 2 1 0 0  and 6 2 1 0 0 
13302180		 # 	collision with: 3 0 2 0 0  and 3 1 2 0 0 
13302182		 # 	collision with: 4 2 0 0 0  and 6 2 0 0 0 
13302185		 # 	collision with: 6 2 2 0 0  and 6 0 4 0 0 
13302187		 # 	collision with: 10 2 0 0 0  and 10 4 0 0 0 
13302188		 # 	collision with: 5 5 4 0 0  and 6 5 4 0 0 
13302190		 # 	collision with: 4 2 2 0 0  and 6 2 2 0 0 
13302240		 # 	collision with: 5 5 7 0 0  and 6 5 7 0 0 
13302244		 # 	collision with: 5 5 1 0 0  and 6 5 1 0 0 
13302256		 # 	collision with: 0 9 0 0 0  and 4 1 2 1 0 
13302258		 # 	collision with: 3 10 9 0 0  and 8 0 0 1 0 
13302312		 # 	collision with: 5 5 1 0 0  and 6 5 1 0 0 
13302316		 # 	collision with: 5 4 4 0 0  and 5 5 4 0 0 
13302368		 # 	collision with: 5 5 4 0 0  and 6 5 4 0 0 
13302370		 # 	collision with: 4 2 2 0 0  and 6 2 2 0 0 
13302373		 # 	collision with: 8 10 2 0 0  and 8 0 3 0 0 
13302375		 # 	collision with: 9 0 2 0 0  and 9 2 2 0 0 
13302376		 # 	collision with: 4 0 2 0 0  and 7 1 2 0 0 
13302378		 # 	collision with: 4 2 0 0 0  and 6 2 0 0 0 
13302394		 # 	collision with: 4 2 1 0 0  and 6 2 1 0 0 
13302401		 # 	collision with: 7 0 1 0 0  and 4 2 1 0 0 
13302403		 # 	collision with: 4 2 0 0 0  and 6 2 0 0 0 
13302417		 # 	collision with: 5 5 1 0 0  and 6 5 1 0 0 
13302419		 # 	collision with: 4 2 1 0 0  and 6 2 1 0 0 
13302424		 # 	collision with: 7 2 3 0 0  and 7 4 3 0 0 
13302426		 # 	collision with: 4 2 3 0 0  and 6 2 3 0 0 
13302436		 # 	collision with: 5 5 0 0 0  and 6 5 0 0 0 
13302438		 # 	collision with: 9 0 5 0 0  and 9 2 5 0 0 
13302452		 # 	collision with: 8 4 1 0 0  and 8 6 1 0 0 
13302454		 # 	collision with: 2 3 1 0 0  and 2 4 1 0 0 
13302465		 # 	collision with: 6 6 2 0 0  and 5 0 3 0 0 
13302467		 # 	collision with: 3 2 0 0 0  and 7 3 0 0 0 
13302469		 # 	collision with: 5 5 1 0 0  and 6 5 1 0 0 
13302471		 # 	collision with: 7 2 0 0 0  and 7 3 0 0 0 
13302492		 # 	collision with: 5 4 4 0 0  and 5 5 4 0 0 
13302494		 # 	collision with: 1 1 4 0 0  and 1 2 4 0 0 
13302512		 # 	collision with: 9 2 3 0 0  and 2 4 3 0 0 
13302514		 # 	collision with: 2 3 3 0 0  and 2 4 3 0 0 
13302528		 # 	collision with: 5 5 1 0 0  and 6 5 1 0 0 
13302530		 # 	collision with: 4 2 2 0 0  and 6 2 2 0 0 
13302548		 # 	collision with: 5 5 6 0 0  and 6 5 6 0 0 
13302550		 # 	collision with: 4 2 4 0 0  and 6 2 4 0 0 
13302573		 # 	collision with: 4 2 0 0 0  and 4 3 0 0 0 
13302575		 # 	collision with: 3 4 2 0 0  and 3 4 3 0 0 
13302577		 # 	collision with: 10 10 2 0 0  and 10 8 3 0 0 
13302579		 # 	collision with: 4 2 0 0 0  and 6 2 0 0 0 
13302588		 # 	collision with: 5 5 9 0 0  and 6 5 9 0 0 
13302590		 # 	collision with: 1 1 10 0 0  and 1 2 10 0 0 
13302604		 # 	collision with: 5 5 3 0 0  and 6 5 3 0 0 
13302606		 # 	collision with: 4 2 1 0 0  and 6 2 1 0 0 
13302618		 # 	collision with: 4 2 7 0 0  and 6 2 7 0 0 
13302625		 # 	collision with: 2 6 2 0 0  and 2 2 3 0 0 
13302627		 # 	collision with: 3 2 2 0 0  and 3 2 3 0 0 
13302641		 # 	collision with: 4 1 2 0 0  and 4 1 3 0 0 
13302643		 # 	collision with: 3 2 0 0 0  and 7 3 0 0 0 
13302648		 # 	collision with: 5 5 4 0 0  and 6 5 4 0 0 
13302650		 # 	collision with: 4 2 5 0 0  and 6 2 5 0 0 
13302664		 # 	collision with: 5 5 5 0 0  and 6 5 5 0 0 
13302666		 # 	collision with: 4 2 6 0 0  and 6 2 6 0 0 
13302669		 # 	collision with: 5 5 2 0 0  and 6 5 2 0 0 
13302671		 # 	collision with: 4 2 1 0 0  and 6 2 1 0 0 
13302672		 # 	collision with: 8 4 1 0 0  and 8 6 1 0 0 
13302674		 # 	collision with: 2 3 1 0 0  and 2 4 1 0 0 
13302724		 # 	collision with: 7 3 7 0 0  and 4 4 7 0 0 
13302726		 # 	collision with: 0 4 7 0 0  and 10 5 7 0 0 
13302728		 # 	collision with: 7 3 2 0 0  and 4 4 2 0 0 
13302730		 # 	collision with: 4 2 0 0 0  and 6 2 0 0 0 
13302740		 # 	collision with: 7 3 3 0 0  and 3 8 0 1 0 
13302742		 # 	collision with: 9 4 3 0 0  and 2 1 0 1 0 
13302796		 # 	collision with: 5 5 0 0 0  and 6 5 0 0 0 
13302798		 # 	collision with: 8 4 5 0 0  and 8 5 5 0 0 
13302800		 # 	collision with: 7 0 1 0 0  and 4 2 1 0 0 
13302802		 # 	collision with: 5 3 1 0 0  and 5 5 1 0 0 
13302854		 # 	collision with: 4 2 7 0 0  and 6 2 7 0 0 
13302857		 # 	collision with: 5 5 1 0 0  and 6 5 1 0 0 
13302859		 # 	collision with: 4 2 1 0 0  and 6 2 1 0 0 
13302860		 # 	collision with: 5 5 4 0 0  and 6 5 4 0 0 
13302862		 # 	collision with: 4 2 5 0 0  and 6 2 5 0 0 
13302876		 # 	collision with: 8 4 4 0 0  and 8 6 4 0 0 
13302885		 # 	collision with: 5 5 0 0 0  and 6 5 0 0 0 
13302901		 # 	collision with: 10 7 1 0 0  and 10 0 3 0 0 
13302908		 # 	collision with: 5 5 1 0 0  and 6 5 1 0 0 
13302920		 # 	collision with: 8 4 4 0 0  and 8 6 4 0 0 
13302922		 # 	collision with: 6 0 4 0 0  and 6 1 4 0 0 
13302936		 # 	collision with: 4 2 3 0 0  and 4 3 3 0 0 
13302938		 # 	collision with: 9 0 3 0 0  and 9 2 3 0 0 
13302949		 # 	collision with: 5 5 2 0 0  and 6 5 2 0 0 
13302951		 # 	collision with: 4 2 0 0 0  and 6 2 0 0 0 
13302953		 # 	collision with: 1 1 0 0 0  and 1 3 0 0 0 
13302955		 # 	collision with: 8 1 1 0 0  and 8 1 3 0 0 
13302976		 # 	collision with: 9 1 1 0 0  and 9 2 1 0 0 
13302978		 # 	collision with: 5 3 1 0 0  and 5 5 1 0 0 
13302996		 # 	collision with: 5 5 5 0 0  and 6 5 5 0 0 
13302998		 # 	collision with: 4 2 6 0 0  and 6 2 6 0 0 
13303012		 # 	collision with: 9 1 2 0 0  and 9 2 2 0 0 
13303014		 # 	collision with: 4 2 0 0 0  and 6 2 0 0 0 
13303032		 # 	collision with: 5 5 4 0 0  and 6 5 4 0 0 
13303034		 # 	collision with: 4 2 2 0 0  and 6 2 2 0 0 
13303057		 # 	collision with: 2 10 1 0 0  and 2 10 3 0 0 
13303059		 # 	collision with: 4 4 1 0 0  and 6 3 3 0 0 
13303061		 # 	collision with: 5 5 0 0 0  and 6 5 0 0 0 
13303063		 # 	collision with: 4 2 3 0 0  and 6 2 3 0 0 
13303072		 # 	collision with: 5 5 1 0 0  and 6 5 1 0 0 
13303074		 # 	collision with: 4 2 2 0 0  and 6 2 2 0 0 
13303088		 # 	collision with: 5 5 6 0 0  and 6 5 6 0 0 
13303090		 # 	collision with: 4 2 4 0 0  and 6 2 4 0 0 
13303100		 # 	collision with: 6 1 2 0 0  and 5 2 2 0 0 
13303102		 # 	collision with: 4 2 0 0 0  and 6 2 0 0 0 
13303109		 # 	collision with: 2 5 1 0 0  and 2 5 3 0 0 
13303111		 # 	collision with: 4 2 1 0 0  and 6 2 1 0 0 
13303125		 # 	collision with: 5 5 1 0 0  and 6 5 1 0 0 
13303127		 # 	collision with: 4 2 0 0 0  and 6 2 0 0 0 
13303132		 # 	collision with: 7 0 7 0 0  and 4 2 7 0 0 
13303134		 # 	collision with: 3 5 7 0 0  and 3 6 7 0 0 
13303150		 # 	collision with: 4 2 1 0 0  and 6 2 1 0 0 
13303153		 # 	collision with: 3 5 1 0 0  and 3 5 3 0 0 
13303155		 # 	collision with: 3 2 1 0 0  and 7 3 3 0 0 
13303156		 # 	collision with: 4 2 3 0 0  and 4 3 3 0 0 
13303158		 # 	collision with: 9 0 3 0 0  and 1 2 3 0 0 
13303208		 # 	collision with: 5 5 9 0 0  and 6 5 9 0 0 
13303210		 # 	collision with: 4 2 10 0 0  and 6 2 10 0 0 
13303212		 # 	collision with: 5 5 3 0 0  and 6 5 3 0 0 
13303214		 # 	collision with: 4 2 1 0 0  and 6 2 1 0 0 
13303224		 # 	collision with: 0 2 4 0 0  and 6 7 0 1 0 
13303226		 # 	collision with: 5 7 6 0 0  and 10 8 2 1 0 
13303280		 # 	collision with: 7 0 1 0 0  and 4 2 1 0 0 
13303282		 # 	collision with: 1 1 1 0 0  and 1 2 1 0 0 
13303284		 # 	collision with: 5 5 5 0 0  and 6 5 5 0 0 
13303286		 # 	collision with: 4 2 6 0 0  and 6 2 6 0 0 
13303336		 # 	collision with: 5 5 3 0 0  and 6 5 3 0 0 
13303338		 # 	collision with: 4 2 1 0 0  and 6 2 1 0 0 
13303341		 # 	collision with: 10 3 1 0 0  and 10 3 2 0 0 
13303343		 # 	collision with: 1 1 0 0 0  and 9 2 0 0 0 
13303344		 # 	collision with: 5 5 9 0 0  and 6 5 9 0 0 
13303346		 # 	collision with: 4 2 10 0 0  and 6 2 10 0 0 
13303360		 # 	collision with: 5 4 3 0 0  and 5 5 3 0 0 
13303362		 # 	collision with: 3 5 3 0 0  and 3 6 3 0 0 
13303369		 # 	collision with: 8 10 1 0 0  and 8 0 2 0 0 
13303371		 # 	collision with: 8 7 1 0 0  and 8 7 2 0 0 
13303387		 # 	collision with: 1 1 0 0 0  and 9 2 0 0 0 
13303392		 # 	collision with: 9 1 4 0 0  and 9 2 4 0 0 
13303394		 # 	collision with: 4 1 4 0 0  and 4 3 4 0 0 
13303404		 # 	collision with: 5 4 3 0 0  and 5 5 3 0 0 
13303406		 # 	collision with: 4 2 3 0 0  and 6 2 3 0 0 
13303422		 # 	collision with: 4 2 1 0 0  and 6 2 1 0 0 
13303433		 # 	collision with: 6 4 1 0 0  and 6 4 2 0 0 
13303435		 # 	collision with: 6 9 1 0 0  and 6 3 2 0 0 
13303437		 # 	collision with: 9 6 1 0 0  and 2 1 2 0 0 
13303439		 # 	collision with: 4 2 2 0 0  and 6 2 2 0 0 
13303460		 # 	collision with: 5 5 1 0 0  and 6 5 1 0 0 
13303480		 # 	collision with: 7 0 4 0 0  and 4 2 4 0 0 
13303496		 # 	collision with: 4 1 7 0 0  and 7 3 7 0 0 
13303498		 # 	collision with: 1 1 7 0 0  and 9 2 7 0 0 
13303516		 # 	collision with: 5 5 2 0 0  and 6 5 2 0 0 
13303518		 # 	collision with: 4 2 0 0 0  and 6 2 0 0 0 
13303541		 # 	collision with: 8 5 1 0 0  and 3 5 2 0 0 
13303543		 # 	collision with: 4 2 0 0 0  and 6 2 0 0 0 
13303545		 # 	collision with: 7 0 1 0 0  and 7 6 2 0 0 
13303547		 # 	collision with: 6 1 1 0 0  and 6 0 2 0 0 
13303556		 # 	collision with: 5 5 4 0 0  and 6 5 4 0 0 
13303558		 # 	collision with: 4 2 5 0 0  and 6 2 5 0 0 
13303574		 # 	collision with: 4 2 7 0 0  and 6 2 7 0 0 
13303584		 # 	collision with: 5 5 6 0 0  and 6 5 6 0 0 
13303586		 # 	collision with: 4 2 4 0 0  and 6 2 4 0 0 
13303593		 # 	collision with: 5 5 2 0 0  and 6 5 2 0 0 
13303595		 # 	collision with: 1 3 1 0 0  and 9 6 2 0 0 
13303611		 # 	collision with: 7 4 1 0 0  and 7 4 2 0 0 
13303616		 # 	collision with: 5 5 1 0 0  and 6 5 1 0 0 
13303618		 # 	collision with: 4 2 2 0 0  and 6 2 2 0 0 
13303632		 # 	collision with: 4 2 1 0 0  and 4 3 1 0 0 
13303634		 # 	collision with: 1 1 1 0 0  and 1 2 1 0 0 
13303637		 # 	collision with: 2 8 1 0 0  and 2 8 2 0 0 
13303639		 # 	collision with: 9 7 1 0 0  and 1 0 2 0 0 
13303640		 # 	collision with: 5 5 0 0 0  and 6 5 0 0 0 
13303642		 # 	collision with: 9 0 5 0 0  and 1 1 5 0 0 
13303692		 # 	collision with: 7 0 2 0 0  and 4 2 2 0 0 
13303694		 # 	collision with: 4 2 0 0 0  and 6 2 0 0 0 
13303696		 # 	collision with: 5 5 4 0 0  and 6 5 4 0 0 
13303698		 # 	collision with: 4 2 2 0 0  and 6 2 2 0 0 
13303708		 # 	collision with: 10 2 6 0 0  and 6 7 0 1 0 
13303710		 # 	collision with: 4 6 6 0 0  and 0 6 0 1 0 
13303766		 # 	collision with: 4 2 7 0 0  and 6 2 7 0 0 
13303768		 # 	collision with: 5 5 4 0 0  and 6 5 4 0 0 
13303770		 # 	collision with: 4 2 5 0 0  and 6 2 5 0 0 
13303820		 # 	collision with: 4 2 4 0 0  and 4 3 4 0 0 
13303822		 # 	collision with: 3 5 4 0 0  and 3 6 4 0 0 
13303825		 # 	collision with: 5 5 0 0 0  and 6 5 0 0 0 
13303827		 # 	collision with: 4 2 0 0 0  and 6 2 0 0 0 
13303828		 # 	collision with: 3 0 3 0 0  and 3 1 3 0 0 
13303830		 # 	collision with: 4 1 3 0 0  and 4 3 3 0 0 
13303844		 # 	collision with: 3 2 2 0 0  and 8 3 2 0 0 
13303846		 # 	collision with: 4 2 0 0 0  and 6 2 0 0 0 
13303853		 # 	collision with: 3 0 0 0 0  and 3 0 2 0 0 
13303855		 # 	collision with: 10 0 0 0 0  and 10 0 2 0 0 
13303869		 # 	collision with: 5 5 0 0 0  and 6 5 0 0 0 
13303871		 # 	collision with: 4 2 0 0 0  and 6 2 0 0 0 
13303876		 # 	collision with: 5 5 4 0 0  and 6 5 4 0 0 
13303878		 # 	collision with: 4 2 2 0 0  and 6 2 2 0 0 
13303888		 # 	collision with: 2 3 2 0 0  and 2 5 2 0 0 
13303890		 # 	collision with: 4 2 0 0 0  and 6 2 0 0 0 
13303904		 # 	collision with: 6 1 7 0 0  and 5 2 7 0 0 
13303906		 # 	collision with: 1 1 7 0 0  and 1 2 7 0 0 
13303919		 # 	collision with: 7 2 1 0 0  and 7 3 1 0 0 
13303921		 # 	collision with: 5 0 0 0 0  and 5 0 2 0 0 
13303923		 # 	collision with: 2 0 0 0 0  and 2 0 2 0 0 
13303944		 # 	collision with: 5 5 3 0 0  and 6 5 3 0 0 
13303946		 # 	collision with: 4 2 1 0 0  and 6 2 1 0 0 
13303964		 # 	collision with: 5 5 9 0 0  and 6 5 9 0 0 
13303966		 # 	collision with: 4 2 10 0 0  and 6 2 10 0 0 
13303980		 # 	collision with: 1 1 1 0 0  and 1 3 1 0 0 
13303982		 # 	collision with: 6 3 1 0 0  and 4 4 1 0 0 
13304000		 # 	collision with: 5 5 0 0 0  and 6 5 0 0 0 
13304002		 # 	collision with: 0 2 5 0 0  and 10 4 5 0 0 
13304029		 # 	collision with: 6 0 0 0 0  and 6 0 2 0 0 
13304040		 # 	collision with: 4 2 4 0 0  and 4 3 4 0 0 
13304056		 # 	collision with: 5 5 1 0 0  and 6 5 1 0 0 
13304068		 # 	collision with: 1 1 1 0 0  and 1 3 1 0 0 
13304070		 # 	collision with: 3 5 1 0 0  and 3 6 1 0 0 
13304077		 # 	collision with: 8 0 0 0 0  and 8 0 2 0 0 
13304079		 # 	collision with: 0 4 1 0 0  and 10 5 1 0 0 
13304093		 # 	collision with: 8 0 0 0 0  and 8 0 2 0 0 
13304095		 # 	collision with: 7 2 1 0 0  and 7 3 1 0 0 
13304100		 # 	collision with: 5 5 5 0 0  and 6 5 5 0 0 
13304102		 # 	collision with: 4 2 6 0 0  and 6 2 6 0 0 
13304116		 # 	collision with: 5 5 1 0 0  and 6 5 1 0 0 
13304118		 # 	collision with: 4 2 2 0 0  and 6 2 2 0 0 
13304121		 # 	collision with: 4 2 2 0 0  and 4 3 2 0 0 
13304123		 # 	collision with: 7 0 0 0 0  and 7 0 2 0 0 
13304124		 # 	collision with: 5 5 6 0 0  and 6 5 6 0 0 
13304126		 # 	collision with: 4 2 4 0 0  and 6 2 4 0 0 
13304178		 # 	collision with: 4 2 1 0 0  and 6 2 1 0 0 
13304180		 # 	collision with: 3 0 3 0 0  and 3 1 3 0 0 
13304182		 # 	collision with: 4 2 3 0 0  and 6 2 3 0 0 
13304192		 # 	collision with: 5 2 1 0 0  and 9 4 0 1 0 
13304194		 # 	collision with: 7 10 1 0 0  and 9 2 0 1 0 
13304248		 # 	collision with: 1 1 4 0 0  and 1 3 4 0 0 
13304250		 # 	collision with: 9 0 4 0 0  and 9 2 4 0 0 
13304252		 # 	collision with: 7 3 3 0 0  and 4 4 3 0 0 
13304254		 # 	collision with: 6 0 3 0 0  and 6 1 3 0 0 
13304304		 # 	collision with: 1 1 2 0 0  and 1 3 2 0 0 
13304306		 # 	collision with: 4 2 0 0 0  and 6 2 0 0 0 
13304309		 # 	collision with: 3 10 0 0 0  and 8 7 1 0 0 
13304311		 # 	collision with: 9 0 0 0 0  and 1 1 0 0 0 
13304312		 # 	collision with: 4 0 7 0 0  and 7 1 7 0 0 
13304314		 # 	collision with: 9 0 7 0 0  and 9 2 7 0 0 
13304328		 # 	collision with: 10 3 1 0 0  and 10 4 1 0 0 
13304330		 # 	collision with: 9 0 1 0 0  and 1 2 1 0 0 
13304337		 # 	collision with: 5 4 0 0 0  and 5 4 1 0 0 
13304339		 # 	collision with: 1 4 0 0 0  and 1 4 1 0 0 
13304353		 # 	collision with: 10 9 0 0 0  and 1 4 1 0 0 
13304355		 # 	collision with: 9 0 0 0 0  and 1 1 0 0 0 
13304360		 # 	collision with: 5 5 0 0 0  and 6 5 0 0 0 
13304362		 # 	collision with: 6 0 5 0 0  and 6 1 5 0 0 
13304372		 # 	collision with: 4 0 1 0 0  and 7 1 1 0 0 
13304374		 # 	collision with: 8 4 1 0 0  and 8 5 1 0 0 
13304388		 # 	collision with: 5 5 5 0 0  and 6 5 5 0 0 
13304390		 # 	collision with: 4 2 6 0 0  and 6 2 6 0 0 
13304401		 # 	collision with: 4 7 0 0 0  and 4 7 1 0 0 
13304403		 # 	collision with: 1 7 0 0 0  and 1 7 1 0 0 
13304405		 # 	collision with: 5 5 0 0 0  and 6 5 0 0 0 
13304407		 # 	collision with: 10 5 0 0 0  and 10 5 1 0 0 
13304428		 # 	collision with: 9 2 3 0 0  and 2 4 3 0 0 
13304430		 # 	collision with: 9 0 3 0 0  and 1 1 3 0 0 
13304450		 # 	collision with: 4 2 1 0 0  and 6 2 1 0 0 
13304464		 # 	collision with: 5 5 4 0 0  and 6 5 4 0 0 
13304466		 # 	collision with: 4 2 5 0 0  and 6 2 5 0 0 
13304486		 # 	collision with: 4 2 7 0 0  and 6 2 7 0 0 
13304509		 # 	collision with: 8 6 0 0 0  and 8 6 1 0 0 
13304511		 # 	collision with: 6 0 0 0 0  and 6 1 0 0 0 
13304513		 # 	collision with: 10 4 0 0 0  and 10 4 1 0 0 
13304515		 # 	collision with: 3 10 0 0 0  and 3 1 1 0 0 
13304524		 # 	collision with: 1 1 2 0 0  and 1 3 2 0 0 
13304526		 # 	collision with: 4 2 0 0 0  and 6 2 0 0 0 
13304540		 # 	collision with: 5 5 4 0 0  and 6 5 4 0 0 
13304542		 # 	collision with: 4 2 2 0 0  and 6 2 2 0 0 
13304552		 # 	collision with: 5 5 3 0 0  and 6 5 3 0 0 
13304554		 # 	collision with: 4 2 1 0 0  and 6 2 1 0 0 
13304561		 # 	collision with: 3 0 0 0 0  and 3 1 0 0 0 
13304563		 # 	collision with: 2 5 0 0 0  and 8 2 1 0 0 
13304577		 # 	collision with: 2 7 0 0 0  and 2 7 1 0 0 
13304579		 # 	collision with: 4 2 1 0 0  and 6 2 1 0 0 
13304584		 # 	collision with: 5 5 9 0 0  and 6 5 9 0 0 
13304586		 # 	collision with: 4 2 10 0 0  and 6 2 10 0 0 
13304600		 # 	collision with: 1 1 4 0 0  and 1 3 4 0 0 
13304605		 # 	collision with: 3 0 0 0 0  and 3 1 0 0 0 
13304608		 # 	collision with: 5 5 1 0 0  and 6 5 1 0 0 
13304660		 # 	collision with: 5 5 1 0 0  and 6 5 1 0 0 
13304662		 # 	collision with: 4 2 2 0 0  and 6 2 2 0 0 
13304664		 # 	collision with: 5 5 6 0 0  and 6 5 6 0 0 
13304666		 # 	collision with: 4 2 4 0 0  and 6 2 4 0 0 
13304697		 # 	collision with: 6 1 6 0 0  and 5 2 6 0 0 
13304701		 # 	collision with: 1 1 3 0 0  and 1 3 3 0 0 
13304729		 # 	collision with: 5 4 1 0 0  and 5 5 1 0 0 
13304731		 # 	collision with: 4 10 3 0 0  and 6 10 3 0 0 
13304741		 # 	collision with: 4 0 2 0 0  and 7 1 2 0 0 
13304743		 # 	collision with: 6 0 2 0 0  and 6 1 2 0 0 
13304795		 # 	collision with: 4 10 4 0 0  and 6 10 4 0 0 
13304913		 # 	collision with: 7 2 4 0 0  and 7 4 4 0 0 
13304915		 # 	collision with: 4 10 1 0 0  and 6 10 1 0 0 
13304933		 # 	collision with: 5 5 2 0 0  and 6 5 2 0 0 
13304935		 # 	collision with: 4 10 2 0 0  and 6 10 2 0 0 
13304949		 # 	collision with: 5 4 1 0 0  and 5 5 1 0 0 
13304951		 # 	collision with: 7 5 5 0 0  and 7 0 6 0 0 
13304969		 # 	collision with: 6 5 5 0 0  and 5 5 6 0 0 
13304971		 # 	collision with: 1 0 3 0 0  and 9 1 3 0 0 
13305091		 # 	collision with: 1 1 2 0 0  and 1 2 2 0 0 
13305141		 # 	collision with: 1 1 3 0 0  and 1 3 3 0 0 
13305143		 # 	collision with: 4 10 4 0 0  and 6 10 4 0 0 
13305153		 # 	collision with: 5 5 1 0 0  and 6 5 1 0 0 
13305155		 # 	collision with: 4 10 1 0 0  and 6 10 1 0 0 
13305160		 # 	collision with: 2 7 1 0 0  and 6 10 1 1 0 
13305162		 # 	collision with: 6 0 0 0 0  and 5 9 0 1 0 
13305181		 # 	collision with: 3 2 1 0 0  and 8 3 1 0 0 
13305183		 # 	collision with: 0 2 1 0 0  and 10 3 1 0 0 
13305185		 # 	collision with: 8 4 0 0 0  and 8 6 0 0 0 
13305187		 # 	collision with: 1 1 4 0 0  and 1 2 6 0 0 
13305213		 # 	collision with: 5 5 0 0 0  and 6 5 0 0 0 
13305215		 # 	collision with: 1 2 2 0 0  and 9 4 2 0 0 
13305225		 # 	collision with: 7 2 3 0 0  and 7 4 3 0 0 
13305227		 # 	collision with: 6 5 2 0 0  and 4 6 2 0 0 
13305277		 # 	collision with: 5 5 4 0 0  and 6 5 4 0 0 
13305397		 # 	collision with: 5 9 4 0 0  and 5 0 6 0 0 
13305399		 # 	collision with: 4 10 3 0 0  and 6 10 3 0 0 
13305417		 # 	collision with: 4 0 1 0 0  and 7 1 1 0 0 
13305419		 # 	collision with: 4 10 4 0 0  and 6 10 4 0 0 
13305433		 # 	collision with: 5 5 0 0 0  and 6 5 0 0 0 
13305435		 # 	collision with: 10 2 2 0 0  and 10 4 2 0 0 
13305453		 # 	collision with: 5 5 5 0 0  and 6 5 5 0 0 
13305455		 # 	collision with: 4 4 0 0 0  and 6 6 0 0 0 
13305573		 # 	collision with: 5 5 5 0 0  and 6 5 5 0 0 
13305575		 # 	collision with: 1 2 1 0 0  and 9 4 1 0 0 
13305625		 # 	collision with: 8 4 0 0 0  and 8 6 0 0 0 
13305627		 # 	collision with: 4 10 5 0 0  and 6 10 5 0 0 
13305637		 # 	collision with: 6 1 2 0 0  and 5 2 2 0 0 
13305639		 # 	collision with: 4 10 2 0 0  and 6 10 2 0 0 
13305644		 # 	collision with: 4 1 1 0 0  and 6 8 1 1 0 
13305646		 # 	collision with: 5 5 0 0 0  and 2 4 0 1 0 
13305665		 # 	collision with: 6 0 8 0 0  and 6 2 8 0 0 
13305667		 # 	collision with: 4 1 1 0 0  and 4 3 1 0 0 
13305669		 # 	collision with: 6 1 1 0 0  and 5 2 1 0 0 
13305671		 # 	collision with: 9 0 3 0 0  and 9 2 3 0 0 
13305699		 # 	collision with: 4 10 1 0 0  and 6 10 1 0 0 
13305709		 # 	collision with: 8 4 4 0 0  and 8 6 5 0 0 
13305711		 # 	collision with: 4 1 1 0 0  and 4 3 1 0 0 
13305761		 # 	collision with: 5 4 0 0 0  and 6 5 0 0 0 
13305763		 # 	collision with: 4 10 3 0 0  and 6 10 3 0 0 
13305881		 # 	collision with: 5 5 0 0 0  and 6 5 0 0 0 
13305883		 # 	collision with: 5 3 3 0 0  and 5 5 3 0 0 
13305901		 # 	collision with: 2 3 5 0 0  and 9 5 5 0 0 
13305903		 # 	collision with: 8 4 0 0 0  and 8 5 0 0 0 
13305917		 # 	collision with: 6 0 4 0 0  and 6 2 5 0 0 
13305919		 # 	collision with: 4 10 2 0 0  and 6 10 2 0 0 
13305937		 # 	collision with: 5 4 0 0 0  and 6 5 0 0 0 
13305939		 # 	collision with: 4 10 1 0 0  and 6 10 1 0 0 
13306057		 # 	collision with: 5 5 0 0 0  and 6 5 0 0 0 
13306059		 # 	collision with: 5 3 3 0 0  and 5 5 3 0 0 
13306111		 # 	collision with: 9 0 3 0 0  and 9 2 3 0 0 
13306121		 # 	collision with: 5 5 3 0 0  and 6 5 3 0 0 
13306123		 # 	collision with: 8 4 0 0 0  and 8 5 0 0 0 
13306128		 # 	collision with: 6 0 0 0 0  and 0 7 0 1 0 
13306130		 # 	collision with: 10 3 0 0 0  and 5 6 0 1 0 
13306149		 # 	collision with: 5 4 2 0 0  and 5 5 2 0 0 
13306151		 # 	collision with: 10 3 3 0 0  and 0 8 5 0 0 
13306155		 # 	collision with: 5 3 0 0 0  and 5 5 0 0 0 
13306181		 # 	collision with: 1 1 2 0 0  and 1 3 2 0 0 
13306183		 # 	collision with: 4 10 0 0 0  and 6 10 0 0 0 
13306193		 # 	collision with: 5 4 2 0 0  and 5 5 2 0 0 
13306195		 # 	collision with: 4 10 3 0 0  and 6 10 3 0 0 
13306245		 # 	collision with: 5 5 3 0 0  and 6 5 3 0 0 
13306247		 # 	collision with: 3 0 4 0 0  and 7 2 4 0 0 
13306365		 # 	collision with: 2 3 0 0 0  and 2 5 0 0 0 
13306367		 # 	collision with: 2 2 3 0 0  and 2 2 5 0 0 
13306385		 # 	collision with: 6 7 3 0 0  and 5 0 5 0 0 
13306387		 # 	collision with: 7 2 4 0 0  and 7 3 4 0 0 
13306401		 # 	collision with: 1 1 2 0 0  and 1 3 2 0 0 
13306421		 # 	collision with: 5 5 1 0 0  and 6 5 1 0 0 
13306541		 # 	collision with: 2 3 0 0 0  and 2 5 0 0 0 
13306543		 # 	collision with: 6 2 3 0 0  and 6 2 5 0 0 
13306593		 # 	collision with: 5 5 0 0 0  and 6 5 0 0 0 
13306595		 # 	collision with: 5 3 0 0 0  and 5 5 0 0 0 
13306605		 # 	collision with: 5 5 4 0 0  and 6 5 4 0 0 
13306607		 # 	collision with: 7 2 4 0 0  and 7 3 4 0 0 
13306612		 # 	collision with: 4 4 0 0 0  and 10 1 0 1 0 
13306614		 # 	collision with: 1 8 0 0 0  and 6 2 0 1 0 
13306633		 # 	collision with: 6 1 3 0 0  and 5 7 4 0 0 
13306635		 # 	collision with: 2 3 0 0 0  and 2 4 0 0 0 
13306637		 # 	collision with: 7 2 2 0 0  and 7 4 2 0 0 
13306639		 # 	collision with: 10 10 3 0 0  and 0 0 4 0 0 
13306665		 # 	collision with: 10 5 3 0 0  and 1 5 4 0 0 
13306667		 # 	collision with: 6 0 3 0 0  and 6 1 3 0 0 
13306677		 # 	collision with: 1 2 3 0 0  and 1 2 4 0 0 
13306679		 # 	collision with: 2 3 0 0 0  and 2 4 0 0 0 
13306729		 # 	collision with: 2 5 3 0 0  and 2 3 4 0 0 
13306731		 # 	collision with: 4 10 2 0 0  and 6 10 2 0 0 
13306849		 # 	collision with: 5 5 4 0 0  and 6 5 4 0 0 
13306851		 # 	collision with: 7 6 3 0 0  and 3 1 4 0 0 
13306871		 # 	collision with: 1 6 3 0 0  and 1 6 4 0 0 
13306885		 # 	collision with: 3 4 3 0 0  and 8 0 4 0 0 
13306887		 # 	collision with: 0 2 1 0 0  and 10 3 1 0 0 
13306907		 # 	collision with: 6 5 1 0 0  and 4 6 1 0 0 
13307025		 # 	collision with: 5 5 1 0 0  and 6 5 1 0 0 
13307027		 # 	collision with: 8 1 1 0 0  and 2 2 1 0 0 
13307077		 # 	collision with: 5 5 1 0 0  and 6 5 1 0 0 
13307079		 # 	collision with: 1 0 1 0 0  and 9 1 1 0 0 
13307089		 # 	collision with: 6 0 3 0 0  and 6 2 3 0 0 
13307091		 # 	collision with: 6 5 2 0 0  and 4 6 2 0 0 
13307096		 # 	collision with: 7 8 0 0 0  and 0 10 0 1 0 
13307098		 # 	collision with: 2 10 0 0 0  and 7 3 0 1 0 
13307117		 # 	collision with: 3 0 1 0 0  and 3 1 1 0 0 
13307119		 # 	collision with: 9 3 2 0 0  and 1 4 2 0 0 
13307121		 # 	collision with: 9 6 2 0 0  and 2 1 4 0 0 
13307123		 # 	collision with: 0 2 2 0 0  and 10 3 2 0 0 
13307149		 # 	collision with: 8 0 2 0 0  and 3 4 4 0 0 
13307151		 # 	collision with: 8 6 2 0 0  and 8 3 4 0 0 
13307161		 # 	collision with: 3 0 1 0 0  and 3 1 1 0 0 
13307163		 # 	collision with: 4 10 1 0 0  and 6 10 1 0 0 
13307213		 # 	collision with: 5 5 2 0 0  and 6 5 2 0 0 
13307215		 # 	collision with: 10 5 2 0 0  and 10 1 4 0 0 
13307333		 # 	collision with: 9 2 0 0 0  and 2 4 0 0 0 
13307335		 # 	collision with: 4 10 0 0 0  and 6 10 0 0 0 
13307353		 # 	collision with: 5 5 1 0 0  and 6 5 1 0 0 
13307355		 # 	collision with: 5 3 1 0 0  and 5 5 1 0 0 
13307369		 # 	collision with: 5 5 3 0 0  and 6 5 3 0 0 
13307371		 # 	collision with: 9 1 1 0 0  and 1 3 1 0 0 
13307389		 # 	collision with: 8 8 2 0 0  and 8 8 4 0 0 
13307391		 # 	collision with: 2 5 2 0 0  and 8 1 4 0 0 
13307509		 # 	collision with: 9 2 0 0 0  and 2 4 0 0 0 
13307511		 # 	collision with: 4 10 0 0 0  and 6 10 0 0 0 
13307561		 # 	collision with: 5 5 2 0 0  and 6 5 2 0 0 
13307573		 # 	collision with: 10 5 2 0 0  and 1 5 4 0 0 
13307580		 # 	collision with: 8 0 0 0 0  and 6 9 0 1 0 
13307582		 # 	collision with: 3 9 0 0 0  and 2 5 0 1 0 
13307601		 # 	collision with: 9 2 2 0 0  and 2 4 2 0 0 
13307603		 # 	collision with: 4 10 0 0 0  and 6 10 0 0 0 
13307605		 # 	collision with: 3 0 2 0 0  and 3 1 3 0 0 
13307607		 # 	collision with: 4 1 2 0 0  and 4 3 2 0 0 
13307633		 # 	collision with: 8 4 3 0 0  and 8 6 3 0 0 
13307645		 # 	collision with: 5 5 2 0 0  and 6 5 2 0 0 
13307697		 # 	collision with: 7 2 2 0 0  and 7 2 3 0 0 
13307699		 # 	collision with: 4 10 1 0 0  and 6 10 1 0 0 
13307817		 # 	collision with: 3 2 0 0 0  and 8 3 0 0 0 
13307819		 # 	collision with: 4 10 2 0 0  and 6 10 2 0 0 
13307837		 # 	collision with: 4 2 0 0 0  and 4 3 0 0 0 
13307839		 # 	collision with: 9 2 2 0 0  and 9 0 3 0 0 
13307853		 # 	collision with: 5 5 1 0 0  and 6 5 1 0 0 
13307855		 # 	collision with: 7 2 0 0 0  and 7 3 0 0 0 
13307873		 # 	collision with: 5 9 2 0 0  and 5 0 3 0 0 
13307875		 # 	collision with: 3 0 2 0 0  and 7 2 2 0 0 
13307993		 # 	collision with: 3 2 0 0 0  and 8 3 0 0 0 
13307995		 # 	collision with: 3 3 2 0 0  and 3 8 3 0 0 
49.0195secs	21211
