# prime 11
# degree 2
# input variables 3
# output variables 4
# reload computed balance functions from file balance-959of3248-p11d2m3-debug.log
# p = 11
# n = 4
# smalldomain p^m 1331
# domain p^n 14641
#	 p^2 = 121
#	 p^3 = 1331
#	 p^4 = 14641
#	 p^5 = 161051
#	 p^6 = 1771561
#	 p^7 = 19487171
#	 p^8 = 214358881
#	 p^9 = 2357947691
opening file : balance-959of3248-p11d2m3-debug.log
reloading for step2...
5754016		 # 	collision with: 1 3 0 0  and 2 3 0 0 
5754018		 # 	collision with: 6 1 0 0  and 7 1 1 0 
5754025		 # 	collision with: 3 2 0 0  and 5 2 0 0 
5754027		 # 	collision with: 0 9 0 0  and 4 0 1 0 
5754089		 # 	collision with: 2 1 0 0  and 0 2 0 0 
5754096		 # 	collision with: 5 8 0 0  and 6 8 0 0 
5754098		 # 	collision with: 10 4 0 0  and 5 0 1 0 
5754101		 # 	collision with: 1 3 0 0  and 2 3 0 0 
5754103		 # 	collision with: 6 1 0 0  and 2 8 2 0 
5754132		 # 	collision with: 0 10 0 0  and 1 10 0 0 
5754134		 # 	collision with: 10 6 0 0  and 4 1 2 0 
5754168		 # 	collision with: 4 6 0 0  and 6 6 0 0 
5754185		 # 	collision with: 8 1 0 0  and 1 2 0 0 
5754187		 # 	collision with: 10 3 1 0  and 4 3 2 0 
5754204		 # 	collision with: 2 9 0 0  and 4 9 0 0 
5754206		 # 	collision with: 5 2 0 0  and 0 5 2 0 
5754229		 # 	collision with: 8 1 0 0  and 1 2 0 0 
5754231		 # 	collision with: 5 0 0 0  and 4 6 1 0 
5754242		 # 	collision with: 3 2 1 0  and 5 2 1 0 
5754247		 # 	collision with: 9 3 0 0  and 2 1 1 0 
5754276		 # 	collision with: 8 5 6 0  and 0 0 0 1 
5754278		 # 	collision with: 7 9 0 0  and 9 3 1 0 
5754280		 # 	collision with: 3 2 0 0  and 5 2 0 0 
5754282		 # 	collision with: 9 7 0 0  and 0 2 1 0 
5754284		 # 	collision with: 0 1 0 0  and 2 1 0 0 
5754288		 # 	collision with: 5 8 0 0  and 6 8 0 0 
5754290		 # 	collision with: 2 8 0 0  and 6 1 2 0 
5754292		 # 	collision with: 4 6 0 0  and 6 6 0 0 
5754294		 # 	collision with: 3 2 1 0  and 5 2 2 0 
5754296		 # 	collision with: 2 7 0 0  and 3 7 0 0 
5754298		 # 	collision with: 10 8 0 0  and 1 6 1 0 
5754300		 # 	collision with: 4 4 0 0  and 5 4 0 0 
5754302		 # 	collision with: 7 1 0 0  and 9 8 1 0 
5754304		 # 	collision with: 1 5 0 0  and 3 5 0 0 
5754306		 # 	collision with: 6 9 0 0  and 8 1 1 0 
5754308		 # 	collision with: 1 3 0 0  and 2 3 0 0 
5754310		 # 	collision with: 5 6 0 0  and 7 0 1 0 
5754312		 # 	collision with: 0 10 0 0  and 1 10 0 0 
5754314		 # 	collision with: 3 6 0 0  and 7 6 2 0 
5754316		 # 	collision with: 2 9 0 0  and 4 9 0 0 
5754318		 # 	collision with: 7 8 0 0  and 9 5 1 0 
5754353		 # 	collision with: 7 0 0 0  and 0 2 0 0 
5754355		 # 	collision with: 8 1 1 0  and 5 1 2 0 
5754356		 # 	collision with: 0 10 0 0  and 1 10 0 0 
5754358		 # 	collision with: 0 5 0 0  and 5 2 2 0 
5754369		 # 	collision with: 7 0 0 0  and 0 2 0 0 
5754371		 # 	collision with: 9 2 0 0  and 7 4 1 0 
5754392		 # 	collision with: 1 5 0 0  and 3 5 0 0 
5754394		 # 	collision with: 1 1 0 0  and 1 2 1 0 
5754415		 # 	collision with: 1 1 0 0  and 6 0 1 0 
5754430		 # 	collision with: 3 10 1 0  and 2 2 2 0 
5754453		 # 	collision with: 0 1 0 0  and 2 1 0 0 
5754455		 # 	collision with: 8 1 0 0  and 4 0 1 0 
5754464		 # 	collision with: 5 8 0 0  and 6 8 0 0 
5754466		 # 	collision with: 1 7 0 0  and 5 9 1 0 
5754500		 # 	collision with: 3 2 0 0  and 5 2 0 0 
5754502		 # 	collision with: 9 7 0 0  and 0 2 1 0 
5754509		 # 	collision with: 7 0 0 0  and 0 2 0 0 
5754511		 # 	collision with: 8 9 0 0  and 7 6 1 0 
5754573		 # 	collision with: 7 0 0 0  and 0 2 0 0 
5754575		 # 	collision with: 4 6 0 0  and 7 7 1 0 
5754580		 # 	collision with: 2 9 0 0  and 4 9 0 0 
5754582		 # 	collision with: 5 9 0 0  and 1 2 1 0 
5754585		 # 	collision with: 0 1 0 0  and 2 1 0 0 
5754587		 # 	collision with: 1 0 1 0  and 1 2 1 0 
5754616		 # 	collision with: 1 3 0 0  and 2 3 0 0 
5754618		 # 	collision with: 4 0 0 0  and 9 2 1 0 
5754652		 # 	collision with: 4 4 0 0  and 5 4 0 0 
5754654		 # 	collision with: 6 9 0 0  and 7 4 1 0 
5754669		 # 	collision with: 7 0 0 0  and 0 2 0 0 
5754671		 # 	collision with: 1 6 0 0  and 1 7 0 0 
5754688		 # 	collision with: 4 6 0 0  and 6 6 0 0 
5754713		 # 	collision with: 7 0 0 0  and 0 2 0 0 
5754715		 # 	collision with: 1 6 0 0  and 1 7 0 0 
5754724		 # 	collision with: 0 1 0 0  and 2 1 0 0 
5754726		 # 	collision with: 1 0 1 0  and 1 1 1 0 
5754729		 # 	collision with: 7 0 0 0  and 0 2 0 0 
5754760		 # 	collision with: 7 2 5 0  and 4 0 0 1 
5754762		 # 	collision with: 0 10 0 0  and 1 9 1 0 
5754764		 # 	collision with: 0 1 0 0  and 2 1 0 0 
5754768		 # 	collision with: 4 6 0 0  and 6 6 0 0 
5754770		 # 	collision with: 10 3 1 0  and 0 0 2 0 
5754772		 # 	collision with: 4 4 0 0  and 5 4 0 0 
5754774		 # 	collision with: 1 9 1 0  and 2 3 2 0 
5754776		 # 	collision with: 1 3 0 0  and 2 3 0 0 
5754778		 # 	collision with: 0 10 0 0  and 2 3 2 0 
5754780		 # 	collision with: 2 9 0 0  and 4 9 0 0 
5754782		 # 	collision with: 10 4 0 0  and 0 2 1 0 
5754784		 # 	collision with: 3 2 0 0  and 5 2 0 0 
5754786		 # 	collision with: 1 8 0 0  and 2 3 1 0 
5754788		 # 	collision with: 5 8 0 0  and 6 8 0 0 
5754790		 # 	collision with: 1 5 0 0  and 2 3 1 0 
5754792		 # 	collision with: 2 7 0 0  and 3 7 0 0 
5754794		 # 	collision with: 7 1 0 0  and 8 0 1 0 
5754796		 # 	collision with: 1 5 0 0  and 3 5 0 0 
5754798		 # 	collision with: 7 7 0 0  and 8 2 1 0 
5754800		 # 	collision with: 0 10 0 0  and 1 10 0 0 
5754802		 # 	collision with: 6 5 0 0  and 8 6 2 0 
5754837		 # 	collision with: 2 9 0 0  and 4 9 0 0 
5754839		 # 	collision with: 4 5 0 0  and 2 8 1 0 
5754840		 # 	collision with: 1 5 0 0  and 3 5 0 0 
5754842		 # 	collision with: 2 10 1 0  and 9 0 2 0 
5754853		 # 	collision with: 2 7 0 0  and 3 7 0 0 
5754855		 # 	collision with: 1 5 0 0  and 1 7 0 0 
5754876		 # 	collision with: 5 8 0 0  and 6 8 0 0 
5754878		 # 	collision with: 8 5 1 0  and 5 8 2 0 
5754897		 # 	collision with: 2 7 0 0  and 3 7 0 0 
5754899		 # 	collision with: 1 5 0 0  and 1 7 0 0 
5754912		 # 	collision with: 2 9 0 0  and 4 9 0 0 
5754914		 # 	collision with: 10 4 0 0  and 0 2 1 0 
5754937		 # 	collision with: 0 10 0 0  and 1 10 0 0 
5754939		 # 	collision with: 8 8 0 0  and 6 10 1 0 
5754948		 # 	collision with: 4 4 0 0  and 5 4 0 0 
5754950		 # 	collision with: 9 6 0 0  and 2 3 1 0 
5754984		 # 	collision with: 0 1 0 0  and 2 1 0 0 
5754986		 # 	collision with: 1 3 1 0  and 1 4 1 0 
5754993		 # 	collision with: 8 0 0 0  and 4 1 0 0 
5754995		 # 	collision with: 4 8 1 0  and 8 6 2 0 
5755057		 # 	collision with: 2 9 0 0  and 4 9 0 0 
5755059		 # 	collision with: 4 7 0 0  and 1 9 2 0 
5755064		 # 	collision with: 0 10 0 0  and 1 10 0 0 
5755066		 # 	collision with: 7 4 1 0  and 3 0 2 0 
5755071		 # 	collision with: 6 0 0 0  and 1 5 2 0 
5755102		 # 	collision with: 2 2 0 0  and 10 3 1 0 
5755136		 # 	collision with: 3 2 0 0  and 5 2 0 0 
5755138		 # 	collision with: 7 2 0 0  and 7 2 1 0 
5755153		 # 	collision with: 0 1 0 0  and 2 1 0 0 
5755155		 # 	collision with: 7 2 0 0  and 2 3 1 0 
5755172		 # 	collision with: 1 3 0 0  and 2 3 0 0 
5755174		 # 	collision with: 5 2 1 0  and 5 2 2 0 
5755197		 # 	collision with: 0 1 0 0  and 2 1 0 0 
5755199		 # 	collision with: 2 1 0 0  and 0 1 2 0 
5755208		 # 	collision with: 4 6 0 0  and 6 6 0 0 
5755213		 # 	collision with: 8 0 0 0  and 4 1 0 0 
5755215		 # 	collision with: 5 8 1 0  and 6 8 1 0 
5755250		 # 	collision with: 1 3 0 0  and 1 5 0 0 
5755254		 # 	collision with: 1 1 0 0  and 1 3 0 0 
5755258		 # 	collision with: 1 5 0 0  and 1 6 0 0 
5755262		 # 	collision with: 1 3 0 0  and 1 4 0 0 
5755266		 # 	collision with: 1 1 0 0  and 1 2 0 0 
5755270		 # 	collision with: 1 4 0 0  and 1 6 0 0 
5755274		 # 	collision with: 1 2 0 0  and 1 4 0 0 
5755278		 # 	collision with: 1 6 0 0  and 1 7 0 0 
5755282		 # 	collision with: 1 4 0 0  and 1 5 0 0 
5755286		 # 	collision with: 1 2 0 0  and 1 3 0 0 
5755317		 # 	collision with: 0 5 0 0  and 3 6 0 0 
5755319		 # 	collision with: 10 0 0 0  and 10 0 1 0 
5755320		 # 	collision with: 5 0 0 0  and 7 0 0 0 
5755352		 # 	collision with: 5 0 0 0  and 7 0 0 0 
5755373		 # 	collision with: 3 7 0 0  and 4 7 0 0 
5755375		 # 	collision with: 5 0 0 0  and 5 0 1 0 
5755384		 # 	collision with: 5 0 0 0  and 7 0 0 0 
5755413		 # 	collision with: 4 5 0 0  and 6 5 0 0 
5755415		 # 	collision with: 7 0 0 0  and 7 0 1 0 
5755449		 # 	collision with: 0 5 0 0  and 3 6 0 0 
5755451		 # 	collision with: 8 0 0 0  and 8 0 1 0 
5755460		 # 	collision with: 5 0 0 0  and 7 0 0 0 
5755492		 # 	collision with: 5 0 0 0  and 7 0 0 0 
5755501		 # 	collision with: 4 5 0 0  and 6 5 0 0 
5755503		 # 	collision with: 2 0 0 0  and 2 0 1 0 
5755517		 # 	collision with: 1 9 0 0  and 3 9 0 0 
5755519		 # 	collision with: 9 0 0 0  and 9 0 1 0 
5755524		 # 	collision with: 5 0 0 0  and 7 0 0 0 
5755556		 # 	collision with: 5 0 0 0  and 7 0 0 0 
5755569		 # 	collision with: 2 4 0 0  and 4 4 0 0 
5755571		 # 	collision with: 3 0 0 0  and 3 0 1 0 
5755605		 # 	collision with: 1 9 0 0  and 3 9 0 0 
5755607		 # 	collision with: 4 0 0 0  and 4 0 1 0 
5755632		 # 	collision with: 5 0 0 0  and 7 0 0 0 
5755645		 # 	collision with: 4 2 0 0  and 5 2 0 0 
5755647		 # 	collision with: 0 0 0 0  and 1 0 1 0 
5755664		 # 	collision with: 5 0 0 0  and 7 0 0 0 
5755696		 # 	collision with: 5 0 0 0  and 7 0 0 0 
5755701		 # 	collision with: 2 4 0 0  and 4 4 0 0 
5755703		 # 	collision with: 0 0 1 0  and 1 0 1 0 
5755728		 # 	collision with: 3 7 5 0  and 6 1 0 1 
5755730		 # 	collision with: 7 10 0 0  and 5 4 2 0 
5755732		 # 	collision with: 3 10 0 0  and 5 10 0 0 
5755734		 # 	collision with: 5 7 0 0  and 3 4 2 0 
5755736		 # 	collision with: 4 5 0 0  and 6 5 0 0 
5755738		 # 	collision with: 0 4 1 0  and 10 10 2 0 
5755740		 # 	collision with: 3 7 0 0  and 4 7 0 0 
5755742		 # 	collision with: 6 2 0 0  and 5 6 1 0 
5755744		 # 	collision with: 5 8 0 0  and 6 8 0 0 
5755746		 # 	collision with: 6 5 1 0  and 5 7 2 0 
5755748		 # 	collision with: 4 2 0 0  and 5 2 0 0 
5755750		 # 	collision with: 8 7 0 0  and 7 3 1 0 
5755752		 # 	collision with: 1 9 0 0  and 3 9 0 0 
5755754		 # 	collision with: 4 8 1 0  and 3 3 2 0 
5755756		 # 	collision with: 0 3 0 0  and 2 3 0 0 
5755758		 # 	collision with: 0 8 0 0  and 10 1 1 0 
5755760		 # 	collision with: 2 4 0 0  and 4 4 0 0 
5755762		 # 	collision with: 4 6 3 0  and 3 0 4 0 
5755764		 # 	collision with: 1 6 0 0  and 2 6 0 0 
5755766		 # 	collision with: 2 6 0 0  and 0 0 2 0 
5755768		 # 	collision with: 2 1 0 0  and 3 1 0 0 
5755801		 # 	collision with: 1 4 0 0  and 7 6 0 0 
5755804		 # 	collision with: 2 4 0 0  and 4 4 0 0 
5755806		 # 	collision with: 10 0 0 0  and 10 0 1 0 
5755836		 # 	collision with: 4 2 0 0  and 5 2 0 0 
5755838		 # 	collision with: 5 0 0 0  and 5 0 1 0 
5755857		 # 	collision with: 0 3 0 0  and 2 3 0 0 
5755859		 # 	collision with: 2 7 0 0  and 0 10 1 0 
5755868		 # 	collision with: 4 5 0 0  and 6 5 0 0 
5755870		 # 	collision with: 7 0 0 0  and 7 0 1 0 
5755897		 # 	collision with: 10 4 0 0  and 8 6 0 0 
5755899		 # 	collision with: 9 1 0 0  and 10 2 1 0 
5755935		 # 	collision with: 4 7 1 0  and 3 7 2 0 
5755946		 # 	collision with: 8 0 0 0  and 8 0 1 0 
5755976		 # 	collision with: 0 3 0 0  and 2 3 0 0 
5755978		 # 	collision with: 2 0 0 0  and 2 0 1 0 
5755985		 # 	collision with: 10 4 0 0  and 8 6 0 0 
5755987		 # 	collision with: 2 8 0 0  and 0 9 1 0 
5756001		 # 	collision with: 10 4 0 0  and 6 6 0 0 
5756003		 # 	collision with: 1 3 1 0  and 1 5 1 0 
5756008		 # 	collision with: 5 8 0 0  and 6 8 0 0 
5756010		 # 	collision with: 9 0 0 0  and 9 0 1 0 
5756040		 # 	collision with: 3 10 0 0  and 5 10 0 0 
5756042		 # 	collision with: 3 0 0 0  and 3 0 1 0 
5756053		 # 	collision with: 6 4 0 0  and 3 6 0 0 
5756055		 # 	collision with: 4 10 1 0  and 2 0 3 0 
5756089		 # 	collision with: 10 4 0 0  and 6 6 0 0 
5756091		 # 	collision with: 0 0 0 0  and 1 0 1 0 
5756116		 # 	collision with: 1 6 0 0  and 2 6 0 0 
5756118		 # 	collision with: 4 0 0 0  and 4 0 1 0 
5756129		 # 	collision with: 2 4 0 0  and 4 4 0 0 
5756131		 # 	collision with: 9 1 0 0  and 4 5 1 0 
5756148		 # 	collision with: 1 9 0 0  and 3 9 0 0 
5756150		 # 	collision with: 0 0 0 0  and 1 0 1 0 
5756180		 # 	collision with: 3 7 0 0  and 4 7 0 0 
5756182		 # 	collision with: 0 0 1 0  and 1 0 1 0 
5756185		 # 	collision with: 6 4 0 0  and 3 6 0 0 
5756187		 # 	collision with: 2 1 0 0  and 4 3 1 0 
5756212		 # 	collision with: 4 4 4 0  and 3 0 0 1 
5756214		 # 	collision with: 1 8 0 0  and 10 8 1 0 
5756216		 # 	collision with: 1 9 0 0  and 3 9 0 0 
5756218		 # 	collision with: 1 7 0 0  and 8 2 2 0 
5756220		 # 	collision with: 3 10 0 0  and 5 10 0 0 
5756222		 # 	collision with: 5 3 0 0  and 3 7 1 0 
5756224		 # 	collision with: 0 3 0 0  and 2 3 0 0 
5756226		 # 	collision with: 1 9 0 0  and 10 8 1 0 
5756228		 # 	collision with: 4 5 0 0  and 6 5 0 0 
5756230		 # 	collision with: 9 3 0 0  and 5 0 2 0 
5756232		 # 	collision with: 2 4 0 0  and 4 4 0 0 
5756234		 # 	collision with: 8 3 0 0  and 6 4 1 0 
5756236		 # 	collision with: 3 7 0 0  and 4 7 0 0 
5756238		 # 	collision with: 4 7 1 0  and 2 2 2 0 
5756240		 # 	collision with: 1 6 0 0  and 2 6 0 0 
5756242		 # 	collision with: 6 7 0 0  and 2 6 2 0 
5756244		 # 	collision with: 5 8 0 0  and 6 8 0 0 
5756246		 # 	collision with: 5 4 1 0  and 1 0 3 0 
5756248		 # 	collision with: 2 1 0 0  and 3 1 0 0 
5756252		 # 	collision with: 4 2 0 0  and 5 2 0 0 
5756254		 # 	collision with: 1 0 2 0  and 1 2 2 0 
5756285		 # 	collision with: 5 4 0 0  and 8 5 0 0 
5756287		 # 	collision with: 0 4 0 0  and 4 7 1 0 
5756288		 # 	collision with: 5 8 0 0  and 6 8 0 0 
5756290		 # 	collision with: 3 0 0 0  and 7 7 2 0 
5756320		 # 	collision with: 2 4 0 0  and 4 4 0 0 
5756322		 # 	collision with: 5 6 0 0  and 9 6 2 0 
5756341		 # 	collision with: 6 4 0 0  and 0 5 0 0 
5756343		 # 	collision with: 9 0 0 0  and 2 10 1 0 
5756352		 # 	collision with: 3 10 0 0  and 5 10 0 0 
5756354		 # 	collision with: 6 10 2 0  and 4 6 3 0 
5756381		 # 	collision with: 2 4 0 0  and 4 4 0 0 
5756383		 # 	collision with: 1 4 0 0  and 1 5 0 0 
5756417		 # 	collision with: 5 4 0 0  and 8 5 0 0 
5756419		 # 	collision with: 1 10 0 0  and 4 1 1 0 
5756428		 # 	collision with: 4 2 0 0  and 5 2 0 0 
5756430		 # 	collision with: 1 0 2 0  and 1 2 2 0 
5756460		 # 	collision with: 1 6 0 0  and 2 6 0 0 
5756462		 # 	collision with: 10 6 0 0  and 5 5 1 0 
5756469		 # 	collision with: 2 4 0 0  and 4 4 0 0 
5756471		 # 	collision with: 1 4 0 0  and 1 5 0 0 
5756485		 # 	collision with: 4 5 0 0  and 6 5 0 0 
5756492		 # 	collision with: 4 5 0 0  and 6 5 0 0 
5756494		 # 	collision with: 5 6 1 0  and 0 3 2 0 
5756524		 # 	collision with: 1 9 0 0  and 3 9 0 0 
5756526		 # 	collision with: 5 6 0 0  and 10 4 1 0 
5756537		 # 	collision with: 2 1 0 0  and 3 1 0 0 
5756539		 # 	collision with: 0 0 0 0  and 1 0 1 0 
5756575		 # 	collision with: 9 10 0 0  and 8 3 1 0 
5756602		 # 	collision with: 0 0 0 0  and 1 0 1 0 
5756613		 # 	collision with: 1 6 0 0  and 2 6 0 0 
5756615		 # 	collision with: 6 8 1 0  and 0 6 2 0 
5756632		 # 	collision with: 3 7 0 0  and 4 7 0 0 
5756634		 # 	collision with: 7 7 0 0  and 6 10 1 0 
5756664		 # 	collision with: 0 3 0 0  and 2 3 0 0 
5756666		 # 	collision with: 2 2 0 0  and 5 3 1 0 
5756669		 # 	collision with: 2 1 0 0  and 3 1 0 0 
5756671		 # 	collision with: 7 2 1 0  and 5 3 1 0 
5756696		 # 	collision with: 8 6 7 0  and 1 4 0 1 
5756698		 # 	collision with: 8 3 0 0  and 5 3 1 0 
5756700		 # 	collision with: 5 8 0 0  and 6 8 0 0 
5756702		 # 	collision with: 9 7 0 0  and 6 8 1 0 
5756704		 # 	collision with: 2 4 0 0  and 4 4 0 0 
5756706		 # 	collision with: 2 1 0 0  and 10 5 1 0 
5756708		 # 	collision with: 3 10 0 0  and 5 10 0 0 
5756710		 # 	collision with: 7 9 0 0  and 4 10 1 0 
5756712		 # 	collision with: 4 2 0 0  and 5 2 0 0 
5756714		 # 	collision with: 6 6 0 0  and 3 1 1 0 
5756716		 # 	collision with: 1 6 0 0  and 2 6 0 0 
5756718		 # 	collision with: 10 3 0 0  and 7 8 1 0 
5756720		 # 	collision with: 4 5 0 0  and 6 5 0 0 
5756722		 # 	collision with: 8 10 0 0  and 5 7 1 0 
5756724		 # 	collision with: 1 9 0 0  and 3 9 0 0 
5756726		 # 	collision with: 5 3 0 0  and 2 2 1 0 
5756728		 # 	collision with: 2 1 0 0  and 3 1 0 0 
5756732		 # 	collision with: 3 7 0 0  and 4 7 0 0 
5756734		 # 	collision with: 6 5 0 0  and 3 4 1 0 
5756736		 # 	collision with: 0 3 0 0  and 2 3 0 0 
5756738		 # 	collision with: 2 9 1 0  and 10 1 2 0 
5756771		 # 	collision with: 9 0 0 0  and 8 1 1 0 
5756774		 # 	collision with: 1 2 1 0  and 1 4 1 0 
5756804		 # 	collision with: 1 6 0 0  and 2 6 0 0 
5756806		 # 	collision with: 3 4 1 0  and 10 2 2 0 
5756825		 # 	collision with: 1 6 0 0  and 2 6 0 0 
5756827		 # 	collision with: 1 4 1 0  and 1 5 1 0 
5756836		 # 	collision with: 2 4 0 0  and 4 4 0 0 
5756838		 # 	collision with: 0 1 0 0  and 2 5 1 0 
5756865		 # 	collision with: 2 3 0 0  and 0 5 0 0 
5756867		 # 	collision with: 1 3 0 0  and 5 4 2 0 
5756901		 # 	collision with: 6 3 0 0  and 1 5 0 0 
5756912		 # 	collision with: 0 3 0 0  and 2 3 0 0 
5756914		 # 	collision with: 0 8 0 0  and 6 1 1 0 
5756944		 # 	collision with: 1 9 0 0  and 3 9 0 0 
5756946		 # 	collision with: 4 5 0 0  and 2 7 1 0 
5756953		 # 	collision with: 2 3 0 0  and 0 5 0 0 
5756955		 # 	collision with: 5 0 2 0  and 2 1 2 0 
5756969		 # 	collision with: 0 3 0 0  and 2 3 0 0 
5756971		 # 	collision with: 0 0 0 0  and 1 0 1 0 
5756976		 # 	collision with: 4 2 0 0  and 5 2 0 0 
5756978		 # 	collision with: 4 7 0 0  and 8 3 1 0 
5757008		 # 	collision with: 5 8 0 0  and 6 8 0 0 
5757010		 # 	collision with: 0 0 0 0  and 1 0 1 0 
5757021		 # 	collision with: 7 3 0 0  and 1 5 0 0 
5757023		 # 	collision with: 0 1 0 0  and 3 3 2 0 
5757057		 # 	collision with: 0 3 0 0  and 2 3 0 0 
5757059		 # 	collision with: 9 4 0 0  and 3 5 1 0 
5757084		 # 	collision with: 3 7 0 0  and 4 7 0 0 
5757086		 # 	collision with: 1 4 0 0  and 1 1 1 0 
5757097		 # 	collision with: 5 8 0 0  and 6 8 0 0 
5757099		 # 	collision with: 1 3 0 0  and 1 5 0 0 
5757116		 # 	collision with: 4 5 0 0  and 6 5 0 0 
5757118		 # 	collision with: 9 1 0 0  and 10 2 2 0 
5757148		 # 	collision with: 3 10 0 0  and 5 10 0 0 
5757150		 # 	collision with: 0 3 1 0  and 2 3 1 0 
5757153		 # 	collision with: 7 3 0 0  and 1 5 0 0 
5757155		 # 	collision with: 2 1 1 0  and 3 1 1 0 
5757180		 # 	collision with: 5 4 10 0  and 4 0 0 1 
5757182		 # 	collision with: 0 7 0 0  and 7 7 1 0 
5757184		 # 	collision with: 3 7 0 0  and 4 7 0 0 
5757186		 # 	collision with: 6 9 0 0  and 2 5 1 0 
5757188		 # 	collision with: 1 9 0 0  and 3 9 0 0 
5757190		 # 	collision with: 4 1 1 0  and 0 0 2 0 
5757192		 # 	collision with: 1 6 0 0  and 2 6 0 0 
5757194		 # 	collision with: 10 5 0 0  and 6 6 1 0 
5757196		 # 	collision with: 3 10 0 0  and 5 10 0 0 
5757198		 # 	collision with: 8 4 0 0  and 4 2 1 0 
5757200		 # 	collision with: 5 8 0 0  and 6 8 0 0 
5757202		 # 	collision with: 5 4 0 0  and 1 3 1 0 
5757204		 # 	collision with: 0 3 0 0  and 2 3 0 0 
5757206		 # 	collision with: 5 4 0 0  and 8 2 2 0 
5757208		 # 	collision with: 2 1 0 0  and 3 1 0 0 
5757212		 # 	collision with: 4 5 0 0  and 6 5 0 0 
5757214		 # 	collision with: 6 7 0 0  and 2 6 1 0 
5757216		 # 	collision with: 4 2 0 0  and 5 2 0 0 
5757218		 # 	collision with: 10 7 0 0  and 6 3 1 0 
5757220		 # 	collision with: 2 4 0 0  and 4 4 0 0 
5757222		 # 	collision with: 8 8 0 0  and 0 2 2 0 
5757253		 # 	collision with: 10 3 0 0  and 2 4 0 0 
5757255		 # 	collision with: 6 7 0 0  and 9 5 2 0 
5757256		 # 	collision with: 4 5 0 0  and 6 5 0 0 
5757258		 # 	collision with: 0 0 0 0  and 1 3 2 0 
5757288		 # 	collision with: 5 8 0 0  and 6 8 0 0 
5757290		 # 	collision with: 7 10 0 0  and 1 2 1 0 
5757309		 # 	collision with: 4 2 0 0  and 5 2 0 0 
5757311		 # 	collision with: 9 5 1 0  and 0 0 3 0 
5757320		 # 	collision with: 1 9 0 0  and 3 9 0 0 
5757322		 # 	collision with: 0 4 0 0  and 10 10 1 0 
5757349		 # 	collision with: 0 3 0 0  and 2 3 0 0 
5757385		 # 	collision with: 10 3 0 0  and 2 4 0 0 
5757387		 # 	collision with: 1 6 1 0  and 1 3 2 0 
5757396		 # 	collision with: 2 4 0 0  and 4 4 0 0 
5757398		 # 	collision with: 2 10 0 0  and 4 6 1 0 
5757430		 # 	collision with: 4 0 0 0  and 0 3 1 0 
5757439		 # 	collision with: 0 0 0 0  and 1 0 1 0 
5757453		 # 	collision with: 2 1 0 0  and 3 1 0 0 
5757455		 # 	collision with: 9 1 0 0  and 10 2 1 0 
5757460		 # 	collision with: 3 10 0 0  and 5 10 0 0 
5757462		 # 	collision with: 0 0 0 0  and 1 0 1 0 
5757492		 # 	collision with: 3 7 0 0  and 4 7 0 0 
5757494		 # 	collision with: 1 9 1 0  and 1 1 2 0 
5757505		 # 	collision with: 10 3 0 0  and 2 4 0 0 
5757507		 # 	collision with: 1 3 0 0  and 1 4 0 0 
5757541		 # 	collision with: 2 1 0 0  and 3 1 0 0 
5757543		 # 	collision with: 5 0 0 0  and 0 5 1 0 
5757568		 # 	collision with: 4 2 0 0  and 5 2 0 0 
5757570		 # 	collision with: 3 9 0 0  and 6 7 1 0 
5757581		 # 	collision with: 2 3 0 0  and 0 4 0 0 
5757583		 # 	collision with: 3 1 1 0  and 7 0 2 0 
5757600		 # 	collision with: 0 3 0 0  and 2 3 0 0 
5757602		 # 	collision with: 4 1 0 0  and 5 4 2 0 
5757632		 # 	collision with: 1 6 0 0  and 2 6 0 0 
5757634		 # 	collision with: 3 10 1 0  and 5 10 1 0 
5757637		 # 	collision with: 10 3 0 0  and 2 4 0 0 
5757639		 # 	collision with: 1 3 0 0  and 1 4 0 0 
5757664		 # 	collision with: 1 7 8 0  and 4 1 0 1 
5757666		 # 	collision with: 10 9 0 0  and 5 9 1 0 
5757668		 # 	collision with: 1 6 0 0  and 2 6 0 0 
5757670		 # 	collision with: 10 2 0 0  and 0 10 2 0 
5757672		 # 	collision with: 0 3 0 0  and 2 3 0 0 
5757674		 # 	collision with: 1 3 0 0  and 7 10 1 0 
5757676		 # 	collision with: 4 2 0 0  and 5 2 0 0 
5757678		 # 	collision with: 7 8 0 0  and 2 5 1 0 
5757680		 # 	collision with: 3 7 0 0  and 4 7 0 0 
5757682		 # 	collision with: 2 7 0 0  and 8 10 1 0 
5757684		 # 	collision with: 3 10 0 0  and 5 10 0 0 
5757686		 # 	collision with: 2 10 0 0  and 3 0 2 0 
5757688		 # 	collision with: 2 1 0 0  and 3 1 0 0 
5757692		 # 	collision with: 2 4 0 0  and 4 4 0 0 
5757694		 # 	collision with: 8 5 0 0  and 3 3 1 0 
5757696		 # 	collision with: 1 9 0 0  and 3 9 0 0 
5757698		 # 	collision with: 5 5 0 0  and 0 7 1 0 
5757700		 # 	collision with: 5 8 0 0  and 6 8 0 0 
5757702		 # 	collision with: 4 1 1 0  and 5 4 3 0 
5757704		 # 	collision with: 4 5 0 0  and 6 5 0 0 
5757706		 # 	collision with: 7 8 1 0  and 2 5 2 0 
5757737		 # 	collision with: 0 2 0 0  and 6 4 0 0 
5757739		 # 	collision with: 1 2 0 0  and 1 4 0 0 
5757740		 # 	collision with: 1 9 0 0  and 3 9 0 0 
5757742		 # 	collision with: 5 5 0 0  and 0 7 1 0 
5757772		 # 	collision with: 3 10 0 0  and 5 10 0 0 
5757774		 # 	collision with: 1 1 1 0  and 4 1 2 0 
5757793		 # 	collision with: 1 9 0 0  and 3 9 0 0 
5757795		 # 	collision with: 5 1 0 0  and 7 8 2 0 
5757804		 # 	collision with: 0 3 0 0  and 2 3 0 0 
5757806		 # 	collision with: 8 3 0 0  and 9 10 1 0 
5757833		 # 	collision with: 8 2 0 0  and 2 4 0 0 
5757835		 # 	collision with: 4 7 0 0  and 5 3 1 0 
5757869		 # 	collision with: 0 2 0 0  and 6 4 0 0 
5757871		 # 	collision with: 1 2 0 0  and 1 4 0 0 
5757880		 # 	collision with: 4 5 0 0  and 6 5 0 0 
5757882		 # 	collision with: 9 6 0 0  and 3 2 1 0 
5757912		 # 	collision with: 2 4 0 0  and 4 4 0 0 
5757914		 # 	collision with: 0 0 0 0  and 1 0 1 0 
5757921		 # 	collision with: 8 2 0 0  and 2 4 0 0 
5757923		 # 	collision with: 5 4 1 0  and 0 0 2 0 
5757937		 # 	collision with: 9 2 0 0  and 0 4 0 0 
5757939		 # 	collision with: 8 6 0 0  and 5 0 1 0 
5757944		 # 	collision with: 3 7 0 0  and 4 7 0 0 
5757946		 # 	collision with: 1 3 0 0  and 1 9 1 0 
5757976		 # 	collision with: 1 6 0 0  and 2 6 0 0 
5757978		 # 	collision with: 7 8 0 0  and 3 3 1 0 
5757989		 # 	collision with: 4 2 0 0  and 5 2 0 0 
5757991		 # 	collision with: 2 4 1 0  and 2 4 2 0 
5758025		 # 	collision with: 9 2 0 0  and 0 4 0 0 
5758027		 # 	collision with: 4 10 1 0  and 6 8 3 0 
5758052		 # 	collision with: 5 8 0 0  and 6 8 0 0 
5758054		 # 	collision with: 6 4 0 0  and 5 3 1 0 
5758086		 # 	collision with: 1 1 1 0  and 1 2 1 0 
5758116		 # 	collision with: 4 2 0 0  and 5 2 0 0 
5758118		 # 	collision with: 1 6 1 0  and 2 6 1 0 
5758121		 # 	collision with: 4 2 0 0  and 5 2 0 0 
5758123		 # 	collision with: 6 4 0 0  and 5 3 1 0 
5758148		 # 	collision with: 0 5 8 0  and 7 0 0 1 
5758150		 # 	collision with: 5 9 0 0  and 10 9 1 0 
5758152		 # 	collision with: 4 5 0 0  and 6 5 0 0 
5758154		 # 	collision with: 9 9 0 0  and 3 3 1 0 
5758156		 # 	collision with: 5 8 0 0  and 6 8 0 0 
5758158		 # 	collision with: 2 3 1 0  and 7 4 2 0 
5758160		 # 	collision with: 1 9 0 0  and 3 9 0 0 
5758162		 # 	collision with: 5 0 1 0  and 10 5 2 0 
5758164		 # 	collision with: 2 4 0 0  and 4 4 0 0 
5758166		 # 	collision with: 10 3 1 0  and 4 8 2 0 
5758168		 # 	collision with: 2 1 0 0  and 3 1 0 0 
5758172		 # 	collision with: 3 10 0 0  and 5 10 0 0 
5758174		 # 	collision with: 4 4 0 0  and 9 2 1 0 
5758176		 # 	collision with: 3 7 0 0  and 4 7 0 0 
5758178		 # 	collision with: 2 9 0 0  and 7 5 1 0 
5758180		 # 	collision with: 4 2 0 0  and 5 2 0 0 
5758182		 # 	collision with: 1 9 0 0  and 6 7 1 0 
5758184		 # 	collision with: 0 3 0 0  and 2 3 0 0 
5758186		 # 	collision with: 2 4 0 0  and 7 6 1 0 
5758188		 # 	collision with: 1 6 0 0  and 2 6 0 0 
5758190		 # 	collision with: 0 2 0 0  and 5 9 1 0 
5758221		 # 	collision with: 4 2 0 0  and 7 3 0 0 
5758223		 # 	collision with: 9 5 0 0  and 1 9 1 0 
5758224		 # 	collision with: 4 2 0 0  and 5 2 0 0 
5758226		 # 	collision with: 8 2 0 0  and 1 4 1 0 
5758258		 # 	collision with: 7 0 0 0  and 4 3 1 0 
5758288		 # 	collision with: 5 8 0 0  and 6 8 0 0 
5758290		 # 	collision with: 7 10 0 0  and 4 1 2 0 
5758317		 # 	collision with: 4 2 0 0  and 5 2 0 0 
5758319		 # 	collision with: 0 0 0 0  and 1 0 1 0 
5758353		 # 	collision with: 4 2 0 0  and 7 3 0 0 
5758355		 # 	collision with: 2 9 0 0  and 10 1 1 0 
5758364		 # 	collision with: 1 6 0 0  and 2 6 0 0 
5758366		 # 	collision with: 0 0 0 0  and 1 0 1 0 
5758396		 # 	collision with: 3 7 0 0  and 4 7 0 0 
5758398		 # 	collision with: 10 8 0 0  and 8 2 1 0 
5758405		 # 	collision with: 4 2 0 0  and 5 2 0 0 
5758407		 # 	collision with: 4 4 0 0  and 5 9 1 0 
5758421		 # 	collision with: 8 2 0 0  and 10 3 0 0 
5758423		 # 	collision with: 8 6 0 0  and 7 0 2 0 
5758428		 # 	collision with: 2 4 0 0  and 4 4 0 0 
5758430		 # 	collision with: 2 6 0 0  and 1 8 1 0 
5758460		 # 	collision with: 4 5 0 0  and 6 5 0 0 
5758462		 # 	collision with: 0 10 0 0  and 2 7 1 0 
5758473		 # 	collision with: 10 2 0 0  and 1 3 0 0 
5758475		 # 	collision with: 3 9 1 0  and 1 0 2 0 
5758509		 # 	collision with: 8 2 0 0  and 10 3 0 0 
5758511		 # 	collision with: 4 6 0 0  and 7 7 1 0 
5758536		 # 	collision with: 0 3 0 0  and 2 3 0 0 
5758538		 # 	collision with: 3 8 1 0  and 9 2 2 0 
5758549		 # 	collision with: 0 3 0 0  and 2 3 0 0 
5758551		 # 	collision with: 8 8 1 0  and 2 4 2 0 
5758568		 # 	collision with: 3 10 0 0  and 5 10 0 0 
5758570		 # 	collision with: 5 4 0 0  and 1 2 1 0 
5758600		 # 	collision with: 1 9 0 0  and 3 9 0 0 
5758602		 # 	collision with: 4 2 1 0  and 5 2 1 0 
5758605		 # 	collision with: 10 2 0 0  and 1 3 0 0 
5758607		 # 	collision with: 7 0 0 0  and 3 1 1 0 
5758632		 # 	collision with: 4 5 5 0  and 9 1 0 1 
5758634		 # 	collision with: 7 7 0 0  and 0 7 1 0 
5758636		 # 	collision with: 2 4 0 0  and 4 4 0 0 
5758638		 # 	collision with: 2 3 1 0  and 6 2 2 0 
5758640		 # 	collision with: 4 2 0 0  and 5 2 0 0 
5758642		 # 	collision with: 3 2 0 0  and 7 4 1 0 
5758644		 # 	collision with: 4 5 0 0  and 6 5 0 0 
5758646		 # 	collision with: 2 5 0 0  and 6 9 1 0 
5758648		 # 	collision with: 2 1 0 0  and 3 1 0 0 
5758652		 # 	collision with: 0 3 0 0  and 2 3 0 0 
5758654		 # 	collision with: 6 5 0 0  and 10 2 1 0 
5758656		 # 	collision with: 5 8 0 0  and 6 8 0 0 
5758658		 # 	collision with: 8 2 0 0  and 1 7 1 0 
5758660		 # 	collision with: 3 10 0 0  and 5 10 0 0 
5758662		 # 	collision with: 3 9 0 0  and 7 10 1 0 
5758664		 # 	collision with: 1 6 0 0  and 2 6 0 0 
5758666		 # 	collision with: 9 7 1 0  and 2 0 2 0 
5758668		 # 	collision with: 1 9 0 0  and 3 9 0 0 
5758670		 # 	collision with: 9 1 1 0  and 2 7 2 0 
5758672		 # 	collision with: 3 7 0 0  and 4 7 0 0 
5758674		 # 	collision with: 0 8 0 0  and 4 2 1 0 
5758705		 # 	collision with: 5 1 0 0  and 0 3 0 0 
5758707		 # 	collision with: 2 4 0 0  and 8 8 1 0 
5758708		 # 	collision with: 1 6 0 0  and 2 6 0 0 
5758710		 # 	collision with: 2 7 0 0  and 3 4 1 0 
5758740		 # 	collision with: 0 3 0 0  and 2 3 0 0 
5758742		 # 	collision with: 10 6 1 0  and 9 0 2 0 
5758761		 # 	collision with: 2 1 0 0  and 3 1 0 0 
5758763		 # 	collision with: 0 0 0 0  and 1 0 1 0 
5758772		 # 	collision with: 4 2 0 0  and 5 2 0 0 
5758774		 # 	collision with: 0 0 0 0  and 1 0 1 0 
5758801		 # 	collision with: 8 1 0 0  and 6 3 0 0 
5758803		 # 	collision with: 5 10 0 0  and 2 8 1 0 
5758837		 # 	collision with: 5 1 0 0  and 0 3 0 0 
5758839		 # 	collision with: 4 4 1 0  and 6 0 2 0 
5758848		 # 	collision with: 3 7 0 0  and 4 7 0 0 
5758850		 # 	collision with: 5 4 0 0  and 4 1 1 0 
5758880		 # 	collision with: 3 10 0 0  and 5 10 0 0 
5758882		 # 	collision with: 9 4 0 0  and 4 2 1 0 
5758889		 # 	collision with: 8 1 0 0  and 6 3 0 0 
5758891		 # 	collision with: 7 4 0 0  and 9 6 1 0 
5758907		 # 	collision with: 1 1 0 0  and 1 3 0 0 
5758914		 # 	collision with: 1 5 1 0  and 1 6 1 0 
5758944		 # 	collision with: 2 4 0 0  and 4 4 0 0 
5758946		 # 	collision with: 7 0 1 0  and 4 3 2 0 
5758957		 # 	collision with: 3 10 0 0  and 5 10 0 0 
5758959		 # 	collision with: 1 5 1 0  and 1 6 1 0 
5758993		 # 	collision with: 5 1 0 0  and 2 3 0 0 
5759020		 # 	collision with: 1 9 0 0  and 3 9 0 0 
5759022		 # 	collision with: 1 4 1 0  and 4 1 2 0 
5759033		 # 	collision with: 4 5 0 0  and 6 5 0 0 
5759035		 # 	collision with: 4 1 0 0  and 1 7 2 0 
5759052		 # 	collision with: 5 8 0 0  and 6 8 0 0 
5759054		 # 	collision with: 9 5 0 0  and 9 5 2 0 
5759084		 # 	collision with: 4 5 0 0  and 6 5 0 0 
5759086		 # 	collision with: 1 9 1 0  and 3 9 1 0 
5759089		 # 	collision with: 3 10 0 0  and 5 10 0 0 
5759091		 # 	collision with: 8 6 0 0  and 3 1 1 0 
5759116		 # 	collision with: 6 9 7 0  and 10 0 0 1 
5759118		 # 	collision with: 5 3 0 0  and 8 3 1 0 
5759120		 # 	collision with: 0 3 0 0  and 2 3 0 0 
5759122		 # 	collision with: 4 4 0 0  and 7 6 1 0 
5759124		 # 	collision with: 3 7 0 0  and 4 7 0 0 
5759126		 # 	collision with: 6 2 0 0  and 9 6 1 0 
5759128		 # 	collision with: 2 1 0 0  and 3 1 0 0 
5759132		 # 	collision with: 1 9 0 0  and 3 9 0 0 
5759134		 # 	collision with: 7 9 0 0  and 2 0 2 0 
5759136		 # 	collision with: 4 5 0 0  and 6 5 0 0 
5759138		 # 	collision with: 1 3 0 0  and 4 1 1 0 
5759140		 # 	collision with: 1 6 0 0  and 2 6 0 0 
5759142		 # 	collision with: 4 5 1 0  and 7 1 2 0 
5759144		 # 	collision with: 4 2 0 0  and 5 2 0 0 
5759146		 # 	collision with: 3 9 0 0  and 6 7 1 0 
5759148		 # 	collision with: 3 10 0 0  and 5 10 0 0 
5759150		 # 	collision with: 6 10 1 0  and 9 0 2 0 
5759152		 # 	collision with: 2 4 0 0  and 4 4 0 0 
5759154		 # 	collision with: 10 7 2 0  and 2 8 3 0 
5759156		 # 	collision with: 5 8 0 0  and 6 8 0 0 
5759158		 # 	collision with: 7 5 0 0  and 10 1 1 0 
5759189		 # 	collision with: 9 1 0 0  and 1 2 0 0 
5759191		 # 	collision with: 0 0 0 0  and 1 0 1 0 
5759192		 # 	collision with: 3 10 0 0  and 5 10 0 0 
5759194		 # 	collision with: 10 8 0 0  and 1 4 1 0 
5759224		 # 	collision with: 4 5 0 0  and 6 5 0 0 
5759226		 # 	collision with: 0 0 0 0  and 1 0 1 0 
5759245		 # 	collision with: 5 8 0 0  and 6 8 0 0 
5759247		 # 	collision with: 2 3 0 0  and 3 2 2 0 
5759256		 # 	collision with: 3 7 0 0  and 4 7 0 0 
5759258		 # 	collision with: 1 9 0 0  and 1 5 1 0 
5759285		 # 	collision with: 2 1 0 0  and 3 1 0 0 
5759287		 # 	collision with: 10 7 0 0  and 3 10 1 0 
5759321		 # 	collision with: 9 1 0 0  and 1 2 0 0 
5759323		 # 	collision with: 1 5 0 0  and 5 4 1 0 
5759332		 # 	collision with: 5 8 0 0  and 6 8 0 0 
5759334		 # 	collision with: 5 8 0 0  and 0 6 2 0 
5759364		 # 	collision with: 4 2 0 0  and 5 2 0 0 
5759366		 # 	collision with: 1 1 2 0  and 1 2 2 0 
5759373		 # 	collision with: 2 1 0 0  and 3 1 0 0 
5759375		 # 	collision with: 2 3 0 0  and 8 0 1 0 
5759389		 # 	collision with: 2 4 0 0  and 4 4 0 0 
5759391		 # 	collision with: 7 8 0 0  and 10 3 2 0 
5759396		 # 	collision with: 1 9 0 0  and 3 9 0 0 
5759398		 # 	collision with: 6 4 1 0  and 6 4 2 0 
5759428		 # 	collision with: 0 3 0 0  and 2 3 0 0 
5759430		 # 	collision with: 6 8 1 0  and 10 0 2 0 
5759441		 # 	collision with: 7 1 0 0  and 1 2 0 0 
5759477		 # 	collision with: 2 4 0 0  and 4 4 0 0 
5759479		 # 	collision with: 1 3 0 0  and 4 1 1 0 
5759504		 # 	collision with: 2 4 0 0  and 4 4 0 0 
5759506		 # 	collision with: 9 2 0 0  and 8 8 2 0 
5759517		 # 	collision with: 8 1 0 0  and 5 2 0 0 
5759519		 # 	collision with: 4 3 0 0  and 5 0 1 0 
5759536		 # 	collision with: 1 6 0 0  and 2 6 0 0 
5759538		 # 	collision with: 5 7 0 0  and 3 4 1 0 
5759570		 # 	collision with: 4 1 1 0  and 1 2 1 0 
5759575		 # 	collision with: 5 4 1 0  and 2 6 1 0 
5759600		 # 	collision with: 9 1 6 0  and 1 0 0 1 
5759602		 # 	collision with: 10 8 0 0  and 1 8 1 0 
5759604		 # 	collision with: 4 2 0 0  and 5 2 0 0 
5759606		 # 	collision with: 1 2 2 0  and 1 3 2 0 
5759608		 # 	collision with: 2 1 0 0  and 3 1 0 0 
5759612		 # 	collision with: 5 8 0 0  and 6 8 0 0 
5759614		 # 	collision with: 4 6 0 0  and 6 10 1 0 
5759616		 # 	collision with: 1 6 0 0  and 2 6 0 0 
5759618		 # 	collision with: 2 6 1 0  and 4 1 2 0 
5759620		 # 	collision with: 3 7 0 0  and 4 7 0 0 
5759622		 # 	collision with: 0 7 0 0  and 2 10 1 0 
5759624		 # 	collision with: 2 4 0 0  and 4 4 0 0 
5759626		 # 	collision with: 2 10 0 0  and 4 6 1 0 
5759628		 # 	collision with: 4 5 0 0  and 6 5 0 0 
5759630		 # 	collision with: 4 9 0 0  and 6 3 1 0 
5759632		 # 	collision with: 0 3 0 0  and 2 3 0 0 
5759634		 # 	collision with: 3 5 0 0  and 5 2 1 0 
5759636		 # 	collision with: 3 10 0 0  and 5 10 0 0 
5759638		 # 	collision with: 6 3 0 0  and 8 7 1 0 
5759640		 # 	collision with: 1 9 0 0  and 3 9 0 0 
5759642		 # 	collision with: 5 9 0 0  and 7 6 1 0 
5759673		 # 	collision with: 10 0 0 0  and 5 2 0 0 
5759675		 # 	collision with: 6 5 1 0  and 0 10 2 0 
5759676		 # 	collision with: 0 3 0 0  and 2 3 0 0 
5759678		 # 	collision with: 0 0 0 0  and 1 0 1 0 
5759708		 # 	collision with: 3 7 0 0  and 4 7 0 0 
5759710		 # 	collision with: 3 8 0 0  and 9 2 1 0 
5759729		 # 	collision with: 6 0 0 0  and 2 2 0 0 
5759731		 # 	collision with: 4 1 0 0  and 9 5 1 0 
5759742		 # 	collision with: 1 3 1 0  and 1 5 1 0 
5759771		 # 	collision with: 3 9 0 0  and 1 1 1 0 
5759805		 # 	collision with: 10 0 0 0  and 5 2 0 0 
5759807		 # 	collision with: 6 2 0 0  and 8 0 1 0 
5759816		 # 	collision with: 1 9 0 0  and 3 9 0 0 
5759818		 # 	collision with: 6 3 0 0  and 6 3 2 0 
5759848		 # 	collision with: 4 5 0 0  and 6 5 0 0 
5759850		 # 	collision with: 4 1 0 0  and 1 4 1 0 
5759857		 # 	collision with: 6 0 0 0  and 7 2 0 0 
5759873		 # 	collision with: 4 2 0 0  and 5 2 0 0 
5759875		 # 	collision with: 5 6 1 0  and 6 2 2 0 
5759880		 # 	collision with: 1 6 0 0  and 2 6 0 0 
5759882		 # 	collision with: 6 3 0 0  and 9 8 1 0 
5759912		 # 	collision with: 4 2 0 0  and 5 2 0 0 
5759914		 # 	collision with: 6 7 0 0  and 1 3 1 0 
5759925		 # 	collision with: 3 7 0 0  and 4 7 0 0 
5759927		 # 	collision with: 6 0 1 0  and 9 2 2 0 
5759961		 # 	collision with: 4 2 0 0  and 5 2 0 0 
5759963		 # 	collision with: 0 8 0 0  and 5 2 1 0 
5759988		 # 	collision with: 3 10 0 0  and 5 10 0 0 
5759990		 # 	collision with: 3 3 1 0  and 3 3 2 0 
22.9081secs	11346
