# prime 11
# degree 2
# input variables 3
# output variables 5
# reload computed balance functions from file balance-173of3248-p11d2m3-debug.log
# p = 11
# n = 5
# smalldomain p^m 1331
# domain p^n 161051
#	 p^2 = 121
#	 p^3 = 1331
#	 p^4 = 14641
#	 p^5 = 161051
#	 p^6 = 1771561
#	 p^7 = 19487171
#	 p^8 = 214358881
#	 p^9 = 2357947691
opening file : balance-173of3248-p11d2m3-debug.log
reloading for step2...
1038017		 # 	collision with: 2 2 0 0 0  and 4 2 0 0 0 
1038019		 # 	collision with: 10 1 0 0 0  and 10 1 1 0 0 
1038044		 # 	collision with: 3 10 0 0 0  and 4 10 0 0 0 
1038046		 # 	collision with: 9 0 10 0 0  and 9 2 10 0 0 
1038049		 # 	collision with: 7 0 0 0 0  and 8 1 0 0 0 
1038051		 # 	collision with: 9 5 0 0 0  and 9 4 1 0 0 
1038056		 # 	collision with: 0 6 0 0 0  and 1 6 0 0 0 
1038058		 # 	collision with: 9 5 6 0 0  and 9 6 6 0 0 
1038101		 # 	collision with: 4 1 0 0 0  and 6 1 0 0 0 
1038103		 # 	collision with: 5 7 0 0 0  and 5 7 1 0 0 
1038112		 # 	collision with: 5 9 0 0 0  and 6 9 0 0 0 
1038114		 # 	collision with: 9 1 9 0 0  and 9 2 9 0 0 
1038145		 # 	collision with: 4 1 0 0 0  and 6 1 0 0 0 
1038147		 # 	collision with: 9 6 0 0 0  and 9 0 1 0 0 
1038168		 # 	collision with: 3 7 0 0 0  and 5 7 0 0 0 
1038170		 # 	collision with: 9 1 7 0 0  and 9 3 7 0 0 
1038186		 # 	collision with: 9 3 0 0 0  and 9 4 0 0 0 
1038190		 # 	collision with: 9 4 0 0 0  and 9 6 0 0 0 
1038194		 # 	collision with: 9 0 0 0 0  and 9 2 0 0 0 
1038198		 # 	collision with: 9 2 0 0 0  and 9 3 0 0 0 
1038202		 # 	collision with: 9 3 0 0 0  and 9 5 0 0 0 
1038206		 # 	collision with: 9 5 0 0 0  and 9 6 0 0 0 
1038210		 # 	collision with: 9 1 0 0 0  and 9 2 0 0 0 
1038214		 # 	collision with: 9 2 0 0 0  and 9 4 0 0 0 
1038218		 # 	collision with: 9 4 0 0 0  and 9 5 0 0 0 
1038222		 # 	collision with: 9 0 0 0 0  and 9 1 0 0 0 
1038225		 # 	collision with: 5 9 0 0 0  and 6 9 0 0 0 
1038227		 # 	collision with: 9 10 5 0 0  and 9 0 6 0 0 
1038244		 # 	collision with: 0 0 0 0 0  and 4 0 0 0 0 
1038246		 # 	collision with: 9 3 0 0 0  and 9 5 0 0 0 
1038277		 # 	collision with: 0 10 0 0 0  and 2 10 0 0 0 
1038279		 # 	collision with: 9 2 3 0 0  and 9 3 3 0 0 
1038308		 # 	collision with: 0 0 0 0 0  and 4 0 0 0 0 
1038310		 # 	collision with: 9 0 0 0 0  and 9 1 0 0 0 
1038328		 # 	collision with: 0 0 0 0 0  and 4 0 0 0 0 
1038330		 # 	collision with: 9 2 0 0 0  and 9 3 0 0 0 
1038337		 # 	collision with: 1 5 0 0 0  and 2 5 0 0 0 
1038339		 # 	collision with: 9 5 0 0 0  and 9 6 0 0 0 
1038377		 # 	collision with: 2 1 0 0 0  and 4 1 0 0 0 
1038379		 # 	collision with: 9 0 2 0 0  and 9 1 2 0 0 
1038392		 # 	collision with: 0 0 0 0 0  and 4 0 0 0 0 
1038394		 # 	collision with: 9 4 0 0 0  and 9 5 0 0 0 
1038409		 # 	collision with: 0 10 0 0 0  and 2 10 0 0 0 
1038411		 # 	collision with: 9 2 3 0 0  and 9 3 3 0 0 
1038412		 # 	collision with: 0 0 0 0 0  and 4 0 0 0 0 
1038414		 # 	collision with: 9 0 0 0 0  and 9 2 0 0 0 
1038476		 # 	collision with: 0 0 0 0 0  and 4 0 0 0 0 
1038478		 # 	collision with: 9 2 0 0 0  and 9 4 0 0 0 
1038481		 # 	collision with: 3 5 0 0 0  and 0 6 0 0 0 
1038483		 # 	collision with: 9 9 5 0 0  and 9 4 6 0 0 
1038496		 # 	collision with: 0 0 0 0 0  and 4 0 0 0 0 
1038498		 # 	collision with: 9 4 0 0 0  and 9 6 0 0 0 
1038513		 # 	collision with: 1 5 0 0 0  and 2 5 0 0 0 
1038515		 # 	collision with: 9 5 0 0 0  and 9 6 0 0 0 
1038553		 # 	collision with: 2 1 0 0 0  and 4 1 0 0 0 
1038555		 # 	collision with: 9 0 2 0 0  and 9 1 2 0 0 
1038560		 # 	collision with: 0 0 0 0 0  and 4 0 0 0 0 
1038562		 # 	collision with: 9 1 0 0 0  and 9 2 0 0 0 
1038580		 # 	collision with: 0 0 0 0 0  and 4 0 0 0 0 
1038582		 # 	collision with: 9 3 0 0 0  and 9 4 0 0 0 
1038613		 # 	collision with: 3 5 0 0 0  and 0 6 0 0 0 
1038615		 # 	collision with: 9 7 5 0 0  and 9 1 6 0 0 
1038621		 # 	collision with: 5 9 0 0 0  and 6 9 0 0 0 
1038623		 # 	collision with: 9 4 5 0 0  and 9 2 6 0 0 
1038644		 # 	collision with: 0 0 0 0 0  and 4 0 0 0 0 
1038646		 # 	collision with: 9 5 0 0 0  and 9 6 0 0 0 
1038664		 # 	collision with: 8 8 2 3 0  and 10 1 0 0 1 
1038666		 # 	collision with: 5 6 9 0 0  and 4 2 0 1 0 
1038668		 # 	collision with: 0 10 0 0 0  and 2 10 0 0 0 
1038670		 # 	collision with: 9 2 10 0 0  and 9 3 10 0 0 
1038672		 # 	collision with: 1 5 0 0 0  and 2 5 0 0 0 
1038674		 # 	collision with: 9 4 5 0 0  and 9 5 5 0 0 
1038676		 # 	collision with: 3 7 0 0 0  and 4 7 0 0 0 
1038678		 # 	collision with: 9 2 7 0 0  and 9 3 7 0 0 
1038680		 # 	collision with: 4 8 0 0 0  and 5 8 0 0 0 
1038682		 # 	collision with: 9 4 8 0 0  and 9 6 8 0 0 
1038684		 # 	collision with: 3 2 0 0 0  and 5 2 0 0 0 
1038686		 # 	collision with: 9 0 2 0 0  and 9 1 2 0 0 
1038688		 # 	collision with: 5 9 0 0 0  and 6 9 0 0 0 
1038692		 # 	collision with: 4 3 0 0 0  and 6 3 0 0 0 
1038694		 # 	collision with: 9 4 3 0 0  and 9 5 3 0 0 
1038696		 # 	collision with: 0 4 0 0 0  and 1 4 0 0 0 
1038698		 # 	collision with: 9 1 4 0 0  and 9 2 4 0 0 
1038700		 # 	collision with: 2 6 0 0 0  and 3 6 0 0 0 
1038702		 # 	collision with: 9 4 6 0 0  and 9 6 6 0 0 
1038704		 # 	collision with: 2 1 0 0 0  and 4 1 0 0 0 
1038706		 # 	collision with: 9 1 1 0 0  and 9 2 1 0 0 
1038709		 # 	collision with: 4 3 0 0 0  and 6 3 0 0 0 
1038711		 # 	collision with: 9 4 3 0 0  and 9 6 3 0 0 
1038728		 # 	collision with: 3 2 0 0 0  and 5 2 0 0 0 
1038730		 # 	collision with: 9 0 2 0 0  and 9 1 2 0 0 
1038761		 # 	collision with: 1 4 0 0 0  and 5 6 0 0 0 
1038792		 # 	collision with: 2 1 0 0 0  and 4 1 0 0 0 
1038794		 # 	collision with: 9 1 1 0 0  and 9 2 1 0 0 
1038812		 # 	collision with: 4 8 0 0 0  and 5 8 0 0 0 
1038814		 # 	collision with: 9 4 8 0 0  and 9 6 8 0 0 
1038821		 # 	collision with: 5 9 0 0 0  and 6 9 0 0 0 
1038823		 # 	collision with: 9 3 4 0 0  and 9 5 4 0 0 
1038861		 # 	collision with: 0 4 0 0 0  and 1 4 0 0 0 
1038863		 # 	collision with: 9 3 5 0 0  and 9 4 5 0 0 
1038876		 # 	collision with: 2 6 0 0 0  and 3 6 0 0 0 
1038893		 # 	collision with: 1 4 0 0 0  and 5 6 0 0 0 
1038895		 # 	collision with: 9 4 0 0 0  and 9 6 0 0 0 
1038896		 # 	collision with: 3 7 0 0 0  and 4 7 0 0 0 
1038898		 # 	collision with: 9 2 7 0 0  and 9 3 7 0 0 
1038962		 # 	collision with: 9 1 4 0 0  and 9 2 4 0 0 
1038967		 # 	collision with: 7 2 4 0 0  and 7 2 6 0 0 
1038980		 # 	collision with: 1 5 0 0 0  and 2 5 0 0 0 
1038982		 # 	collision with: 9 4 5 0 0  and 9 5 5 0 0 
1038997		 # 	collision with: 5 9 0 0 0  and 6 9 0 0 0 
1038999		 # 	collision with: 9 3 4 0 0  and 9 5 4 0 0 
1039037		 # 	collision with: 0 4 0 0 0  and 1 4 0 0 0 
1039039		 # 	collision with: 9 3 5 0 0  and 9 4 5 0 0 
1039044		 # 	collision with: 4 3 0 0 0  and 6 3 0 0 0 
1039046		 # 	collision with: 9 4 3 0 0  and 9 5 3 0 0 
1039064		 # 	collision with: 0 10 0 0 0  and 2 10 0 0 0 
1039066		 # 	collision with: 9 2 10 0 0  and 9 3 10 0 0 
1039097		 # 	collision with: 0 4 0 0 0  and 5 6 0 0 0 
1039099		 # 	collision with: 1 2 4 0 0  and 1 2 6 0 0 
1039105		 # 	collision with: 4 3 0 0 0  and 6 3 0 0 0 
1039107		 # 	collision with: 9 4 3 0 0  and 9 6 3 0 0 
1039128		 # 	collision with: 5 9 0 0 0  and 6 9 0 0 0 
1039130		 # 	collision with: 9 3 9 0 0  and 9 4 9 0 0 
1039148		 # 	collision with: 6 4 4 7 0  and 10 0 0 0 1 
1039150		 # 	collision with: 8 6 10 0 0  and 6 9 0 1 0 
1039152		 # 	collision with: 5 9 0 0 0  and 6 9 0 0 0 
1039156		 # 	collision with: 0 10 0 0 0  and 2 10 0 0 0 
1039158		 # 	collision with: 9 3 10 0 0  and 9 5 10 0 0 
1039160		 # 	collision with: 4 3 0 0 0  and 6 3 0 0 0 
1039162		 # 	collision with: 9 3 3 0 0  and 9 5 3 0 0 
1039164		 # 	collision with: 1 5 0 0 0  and 2 5 0 0 0 
1039166		 # 	collision with: 9 1 5 0 0  and 9 3 5 0 0 
1039168		 # 	collision with: 0 4 0 0 0  and 1 4 0 0 0 
1039170		 # 	collision with: 9 2 4 0 0  and 9 3 4 0 0 
1039172		 # 	collision with: 3 7 0 0 0  and 4 7 0 0 0 
1039174		 # 	collision with: 9 1 7 0 0  and 9 2 7 0 0 
1039176		 # 	collision with: 2 6 0 0 0  and 3 6 0 0 0 
1039178		 # 	collision with: 9 1 6 0 0  and 9 3 6 0 0 
1039180		 # 	collision with: 4 8 0 0 0  and 5 8 0 0 0 
1039182		 # 	collision with: 9 5 8 0 0  and 9 6 8 0 0 
1039184		 # 	collision with: 2 1 0 0 0  and 4 1 0 0 0 
1039186		 # 	collision with: 9 5 1 0 0  and 9 6 1 0 0 
1039188		 # 	collision with: 3 2 0 0 0  and 5 2 0 0 0 
1039190		 # 	collision with: 9 2 2 0 0  and 9 3 2 0 0 
1039195		 # 	collision with: 9 10 4 0 0  and 9 1 5 0 0 
1039214		 # 	collision with: 9 2 4 0 0  and 9 3 4 0 0 
1039245		 # 	collision with: 0 4 0 0 0  and 1 4 0 0 0 
1039247		 # 	collision with: 10 2 4 0 0  and 10 2 5 0 0 
1039276		 # 	collision with: 3 2 0 0 0  and 5 2 0 0 0 
1039278		 # 	collision with: 9 2 2 0 0  and 9 3 2 0 0 
1039296		 # 	collision with: 1 5 0 0 0  and 2 5 0 0 0 
1039298		 # 	collision with: 9 1 5 0 0  and 9 3 5 0 0 
1039305		 # 	collision with: 3 2 0 0 0  and 5 2 0 0 0 
1039345		 # 	collision with: 3 7 0 0 0  and 4 7 0 0 0 
1039347		 # 	collision with: 9 3 4 0 0  and 9 3 5 0 0 
1039360		 # 	collision with: 2 1 0 0 0  and 4 1 0 0 0 
1039362		 # 	collision with: 9 5 1 0 0  and 9 6 1 0 0 
1039377		 # 	collision with: 0 4 0 0 0  and 1 4 0 0 0 
1039380		 # 	collision with: 4 3 0 0 0  and 6 3 0 0 0 
1039382		 # 	collision with: 9 3 3 0 0  and 9 5 3 0 0 
1039444		 # 	collision with: 4 8 0 0 0  and 5 8 0 0 0 
1039446		 # 	collision with: 9 5 8 0 0  and 9 6 8 0 0 
1039449		 # 	collision with: 5 4 0 0 0  and 2 5 0 0 0 
1039451		 # 	collision with: 9 4 0 0 0  and 9 5 0 0 0 
1039464		 # 	collision with: 0 10 0 0 0  and 2 10 0 0 0 
1039466		 # 	collision with: 9 3 10 0 0  and 9 5 10 0 0 
1039481		 # 	collision with: 3 2 0 0 0  and 5 2 0 0 0 
1039483		 # 	collision with: 4 8 4 0 0  and 4 8 5 0 0 
1039521		 # 	collision with: 3 7 0 0 0  and 4 7 0 0 0 
1039523		 # 	collision with: 10 3 4 0 0  and 10 3 5 0 0 
1039528		 # 	collision with: 2 6 0 0 0  and 3 6 0 0 0 
1039548		 # 	collision with: 5 9 0 0 0  and 6 9 0 0 0 
1039550		 # 	collision with: 9 1 9 0 0  and 9 2 9 0 0 
1039581		 # 	collision with: 5 4 0 0 0  and 2 5 0 0 0 
1039583		 # 	collision with: 9 4 0 0 0  and 9 5 0 0 0 
1039589		 # 	collision with: 0 4 0 0 0  and 3 5 0 0 0 
1039591		 # 	collision with: 9 6 4 0 0  and 9 2 5 0 0 
1039612		 # 	collision with: 3 7 0 0 0  and 4 7 0 0 0 
1039614		 # 	collision with: 9 1 7 0 0  and 9 2 7 0 0 
1039632		 # 	collision with: 6 6 8 1 0  and 10 1 0 0 1 
1039634		 # 	collision with: 0 6 3 0 0  and 8 5 0 1 0 
1039636		 # 	collision with: 4 8 0 0 0  and 5 8 0 0 0 
1039638		 # 	collision with: 9 0 8 0 0  and 9 1 8 0 0 
1039640		 # 	collision with: 0 4 0 0 0  and 1 4 0 0 0 
1039642		 # 	collision with: 9 3 4 0 0  and 9 4 4 0 0 
1039644		 # 	collision with: 0 10 0 0 0  and 2 10 0 0 0 
1039646		 # 	collision with: 9 5 10 0 0  and 9 6 10 0 0 
1039648		 # 	collision with: 3 2 0 0 0  and 5 2 0 0 0 
1039650		 # 	collision with: 9 4 2 0 0  and 9 5 2 0 0 
1039652		 # 	collision with: 2 6 0 0 0  and 3 6 0 0 0 
1039654		 # 	collision with: 9 4 6 0 0  and 9 5 6 0 0 
1039656		 # 	collision with: 1 5 0 0 0  and 2 5 0 0 0 
1039658		 # 	collision with: 9 4 5 0 0  and 9 6 5 0 0 
1039660		 # 	collision with: 5 9 0 0 0  and 6 9 0 0 0 
1039664		 # 	collision with: 2 1 0 0 0  and 4 1 0 0 0 
1039666		 # 	collision with: 9 3 1 0 0  and 9 5 1 0 0 
1039668		 # 	collision with: 3 7 0 0 0  and 4 7 0 0 0 
1039670		 # 	collision with: 9 0 7 0 0  and 9 1 7 0 0 
1039672		 # 	collision with: 4 3 0 0 0  and 6 3 0 0 0 
1039674		 # 	collision with: 9 3 3 0 0  and 9 4 3 0 0 
1039677		 # 	collision with: 3 2 0 0 0  and 5 2 0 0 0 
1039679		 # 	collision with: 9 3 2 0 0  and 9 5 2 0 0 
1039696		 # 	collision with: 2 6 0 0 0  and 3 6 0 0 0 
1039729		 # 	collision with: 2 1 0 0 0  and 4 1 0 0 0 
1039731		 # 	collision with: 9 6 3 0 0  and 9 3 5 0 0 
1039760		 # 	collision with: 4 3 0 0 0  and 6 3 0 0 0 
1039762		 # 	collision with: 9 3 3 0 0  and 9 4 3 0 0 
1039780		 # 	collision with: 3 2 0 0 0  and 5 2 0 0 0 
1039782		 # 	collision with: 9 4 2 0 0  and 9 5 2 0 0 
1039789		 # 	collision with: 2 6 0 0 0  and 3 6 0 0 0 
1039791		 # 	collision with: 9 0 1 0 0  and 9 2 1 0 0 
1039829		 # 	collision with: 0 10 0 0 0  and 2 10 0 0 0 
1039831		 # 	collision with: 9 3 0 0 0  and 9 5 0 0 0 
1039844		 # 	collision with: 3 7 0 0 0  and 4 7 0 0 0 
1039846		 # 	collision with: 9 0 7 0 0  and 9 1 7 0 0 
1039861		 # 	collision with: 2 1 0 0 0  and 4 1 0 0 0 
1039863		 # 	collision with: 9 4 5 0 0  and 9 5 5 0 0 
1039864		 # 	collision with: 0 10 0 0 0  and 2 10 0 0 0 
1039866		 # 	collision with: 9 5 10 0 0  and 9 6 10 0 0 
1039928		 # 	collision with: 2 1 0 0 0  and 4 1 0 0 0 
1039930		 # 	collision with: 9 3 1 0 0  and 9 5 1 0 0 
1039933		 # 	collision with: 2 3 0 0 0  and 7 5 0 0 0 
1039935		 # 	collision with: 4 5 3 0 0  and 4 5 5 0 0 
1039950		 # 	collision with: 9 3 4 0 0  and 9 4 4 0 0 
1039967		 # 	collision with: 9 0 1 0 0  and 9 2 1 0 0 
1040005		 # 	collision with: 0 10 0 0 0  and 2 10 0 0 0 
1040007		 # 	collision with: 9 3 0 0 0  and 9 5 0 0 0 
1040012		 # 	collision with: 5 9 0 0 0  and 6 9 0 0 0 
1040014		 # 	collision with: 9 4 9 0 0  and 9 6 9 0 0 
1040032		 # 	collision with: 4 8 0 0 0  and 5 8 0 0 0 
1040034		 # 	collision with: 9 0 8 0 0  and 9 1 8 0 0 
1040065		 # 	collision with: 2 3 0 0 0  and 7 5 0 0 0 
1040067		 # 	collision with: 10 5 3 0 0  and 10 5 5 0 0 
1040073		 # 	collision with: 3 2 0 0 0  and 5 2 0 0 0 
1040075		 # 	collision with: 9 3 2 0 0  and 9 5 2 0 0 
1040096		 # 	collision with: 1 5 0 0 0  and 2 5 0 0 0 
1040098		 # 	collision with: 9 4 5 0 0  and 9 6 5 0 0 
1040116		 # 	collision with: 7 2 8 2 0  and 9 2 0 0 1 
1040118		 # 	collision with: 2 9 6 0 0  and 9 7 1 1 0 
1040120		 # 	collision with: 3 7 0 0 0  and 4 7 0 0 0 
1040122		 # 	collision with: 9 4 7 0 0  and 9 6 7 0 0 
1040124		 # 	collision with: 5 9 0 0 0  and 6 9 0 0 0 
1040128		 # 	collision with: 2 6 0 0 0  and 3 6 0 0 0 
1040130		 # 	collision with: 9 1 6 0 0  and 9 2 6 0 0 
1040132		 # 	collision with: 0 10 0 0 0  and 2 10 0 0 0 
1040134		 # 	collision with: 9 1 10 0 0  and 9 2 10 0 0 
1040136		 # 	collision with: 4 8 0 0 0  and 5 8 0 0 0 
1040138		 # 	collision with: 9 0 8 0 0  and 9 2 8 0 0 
1040140		 # 	collision with: 4 3 0 0 0  and 6 3 0 0 0 
1040142		 # 	collision with: 9 2 3 0 0  and 9 4 3 0 0 
1040144		 # 	collision with: 2 1 0 0 0  and 4 1 0 0 0 
1040146		 # 	collision with: 9 2 1 0 0  and 9 3 1 0 0 
1040148		 # 	collision with: 1 5 0 0 0  and 2 5 0 0 0 
1040150		 # 	collision with: 9 2 5 0 0  and 9 3 5 0 0 
1040152		 # 	collision with: 3 2 0 0 0  and 5 2 0 0 0 
1040154		 # 	collision with: 9 0 2 0 0  and 9 2 2 0 0 
1040156		 # 	collision with: 0 4 0 0 0  and 1 4 0 0 0 
1040158		 # 	collision with: 9 4 4 0 0  and 9 5 4 0 0 
1040161		 # 	collision with: 2 3 0 0 0  and 3 4 0 0 0 
1040180		 # 	collision with: 4 8 0 0 0  and 5 8 0 0 0 
1040182		 # 	collision with: 9 0 8 0 0  and 9 2 8 0 0 
1040215		 # 	collision with: 9 1 2 0 0  and 9 2 2 0 0 
1040246		 # 	collision with: 9 4 4 0 0  and 9 5 4 0 0 
1040264		 # 	collision with: 0 10 0 0 0  and 2 10 0 0 0 
1040266		 # 	collision with: 9 1 10 0 0  and 9 2 10 0 0 
1040273		 # 	collision with: 3 3 0 0 0  and 4 4 0 0 0 
1040275		 # 	collision with: 9 3 3 0 0  and 9 1 4 0 0 
1040313		 # 	collision with: 3 2 0 0 0  and 5 2 0 0 0 
1040328		 # 	collision with: 3 2 0 0 0  and 5 2 0 0 0 
1040330		 # 	collision with: 9 0 2 0 0  and 9 2 2 0 0 
1040345		 # 	collision with: 10 3 0 0 0  and 0 4 0 0 0 
1040347		 # 	collision with: 9 1 2 0 0  and 9 2 2 0 0 
1040348		 # 	collision with: 2 6 0 0 0  and 3 6 0 0 0 
1040412		 # 	collision with: 1 5 0 0 0  and 2 5 0 0 0 
1040414		 # 	collision with: 9 2 5 0 0  and 9 3 5 0 0 
1040417		 # 	collision with: 7 3 0 0 0  and 4 4 0 0 0 
1040419		 # 	collision with: 8 1 3 0 0  and 8 1 4 0 0 
1040432		 # 	collision with: 5 9 0 0 0  and 6 9 0 0 0 
1040434		 # 	collision with: 9 2 9 0 0  and 9 4 9 0 0 
1040449		 # 	collision with: 3 3 0 0 0  and 4 4 0 0 0 
1040451		 # 	collision with: 8 7 3 0 0  and 8 7 4 0 0 
1040489		 # 	collision with: 3 2 0 0 0  and 5 2 0 0 0 
1040491		 # 	collision with: 9 1 3 0 0  and 9 2 3 0 0 
1040496		 # 	collision with: 2 1 0 0 0  and 4 1 0 0 0 
1040498		 # 	collision with: 9 2 1 0 0  and 9 3 1 0 0 
1040516		 # 	collision with: 3 7 0 0 0  and 4 7 0 0 0 
1040518		 # 	collision with: 9 4 7 0 0  and 9 6 7 0 0 
1040549		 # 	collision with: 7 3 0 0 0  and 4 4 0 0 0 
1040551		 # 	collision with: 9 1 3 0 0  and 9 1 4 0 0 
1040557		 # 	collision with: 2 3 0 0 0  and 3 4 0 0 0 
1040559		 # 	collision with: 9 3 3 0 0  and 9 10 4 0 0 
1040580		 # 	collision with: 4 3 0 0 0  and 6 3 0 0 0 
1040582		 # 	collision with: 9 2 3 0 0  and 9 4 3 0 0 
1040600		 # 	collision with: 7 4 7 1 0  and 3 2 0 0 1 
1040602		 # 	collision with: 5 9 4 0 0  and 0 0 0 1 0 
1040604		 # 	collision with: 2 6 0 0 0  and 3 6 0 0 0 
1040606		 # 	collision with: 9 3 6 0 0  and 9 5 6 0 0 
1040608		 # 	collision with: 4 3 0 0 0  and 6 3 0 0 0 
1040610		 # 	collision with: 9 2 3 0 0  and 9 3 3 0 0 
1040612		 # 	collision with: 3 2 0 0 0  and 5 2 0 0 0 
1040614		 # 	collision with: 9 2 2 0 0  and 9 4 2 0 0 
1040616		 # 	collision with: 3 7 0 0 0  and 4 7 0 0 0 
1040618		 # 	collision with: 9 3 7 0 0  and 9 5 7 0 0 
1040620		 # 	collision with: 0 10 0 0 0  and 2 10 0 0 0 
1040622		 # 	collision with: 9 2 10 0 0  and 9 4 10 0 0 
1040624		 # 	collision with: 2 1 0 0 0  and 4 1 0 0 0 
1040626		 # 	collision with: 9 0 1 0 0  and 9 2 1 0 0 
1040628		 # 	collision with: 0 4 0 0 0  and 1 4 0 0 0 
1040630		 # 	collision with: 9 5 4 0 0  and 9 6 4 0 0 
1040632		 # 	collision with: 5 9 0 0 0  and 6 9 0 0 0 
1040636		 # 	collision with: 4 8 0 0 0  and 5 8 0 0 0 
1040638		 # 	collision with: 9 1 8 0 0  and 9 2 8 0 0 
1040640		 # 	collision with: 1 5 0 0 0  and 2 5 0 0 0 
1040642		 # 	collision with: 9 5 5 0 0  and 9 6 5 0 0 
1040645		 # 	collision with: 2 1 0 0 0  and 4 1 0 0 0 
1040647		 # 	collision with: 9 2 1 0 0  and 9 4 1 0 0 
1040664		 # 	collision with: 0 10 0 0 0  and 2 10 0 0 0 
1040666		 # 	collision with: 9 2 10 0 0  and 9 4 10 0 0 
1040697		 # 	collision with: 2 6 0 0 0  and 3 6 0 0 0 
1040699		 # 	collision with: 9 6 2 0 0  and 9 1 4 0 0 
1040728		 # 	collision with: 1 5 0 0 0  and 2 5 0 0 0 
1040730		 # 	collision with: 9 5 5 0 0  and 9 6 5 0 0 
1040748		 # 	collision with: 3 7 0 0 0  and 4 7 0 0 0 
1040750		 # 	collision with: 9 3 7 0 0  and 9 5 7 0 0 
1040757		 # 	collision with: 4 3 0 0 0  and 6 3 0 0 0 
1040759		 # 	collision with: 5 1 2 0 0  and 5 1 4 0 0 
1040797		 # 	collision with: 1 5 0 0 0  and 2 5 0 0 0 
1040799		 # 	collision with: 9 4 2 0 0  and 9 0 4 0 0 
1040812		 # 	collision with: 4 8 0 0 0  and 5 8 0 0 0 
1040814		 # 	collision with: 9 1 8 0 0  and 9 2 8 0 0 
1040829		 # 	collision with: 2 6 0 0 0  and 3 6 0 0 0 
1040831		 # 	collision with: 5 3 2 0 0  and 5 3 4 0 0 
1040832		 # 	collision with: 3 2 0 0 0  and 5 2 0 0 0 
1040834		 # 	collision with: 9 2 2 0 0  and 9 4 2 0 0 
1040896		 # 	collision with: 5 9 0 0 0  and 6 9 0 0 0 
1040898		 # 	collision with: 9 0 9 0 0  and 9 2 9 0 0 
1040901		 # 	collision with: 4 2 0 0 0  and 9 4 0 0 0 
1040903		 # 	collision with: 9 2 2 0 0  and 9 6 4 0 0 
1040916		 # 	collision with: 4 3 0 0 0  and 6 3 0 0 0 
1040918		 # 	collision with: 9 2 3 0 0  and 9 3 3 0 0 
1040933		 # 	collision with: 4 3 0 0 0  and 6 3 0 0 0 
1040935		 # 	collision with: 10 1 2 0 0  and 10 1 4 0 0 
1040975		 # 	collision with: 9 4 2 0 0  and 9 8 4 0 0 
1040982		 # 	collision with: 9 5 4 0 0  and 9 6 4 0 0 
1041000		 # 	collision with: 2 6 0 0 0  and 3 6 0 0 0 
1041033		 # 	collision with: 4 2 0 0 0  and 9 4 0 0 0 
1041035		 # 	collision with: 9 8 2 0 0  and 9 6 4 0 0 
1041041		 # 	collision with: 2 1 0 0 0  and 4 1 0 0 0 
1041043		 # 	collision with: 9 2 1 0 0  and 9 4 1 0 0 
1041064		 # 	collision with: 2 1 0 0 0  and 4 1 0 0 0 
1041066		 # 	collision with: 9 0 1 0 0  and 9 2 1 0 0 
1041084		 # 	collision with: 1 10 9 2 0  and 6 0 0 0 1 
1041086		 # 	collision with: 0 5 8 0 0  and 5 1 1 1 0 
1041088		 # 	collision with: 1 5 0 0 0  and 2 5 0 0 0 
1041090		 # 	collision with: 9 2 5 0 0  and 9 4 5 0 0 
1041092		 # 	collision with: 4 8 0 0 0  and 5 8 0 0 0 
1041094		 # 	collision with: 9 1 8 0 0  and 9 3 8 0 0 
1041096		 # 	collision with: 5 9 0 0 0  and 6 9 0 0 0 
1041100		 # 	collision with: 0 4 0 0 0  and 1 4 0 0 0 
1041102		 # 	collision with: 9 0 4 0 0  and 9 2 4 0 0 
1041104		 # 	collision with: 2 1 0 0 0  and 4 1 0 0 0 
1041106		 # 	collision with: 9 4 1 0 0  and 9 6 1 0 0 
1041108		 # 	collision with: 0 10 0 0 0  and 2 10 0 0 0 
1041110		 # 	collision with: 9 4 10 0 0  and 9 5 10 0 0 
1041112		 # 	collision with: 3 7 0 0 0  and 4 7 0 0 0 
1041114		 # 	collision with: 9 2 7 0 0  and 9 4 7 0 0 
1041116		 # 	collision with: 3 2 0 0 0  and 5 2 0 0 0 
1041118		 # 	collision with: 9 4 2 0 0  and 9 6 2 0 0 
1041120		 # 	collision with: 4 3 0 0 0  and 6 3 0 0 0 
1041122		 # 	collision with: 9 1 3 0 0  and 9 3 3 0 0 
1041124		 # 	collision with: 2 6 0 0 0  and 3 6 0 0 0 
1041126		 # 	collision with: 9 0 6 0 0  and 9 2 6 0 0 
1041129		 # 	collision with: 9 2 0 0 0  and 6 3 0 0 0 
1041131		 # 	collision with: 9 7 2 0 0  and 9 10 3 0 0 
1041148		 # 	collision with: 2 1 0 0 0  and 4 1 0 0 0 
1041150		 # 	collision with: 9 4 1 0 0  and 9 6 1 0 0 
1041181		 # 	collision with: 9 2 0 0 0  and 4 3 0 0 0 
1041183		 # 	collision with: 9 7 2 0 0  and 9 3 3 0 0 
1041212		 # 	collision with: 2 6 0 0 0  and 3 6 0 0 0 
1041234		 # 	collision with: 9 0 4 0 0  and 9 2 4 0 0 
1041243		 # 	collision with: 9 1 2 0 0  and 9 3 2 0 0 
1041281		 # 	collision with: 9 2 0 0 0  and 6 3 0 0 0 
1041283		 # 	collision with: 6 5 2 0 0  and 6 5 3 0 0 
1041296		 # 	collision with: 4 3 0 0 0  and 6 3 0 0 0 
1041298		 # 	collision with: 9 1 3 0 0  and 9 3 3 0 0 
1041313		 # 	collision with: 9 2 0 0 0  and 4 3 0 0 0 
1041315		 # 	collision with: 9 9 2 0 0  and 9 4 3 0 0 
1041316		 # 	collision with: 5 9 0 0 0  and 6 9 0 0 0 
1041318		 # 	collision with: 9 4 9 0 0  and 9 5 9 0 0 
1041380		 # 	collision with: 3 2 0 0 0  and 5 2 0 0 0 
1041382		 # 	collision with: 9 4 2 0 0  and 9 6 2 0 0 
1041385		 # 	collision with: 9 2 0 0 0  and 6 3 0 0 0 
1041387		 # 	collision with: 9 2 2 0 0  and 9 0 3 0 0 
1041400		 # 	collision with: 4 8 0 0 0  and 5 8 0 0 0 
1041402		 # 	collision with: 9 1 8 0 0  and 9 3 8 0 0 
1041417		 # 	collision with: 9 2 0 0 0  and 6 3 0 0 0 
1041419		 # 	collision with: 9 1 2 0 0  and 9 3 2 0 0 
1041457		 # 	collision with: 9 2 0 0 0  and 6 3 0 0 0 
1041459		 # 	collision with: 3 5 2 0 0  and 3 5 3 0 0 
1041464		 # 	collision with: 3 7 0 0 0  and 4 7 0 0 0 
1041466		 # 	collision with: 9 2 7 0 0  and 9 4 7 0 0 
1041484		 # 	collision with: 1 5 0 0 0  and 2 5 0 0 0 
1041486		 # 	collision with: 9 2 5 0 0  and 9 4 5 0 0 
1041517		 # 	collision with: 9 2 0 0 0  and 6 3 0 0 0 
1041519		 # 	collision with: 9 7 2 0 0  and 9 0 3 0 0 
1041525		 # 	collision with: 9 2 0 0 0  and 6 3 0 0 0 
1041527		 # 	collision with: 9 8 2 0 0  and 9 3 3 0 0 
1041548		 # 	collision with: 0 10 0 0 0  and 2 10 0 0 0 
1041550		 # 	collision with: 9 4 10 0 0  and 9 5 10 0 0 
1041568		 # 	collision with: 0 7 10 10 0  and 1 1 0 0 1 
1041570		 # 	collision with: 7 1 6 0 0  and 0 2 0 1 0 
1041572		 # 	collision with: 0 4 0 0 0  and 1 4 0 0 0 
1041574		 # 	collision with: 9 1 4 0 0  and 9 3 4 0 0 
1041576		 # 	collision with: 3 2 0 0 0  and 5 2 0 0 0 
1041578		 # 	collision with: 9 1 2 0 0  and 9 2 2 0 0 
1041580		 # 	collision with: 1 5 0 0 0  and 2 5 0 0 0 
1041582		 # 	collision with: 9 0 5 0 0  and 9 1 5 0 0 
1041584		 # 	collision with: 2 1 0 0 0  and 4 1 0 0 0 
1041586		 # 	collision with: 9 3 1 0 0  and 9 4 1 0 0 
1041588		 # 	collision with: 4 3 0 0 0  and 6 3 0 0 0 
1041590		 # 	collision with: 9 1 3 0 0  and 9 2 3 0 0 
1041592		 # 	collision with: 4 8 0 0 0  and 5 8 0 0 0 
1041594		 # 	collision with: 9 2 8 0 0  and 9 3 8 0 0 
1041596		 # 	collision with: 0 10 0 0 0  and 2 10 0 0 0 
1041598		 # 	collision with: 9 0 10 0 0  and 9 1 10 0 0 
1041600		 # 	collision with: 2 6 0 0 0  and 3 6 0 0 0 
1041602		 # 	collision with: 9 3 6 0 0  and 9 4 6 0 0 
1041604		 # 	collision with: 5 9 0 0 0  and 6 9 0 0 0 
1041608		 # 	collision with: 3 7 0 0 0  and 4 7 0 0 0 
1041610		 # 	collision with: 9 1 7 0 0  and 9 3 7 0 0 
1041613		 # 	collision with: 0 0 0 0 0  and 4 0 0 0 0 
1041615		 # 	collision with: 9 1 0 0 0  and 9 3 0 0 0 
1041632		 # 	collision with: 4 3 0 0 0  and 6 3 0 0 0 
1041634		 # 	collision with: 9 1 3 0 0  and 9 2 3 0 0 
1041665		 # 	collision with: 0 0 0 0 0  and 4 0 0 0 0 
1041667		 # 	collision with: 5 0 1 0 0  and 5 0 3 0 0 
1041696		 # 	collision with: 3 7 0 0 0  and 4 7 0 0 0 
1041698		 # 	collision with: 9 1 7 0 0  and 9 3 7 0 0 
1041716		 # 	collision with: 2 1 0 0 0  and 4 1 0 0 0 
1041718		 # 	collision with: 9 3 1 0 0  and 9 4 1 0 0 
1041725		 # 	collision with: 0 0 0 0 0  and 4 0 0 0 0 
1041727		 # 	collision with: 7 0 1 0 0  and 7 0 3 0 0 
1041765		 # 	collision with: 0 0 0 0 0  and 4 0 0 0 0 
1041767		 # 	collision with: 9 4 1 0 0  and 9 6 1 0 0 
1041780		 # 	collision with: 5 9 0 0 0  and 6 9 0 0 0 
1041782		 # 	collision with: 9 2 9 0 0  and 9 3 9 0 0 
1041797		 # 	collision with: 0 0 0 0 0  and 4 0 0 0 0 
1041799		 # 	collision with: 2 0 1 0 0  and 2 0 3 0 0 
1041800		 # 	collision with: 1 5 0 0 0  and 2 5 0 0 0 
1041802		 # 	collision with: 9 0 5 0 0  and 9 1 5 0 0 
1041864		 # 	collision with: 2 6 0 0 0  and 3 6 0 0 0 
1041869		 # 	collision with: 0 0 0 0 0  and 4 0 0 0 0 
1041871		 # 	collision with: 9 0 1 0 0  and 9 0 3 0 0 
1041884		 # 	collision with: 3 2 0 0 0  and 5 2 0 0 0 
1041886		 # 	collision with: 9 1 2 0 0  and 9 2 2 0 0 
1041901		 # 	collision with: 0 0 0 0 0  and 4 0 0 0 0 
1041941		 # 	collision with: 0 0 0 0 0  and 4 0 0 0 0 
1041943		 # 	collision with: 9 4 1 0 0  and 9 6 1 0 0 
1041948		 # 	collision with: 0 10 0 0 0  and 2 10 0 0 0 
1041950		 # 	collision with: 9 0 10 0 0  and 9 1 10 0 0 
1041970		 # 	collision with: 9 1 4 0 0  and 9 3 4 0 0 
1042003		 # 	collision with: 6 0 1 0 0  and 6 0 3 0 0 
1042009		 # 	collision with: 0 0 0 0 0  and 4 0 0 0 0 
1042032		 # 	collision with: 4 8 0 0 0  and 5 8 0 0 0 
1042034		 # 	collision with: 9 2 8 0 0  and 9 3 8 0 0 
1042052		 # 	collision with: 0 4 6 5 0  and 7 0 0 0 1 
1042054		 # 	collision with: 1 8 9 0 0  and 4 7 1 1 0 
1042056		 # 	collision with: 4 3 0 0 0  and 6 3 0 0 0 
1042058		 # 	collision with: 9 0 3 0 0  and 9 2 3 0 0 
1042060		 # 	collision with: 3 7 0 0 0  and 4 7 0 0 0 
1042062		 # 	collision with: 9 0 7 0 0  and 9 2 7 0 0 
1042064		 # 	collision with: 2 1 0 0 0  and 4 1 0 0 0 
1042066		 # 	collision with: 9 1 1 0 0  and 9 3 1 0 0 
1042068		 # 	collision with: 5 9 0 0 0  and 6 9 0 0 0 
1042072		 # 	collision with: 1 5 0 0 0  and 2 5 0 0 0 
1042074		 # 	collision with: 9 3 5 0 0  and 9 4 5 0 0 
1042076		 # 	collision with: 2 6 0 0 0  and 3 6 0 0 0 
1042078		 # 	collision with: 9 0 6 0 0  and 9 1 6 0 0 
1042080		 # 	collision with: 3 2 0 0 0  and 5 2 0 0 0 
1042082		 # 	collision with: 9 3 2 0 0  and 9 4 2 0 0 
1042084		 # 	collision with: 0 10 0 0 0  and 2 10 0 0 0 
1042086		 # 	collision with: 9 1 10 0 0  and 9 3 10 0 0 
1042088		 # 	collision with: 0 4 0 0 0  and 1 4 0 0 0 
1042090		 # 	collision with: 9 2 4 0 0  and 9 4 4 0 0 
1042092		 # 	collision with: 4 8 0 0 0  and 5 8 0 0 0 
1042094		 # 	collision with: 9 2 8 0 0  and 9 4 8 0 0 
1042097		 # 	collision with: 1 5 0 0 0  and 2 5 0 0 0 
1042099		 # 	collision with: 9 1 5 0 0  and 9 2 5 0 0 
1042116		 # 	collision with: 1 5 0 0 0  and 2 5 0 0 0 
1042118		 # 	collision with: 9 3 5 0 0  and 9 4 5 0 0 
1042149		 # 	collision with: 4 8 0 0 0  and 5 8 0 0 0 
1042151		 # 	collision with: 9 0 1 0 0  and 9 1 1 0 0 
1042180		 # 	collision with: 4 8 0 0 0  and 5 8 0 0 0 
1042182		 # 	collision with: 9 2 8 0 0  and 9 4 8 0 0 
1042200		 # 	collision with: 5 9 0 0 0  and 6 9 0 0 0 
1042202		 # 	collision with: 9 0 9 0 0  and 9 1 9 0 0 
1042209		 # 	collision with: 0 4 0 0 0  and 1 4 0 0 0 
1042211		 # 	collision with: 8 5 1 0 0  and 8 5 2 0 0 
1042251		 # 	collision with: 9 8 1 0 0  and 9 0 2 0 0 
1042266		 # 	collision with: 9 2 4 0 0  and 9 4 4 0 0 
1042281		 # 	collision with: 4 8 0 0 0  and 5 8 0 0 0 
1042283		 # 	collision with: 9 0 1 0 0  and 9 1 1 0 0 
1042284		 # 	collision with: 2 1 0 0 0  and 4 1 0 0 0 
1042286		 # 	collision with: 9 1 1 0 0  and 9 3 1 0 0 
1042348		 # 	collision with: 0 10 0 0 0  and 2 10 0 0 0 
1042350		 # 	collision with: 9 1 10 0 0  and 9 3 10 0 0 
1042353		 # 	collision with: 0 1 0 0 0  and 8 2 0 0 0 
1042355		 # 	collision with: 2 7 1 0 0  and 2 7 2 0 0 
1042368		 # 	collision with: 3 7 0 0 0  and 4 7 0 0 0 
1042370		 # 	collision with: 9 0 7 0 0  and 9 2 7 0 0 
1042385		 # 	collision with: 0 4 0 0 0  and 1 4 0 0 0 
1042387		 # 	collision with: 5 5 1 0 0  and 5 5 2 0 0 
1042425		 # 	collision with: 1 1 0 0 0  and 4 2 0 0 0 
1042427		 # 	collision with: 9 0 1 0 0  and 9 3 2 0 0 
1042432		 # 	collision with: 3 2 0 0 0  and 5 2 0 0 0 
1042434		 # 	collision with: 9 3 2 0 0  and 9 4 2 0 0 
1042452		 # 	collision with: 4 3 0 0 0  and 6 3 0 0 0 
1042454		 # 	collision with: 9 0 3 0 0  and 9 2 3 0 0 
1042485		 # 	collision with: 0 1 0 0 0  and 8 2 0 0 0 
1042487		 # 	collision with: 5 7 1 0 0  and 5 7 2 0 0 
1042493		 # 	collision with: 1 5 0 0 0  and 2 5 0 0 0 
1042495		 # 	collision with: 9 8 1 0 0  and 9 4 2 0 0 
1042516		 # 	collision with: 2 6 0 0 0  and 3 6 0 0 0 
1042536		 # 	collision with: 10 10 4 9 0  and 1 1 0 0 1 
1042538		 # 	collision with: 3 5 1 0 0  and 5 1 0 1 0 
1042540		 # 	collision with: 3 2 0 0 0  and 5 2 0 0 0 
1042542		 # 	collision with: 9 5 2 0 0  and 9 6 2 0 0 
1042544		 # 	collision with: 2 1 0 0 0  and 4 1 0 0 0 
1042546		 # 	collision with: 9 0 1 0 0  and 9 1 1 0 0 
1042548		 # 	collision with: 4 8 0 0 0  and 5 8 0 0 0 
1042550		 # 	collision with: 9 3 8 0 0  and 9 4 8 0 0 
1042552		 # 	collision with: 2 6 0 0 0  and 3 6 0 0 0 
1042554		 # 	collision with: 9 2 6 0 0  and 9 4 6 0 0 
1042556		 # 	collision with: 3 7 0 0 0  and 4 7 0 0 0 
1042558		 # 	collision with: 9 5 7 0 0  and 9 6 7 0 0 
1042560		 # 	collision with: 0 4 0 0 0  and 1 4 0 0 0 
1042562		 # 	collision with: 9 3 4 0 0  and 9 5 4 0 0 
1042564		 # 	collision with: 1 5 0 0 0  and 2 5 0 0 0 
1042566		 # 	collision with: 9 0 5 0 0  and 9 2 5 0 0 
1042568		 # 	collision with: 4 3 0 0 0  and 6 3 0 0 0 
1042570		 # 	collision with: 9 0 3 0 0  and 9 1 3 0 0 
1042572		 # 	collision with: 0 10 0 0 0  and 2 10 0 0 0 
1042574		 # 	collision with: 9 3 10 0 0  and 9 4 10 0 0 
1042576		 # 	collision with: 5 9 0 0 0  and 6 9 0 0 0 
1042581		 # 	collision with: 0 10 0 0 0  and 2 10 0 0 0 
1042583		 # 	collision with: 9 0 10 0 0  and 9 2 10 0 0 
1042600		 # 	collision with: 3 7 0 0 0  and 4 7 0 0 0 
1042602		 # 	collision with: 9 5 7 0 0  and 9 6 7 0 0 
1042633		 # 	collision with: 1 5 0 0 0  and 2 5 0 0 0 
1042635		 # 	collision with: 9 3 0 0 0  and 9 5 2 0 0 
1042664		 # 	collision with: 5 9 0 0 0  and 6 9 0 0 0 
1042666		 # 	collision with: 9 3 9 0 0  and 9 5 9 0 0 
1042684		 # 	collision with: 2 6 0 0 0  and 3 6 0 0 0 
1042693		 # 	collision with: 4 8 0 0 0  and 5 8 0 0 0 
1042695		 # 	collision with: 9 1 0 0 0  and 9 5 2 0 0 
1042733		 # 	collision with: 2 0 0 0 0  and 5 2 0 0 0 
1042735		 # 	collision with: 1 1 0 0 0  and 1 1 2 0 0 
1042748		 # 	collision with: 0 10 0 0 0  and 2 10 0 0 0 
1042750		 # 	collision with: 9 3 10 0 0  and 9 4 10 0 0 
1042765		 # 	collision with: 1 5 0 0 0  and 2 5 0 0 0 
1042767		 # 	collision with: 10 8 0 0 0  and 10 8 2 0 0 
1042768		 # 	collision with: 4 8 0 0 0  and 5 8 0 0 0 
1042770		 # 	collision with: 9 3 8 0 0  and 9 4 8 0 0 
1042832		 # 	collision with: 4 3 0 0 0  and 6 3 0 0 0 
1042834		 # 	collision with: 9 0 3 0 0  and 9 1 3 0 0 
1042837		 # 	collision with: 8 0 0 0 0  and 2 2 0 0 0 
1042852		 # 	collision with: 2 1 0 0 0  and 4 1 0 0 0 
1042854		 # 	collision with: 9 0 1 0 0  and 9 1 1 0 0 
1042869		 # 	collision with: 4 8 0 0 0  and 5 8 0 0 0 
1042871		 # 	collision with: 9 10 0 0 0  and 9 2 2 0 0 
1042909		 # 	collision with: 2 0 0 0 0  and 5 2 0 0 0 
1042916		 # 	collision with: 1 5 0 0 0  and 2 5 0 0 0 
1042918		 # 	collision with: 9 0 5 0 0  and 9 2 5 0 0 
1042936		 # 	collision with: 3 2 0 0 0  and 5 2 0 0 0 
1042938		 # 	collision with: 9 5 2 0 0  and 9 6 2 0 0 
1042969		 # 	collision with: 8 0 0 0 0  and 2 2 0 0 0 
1042971		 # 	collision with: 4 3 0 0 0  and 4 3 2 0 0 
1042979		 # 	collision with: 9 5 0 0 0  and 9 3 2 0 0 
1043002		 # 	collision with: 9 3 4 0 0  and 9 5 4 0 0 
1043020		 # 	collision with: 7 6 8 9 0  and 8 0 0 0 1 
1043022		 # 	collision with: 4 8 2 0 0  and 5 8 0 1 0 
1043024		 # 	collision with: 2 1 0 0 0  and 4 1 0 0 0 
1043026		 # 	collision with: 9 4 1 0 0  and 9 5 1 0 0 
1043028		 # 	collision with: 2 6 0 0 0  and 3 6 0 0 0 
1043030		 # 	collision with: 9 5 6 0 0  and 9 6 6 0 0 
1043032		 # 	collision with: 0 4 0 0 0  and 1 4 0 0 0 
1043034		 # 	collision with: 9 4 4 0 0  and 9 6 4 0 0 
1043036		 # 	collision with: 4 3 0 0 0  and 6 3 0 0 0 
1043038		 # 	collision with: 9 5 3 0 0  and 9 6 3 0 0 
1043040		 # 	collision with: 5 9 0 0 0  and 6 9 0 0 0 
1043044		 # 	collision with: 3 2 0 0 0  and 5 2 0 0 0 
1043046		 # 	collision with: 9 1 2 0 0  and 9 3 2 0 0 
1043048		 # 	collision with: 4 8 0 0 0  and 5 8 0 0 0 
1043050		 # 	collision with: 9 3 8 0 0  and 9 5 8 0 0 
1043052		 # 	collision with: 3 7 0 0 0  and 4 7 0 0 0 
1043054		 # 	collision with: 9 4 7 0 0  and 9 5 7 0 0 
1043056		 # 	collision with: 1 5 0 0 0  and 2 5 0 0 0 
1043058		 # 	collision with: 9 3 5 0 0  and 9 5 5 0 0 
1043060		 # 	collision with: 0 10 0 0 0  and 2 10 0 0 0 
1043062		 # 	collision with: 9 4 10 0 0  and 9 6 10 0 0 
1043065		 # 	collision with: 0 4 0 0 0  and 1 4 0 0 0 
1043067		 # 	collision with: 9 7 0 0 0  and 9 1 1 0 0 
1043084		 # 	collision with: 5 9 0 0 0  and 6 9 0 0 0 
1043086		 # 	collision with: 9 1 9 0 0  and 9 3 9 0 0 
1043117		 # 	collision with: 3 2 0 0 0  and 5 2 0 0 0 
1043119		 # 	collision with: 9 7 0 0 0  and 9 0 1 0 0 
1043148		 # 	collision with: 0 10 0 0 0  and 2 10 0 0 0 
1043150		 # 	collision with: 9 4 10 0 0  and 9 6 10 0 0 
1043168		 # 	collision with: 4 3 0 0 0  and 6 3 0 0 0 
1043170		 # 	collision with: 9 5 3 0 0  and 9 6 3 0 0 
1043177		 # 	collision with: 2 1 0 0 0  and 4 1 0 0 0 
1043179		 # 	collision with: 9 8 0 0 0  and 9 2 1 0 0 
1043217		 # 	collision with: 5 9 0 0 0  and 6 9 0 0 0 
1043219		 # 	collision with: 3 7 0 0 0  and 3 7 1 0 0 
1043232		 # 	collision with: 1 5 0 0 0  and 2 5 0 0 0 
1043234		 # 	collision with: 9 3 5 0 0  and 9 5 5 0 0 
1043251		 # 	collision with: 3 1 0 0 0  and 3 1 1 0 0 
1043254		 # 	collision with: 9 4 4 0 0  and 9 6 4 0 0 
1043316		 # 	collision with: 3 7 0 0 0  and 4 7 0 0 0 
1043318		 # 	collision with: 9 4 7 0 0  and 9 5 7 0 0 
1043321		 # 	collision with: 2 0 0 0 0  and 10 1 0 0 0 
1043323		 # 	collision with: 9 6 0 0 0  and 9 9 1 0 0 
1043336		 # 	collision with: 2 6 0 0 0  and 3 6 0 0 0 
1043353		 # 	collision with: 2 1 0 0 0  and 4 1 0 0 0 
1043355		 # 	collision with: 9 0 0 0 0  and 9 3 1 0 0 
1043393		 # 	collision with: 5 9 0 0 0  and 6 9 0 0 0 
1043395		 # 	collision with: 7 7 0 0 0  and 7 7 1 0 0 
1043400		 # 	collision with: 4 8 0 0 0  and 5 8 0 0 0 
1043402		 # 	collision with: 9 3 8 0 0  and 9 5 8 0 0 
1043420		 # 	collision with: 2 1 0 0 0  and 4 1 0 0 0 
1043422		 # 	collision with: 9 4 1 0 0  and 9 5 1 0 0 
1043453		 # 	collision with: 2 0 0 0 0  and 10 1 0 0 0 
1043461		 # 	collision with: 0 4 0 0 0  and 1 4 0 0 0 
1043463		 # 	collision with: 9 7 0 0 0  and 9 0 1 0 0 
1043484		 # 	collision with: 3 2 0 0 0  and 5 2 0 0 0 
1043486		 # 	collision with: 9 1 2 0 0  and 9 3 2 0 0 
1043510		 # 	collision with: 9 2 0 0 0  and 9 3 0 0 0 
1043514		 # 	collision with: 9 1 0 0 0  and 9 3 0 0 0 
1043518		 # 	collision with: 9 1 0 0 0  and 9 2 0 0 0 
1043522		 # 	collision with: 9 0 0 0 0  and 9 2 0 0 0 
1043526		 # 	collision with: 9 0 0 0 0  and 9 1 0 0 0 
1043530		 # 	collision with: 9 5 0 0 0  and 9 6 0 0 0 
1043534		 # 	collision with: 9 4 0 0 0  and 9 6 0 0 0 
1043538		 # 	collision with: 9 4 0 0 0  and 9 5 0 0 0 
1043542		 # 	collision with: 9 3 0 0 0  and 9 5 0 0 0 
1043546		 # 	collision with: 9 3 0 0 0  and 9 4 0 0 0 
1043557		 # 	collision with: 4 1 0 0 0  and 5 1 0 0 0 
1043576		 # 	collision with: 2 0 0 0 0  and 4 0 0 0 0 
1043578		 # 	collision with: 9 4 0 0 0  and 9 6 0 0 0 
1043604		 # 	collision with: 2 0 0 0 0  and 4 0 0 0 0 
1043606		 # 	collision with: 9 1 0 0 0  and 9 2 0 0 0 
1043617		 # 	collision with: 1 3 0 0 0  and 3 3 0 0 0 
1043619		 # 	collision with: 9 5 0 0 0  and 9 6 0 0 0 
1043641		 # 	collision with: 3 4 0 0 0  and 4 4 0 0 0 
1043643		 # 	collision with: 9 1 5 0 0  and 9 3 6 0 0 
1043676		 # 	collision with: 2 0 0 0 0  and 4 0 0 0 0 
1043678		 # 	collision with: 9 3 0 0 0  and 9 4 0 0 0 
1043689		 # 	collision with: 4 1 0 0 0  and 5 1 0 0 0 
1043691		 # 	collision with: 6 5 5 0 0  and 6 5 6 0 0 
1043704		 # 	collision with: 2 0 0 0 0  and 4 0 0 0 0 
1043706		 # 	collision with: 9 5 0 0 0  and 9 6 0 0 0 
1043729		 # 	collision with: 3 4 0 0 0  and 4 4 0 0 0 
1043731		 # 	collision with: 1 10 5 0 0  and 1 10 6 0 0 
1043732		 # 	collision with: 2 0 0 0 0  and 4 0 0 0 0 
1043734		 # 	collision with: 9 1 0 0 0  and 9 3 0 0 0 
1043804		 # 	collision with: 2 0 0 0 0  and 4 0 0 0 0 
1043806		 # 	collision with: 9 3 0 0 0  and 9 5 0 0 0 
1043809		 # 	collision with: 3 8 0 0 0  and 5 8 0 0 0 
1043811		 # 	collision with: 9 0 2 0 0  and 9 2 2 0 0 
1043832		 # 	collision with: 2 0 0 0 0  and 4 0 0 0 0 
1043834		 # 	collision with: 9 0 0 0 0  and 9 1 0 0 0 
1043849		 # 	collision with: 4 5 0 0 0  and 6 5 0 0 0 
1043851		 # 	collision with: 9 2 3 0 0  and 9 4 3 0 0 
1043860		 # 	collision with: 2 0 0 0 0  and 4 0 0 0 0 
1043862		 # 	collision with: 9 2 0 0 0  and 9 3 0 0 0 
1043897		 # 	collision with: 3 8 0 0 0  and 5 8 0 0 0 
1043899		 # 	collision with: 9 0 2 0 0  and 9 2 2 0 0 
1043921		 # 	collision with: 0 2 0 0 0  and 1 2 0 0 0 
1043923		 # 	collision with: 9 0 4 0 0  and 9 2 4 0 0 
1043932		 # 	collision with: 2 0 0 0 0  and 4 0 0 0 0 
1043934		 # 	collision with: 9 4 0 0 0  and 9 5 0 0 0 
1043960		 # 	collision with: 2 0 0 0 0  and 4 0 0 0 0 
1043962		 # 	collision with: 9 0 0 0 0  and 9 2 0 0 0 
1043981		 # 	collision with: 4 5 0 0 0  and 6 5 0 0 0 
1043988		 # 	collision with: 4 8 1 1 0  and 4 2 0 0 1 
1043990		 # 	collision with: 9 6 0 0 0  and 8 0 1 1 0 
1043992		 # 	collision with: 1 10 0 0 0  and 2 10 0 0 0 
1043994		 # 	collision with: 9 0 10 0 0  and 9 2 10 0 0 
1043996		 # 	collision with: 4 5 0 0 0  and 6 5 0 0 0 
1043998		 # 	collision with: 9 3 5 0 0  and 9 5 5 0 0 
105.892secs	41224
