# prime 11
# degree 2
# input variables 3
# output variables 3
# reload computed balance functions from file balance-2049of3248-p11d2m3-debug.log
# p = 11
# n = 3
# smalldomain p^m 1331
# domain p^n 1331
#	 p^2 = 121
#	 p^3 = 1331
#	 p^4 = 14641
#	 p^5 = 161051
#	 p^6 = 1771561
#	 p^7 = 19487171
#	 p^8 = 214358881
#	 p^9 = 2357947691
opening file : balance-2049of3248-p11d2m3-debug.log
reloading for step2...
12294004		 # 	collision with: 2 2 0  and 1 3 0 
12294006		 # 	collision with: 9 0 0  and 8 1 0 
12294032		 # 	collision with: 1 2 0  and 10 3 0 
12294034		 # 	collision with: 5 9 0  and 5 1 1 
12294044		 # 	collision with: 10 5 0  and 9 6 0 
12294080		 # 	collision with: 9 1 0  and 4 3 0 
12294082		 # 	collision with: 5 0 1  and 6 2 1 
12294084		 # 	collision with: 2 2 0  and 0 4 0 
12294086		 # 	collision with: 9 0 0  and 0 1 0 
12294132		 # 	collision with: 2 3 0  and 8 0 1 
12294168		 # 	collision with: 0 0 0  and 0 0 0 
# 12294168 is invertible !!!!!!!! 
12294170		 # 	collision with: 9 0 0  and 0 1 0 
12294173		 # 	collision with: 6 2 0  and 0 4 0 
12294175		 # 	collision with: 3 3 0  and 1 4 0 
12294180		 # 	collision with: 8 3 0  and 3 4 0 
12294182		 # 	collision with: 9 0 0  and 0 1 0 
12294208		 # 	collision with: 4 0 0  and 2 2 0 
12294210		 # 	collision with: 9 0 0  and 0 1 0 
12294228		 # 	collision with: 9 5 0  and 10 6 0 
12294230		 # 	collision with: 9 0 0  and 0 1 0 
12294233		 # 	collision with: 9 1 0  and 4 3 0 
12294245		 # 	collision with: 4 2 0  and 0 3 0 
12294247		 # 	collision with: 3 8 0  and 5 8 0 
12294248		 # 	collision with: 3 1 0  and 2 2 0 
12294250		 # 	collision with: 9 0 0  and 0 1 0 
12294265		 # 	collision with: 1 1 0  and 3 2 0 
12294267		 # 	collision with: 8 3 0  and 3 3 1 
12294276		 # 	collision with: 2 1 0  and 5 3 0 
12294278		 # 	collision with: 9 0 0  and 0 1 0 
12294288		 # 	collision with: 1 3 0  and 0 4 0 
12294290		 # 	collision with: 9 0 0  and 0 1 0 
12294301		 # 	collision with: 5 1 0  and 6 2 0 
12294303		 # 	collision with: 1 1 0  and 1 0 1 
12294326		 # 	collision with: 9 0 0  and 0 1 0 
12294328		 # 	collision with: 0 4 0  and 10 5 0 
12294330		 # 	collision with: 9 0 0  and 0 1 0 
12294370		 # 	collision with: 9 0 0  and 0 1 0 
12294372		 # 	collision with: 4 3 0  and 8 5 0 
12294374		 # 	collision with: 9 0 0  and 0 1 0 
12294397		 # 	collision with: 2 1 0  and 3 3 0 
12294399		 # 	collision with: 4 2 0  and 10 4 0 
12294408		 # 	collision with: 10 5 0  and 9 6 0 
12294410		 # 	collision with: 9 0 0  and 0 1 0 
12294420		 # 	collision with: 7 2 0  and 10 3 0 
12294422		 # 	collision with: 9 0 0  and 0 1 0 
12294433		 # 	collision with: 2 10 0  and 2 0 1 
12294448		 # 	collision with: 0 4 0  and 9 6 0 
12294450		 # 	collision with: 9 0 0  and 0 1 0 
12294453		 # 	collision with: 0 5 0  and 5 1 1 
12294455		 # 	collision with: 10 0 0  and 7 2 0 
12294465		 # 	collision with: 4 2 0  and 5 4 0 
12294467		 # 	collision with: 2 2 0  and 2 0 1 
12294468		 # 	collision with: 4 10 0  and 2 1 1 
12294470		 # 	collision with: 9 0 0  and 0 1 0 
12294481		 # 	collision with: 8 3 0  and 5 4 0 
12294483		 # 	collision with: 9 2 0  and 7 3 0 
12294488		 # 	collision with: 4 0 0  and 3 1 0 
12294516		 # 	collision with: 9 0 0  and 6 1 0 
12294518		 # 	collision with: 9 0 0  and 0 1 0 
12294528		 # 	collision with: 2 2 0  and 1 3 0 
12294530		 # 	collision with: 9 0 0  and 0 1 0 
12294564		 # 	collision with: 0 4 0  and 10 6 0 
12294566		 # 	collision with: 9 0 0  and 0 1 0 
12294568		 # 	collision with: 6 0 0  and 0 1 0 
12294570		 # 	collision with: 7 2 0  and 6 3 0 
12294616		 # 	collision with: 6 0 0  and 0 1 0 
12294618		 # 	collision with: 0 1 0  and 6 3 0 
12294652		 # 	collision with: 6 0 0  and 0 1 0 
12294654		 # 	collision with: 0 0 0  and 0 0 0 
# 12294654 is invertible !!!!!!!! 
12294657		 # 	collision with: 3 7 0  and 5 7 0 
12294659		 # 	collision with: 3 1 0  and 5 1 0 
12294666		 # 	collision with: 5 3 0  and 7 4 0 
12294692		 # 	collision with: 6 0 0  and 0 1 0 
12294694		 # 	collision with: 9 0 0  and 7 2 0 
12294712		 # 	collision with: 6 0 0  and 0 1 0 
12294714		 # 	collision with: 1 3 0  and 8 5 0 
12294717		 # 	collision with: 2 3 0  and 7 5 0 
12294719		 # 	collision with: 4 6 0  and 3 1 1 
12294729		 # 	collision with: 8 7 0  and 8 0 1 
12294731		 # 	collision with: 3 2 0  and 7 1 1 
12294732		 # 	collision with: 6 0 0  and 0 1 0 
12294734		 # 	collision with: 4 5 0  and 3 6 0 
12294749		 # 	collision with: 2 6 0  and 0 0 1 
12294751		 # 	collision with: 5 3 0  and 7 4 0 
12294760		 # 	collision with: 6 0 0  and 0 1 0 
12294762		 # 	collision with: 5 0 0  and 9 1 0 
12294772		 # 	collision with: 6 0 0  and 0 1 0 
12294774		 # 	collision with: 8 1 0  and 7 2 0 
12294785		 # 	collision with: 4 4 0  and 7 5 0 
12294787		 # 	collision with: 2 6 0  and 1 0 1 
12294808		 # 	collision with: 6 0 0  and 0 1 0 
12294810		 # 	collision with: 5 2 0  and 6 4 0 
12294812		 # 	collision with: 6 0 0  and 0 1 0 
12294814		 # 	collision with: 5 4 0  and 3 6 0 
12294852		 # 	collision with: 6 0 0  and 0 1 0 
12294854		 # 	collision with: 9 0 0  and 8 1 0 
12294856		 # 	collision with: 6 0 0  and 0 1 0 
12294858		 # 	collision with: 0 1 0  and 7 2 0 
12294881		 # 	collision with: 6 3 0  and 7 5 0 
12294883		 # 	collision with: 0 1 0  and 1 2 0 
12294892		 # 	collision with: 6 0 0  and 0 1 0 
12294894		 # 	collision with: 7 2 0  and 5 4 0 
12294904		 # 	collision with: 6 0 0  and 0 1 0 
12294917		 # 	collision with: 6 0 0  and 8 1 0 
12294919		 # 	collision with: 3 2 0  and 1 0 1 
12294932		 # 	collision with: 6 0 0  and 0 1 0 
12294937		 # 	collision with: 3 1 0  and 7 3 0 
12294939		 # 	collision with: 7 2 0  and 2 0 1 
12294949		 # 	collision with: 6 2 0  and 1 3 0 
12294951		 # 	collision with: 1 2 0  and 6 3 0 
12294952		 # 	collision with: 6 0 0  and 0 1 0 
12294954		 # 	collision with: 2 5 0  and 2 0 1 
12294965		 # 	collision with: 3 4 0  and 5 4 0 
12294967		 # 	collision with: 3 10 0  and 5 10 0 
12294974		 # 	collision with: 8 1 0  and 6 3 0 
12295000		 # 	collision with: 6 0 0  and 0 1 0 
12295002		 # 	collision with: 3 5 0  and 3 0 1 
12295012		 # 	collision with: 6 0 0  and 0 1 0 
12295014		 # 	collision with: 6 3 0  and 5 4 0 
12295048		 # 	collision with: 6 0 0  and 0 1 0 
12295050		 # 	collision with: 7 9 0  and 1 0 1 
12295052		 # 	collision with: 3 1 0  and 1 3 0 
12295054		 # 	collision with: 8 1 0  and 6 3 0 
12295100		 # 	collision with: 3 1 0  and 1 3 0 
12295102		 # 	collision with: 9 2 0  and 1 3 0 
12295138		 # 	collision with: 0 0 0  and 0 0 0 
# 12295138 is invertible !!!!!!!! 
12295141		 # 	collision with: 0 3 0  and 3 4 0 
12295143		 # 	collision with: 6 1 0  and 10 3 0 
12295148		 # 	collision with: 3 1 0  and 1 3 0 
12295176		 # 	collision with: 3 1 0  and 1 3 0 
12295178		 # 	collision with: 8 1 0  and 7 2 0 
12295196		 # 	collision with: 2 0 0  and 8 1 0 
12295198		 # 	collision with: 0 2 0  and 3 0 1 
12295201		 # 	collision with: 5 5 0  and 3 6 0 
12295203		 # 	collision with: 8 2 0  and 4 3 0 
12295213		 # 	collision with: 5 10 0  and 0 0 1 
12295215		 # 	collision with: 2 3 0  and 5 4 0 
12295216		 # 	collision with: 3 1 0  and 1 3 0 
12295218		 # 	collision with: 7 2 0  and 5 4 0 
12295233		 # 	collision with: 10 8 0  and 10 1 1 
12295235		 # 	collision with: 10 0 0  and 1 2 0 
12295244		 # 	collision with: 3 1 0  and 1 3 0 
12295246		 # 	collision with: 3 2 0  and 6 4 0 
12295256		 # 	collision with: 3 1 0  and 1 3 0 
12295258		 # 	collision with: 6 3 0  and 5 4 0 
12295271		 # 	collision with: 5 9 0  and 3 0 1 
12295292		 # 	collision with: 3 1 0  and 1 3 0 
12295294		 # 	collision with: 6 10 0  and 3 0 1 
12295296		 # 	collision with: 3 1 0  and 1 3 0 
12295298		 # 	collision with: 9 0 0  and 7 2 0 
12295336		 # 	collision with: 3 1 0  and 1 3 0 
12295338		 # 	collision with: 5 4 0  and 3 6 0 
12295340		 # 	collision with: 3 1 0  and 1 3 0 
12295342		 # 	collision with: 9 0 0  and 2 2 1 
12295365		 # 	collision with: 2 0 0  and 8 1 0 
12295367		 # 	collision with: 9 10 0  and 8 0 1 
12295376		 # 	collision with: 3 1 0  and 1 3 0 
12295388		 # 	collision with: 3 1 0  and 1 3 0 
12295390		 # 	collision with: 10 0 0  and 8 1 0 
12295403		 # 	collision with: 2 1 0  and 9 3 0 
12295416		 # 	collision with: 3 1 0  and 1 3 0 
12295418		 # 	collision with: 7 2 0  and 6 3 0 
12295421		 # 	collision with: 8 5 0  and 2 0 1 
12295423		 # 	collision with: 6 1 1  and 8 3 1 
12295433		 # 	collision with: 2 1 0  and 3 3 0 
12295435		 # 	collision with: 3 3 0  and 5 3 0 
12295436		 # 	collision with: 3 1 0  and 1 3 0 
12295438		 # 	collision with: 5 1 0  and 0 2 0 
12295449		 # 	collision with: 9 1 0  and 4 3 0 
12295451		 # 	collision with: 5 3 0  and 7 4 0 
12295456		 # 	collision with: 3 1 0  and 1 3 0 
12295458		 # 	collision with: 4 5 0  and 3 6 0 
12295484		 # 	collision with: 3 1 0  and 1 3 0 
12295486		 # 	collision with: 6 5 0  and 0 6 0 
12295496		 # 	collision with: 3 1 0  and 1 3 0 
12295498		 # 	collision with: 9 0 0  and 8 1 0 
12295534		 # 	collision with: 2 4 0  and 10 5 0 
12295536		 # 	collision with: 3 1 0  and 2 2 0 
12295538		 # 	collision with: 8 1 0  and 7 2 0 
12295584		 # 	collision with: 8 3 0  and 4 8 1 
12295586		 # 	collision with: 4 2 0  and 10 4 0 
12295620		 # 	collision with: 0 0 0  and 0 0 0 
# 12295620 is invertible !!!!!!!! 
12295622		 # 	collision with: 0 0 0  and 0 0 0 
# 12295622 is invertible !!!!!!!! 
12295625		 # 	collision with: 4 2 0  and 0 3 0 
12295627		 # 	collision with: 1 2 0  and 2 3 0 
12295632		 # 	collision with: 9 7 0  and 2 2 1 
12295634		 # 	collision with: 7 3 0  and 0 5 0 
12295660		 # 	collision with: 2 2 0  and 1 3 0 
12295662		 # 	collision with: 8 1 0  and 6 3 0 
12295680		 # 	collision with: 9 0 0  and 2 1 0 
12295682		 # 	collision with: 2 1 0  and 10 3 0 
12295685		 # 	collision with: 6 1 0  and 3 3 0 
12295687		 # 	collision with: 6 4 0  and 6 6 0 
12295699		 # 	collision with: 2 5 0  and 1 0 1 
12295700		 # 	collision with: 0 4 0  and 9 6 0 
12295702		 # 	collision with: 9 0 0  and 8 1 0 
12295717		 # 	collision with: 2 3 0  and 7 5 0 
12295719		 # 	collision with: 2 1 0  and 1 0 1 
12295728		 # 	collision with: 6 3 0  and 1 5 0 
12295730		 # 	collision with: 7 0 0  and 6 2 0 
12295742		 # 	collision with: 4 5 0  and 3 6 0 
12295753		 # 	collision with: 8 0 0  and 7 2 0 
12295755		 # 	collision with: 9 0 0  and 1 2 0 
12295776		 # 	collision with: 9 5 0  and 10 6 0 
12295778		 # 	collision with: 6 3 0  and 3 4 0 
12295780		 # 	collision with: 1 3 0  and 0 4 0 
12295782		 # 	collision with: 7 2 0  and 6 3 0 
12295820		 # 	collision with: 4 0 0  and 2 2 0 
12295824		 # 	collision with: 1 4 0  and 4 0 1 
12295826		 # 	collision with: 9 2 0  and 7 3 0 
12295849		 # 	collision with: 6 2 0  and 1 3 0 
12295860		 # 	collision with: 2 2 0  and 0 4 0 
12295862		 # 	collision with: 5 4 0  and 3 6 0 
12295874		 # 	collision with: 3 4 0  and 5 6 0 
12295885		 # 	collision with: 3 2 0  and 5 2 0 
12295887		 # 	collision with: 10 3 0  and 4 4 0 
12295900		 # 	collision with: 4 0 0  and 3 1 0 
12295902		 # 	collision with: 9 0 0  and 7 2 0 
12295905		 # 	collision with: 5 1 0  and 1 3 0 
12295907		 # 	collision with: 1 1 0  and 6 0 1 
12295919		 # 	collision with: 0 1 0  and 7 2 0 
12295920		 # 	collision with: 9 3 0  and 7 1 1 
12295933		 # 	collision with: 4 4 0  and 7 6 0 
12295935		 # 	collision with: 6 4 0  and 3 1 1 
12295940		 # 	collision with: 10 5 0  and 9 6 0 
12295942		 # 	collision with: 6 3 0  and 5 4 0 
12295968		 # 	collision with: 10 6 0  and 6 0 1 
12295970		 # 	collision with: 0 6 0  and 7 0 1 
12295980		 # 	collision with: 0 4 0  and 10 5 0 
12295982		 # 	collision with: 7 2 0  and 5 4 0 
12296016		 # 	collision with: 5 0 0  and 8 2 0 
12296018		 # 	collision with: 2 5 0  and 8 6 0 
12296020		 # 	collision with: 4 0 0  and 2 2 0 
12296022		 # 	collision with: 9 0 0  and 7 2 0 
12296068		 # 	collision with: 4 2 0  and 5 4 0 
12296070		 # 	collision with: 2 3 0  and 5 4 0 
12296104		 # 	collision with: 0 0 0  and 0 0 0 
# 12296104 is invertible !!!!!!!! 
12296106		 # 	collision with: 0 0 0  and 0 0 0 
# 12296106 is invertible !!!!!!!! 
12296109		 # 	collision with: 9 5 0  and 10 6 0 
12296111		 # 	collision with: 7 4 0  and 1 6 0 
12296116		 # 	collision with: 4 4 0  and 7 5 0 
12296118		 # 	collision with: 4 1 0  and 6 2 0 
12296144		 # 	collision with: 2 2 0  and 0 4 0 
12296146		 # 	collision with: 7 2 0  and 6 3 0 
12296164		 # 	collision with: 10 1 0  and 4 3 0 
12296171		 # 	collision with: 1 2 0  and 6 3 0 
12296181		 # 	collision with: 4 10 0  and 6 0 1 
12296183		 # 	collision with: 0 1 0  and 2 3 0 
12296184		 # 	collision with: 2 2 0  and 1 3 0 
12296186		 # 	collision with: 6 3 0  and 5 4 0 
12296201		 # 	collision with: 0 2 0  and 2 1 1 
12296203		 # 	collision with: 0 1 0  and 7 2 0 
12296214		 # 	collision with: 10 2 0  and 7 3 0 
12296224		 # 	collision with: 4 0 0  and 3 1 0 
12296226		 # 	collision with: 8 1 0  and 6 3 0 
12296237		 # 	collision with: 1 1 0  and 4 0 1 
12296260		 # 	collision with: 0 2 0  and 7 0 1 
12296262		 # 	collision with: 3 0 0  and 10 1 0 
12296264		 # 	collision with: 0 4 0  and 9 6 0 
12296304		 # 	collision with: 10 5 0  and 9 6 0 
12296306		 # 	collision with: 7 2 0  and 5 4 0 
12296308		 # 	collision with: 7 1 0  and 5 2 0 
12296310		 # 	collision with: 5 1 0  and 4 3 0 
12296333		 # 	collision with: 10 4 0  and 5 5 0 
12296335		 # 	collision with: 7 4 0  and 1 6 0 
12296346		 # 	collision with: 9 0 0  and 8 1 0 
12296356		 # 	collision with: 4 2 0  and 0 3 0 
12296358		 # 	collision with: 3 8 0  and 5 1 1 
12296369		 # 	collision with: 2 8 0  and 10 0 1 
12296371		 # 	collision with: 7 4 0  and 1 6 0 
12296384		 # 	collision with: 0 4 0  and 10 5 0 
12296386		 # 	collision with: 5 4 0  and 3 6 0 
12296391		 # 	collision with: 3 2 0  and 6 4 0 
12296401		 # 	collision with: 0 0 0  and 1 2 0 
12296403		 # 	collision with: 3 3 0  and 7 4 0 
12296404		 # 	collision with: 7 4 0  and 2 0 1 
12296406		 # 	collision with: 7 9 0  and 1 1 1 
12296417		 # 	collision with: 4 8 0  and 1 2 1 
12296419		 # 	collision with: 7 4 0  and 1 6 0 
12296424		 # 	collision with: 1 3 0  and 0 4 0 
12296426		 # 	collision with: 8 1 0  and 7 2 0 
12296452		 # 	collision with: 4 10 0  and 0 0 1 
12296454		 # 	collision with: 10 1 0  and 3 0 1 
12296464		 # 	collision with: 3 1 0  and 2 2 0 
12296466		 # 	collision with: 4 5 0  and 3 6 0 
12296500		 # 	collision with: 0 3 0  and 5 4 0 
12296502		 # 	collision with: 8 4 0  and 6 5 0 
12296504		 # 	collision with: 4 0 0  and 3 1 0 
12296506		 # 	collision with: 9 0 0  and 8 1 0 
12296554		 # 	collision with: 8 3 0  and 3 5 0 
12296588		 # 	collision with: 0 0 0  and 0 0 0 
# 12296588 is invertible !!!!!!!! 
12296590		 # 	collision with: 0 0 0  and 0 0 0 
# 12296590 is invertible !!!!!!!! 
12296593		 # 	collision with: 0 4 0  and 9 5 0 
12296595		 # 	collision with: 5 2 0  and 6 4 0 
12296600		 # 	collision with: 3 7 0  and 4 0 1 
12296602		 # 	collision with: 3 1 0  and 0 2 0 
12296628		 # 	collision with: 1 3 0  and 0 4 0 
12296630		 # 	collision with: 7 2 0  and 5 4 0 
12296648		 # 	collision with: 10 7 0  and 0 0 1 
12296650		 # 	collision with: 1 8 0  and 4 0 1 
12296653		 # 	collision with: 1 5 0  and 5 0 1 
12296655		 # 	collision with: 1 2 0  and 3 4 0 
12296665		 # 	collision with: 3 1 0  and 5 1 0 
12296667		 # 	collision with: 7 1 0  and 7 0 1 
12296668		 # 	collision with: 10 5 0  and 9 6 0 
12296670		 # 	collision with: 9 0 0  and 7 2 0 
12296687		 # 	collision with: 8 3 0  and 3 5 0 
12296696		 # 	collision with: 7 6 0  and 5 2 1 
12296698		 # 	collision with: 3 7 0  and 2 0 1 
12296708		 # 	collision with: 2 2 0  and 1 3 0 
12296721		 # 	collision with: 3 9 0  and 6 1 1 
12296723		 # 	collision with: 7 3 0  and 0 5 0 
12296744		 # 	collision with: 7 8 0  and 4 1 1 
12296746		 # 	collision with: 2 2 0  and 0 0 1 
12296748		 # 	collision with: 4 0 0  and 2 2 0 
12296750		 # 	collision with: 4 5 0  and 3 6 0 
12296788		 # 	collision with: 0 4 0  and 10 5 0 
12296790		 # 	collision with: 8 1 0  and 6 3 0 
12296792		 # 	collision with: 3 0 0  and 8 2 0 
12296794		 # 	collision with: 3 3 0  and 7 4 0 
12296819		 # 	collision with: 5 9 0  and 4 0 1 
12296828		 # 	collision with: 0 4 0  and 9 6 0 
12296830		 # 	collision with: 8 1 0  and 7 2 0 
12296840		 # 	collision with: 7 1 0  and 2 1 1 
12296842		 # 	collision with: 7 2 0  and 2 3 0 
12296853		 # 	collision with: 9 0 0  and 2 1 0 
12296855		 # 	collision with: 5 1 1  and 5 2 1 
12296868		 # 	collision with: 2 2 0  and 0 4 0 
12296870		 # 	collision with: 6 3 0  and 5 4 0 
12296873		 # 	collision with: 10 4 0  and 5 6 0 
12296875		 # 	collision with: 4 1 0  and 4 0 1 
12296885		 # 	collision with: 2 0 0  and 8 1 0 
12296887		 # 	collision with: 7 10 0  and 6 0 1 
12296888		 # 	collision with: 6 1 0  and 3 3 0 
12296890		 # 	collision with: 3 4 0  and 5 6 0 
12296901		 # 	collision with: 1 2 0  and 10 3 0 
12296903		 # 	collision with: 7 2 0  and 2 3 0 
12296908		 # 	collision with: 3 1 0  and 2 2 0 
12296910		 # 	collision with: 5 4 0  and 3 6 0 
12296936		 # 	collision with: 1 3 0  and 3 0 1 
12296950		 # 	collision with: 7 2 0  and 6 3 0 
12296984		 # 	collision with: 6 3 0  and 4 4 0 
12296986		 # 	collision with: 5 8 0  and 8 0 1 
12296988		 # 	collision with: 10 5 0  and 9 6 0 
12296990		 # 	collision with: 4 5 0  and 3 6 0 
12297036		 # 	collision with: 3 3 0  and 5 3 0 
12297038		 # 	collision with: 1 3 0  and 0 5 0 
12297072		 # 	collision with: 0 0 0  and 0 0 0 
# 12297072 is invertible !!!!!!!! 
12297074		 # 	collision with: 0 0 0  and 0 0 0 
# 12297074 is invertible !!!!!!!! 
12297077		 # 	collision with: 8 0 0  and 7 2 0 
12297079		 # 	collision with: 10 5 0  and 6 6 0 
12297084		 # 	collision with: 5 5 0  and 3 6 0 
12297086		 # 	collision with: 6 1 0  and 10 3 0 
12297114		 # 	collision with: 6 3 0  and 5 4 0 
12297132		 # 	collision with: 3 1 0  and 5 1 0 
12297134		 # 	collision with: 3 4 0  and 5 6 0 
12297137		 # 	collision with: 4 0 0  and 5 1 0 
12297139		 # 	collision with: 1 2 0  and 5 4 0 
12297149		 # 	collision with: 5 1 1  and 0 2 1 
12297151		 # 	collision with: 5 4 0  and 5 6 0 
12297152		 # 	collision with: 2 2 0  and 0 4 0 
12297169		 # 	collision with: 6 3 0  and 1 5 0 
12297171		 # 	collision with: 3 6 0  and 5 6 0 
12297180		 # 	collision with: 0 5 0  and 8 6 0 
12297192		 # 	collision with: 0 4 0  and 10 5 0 
12297194		 # 	collision with: 9 0 0  and 8 1 0 
12297205		 # 	collision with: 7 1 0  and 3 2 0 
12297207		 # 	collision with: 10 0 0  and 7 2 0 
12297228		 # 	collision with: 3 5 0  and 5 5 0 
12297230		 # 	collision with: 9 10 0  and 6 1 1 
12297232		 # 	collision with: 2 2 0  and 1 3 0 
12297234		 # 	collision with: 8 1 0  and 7 2 0 
12297272		 # 	collision with: 1 3 0  and 0 4 0 
12297274		 # 	collision with: 9 0 0  and 7 2 0 
12297276		 # 	collision with: 6 5 0  and 2 6 0 
12297278		 # 	collision with: 4 6 0  and 10 7 0 
12297301		 # 	collision with: 4 2 0  and 5 4 0 
12297303		 # 	collision with: 2 8 0  and 5 0 1 
12297312		 # 	collision with: 4 0 0  and 3 1 0 
12297314		 # 	collision with: 7 2 0  and 6 3 0 
12297324		 # 	collision with: 3 2 0  and 5 2 0 
12297326		 # 	collision with: 7 0 0  and 4 1 0 
12297337		 # 	collision with: 4 5 0  and 2 4 1 
12297339		 # 	collision with: 3 5 0  and 5 5 0 
12297352		 # 	collision with: 3 1 0  and 2 2 0 
12297354		 # 	collision with: 8 1 0  and 6 3 0 
12297357		 # 	collision with: 10 3 0  and 5 0 1 
12297359		 # 	collision with: 10 3 0  and 4 4 0 
12297369		 # 	collision with: 5 0 0  and 8 2 0 
12297371		 # 	collision with: 3 4 0  and 5 6 0 
12297372		 # 	collision with: 1 5 0  and 7 6 0 
12297374		 # 	collision with: 8 1 0  and 1 2 0 
12297385		 # 	collision with: 0 3 0  and 5 4 0 
12297387		 # 	collision with: 3 2 0  and 6 4 0 
12297392		 # 	collision with: 0 4 0  and 9 6 0 
12297394		 # 	collision with: 7 2 0  and 5 4 0 
12297422		 # 	collision with: 5 3 0  and 2 0 1 
12297432		 # 	collision with: 4 0 0  and 2 2 0 
12297434		 # 	collision with: 5 4 0  and 3 6 0 
12297468		 # 	collision with: 7 5 0  and 1 6 0 
12297470		 # 	collision with: 2 9 0  and 6 0 1 
12297472		 # 	collision with: 0 4 0  and 9 6 0 
12297474		 # 	collision with: 5 4 0  and 3 6 0 
12297520		 # 	collision with: 5 5 0  and 3 1 1 
12297522		 # 	collision with: 3 2 0  and 5 2 0 
12297556		 # 	collision with: 0 0 0  and 0 0 0 
# 12297556 is invertible !!!!!!!! 
12297558		 # 	collision with: 0 0 0  and 0 0 0 
# 12297558 is invertible !!!!!!!! 
12297561		 # 	collision with: 8 4 0  and 9 6 0 
12297563		 # 	collision with: 5 0 0  and 9 1 0 
12297568		 # 	collision with: 7 1 0  and 3 2 0 
12297570		 # 	collision with: 3 1 0  and 5 1 0 
12297596		 # 	collision with: 0 4 0  and 10 5 0 
12297616		 # 	collision with: 7 10 0  and 10 0 1 
12297618		 # 	collision with: 8 4 0  and 8 6 0 
12297621		 # 	collision with: 9 2 0  and 2 4 0 
12297623		 # 	collision with: 6 6 0  and 1 0 1 
12297633		 # 	collision with: 8 4 0  and 9 6 0 
12297635		 # 	collision with: 1 2 0  and 3 0 1 
12297636		 # 	collision with: 4 0 0  and 3 1 0 
12297638		 # 	collision with: 8 1 0  and 7 2 0 
12297653		 # 	collision with: 8 4 0  and 9 6 0 
12297664		 # 	collision with: 9 2 0  and 2 4 0 
12297666		 # 	collision with: 6 4 0  and 2 6 0 
12297676		 # 	collision with: 4 0 0  and 2 2 0 
12297678		 # 	collision with: 7 2 0  and 6 3 0 
12297689		 # 	collision with: 8 4 0  and 9 6 0 
12297691		 # 	collision with: 3 6 0  and 5 6 0 
12297712		 # 	collision with: 10 0 0  and 2 1 0 
12297714		 # 	collision with: 7 4 0  and 7 6 0 
12297718		 # 	collision with: 7 2 0  and 5 4 0 
12297756		 # 	collision with: 2 2 0  and 1 3 0 
12297758		 # 	collision with: 4 5 0  and 3 6 0 
12297762		 # 	collision with: 3 4 0  and 5 4 0 
12297785		 # 	collision with: 8 4 0  and 9 6 0 
12297787		 # 	collision with: 3 5 0  and 5 5 0 
12297796		 # 	collision with: 3 1 0  and 2 2 0 
12297798		 # 	collision with: 6 3 0  and 5 4 0 
12297808		 # 	collision with: 7 3 0  and 0 4 0 
12297810		 # 	collision with: 3 5 0  and 5 5 0 
12297821		 # 	collision with: 10 1 0  and 4 3 0 
12297823		 # 	collision with: 8 2 0  and 4 3 0 
12297836		 # 	collision with: 10 5 0  and 9 6 0 
12297838		 # 	collision with: 9 0 0  and 8 1 0 
12297841		 # 	collision with: 9 2 0  and 6 4 0 
12297843		 # 	collision with: 4 5 0  and 5 6 0 
12297853		 # 	collision with: 6 2 0  and 7 3 0 
12297856		 # 	collision with: 5 1 0  and 1 3 0 
12297858		 # 	collision with: 3 3 0  and 5 3 0 
12297869		 # 	collision with: 8 4 0  and 9 6 0 
12297871		 # 	collision with: 3 3 0  and 7 4 0 
12297876		 # 	collision with: 2 2 0  and 0 4 0 
12297878		 # 	collision with: 9 0 0  and 7 2 0 
12297904		 # 	collision with: 10 2 0  and 4 0 1 
12297906		 # 	collision with: 3 4 0  and 5 6 0 
12297916		 # 	collision with: 1 3 0  and 0 4 0 
12297918		 # 	collision with: 8 1 0  and 6 3 0 
12297952		 # 	collision with: 8 0 0  and 7 2 0 
12297956		 # 	collision with: 0 4 0  and 10 5 0 
12297958		 # 	collision with: 5 4 0  and 4 5 0 
12298004		 # 	collision with: 10 2 0  and 2 4 0 
12298006		 # 	collision with: 9 0 0  and 1 2 0 
12298040		 # 	collision with: 0 0 0  and 0 0 0 
# 12298040 is invertible !!!!!!!! 
12298045		 # 	collision with: 6 0 0  and 8 1 0 
12298047		 # 	collision with: 3 1 0  and 8 2 0 
12298052		 # 	collision with: 1 6 0  and 0 0 1 
12298054		 # 	collision with: 5 0 0  and 10 1 0 
12298080		 # 	collision with: 0 4 0  and 9 6 0 
12298082		 # 	collision with: 5 4 0  and 4 5 0 
12298102		 # 	collision with: 5 4 0  and 4 5 0 
12298105		 # 	collision with: 3 1 0  and 5 1 0 
12298107		 # 	collision with: 9 4 0  and 10 6 0 
12298117		 # 	collision with: 10 2 0  and 10 0 1 
12298119		 # 	collision with: 2 1 0  and 9 3 0 
12298120		 # 	collision with: 1 3 0  and 0 4 0 
12298122		 # 	collision with: 5 4 0  and 4 5 0 
12298137		 # 	collision with: 3 5 0  and 3 6 0 
12298139		 # 	collision with: 6 4 0  and 2 6 0 
12298148		 # 	collision with: 4 3 0  and 0 5 0 
12298150		 # 	collision with: 5 4 0  and 4 5 0 
12298160		 # 	collision with: 2 2 0  and 0 4 0 
12298162		 # 	collision with: 5 4 0  and 4 5 0 
12298173		 # 	collision with: 9 2 0  and 6 4 0 
12298175		 # 	collision with: 9 5 0  and 5 0 1 
12298196		 # 	collision with: 10 8 0  and 1 0 1 
12298200		 # 	collision with: 10 5 0  and 9 6 0 
12298202		 # 	collision with: 5 4 0  and 4 5 0 
12298240		 # 	collision with: 3 1 0  and 2 2 0 
12298242		 # 	collision with: 5 4 0  and 4 5 0 
12298244		 # 	collision with: 1 1 0  and 5 2 0 
12298246		 # 	collision with: 5 4 0  and 4 5 0 
12298269		 # 	collision with: 4 1 0  and 10 2 0 
12298271		 # 	collision with: 6 5 0  and 0 1 1 
12298280		 # 	collision with: 2 2 0  and 1 3 0 
12298282		 # 	collision with: 5 4 0  and 4 5 0 
12298292		 # 	collision with: 6 2 0  and 1 3 0 
12298294		 # 	collision with: 5 4 0  and 4 5 0 
12298305		 # 	collision with: 8 5 0  and 8 6 0 
12298307		 # 	collision with: 6 1 0  and 10 3 0 
12298322		 # 	collision with: 5 4 0  and 4 5 0 
12298325		 # 	collision with: 6 2 0  and 8 4 0 
12298337		 # 	collision with: 10 4 0  and 5 5 0 
12298339		 # 	collision with: 5 1 0  and 5 0 1 
12298340		 # 	collision with: 7 3 0  and 3 0 1 
12298342		 # 	collision with: 5 4 0  and 4 5 0 
12298353		 # 	collision with: 1 1 0  and 3 2 0 
12298360		 # 	collision with: 4 0 0  and 2 2 0 
12298362		 # 	collision with: 5 4 0  and 4 5 0 
12298388		 # 	collision with: 6 0 0  and 8 1 0 
12298390		 # 	collision with: 5 2 0  and 2 4 0 
12298400		 # 	collision with: 4 0 0  and 3 1 0 
12298402		 # 	collision with: 5 4 0  and 4 5 0 
12298436		 # 	collision with: 6 1 0  and 5 3 0 
12298438		 # 	collision with: 5 4 0  and 4 5 0 
12298484		 # 	collision with: 3 3 0  and 5 3 0 
12298486		 # 	collision with: 3 3 0  and 4 3 0 
12298488		 # 	collision with: 2 2 0  and 8 4 0 
12298490		 # 	collision with: 8 2 0  and 0 4 0 
12298528		 # 	collision with: 2 3 0  and 3 3 0 
12298530		 # 	collision with: 1 3 0  and 3 3 0 
12298535		 # 	collision with: 7 4 0  and 6 6 0 
12298536		 # 	collision with: 10 0 0  and 6 2 1 
12298538		 # 	collision with: 4 4 0  and 9 0 1 
12298572		 # 	collision with: 0 3 0  and 2 3 0 
12298574		 # 	collision with: 0 3 0  and 1 3 0 
12298584		 # 	collision with: 10 5 0  and 3 6 0 
12298586		 # 	collision with: 0 10 0  and 6 1 1 
12298593		 # 	collision with: 5 3 0  and 3 5 0 
12298595		 # 	collision with: 0 3 0  and 3 4 0 
12298609		 # 	collision with: 5 3 0  and 3 5 0 
12298611		 # 	collision with: 6 3 0  and 2 5 0 
12298616		 # 	collision with: 4 3 0  and 6 3 0 
12298618		 # 	collision with: 4 3 0  and 5 3 0 
12298632		 # 	collision with: 1 2 0  and 3 0 1 
12298634		 # 	collision with: 4 9 0  and 4 0 1 
12298645		 # 	collision with: 5 3 0  and 3 5 0 
12298647		 # 	collision with: 6 8 0  and 6 0 1 
12298649		 # 	collision with: 6 2 0  and 1 3 0 
12298660		 # 	collision with: 3 3 0  and 4 3 0 
12298662		 # 	collision with: 2 3 0  and 4 3 0 
12298680		 # 	collision with: 9 3 0  and 3 5 0 
12298682		 # 	collision with: 10 0 0  and 5 1 0 
12298704		 # 	collision with: 1 3 0  and 3 3 0 
12298706		 # 	collision with: 1 3 0  and 2 3 0 
12298728		 # 	collision with: 8 0 0  and 6 2 0 
12298730		 # 	collision with: 7 0 0  and 6 1 0 
12298748		 # 	collision with: 0 3 0  and 1 3 0 
12298750		 # 	collision with: 5 3 0  and 6 3 0 
12298761		 # 	collision with: 1 2 0  and 9 4 0 
12298765		 # 	collision with: 7 1 0  and 2 3 0 
12298767		 # 	collision with: 6 1 0  and 0 0 1 
12298776		 # 	collision with: 0 7 0  and 7 2 1 
12298778		 # 	collision with: 4 4 0  and 8 5 0 
12298792		 # 	collision with: 4 3 0  and 5 3 0 
12298794		 # 	collision with: 3 3 0  and 5 3 0 
12298801		 # 	collision with: 5 3 0  and 3 5 0 
12298803		 # 	collision with: 0 0 0  and 1 1 0 
12298817		 # 	collision with: 7 3 0  and 4 4 0 
12298819		 # 	collision with: 5 2 0  and 4 3 0 
12298824		 # 	collision with: 6 2 0  and 0 3 0 
12298826		 # 	collision with: 8 5 0  and 5 2 1 
12298836		 # 	collision with: 2 3 0  and 4 3 0 
12298838		 # 	collision with: 2 3 0  and 3 3 0 
12298872		 # 	collision with: 0 0 0  and 4 2 0 
12298874		 # 	collision with: 9 9 0  and 2 0 1 
12298879		 # 	collision with: 7 2 0  and 1 4 0 
12298880		 # 	collision with: 1 3 0  and 2 3 0 
12298882		 # 	collision with: 0 3 0  and 2 3 0 
12298920		 # 	collision with: 6 10 0  and 3 0 1 
12298922		 # 	collision with: 4 10 0  and 2 1 1 
12298924		 # 	collision with: 2 5 0  and 5 6 0 
12298926		 # 	collision with: 0 0 0  and 6 2 0 
12298968		 # 	collision with: 7 1 0  and 2 3 0 
12298970		 # 	collision with: 4 0 0  and 7 1 0 
12298972		 # 	collision with: 7 7 0  and 6 0 1 
12298974		 # 	collision with: 10 9 0  and 8 0 1 
12299012		 # 	collision with: 0 1 0  and 3 2 0 
12299014		 # 	collision with: 6 1 0  and 1 3 0 
12299017		 # 	collision with: 7 0 0  and 3 2 0 
12299020		 # 	collision with: 4 6 0  and 7 1 1 
12299022		 # 	collision with: 7 10 0  and 8 1 1 
12299056		 # 	collision with: 1 3 0  and 4 4 0 
12299058		 # 	collision with: 10 1 0  and 2 2 0 
12299068		 # 	collision with: 7 8 0  and 0 2 1 
12299077		 # 	collision with: 5 2 0  and 5 4 0 
12299079		 # 	collision with: 4 3 0  and 3 4 0 
12299095		 # 	collision with: 6 1 0  and 9 3 0 
12299100		 # 	collision with: 3 4 0  and 9 6 0 
12299102		 # 	collision with: 5 2 0  and 8 3 0 
12299118		 # 	collision with: 5 8 0  and 8 0 1 
12299129		 # 	collision with: 1 7 0  and 10 0 1 
12299131		 # 	collision with: 4 3 0  and 3 4 0 
12299133		 # 	collision with: 1 3 0  and 8 0 1 
12299135		 # 	collision with: 4 3 0  and 3 4 0 
12299144		 # 	collision with: 6 2 0  and 9 3 0 
12299146		 # 	collision with: 6 4 0  and 9 5 0 
12299164		 # 	collision with: 5 0 0  and 8 2 0 
12299166		 # 	collision with: 8 6 0  and 5 0 1 
12299188		 # 	collision with: 5 0 0  and 8 1 0 
12299190		 # 	collision with: 2 4 0  and 8 6 0 
12299212		 # 	collision with: 3 5 0  and 2 6 0 
12299214		 # 	collision with: 9 1 0  and 0 2 0 
12299245		 # 	collision with: 0 3 0  and 1 3 0 
12299247		 # 	collision with: 4 3 0  and 3 4 0 
12299249		 # 	collision with: 0 1 0  and 3 2 0 
12299251		 # 	collision with: 4 3 0  and 3 4 0 
12299260		 # 	collision with: 0 3 0  and 1 3 0 
12299262		 # 	collision with: 5 3 0  and 6 3 0 
12299276		 # 	collision with: 2 2 0  and 8 4 0 
12299278		 # 	collision with: 1 2 0  and 7 4 0 
12299285		 # 	collision with: 10 0 0  and 1 2 0 
12299303		 # 	collision with: 4 3 0  and 3 4 0 
12299308		 # 	collision with: 4 6 0  and 5 0 1 
12299310		 # 	collision with: 4 1 0  and 1 2 0 
12299320		 # 	collision with: 8 6 0  and 0 7 0 
12299322		 # 	collision with: 0 3 0  and 3 4 0 
12299356		 # 	collision with: 2 1 0  and 7 2 0 
12299358		 # 	collision with: 9 10 0  and 1 1 1 
12299361		 # 	collision with: 7 1 0  and 2 3 0 
12299363		 # 	collision with: 10 0 0  and 5 1 0 
12299364		 # 	collision with: 8 3 0  and 3 5 0 
12299366		 # 	collision with: 1 5 0  and 4 6 0 
12299404		 # 	collision with: 7 1 0  and 8 3 0 
12299406		 # 	collision with: 3 3 0  and 4 1 1 
12299408		 # 	collision with: 7 1 0  and 10 3 0 
12299410		 # 	collision with: 1 4 0  and 4 6 0 
12299452		 # 	collision with: 2 0 0  and 9 1 0 
12299454		 # 	collision with: 5 2 0  and 1 3 0 
12299456		 # 	collision with: 6 4 0  and 4 5 0 
12299458		 # 	collision with: 6 1 0  and 7 3 0 
12299496		 # 	collision with: 4 1 0  and 0 2 0 
12299498		 # 	collision with: 3 5 0  and 6 7 0 
12299501		 # 	collision with: 1 4 0  and 7 5 0 
12299503		 # 	collision with: 5 1 0  and 3 2 0 
12299504		 # 	collision with: 6 2 0  and 9 3 0 
12299506		 # 	collision with: 3 0 0  and 1 2 1 
12299552		 # 	collision with: 0 3 0  and 2 3 0 
12299554		 # 	collision with: 0 3 0  and 1 3 0 
12299561		 # 	collision with: 7 1 0  and 3 3 0 
12299563		 # 	collision with: 3 1 0  and 10 2 0 
12299577		 # 	collision with: 1 2 0  and 9 4 0 
12299579		 # 	collision with: 8 0 1  and 3 1 1 
12299584		 # 	collision with: 9 2 0  and 1 4 0 
12299586		 # 	collision with: 8 2 0  and 0 4 0 
12299600		 # 	collision with: 7 2 0  and 3 4 0 
12299602		 # 	collision with: 8 4 0  and 10 6 0 
12299613		 # 	collision with: 4 3 0  and 6 3 0 
12299615		 # 	collision with: 9 1 0  and 0 2 0 
12299617		 # 	collision with: 5 1 1  and 8 2 1 
12299619		 # 	collision with: 5 4 0  and 9 6 0 
12299628		 # 	collision with: 0 3 0  and 3 5 0 
12299630		 # 	collision with: 4 0 0  and 7 2 0 
12299648		 # 	collision with: 9 0 0  and 3 1 0 
12299650		 # 	collision with: 8 3 0  and 2 5 0 
12299672		 # 	collision with: 6 2 0  and 2 3 0 
12299674		 # 	collision with: 10 3 0  and 2 5 0 
12299696		 # 	collision with: 7 0 0  and 3 2 0 
12299716		 # 	collision with: 10 4 0  and 6 5 0 
12299718		 # 	collision with: 0 5 0  and 7 6 0 
12299729		 # 	collision with: 10 1 0  and 10 0 1 
12299731		 # 	collision with: 5 3 0  and 6 3 0 
12299733		 # 	collision with: 6 0 0  and 4 1 0 
12299735		 # 	collision with: 9 0 0  and 9 1 0 
12299744		 # 	collision with: 7 1 0  and 3 3 0 
12299746		 # 	collision with: 6 1 0  and 5 3 0 
12299760		 # 	collision with: 8 3 0  and 4 4 0 
12299762		 # 	collision with: 6 1 0  and 9 3 0 
12299769		 # 	collision with: 8 10 0  and 1 0 1 
12299771		 # 	collision with: 3 3 0  and 2 5 0 
12299785		 # 	collision with: 8 0 0  and 7 1 0 
12299787		 # 	collision with: 5 2 0  and 1 3 0 
12299794		 # 	collision with: 0 3 0  and 3 4 0 
12299804		 # 	collision with: 5 0 0  and 8 2 0 
12299806		 # 	collision with: 3 1 0  and 10 2 0 
12299840		 # 	collision with: 6 1 0  and 4 2 0 
12299842		 # 	collision with: 9 6 0  and 2 0 1 
12299845		 # 	collision with: 8 1 0  and 8 2 0 
12299847		 # 	collision with: 5 2 0  and 9 3 0 
12299848		 # 	collision with: 1 5 0  and 8 6 0 
12299850		 # 	collision with: 7 3 0  and 3 4 0 
12299888		 # 	collision with: 6 0 0  and 4 1 0 
12299890		 # 	collision with: 0 2 0  and 8 4 0 
12299892		 # 	collision with: 9 1 0  and 10 2 0 
12299894		 # 	collision with: 8 4 0  and 10 6 0 
12299936		 # 	collision with: 9 1 0  and 10 2 0 
12299938		 # 	collision with: 0 3 0  and 2 5 0 
12299942		 # 	collision with: 8 6 0  and 2 2 1 
12299980		 # 	collision with: 9 1 0  and 10 2 0 
12299982		 # 	collision with: 10 4 0  and 0 5 0 
12299985		 # 	collision with: 2 3 0  and 3 3 0 
12299987		 # 	collision with: 10 0 0  and 5 1 0 
12299988		 # 	collision with: 9 1 0  and 10 2 0 
12299990		 # 	collision with: 10 4 0  and 7 6 0 
 we find invertible function - THM 9 is incorrect4331
