# prime 11
# degree 2
# input variables 3
# output variables 4
# reload computed balance functions from file balance-53of3248-p11d2m3-debug.log
# p = 11
# n = 4
# smalldomain p^m 1331
# domain p^n 14641
#	 p^2 = 121
#	 p^3 = 1331
#	 p^4 = 14641
#	 p^5 = 161051
#	 p^6 = 1771561
#	 p^7 = 19487171
#	 p^8 = 214358881
#	 p^9 = 2357947691
opening file : balance-53of3248-p11d2m3-debug.log
reloading for step2...
318000		 # 	collision with: 3 1 0 0  and 4 1 0 0 
318002		 # 	collision with: 5 6 0 0  and 8 0 1 0 
318004		 # 	collision with: 3 9 0 0  and 5 9 0 0 
318006		 # 	collision with: 2 2 0 0  and 5 1 1 0 
318008		 # 	collision with: 0 5 0 0  and 2 5 0 0 
318010		 # 	collision with: 9 1 0 0  and 4 2 2 0 
318012		 # 	collision with: 4 6 0 0  and 5 6 0 0 
318014		 # 	collision with: 4 2 1 0  and 7 3 2 0 
318016		 # 	collision with: 1 2 0 0  and 2 2 0 0 
318020		 # 	collision with: 1 10 0 0  and 3 10 0 0 
318022		 # 	collision with: 0 8 0 0  and 3 1 1 0 
318024		 # 	collision with: 2 4 0 0  and 4 4 0 0 
318026		 # 	collision with: 3 9 0 0  and 6 4 1 0 
318028		 # 	collision with: 0 8 0 0  and 1 8 0 0 
318030		 # 	collision with: 7 4 0 0  and 10 4 1 0 
318044		 # 	collision with: 3 1 0 0  and 4 1 0 0 
318046		 # 	collision with: 2 6 0 0  and 8 3 1 0 
318065		 # 	collision with: 4 1 0 0  and 5 2 0 0 
318067		 # 	collision with: 2 9 0 0  and 2 1 1 0 
318089		 # 	collision with: 0 8 0 0  and 1 8 0 0 
318091		 # 	collision with: 3 2 0 0  and 9 4 1 0 
318100		 # 	collision with: 4 6 0 0  and 5 6 0 0 
318102		 # 	collision with: 1 1 0 0  and 5 5 1 0 
318149		 # 	collision with: 3 1 0 0  and 4 1 0 0 
318151		 # 	collision with: 3 1 1 0  and 8 2 2 0 
318156		 # 	collision with: 2 4 0 0  and 4 4 0 0 
318158		 # 	collision with: 10 4 0 0  and 6 1 1 0 
318168		 # 	collision with: 4 3 0 0  and 6 3 0 0 
318170		 # 	collision with: 3 7 1 0  and 2 4 2 0 
318185		 # 	collision with: 9 1 0 0  and 8 2 0 0 
318187		 # 	collision with: 2 1 0 0  and 2 2 0 0 
318224		 # 	collision with: 3 9 0 0  and 5 9 0 0 
318229		 # 	collision with: 9 1 0 0  and 8 2 0 0 
318231		 # 	collision with: 2 1 0 0  and 2 2 0 0 
318277		 # 	collision with: 7 1 0 0  and 3 2 0 0 
318279		 # 	collision with: 2 1 0 0  and 2 5 2 0 
318280		 # 	collision with: 1 2 0 0  and 2 2 0 0 
318282		 # 	collision with: 2 2 2 0  and 2 3 2 0 
318321		 # 	collision with: 7 1 0 0  and 3 2 0 0 
318323		 # 	collision with: 6 4 0 0  and 1 0 1 0 
318336		 # 	collision with: 0 8 0 0  and 1 8 0 0 
318338		 # 	collision with: 2 0 0 0  and 2 1 1 0 
318348		 # 	collision with: 2 7 0 0  and 3 7 0 0 
318350		 # 	collision with: 7 6 1 0  and 1 2 3 0 
318357		 # 	collision with: 7 1 0 0  and 0 2 0 0 
318359		 # 	collision with: 2 4 0 0  and 9 0 1 0 
318404		 # 	collision with: 0 5 0 0  and 2 5 0 0 
318406		 # 	collision with: 9 1 0 0  and 10 2 1 0 
318417		 # 	collision with: 4 1 0 0  and 5 2 0 0 
318419		 # 	collision with: 2 10 0 0  and 7 6 1 0 
318441		 # 	collision with: 0 8 0 0  and 1 8 0 0 
318443		 # 	collision with: 9 10 0 0  and 3 0 1 0 
318460		 # 	collision with: 1 10 0 0  and 3 10 0 0 
318462		 # 	collision with: 4 6 1 0  and 5 6 1 0 
318472		 # 	collision with: 8 8 3 0  and 9 1 0 1 
318474		 # 	collision with: 10 1 0 0  and 1 3 1 0 
318476		 # 	collision with: 1 2 0 0  and 2 2 0 0 
318480		 # 	collision with: 3 1 0 0  and 4 1 0 0 
318482		 # 	collision with: 5 9 0 0  and 7 2 1 0 
318484		 # 	collision with: 0 8 0 0  and 1 8 0 0 
318486		 # 	collision with: 7 3 0 0  and 9 1 1 0 
318488		 # 	collision with: 4 6 0 0  and 5 6 0 0 
318490		 # 	collision with: 1 9 0 0  and 3 0 1 0 
318492		 # 	collision with: 2 7 0 0  and 3 7 0 0 
318494		 # 	collision with: 10 2 0 0  and 3 3 2 0 
318496		 # 	collision with: 2 4 0 0  and 4 4 0 0 
318498		 # 	collision with: 3 7 0 0  and 5 1 1 0 
318500		 # 	collision with: 0 5 0 0  and 2 5 0 0 
318502		 # 	collision with: 0 8 0 0  and 4 1 2 0 
318504		 # 	collision with: 4 3 0 0  and 6 3 0 0 
318506		 # 	collision with: 9 7 0 0  and 0 8 1 0 
318508		 # 	collision with: 1 10 0 0  and 3 10 0 0 
318510		 # 	collision with: 9 1 0 0  and 0 7 1 0 
318512		 # 	collision with: 3 9 0 0  and 5 9 0 0 
318514		 # 	collision with: 4 1 0 0  and 6 2 1 0 
318528		 # 	collision with: 0 8 0 0  and 1 8 0 0 
318530		 # 	collision with: 6 8 0 0  and 4 2 1 0 
318549		 # 	collision with: 8 0 0 0  and 2 2 0 0 
318551		 # 	collision with: 7 8 0 0  and 6 6 2 0 
318573		 # 	collision with: 3 9 0 0  and 5 9 0 0 
318575		 # 	collision with: 2 3 2 0  and 2 4 2 0 
318584		 # 	collision with: 2 4 0 0  and 4 4 0 0 
318586		 # 	collision with: 6 1 0 0  and 10 4 1 0 
318633		 # 	collision with: 0 8 0 0  and 1 8 0 0 
318635		 # 	collision with: 2 0 0 0  and 2 2 0 0 
318640		 # 	collision with: 1 10 0 0  and 3 10 0 0 
318642		 # 	collision with: 9 1 0 0  and 0 7 1 0 
318652		 # 	collision with: 1 2 0 0  and 2 2 0 0 
318654		 # 	collision with: 2 3 2 0  and 2 5 2 0 
318669		 # 	collision with: 3 0 0 0  and 1 2 0 0 
318671		 # 	collision with: 0 5 0 0  and 9 0 1 0 
318708		 # 	collision with: 4 6 0 0  and 5 6 0 0 
318710		 # 	collision with: 0 4 0 0  and 4 5 1 0 
318713		 # 	collision with: 3 0 0 0  and 1 2 0 0 
318715		 # 	collision with: 4 5 0 0  and 10 0 1 0 
318761		 # 	collision with: 3 1 0 0  and 4 1 0 0 
318763		 # 	collision with: 8 8 0 0  and 6 0 1 0 
318764		 # 	collision with: 0 5 0 0  and 2 5 0 0 
318766		 # 	collision with: 10 1 0 0  and 8 1 1 0 
318805		 # 	collision with: 3 1 0 0  and 4 1 0 0 
318807		 # 	collision with: 5 3 0 0  and 9 4 1 0 
318820		 # 	collision with: 3 9 0 0  and 5 9 0 0 
318832		 # 	collision with: 3 1 0 0  and 4 1 0 0 
318834		 # 	collision with: 2 2 1 0  and 2 4 1 0 
318841		 # 	collision with: 2 0 0 0  and 10 2 0 0 
318843		 # 	collision with: 7 7 1 0  and 3 1 2 0 
318888		 # 	collision with: 2 7 0 0  and 3 7 0 0 
318890		 # 	collision with: 4 3 0 0  and 5 4 1 0 
318901		 # 	collision with: 8 0 0 0  and 2 2 0 0 
318903		 # 	collision with: 9 5 1 0  and 7 2 2 0 
318925		 # 	collision with: 3 9 0 0  and 5 9 0 0 
318927		 # 	collision with: 0 8 1 0  and 1 8 1 0 
318944		 # 	collision with: 4 3 0 0  and 6 3 0 0 
318946		 # 	collision with: 9 9 0 0  and 5 0 1 0 
318956		 # 	collision with: 6 4 10 0  and 6 0 0 1 
318958		 # 	collision with: 0 1 0 0  and 1 5 1 0 
318960		 # 	collision with: 3 1 0 0  and 4 1 0 0 
318962		 # 	collision with: 2 0 1 0  and 2 1 1 0 
318964		 # 	collision with: 4 6 0 0  and 5 6 0 0 
318966		 # 	collision with: 10 5 0 0  and 1 4 2 0 
318968		 # 	collision with: 2 4 0 0  and 4 4 0 0 
318970		 # 	collision with: 9 3 1 0  and 10 1 2 0 
318972		 # 	collision with: 4 3 0 0  and 6 3 0 0 
318974		 # 	collision with: 4 4 0 0  and 5 1 1 0 
318976		 # 	collision with: 3 9 0 0  and 5 9 0 0 
318978		 # 	collision with: 10 5 0 0  and 0 6 1 0 
318980		 # 	collision with: 1 2 0 0  and 2 2 0 0 
318984		 # 	collision with: 0 8 0 0  and 1 8 0 0 
318986		 # 	collision with: 7 1 1 0  and 8 8 2 0 
318988		 # 	collision with: 2 7 0 0  and 3 7 0 0 
318990		 # 	collision with: 10 2 0 0  and 0 7 1 0 
318992		 # 	collision with: 0 5 0 0  and 2 5 0 0 
318994		 # 	collision with: 5 0 0 0  and 7 1 2 0 
318996		 # 	collision with: 1 10 0 0  and 3 10 0 0 
318998		 # 	collision with: 6 7 0 0  and 7 0 1 0 
319012		 # 	collision with: 2 4 0 0  and 4 4 0 0 
319014		 # 	collision with: 4 6 1 0  and 3 0 2 0 
319033		 # 	collision with: 4 0 0 0  and 1 1 0 0 
319035		 # 	collision with: 2 1 0 0  and 1 2 1 0 
319057		 # 	collision with: 1 10 0 0  and 3 10 0 0 
319059		 # 	collision with: 9 4 0 0  and 3 2 1 0 
319068		 # 	collision with: 1 2 0 0  and 2 2 0 0 
319070		 # 	collision with: 10 3 0 0  and 0 3 1 0 
319117		 # 	collision with: 2 4 0 0  and 4 4 0 0 
319119		 # 	collision with: 8 0 1 0  and 9 10 2 0 
319124		 # 	collision with: 0 5 0 0  and 2 5 0 0 
319126		 # 	collision with: 8 6 0 0  and 5 7 1 0 
319136		 # 	collision with: 3 1 0 0  and 4 1 0 0 
319138		 # 	collision with: 2 0 1 0  and 2 1 1 0 
319153		 # 	collision with: 7 0 0 0  and 1 1 0 0 
319155		 # 	collision with: 2 7 0 0  and 7 6 1 0 
319192		 # 	collision with: 4 3 0 0  and 6 3 0 0 
319194		 # 	collision with: 3 1 0 0  and 8 2 1 0 
319197		 # 	collision with: 7 0 0 0  and 1 1 0 0 
319199		 # 	collision with: 4 0 0 0  and 8 9 1 0 
319245		 # 	collision with: 0 0 0 0  and 7 1 0 0 
319247		 # 	collision with: 2 6 0 0  and 0 5 2 0 
319248		 # 	collision with: 0 8 0 0  and 1 8 0 0 
319250		 # 	collision with: 7 5 0 0  and 9 4 1 0 
319289		 # 	collision with: 0 0 0 0  and 7 1 0 0 
319291		 # 	collision with: 2 6 0 0  and 0 5 2 0 
319304		 # 	collision with: 1 10 0 0  and 3 10 0 0 
319306		 # 	collision with: 8 4 0 0  and 8 4 1 0 
319316		 # 	collision with: 4 6 0 0  and 5 6 0 0 
319318		 # 	collision with: 2 3 0 0  and 4 4 1 0 
319325		 # 	collision with: 10 5 0 0  and 7 7 0 0 
319327		 # 	collision with: 1 6 0 0  and 5 7 1 0 
319372		 # 	collision with: 3 9 0 0  and 5 9 0 0 
319385		 # 	collision with: 4 0 0 0  and 1 1 0 0 
319387		 # 	collision with: 2 3 0 0  and 0 5 2 0 
319409		 # 	collision with: 1 10 0 0  and 3 10 0 0 
319411		 # 	collision with: 8 4 1 0  and 6 5 1 0 
319428		 # 	collision with: 2 7 0 0  and 3 7 0 0 
319430		 # 	collision with: 10 7 0 0  and 7 0 1 0 
319446		 # 	collision with: 2 1 0 0  and 2 3 0 0 
319450		 # 	collision with: 2 3 0 0  and 2 5 0 0 
319454		 # 	collision with: 2 0 0 0  and 2 1 0 0 
319458		 # 	collision with: 2 2 0 0  and 2 3 0 0 
319462		 # 	collision with: 2 4 0 0  and 2 5 0 0 
319466		 # 	collision with: 2 0 0 0  and 2 2 0 0 
319470		 # 	collision with: 2 2 0 0  and 2 4 0 0 
319474		 # 	collision with: 2 4 0 0  and 2 6 0 0 
319478		 # 	collision with: 2 1 0 0  and 2 2 0 0 
319482		 # 	collision with: 2 3 0 0  and 2 4 0 0 
319490		 # 	collision with: 2 1 0 0  and 2 3 0 0 
319511		 # 	collision with: 7 1 0 0  and 3 1 1 0 
319538		 # 	collision with: 2 3 0 0  and 2 5 0 0 
319571		 # 	collision with: 10 0 0 0  and 3 3 1 0 
319579		 # 	collision with: 1 1 0 0  and 9 1 2 0 
319586		 # 	collision with: 2 0 0 0  and 2 1 0 0 
319634		 # 	collision with: 2 2 0 0  and 2 3 0 0 
319682		 # 	collision with: 2 4 0 0  and 2 5 0 0 
319687		 # 	collision with: 7 10 0 0  and 1 1 1 0 
319727		 # 	collision with: 1 10 0 0  and 0 10 1 0 
319730		 # 	collision with: 2 0 0 0  and 2 2 0 0 
319778		 # 	collision with: 2 2 0 0  and 2 4 0 0 
319826		 # 	collision with: 2 4 0 0  and 2 6 0 0 
319835		 # 	collision with: 10 4 0 0  and 1 1 1 0 
319843		 # 	collision with: 9 7 0 0  and 3 0 1 0 
319874		 # 	collision with: 2 1 0 0  and 2 2 0 0 
319903		 # 	collision with: 3 3 1 0  and 5 3 1 0 
319922		 # 	collision with: 2 3 0 0  and 2 4 0 0 
319924		 # 	collision with: 2 8 5 0  and 0 1 0 1 
319926		 # 	collision with: 10 1 0 0  and 9 7 1 0 
319928		 # 	collision with: 0 10 0 0  and 1 10 0 0 
319930		 # 	collision with: 6 9 1 0  and 5 1 2 0 
319932		 # 	collision with: 2 5 0 0  and 4 5 0 0 
319934		 # 	collision with: 6 2 0 0  and 4 3 2 0 
319936		 # 	collision with: 1 7 0 0  and 3 7 0 0 
319938		 # 	collision with: 7 1 0 0  and 6 10 1 0 
319940		 # 	collision with: 1 8 0 0  and 2 8 0 0 
319942		 # 	collision with: 9 9 1 0  and 7 8 3 0 
319944		 # 	collision with: 4 2 0 0  and 5 2 0 0 
319948		 # 	collision with: 0 9 0 0  and 2 9 0 0 
319950		 # 	collision with: 0 6 0 0  and 10 8 1 0 
319952		 # 	collision with: 3 3 0 0  and 5 3 0 0 
319954		 # 	collision with: 1 4 1 0  and 0 7 2 0 
319956		 # 	collision with: 3 4 0 0  and 4 4 0 0 
319958		 # 	collision with: 10 8 0 0  and 9 4 1 0 
319960		 # 	collision with: 2 6 0 0  and 3 6 0 0 
319962		 # 	collision with: 9 7 1 0  and 8 0 2 0 
319964		 # 	collision with: 4 1 0 0  and 6 1 0 0 
319966		 # 	collision with: 2 2 1 0  and 2 4 1 0 
319972		 # 	collision with: 0 10 0 0  and 1 10 0 0 
319974		 # 	collision with: 2 4 1 0  and 6 3 3 0 
319993		 # 	collision with: 4 2 0 0  and 5 2 0 0 
319995		 # 	collision with: 3 9 0 0  and 6 1 1 0 
320020		 # 	collision with: 2 5 0 0  and 4 5 0 0 
320022		 # 	collision with: 4 1 1 0  and 0 2 2 0 
320053		 # 	collision with: 2 6 0 0  and 3 6 0 0 
320055		 # 	collision with: 9 2 0 0  and 6 1 1 0 
320061		 # 	collision with: 10 3 1 0  and 8 0 2 0 
320063		 # 	collision with: 5 9 1 0  and 7 5 2 0 
320068		 # 	collision with: 1 7 0 0  and 3 7 0 0 
320070		 # 	collision with: 3 10 0 0  and 6 4 1 0 
320116		 # 	collision with: 1 8 0 0  and 2 8 0 0 
320118		 # 	collision with: 2 5 0 0  and 9 0 1 0 
320133		 # 	collision with: 3 3 0 0  and 5 3 0 0 
320135		 # 	collision with: 2 4 0 0  and 2 6 0 0 
320164		 # 	collision with: 4 2 0 0  and 5 2 0 0 
320166		 # 	collision with: 6 5 0 0  and 10 0 1 0 
320169		 # 	collision with: 4 2 0 0  and 5 2 0 0 
320171		 # 	collision with: 1 1 0 0  and 9 1 1 0 
320209		 # 	collision with: 1 8 0 0  and 2 8 0 0 
320211		 # 	collision with: 1 2 1 0  and 7 1 2 0 
320212		 # 	collision with: 0 9 0 0  and 2 9 0 0 
320245		 # 	collision with: 2 5 0 0  and 4 5 0 0 
320247		 # 	collision with: 7 2 0 0  and 2 2 1 0 
320260		 # 	collision with: 3 3 0 0  and 5 3 0 0 
320262		 # 	collision with: 9 7 0 0  and 1 3 1 0 
320308		 # 	collision with: 3 4 0 0  and 4 4 0 0 
320310		 # 	collision with: 3 6 1 0  and 8 1 2 0 
320317		 # 	collision with: 2 6 0 0  and 3 6 0 0 
320325		 # 	collision with: 7 8 1 0  and 10 6 2 0 
320356		 # 	collision with: 2 6 0 0  and 3 6 0 0 
320358		 # 	collision with: 3 0 0 0  and 7 3 2 0 
320385		 # 	collision with: 1 8 0 0  and 2 8 0 0 
320387		 # 	collision with: 5 0 1 0  and 6 0 1 0 
320404		 # 	collision with: 4 1 0 0  and 6 1 0 0 
320406		 # 	collision with: 5 0 1 0  and 6 0 1 0 
320408		 # 	collision with: 0 1 2 0  and 2 0 0 1 
320410		 # 	collision with: 5 10 0 0  and 3 2 1 0 
320412		 # 	collision with: 0 9 0 0  and 2 9 0 0 
320414		 # 	collision with: 1 5 0 0  and 10 9 1 0 
320416		 # 	collision with: 0 10 0 0  and 1 10 0 0 
320418		 # 	collision with: 5 3 0 0  and 3 3 1 0 
320420		 # 	collision with: 3 3 0 0  and 5 3 0 0 
320422		 # 	collision with: 9 8 0 0  and 7 0 1 0 
320424		 # 	collision with: 2 5 0 0  and 4 5 0 0 
320426		 # 	collision with: 8 4 1 0  and 6 2 2 0 
320428		 # 	collision with: 3 4 0 0  and 4 4 0 0 
320430		 # 	collision with: 5 6 0 0  and 3 1 1 0 
320432		 # 	collision with: 1 7 0 0  and 3 7 0 0 
320434		 # 	collision with: 6 6 1 0  and 4 0 2 0 
320436		 # 	collision with: 2 6 0 0  and 3 6 0 0 
320438		 # 	collision with: 1 6 0 0  and 10 2 1 0 
320440		 # 	collision with: 1 8 0 0  and 2 8 0 0 
320442		 # 	collision with: 8 1 0 0  and 6 3 1 0 
320444		 # 	collision with: 4 1 0 0  and 6 1 0 0 
320446		 # 	collision with: 2 0 1 0  and 2 2 1 0 
320448		 # 	collision with: 4 2 0 0  and 5 2 0 0 
320456		 # 	collision with: 0 9 0 0  and 2 9 0 0 
320477		 # 	collision with: 3 4 0 0  and 4 4 0 0 
320479		 # 	collision with: 6 3 1 0  and 6 3 2 0 
320504		 # 	collision with: 0 10 0 0  and 1 10 0 0 
320506		 # 	collision with: 10 9 1 0  and 10 9 2 0 
320537		 # 	collision with: 4 1 0 0  and 6 1 0 0 
320539		 # 	collision with: 7 1 0 0  and 5 6 1 0 
320545		 # 	collision with: 4 4 2 0  and 8 7 3 0 
320547		 # 	collision with: 7 1 0 0  and 3 1 2 0 
320552		 # 	collision with: 3 3 0 0  and 5 3 0 0 
320554		 # 	collision with: 0 0 0 0  and 5 10 1 0 
320600		 # 	collision with: 2 5 0 0  and 4 5 0 0 
320602		 # 	collision with: 1 8 0 0  and 2 0 1 0 
320617		 # 	collision with: 7 4 0 0  and 0 5 0 0 
320619		 # 	collision with: 2 8 0 0  and 2 5 1 0 
320648		 # 	collision with: 3 4 0 0  and 4 4 0 0 
320650		 # 	collision with: 4 2 2 0  and 5 2 2 0 
320653		 # 	collision with: 3 4 0 0  and 4 4 0 0 
320655		 # 	collision with: 4 2 2 0  and 5 2 2 0 
320693		 # 	collision with: 2 5 0 0  and 4 5 0 0 
320695		 # 	collision with: 2 4 0 0  and 2 5 0 0 
320696		 # 	collision with: 1 7 0 0  and 3 7 0 0 
320698		 # 	collision with: 1 4 0 0  and 3 10 1 0 
320729		 # 	collision with: 1 4 0 0  and 9 5 0 0 
320731		 # 	collision with: 2 7 0 0  and 4 5 2 0 
320744		 # 	collision with: 2 6 0 0  and 3 6 0 0 
320746		 # 	collision with: 8 9 0 0  and 1 4 2 0 
320792		 # 	collision with: 1 8 0 0  and 2 8 0 0 
320794		 # 	collision with: 4 2 0 0  and 10 1 1 0 
320801		 # 	collision with: 4 1 0 0  and 6 1 0 0 
320803		 # 	collision with: 7 10 0 0  and 9 1 2 0 
320809		 # 	collision with: 2 9 1 0  and 5 6 2 0 
320811		 # 	collision with: 4 6 0 0  and 10 2 1 0 
320840		 # 	collision with: 4 1 0 0  and 6 1 0 0 
320842		 # 	collision with: 2 0 1 0  and 2 2 1 0 
320869		 # 	collision with: 2 5 0 0  and 4 5 0 0 
320871		 # 	collision with: 2 4 0 0  and 2 5 0 0 
320888		 # 	collision with: 4 2 0 0  and 5 2 0 0 
320890		 # 	collision with: 4 1 1 0  and 6 1 1 0 
320892		 # 	collision with: 4 0 9 0  and 0 3 0 1 
320894		 # 	collision with: 8 0 0 0  and 5 2 1 0 
320896		 # 	collision with: 1 8 0 0  and 2 8 0 0 
320898		 # 	collision with: 5 4 0 0  and 2 10 1 0 
320900		 # 	collision with: 3 4 0 0  and 4 4 0 0 
320902		 # 	collision with: 1 5 0 0  and 9 2 1 0 
320904		 # 	collision with: 0 10 0 0  and 1 10 0 0 
320906		 # 	collision with: 5 3 1 0  and 10 0 3 0 
320908		 # 	collision with: 4 2 0 0  and 5 2 0 0 
320912		 # 	collision with: 2 6 0 0  and 3 6 0 0 
320914		 # 	collision with: 6 4 0 0  and 0 7 2 0 
320916		 # 	collision with: 2 5 0 0  and 4 5 0 0 
320918		 # 	collision with: 5 4 0 0  and 2 2 1 0 
320920		 # 	collision with: 0 9 0 0  and 2 9 0 0 
320922		 # 	collision with: 0 6 1 0  and 8 2 2 0 
320924		 # 	collision with: 4 1 0 0  and 6 1 0 0 
320926		 # 	collision with: 1 9 0 0  and 9 3 1 0 
320928		 # 	collision with: 1 7 0 0  and 3 7 0 0 
320930		 # 	collision with: 4 9 0 0  and 1 0 1 0 
320932		 # 	collision with: 3 3 0 0  and 5 3 0 0 
320934		 # 	collision with: 3 10 0 0  and 0 7 1 0 
320940		 # 	collision with: 1 8 0 0  and 2 8 0 0 
320942		 # 	collision with: 3 3 0 0  and 10 0 2 0 
320961		 # 	collision with: 2 6 0 0  and 3 6 0 0 
320988		 # 	collision with: 3 4 0 0  and 4 4 0 0 
320990		 # 	collision with: 1 8 0 0  and 3 6 1 0 
321021		 # 	collision with: 1 7 0 0  and 3 7 0 0 
321023		 # 	collision with: 9 5 0 0  and 9 5 1 0 
321029		 # 	collision with: 2 1 0 0  and 2 1 2 0 
321031		 # 	collision with: 5 6 0 0  and 3 1 1 0 
321036		 # 	collision with: 0 10 0 0  and 1 10 0 0 
321038		 # 	collision with: 2 0 0 0  and 8 1 1 0 
321084		 # 	collision with: 4 2 0 0  and 5 2 0 0 
321086		 # 	collision with: 2 7 0 0  and 2 7 1 0 
321101		 # 	collision with: 4 3 0 0  and 1 5 0 0 
321103		 # 	collision with: 6 3 0 0  and 2 2 2 0 
321132		 # 	collision with: 2 6 0 0  and 3 6 0 0 
321134		 # 	collision with: 5 4 0 0  and 4 5 1 0 
321137		 # 	collision with: 2 6 0 0  and 3 6 0 0 
321139		 # 	collision with: 9 10 0 0  and 10 5 1 0 
321177		 # 	collision with: 4 2 0 0  and 5 2 0 0 
321180		 # 	collision with: 2 5 0 0  and 4 5 0 0 
321182		 # 	collision with: 1 9 0 0  and 6 0 1 0 
321213		 # 	collision with: 3 4 0 0  and 4 4 0 0 
321215		 # 	collision with: 6 2 0 0  and 3 2 1 0 
321228		 # 	collision with: 0 9 0 0  and 2 9 0 0 
321276		 # 	collision with: 4 1 0 0  and 6 1 0 0 
321278		 # 	collision with: 2 4 1 0  and 2 5 1 0 
321285		 # 	collision with: 1 7 0 0  and 3 7 0 0 
321287		 # 	collision with: 5 5 0 0  and 5 5 1 0 
321293		 # 	collision with: 10 6 0 0  and 2 1 1 0 
321295		 # 	collision with: 1 2 0 0  and 3 1 1 0 
321324		 # 	collision with: 1 7 0 0  and 3 7 0 0 
321326		 # 	collision with: 4 6 0 0  and 10 2 1 0 
321353		 # 	collision with: 4 2 0 0  and 5 2 0 0 
321355		 # 	collision with: 8 1 1 0  and 7 2 1 0 
321372		 # 	collision with: 3 3 0 0  and 5 3 0 0 
321374		 # 	collision with: 4 2 1 0  and 5 2 1 0 
321376		 # 	collision with: 8 10 5 0  and 3 0 0 1 
321378		 # 	collision with: 5 6 0 0  and 1 2 1 0 
321380		 # 	collision with: 1 7 0 0  and 3 7 0 0 
321382		 # 	collision with: 0 0 0 0  and 7 10 1 0 
321384		 # 	collision with: 0 9 0 0  and 2 9 0 0 
321386		 # 	collision with: 4 10 0 0  and 0 4 1 0 
321388		 # 	collision with: 2 6 0 0  and 3 6 0 0 
321390		 # 	collision with: 5 8 0 0  and 1 7 1 0 
321392		 # 	collision with: 0 10 0 0  and 1 10 0 0 
321394		 # 	collision with: 10 10 0 0  and 2 9 2 0 
321396		 # 	collision with: 1 8 0 0  and 2 8 0 0 
321398		 # 	collision with: 8 10 0 0  and 4 10 1 0 
321400		 # 	collision with: 3 3 0 0  and 5 3 0 0 
321402		 # 	collision with: 2 4 0 0  and 9 0 1 0 
321404		 # 	collision with: 4 1 0 0  and 6 1 0 0 
321406		 # 	collision with: 2 2 1 0  and 2 3 1 0 
321408		 # 	collision with: 2 5 0 0  and 4 5 0 0 
321410		 # 	collision with: 9 1 0 0  and 5 10 1 0 
321412		 # 	collision with: 4 2 0 0  and 5 2 0 0 
321416		 # 	collision with: 3 4 0 0  and 4 4 0 0 
321418		 # 	collision with: 1 10 0 0  and 8 8 1 0 
321424		 # 	collision with: 1 7 0 0  and 3 7 0 0 
321426		 # 	collision with: 8 1 0 0  and 2 2 1 0 
321445		 # 	collision with: 1 8 0 0  and 2 8 0 0 
321447		 # 	collision with: 2 0 1 0  and 2 1 1 0 
321472		 # 	collision with: 0 9 0 0  and 2 9 0 0 
321505		 # 	collision with: 4 2 0 0  and 5 2 0 0 
321507		 # 	collision with: 2 3 0 0  and 2 4 0 0 
321513		 # 	collision with: 8 10 0 0  and 2 4 1 0 
321515		 # 	collision with: 2 1 0 0  and 2 0 1 0 
321520		 # 	collision with: 2 6 0 0  and 3 6 0 0 
321522		 # 	collision with: 1 8 0 0  and 2 7 1 0 
321568		 # 	collision with: 0 10 0 0  and 1 10 0 0 
321570		 # 	collision with: 1 7 3 0  and 7 0 4 0 
321585		 # 	collision with: 4 1 0 0  and 6 1 0 0 
321587		 # 	collision with: 6 5 0 0  and 3 3 2 0 
321616		 # 	collision with: 1 8 0 0  and 2 8 0 0 
321618		 # 	collision with: 8 2 1 0  and 7 1 2 0 
321621		 # 	collision with: 1 8 0 0  and 2 8 0 0 
321623		 # 	collision with: 2 0 1 0  and 2 1 1 0 
321661		 # 	collision with: 0 10 0 0  and 1 10 0 0 
321663		 # 	collision with: 8 1 0 0  and 2 2 1 0 
321664		 # 	collision with: 3 3 0 0  and 5 3 0 0 
321666		 # 	collision with: 8 6 1 0  and 4 9 2 0 
321697		 # 	collision with: 6 3 0 0  and 3 4 0 0 
321699		 # 	collision with: 8 6 0 0  and 10 0 1 0 
321712		 # 	collision with: 4 1 0 0  and 6 1 0 0 
321714		 # 	collision with: 2 4 0 0  and 8 1 1 0 
321760		 # 	collision with: 2 5 0 0  and 4 5 0 0 
321762		 # 	collision with: 6 2 1 0  and 1 1 2 0 
321769		 # 	collision with: 4 2 0 0  and 5 2 0 0 
321771		 # 	collision with: 2 3 0 0  and 2 4 0 0 
321777		 # 	collision with: 5 7 0 0  and 8 5 1 0 
321779		 # 	collision with: 1 10 0 0  and 4 4 1 0 
321808		 # 	collision with: 4 2 0 0  and 5 2 0 0 
321810		 # 	collision with: 2 0 2 0  and 2 1 2 0 
321837		 # 	collision with: 0 10 0 0  and 1 10 0 0 
321839		 # 	collision with: 5 6 0 0  and 1 2 1 0 
321856		 # 	collision with: 3 4 0 0  and 4 4 0 0 
321858		 # 	collision with: 3 3 1 0  and 5 3 1 0 
321860		 # 	collision with: 1 0 1 0  and 0 1 0 1 
321862		 # 	collision with: 3 8 1 0  and 9 5 2 0 
321864		 # 	collision with: 2 6 0 0  and 3 6 0 0 
321866		 # 	collision with: 8 6 1 0  and 3 3 2 0 
321868		 # 	collision with: 3 3 0 0  and 5 3 0 0 
321870		 # 	collision with: 2 2 3 0  and 2 3 3 0 
321872		 # 	collision with: 4 2 0 0  and 5 2 0 0 
321876		 # 	collision with: 1 7 0 0  and 3 7 0 0 
321878		 # 	collision with: 9 7 1 0  and 4 2 2 0 
321880		 # 	collision with: 0 10 0 0  and 1 10 0 0 
321882		 # 	collision with: 5 10 3 0  and 0 0 4 0 
321884		 # 	collision with: 4 1 0 0  and 6 1 0 0 
321886		 # 	collision with: 2 0 1 0  and 2 1 1 0 
321888		 # 	collision with: 3 4 0 0  and 4 4 0 0 
321890		 # 	collision with: 9 3 0 0  and 4 10 1 0 
321892		 # 	collision with: 0 9 0 0  and 2 9 0 0 
321894		 # 	collision with: 0 9 0 0  and 1 8 2 0 
321896		 # 	collision with: 1 8 0 0  and 2 8 0 0 
321898		 # 	collision with: 10 10 0 0  and 5 4 1 0 
321900		 # 	collision with: 2 5 0 0  and 4 5 0 0 
321902		 # 	collision with: 10 4 0 0  and 0 0 2 0 
321908		 # 	collision with: 2 6 0 0  and 3 6 0 0 
321910		 # 	collision with: 3 0 0 0  and 10 1 1 0 
321929		 # 	collision with: 0 10 0 0  and 1 10 0 0 
321931		 # 	collision with: 5 1 0 0  and 5 1 1 0 
321956		 # 	collision with: 3 3 0 0  and 5 3 0 0 
321958		 # 	collision with: 3 3 0 0  and 3 3 1 0 
321989		 # 	collision with: 1 8 0 0  and 2 8 0 0 
321991		 # 	collision with: 5 8 0 0  and 7 0 1 0 
321997		 # 	collision with: 4 1 1 0  and 3 0 3 0 
321999		 # 	collision with: 1 5 0 0  and 6 1 2 0 
322004		 # 	collision with: 4 2 0 0  and 5 2 0 0 
322006		 # 	collision with: 2 7 0 0  and 2 1 1 0 
322052		 # 	collision with: 1 7 0 0  and 3 7 0 0 
322054		 # 	collision with: 7 3 0 0  and 7 3 2 0 
322069		 # 	collision with: 3 4 0 0  and 4 4 0 0 
322071		 # 	collision with: 2 4 1 0  and 2 5 1 0 
322100		 # 	collision with: 0 10 0 0  and 1 10 0 0 
322102		 # 	collision with: 1 8 2 0  and 2 8 2 0 
322105		 # 	collision with: 0 10 0 0  and 1 10 0 0 
322107		 # 	collision with: 1 1 0 0  and 1 1 1 0 
322145		 # 	collision with: 1 7 0 0  and 3 7 0 0 
322147		 # 	collision with: 8 6 0 0  and 5 3 1 0 
322148		 # 	collision with: 4 1 0 0  and 6 1 0 0 
322150		 # 	collision with: 2 0 1 0  and 2 1 1 0 
322181		 # 	collision with: 3 3 0 0  and 5 3 0 0 
322183		 # 	collision with: 4 10 1 0  and 6 0 2 0 
322196		 # 	collision with: 3 4 0 0  and 4 4 0 0 
322198		 # 	collision with: 0 5 0 0  and 9 9 1 0 
322244		 # 	collision with: 0 9 0 0  and 2 9 0 0 
322253		 # 	collision with: 1 8 0 0  and 2 8 0 0 
322255		 # 	collision with: 2 1 0 0  and 2 5 1 0 
322261		 # 	collision with: 3 8 0 0  and 9 2 2 0 
322263		 # 	collision with: 0 1 0 0  and 1 3 2 0 
322292		 # 	collision with: 1 8 0 0  and 2 8 0 0 
322294		 # 	collision with: 6 0 2 0  and 9 3 3 0 
322321		 # 	collision with: 1 7 0 0  and 3 7 0 0 
322323		 # 	collision with: 3 0 1 0  and 0 1 1 0 
322340		 # 	collision with: 2 5 0 0  and 4 5 0 0 
322342		 # 	collision with: 3 4 1 0  and 4 4 1 0 
322344		 # 	collision with: 5 9 3 0  and 7 0 0 1 
322346		 # 	collision with: 5 10 0 0  and 4 3 2 0 
322348		 # 	collision with: 2 5 0 0  and 4 5 0 0 
322350		 # 	collision with: 10 4 1 0  and 4 3 2 0 
322352		 # 	collision with: 1 8 0 0  and 2 8 0 0 
322354		 # 	collision with: 2 9 0 0  and 7 2 1 0 
322356		 # 	collision with: 0 9 0 0  and 2 9 0 0 
322358		 # 	collision with: 3 6 0 0  and 2 5 2 0 
322360		 # 	collision with: 3 4 0 0  and 4 4 0 0 
322362		 # 	collision with: 5 1 1 0  and 10 2 2 0 
322364		 # 	collision with: 4 1 0 0  and 6 1 0 0 
322366		 # 	collision with: 2 3 1 0  and 2 5 1 0 
322368		 # 	collision with: 0 10 0 0  and 1 10 0 0 
322370		 # 	collision with: 8 1 0 0  and 2 1 1 0 
322372		 # 	collision with: 1 7 0 0  and 3 7 0 0 
322374		 # 	collision with: 8 1 0 0  and 2 6 1 0 
322376		 # 	collision with: 4 2 0 0  and 5 2 0 0 
322380		 # 	collision with: 3 3 0 0  and 5 3 0 0 
322382		 # 	collision with: 7 0 0 0  and 1 7 1 0 
322384		 # 	collision with: 2 6 0 0  and 3 6 0 0 
322386		 # 	collision with: 3 6 1 0  and 8 1 2 0 
322392		 # 	collision with: 2 5 0 0  and 4 5 0 0 
322394		 # 	collision with: 5 1 0 0  and 5 1 2 0 
322413		 # 	collision with: 4 1 0 0  and 6 1 0 0 
322415		 # 	collision with: 10 7 0 0  and 7 6 1 0 
322440		 # 	collision with: 1 8 0 0  and 2 8 0 0 
322442		 # 	collision with: 1 8 0 0  and 2 4 1 0 
322473		 # 	collision with: 3 3 0 0  and 5 3 0 0 
322475		 # 	collision with: 2 2 0 0  and 2 0 1 0 
322481		 # 	collision with: 4 2 1 0  and 4 2 3 0 
322483		 # 	collision with: 3 3 0 0  and 10 0 1 0 
322488		 # 	collision with: 0 9 0 0  and 2 9 0 0 
322536		 # 	collision with: 3 4 0 0  and 4 4 0 0 
322538		 # 	collision with: 3 1 1 0  and 1 2 2 0 
322553		 # 	collision with: 10 2 0 0  and 2 3 0 0 
322555		 # 	collision with: 8 3 0 0  and 9 8 1 0 
322584		 # 	collision with: 4 1 0 0  and 6 1 0 0 
322586		 # 	collision with: 2 3 1 0  and 2 5 1 0 
322589		 # 	collision with: 4 1 0 0  and 6 1 0 0 
322591		 # 	collision with: 6 3 0 0  and 9 0 1 0 
322629		 # 	collision with: 3 4 0 0  and 4 4 0 0 
322631		 # 	collision with: 10 10 0 0  and 2 1 1 0 
322632		 # 	collision with: 0 10 0 0  and 1 10 0 0 
322634		 # 	collision with: 4 1 0 0  and 6 1 1 0 
322665		 # 	collision with: 0 2 0 0  and 8 3 0 0 
322667		 # 	collision with: 8 3 0 0  and 7 0 1 0 
322680		 # 	collision with: 1 7 0 0  and 3 7 0 0 
322682		 # 	collision with: 3 0 0 0  and 1 3 1 0 
322728		 # 	collision with: 4 2 0 0  and 5 2 0 0 
322730		 # 	collision with: 0 0 0 0  and 3 2 1 0 
322737		 # 	collision with: 3 3 0 0  and 5 3 0 0 
322739		 # 	collision with: 0 0 0 0  and 9 1 1 0 
322745		 # 	collision with: 9 1 0 0  and 4 2 2 0 
322747		 # 	collision with: 0 3 0 0  and 7 0 1 0 
322776		 # 	collision with: 3 3 0 0  and 5 3 0 0 
322778		 # 	collision with: 8 0 0 0  and 9 7 1 0 
322805		 # 	collision with: 3 4 0 0  and 4 4 0 0 
322807		 # 	collision with: 7 10 0 0  and 9 1 1 0 
322824		 # 	collision with: 2 6 0 0  and 3 6 0 0 
322826		 # 	collision with: 6 7 0 0  and 1 3 1 0 
322828		 # 	collision with: 4 9 7 0  and 0 0 0 1 
322830		 # 	collision with: 8 3 0 0  and 1 7 1 0 
322832		 # 	collision with: 3 4 0 0  and 4 4 0 0 
322834		 # 	collision with: 10 10 1 0  and 3 6 2 0 
322836		 # 	collision with: 4 2 0 0  and 5 2 0 0 
322840		 # 	collision with: 2 5 0 0  and 4 5 0 0 
322842		 # 	collision with: 9 0 0 0  and 2 5 1 0 
322844		 # 	collision with: 4 1 0 0  and 6 1 0 0 
322846		 # 	collision with: 2 1 1 0  and 2 3 1 0 
322848		 # 	collision with: 3 3 0 0  and 5 3 0 0 
322850		 # 	collision with: 6 8 0 0  and 10 7 1 0 
322852		 # 	collision with: 1 8 0 0  and 2 8 0 0 
322854		 # 	collision with: 10 0 0 0  and 3 3 1 0 
322856		 # 	collision with: 0 10 0 0  and 1 10 0 0 
322858		 # 	collision with: 3 7 0 0  and 7 0 1 0 
322860		 # 	collision with: 2 6 0 0  and 3 6 0 0 
322862		 # 	collision with: 2 10 1 0  and 6 3 2 0 
322864		 # 	collision with: 0 9 0 0  and 2 9 0 0 
322866		 # 	collision with: 9 0 0 0  and 2 10 1 0 
322868		 # 	collision with: 1 7 0 0  and 3 7 0 0 
322870		 # 	collision with: 7 4 1 0  and 0 4 2 0 
322876		 # 	collision with: 3 4 0 0  and 4 4 0 0 
322878		 # 	collision with: 2 7 0 0  and 7 2 2 0 
322897		 # 	collision with: 3 3 0 0  and 5 3 0 0 
322899		 # 	collision with: 2 3 0 0  and 8 1 1 0 
322924		 # 	collision with: 4 2 0 0  and 5 2 0 0 
322926		 # 	collision with: 10 8 0 0  and 1 2 1 0 
322957		 # 	collision with: 0 9 0 0  and 2 9 0 0 
322959		 # 	collision with: 3 6 0 0  and 2 4 1 0 
322965		 # 	collision with: 1 6 0 0  and 1 6 1 0 
322967		 # 	collision with: 2 1 0 0  and 2 3 0 0 
322972		 # 	collision with: 2 5 0 0  and 4 5 0 0 
322974		 # 	collision with: 6 4 1 0  and 4 7 2 0 
323020		 # 	collision with: 4 1 0 0  and 6 1 0 0 
323022		 # 	collision with: 2 1 1 0  and 2 3 1 0 
323037		 # 	collision with: 0 1 0 0  and 8 3 0 0 
323039		 # 	collision with: 5 8 0 0  and 6 6 1 0 
323068		 # 	collision with: 3 3 0 0  and 5 3 0 0 
323070		 # 	collision with: 3 10 0 0  and 3 10 1 0 
323073		 # 	collision with: 3 3 0 0  and 5 3 0 0 
323075		 # 	collision with: 4 1 2 0  and 6 1 2 0 
323113		 # 	collision with: 4 1 0 0  and 6 1 0 0 
323115		 # 	collision with: 2 4 1 0  and 2 3 2 0 
323116		 # 	collision with: 1 8 0 0  and 2 8 0 0 
323118		 # 	collision with: 5 10 1 0  and 3 2 2 0 
323149		 # 	collision with: 4 2 0 0  and 5 2 0 0 
323151		 # 	collision with: 2 4 0 0  and 2 3 1 0 
323164		 # 	collision with: 0 10 0 0  and 1 10 0 0 
323166		 # 	collision with: 6 2 0 0  and 4 3 1 0 
323212		 # 	collision with: 2 6 0 0  and 3 6 0 0 
323214		 # 	collision with: 10 4 0 0  and 4 3 1 0 
323221		 # 	collision with: 0 9 0 0  and 2 9 0 0 
323223		 # 	collision with: 3 7 0 0  and 8 3 1 0 
323229		 # 	collision with: 4 6 0 0  and 4 6 1 0 
323231		 # 	collision with: 2 1 0 0  and 2 3 0 0 
323260		 # 	collision with: 0 9 0 0  and 2 9 0 0 
323289		 # 	collision with: 4 1 0 0  and 6 1 0 0 
323291		 # 	collision with: 3 4 1 0  and 4 4 1 0 
323308		 # 	collision with: 1 7 0 0  and 3 7 0 0 
323310		 # 	collision with: 7 5 0 0  and 10 5 1 0 
323312		 # 	collision with: 6 5 5 0  and 7 0 0 1 
323314		 # 	collision with: 2 6 0 0  and 5 4 1 0 
323316		 # 	collision with: 3 3 0 0  and 5 3 0 0 
323318		 # 	collision with: 9 9 1 0  and 1 0 2 0 
323320		 # 	collision with: 1 7 0 0  and 3 7 0 0 
323322		 # 	collision with: 6 7 0 0  and 1 3 2 0 
323324		 # 	collision with: 4 1 0 0  and 6 1 0 0 
323326		 # 	collision with: 2 5 1 0  and 2 6 1 0 
323328		 # 	collision with: 0 9 0 0  and 2 9 0 0 
323330		 # 	collision with: 7 6 1 0  and 10 7 2 0 
323332		 # 	collision with: 2 5 0 0  and 4 5 0 0 
323334		 # 	collision with: 6 0 0 0  and 9 3 1 0 
323336		 # 	collision with: 2 6 0 0  and 3 6 0 0 
323338		 # 	collision with: 5 2 0 0  and 8 0 1 0 
323340		 # 	collision with: 4 2 0 0  and 5 2 0 0 
323344		 # 	collision with: 0 10 0 0  and 1 10 0 0 
323346		 # 	collision with: 5 8 0 0  and 8 3 1 0 
323348		 # 	collision with: 3 4 0 0  and 4 4 0 0 
323350		 # 	collision with: 7 9 0 0  and 10 2 1 0 
323352		 # 	collision with: 1 8 0 0  and 2 8 0 0 
323354		 # 	collision with: 8 8 0 0  and 0 10 1 0 
323360		 # 	collision with: 3 3 0 0  and 5 3 0 0 
323362		 # 	collision with: 1 3 0 0  and 6 7 2 0 
323381		 # 	collision with: 2 5 0 0  and 4 5 0 0 
323383		 # 	collision with: 10 1 1 0  and 3 0 2 0 
323408		 # 	collision with: 1 7 0 0  and 3 7 0 0 
323410		 # 	collision with: 10 4 0 0  and 1 1 2 0 
323441		 # 	collision with: 3 4 0 0  and 4 4 0 0 
323443		 # 	collision with: 2 2 2 0  and 2 3 2 0 
323449		 # 	collision with: 8 1 1 0  and 4 3 2 0 
323451		 # 	collision with: 8 6 0 0  and 8 6 1 0 
323456		 # 	collision with: 4 1 0 0  and 6 1 0 0 
323458		 # 	collision with: 2 5 1 0  and 2 6 1 0 
323504		 # 	collision with: 0 9 0 0  and 2 9 0 0 
323521		 # 	collision with: 1 1 0 0  and 4 2 0 0 
323523		 # 	collision with: 10 10 1 0  and 8 1 2 0 
323552		 # 	collision with: 2 5 0 0  and 4 5 0 0 
323554		 # 	collision with: 5 2 1 0  and 8 0 2 0 
323557		 # 	collision with: 2 5 0 0  and 4 5 0 0 
323597		 # 	collision with: 0 9 0 0  and 2 9 0 0 
323599		 # 	collision with: 5 2 0 0  and 1 3 1 0 
323600		 # 	collision with: 2 6 0 0  and 3 6 0 0 
323602		 # 	collision with: 5 7 1 0  and 8 8 2 0 
323633		 # 	collision with: 5 1 0 0  and 2 2 0 0 
323635		 # 	collision with: 7 1 0 0  and 8 2 1 0 
323648		 # 	collision with: 4 2 0 0  and 5 2 0 0 
323650		 # 	collision with: 2 2 0 0  and 2 0 1 0 
323696		 # 	collision with: 0 10 0 0  and 1 10 0 0 
323698		 # 	collision with: 2 3 1 0  and 9 0 2 0 
323705		 # 	collision with: 3 4 0 0  and 4 4 0 0 
323707		 # 	collision with: 10 9 0 0  and 5 5 1 0 
323713		 # 	collision with: 7 4 0 0  and 10 1 1 0 
323715		 # 	collision with: 10 6 0 0  and 10 6 1 0 
323744		 # 	collision with: 3 4 0 0  and 4 4 0 0 
323746		 # 	collision with: 4 8 0 0  and 4 8 1 0 
323773		 # 	collision with: 0 9 0 0  and 2 9 0 0 
323792		 # 	collision with: 1 8 0 0  and 2 8 0 0 
323794		 # 	collision with: 1 7 1 0  and 3 7 1 0 
323796		 # 	collision with: 6 9 8 0  and 9 3 0 1 
323798		 # 	collision with: 0 9 0 0  and 2 6 1 0 
323800		 # 	collision with: 4 2 0 0  and 5 2 0 0 
323804		 # 	collision with: 4 1 0 0  and 6 1 0 0 
323806		 # 	collision with: 2 3 1 0  and 2 4 1 0 
323808		 # 	collision with: 1 8 0 0  and 2 8 0 0 
323810		 # 	collision with: 3 8 2 0  and 5 1 3 0 
323812		 # 	collision with: 2 6 0 0  and 3 6 0 0 
323814		 # 	collision with: 7 9 0 0  and 9 5 1 0 
323816		 # 	collision with: 1 7 0 0  and 3 7 0 0 
323818		 # 	collision with: 3 0 0 0  and 5 2 1 0 
323820		 # 	collision with: 3 4 0 0  and 4 4 0 0 
323822		 # 	collision with: 1 3 0 0  and 3 0 1 0 
323824		 # 	collision with: 2 5 0 0  and 4 5 0 0 
323826		 # 	collision with: 4 2 0 0  and 6 7 1 0 
323828		 # 	collision with: 3 3 0 0  and 5 3 0 0 
323830		 # 	collision with: 1 4 0 0  and 5 9 2 0 
323832		 # 	collision with: 0 10 0 0  and 1 10 0 0 
323834		 # 	collision with: 4 10 1 0  and 6 0 2 0 
323836		 # 	collision with: 0 9 0 0  and 2 9 0 0 
323838		 # 	collision with: 8 6 1 0  and 10 0 2 0 
323844		 # 	collision with: 4 2 0 0  and 5 2 0 0 
323846		 # 	collision with: 2 10 0 0  and 2 3 1 0 
323865		 # 	collision with: 1 7 0 0  and 3 7 0 0 
323867		 # 	collision with: 2 0 0 0  and 2 2 0 0 
323892		 # 	collision with: 4 1 0 0  and 6 1 0 0 
323894		 # 	collision with: 2 3 1 0  and 2 4 1 0 
323925		 # 	collision with: 0 10 0 0  and 1 10 0 0 
323927		 # 	collision with: 3 1 0 0  and 5 6 2 0 
323933		 # 	collision with: 8 3 0 0  and 0 7 2 0 
323935		 # 	collision with: 3 6 0 0  and 2 2 2 0 
323940		 # 	collision with: 1 8 0 0  and 2 8 0 0 
323942		 # 	collision with: 10 8 0 0  and 3 1 1 0 
323988		 # 	collision with: 2 6 0 0  and 3 6 0 0 
323990		 # 	collision with: 3 10 0 0  and 1 4 1 0 
18.6394secs	11835
