# prime 11
# degree 2
# input variables 3
# output variables 7
# reload computed balance functions from file balance-20of3248-p11d2m3-debug.log
# p = 11
# n = 7
# smalldomain p^m 1331
# domain p^n 19487171
#	 p^2 = 121
#	 p^3 = 1331
#	 p^4 = 14641
#	 p^5 = 161051
#	 p^6 = 1771561
#	 p^7 = 19487171
#	 p^8 = 214358881
#	 p^9 = 2357947691
opening file : balance-20of3248-p11d2m3-debug.log
reloading for step2...
120025		 # 	collision with: 2 0 0 0 0 0 0  and 4 0 0 0 0 0 0 
 # max = 4
120027		 # 	collision with: 1 0 2 0 0 0 0  and 1 0 4 0 0 0 0 
 # max = 485
120032		 # 	collision with: 5 5 7 1 1 8 0  and 2 0 0 0 1 0 1 
 # max = 1786204
120034		 # 	collision with: 5 2 2 2 0 0 0  and 10 0 2 0 0 1 0 
 # max = 1786204
120036		 # 	collision with: 9 0 5 0 0 0 0  and 0 1 5 0 0 0 0 
 # max = 1786204
120040		 # 	collision with: 10 0 8 0 0 0 0  and 0 1 8 0 0 0 0 
 # max = 1786204
120042		 # 	collision with: 5 10 0 8 0 0 0  and 5 0 1 8 0 0 0 
 # max = 1786204
120044		 # 	collision with: 3 0 9 0 0 0 0  and 0 1 9 0 0 0 0 
 # max = 1786204
120046		 # 	collision with: 5 0 9 0 0 0 0  and 5 1 9 0 0 0 0 
 # max = 1786204
120048		 # 	collision with: 5 0 4 0 0 0 0  and 0 1 4 0 0 0 0 
 # max = 1786204
120050		 # 	collision with: 5 5 0 4 0 0 0  and 5 0 1 4 0 0 0 
 # max = 1786204
120052		 # 	collision with: 4 0 1 0 0 0 0  and 0 1 1 0 0 0 0 
 # max = 1786204
120054		 # 	collision with: 5 4 0 1 0 0 0  and 5 0 1 1 0 0 0 
 # max = 1786204
120056		 # 	collision with: 7 0 10 0 0 0 0  and 0 1 10 0 0 0 0 
 # max = 1786204
120058		 # 	collision with: 5 7 0 10 0 0 0  and 5 0 1 10 0 0 0 
 # max = 1786204
120060		 # 	collision with: 6 0 7 0 0 0 0  and 0 1 7 0 0 0 0 
 # max = 1786204
120062		 # 	collision with: 5 6 0 7 0 0 0  and 5 0 1 7 0 0 0 
 # max = 1786204
120064		 # 	collision with: 8 0 2 0 0 0 0  and 0 1 2 0 0 0 0 
 # max = 1786204
120066		 # 	collision with: 5 0 2 0 0 0 0  and 5 1 2 0 0 0 0 
 # max = 1786204
120068		 # 	collision with: 1 0 3 0 0 0 0  and 0 1 3 0 0 0 0 
 # max = 1786204
120070		 # 	collision with: 5 1 0 3 0 0 0  and 5 0 1 3 0 0 0 
 # max = 1786204
120072		 # 	collision with: 2 0 6 0 0 0 0  and 0 1 6 0 0 0 0 
 # max = 1786204
120074		 # 	collision with: 5 2 0 6 0 0 0  and 5 0 1 6 0 0 0 
 # max = 1786204
120076		 # 	collision with: 0 0 5 0 0 0 0  and 1 0 5 0 0 0 0 
 # max = 1786204
120078		 # 	collision with: 5 0 0 5 0 0 0  and 5 1 0 5 0 0 0 
 # max = 1786204
120085		 # 	collision with: 2 0 0 0 0 0 0  and 3 0 0 0 0 0 0 
 # max = 1786204
120087		 # 	collision with: 10 0 2 0 0 0 0  and 10 0 3 0 0 0 0 
 # max = 1786204
120120		 # 	collision with: 0 0 8 0 0 0 0  and 1 0 8 0 0 0 0 
 # max = 1786204
120122		 # 	collision with: 5 0 0 8 0 0 0  and 5 1 0 8 0 0 0 
 # max = 1786204
120125		 # 	collision with: 2 0 0 0 0 0 0  and 3 0 0 0 0 0 0 
 # max = 1786204
120164		 # 	collision with: 0 0 9 0 0 0 0  and 1 0 9 0 0 0 0 
 # max = 1786204
120166		 # 	collision with: 5 0 0 9 0 0 0  and 5 1 0 9 0 0 0 
 # max = 1786204
120197		 # 	collision with: 2 0 0 0 0 0 0  and 3 0 0 0 0 0 0 
 # max = 1786204
120199		 # 	collision with: 5 5 2 0 0 0 0  and 5 6 2 0 0 0 0 
 # max = 1786204
120208		 # 	collision with: 0 0 4 0 0 0 0  and 1 0 4 0 0 0 0 
 # max = 1786204
120210		 # 	collision with: 5 0 0 4 0 0 0  and 5 1 0 4 0 0 0 
 # max = 1786204
120233		 # 	collision with: 2 0 0 0 0 0 0  and 3 0 0 0 0 0 0 
 # max = 1786204
120235		 # 	collision with: 8 0 2 0 0 0 0  and 8 0 3 0 0 0 0 
 # max = 1786204
120252		 # 	collision with: 0 0 1 0 0 0 0  and 1 0 1 0 0 0 0 
 # max = 1786204
120254		 # 	collision with: 5 0 0 1 0 0 0  and 5 1 0 1 0 0 0 
 # max = 1786204
120281		 # 	collision with: 2 0 0 0 0 0 0  and 3 0 0 0 0 0 0 
 # max = 1786204
120283		 # 	collision with: 2 0 2 0 0 0 0  and 2 0 3 0 0 0 0 
 # max = 1786204
120296		 # 	collision with: 0 0 10 0 0 0 0  and 1 0 10 0 0 0 0 
 # max = 1786204
120298		 # 	collision with: 5 0 0 10 0 0 0  and 5 1 0 10 0 0 0 
 # max = 1786204
120313		 # 	collision with: 2 0 0 0 0 0 0  and 3 0 0 0 0 0 0 
 # max = 1786204
120315		 # 	collision with: 5 0 1 0 0 0 0  and 5 1 1 0 0 0 0 
 # max = 1786204
120340		 # 	collision with: 0 0 7 0 0 0 0  and 1 0 7 0 0 0 0 
 # max = 1786204
120342		 # 	collision with: 5 0 0 7 0 0 0  and 5 1 0 7 0 0 0 
 # max = 1786204
120361		 # 	collision with: 2 0 0 0 0 0 0  and 3 0 0 0 0 0 0 
 # max = 1786204
120363		 # 	collision with: 3 0 2 0 0 0 0  and 3 0 3 0 0 0 0 
 # max = 1786204
120384		 # 	collision with: 0 0 2 0 0 0 0  and 1 0 2 0 0 0 0 
 # max = 1786204
120386		 # 	collision with: 5 0 0 2 0 0 0  and 5 1 0 2 0 0 0 
 # max = 1786204
120397		 # 	collision with: 2 0 0 0 0 0 0  and 3 0 0 0 0 0 0 
 # max = 1786204
120399		 # 	collision with: 4 0 2 0 0 0 0  and 4 0 3 0 0 0 0 
 # max = 1786204
120428		 # 	collision with: 0 0 3 0 0 0 0  and 1 0 3 0 0 0 0 
 # max = 1786204
120430		 # 	collision with: 5 0 0 3 0 0 0  and 5 1 0 3 0 0 0 
 # max = 1786204
120469		 # 	collision with: 2 0 0 0 0 0 0  and 3 0 0 0 0 0 0 
 # max = 1786204
120471		 # 	collision with: 6 0 2 0 0 0 0  and 6 0 3 0 0 0 0 
 # max = 1786204
120472		 # 	collision with: 0 0 6 0 0 0 0  and 1 0 6 0 0 0 0 
 # max = 1786204
120474		 # 	collision with: 5 0 0 6 0 0 0  and 5 1 0 6 0 0 0 
 # max = 1786204
120509		 # 	collision with: 2 0 0 0 0 0 0  and 3 0 0 0 0 0 0 
 # max = 1786204
120511		 # 	collision with: 1 0 2 0 0 0 0  and 1 0 3 0 0 0 0 
 # max = 1786204
120516		 # 	collision with: 9 1 1 2 1 4 0  and 3 0 0 0 1 0 1 
 # max = 1786205
120518		 # 	collision with: 4 8 1 2 1 0 0  and 8 1 0 0 1 1 0 
 # max = 1786205
120520		 # 	collision with: 9 0 4 0 0 0 0  and 0 1 4 0 0 0 0 
 # max = 1786205
120522		 # 	collision with: 5 9 0 4 0 0 0  and 5 0 1 4 0 0 0 
 # max = 1786205
120524		 # 	collision with: 10 0 2 0 0 0 0  and 0 1 2 0 0 0 0 
 # max = 1786205
120526		 # 	collision with: 5 10 0 2 0 0 0  and 5 0 1 2 0 0 0 
 # max = 1786205
120528		 # 	collision with: 3 0 5 0 0 0 0  and 0 1 5 0 0 0 0 
 # max = 1786205
120532		 # 	collision with: 5 0 1 0 0 0 0  and 0 1 1 0 0 0 0 
 # max = 1786205
120534		 # 	collision with: 5 0 1 0 0 0 0  and 5 1 1 0 0 0 0 
 # max = 1786205
120536		 # 	collision with: 4 0 3 0 0 0 0  and 0 1 3 0 0 0 0 
 # max = 1786205
120538		 # 	collision with: 5 4 0 3 0 0 0  and 5 0 1 3 0 0 0 
 # max = 1786205
120540		 # 	collision with: 7 0 8 0 0 0 0  and 0 1 8 0 0 0 0 
 # max = 1786205
120542		 # 	collision with: 5 7 0 8 0 0 0  and 5 0 1 8 0 0 0 
 # max = 1786205
120544		 # 	collision with: 6 0 10 0 0 0 0  and 0 1 10 0 0 0 0 
 # max = 1786205
120546		 # 	collision with: 5 0 10 0 0 0 0  and 5 1 10 0 0 0 0 
 # max = 1786205
120548		 # 	collision with: 8 0 6 0 0 0 0  and 0 1 6 0 0 0 0 
 # max = 1786205
120550		 # 	collision with: 5 8 0 6 0 0 0  and 5 0 1 6 0 0 0 
 # max = 1786205
120552		 # 	collision with: 1 0 9 0 0 0 0  and 0 1 9 0 0 0 0 
 # max = 1786205
120554		 # 	collision with: 5 1 0 9 0 0 0  and 5 0 1 9 0 0 0 
 # max = 1786205
120556		 # 	collision with: 2 0 7 0 0 0 0  and 0 1 7 0 0 0 0 
 # max = 1786205
120558		 # 	collision with: 5 2 0 7 0 0 0  and 5 0 1 7 0 0 0 
 # max = 1786205
120560		 # 	collision with: 0 0 4 0 0 0 0  and 1 0 4 0 0 0 0 
 # max = 1786205
120562		 # 	collision with: 5 0 0 4 0 0 0  and 5 1 0 4 0 0 0 
 # max = 1786205
120569		 # 	collision with: 0 0 0 0 0 0 0  and 4 0 0 0 0 0 0 
 # max = 1786205
120571		 # 	collision with: 10 0 1 0 0 0 0  and 10 0 3 0 0 0 0 
 # max = 1786205
120604		 # 	collision with: 0 0 2 0 0 0 0  and 1 0 2 0 0 0 0 
 # max = 1786205
120606		 # 	collision with: 5 0 0 2 0 0 0  and 5 1 0 2 0 0 0 
 # max = 1786205
120609		 # 	collision with: 0 0 0 0 0 0 0  and 4 0 0 0 0 0 0 
 # max = 1786205
120611		 # 	collision with: 5 0 1 0 0 0 0  and 5 0 3 0 0 0 0 
 # max = 1786205
120648		 # 	collision with: 0 0 5 0 0 0 0  and 1 0 5 0 0 0 0 
 # max = 1786205
120650		 # 	collision with: 5 0 0 5 0 0 0  and 5 1 0 5 0 0 0 
 # max = 1786205
120681		 # 	collision with: 0 0 0 0 0 0 0  and 4 0 0 0 0 0 0 
 # max = 1786205
120683		 # 	collision with: 5 4 2 0 0 0 0  and 5 6 2 0 0 0 0 
 # max = 1786205
120692		 # 	collision with: 0 0 1 0 0 0 0  and 1 0 1 0 0 0 0 
 # max = 1786205
120694		 # 	collision with: 5 0 0 1 0 0 0  and 5 1 0 1 0 0 0 
 # max = 1786205
120717		 # 	collision with: 0 0 0 0 0 0 0  and 4 0 0 0 0 0 0 
 # max = 1786205
120719		 # 	collision with: 8 0 1 0 0 0 0  and 8 0 3 0 0 0 0 
 # max = 1786205
120736		 # 	collision with: 0 0 3 0 0 0 0  and 1 0 3 0 0 0 0 
 # max = 1786205
120738		 # 	collision with: 5 0 0 3 0 0 0  and 5 1 0 3 0 0 0 
 # max = 1786205
120765		 # 	collision with: 0 0 0 0 0 0 0  and 4 0 0 0 0 0 0 
 # max = 1786205
120767		 # 	collision with: 2 0 1 0 0 0 0  and 2 0 3 0 0 0 0 
 # max = 1786205
120780		 # 	collision with: 0 0 8 0 0 0 0  and 1 0 8 0 0 0 0 
 # max = 1786205
120782		 # 	collision with: 5 0 0 8 0 0 0  and 5 1 0 8 0 0 0 
 # max = 1786205
120797		 # 	collision with: 0 0 0 0 0 0 0  and 4 0 0 0 0 0 0 
 # max = 1786205
120799		 # 	collision with: 5 5 1 0 0 0 0  and 5 6 1 0 0 0 0 
 # max = 1786205
120824		 # 	collision with: 0 0 10 0 0 0 0  and 1 0 10 0 0 0 0 
 # max = 1786205
120826		 # 	collision with: 5 0 0 10 0 0 0  and 5 1 0 10 0 0 0 
 # max = 1786205
120845		 # 	collision with: 0 0 0 0 0 0 0  and 4 0 0 0 0 0 0 
 # max = 1786205
120847		 # 	collision with: 3 0 1 0 0 0 0  and 3 0 3 0 0 0 0 
 # max = 1786205
120868		 # 	collision with: 0 0 6 0 0 0 0  and 1 0 6 0 0 0 0 
 # max = 1786205
120870		 # 	collision with: 5 0 0 6 0 0 0  and 5 1 0 6 0 0 0 
 # max = 1786205
120881		 # 	collision with: 0 0 0 0 0 0 0  and 4 0 0 0 0 0 0 
 # max = 1786205
120912		 # 	collision with: 0 0 9 0 0 0 0  and 1 0 9 0 0 0 0 
 # max = 1786205
120914		 # 	collision with: 5 0 0 9 0 0 0  and 5 1 0 9 0 0 0 
 # max = 1786205
120953		 # 	collision with: 0 0 0 0 0 0 0  and 4 0 0 0 0 0 0 
 # max = 1786205
120955		 # 	collision with: 6 0 1 0 0 0 0  and 6 0 3 0 0 0 0 
 # max = 1786205
120956		 # 	collision with: 0 0 7 0 0 0 0  and 1 0 7 0 0 0 0 
 # max = 1786205
120958		 # 	collision with: 5 0 0 7 0 0 0  and 5 1 0 7 0 0 0 
 # max = 1786205
120993		 # 	collision with: 0 0 0 0 0 0 0  and 4 0 0 0 0 0 0 
 # max = 1786205
120995		 # 	collision with: 1 0 1 0 0 0 0  and 1 0 3 0 0 0 0 
 # max = 1786205
121000		 # 	collision with: 0 3 1 7 1 5 0  and 9 2 0 0 1 0 1 
 # max = 1786233
121002		 # 	collision with: 3 9 3 10 1 0 0  and 6 4 0 0 1 1 0 
 # max = 1786233
121004		 # 	collision with: 9 0 3 0 0 0 0  and 0 1 3 0 0 0 0 
 # max = 1786233
121006		 # 	collision with: 5 0 3 0 0 0 0  and 5 1 3 0 0 0 0 
 # max = 1786233
121008		 # 	collision with: 10 0 7 0 0 0 0  and 0 1 7 0 0 0 0 
 # max = 1786233
121010		 # 	collision with: 5 10 0 7 0 0 0  and 5 0 1 7 0 0 0 
 # max = 1786233
121012		 # 	collision with: 3 0 1 0 0 0 0  and 0 1 1 0 0 0 0 
 # max = 1786233
121014		 # 	collision with: 5 3 0 1 0 0 0  and 5 0 1 1 0 0 0 
 # max = 1786233
121016		 # 	collision with: 5 0 9 0 0 0 0  and 0 1 9 0 0 0 0 
 # max = 1786233
121018		 # 	collision with: 5 5 0 9 0 0 0  and 5 0 1 9 0 0 0 
 # max = 1786233
121020		 # 	collision with: 4 0 5 0 0 0 0  and 0 1 5 0 0 0 0 
 # max = 1786233
121024		 # 	collision with: 7 0 6 0 0 0 0  and 0 1 6 0 0 0 0 
 # max = 1786233
121026		 # 	collision with: 5 7 0 6 0 0 0  and 5 0 1 6 0 0 0 
 # max = 1786233
121028		 # 	collision with: 6 0 2 0 0 0 0  and 0 1 2 0 0 0 0 
 # max = 1786233
121030		 # 	collision with: 5 6 0 2 0 0 0  and 5 0 1 2 0 0 0 
 # max = 1786233
121032		 # 	collision with: 8 0 10 0 0 0 0  and 0 1 10 0 0 0 0 
 # max = 1786233
121034		 # 	collision with: 5 8 0 10 0 0 0  and 5 0 1 10 0 0 0 
 # max = 1786233
121036		 # 	collision with: 1 0 4 0 0 0 0  and 0 1 4 0 0 0 0 
 # max = 1786233
121038		 # 	collision with: 5 1 0 4 0 0 0  and 5 0 1 4 0 0 0 
 # max = 1786233
121040		 # 	collision with: 2 0 8 0 0 0 0  and 0 1 8 0 0 0 0 
 # max = 1786233
121042		 # 	collision with: 5 0 8 0 0 0 0  and 5 1 8 0 0 0 0 
 # max = 1786233
121044		 # 	collision with: 0 0 3 0 0 0 0  and 1 0 3 0 0 0 0 
 # max = 1786233
121046		 # 	collision with: 5 0 0 3 0 0 0  and 5 1 0 3 0 0 0 
 # max = 1786233
121053		 # 	collision with: 0 0 0 0 0 0 0  and 3 0 0 0 0 0 0 
 # max = 1786233
121055		 # 	collision with: 10 0 1 0 0 0 0  and 10 0 2 0 0 0 0 
 # max = 1786233
121088		 # 	collision with: 0 0 7 0 0 0 0  and 1 0 7 0 0 0 0 
 # max = 1786233
121090		 # 	collision with: 5 0 0 7 0 0 0  and 5 1 0 7 0 0 0 
 # max = 1786233
121093		 # 	collision with: 0 0 0 0 0 0 0  and 3 0 0 0 0 0 0 
 # max = 1786233
121095		 # 	collision with: 5 0 1 0 0 0 0  and 5 0 2 0 0 0 0 
 # max = 1786233
121132		 # 	collision with: 0 0 1 0 0 0 0  and 1 0 1 0 0 0 0 
 # max = 1786233
121134		 # 	collision with: 5 0 0 1 0 0 0  and 5 1 0 1 0 0 0 
 # max = 1786233
121165		 # 	collision with: 0 0 0 0 0 0 0  and 3 0 0 0 0 0 0 
 # max = 1786233
121167		 # 	collision with: 7 0 1 0 0 0 0  and 7 0 2 0 0 0 0 
 # max = 1786233
121176		 # 	collision with: 0 0 9 0 0 0 0  and 1 0 9 0 0 0 0 
 # max = 1786233
121178		 # 	collision with: 5 0 0 9 0 0 0  and 5 1 0 9 0 0 0 
 # max = 1786233
121201		 # 	collision with: 0 0 0 0 0 0 0  and 3 0 0 0 0 0 0 
 # max = 1786233
121203		 # 	collision with: 8 0 1 0 0 0 0  and 8 0 2 0 0 0 0 
 # max = 1786233
121220		 # 	collision with: 0 0 5 0 0 0 0  and 1 0 5 0 0 0 0 
 # max = 1786233
121222		 # 	collision with: 5 0 0 5 0 0 0  and 5 1 0 5 0 0 0 
 # max = 1786233
121249		 # 	collision with: 0 0 0 0 0 0 0  and 3 0 0 0 0 0 0 
 # max = 1786233
121251		 # 	collision with: 2 0 1 0 0 0 0  and 2 0 2 0 0 0 0 
 # max = 1786233
121264		 # 	collision with: 0 0 6 0 0 0 0  and 1 0 6 0 0 0 0 
 # max = 1786233
121266		 # 	collision with: 5 0 0 6 0 0 0  and 5 1 0 6 0 0 0 
 # max = 1786233
121281		 # 	collision with: 0 0 0 0 0 0 0  and 3 0 0 0 0 0 0 
 # max = 1786233
121283		 # 	collision with: 5 4 1 0 0 0 0  and 5 6 1 0 0 0 0 
 # max = 1786233
121308		 # 	collision with: 0 0 2 0 0 0 0  and 1 0 2 0 0 0 0 
 # max = 1786233
121310		 # 	collision with: 5 0 0 2 0 0 0  and 5 1 0 2 0 0 0 
 # max = 1786233
121329		 # 	collision with: 0 0 0 0 0 0 0  and 3 0 0 0 0 0 0 
 # max = 1786233
121352		 # 	collision with: 0 0 10 0 0 0 0  and 1 0 10 0 0 0 0 
 # max = 1786233
121354		 # 	collision with: 5 0 0 10 0 0 0  and 5 1 0 10 0 0 0 
 # max = 1786233
121365		 # 	collision with: 0 0 0 0 0 0 0  and 3 0 0 0 0 0 0 
 # max = 1786233
121367		 # 	collision with: 4 0 1 0 0 0 0  and 4 0 2 0 0 0 0 
 # max = 1786233
121396		 # 	collision with: 0 0 4 0 0 0 0  and 1 0 4 0 0 0 0 
 # max = 1786233
121398		 # 	collision with: 5 0 0 4 0 0 0  and 5 1 0 4 0 0 0 
 # max = 1786233
121437		 # 	collision with: 0 0 0 0 0 0 0  and 3 0 0 0 0 0 0 
 # max = 1786233
121439		 # 	collision with: 6 0 1 0 0 0 0  and 6 0 2 0 0 0 0 
 # max = 1786233
121440		 # 	collision with: 0 0 8 0 0 0 0  and 1 0 8 0 0 0 0 
 # max = 1786233
121442		 # 	collision with: 5 0 0 8 0 0 0  and 5 1 0 8 0 0 0 
 # max = 1786233
121477		 # 	collision with: 0 0 0 0 0 0 0  and 3 0 0 0 0 0 0 
 # max = 1786233
121479		 # 	collision with: 1 0 1 0 0 0 0  and 1 0 2 0 0 0 0 
 # max = 1786233
121484		 # 	collision with: 4 4 5 5 1 5 0  and 6 1 0 0 1 0 1 
 # max = 1786233
121486		 # 	collision with: 9 10 4 4 1 0 0  and 0 3 0 0 1 1 0 
 # max = 1786233
121488		 # 	collision with: 9 0 2 0 0 0 0  and 0 1 2 0 0 0 0 
 # max = 1786233
121490		 # 	collision with: 5 9 0 2 0 0 0  and 5 0 1 2 0 0 0 
 # max = 1786233
121492		 # 	collision with: 10 0 1 0 0 0 0  and 0 1 1 0 0 0 0 
 # max = 1786233
121494		 # 	collision with: 5 10 0 1 0 0 0  and 5 0 1 1 0 0 0 
 # max = 1786233
121496		 # 	collision with: 3 0 8 0 0 0 0  and 0 1 8 0 0 0 0 
 # max = 1786233
121498		 # 	collision with: 5 3 0 8 0 0 0  and 5 0 1 8 0 0 0 
 # max = 1786233
121500		 # 	collision with: 5 0 6 0 0 0 0  and 0 1 6 0 0 0 0 
 # max = 1786233
121502		 # 	collision with: 5 5 0 6 0 0 0  and 5 0 1 6 0 0 0 
 # max = 1786233
121504		 # 	collision with: 4 0 7 0 0 0 0  and 0 1 7 0 0 0 0 
 # max = 1786233
121506		 # 	collision with: 5 4 0 7 0 0 0  and 5 0 1 7 0 0 0 
 # max = 1786233
121508		 # 	collision with: 7 0 4 0 0 0 0  and 0 1 4 0 0 0 0 
 # max = 1786233
121510		 # 	collision with: 5 7 0 4 0 0 0  and 5 0 1 4 0 0 0 
 # max = 1786233
121512		 # 	collision with: 6 0 5 0 0 0 0  and 0 1 5 0 0 0 0 
 # max = 1786233
121516		 # 	collision with: 8 0 3 0 0 0 0  and 0 1 3 0 0 0 0 
 # max = 1786233
121518		 # 	collision with: 5 8 0 3 0 0 0  and 5 0 1 3 0 0 0 
 # max = 1786233
121520		 # 	collision with: 1 0 10 0 0 0 0  and 0 1 10 0 0 0 0 
 # max = 1786233
121522		 # 	collision with: 5 1 0 10 0 0 0  and 5 0 1 10 0 0 0 
 # max = 1786233
121524		 # 	collision with: 2 0 9 0 0 0 0  and 0 1 9 0 0 0 0 
 # max = 1786233
121526		 # 	collision with: 5 2 0 9 0 0 0  and 5 0 1 9 0 0 0 
 # max = 1786233
121528		 # 	collision with: 0 0 2 0 0 0 0  and 1 0 2 0 0 0 0 
 # max = 1786233
121530		 # 	collision with: 5 0 0 2 0 0 0  and 5 1 0 2 0 0 0 
 # max = 1786233
121537		 # 	collision with: 0 0 0 0 0 0 0  and 2 0 0 0 0 0 0 
 # max = 1786233
121539		 # 	collision with: 10 0 0 0 0 0 0  and 10 0 2 0 0 0 0 
 # max = 1786233
121572		 # 	collision with: 0 0 1 0 0 0 0  and 1 0 1 0 0 0 0 
 # max = 1786233
121574		 # 	collision with: 5 0 0 1 0 0 0  and 5 1 0 1 0 0 0 
 # max = 1786233
121577		 # 	collision with: 0 0 0 0 0 0 0  and 2 0 0 0 0 0 0 
 # max = 1786233
121579		 # 	collision with: 5 0 0 0 0 0 0  and 5 0 2 0 0 0 0 
 # max = 1786233
121616		 # 	collision with: 0 0 8 0 0 0 0  and 1 0 8 0 0 0 0 
 # max = 1786233
121618		 # 	collision with: 5 0 0 8 0 0 0  and 5 1 0 8 0 0 0 
 # max = 1786233
121649		 # 	collision with: 0 0 0 0 0 0 0  and 2 0 0 0 0 0 0 
 # max = 1786233
121651		 # 	collision with: 7 0 0 0 0 0 0  and 7 0 2 0 0 0 0 
 # max = 1786233
121660		 # 	collision with: 0 0 6 0 0 0 0  and 1 0 6 0 0 0 0 
 # max = 1786233
121662		 # 	collision with: 5 0 0 6 0 0 0  and 5 1 0 6 0 0 0 
 # max = 1786233
121685		 # 	collision with: 0 0 0 0 0 0 0  and 2 0 0 0 0 0 0 
 # max = 1786233
121687		 # 	collision with: 8 0 0 0 0 0 0  and 8 0 2 0 0 0 0 
 # max = 1786233
121704		 # 	collision with: 0 0 7 0 0 0 0  and 1 0 7 0 0 0 0 
 # max = 1786233
121706		 # 	collision with: 5 0 0 7 0 0 0  and 5 1 0 7 0 0 0 
 # max = 1786233
121733		 # 	collision with: 0 0 0 0 0 0 0  and 2 0 0 0 0 0 0 
 # max = 1786233
121748		 # 	collision with: 0 0 4 0 0 0 0  and 1 0 4 0 0 0 0 
 # max = 1786233
121750		 # 	collision with: 5 0 0 4 0 0 0  and 5 1 0 4 0 0 0 
 # max = 1786233
121765		 # 	collision with: 0 0 0 0 0 0 0  and 2 0 0 0 0 0 0 
 # max = 1786233
121767		 # 	collision with: 5 4 1 0 0 0 0  and 5 5 1 0 0 0 0 
 # max = 1786233
121792		 # 	collision with: 0 0 5 0 0 0 0  and 1 0 5 0 0 0 0 
 # max = 1786233
121794		 # 	collision with: 5 0 0 5 0 0 0  and 5 1 0 5 0 0 0 
 # max = 1786233
121813		 # 	collision with: 0 0 0 0 0 0 0  and 2 0 0 0 0 0 0 
 # max = 1786233
121815		 # 	collision with: 3 0 0 0 0 0 0  and 3 0 2 0 0 0 0 
 # max = 1786233
121836		 # 	collision with: 0 0 3 0 0 0 0  and 1 0 3 0 0 0 0 
 # max = 1786233
121838		 # 	collision with: 5 0 0 3 0 0 0  and 5 1 0 3 0 0 0 
 # max = 1786233
121849		 # 	collision with: 0 0 0 0 0 0 0  and 2 0 0 0 0 0 0 
 # max = 1786233
121851		 # 	collision with: 4 0 0 0 0 0 0  and 4 0 2 0 0 0 0 
 # max = 1786233
121880		 # 	collision with: 0 0 10 0 0 0 0  and 1 0 10 0 0 0 0 
 # max = 1786233
121882		 # 	collision with: 5 0 0 10 0 0 0  and 5 1 0 10 0 0 0 
 # max = 1786233
121921		 # 	collision with: 0 0 0 0 0 0 0  and 2 0 0 0 0 0 0 
 # max = 1786233
121923		 # 	collision with: 6 0 0 0 0 0 0  and 6 0 2 0 0 0 0 
 # max = 1786233
121924		 # 	collision with: 0 0 9 0 0 0 0  and 1 0 9 0 0 0 0 
 # max = 1786233
121926		 # 	collision with: 5 0 0 9 0 0 0  and 5 1 0 9 0 0 0 
 # max = 1786233
121961		 # 	collision with: 0 0 0 0 0 0 0  and 2 0 0 0 0 0 0 
 # max = 1786233
121963		 # 	collision with: 5 7 0 0 0 0 0  and 5 3 2 0 0 0 0 
 # max = 1786233
121968		 # 	collision with: 1 5 4 2 1 1 0  and 5 0 0 0 1 0 1 
 # max = 1786233
121970		 # 	collision with: 5 7 7 10 0 0 0  and 6 0 7 0 0 1 0 
 # max = 1786233
121972		 # 	collision with: 9 0 1 0 0 0 0  and 0 1 1 0 0 0 0 
 # max = 1786233
121974		 # 	collision with: 5 9 0 1 0 0 0  and 5 0 1 1 0 0 0 
 # max = 1786233
121976		 # 	collision with: 10 0 6 0 0 0 0  and 0 1 6 0 0 0 0 
 # max = 1786233
121978		 # 	collision with: 5 0 6 0 0 0 0  and 5 1 6 0 0 0 0 
 # max = 1786233
121980		 # 	collision with: 3 0 4 0 0 0 0  and 0 1 4 0 0 0 0 
 # max = 1786233
121982		 # 	collision with: 5 3 0 4 0 0 0  and 5 0 1 4 0 0 0 
 # max = 1786233
121984		 # 	collision with: 5 0 3 0 0 0 0  and 0 1 3 0 0 0 0 
 # max = 1786233
121986		 # 	collision with: 5 5 0 3 0 0 0  and 5 0 1 3 0 0 0 
 # max = 1786233
121988		 # 	collision with: 4 0 9 0 0 0 0  and 0 1 9 0 0 0 0 
 # max = 1786233
121990		 # 	collision with: 5 4 0 9 0 0 0  and 5 0 1 9 0 0 0 
 # max = 1786233
121992		 # 	collision with: 7 0 2 0 0 0 0  and 0 1 2 0 0 0 0 
 # max = 1786233
121994		 # 	collision with: 5 7 0 2 0 0 0  and 5 0 1 2 0 0 0 
 # max = 1786233
121996		 # 	collision with: 6 0 8 0 0 0 0  and 0 1 8 0 0 0 0 
 # max = 1786233
121998		 # 	collision with: 5 6 0 8 0 0 0  and 5 0 1 8 0 0 0 
 # max = 1786233
122000		 # 	collision with: 8 0 7 0 0 0 0  and 0 1 7 0 0 0 0 
 # max = 1786233
122002		 # 	collision with: 5 8 0 7 0 0 0  and 5 0 1 7 0 0 0 
 # max = 1786233
122004		 # 	collision with: 1 0 5 0 0 0 0  and 0 1 5 0 0 0 0 
 # max = 1786233
122008		 # 	collision with: 2 0 10 0 0 0 0  and 0 1 10 0 0 0 0 
 # max = 1786233
122010		 # 	collision with: 5 2 0 10 0 0 0  and 5 0 1 10 0 0 0 
 # max = 1786233
122012		 # 	collision with: 0 0 1 0 0 0 0  and 1 0 1 0 0 0 0 
 # max = 1786233
122014		 # 	collision with: 5 0 0 1 0 0 0  and 5 1 0 1 0 0 0 
 # max = 1786233
122021		 # 	collision with: 5 0 0 0 0 0 0  and 7 0 0 0 0 0 0 
 # max = 1786233
122023		 # 	collision with: 10 0 0 0 0 0 0  and 10 0 1 0 0 0 0 
 # max = 1786233
122056		 # 	collision with: 0 0 6 0 0 0 0  and 1 0 6 0 0 0 0 
 # max = 1786233
122058		 # 	collision with: 5 0 0 6 0 0 0  and 5 1 0 6 0 0 0 
 # max = 1786233
122061		 # 	collision with: 5 0 0 0 0 0 0  and 7 0 0 0 0 0 0 
 # max = 1786233
122063		 # 	collision with: 5 0 0 0 0 0 0  and 5 0 1 0 0 0 0 
 # max = 1786233
122100		 # 	collision with: 0 0 4 0 0 0 0  and 1 0 4 0 0 0 0 
 # max = 1786233
122102		 # 	collision with: 5 0 0 4 0 0 0  and 5 1 0 4 0 0 0 
 # max = 1786233
122133		 # 	collision with: 5 0 0 0 0 0 0  and 7 0 0 0 0 0 0 
 # max = 1786233
122135		 # 	collision with: 7 0 0 0 0 0 0  and 7 0 1 0 0 0 0 
 # max = 1786233
122144		 # 	collision with: 0 0 3 0 0 0 0  and 1 0 3 0 0 0 0 
 # max = 1786233
122146		 # 	collision with: 5 0 0 3 0 0 0  and 5 1 0 3 0 0 0 
 # max = 1786233
122169		 # 	collision with: 5 0 0 0 0 0 0  and 7 0 0 0 0 0 0 
 # max = 1786233
122171		 # 	collision with: 8 0 0 0 0 0 0  and 8 0 1 0 0 0 0 
 # max = 1786233
122188		 # 	collision with: 0 0 9 0 0 0 0  and 1 0 9 0 0 0 0 
 # max = 1786233
122190		 # 	collision with: 5 0 0 9 0 0 0  and 5 1 0 9 0 0 0 
 # max = 1786233
122217		 # 	collision with: 5 0 0 0 0 0 0  and 7 0 0 0 0 0 0 
 # max = 1786233
122219		 # 	collision with: 2 0 0 0 0 0 0  and 2 0 1 0 0 0 0 
 # max = 1786233
122232		 # 	collision with: 0 0 2 0 0 0 0  and 1 0 2 0 0 0 0 
 # max = 1786233
122234		 # 	collision with: 5 0 0 2 0 0 0  and 5 1 0 2 0 0 0 
 # max = 1786233
122249		 # 	collision with: 5 0 0 0 0 0 0  and 7 0 0 0 0 0 0 
 # max = 1786233
122251		 # 	collision with: 5 1 0 0 0 0 0  and 5 0 1 0 0 0 0 
 # max = 1786233
122276		 # 	collision with: 0 0 8 0 0 0 0  and 1 0 8 0 0 0 0 
 # max = 1786233
122278		 # 	collision with: 5 0 0 8 0 0 0  and 5 1 0 8 0 0 0 
 # max = 1786233
122297		 # 	collision with: 5 0 0 0 0 0 0  and 7 0 0 0 0 0 0 
 # max = 1786233
122299		 # 	collision with: 3 0 0 0 0 0 0  and 3 0 1 0 0 0 0 
 # max = 1786233
122320		 # 	collision with: 0 0 7 0 0 0 0  and 1 0 7 0 0 0 0 
 # max = 1786233
122322		 # 	collision with: 5 0 0 7 0 0 0  and 5 1 0 7 0 0 0 
 # max = 1786233
122333		 # 	collision with: 5 0 0 0 0 0 0  and 7 0 0 0 0 0 0 
 # max = 1786233
122335		 # 	collision with: 4 0 0 0 0 0 0  and 4 0 1 0 0 0 0 
 # max = 1786233
122364		 # 	collision with: 0 0 5 0 0 0 0  and 1 0 5 0 0 0 0 
 # max = 1786233
122366		 # 	collision with: 5 0 0 5 0 0 0  and 5 1 0 5 0 0 0 
 # max = 1786233
122405		 # 	collision with: 5 0 0 0 0 0 0  and 7 0 0 0 0 0 0 
 # max = 1786233
122407		 # 	collision with: 6 0 0 0 0 0 0  and 6 0 1 0 0 0 0 
 # max = 1786233
122408		 # 	collision with: 0 0 10 0 0 0 0  and 1 0 10 0 0 0 0 
 # max = 1786233
122410		 # 	collision with: 5 0 0 10 0 0 0  and 5 1 0 10 0 0 0 
 # max = 1786233
122445		 # 	collision with: 5 0 0 0 0 0 0  and 7 0 0 0 0 0 0 
 # max = 1786233
122458		 # 	collision with: 5 2 0 0 0 0 0  and 5 4 0 0 0 0 0 
 # max = 1786233
122462		 # 	collision with: 5 0 0 0 0 0 0  and 5 1 0 0 0 0 0 
 # max = 1786233
122466		 # 	collision with: 5 3 0 0 0 0 0  and 5 4 0 0 0 0 0 
 # max = 1786233
122470		 # 	collision with: 5 0 0 0 0 0 0  and 5 2 0 0 0 0 0 
 # max = 1786233
122474		 # 	collision with: 5 3 0 0 0 0 0  and 5 5 0 0 0 0 0 
 # max = 1786233
122478		 # 	collision with: 5 1 0 0 0 0 0  and 5 2 0 0 0 0 0 
 # max = 1786233
122482		 # 	collision with: 5 4 0 0 0 0 0  and 5 5 0 0 0 0 0 
 # max = 1786233
122486		 # 	collision with: 5 1 0 0 0 0 0  and 5 3 0 0 0 0 0 
 # max = 1786233
122490		 # 	collision with: 5 4 0 0 0 0 0  and 5 6 0 0 0 0 0 
 # max = 1786233
122494		 # 	collision with: 5 2 0 0 0 0 0  and 5 3 0 0 0 0 0 
 # max = 1786233
122522		 # 	collision with: 5 1 0 0 0 0 0  and 5 2 0 0 0 0 0 
 # max = 1786233
122531		 # 	collision with: 5 4 3 0 0 0 0  and 5 5 3 0 0 0 0 
 # max = 1786233
122546		 # 	collision with: 5 2 0 0 0 0 0  and 5 4 0 0 0 0 0 
 # max = 1786233
122603		 # 	collision with: 7 0 5 0 0 0 0  and 7 0 6 0 0 0 0 
 # max = 1786233
122614		 # 	collision with: 5 4 0 0 0 0 0  and 5 5 0 0 0 0 0 
 # max = 1786233
122638		 # 	collision with: 5 0 0 0 0 0 0  and 5 1 0 0 0 0 0 
 # max = 1786233
122663		 # 	collision with: 5 4 3 0 0 0 0  and 5 5 3 0 0 0 0 
 # max = 1786233
122691		 # 	collision with: 2 0 5 0 0 0 0  and 2 0 6 0 0 0 0 
 # max = 1786233
122706		 # 	collision with: 5 1 0 0 0 0 0  and 5 3 0 0 0 0 0 
 # max = 1786233
122730		 # 	collision with: 5 3 0 0 0 0 0  and 5 4 0 0 0 0 0 
 # max = 1786233
122747		 # 	collision with: 9 0 5 0 0 0 0  and 9 0 6 0 0 0 0 
 # max = 1786233
122775		 # 	collision with: 5 4 4 0 0 0 0  and 5 6 4 0 0 0 0 
 # max = 1786233
122798		 # 	collision with: 5 4 0 0 0 0 0  and 5 6 0 0 0 0 0 
 # max = 1786233
122822		 # 	collision with: 5 0 0 0 0 0 0  and 5 2 0 0 0 0 0 
 # max = 1786233
122835		 # 	collision with: 4 0 5 0 0 0 0  and 4 0 6 0 0 0 0 
 # max = 1786233
122890		 # 	collision with: 5 2 0 0 0 0 0  and 5 3 0 0 0 0 0 
 # max = 1786233
122907		 # 	collision with: 5 4 4 0 0 0 0  and 5 6 4 0 0 0 0 
 # max = 1786233
122914		 # 	collision with: 5 3 0 0 0 0 0  and 5 5 0 0 0 0 0 
 # max = 1786233
122936		 # 	collision with: 2 3 4 10 8 5 0  and 2 0 0 0 0 0 1 
 # max = 1786233
122938		 # 	collision with: 0 2 1 0 1 0 0  and 10 10 2 0 0 1 0 
 # max = 1786233
122940		 # 	collision with: 0 10 0 0 0 0 0  and 2 10 0 0 0 0 0 
 # max = 1786233
122942		 # 	collision with: 5 3 10 0 0 0 0  and 5 5 10 0 0 0 0 
 # max = 1786233
122944		 # 	collision with: 0 5 0 0 0 0 0  and 1 5 0 0 0 0 0 
 # max = 1786233
122948		 # 	collision with: 3 7 0 0 0 0 0  and 5 7 0 0 0 0 0 
 # max = 1786233
122950		 # 	collision with: 5 1 7 0 0 0 0  and 5 3 7 0 0 0 0 
 # max = 1786233
122952		 # 	collision with: 2 8 0 0 0 0 0  and 4 8 0 0 0 0 0 
 # max = 1786233
122954		 # 	collision with: 5 3 8 0 0 0 0  and 5 5 8 0 0 0 0 
 # max = 1786233
122956		 # 	collision with: 3 2 0 0 0 0 0  and 4 2 0 0 0 0 0 
 # max = 1786233
122958		 # 	collision with: 5 1 2 0 0 0 0  and 5 3 2 0 0 0 0 
 # max = 1786233
122960		 # 	collision with: 1 9 0 0 0 0 0  and 3 9 0 0 0 0 0 
 # max = 1786233
122962		 # 	collision with: 5 3 9 0 0 0 0  and 5 4 9 0 0 0 0 
 # max = 1786233
122964		 # 	collision with: 2 3 0 0 0 0 0  and 3 3 0 0 0 0 0 
 # max = 1786233
122966		 # 	collision with: 5 1 3 0 0 0 0  and 5 2 3 0 0 0 0 
 # max = 1786233
122968		 # 	collision with: 1 4 0 0 0 0 0  and 2 4 0 0 0 0 0 
 # max = 1786233
122970		 # 	collision with: 5 3 4 0 0 0 0  and 5 4 4 0 0 0 0 
 # max = 1786233
122972		 # 	collision with: 4 6 0 0 0 0 0  and 6 6 0 0 0 0 0 
 # max = 1786233
122974		 # 	collision with: 5 4 6 0 0 0 0  and 5 5 6 0 0 0 0 
 # max = 1786233
122976		 # 	collision with: 4 1 0 0 0 0 0  and 5 1 0 0 0 0 0 
 # max = 1786233
122978		 # 	collision with: 5 1 1 0 0 0 0  and 5 2 1 0 0 0 0 
 # max = 1786233
123004		 # 	collision with: 1 9 0 0 0 0 0  and 3 9 0 0 0 0 0 
 # max = 1786233
123006		 # 	collision with: 5 3 9 0 0 0 0  and 5 4 9 0 0 0 0 
 # max = 1786233
123013		 # 	collision with: 3 4 0 0 0 0 0  and 0 6 0 0 0 0 0 
 # max = 1786233
123015		 # 	collision with: 5 0 1 0 0 0 0  and 5 2 1 0 0 0 0 
 # max = 1786233
123028		 # 	collision with: 0 10 0 0 0 0 0  and 2 10 0 0 0 0 0 
 # max = 1786233
123030		 # 	collision with: 5 3 10 0 0 0 0  and 5 5 10 0 0 0 0 
 # max = 1786233
123033		 # 	collision with: 2 4 0 0 0 0 0  and 4 6 0 0 0 0 0 
 # max = 1786233
123035		 # 	collision with: 10 6 4 0 0 0 0  and 10 6 6 0 0 0 0 
 # max = 1786233
123085		 # 	collision with: 0 5 0 0 0 0 0  and 1 5 0 0 0 0 0 
 # max = 1786233
123087		 # 	collision with: 5 2 4 0 0 0 0  and 5 3 4 0 0 0 0 
 # max = 1786233
123096		 # 	collision with: 2 3 0 0 0 0 0  and 3 3 0 0 0 0 0 
 # max = 1786233
123098		 # 	collision with: 5 1 3 0 0 0 0  and 5 2 3 0 0 0 0 
 # max = 1786233
123120		 # 	collision with: 0 5 0 0 0 0 0  and 1 5 0 0 0 0 0 
 # max = 1786233
123122		 # 	collision with: 5 0 5 0 0 0 0  and 5 2 5 0 0 0 0 
 # max = 1786233
123145		 # 	collision with: 3 4 0 0 0 0 0  and 0 6 0 0 0 0 0 
 # max = 1786233
123147		 # 	collision with: 5 0 1 0 0 0 0  and 5 2 1 0 0 0 0 
 # max = 1786233
123173		 # 	collision with: 0 5 0 0 0 0 0  and 1 5 0 0 0 0 0 
 # max = 1786233
123175		 # 	collision with: 5 2 4 0 0 0 0  and 5 3 4 0 0 0 0 
 # max = 1786233
123188		 # 	collision with: 1 4 0 0 0 0 0  and 2 4 0 0 0 0 0 
 # max = 1786233
123190		 # 	collision with: 5 3 4 0 0 0 0  and 5 4 4 0 0 0 0 
 # max = 1786233
123212		 # 	collision with: 3 7 0 0 0 0 0  and 5 7 0 0 0 0 0 
 # max = 1786233
123214		 # 	collision with: 5 1 7 0 0 0 0  and 5 3 7 0 0 0 0 
 # max = 1786233
123229		 # 	collision with: 3 2 0 0 0 0 0  and 4 2 0 0 0 0 0 
 # max = 1786233
123231		 # 	collision with: 10 8 4 0 0 0 0  and 10 8 6 0 0 0 0 
 # max = 1786233
123257		 # 	collision with: 0 10 0 0 0 0 0  and 2 10 0 0 0 0 0 
 # max = 1786233
123259		 # 	collision with: 5 0 3 0 0 0 0  and 5 1 3 0 0 0 0 
 # max = 1786233
123280		 # 	collision with: 4 6 0 0 0 0 0  and 6 6 0 0 0 0 0 
 # max = 1786233
123304		 # 	collision with: 2 8 0 0 0 0 0  and 4 8 0 0 0 0 0 
 # max = 1786233
123306		 # 	collision with: 5 3 8 0 0 0 0  and 5 5 8 0 0 0 0 
 # max = 1786233
123317		 # 	collision with: 3 2 0 0 0 0 0  and 4 2 0 0 0 0 0 
 # max = 1786233
123319		 # 	collision with: 2 8 4 0 0 0 0  and 2 8 6 0 0 0 0 
 # max = 1786233
123369		 # 	collision with: 2 3 0 0 0 0 0  and 3 3 0 0 0 0 0 
 # max = 1786233
123371		 # 	collision with: 5 4 0 0 0 0 0  and 5 6 0 0 0 0 0 
 # max = 1786233
123372		 # 	collision with: 4 1 0 0 0 0 0  and 5 1 0 0 0 0 0 
 # max = 1786233
123374		 # 	collision with: 5 1 1 0 0 0 0  and 5 2 1 0 0 0 0 
 # max = 1786233
123389		 # 	collision with: 0 10 0 0 0 0 0  and 2 10 0 0 0 0 0 
 # max = 1786233
123391		 # 	collision with: 5 0 3 0 0 0 0  and 5 1 3 0 0 0 0 
 # max = 1786233
123396		 # 	collision with: 3 2 0 0 0 0 0  and 4 2 0 0 0 0 0 
 # max = 1786233
123398		 # 	collision with: 5 1 2 0 0 0 0  and 5 3 2 0 0 0 0 
 # max = 1786233
123420		 # 	collision with: 1 7 8 9 5 10 0  and 4 1 0 0 0 0 1 
 # max = 1786233
123422		 # 	collision with: 8 2 8 10 6 0 0  and 6 9 0 0 0 1 0 
 # max = 1786233
123424		 # 	collision with: 1 9 0 0 0 0 0  and 3 9 0 0 0 0 0 
 # max = 1786233
123426		 # 	collision with: 5 4 9 0 0 0 0  and 5 6 9 0 0 0 0 
 # max = 1786233
123428		 # 	collision with: 0 10 0 0 0 0 0  and 2 10 0 0 0 0 0 
 # max = 1786233
123430		 # 	collision with: 5 1 10 0 0 0 0  and 5 2 10 0 0 0 0 
 # max = 1786233
123432		 # 	collision with: 2 3 0 0 0 0 0  and 3 3 0 0 0 0 0 
 # max = 1786233
123434		 # 	collision with: 5 0 3 0 0 0 0  and 5 1 3 0 0 0 0 
 # max = 1786233
123436		 # 	collision with: 0 5 0 0 0 0 0  and 1 5 0 0 0 0 0 
 # max = 1786233
123440		 # 	collision with: 1 4 0 0 0 0 0  and 2 4 0 0 0 0 0 
 # max = 1786233
123442		 # 	collision with: 5 5 4 0 0 0 0  and 5 6 4 0 0 0 0 
 # max = 1786233
123444		 # 	collision with: 3 7 0 0 0 0 0  and 5 7 0 0 0 0 0 
 # max = 1786233
123446		 # 	collision with: 5 5 7 0 0 0 0  and 5 6 7 0 0 0 0 
 # max = 1786233
123448		 # 	collision with: 4 6 0 0 0 0 0  and 6 6 0 0 0 0 0 
 # max = 1786233
123450		 # 	collision with: 5 3 6 0 0 0 0  and 5 5 6 0 0 0 0 
 # max = 1786233
123452		 # 	collision with: 2 8 0 0 0 0 0  and 4 8 0 0 0 0 0 
 # max = 1786233
123454		 # 	collision with: 5 4 8 0 0 0 0  and 5 6 8 0 0 0 0 
 # max = 1786233
123456		 # 	collision with: 4 1 0 0 0 0 0  and 5 1 0 0 0 0 0 
 # max = 1786233
123458		 # 	collision with: 5 3 1 0 0 0 0  and 5 5 1 0 0 0 0 
 # max = 1786233
123460		 # 	collision with: 3 2 0 0 0 0 0  and 4 2 0 0 0 0 0 
 # max = 1786233
123462		 # 	collision with: 5 0 2 0 0 0 0  and 5 1 2 0 0 0 0 
 # max = 1786233
123488		 # 	collision with: 3 7 0 0 0 0 0  and 5 7 0 0 0 0 0 
 # max = 1786233
123490		 # 	collision with: 5 5 7 0 0 0 0  and 5 6 7 0 0 0 0 
 # max = 1786233
123497		 # 	collision with: 7 4 0 0 0 0 0  and 3 5 0 0 0 0 0 
 # max = 1786233
123499		 # 	collision with: 4 3 4 0 0 0 0  and 4 3 5 0 0 0 0 
 # max = 1786233
123512		 # 	collision with: 1 9 0 0 0 0 0  and 3 9 0 0 0 0 0 
 # max = 1786233
123514		 # 	collision with: 5 4 9 0 0 0 0  and 5 6 9 0 0 0 0 
 # max = 1786233
123517		 # 	collision with: 0 4 0 0 0 0 0  and 1 5 0 0 0 0 0 
 # max = 1786233
123519		 # 	collision with: 4 1 4 0 0 0 0  and 4 1 5 0 0 0 0 
 # max = 1786233
123569		 # 	collision with: 0 10 0 0 0 0 0  and 2 10 0 0 0 0 0 
 # max = 1786233
123571		 # 	collision with: 5 7 4 0 0 0 0  and 5 1 5 0 0 0 0 
 # max = 1786233
123580		 # 	collision with: 4 6 0 0 0 0 0  and 6 6 0 0 0 0 0 
 # max = 1786233
123604		 # 	collision with: 0 10 0 0 0 0 0  and 2 10 0 0 0 0 0 
 # max = 1786233
123606		 # 	collision with: 5 1 10 0 0 0 0  and 5 2 10 0 0 0 0 
 # max = 1786233
123629		 # 	collision with: 7 4 0 0 0 0 0  and 3 5 0 0 0 0 0 
 # max = 1786233
123657		 # 	collision with: 0 10 0 0 0 0 0  and 2 10 0 0 0 0 0 
 # max = 1786233
123659		 # 	collision with: 5 8 4 0 0 0 0  and 5 1 5 0 0 0 0 
 # max = 1786233
123672		 # 	collision with: 2 8 0 0 0 0 0  and 4 8 0 0 0 0 0 
 # max = 1786233
123674		 # 	collision with: 5 4 8 0 0 0 0  and 5 6 8 0 0 0 0 
 # max = 1786233
123696		 # 	collision with: 2 3 0 0 0 0 0  and 3 3 0 0 0 0 0 
 # max = 1786233
123698		 # 	collision with: 5 0 3 0 0 0 0  and 5 1 3 0 0 0 0 
 # max = 1786233
123713		 # 	collision with: 1 4 0 0 0 0 0  and 2 4 0 0 0 0 0 
 # max = 1786233
123715		 # 	collision with: 5 4 0 0 0 0 0  and 5 5 0 0 0 0 0 
 # max = 1786233
123741		 # 	collision with: 1 9 0 0 0 0 0  and 3 9 0 0 0 0 0 
 # max = 1786233
123743		 # 	collision with: 5 1 2 0 0 0 0  and 5 2 2 0 0 0 0 
 # max = 1786233
123764		 # 	collision with: 4 1 0 0 0 0 0  and 5 1 0 0 0 0 0 
 # max = 1786233
123766		 # 	collision with: 5 3 1 0 0 0 0  and 5 5 1 0 0 0 0 
 # max = 1786233
123788		 # 	collision with: 0 5 0 0 0 0 0  and 1 5 0 0 0 0 0 
 # max = 1786233
123790		 # 	collision with: 5 1 5 0 0 0 0  and 5 2 5 0 0 0 0 
 # max = 1786233
123801		 # 	collision with: 1 4 0 0 0 0 0  and 2 4 0 0 0 0 0 
 # max = 1786233
123803		 # 	collision with: 5 4 0 0 0 0 0  and 5 5 0 0 0 0 0 
 # max = 1786233
123853		 # 	collision with: 3 4 0 0 0 0 0  and 1 5 0 0 0 0 0 
 # max = 1786233
123855		 # 	collision with: 5 1 3 0 0 0 0  and 5 3 3 0 0 0 0 
 # max = 1786233
123856		 # 	collision with: 3 2 0 0 0 0 0  and 4 2 0 0 0 0 0 
 # max = 1786233
123858		 # 	collision with: 5 0 2 0 0 0 0  and 5 1 2 0 0 0 0 
 # max = 1786233
123873		 # 	collision with: 1 9 0 0 0 0 0  and 3 9 0 0 0 0 0 
 # max = 1786233
123880		 # 	collision with: 1 4 0 0 0 0 0  and 2 4 0 0 0 0 0 
 # max = 1786233
123882		 # 	collision with: 5 5 4 0 0 0 0  and 5 6 4 0 0 0 0 
 # max = 1786233
123904		 # 	collision with: 8 6 9 2 6 2 0  and 8 1 0 0 0 0 1 
 # max = 1786233
123906		 # 	collision with: 4 4 0 6 4 0 0  and 1 6 0 0 0 1 0 
 # max = 1786233
123908		 # 	collision with: 2 8 0 0 0 0 0  and 4 8 0 0 0 0 0 
 # max = 1786233
123910		 # 	collision with: 5 0 8 0 0 0 0  and 5 1 8 0 0 0 0 
 # max = 1786233
123912		 # 	collision with: 1 4 0 0 0 0 0  and 2 4 0 0 0 0 0 
 # max = 1786233
123914		 # 	collision with: 5 1 4 0 0 0 0  and 5 3 4 0 0 0 0 
 # max = 1786233
123916		 # 	collision with: 0 10 0 0 0 0 0  and 2 10 0 0 0 0 0 
 # max = 1786233
123918		 # 	collision with: 5 4 10 0 0 0 0  and 5 5 10 0 0 0 0 
 # max = 1786233
123920		 # 	collision with: 3 2 0 0 0 0 0  and 4 2 0 0 0 0 0 
 # max = 1786233
123922		 # 	collision with: 5 4 2 0 0 0 0  and 5 5 2 0 0 0 0 
 # max = 1786233
123924		 # 	collision with: 4 6 0 0 0 0 0  and 6 6 0 0 0 0 0 
 # max = 1786233
123926		 # 	collision with: 5 3 6 0 0 0 0  and 5 4 6 0 0 0 0 
 # max = 1786233
123928		 # 	collision with: 0 5 0 0 0 0 0  and 1 5 0 0 0 0 0 
 # max = 1786233
123932		 # 	collision with: 1 9 0 0 0 0 0  and 3 9 0 0 0 0 0 
 # max = 1786233
123934		 # 	collision with: 5 0 9 0 0 0 0  and 5 2 9 0 0 0 0 
 # max = 1786233
123936		 # 	collision with: 4 1 0 0 0 0 0  and 5 1 0 0 0 0 0 
 # max = 1786233
123938		 # 	collision with: 5 0 1 0 0 0 0  and 5 2 1 0 0 0 0 
 # max = 1786233
123940		 # 	collision with: 3 7 0 0 0 0 0  and 5 7 0 0 0 0 0 
 # max = 1786233
123942		 # 	collision with: 5 3 7 0 0 0 0  and 5 4 7 0 0 0 0 
 # max = 1786233
123944		 # 	collision with: 2 3 0 0 0 0 0  and 3 3 0 0 0 0 0 
 # max = 1786233
123946		 # 	collision with: 5 4 3 0 0 0 0  and 5 6 3 0 0 0 0 
 # max = 1786233
123972		 # 	collision with: 0 5 0 0 0 0 0  and 1 5 0 0 0 0 0 
 # max = 1786233
123974		 # 	collision with: 5 1 5 0 0 0 0  and 5 3 5 0 0 0 0 
 # max = 1786233
123981		 # 	collision with: 0 5 0 0 0 0 0  and 1 5 0 0 0 0 0 
 # max = 1786233
123983		 # 	collision with: 5 1 3 0 0 0 0  and 5 8 5 0 0 0 0 
 # max = 1786233
123996		 # 	collision with: 2 8 0 0 0 0 0  and 4 8 0 0 0 0 0 
 # max = 1786233
123998		 # 	collision with: 5 0 8 0 0 0 0  and 5 1 8 0 0 0 0 
 # max = 1786233
124001		 # 	collision with: 8 3 0 0 0 0 0  and 10 5 0 0 0 0 0 
 # max = 1786233
124003		 # 	collision with: 5 6 3 0 0 0 0  and 5 2 5 0 0 0 0 
 # max = 1786233
124053		 # 	collision with: 1 4 0 0 0 0 0  and 2 4 0 0 0 0 0 
 # max = 1786233
124055		 # 	collision with: 5 3 3 0 0 0 0  and 5 4 3 0 0 0 0 
 # max = 1786233
124064		 # 	collision with: 1 9 0 0 0 0 0  and 3 9 0 0 0 0 0 
 # max = 1786233
124066		 # 	collision with: 5 0 9 0 0 0 0  and 5 2 9 0 0 0 0 
 # max = 1786233
124088		 # 	collision with: 1 4 0 0 0 0 0  and 2 4 0 0 0 0 0 
 # max = 1786233
124090		 # 	collision with: 5 1 4 0 0 0 0  and 5 3 4 0 0 0 0 
 # max = 1786233
124113		 # 	collision with: 0 5 0 0 0 0 0  and 1 5 0 0 0 0 0 
 # max = 1786233
124115		 # 	collision with: 5 3 3 0 0 0 0  and 5 6 5 0 0 0 0 
 # max = 1786233
124141		 # 	collision with: 1 4 0 0 0 0 0  and 2 4 0 0 0 0 0 
 # max = 1786233
124143		 # 	collision with: 5 3 3 0 0 0 0  and 5 4 3 0 0 0 0 
 # max = 1786233
124156		 # 	collision with: 4 1 0 0 0 0 0  and 5 1 0 0 0 0 0 
 # max = 1786233
124158		 # 	collision with: 5 0 1 0 0 0 0  and 5 2 1 0 0 0 0 
 # max = 1786233
124180		 # 	collision with: 0 10 0 0 0 0 0  and 2 10 0 0 0 0 0 
 # max = 1786233
124182		 # 	collision with: 5 4 10 0 0 0 0  and 5 5 10 0 0 0 0 
 # max = 1786233
124197		 # 	collision with: 0 3 0 0 0 0 0  and 1 5 0 0 0 0 0 
 # max = 1786233
124199		 # 	collision with: 5 2 2 0 0 0 0  and 5 3 2 0 0 0 0 
 # max = 1786233
124225		 # 	collision with: 2 8 0 0 0 0 0  and 4 8 0 0 0 0 0 
 # max = 1786233
124227		 # 	collision with: 5 2 1 0 0 0 0  and 5 3 1 0 0 0 0 
 # max = 1786233
124248		 # 	collision with: 3 7 0 0 0 0 0  and 5 7 0 0 0 0 0 
 # max = 1786233
124250		 # 	collision with: 5 3 7 0 0 0 0  and 5 4 7 0 0 0 0 
 # max = 1786233
124272		 # 	collision with: 3 2 0 0 0 0 0  and 4 2 0 0 0 0 0 
 # max = 1786233
124274		 # 	collision with: 5 4 2 0 0 0 0  and 5 5 2 0 0 0 0 
 # max = 1786233
124285		 # 	collision with: 0 3 0 0 0 0 0  and 1 5 0 0 0 0 0 
 # max = 1786233
124287		 # 	collision with: 5 2 2 0 0 0 0  and 5 3 2 0 0 0 0 
 # max = 1786233
124337		 # 	collision with: 5 3 0 0 0 0 0  and 1 5 0 0 0 0 0 
 # max = 1786233
124339		 # 	collision with: 5 5 3 0 0 0 0  and 5 1 5 0 0 0 0 
 # max = 1786233
124340		 # 	collision with: 2 3 0 0 0 0 0  and 3 3 0 0 0 0 0 
 # max = 1786233
124342		 # 	collision with: 5 4 3 0 0 0 0  and 5 6 3 0 0 0 0 
 # max = 1786233
124357		 # 	collision with: 2 8 0 0 0 0 0  and 4 8 0 0 0 0 0 
 # max = 1786233
124359		 # 	collision with: 5 2 1 0 0 0 0  and 5 3 1 0 0 0 0 
 # max = 1786233
124364		 # 	collision with: 4 6 0 0 0 0 0  and 6 6 0 0 0 0 0 
 # max = 1786233
124388		 # 	collision with: 9 2 5 7 10 9 0  and 1 1 0 0 0 0 1 
 # max = 1786233
124390		 # 	collision with: 5 3 4 9 3 0 0  and 1 8 0 0 0 1 0 
 # max = 1786233
124392		 # 	collision with: 3 7 0 0 0 0 0  and 5 7 0 0 0 0 0 
 # max = 1786233
124394		 # 	collision with: 5 1 7 0 0 0 0  and 5 2 7 0 0 0 0 
 # max = 1786233
124396		 # 	collision with: 1 9 0 0 0 0 0  and 3 9 0 0 0 0 0 
 # max = 1786233
124398		 # 	collision with: 5 2 9 0 0 0 0  and 5 3 9 0 0 0 0 
 # max = 1786233
124400		 # 	collision with: 4 6 0 0 0 0 0  and 6 6 0 0 0 0 0 
 # max = 1786233
124402		 # 	collision with: 5 2 6 0 0 0 0  and 5 4 6 0 0 0 0 
 # max = 1786233
124404		 # 	collision with: 0 10 0 0 0 0 0  and 2 10 0 0 0 0 0 
 # max = 1786233
124406		 # 	collision with: 5 1 10 0 0 0 0  and 5 3 10 0 0 0 0 
 # max = 1786233
124408		 # 	collision with: 2 8 0 0 0 0 0  and 4 8 0 0 0 0 0 
 # max = 1786233
124410		 # 	collision with: 5 1 8 0 0 0 0  and 5 2 8 0 0 0 0 
 # max = 1786233
124412		 # 	collision with: 2 3 0 0 0 0 0  and 3 3 0 0 0 0 0 
 # max = 1786233
124414		 # 	collision with: 5 3 3 0 0 0 0  and 5 5 3 0 0 0 0 
 # max = 1786233
124416		 # 	collision with: 4 1 0 0 0 0 0  and 5 1 0 0 0 0 0 
 # max = 1786233
124418		 # 	collision with: 5 3 1 0 0 0 0  and 5 4 1 0 0 0 0 
 # max = 1786233
124420		 # 	collision with: 0 5 0 0 0 0 0  and 1 5 0 0 0 0 0 
 # max = 1786233
124424		 # 	collision with: 3 2 0 0 0 0 0  and 4 2 0 0 0 0 0 
 # max = 1786233
124426		 # 	collision with: 5 2 2 0 0 0 0  and 5 4 2 0 0 0 0 
 # max = 1786233
124428		 # 	collision with: 1 4 0 0 0 0 0  and 2 4 0 0 0 0 0 
 # max = 1786233
124430		 # 	collision with: 5 3 4 0 0 0 0  and 5 5 4 0 0 0 0 
 # max = 1786233
124456		 # 	collision with: 2 3 0 0 0 0 0  and 3 3 0 0 0 0 0 
 # max = 1786233
124458		 # 	collision with: 5 3 3 0 0 0 0  and 5 5 3 0 0 0 0 
 # max = 1786233
124465		 # 	collision with: 2 3 0 0 0 0 0  and 3 3 0 0 0 0 0 
 # max = 1786233
124467		 # 	collision with: 5 0 3 0 0 0 0  and 5 1 4 0 0 0 0 
 # max = 1786233
124480		 # 	collision with: 3 7 0 0 0 0 0  and 5 7 0 0 0 0 0 
 # max = 1786233
124482		 # 	collision with: 5 1 7 0 0 0 0  and 5 2 7 0 0 0 0 
 # max = 1786233
124485		 # 	collision with: 6 3 0 0 0 0 0  and 7 4 0 0 0 0 0 
 # max = 1786233
124487		 # 	collision with: 3 2 3 0 0 0 0  and 3 2 4 0 0 0 0 
 # max = 1786233
124537		 # 	collision with: 1 9 0 0 0 0 0  and 3 9 0 0 0 0 0 
 # max = 1786233
124539		 # 	collision with: 5 5 3 0 0 0 0  and 5 1 4 0 0 0 0 
 # max = 1786233
124548		 # 	collision with: 4 1 0 0 0 0 0  and 5 1 0 0 0 0 0 
 # max = 1786233
124550		 # 	collision with: 5 3 1 0 0 0 0  and 5 4 1 0 0 0 0 
 # max = 1786233
124572		 # 	collision with: 1 9 0 0 0 0 0  and 3 9 0 0 0 0 0 
 # max = 1786233
124574		 # 	collision with: 5 2 9 0 0 0 0  and 5 3 9 0 0 0 0 
 # max = 1786233
124597		 # 	collision with: 2 3 0 0 0 0 0  and 3 3 0 0 0 0 0 
 # max = 1786233
124599		 # 	collision with: 5 9 3 0 0 0 0  and 5 5 4 0 0 0 0 
 # max = 1786233
124625		 # 	collision with: 1 9 0 0 0 0 0  and 3 9 0 0 0 0 0 
 # max = 1786233
124627		 # 	collision with: 6 1 3 0 0 0 0  and 6 1 4 0 0 0 0 
 # max = 1786233
124640		 # 	collision with: 0 5 0 0 0 0 0  and 1 5 0 0 0 0 0 
 # max = 1786233
124642		 # 	collision with: 5 2 5 0 0 0 0  and 5 3 5 0 0 0 0 
 # max = 1786233
124664		 # 	collision with: 4 6 0 0 0 0 0  and 6 6 0 0 0 0 0 
 # max = 1786233
124681		 # 	collision with: 5 3 0 0 0 0 0  and 0 4 0 0 0 0 0 
 # max = 1786233
124683		 # 	collision with: 5 0 4 0 0 0 0  and 5 1 4 0 0 0 0 
 # max = 1786233
124709		 # 	collision with: 3 7 0 0 0 0 0  and 5 7 0 0 0 0 0 
 # max = 1786233
124711		 # 	collision with: 5 3 0 0 0 0 0  and 5 4 0 0 0 0 0 
 # max = 1786233
124732		 # 	collision with: 3 2 0 0 0 0 0  and 4 2 0 0 0 0 0 
 # max = 1786233
124734		 # 	collision with: 5 2 2 0 0 0 0  and 5 4 2 0 0 0 0 
 # max = 1786233
124756		 # 	collision with: 0 10 0 0 0 0 0  and 2 10 0 0 0 0 0 
 # max = 1786233
124758		 # 	collision with: 5 1 10 0 0 0 0  and 5 3 10 0 0 0 0 
 # max = 1786233
124769		 # 	collision with: 5 3 0 0 0 0 0  and 0 4 0 0 0 0 0 
 # max = 1786233
124771		 # 	collision with: 5 0 4 0 0 0 0  and 5 1 4 0 0 0 0 
 # max = 1786233
124821		 # 	collision with: 4 1 0 0 0 0 0  and 5 1 0 0 0 0 0 
 # max = 1786233
124823		 # 	collision with: 5 5 3 0 0 0 0  and 5 3 4 0 0 0 0 
 # max = 1786233
124824		 # 	collision with: 1 4 0 0 0 0 0  and 2 4 0 0 0 0 0 
 # max = 1786233
124826		 # 	collision with: 5 3 4 0 0 0 0  and 5 5 4 0 0 0 0 
 # max = 1786233
124841		 # 	collision with: 3 7 0 0 0 0 0  and 5 7 0 0 0 0 0 
 # max = 1786233
124843		 # 	collision with: 5 3 0 0 0 0 0  and 5 4 0 0 0 0 0 
 # max = 1786233
124848		 # 	collision with: 2 8 0 0 0 0 0  and 4 8 0 0 0 0 0 
 # max = 1786233
124850		 # 	collision with: 5 1 8 0 0 0 0  and 5 2 8 0 0 0 0 
 # max = 1786233
124872		 # 	collision with: 2 1 4 7 10 7 0  and 6 0 0 0 0 0 1 
 # max = 1786233
124874		 # 	collision with: 7 4 9 6 9 0 0  and 2 10 0 0 0 1 0 
 # max = 1786233
124876		 # 	collision with: 4 6 0 0 0 0 0  and 6 6 0 0 0 0 0 
 # max = 1786233
124878		 # 	collision with: 5 2 6 0 0 0 0  and 5 3 6 0 0 0 0 
 # max = 1786233
124880		 # 	collision with: 2 3 0 0 0 0 0  and 3 3 0 0 0 0 0 
 # max = 1786233
124882		 # 	collision with: 5 2 3 0 0 0 0  and 5 4 3 0 0 0 0 
 # max = 1786233
124884		 # 	collision with: 3 2 0 0 0 0 0  and 4 2 0 0 0 0 0 
 # max = 1786233
124886		 # 	collision with: 5 1 2 0 0 0 0  and 5 2 2 0 0 0 0 
 # max = 1786233
124888		 # 	collision with: 3 7 0 0 0 0 0  and 5 7 0 0 0 0 0 
 # max = 1786233
124890		 # 	collision with: 5 4 7 0 0 0 0  and 5 6 7 0 0 0 0 
 # max = 1786233
124892		 # 	collision with: 0 10 0 0 0 0 0  and 2 10 0 0 0 0 0 
 # max = 1786233
124894		 # 	collision with: 5 4 10 0 0 0 0  and 5 6 10 0 0 0 0 
 # max = 1786233
124896		 # 	collision with: 4 1 0 0 0 0 0  and 5 1 0 0 0 0 0 
 # max = 1786233
124898		 # 	collision with: 5 0 1 0 0 0 0  and 5 1 1 0 0 0 0 
 # max = 1786233
124900		 # 	collision with: 1 4 0 0 0 0 0  and 2 4 0 0 0 0 0 
 # max = 1786233
124902		 # 	collision with: 5 0 4 0 0 0 0  and 5 1 4 0 0 0 0 
 # max = 1786233
124904		 # 	collision with: 1 9 0 0 0 0 0  and 3 9 0 0 0 0 0 
 # max = 1786233
124906		 # 	collision with: 5 3 9 0 0 0 0  and 5 5 9 0 0 0 0 
 # max = 1786233
124908		 # 	collision with: 2 8 0 0 0 0 0  and 4 8 0 0 0 0 0 
 # max = 1786233
124910		 # 	collision with: 5 2 8 0 0 0 0  and 5 3 8 0 0 0 0 
 # max = 1786233
124912		 # 	collision with: 0 5 0 0 0 0 0  and 1 5 0 0 0 0 0 
 # max = 1786233
124940		 # 	collision with: 4 1 0 0 0 0 0  and 5 1 0 0 0 0 0 
 # max = 1786233
124942		 # 	collision with: 5 0 1 0 0 0 0  and 5 1 1 0 0 0 0 
 # max = 1786233
124949		 # 	collision with: 4 1 0 0 0 0 0  and 5 1 0 0 0 0 0 
 # max = 1786233
124951		 # 	collision with: 6 2 2 0 0 0 0  and 6 2 4 0 0 0 0 
 # max = 1786233
124964		 # 	collision with: 4 6 0 0 0 0 0  and 6 6 0 0 0 0 0 
 # max = 1786233
124969		 # 	collision with: 3 2 0 0 0 0 0  and 5 4 0 0 0 0 0 
 # max = 1786233
124971		 # 	collision with: 8 8 2 0 0 0 0  and 8 8 4 0 0 0 0 
 # max = 1786233
125021		 # 	collision with: 2 3 0 0 0 0 0  and 3 3 0 0 0 0 0 
 # max = 1786233
125023		 # 	collision with: 5 4 2 0 0 0 0  and 5 5 2 0 0 0 0 
 # max = 1786233
125032		 # 	collision with: 1 4 0 0 0 0 0  and 2 4 0 0 0 0 0 
 # max = 1786233
125034		 # 	collision with: 5 0 4 0 0 0 0  and 5 1 4 0 0 0 0 
 # max = 1786233
125056		 # 	collision with: 2 3 0 0 0 0 0  and 3 3 0 0 0 0 0 
 # max = 1786233
125058		 # 	collision with: 5 2 3 0 0 0 0  and 5 4 3 0 0 0 0 
 # max = 1786233
125081		 # 	collision with: 4 1 0 0 0 0 0  and 5 1 0 0 0 0 0 
 # max = 1786233
125083		 # 	collision with: 5 8 2 0 0 0 0  and 5 0 4 0 0 0 0 
 # max = 1786233
125109		 # 	collision with: 2 3 0 0 0 0 0  and 3 3 0 0 0 0 0 
 # max = 1786233
125124		 # 	collision with: 1 9 0 0 0 0 0  and 3 9 0 0 0 0 0 
 # max = 1786233
125126		 # 	collision with: 5 3 9 0 0 0 0  and 5 5 9 0 0 0 0 
 # max = 1786233
125148		 # 	collision with: 3 2 0 0 0 0 0  and 4 2 0 0 0 0 0 
 # max = 1786233
125150		 # 	collision with: 5 1 2 0 0 0 0  and 5 2 2 0 0 0 0 
 # max = 1786233
125165		 # 	collision with: 4 2 0 0 0 0 0  and 5 4 0 0 0 0 0 
 # max = 1786233
125167		 # 	collision with: 3 7 2 0 0 0 0  and 3 7 4 0 0 0 0 
 # max = 1786233
125193		 # 	collision with: 4 6 0 0 0 0 0  and 6 6 0 0 0 0 0 
 # max = 1786233
125195		 # 	collision with: 2 9 2 0 0 0 0  and 2 9 4 0 0 0 0 
 # max = 1786233
125216		 # 	collision with: 2 8 0 0 0 0 0  and 4 8 0 0 0 0 0 
 # max = 1786233
125218		 # 	collision with: 5 2 8 0 0 0 0  and 5 3 8 0 0 0 0 
 # max = 1786233
125240		 # 	collision with: 3 7 0 0 0 0 0  and 5 7 0 0 0 0 0 
 # max = 1786233
125242		 # 	collision with: 5 4 7 0 0 0 0  and 5 6 7 0 0 0 0 
 # max = 1786233
125253		 # 	collision with: 4 2 0 0 0 0 0  and 5 4 0 0 0 0 0 
 # max = 1786233
125305		 # 	collision with: 7 2 0 0 0 0 0  and 0 4 0 0 0 0 0 
 # max = 1786233
125307		 # 	collision with: 5 3 1 0 0 0 0  and 5 5 1 0 0 0 0 
 # max = 1786233
125308		 # 	collision with: 0 5 0 0 0 0 0  and 1 5 0 0 0 0 0 
 # max = 1786233
125310		 # 	collision with: 5 2 5 0 0 0 0  and 5 4 5 0 0 0 0 
 # max = 1786233
125325		 # 	collision with: 4 6 0 0 0 0 0  and 6 6 0 0 0 0 0 
 # max = 1786233
125327		 # 	collision with: 8 9 2 0 0 0 0  and 8 9 4 0 0 0 0 
 # max = 1786233
125332		 # 	collision with: 0 10 0 0 0 0 0  and 2 10 0 0 0 0 0 
 # max = 1786233
125334		 # 	collision with: 5 4 10 0 0 0 0  and 5 6 10 0 0 0 0 
 # max = 1786233
125356		 # 	collision with: 4 8 2 5 4 8 0  and 7 1 0 0 0 0 1 
 # max = 1786233
125358		 # 	collision with: 10 0 6 5 2 0 0  and 4 2 1 0 0 1 0 
 # max = 1786233
125360		 # 	collision with: 0 5 0 0 0 0 0  and 1 5 0 0 0 0 0 
 # max = 1786233
125364		 # 	collision with: 2 8 0 0 0 0 0  and 4 8 0 0 0 0 0 
 # max = 1786233
125366		 # 	collision with: 5 3 8 0 0 0 0  and 5 4 8 0 0 0 0 
 # max = 1786233
125368		 # 	collision with: 1 9 0 0 0 0 0  and 3 9 0 0 0 0 0 
 # max = 1786233
125370		 # 	collision with: 5 5 9 0 0 0 0  and 5 6 9 0 0 0 0 
 # max = 1786233
125372		 # 	collision with: 1 4 0 0 0 0 0  and 2 4 0 0 0 0 0 
 # max = 1786233
125374		 # 	collision with: 5 2 4 0 0 0 0  and 5 3 4 0 0 0 0 
 # max = 1786233
125376		 # 	collision with: 4 1 0 0 0 0 0  and 5 1 0 0 0 0 0 
 # max = 1786233
125378		 # 	collision with: 5 2 1 0 0 0 0  and 5 4 1 0 0 0 0 
 # max = 1786233
125380		 # 	collision with: 0 10 0 0 0 0 0  and 2 10 0 0 0 0 0 
 # max = 1786233
125382		 # 	collision with: 5 2 10 0 0 0 0  and 5 3 10 0 0 0 0 
 # max = 1786233
125384		 # 	collision with: 3 7 0 0 0 0 0  and 5 7 0 0 0 0 0 
 # max = 1786233
125386		 # 	collision with: 5 2 7 0 0 0 0  and 5 4 7 0 0 0 0 
 # max = 1786233
125388		 # 	collision with: 3 2 0 0 0 0 0  and 4 2 0 0 0 0 0 
 # max = 1786233
125390		 # 	collision with: 5 5 2 0 0 0 0  and 5 6 2 0 0 0 0 
 # max = 1786233
125392		 # 	collision with: 2 3 0 0 0 0 0  and 3 3 0 0 0 0 0 
 # max = 1786233
125394		 # 	collision with: 5 1 3 0 0 0 0  and 5 3 3 0 0 0 0 
 # max = 1786233
125396		 # 	collision with: 4 6 0 0 0 0 0  and 6 6 0 0 0 0 0 
 # max = 1786233
125398		 # 	collision with: 5 1 6 0 0 0 0  and 5 3 6 0 0 0 0 
 # max = 1786233
125424		 # 	collision with: 0 10 0 0 0 0 0  and 2 10 0 0 0 0 0 
 # max = 1786233
125426		 # 	collision with: 5 2 10 0 0 0 0  and 5 3 10 0 0 0 0 
 # max = 1786233
125433		 # 	collision with: 7 2 0 0 0 0 0  and 0 3 0 0 0 0 0 
 # max = 1786233
125435		 # 	collision with: 5 5 2 0 0 0 0  and 5 6 2 0 0 0 0 
 # max = 1786233
125448		 # 	collision with: 0 5 0 0 0 0 0  and 1 5 0 0 0 0 0 
 # max = 1786233
125450		 # 	collision with: 5 3 5 0 0 0 0  and 5 4 5 0 0 0 0 
 # max = 1786233
125453		 # 	collision with: 1 2 0 0 0 0 0  and 2 3 0 0 0 0 0 
 # max = 1786233
125455		 # 	collision with: 2 3 2 0 0 0 0  and 2 3 3 0 0 0 0 
 # max = 1786233
125505		 # 	collision with: 2 8 0 0 0 0 0  and 4 8 0 0 0 0 0 
 # max = 1786233
125516		 # 	collision with: 3 7 0 0 0 0 0  and 5 7 0 0 0 0 0 
 # max = 1786233
125518		 # 	collision with: 5 2 7 0 0 0 0  and 5 4 7 0 0 0 0 
 # max = 1786233
125540		 # 	collision with: 2 8 0 0 0 0 0  and 4 8 0 0 0 0 0 
 # max = 1786233
125542		 # 	collision with: 5 3 8 0 0 0 0  and 5 4 8 0 0 0 0 
 # max = 1786233
125565		 # 	collision with: 7 2 0 0 0 0 0  and 0 3 0 0 0 0 0 
 # max = 1786233
125567		 # 	collision with: 5 5 2 0 0 0 0  and 5 6 2 0 0 0 0 
 # max = 1786233
125593		 # 	collision with: 2 8 0 0 0 0 0  and 4 8 0 0 0 0 0 
 # max = 1786233
125595		 # 	collision with: 8 7 2 0 0 0 0  and 8 7 3 0 0 0 0 
 # max = 1786233
125608		 # 	collision with: 3 2 0 0 0 0 0  and 4 2 0 0 0 0 0 
 # max = 1786233
125610		 # 	collision with: 5 5 2 0 0 0 0  and 5 6 2 0 0 0 0 
 # max = 1786233
125632		 # 	collision with: 1 9 0 0 0 0 0  and 3 9 0 0 0 0 0 
 # max = 1786233
125634		 # 	collision with: 5 5 9 0 0 0 0  and 5 6 9 0 0 0 0 
 # max = 1786233
125649		 # 	collision with: 4 1 0 0 0 0 0  and 5 1 0 0 0 0 0 
 # max = 1786233
125677		 # 	collision with: 0 5 0 0 0 0 0  and 1 5 0 0 0 0 0 
 # max = 1786233
125679		 # 	collision with: 4 2 2 0 0 0 0  and 4 2 3 0 0 0 0 
 # max = 1786233
125700		 # 	collision with: 2 3 0 0 0 0 0  and 3 3 0 0 0 0 0 
 # max = 1786233
125702		 # 	collision with: 5 1 3 0 0 0 0  and 5 3 3 0 0 0 0 
 # max = 1786233
125724		 # 	collision with: 1 4 0 0 0 0 0  and 2 4 0 0 0 0 0 
 # max = 1786233
125726		 # 	collision with: 5 2 4 0 0 0 0  and 5 3 4 0 0 0 0 
 # max = 1786233
125737		 # 	collision with: 4 1 0 0 0 0 0  and 5 1 0 0 0 0 0 
 # max = 1786233
125739		 # 	collision with: 3 4 2 0 0 0 0  and 3 4 3 0 0 0 0 
 # max = 1786233
125789		 # 	collision with: 1 2 0 0 0 0 0  and 3 3 0 0 0 0 0 
 # max = 1786233
125791		 # 	collision with: 5 7 2 0 0 0 0  and 5 5 3 0 0 0 0 
 # max = 1786233
125792		 # 	collision with: 4 6 0 0 0 0 0  and 6 6 0 0 0 0 0 
 # max = 1786233
125809		 # 	collision with: 0 5 0 0 0 0 0  and 1 5 0 0 0 0 0 
 # max = 1786233
125811		 # 	collision with: 5 2 2 0 0 0 0  and 5 2 3 0 0 0 0 
 # max = 1786233
125816		 # 	collision with: 4 1 0 0 0 0 0  and 5 1 0 0 0 0 0 
 # max = 1786233
125818		 # 	collision with: 5 2 1 0 0 0 0  and 5 4 1 0 0 0 0 
 # max = 1786233
125840		 # 	collision with: 4 4 9 9 3 10 0  and 7 1 0 0 0 0 1 
 # max = 1786233
125842		 # 	collision with: 3 9 0 2 8 0 0  and 7 3 0 0 0 1 0 
 # max = 1786233
125844		 # 	collision with: 1 4 0 0 0 0 0  and 2 4 0 0 0 0 0 
 # max = 1786233
125846		 # 	collision with: 5 4 4 0 0 0 0  and 5 5 4 0 0 0 0 
 # max = 1786233
125848		 # 	collision with: 3 2 0 0 0 0 0  and 4 2 0 0 0 0 0 
 # max = 1786233
125850		 # 	collision with: 5 3 2 0 0 0 0  and 5 5 2 0 0 0 0 
 # max = 1786233
125852		 # 	collision with: 0 5 0 0 0 0 0  and 1 5 0 0 0 0 0 
 # max = 1786233
125856		 # 	collision with: 4 1 0 0 0 0 0  and 5 1 0 0 0 0 0 
 # max = 1786233
125858		 # 	collision with: 5 5 1 0 0 0 0  and 5 6 1 0 0 0 0 
 # max = 1786233
125860		 # 	collision with: 2 3 0 0 0 0 0  and 3 3 0 0 0 0 0 
 # max = 1786233
125862		 # 	collision with: 5 0 3 0 0 0 0  and 5 2 3 0 0 0 0 
 # max = 1786233
125864		 # 	collision with: 2 8 0 0 0 0 0  and 4 8 0 0 0 0 0 
 # max = 1786233
125866		 # 	collision with: 5 4 8 0 0 0 0  and 5 5 8 0 0 0 0 
 # max = 1786233
125868		 # 	collision with: 0 10 0 0 0 0 0  and 2 10 0 0 0 0 0 
 # max = 1786233
125870		 # 	collision with: 5 5 10 0 0 0 0  and 5 6 10 0 0 0 0 
 # max = 1786233
125872		 # 	collision with: 4 6 0 0 0 0 0  and 6 6 0 0 0 0 0 
 # max = 1786233
125874		 # 	collision with: 5 1 6 0 0 0 0  and 5 2 6 0 0 0 0 
 # max = 1786233
125876		 # 	collision with: 1 9 0 0 0 0 0  and 3 9 0 0 0 0 0 
 # max = 1786233
125878		 # 	collision with: 5 1 9 0 0 0 0  and 5 2 9 0 0 0 0 
 # max = 1786233
125880		 # 	collision with: 3 7 0 0 0 0 0  and 5 7 0 0 0 0 0 
 # max = 1786233
125882		 # 	collision with: 5 0 7 0 0 0 0  and 5 2 7 0 0 0 0 
 # max = 1786233
125908		 # 	collision with: 2 8 0 0 0 0 0  and 4 8 0 0 0 0 0 
 # max = 1786233
125910		 # 	collision with: 5 4 8 0 0 0 0  and 5 5 8 0 0 0 0 
 # max = 1786233
125917		 # 	collision with: 5 1 0 0 0 0 0  and 8 3 0 0 0 0 0 
 # max = 1786233
125919		 # 	collision with: 5 1 0 0 0 0 0  and 5 3 0 0 0 0 0 
 # max = 1786233
125932		 # 	collision with: 1 4 0 0 0 0 0  and 2 4 0 0 0 0 0 
 # max = 1786233
125934		 # 	collision with: 5 4 4 0 0 0 0  and 5 5 4 0 0 0 0 
 # max = 1786233
125937		 # 	collision with: 9 1 0 0 0 0 0  and 0 3 0 0 0 0 0 
 # max = 1786233
125939		 # 	collision with: 5 2 1 0 0 0 0  and 5 1 3 0 0 0 0 
 # max = 1786233
125989		 # 	collision with: 3 2 0 0 0 0 0  and 4 2 0 0 0 0 0 
 # max = 1786233
125991		 # 	collision with: 5 5 1 0 0 0 0  and 5 6 1 0 0 0 0 
 # max = 1786233
13567.2secs	1786233 2686003
