# prime 11
# degree 2
# input variables 3
# output variables 3
# reload computed balance functions from file balance-2540of3248-p11d2m3-debug.log
# p = 11
# n = 3
# smalldomain p^m 1331
# domain p^n 1331
#	 p^2 = 121
#	 p^3 = 1331
#	 p^4 = 14641
#	 p^5 = 161051
#	 p^6 = 1771561
#	 p^7 = 19487171
#	 p^8 = 214358881
#	 p^9 = 2357947691
opening file : balance-2540of3248-p11d2m3-debug.log
reloading for step2...
15240032		 # 	collision with: 6 2 0  and 3 4 0 
15240033		 # 	collision with: 0 0 0  and 4 1 0 
15240034		 # 	collision with: 2 0 0  and 0 2 0 
15240035		 # 	collision with: 4 2 0  and 5 2 0 
15240072		 # 	collision with: 6 2 0  and 3 4 0 
15240073		 # 	collision with: 9 10 0  and 6 1 1 
15240074		 # 	collision with: 2 0 0  and 0 2 0 
15240075		 # 	collision with: 2 0 0  and 9 2 0 
15240112		 # 	collision with: 6 2 0  and 3 4 0 
15240113		 # 	collision with: 6 0 0  and 1 1 0 
15240114		 # 	collision with: 2 0 0  and 0 2 0 
15240115		 # 	collision with: 3 1 0  and 1 3 0 
15240152		 # 	collision with: 6 2 0  and 3 4 0 
15240153		 # 	collision with: 0 4 0  and 2 4 0 
15240154		 # 	collision with: 2 0 0  and 0 2 0 
15240155		 # 	collision with: 3 1 0  and 1 3 0 
15240192		 # 	collision with: 10 5 0  and 8 6 0 
15240193		 # 	collision with: 8 2 0  and 8 3 0 
15240194		 # 	collision with: 5 3 0  and 3 5 0 
15240195		 # 	collision with: 2 0 0  and 3 0 0 
15240276		 # 	collision with: 0 1 0  and 5 3 0 
15240277		 # 	collision with: 1 6 0  and 0 0 1 
15240278		 # 	collision with: 5 3 0  and 3 5 0 
15240279		 # 	collision with: 2 0 0  and 3 0 0 
15240316		 # 	collision with: 10 0 0  and 6 1 0 
15240317		 # 	collision with: 4 2 0  and 5 2 0 
15240318		 # 	collision with: 5 3 0  and 3 5 0 
15240319		 # 	collision with: 2 0 0  and 3 0 0 
15240356		 # 	collision with: 9 0 0  and 10 2 0 
15240357		 # 	collision with: 1 3 0  and 2 5 0 
15240358		 # 	collision with: 9 1 0  and 8 3 0 
15240359		 # 	collision with: 2 0 0  and 3 0 0 
15240396		 # 	collision with: 3 7 0  and 5 7 0 
15240397		 # 	collision with: 10 0 0  and 1 1 0 
15240398		 # 	collision with: 4 0 0  and 4 2 0 
15240399		 # 	collision with: 2 0 0  and 3 0 0 
15240436		 # 	collision with: 1 6 0  and 1 7 0 
15240437		 # 	collision with: 5 4 0  and 0 0 1 
15240438		 # 	collision with: 5 3 0  and 3 5 0 
15240439		 # 	collision with: 2 0 0  and 3 0 0 
15240476		 # 	collision with: 2 3 0  and 6 0 1 
15240477		 # 	collision with: 7 3 0  and 4 5 0 
15240478		 # 	collision with: 6 0 0  and 3 1 0 
15240479		 # 	collision with: 2 0 0  and 3 0 0 
15240516		 # 	collision with: 8 4 0  and 4 1 1 
15240517		 # 	collision with: 8 2 0  and 2 0 1 
15240518		 # 	collision with: 0 4 0  and 2 4 0 
15240519		 # 	collision with: 2 0 0  and 3 0 0 
15240556		 # 	collision with: 3 5 0  and 2 0 1 
15240557		 # 	collision with: 10 9 0  and 6 1 1 
15240558		 # 	collision with: 8 1 0  and 10 2 0 
15240559		 # 	collision with: 2 0 0  and 3 0 0 
15240596		 # 	collision with: 6 7 0  and 9 0 1 
15240597		 # 	collision with: 7 2 0  and 4 1 1 
15240598		 # 	collision with: 5 3 0  and 3 5 0 
15240599		 # 	collision with: 2 0 0  and 3 0 0 
15240636		 # 	collision with: 10 2 0  and 4 3 0 
15240637		 # 	collision with: 0 0 0  and 3 1 0 
15240638		 # 	collision with: 5 3 0  and 3 5 0 
15240639		 # 	collision with: 2 0 0  and 3 0 0 
15240676		 # 	collision with: 0 6 0  and 3 0 1 
15240677		 # 	collision with: 1 6 0  and 2 0 1 
15240678		 # 	collision with: 2 1 0  and 1 2 0 
15240679		 # 	collision with: 4 2 0  and 2 4 0 
15240760		 # 	collision with: 0 0 1  and 8 1 1 
15240761		 # 	collision with: 3 2 0  and 10 4 0 
15240762		 # 	collision with: 2 1 0  and 1 2 0 
15240763		 # 	collision with: 8 2 0  and 6 3 0 
15240800		 # 	collision with: 2 2 0  and 6 3 0 
15240801		 # 	collision with: 10 1 0  and 0 3 0 
15240802		 # 	collision with: 2 1 0  and 1 2 0 
15240803		 # 	collision with: 4 2 0  and 2 4 0 
15240840		 # 	collision with: 6 4 0  and 7 0 1 
15240841		 # 	collision with: 8 5 0  and 5 0 1 
15240842		 # 	collision with: 2 1 0  and 1 2 0 
15240843		 # 	collision with: 4 2 0  and 2 4 0 
15240880		 # 	collision with: 5 6 0  and 2 1 1 
15240881		 # 	collision with: 8 2 0  and 7 4 0 
15240882		 # 	collision with: 2 1 0  and 1 2 0 
15240883		 # 	collision with: 9 0 0  and 9 1 0 
15240920		 # 	collision with: 9 6 0  and 1 0 1 
15240921		 # 	collision with: 3 2 0  and 5 0 1 
15240922		 # 	collision with: 2 1 0  and 1 2 0 
15240923		 # 	collision with: 4 2 0  and 2 4 0 
15240960		 # 	collision with: 10 1 0  and 0 0 1 
15240961		 # 	collision with: 6 0 0  and 6 1 0 
15240962		 # 	collision with: 2 1 0  and 1 2 0 
15240963		 # 	collision with: 4 2 0  and 2 4 0 
15241000		 # 	collision with: 7 3 0  and 0 5 0 
15241001		 # 	collision with: 2 8 0  and 3 0 1 
15241002		 # 	collision with: 3 1 0  and 4 1 0 
15241003		 # 	collision with: 4 2 0  and 2 4 0 
15241040		 # 	collision with: 7 2 0  and 5 3 0 
15241041		 # 	collision with: 6 4 0  and 8 0 1 
15241042		 # 	collision with: 2 1 0  and 1 2 0 
15241043		 # 	collision with: 4 2 0  and 2 4 0 
15241080		 # 	collision with: 9 3 0  and 9 4 0 
15241081		 # 	collision with: 10 0 0  and 6 1 0 
15241082		 # 	collision with: 2 1 0  and 1 2 0 
15241083		 # 	collision with: 4 2 0  and 2 4 0 
15241120		 # 	collision with: 9 2 0  and 1 4 0 
15241121		 # 	collision with: 5 3 0  and 2 1 1 
15241122		 # 	collision with: 2 1 0  and 1 2 0 
15241123		 # 	collision with: 0 1 0  and 5 2 0 
15241160		 # 	collision with: 0 1 0  and 6 3 0 
15241161		 # 	collision with: 0 3 0  and 8 4 0 
15241162		 # 	collision with: 5 4 0  and 4 5 0 
15241163		 # 	collision with: 6 0 0  and 4 1 0 
15241244		 # 	collision with: 4 5 0  and 0 6 0 
15241245		 # 	collision with: 0 9 0  and 1 9 0 
15241246		 # 	collision with: 5 4 0  and 4 5 0 
15241247		 # 	collision with: 4 3 0  and 3 4 0 
15241284		 # 	collision with: 8 4 0  and 5 6 0 
15241285		 # 	collision with: 0 1 0  and 6 3 0 
15241286		 # 	collision with: 5 4 0  and 4 5 0 
15241287		 # 	collision with: 4 3 0  and 3 4 0 
15241324		 # 	collision with: 2 1 0  and 5 0 1 
15241325		 # 	collision with: 10 3 0  and 2 5 0 
15241326		 # 	collision with: 8 2 0  and 6 3 0 
15241327		 # 	collision with: 4 3 0  and 3 4 0 
15241364		 # 	collision with: 4 0 0  and 8 2 0 
15241365		 # 	collision with: 2 5 0  and 0 0 1 
15241366		 # 	collision with: 9 0 0  and 9 1 0 
15241367		 # 	collision with: 2 1 0  and 5 3 0 
15241404		 # 	collision with: 1 2 0  and 5 1 1 
15241405		 # 	collision with: 9 1 0  and 0 1 1 
15241406		 # 	collision with: 5 4 0  and 4 5 0 
15241407		 # 	collision with: 5 2 0  and 0 4 0 
15241444		 # 	collision with: 6 0 0  and 6 1 0 
15241445		 # 	collision with: 0 6 0  and 9 7 0 
15241446		 # 	collision with: 5 4 0  and 4 5 0 
15241447		 # 	collision with: 4 0 0  and 5 2 0 
15241484		 # 	collision with: 6 0 0  and 1 1 0 
15241485		 # 	collision with: 4 3 0  and 4 5 0 
15241486		 # 	collision with: 5 4 0  and 4 5 0 
15241487		 # 	collision with: 4 3 0  and 3 4 0 
15241524		 # 	collision with: 3 1 0  and 4 1 0 
15241525		 # 	collision with: 5 5 0  and 9 6 0 
15241526		 # 	collision with: 0 1 0  and 5 2 0 
15241527		 # 	collision with: 4 3 0  and 3 4 0 
15241564		 # 	collision with: 9 1 0  and 6 2 0 
15241565		 # 	collision with: 6 0 0  and 5 2 0 
15241566		 # 	collision with: 6 2 0  and 7 4 0 
15241567		 # 	collision with: 4 3 0  and 3 4 0 
15241604		 # 	collision with: 7 3 0  and 8 2 1 
15241605		 # 	collision with: 0 5 0  and 6 6 0 
15241606		 # 	collision with: 5 4 0  and 4 5 0 
15241607		 # 	collision with: 4 3 0  and 3 4 0 
15241644		 # 	collision with: 2 3 0  and 4 4 0 
15241645		 # 	collision with: 1 4 0  and 6 5 0 
15241646		 # 	collision with: 3 1 0  and 1 3 0 
15241647		 # 	collision with: 5 3 0  and 3 5 0 
15241728		 # 	collision with: 0 9 0  and 1 9 0 
15241729		 # 	collision with: 8 1 0  and 0 3 0 
15241730		 # 	collision with: 3 1 0  and 1 3 0 
15241731		 # 	collision with: 10 0 0  and 3 1 0 
15241768		 # 	collision with: 5 1 0  and 2 3 0 
15241769		 # 	collision with: 0 0 0  and 1 1 1 
15241770		 # 	collision with: 3 1 0  and 1 3 0 
15241771		 # 	collision with: 7 1 0  and 4 2 0 
15241808		 # 	collision with: 4 4 0  and 7 5 0 
15241809		 # 	collision with: 0 0 0  and 1 1 1 
15241810		 # 	collision with: 3 1 0  and 1 3 0 
15241811		 # 	collision with: 5 3 0  and 3 5 0 
15241848		 # 	collision with: 10 9 0  and 6 1 1 
15241849		 # 	collision with: 9 1 0  and 6 2 0 
15241850		 # 	collision with: 0 1 0  and 4 2 0 
15241851		 # 	collision with: 5 1 0  and 5 3 0 
15241888		 # 	collision with: 2 1 0  and 9 3 0 
15241889		 # 	collision with: 0 0 0  and 1 1 1 
15241890		 # 	collision with: 3 1 0  and 1 3 0 
15241891		 # 	collision with: 5 3 0  and 3 5 0 
15241928		 # 	collision with: 0 2 0  and 1 4 0 
15241929		 # 	collision with: 0 0 0  and 1 1 1 
15241930		 # 	collision with: 3 1 0  and 1 3 0 
15241931		 # 	collision with: 5 3 0  and 3 5 0 
15241968		 # 	collision with: 2 7 0  and 10 1 1 
15241969		 # 	collision with: 5 7 0  and 8 0 1 
15241970		 # 	collision with: 3 1 0  and 1 3 0 
15241971		 # 	collision with: 5 3 0  and 1 5 0 
15242008		 # 	collision with: 3 2 0  and 3 4 0 
15242009		 # 	collision with: 3 4 0  and 1 0 1 
15242010		 # 	collision with: 3 1 0  and 1 3 0 
15242011		 # 	collision with: 5 3 0  and 3 5 0 
15242048		 # 	collision with: 1 7 0  and 7 0 1 
15242049		 # 	collision with: 9 4 0  and 7 5 0 
15242050		 # 	collision with: 3 1 0  and 1 3 0 
15242051		 # 	collision with: 9 2 0  and 0 3 0 
15242088		 # 	collision with: 2 4 0  and 2 0 1 
15242089		 # 	collision with: 2 1 0  and 2 3 0 
15242090		 # 	collision with: 3 1 0  and 1 3 0 
15242091		 # 	collision with: 3 0 0  and 9 2 0 
15242128		 # 	collision with: 10 10 0  and 0 0 1 
15242129		 # 	collision with: 7 1 0  and 2 2 0 
15242130		 # 	collision with: 8 0 0  and 7 2 0 
15242131		 # 	collision with: 7 0 0  and 9 1 0 
15242212		 # 	collision with: 10 0 0  and 1 1 0 
15242213		 # 	collision with: 1 3 0  and 3 1 1 
15242214		 # 	collision with: 6 4 0  and 4 6 0 
15242215		 # 	collision with: 5 4 0  and 4 5 0 
15242252		 # 	collision with: 10 0 0  and 4 2 0 
15242253		 # 	collision with: 10 9 0  and 1 0 1 
15242254		 # 	collision with: 6 4 0  and 4 6 0 
15242255		 # 	collision with: 5 4 0  and 4 5 0 
15242292		 # 	collision with: 9 1 0  and 3 2 0 
15242293		 # 	collision with: 1 1 0  and 5 2 0 
15242294		 # 	collision with: 6 4 0  and 4 6 0 
15242295		 # 	collision with: 5 4 0  and 4 5 0 
15242332		 # 	collision with: 0 4 0  and 3 6 0 
15242333		 # 	collision with: 1 3 0  and 3 0 1 
15242334		 # 	collision with: 7 3 0  and 3 4 0 
15242335		 # 	collision with: 6 3 0  and 3 5 0 
15242372		 # 	collision with: 9 7 0  and 0 1 1 
15242373		 # 	collision with: 1 5 0  and 3 5 0 
15242374		 # 	collision with: 7 0 0  and 9 1 0 
15242375		 # 	collision with: 3 1 0  and 10 3 0 
15242412		 # 	collision with: 0 0 0  and 1 1 1 
15242413		 # 	collision with: 3 1 0  and 0 0 1 
15242414		 # 	collision with: 3 2 0  and 9 3 0 
15242415		 # 	collision with: 8 0 0  and 7 2 0 
15242452		 # 	collision with: 0 0 0  and 1 1 1 
15242453		 # 	collision with: 10 2 0  and 4 3 0 
15242454		 # 	collision with: 5 3 0  and 6 3 0 
15242455		 # 	collision with: 5 3 0  and 6 3 0 
15242492		 # 	collision with: 3 4 0  and 8 0 1 
15242493		 # 	collision with: 2 3 0  and 4 4 0 
15242494		 # 	collision with: 6 4 0  and 4 6 0 
15242495		 # 	collision with: 5 4 0  and 4 5 0 
15242532		 # 	collision with: 2 6 0  and 4 6 0 
15242533		 # 	collision with: 0 7 0  and 10 0 1 
15242534		 # 	collision with: 6 4 0  and 4 6 0 
15242535		 # 	collision with: 5 4 0  and 4 5 0 
15242572		 # 	collision with: 1 1 0  and 4 2 0 
15242573		 # 	collision with: 8 6 0  and 5 0 1 
15242574		 # 	collision with: 6 4 0  and 4 6 0 
15242575		 # 	collision with: 5 4 0  and 4 5 0 
15242621		 # 	collision with: 0 2 0  and 7 4 0 
15242623		 # 	collision with: 0 1 0  and 4 3 0 
15242649		 # 	collision with: 10 3 0  and 5 4 0 
15242651		 # 	collision with: 2 0 0  and 9 2 0 
15242665		 # 	collision with: 9 9 0  and 2 2 1 
15242667		 # 	collision with: 1 7 0  and 7 0 1 
15242668		 # 	collision with: 5 1 0  and 10 2 0 
15242670		 # 	collision with: 5 5 0  and 5 1 1 
15242680		 # 	collision with: 8 3 0  and 9 5 0 
15242682		 # 	collision with: 5 4 0  and 1 6 0 
15242685		 # 	collision with: 10 4 0  and 0 5 0 
15242704		 # 	collision with: 10 1 0  and 0 2 0 
15242706		 # 	collision with: 2 3 0  and 0 5 0 
15242724		 # 	collision with: 0 4 0  and 5 6 0 
15242726		 # 	collision with: 8 1 0  and 5 2 0 
15242749		 # 	collision with: 6 2 0  and 2 3 0 
15242751		 # 	collision with: 2 1 0  and 5 0 1 
15242761		 # 	collision with: 10 7 0  and 7 0 1 
15242763		 # 	collision with: 3 9 0  and 5 9 0 
15242772		 # 	collision with: 5 0 0  and 2 1 1 
15242774		 # 	collision with: 7 10 0  and 9 0 1 
15242780		 # 	collision with: 3 7 0  and 0 0 1 
15242782		 # 	collision with: 9 1 0  and 0 3 0 
15242792		 # 	collision with: 8 9 0  and 9 0 1 
15242794		 # 	collision with: 2 1 0  and 7 2 0 
15242796		 # 	collision with: 8 10 0  and 7 0 1 
15242798		 # 	collision with: 10 8 0  and 4 0 1 
15242848		 # 	collision with: 4 3 0  and 2 0 1 
15242850		 # 	collision with: 7 2 0  and 8 4 0 
15242864		 # 	collision with: 7 7 0  and 1 0 1 
15242866		 # 	collision with: 4 0 0  and 5 1 0 
15242888		 # 	collision with: 9 2 0  and 3 3 0 
15242890		 # 	collision with: 2 1 1  and 1 2 1 
15242904		 # 	collision with: 4 1 0  and 5 0 1 
15242906		 # 	collision with: 5 0 0  and 10 2 1 
15242956		 # 	collision with: 3 3 0  and 9 5 0 
15242958		 # 	collision with: 5 0 0  and 9 2 0 
15242960		 # 	collision with: 6 10 0  and 1 1 1 
15242962		 # 	collision with: 10 2 0  and 8 2 1 
15242972		 # 	collision with: 4 1 0  and 4 0 1 
15242974		 # 	collision with: 7 5 0  and 3 6 0 
15242980		 # 	collision with: 6 5 0  and 0 0 1 
15242982		 # 	collision with: 8 2 0  and 4 3 0 
15242993		 # 	collision with: 7 10 0  and 3 0 1 
15242995		 # 	collision with: 6 10 0  and 10 0 1 
15243005		 # 	collision with: 4 2 0  and 7 2 1 
15243007		 # 	collision with: 0 1 0  and 1 1 0 
15243028		 # 	collision with: 5 0 0  and 3 2 0 
15243030		 # 	collision with: 7 1 0  and 5 3 0 
15243048		 # 	collision with: 2 1 0  and 6 2 0 
15243050		 # 	collision with: 5 9 0  and 8 0 1 
15243069		 # 	collision with: 2 5 0  and 8 0 1 
15243072		 # 	collision with: 4 6 0  and 9 3 1 
15243074		 # 	collision with: 6 2 0  and 0 3 0 
15243084		 # 	collision with: 6 1 0  and 1 2 0 
15243086		 # 	collision with: 4 2 0  and 2 0 1 
15243089		 # 	collision with: 0 0 0  and 1 1 1 
15243091		 # 	collision with: 5 4 0  and 7 5 0 
15243096		 # 	collision with: 2 7 0  and 0 0 1 
15243098		 # 	collision with: 6 5 0  and 5 6 0 
15243107		 # 	collision with: 6 5 0  and 5 6 0 
15243133		 # 	collision with: 6 1 0  and 1 2 0 
15243135		 # 	collision with: 6 5 0  and 5 6 0 
15243149		 # 	collision with: 0 0 1  and 3 2 1 
15243151		 # 	collision with: 9 0 0  and 9 1 0 
15243152		 # 	collision with: 1 3 0  and 5 4 0 
15243154		 # 	collision with: 6 5 0  and 5 6 0 
15243164		 # 	collision with: 10 4 0  and 10 5 0 
15243166		 # 	collision with: 0 4 0  and 1 6 0 
15243169		 # 	collision with: 2 5 0  and 0 0 1 
15243171		 # 	collision with: 9 1 0  and 0 2 0 
15243188		 # 	collision with: 3 3 0  and 1 5 0 
15243190		 # 	collision with: 6 5 0  and 5 6 0 
15243208		 # 	collision with: 4 0 0  and 6 2 0 
15243210		 # 	collision with: 6 5 0  and 5 6 0 
15243233		 # 	collision with: 6 2 0  and 9 4 0 
15243235		 # 	collision with: 8 2 0  and 5 4 0 
15243245		 # 	collision with: 2 4 0  and 3 4 0 
15243247		 # 	collision with: 6 5 0  and 5 6 0 
15243256		 # 	collision with: 8 3 0  and 9 5 0 
15243258		 # 	collision with: 2 1 0  and 7 2 0 
15243264		 # 	collision with: 10 10 0  and 2 0 1 
15243266		 # 	collision with: 7 3 0  and 7 5 0 
15243276		 # 	collision with: 0 10 0  and 2 10 0 
15243278		 # 	collision with: 3 0 0  and 5 1 0 
15243280		 # 	collision with: 1 7 0  and 2 2 1 
15243282		 # 	collision with: 6 5 0  and 5 6 0 
15243332		 # 	collision with: 9 4 0  and 1 6 0 
15243334		 # 	collision with: 1 1 0  and 8 2 0 
15243350		 # 	collision with: 2 0 0  and 9 2 0 
15243372		 # 	collision with: 1 4 0  and 9 6 0 
15243374		 # 	collision with: 0 1 0  and 4 3 0 
15243390		 # 	collision with: 6 5 0  and 5 6 0 
15243440		 # 	collision with: 8 0 1  and 9 2 1 
15243442		 # 	collision with: 6 5 0  and 5 6 0 
15243444		 # 	collision with: 2 4 0  and 7 6 0 
15243446		 # 	collision with: 4 0 0  and 5 1 0 
15243456		 # 	collision with: 5 1 0  and 0 3 0 
15243464		 # 	collision with: 8 3 0  and 0 0 1 
15243466		 # 	collision with: 6 5 0  and 5 6 0 
15243477		 # 	collision with: 2 1 0  and 2 0 1 
15243479		 # 	collision with: 6 5 0  and 5 6 0 
15243489		 # 	collision with: 6 4 0  and 0 6 0 
15243491		 # 	collision with: 6 5 0  and 5 6 0 
15243512		 # 	collision with: 4 4 0  and 3 5 0 
15243514		 # 	collision with: 6 5 0  and 5 6 0 
15243532		 # 	collision with: 0 1 0  and 1 1 0 
15243534		 # 	collision with: 2 1 0  and 10 2 0 
15243553		 # 	collision with: 2 1 0  and 7 0 1 
15243555		 # 	collision with: 7 1 0  and 4 2 0 
15243556		 # 	collision with: 10 0 0  and 1 1 0 
15243568		 # 	collision with: 7 3 0  and 6 5 0 
15243570		 # 	collision with: 2 2 0  and 6 3 0 
15243573		 # 	collision with: 2 6 0  and 4 7 0 
15243575		 # 	collision with: 6 5 0  and 5 6 0 
15243580		 # 	collision with: 4 0 0  and 2 1 0 
15243582		 # 	collision with: 8 2 0  and 0 4 0 
15243589		 # 	collision with: 2 3 0  and 7 4 0 
15243617		 # 	collision with: 8 1 0  and 5 3 0 
15243619		 # 	collision with: 5 2 0  and 9 1 1 
15243633		 # 	collision with: 2 3 0  and 7 4 0 
15243635		 # 	collision with: 0 4 0  and 1 6 0 
15243638		 # 	collision with: 9 0 0  and 6 2 0 
15243648		 # 	collision with: 0 0 0  and 1 1 1 
15243650		 # 	collision with: 9 1 0  and 6 2 0 
15243653		 # 	collision with: 2 3 0  and 7 4 0 
15243655		 # 	collision with: 2 0 0  and 9 2 0 
15243672		 # 	collision with: 7 5 0  and 6 6 0 
15243674		 # 	collision with: 5 1 0  and 4 2 0 
15243692		 # 	collision with: 10 4 0  and 10 5 0 
15243694		 # 	collision with: 4 7 0  and 5 7 0 
15243729		 # 	collision with: 2 3 0  and 7 4 0 
15243731		 # 	collision with: 1 4 0  and 6 1 1 
15243740		 # 	collision with: 5 1 0  and 7 2 0 
15243742		 # 	collision with: 9 2 0  and 7 3 0 
15243748		 # 	collision with: 3 5 0  and 7 1 1 
15243750		 # 	collision with: 1 5 0  and 5 0 1 
15243760		 # 	collision with: 6 0 0  and 5 2 0 
15243762		 # 	collision with: 6 4 0  and 5 0 1 
15243764		 # 	collision with: 0 10 0  and 2 10 0 
15243766		 # 	collision with: 9 3 0  and 0 5 0 
15243816		 # 	collision with: 8 2 0  and 3 3 0 
15243832		 # 	collision with: 8 3 0  and 9 5 0 
15243834		 # 	collision with: 10 3 0  and 5 5 0 
15243856		 # 	collision with: 0 10 0  and 10 1 1 
15243858		 # 	collision with: 2 2 0  and 6 3 0 
15243872		 # 	collision with: 1 6 0  and 3 6 0 
15243874		 # 	collision with: 5 4 0  and 1 6 0 
15243924		 # 	collision with: 8 0 0  and 2 1 1 
15243926		 # 	collision with: 4 4 0  and 4 0 1 
15243928		 # 	collision with: 7 4 0  and 9 2 1 
15243930		 # 	collision with: 2 5 0  and 3 0 1 
15243940		 # 	collision with: 3 0 0  and 6 2 0 
15243942		 # 	collision with: 2 1 0  and 2 0 1 
15243948		 # 	collision with: 2 2 0  and 10 4 0 
15243950		 # 	collision with: 0 4 0  and 1 6 0 
15243963		 # 	collision with: 2 2 0  and 6 3 0 
15243973		 # 	collision with: 2 1 0  and 2 3 0 
15243975		 # 	collision with: 8 2 0  and 5 4 0 
15243996		 # 	collision with: 8 1 0  and 5 3 0 
15243998		 # 	collision with: 0 3 0  and 10 4 0 
15244016		 # 	collision with: 10 4 0  and 4 6 0 
15244037		 # 	collision with: 2 3 0  and 7 4 0 
15244039		 # 	collision with: 1 10 0  and 6 0 1 
15244042		 # 	collision with: 7 3 0  and 3 0 1 
15244052		 # 	collision with: 0 4 0  and 6 0 1 
15244054		 # 	collision with: 3 0 0  and 2 2 0 
15244057		 # 	collision with: 2 3 0  and 7 4 0 
15244059		 # 	collision with: 9 4 0  and 4 6 0 
15244064		 # 	collision with: 5 1 0  and 0 3 0 
15244066		 # 	collision with: 9 2 0  and 0 4 0 
15244073		 # 	collision with: 4 3 0  and 4 5 0 
15244075		 # 	collision with: 4 5 0  and 5 6 0 
15244101		 # 	collision with: 6 2 0  and 7 4 0 
15244103		 # 	collision with: 2 4 0  and 3 4 0 
15244117		 # 	collision with: 6 0 1  and 3 1 1 
15244119		 # 	collision with: 5 4 0  and 7 5 0 
15244120		 # 	collision with: 0 2 0  and 7 4 0 
15244122		 # 	collision with: 0 1 0  and 7 3 0 
15244132		 # 	collision with: 7 6 0  and 0 0 1 
15244134		 # 	collision with: 8 8 0  and 0 0 1 
15244137		 # 	collision with: 4 10 0  and 0 0 1 
15244139		 # 	collision with: 9 5 0  and 6 0 1 
15244156		 # 	collision with: 6 1 0  and 5 2 0 
15244158		 # 	collision with: 5 1 0  and 2 2 0 
15244176		 # 	collision with: 8 0 0  and 1 1 0 
15244201		 # 	collision with: 2 3 0  and 5 5 0 
15244203		 # 	collision with: 4 5 0  and 10 6 0 
15244213		 # 	collision with: 7 2 0  and 0 3 0 
15244215		 # 	collision with: 4 1 0  and 1 2 0 
15244224		 # 	collision with: 6 8 0  and 4 0 1 
15244226		 # 	collision with: 3 9 0  and 5 9 0 
15244232		 # 	collision with: 6 8 0  and 9 0 1 
15244234		 # 	collision with: 3 7 0  and 5 0 1 
15244244		 # 	collision with: 5 4 0  and 1 1 1 
15244246		 # 	collision with: 1 3 0  and 4 4 0 
15244250		 # 	collision with: 0 4 0  and 1 6 0 
15244300		 # 	collision with: 2 2 0  and 4 2 0 
15244302		 # 	collision with: 3 1 0  and 0 2 0 
15244316		 # 	collision with: 0 4 0  and 10 6 0 
15244318		 # 	collision with: 5 0 0  and 1 1 0 
15244340		 # 	collision with: 4 3 0  and 6 5 0 
15244342		 # 	collision with: 1 9 0  and 9 0 1 
15244356		 # 	collision with: 5 4 0  and 5 6 0 
15244358		 # 	collision with: 10 1 0  and 10 0 1 
15244408		 # 	collision with: 8 3 0  and 9 5 0 
15244410		 # 	collision with: 7 10 0  and 10 0 1 
15244414		 # 	collision with: 5 3 0  and 6 3 0 
15244424		 # 	collision with: 4 1 0  and 5 0 1 
15244426		 # 	collision with: 2 4 0  and 8 5 0 
15244432		 # 	collision with: 1 6 0  and 1 7 0 
15244445		 # 	collision with: 6 0 0  and 1 2 0 
15244447		 # 	collision with: 0 1 0  and 1 1 0 
15244457		 # 	collision with: 9 5 0  and 7 1 1 
15244459		 # 	collision with: 7 1 0  and 4 2 0 
15244480		 # 	collision with: 3 0 0  and 2 1 0 
15244482		 # 	collision with: 5 1 0  and 4 2 0 
15244500		 # 	collision with: 2 1 0  and 9 3 0 
15244502		 # 	collision with: 7 3 0  and 3 5 0 
15244521		 # 	collision with: 0 2 0  and 7 4 0 
15244523		 # 	collision with: 9 2 0  and 4 3 0 
15244524		 # 	collision with: 7 5 0  and 5 0 1 
15244526		 # 	collision with: 9 6 0  and 6 0 1 
15244536		 # 	collision with: 6 2 0  and 2 3 0 
15244538		 # 	collision with: 3 5 0  and 3 1 1 
15244541		 # 	collision with: 8 2 0  and 8 3 0 
15244543		 # 	collision with: 4 4 0  and 5 5 0 
15244548		 # 	collision with: 6 4 0  and 10 5 0 
15244550		 # 	collision with: 0 4 0  and 1 6 0 
15244557		 # 	collision with: 3 0 0  and 10 1 0 
15244559		 # 	collision with: 7 4 0  and 10 1 1 
15244585		 # 	collision with: 2 0 0  and 3 2 0 
15244587		 # 	collision with: 5 2 0  and 8 1 1 
15244601		 # 	collision with: 8 1 0  and 5 3 0 
15244603		 # 	collision with: 6 4 0  and 4 0 1 
15244604		 # 	collision with: 8 4 0  and 2 6 0 
15244606		 # 	collision with: 9 0 0  and 3 1 0 
15244616		 # 	collision with: 2 4 0  and 7 6 0 
15244618		 # 	collision with: 4 3 0  and 0 4 0 
15244623		 # 	collision with: 4 4 0  and 8 1 1 
15244640		 # 	collision with: 6 3 0  and 8 4 0 
15244642		 # 	collision with: 3 4 0  and 2 5 0 
15244662		 # 	collision with: 7 3 0  and 0 4 0 
15244685		 # 	collision with: 9 4 0  and 5 5 0 
15244687		 # 	collision with: 9 1 0  and 6 2 0 
15244697		 # 	collision with: 9 4 0  and 5 5 0 
15244699		 # 	collision with: 3 0 0  and 7 1 0 
15244708		 # 	collision with: 1 4 0  and 7 0 1 
15244710		 # 	collision with: 8 4 0  and 10 1 1 
15244716		 # 	collision with: 10 3 0  and 5 4 0 
15244718		 # 	collision with: 5 1 0  and 2 2 0 
15244728		 # 	collision with: 0 0 0  and 1 1 1 
15244730		 # 	collision with: 5 0 0  and 1 1 0 
15244732		 # 	collision with: 10 6 0  and 1 0 1 
15244734		 # 	collision with: 7 4 0  and 0 6 0 
15244784		 # 	collision with: 4 1 0  and 5 0 1 
15244786		 # 	collision with: 5 4 0  and 3 5 0 
15244800		 # 	collision with: 9 3 0  and 7 4 0 
15244802		 # 	collision with: 10 8 0  and 7 0 1 
15244824		 # 	collision with: 1 6 0  and 3 6 0 
15244826		 # 	collision with: 4 3 0  and 3 5 0 
15244840		 # 	collision with: 4 1 0  and 6 3 0 
15244842		 # 	collision with: 3 5 0  and 3 6 0 
15244892		 # 	collision with: 10 1 0  and 10 0 1 
15244896		 # 	collision with: 10 0 0  and 1 1 0 
15244898		 # 	collision with: 7 1 0  and 7 0 1 
15244908		 # 	collision with: 3 9 0  and 5 9 0 
15244910		 # 	collision with: 0 5 0  and 2 6 0 
15244916		 # 	collision with: 4 2 0  and 6 4 0 
15244918		 # 	collision with: 1 1 0  and 9 2 0 
15244929		 # 	collision with: 9 4 0  and 5 5 0 
15244931		 # 	collision with: 3 0 0  and 2 2 0 
15244941		 # 	collision with: 10 3 0  and 0 4 0 
15244943		 # 	collision with: 8 4 0  and 7 6 0 
15244964		 # 	collision with: 3 3 0  and 1 5 0 
15244966		 # 	collision with: 4 1 0  and 5 2 0 
15244986		 # 	collision with: 10 5 0  and 6 3 1 
15245005		 # 	collision with: 9 4 0  and 5 5 0 
15245007		 # 	collision with: 0 0 0  and 1 1 1 
15245008		 # 	collision with: 2 4 0  and 8 6 0 
15245010		 # 	collision with: 9 1 0  and 0 3 0 
15245020		 # 	collision with: 1 1 1  and 2 2 1 
15245027		 # 	collision with: 5 0 0  and 8 2 0 
15245032		 # 	collision with: 3 2 0  and 2 4 0 
15245034		 # 	collision with: 0 1 0  and 9 2 0 
15245041		 # 	collision with: 5 3 0  and 6 3 0 
15245043		 # 	collision with: 4 3 0  and 3 5 0 
15245069		 # 	collision with: 2 1 0  and 0 2 0 
15245071		 # 	collision with: 6 2 0  and 10 4 0 
15245085		 # 	collision with: 5 4 0  and 10 6 0 
15245087		 # 	collision with: 2 2 0  and 5 0 1 
15245088		 # 	collision with: 6 0 0  and 6 1 0 
15245090		 # 	collision with: 3 2 0  and 0 0 1 
15245100		 # 	collision with: 6 2 0  and 9 3 0 
15245102		 # 	collision with: 3 0 0  and 5 1 0 
15245105		 # 	collision with: 4 4 0  and 7 5 0 
15245107		 # 	collision with: 4 1 0  and 5 2 0 
15245124		 # 	collision with: 7 2 0  and 0 3 0 
15245126		 # 	collision with: 2 0 0  and 1 1 0 
15245144		 # 	collision with: 8 3 0  and 1 5 0 
15245146		 # 	collision with: 4 5 0  and 5 6 0 
15245169		 # 	collision with: 9 4 0  and 1 6 0 
15245171		 # 	collision with: 4 3 0  and 5 4 0 
15245181		 # 	collision with: 4 2 0  and 6 4 0 
15245194		 # 	collision with: 8 9 0  and 3 1 1 
15245200		 # 	collision with: 5 1 0  and 0 3 0 
15245202		 # 	collision with: 1 3 0  and 4 4 0 
15245212		 # 	collision with: 0 2 0  and 9 3 0 
15245214		 # 	collision with: 1 6 0  and 3 6 0 
15245216		 # 	collision with: 10 1 0  and 2 3 0 
15245218		 # 	collision with: 6 7 0  and 5 0 1 
15245268		 # 	collision with: 6 0 1  and 9 1 1 
15245270		 # 	collision with: 1 5 0  and 8 0 1 
15245284		 # 	collision with: 1 8 0  and 2 1 1 
15245286		 # 	collision with: 8 1 0  and 5 2 0 
15245308		 # 	collision with: 9 4 0  and 3 6 0 
15245324		 # 	collision with: 2 2 0  and 10 4 0 
15245326		 # 	collision with: 1 4 0  and 7 1 1 
15245376		 # 	collision with: 6 3 0  and 0 0 1 
15245378		 # 	collision with: 0 4 0  and 1 6 0 
15245380		 # 	collision with: 4 5 0  and 6 5 0 
15245394		 # 	collision with: 9 0 0  and 9 1 0 
15245400		 # 	collision with: 6 10 0  and 1 1 1 
15245402		 # 	collision with: 8 9 0  and 8 0 1 
15245413		 # 	collision with: 5 4 0  and 5 6 0 
15245415		 # 	collision with: 4 4 0  and 1 1 1 
15245425		 # 	collision with: 6 5 0  and 3 0 1 
15245427		 # 	collision with: 10 1 0  and 10 2 0 
15245448		 # 	collision with: 8 1 0  and 6 3 0 
15245450		 # 	collision with: 7 1 0  and 4 2 0 
15245468		 # 	collision with: 4 1 0  and 6 3 0 
15245470		 # 	collision with: 4 5 0  and 6 5 0 
15245489		 # 	collision with: 0 0 0  and 1 1 1 
15245491		 # 	collision with: 0 4 0  and 1 0 1 
15245492		 # 	collision with: 0 6 0  and 6 0 1 
15245494		 # 	collision with: 8 2 0  and 8 0 1 
15245504		 # 	collision with: 10 4 0  and 2 1 1 
15245506		 # 	collision with: 10 3 0  and 1 4 0 
15245509		 # 	collision with: 4 7 0  and 5 7 0 
15245516		 # 	collision with: 10 4 0  and 0 0 1 
15245518		 # 	collision with: 9 1 0  and 0 2 0 
15245525		 # 	collision with: 10 3 0  and 0 4 0 
15245527		 # 	collision with: 9 2 0  and 7 3 0 
15245553		 # 	collision with: 8 2 0  and 3 3 0 
15245555		 # 	collision with: 9 0 0  and 3 1 0 
15245569		 # 	collision with: 1 3 0  and 3 0 1 
15245572		 # 	collision with: 2 4 0  and 7 2 1 
15245574		 # 	collision with: 6 10 0  and 0 2 1 
15245584		 # 	collision with: 4 1 0  and 4 0 1 
15245586		 # 	collision with: 9 0 1  and 4 1 1 
15245589		 # 	collision with: 1 1 0  and 10 0 1 
15245591		 # 	collision with: 1 9 0  and 0 0 1 
15245608		 # 	collision with: 3 0 0  and 2 1 0 
15245610		 # 	collision with: 7 1 0  and 5 3 0 
15245628		 # 	collision with: 7 4 0  and 3 6 0 
15245630		 # 	collision with: 7 5 0  and 1 6 0 
15245653		 # 	collision with: 5 5 0  and 1 6 0 
15245655		 # 	collision with: 3 6 0  and 7 0 1 
15245665		 # 	collision with: 1 6 0  and 1 7 0 
15245667		 # 	collision with: 4 10 0  and 6 2 1 
15245676		 # 	collision with: 4 0 0  and 6 2 0 
15245678		 # 	collision with: 4 1 0  and 1 2 0 
15245686		 # 	collision with: 4 3 0  and 0 4 0 
15245696		 # 	collision with: 2 1 0  and 6 2 0 
15245700		 # 	collision with: 4 3 0  and 4 5 0 
15245702		 # 	collision with: 5 5 0  and 8 0 1 
15245752		 # 	collision with: 7 1 0  and 0 3 0 
15245754		 # 	collision with: 1 1 0  and 1 0 1 
15245768		 # 	collision with: 2 2 0  and 4 2 0 
15245792		 # 	collision with: 1 2 0  and 2 0 1 
15245794		 # 	collision with: 3 4 0  and 1 1 1 
15245808		 # 	collision with: 10 1 0  and 6 2 0 
15245810		 # 	collision with: 3 0 0  and 7 1 0 
15245860		 # 	collision with: 10 4 0  and 4 0 1 
15245862		 # 	collision with: 5 3 0  and 6 3 0 
15245864		 # 	collision with: 1 4 0  and 7 5 0 
15245866		 # 	collision with: 9 1 0  and 6 2 0 
15245876		 # 	collision with: 5 3 0  and 0 1 1 
15245878		 # 	collision with: 1 3 0  and 4 4 0 
15245886		 # 	collision with: 9 2 0  and 5 4 0 
15245897		 # 	collision with: 3 9 0  and 5 9 0 
15245909		 # 	collision with: 10 7 0  and 0 0 1 
15245911		 # 	collision with: 4 2 0  and 2 0 1 
15245932		 # 	collision with: 0 1 0  and 1 1 0 
15245934		 # 	collision with: 4 0 0  and 2 2 0 
15245952		 # 	collision with: 9 4 0  and 1 6 0 
15245954		 # 	collision with: 9 4 0  and 4 6 0 
15245973		 # 	collision with: 4 8 0  and 2 2 1 
15245975		 # 	collision with: 4 3 0  and 0 4 0 
15245976		 # 	collision with: 8 0 0  and 1 1 0 
15245978		 # 	collision with: 1 8 0  and 10 1 1 
15245988		 # 	collision with: 5 1 0  and 0 3 0 
15245990		 # 	collision with: 2 2 0  and 4 2 0 
15245993		 # 	collision with: 4 0 0  and 6 2 0 
15245995		 # 	collision with: 1 2 0  and 2 0 1 
7.02833secs	4746
