# prime 11
# degree 2
# input variables 3
# output variables 4
# reload computed balance functions from file balance-2037of3248-p11d2m3-debug.log
# p = 11
# n = 4
# smalldomain p^m 1331
# domain p^n 14641
#	 p^2 = 121
#	 p^3 = 1331
#	 p^4 = 14641
#	 p^5 = 161051
#	 p^6 = 1771561
#	 p^7 = 19487171
#	 p^8 = 214358881
#	 p^9 = 2357947691
opening file : balance-2037of3248-p11d2m3-debug.log
reloading for step2...
12222029		 # 	collision with: 5 2 0 0  and 2 9 1 0 
12222031		 # 	collision with: 5 1 0 0  and 5 3 0 0 
12222037		 # 	collision with: 3 1 0 0  and 8 3 0 0 
12222039		 # 	collision with: 3 5 0 0  and 3 5 1 0 
12222097		 # 	collision with: 5 7 0 0  and 6 7 0 0 
12222099		 # 	collision with: 5 5 0 0  and 0 8 1 0 
12222193		 # 	collision with: 0 9 0 0  and 4 2 1 0 
12222195		 # 	collision with: 5 7 1 0  and 10 0 2 0 
12222209		 # 	collision with: 4 1 0 0  and 4 3 0 0 
12222211		 # 	collision with: 0 1 1 0  and 6 3 3 0 
12222257		 # 	collision with: 3 1 0 0  and 8 3 0 0 
12222259		 # 	collision with: 1 4 0 0  and 10 2 1 0 
12222273		 # 	collision with: 5 7 0 0  and 6 7 0 0 
12222275		 # 	collision with: 9 8 0 0  and 10 1 1 0 
12222369		 # 	collision with: 6 4 0 0  and 2 6 2 0 
12222371		 # 	collision with: 4 7 0 0  and 8 6 1 0 
12222429		 # 	collision with: 4 1 0 0  and 4 3 0 0 
12222431		 # 	collision with: 9 0 0 0  and 9 8 2 0 
12222437		 # 	collision with: 6 9 0 0  and 9 10 1 0 
12222439		 # 	collision with: 3 2 0 0  and 9 1 1 0 
12222452		 # 	collision with: 3 1 0 0  and 1 2 1 0 
12222454		 # 	collision with: 0 4 0 0  and 8 7 2 0 
12222469		 # 	collision with: 1 4 0 0  and 6 7 1 0 
12222471		 # 	collision with: 4 1 0 0  and 4 2 0 0 
12222481		 # 	collision with: 8 4 0 0  and 0 2 1 0 
12222483		 # 	collision with: 9 1 0 0  and 1 2 0 0 
12222513		 # 	collision with: 1 4 1 0  and 4 2 2 0 
12222515		 # 	collision with: 4 1 0 0  and 4 2 0 0 
12222521		 # 	collision with: 0 6 0 0  and 1 1 1 0 
12222523		 # 	collision with: 9 1 0 0  and 1 2 2 0 
12222581		 # 	collision with: 1 3 0 0  and 1 3 1 0 
12222583		 # 	collision with: 9 10 0 0  and 7 9 1 0 
12222677		 # 	collision with: 2 0 1 0  and 2 2 1 0 
12222679		 # 	collision with: 6 0 1 0  and 10 2 1 0 
12222693		 # 	collision with: 7 3 0 0  and 10 2 1 0 
12222695		 # 	collision with: 2 4 1 0  and 2 4 3 0 
12222741		 # 	collision with: 5 5 0 0  and 2 3 1 0 
12222757		 # 	collision with: 4 3 0 0  and 4 3 1 0 
12222759		 # 	collision with: 2 5 0 0  and 1 2 1 0 
12222853		 # 	collision with: 2 0 1 0  and 2 2 1 0 
12222855		 # 	collision with: 10 3 0 0  and 2 9 1 0 
12222913		 # 	collision with: 8 8 0 0  and 1 3 1 0 
12222915		 # 	collision with: 0 3 2 0  and 1 3 2 0 
12222921		 # 	collision with: 8 4 0 0  and 0 2 1 0 
12222936		 # 	collision with: 6 10 1 0  and 4 2 2 0 
12222938		 # 	collision with: 0 3 0 0  and 9 10 1 0 
12222955		 # 	collision with: 3 0 0 0  and 3 2 0 0 
12222965		 # 	collision with: 2 1 1 0  and 6 0 2 0 
12222967		 # 	collision with: 10 9 0 0  and 3 8 1 0 
12222997		 # 	collision with: 1 2 0 0  and 1 2 1 0 
12222999		 # 	collision with: 3 0 0 0  and 3 2 0 0 
12223005		 # 	collision with: 2 0 0 0  and 2 2 0 0 
12223065		 # 	collision with: 4 0 0 0  and 7 2 0 0 
12223067		 # 	collision with: 6 3 0 0  and 6 3 1 0 
12223161		 # 	collision with: 3 3 0 0  and 7 7 2 0 
12223163		 # 	collision with: 4 6 0 0  and 3 9 2 0 
12223177		 # 	collision with: 5 7 0 0  and 6 7 0 0 
12223179		 # 	collision with: 2 3 0 0  and 4 8 1 0 
12223225		 # 	collision with: 2 0 0 0  and 2 2 0 0 
12223227		 # 	collision with: 6 10 0 0  and 7 7 1 0 
12223241		 # 	collision with: 4 0 0 0  and 7 2 0 0 
12223337		 # 	collision with: 1 2 2 0  and 3 2 2 0 
12223339		 # 	collision with: 0 3 1 0  and 1 3 1 0 
12223397		 # 	collision with: 5 7 0 0  and 6 7 0 0 
12223399		 # 	collision with: 5 3 0 0  and 8 0 1 0 
12223405		 # 	collision with: 9 2 1 0  and 3 4 1 0 
12223407		 # 	collision with: 10 2 1 0  and 1 4 1 0 
12223420		 # 	collision with: 2 1 0 0  and 4 4 1 0 
12223422		 # 	collision with: 0 6 0 0  and 9 4 2 0 
12223437		 # 	collision with: 10 3 1 0  and 1 5 1 0 
12223439		 # 	collision with: 2 0 0 0  and 2 1 0 0 
12223449		 # 	collision with: 6 7 0 0  and 6 10 1 0 
12223481		 # 	collision with: 7 9 0 0  and 1 1 2 0 
12223483		 # 	collision with: 2 0 0 0  and 2 1 0 0 
12223489		 # 	collision with: 10 4 0 0  and 10 6 2 0 
12223491		 # 	collision with: 4 4 1 0  and 5 4 1 0 
12223549		 # 	collision with: 9 3 0 0  and 3 3 1 0 
12223551		 # 	collision with: 8 10 0 0  and 4 1 1 0 
12223645		 # 	collision with: 2 1 0 0  and 2 1 2 0 
12223647		 # 	collision with: 5 2 1 0  and 8 4 2 0 
12223663		 # 	collision with: 0 6 0 0  and 5 1 1 0 
12223709		 # 	collision with: 0 7 1 0  and 4 1 2 0 
12223711		 # 	collision with: 9 2 0 0  and 9 2 2 0 
12223727		 # 	collision with: 5 10 0 0  and 3 1 1 0 
12223821		 # 	collision with: 6 1 0 0  and 6 1 2 0 
12223881		 # 	collision with: 1 2 0 0  and 8 3 1 0 
12223883		 # 	collision with: 5 7 1 0  and 6 7 1 0 
12223889		 # 	collision with: 3 0 2 0  and 9 6 3 0 
12223891		 # 	collision with: 0 4 0 0  and 5 1 2 0 
12223917		 # 	collision with: 7 2 0 0  and 2 0 1 0 
12223919		 # 	collision with: 9 8 0 0  and 6 1 2 0 
12223937		 # 	collision with: 8 7 0 0  and 7 4 2 0 
12223939		 # 	collision with: 1 2 0 0  and 3 3 1 0 
12223961		 # 	collision with: 3 9 0 0  and 5 0 1 0 
12223963		 # 	collision with: 1 4 0 0  and 10 7 2 0 
12223977		 # 	collision with: 8 1 0 0  and 5 1 1 0 
12223979		 # 	collision with: 10 1 0 0  and 10 1 1 0 
12224035		 # 	collision with: 4 10 0 0  and 6 10 0 0 
12224153		 # 	collision with: 6 9 0 0  and 3 0 1 0 
12224165		 # 	collision with: 2 0 1 0  and 4 0 1 0 
12224167		 # 	collision with: 4 10 0 0  and 6 10 0 0 
12224173		 # 	collision with: 9 9 0 0  and 9 0 1 0 
12224175		 # 	collision with: 3 4 0 0  and 4 3 1 0 
12224185		 # 	collision with: 5 9 0 0  and 8 0 1 0 
12224307		 # 	collision with: 4 2 0 0  and 6 0 1 0 
12224361		 # 	collision with: 6 8 0 0  and 1 8 2 0 
12224363		 # 	collision with: 1 5 0 0  and 1 6 0 0 
12224377		 # 	collision with: 1 1 1 0  and 0 2 1 0 
12224379		 # 	collision with: 8 6 0 0  and 4 5 1 0 
12224388		 # 	collision with: 9 10 1 0  and 6 1 2 0 
12224390		 # 	collision with: 7 0 0 0  and 0 7 1 0 
12224403		 # 	collision with: 0 6 0 0  and 4 6 1 0 
12224421		 # 	collision with: 8 3 3 0  and 8 5 3 0 
12224423		 # 	collision with: 0 8 0 0  and 6 6 1 0 
12224445		 # 	collision with: 5 7 0 0  and 6 7 0 0 
12224447		 # 	collision with: 3 9 0 0  and 4 0 2 0 
12224461		 # 	collision with: 2 10 0 0  and 1 8 1 0 
12224463		 # 	collision with: 1 1 0 0  and 3 0 2 0 
12224517		 # 	collision with: 10 4 0 0  and 10 6 0 0 
12224637		 # 	collision with: 7 5 0 0  and 4 4 1 0 
12224639		 # 	collision with: 4 0 0 0  and 1 8 1 0 
12224649		 # 	collision with: 10 4 0 0  and 10 6 0 0 
12224651		 # 	collision with: 4 4 0 0  and 6 6 0 0 
12224657		 # 	collision with: 2 5 0 0  and 8 6 1 0 
12224659		 # 	collision with: 7 8 0 0  and 8 4 1 0 
12224669		 # 	collision with: 3 6 0 0  and 4 8 1 0 
12224671		 # 	collision with: 1 8 0 0  and 4 3 1 0 
12224789		 # 	collision with: 4 2 0 0  and 10 5 1 0 
12224791		 # 	collision with: 10 4 1 0  and 10 5 1 0 
12224845		 # 	collision with: 2 10 0 0  and 2 10 1 0 
12224847		 # 	collision with: 10 2 1 0  and 1 4 1 0 
12224861		 # 	collision with: 0 4 1 0  and 1 4 1 0 
12224872		 # 	collision with: 6 1 0 0  and 1 10 1 0 
12224874		 # 	collision with: 10 7 1 0  and 4 8 2 0 
12224885		 # 	collision with: 2 0 0 0  and 1 7 1 0 
12224887		 # 	collision with: 4 3 0 0  and 2 0 1 0 
12224905		 # 	collision with: 1 0 1 0  and 1 1 1 0 
12224907		 # 	collision with: 6 0 1 0  and 4 1 1 0 
12224929		 # 	collision with: 9 10 0 0  and 7 1 1 0 
12224931		 # 	collision with: 0 3 0 0  and 7 6 1 0 
12224945		 # 	collision with: 9 7 0 0  and 3 5 1 0 
12225001		 # 	collision with: 4 4 0 0  and 7 5 0 0 
12225003		 # 	collision with: 7 6 0 0  and 10 0 1 0 
12225121		 # 	collision with: 5 8 0 0  and 6 1 1 0 
12225123		 # 	collision with: 2 3 1 0  and 3 3 1 0 
12225133		 # 	collision with: 4 4 0 0  and 7 5 0 0 
12225135		 # 	collision with: 2 9 0 0  and 3 3 2 0 
12225141		 # 	collision with: 9 4 0 0  and 9 5 0 0 
12225143		 # 	collision with: 4 10 0 0  and 6 10 0 0 
12225153		 # 	collision with: 5 2 1 0  and 5 3 1 0 
12225155		 # 	collision with: 5 0 0 0  and 5 4 1 0 
12225273		 # 	collision with: 9 4 0 0  and 9 5 0 0 
12225275		 # 	collision with: 4 10 0 0  and 6 10 0 0 
12225329		 # 	collision with: 5 2 1 0  and 5 3 1 0 
12225331		 # 	collision with: 3 10 0 0  and 3 10 1 0 
12225345		 # 	collision with: 1 0 1 0  and 1 1 1 0 
12225347		 # 	collision with: 0 1 2 0  and 1 3 2 0 
12225356		 # 	collision with: 1 4 0 0  and 8 10 1 0 
12225358		 # 	collision with: 5 9 0 0  and 1 1 2 0 
12225369		 # 	collision with: 8 5 0 0  and 4 9 1 0 
12225371		 # 	collision with: 3 1 0 0  and 5 0 1 0 
12225389		 # 	collision with: 2 10 0 0  and 0 7 1 0 
12225391		 # 	collision with: 9 3 0 0  and 9 5 0 0 
12225415		 # 	collision with: 3 2 1 0  and 6 3 1 0 
12225429		 # 	collision with: 1 7 1 0  and 2 2 3 0 
12225431		 # 	collision with: 2 7 0 0  and 4 1 1 0 
12225485		 # 	collision with: 9 7 0 0  and 1 1 2 0 
12225487		 # 	collision with: 9 1 0 0  and 4 1 2 0 
12225605		 # 	collision with: 3 7 0 0  and 8 1 1 0 
12225607		 # 	collision with: 4 8 1 0  and 10 7 2 0 
12225617		 # 	collision with: 0 3 0 0  and 7 8 1 0 
12225619		 # 	collision with: 0 7 0 0  and 4 9 1 0 
12225625		 # 	collision with: 4 3 0 0  and 2 9 2 0 
12225627		 # 	collision with: 0 9 0 0  and 2 1 1 0 
12225637		 # 	collision with: 10 3 0 0  and 1 7 2 0 
12225639		 # 	collision with: 3 1 0 0  and 1 0 1 0 
12225757		 # 	collision with: 4 8 2 0  and 4 8 3 0 
12225759		 # 	collision with: 8 10 0 0  and 10 1 1 0 
12225815		 # 	collision with: 7 3 0 0  and 2 4 2 0 
12225829		 # 	collision with: 2 10 0 0  and 0 7 1 0 
12225831		 # 	collision with: 9 3 0 0  and 9 5 0 0 
12225840		 # 	collision with: 7 0 1 0  and 1 6 2 0 
12225842		 # 	collision with: 8 7 0 0  and 1 6 1 0 
12225853		 # 	collision with: 4 2 0 0  and 0 3 1 0 
12225855		 # 	collision with: 4 10 0 0  and 6 10 0 0 
12225873		 # 	collision with: 1 6 1 0  and 7 0 2 0 
12225875		 # 	collision with: 4 10 1 0  and 9 6 2 0 
12225897		 # 	collision with: 6 5 0 0  and 6 1 1 0 
12225899		 # 	collision with: 4 10 0 0  and 6 10 0 0 
12225913		 # 	collision with: 5 6 0 0  and 4 1 1 0 
12225915		 # 	collision with: 3 4 0 0  and 0 1 2 0 
12225969		 # 	collision with: 3 0 0 0  and 3 3 1 0 
12225971		 # 	collision with: 8 3 0 0  and 8 4 0 0 
12226089		 # 	collision with: 9 3 1 0  and 5 4 2 0 
12226091		 # 	collision with: 7 10 0 0  and 1 9 1 0 
12226101		 # 	collision with: 8 3 0 0  and 6 2 2 0 
12226103		 # 	collision with: 8 3 0 0  and 8 4 0 0 
12226109		 # 	collision with: 5 7 0 0  and 6 7 0 0 
12226111		 # 	collision with: 1 4 0 0  and 3 5 1 0 
12226121		 # 	collision with: 10 1 1 0  and 6 2 1 0 
12226123		 # 	collision with: 7 2 1 0  and 1 0 2 0 
12226241		 # 	collision with: 5 7 0 0  and 6 7 0 0 
12226243		 # 	collision with: 9 9 0 0  and 6 2 1 0 
12226297		 # 	collision with: 1 1 1 0  and 0 2 1 0 
12226299		 # 	collision with: 8 7 0 0  and 1 6 1 0 
12226313		 # 	collision with: 3 5 1 0  and 1 1 2 0 
12226315		 # 	collision with: 2 1 0 0  and 1 3 1 0 
12226324		 # 	collision with: 6 0 1 0  and 8 7 2 0 
12226326		 # 	collision with: 10 0 2 0  and 8 6 3 0 
12226337		 # 	collision with: 10 9 1 0  and 4 9 3 0 
12226357		 # 	collision with: 3 7 0 0  and 5 1 1 0 
12226359		 # 	collision with: 2 10 0 0  and 10 8 1 0 
12226381		 # 	collision with: 1 1 1 0  and 9 2 1 0 
12226383		 # 	collision with: 6 3 0 0  and 1 1 1 0 
12226397		 # 	collision with: 9 1 0 0  and 4 1 1 0 
12226399		 # 	collision with: 2 10 2 0  and 7 2 3 0 
12226453		 # 	collision with: 4 4 0 0  and 10 3 1 0 
12226455		 # 	collision with: 3 4 0 0  and 4 3 1 0 
12226575		 # 	collision with: 1 8 0 0  and 1 3 1 0 
12226585		 # 	collision with: 7 3 1 0  and 7 4 1 0 
12226595		 # 	collision with: 9 7 0 0  and 2 7 1 0 
12226605		 # 	collision with: 5 7 0 0  and 6 7 0 0 
12226607		 # 	collision with: 4 10 0 0  and 6 10 0 0 
12226725		 # 	collision with: 5 6 0 0  and 4 1 1 0 
12226727		 # 	collision with: 3 7 0 0  and 3 7 1 0 
12226781		 # 	collision with: 5 7 0 0  and 6 7 0 0 
12226783		 # 	collision with: 4 10 0 0  and 6 10 0 0 
12226797		 # 	collision with: 10 5 0 0  and 9 5 1 0 
12226799		 # 	collision with: 7 4 0 0  and 5 4 2 0 
12226808		 # 	collision with: 2 0 1 0  and 8 4 2 0 
12226810		 # 	collision with: 5 6 1 0  and 1 10 2 0 
12226821		 # 	collision with: 0 4 0 0  and 2 10 1 0 
12226823		 # 	collision with: 4 10 0 0  and 9 6 1 0 
12226841		 # 	collision with: 10 7 0 0  and 7 2 1 0 
12226865		 # 	collision with: 8 1 0 0  and 9 3 1 0 
12226867		 # 	collision with: 4 2 1 0  and 5 2 1 0 
12226881		 # 	collision with: 5 7 0 0  and 6 7 0 0 
12226883		 # 	collision with: 4 10 0 0  and 4 4 1 0 
12226937		 # 	collision with: 3 10 0 0  and 5 3 1 0 
12226939		 # 	collision with: 9 1 0 0  and 4 2 1 0 
12227057		 # 	collision with: 5 7 0 0  and 6 7 0 0 
12227059		 # 	collision with: 4 10 0 0  and 8 4 1 0 
12227071		 # 	collision with: 1 4 0 0  and 10 2 1 0 
12227077		 # 	collision with: 7 4 1 0  and 5 1 3 0 
12227091		 # 	collision with: 2 0 1 0  and 2 1 1 0 
12227209		 # 	collision with: 9 5 0 0  and 4 2 1 0 
12227211		 # 	collision with: 6 2 0 0  and 10 6 1 0 
12227265		 # 	collision with: 0 4 1 0  and 1 4 1 0 
12227267		 # 	collision with: 2 0 1 0  and 2 1 1 0 
12227281		 # 	collision with: 7 5 0 0  and 7 5 1 0 
12227283		 # 	collision with: 10 5 0 0  and 9 5 1 0 
12227292		 # 	collision with: 7 10 1 0  and 3 4 2 0 
12227294		 # 	collision with: 10 9 1 0  and 5 1 3 0 
12227305		 # 	collision with: 3 1 0 0  and 8 3 0 0 
12227307		 # 	collision with: 5 9 1 0  and 6 2 2 0 
12227325		 # 	collision with: 4 0 0 0  and 8 4 2 0 
12227327		 # 	collision with: 1 3 1 0  and 9 4 1 0 
12227349		 # 	collision with: 3 1 0 0  and 8 3 0 0 
12227351		 # 	collision with: 4 7 2 0  and 1 9 3 0 
12227365		 # 	collision with: 4 10 1 0  and 6 10 1 0 
12227367		 # 	collision with: 5 0 2 0  and 3 1 2 0 
12227421		 # 	collision with: 5 7 0 0  and 6 7 0 0 
12227423		 # 	collision with: 4 9 1 0  and 10 9 2 0 
12227541		 # 	collision with: 10 3 1 0  and 7 5 1 0 
12227543		 # 	collision with: 9 5 1 0  and 9 5 2 0 
12227553		 # 	collision with: 5 7 0 0  and 6 7 0 0 
12227555		 # 	collision with: 9 4 0 0  and 3 4 1 0 
12227561		 # 	collision with: 3 1 1 0  and 3 2 1 0 
12227563		 # 	collision with: 5 1 0 0  and 5 3 0 0 
12227573		 # 	collision with: 4 1 0 0  and 4 3 0 0 
12227575		 # 	collision with: 6 8 1 0  and 4 0 2 0 
12227693		 # 	collision with: 3 1 1 0  and 3 2 1 0 
12227695		 # 	collision with: 5 1 0 0  and 5 3 0 0 
12227749		 # 	collision with: 4 1 0 0  and 4 3 0 0 
12227751		 # 	collision with: 2 10 0 0  and 3 1 1 0 
12227765		 # 	collision with: 8 4 1 0  and 6 3 2 0 
12227767		 # 	collision with: 9 3 1 0  and 2 4 1 0 
12227776		 # 	collision with: 10 6 1 0  and 2 9 2 0 
12227778		 # 	collision with: 4 4 0 0  and 7 9 1 0 
12227789		 # 	collision with: 10 2 0 0  and 5 7 1 0 
12227791		 # 	collision with: 10 2 1 0  and 0 4 2 0 
12227809		 # 	collision with: 3 1 0 0  and 3 2 0 0 
12227811		 # 	collision with: 7 2 1 0  and 7 4 1 0 
12227833		 # 	collision with: 8 1 0 0  and 9 3 2 0 
12227835		 # 	collision with: 9 6 0 0  and 6 6 1 0 
12227851		 # 	collision with: 4 10 0 0  and 6 10 0 0 
12227905		 # 	collision with: 0 3 0 0  and 4 2 1 0 
12227907		 # 	collision with: 5 1 1 0  and 5 3 1 0 
18.9952secs	5861
