# prime 11
# degree 2
# input variables 3
# output variables 3
# reload computed balance functions from file balance-88of3248-p11d2m3-debug.log
# p = 11
# n = 3
# smalldomain p^m 1331
# domain p^n 1331
#	 p^2 = 121
#	 p^3 = 1331
#	 p^4 = 14641
#	 p^5 = 161051
#	 p^6 = 1771561
#	 p^7 = 19487171
#	 p^8 = 214358881
#	 p^9 = 2357947691
opening file : balance-88of3248-p11d2m3-debug.log
reloading for step2...
528000		 # 	collision with: 9 7 0  and 8 1 1 
528002		 # 	collision with: 1 10 0  and 10 0 1 
528009		 # 	collision with: 4 0 0  and 6 0 0 
528011		 # 	collision with: 0 0 0  and 6 2 0 
528044		 # 	collision with: 1 10 0  and 1 0 1 
528046		 # 	collision with: 8 10 0  and 10 8 1 
528048		 # 	collision with: 4 6 0  and 5 0 1 
528050		 # 	collision with: 9 10 0  and 4 0 1 
528052		 # 	collision with: 9 6 0  and 0 3 1 
528054		 # 	collision with: 5 2 0  and 3 3 1 
528056		 # 	collision with: 7 6 0  and 2 1 1 
528058		 # 	collision with: 9 2 0  and 2 3 1 
528060		 # 	collision with: 6 8 0  and 3 0 1 
528062		 # 	collision with: 5 7 0  and 3 0 1 
528064		 # 	collision with: 3 5 0  and 4 1 1 
528066		 # 	collision with: 1 7 0  and 7 0 1 
528068		 # 	collision with: 9 7 0  and 7 9 1 
528070		 # 	collision with: 3 4 0  and 0 0 1 
528072		 # 	collision with: 2 8 0  and 3 0 1 
528076		 # 	collision with: 4 6 0  and 4 2 1 
528078		 # 	collision with: 8 0 0  and 6 1 0 
528080		 # 	collision with: 7 8 1  and 3 1 2 
528082		 # 	collision with: 0 3 0  and 5 0 1 
528084		 # 	collision with: 3 6 0  and 5 0 1 
528086		 # 	collision with: 1 10 0  and 1 0 1 
528088		 # 	collision with: 5 6 0  and 4 1 1 
528090		 # 	collision with: 9 7 0  and 2 0 1 
528125		 # 	collision with: 4 0 0  and 5 0 0 
528127		 # 	collision with: 4 0 0  and 6 2 0 
528132		 # 	collision with: 6 9 0  and 3 0 1 
528134		 # 	collision with: 8 5 0  and 1 0 1 
528173		 # 	collision with: 4 0 0  and 5 0 0 
528175		 # 	collision with: 7 1 0  and 1 2 0 
528176		 # 	collision with: 6 9 0  and 9 0 1 
528178		 # 	collision with: 1 9 0  and 9 0 1 
528189		 # 	collision with: 4 0 0  and 5 0 0 
528191		 # 	collision with: 3 1 0  and 3 3 1 
528220		 # 	collision with: 4 8 0  and 5 0 1 
528222		 # 	collision with: 9 6 0  and 5 1 1 
528241		 # 	collision with: 4 0 0  and 5 0 0 
528243		 # 	collision with: 0 0 0  and 1 1 1 
528264		 # 	collision with: 4 4 0  and 3 1 1 
528266		 # 	collision with: 4 10 0  and 6 1 1 
528281		 # 	collision with: 4 0 0  and 5 0 0 
528283		 # 	collision with: 5 2 0  and 3 0 1 
528308		 # 	collision with: 7 9 0  and 9 7 1 
528310		 # 	collision with: 4 6 0  and 5 0 1 
528337		 # 	collision with: 4 0 0  and 5 0 0 
528352		 # 	collision with: 1 10 0  and 10 0 1 
528354		 # 	collision with: 6 0 0  and 6 1 0 
528377		 # 	collision with: 4 0 0  and 5 0 0 
528379		 # 	collision with: 10 0 0  and 6 2 0 
528396		 # 	collision with: 5 8 0  and 8 2 1 
528398		 # 	collision with: 7 7 0  and 1 4 1 
528429		 # 	collision with: 4 0 0  and 5 0 0 
528431		 # 	collision with: 2 0 0  and 6 1 0 
528440		 # 	collision with: 6 6 0  and 3 1 2 
528442		 # 	collision with: 4 0 0  and 0 2 1 
528445		 # 	collision with: 4 0 0  and 5 0 0 
528447		 # 	collision with: 1 4 0  and 2 5 0 
528484		 # 	collision with: 4 8 0  and 8 0 1 
528486		 # 	collision with: 1 9 0  and 1 0 1 
528493		 # 	collision with: 4 0 0  and 5 0 0 
528495		 # 	collision with: 6 6 0  and 4 0 1 
528528		 # 	collision with: 4 1 0  and 4 0 1 
528530		 # 	collision with: 7 4 0  and 3 0 1 
528532		 # 	collision with: 10 4 0  and 5 0 1 
528534		 # 	collision with: 8 5 0  and 10 0 1 
528536		 # 	collision with: 7 10 0  and 4 1 1 
528538		 # 	collision with: 8 10 0  and 6 0 1 
528540		 # 	collision with: 4 3 1  and 3 0 2 
528542		 # 	collision with: 4 1 0  and 4 0 1 
528544		 # 	collision with: 2 7 0  and 6 0 1 
528546		 # 	collision with: 9 1 0  and 6 1 1 
528548		 # 	collision with: 9 10 0  and 4 2 1 
528552		 # 	collision with: 7 10 0  and 4 3 1 
528554		 # 	collision with: 5 8 0  and 4 0 1 
528556		 # 	collision with: 9 4 0  and 5 0 1 
528558		 # 	collision with: 9 0 0  and 6 1 0 
528560		 # 	collision with: 4 3 0  and 1 1 1 
528562		 # 	collision with: 4 10 0  and 10 4 1 
528564		 # 	collision with: 2 7 0  and 7 2 1 
528566		 # 	collision with: 1 4 0  and 9 0 1 
528568		 # 	collision with: 6 1 0  and 4 0 1 
528570		 # 	collision with: 3 0 0  and 1 2 1 
528572		 # 	collision with: 8 10 0  and 2 3 1 
528574		 # 	collision with: 8 2 0  and 3 0 1 
528609		 # 	collision with: 3 0 0  and 5 0 0 
528611		 # 	collision with: 2 5 0  and 2 2 1 
528616		 # 	collision with: 5 7 0  and 10 1 1 
528618		 # 	collision with: 0 3 0  and 2 0 1 
528657		 # 	collision with: 3 0 0  and 5 0 0 
528659		 # 	collision with: 8 5 0  and 4 6 0 
528660		 # 	collision with: 3 4 1  and 0 3 2 
528662		 # 	collision with: 7 4 0  and 7 0 1 
528673		 # 	collision with: 3 0 0  and 5 0 0 
528675		 # 	collision with: 0 5 0  and 1 6 0 
528704		 # 	collision with: 8 6 0  and 5 0 1 
528706		 # 	collision with: 5 8 0  and 7 1 1 
528725		 # 	collision with: 3 0 0  and 5 0 0 
528748		 # 	collision with: 8 6 0  and 3 0 1 
528750		 # 	collision with: 6 0 0  and 6 1 0 
528765		 # 	collision with: 3 0 0  and 5 0 0 
528767		 # 	collision with: 10 2 0  and 5 3 0 
528792		 # 	collision with: 1 4 0  and 4 0 1 
528794		 # 	collision with: 1 5 0  and 3 0 2 
528821		 # 	collision with: 3 0 0  and 5 0 0 
528823		 # 	collision with: 2 2 0  and 8 0 1 
528836		 # 	collision with: 10 7 0  and 3 0 1 
528838		 # 	collision with: 6 0 1  and 4 1 1 
528861		 # 	collision with: 3 0 0  and 5 0 0 
528863		 # 	collision with: 1 2 0  and 9 4 0 
528880		 # 	collision with: 3 4 0  and 1 1 1 
528882		 # 	collision with: 4 9 0  and 0 0 1 
528913		 # 	collision with: 3 0 0  and 5 0 0 
528915		 # 	collision with: 6 4 0  and 5 0 1 
528924		 # 	collision with: 7 2 0  and 2 7 1 
528926		 # 	collision with: 1 8 0  and 2 0 1 
528929		 # 	collision with: 3 0 0  and 5 0 0 
528931		 # 	collision with: 7 9 0  and 0 0 1 
528968		 # 	collision with: 4 1 0  and 6 0 1 
528970		 # 	collision with: 4 3 0  and 1 1 1 
528977		 # 	collision with: 3 0 0  and 5 0 0 
528979		 # 	collision with: 4 4 0  and 1 6 0 
529012		 # 	collision with: 2 10 0  and 2 0 1 
529014		 # 	collision with: 5 10 0  and 4 4 1 
529016		 # 	collision with: 2 8 0  and 3 1 1 
529018		 # 	collision with: 9 9 0  and 9 2 1 
529020		 # 	collision with: 4 10 0  and 2 0 1 
529022		 # 	collision with: 8 8 0  and 4 0 1 
529024		 # 	collision with: 3 5 0  and 10 1 1 
529028		 # 	collision with: 6 4 0  and 7 1 1 
529030		 # 	collision with: 7 3 0  and 3 0 1 
529032		 # 	collision with: 8 3 0  and 5 0 1 
529034		 # 	collision with: 2 10 0  and 2 0 1 
529036		 # 	collision with: 3 8 0  and 6 0 1 
529038		 # 	collision with: 10 2 0  and 4 0 1 
529040		 # 	collision with: 5 5 0  and 1 3 1 
529042		 # 	collision with: 9 5 0  and 4 1 1 
529044		 # 	collision with: 10 6 0  and 5 1 1 
529046		 # 	collision with: 1 2 0  and 2 0 1 
529048		 # 	collision with: 1 3 0  and 5 0 1 
529050		 # 	collision with: 3 9 0  and 7 1 1 
529052		 # 	collision with: 3 6 0  and 6 1 1 
529054		 # 	collision with: 10 0 0  and 6 1 0 
529056		 # 	collision with: 5 4 0  and 4 0 1 
529058		 # 	collision with: 8 10 0  and 4 0 1 
529093		 # 	collision with: 3 0 0  and 4 0 0 
529095		 # 	collision with: 4 2 0  and 5 4 0 
529100		 # 	collision with: 7 6 0  and 1 0 1 
529102		 # 	collision with: 5 5 0  and 6 3 1 
529141		 # 	collision with: 3 0 0  and 4 0 0 
529143		 # 	collision with: 7 1 0  and 7 0 1 
529144		 # 	collision with: 5 4 0  and 6 0 1 
529146		 # 	collision with: 6 0 0  and 6 1 0 
529157		 # 	collision with: 3 0 0  and 4 0 0 
529188		 # 	collision with: 6 1 0  and 4 4 1 
529190		 # 	collision with: 7 9 0  and 2 0 1 
529209		 # 	collision with: 3 0 0  and 4 0 0 
529211		 # 	collision with: 9 5 0  and 3 6 0 
529232		 # 	collision with: 2 10 0  and 7 0 1 
529234		 # 	collision with: 2 6 0  and 2 0 1 
529249		 # 	collision with: 3 0 0  and 4 0 0 
529251		 # 	collision with: 3 1 0  and 10 2 0 
529276		 # 	collision with: 8 8 0  and 1 0 1 
529278		 # 	collision with: 10 1 0  and 1 2 1 
529305		 # 	collision with: 3 0 0  and 4 0 0 
529307		 # 	collision with: 4 1 0  and 5 2 0 
529320		 # 	collision with: 5 5 0  and 3 1 1 
529322		 # 	collision with: 3 8 0  and 6 0 1 
529345		 # 	collision with: 3 0 0  and 4 0 0 
529347		 # 	collision with: 1 3 0  and 3 5 0 
529364		 # 	collision with: 10 8 0  and 2 3 1 
529366		 # 	collision with: 1 7 0  and 3 0 1 
529397		 # 	collision with: 3 0 0  and 4 0 0 
529399		 # 	collision with: 10 7 0  and 2 0 1 
529408		 # 	collision with: 1 9 0  and 2 0 1 
529410		 # 	collision with: 1 7 0  and 7 0 1 
529413		 # 	collision with: 3 0 0  and 4 0 0 
529415		 # 	collision with: 7 1 0  and 1 2 0 
529452		 # 	collision with: 3 3 0  and 4 0 1 
529454		 # 	collision with: 3 8 0  and 0 0 1 
529461		 # 	collision with: 3 0 0  and 4 0 0 
529463		 # 	collision with: 5 5 0  and 7 6 0 
529496		 # 	collision with: 3 1 0  and 3 0 1 
529498		 # 	collision with: 8 7 0  and 6 1 1 
529500		 # 	collision with: 6 7 0  and 10 0 1 
529504		 # 	collision with: 10 6 0  and 1 3 1 
529506		 # 	collision with: 4 1 0  and 1 3 1 
529508		 # 	collision with: 10 4 0  and 1 0 1 
529510		 # 	collision with: 10 9 0  and 0 0 1 
529512		 # 	collision with: 10 8 0  and 0 2 1 
529514		 # 	collision with: 3 1 0  and 3 0 1 
529516		 # 	collision with: 5 3 0  and 2 3 1 
529518		 # 	collision with: 0 4 0  and 2 0 1 
529520		 # 	collision with: 10 5 0  and 4 1 1 
529522		 # 	collision with: 0 0 0  and 6 1 0 
529524		 # 	collision with: 6 4 0  and 4 6 1 
529526		 # 	collision with: 1 9 0  and 9 0 1 
529528		 # 	collision with: 2 1 0  and 3 0 1 
529530		 # 	collision with: 7 3 0  and 3 7 1 
529532		 # 	collision with: 4 9 0  and 0 4 1 
529534		 # 	collision with: 7 7 0  and 5 1 1 
529536		 # 	collision with: 5 4 0  and 1 0 1 
529538		 # 	collision with: 9 10 0  and 0 1 1 
529540		 # 	collision with: 7 10 0  and 1 2 1 
529542		 # 	collision with: 6 0 0  and 6 1 0 
529577		 # 	collision with: 2 0 0  and 4 0 0 
529579		 # 	collision with: 8 2 0  and 7 4 0 
529584		 # 	collision with: 6 10 0  and 3 1 1 
529586		 # 	collision with: 10 9 0  and 7 0 1 
529625		 # 	collision with: 2 0 0  and 4 0 0 
529627		 # 	collision with: 3 4 0  and 4 6 0 
529628		 # 	collision with: 4 10 0  and 0 1 1 
529630		 # 	collision with: 1 6 0  and 6 0 1 
529641		 # 	collision with: 2 0 0  and 4 0 0 
529643		 # 	collision with: 2 2 0  and 7 3 0 
529672		 # 	collision with: 8 10 0  and 2 0 1 
529674		 # 	collision with: 10 9 0  and 3 0 1 
529693		 # 	collision with: 2 0 0  and 4 0 0 
529695		 # 	collision with: 4 1 0  and 5 2 0 
529716		 # 	collision with: 9 4 0  and 10 0 1 
529718		 # 	collision with: 5 0 1  and 3 1 1 
529733		 # 	collision with: 2 0 0  and 4 0 0 
529735		 # 	collision with: 1 3 0  and 3 5 0 
529760		 # 	collision with: 4 8 0  and 10 1 1 
529762		 # 	collision with: 9 1 0  and 9 0 1 
529789		 # 	collision with: 2 0 0  and 4 0 0 
529791		 # 	collision with: 7 4 0  and 9 0 1 
529804		 # 	collision with: 4 6 0  and 6 4 1 
529806		 # 	collision with: 9 1 0  and 0 0 1 
529829		 # 	collision with: 2 0 0  and 4 0 0 
529831		 # 	collision with: 5 0 0  and 6 2 0 
529848		 # 	collision with: 3 1 0  and 2 0 1 
529850		 # 	collision with: 6 4 0  and 4 6 1 
529881		 # 	collision with: 2 0 0  and 4 0 0 
529883		 # 	collision with: 4 9 0  and 9 1 1 
529892		 # 	collision with: 9 4 0  and 4 0 1 
529894		 # 	collision with: 4 3 0  and 7 1 1 
529897		 # 	collision with: 2 0 0  and 4 0 0 
529936		 # 	collision with: 4 5 0  and 0 1 1 
529938		 # 	collision with: 5 8 0  and 6 0 1 
529945		 # 	collision with: 2 0 0  and 4 0 0 
529947		 # 	collision with: 5 6 0  and 3 0 1 
529980		 # 	collision with: 3 10 0  and 3 0 1 
529982		 # 	collision with: 4 3 0  and 0 0 2 
529984		 # 	collision with: 1 5 0  and 5 1 1 
529986		 # 	collision with: 4 9 0  and 8 0 1 
529988		 # 	collision with: 3 6 0  and 5 3 1 
529990		 # 	collision with: 10 2 0  and 0 0 1 
529992		 # 	collision with: 6 8 0  and 8 1 1 
529994		 # 	collision with: 7 8 0  and 0 0 1 
529996		 # 	collision with: 9 10 0  and 3 0 1 
529998		 # 	collision with: 8 2 0  and 2 0 1 
530000		 # 	collision with: 6 2 0  and 5 0 1 
530002		 # 	collision with: 4 8 0  and 3 0 1 
530004		 # 	collision with: 7 7 0  and 1 0 1 
530006		 # 	collision with: 7 1 0  and 1 2 0 
530008		 # 	collision with: 1 9 0  and 6 0 1 
530010		 # 	collision with: 3 10 0  and 3 0 1 
530012		 # 	collision with: 7 1 0  and 4 1 1 
530014		 # 	collision with: 1 3 0  and 3 0 1 
530016		 # 	collision with: 4 10 0  and 7 2 1 
530018		 # 	collision with: 5 3 0  and 3 1 1 
530020		 # 	collision with: 2 3 0  and 1 0 2 
530024		 # 	collision with: 5 1 0  and 1 5 1 
530026		 # 	collision with: 8 4 0  and 2 0 1 
530061		 # 	collision with: 2 0 0  and 3 0 0 
530063		 # 	collision with: 3 1 0  and 10 2 0 
530068		 # 	collision with: 9 7 0  and 4 0 1 
530070		 # 	collision with: 9 4 0  and 0 1 1 
530109		 # 	collision with: 2 0 0  and 3 0 0 
530112		 # 	collision with: 3 10 0  and 2 0 1 
530114		 # 	collision with: 2 9 0  and 0 0 1 
530125		 # 	collision with: 2 0 0  and 3 0 0 
530127		 # 	collision with: 1 9 0  and 2 0 1 
530156		 # 	collision with: 7 0 0  and 9 2 1 
530158		 # 	collision with: 3 10 0  and 10 3 1 
530177		 # 	collision with: 2 0 0  and 3 0 0 
530179		 # 	collision with: 0 3 0  and 7 4 0 
530200		 # 	collision with: 7 8 0  and 1 1 1 
530202		 # 	collision with: 2 9 0  and 8 0 1 
530217		 # 	collision with: 2 0 0  and 3 0 0 
530219		 # 	collision with: 8 2 0  and 0 3 0 
530244		 # 	collision with: 9 7 0  and 10 0 1 
530246		 # 	collision with: 1 5 0  and 5 0 1 
530273		 # 	collision with: 2 0 0  and 3 0 0 
530275		 # 	collision with: 5 8 0  and 7 1 1 
530288		 # 	collision with: 8 1 0  and 2 0 1 
530290		 # 	collision with: 3 1 0  and 3 0 1 
530313		 # 	collision with: 2 0 0  and 3 0 0 
530315		 # 	collision with: 9 6 0  and 1 1 1 
530332		 # 	collision with: 7 0 1  and 4 1 1 
530334		 # 	collision with: 9 10 0  and 3 0 1 
530365		 # 	collision with: 2 0 0  and 3 0 0 
530367		 # 	collision with: 10 1 0  and 8 2 0 
530376		 # 	collision with: 8 10 0  and 9 5 1 
530378		 # 	collision with: 7 8 0  and 2 0 1 
530381		 # 	collision with: 2 0 0  and 3 0 0 
530383		 # 	collision with: 0 1 0  and 3 2 0 
530420		 # 	collision with: 8 2 0  and 1 0 2 
530422		 # 	collision with: 6 0 0  and 6 1 0 
530429		 # 	collision with: 2 0 0  and 3 0 0 
530431		 # 	collision with: 4 1 0  and 4 0 1 
530464		 # 	collision with: 2 1 0  and 2 0 1 
530466		 # 	collision with: 9 8 0  and 1 0 1 
530468		 # 	collision with: 8 3 0  and 0 4 1 
530470		 # 	collision with: 2 4 0  and 3 0 1 
530472		 # 	collision with: 2 1 0  and 1 1 1 
530474		 # 	collision with: 9 6 0  and 2 1 1 
530476		 # 	collision with: 10 5 0  and 5 10 1 
530478		 # 	collision with: 5 10 0  and 1 1 1 
530480		 # 	collision with: 6 9 0  and 7 0 1 
530482		 # 	collision with: 3 6 0  and 10 0 1 
530484		 # 	collision with: 10 6 0  and 1 0 1 
530486		 # 	collision with: 1 2 0  and 7 0 1 
530488		 # 	collision with: 7 1 0  and 2 0 1 
530490		 # 	collision with: 2 1 0  and 2 0 1 
530492		 # 	collision with: 8 6 0  and 1 0 1 
530494		 # 	collision with: 4 5 0  and 5 0 1 
530496		 # 	collision with: 2 10 0  and 2 2 1 
530500		 # 	collision with: 5 7 0  and 0 1 1 
530502		 # 	collision with: 5 5 0  and 4 0 1 
530504		 # 	collision with: 5 8 0  and 3 3 1 
530506		 # 	collision with: 2 0 0  and 6 1 0 
530508		 # 	collision with: 3 8 0  and 4 0 1 
530510		 # 	collision with: 3 7 0  and 0 1 1 
530545		 # 	collision with: 0 0 0  and 4 0 0 
530547		 # 	collision with: 4 10 0  and 6 0 1 
530552		 # 	collision with: 1 2 0  and 2 0 1 
530554		 # 	collision with: 10 6 0  and 4 0 1 
530593		 # 	collision with: 0 0 0  and 4 0 0 
530595		 # 	collision with: 4 0 0  and 6 2 0 
530596		 # 	collision with: 5 10 0  and 10 5 1 
530598		 # 	collision with: 8 6 0  and 6 8 1 
530609		 # 	collision with: 0 0 0  and 4 0 0 
530611		 # 	collision with: 1 5 0  and 5 1 1 
530640		 # 	collision with: 6 5 0  and 8 1 1 
530642		 # 	collision with: 8 1 0  and 8 0 1 
530661		 # 	collision with: 0 0 0  and 4 0 0 
530663		 # 	collision with: 4 6 0  and 0 1 1 
530684		 # 	collision with: 8 3 0  and 1 0 1 
530686		 # 	collision with: 8 1 0  and 0 0 1 
530701		 # 	collision with: 0 0 0  and 4 0 0 
530703		 # 	collision with: 9 9 0  and 10 1 1 
530728		 # 	collision with: 2 1 0  and 7 0 1 
530730		 # 	collision with: 9 8 0  and 9 0 1 
530757		 # 	collision with: 0 0 0  and 4 0 0 
530759		 # 	collision with: 2 8 0  and 1 1 1 
530772		 # 	collision with: 6 8 0  and 0 1 1 
530774		 # 	collision with: 10 6 0  and 1 0 1 
530797		 # 	collision with: 0 0 0  and 4 0 0 
530799		 # 	collision with: 0 1 0  and 3 2 0 
530816		 # 	collision with: 5 7 0  and 6 0 1 
530818		 # 	collision with: 6 0 0  and 6 1 0 
530849		 # 	collision with: 0 0 0  and 4 0 0 
530860		 # 	collision with: 7 5 0  and 1 0 1 
530862		 # 	collision with: 5 6 0  and 1 2 1 
530865		 # 	collision with: 0 0 0  and 4 0 0 
530867		 # 	collision with: 2 0 0  and 6 1 0 
530904		 # 	collision with: 5 7 0  and 4 0 1 
530906		 # 	collision with: 3 3 0  and 7 0 1 
530913		 # 	collision with: 0 0 0  and 4 0 0 
530915		 # 	collision with: 1 4 0  and 2 5 0 
530948		 # 	collision with: 4 10 0  and 4 0 1 
530950		 # 	collision with: 9 2 0  and 5 1 1 
530952		 # 	collision with: 7 10 0  and 1 3 1 
530954		 # 	collision with: 7 2 0  and 10 0 1 
530956		 # 	collision with: 2 2 0  and 3 0 1 
530958		 # 	collision with: 10 4 0  and 2 0 1 
530960		 # 	collision with: 1 4 0  and 6 1 1 
530962		 # 	collision with: 2 6 0  and 9 0 2 
530964		 # 	collision with: 10 4 0  and 7 2 1 
530966		 # 	collision with: 1 9 0  and 4 0 1 
530968		 # 	collision with: 6 1 0  and 7 0 1 
530970		 # 	collision with: 1 6 0  and 6 0 1 
530972		 # 	collision with: 10 2 0  and 3 0 1 
530976		 # 	collision with: 2 8 0  and 5 2 1 
530978		 # 	collision with: 3 0 0  and 6 1 0 
530980		 # 	collision with: 5 4 0  and 3 1 1 
530982		 # 	collision with: 4 10 0  and 4 0 1 
530984		 # 	collision with: 8 7 0  and 5 0 1 
530986		 # 	collision with: 3 9 0  and 8 1 1 
530988		 # 	collision with: 2 8 0  and 8 2 1 
530990		 # 	collision with: 9 9 0  and 7 0 1 
530992		 # 	collision with: 4 10 0  and 6 0 1 
530994		 # 	collision with: 5 3 0  and 4 4 1 
531029		 # 	collision with: 0 0 0  and 3 0 0 
531031		 # 	collision with: 10 1 0  and 2 1 1 
531036		 # 	collision with: 6 0 0  and 3 2 1 
531038		 # 	collision with: 8 6 0  and 1 1 1 
531077		 # 	collision with: 0 0 0  and 3 0 0 
531079		 # 	collision with: 9 1 0  and 6 1 1 
531080		 # 	collision with: 8 4 0  and 10 1 1 
531082		 # 	collision with: 7 7 0  and 10 0 1 
531093		 # 	collision with: 0 0 0  and 3 0 0 
531095		 # 	collision with: 2 4 0  and 7 6 0 
531124		 # 	collision with: 10 4 0  and 3 0 1 
531126		 # 	collision with: 2 1 0  and 4 0 1 
531145		 # 	collision with: 0 0 0  and 3 0 0 
531147		 # 	collision with: 10 1 0  and 8 2 0 
531168		 # 	collision with: 1 7 0  and 4 0 1 
531170		 # 	collision with: 7 7 0  and 0 0 1 
531185		 # 	collision with: 0 0 0  and 3 0 0 
531187		 # 	collision with: 4 5 0  and 3 7 0 
531212		 # 	collision with: 8 5 0  and 3 0 1 
531214		 # 	collision with: 6 0 0  and 6 1 0 
531241		 # 	collision with: 0 0 0  and 3 0 0 
531243		 # 	collision with: 1 2 0  and 0 0 1 
531256		 # 	collision with: 8 5 0  and 5 0 1 
531258		 # 	collision with: 6 1 0  and 1 6 1 
531281		 # 	collision with: 0 0 0  and 3 0 0 
531300		 # 	collision with: 5 8 0  and 4 1 1 
531302		 # 	collision with: 0 8 0  and 2 0 1 
531333		 # 	collision with: 0 0 0  and 3 0 0 
531335		 # 	collision with: 10 7 0  and 6 1 1 
531344		 # 	collision with: 4 8 0  and 2 1 1 
531346		 # 	collision with: 1 3 0  and 3 0 1 
531349		 # 	collision with: 0 0 0  and 3 0 0 
531351		 # 	collision with: 9 4 0  and 4 5 0 
531388		 # 	collision with: 8 2 0  and 2 8 1 
531390		 # 	collision with: 1 4 0  and 6 1 1 
531397		 # 	collision with: 0 0 0  and 3 0 0 
531399		 # 	collision with: 4 6 0  and 2 0 1 
531432		 # 	collision with: 1 1 0  and 1 0 1 
531434		 # 	collision with: 10 8 0  and 4 1 1 
531436		 # 	collision with: 1 8 0  and 8 0 1 
531438		 # 	collision with: 1 1 0  and 1 0 1 
531440		 # 	collision with: 1 6 0  and 6 0 1 
531442		 # 	collision with: 10 7 0  and 4 1 1 
531444		 # 	collision with: 10 2 0  and 2 0 1 
531446		 # 	collision with: 1 7 0  and 2 0 1 
531448		 # 	collision with: 10 1 0  and 1 0 1 
531452		 # 	collision with: 1 5 0  and 5 0 1 
531454		 # 	collision with: 8 3 0  and 9 0 1 
531456		 # 	collision with: 1 3 0  and 3 0 1 
531458		 # 	collision with: 8 8 0  and 6 5 1 
531460		 # 	collision with: 10 7 0  and 7 0 1 
531462		 # 	collision with: 6 5 0  and 9 1 1 
531464		 # 	collision with: 10 4 0  and 4 0 1 
531466		 # 	collision with: 4 0 0  and 6 1 0 
531468		 # 	collision with: 10 5 0  and 5 0 1 
531470		 # 	collision with: 10 2 0  and 1 1 1 
531472		 # 	collision with: 1 2 0  and 2 0 1 
531474		 # 	collision with: 10 6 0  and 2 0 1 
531476		 # 	collision with: 4 3 0  and 8 0 1 
531478		 # 	collision with: 10 3 0  and 10 0 1 
531513		 # 	collision with: 0 0 0  and 2 0 0 
531515		 # 	collision with: 2 4 0  and 7 6 0 
531520		 # 	collision with: 6 1 0  and 0 6 1 
531522		 # 	collision with: 5 10 0  and 3 0 1 
531561		 # 	collision with: 0 0 0  and 2 0 0 
531563		 # 	collision with: 5 1 0  and 8 0 1 
531564		 # 	collision with: 5 6 0  and 3 1 1 
531566		 # 	collision with: 7 1 0  and 7 0 1 
531577		 # 	collision with: 0 0 0  and 2 0 0 
531579		 # 	collision with: 0 1 0  and 4 3 0 
531608		 # 	collision with: 1 1 0  and 10 0 1 
531610		 # 	collision with: 6 0 0  and 6 1 0 
531629		 # 	collision with: 0 0 0  and 2 0 0 
531631		 # 	collision with: 1 2 0  and 2 0 1 
531652		 # 	collision with: 5 1 0  and 1 1 1 
531654		 # 	collision with: 3 7 0  and 5 0 1 
531669		 # 	collision with: 0 0 0  and 2 0 0 
531696		 # 	collision with: 3 1 0  and 0 3 1 
531698		 # 	collision with: 1 2 0  and 2 0 1 
531725		 # 	collision with: 0 0 0  and 2 0 0 
531727		 # 	collision with: 2 2 0  and 7 3 0 
531740		 # 	collision with: 4 3 0  and 5 0 1 
531742		 # 	collision with: 2 9 0  and 2 2 1 
531765		 # 	collision with: 0 0 0  and 2 0 0 
531767		 # 	collision with: 4 3 0  and 7 5 0 
531784		 # 	collision with: 6 2 0  and 9 0 1 
531786		 # 	collision with: 5 10 0  and 0 0 1 
531817		 # 	collision with: 0 0 0  and 2 0 0 
531819		 # 	collision with: 5 1 0  and 0 2 0 
531828		 # 	collision with: 6 2 0  and 3 0 1 
531830		 # 	collision with: 2 7 0  and 9 1 1 
531833		 # 	collision with: 0 0 0  and 2 0 0 
531835		 # 	collision with: 4 0 0  and 6 1 0 
531872		 # 	collision with: 4 5 0  and 2 1 1 
531874		 # 	collision with: 2 7 1  and 7 1 2 
531881		 # 	collision with: 0 0 0  and 2 0 0 
531883		 # 	collision with: 10 0 0  and 6 1 0 
531916		 # 	collision with: 5 10 0  and 5 0 1 
531918		 # 	collision with: 6 0 0  and 3 2 1 
531920		 # 	collision with: 4 6 0  and 3 1 1 
531922		 # 	collision with: 9 3 0  and 5 0 1 
531924		 # 	collision with: 4 5 0  and 8 0 1 
531928		 # 	collision with: 8 1 0  and 6 0 1 
531930		 # 	collision with: 3 4 0  and 1 0 1 
531932		 # 	collision with: 5 10 0  and 8 2 1 
531934		 # 	collision with: 10 8 0  and 1 1 1 
531936		 # 	collision with: 9 4 0  and 6 2 1 
531938		 # 	collision with: 6 2 0  and 0 1 1 
531940		 # 	collision with: 3 3 0  and 4 1 1 
531942		 # 	collision with: 6 1 0  and 5 2 1 
531944		 # 	collision with: 10 10 1  and 1 0 2 
531946		 # 	collision with: 7 8 0  and 1 0 1 
531948		 # 	collision with: 10 6 0  and 3 0 1 
531950		 # 	collision with: 1 9 0  and 4 1 1 
531952		 # 	collision with: 9 2 0  and 1 0 1 
531954		 # 	collision with: 8 2 0  and 2 1 1 
531956		 # 	collision with: 6 8 0  and 1 3 1 
531958		 # 	collision with: 10 5 0  and 6 0 1 
531960		 # 	collision with: 2 7 0  and 3 1 1 
531962		 # 	collision with: 10 7 0  and 4 0 1 
531997		 # 	collision with: 5 0 0  and 7 0 0 
531999		 # 	collision with: 9 0 0  and 6 2 0 
532004		 # 	collision with: 3 4 0  and 3 3 1 
532006		 # 	collision with: 6 0 0  and 6 1 0 
532045		 # 	collision with: 5 0 0  and 7 0 0 
532047		 # 	collision with: 1 1 0  and 9 2 0 
532048		 # 	collision with: 1 6 0  and 5 0 1 
532050		 # 	collision with: 10 9 0  and 4 4 1 
532061		 # 	collision with: 5 0 0  and 7 0 0 
532063		 # 	collision with: 0 0 0  and 6 2 0 
532092		 # 	collision with: 6 5 0  and 3 2 1 
532094		 # 	collision with: 6 10 0  and 2 1 1 
532113		 # 	collision with: 5 0 0  and 7 0 0 
532115		 # 	collision with: 5 3 0  and 8 4 0 
532136		 # 	collision with: 5 7 0  and 3 3 1 
532138		 # 	collision with: 7 6 0  and 9 0 1 
532153		 # 	collision with: 5 0 0  and 7 0 0 
532155		 # 	collision with: 3 2 0  and 10 4 0 
532180		 # 	collision with: 4 10 0  and 7 3 1 
532182		 # 	collision with: 4 8 0  and 10 0 1 
532209		 # 	collision with: 5 0 0  and 7 0 0 
532211		 # 	collision with: 9 0 0  and 6 1 0 
532224		 # 	collision with: 10 10 1  and 0 1 2 
532226		 # 	collision with: 9 10 0  and 6 1 1 
532249		 # 	collision with: 5 0 0  and 7 0 0 
532251		 # 	collision with: 9 10 0  and 5 1 1 
532268		 # 	collision with: 5 3 0  and 3 2 1 
532270		 # 	collision with: 9 3 0  and 2 1 1 
532301		 # 	collision with: 5 0 0  and 7 0 0 
532303		 # 	collision with: 10 7 0  and 4 0 1 
532312		 # 	collision with: 2 9 0  and 0 1 1 
532314		 # 	collision with: 3 9 0  and 5 0 1 
532317		 # 	collision with: 5 0 0  and 7 0 0 
532319		 # 	collision with: 4 1 0  and 4 0 1 
532356		 # 	collision with: 1 6 0  and 6 0 1 
532358		 # 	collision with: 1 1 0  and 1 0 1 
532365		 # 	collision with: 5 0 0  and 7 0 0 
532406		 # 	collision with: 6 2 0  and 6 3 0 
532410		 # 	collision with: 6 4 0  and 6 6 0 
532414		 # 	collision with: 6 1 0  and 6 3 0 
532418		 # 	collision with: 6 4 0  and 6 5 0 
532422		 # 	collision with: 6 1 0  and 6 2 0 
532426		 # 	collision with: 6 3 0  and 6 5 0 
532430		 # 	collision with: 6 0 0  and 6 2 0 
532434		 # 	collision with: 6 3 0  and 6 4 0 
532438		 # 	collision with: 6 0 0  and 6 1 0 
532442		 # 	collision with: 6 2 0  and 6 4 0 
532459		 # 	collision with: 7 5 0  and 5 7 0 
532466		 # 	collision with: 3 7 0  and 10 0 1 
532530		 # 	collision with: 9 7 0  and 9 0 1 
532550		 # 	collision with: 2 4 0  and 6 6 0 
532563		 # 	collision with: 2 1 0  and 7 2 0 
532591		 # 	collision with: 7 5 0  and 5 7 0 
532614		 # 	collision with: 2 9 0  and 0 2 1 
532634		 # 	collision with: 8 1 0  and 3 3 0 
532651		 # 	collision with: 6 1 0  and 9 2 0 
532683		 # 	collision with: 7 5 0  and 5 7 0 
532698		 # 	collision with: 2 1 0  and 7 2 0 
532718		 # 	collision with: 7 0 0  and 5 1 0 
532743		 # 	collision with: 4 2 0  and 10 4 0 
532771		 # 	collision with: 7 5 0  and 5 7 0 
532782		 # 	collision with: 0 2 0  and 9 4 0 
532802		 # 	collision with: 6 0 0  and 9 2 0 
532866		 # 	collision with: 8 5 0  and 0 0 1 
532875		 # 	collision with: 7 5 0  and 5 7 0 
532884		 # 	collision with: 6 2 0  and 0 1 1 
532886		 # 	collision with: 7 5 0  and 5 7 0 
532888		 # 	collision with: 4 10 0  and 5 10 0 
532890		 # 	collision with: 7 5 0  and 5 7 0 
532892		 # 	collision with: 4 5 0  and 6 5 0 
532894		 # 	collision with: 7 5 0  and 5 7 0 
532896		 # 	collision with: 1 7 0  and 2 7 0 
532898		 # 	collision with: 7 5 0  and 5 7 0 
532900		 # 	collision with: 2 8 0  and 3 8 0 
532902		 # 	collision with: 7 1 0  and 6 2 0 
532904		 # 	collision with: 1 2 0  and 3 2 0 
532906		 # 	collision with: 7 5 0  and 5 7 0 
532908		 # 	collision with: 3 9 0  and 4 9 0 
532910		 # 	collision with: 7 5 0  and 5 7 0 
532912		 # 	collision with: 2 3 0  and 4 3 0 
532914		 # 	collision with: 7 5 0  and 5 7 0 
532916		 # 	collision with: 3 4 0  and 5 4 0 
532918		 # 	collision with: 7 5 0  and 5 7 0 
532920		 # 	collision with: 0 6 0  and 1 6 0 
532924		 # 	collision with: 0 1 0  and 2 1 0 
532926		 # 	collision with: 7 5 0  and 5 7 0 
532941		 # 	collision with: 10 5 0  and 10 0 1 
532943		 # 	collision with: 6 1 0  and 6 3 0 
532948		 # 	collision with: 6 0 0  and 10 1 0 
532950		 # 	collision with: 7 5 0  and 5 7 0 
533009		 # 	collision with: 4 1 0  and 1 2 0 
533011		 # 	collision with: 2 7 0  and 1 4 1 
533012		 # 	collision with: 9 9 0  and 3 0 1 
533014		 # 	collision with: 0 3 0  and 6 4 0 
533032		 # 	collision with: 0 4 0  and 4 0 1 
533034		 # 	collision with: 6 1 0  and 0 3 0 
533045		 # 	collision with: 7 0 0  and 10 2 0 
533047		 # 	collision with: 3 2 0  and 7 3 0 
533073		 # 	collision with: 9 0 0  and 5 1 0 
533075		 # 	collision with: 0 3 0  and 6 4 0 
533096		 # 	collision with: 9 2 0  and 2 0 1 
533098		 # 	collision with: 7 5 0  and 5 7 0 
533116		 # 	collision with: 6 3 0  and 0 5 0 
533118		 # 	collision with: 2 1 0  and 7 2 0 
533133		 # 	collision with: 7 1 0  and 4 0 1 
533135		 # 	collision with: 5 0 0  and 6 1 0 
533165		 # 	collision with: 3 5 0  and 4 6 0 
533167		 # 	collision with: 3 9 0  and 4 9 0 
533180		 # 	collision with: 2 9 0  and 2 1 1 
533182		 # 	collision with: 7 5 0  and 5 7 0 
533200		 # 	collision with: 0 4 0  and 1 6 0 
533225		 # 	collision with: 6 2 0  and 5 0 1 
533227		 # 	collision with: 0 3 0  and 2 4 0 
533253		 # 	collision with: 2 0 0  and 8 1 0 
533255		 # 	collision with: 1 5 0  and 8 6 0 
533264		 # 	collision with: 8 2 0  and 6 4 0 
533266		 # 	collision with: 4 2 0  and 10 4 0 
533284		 # 	collision with: 2 1 0  and 4 2 0 
533286		 # 	collision with: 6 2 0  and 6 3 0 
533289		 # 	collision with: 6 1 0  and 0 0 1 
533291		 # 	collision with: 9 2 0  and 0 3 0 
533348		 # 	collision with: 10 4 0  and 6 5 0 
533350		 # 	collision with: 7 5 0  and 5 7 0 
533357		 # 	collision with: 6 5 0  and 7 6 0 
533359		 # 	collision with: 0 1 0  and 2 1 0 
533368		 # 	collision with: 2 2 0  and 4 0 1 
533370		 # 	collision with: 9 1 0  and 5 3 0 
533372		 # 	collision with: 3 9 0  and 4 9 0 
533374		 # 	collision with: 6 2 0  and 2 4 0 
533376		 # 	collision with: 4 10 0  and 5 10 0 
533378		 # 	collision with: 3 5 0  and 1 6 0 
533380		 # 	collision with: 2 3 0  and 4 3 0 
533382		 # 	collision with: 0 6 0  and 9 7 0 
533384		 # 	collision with: 4 5 0  and 6 5 0 
533386		 # 	collision with: 6 4 0  and 4 5 0 
533388		 # 	collision with: 3 4 0  and 5 4 0 
533390		 # 	collision with: 7 0 0  and 5 1 0 
533392		 # 	collision with: 1 7 0  and 2 7 0 
533394		 # 	collision with: 0 4 0  and 7 6 0 
533396		 # 	collision with: 0 6 0  and 1 6 0 
533400		 # 	collision with: 2 8 0  and 3 8 0 
533402		 # 	collision with: 9 3 0  and 7 4 0 
533404		 # 	collision with: 0 1 0  and 2 1 0 
533406		 # 	collision with: 1 2 0  and 10 3 0 
533408		 # 	collision with: 1 2 0  and 3 2 0 
533410		 # 	collision with: 3 3 0  and 10 5 0 
533425		 # 	collision with: 10 8 0  and 1 1 1 
533427		 # 	collision with: 8 4 0  and 7 6 0 
533432		 # 	collision with: 2 1 0  and 0 2 0 
533434		 # 	collision with: 2 7 0  and 4 0 1 
533493		 # 	collision with: 8 2 0  and 2 4 0 
533495		 # 	collision with: 6 7 0  and 2 0 1 
533496		 # 	collision with: 6 10 0  and 2 0 1 
533498		 # 	collision with: 6 8 0  and 4 0 1 
533516		 # 	collision with: 9 4 0  and 1 2 1 
533529		 # 	collision with: 6 0 0  and 10 1 0 
533531		 # 	collision with: 6 0 0  and 6 2 0 
533557		 # 	collision with: 7 0 0  and 10 2 0 
533580		 # 	collision with: 7 1 0  and 2 0 1 
533582		 # 	collision with: 2 1 0  and 7 2 0 
533600		 # 	collision with: 2 2 0  and 10 3 0 
533602		 # 	collision with: 3 2 0  and 4 4 0 
533617		 # 	collision with: 9 5 0  and 8 0 1 
533619		 # 	collision with: 6 9 0  and 0 0 1 
533649		 # 	collision with: 1 5 0  and 2 6 0 
533651		 # 	collision with: 7 4 0  and 2 6 0 
533664		 # 	collision with: 0 4 0  and 2 0 1 
533666		 # 	collision with: 4 7 0  and 2 0 1 
533684		 # 	collision with: 9 4 0  and 4 5 0 
533686		 # 	collision with: 0 3 0  and 6 5 0 
533709		 # 	collision with: 3 8 0  and 3 2 1 
533711		 # 	collision with: 6 4 0  and 9 1 1 
533737		 # 	collision with: 4 0 0  and 5 2 0 
533739		 # 	collision with: 4 5 0  and 6 6 0 
533748		 # 	collision with: 9 0 0  and 8 1 0 
533750		 # 	collision with: 8 3 0  and 7 4 0 
533768		 # 	collision with: 4 2 0  and 8 4 0 
533770		 # 	collision with: 8 0 0  and 2 2 1 
533773		 # 	collision with: 0 2 0  and 2 0 1 
533775		 # 	collision with: 6 4 0  and 6 6 0 
533832		 # 	collision with: 7 3 0  and 3 4 0 
533834		 # 	collision with: 2 0 0  and 10 1 0 
533841		 # 	collision with: 7 5 0  and 8 6 0 
533852		 # 	collision with: 9 2 0  and 3 0 1 
533854		 # 	collision with: 5 4 0  and 2 5 0 
533856		 # 	collision with: 2 8 0  and 3 8 0 
533858		 # 	collision with: 4 2 0  and 9 4 0 
533860		 # 	collision with: 3 4 0  and 5 4 0 
533862		 # 	collision with: 6 1 0  and 0 3 0 
533864		 # 	collision with: 4 10 0  and 5 10 0 
533866		 # 	collision with: 2 0 0  and 10 1 0 
533868		 # 	collision with: 1 2 0  and 3 2 0 
533870		 # 	collision with: 7 3 0  and 4 4 0 
533872		 # 	collision with: 0 6 0  and 1 6 0 
533876		 # 	collision with: 4 5 0  and 6 5 0 
533878		 # 	collision with: 3 5 0  and 0 6 0 
533880		 # 	collision with: 3 9 0  and 4 9 0 
533882		 # 	collision with: 9 3 0  and 5 0 1 
533884		 # 	collision with: 0 1 0  and 2 1 0 
533886		 # 	collision with: 0 4 0  and 5 6 0 
533888		 # 	collision with: 1 7 0  and 2 7 0 
533890		 # 	collision with: 8 0 0  and 2 2 0 
533892		 # 	collision with: 2 3 0  and 4 3 0 
533894		 # 	collision with: 0 1 0  and 8 2 0 
533909		 # 	collision with: 7 9 0  and 3 0 1 
533911		 # 	collision with: 5 0 0  and 6 1 0 
533916		 # 	collision with: 0 1 0  and 4 2 0 
533918		 # 	collision with: 6 3 0  and 2 4 0 
533977		 # 	collision with: 9 4 0  and 6 5 0 
533979		 # 	collision with: 6 1 0  and 9 2 0 
533980		 # 	collision with: 4 2 0  and 6 0 1 
533982		 # 	collision with: 10 7 0  and 6 0 1 
12.0135secs	7601
