# prime 11
# degree 2
# input variables 3
# output variables 4
# reload computed balance functions from file balance-2637of3248-p11d2m3-debug.log
# p = 11
# n = 4
# smalldomain p^m 1331
# domain p^n 14641
#	 p^2 = 121
#	 p^3 = 1331
#	 p^4 = 14641
#	 p^5 = 161051
#	 p^6 = 1771561
#	 p^7 = 19487171
#	 p^8 = 214358881
#	 p^9 = 2357947691
opening file : balance-2637of3248-p11d2m3-debug.log
reloading for step2...
15822053		 # 	collision with: 7 8 0 0  and 0 4 1 0 
15822055		 # 	collision with: 2 8 0 0  and 3 8 0 0 
15822069		 # 	collision with: 5 7 0 0  and 6 7 0 0 
15822137		 # 	collision with: 4 0 1 0  and 5 0 1 0 
15822139		 # 	collision with: 9 2 0 0  and 1 9 1 0 
15822141		 # 	collision with: 4 0 1 0  and 5 0 1 0 
15822143		 # 	collision with: 2 8 0 0  and 3 8 0 0 
15822205		 # 	collision with: 3 0 0 0  and 3 2 0 0 
15822207		 # 	collision with: 3 3 1 0  and 3 4 1 0 
15822233		 # 	collision with: 5 4 0 0  and 10 7 1 0 
15822235		 # 	collision with: 8 5 0 0  and 4 10 1 0 
15822247		 # 	collision with: 2 7 0 0  and 0 2 1 0 
15822269		 # 	collision with: 0 5 1 0  and 10 1 2 0 
15822271		 # 	collision with: 2 10 0 0  and 7 0 1 0 
15822309		 # 	collision with: 6 0 0 0  and 5 2 0 0 
15822311		 # 	collision with: 8 3 0 0  and 8 3 1 0 
15822381		 # 	collision with: 3 0 0 0  and 3 2 0 0 
15822383		 # 	collision with: 3 3 1 0  and 3 4 1 0 
15822397		 # 	collision with: 6 0 0 0  and 5 2 0 0 
15822399		 # 	collision with: 5 3 0 0  and 5 3 1 0 
15822444		 # 	collision with: 4 5 0 0  and 0 8 1 0 
15822446		 # 	collision with: 0 7 0 0  and 10 10 1 0 
15822539		 # 	collision with: 3 3 0 0  and 10 5 1 0 
15822553		 # 	collision with: 3 3 1 0  and 7 4 1 0 
15822555		 # 	collision with: 2 8 0 0  and 3 8 0 0 
15822621		 # 	collision with: 5 8 0 0  and 8 5 1 0 
15822623		 # 	collision with: 5 0 1 0  and 9 1 1 0 
15822625		 # 	collision with: 0 4 0 0  and 9 8 1 0 
15822689		 # 	collision with: 9 0 0 0  and 2 1 0 0 
15822701		 # 	collision with: 7 0 0 0  and 7 1 0 0 
15822703		 # 	collision with: 7 5 1 0  and 6 2 2 0 
15822717		 # 	collision with: 9 5 0 0  and 1 2 1 0 
15822719		 # 	collision with: 5 8 0 0  and 2 4 1 0 
15822729		 # 	collision with: 1 4 0 0  and 5 5 2 0 
15822731		 # 	collision with: 2 8 0 0  and 3 8 0 0 
15822753		 # 	collision with: 9 1 0 0  and 5 6 1 0 
15822755		 # 	collision with: 2 1 0 0  and 6 6 1 0 
15822793		 # 	collision with: 2 3 0 0  and 5 10 1 0 
15822795		 # 	collision with: 10 0 1 0  and 8 2 1 0 
15822867		 # 	collision with: 5 0 0 0  and 5 1 0 0 
15822881		 # 	collision with: 8 9 0 0  and 4 2 2 0 
15822883		 # 	collision with: 1 10 0 0  and 7 1 1 0 
15822933		 # 	collision with: 8 1 0 0  and 5 5 1 0 
15822935		 # 	collision with: 9 5 0 0  and 9 6 0 0 
15822969		 # 	collision with: 8 4 0 0  and 6 8 1 0 
15822971		 # 	collision with: 8 10 0 0  and 5 2 2 0 
15822973		 # 	collision with: 5 7 0 0  and 6 7 0 0 
15822975		 # 	collision with: 4 0 1 0  and 6 0 1 0 
15822985		 # 	collision with: 2 9 1 0  and 3 9 1 0 
15822987		 # 	collision with: 4 0 1 0  and 6 0 1 0 
15822992		 # 	collision with: 2 2 0 0  and 2 3 0 0 
15822994		 # 	collision with: 1 6 0 0  and 1 7 0 0 
15823008		 # 	collision with: 9 0 0 0  and 2 1 0 0 
15823010		 # 	collision with: 4 2 0 0  and 1 3 0 0 
15823044		 # 	collision with: 9 2 0 0  and 9 4 0 0 
15823046		 # 	collision with: 10 3 0 0  and 10 5 0 0 
15823056		 # 	collision with: 5 3 0 0  and 5 4 0 0 
15823058		 # 	collision with: 8 1 0 0  and 8 2 0 0 
15823065		 # 	collision with: 4 7 0 0  and 8 3 1 0 
15823076		 # 	collision with: 1 3 0 0  and 1 5 0 0 
15823078		 # 	collision with: 6 4 0 0  and 6 5 0 0 
15823080		 # 	collision with: 2 2 0 0  and 2 3 0 0 
15823082		 # 	collision with: 1 6 0 0  and 1 7 0 0 
15823093		 # 	collision with: 7 9 0 0  and 7 3 1 0 
15823095		 # 	collision with: 2 9 0 0  and 3 9 0 0 
15823116		 # 	collision with: 8 4 0 0  and 8 5 0 0 
15823118		 # 	collision with: 4 1 0 0  and 4 3 0 0 
15823140		 # 	collision with: 9 0 0 0  and 2 1 0 0 
15823142		 # 	collision with: 4 2 0 0  and 1 3 0 0 
15823152		 # 	collision with: 7 0 0 0  and 7 1 0 0 
15823154		 # 	collision with: 9 5 0 0  and 9 6 0 0 
15823160		 # 	collision with: 8 4 0 0  and 8 5 0 0 
15823162		 # 	collision with: 4 1 0 0  and 4 3 0 0 
15823224		 # 	collision with: 10 1 0 0  and 10 2 0 0 
15823226		 # 	collision with: 5 0 0 0  and 5 1 0 0 
15823232		 # 	collision with: 5 3 0 0  and 5 4 0 0 
15823234		 # 	collision with: 8 1 0 0  and 8 2 0 0 
15823244		 # 	collision with: 10 2 0 0  and 1 3 0 0 
15823246		 # 	collision with: 9 1 0 0  and 7 3 0 0 
15823268		 # 	collision with: 10 1 0 0  and 10 2 0 0 
15823270		 # 	collision with: 5 0 0 0  and 5 1 0 0 
15823293		 # 	collision with: 4 2 0 0  and 4 8 1 0 
15823295		 # 	collision with: 3 7 1 0  and 6 1 2 0 
15823304		 # 	collision with: 10 1 0 0  and 1 3 0 0 
15823306		 # 	collision with: 2 0 0 0  and 3 1 0 0 
15823308		 # 	collision with: 9 2 0 0  and 9 4 0 0 
15823310		 # 	collision with: 10 3 0 0  and 10 5 0 0 
15823321		 # 	collision with: 0 1 0 0  and 1 6 1 0 
15823328		 # 	collision with: 7 0 0 0  and 7 1 0 0 
15823330		 # 	collision with: 9 5 0 0  and 9 6 0 0 
15823340		 # 	collision with: 1 3 0 0  and 1 5 0 0 
15823342		 # 	collision with: 6 4 0 0  and 6 5 0 0 
15823369		 # 	collision with: 5 7 0 0  and 6 7 0 0 
15823371		 # 	collision with: 10 4 0 0  and 0 10 1 0 
15823376		 # 	collision with: 10 2 0 0  and 1 3 0 0 
15823378		 # 	collision with: 9 1 0 0  and 7 3 0 0 
15823392		 # 	collision with: 10 1 0 0  and 1 3 0 0 
15823394		 # 	collision with: 2 0 0 0  and 3 1 0 0 
15823401		 # 	collision with: 2 9 0 0  and 10 2 2 0 
15823403		 # 	collision with: 2 9 0 0  and 3 9 0 0 
15823412		 # 	collision with: 9 1 0 0  and 5 0 2 0 
15823414		 # 	collision with: 6 2 0 0  and 3 1 2 0 
15823417		 # 	collision with: 2 7 0 0  and 5 2 1 0 
15823453		 # 	collision with: 4 5 1 0  and 6 3 2 0 
15823455		 # 	collision with: 1 5 0 0  and 6 2 1 0 
15823457		 # 	collision with: 4 4 0 0  and 4 6 0 0 
15823459		 # 	collision with: 2 4 0 0  and 2 6 0 0 
15823469		 # 	collision with: 5 7 0 0  and 6 7 0 0 
15823471		 # 	collision with: 2 9 0 0  and 3 9 0 0 
15823476		 # 	collision with: 3 0 2 0  and 3 2 2 0 
15823492		 # 	collision with: 3 9 0 0  and 7 6 1 0 
15823494		 # 	collision with: 4 8 0 0  and 7 7 1 0 
15823528		 # 	collision with: 2 0 0 0  and 4 5 1 0 
15823530		 # 	collision with: 9 0 0 0  and 3 5 1 0 
15823540		 # 	collision with: 9 2 1 0  and 9 4 1 0 
15823542		 # 	collision with: 10 4 0 0  and 4 1 1 0 
15823549		 # 	collision with: 10 5 0 0  and 4 3 1 0 
15823551		 # 	collision with: 3 2 0 0  and 3 5 1 0 
15823560		 # 	collision with: 7 7 0 0  and 7 5 1 0 
15823562		 # 	collision with: 7 2 0 0  and 7 4 1 0 
15823564		 # 	collision with: 5 5 1 0  and 6 0 2 0 
15823566		 # 	collision with: 3 1 0 0  and 8 0 2 0 
15823577		 # 	collision with: 0 7 1 0  and 9 2 2 0 
15823579		 # 	collision with: 4 7 0 0  and 5 0 2 0 
15823600		 # 	collision with: 5 7 0 0  and 6 7 0 0 
15823602		 # 	collision with: 3 1 0 0  and 9 2 1 0 
15823626		 # 	collision with: 8 7 0 0  and 6 8 1 0 
15823636		 # 	collision with: 9 6 0 0  and 2 1 1 0 
15823638		 # 	collision with: 8 8 0 0  and 3 2 1 0 
15823644		 # 	collision with: 5 7 0 0  and 6 7 0 0 
15823646		 # 	collision with: 1 0 1 0  and 3 2 2 0 
15823708		 # 	collision with: 8 5 1 0  and 2 8 2 0 
15823710		 # 	collision with: 7 10 0 0  and 4 8 1 0 
15823716		 # 	collision with: 9 2 1 0  and 9 4 1 0 
15823718		 # 	collision with: 1 0 1 0  and 1 2 1 0 
15823728		 # 	collision with: 3 9 0 0  and 3 9 1 0 
15823730		 # 	collision with: 0 10 0 0  and 6 2 1 0 
15823754		 # 	collision with: 5 4 0 0  and 6 0 1 0 
15823777		 # 	collision with: 5 7 0 0  and 6 7 0 0 
15823779		 # 	collision with: 2 9 0 0  and 3 9 0 0 
15823788		 # 	collision with: 0 6 0 0  and 6 5 1 0 
15823790		 # 	collision with: 2 9 0 0  and 3 9 0 0 
15823792		 # 	collision with: 0 3 0 0  and 6 4 1 0 
15823794		 # 	collision with: 2 0 0 0  and 7 8 2 0 
15823805		 # 	collision with: 10 5 1 0  and 8 6 1 0 
15823807		 # 	collision with: 7 4 0 0  and 10 7 1 0 
15823812		 # 	collision with: 6 5 0 0  and 6 5 2 0 
15823814		 # 	collision with: 6 7 0 0  and 6 7 1 0 
15823824		 # 	collision with: 0 3 1 0  and 1 3 1 0 
15823853		 # 	collision with: 4 4 0 0  and 4 6 0 0 
15823855		 # 	collision with: 2 4 0 0  and 2 6 0 0 
15823860		 # 	collision with: 3 0 0 0  and 2 6 1 0 
15823862		 # 	collision with: 6 6 0 0  and 0 8 1 0 
15823876		 # 	collision with: 0 7 0 0  and 9 2 1 0 
15823878		 # 	collision with: 2 9 0 0  and 3 9 0 0 
15823885		 # 	collision with: 2 7 0 0  and 2 9 1 0 
15823896		 # 	collision with: 4 0 1 0  and 2 7 2 0 
15823898		 # 	collision with: 9 2 0 0  and 8 0 1 0 
15823901		 # 	collision with: 4 3 1 0  and 7 5 1 0 
15823903		 # 	collision with: 9 2 0 0  and 4 1 1 0 
15823937		 # 	collision with: 10 10 0 0  and 4 2 1 0 
15823939		 # 	collision with: 9 9 1 0  and 10 4 2 0 
15823941		 # 	collision with: 10 2 1 0  and 6 0 2 0 
15823943		 # 	collision with: 1 6 2 0  and 10 1 3 0 
15823953		 # 	collision with: 8 4 0 0  and 8 5 0 0 
15823955		 # 	collision with: 4 6 0 0  and 10 6 1 0 
15823960		 # 	collision with: 3 1 2 0  and 0 0 3 0 
15823962		 # 	collision with: 9 0 1 0  and 6 3 2 0 
15823976		 # 	collision with: 1 3 1 0  and 1 5 1 0 
15823978		 # 	collision with: 5 0 1 0  and 5 1 1 0 
15824012		 # 	collision with: 5 4 0 0  and 9 9 1 0 
15824014		 # 	collision with: 8 3 0 0  and 3 1 2 0 
15824024		 # 	collision with: 10 6 0 0  and 10 8 1 0 
15824033		 # 	collision with: 10 3 0 0  and 10 0 1 0 
15824035		 # 	collision with: 7 3 1 0  and 2 5 1 0 
15824044		 # 	collision with: 1 10 0 0  and 2 3 2 0 
15824046		 # 	collision with: 4 5 1 0  and 0 7 3 0 
15824050		 # 	collision with: 3 3 0 0  and 6 5 1 0 
15824061		 # 	collision with: 7 0 1 0  and 7 1 1 0 
15824063		 # 	collision with: 5 5 0 0  and 6 7 1 0 
15824084		 # 	collision with: 2 6 0 0  and 1 6 1 0 
15824086		 # 	collision with: 5 1 1 0  and 5 1 2 0 
15824108		 # 	collision with: 8 2 0 0  and 7 2 1 0 
15824110		 # 	collision with: 5 0 1 0  and 5 1 1 0 
15824120		 # 	collision with: 1 3 0 0  and 0 8 1 0 
15824122		 # 	collision with: 2 9 0 0  and 3 9 0 0 
15824128		 # 	collision with: 10 4 0 0  and 3 3 1 0 
15824130		 # 	collision with: 0 6 0 0  and 8 0 2 0 
15824192		 # 	collision with: 2 8 2 0  and 5 0 3 0 
15824194		 # 	collision with: 0 10 1 0  and 2 10 1 0 
15824200		 # 	collision with: 3 8 1 0  and 5 8 1 0 
15824202		 # 	collision with: 3 5 0 0  and 8 6 1 0 
15824212		 # 	collision with: 1 6 0 0  and 7 0 2 0 
15824214		 # 	collision with: 3 1 1 0  and 4 1 1 0 
15824236		 # 	collision with: 2 2 0 0  and 10 0 1 0 
15824261		 # 	collision with: 8 4 0 0  and 8 5 0 0 
15824263		 # 	collision with: 8 1 2 0  and 8 2 2 0 
15824272		 # 	collision with: 5 7 0 0  and 6 7 0 0 
15824274		 # 	collision with: 4 1 1 0  and 8 0 2 0 
15824278		 # 	collision with: 4 2 1 0  and 0 2 2 0 
15824289		 # 	collision with: 2 3 0 0  and 10 0 1 0 
15824291		 # 	collision with: 4 2 1 0  and 1 3 2 0 
15824296		 # 	collision with: 1 3 0 0  and 0 8 1 0 
15824298		 # 	collision with: 2 9 0 0  and 3 9 0 0 
15824308		 # 	collision with: 6 1 0 0  and 10 7 1 0 
15824310		 # 	collision with: 6 1 0 0  and 8 7 1 0 
15824337		 # 	collision with: 8 4 1 0  and 9 5 1 0 
15824339		 # 	collision with: 5 2 1 0  and 1 9 2 0 
15824344		 # 	collision with: 2 5 1 0  and 4 5 1 0 
15824346		 # 	collision with: 2 9 0 0  and 2 9 1 0 
15824360		 # 	collision with: 5 7 0 0  and 6 7 0 0 
15824362		 # 	collision with: 3 3 0 0  and 9 3 1 0 
15824369		 # 	collision with: 7 0 1 0  and 7 1 1 0 
15824371		 # 	collision with: 6 9 0 0  and 3 8 2 0 
15824380		 # 	collision with: 2 9 0 0  and 1 5 2 0 
15824382		 # 	collision with: 7 5 0 0  and 0 1 2 0 
15824385		 # 	collision with: 3 1 0 0  and 2 2 2 0 
15824387		 # 	collision with: 1 1 0 0  and 3 7 1 0 
15824421		 # 	collision with: 4 3 0 0  and 7 5 0 0 
15824423		 # 	collision with: 9 4 1 0  and 7 5 1 0 
15824425		 # 	collision with: 4 8 0 0  and 9 3 1 0 
15824427		 # 	collision with: 5 7 1 0  and 5 5 2 0 
15824437		 # 	collision with: 7 7 0 0  and 7 5 1 0 
15824439		 # 	collision with: 10 0 1 0  and 3 3 2 0 
15824446		 # 	collision with: 3 9 0 0  and 4 7 1 0 
15824460		 # 	collision with: 5 7 0 0  and 6 7 0 0 
15824462		 # 	collision with: 4 1 0 0  and 0 10 1 0 
15824496		 # 	collision with: 1 7 1 0  and 6 3 3 0 
15824498		 # 	collision with: 2 9 0 0  and 3 9 0 0 
15824508		 # 	collision with: 4 7 0 0  and 4 3 1 0 
15824510		 # 	collision with: 1 9 0 0  and 4 6 1 0 
15824517		 # 	collision with: 10 7 0 0  and 8 0 1 0 
15824519		 # 	collision with: 8 7 1 0  and 2 2 2 0 
15824528		 # 	collision with: 7 0 2 0  and 7 1 2 0 
15824532		 # 	collision with: 5 1 1 0  and 9 0 2 0 
15824534		 # 	collision with: 6 5 0 0  and 10 0 1 0 
15824547		 # 	collision with: 4 3 0 0  and 1 5 0 0 
15824568		 # 	collision with: 5 2 0 0  and 0 3 2 0 
15824570		 # 	collision with: 2 6 0 0  and 1 6 1 0 
15824592		 # 	collision with: 5 7 0 0  and 6 7 0 0 
15824594		 # 	collision with: 8 2 0 0  and 7 2 1 0 
15824604		 # 	collision with: 7 0 0 0  and 2 10 1 0 
15824612		 # 	collision with: 6 4 0 0  and 6 0 2 0 
15824614		 # 	collision with: 1 5 0 0  and 8 0 1 0 
15824676		 # 	collision with: 7 0 1 0  and 7 1 1 0 
15824678		 # 	collision with: 2 3 1 0  and 0 4 1 0 
15824684		 # 	collision with: 0 10 0 0  and 1 2 1 0 
15824686		 # 	collision with: 5 3 1 0  and 5 9 2 0 
15824696		 # 	collision with: 2 4 0 0  and 9 0 2 0 
15824698		 # 	collision with: 1 10 0 0  and 0 3 1 0 
15824720		 # 	collision with: 7 0 1 0  and 7 1 1 0 
15824722		 # 	collision with: 5 3 1 0  and 2 5 1 0 
15824745		 # 	collision with: 10 9 0 0  and 4 3 1 0 
15824747		 # 	collision with: 7 8 0 0  and 4 1 1 0 
15824756		 # 	collision with: 1 4 0 0  and 6 7 1 0 
15824758		 # 	collision with: 1 3 0 0  and 0 3 1 0 
15824760		 # 	collision with: 2 0 1 0  and 6 1 3 0 
15824762		 # 	collision with: 2 9 0 0  and 3 9 0 0 
15824775		 # 	collision with: 5 1 0 0  and 5 0 1 0 
15824780		 # 	collision with: 7 10 1 0  and 7 2 2 0 
15824782		 # 	collision with: 3 1 2 0  and 4 1 2 0 
15824792		 # 	collision with: 4 3 0 0  and 7 7 1 0 
15824794		 # 	collision with: 8 6 0 0  and 1 2 1 0 
15824821		 # 	collision with: 4 6 0 0  and 4 4 1 0 
15824823		 # 	collision with: 3 1 1 0  and 5 5 2 0 
15824830		 # 	collision with: 1 10 0 0  and 0 3 1 0 
15824844		 # 	collision with: 5 3 0 0  and 7 3 1 0 
15824846		 # 	collision with: 1 3 0 0  and 0 3 1 0 
15824853		 # 	collision with: 8 3 0 0  and 10 5 1 0 
15824855		 # 	collision with: 4 3 0 0  and 1 5 0 0 
15824864		 # 	collision with: 7 6 0 0  and 5 5 1 0 
15824866		 # 	collision with: 8 4 1 0  and 5 2 2 0 
15824871		 # 	collision with: 5 3 0 0  and 9 1 1 0 
15824905		 # 	collision with: 5 3 0 0  and 5 4 0 0 
15824907		 # 	collision with: 2 9 0 0  and 3 9 0 0 
15824909		 # 	collision with: 5 3 1 0  and 5 4 1 0 
15824911		 # 	collision with: 3 3 1 0  and 3 4 1 0 
15824921		 # 	collision with: 7 3 0 0  and 4 4 0 0 
15824923		 # 	collision with: 7 5 0 0  and 2 3 1 0 
15824928		 # 	collision with: 0 0 1 0  and 4 1 2 0 
15824930		 # 	collision with: 7 5 1 0  and 7 5 2 0 
15824944		 # 	collision with: 7 0 2 0  and 3 2 2 0 
15824946		 # 	collision with: 7 2 0 0  and 7 2 1 0 
15824980		 # 	collision with: 3 0 1 0  and 3 2 1 0 
15824982		 # 	collision with: 4 1 1 0  and 4 3 1 0 
15824992		 # 	collision with: 9 4 0 0  and 9 4 1 0 
15824994		 # 	collision with: 6 10 1 0  and 5 0 2 0 
15825001		 # 	collision with: 5 7 0 0  and 6 7 0 0 
15825003		 # 	collision with: 7 2 1 0  and 1 6 2 0 
15825012		 # 	collision with: 8 8 0 0  and 2 9 1 0 
15825014		 # 	collision with: 6 2 0 0  and 3 6 1 0 
15825016		 # 	collision with: 1 6 0 0  and 7 1 1 0 
15825029		 # 	collision with: 8 4 0 0  and 6 8 1 0 
15825031		 # 	collision with: 2 4 0 0  and 7 2 1 0 
15825052		 # 	collision with: 9 9 0 0  and 5 3 1 0 
15825054		 # 	collision with: 5 7 0 0  and 1 5 1 0 
15825076		 # 	collision with: 4 4 1 0  and 5 4 1 0 
15825088		 # 	collision with: 5 7 0 0  and 6 7 0 0 
15825090		 # 	collision with: 5 5 1 0  and 4 1 2 0 
15825098		 # 	collision with: 3 8 1 0  and 5 8 1 0 
15825160		 # 	collision with: 2 9 2 0  and 3 9 2 0 
15825162		 # 	collision with: 3 1 1 0  and 7 9 2 0 
15825170		 # 	collision with: 0 10 1 0  and 2 10 1 0 
15825180		 # 	collision with: 7 1 0 0  and 3 0 1 0 
15825182		 # 	collision with: 2 9 0 0  and 3 9 0 0 
15825204		 # 	collision with: 0 9 2 0  and 3 3 4 0 
15825206		 # 	collision with: 3 1 1 0  and 7 9 2 0 
15825229		 # 	collision with: 7 3 0 0  and 4 4 0 0 
15825240		 # 	collision with: 1 9 0 0  and 4 1 1 0 
15825242		 # 	collision with: 5 3 0 0  and 7 3 1 0 
15825244		 # 	collision with: 6 1 0 0  and 2 0 1 0 
15825246		 # 	collision with: 0 3 1 0  and 1 3 1 0 
15825257		 # 	collision with: 5 3 0 0  and 5 4 0 0 
15825259		 # 	collision with: 2 9 0 0  and 3 9 0 0 
15825264		 # 	collision with: 5 7 0 0  and 6 7 0 0 
15825266		 # 	collision with: 2 10 1 0  and 5 7 2 0 
15825276		 # 	collision with: 2 10 1 0  and 2 6 2 0 
15825278		 # 	collision with: 1 5 0 0  and 9 2 1 0 
15825305		 # 	collision with: 5 3 1 0  and 5 4 1 0 
15825312		 # 	collision with: 8 8 0 0  and 10 1 1 0 
15825314		 # 	collision with: 2 9 0 0  and 3 9 0 0 
15825328		 # 	collision with: 2 5 1 0  and 4 5 1 0 
15825330		 # 	collision with: 8 1 1 0  and 10 7 2 0 
15825337		 # 	collision with: 10 0 0 0  and 3 1 2 0 
15825339		 # 	collision with: 2 4 1 0  and 2 6 1 0 
15825348		 # 	collision with: 1 2 0 0  and 2 10 1 0 
15825350		 # 	collision with: 9 8 0 0  and 6 5 1 0 
15825353		 # 	collision with: 10 2 1 0  and 1 3 1 0 
15825355		 # 	collision with: 3 5 0 0  and 8 8 1 0 
15825389		 # 	collision with: 6 2 0 0  and 0 4 1 0 
15825391		 # 	collision with: 7 9 0 0  and 4 1 2 0 
15825395		 # 	collision with: 2 6 0 0  and 1 7 1 0 
15825405		 # 	collision with: 10 1 1 0  and 10 2 1 0 
15825407		 # 	collision with: 5 6 0 0  and 5 6 1 0 
15825412		 # 	collision with: 5 5 0 0  and 10 1 1 0 
15825414		 # 	collision with: 9 3 1 0  and 10 0 2 0 
15825428		 # 	collision with: 9 1 0 0  and 1 4 1 0 
15825466		 # 	collision with: 8 10 0 0  and 10 2 1 0 
15825476		 # 	collision with: 6 3 0 0  and 8 0 1 0 
15825478		 # 	collision with: 1 6 0 0  and 8 1 1 0 
15825485		 # 	collision with: 2 0 0 0  and 6 1 1 0 
15825487		 # 	collision with: 4 7 0 0  and 3 9 1 0 
15825496		 # 	collision with: 5 7 0 0  and 6 7 0 0 
15825498		 # 	collision with: 3 0 0 0  and 2 2 1 0 
15825500		 # 	collision with: 9 0 0 0  and 2 4 1 0 
15825502		 # 	collision with: 9 3 1 0  and 10 0 2 0 
15825513		 # 	collision with: 6 4 0 0  and 4 10 1 0 
15825515		 # 	collision with: 7 1 0 0  and 0 4 1 0 
15825536		 # 	collision with: 7 6 0 0  and 7 6 1 0 
15825538		 # 	collision with: 8 1 2 0  and 8 2 2 0 
15825560		 # 	collision with: 1 3 0 0  and 6 0 1 0 
15825562		 # 	collision with: 1 5 0 0  and 5 7 1 0 
15825572		 # 	collision with: 10 8 0 0  and 4 6 1 0 
15825574		 # 	collision with: 4 3 0 0  and 2 0 1 0 
15825580		 # 	collision with: 10 6 0 0  and 10 6 1 0 
15825644		 # 	collision with: 10 2 0 0  and 1 3 1 0 
15825646		 # 	collision with: 2 9 0 0  and 3 9 0 0 
15825652		 # 	collision with: 10 3 0 0  and 4 1 2 0 
15825654		 # 	collision with: 0 1 0 0  and 10 3 1 0 
15825664		 # 	collision with: 10 5 0 0  and 8 3 1 0 
15825666		 # 	collision with: 3 3 0 0  and 10 0 1 0 
15825688		 # 	collision with: 7 0 0 0  and 0 1 2 0 
15825690		 # 	collision with: 2 9 0 0  and 3 9 0 0 
15825713		 # 	collision with: 10 1 1 0  and 10 2 1 0 
15825715		 # 	collision with: 3 1 1 0  and 9 2 1 0 
15825724		 # 	collision with: 4 2 1 0  and 3 3 1 0 
15825726		 # 	collision with: 8 4 1 0  and 4 6 1 0 
15825728		 # 	collision with: 7 7 0 0  and 10 9 1 0 
15825730		 # 	collision with: 3 4 0 0  and 6 5 1 0 
15825741		 # 	collision with: 6 2 0 0  and 0 4 1 0 
15825743		 # 	collision with: 0 3 1 0  and 1 3 1 0 
15825750		 # 	collision with: 0 9 0 0  and 4 5 1 0 
15825760		 # 	collision with: 5 7 0 0  and 6 7 0 0 
15825762		 # 	collision with: 3 3 1 0  and 6 4 2 0 
15825789		 # 	collision with: 5 2 0 0  and 6 4 0 0 
15825791		 # 	collision with: 8 0 1 0  and 9 2 2 0 
15825796		 # 	collision with: 4 9 0 0  and 0 0 2 0 
15825798		 # 	collision with: 6 7 0 0  and 3 6 1 0 
15825812		 # 	collision with: 0 4 0 0  and 3 5 2 0 
15825814		 # 	collision with: 10 4 1 0  and 1 5 1 0 
15825823		 # 	collision with: 4 10 0 0  and 9 1 1 0 
15825832		 # 	collision with: 1 5 0 0  and 8 8 1 0 
15825834		 # 	collision with: 3 5 0 0  and 8 8 1 0 
15825837		 # 	collision with: 6 1 1 0  and 6 3 1 0 
15825839		 # 	collision with: 3 5 0 0  and 1 2 1 0 
15825873		 # 	collision with: 9 2 1 0  and 9 4 1 0 
15825875		 # 	collision with: 2 10 0 0  and 4 3 1 0 
15825877		 # 	collision with: 6 4 0 0  and 3 9 1 0 
15825879		 # 	collision with: 2 9 0 0  and 3 9 0 0 
15825891		 # 	collision with: 10 9 1 0  and 6 0 2 0 
15825896		 # 	collision with: 6 0 1 0  and 10 1 1 0 
15825898		 # 	collision with: 9 0 1 0  and 1 2 1 0 
15825912		 # 	collision with: 2 9 1 0  and 3 9 1 0 
15825914		 # 	collision with: 2 9 0 0  and 7 10 2 0 
15825948		 # 	collision with: 5 7 0 0  and 6 7 0 0 
15825950		 # 	collision with: 1 2 1 0  and 3 2 1 0 
15825962		 # 	collision with: 9 6 0 0  and 4 2 1 0 
15825969		 # 	collision with: 6 1 1 0  and 6 3 1 0 
15825971		 # 	collision with: 4 4 1 0  and 5 4 1 0 
15825980		 # 	collision with: 9 4 0 0  and 6 2 1 0 
15825982		 # 	collision with: 9 1 0 0  and 0 9 1 0 
15825984		 # 	collision with: 0 0 1 0  and 4 1 1 0 
15825986		 # 	collision with: 9 8 0 0  and 9 3 1 0 
15825997		 # 	collision with: 4 5 0 0  and 2 5 1 0 
15825999		 # 	collision with: 9 3 1 0  and 0 5 1 0 
15826020		 # 	collision with: 4 4 1 0  and 5 4 1 0 
15826022		 # 	collision with: 2 9 0 0  and 3 9 0 0 
15826044		 # 	collision with: 5 4 1 0  and 4 4 2 0 
15826046		 # 	collision with: 1 5 0 0  and 4 1 1 0 
15826056		 # 	collision with: 3 1 0 0  and 2 2 2 0 
15826058		 # 	collision with: 4 1 0 0  and 1 5 1 0 
15826064		 # 	collision with: 10 0 0 0  and 2 2 1 0 
15826066		 # 	collision with: 2 9 0 0  and 3 9 0 0 
15826128		 # 	collision with: 8 6 0 0  and 4 7 1 0 
15826136		 # 	collision with: 3 2 0 0  and 7 0 2 0 
15826138		 # 	collision with: 0 8 0 0  and 9 0 1 0 
15826148		 # 	collision with: 5 6 0 0  and 2 4 1 0 
15826150		 # 	collision with: 0 1 0 0  and 10 3 1 0 
15826172		 # 	collision with: 3 10 1 0  and 0 2 2 0 
15826174		 # 	collision with: 0 10 0 0  and 10 4 1 0 
15826197		 # 	collision with: 8 6 0 0  and 7 7 1 0 
15826199		 # 	collision with: 0 4 0 0  and 2 3 1 0 
15826208		 # 	collision with: 9 2 0 0  and 5 8 1 0 
15826210		 # 	collision with: 9 8 0 0  and 0 0 1 0 
15826212		 # 	collision with: 5 7 0 0  and 6 7 0 0 
15826214		 # 	collision with: 3 4 0 0  and 6 5 2 0 
15826225		 # 	collision with: 9 2 1 0  and 9 4 1 0 
15826227		 # 	collision with: 6 5 0 0  and 9 3 2 0 
15826232		 # 	collision with: 9 3 0 0  and 4 2 1 0 
15826234		 # 	collision with: 10 9 0 0  and 4 4 1 0 
15826246		 # 	collision with: 10 5 0 0  and 2 7 1 0 
15826275		 # 	collision with: 2 9 0 0  and 3 9 0 0 
15826280		 # 	collision with: 9 0 0 0  and 5 1 2 0 
15826296		 # 	collision with: 7 1 0 0  and 3 2 1 0 
15826298		 # 	collision with: 9 8 0 0  and 0 0 1 0 
15826305		 # 	collision with: 1 9 0 0  and 2 2 1 0 
15826307		 # 	collision with: 8 9 0 0  and 9 6 1 0 
15826316		 # 	collision with: 1 3 0 0  and 6 4 1 0 
15826318		 # 	collision with: 2 6 0 0  and 1 7 1 0 
15826321		 # 	collision with: 7 4 0 0  and 1 8 1 0 
15826323		 # 	collision with: 8 1 1 0  and 8 2 1 0 
15826359		 # 	collision with: 7 9 0 0  and 2 0 2 0 
15826361		 # 	collision with: 2 9 0 0  and 0 3 1 0 
15826373		 # 	collision with: 9 10 0 0  and 0 8 1 0 
15826375		 # 	collision with: 4 1 0 0  and 4 3 0 0 
15826380		 # 	collision with: 2 0 0 0  and 10 7 1 0 
15826382		 # 	collision with: 5 6 0 0  and 9 5 1 0 
15826396		 # 	collision with: 9 2 0 0  and 6 2 1 0 
15826398		 # 	collision with: 2 9 0 0  and 3 9 0 0 
15826432		 # 	collision with: 2 2 1 0  and 2 2 2 0 
15826434		 # 	collision with: 2 3 2 0  and 2 3 3 0 
15826444		 # 	collision with: 5 7 0 0  and 6 7 0 0 
15826446		 # 	collision with: 3 1 0 0  and 2 10 2 0 
15826453		 # 	collision with: 7 0 2 0  and 1 2 2 0 
15826455		 # 	collision with: 8 1 1 0  and 8 2 1 0 
15826464		 # 	collision with: 0 0 1 0  and 4 1 1 0 
15826466		 # 	collision with: 7 1 1 0  and 2 3 1 0 
15826468		 # 	collision with: 3 9 1 0  and 4 0 3 0 
15826470		 # 	collision with: 5 8 0 0  and 5 8 1 0 
15826481		 # 	collision with: 10 1 0 0  and 1 3 0 0 
15826504		 # 	collision with: 0 3 0 0  and 5 5 1 0 
15826506		 # 	collision with: 3 3 1 0  and 10 0 2 0 
15826528		 # 	collision with: 2 3 0 0  and 10 3 2 0 
15826530		 # 	collision with: 2 9 0 0  and 3 9 0 0 
15826542		 # 	collision with: 8 6 2 0  and 3 2 3 0 
15826548		 # 	collision with: 8 1 0 0  and 0 8 1 0 
15826550		 # 	collision with: 5 7 1 0  and 0 10 3 0 
15826614		 # 	collision with: 6 7 0 0  and 4 3 1 0 
15826620		 # 	collision with: 5 7 0 0  and 6 7 0 0 
15826622		 # 	collision with: 6 2 0 0  and 9 9 1 0 
15826632		 # 	collision with: 8 2 0 0  and 0 6 1 0 
15826656		 # 	collision with: 1 10 0 0  and 10 0 1 0 
15826658		 # 	collision with: 3 1 1 0  and 4 1 1 0 
15826681		 # 	collision with: 9 10 0 0  and 0 8 1 0 
15826683		 # 	collision with: 4 1 0 0  and 4 3 0 0 
15826692		 # 	collision with: 0 8 0 0  and 4 0 2 0 
15826696		 # 	collision with: 3 1 1 0  and 4 1 1 0 
15826698		 # 	collision with: 0 10 0 0  and 2 0 1 0 
15826709		 # 	collision with: 5 7 0 0  and 6 7 0 0 
15826711		 # 	collision with: 3 9 0 0  and 5 0 2 0 
15826716		 # 	collision with: 0 1 0 0  and 2 10 1 0 
15826718		 # 	collision with: 10 10 0 0  and 4 4 2 0 
15826728		 # 	collision with: 2 10 0 0  and 3 0 1 0 
15826730		 # 	collision with: 9 5 1 0  and 9 6 1 0 
15826757		 # 	collision with: 2 9 0 0  and 0 3 1 0 
15826759		 # 	collision with: 10 5 1 0  and 7 1 2 0 
15826764		 # 	collision with: 10 7 0 0  and 2 5 1 0 
15826766		 # 	collision with: 7 5 0 0  and 7 1 1 0 
15826780		 # 	collision with: 7 8 0 0  and 7 4 1 0 
15826782		 # 	collision with: 1 1 1 0  and 2 2 2 0 
15826789		 # 	collision with: 10 1 0 0  and 1 3 0 0 
15826791		 # 	collision with: 8 6 0 0  and 8 8 1 0 
15826800		 # 	collision with: 4 9 0 0  and 10 3 1 0 
15826802		 # 	collision with: 6 3 0 0  and 8 8 1 0 
15826805		 # 	collision with: 0 8 0 0  and 1 3 1 0 
15826807		 # 	collision with: 2 9 0 0  and 3 9 0 0 
15826841		 # 	collision with: 10 1 1 0  and 1 3 1 0 
15826843		 # 	collision with: 8 1 0 0  and 8 2 0 0 
15826845		 # 	collision with: 4 10 0 0  and 6 0 1 0 
15826847		 # 	collision with: 6 1 1 0  and 7 0 3 0 
15826857		 # 	collision with: 1 3 2 0  and 1 5 2 0 
15826859		 # 	collision with: 2 10 0 0  and 2 0 1 0 
15826864		 # 	collision with: 8 10 0 0  and 3 5 2 0 
15826866		 # 	collision with: 1 10 0 0  and 8 5 2 0 
15826882		 # 	collision with: 8 10 0 0  and 4 9 1 0 
15826916		 # 	collision with: 7 1 0 0  and 7 1 1 0 
15826918		 # 	collision with: 9 5 0 0  and 8 9 1 0 
15826928		 # 	collision with: 7 7 1 0  and 7 5 2 0 
15826930		 # 	collision with: 0 9 0 0  and 2 5 1 0 
15826939		 # 	collision with: 2 9 0 0  and 3 9 0 0 
15826948		 # 	collision with: 6 8 0 0  and 8 5 1 0 
15826950		 # 	collision with: 2 9 0 0  and 3 9 0 0 
15826952		 # 	collision with: 10 4 0 0  and 3 3 1 0 
15826954		 # 	collision with: 1 3 0 0  and 1 10 1 0 
15826965		 # 	collision with: 10 1 0 0  and 10 2 0 0 
15826967		 # 	collision with: 9 9 0 0  and 3 1 1 0 
15826988		 # 	collision with: 4 0 1 0  and 5 2 1 0 
15826990		 # 	collision with: 6 4 1 0  and 6 5 1 0 
15827012		 # 	collision with: 10 7 0 0  and 2 5 1 0 
15827014		 # 	collision with: 1 6 1 0  and 2 6 1 0 
15827024		 # 	collision with: 9 2 0 0  and 3 5 1 0 
15827026		 # 	collision with: 8 1 0 0  and 7 4 2 0 
15827032		 # 	collision with: 2 0 1 0  and 1 1 1 0 
15827034		 # 	collision with: 6 1 1 0  and 2 2 1 0 
15827096		 # 	collision with: 0 10 0 0  and 7 1 2 0 
15827098		 # 	collision with: 4 4 0 0  and 10 10 1 0 
15827104		 # 	collision with: 9 7 0 0  and 4 0 2 0 
15827116		 # 	collision with: 5 7 0 0  and 6 7 0 0 
15827118		 # 	collision with: 7 6 0 0  and 3 0 1 0 
15827140		 # 	collision with: 5 9 1 0  and 0 2 2 0 
15827142		 # 	collision with: 7 7 2 0  and 2 9 3 0 
15827167		 # 	collision with: 9 2 1 0  and 4 3 2 0 
15827176		 # 	collision with: 3 1 1 0  and 4 1 1 0 
15827178		 # 	collision with: 1 6 0 0  and 2 4 2 0 
15827180		 # 	collision with: 10 1 0 0  and 10 1 1 0 
15827193		 # 	collision with: 2 4 0 0  and 1 0 1 0 
15827195		 # 	collision with: 8 1 0 0  and 8 2 0 0 
15827200		 # 	collision with: 4 8 0 0  and 9 3 2 0 
15827202		 # 	collision with: 2 5 1 0  and 4 5 1 0 
15827212		 # 	collision with: 9 7 0 0  and 0 8 1 0 
15827214		 # 	collision with: 2 9 0 0  and 3 9 0 0 
15827241		 # 	collision with: 5 8 1 0  and 3 5 2 0 
15827243		 # 	collision with: 3 9 0 0  and 5 1 2 0 
15827248		 # 	collision with: 5 7 0 0  and 6 7 0 0 
15827250		 # 	collision with: 4 0 0 0  and 5 4 1 0 
15827266		 # 	collision with: 2 2 1 0  and 6 1 2 0 
15827273		 # 	collision with: 10 1 0 0  and 10 2 0 0 
15827275		 # 	collision with: 0 6 0 0  and 10 4 1 0 
15827284		 # 	collision with: 0 3 0 0  and 1 5 1 0 
15827286		 # 	collision with: 10 9 0 0  and 4 0 1 0 
15827289		 # 	collision with: 9 1 1 0  and 8 5 2 0 
15827291		 # 	collision with: 10 10 1 0  and 5 4 2 0 
15827325		 # 	collision with: 6 0 0 0  and 8 8 1 0 
15827327		 # 	collision with: 1 8 0 0  and 8 3 1 0 
15827329		 # 	collision with: 4 2 1 0  and 3 10 2 0 
15827331		 # 	collision with: 2 3 0 0  and 0 1 1 0 
15827341		 # 	collision with: 6 0 0 0  and 5 2 0 0 
15827343		 # 	collision with: 10 7 0 0  and 7 4 1 0 
15827348		 # 	collision with: 5 7 0 0  and 6 7 0 0 
15827350		 # 	collision with: 4 10 0 0  and 5 3 1 0 
15827364		 # 	collision with: 4 0 2 0  and 6 0 2 0 
15827366		 # 	collision with: 1 8 0 0  and 5 5 1 0 
15827400		 # 	collision with: 4 0 1 0  and 6 0 1 0 
15827402		 # 	collision with: 1 1 0 0  and 1 1 1 0 
15827412		 # 	collision with: 4 0 1 0  and 6 0 1 0 
15827414		 # 	collision with: 2 9 0 0  and 3 9 0 0 
15827421		 # 	collision with: 10 7 0 0  and 2 5 1 0 
15827423		 # 	collision with: 10 10 1 0  and 5 4 2 0 
15827434		 # 	collision with: 8 10 0 0  and 5 2 2 0 
15827436		 # 	collision with: 5 7 0 0  and 6 7 0 0 
15827438		 # 	collision with: 9 3 0 0  and 3 4 1 0 
15827449		 # 	collision with: 2 5 0 0  and 8 0 1 0 
15827451		 # 	collision with: 8 0 0 0  and 6 2 2 0 
15827472		 # 	collision with: 6 3 0 0  and 1 1 2 0 
15827496		 # 	collision with: 5 5 0 0  and 6 0 2 0 
15827498		 # 	collision with: 9 4 0 0  and 10 3 1 0 
15827508		 # 	collision with: 6 4 0 0  and 10 1 1 0 
15827510		 # 	collision with: 3 8 1 0  and 5 8 1 0 
15827516		 # 	collision with: 6 1 0 0  and 4 5 1 0 
15827518		 # 	collision with: 8 10 1 0  and 10 6 2 0 
15827580		 # 	collision with: 8 10 0 0  and 0 4 2 0 
15827582		 # 	collision with: 7 2 3 0  and 7 4 3 0 
15827588		 # 	collision with: 3 9 0 0  and 6 0 1 0 
15827590		 # 	collision with: 2 9 0 0  and 3 9 0 0 
15827600		 # 	collision with: 2 2 1 0  and 2 3 1 0 
15827602		 # 	collision with: 3 1 1 0  and 4 3 1 0 
15827624		 # 	collision with: 6 8 0 0  and 8 4 1 0 
15827626		 # 	collision with: 1 8 0 0  and 10 4 1 0 
15827649		 # 	collision with: 6 0 0 0  and 5 2 0 0 
15827651		 # 	collision with: 1 5 0 0  and 2 0 1 0 
15827662		 # 	collision with: 6 7 1 0  and 9 2 2 0 
15827664		 # 	collision with: 2 9 0 0  and 6 0 1 0 
15827666		 # 	collision with: 3 1 0 0  and 3 1 1 0 
15827677		 # 	collision with: 10 1 0 0  and 9 7 1 0 
15827679		 # 	collision with: 5 7 0 0  and 3 1 1 0 
15827684		 # 	collision with: 0 2 0 0  and 4 8 1 0 
15827696		 # 	collision with: 0 8 0 0  and 8 1 1 0 
15827698		 # 	collision with: 6 3 0 0  and 8 8 2 0 
15827725		 # 	collision with: 7 0 1 0  and 1 6 3 0 
15827727		 # 	collision with: 6 5 0 0  and 10 0 1 0 
15827732		 # 	collision with: 1 9 0 0  and 3 1 1 0 
15827734		 # 	collision with: 7 3 1 0  and 4 5 1 0 
15827748		 # 	collision with: 9 3 0 0  and 9 3 1 0 
15827750		 # 	collision with: 9 2 0 0  and 9 9 1 0 
15827757		 # 	collision with: 10 5 0 0  and 10 5 1 0 
15827759		 # 	collision with: 10 2 0 0  and 5 2 2 0 
15827768		 # 	collision with: 6 4 1 0  and 8 1 2 0 
15827770		 # 	collision with: 3 2 0 0  and 6 3 2 0 
15827773		 # 	collision with: 7 0 0 0  and 7 1 0 0 
15827775		 # 	collision with: 2 0 0 0  and 3 1 0 0 
15827809		 # 	collision with: 7 4 1 0  and 9 0 2 0 
15827813		 # 	collision with: 9 0 0 0  and 2 1 0 0 
15827815		 # 	collision with: 7 5 1 0  and 0 4 2 0 
15827825		 # 	collision with: 8 4 0 0  and 5 0 2 0 
15827832		 # 	collision with: 10 3 0 0  and 4 1 1 0 
15827834		 # 	collision with: 2 9 0 0  and 3 9 0 0 
15827848		 # 	collision with: 1 5 0 0  and 1 3 1 0 
15827850		 # 	collision with: 4 0 1 0  and 6 0 1 0 
15827884		 # 	collision with: 0 0 0 0  and 2 3 1 0 
15827896		 # 	collision with: 6 0 0 0  and 3 4 2 0 
15827898		 # 	collision with: 7 2 0 0  and 10 1 2 0 
15827905		 # 	collision with: 7 0 0 0  and 7 1 0 0 
15827907		 # 	collision with: 2 0 0 0  and 3 1 0 0 
15827916		 # 	collision with: 1 9 0 0  and 2 3 1 0 
15827918		 # 	collision with: 1 8 0 0  and 5 7 1 0 
15827920		 # 	collision with: 4 1 0 0  and 4 1 2 0 
15827922		 # 	collision with: 2 9 0 0  and 3 9 0 0 
15827933		 # 	collision with: 5 7 0 0  and 6 7 0 0 
15827935		 # 	collision with: 5 0 0 0  and 5 1 0 0 
15827958		 # 	collision with: 9 4 0 0  and 2 7 1 0 
15827980		 # 	collision with: 9 9 0 0  and 10 8 1 0 
15827982		 # 	collision with: 3 7 0 0  and 3 0 1 0 
15827992		 # 	collision with: 4 0 1 0  and 10 1 1 0 
15827994		 # 	collision with: 8 1 1 0  and 8 2 1 0 
29.7025secs	12304
