# prime 11
# degree 2
# input variables 3
# output variables 4
# reload computed balance functions from file balance-1246of3248-p11d2m3-debug.log
# p = 11
# n = 4
# smalldomain p^m 1331
# domain p^n 14641
#	 p^2 = 121
#	 p^3 = 1331
#	 p^4 = 14641
#	 p^5 = 161051
#	 p^6 = 1771561
#	 p^7 = 19487171
#	 p^8 = 214358881
#	 p^9 = 2357947691
opening file : balance-1246of3248-p11d2m3-debug.log
reloading for step2...
7476089		 # 	collision with: 6 4 0 0  and 6 4 1 0 
7476091		 # 	collision with: 4 3 1 0  and 4 5 1 0 
7476113		 # 	collision with: 7 10 0 0  and 3 3 1 0 
7476145		 # 	collision with: 6 2 1 0  and 10 3 1 0 
7476147		 # 	collision with: 5 8 0 0  and 10 4 1 0 
7476169		 # 	collision with: 4 9 1 0  and 1 6 2 0 
7476171		 # 	collision with: 10 4 0 0  and 1 2 1 0 
7476281		 # 	collision with: 8 5 1 0  and 8 2 2 0 
7476283		 # 	collision with: 0 9 1 0  and 7 1 2 0 
7476309		 # 	collision with: 4 0 0 0  and 10 1 1 0 
7476311		 # 	collision with: 4 3 1 0  and 4 5 1 0 
7476321		 # 	collision with: 4 4 0 0  and 2 6 1 0 
7476348		 # 	collision with: 6 1 0 0  and 0 6 1 0 
7476350		 # 	collision with: 7 6 0 0  and 6 0 1 0 
7476369		 # 	collision with: 2 6 0 0  and 7 6 2 0 
7476371		 # 	collision with: 9 4 0 0  and 6 5 1 0 
7476373		 # 	collision with: 3 5 0 0  and 7 2 1 0 
7476375		 # 	collision with: 5 2 1 0  and 9 2 2 0 
7476421		 # 	collision with: 10 10 0 0  and 5 10 1 0 
7476423		 # 	collision with: 4 6 1 0  and 5 6 1 0 
7476433		 # 	collision with: 7 7 0 0  and 3 2 1 0 
7476461		 # 	collision with: 10 5 0 0  and 7 2 1 0 
7476463		 # 	collision with: 1 4 0 0  and 9 1 1 0 
7476573		 # 	collision with: 8 7 0 0  and 9 10 1 0 
7476597		 # 	collision with: 5 8 2 0  and 2 0 3 0 
7476599		 # 	collision with: 6 7 0 0  and 2 6 1 0 
7476629		 # 	collision with: 7 1 1 0  and 9 3 1 0 
7476631		 # 	collision with: 1 4 0 0  and 1 0 2 0 
7476653		 # 	collision with: 8 8 0 0  and 3 3 1 0 
7476655		 # 	collision with: 6 7 0 0  and 5 2 1 0 
7476765		 # 	collision with: 9 0 0 0  and 2 10 1 0 
7476767		 # 	collision with: 3 5 1 0  and 3 9 2 0 
7476793		 # 	collision with: 0 8 1 0  and 1 8 1 0 
7476795		 # 	collision with: 6 3 0 0  and 4 5 0 0 
7476805		 # 	collision with: 5 9 0 0  and 5 5 2 0 
7476807		 # 	collision with: 7 6 1 0  and 6 0 3 0 
7476832		 # 	collision with: 8 6 1 0  and 4 9 2 0 
7476834		 # 	collision with: 2 1 0 0  and 4 5 2 0 
7476853		 # 	collision with: 7 0 1 0  and 7 2 1 0 
7476855		 # 	collision with: 5 3 1 0  and 7 1 2 0 
7476857		 # 	collision with: 3 8 0 0  and 9 4 1 0 
7476859		 # 	collision with: 7 0 1 0  and 7 1 1 0 
7476905		 # 	collision with: 5 0 0 0  and 4 2 1 0 
7476907		 # 	collision with: 9 4 0 0  and 7 5 1 0 
7476917		 # 	collision with: 7 0 0 0  and 10 1 1 0 
7476919		 # 	collision with: 4 3 0 0  and 6 3 0 0 
7476945		 # 	collision with: 3 8 0 0  and 3 8 1 0 
7476947		 # 	collision with: 7 0 1 0  and 7 1 1 0 
7477057		 # 	collision with: 7 9 0 0  and 6 0 1 0 
7477059		 # 	collision with: 6 3 0 0  and 6 4 0 0 
7477081		 # 	collision with: 4 6 0 0  and 6 3 1 0 
7477083		 # 	collision with: 3 8 0 0  and 1 1 1 0 
7477113		 # 	collision with: 1 4 2 0  and 9 6 2 0 
7477115		 # 	collision with: 0 4 2 0  and 9 6 2 0 
7477137		 # 	collision with: 8 8 2 0  and 3 3 3 0 
7477139		 # 	collision with: 4 3 0 0  and 6 3 0 0 
7477249		 # 	collision with: 7 0 1 0  and 7 2 1 0 
7477251		 # 	collision with: 4 3 2 0  and 4 5 2 0 
7477277		 # 	collision with: 9 2 1 0  and 3 4 1 0 
7477279		 # 	collision with: 6 3 0 0  and 6 4 0 0 
7477289		 # 	collision with: 5 7 0 0  and 7 10 1 0 
7477291		 # 	collision with: 9 9 1 0  and 6 0 2 0 
7477316		 # 	collision with: 4 1 0 0  and 0 4 1 0 
7477318		 # 	collision with: 8 8 0 0  and 7 0 1 0 
7477337		 # 	collision with: 8 7 0 0  and 5 1 1 0 
7477339		 # 	collision with: 7 8 0 0  and 2 7 1 0 
7477341		 # 	collision with: 5 5 1 0  and 6 6 1 0 
7477343		 # 	collision with: 4 3 0 0  and 6 3 0 0 
7477389		 # 	collision with: 5 10 0 0  and 5 10 1 0 
7477391		 # 	collision with: 6 10 0 0  and 1 0 1 0 
7477401		 # 	collision with: 6 2 0 0  and 5 9 1 0 
7477403		 # 	collision with: 6 3 0 0  and 4 5 2 0 
7477429		 # 	collision with: 3 7 0 0  and 1 0 1 0 
7477431		 # 	collision with: 4 3 0 0  and 6 3 0 0 
7477541		 # 	collision with: 1 4 0 0  and 5 4 1 0 
7477543		 # 	collision with: 7 4 0 0  and 10 4 1 0 
7477565		 # 	collision with: 2 4 1 0  and 4 4 1 0 
7477567		 # 	collision with: 1 9 0 0  and 4 4 1 0 
7477597		 # 	collision with: 2 7 1 0  and 3 7 1 0 
7477599		 # 	collision with: 0 7 0 0  and 10 2 1 0 
7477621		 # 	collision with: 10 5 0 0  and 4 0 2 0 
7477623		 # 	collision with: 10 7 0 0  and 5 0 1 0 
7477733		 # 	collision with: 3 7 0 0  and 10 0 1 0 
7477735		 # 	collision with: 5 8 0 0  and 2 7 1 0 
7477761		 # 	collision with: 4 6 0 0  and 6 5 2 0 
7477763		 # 	collision with: 7 1 0 0  and 7 0 2 0 
7477773		 # 	collision with: 9 0 0 0  and 7 5 1 0 
7477775		 # 	collision with: 8 6 0 0  and 0 5 1 0 
7477800		 # 	collision with: 1 2 0 0  and 0 1 2 0 
7477802		 # 	collision with: 7 3 0 0  and 8 0 1 0 
7477821		 # 	collision with: 10 1 0 0  and 4 0 1 0 
7477823		 # 	collision with: 9 0 0 0  and 2 9 1 0 
7477825		 # 	collision with: 10 2 0 0  and 7 4 1 0 
7477827		 # 	collision with: 4 1 0 0  and 9 0 1 0 
7477873		 # 	collision with: 6 10 1 0  and 9 2 2 0 
7477875		 # 	collision with: 0 4 1 0  and 9 5 1 0 
7477885		 # 	collision with: 3 8 0 0  and 1 5 1 0 
7477887		 # 	collision with: 6 3 2 0  and 6 4 2 0 
7477913		 # 	collision with: 2 4 1 0  and 2 6 1 0 
7477915		 # 	collision with: 7 8 1 0  and 1 2 2 0 
7478025		 # 	collision with: 7 1 1 0  and 7 1 2 0 
7478027		 # 	collision with: 3 7 0 0  and 2 2 1 0 
7478049		 # 	collision with: 10 0 0 0  and 8 3 1 0 
7478051		 # 	collision with: 4 4 0 0  and 8 0 1 0 
7478081		 # 	collision with: 8 1 0 0  and 8 1 1 0 
7478083		 # 	collision with: 0 7 1 0  and 4 2 2 0 
7478105		 # 	collision with: 3 2 1 0  and 2 4 1 0 
7478107		 # 	collision with: 6 3 2 0  and 6 4 2 0 
7478217		 # 	collision with: 7 0 0 0  and 4 9 2 0 
7478219		 # 	collision with: 6 10 0 0  and 10 0 2 0 
7478245		 # 	collision with: 0 1 1 0  and 1 3 1 0 
7478247		 # 	collision with: 2 6 0 0  and 8 3 2 0 
7478257		 # 	collision with: 7 4 0 0  and 5 0 1 0 
7478259		 # 	collision with: 7 1 0 0  and 4 0 1 0 
7478284		 # 	collision with: 5 10 0 0  and 0 6 2 0 
7478286		 # 	collision with: 4 6 0 0  and 1 5 1 0 
7478305		 # 	collision with: 1 3 0 0  and 9 3 1 0 
7478307		 # 	collision with: 1 1 0 0  and 1 3 0 0 
7478309		 # 	collision with: 5 8 1 0  and 2 10 2 0 
7478311		 # 	collision with: 4 4 0 0  and 7 3 1 0 
7478357		 # 	collision with: 4 3 1 0  and 6 5 1 0 
7478359		 # 	collision with: 1 1 0 0  and 9 3 0 0 
7478369		 # 	collision with: 5 9 0 0  and 8 2 1 0 
7478371		 # 	collision with: 7 9 0 0  and 3 3 1 0 
7478397		 # 	collision with: 9 6 0 0  and 10 7 2 0 
7478399		 # 	collision with: 7 10 1 0  and 9 3 2 0 
7478509		 # 	collision with: 0 10 0 0  and 2 2 1 0 
7478511		 # 	collision with: 5 2 0 0  and 5 0 1 0 
7478533		 # 	collision with: 8 5 1 0  and 3 6 2 0 
7478535		 # 	collision with: 1 1 0 0  and 9 3 0 0 
7478565		 # 	collision with: 9 7 0 0  and 4 5 1 0 
7478567		 # 	collision with: 6 1 0 0  and 6 1 1 0 
7478589		 # 	collision with: 2 7 1 0  and 3 7 1 0 
7478591		 # 	collision with: 4 6 2 0  and 5 6 2 0 
7478701		 # 	collision with: 4 3 0 0  and 4 3 1 0 
7478703		 # 	collision with: 1 1 0 0  and 1 3 0 0 
7478729		 # 	collision with: 7 0 2 0  and 7 2 2 0 
7478731		 # 	collision with: 3 0 0 0  and 2 4 1 0 
7478741		 # 	collision with: 7 5 0 0  and 6 3 1 0 
7478743		 # 	collision with: 3 2 0 0  and 9 0 1 0 
7478768		 # 	collision with: 10 8 0 0  and 9 3 1 0 
7478770		 # 	collision with: 6 10 0 0  and 3 5 1 0 
7478789		 # 	collision with: 6 3 0 0  and 4 6 1 0 
7478791		 # 	collision with: 4 3 0 0  and 6 3 0 0 
7478793		 # 	collision with: 4 3 1 0  and 7 5 1 0 
7478795		 # 	collision with: 6 8 0 0  and 10 0 1 0 
7478841		 # 	collision with: 8 8 0 0  and 0 7 1 0 
7478843		 # 	collision with: 0 8 0 0  and 4 7 1 0 
7478853		 # 	collision with: 3 0 0 0  and 9 2 2 0 
7478855		 # 	collision with: 1 1 1 0  and 1 3 1 0 
7478881		 # 	collision with: 4 6 1 0  and 5 6 1 0 
7478883		 # 	collision with: 4 0 0 0  and 0 1 1 0 
7478993		 # 	collision with: 1 6 0 0  and 4 0 1 0 
7478995		 # 	collision with: 6 5 0 0  and 0 10 1 0 
7479017		 # 	collision with: 5 8 0 0  and 9 0 1 0 
7479019		 # 	collision with: 10 7 0 0  and 8 3 1 0 
7479049		 # 	collision with: 7 2 0 0  and 4 9 1 0 
7479051		 # 	collision with: 3 1 0 0  and 3 2 0 0 
7479073		 # 	collision with: 5 8 0 0  and 2 0 1 0 
7479185		 # 	collision with: 0 5 1 0  and 2 5 1 0 
7479187		 # 	collision with: 4 3 0 0  and 6 3 0 0 
7479213		 # 	collision with: 2 3 0 0  and 3 8 1 0 
7479225		 # 	collision with: 10 3 0 0  and 3 9 2 0 
7479227		 # 	collision with: 3 1 0 0  and 3 2 0 0 
7479252		 # 	collision with: 8 5 0 0  and 0 3 1 0 
7479254		 # 	collision with: 0 2 0 0  and 9 0 1 0 
7479273		 # 	collision with: 10 5 0 0  and 10 1 2 0 
7479275		 # 	collision with: 7 7 0 0  and 9 4 1 0 
7479277		 # 	collision with: 4 3 1 0  and 9 1 2 0 
7479279		 # 	collision with: 5 0 0 0  and 5 2 0 0 
7479325		 # 	collision with: 4 3 0 0  and 2 10 1 0 
7479337		 # 	collision with: 5 1 1 0  and 5 2 1 0 
7479339		 # 	collision with: 9 9 1 0  and 6 0 2 0 
7479365		 # 	collision with: 10 3 0 0  and 5 9 1 0 
7479367		 # 	collision with: 5 0 0 0  and 5 2 0 0 
7479477		 # 	collision with: 9 0 1 0  and 9 1 1 0 
7479479		 # 	collision with: 4 3 0 0  and 6 3 0 0 
7479501		 # 	collision with: 1 10 0 0  and 3 10 1 0 
7479503		 # 	collision with: 5 8 1 0  and 7 4 3 0 
7479533		 # 	collision with: 9 8 0 0  and 3 7 1 0 
7479557		 # 	collision with: 5 1 1 0  and 5 2 1 0 
7479559		 # 	collision with: 6 6 0 0  and 8 7 1 0 
7479669		 # 	collision with: 1 2 0 0  and 7 1 1 0 
7479671		 # 	collision with: 5 1 1 0  and 2 8 3 0 
7479697		 # 	collision with: 9 0 1 0  and 9 1 1 0 
7479699		 # 	collision with: 4 3 0 0  and 6 3 0 0 
7479709		 # 	collision with: 4 5 0 0  and 3 2 1 0 
7479711		 # 	collision with: 2 4 1 0  and 2 5 1 0 
7479736		 # 	collision with: 8 2 0 0  and 0 8 2 0 
7479738		 # 	collision with: 5 6 0 0  and 4 2 1 0 
7479757		 # 	collision with: 7 9 0 0  and 7 4 1 0 
7479759		 # 	collision with: 1 4 0 0  and 9 1 1 0 
7479761		 # 	collision with: 5 2 0 0  and 5 1 1 0 
7479809		 # 	collision with: 8 4 1 0  and 3 7 2 0 
7479811		 # 	collision with: 5 4 2 0  and 3 5 2 0 
7479821		 # 	collision with: 2 1 1 0  and 3 0 2 0 
7479823		 # 	collision with: 7 0 0 0  and 7 1 0 0 
7479849		 # 	collision with: 9 4 0 0  and 3 8 1 0 
7479851		 # 	collision with: 10 10 0 0  and 0 1 1 0 
7479961		 # 	collision with: 4 5 1 0  and 2 6 1 0 
7479963		 # 	collision with: 8 5 0 0  and 2 7 0 0 
7479985		 # 	collision with: 5 8 0 0  and 4 3 1 0 
7479987		 # 	collision with: 7 8 1 0  and 10 1 2 0 
7480017		 # 	collision with: 4 3 2 0  and 6 3 2 0 
7480019		 # 	collision with: 1 1 2 0  and 1 3 2 0 
7480041		 # 	collision with: 10 2 1 0  and 4 7 3 0 
7480043		 # 	collision with: 7 0 0 0  and 7 1 0 0 
7480153		 # 	collision with: 2 3 0 0  and 8 4 1 0 
7480181		 # 	collision with: 8 8 0 0  and 5 7 1 0 
7480183		 # 	collision with: 8 5 0 0  and 2 7 0 0 
7480193		 # 	collision with: 9 2 1 0  and 8 0 2 0 
7480195		 # 	collision with: 10 9 0 0  and 5 0 2 0 
7480274		 # 	collision with: 7 0 0 0  and 7 1 0 0 
7480282		 # 	collision with: 5 2 0 0  and 7 9 1 0 
7480326		 # 	collision with: 10 9 0 0  and 8 9 1 0 
7480335		 # 	collision with: 1 5 0 0  and 9 6 0 0 
7480342		 # 	collision with: 2 4 0 0  and 2 5 0 0 
7480358		 # 	collision with: 0 1 0 0  and 10 2 0 0 
7480363		 # 	collision with: 4 7 0 0  and 10 7 1 0 
7480375		 # 	collision with: 10 9 0 0  and 4 7 1 0 
7480378		 # 	collision with: 4 0 0 0  and 6 1 0 0 
7480399		 # 	collision with: 9 5 0 0  and 9 6 0 0 
7480407		 # 	collision with: 8 10 0 0  and 9 6 1 0 
7480418		 # 	collision with: 8 2 0 0  and 8 4 0 0 
7480430		 # 	collision with: 2 4 0 0  and 2 5 0 0 
7480478		 # 	collision with: 6 3 0 0  and 6 4 0 0 
7480482		 # 	collision with: 5 0 0 0  and 5 2 0 0 
7480490		 # 	collision with: 0 1 0 0  and 10 2 0 0 
7480494		 # 	collision with: 7 0 0 0  and 7 1 0 0 
7480531		 # 	collision with: 9 5 0 0  and 9 6 0 0 
7480542		 # 	collision with: 3 1 0 0  and 3 2 0 0 
7480554		 # 	collision with: 4 0 0 0  and 6 1 0 0 
7480567		 # 	collision with: 4 5 0 0  and 6 5 0 0 
7480594		 # 	collision with: 8 2 0 0  and 8 4 0 0 
7480599		 # 	collision with: 1 5 0 0  and 9 6 0 0 
7480611		 # 	collision with: 4 5 0 0  and 6 5 0 0 
7480614		 # 	collision with: 5 0 0 0  and 5 2 0 0 
7480630		 # 	collision with: 3 1 0 0  and 3 2 0 0 
7480639		 # 	collision with: 3 5 0 0  and 1 1 1 0 
7480646		 # 	collision with: 10 2 0 0  and 10 3 0 0 
7480690		 # 	collision with: 10 2 0 0  and 10 3 0 0 
7480698		 # 	collision with: 6 3 0 0  and 6 4 0 0 
7480704		 # 	collision with: 4 8 0 0  and 9 0 1 0 
7480706		 # 	collision with: 9 10 0 0  and 0 0 2 0 
7480756		 # 	collision with: 9 7 2 0  and 6 4 3 0 
7480758		 # 	collision with: 4 5 0 0  and 6 5 0 0 
7480764		 # 	collision with: 4 5 1 0  and 6 5 1 0 
7480766		 # 	collision with: 6 8 0 0  and 2 0 1 0 
7480808		 # 	collision with: 1 8 0 0  and 9 0 1 0 
7480810		 # 	collision with: 5 9 0 0  and 5 9 1 0 
7480817		 # 	collision with: 4 4 0 0  and 7 6 0 0 
7480824		 # 	collision with: 3 9 0 0  and 2 5 1 0 
7480826		 # 	collision with: 5 6 0 0  and 3 1 1 0 
7480840		 # 	collision with: 1 9 0 0  and 8 6 1 0 
7480842		 # 	collision with: 2 2 1 0  and 4 8 2 0 
7480845		 # 	collision with: 3 9 0 0  and 7 2 2 0 
7480847		 # 	collision with: 0 9 0 0  and 5 2 2 0 
7480857		 # 	collision with: 8 9 0 0  and 5 3 1 0 
7480860		 # 	collision with: 1 6 0 0  and 0 6 1 0 
7480862		 # 	collision with: 3 7 0 0  and 0 3 1 0 
7480881		 # 	collision with: 1 4 0 0  and 4 7 1 0 
7480883		 # 	collision with: 4 5 0 0  and 6 5 0 0 
7480889		 # 	collision with: 5 2 2 0  and 9 4 2 0 
7480891		 # 	collision with: 6 7 0 0  and 10 3 2 0 
7480900		 # 	collision with: 3 10 0 0  and 10 4 1 0 
7480902		 # 	collision with: 2 5 0 0  and 8 5 1 0 
7480912		 # 	collision with: 8 6 0 0  and 8 1 1 0 
7480914		 # 	collision with: 8 10 0 0  and 5 0 2 0 
7480960		 # 	collision with: 2 3 1 0  and 4 3 1 0 
7480962		 # 	collision with: 8 7 0 0  and 2 1 1 0 
7480964		 # 	collision with: 2 0 1 0  and 4 1 1 0 
7480966		 # 	collision with: 7 8 0 0  and 0 5 1 0 
7480972		 # 	collision with: 10 0 0 0  and 5 7 1 0 
7480974		 # 	collision with: 5 4 0 0  and 2 9 1 0 
7480976		 # 	collision with: 6 7 0 0  and 8 7 1 0 
7481013		 # 	collision with: 5 6 0 0  and 6 3 1 0 
7481015		 # 	collision with: 4 5 0 0  and 6 5 0 0 
7481024		 # 	collision with: 1 9 0 0  and 4 3 1 0 
7481026		 # 	collision with: 7 6 0 0  and 3 1 2 0 
7481036		 # 	collision with: 3 10 0 0  and 3 5 1 0 
7481038		 # 	collision with: 3 7 0 0  and 0 3 1 0 
7481049		 # 	collision with: 10 4 0 0  and 7 8 1 0 
7481051		 # 	collision with: 1 5 0 0  and 0 1 1 0 
7481076		 # 	collision with: 1 7 1 0  and 2 7 1 0 
7481078		 # 	collision with: 4 8 0 0  and 4 0 1 0 
7481081		 # 	collision with: 4 4 0 0  and 7 6 0 0 
7481083		 # 	collision with: 1 1 1 0  and 1 3 1 0 
7481093		 # 	collision with: 8 0 1 0  and 6 1 1 0 
7481095		 # 	collision with: 1 5 0 0  and 0 1 1 0 
7481096		 # 	collision with: 10 2 1 0  and 4 3 1 0 
7481098		 # 	collision with: 7 8 0 0  and 0 5 1 0 
7481112		 # 	collision with: 7 5 0 0  and 5 2 1 0 
7481114		 # 	collision with: 1 8 0 0  and 4 0 1 0 
7481121		 # 	collision with: 5 9 1 0  and 0 1 2 0 
7481123		 # 	collision with: 0 1 0 0  and 7 3 1 0 
7481128		 # 	collision with: 7 5 0 0  and 5 1 1 0 
7481130		 # 	collision with: 3 5 0 0  and 1 1 1 0 
7481172		 # 	collision with: 1 0 1 0  and 1 5 2 0 
7481174		 # 	collision with: 9 8 0 0  and 1 0 1 0 
7481180		 # 	collision with: 5 0 0 0  and 10 8 1 0 
7481188		 # 	collision with: 8 5 0 0  and 7 0 2 0 
7481190		 # 	collision with: 5 4 0 0  and 2 0 1 0 
7481240		 # 	collision with: 6 1 0 0  and 3 4 1 0 
7481242		 # 	collision with: 9 3 0 0  and 0 5 1 0 
7481248		 # 	collision with: 9 10 0 0  and 9 2 1 0 
7481292		 # 	collision with: 4 10 1 0  and 5 10 1 0 
7481294		 # 	collision with: 4 5 0 0  and 6 5 0 0 
7481301		 # 	collision with: 2 4 0 0  and 9 5 0 0 
7481303		 # 	collision with: 9 2 0 0  and 2 3 1 0 
7481308		 # 	collision with: 5 5 1 0  and 0 10 2 0 
7481310		 # 	collision with: 3 4 0 0  and 2 0 1 0 
7481324		 # 	collision with: 2 7 0 0  and 5 1 2 0 
7481326		 # 	collision with: 3 10 2 0  and 9 0 3 0 
7481329		 # 	collision with: 5 3 0 0  and 8 9 1 0 
7481341		 # 	collision with: 3 4 1 0  and 5 4 1 0 
7481343		 # 	collision with: 1 2 2 0  and 3 2 2 0 
7481344		 # 	collision with: 2 1 0 0  and 0 1 2 0 
7481346		 # 	collision with: 1 9 0 0  and 0 4 1 0 
7481365		 # 	collision with: 5 2 0 0  and 0 0 1 0 
7481367		 # 	collision with: 4 9 0 0  and 1 1 1 0 
7481373		 # 	collision with: 1 3 2 0  and 1 2 3 0 
7481375		 # 	collision with: 4 5 0 0  and 6 5 0 0 
7481384		 # 	collision with: 5 2 0 0  and 5 1 1 0 
7481386		 # 	collision with: 3 8 0 0  and 9 6 2 0 
7481396		 # 	collision with: 5 1 0 0  and 5 2 2 0 
7481398		 # 	collision with: 1 5 0 0  and 0 9 1 0 
7481444		 # 	collision with: 1 2 1 0  and 1 3 1 0 
7481446		 # 	collision with: 7 0 1 0  and 7 1 1 0 
7481448		 # 	collision with: 9 0 2 0  and 9 1 2 0 
7481450		 # 	collision with: 5 9 0 0  and 6 10 1 0 
7481456		 # 	collision with: 9 0 0 0  and 10 3 2 0 
7481458		 # 	collision with: 6 0 0 0  and 2 1 1 0 
7481460		 # 	collision with: 4 3 0 0  and 7 5 1 0 
7481462		 # 	collision with: 9 3 0 0  and 0 5 1 0 
7481497		 # 	collision with: 5 2 0 0  and 0 0 1 0 
7481499		 # 	collision with: 9 3 1 0  and 1 4 2 0 
7481508		 # 	collision with: 10 10 0 0  and 7 9 1 0 
7481510		 # 	collision with: 10 3 0 0  and 9 5 2 0 
7481520		 # 	collision with: 8 2 0 0  and 2 5 1 0 
7481522		 # 	collision with: 4 4 0 0  and 6 0 1 0 
7481533		 # 	collision with: 9 4 0 0  and 9 4 1 0 
7481560		 # 	collision with: 10 9 0 0  and 5 3 1 0 
7481562		 # 	collision with: 0 5 0 0  and 1 0 2 0 
7481565		 # 	collision with: 2 4 0 0  and 9 5 0 0 
7481567		 # 	collision with: 2 3 0 0  and 10 6 1 0 
7481577		 # 	collision with: 1 4 0 0  and 1 4 1 0 
7481579		 # 	collision with: 1 9 0 0  and 1 6 1 0 
7481580		 # 	collision with: 9 0 2 0  and 9 1 2 0 
7481582		 # 	collision with: 0 5 0 0  and 1 0 2 0 
7481596		 # 	collision with: 2 9 0 0  and 0 1 2 0 
7481598		 # 	collision with: 0 9 0 0  and 5 2 1 0 
7481605		 # 	collision with: 7 5 0 0  and 6 10 1 0 
7481607		 # 	collision with: 3 5 0 0  and 5 10 1 0 
7481612		 # 	collision with: 1 2 0 0  and 1 2 1 0 
7481656		 # 	collision with: 2 2 0 0  and 2 2 1 0 
7481658		 # 	collision with: 1 5 0 0  and 5 0 2 0 
7481664		 # 	collision with: 1 2 1 0  and 1 3 1 0 
7481666		 # 	collision with: 10 4 0 0  and 3 1 1 0 
7481672		 # 	collision with: 5 9 0 0  and 0 10 1 0 
7481674		 # 	collision with: 6 4 0 0  and 8 5 1 0 
7481724		 # 	collision with: 7 10 0 0  and 9 0 1 0 
7481726		 # 	collision with: 9 6 0 0  and 10 2 1 0 
7481732		 # 	collision with: 2 7 0 0  and 7 5 1 0 
7481734		 # 	collision with: 2 8 0 0  and 8 7 1 0 
7481776		 # 	collision with: 0 8 0 0  and 7 7 1 0 
7481778		 # 	collision with: 9 2 0 0  and 2 6 1 0 
7481785		 # 	collision with: 4 3 0 0  and 7 5 0 0 
7481787		 # 	collision with: 4 3 0 0  and 4 5 0 0 
7481792		 # 	collision with: 0 10 0 0  and 2 1 1 0 
7481794		 # 	collision with: 6 2 1 0  and 2 3 1 0 
7481808		 # 	collision with: 10 2 1 0  and 6 10 2 0 
7481810		 # 	collision with: 9 4 0 0  and 3 1 1 0 
7481813		 # 	collision with: 3 4 1 0  and 5 4 1 0 
7481815		 # 	collision with: 7 2 1 0  and 0 4 1 0 
7481825		 # 	collision with: 5 1 1 0  and 5 2 1 0 
7481827		 # 	collision with: 6 1 0 0  and 1 8 1 0 
7481828		 # 	collision with: 6 10 0 0  and 0 0 1 0 
7481830		 # 	collision with: 4 5 0 0  and 6 5 0 0 
7481849		 # 	collision with: 7 5 0 0  and 5 2 1 0 
7481851		 # 	collision with: 4 3 0 0  and 6 5 0 0 
7481857		 # 	collision with: 6 0 0 0  and 3 2 1 0 
7481859		 # 	collision with: 2 0 0 0  and 3 4 1 0 
7481868		 # 	collision with: 2 10 0 0  and 2 0 1 0 
7481870		 # 	collision with: 8 9 0 0  and 4 1 1 0 
7481880		 # 	collision with: 4 4 1 0  and 4 5 1 0 
7481882		 # 	collision with: 10 2 1 0  and 7 3 1 0 
7481928		 # 	collision with: 6 4 0 0  and 6 4 1 0 
7481930		 # 	collision with: 6 7 0 0  and 6 0 2 0 
7481932		 # 	collision with: 9 8 1 0  and 2 3 2 0 
7481934		 # 	collision with: 2 7 0 0  and 7 1 1 0 
7481940		 # 	collision with: 3 7 1 0  and 9 3 2 0 
7481942		 # 	collision with: 1 2 1 0  and 3 2 1 0 
7481944		 # 	collision with: 8 8 0 0  and 10 1 1 0 
7481946		 # 	collision with: 2 8 1 0  and 6 7 2 0 
7481981		 # 	collision with: 7 7 0 0  and 6 3 1 0 
7481983		 # 	collision with: 4 3 0 0  and 6 5 0 0 
7481992		 # 	collision with: 2 4 1 0  and 1 0 2 0 
7481994		 # 	collision with: 1 10 0 0  and 5 0 1 0 
17.4441secs	7857
