# prime 11
# degree 2
# input variables 3
# output variables 3
# reload computed balance functions from file balance-324of3248-p11d2m3-debug.log
# p = 11
# n = 3
# smalldomain p^m 1331
# domain p^n 1331
#	 p^2 = 121
#	 p^3 = 1331
#	 p^4 = 14641
#	 p^5 = 161051
#	 p^6 = 1771561
#	 p^7 = 19487171
#	 p^8 = 214358881
#	 p^9 = 2357947691
opening file : balance-324of3248-p11d2m3-debug.log
reloading for step2...
1944228		 # 	collision with: 3 8 0  and 2 0 1 
1944230		 # 	collision with: 0 2 0  and 7 4 0 
1944231		 # 	collision with: 6 4 0  and 4 6 0 
1944234		 # 	collision with: 10 1 0  and 8 2 0 
1944235		 # 	collision with: 4 1 0  and 10 2 0 
1944238		 # 	collision with: 5 6 0  and 0 3 1 
1944239		 # 	collision with: 6 4 0  and 4 6 0 
1944242		 # 	collision with: 0 1 0  and 7 3 0 
1944243		 # 	collision with: 6 4 0  and 4 6 0 
1944246		 # 	collision with: 10 0 0  and 8 1 0 
1944247		 # 	collision with: 6 4 0  and 4 6 0 
1944250		 # 	collision with: 10 5 0  and 8 6 0 
1944251		 # 	collision with: 9 2 0  and 4 4 0 
1944254		 # 	collision with: 10 2 0  and 8 3 0 
1944255		 # 	collision with: 3 1 0  and 2 3 0 
1944258		 # 	collision with: 0 3 0  and 7 5 0 
1944259		 # 	collision with: 6 4 0  and 4 6 0 
1944262		 # 	collision with: 0 4 0  and 7 6 0 
1944263		 # 	collision with: 4 0 0  and 7 2 0 
1944266		 # 	collision with: 0 0 0  and 7 2 0 
1944267		 # 	collision with: 10 0 0  and 7 1 0 
1944270		 # 	collision with: 10 3 0  and 8 4 0 
1944271		 # 	collision with: 6 4 0  and 4 6 0 
1944712		 # 	collision with: 1 9 0  and 9 0 1 
1944714		 # 	collision with: 10 1 0  and 7 2 0 
1944715		 # 	collision with: 0 1 0  and 8 3 0 
1944718		 # 	collision with: 6 2 0  and 0 4 0 
1944719		 # 	collision with: 4 10 0  and 8 0 1 
1944722		 # 	collision with: 10 5 0  and 7 6 0 
1944723		 # 	collision with: 2 0 0  and 9 1 0 
1944726		 # 	collision with: 6 4 0  and 0 6 0 
1944727		 # 	collision with: 0 4 0  and 7 6 0 
1944730		 # 	collision with: 10 3 0  and 7 4 0 
1944731		 # 	collision with: 8 3 0  and 3 2 1 
1944734		 # 	collision with: 9 1 0  and 7 0 1 
1944735		 # 	collision with: 0 1 0  and 5 2 0 
1944738		 # 	collision with: 6 3 0  and 0 5 0 
1944739		 # 	collision with: 4 3 0  and 5 4 0 
1944742		 # 	collision with: 10 2 0  and 7 3 0 
1944743		 # 	collision with: 1 3 0  and 3 0 1 
1944746		 # 	collision with: 6 1 0  and 0 3 0 
1944747		 # 	collision with: 10 5 0  and 7 6 0 
1944750		 # 	collision with: 10 4 0  and 7 5 0 
1944751		 # 	collision with: 5 2 0  and 8 3 0 
1944754		 # 	collision with: 10 0 0  and 7 1 0 
1944755		 # 	collision with: 4 2 0  and 8 4 0 
1945196		 # 	collision with: 8 5 0  and 1 1 1 
1945198		 # 	collision with: 2 0 0  and 9 1 0 
1945199		 # 	collision with: 10 7 0  and 0 1 1 
1945202		 # 	collision with: 0 0 0  and 1 1 1 
1945203		 # 	collision with: 7 1 0  and 7 0 1 
1945206		 # 	collision with: 4 4 0  and 7 6 0 
1945207		 # 	collision with: 2 1 0  and 6 2 0 
1945210		 # 	collision with: 2 2 0  and 9 3 0 
1945211		 # 	collision with: 4 0 0  and 10 1 0 
1945214		 # 	collision with: 2 3 0  and 9 4 0 
1945215		 # 	collision with: 6 4 0  and 0 6 0 
1945218		 # 	collision with: 4 3 0  and 7 5 0 
1945219		 # 	collision with: 6 3 0  and 0 0 1 
1945222		 # 	collision with: 4 0 0  and 7 2 0 
1945223		 # 	collision with: 6 3 0  and 4 5 0 
1945226		 # 	collision with: 2 4 0  and 9 5 0 
1945227		 # 	collision with: 3 0 0  and 2 2 0 
1945230		 # 	collision with: 2 1 0  and 9 2 0 
1945231		 # 	collision with: 9 2 0  and 0 4 0 
1945234		 # 	collision with: 4 1 0  and 7 3 0 
1945235		 # 	collision with: 10 9 0  and 1 0 1 
1945238		 # 	collision with: 4 2 0  and 7 4 0 
1945239		 # 	collision with: 9 1 0  and 4 3 0 
1945680		 # 	collision with: 3 1 0  and 4 0 1 
1945682		 # 	collision with: 4 5 0  and 10 6 0 
1945683		 # 	collision with: 0 0 0  and 5 1 0 
1945686		 # 	collision with: 4 1 0  and 10 2 0 
1945687		 # 	collision with: 4 1 0  and 8 3 0 
1945690		 # 	collision with: 4 0 0  and 10 1 0 
1945691		 # 	collision with: 10 4 0  and 7 5 0 
1945694		 # 	collision with: 6 1 0  and 6 0 1 
1945695		 # 	collision with: 5 7 0  and 7 3 1 
1945698		 # 	collision with: 4 4 0  and 10 5 0 
1945699		 # 	collision with: 4 2 0  and 5 3 0 
1945702		 # 	collision with: 4 3 0  and 10 4 0 
1945703		 # 	collision with: 0 0 0  and 8 2 0 
1945706		 # 	collision with: 1 4 0  and 2 6 0 
1945707		 # 	collision with: 0 3 0  and 10 4 0 
1945710		 # 	collision with: 1 2 0  and 2 4 0 
1945711		 # 	collision with: 9 0 0  and 3 3 1 
1945714		 # 	collision with: 1 3 0  and 2 5 0 
1945715		 # 	collision with: 4 1 0  and 5 0 1 
1945718		 # 	collision with: 4 6 0  and 10 7 0 
1945719		 # 	collision with: 10 9 0  and 6 1 1 
1945722		 # 	collision with: 1 1 0  and 2 3 0 
1945723		 # 	collision with: 4 5 0  and 10 6 0 
1946164		 # 	collision with: 1 10 0  and 10 0 1 
1946166		 # 	collision with: 0 5 0  and 5 6 0 
1946167		 # 	collision with: 1 4 0  and 2 6 0 
1946170		 # 	collision with: 3 3 0  and 2 5 0 
1946171		 # 	collision with: 0 5 0  and 5 6 0 
1946174		 # 	collision with: 3 1 0  and 2 3 0 
1946175		 # 	collision with: 7 5 0  and 2 0 1 
1946178		 # 	collision with: 0 2 0  and 5 3 0 
1946179		 # 	collision with: 6 3 0  and 0 5 0 
1946182		 # 	collision with: 0 0 0  and 5 1 0 
1946183		 # 	collision with: 7 3 0  and 7 1 1 
1946186		 # 	collision with: 0 4 0  and 5 5 0 
1946187		 # 	collision with: 1 7 0  and 10 0 1 
1946190		 # 	collision with: 0 1 0  and 5 2 0 
1946191		 # 	collision with: 9 0 0  and 4 2 0 
1946194		 # 	collision with: 0 3 0  and 5 4 0 
1946195		 # 	collision with: 9 1 0  and 0 3 0 
1946198		 # 	collision with: 4 3 0  and 3 1 1 
1946199		 # 	collision with: 3 2 1  and 6 3 1 
1946202		 # 	collision with: 3 0 0  and 2 2 0 
1946203		 # 	collision with: 2 4 0  and 9 5 0 
1946206		 # 	collision with: 3 2 0  and 2 4 0 
1946207		 # 	collision with: 2 0 0  and 6 1 0 
1946648		 # 	collision with: 1 7 0  and 7 0 1 
1946650		 # 	collision with: 2 0 0  and 6 1 0 
1946651		 # 	collision with: 10 3 0  and 7 4 0 
1946654		 # 	collision with: 2 2 0  and 6 3 0 
1946655		 # 	collision with: 10 4 0  and 7 1 1 
1946658		 # 	collision with: 0 4 0  and 8 6 0 
1946659		 # 	collision with: 1 6 0  and 8 0 1 
1946662		 # 	collision with: 2 3 0  and 6 4 0 
1946663		 # 	collision with: 5 6 0  and 1 0 1 
1946666		 # 	collision with: 2 1 0  and 6 2 0 
1946667		 # 	collision with: 4 0 0  and 8 2 0 
1946670		 # 	collision with: 0 1 0  and 8 3 0 
1946671		 # 	collision with: 4 1 0  and 5 2 0 
1946674		 # 	collision with: 2 5 0  and 6 6 0 
1946675		 # 	collision with: 0 2 0  and 10 3 0 
1946678		 # 	collision with: 0 3 0  and 8 5 0 
1946679		 # 	collision with: 5 0 0  and 8 1 0 
1946682		 # 	collision with: 0 0 0  and 8 2 0 
1946683		 # 	collision with: 0 2 0  and 7 4 0 
1946686		 # 	collision with: 0 2 0  and 8 4 0 
1946687		 # 	collision with: 2 5 0  and 6 6 0 
1946690		 # 	collision with: 10 9 0  and 2 0 1 
1946691		 # 	collision with: 2 9 0  and 9 0 1 
1947132		 # 	collision with: 10 2 0  and 9 0 1 
1947134		 # 	collision with: 5 1 0  and 8 2 0 
1947135		 # 	collision with: 5 5 0  and 8 6 0 
1947138		 # 	collision with: 5 1 0  and 8 2 0 
1947139		 # 	collision with: 6 2 0  and 0 4 0 
1947142		 # 	collision with: 5 1 0  and 8 2 0 
1947143		 # 	collision with: 3 3 0  and 9 1 1 
1947146		 # 	collision with: 5 1 0  and 8 2 0 
1947147		 # 	collision with: 5 0 0  and 7 1 0 
1947150		 # 	collision with: 5 1 0  and 8 2 0 
1947151		 # 	collision with: 1 3 0  and 2 5 0 
1947154		 # 	collision with: 5 1 0  and 8 2 0 
1947155		 # 	collision with: 4 8 0  and 6 0 1 
1947158		 # 	collision with: 5 0 0  and 8 1 0 
1947159		 # 	collision with: 6 1 0  and 4 3 0 
1947162		 # 	collision with: 5 1 0  and 8 2 0 
1947163		 # 	collision with: 10 2 0  and 8 3 0 
1947166		 # 	collision with: 5 1 0  and 8 2 0 
1947167		 # 	collision with: 0 4 0  and 5 5 0 
1947170		 # 	collision with: 5 1 0  and 8 2 0 
1947171		 # 	collision with: 1 4 0  and 0 0 1 
1947174		 # 	collision with: 5 1 0  and 8 2 0 
1947175		 # 	collision with: 2 10 0  and 1 0 1 
1947616		 # 	collision with: 8 3 0  and 0 0 1 
1947618		 # 	collision with: 4 2 0  and 8 4 0 
1947619		 # 	collision with: 3 8 0  and 2 0 1 
1947622		 # 	collision with: 4 0 0  and 8 2 0 
1947623		 # 	collision with: 4 2 0  and 7 4 0 
1947626		 # 	collision with: 5 5 0  and 7 6 0 
1947627		 # 	collision with: 4 0 0  and 5 1 0 
1947630		 # 	collision with: 5 0 0  and 7 1 0 
1947631		 # 	collision with: 8 3 0  and 4 1 1 
1947634		 # 	collision with: 5 4 0  and 7 5 0 
1947635		 # 	collision with: 3 3 0  and 1 0 1 
1947638		 # 	collision with: 4 4 0  and 8 6 0 
1947639		 # 	collision with: 1 5 0  and 0 0 1 
1947642		 # 	collision with: 4 3 0  and 8 5 0 
1947643		 # 	collision with: 0 1 0  and 10 2 0 
1947646		 # 	collision with: 4 1 0  and 8 3 0 
1947647		 # 	collision with: 2 8 0  and 1 0 1 
1947650		 # 	collision with: 5 1 0  and 7 2 0 
1947651		 # 	collision with: 1 4 0  and 4 0 1 
1947654		 # 	collision with: 1 7 0  and 4 0 1 
1947655		 # 	collision with: 4 3 0  and 10 4 0 
1947658		 # 	collision with: 5 3 0  and 7 4 0 
1947659		 # 	collision with: 10 2 0  and 7 3 0 
1948100		 # 	collision with: 7 6 0  and 5 0 1 
1948102		 # 	collision with: 9 4 0  and 0 6 0 
1948103		 # 	collision with: 4 5 0  and 5 6 0 
1948106		 # 	collision with: 9 1 0  and 0 3 0 
1948107		 # 	collision with: 5 4 0  and 8 5 0 
1948110		 # 	collision with: 4 5 0  and 5 6 0 
1948111		 # 	collision with: 1 2 0  and 2 4 0 
1948114		 # 	collision with: 4 2 0  and 5 3 0 
1948115		 # 	collision with: 1 5 0  and 2 1 1 
1948118		 # 	collision with: 9 2 0  and 0 4 0 
1948119		 # 	collision with: 5 1 0  and 0 0 1 
1948122		 # 	collision with: 9 3 0  and 0 5 0 
1948123		 # 	collision with: 2 2 0  and 9 3 0 
1948126		 # 	collision with: 4 1 0  and 5 2 0 
1948127		 # 	collision with: 6 0 0  and 4 2 0 
1948130		 # 	collision with: 1 2 0  and 3 4 1 
1948131		 # 	collision with: 0 3 0  and 8 5 0 
1948134		 # 	collision with: 4 0 0  and 5 1 0 
1948135		 # 	collision with: 7 3 0  and 0 1 1 
1948138		 # 	collision with: 4 3 0  and 5 4 0 
1948139		 # 	collision with: 6 1 0  and 1 0 1 
1948142		 # 	collision with: 4 4 0  and 5 5 0 
1948143		 # 	collision with: 8 10 0  and 6 1 1 
1948586		 # 	collision with: 2 8 0  and 7 1 1 
1948587		 # 	collision with: 9 1 0  and 6 2 0 
1948589		 # 	collision with: 4 1 0  and 6 1 0 
1948590		 # 	collision with: 8 2 0  and 2 0 1 
1948591		 # 	collision with: 8 0 0  and 4 2 0 
1948594		 # 	collision with: 5 6 0  and 6 2 1 
1948595		 # 	collision with: 2 4 0  and 4 6 0 
1948598		 # 	collision with: 1 6 0  and 6 0 1 
1948599		 # 	collision with: 8 3 0  and 1 4 0 
1948602		 # 	collision with: 7 7 0  and 1 0 1 
1948603		 # 	collision with: 4 6 0  and 7 1 1 
1948606		 # 	collision with: 7 8 0  and 1 0 1 
1948607		 # 	collision with: 9 2 0  and 4 3 0 
1948610		 # 	collision with: 6 6 0  and 0 0 1 
1948611		 # 	collision with: 4 1 0  and 7 3 0 
1948614		 # 	collision with: 3 2 1  and 0 4 1 
1948615		 # 	collision with: 5 10 0  and 0 0 1 
1948618		 # 	collision with: 0 6 0  and 8 1 1 
1948619		 # 	collision with: 2 0 0  and 1 1 0 
1948622		 # 	collision with: 8 7 0  and 2 0 1 
1948623		 # 	collision with: 2 6 0  and 0 1 1 
1948625		 # 	collision with: 3 5 0  and 3 6 0 
1948626		 # 	collision with: 9 5 0  and 3 0 1 
1948627		 # 	collision with: 5 3 0  and 0 5 0 
1949068		 # 	collision with: 1 6 0  and 6 0 1 
1949070		 # 	collision with: 2 1 0  and 1 2 0 
1949071		 # 	collision with: 6 1 0  and 7 3 0 
1949073		 # 	collision with: 4 0 0  and 6 0 0 
1949074		 # 	collision with: 2 1 0  and 1 2 0 
1949075		 # 	collision with: 1 3 0  and 4 4 0 
1949078		 # 	collision with: 2 1 0  and 1 2 0 
1949079		 # 	collision with: 0 0 0  and 1 1 1 
1949082		 # 	collision with: 2 1 0  and 1 2 0 
1949083		 # 	collision with: 8 6 0  and 0 0 1 
1949086		 # 	collision with: 2 1 0  and 1 2 0 
1949087		 # 	collision with: 7 0 0  and 5 1 0 
1949090		 # 	collision with: 2 1 0  and 1 2 0 
1949091		 # 	collision with: 2 1 0  and 9 2 0 
1949094		 # 	collision with: 2 0 0  and 1 1 0 
1949095		 # 	collision with: 1 2 0  and 6 3 0 
1949098		 # 	collision with: 2 1 0  and 1 2 0 
1949099		 # 	collision with: 2 3 0  and 8 0 1 
1949102		 # 	collision with: 2 1 0  and 1 2 0 
1949103		 # 	collision with: 2 5 0  and 1 6 0 
1949106		 # 	collision with: 2 1 0  and 1 2 0 
1949107		 # 	collision with: 8 4 0  and 9 5 0 
1949109		 # 	collision with: 4 0 0  and 6 0 0 
1949110		 # 	collision with: 2 1 0  and 1 2 0 
1949111		 # 	collision with: 2 3 0  and 6 5 0 
1949552		 # 	collision with: 8 3 0  and 4 0 1 
1949554		 # 	collision with: 8 1 0  and 4 3 0 
1949555		 # 	collision with: 3 3 0  and 5 4 0 
1949557		 # 	collision with: 3 4 0  and 3 5 0 
1949558		 # 	collision with: 7 1 0  and 5 2 0 
1949559		 # 	collision with: 3 3 0  and 5 4 0 
1949562		 # 	collision with: 7 5 0  and 5 6 0 
1949563		 # 	collision with: 9 0 0  and 6 1 0 
1949566		 # 	collision with: 0 4 0  and 2 0 1 
1949567		 # 	collision with: 9 1 0  and 4 2 0 
1949570		 # 	collision with: 7 0 0  and 5 1 0 
1949571		 # 	collision with: 5 2 0  and 0 4 0 
1949574		 # 	collision with: 7 4 0  and 5 5 0 
1949575		 # 	collision with: 3 3 0  and 5 4 0 
1949578		 # 	collision with: 8 3 0  and 4 5 0 
1949579		 # 	collision with: 3 3 0  and 5 4 0 
1949582		 # 	collision with: 8 0 0  and 4 2 0 
1949583		 # 	collision with: 3 3 0  and 5 4 0 
1949586		 # 	collision with: 7 2 0  and 5 3 0 
1949587		 # 	collision with: 3 3 0  and 5 4 0 
1949590		 # 	collision with: 7 3 0  and 5 4 0 
1949591		 # 	collision with: 8 2 0  and 1 3 0 
1949593		 # 	collision with: 4 1 0  and 6 1 0 
1949594		 # 	collision with: 8 4 0  and 4 6 0 
1949595		 # 	collision with: 3 3 0  and 5 4 0 
3.48819secs	2049
