# prime 11
# degree 2
# input variables 3
# output variables 3
# reload computed balance functions from file balance-2292of3248-p11d2m3-debug.log
# p = 11
# n = 3
# smalldomain p^m 1331
# domain p^n 1331
#	 p^2 = 121
#	 p^3 = 1331
#	 p^4 = 14641
#	 p^5 = 161051
#	 p^6 = 1771561
#	 p^7 = 19487171
#	 p^8 = 214358881
#	 p^9 = 2357947691
opening file : balance-2292of3248-p11d2m3-debug.log
reloading for step2...
13752113		 # 	collision with: 4 3 0  and 3 4 0 
13752115		 # 	collision with: 3 8 0  and 2 0 1 
13752129		 # 	collision with: 4 3 0  and 3 4 0 
13752131		 # 	collision with: 7 7 0  and 5 0 1 
13752157		 # 	collision with: 4 3 0  and 3 4 0 
13752159		 # 	collision with: 9 10 0  and 8 3 1 
13752185		 # 	collision with: 0 1 0  and 5 2 0 
13752187		 # 	collision with: 6 5 0  and 8 0 1 
13752323		 # 	collision with: 5 7 0  and 2 0 1 
13752345		 # 	collision with: 4 3 0  and 3 4 0 
13752347		 # 	collision with: 2 5 0  and 10 1 1 
13752353		 # 	collision with: 4 3 0  and 3 4 0 
13752355		 # 	collision with: 5 8 0  and 3 1 1 
13752376		 # 	collision with: 9 5 0  and 8 1 1 
13752378		 # 	collision with: 8 2 0  and 7 0 1 
13752393		 # 	collision with: 10 10 0  and 1 0 1 
13752395		 # 	collision with: 0 0 0  and 4 1 0 
13752405		 # 	collision with: 8 2 0  and 5 0 1 
13752407		 # 	collision with: 2 1 0  and 1 2 0 
13752445		 # 	collision with: 4 9 0  and 1 1 1 
13752447		 # 	collision with: 2 1 0  and 1 2 0 
13752453		 # 	collision with: 4 10 0  and 7 0 1 
13752455		 # 	collision with: 2 1 0  and 1 2 0 
13752477		 # 	collision with: 10 9 0  and 2 0 1 
13752597		 # 	collision with: 3 0 0  and 5 1 1 
13752599		 # 	collision with: 2 1 0  and 1 2 0 
13752613		 # 	collision with: 9 1 0  and 4 1 1 
13752615		 # 	collision with: 2 1 0  and 1 2 0 
13752641		 # 	collision with: 3 2 0  and 6 0 1 
13752669		 # 	collision with: 4 4 0  and 1 2 1 
13752671		 # 	collision with: 2 1 0  and 1 2 0 
13752805		 # 	collision with: 2 0 0  and 5 1 1 
13752807		 # 	collision with: 2 1 0  and 1 2 0 
13752829		 # 	collision with: 8 6 0  and 4 0 1 
13752831		 # 	collision with: 2 1 0  and 1 2 0 
13752837		 # 	collision with: 6 7 0  and 4 1 1 
13752839		 # 	collision with: 2 1 0  and 1 2 0 
13752860		 # 	collision with: 4 3 0  and 10 5 0 
13752862		 # 	collision with: 3 2 0  and 5 4 0 
13752877		 # 	collision with: 10 0 0  and 8 1 0 
13752879		 # 	collision with: 2 3 0  and 10 2 1 
13752889		 # 	collision with: 3 4 0  and 8 5 0 
13752891		 # 	collision with: 2 1 0  and 7 2 0 
13752929		 # 	collision with: 1 3 0  and 1 5 0 
13752931		 # 	collision with: 3 2 0  and 5 2 0 
13752937		 # 	collision with: 8 2 0  and 3 3 0 
13752939		 # 	collision with: 7 4 0  and 5 0 1 
13752961		 # 	collision with: 5 0 0  and 9 1 0 
13752963		 # 	collision with: 7 3 0  and 10 5 0 
13753081		 # 	collision with: 8 2 0  and 1 3 0 
13753083		 # 	collision with: 2 0 0  and 9 1 0 
13753097		 # 	collision with: 3 0 0  and 1 1 0 
13753099		 # 	collision with: 6 4 0  and 8 5 0 
13753125		 # 	collision with: 4 1 0  and 1 1 1 
13753127		 # 	collision with: 8 1 0  and 1 0 1 
13753153		 # 	collision with: 2 1 0  and 10 2 0 
13753155		 # 	collision with: 5 1 0  and 0 2 0 
13753289		 # 	collision with: 4 1 0  and 10 3 0 
13753291		 # 	collision with: 0 1 0  and 1 1 0 
13753313		 # 	collision with: 2 1 0  and 9 2 0 
13753315		 # 	collision with: 4 3 0  and 9 4 0 
13753321		 # 	collision with: 4 0 0  and 10 1 0 
13753323		 # 	collision with: 0 2 0  and 6 2 1 
13753344		 # 	collision with: 6 5 0  and 2 0 1 
13753346		 # 	collision with: 0 8 0  and 3 2 1 
13753361		 # 	collision with: 3 5 0  and 0 1 1 
13753363		 # 	collision with: 10 10 0  and 2 0 1 
13753373		 # 	collision with: 10 4 0  and 0 5 0 
13753375		 # 	collision with: 3 1 0  and 4 3 0 
13753413		 # 	collision with: 2 1 0  and 9 2 0 
13753415		 # 	collision with: 4 0 0  and 6 2 0 
13753421		 # 	collision with: 0 9 0  and 2 9 0 
13753423		 # 	collision with: 0 1 0  and 10 3 0 
13753445		 # 	collision with: 7 2 0  and 9 3 0 
13753447		 # 	collision with: 9 0 0  and 4 2 0 
13753567		 # 	collision with: 1 8 0  and 2 0 1 
13753581		 # 	collision with: 9 2 1  and 7 3 1 
13753583		 # 	collision with: 10 1 0  and 2 3 0 
13753609		 # 	collision with: 7 1 0  and 2 0 1 
13753611		 # 	collision with: 6 0 0  and 10 2 0 
13753639		 # 	collision with: 6 5 0  and 3 6 0 
13753773		 # 	collision with: 3 4 0  and 8 5 0 
13753775		 # 	collision with: 1 3 0  and 10 4 0 
13753797		 # 	collision with: 8 0 0  and 1 2 0 
13753799		 # 	collision with: 6 1 0  and 6 2 0 
13753805		 # 	collision with: 3 3 0  and 2 0 1 
13753807		 # 	collision with: 3 2 0  and 5 4 0 
13753828		 # 	collision with: 2 0 0  and 0 1 0 
13753830		 # 	collision with: 2 1 0  and 1 2 0 
13753845		 # 	collision with: 6 2 0  and 7 4 0 
13753847		 # 	collision with: 1 3 0  and 1 4 0 
13753857		 # 	collision with: 5 6 0  and 0 0 1 
13753897		 # 	collision with: 4 0 0  and 10 1 0 
13753899		 # 	collision with: 7 9 0  and 10 0 1 
13753907		 # 	collision with: 7 5 0  and 7 6 0 
13753929		 # 	collision with: 1 4 0  and 8 0 1 
13753931		 # 	collision with: 2 10 0  and 3 1 1 
13754049		 # 	collision with: 2 5 0  and 9 7 0 
13754051		 # 	collision with: 3 5 0  and 4 5 0 
13754065		 # 	collision with: 7 1 0  and 7 0 1 
13754067		 # 	collision with: 6 10 0  and 2 0 1 
13754093		 # 	collision with: 8 2 0  and 6 0 1 
13754095		 # 	collision with: 8 3 0  and 5 4 0 
13754121		 # 	collision with: 7 0 0  and 5 1 0 
13754123		 # 	collision with: 2 0 0  and 9 1 0 
13754257		 # 	collision with: 8 7 0  and 5 1 1 
13754259		 # 	collision with: 2 1 0  and 7 2 0 
13754281		 # 	collision with: 10 7 0  and 8 1 1 
13754283		 # 	collision with: 0 4 0  and 3 6 0 
13754312		 # 	collision with: 4 9 0  and 7 1 1 
13754314		 # 	collision with: 8 3 0  and 10 1 1 
13754331		 # 	collision with: 5 1 0  and 0 2 0 
13754341		 # 	collision with: 5 4 0  and 6 4 0 
13754343		 # 	collision with: 5 2 0  and 5 4 0 
13754381		 # 	collision with: 8 2 0  and 1 3 0 
13754383		 # 	collision with: 4 6 0  and 10 7 0 
13754389		 # 	collision with: 1 3 0  and 6 5 0 
13754413		 # 	collision with: 5 3 0  and 5 4 0 
13754415		 # 	collision with: 10 3 0  and 8 4 0 
13754533		 # 	collision with: 2 2 0  and 7 4 0 
13754535		 # 	collision with: 9 2 0  and 9 3 0 
13754549		 # 	collision with: 10 4 0  and 9 1 1 
13754551		 # 	collision with: 6 5 0  and 0 6 0 
13754577		 # 	collision with: 2 0 0  and 3 2 0 
13754579		 # 	collision with: 10 1 0  and 2 3 0 
13754605		 # 	collision with: 6 9 0  and 3 1 1 
13754741		 # 	collision with: 3 3 0  and 6 5 0 
13754743		 # 	collision with: 9 2 0  and 4 4 0 
13754765		 # 	collision with: 2 4 0  and 6 1 1 
13754767		 # 	collision with: 9 1 0  and 4 3 0 
13754773		 # 	collision with: 0 1 0  and 1 1 0 
13754775		 # 	collision with: 4 6 0  and 4 0 1 
13754796		 # 	collision with: 7 3 0  and 9 5 0 
13754798		 # 	collision with: 3 2 0  and 1 0 1 
13754813		 # 	collision with: 1 1 0  and 5 2 0 
13754815		 # 	collision with: 5 3 0  and 8 4 0 
13754827		 # 	collision with: 1 3 0  and 3 0 1 
13754865		 # 	collision with: 6 3 0  and 6 1 1 
13754867		 # 	collision with: 6 5 0  and 0 6 0 
13754873		 # 	collision with: 3 9 0  and 10 0 1 
13754875		 # 	collision with: 5 4 0  and 8 5 0 
13754897		 # 	collision with: 0 0 0  and 3 1 0 
13754899		 # 	collision with: 7 2 0  and 2 3 0 
13755017		 # 	collision with: 1 4 0  and 3 6 0 
13755019		 # 	collision with: 2 2 0  and 2 0 1 
13755033		 # 	collision with: 1 6 0  and 2 6 0 
13755061		 # 	collision with: 4 0 0  and 10 2 0 
13755063		 # 	collision with: 4 0 0  and 6 2 0 
13755089		 # 	collision with: 4 1 0  and 4 0 1 
13755091		 # 	collision with: 0 0 0  and 1 1 1 
13755225		 # 	collision with: 2 6 0  and 0 0 1 
13755227		 # 	collision with: 7 1 0  and 0 2 0 
13755249		 # 	collision with: 1 9 0  and 9 0 1 
13755257		 # 	collision with: 1 2 0  and 9 3 0 
13755259		 # 	collision with: 10 0 0  and 9 2 0 
13755280		 # 	collision with: 4 3 0  and 3 4 0 
13755282		 # 	collision with: 3 1 0  and 4 3 0 
13755297		 # 	collision with: 1 4 0  and 0 6 0 
13755309		 # 	collision with: 6 1 0  and 6 3 0 
13755311		 # 	collision with: 4 7 0  and 6 7 0 
13755357		 # 	collision with: 4 10 0  and 9 0 1 
13755359		 # 	collision with: 7 1 1  and 0 2 1 
13755381		 # 	collision with: 3 3 0  and 6 5 0 
13755383		 # 	collision with: 6 1 0  and 6 2 0 
13755501		 # 	collision with: 2 2 0  and 2 3 0 
13755503		 # 	collision with: 2 3 0  and 0 4 0 
13755517		 # 	collision with: 0 2 0  and 3 3 0 
13755519		 # 	collision with: 2 8 0  and 3 2 1 
13755545		 # 	collision with: 1 3 0  and 3 3 0 
13755547		 # 	collision with: 9 2 0  and 9 3 0 
13755573		 # 	collision with: 1 8 0  and 3 0 1 
13755575		 # 	collision with: 7 1 0  and 0 2 0 
13755709		 # 	collision with: 10 0 0  and 8 1 0 
13755711		 # 	collision with: 4 9 0  and 9 0 1 
13755735		 # 	collision with: 10 3 0  and 3 4 0 
13755741		 # 	collision with: 6 4 0  and 1 0 1 
13755743		 # 	collision with: 4 10 0  and 5 10 0 
13755764		 # 	collision with: 0 1 0  and 5 2 0 
13755766		 # 	collision with: 2 5 0  and 10 1 1 
13755781		 # 	collision with: 10 1 0  and 10 2 0 
13755783		 # 	collision with: 4 1 0  and 4 0 1 
13755793		 # 	collision with: 6 0 0  and 4 1 0 
13755795		 # 	collision with: 10 2 0  and 6 3 0 
13755833		 # 	collision with: 0 0 0  and 4 1 1 
13755835		 # 	collision with: 9 2 0  and 4 4 0 
13755841		 # 	collision with: 1 1 0  and 5 2 0 
13755843		 # 	collision with: 0 0 0  and 4 1 0 
13755865		 # 	collision with: 0 3 0  and 8 4 0 
13755867		 # 	collision with: 8 10 0  and 10 0 1 
13755985		 # 	collision with: 1 4 0  and 7 5 0 
13755987		 # 	collision with: 7 3 0  and 8 5 0 
13756003		 # 	collision with: 3 1 0  and 4 3 0 
13756031		 # 	collision with: 1 5 0  and 5 0 1 
13756057		 # 	collision with: 1 3 0  and 3 3 0 
13756059		 # 	collision with: 5 2 0  and 5 4 0 
13756193		 # 	collision with: 0 2 0  and 8 1 1 
13756195		 # 	collision with: 4 9 0  and 10 1 1 
13756217		 # 	collision with: 2 9 0  and 6 0 1 
13756219		 # 	collision with: 5 2 0  and 9 1 1 
13756225		 # 	collision with: 3 0 0  and 1 1 0 
13756227		 # 	collision with: 1 2 0  and 2 0 1 
13756248		 # 	collision with: 7 7 0  and 5 1 1 
13756250		 # 	collision with: 10 1 0  and 1 2 0 
13756265		 # 	collision with: 10 2 0  and 2 4 0 
13756267		 # 	collision with: 1 10 0  and 10 0 1 
13756277		 # 	collision with: 10 4 0  and 7 5 0 
13756279		 # 	collision with: 10 3 0  and 8 4 0 
13756317		 # 	collision with: 7 10 0  and 3 1 1 
13756319		 # 	collision with: 1 1 0  and 1 0 1 
13756325		 # 	collision with: 4 5 0  and 2 0 1 
13756327		 # 	collision with: 3 2 0  and 5 2 0 
13756349		 # 	collision with: 8 2 0  and 3 3 0 
13756351		 # 	collision with: 1 3 0  and 3 3 0 
13756469		 # 	collision with: 8 2 0  and 7 0 1 
13756471		 # 	collision with: 6 3 0  and 3 5 0 
13756485		 # 	collision with: 8 0 0  and 7 2 0 
13756487		 # 	collision with: 6 4 0  and 8 2 1 
13756513		 # 	collision with: 9 1 0  and 8 3 0 
13756515		 # 	collision with: 7 9 0  and 6 0 1 
13756541		 # 	collision with: 0 2 0  and 3 3 0 
13756543		 # 	collision with: 10 0 0  and 9 2 0 
13756677		 # 	collision with: 1 2 0  and 9 3 0 
13756679		 # 	collision with: 3 5 0  and 0 0 1 
13756701		 # 	collision with: 5 3 0  and 5 4 0 
13756703		 # 	collision with: 8 5 0  and 1 1 1 
13756709		 # 	collision with: 2 0 0  and 5 2 0 
13756711		 # 	collision with: 3 3 0  and 1 4 0 
13756732		 # 	collision with: 2 9 0  and 9 0 1 
13756734		 # 	collision with: 10 4 0  and 4 0 1 
13756749		 # 	collision with: 2 2 0  and 7 4 0 
13756751		 # 	collision with: 0 5 0  and 7 6 0 
13756761		 # 	collision with: 1 0 1  and 6 2 1 
13756763		 # 	collision with: 7 3 0  and 4 0 1 
13756801		 # 	collision with: 0 9 0  and 2 9 0 
13756803		 # 	collision with: 10 0 0  and 10 2 0 
13756809		 # 	collision with: 2 0 0  and 5 2 0 
13756811		 # 	collision with: 1 4 0  and 4 0 1 
13756833		 # 	collision with: 1 2 0  and 2 0 1 
13756835		 # 	collision with: 0 0 0  and 8 1 0 
13756953		 # 	collision with: 6 9 0  and 5 0 1 
13756969		 # 	collision with: 10 3 0  and 6 4 0 
13756971		 # 	collision with: 1 3 0  and 1 4 0 
13756997		 # 	collision with: 0 4 0  and 7 0 1 
13756999		 # 	collision with: 0 7 0  and 2 0 1 
13757025		 # 	collision with: 5 10 0  and 8 0 1 
13757027		 # 	collision with: 2 6 0  and 5 0 1 
13757161		 # 	collision with: 4 10 0  and 5 10 0 
13757185		 # 	collision with: 1 3 0  and 6 5 0 
13757187		 # 	collision with: 6 4 0  and 8 5 0 
13757193		 # 	collision with: 3 5 0  and 5 6 0 
13757195		 # 	collision with: 3 2 0  and 6 4 0 
13757229		 # 	collision with: 3 2 0  and 2 3 0 
13757231		 # 	collision with: 4 4 0  and 10 5 0 
13757249		 # 	collision with: 3 2 0  and 2 3 0 
13757251		 # 	collision with: 7 5 0  and 7 6 0 
13757281		 # 	collision with: 3 2 0  and 2 3 0 
13757283		 # 	collision with: 5 0 0  and 7 2 0 
13757297		 # 	collision with: 8 1 0  and 1 2 0 
13757319		 # 	collision with: 0 0 0  and 10 2 0 
13757461		 # 	collision with: 4 1 0  and 0 2 0 
13757463		 # 	collision with: 3 10 0  and 0 0 1 
13757473		 # 	collision with: 3 2 0  and 2 3 0 
13757475		 # 	collision with: 7 3 0  and 1 4 0 
13757489		 # 	collision with: 3 2 0  and 2 3 0 
13757491		 # 	collision with: 10 1 0  and 10 0 1 
13757501		 # 	collision with: 3 2 0  and 2 3 0 
13757503		 # 	collision with: 4 5 0  and 8 6 0 
13757647		 # 	collision with: 2 1 0  and 2 3 0 
13757665		 # 	collision with: 3 1 0  and 10 2 0 
13757681		 # 	collision with: 3 2 0  and 2 3 0 
13757683		 # 	collision with: 1 8 0  and 6 0 1 
13757700		 # 	collision with: 7 1 0  and 6 3 0 
13757702		 # 	collision with: 0 0 0  and 6 2 0 
13757713		 # 	collision with: 9 1 0  and 0 2 0 
13757715		 # 	collision with: 4 0 0  and 6 0 0 
13757733		 # 	collision with: 5 4 0  and 6 4 0 
13757735		 # 	collision with: 4 0 0  and 6 0 0 
13757765		 # 	collision with: 2 3 0  and 4 5 0 
13757781		 # 	collision with: 6 3 0  and 4 5 0 
13757783		 # 	collision with: 4 0 0  and 6 0 0 
13757801		 # 	collision with: 3 4 0  and 10 6 0 
13757945		 # 	collision with: 5 3 0  and 5 4 0 
13757947		 # 	collision with: 4 0 0  and 6 0 0 
13757957		 # 	collision with: 9 1 0  and 9 0 1 
13757959		 # 	collision with: 4 0 0  and 6 0 0 
13757973		 # 	collision with: 10 3 0  and 7 4 0 
13757975		 # 	collision with: 4 0 0  and 6 0 0 
13757985		 # 	collision with: 7 0 0  and 7 1 0 
13757987		 # 	collision with: 4 0 0  and 6 0 0 
2.98255secs	2307
