# prime 11
# degree 2
# input variables 3
# output variables 4
# reload computed balance functions from file balance-1316of3248-p11d2m3-debug.log
# p = 11
# n = 4
# smalldomain p^m 1331
# domain p^n 14641
#	 p^2 = 121
#	 p^3 = 1331
#	 p^4 = 14641
#	 p^5 = 161051
#	 p^6 = 1771561
#	 p^7 = 19487171
#	 p^8 = 214358881
#	 p^9 = 2357947691
opening file : balance-1316of3248-p11d2m3-debug.log
reloading for step2...
7896046		 # 	collision with: 6 2 0 0  and 2 2 1 0 
7896048		 # 	collision with: 10 9 0 0  and 0 4 1 0 
7896050		 # 	collision with: 10 10 1 0  and 10 2 2 0 
7896068		 # 	collision with: 8 9 0 0  and 2 5 1 0 
7896073		 # 	collision with: 5 5 0 0  and 6 5 0 0 
7896076		 # 	collision with: 10 4 0 0  and 0 4 1 0 
7896113		 # 	collision with: 1 1 0 0  and 6 1 1 0 
7896115		 # 	collision with: 1 10 0 0  and 2 4 2 0 
7896129		 # 	collision with: 6 4 0 0  and 6 6 0 0 
7896131		 # 	collision with: 8 2 1 0  and 8 3 1 0 
7896136		 # 	collision with: 0 1 0 0  and 6 3 1 0 
7896138		 # 	collision with: 3 1 1 0  and 4 1 1 0 
7896148		 # 	collision with: 10 0 1 0  and 10 2 1 0 
7896150		 # 	collision with: 4 10 0 0  and 8 1 1 0 
7896160		 # 	collision with: 5 5 0 0  and 6 5 0 0 
7896162		 # 	collision with: 2 2 0 0  and 8 1 1 0 
7896176		 # 	collision with: 3 1 1 0  and 4 1 1 0 
7896178		 # 	collision with: 2 10 0 0  and 8 0 1 0 
7896191		 # 	collision with: 2 0 1 0  and 4 0 1 0 
7896193		 # 	collision with: 3 1 1 0  and 4 1 1 0 
7896195		 # 	collision with: 2 0 1 0  and 4 0 1 0 
7896204		 # 	collision with: 5 5 0 0  and 6 5 0 0 
7896206		 # 	collision with: 2 7 0 0  and 2 10 1 0 
7896228		 # 	collision with: 10 10 0 0  and 6 0 1 0 
7896230		 # 	collision with: 4 4 0 0  and 6 4 0 0 
7896252		 # 	collision with: 10 4 0 0  and 0 4 1 0 
7896254		 # 	collision with: 3 6 0 0  and 4 10 1 0 
7896276		 # 	collision with: 9 4 0 0  and 1 4 2 0 
7896278		 # 	collision with: 3 8 0 0  and 0 2 1 0 
7896291		 # 	collision with: 2 4 0 0  and 4 10 1 0 
7896293		 # 	collision with: 5 5 0 0  and 6 5 0 0 
7896295		 # 	collision with: 1 3 1 0  and 1 5 1 0 
7896304		 # 	collision with: 10 10 0 0  and 0 0 1 0 
7896306		 # 	collision with: 9 1 2 0  and 9 2 2 0 
7896320		 # 	collision with: 8 5 0 0  and 3 5 1 0 
7896322		 # 	collision with: 3 8 0 0  and 0 2 1 0 
7896332		 # 	collision with: 7 9 1 0  and 6 8 3 0 
7896334		 # 	collision with: 5 8 0 0  and 10 1 2 0 
7896344		 # 	collision with: 7 7 0 0  and 4 6 1 0 
7896346		 # 	collision with: 10 10 0 0  and 1 0 1 0 
7896353		 # 	collision with: 10 8 0 0  and 5 2 1 0 
7896355		 # 	collision with: 10 1 0 0  and 2 2 2 0 
7896369		 # 	collision with: 0 5 0 0  and 1 3 1 0 
7896371		 # 	collision with: 8 1 1 0  and 5 3 2 0 
7896404		 # 	collision with: 10 8 0 0  and 0 1 1 0 
7896406		 # 	collision with: 4 4 0 0  and 6 4 0 0 
7896409		 # 	collision with: 9 7 0 0  and 6 10 1 0 
7896411		 # 	collision with: 8 2 1 0  and 8 3 3 0 
7896412		 # 	collision with: 10 0 1 0  and 10 2 1 0 
7896414		 # 	collision with: 10 1 1 0  and 2 2 1 0 
7896434		 # 	collision with: 2 3 0 0  and 7 3 1 0 
7896436		 # 	collision with: 10 10 0 0  and 0 0 1 0 
7896438		 # 	collision with: 8 9 0 0  and 7 9 1 0 
7896460		 # 	collision with: 7 1 0 0  and 6 7 1 0 
7896462		 # 	collision with: 0 9 0 0  and 4 4 1 0 
7896528		 # 	collision with: 4 3 2 0  and 5 3 2 0 
7896530		 # 	collision with: 9 10 0 0  and 9 4 1 0 
7896532		 # 	collision with: 8 6 1 0  and 3 3 2 0 
7896534		 # 	collision with: 9 5 0 0  and 0 0 1 0 
7896554		 # 	collision with: 6 9 0 0  and 5 10 1 0 
7896557		 # 	collision with: 6 7 1 0  and 3 3 2 0 
7896559		 # 	collision with: 6 6 0 0  and 4 1 1 0 
7896560		 # 	collision with: 9 8 0 0  and 0 0 2 0 
7896562		 # 	collision with: 6 7 0 0  and 5 3 1 0 
7896597		 # 	collision with: 10 1 0 0  and 10 1 1 0 
7896599		 # 	collision with: 6 4 0 0  and 6 5 0 0 
7896613		 # 	collision with: 1 4 0 0  and 10 5 0 0 
7896615		 # 	collision with: 4 4 0 0  and 6 5 0 0 
7896620		 # 	collision with: 3 9 0 0  and 3 7 1 0 
7896622		 # 	collision with: 9 5 0 0  and 0 0 1 0 
7896632		 # 	collision with: 7 0 2 0  and 9 2 2 0 
7896634		 # 	collision with: 5 0 2 0  and 10 2 2 0 
7896644		 # 	collision with: 5 6 0 0  and 5 6 1 0 
7896660		 # 	collision with: 1 1 0 0  and 3 10 1 0 
7896673		 # 	collision with: 3 1 1 0  and 4 1 1 0 
7896677		 # 	collision with: 10 7 0 0  and 10 6 2 0 
7896688		 # 	collision with: 8 4 0 0  and 7 5 1 0 
7896690		 # 	collision with: 1 6 0 0  and 0 6 1 0 
7896712		 # 	collision with: 4 6 0 0  and 2 9 1 0 
7896714		 # 	collision with: 4 8 0 0  and 4 5 1 0 
7896736		 # 	collision with: 9 8 0 0  and 0 0 2 0 
7896738		 # 	collision with: 5 6 0 0  and 6 5 2 0 
7896760		 # 	collision with: 4 1 1 0  and 4 2 1 0 
7896762		 # 	collision with: 3 1 1 0  and 3 3 1 0 
7896773		 # 	collision with: 9 1 0 0  and 9 1 1 0 
7896775		 # 	collision with: 6 4 0 0  and 6 5 0 0 
7896777		 # 	collision with: 0 6 0 0  and 3 1 1 0 
7896779		 # 	collision with: 7 10 0 0  and 2 0 1 0 
7896788		 # 	collision with: 5 10 0 0  and 6 3 1 0 
7896790		 # 	collision with: 4 4 0 0  and 6 4 0 0 
7896804		 # 	collision with: 10 5 0 0  and 8 0 1 0 
7896806		 # 	collision with: 0 5 0 0  and 2 2 1 0 
7896816		 # 	collision with: 10 5 0 0  and 9 0 1 0 
7896818		 # 	collision with: 10 4 2 0  and 7 5 3 0 
7896828		 # 	collision with: 5 5 0 0  and 6 5 0 0 
7896830		 # 	collision with: 1 6 0 0  and 0 4 1 0 
7896837		 # 	collision with: 1 4 0 0  and 1 5 0 0 
7896839		 # 	collision with: 1 7 0 0  and 1 1 1 0 
7896853		 # 	collision with: 10 7 0 0  and 2 6 1 0 
7896855		 # 	collision with: 8 10 0 0  and 3 0 1 0 
7896890		 # 	collision with: 9 1 1 0  and 10 10 2 0 
7896893		 # 	collision with: 5 0 0 0  and 2 1 1 0 
7896895		 # 	collision with: 6 8 0 0  and 3 2 1 0 
7896896		 # 	collision with: 7 8 0 0  and 9 2 2 0 
7896898		 # 	collision with: 5 8 0 0  and 9 6 1 0 
7896916		 # 	collision with: 5 5 0 0  and 6 5 0 0 
7896918		 # 	collision with: 1 6 0 0  and 0 4 1 0 
7896920		 # 	collision with: 0 1 0 0  and 5 2 1 0 
7896922		 # 	collision with: 4 4 0 0  and 6 4 0 0 
7896944		 # 	collision with: 1 2 1 0  and 3 0 2 0 
7896946		 # 	collision with: 3 6 0 0  and 4 10 1 0 
7897012		 # 	collision with: 5 5 0 0  and 6 5 0 0 
7897014		 # 	collision with: 4 3 1 0  and 5 3 1 0 
7897016		 # 	collision with: 0 9 1 0  and 2 3 2 0 
7897018		 # 	collision with: 8 4 0 0  and 1 9 1 0 
7897036		 # 	collision with: 6 7 0 0  and 9 0 1 0 
7897038		 # 	collision with: 6 2 0 0  and 4 10 1 0 
7897041		 # 	collision with: 3 7 0 0  and 3 7 2 0 
7897043		 # 	collision with: 10 7 0 0  and 3 8 1 0 
7897044		 # 	collision with: 4 0 1 0  and 4 3 2 0 
7897046		 # 	collision with: 3 2 1 0  and 5 2 1 0 
7897081		 # 	collision with: 8 5 1 0  and 3 5 2 0 
7897083		 # 	collision with: 6 1 0 0  and 6 1 1 0 
7897097		 # 	collision with: 7 3 0 0  and 4 5 0 0 
7897099		 # 	collision with: 4 4 0 0  and 6 4 0 0 
7897106		 # 	collision with: 9 0 0 0  and 3 10 1 0 
7897116		 # 	collision with: 8 0 0 0  and 4 6 1 0 
7897118		 # 	collision with: 1 1 0 0  and 3 2 1 0 
7897128		 # 	collision with: 2 9 0 0  and 5 10 1 0 
7897130		 # 	collision with: 4 4 0 0  and 6 4 0 0 
7897144		 # 	collision with: 5 5 0 0  and 6 5 0 0 
7897146		 # 	collision with: 8 4 0 0  and 4 10 1 0 
7897157		 # 	collision with: 9 2 0 0  and 7 0 1 0 
7897159		 # 	collision with: 10 6 0 0  and 7 10 1 0 
7897161		 # 	collision with: 7 3 0 0  and 7 5 0 0 
7897163		 # 	collision with: 1 6 1 0  and 0 4 2 0 
7897172		 # 	collision with: 7 1 0 0  and 3 3 1 0 
7897174		 # 	collision with: 4 4 0 0  and 6 4 0 0 
7897196		 # 	collision with: 3 7 0 0  and 1 0 1 0 
7897198		 # 	collision with: 6 4 1 0  and 6 5 1 0 
7897220		 # 	collision with: 7 6 0 0  and 8 5 1 0 
7897244		 # 	collision with: 5 0 0 0  and 5 1 1 0 
7897257		 # 	collision with: 3 3 1 0  and 1 4 1 0 
7897259		 # 	collision with: 1 1 0 0  and 1 1 1 0 
7897261		 # 	collision with: 10 7 0 0  and 3 9 1 0 
7897263		 # 	collision with: 9 1 0 0  and 2 9 1 0 
7897272		 # 	collision with: 9 5 0 0  and 6 2 1 0 
7897274		 # 	collision with: 3 1 2 0  and 4 1 2 0 
7897288		 # 	collision with: 8 1 1 0  and 3 5 2 0 
7897290		 # 	collision with: 10 1 0 0  and 6 2 2 0 
7897302		 # 	collision with: 8 8 0 0  and 10 9 1 0 
7897312		 # 	collision with: 1 0 2 0  and 5 1 2 0 
7897314		 # 	collision with: 10 1 0 0  and 4 10 1 0 
7897321		 # 	collision with: 5 5 0 0  and 6 5 0 0 
7897323		 # 	collision with: 0 7 1 0  and 2 7 1 0 
7897337		 # 	collision with: 7 3 0 0  and 7 5 0 0 
7897339		 # 	collision with: 2 4 1 0  and 0 5 1 0 
7897372		 # 	collision with: 3 0 1 0  and 10 1 1 0 
7897374		 # 	collision with: 10 0 1 0  and 2 2 1 0 
7897377		 # 	collision with: 0 7 1 0  and 2 7 1 0 
7897379		 # 	collision with: 2 6 0 0  and 2 0 1 0 
7897380		 # 	collision with: 4 8 0 0  and 7 7 1 0 
7897382		 # 	collision with: 3 9 0 0  and 5 3 1 0 
7897400		 # 	collision with: 2 4 0 0  and 4 5 1 0 
7897402		 # 	collision with: 8 8 0 0  and 5 2 1 0 
7897404		 # 	collision with: 10 5 0 0  and 5 2 1 0 
7897406		 # 	collision with: 5 8 0 0  and 4 10 1 0 
7897428		 # 	collision with: 8 2 0 0  and 4 5 1 0 
7897430		 # 	collision with: 8 2 0 0  and 1 5 1 0 
7897496		 # 	collision with: 0 9 0 0  and 8 4 2 0 
7897498		 # 	collision with: 9 7 1 0  and 3 4 2 0 
7897500		 # 	collision with: 7 8 0 0  and 7 0 1 0 
7897502		 # 	collision with: 5 8 0 0  and 6 2 1 0 
7897520		 # 	collision with: 6 10 1 0  and 0 0 2 0 
7897522		 # 	collision with: 9 1 0 0  and 9 1 1 0 
7897525		 # 	collision with: 9 0 3 0  and 7 1 3 0 
7897527		 # 	collision with: 4 4 0 0  and 6 4 0 0 
7897528		 # 	collision with: 3 1 2 0  and 4 1 2 0 
7897530		 # 	collision with: 9 8 0 0  and 9 6 2 0 
7897567		 # 	collision with: 2 1 0 0  and 5 1 1 0 
7897581		 # 	collision with: 10 9 0 0  and 5 9 1 0 
7897583		 # 	collision with: 7 3 0 0  and 7 4 0 0 
7897588		 # 	collision with: 8 0 1 0  and 0 1 1 0 
7897590		 # 	collision with: 4 8 0 0  and 1 2 1 0 
7897600		 # 	collision with: 5 7 1 0  and 9 2 2 0 
7897602		 # 	collision with: 4 4 0 0  and 6 4 0 0 
7897614		 # 	collision with: 4 6 0 0  and 8 6 1 0 
7897628		 # 	collision with: 10 10 0 0  and 10 3 1 0 
7897630		 # 	collision with: 10 6 0 0  and 7 8 1 0 
7897641		 # 	collision with: 4 2 0 0  and 0 5 1 0 
7897643		 # 	collision with: 10 0 1 0  and 2 4 2 0 
7897645		 # 	collision with: 6 3 1 0  and 1 5 1 0 
7897647		 # 	collision with: 2 4 2 0  and 0 5 2 0 
7897656		 # 	collision with: 3 6 0 0  and 9 6 1 0 
7897658		 # 	collision with: 10 1 0 0  and 1 10 1 0 
7897680		 # 	collision with: 5 5 0 0  and 6 5 0 0 
7897682		 # 	collision with: 6 6 0 0  and 3 3 1 0 
7897704		 # 	collision with: 3 7 0 0  and 2 1 1 0 
7897706		 # 	collision with: 7 2 0 0  and 1 6 1 0 
7897728		 # 	collision with: 6 3 1 0  and 9 0 2 0 
7897730		 # 	collision with: 7 10 0 0  and 1 4 1 0 
7897741		 # 	collision with: 2 3 0 0  and 2 4 0 0 
7897743		 # 	collision with: 3 4 0 0  and 8 6 1 0 
7897745		 # 	collision with: 10 4 0 0  and 2 0 1 0 
7897747		 # 	collision with: 4 4 0 0  and 6 4 0 0 
7897758		 # 	collision with: 10 5 1 0  and 0 2 2 0 
7897772		 # 	collision with: 4 10 0 0  and 6 4 1 0 
7897774		 # 	collision with: 9 10 0 0  and 1 4 1 0 
7897784		 # 	collision with: 6 8 1 0  and 2 2 2 0 
7897796		 # 	collision with: 1 8 1 0  and 2 8 1 0 
7897821		 # 	collision with: 3 8 0 0  and 4 10 1 0 
7897856		 # 	collision with: 5 5 0 0  and 6 5 0 0 
7897858		 # 	collision with: 0 9 1 0  and 6 4 2 0 
7897861		 # 	collision with: 7 5 0 0  and 2 4 1 0 
7897863		 # 	collision with: 2 2 0 0  and 8 4 1 0 
7897864		 # 	collision with: 3 10 0 0  and 6 1 2 0 
7897866		 # 	collision with: 4 4 0 0  and 6 4 0 0 
7897884		 # 	collision with: 9 2 2 0  and 10 0 3 0 
7897886		 # 	collision with: 6 7 0 0  and 8 1 2 0 
7897888		 # 	collision with: 9 8 0 0  and 0 0 1 0 
7897890		 # 	collision with: 4 10 0 0  and 7 7 1 0 
7897912		 # 	collision with: 5 2 0 0  and 8 0 1 0 
7897914		 # 	collision with: 2 2 0 0  and 7 0 1 0 
7897980		 # 	collision with: 7 1 1 0  and 3 2 1 0 
7897982		 # 	collision with: 6 2 0 0  and 3 6 1 0 
7897984		 # 	collision with: 4 10 1 0  and 6 6 2 0 
7897986		 # 	collision with: 4 4 0 0  and 6 4 0 0 
7898004		 # 	collision with: 9 9 0 0  and 1 1 2 0 
7898006		 # 	collision with: 8 1 0 0  and 7 0 2 0 
7898009		 # 	collision with: 4 2 0 0  and 7 4 0 0 
7898011		 # 	collision with: 9 6 0 0  and 3 6 1 0 
7898012		 # 	collision with: 9 2 0 0  and 10 0 1 0 
7898014		 # 	collision with: 0 6 0 0  and 4 8 1 0 
7898049		 # 	collision with: 10 3 0 0  and 4 7 1 0 
7898051		 # 	collision with: 9 8 0 0  and 9 6 1 0 
7898065		 # 	collision with: 9 8 0 0  and 10 3 1 0 
7898067		 # 	collision with: 10 0 1 0  and 8 1 1 0 
7898072		 # 	collision with: 3 2 1 0  and 5 2 1 0 
7898074		 # 	collision with: 4 4 0 0  and 6 4 0 0 
7898084		 # 	collision with: 5 5 0 0  and 6 5 0 0 
7898086		 # 	collision with: 3 8 1 0  and 10 5 2 0 
7898096		 # 	collision with: 3 1 1 0  and 4 1 1 0 
7898098		 # 	collision with: 5 0 0 0  and 2 8 1 0 
7898112		 # 	collision with: 7 2 0 0  and 7 2 1 0 
7898114		 # 	collision with: 7 0 1 0  and 10 1 1 0 
7898125		 # 	collision with: 0 8 0 0  and 6 4 1 0 
7898127		 # 	collision with: 7 8 0 0  and 1 4 1 0 
7898129		 # 	collision with: 5 5 0 0  and 6 5 0 0 
7898131		 # 	collision with: 4 4 0 0  and 6 4 0 0 
7898140		 # 	collision with: 0 1 0 0  and 1 4 1 0 
7898142		 # 	collision with: 10 3 1 0  and 10 9 2 0 
7898166		 # 	collision with: 10 9 0 0  and 6 1 1 0 
7898188		 # 	collision with: 1 5 0 0  and 4 6 1 0 
7898190		 # 	collision with: 1 1 0 0  and 1 1 2 0 
7898214		 # 	collision with: 5 6 1 0  and 0 1 2 0 
7898225		 # 	collision with: 6 1 0 0  and 1 1 1 0 
7898227		 # 	collision with: 8 10 1 0  and 3 0 2 0 
7898229		 # 	collision with: 4 2 0 0  and 7 4 0 0 
7898231		 # 	collision with: 9 6 1 0  and 6 2 3 0 
7898240		 # 	collision with: 9 2 0 0  and 7 0 1 0 
7898242		 # 	collision with: 0 6 0 0  and 7 2 1 0 
7898256		 # 	collision with: 10 4 0 0  and 2 7 1 0 
7898258		 # 	collision with: 4 7 1 0  and 3 4 2 0 
7898268		 # 	collision with: 10 1 0 0  and 8 1 1 0 
7898270		 # 	collision with: 4 7 0 0  and 8 6 1 0 
7898280		 # 	collision with: 6 1 0 0  and 2 8 1 0 
7898282		 # 	collision with: 4 4 0 0  and 5 6 1 0 
7898289		 # 	collision with: 10 8 1 0  and 7 7 2 0 
7898291		 # 	collision with: 2 2 0 0  and 2 2 1 0 
7898305		 # 	collision with: 5 5 0 0  and 6 5 0 0 
7898307		 # 	collision with: 4 4 0 0  and 6 4 0 0 
7898340		 # 	collision with: 3 0 0 0  and 5 6 1 0 
7898342		 # 	collision with: 8 7 0 0  and 8 7 1 0 
7898345		 # 	collision with: 5 8 0 0  and 0 0 2 0 
7898347		 # 	collision with: 8 4 1 0  and 10 0 2 0 
7898348		 # 	collision with: 5 5 0 0  and 6 5 0 0 
7898350		 # 	collision with: 8 6 1 0  and 8 6 2 0 
7898368		 # 	collision with: 7 5 0 0  and 0 9 1 0 
7898372		 # 	collision with: 5 1 1 0  and 5 1 2 0 
7898396		 # 	collision with: 0 4 1 0  and 4 3 2 0 
7898398		 # 	collision with: 2 8 0 0  and 10 10 1 0 
7898464		 # 	collision with: 10 9 0 0  and 0 7 2 0 
7898468		 # 	collision with: 5 8 0 0  and 5 8 1 0 
7898488		 # 	collision with: 5 5 0 0  and 6 5 0 0 
7898490		 # 	collision with: 3 6 0 0  and 4 10 1 0 
7898493		 # 	collision with: 8 6 0 0  and 4 6 1 0 
7898495		 # 	collision with: 10 6 0 0  and 7 8 1 0 
7898496		 # 	collision with: 8 5 0 0  and 8 1 1 0 
7898498		 # 	collision with: 8 3 1 0  and 8 2 3 0 
7898533		 # 	collision with: 5 5 0 0  and 6 5 0 0 
7898535		 # 	collision with: 0 6 3 0  and 1 6 3 0 
7898549		 # 	collision with: 9 8 1 0  and 5 4 2 0 
7898551		 # 	collision with: 2 5 0 0  and 9 5 2 0 
7898556		 # 	collision with: 9 8 0 0  and 9 8 1 0 
7898558		 # 	collision with: 0 5 0 0  and 1 10 1 0 
7898568		 # 	collision with: 10 9 0 0  and 4 0 1 0 
7898570		 # 	collision with: 6 2 1 0  and 8 1 2 0 
7898580		 # 	collision with: 4 4 0 0  and 4 10 1 0 
7898582		 # 	collision with: 1 9 0 0  and 10 0 1 0 
7898596		 # 	collision with: 5 1 0 0  and 10 7 1 0 
7898598		 # 	collision with: 1 9 0 0  and 7 0 1 0 
7898609		 # 	collision with: 6 3 1 0  and 6 3 2 0 
7898611		 # 	collision with: 1 8 0 0  and 9 2 2 0 
7898613		 # 	collision with: 5 2 0 0  and 6 3 0 0 
7898615		 # 	collision with: 6 3 0 0  and 3 1 1 0 
7898626		 # 	collision with: 7 0 0 0  and 6 7 1 0 
7898648		 # 	collision with: 2 0 1 0  and 4 0 1 0 
7898650		 # 	collision with: 8 5 0 0  and 0 3 1 0 
7898674		 # 	collision with: 0 5 0 0  and 10 1 1 0 
7898696		 # 	collision with: 10 9 1 0  and 10 4 2 0 
7898698		 # 	collision with: 10 3 0 0  and 5 2 1 0 
7898709		 # 	collision with: 5 5 0 0  and 6 5 0 0 
7898711		 # 	collision with: 2 5 0 0  and 9 9 1 0 
7898713		 # 	collision with: 2 10 0 0  and 3 6 1 0 
7898715		 # 	collision with: 7 7 1 0  and 10 0 2 0 
7898724		 # 	collision with: 4 9 0 0  and 8 2 1 0 
7898726		 # 	collision with: 8 9 0 0  and 3 1 1 0 
7898740		 # 	collision with: 7 6 0 0  and 8 1 1 0 
7898742		 # 	collision with: 9 9 0 0  and 6 0 1 0 
7898752		 # 	collision with: 5 5 0 0  and 6 5 0 0 
7898754		 # 	collision with: 5 7 0 0  and 6 3 1 0 
7898764		 # 	collision with: 2 0 2 0  and 4 0 2 0 
7898766		 # 	collision with: 4 4 0 0  and 6 4 0 0 
7898773		 # 	collision with: 7 2 0 0  and 1 2 1 0 
7898775		 # 	collision with: 3 9 1 0  and 2 2 2 0 
7898789		 # 	collision with: 5 2 0 0  and 6 3 0 0 
7898791		 # 	collision with: 2 2 1 0  and 2 4 1 0 
7898824		 # 	collision with: 5 9 0 0  and 4 0 1 0 
7898826		 # 	collision with: 8 5 0 0  and 0 3 1 0 
7898829		 # 	collision with: 10 3 1 0  and 10 3 2 0 
7898831		 # 	collision with: 6 4 1 0  and 5 6 2 0 
7898832		 # 	collision with: 2 0 3 0  and 4 0 3 0 
7898834		 # 	collision with: 2 9 0 0  and 1 0 1 0 
7898852		 # 	collision with: 5 7 0 0  and 6 5 2 0 
7898854		 # 	collision with: 4 4 0 0  and 6 4 0 0 
7898856		 # 	collision with: 4 1 1 0  and 8 3 1 0 
7898858		 # 	collision with: 6 9 0 0  and 6 0 1 0 
7898880		 # 	collision with: 2 10 1 0  and 1 1 3 0 
7898882		 # 	collision with: 9 6 1 0  and 2 2 2 0 
7898948		 # 	collision with: 3 2 3 0  and 5 2 3 0 
7898950		 # 	collision with: 2 0 0 0  and 10 6 1 0 
7898952		 # 	collision with: 6 6 1 0  and 4 10 2 0 
7898954		 # 	collision with: 4 8 0 0  and 4 8 1 0 
7898972		 # 	collision with: 9 5 0 0  and 7 10 1 0 
7898974		 # 	collision with: 4 4 0 0  and 6 4 0 0 
7898977		 # 	collision with: 9 1 0 0  and 9 3 0 0 
7898979		 # 	collision with: 2 7 0 0  and 9 0 1 0 
7898980		 # 	collision with: 5 5 0 0  and 6 5 0 0 
7898982		 # 	collision with: 10 7 0 0  and 1 5 1 0 
7899017		 # 	collision with: 1 7 1 0  and 3 0 2 0 
7899040		 # 	collision with: 3 9 1 0  and 5 1 2 0 
7899052		 # 	collision with: 7 0 0 0  and 9 2 1 0 
7899064		 # 	collision with: 10 0 0 0  and 6 5 1 0 
7899066		 # 	collision with: 2 0 1 0  and 4 0 1 0 
7899082		 # 	collision with: 2 0 1 0  and 4 0 1 0 
7899093		 # 	collision with: 4 2 1 0  and 3 4 1 0 
7899095		 # 	collision with: 1 10 0 0  and 8 1 1 0 
7899097		 # 	collision with: 3 1 0 0  and 8 3 0 0 
7899099		 # 	collision with: 2 10 1 0  and 8 0 2 0 
7899108		 # 	collision with: 3 0 0 0  and 3 5 1 0 
7899110		 # 	collision with: 1 8 0 0  and 6 10 1 0 
7899132		 # 	collision with: 5 2 0 0  and 7 1 1 0 
7899134		 # 	collision with: 3 0 0 0  and 2 3 1 0 
7899156		 # 	collision with: 5 5 0 0  and 6 5 0 0 
7899158		 # 	collision with: 3 6 0 0  and 10 1 1 0 
7899180		 # 	collision with: 5 6 0 0  and 1 2 1 0 
7899182		 # 	collision with: 2 9 1 0  and 9 2 2 0 
7899193		 # 	collision with: 10 0 2 0  and 10 2 2 0 
7899195		 # 	collision with: 3 3 0 0  and 4 1 1 0 
7899197		 # 	collision with: 9 1 0 0  and 9 3 0 0 
7899199		 # 	collision with: 1 8 1 0  and 2 8 1 0 
7899208		 # 	collision with: 5 3 0 0  and 2 0 1 0 
7899210		 # 	collision with: 2 8 0 0  and 9 2 1 0 
7899226		 # 	collision with: 2 2 0 0  and 5 3 1 0 
7899236		 # 	collision with: 5 9 1 0  and 4 0 2 0 
7899238		 # 	collision with: 4 4 0 0  and 6 4 0 0 
7899248		 # 	collision with: 6 3 0 0  and 8 0 1 0 
7899250		 # 	collision with: 4 3 0 0  and 6 2 1 0 
7899257		 # 	collision with: 9 2 0 0  and 8 7 1 0 
7899259		 # 	collision with: 3 1 0 0  and 3 3 0 0 
7899275		 # 	collision with: 3 2 1 0  and 10 3 1 0 
7899308		 # 	collision with: 8 0 0 0  and 6 3 1 0 
7899310		 # 	collision with: 9 1 0 0  and 9 2 1 0 
7899313		 # 	collision with: 0 1 1 0  and 9 0 2 0 
7899315		 # 	collision with: 8 6 0 0  and 7 3 1 0 
7899316		 # 	collision with: 3 8 0 0  and 6 4 1 0 
7899318		 # 	collision with: 5 7 0 0  and 4 1 1 0 
7899336		 # 	collision with: 7 3 0 0  and 7 3 1 0 
7899338		 # 	collision with: 9 1 1 0  and 9 2 1 0 
7899340		 # 	collision with: 4 8 0 0  and 5 2 1 0 
7899342		 # 	collision with: 5 3 0 0  and 10 0 1 0 
7899364		 # 	collision with: 3 0 1 0  and 1 2 2 0 
7899366		 # 	collision with: 2 0 1 0  and 4 2 2 0 
7899432		 # 	collision with: 3 3 0 0  and 7 1 1 0 
7899434		 # 	collision with: 3 1 0 0  and 3 3 1 0 
7899436		 # 	collision with: 4 0 0 0  and 5 3 1 0 
7899438		 # 	collision with: 3 3 2 0  and 5 4 2 0 
7899456		 # 	collision with: 1 8 0 0  and 3 6 1 0 
7899458		 # 	collision with: 10 4 0 0  and 1 6 2 0 
7899461		 # 	collision with: 5 0 1 0  and 5 1 1 0 
7899463		 # 	collision with: 8 1 0 0  and 2 2 0 0 
7899464		 # 	collision with: 1 4 0 0  and 3 2 1 0 
7899466		 # 	collision with: 6 0 1 0  and 2 1 1 0 
7899501		 # 	collision with: 4 10 1 0  and 6 6 2 0 
7899503		 # 	collision with: 4 4 0 0  and 6 4 0 0 
7899517		 # 	collision with: 5 5 0 0  and 6 5 0 0 
7899519		 # 	collision with: 2 8 0 0  and 10 2 1 0 
7899524		 # 	collision with: 1 7 0 0  and 7 6 1 0 
7899526		 # 	collision with: 10 7 1 0  and 0 2 2 0 
7899538		 # 	collision with: 1 3 0 0  and 1 5 2 0 
7899548		 # 	collision with: 5 5 1 0  and 10 0 2 0 
7899550		 # 	collision with: 9 1 0 0  and 9 2 1 0 
7899564		 # 	collision with: 9 3 0 0  and 9 1 1 0 
7899566		 # 	collision with: 0 5 0 0  and 4 10 1 0 
7899577		 # 	collision with: 6 7 0 0  and 1 4 1 0 
7899579		 # 	collision with: 4 6 1 0  and 3 0 2 0 
7899581		 # 	collision with: 6 4 0 0  and 1 10 1 0 
7899583		 # 	collision with: 0 7 2 0  and 2 7 2 0 
7899592		 # 	collision with: 0 4 0 0  and 2 0 1 0 
7899616		 # 	collision with: 0 4 0 0  and 2 0 1 0 
7899640		 # 	collision with: 4 1 1 0  and 1 3 1 0 
7899642		 # 	collision with: 4 0 1 0  and 4 2 1 0 
7899664		 # 	collision with: 7 7 1 0  and 2 9 2 0 
7899666		 # 	collision with: 4 4 0 0  and 6 4 0 0 
7899677		 # 	collision with: 7 9 0 0  and 2 2 1 0 
7899679		 # 	collision with: 4 4 0 0  and 6 4 0 0 
7899681		 # 	collision with: 5 0 1 0  and 5 1 1 0 
7899683		 # 	collision with: 8 1 0 0  and 2 2 0 0 
7899692		 # 	collision with: 5 5 0 0  and 6 5 0 0 
7899694		 # 	collision with: 2 0 0 0  and 2 6 1 0 
7899708		 # 	collision with: 7 7 0 0  and 1 4 1 0 
7899710		 # 	collision with: 4 4 0 0  and 6 4 0 0 
7899720		 # 	collision with: 10 3 0 0  and 10 3 2 0 
7899722		 # 	collision with: 3 2 0 0  and 8 8 1 0 
7899734		 # 	collision with: 10 3 0 0  and 10 3 1 0 
7899741		 # 	collision with: 7 9 0 0  and 8 8 1 0 
7899743		 # 	collision with: 6 9 0 0  and 0 0 1 0 
7899757		 # 	collision with: 1 8 1 0  and 2 8 1 0 
7899759		 # 	collision with: 9 6 0 0  and 8 1 1 0 
7899792		 # 	collision with: 0 6 0 0  and 3 1 1 0 
7899794		 # 	collision with: 4 2 1 0  and 4 2 2 0 
7899797		 # 	collision with: 1 3 2 0  and 3 4 2 0 
7899799		 # 	collision with: 10 10 0 0  and 10 2 1 0 
7899800		 # 	collision with: 9 0 0 0  and 7 1 2 0 
7899802		 # 	collision with: 0 6 1 0  and 1 6 1 0 
7899820		 # 	collision with: 3 0 0 0  and 8 1 1 0 
7899822		 # 	collision with: 8 3 0 0  and 8 3 1 0 
7899824		 # 	collision with: 5 5 0 0  and 6 5 0 0 
7899826		 # 	collision with: 6 7 0 0  and 10 1 1 0 
7899848		 # 	collision with: 10 6 0 0  and 5 0 1 0 
7899850		 # 	collision with: 9 8 1 0  and 8 1 3 0 
7899916		 # 	collision with: 10 7 1 0  and 5 0 2 0 
7899918		 # 	collision with: 4 4 0 0  and 6 4 0 0 
7899920		 # 	collision with: 5 5 0 0  and 6 5 0 0 
7899922		 # 	collision with: 4 9 0 0  and 0 1 1 0 
7899940		 # 	collision with: 10 0 2 0  and 10 2 2 0 
7899942		 # 	collision with: 5 1 0 0  and 2 1 1 0 
7899945		 # 	collision with: 8 10 0 0  and 10 2 1 0 
7899947		 # 	collision with: 10 7 0 0  and 0 2 2 0 
7899950		 # 	collision with: 1 9 0 0  and 5 8 2 0 
7899985		 # 	collision with: 3 2 1 0  and 5 2 1 0 
7899987		 # 	collision with: 10 0 1 0  and 10 1 1 0 
7900001		 # 	collision with: 7 3 1 0  and 7 5 1 0 
7900003		 # 	collision with: 0 10 0 0  and 2 1 1 0 
7900008		 # 	collision with: 5 5 0 0  and 6 5 0 0 
7900010		 # 	collision with: 4 9 0 0  and 0 1 1 0 
7900020		 # 	collision with: 4 7 0 0  and 5 8 1 0 
7900022		 # 	collision with: 3 1 1 0  and 4 1 1 0 
7900032		 # 	collision with: 5 0 1 0  and 5 1 1 0 
7900034		 # 	collision with: 1 3 1 0  and 1 5 1 0 
7900048		 # 	collision with: 4 3 0 0  and 2 0 2 0 
7900050		 # 	collision with: 4 4 0 0  and 6 4 0 0 
7900061		 # 	collision with: 0 0 1 0  and 5 8 2 0 
7900063		 # 	collision with: 4 0 0 0  and 4 2 0 0 
7900065		 # 	collision with: 3 10 0 0  and 3 10 1 0 
7900067		 # 	collision with: 3 1 0 0  and 3 3 1 0 
7900076		 # 	collision with: 10 6 0 0  and 2 1 1 0 
7900078		 # 	collision with: 10 1 1 0  and 6 2 1 0 
7900100		 # 	collision with: 2 6 0 0  and 1 0 1 0 
7900102		 # 	collision with: 7 2 0 0  and 7 5 1 0 
7900124		 # 	collision with: 4 4 0 0  and 4 4 1 0 
7900126		 # 	collision with: 5 8 0 0  and 7 7 1 0 
7900148		 # 	collision with: 9 3 0 0  and 6 4 1 0 
7900150		 # 	collision with: 9 10 1 0  and 1 4 2 0 
7900161		 # 	collision with: 8 4 0 0  and 7 5 1 0 
7900165		 # 	collision with: 5 6 1 0  and 7 2 2 0 
7900176		 # 	collision with: 6 3 0 0  and 5 2 1 0 
7900192		 # 	collision with: 8 2 0 0  and 4 9 1 0 
7900204		 # 	collision with: 4 6 0 0  and 8 0 1 0 
7900206		 # 	collision with: 6 7 0 0  and 2 2 1 0 
7900216		 # 	collision with: 0 1 1 0  and 3 3 2 0 
7900218		 # 	collision with: 2 1 0 0  and 9 5 1 0 
7900225		 # 	collision with: 4 8 0 0  and 7 1 1 0 
7900227		 # 	collision with: 6 8 0 0  and 1 1 1 0 
7900241		 # 	collision with: 3 3 0 0  and 5 10 1 0 
7900243		 # 	collision with: 10 1 0 0  and 0 5 2 0 
7900276		 # 	collision with: 1 2 0 0  and 3 5 1 0 
7900278		 # 	collision with: 10 0 0 0  and 2 2 1 0 
7900281		 # 	collision with: 7 1 1 0  and 6 3 2 0 
7900283		 # 	collision with: 4 0 0 0  and 4 2 0 0 
7900286		 # 	collision with: 10 3 0 0  and 10 9 1 0 
7900304		 # 	collision with: 0 5 0 0  and 8 3 2 0 
7900306		 # 	collision with: 0 4 1 0  and 10 4 2 0 
7900308		 # 	collision with: 3 2 0 0  and 0 10 1 0 
7900310		 # 	collision with: 5 5 1 0  and 6 5 1 0 
7900332		 # 	collision with: 10 10 0 0  and 5 4 2 0 
7900334		 # 	collision with: 3 2 0 0  and 1 1 1 0 
7900400		 # 	collision with: 7 1 0 0  and 8 0 1 0 
7900402		 # 	collision with: 3 2 0 0  and 5 2 1 0 
7900406		 # 	collision with: 2 9 1 0  and 10 2 2 0 
7900424		 # 	collision with: 6 4 1 0  and 6 6 1 0 
7900426		 # 	collision with: 10 0 1 0  and 10 1 1 0 
7900429		 # 	collision with: 9 0 0 0  and 6 7 1 0 
7900431		 # 	collision with: 6 8 0 0  and 10 3 2 0 
7900432		 # 	collision with: 10 3 1 0  and 0 0 2 0 
7900434		 # 	collision with: 4 4 0 0  and 6 4 0 0 
7900469		 # 	collision with: 9 0 0 0  and 7 1 1 0 
7900471		 # 	collision with: 9 9 2 0  and 6 0 3 0 
7900485		 # 	collision with: 7 5 0 0  and 7 5 2 0 
7900487		 # 	collision with: 4 10 1 0  and 3 6 2 0 
7900492		 # 	collision with: 6 3 0 0  and 7 7 1 0 
7900494		 # 	collision with: 6 7 0 0  and 4 10 1 0 
7900504		 # 	collision with: 3 2 1 0  and 5 2 1 0 
7900506		 # 	collision with: 8 6 0 0  and 3 0 2 0 
7900516		 # 	collision with: 2 9 0 0  and 6 3 1 0 
7900518		 # 	collision with: 1 9 0 0  and 4 3 1 0 
7900532		 # 	collision with: 1 0 2 0  and 2 1 2 0 
7900534		 # 	collision with: 9 6 0 0  and 4 10 1 0 
7900545		 # 	collision with: 5 0 0 0  and 5 1 0 0 
7900547		 # 	collision with: 10 9 0 0  and 6 8 1 0 
7900551		 # 	collision with: 10 0 0 0  and 10 1 0 0 
7900560		 # 	collision with: 3 0 0 0  and 1 2 2 0 
7900562		 # 	collision with: 7 4 1 0  and 2 3 2 0 
7900584		 # 	collision with: 9 4 1 0  and 9 0 2 0 
7900586		 # 	collision with: 9 2 0 0  and 9 1 2 0 
7900608		 # 	collision with: 8 1 0 0  and 10 1 2 0 
7900610		 # 	collision with: 4 4 0 0  and 6 4 0 0 
7900632		 # 	collision with: 5 5 0 0  and 6 5 0 0 
7900634		 # 	collision with: 4 4 0 0  and 7 1 1 0 
7900645		 # 	collision with: 6 5 1 0  and 6 5 2 0 
7900647		 # 	collision with: 8 1 1 0  and 6 2 2 0 
7900651		 # 	collision with: 3 1 2 0  and 4 1 2 0 
7900660		 # 	collision with: 2 0 0 0  and 5 3 1 0 
7900662		 # 	collision with: 6 6 0 0  and 5 7 1 0 
7900676		 # 	collision with: 5 5 0 0  and 6 5 0 0 
7900678		 # 	collision with: 3 1 2 0  and 4 1 2 0 
7900688		 # 	collision with: 6 4 1 0  and 6 6 1 0 
7900690		 # 	collision with: 10 0 1 0  and 10 1 1 0 
7900700		 # 	collision with: 8 6 0 0  and 5 2 1 0 
7900702		 # 	collision with: 1 9 0 0  and 10 1 1 0 
7900709		 # 	collision with: 8 2 0 0  and 2 4 1 0 
7900711		 # 	collision with: 4 4 0 0  and 6 4 0 0 
7900725		 # 	collision with: 10 0 1 0  and 10 2 1 0 
7900727		 # 	collision with: 10 0 0 0  and 10 1 0 0 
7900760		 # 	collision with: 10 5 0 0  and 7 1 1 0 
7900765		 # 	collision with: 5 0 0 0  and 5 1 0 0 
7900768		 # 	collision with: 1 8 0 0  and 6 9 1 0 
7900788		 # 	collision with: 10 8 0 0  and 10 5 1 0 
7900790		 # 	collision with: 4 0 0 0  and 1 4 2 0 
7900794		 # 	collision with: 10 4 0 0  and 1 2 1 0 
7900837		 # 	collision with: 7 6 0 0  and 9 2 1 0 
7900841		 # 	collision with: 4 5 0 0  and 2 7 1 0 
7900881		 # 	collision with: 10 0 0 0  and 10 0 1 0 
7900883		 # 	collision with: 4 6 0 0  and 7 4 1 0 
7900893		 # 	collision with: 10 0 0 0  and 10 0 1 0 
7900895		 # 	collision with: 4 8 0 0  and 7 2 1 0 
7900915		 # 	collision with: 5 5 0 0  and 5 6 0 0 
7901045		 # 	collision with: 2 0 0 0  and 2 0 1 0 
7901047		 # 	collision with: 5 5 0 0  and 5 6 0 0 
7901069		 # 	collision with: 2 0 0 0  and 2 0 1 0 
7901071		 # 	collision with: 1 1 0 0  and 8 2 2 0 
7901093		 # 	collision with: 9 0 0 0  and 9 0 1 0 
7901095		 # 	collision with: 7 9 0 0  and 4 1 1 0 
7901117		 # 	collision with: 9 0 0 0  and 9 0 1 0 
7901119		 # 	collision with: 3 3 0 0  and 7 0 2 0 
7901251		 # 	collision with: 10 8 0 0  and 8 0 2 0 
7901269		 # 	collision with: 0 0 1 0  and 1 0 1 0 
7901271		 # 	collision with: 7 6 0 0  and 6 3 2 0 
7901281		 # 	collision with: 0 0 1 0  and 1 0 1 0 
7901283		 # 	collision with: 1 5 0 0  and 10 7 1 0 
7901300		 # 	collision with: 10 10 0 0  and 0 10 1 0 
7901302		 # 	collision with: 4 4 0 0  and 5 4 1 0 
7901321		 # 	collision with: 9 4 0 0  and 3 0 2 0 
7901323		 # 	collision with: 1 8 1 0  and 6 2 2 0 
7901325		 # 	collision with: 6 7 0 0  and 1 6 1 0 
7901327		 # 	collision with: 0 3 0 0  and 4 6 1 0 
7901365		 # 	collision with: 3 9 1 0  and 7 4 2 0 
7901367		 # 	collision with: 9 0 0 0  and 9 0 1 0 
7901379		 # 	collision with: 8 10 0 0  and 3 0 1 0 
7901397		 # 	collision with: 5 5 0 0  and 6 5 0 0 
7901529		 # 	collision with: 5 5 0 0  and 6 5 0 0 
7901531		 # 	collision with: 4 4 0 0  and 6 6 0 0 
7901553		 # 	collision with: 3 1 0 0  and 7 6 1 0 
7901555		 # 	collision with: 4 0 0 0  and 4 0 1 0 
7901577		 # 	collision with: 4 3 0 0  and 9 5 1 0 
7901579		 # 	collision with: 7 0 0 0  and 7 0 1 0 
7901601		 # 	collision with: 3 9 0 0  and 1 2 1 0 
7901603		 # 	collision with: 7 0 0 0  and 7 0 1 0 
7901733		 # 	collision with: 0 6 1 0  and 2 6 1 0 
7901735		 # 	collision with: 0 0 1 0  and 1 0 1 0 
7901753		 # 	collision with: 5 1 2 0  and 1 4 3 0 
7901755		 # 	collision with: 2 0 0 0  and 2 0 1 0 
7901767		 # 	collision with: 2 0 0 0  and 2 0 1 0 
7901784		 # 	collision with: 4 4 0 0  and 5 4 1 0 
7901786		 # 	collision with: 9 9 0 0  and 10 9 1 0 
7901805		 # 	collision with: 9 1 1 0  and 9 3 1 0 
7901807		 # 	collision with: 6 4 0 0  and 6 5 0 0 
7901809		 # 	collision with: 1 4 0 0  and 10 5 0 0 
7901811		 # 	collision with: 4 10 0 0  and 8 9 1 0 
7901849		 # 	collision with: 1 7 0 0  and 4 1 1 0 
7901851		 # 	collision with: 6 4 0 0  and 6 5 0 0 
7901861		 # 	collision with: 1 4 0 0  and 1 5 0 0 
7901863		 # 	collision with: 4 4 1 0  and 5 4 1 0 
7901881		 # 	collision with: 2 3 1 0  and 2 4 1 0 
7901883		 # 	collision with: 4 10 0 0  and 4 3 1 0 
25.1353secs	12189
