# prime 11
# degree 2
# input variables 3
# output variables 3
# reload computed balance functions from file balance-2684of3248-p11d2m3-debug.log
# p = 11
# n = 3
# smalldomain p^m 1331
# domain p^n 1331
#	 p^2 = 121
#	 p^3 = 1331
#	 p^4 = 14641
#	 p^5 = 161051
#	 p^6 = 1771561
#	 p^7 = 19487171
#	 p^8 = 214358881
#	 p^9 = 2357947691
opening file : balance-2684of3248-p11d2m3-debug.log
reloading for step2...
16104003		 # 	collision with: 3 0 0  and 9 1 0 
16104012		 # 	collision with: 10 2 0  and 0 3 0 
16104016		 # 	collision with: 0 2 0  and 4 4 0 
16104018		 # 	collision with: 5 4 0  and 7 6 0 
16104029		 # 	collision with: 5 3 0  and 3 5 0 
16104031		 # 	collision with: 3 0 0  and 3 1 0 
16104052		 # 	collision with: 2 7 0  and 2 3 1 
16104054		 # 	collision with: 5 4 0  and 7 6 0 
16104084		 # 	collision with: 10 1 0  and 6 0 1 
16104086		 # 	collision with: 6 1 0  and 9 2 0 
16104092		 # 	collision with: 3 2 1  and 2 3 1 
16104094		 # 	collision with: 5 4 0  and 7 6 0 
16104110		 # 	collision with: 8 2 0  and 4 3 0 
16104117		 # 	collision with: 5 3 0  and 3 5 0 
16104119		 # 	collision with: 3 2 0  and 4 4 0 
16104129		 # 	collision with: 5 3 0  and 3 5 0 
16104131		 # 	collision with: 1 3 0  and 4 0 1 
16104132		 # 	collision with: 5 2 0  and 9 3 0 
16104134		 # 	collision with: 3 1 0  and 1 3 0 
16104137		 # 	collision with: 5 2 0  and 6 2 0 
16104139		 # 	collision with: 2 8 0  and 3 8 0 
16104173		 # 	collision with: 2 10 0  and 9 0 1 
16104175		 # 	collision with: 8 1 0  and 5 3 0 
16104181		 # 	collision with: 4 4 0  and 5 4 0 
16104183		 # 	collision with: 3 5 0  and 5 5 0 
16104193		 # 	collision with: 0 0 0  and 10 1 0 
16104195		 # 	collision with: 1 4 0  and 0 5 0 
16104200		 # 	collision with: 4 4 0  and 5 4 0 
16104202		 # 	collision with: 6 0 0  and 1 2 0 
16104216		 # 	collision with: 0 0 0  and 1 1 1 
16104218		 # 	collision with: 3 1 0  and 1 3 0 
16104224		 # 	collision with: 7 3 0  and 6 4 0 
16104226		 # 	collision with: 3 1 0  and 1 3 0 
16104256		 # 	collision with: 3 5 0  and 9 6 0 
16104258		 # 	collision with: 3 1 0  and 1 3 0 
16104265		 # 	collision with: 0 2 0  and 4 4 0 
16104267		 # 	collision with: 10 1 0  and 8 2 0 
16104281		 # 	collision with: 7 3 0  and 8 5 0 
16104283		 # 	collision with: 10 2 0  and 7 3 0 
16104294		 # 	collision with: 3 1 0  and 1 3 0 
16104296		 # 	collision with: 3 1 0  and 10 2 0 
16104298		 # 	collision with: 3 1 0  and 1 3 0 
16104316		 # 	collision with: 5 0 0  and 3 1 0 
16104336		 # 	collision with: 5 0 0  and 1 2 0 
16104338		 # 	collision with: 3 1 0  and 1 3 0 
16104376		 # 	collision with: 10 3 0  and 1 4 0 
16104378		 # 	collision with: 10 0 0  and 3 1 0 
16104384		 # 	collision with: 4 1 1  and 5 1 1 
16104386		 # 	collision with: 7 1 0  and 7 2 0 
16104408		 # 	collision with: 7 1 0  and 2 2 0 
16104410		 # 	collision with: 3 1 0  and 1 3 0 
16104416		 # 	collision with: 9 2 0  and 1 0 1 
16104418		 # 	collision with: 3 1 0  and 1 3 0 
16104456		 # 	collision with: 0 0 0  and 1 1 1 
16104458		 # 	collision with: 3 1 0  and 1 3 0 
16104476		 # 	collision with: 1 7 0  and 7 0 1 
16104478		 # 	collision with: 3 1 0  and 1 3 0 
16104485		 # 	collision with: 9 0 0  and 4 2 0 
16104487		 # 	collision with: 8 4 0  and 0 5 0 
16104498		 # 	collision with: 3 1 0  and 1 3 0 
16104500		 # 	collision with: 7 3 0  and 3 4 0 
16104502		 # 	collision with: 3 1 0  and 1 3 0 
16104513		 # 	collision with: 8 1 0  and 2 3 0 
16104515		 # 	collision with: 3 2 0  and 4 3 0 
16104536		 # 	collision with: 0 1 0  and 1 1 0 
16104568		 # 	collision with: 10 10 0  and 1 0 1 
16104570		 # 	collision with: 3 1 0  and 1 3 0 
16104576		 # 	collision with: 8 9 0  and 3 0 1 
16104578		 # 	collision with: 3 1 0  and 1 3 0 
16104592		 # 	collision with: 9 1 0  and 2 1 1 
16104594		 # 	collision with: 3 1 0  and 1 3 0 
16104601		 # 	collision with: 3 3 0  and 6 4 0 
16104603		 # 	collision with: 6 0 0  and 1 2 0 
16104613		 # 	collision with: 1 1 0  and 3 1 1 
16104615		 # 	collision with: 10 3 0  and 6 4 0 
16104616		 # 	collision with: 8 0 0  and 9 1 0 
16104618		 # 	collision with: 0 3 0  and 6 4 0 
16104621		 # 	collision with: 7 1 0  and 2 2 0 
16104657		 # 	collision with: 6 4 0  and 7 6 0 
16104659		 # 	collision with: 1 9 0  and 2 0 1 
16104665		 # 	collision with: 10 1 0  and 0 0 1 
16104677		 # 	collision with: 1 2 0  and 0 3 0 
16104679		 # 	collision with: 8 0 0  and 6 2 0 
16104684		 # 	collision with: 1 2 0  and 8 4 0 
16104686		 # 	collision with: 0 4 0  and 5 0 1 
16104700		 # 	collision with: 1 6 0  and 5 0 1 
16104702		 # 	collision with: 9 7 0  and 5 0 1 
16104708		 # 	collision with: 4 1 0  and 2 3 0 
16104740		 # 	collision with: 2 4 0  and 7 5 0 
16104742		 # 	collision with: 5 2 0  and 5 0 1 
16104749		 # 	collision with: 2 9 0  and 1 0 1 
16104751		 # 	collision with: 3 1 0  and 3 0 1 
16104765		 # 	collision with: 10 4 0  and 4 5 0 
16104767		 # 	collision with: 8 5 0  and 0 0 1 
16104776		 # 	collision with: 4 1 0  and 8 3 0 
16104778		 # 	collision with: 6 1 0  and 6 0 1 
16104780		 # 	collision with: 2 7 0  and 4 7 0 
16104782		 # 	collision with: 8 3 0  and 10 4 0 
16104800		 # 	collision with: 0 4 0  and 4 0 1 
16104802		 # 	collision with: 9 0 0  and 1 1 0 
16104822		 # 	collision with: 3 0 0  and 3 1 0 
16104860		 # 	collision with: 7 3 0  and 1 0 1 
16104862		 # 	collision with: 5 2 0  and 6 2 0 
16104868		 # 	collision with: 5 1 0  and 9 2 0 
16104870		 # 	collision with: 3 2 0  and 4 3 0 
16104892		 # 	collision with: 1 4 0  and 9 0 1 
16104894		 # 	collision with: 5 3 0  and 10 5 0 
16104900		 # 	collision with: 2 0 0  and 2 1 0 
16104902		 # 	collision with: 10 2 0  and 2 0 1 
16104940		 # 	collision with: 8 4 0  and 4 6 0 
16104942		 # 	collision with: 6 1 0  and 9 2 0 
16104962		 # 	collision with: 10 1 0  and 8 2 0 
16104969		 # 	collision with: 4 0 0  and 4 2 0 
16104971		 # 	collision with: 0 1 0  and 1 1 0 
16104980		 # 	collision with: 5 0 0  and 10 2 0 
16104982		 # 	collision with: 2 5 0  and 9 7 0 
16104984		 # 	collision with: 4 3 0  and 6 3 0 
16104986		 # 	collision with: 5 1 0  and 7 2 0 
16104997		 # 	collision with: 6 1 0  and 1 3 0 
16104999		 # 	collision with: 5 9 0  and 10 0 1 
16105020		 # 	collision with: 8 0 0  and 1 2 0 
16105022		 # 	collision with: 1 9 0  and 9 0 1 
16105052		 # 	collision with: 5 3 0  and 5 5 0 
16105054		 # 	collision with: 2 8 0  and 1 0 1 
16105060		 # 	collision with: 9 1 0  and 1 2 0 
16105076		 # 	collision with: 7 1 0  and 2 2 0 
16105078		 # 	collision with: 8 5 0  and 2 6 0 
16105085		 # 	collision with: 9 4 0  and 9 6 0 
16105087		 # 	collision with: 1 9 0  and 3 9 0 
16105097		 # 	collision with: 1 3 0  and 3 0 1 
16105099		 # 	collision with: 1 4 0  and 5 6 0 
16105100		 # 	collision with: 1 8 0  and 7 0 1 
16105101		 # 	collision with: 3 2 0  and 6 4 0 
16105102		 # 	collision with: 4 1 0  and 5 0 1 
16105103		 # 	collision with: 0 3 0  and 7 5 0 
16105144		 # 	collision with: 0 5 0  and 2 0 1 
16105145		 # 	collision with: 10 6 0  and 8 0 1 
16105146		 # 	collision with: 1 1 0  and 8 1 1 
16105147		 # 	collision with: 1 5 0  and 8 6 0 
16105188		 # 	collision with: 10 1 0  and 3 2 1 
16105189		 # 	collision with: 0 3 0  and 4 5 0 
16105190		 # 	collision with: 6 0 0  and 8 1 1 
16105191		 # 	collision with: 3 3 0  and 6 0 1 
16105232		 # 	collision with: 6 2 0  and 5 0 1 
16105233		 # 	collision with: 4 10 0  and 8 0 1 
16105234		 # 	collision with: 7 9 0  and 7 1 1 
16105235		 # 	collision with: 6 3 0  and 9 0 1 
16105276		 # 	collision with: 10 7 0  and 4 1 1 
16105277		 # 	collision with: 3 1 0  and 5 3 0 
16105278		 # 	collision with: 4 9 0  and 6 0 1 
16105279		 # 	collision with: 6 1 0  and 0 2 0 
16105320		 # 	collision with: 10 6 0  and 1 0 1 
16105321		 # 	collision with: 9 0 0  and 1 1 0 
16105322		 # 	collision with: 0 0 0  and 1 1 1 
16105323		 # 	collision with: 10 8 0  and 0 0 1 
16105364		 # 	collision with: 2 5 0  and 4 0 1 
16105365		 # 	collision with: 10 1 0  and 8 2 0 
16105366		 # 	collision with: 5 4 0  and 6 2 1 
16105367		 # 	collision with: 2 0 0  and 1 1 0 
16105408		 # 	collision with: 10 9 0  and 9 2 1 
16105409		 # 	collision with: 6 4 0  and 0 5 0 
16105410		 # 	collision with: 3 8 0  and 1 1 1 
16105411		 # 	collision with: 2 7 0  and 0 0 1 
16105452		 # 	collision with: 0 6 0  and 2 0 1 
16105453		 # 	collision with: 2 8 0  and 4 0 1 
16105454		 # 	collision with: 8 5 0  and 8 1 1 
16105455		 # 	collision with: 8 4 0  and 5 6 0 
16105496		 # 	collision with: 5 8 0  and 0 0 1 
16105497		 # 	collision with: 9 4 0  and 3 6 0 
16105498		 # 	collision with: 10 1 0  and 0 0 1 
16105499		 # 	collision with: 4 8 0  and 5 0 1 
16105540		 # 	collision with: 8 2 0  and 7 0 1 
16105541		 # 	collision with: 2 4 0  and 1 1 1 
16105542		 # 	collision with: 7 9 0  and 9 0 1 
16105543		 # 	collision with: 5 3 0  and 0 4 0 
16105584		 # 	collision with: 4 4 0  and 9 6 0 
16105585		 # 	collision with: 3 4 0  and 8 6 0 
16105586		 # 	collision with: 1 1 0  and 6 3 0 
16105587		 # 	collision with: 6 9 0  and 0 0 1 
16105628		 # 	collision with: 9 6 0  and 7 0 1 
16105629		 # 	collision with: 1 1 0  and 1 0 1 
16105630		 # 	collision with: 8 9 0  and 2 2 1 
16105631		 # 	collision with: 5 3 0  and 1 5 0 
16105672		 # 	collision with: 10 4 0  and 4 6 0 
16105673		 # 	collision with: 0 4 0  and 5 5 0 
16105674		 # 	collision with: 6 1 0  and 0 3 0 
16105675		 # 	collision with: 0 6 0  and 7 0 1 
16105716		 # 	collision with: 3 4 0  and 8 6 0 
16105717		 # 	collision with: 5 3 0  and 9 5 0 
16105718		 # 	collision with: 2 1 0  and 7 3 0 
16105719		 # 	collision with: 5 0 0  and 9 2 0 
16105760		 # 	collision with: 8 4 0  and 2 6 0 
16105761		 # 	collision with: 3 1 0  and 3 0 1 
16105762		 # 	collision with: 8 1 0  and 2 3 0 
16105763		 # 	collision with: 0 1 0  and 5 2 0 
16105804		 # 	collision with: 5 4 0  and 10 6 0 
16105805		 # 	collision with: 8 7 0  and 7 0 1 
16105806		 # 	collision with: 0 1 0  and 5 3 0 
16105807		 # 	collision with: 2 4 0  and 5 5 1 
16105848		 # 	collision with: 1 4 0  and 6 6 0 
16105849		 # 	collision with: 7 0 0  and 8 2 0 
16105850		 # 	collision with: 4 1 0  and 9 3 0 
16105851		 # 	collision with: 7 0 0  and 6 1 0 
16105892		 # 	collision with: 2 4 0  and 7 6 0 
16105893		 # 	collision with: 1 6 0  and 6 0 1 
16105894		 # 	collision with: 3 1 0  and 8 3 0 
16105895		 # 	collision with: 1 10 0  and 8 0 1 
16105936		 # 	collision with: 9 4 0  and 3 6 0 
16105937		 # 	collision with: 8 2 0  and 0 4 0 
16105938		 # 	collision with: 7 1 0  and 1 3 0 
16105939		 # 	collision with: 2 4 0  and 10 6 0 
16105980		 # 	collision with: 6 4 0  and 0 6 0 
16105981		 # 	collision with: 3 0 0  and 6 1 0 
16105982		 # 	collision with: 10 1 0  and 4 3 0 
16105983		 # 	collision with: 7 0 1  and 3 1 1 
16106024		 # 	collision with: 0 4 0  and 5 6 0 
16106025		 # 	collision with: 10 1 0  and 10 0 1 
16106026		 # 	collision with: 5 1 0  and 10 3 0 
16106027		 # 	collision with: 3 8 0  and 0 0 1 
16106068		 # 	collision with: 2 2 0  and 6 3 0 
16106069		 # 	collision with: 10 2 0  and 8 0 1 
16106070		 # 	collision with: 8 4 0  and 5 6 0 
16106071		 # 	collision with: 7 5 0  and 5 7 0 
16106112		 # 	collision with: 7 2 0  and 0 3 0 
16106113		 # 	collision with: 3 5 0  and 4 0 1 
16106114		 # 	collision with: 10 4 0  and 7 6 0 
16106115		 # 	collision with: 7 5 0  and 5 7 0 
16106156		 # 	collision with: 9 2 0  and 2 3 0 
16106157		 # 	collision with: 4 6 0  and 10 7 0 
16106158		 # 	collision with: 2 4 0  and 10 6 0 
16106159		 # 	collision with: 7 5 0  and 5 7 0 
16106200		 # 	collision with: 5 2 0  and 9 3 0 
16106201		 # 	collision with: 9 1 0  and 7 2 0 
16106202		 # 	collision with: 7 4 0  and 4 6 0 
16106203		 # 	collision with: 7 5 0  and 5 7 0 
16106244		 # 	collision with: 8 2 0  and 1 3 0 
16106245		 # 	collision with: 8 4 0  and 2 6 0 
16106246		 # 	collision with: 6 4 0  and 3 6 0 
16106247		 # 	collision with: 5 1 0  and 10 2 0 
16106288		 # 	collision with: 6 2 0  and 10 3 0 
16106289		 # 	collision with: 7 3 0  and 6 1 1 
16106290		 # 	collision with: 3 4 0  and 0 6 0 
16106291		 # 	collision with: 7 5 0  and 5 7 0 
16106332		 # 	collision with: 1 10 0  and 1 0 1 
16106333		 # 	collision with: 1 3 0  and 0 4 0 
16106334		 # 	collision with: 0 7 0  and 5 0 1 
16106335		 # 	collision with: 7 5 0  and 5 7 0 
16106376		 # 	collision with: 3 2 0  and 7 3 0 
16106377		 # 	collision with: 9 2 0  and 2 3 0 
16106378		 # 	collision with: 4 4 0  and 1 6 0 
16106379		 # 	collision with: 7 5 0  and 5 7 0 
16106420		 # 	collision with: 1 2 0  and 5 3 0 
16106421		 # 	collision with: 10 2 0  and 1 1 1 
16106422		 # 	collision with: 1 4 0  and 9 6 0 
16106423		 # 	collision with: 4 3 0  and 10 4 0 
16106464		 # 	collision with: 4 2 0  and 8 3 0 
16106465		 # 	collision with: 10 3 0  and 3 5 0 
16106466		 # 	collision with: 0 4 0  and 8 6 0 
16106467		 # 	collision with: 8 1 0  and 2 3 0 
16106508		 # 	collision with: 0 2 0  and 4 3 0 
16106509		 # 	collision with: 6 3 0  and 0 0 1 
16106510		 # 	collision with: 5 4 0  and 2 6 0 
16106511		 # 	collision with: 10 0 0  and 3 2 0 
16106552		 # 	collision with: 4 3 0  and 3 4 0 
16106553		 # 	collision with: 3 2 0  and 7 3 0 
16106554		 # 	collision with: 7 5 0  and 5 7 0 
16106555		 # 	collision with: 4 0 0  and 8 2 0 
16106596		 # 	collision with: 4 3 0  and 3 4 0 
16106597		 # 	collision with: 3 1 0  and 1 2 0 
16106598		 # 	collision with: 7 5 0  and 5 7 0 
16106599		 # 	collision with: 1 3 0  and 3 0 1 
16106640		 # 	collision with: 4 3 0  and 3 4 0 
16106641		 # 	collision with: 9 2 0  and 3 0 1 
16106642		 # 	collision with: 7 5 0  and 5 7 0 
16106643		 # 	collision with: 7 4 0  and 3 0 1 
16106684		 # 	collision with: 4 3 0  and 3 4 0 
16106685		 # 	collision with: 7 2 0  and 10 4 0 
16106686		 # 	collision with: 7 5 0  and 5 7 0 
16106687		 # 	collision with: 2 4 0  and 3 5 0 
16106728		 # 	collision with: 1 3 0  and 0 4 0 
16106729		 # 	collision with: 2 0 0  and 5 1 0 
16106730		 # 	collision with: 2 0 0  and 1 1 0 
16106731		 # 	collision with: 10 1 0  and 4 2 0 
16106772		 # 	collision with: 4 3 0  and 3 4 0 
16106773		 # 	collision with: 2 4 0  and 7 6 0 
16106774		 # 	collision with: 7 5 0  and 5 7 0 
16106775		 # 	collision with: 2 8 0  and 2 0 1 
16106816		 # 	collision with: 4 3 0  and 3 4 0 
16106817		 # 	collision with: 7 1 0  and 9 3 0 
16106818		 # 	collision with: 7 5 0  and 5 7 0 
16106819		 # 	collision with: 6 0 0  and 5 1 0 
16106860		 # 	collision with: 4 3 0  and 3 4 0 
16106861		 # 	collision with: 1 5 0  and 9 0 1 
16106862		 # 	collision with: 7 5 0  and 5 7 0 
16106863		 # 	collision with: 2 1 0  and 7 3 0 
16106904		 # 	collision with: 4 3 0  and 3 4 0 
16106905		 # 	collision with: 1 8 0  and 2 0 1 
16106906		 # 	collision with: 7 5 0  and 5 7 0 
16106907		 # 	collision with: 6 2 0  and 1 4 0 
16106948		 # 	collision with: 4 3 0  and 3 4 0 
16106949		 # 	collision with: 7 6 0  and 4 0 1 
16106950		 # 	collision with: 7 5 0  and 5 7 0 
16106951		 # 	collision with: 5 5 0  and 1 6 0 
16106992		 # 	collision with: 4 3 0  and 3 4 0 
16106993		 # 	collision with: 6 0 0  and 7 2 0 
16106994		 # 	collision with: 7 5 0  and 5 7 0 
16106995		 # 	collision with: 1 8 0  and 1 0 1 
16107036		 # 	collision with: 3 3 0  and 7 5 0 
16107037		 # 	collision with: 4 4 0  and 9 5 0 
16107038		 # 	collision with: 0 0 0  and 4 2 0 
16107039		 # 	collision with: 7 4 0  and 8 5 0 
16107080		 # 	collision with: 4 3 0  and 8 5 0 
16107081		 # 	collision with: 0 0 0  and 1 1 1 
16107082		 # 	collision with: 2 0 0  and 6 2 0 
16107083		 # 	collision with: 1 4 0  and 4 0 1 
16107124		 # 	collision with: 7 3 0  and 0 5 0 
16107125		 # 	collision with: 8 2 0  and 1 3 0 
16107126		 # 	collision with: 8 0 0  and 1 2 0 
16107127		 # 	collision with: 5 9 0  and 9 0 1 
16107168		 # 	collision with: 4 9 0  and 9 0 1 
16107169		 # 	collision with: 9 7 0  and 9 1 1 
16107170		 # 	collision with: 1 3 0  and 3 0 1 
16107171		 # 	collision with: 3 3 0  and 9 4 0 
16107212		 # 	collision with: 6 3 0  and 10 5 0 
16107213		 # 	collision with: 0 0 0  and 1 2 0 
16107214		 # 	collision with: 6 0 0  and 10 2 0 
16107215		 # 	collision with: 4 1 0  and 9 2 0 
16107256		 # 	collision with: 9 3 0  and 2 5 0 
16107257		 # 	collision with: 2 4 0  and 0 0 1 
16107258		 # 	collision with: 2 6 0  and 4 7 0 
16107259		 # 	collision with: 10 5 0  and 6 6 0 
16107300		 # 	collision with: 10 3 0  and 3 5 0 
16107301		 # 	collision with: 0 3 0  and 10 4 0 
16107302		 # 	collision with: 3 0 0  and 7 2 0 
16107303		 # 	collision with: 0 0 0  and 10 1 0 
16107344		 # 	collision with: 5 3 0  and 9 5 0 
16107345		 # 	collision with: 1 1 0  and 3 3 0 
16107346		 # 	collision with: 4 0 0  and 8 2 0 
16107347		 # 	collision with: 9 0 0  and 2 2 0 
16107388		 # 	collision with: 2 3 0  and 6 5 0 
16107389		 # 	collision with: 7 0 0  and 10 1 0 
16107390		 # 	collision with: 9 0 0  and 2 2 0 
16107391		 # 	collision with: 6 4 0  and 3 6 0 
16107432		 # 	collision with: 0 3 0  and 4 5 0 
16107433		 # 	collision with: 1 2 0  and 4 4 0 
16107434		 # 	collision with: 5 0 0  and 9 2 0 
16107435		 # 	collision with: 9 3 0  and 5 5 0 
16107476		 # 	collision with: 8 3 0  and 1 5 0 
16107477		 # 	collision with: 1 5 0  and 5 0 1 
16107478		 # 	collision with: 10 0 0  and 3 2 0 
16107479		 # 	collision with: 10 5 0  and 4 1 1 
16107520		 # 	collision with: 8 0 0  and 9 2 0 
16107521		 # 	collision with: 2 1 0  and 0 2 0 
16107522		 # 	collision with: 8 3 0  and 3 4 0 
16107523		 # 	collision with: 5 2 0  and 0 4 0 
16107564		 # 	collision with: 5 0 0  and 6 2 0 
16107565		 # 	collision with: 2 2 0  and 6 3 0 
16107566		 # 	collision with: 1 3 0  and 7 4 0 
16107567		 # 	collision with: 1 1 0  and 6 3 0 
16107608		 # 	collision with: 9 0 0  and 10 2 0 
16107609		 # 	collision with: 6 1 0  and 8 3 0 
16107610		 # 	collision with: 3 3 0  and 9 4 0 
16107611		 # 	collision with: 1 4 0  and 2 5 0 
16107652		 # 	collision with: 7 0 0  and 8 2 0 
16107653		 # 	collision with: 1 2 0  and 9 0 1 
16107654		 # 	collision with: 2 3 0  and 8 4 0 
16107655		 # 	collision with: 6 7 0  and 4 1 1 
16107696		 # 	collision with: 2 0 0  and 3 2 0 
16107697		 # 	collision with: 1 8 0  and 3 1 1 
16107698		 # 	collision with: 5 3 0  and 0 4 0 
16107699		 # 	collision with: 9 1 0  and 3 2 0 
16107740		 # 	collision with: 0 0 0  and 1 2 0 
16107741		 # 	collision with: 4 0 0  and 7 1 1 
16107742		 # 	collision with: 4 3 0  and 10 4 0 
16107743		 # 	collision with: 6 4 0  and 5 0 1 
16107784		 # 	collision with: 4 0 0  and 5 2 0 
16107785		 # 	collision with: 5 3 0  and 4 4 0 
16107786		 # 	collision with: 6 3 0  and 1 4 0 
16107787		 # 	collision with: 5 0 0  and 4 1 0 
16107828		 # 	collision with: 4 6 0  and 10 7 0 
16107829		 # 	collision with: 1 10 0  and 7 0 1 
16107830		 # 	collision with: 10 3 0  and 5 4 0 
16107831		 # 	collision with: 8 3 0  and 3 4 0 
16107872		 # 	collision with: 3 0 0  and 4 2 0 
16107873		 # 	collision with: 5 0 0  and 6 2 0 
16107874		 # 	collision with: 0 3 0  and 6 4 0 
16107875		 # 	collision with: 0 4 0  and 8 6 0 
16107916		 # 	collision with: 4 7 0  and 2 0 1 
16107917		 # 	collision with: 9 4 0  and 3 5 0 
16107918		 # 	collision with: 8 5 0  and 10 0 1 
16107919		 # 	collision with: 8 0 0  and 2 1 1 
16107960		 # 	collision with: 6 0 0  and 7 2 0 
16107961		 # 	collision with: 6 2 0  and 9 4 0 
16107962		 # 	collision with: 7 3 0  and 2 4 0 
16107963		 # 	collision with: 4 5 0  and 0 6 0 
16108004		 # 	collision with: 6 4 0  and 0 5 0 
16108005		 # 	collision with: 7 5 0  and 3 0 1 
16108006		 # 	collision with: 3 1 0  and 8 2 0 
16108007		 # 	collision with: 9 5 0  and 5 6 0 
16108048		 # 	collision with: 4 4 0  and 9 5 0 
16108049		 # 	collision with: 1 1 0  and 3 0 1 
16108050		 # 	collision with: 5 1 0  and 10 2 0 
16108051		 # 	collision with: 2 3 0  and 8 4 0 
16108092		 # 	collision with: 9 1 1  and 10 2 1 
16108093		 # 	collision with: 7 1 0  and 5 2 0 
16108094		 # 	collision with: 9 7 0  and 9 0 1 
16108095		 # 	collision with: 9 7 0  and 5 0 1 
16108136		 # 	collision with: 1 4 0  and 6 5 0 
16108137		 # 	collision with: 3 4 0  and 8 5 0 
16108138		 # 	collision with: 8 1 0  and 2 2 0 
16108139		 # 	collision with: 0 7 0  and 5 1 1 
16108180		 # 	collision with: 10 4 0  and 4 5 0 
16108181		 # 	collision with: 7 2 0  and 0 3 0 
16108182		 # 	collision with: 10 1 0  and 4 2 0 
16108183		 # 	collision with: 3 1 0  and 8 2 0 
16108224		 # 	collision with: 2 4 0  and 7 5 0 
16108225		 # 	collision with: 3 3 0  and 8 1 1 
16108226		 # 	collision with: 7 1 0  and 1 2 0 
16108227		 # 	collision with: 6 1 0  and 0 3 0 
16108268		 # 	collision with: 9 4 0  and 3 5 0 
16108269		 # 	collision with: 10 3 0  and 9 4 0 
16108270		 # 	collision with: 0 1 0  and 5 2 0 
16108271		 # 	collision with: 10 0 0  and 9 1 0 
16108312		 # 	collision with: 0 4 0  and 5 5 0 
16108313		 # 	collision with: 8 3 0  and 1 5 0 
16108314		 # 	collision with: 9 1 0  and 3 2 0 
16108315		 # 	collision with: 9 5 0  and 3 0 1 
16108356		 # 	collision with: 5 4 0  and 10 5 0 
16108357		 # 	collision with: 6 2 0  and 3 1 1 
16108358		 # 	collision with: 4 1 0  and 9 2 0 
16108359		 # 	collision with: 5 4 0  and 2 6 0 
16108400		 # 	collision with: 7 4 0  and 1 5 0 
16108401		 # 	collision with: 3 7 0  and 4 1 1 
16108402		 # 	collision with: 2 1 0  and 7 2 0 
16108403		 # 	collision with: 8 0 0  and 1 2 0 
16108444		 # 	collision with: 3 4 0  and 8 5 0 
16108445		 # 	collision with: 6 0 0  and 9 1 0 
16108446		 # 	collision with: 6 1 0  and 0 2 0 
16108447		 # 	collision with: 1 1 0  and 7 0 1 
16108488		 # 	collision with: 6 1 0  and 4 2 0 
16108489		 # 	collision with: 4 3 0  and 3 4 0 
16108490		 # 	collision with: 4 3 0  and 0 5 0 
16108491		 # 	collision with: 0 1 0  and 5 3 0 
16108532		 # 	collision with: 0 1 0  and 9 2 0 
16108533		 # 	collision with: 4 3 0  and 3 4 0 
16108534		 # 	collision with: 0 3 0  and 7 5 0 
16108535		 # 	collision with: 1 5 0  and 2 0 1 
16108576		 # 	collision with: 3 1 0  and 1 2 0 
16108577		 # 	collision with: 4 3 0  and 3 4 0 
16108578		 # 	collision with: 2 3 0  and 9 5 0 
16108579		 # 	collision with: 2 0 0  and 6 2 0 
16108620		 # 	collision with: 5 1 0  and 3 2 0 
16108621		 # 	collision with: 4 0 0  and 5 2 0 
16108622		 # 	collision with: 7 3 0  and 3 5 0 
16108623		 # 	collision with: 2 3 0  and 9 5 0 
16108664		 # 	collision with: 8 1 0  and 6 2 0 
16108665		 # 	collision with: 4 3 0  and 3 4 0 
16108666		 # 	collision with: 9 3 0  and 5 5 0 
16108667		 # 	collision with: 8 1 0  and 2 2 0 
16108708		 # 	collision with: 2 1 0  and 0 2 0 
16108709		 # 	collision with: 4 3 0  and 3 4 0 
16108710		 # 	collision with: 5 3 0  and 1 5 0 
16108711		 # 	collision with: 0 4 0  and 1 5 0 
16108752		 # 	collision with: 1 1 0  and 10 2 0 
16108753		 # 	collision with: 0 0 0  and 3 1 0 
16108754		 # 	collision with: 8 3 0  and 4 5 0 
16108755		 # 	collision with: 4 0 0  and 3 1 0 
16108796		 # 	collision with: 9 1 0  and 7 2 0 
16108797		 # 	collision with: 1 1 0  and 10 2 0 
16108798		 # 	collision with: 6 3 0  and 2 5 0 
16108799		 # 	collision with: 7 10 0  and 1 0 1 
16108840		 # 	collision with: 9 4 0  and 10 0 1 
16108841		 # 	collision with: 5 1 0  and 7 3 0 
16108842		 # 	collision with: 2 3 0  and 9 2 1 
16108843		 # 	collision with: 10 4 0  and 7 6 0 
16108884		 # 	collision with: 10 1 0  and 8 2 0 
16108885		 # 	collision with: 4 3 0  and 3 4 0 
16108886		 # 	collision with: 3 3 0  and 10 5 0 
16108887		 # 	collision with: 7 3 0  and 2 4 0 
16108928		 # 	collision with: 7 1 0  and 5 2 0 
16108929		 # 	collision with: 4 3 0  and 3 4 0 
16108930		 # 	collision with: 1 3 0  and 8 5 0 
16108931		 # 	collision with: 3 10 0  and 8 0 1 
16108972		 # 	collision with: 8 1 0  and 10 3 0 
16108973		 # 	collision with: 7 3 0  and 0 5 0 
16108974		 # 	collision with: 0 4 0  and 1 5 0 
16108975		 # 	collision with: 3 6 0  and 4 0 1 
16109016		 # 	collision with: 8 1 0  and 10 3 0 
16109017		 # 	collision with: 10 2 0  and 2 4 0 
16109018		 # 	collision with: 10 4 0  and 0 5 0 
16109019		 # 	collision with: 5 5 0  and 2 0 1 
16109060		 # 	collision with: 8 1 0  and 10 3 0 
16109061		 # 	collision with: 2 5 0  and 1 0 1 
16109062		 # 	collision with: 2 4 0  and 3 5 0 
16109063		 # 	collision with: 6 3 0  and 10 0 1 
16109104		 # 	collision with: 8 1 0  and 10 3 0 
16109105		 # 	collision with: 6 7 0  and 1 1 1 
16109106		 # 	collision with: 1 4 0  and 2 5 0 
16109107		 # 	collision with: 4 1 0  and 2 0 1 
16109148		 # 	collision with: 8 1 0  and 10 3 0 
16109149		 # 	collision with: 3 10 0  and 8 0 1 
16109150		 # 	collision with: 3 4 0  and 4 5 0 
16109151		 # 	collision with: 2 1 0  and 7 2 0 
16109192		 # 	collision with: 8 1 0  and 10 3 0 
16109193		 # 	collision with: 10 1 0  and 1 3 0 
16109194		 # 	collision with: 7 4 0  and 8 5 0 
16109195		 # 	collision with: 1 3 0  and 7 4 0 
16109236		 # 	collision with: 8 1 0  and 10 3 0 
16109237		 # 	collision with: 9 3 0  and 8 4 0 
16109238		 # 	collision with: 8 4 0  and 9 5 0 
16109239		 # 	collision with: 9 0 0  and 8 1 0 
16109280		 # 	collision with: 9 1 0  and 0 3 0 
16109281		 # 	collision with: 5 0 0  and 8 1 0 
16109282		 # 	collision with: 3 3 0  and 4 1 1 
16109283		 # 	collision with: 9 2 0  and 4 4 0 
16109324		 # 	collision with: 8 1 0  and 10 3 0 
16109325		 # 	collision with: 5 4 0  and 10 6 0 
16109326		 # 	collision with: 4 4 0  and 5 5 0 
16109327		 # 	collision with: 4 4 0  and 1 6 0 
16109368		 # 	collision with: 8 1 0  and 10 3 0 
16109369		 # 	collision with: 6 1 0  and 4 2 0 
16109370		 # 	collision with: 5 4 0  and 6 5 0 
16109371		 # 	collision with: 8 8 0  and 10 0 1 
16109412		 # 	collision with: 8 1 0  and 10 3 0 
16109413		 # 	collision with: 2 9 0  and 9 0 1 
16109414		 # 	collision with: 9 4 0  and 10 5 0 
16109415		 # 	collision with: 5 1 0  and 10 3 0 
16109456		 # 	collision with: 8 2 0  and 0 4 0 
16109457		 # 	collision with: 4 1 0  and 6 3 0 
16109458		 # 	collision with: 3 5 0  and 10 6 0 
16109459		 # 	collision with: 9 4 0  and 6 6 0 
16109500		 # 	collision with: 6 2 0  and 9 4 0 
16109501		 # 	collision with: 3 0 0  and 4 2 0 
16109502		 # 	collision with: 6 5 0  and 2 6 0 
16109503		 # 	collision with: 9 4 0  and 6 6 0 
16109544		 # 	collision with: 10 2 0  and 2 4 0 
16109545		 # 	collision with: 4 7 0  and 4 0 1 
16109546		 # 	collision with: 0 5 0  and 7 6 0 
16109547		 # 	collision with: 9 4 0  and 6 6 0 
16109588		 # 	collision with: 7 2 0  and 10 4 0 
16109589		 # 	collision with: 10 0 0  and 2 1 0 
16109590		 # 	collision with: 10 5 0  and 6 6 0 
16109591		 # 	collision with: 9 4 0  and 6 6 0 
16109632		 # 	collision with: 9 2 0  and 1 4 0 
16109633		 # 	collision with: 4 2 0  and 7 4 0 
16109634		 # 	collision with: 7 5 0  and 3 6 0 
16109635		 # 	collision with: 7 1 0  and 1 2 0 
16109676		 # 	collision with: 6 6 0  and 5 0 1 
16109677		 # 	collision with: 0 1 0  and 9 2 0 
16109678		 # 	collision with: 3 5 0  and 1 1 1 
16109679		 # 	collision with: 3 2 0  and 9 4 0 
16109720		 # 	collision with: 1 2 0  and 4 4 0 
16109721		 # 	collision with: 3 3 0  and 2 4 0 
16109722		 # 	collision with: 8 5 0  and 4 6 0 
16109723		 # 	collision with: 3 0 0  and 2 1 0 
16109764		 # 	collision with: 3 2 0  and 6 4 0 
16109765		 # 	collision with: 10 4 0  and 4 6 0 
16109766		 # 	collision with: 5 5 0  and 1 6 0 
16109767		 # 	collision with: 9 4 0  and 6 6 0 
16109808		 # 	collision with: 0 2 0  and 3 4 0 
16109809		 # 	collision with: 1 7 0  and 1 0 1 
16109810		 # 	collision with: 4 5 0  and 0 6 0 
16109811		 # 	collision with: 10 1 0  and 4 3 0 
16109852		 # 	collision with: 4 2 0  and 7 4 0 
16109853		 # 	collision with: 0 2 0  and 4 3 0 
16109854		 # 	collision with: 9 5 0  and 5 6 0 
16109855		 # 	collision with: 9 4 0  and 6 6 0 
16109896		 # 	collision with: 2 2 0  and 5 4 0 
16109897		 # 	collision with: 7 4 0  and 1 5 0 
16109898		 # 	collision with: 1 5 0  and 8 6 0 
16109899		 # 	collision with: 9 4 0  and 6 6 0 
16109940		 # 	collision with: 5 0 0  and 8 1 0 
16109941		 # 	collision with: 4 0 0  and 7 1 0 
16109942		 # 	collision with: 6 2 0  and 1 4 0 
16109943		 # 	collision with: 1 1 0  and 6 2 0 
16109984		 # 	collision with: 5 5 0  and 0 7 0 
16109985		 # 	collision with: 9 1 0  and 0 3 0 
16109986		 # 	collision with: 8 2 0  and 3 4 0 
16109987		 # 	collision with: 1 1 0  and 6 2 0 
6.82368secs	4290
