# prime 11
# degree 2
# input variables 3
# output variables 3
# reload computed balance functions from file balance-1367of3248-p11d2m3-debug.log
# p = 11
# n = 3
# smalldomain p^m 1331
# domain p^n 1331
#	 p^2 = 121
#	 p^3 = 1331
#	 p^4 = 14641
#	 p^5 = 161051
#	 p^6 = 1771561
#	 p^7 = 19487171
#	 p^8 = 214358881
#	 p^9 = 2357947691
opening file : balance-1367of3248-p11d2m3-debug.log
reloading for step2...
8202004		 # 	collision with: 10 1 0  and 9 2 0 
8202006		 # 	collision with: 2 0 0  and 0 1 0 
8202021		 # 	collision with: 4 4 0  and 7 6 0 
8202023		 # 	collision with: 10 1 0  and 7 2 0 
8202027		 # 	collision with: 6 2 0  and 10 4 0 
8202045		 # 	collision with: 5 0 0  and 2 2 0 
8202047		 # 	collision with: 9 3 0  and 5 0 1 
8202077		 # 	collision with: 10 0 0  and 1 1 0 
8202079		 # 	collision with: 1 10 0  and 3 0 1 
8202080		 # 	collision with: 1 5 0  and 6 6 0 
8202082		 # 	collision with: 2 0 0  and 0 1 0 
8202084		 # 	collision with: 4 10 0  and 0 0 1 
8202086		 # 	collision with: 2 0 0  and 0 1 0 
8202112		 # 	collision with: 9 10 0  and 8 0 1 
8202114		 # 	collision with: 2 0 0  and 0 1 0 
8202128		 # 	collision with: 1 3 0  and 8 5 0 
8202130		 # 	collision with: 2 0 0  and 0 1 0 
8202144		 # 	collision with: 4 4 0  and 5 4 0 
8202146		 # 	collision with: 2 0 0  and 0 1 0 
8202172		 # 	collision with: 7 2 0  and 5 3 0 
8202174		 # 	collision with: 2 0 0  and 0 1 0 
8202178		 # 	collision with: 2 0 0  and 0 1 0 
8202181		 # 	collision with: 9 3 0  and 0 5 0 
8202183		 # 	collision with: 5 1 0  and 5 2 0 
8202213		 # 	collision with: 8 5 0  and 4 6 0 
8202215		 # 	collision with: 10 3 0  and 7 4 0 
8202216		 # 	collision with: 3 1 0  and 10 3 0 
8202218		 # 	collision with: 2 0 0  and 0 1 0 
8202233		 # 	collision with: 5 4 0  and 4 0 1 
8202235		 # 	collision with: 5 0 0  and 9 2 0 
8202239		 # 	collision with: 4 6 0  and 1 2 1 
8202252		 # 	collision with: 2 2 0  and 10 4 0 
8202254		 # 	collision with: 2 0 0  and 0 1 0 
8202260		 # 	collision with: 5 4 0  and 3 5 0 
8202262		 # 	collision with: 2 0 0  and 0 1 0 
8202273		 # 	collision with: 9 6 0  and 7 2 1 
8202275		 # 	collision with: 5 2 0  and 10 0 1 
8202284		 # 	collision with: 9 0 1  and 8 2 1 
8202286		 # 	collision with: 2 0 0  and 0 1 0 
8202304		 # 	collision with: 9 0 0  and 7 1 0 
8202306		 # 	collision with: 2 0 0  and 0 1 0 
8202316		 # 	collision with: 5 2 0  and 1 3 0 
8202348		 # 	collision with: 1 2 0  and 4 3 0 
8202350		 # 	collision with: 6 0 0  and 9 1 0 
8202424		 # 	collision with: 4 0 0  and 4 1 0 
8202426		 # 	collision with: 9 0 0  and 6 2 0 
8202436		 # 	collision with: 6 3 0  and 9 4 0 
8202438		 # 	collision with: 5 2 0  and 8 3 0 
8202456		 # 	collision with: 9 0 0  and 7 1 0 
8202458		 # 	collision with: 2 2 0  and 2 3 0 
8202469		 # 	collision with: 9 1 0  and 2 2 0 
8202471		 # 	collision with: 4 7 0  and 5 1 1 
8202480		 # 	collision with: 1 4 0  and 7 6 0 
8202482		 # 	collision with: 9 5 0  and 1 6 0 
8202488		 # 	collision with: 5 1 0  and 5 3 0 
8202490		 # 	collision with: 5 1 0  and 5 2 0 
8202505		 # 	collision with: 0 4 0  and 7 6 0 
8202507		 # 	collision with: 5 1 0  and 8 3 0 
8202509		 # 	collision with: 10 0 0  and 1 1 0 
8202511		 # 	collision with: 4 4 0  and 5 4 0 
8202524		 # 	collision with: 7 1 0  and 10 2 0 
8202526		 # 	collision with: 0 3 0  and 6 5 0 
8202531		 # 	collision with: 10 3 0  and 1 4 0 
8202561		 # 	collision with: 2 1 0  and 7 3 0 
8202563		 # 	collision with: 5 2 0  and 8 3 0 
8202564		 # 	collision with: 1 1 0  and 1 2 0 
8202566		 # 	collision with: 1 6 0  and 1 7 0 
8202568		 # 	collision with: 3 0 0  and 9 2 0 
8202570		 # 	collision with: 6 2 0  and 1 4 0 
8202596		 # 	collision with: 3 4 0  and 3 5 0 
8202598		 # 	collision with: 3 3 0  and 3 5 0 
8202612		 # 	collision with: 2 2 0  and 8 4 0 
8202614		 # 	collision with: 0 1 0  and 3 2 0 
8202628		 # 	collision with: 8 0 0  and 8 2 0 
8202630		 # 	collision with: 8 0 0  and 8 1 0 
8202656		 # 	collision with: 0 4 0  and 3 5 0 
8202658		 # 	collision with: 4 4 0  and 7 5 0 
8202660		 # 	collision with: 2 4 0  and 3 4 0 
8202662		 # 	collision with: 1 4 0  and 3 4 0 
8202667		 # 	collision with: 7 5 0  and 4 0 1 
8202697		 # 	collision with: 1 3 0  and 8 5 0 
8202699		 # 	collision with: 6 2 0  and 9 4 0 
8202700		 # 	collision with: 8 1 0  and 3 3 0 
8202702		 # 	collision with: 5 4 0  and 0 6 0 
8202717		 # 	collision with: 6 3 0  and 8 4 0 
8202719		 # 	collision with: 1 4 0  and 0 6 0 
8202721		 # 	collision with: 10 4 0  and 3 5 0 
8202723		 # 	collision with: 4 9 0  and 0 0 1 
8202736		 # 	collision with: 6 3 0  and 6 4 0 
8202744		 # 	collision with: 5 5 0  and 8 6 0 
8202746		 # 	collision with: 7 0 0  and 2 2 0 
8202757		 # 	collision with: 3 1 0  and 5 0 1 
8202759		 # 	collision with: 0 5 0  and 2 6 0 
8202768		 # 	collision with: 9 2 0  and 9 3 0 
8202770		 # 	collision with: 9 1 0  and 9 3 0 
8202788		 # 	collision with: 2 10 0  and 2 0 1 
8202790		 # 	collision with: 3 6 0  and 6 0 1 
8202802		 # 	collision with: 0 1 0  and 4 3 0 
8202832		 # 	collision with: 6 3 0  and 3 5 0 
8202834		 # 	collision with: 2 1 0  and 6 2 0 
8202876		 # 	collision with: 10 4 0  and 7 6 0 
8202878		 # 	collision with: 10 3 0  and 7 5 0 
8202908		 # 	collision with: 10 1 0  and 8 0 1 
8202910		 # 	collision with: 9 2 0  and 5 3 0 
8202920		 # 	collision with: 9 1 0  and 6 3 0 
8202922		 # 	collision with: 2 1 0  and 10 3 0 
8202942		 # 	collision with: 1 9 0  and 10 1 1 
8202953		 # 	collision with: 7 4 0  and 2 0 1 
8202955		 # 	collision with: 5 6 0  and 4 0 1 
8202964		 # 	collision with: 2 2 0  and 10 4 0 
8202966		 # 	collision with: 3 4 0  and 7 5 0 
8202972		 # 	collision with: 10 0 0  and 1 2 0 
8202974		 # 	collision with: 1 2 0  and 0 3 0 
8202989		 # 	collision with: 8 3 0  and 1 5 0 
8202991		 # 	collision with: 1 1 0  and 10 2 0 
8202993		 # 	collision with: 10 6 0  and 0 0 1 
8202995		 # 	collision with: 4 2 0  and 4 0 1 
8203008		 # 	collision with: 5 0 0  and 2 2 0 
8203010		 # 	collision with: 3 4 0  and 0 6 0 
8203013		 # 	collision with: 6 3 0  and 9 4 0 
8203015		 # 	collision with: 10 3 0  and 10 4 0 
8203045		 # 	collision with: 3 3 0  and 6 5 0 
8203047		 # 	collision with: 3 6 0  and 7 0 1 
8203048		 # 	collision with: 1 6 0  and 7 0 1 
8203050		 # 	collision with: 0 0 0  and 1 1 1 
8203052		 # 	collision with: 2 2 0  and 6 3 0 
8203054		 # 	collision with: 9 0 0  and 2 1 0 
8203080		 # 	collision with: 0 4 0  and 7 6 0 
8203082		 # 	collision with: 6 1 0  and 6 0 1 
8203096		 # 	collision with: 9 1 0  and 2 2 0 
8203098		 # 	collision with: 10 3 0  and 3 4 0 
8203112		 # 	collision with: 7 1 0  and 4 2 1 
8203140		 # 	collision with: 5 3 0  and 5 0 1 
8203142		 # 	collision with: 7 5 0  and 1 0 1 
8203144		 # 	collision with: 1 4 0  and 7 6 0 
8203146		 # 	collision with: 4 1 0  and 9 2 0 
8203149		 # 	collision with: 4 1 0  and 0 2 0 
8203151		 # 	collision with: 6 2 0  and 7 4 0 
8203181		 # 	collision with: 3 4 0  and 7 6 0 
8203184		 # 	collision with: 3 5 0  and 7 6 0 
8203186		 # 	collision with: 6 2 0  and 10 3 0 
8203201		 # 	collision with: 8 8 0  and 5 0 1 
8203203		 # 	collision with: 10 3 0  and 4 4 0 
8203205		 # 	collision with: 3 6 0  and 7 2 1 
8203220		 # 	collision with: 0 4 0  and 1 4 0 
8203222		 # 	collision with: 6 2 0  and 1 4 0 
8203241		 # 	collision with: 5 7 0  and 7 1 1 
8203243		 # 	collision with: 7 5 0  and 0 6 0 
8203252		 # 	collision with: 4 1 0  and 0 2 0 
8203254		 # 	collision with: 2 9 0  and 9 0 1 
8203272		 # 	collision with: 5 0 0  and 9 1 0 
8203274		 # 	collision with: 9 0 0  and 6 2 0 
8203284		 # 	collision with: 7 7 0  and 0 0 1 
8203286		 # 	collision with: 6 0 0  and 3 2 1 
8203316		 # 	collision with: 10 5 0  and 5 6 0 
8203318		 # 	collision with: 4 0 0  and 10 1 0 
8203360		 # 	collision with: 0 1 0  and 1 3 0 
8203362		 # 	collision with: 10 4 0  and 0 6 0 
8203392		 # 	collision with: 0 0 0  and 3 2 0 
8203394		 # 	collision with: 6 2 0  and 2 4 0 
8203404		 # 	collision with: 9 0 0  and 10 2 0 
8203406		 # 	collision with: 3 5 0  and 9 6 0 
8203424		 # 	collision with: 10 4 0  and 3 5 0 
8203426		 # 	collision with: 6 2 0  and 5 4 0 
8203437		 # 	collision with: 1 4 0  and 2 4 0 
8203439		 # 	collision with: 10 3 0  and 0 4 0 
8203448		 # 	collision with: 4 3 0  and 5 5 0 
8203450		 # 	collision with: 8 3 0  and 9 5 0 
8203456		 # 	collision with: 6 0 0  and 4 2 0 
8203458		 # 	collision with: 5 0 0  and 4 1 0 
8203473		 # 	collision with: 7 3 0  and 2 5 0 
8203475		 # 	collision with: 4 2 0  and 6 3 0 
8203477		 # 	collision with: 8 0 0  and 2 1 0 
8203479		 # 	collision with: 7 1 0  and 8 2 0 
8203492		 # 	collision with: 2 2 0  and 3 4 0 
8203494		 # 	collision with: 1 4 0  and 7 5 0 
8203497		 # 	collision with: 0 0 0  and 3 2 0 
8203499		 # 	collision with: 2 1 0  and 10 3 0 
8203529		 # 	collision with: 7 3 0  and 2 5 0 
8203531		 # 	collision with: 9 0 0  and 2 1 0 
8203532		 # 	collision with: 8 1 0  and 3 3 0 
8203536		 # 	collision with: 6 4 0  and 7 6 0 
8203538		 # 	collision with: 10 3 0  and 5 4 0 
8203566		 # 	collision with: 2 5 0  and 3 6 0 
8203596		 # 	collision with: 1 5 0  and 3 1 1 
8203598		 # 	collision with: 8 0 0  and 8 2 1 
8203624		 # 	collision with: 8 4 0  and 3 5 0 
8203626		 # 	collision with: 2 0 0  and 3 2 0 
8203628		 # 	collision with: 6 1 0  and 1 0 1 
8203630		 # 	collision with: 9 5 0  and 1 6 0 
8203633		 # 	collision with: 2 4 0  and 3 4 0 
8203635		 # 	collision with: 4 4 0  and 7 5 0 
8203665		 # 	collision with: 2 0 0  and 5 1 0 
8203667		 # 	collision with: 0 5 0  and 2 6 0 
8203668		 # 	collision with: 1 8 0  and 10 0 1 
8203670		 # 	collision with: 5 8 0  and 3 0 1 
8203685		 # 	collision with: 7 3 0  and 2 5 0 
8203687		 # 	collision with: 3 1 0  and 2 3 0 
8203689		 # 	collision with: 7 3 0  and 2 5 0 
8203691		 # 	collision with: 4 6 0  and 5 0 1 
8203704		 # 	collision with: 9 4 0  and 3 5 0 
8203706		 # 	collision with: 3 7 0  and 2 0 1 
8203712		 # 	collision with: 0 0 0  and 6 1 0 
8203714		 # 	collision with: 6 2 0  and 7 4 0 
8203725		 # 	collision with: 9 1 0  and 2 2 0 
8203727		 # 	collision with: 10 2 0  and 3 0 1 
8203736		 # 	collision with: 3 4 0  and 5 4 0 
8203738		 # 	collision with: 5 1 0  and 8 3 0 
8203756		 # 	collision with: 2 1 0  and 8 2 0 
8203758		 # 	collision with: 8 2 0  and 3 3 0 
8203768		 # 	collision with: 1 3 0  and 8 5 0 
8203770		 # 	collision with: 2 4 0  and 0 0 1 
8203800		 # 	collision with: 5 4 0  and 7 6 0 
8203802		 # 	collision with: 10 1 0  and 1 3 0 
8203844		 # 	collision with: 7 0 0  and 8 1 0 
8203846		 # 	collision with: 4 6 0  and 8 0 1 
8203876		 # 	collision with: 5 4 0  and 7 6 0 
8203878		 # 	collision with: 7 1 0  and 3 3 0 
8203888		 # 	collision with: 5 4 0  and 7 6 0 
8203890		 # 	collision with: 7 1 0  and 8 2 0 
8203908		 # 	collision with: 3 0 0  and 10 1 0 
8203921		 # 	collision with: 9 3 0  and 0 5 0 
8203923		 # 	collision with: 10 3 0  and 1 4 0 
8203940		 # 	collision with: 8 0 0  and 2 1 0 
8203942		 # 	collision with: 6 2 0  and 10 3 0 
8203957		 # 	collision with: 4 4 0  and 6 4 0 
8203959		 # 	collision with: 5 2 0  and 8 3 0 
8203961		 # 	collision with: 6 1 0  and 8 3 0 
8203963		 # 	collision with: 5 3 0  and 1 5 0 
8203976		 # 	collision with: 5 4 0  and 7 6 0 
8203978		 # 	collision with: 10 3 0  and 0 4 0 
8203981		 # 	collision with: 0 4 0  and 3 5 0 
8203983		 # 	collision with: 7 6 0  and 0 0 1 
8204013		 # 	collision with: 7 6 0  and 1 2 1 
8204015		 # 	collision with: 4 4 0  and 0 6 0 
8204016		 # 	collision with: 2 2 0  and 6 4 0 
8204018		 # 	collision with: 3 3 0  and 0 0 1 
8204020		 # 	collision with: 5 4 0  and 7 6 0 
8204022		 # 	collision with: 3 0 0  and 5 2 0 
8204048		 # 	collision with: 5 4 0  and 7 6 0 
8204050		 # 	collision with: 7 4 0  and 0 6 0 
8204064		 # 	collision with: 5 4 0  and 7 6 0 
8204066		 # 	collision with: 9 4 0  and 0 6 0 
8204080		 # 	collision with: 5 4 0  and 7 6 0 
8204082		 # 	collision with: 5 2 0  and 9 1 1 
8204108		 # 	collision with: 5 4 0  and 7 6 0 
8204110		 # 	collision with: 2 3 0  and 4 5 0 
8204112		 # 	collision with: 5 4 0  and 7 6 0 
8204114		 # 	collision with: 9 1 0  and 9 0 1 
8204117		 # 	collision with: 6 3 0  and 8 4 0 
8204149		 # 	collision with: 2 4 0  and 3 4 0 
8204151		 # 	collision with: 2 1 1  and 1 2 1 
8204152		 # 	collision with: 5 4 0  and 7 6 0 
8204154		 # 	collision with: 3 2 0  and 4 3 0 
8204169		 # 	collision with: 3 3 0  and 6 5 0 
8204171		 # 	collision with: 4 5 0  and 3 7 0 
8204173		 # 	collision with: 10 10 0  and 5 0 1 
8204175		 # 	collision with: 10 9 0  and 1 0 1 
8204190		 # 	collision with: 7 1 0  and 0 0 1 
8204196		 # 	collision with: 5 4 0  and 7 6 0 
8204198		 # 	collision with: 2 5 0  and 3 6 0 
8204209		 # 	collision with: 1 3 0  and 3 0 1 
8204220		 # 	collision with: 2 2 0  and 9 4 0 
8204222		 # 	collision with: 1 5 0  and 4 0 1 
8204240		 # 	collision with: 5 4 0  and 7 6 0 
8204242		 # 	collision with: 0 0 0  and 1 1 0 
8204252		 # 	collision with: 1 4 0  and 3 4 0 
8204254		 # 	collision with: 1 4 0  and 2 4 0 
8204336		 # 	collision with: 0 9 0  and 1 0 1 
8204338		 # 	collision with: 4 0 0  and 6 0 0 
8204352		 # 	collision with: 7 4 0  and 6 5 0 
8204354		 # 	collision with: 4 0 0  and 6 0 0 
8204376		 # 	collision with: 3 2 0  and 9 4 0 
8204378		 # 	collision with: 4 0 0  and 6 0 0 
8204388		 # 	collision with: 5 4 0  and 0 2 1 
8204390		 # 	collision with: 4 0 0  and 6 0 0 
8204407		 # 	collision with: 9 1 0  and 9 3 0 
8204433		 # 	collision with: 2 4 0  and 1 6 0 
8204435		 # 	collision with: 4 1 0  and 10 3 0 
8204440		 # 	collision with: 2 3 0  and 1 0 1 
8204442		 # 	collision with: 4 0 0  and 6 0 0 
8204444		 # 	collision with: 9 0 1  and 5 1 1 
8204446		 # 	collision with: 4 0 0  and 6 0 0 
8204453		 # 	collision with: 8 8 0  and 5 0 1 
8204455		 # 	collision with: 3 4 0  and 5 5 0 
8204468		 # 	collision with: 10 8 0  and 0 0 1 
8204470		 # 	collision with: 4 0 0  and 6 0 0 
8204473		 # 	collision with: 3 4 0  and 6 6 0 
8204475		 # 	collision with: 0 1 0  and 4 2 0 
8204489		 # 	collision with: 3 2 0  and 8 3 0 
8204492		 # 	collision with: 8 1 0  and 5 3 0 
8204494		 # 	collision with: 4 0 0  and 6 0 0 
8204536		 # 	collision with: 0 0 0  and 1 2 0 
8204538		 # 	collision with: 4 0 0  and 6 0 0 
8204544		 # 	collision with: 0 3 0  and 2 4 0 
8204546		 # 	collision with: 4 0 0  and 6 0 0 
8204552		 # 	collision with: 6 0 0  and 9 1 0 
8204554		 # 	collision with: 4 0 0  and 6 0 0 
8204560		 # 	collision with: 3 5 0  and 0 6 0 
8204562		 # 	collision with: 4 0 0  and 6 0 0 
8204604		 # 	collision with: 9 1 0  and 8 3 0 
8204606		 # 	collision with: 4 0 0  and 6 0 0 
8204609		 # 	collision with: 6 4 0  and 9 6 0 
8204625		 # 	collision with: 10 1 0  and 10 0 1 
8204627		 # 	collision with: 10 3 0  and 10 4 0 
8204628		 # 	collision with: 1 3 0  and 9 5 0 
8204630		 # 	collision with: 4 0 0  and 6 0 0 
8204645		 # 	collision with: 2 2 0  and 2 4 0 
8204647		 # 	collision with: 1 9 0  and 3 9 0 
8204652		 # 	collision with: 6 0 0  and 2 2 0 
8204654		 # 	collision with: 4 0 0  and 6 0 0 
8204656		 # 	collision with: 3 1 0  and 0 2 0 
8204658		 # 	collision with: 4 0 0  and 6 0 0 
8204665		 # 	collision with: 1 1 0  and 1 2 0 
8204667		 # 	collision with: 3 10 0  and 4 10 0 
8204695		 # 	collision with: 4 3 0  and 5 5 0 
8204708		 # 	collision with: 6 2 0  and 5 0 1 
8204710		 # 	collision with: 4 0 0  and 6 0 0 
8204720		 # 	collision with: 6 5 0  and 7 6 0 
8204722		 # 	collision with: 4 0 0  and 6 0 0 
8204744		 # 	collision with: 3 10 0  and 5 0 1 
8204746		 # 	collision with: 4 0 0  and 6 0 0 
8204760		 # 	collision with: 0 0 0  and 1 1 0 
8204762		 # 	collision with: 4 0 0  and 6 0 0 
8204768		 # 	collision with: 2 3 0  and 5 4 0 
8204770		 # 	collision with: 9 1 0  and 10 3 0 
8204820		 # 	collision with: 9 7 0  and 7 0 1 
8204822		 # 	collision with: 3 0 0  and 6 2 0 
8204836		 # 	collision with: 9 1 0  and 8 3 0 
8204838		 # 	collision with: 7 0 0  and 6 2 0 
8204860		 # 	collision with: 2 2 0  and 0 3 0 
8204862		 # 	collision with: 8 4 0  and 5 5 0 
8204872		 # 	collision with: 9 2 0  and 10 3 0 
8204874		 # 	collision with: 6 5 0  and 5 6 0 
8204889		 # 	collision with: 1 9 0  and 3 9 0 
8204919		 # 	collision with: 4 0 0  and 6 0 0 
8204924		 # 	collision with: 2 2 0  and 8 3 0 
8204926		 # 	collision with: 6 5 0  and 5 6 0 
8204928		 # 	collision with: 4 1 0  and 8 3 0 
8204937		 # 	collision with: 3 1 0  and 4 3 0 
8204939		 # 	collision with: 4 0 0  and 6 0 0 
8204952		 # 	collision with: 0 0 0  and 1 2 0 
8204954		 # 	collision with: 6 5 0  and 5 6 0 
8204957		 # 	collision with: 4 1 0  and 0 3 0 
8204959		 # 	collision with: 4 0 0  and 6 0 0 
8204973		 # 	collision with: 10 1 0  and 4 3 0 
8204975		 # 	collision with: 4 0 0  and 6 0 0 
8204978		 # 	collision with: 8 0 0  and 8 1 0 
8205020		 # 	collision with: 7 1 0  and 7 0 1 
8205022		 # 	collision with: 2 2 0  and 2 3 0 
8205028		 # 	collision with: 10 3 0  and 4 5 0 
8205030		 # 	collision with: 6 5 0  and 5 6 0 
8205036		 # 	collision with: 7 4 0  and 6 5 0 
8205038		 # 	collision with: 3 0 0  and 10 2 0 
8205044		 # 	collision with: 9 2 0  and 9 3 0 
8205046		 # 	collision with: 6 5 0  and 5 6 0 
8205088		 # 	collision with: 1 5 0  and 7 0 1 
8205093		 # 	collision with: 0 3 0  and 9 4 0 
8205095		 # 	collision with: 4 0 0  and 6 0 0 
8205109		 # 	collision with: 3 10 0  and 4 10 0 
8205111		 # 	collision with: 4 0 0  and 6 0 0 
8205114		 # 	collision with: 6 5 0  and 5 6 0 
8205136		 # 	collision with: 4 5 0  and 6 2 1 
8205138		 # 	collision with: 4 5 0  and 2 6 0 
8205140		 # 	collision with: 4 0 0  and 4 1 0 
8205142		 # 	collision with: 2 2 0  and 3 2 0 
8205149		 # 	collision with: 0 0 0  and 1 1 0 
8205151		 # 	collision with: 4 0 0  and 6 0 0 
8205177		 # 	collision with: 7 3 0  and 7 0 1 
8205179		 # 	collision with: 4 0 0  and 6 0 0 
8205192		 # 	collision with: 0 3 0  and 2 4 0 
8205194		 # 	collision with: 6 5 0  and 5 6 0 
8205204		 # 	collision with: 0 1 0  and 2 1 0 
8205206		 # 	collision with: 6 5 0  and 5 6 0 
8205228		 # 	collision with: 1 5 0  and 5 0 1 
8205230		 # 	collision with: 6 5 0  and 5 6 0 
8205244		 # 	collision with: 2 6 0  and 4 6 0 
8205246		 # 	collision with: 6 5 0  and 5 6 0 
8205252		 # 	collision with: 6 9 0  and 7 1 1 
8205254		 # 	collision with: 1 1 0  and 10 2 0 
8205304		 # 	collision with: 3 2 0  and 7 1 1 
8205306		 # 	collision with: 0 3 0  and 4 5 0 
8205320		 # 	collision with: 0 3 0  and 7 5 0 
8205322		 # 	collision with: 2 1 0  and 4 2 0 
8205344		 # 	collision with: 1 9 0  and 3 9 0 
8205346		 # 	collision with: 9 1 0  and 10 3 0 
8205356		 # 	collision with: 0 3 0  and 2 4 0 
8205358		 # 	collision with: 4 0 0  and 9 2 0 
8205373		 # 	collision with: 1 3 0  and 1 0 1 
8205375		 # 	collision with: 2 2 0  and 2 3 0 
8205401		 # 	collision with: 10 2 0  and 7 4 0 
8205403		 # 	collision with: 5 3 0  and 0 5 0 
8205408		 # 	collision with: 9 4 0  and 7 5 0 
8205414		 # 	collision with: 0 4 0  and 6 6 0 
8205421		 # 	collision with: 9 1 0  and 9 0 1 
8205423		 # 	collision with: 3 1 0  and 7 3 0 
8205436		 # 	collision with: 4 0 1  and 10 1 1 
8205438		 # 	collision with: 5 0 0  and 8 2 0 
8205441		 # 	collision with: 10 0 0  and 4 2 0 
8205443		 # 	collision with: 2 2 0  and 6 3 0 
8205457		 # 	collision with: 3 4 0  and 0 6 0 
8205459		 # 	collision with: 8 1 0  and 0 2 0 
8205460		 # 	collision with: 0 2 0  and 4 3 0 
8205462		 # 	collision with: 5 1 0  and 5 2 0 
8205504		 # 	collision with: 3 9 0  and 3 2 1 
8205506		 # 	collision with: 4 3 0  and 8 4 0 
8205512		 # 	collision with: 7 4 0  and 8 5 0 
8205514		 # 	collision with: 7 5 0  and 5 7 0 
8205520		 # 	collision with: 9 1 0  and 3 2 0 
8205522		 # 	collision with: 2 0 0  and 5 2 0 
8205528		 # 	collision with: 4 0 0  and 3 2 0 
8205572		 # 	collision with: 2 0 0  and 8 2 0 
8205574		 # 	collision with: 1 2 0  and 9 4 0 
8205577		 # 	collision with: 3 2 0  and 0 3 0 
8205579		 # 	collision with: 3 3 0  and 0 5 0 
8205593		 # 	collision with: 2 7 0  and 1 0 1 
8205595		 # 	collision with: 1 6 0  and 1 7 0 
8205596		 # 	collision with: 9 1 0  and 2 2 0 
8205598		 # 	collision with: 7 5 0  and 5 7 0 
8205613		 # 	collision with: 5 4 0  and 9 6 0 
8205615		 # 	collision with: 2 2 0  and 3 2 0 
8205620		 # 	collision with: 3 6 0  and 2 0 1 
8205622		 # 	collision with: 1 5 0  and 2 5 0 
8205626		 # 	collision with: 2 0 0  and 5 1 0 
8205633		 # 	collision with: 4 4 0  and 6 5 0 
8205635		 # 	collision with: 0 1 0  and 2 1 0 
8205661		 # 	collision with: 9 2 0  and 9 3 0 
8205663		 # 	collision with: 7 4 0  and 8 6 0 
8205676		 # 	collision with: 1 1 0  and 1 2 0 
8205678		 # 	collision with: 7 5 0  and 5 7 0 
8205688		 # 	collision with: 3 3 0  and 0 4 0 
8205690		 # 	collision with: 7 5 0  and 5 7 0 
8205712		 # 	collision with: 10 1 0  and 0 2 0 
8205714		 # 	collision with: 7 5 0  and 5 7 0 
8205728		 # 	collision with: 10 0 0  and 4 2 0 
8205730		 # 	collision with: 7 5 0  and 5 7 0 
8205736		 # 	collision with: 6 1 0  and 10 0 1 
8205738		 # 	collision with: 2 0 0  and 0 2 0 
8205790		 # 	collision with: 2 0 0  and 0 2 0 
8205804		 # 	collision with: 3 0 0  and 2 1 0 
8205806		 # 	collision with: 2 0 0  and 0 2 0 
8205828		 # 	collision with: 0 0 0  and 1 2 0 
8205830		 # 	collision with: 2 0 0  and 0 2 0 
8205840		 # 	collision with: 7 1 0  and 2 1 1 
8205842		 # 	collision with: 9 0 0  and 2 1 0 
8205857		 # 	collision with: 3 2 0  and 8 3 0 
8205859		 # 	collision with: 4 5 0  and 4 6 0 
8205885		 # 	collision with: 9 3 0  and 10 5 0 
8205887		 # 	collision with: 0 4 0  and 6 6 0 
8205892		 # 	collision with: 3 3 0  and 0 4 0 
8205894		 # 	collision with: 2 0 0  and 0 2 0 
8205896		 # 	collision with: 7 5 0  and 1 6 0 
8205898		 # 	collision with: 2 0 0  and 0 2 0 
8205905		 # 	collision with: 4 4 0  and 8 5 0 
8205907		 # 	collision with: 10 3 0  and 1 4 0 
8205920		 # 	collision with: 2 2 0  and 2 4 0 
8205922		 # 	collision with: 2 0 0  and 0 2 0 
8205927		 # 	collision with: 1 2 0  and 9 4 0 
8205941		 # 	collision with: 7 0 0  and 2 1 0 
8205943		 # 	collision with: 10 5 0  and 2 6 0 
8205944		 # 	collision with: 6 5 0  and 10 6 0 
8205946		 # 	collision with: 2 0 0  and 0 2 0 
8205988		 # 	collision with: 6 4 0  and 8 6 0 
8205990		 # 	collision with: 2 0 0  and 0 2 0 
8205996		 # 	collision with: 1 4 0  and 4 6 0 
8205998		 # 	collision with: 2 0 0  and 0 2 0 
8206004		 # 	collision with: 0 3 0  and 2 4 0 
8206006		 # 	collision with: 2 0 0  and 0 2 0 
8206012		 # 	collision with: 8 4 0  and 0 5 0 
8206014		 # 	collision with: 2 0 0  and 0 2 0 
8206056		 # 	collision with: 9 2 0  and 9 3 0 
8206058		 # 	collision with: 2 0 0  and 0 2 0 
8206063		 # 	collision with: 9 0 0  and 2 1 0 
8206077		 # 	collision with: 4 0 0  and 9 1 0 
8206079		 # 	collision with: 2 2 0  and 2 3 0 
8206080		 # 	collision with: 10 2 0  and 7 4 0 
8206082		 # 	collision with: 2 0 0  and 0 2 0 
8206097		 # 	collision with: 2 3 0  and 5 4 0 
8206099		 # 	collision with: 5 4 0  and 6 4 0 
8206104		 # 	collision with: 1 8 0  and 2 1 1 
8206106		 # 	collision with: 2 0 0  and 0 2 0 
8206108		 # 	collision with: 10 0 0  and 1 2 0 
8206110		 # 	collision with: 2 0 0  and 0 2 0 
8206117		 # 	collision with: 1 1 0  and 4 2 0 
8206119		 # 	collision with: 2 2 0  and 3 2 0 
8206145		 # 	collision with: 7 5 0  and 5 6 0 
8206147		 # 	collision with: 6 5 0  and 1 6 0 
8206160		 # 	collision with: 5 5 0  and 0 1 1 
8206162		 # 	collision with: 2 0 0  and 0 2 0 
8206172		 # 	collision with: 7 5 0  and 5 6 0 
8206198		 # 	collision with: 2 0 0  and 0 2 0 
8206212		 # 	collision with: 9 4 0  and 5 6 0 
8206220		 # 	collision with: 8 2 0  and 10 4 0 
8206222		 # 	collision with: 2 1 0  and 1 2 0 
8206272		 # 	collision with: 6 3 0  and 1 0 1 
8206274		 # 	collision with: 8 0 0  and 5 1 0 
8206288		 # 	collision with: 0 0 0  and 1 2 0 
8206312		 # 	collision with: 3 1 0  and 0 2 0 
8206314		 # 	collision with: 2 1 0  and 1 2 0 
8206324		 # 	collision with: 1 1 0  and 4 2 0 
8206326		 # 	collision with: 2 1 0  and 1 2 0 
8206341		 # 	collision with: 7 4 0  and 10 6 0 
8206343		 # 	collision with: 6 2 0  and 6 4 0 
8206369		 # 	collision with: 3 4 0  and 3 5 0 
8206376		 # 	collision with: 6 3 0  and 6 4 0 
8206378		 # 	collision with: 2 1 0  and 1 2 0 
8206380		 # 	collision with: 1 3 0  and 2 0 1 
8206382		 # 	collision with: 2 1 0  and 1 2 0 
8206389		 # 	collision with: 3 1 0  and 0 2 0 
8206391		 # 	collision with: 4 4 0  and 8 6 0 
8206404		 # 	collision with: 10 8 0  and 5 0 1 
8206406		 # 	collision with: 2 1 0  and 1 2 0 
8206409		 # 	collision with: 8 1 0  and 0 0 1 
8206425		 # 	collision with: 1 1 0  and 1 2 0 
8206427		 # 	collision with: 5 3 0  and 0 5 0 
8206428		 # 	collision with: 10 2 0  and 7 4 0 
8206430		 # 	collision with: 2 1 0  and 1 2 0 
8206472		 # 	collision with: 8 6 0  and 8 0 1 
8206474		 # 	collision with: 8 0 0  and 8 1 0 
8206482		 # 	collision with: 2 1 0  and 1 2 0 
8206488		 # 	collision with: 3 0 0  and 2 1 0 
8206498		 # 	collision with: 2 1 0  and 1 2 0 
8206540		 # 	collision with: 0 4 0  and 3 6 0 
8206542		 # 	collision with: 2 1 0  and 1 2 0 
8206545		 # 	collision with: 10 2 0  and 1 3 1 
8206547		 # 	collision with: 2 2 0  and 6 3 0 
8206561		 # 	collision with: 10 4 0  and 2 6 0 
8206563		 # 	collision with: 3 3 0  and 3 5 0 
8206564		 # 	collision with: 4 4 0  and 8 5 0 
8206566		 # 	collision with: 2 1 0  and 1 2 0 
8206581		 # 	collision with: 10 2 0  and 7 4 0 
8206583		 # 	collision with: 2 6 0  and 4 6 0 
8206588		 # 	collision with: 1 8 0  and 8 0 1 
8206590		 # 	collision with: 2 1 0  and 1 2 0 
8206592		 # 	collision with: 10 0 0  and 2 4 1 
8206594		 # 	collision with: 2 1 0  and 1 2 0 
8206601		 # 	collision with: 4 4 0  and 8 5 0 
8206603		 # 	collision with: 3 3 0  and 5 3 0 
8206629		 # 	collision with: 3 2 0  and 2 4 0 
8206631		 # 	collision with: 2 0 0  and 8 1 0 
8206644		 # 	collision with: 0 1 0  and 2 1 0 
8206646		 # 	collision with: 2 1 0  and 1 2 0 
8206656		 # 	collision with: 8 5 0  and 10 6 0 
8206658		 # 	collision with: 2 1 0  and 1 2 0 
8206680		 # 	collision with: 4 0 0  and 4 1 0 
8206682		 # 	collision with: 2 1 0  and 1 2 0 
8206696		 # 	collision with: 0 3 0  and 2 4 0 
8206698		 # 	collision with: 2 1 0  and 1 2 0 
8206704		 # 	collision with: 7 0 0  and 0 1 0 
8206706		 # 	collision with: 3 1 0  and 1 3 0 
8206756		 # 	collision with: 7 0 0  and 0 1 0 
8206758		 # 	collision with: 8 0 0  and 5 2 0 
8206772		 # 	collision with: 7 0 0  and 0 1 0 
8206774		 # 	collision with: 3 1 0  and 1 3 0 
8206798		 # 	collision with: 0 1 0  and 1 2 0 
8206808		 # 	collision with: 7 0 0  and 0 1 0 
8206825		 # 	collision with: 3 2 0  and 0 3 0 
8206827		 # 	collision with: 8 0 0  and 8 1 0 
8206853		 # 	collision with: 8 2 0  and 1 4 0 
8206855		 # 	collision with: 8 1 0  and 0 2 0 
8206860		 # 	collision with: 7 0 0  and 0 1 0 
8206862		 # 	collision with: 3 1 0  and 1 3 0 
8206864		 # 	collision with: 7 0 0  and 0 1 0 
8206866		 # 	collision with: 8 0 0  and 5 1 0 
8206873		 # 	collision with: 6 4 0  and 9 6 0 
8206875		 # 	collision with: 10 0 0  and 3 2 0 
8206888		 # 	collision with: 7 0 0  and 0 1 0 
8206893		 # 	collision with: 0 0 0  and 1 1 0 
8206895		 # 	collision with: 3 3 0  and 0 5 0 
8206909		 # 	collision with: 8 5 0  and 10 6 0 
8206911		 # 	collision with: 3 2 0  and 6 3 0 
8206912		 # 	collision with: 7 0 0  and 0 1 0 
8206914		 # 	collision with: 3 1 0  and 1 3 0 
8206956		 # 	collision with: 7 0 0  and 0 1 0 
8206958		 # 	collision with: 3 0 0  and 1 1 0 
8206964		 # 	collision with: 7 0 0  and 0 1 0 
8206966		 # 	collision with: 3 1 0  and 1 3 0 
8206972		 # 	collision with: 7 0 0  and 0 1 0 
8206974		 # 	collision with: 3 1 0  and 1 3 0 
8206980		 # 	collision with: 7 0 0  and 0 1 0 
8206982		 # 	collision with: 3 1 0  and 1 3 0 
8207024		 # 	collision with: 7 0 0  and 0 1 0 
8207026		 # 	collision with: 10 0 0  and 2 2 0 
8207029		 # 	collision with: 1 7 0  and 3 0 1 
8207031		 # 	collision with: 6 4 0  and 10 5 0 
8207045		 # 	collision with: 3 1 0  and 0 2 0 
8207047		 # 	collision with: 4 5 0  and 4 6 0 
8207048		 # 	collision with: 7 0 0  and 0 1 0 
8207050		 # 	collision with: 6 2 0  and 0 3 0 
8207065		 # 	collision with: 4 0 0  and 9 1 0 
8207067		 # 	collision with: 0 8 0  and 1 8 0 
8207072		 # 	collision with: 7 0 0  and 0 1 0 
8207074		 # 	collision with: 3 1 0  and 1 3 0 
8207076		 # 	collision with: 7 0 0  and 0 1 0 
8207078		 # 	collision with: 1 1 0  and 0 3 0 
8207085		 # 	collision with: 2 4 0  and 1 6 0 
8207087		 # 	collision with: 5 4 0  and 6 4 0 
8207113		 # 	collision with: 1 3 0  and 9 5 0 
8207115		 # 	collision with: 6 0 0  and 7 2 0 
8207130		 # 	collision with: 2 0 0  and 8 1 0 
8207140		 # 	collision with: 7 0 0  and 0 1 0 
8207142		 # 	collision with: 3 1 0  and 1 3 0 
8207164		 # 	collision with: 7 0 0  and 0 1 0 
8207166		 # 	collision with: 7 0 0  and 10 2 0 
8207180		 # 	collision with: 7 0 0  and 0 1 0 
8207182		 # 	collision with: 3 1 0  and 1 3 0 
8207188		 # 	collision with: 1 10 0  and 10 0 1 
8207190		 # 	collision with: 8 1 0  and 0 2 0 
8207240		 # 	collision with: 4 8 0  and 7 0 1 
8207242		 # 	collision with: 3 2 0  and 2 3 0 
8207256		 # 	collision with: 5 1 0  and 3 3 0 
8207258		 # 	collision with: 3 2 0  and 2 3 0 
8207280		 # 	collision with: 8 0 0  and 8 2 0 
8207282		 # 	collision with: 3 2 0  and 2 3 0 
8207294		 # 	collision with: 3 2 0  and 2 3 0 
8207309		 # 	collision with: 0 3 0  and 2 4 0 
8207311		 # 	collision with: 10 3 0  and 10 4 0 
8207337		 # 	collision with: 7 5 0  and 5 6 0 
8207339		 # 	collision with: 3 2 0  and 6 3 0 
8207344		 # 	collision with: 10 4 0  and 0 0 1 
8207346		 # 	collision with: 3 2 0  and 2 3 0 
8207348		 # 	collision with: 10 2 0  and 6 1 1 
8207350		 # 	collision with: 3 2 0  and 2 3 0 
8207357		 # 	collision with: 10 3 0  and 10 5 0 
8207359		 # 	collision with: 6 2 0  and 8 3 0 
8207372		 # 	collision with: 0 8 0  and 1 8 0 
8207374		 # 	collision with: 3 2 0  and 2 3 0 
8207377		 # 	collision with: 4 0 0  and 3 2 0 
8207379		 # 	collision with: 6 4 0  and 10 5 0 
8207393		 # 	collision with: 6 0 0  and 2 2 0 
8207395		 # 	collision with: 9 0 0  and 4 2 0 
8207396		 # 	collision with: 3 1 0  and 4 3 0 
8207398		 # 	collision with: 5 1 0  and 0 2 0 
8207440		 # 	collision with: 10 0 0  and 1 1 0 
8207442		 # 	collision with: 3 2 0  and 2 3 0 
8207448		 # 	collision with: 6 0 0  and 2 2 0 
8207450		 # 	collision with: 9 0 0  and 1 2 0 
8207456		 # 	collision with: 10 1 0  and 0 2 0 
8207458		 # 	collision with: 3 2 0  and 2 3 0 
8207464		 # 	collision with: 6 4 0  and 4 2 1 
8207466		 # 	collision with: 4 0 0  and 7 2 0 
8207508		 # 	collision with: 0 3 0  and 2 4 0 
8207510		 # 	collision with: 3 2 0  and 2 3 0 
8207513		 # 	collision with: 3 2 0  and 2 4 0 
8207515		 # 	collision with: 8 0 0  and 5 2 0 
8207529		 # 	collision with: 0 0 0  and 4 2 0 
8207531		 # 	collision with: 5 1 0  and 5 2 0 
8207532		 # 	collision with: 8 1 0  and 5 3 0 
8207549		 # 	collision with: 5 3 0  and 0 4 0 
8207551		 # 	collision with: 3 10 0  and 4 10 0 
8207556		 # 	collision with: 8 4 0  and 0 6 0 
8207558		 # 	collision with: 3 2 0  and 2 3 0 
8207560		 # 	collision with: 4 0 0  and 9 1 0 
8207562		 # 	collision with: 0 1 0  and 2 1 0 
8207569		 # 	collision with: 2 2 0  and 8 3 0 
8207571		 # 	collision with: 1 5 0  and 2 5 0 
8207597		 # 	collision with: 0 1 0  and 2 1 0 
8207599		 # 	collision with: 5 1 0  and 0 2 0 
8207612		 # 	collision with: 10 2 0  and 10 0 1 
8207626		 # 	collision with: 3 2 0  and 2 3 0 
8207648		 # 	collision with: 0 0 0  and 1 2 0 
8207650		 # 	collision with: 3 2 0  and 2 3 0 
8207664		 # 	collision with: 8 1 0  and 3 3 0 
8207666		 # 	collision with: 3 2 0  and 2 3 0 
8207672		 # 	collision with: 0 3 0  and 2 4 0 
8207674		 # 	collision with: 4 2 0  and 2 4 0 
8207724		 # 	collision with: 3 2 0  and 2 4 0 
8207726		 # 	collision with: 4 2 0  and 2 4 0 
8207740		 # 	collision with: 5 2 0  and 4 3 0 
8207742		 # 	collision with: 9 1 0  and 10 3 0 
8207764		 # 	collision with: 10 6 0  and 8 0 1 
8207766		 # 	collision with: 4 2 0  and 2 4 0 
8207776		 # 	collision with: 7 3 0  and 1 1 1 
8207778		 # 	collision with: 4 2 0  and 2 4 0 
8207793		 # 	collision with: 2 2 0  and 0 3 0 
8207795		 # 	collision with: 1 6 0  and 1 7 0 
8207821		 # 	collision with: 3 4 0  and 5 0 1 
8207823		 # 	collision with: 9 3 0  and 1 4 0 
8207828		 # 	collision with: 10 2 0  and 4 1 1 
8207830		 # 	collision with: 4 2 0  and 2 4 0 
8207832		 # 	collision with: 9 7 0  and 2 0 1 
8207834		 # 	collision with: 7 0 0  and 1 1 0 
8207841		 # 	collision with: 2 3 0  and 5 4 0 
8207843		 # 	collision with: 0 3 0  and 4 5 0 
8207856		 # 	collision with: 9 1 0  and 3 2 0 
8207858		 # 	collision with: 4 2 0  and 2 4 0 
8207861		 # 	collision with: 0 5 0  and 6 6 0 
8207863		 # 	collision with: 5 4 0  and 2 6 0 
8207877		 # 	collision with: 7 1 0  and 7 0 1 
8207879		 # 	collision with: 0 4 0  and 6 6 0 
8207880		 # 	collision with: 6 0 0  and 3 2 0 
8207882		 # 	collision with: 4 2 0  and 2 4 0 
8207926		 # 	collision with: 4 2 0  and 2 4 0 
8207932		 # 	collision with: 4 7 0  and 5 7 0 
8207942		 # 	collision with: 4 2 0  and 2 4 0 
8207948		 # 	collision with: 6 0 0  and 4 1 0 
8207950		 # 	collision with: 4 2 0  and 2 4 0 
8207992		 # 	collision with: 3 2 0  and 0 3 0 
8207994		 # 	collision with: 4 2 0  and 2 4 0 
8207997		 # 	collision with: 0 0 0  and 1 2 0 
8207999		 # 	collision with: 1 2 0  and 9 4 0 
7.92651secs	4193
