# prime 11
# degree 2
# input variables 3
# output variables 5
# reload computed balance functions from file balance-2165of3248-p11d2m3-debug.log
# p = 11
# n = 5
# smalldomain p^m 1331
# domain p^n 161051
#	 p^2 = 121
#	 p^3 = 1331
#	 p^4 = 14641
#	 p^5 = 161051
#	 p^6 = 1771561
#	 p^7 = 19487171
#	 p^8 = 214358881
#	 p^9 = 2357947691
opening file : balance-2165of3248-p11d2m3-debug.log
reloading for step2...
12990029		 # 	collision with: 2 7 0 0 0  and 9 2 2 0 0 
12990031		 # 	collision with: 6 6 0 0 0  and 4 2 2 0 0 
12990045		 # 	collision with: 7 0 0 0 0  and 4 1 2 0 0 
12990047		 # 	collision with: 2 2 0 0 0  and 2 6 2 0 0 
12990061		 # 	collision with: 9 0 0 0 0  and 9 2 0 0 0 
12990063		 # 	collision with: 9 0 0 0 0  and 1 2 0 0 0 
12990076		 # 	collision with: 9 4 5 0 0  and 4 2 0 1 0 
12990078		 # 	collision with: 0 5 5 0 0  and 7 4 0 1 0 
12990089		 # 	collision with: 5 5 0 0 0  and 5 1 1 0 0 
12990091		 # 	collision with: 9 0 0 0 0  and 9 1 0 0 0 
12990109		 # 	collision with: 10 2 0 0 0  and 1 2 1 0 0 
12990111		 # 	collision with: 0 0 0 0 0  and 10 1 0 0 0 
12990137		 # 	collision with: 7 10 0 0 0  and 4 3 1 0 0 
12990139		 # 	collision with: 4 3 0 0 0  and 6 0 1 0 0 
12990153		 # 	collision with: 4 2 0 0 0  and 7 2 1 0 0 
12990155		 # 	collision with: 0 0 0 0 0  and 10 1 0 0 0 
12990169		 # 	collision with: 4 1 0 0 0  and 7 4 1 0 0 
12990171		 # 	collision with: 2 5 0 0 0  and 2 5 1 0 0 
12990301		 # 	collision with: 1 5 0 0 0  and 1 5 1 0 0 
12990303		 # 	collision with: 3 5 0 0 0  and 3 5 1 0 0 
12990313		 # 	collision with: 8 3 0 0 0  and 8 0 1 0 0 
12990315		 # 	collision with: 5 2 0 0 0  and 5 3 1 0 0 
12990369		 # 	collision with: 8 0 0 0 0  and 8 3 1 0 0 
12990371		 # 	collision with: 8 2 0 0 0  and 2 4 1 0 0 
12990381		 # 	collision with: 8 6 0 0 0  and 8 6 1 0 0 
12990383		 # 	collision with: 6 6 0 0 0  and 6 6 1 0 0 
12990513		 # 	collision with: 9 6 0 0 0  and 9 6 1 0 0 
12990529		 # 	collision with: 2 4 1 0 0  and 2 5 1 0 0 
12990531		 # 	collision with: 9 0 0 0 0  and 9 1 0 0 0 
12990545		 # 	collision with: 7 10 0 0 0  and 4 4 1 0 0 
12990612		 # 	collision with: 6 2 0 0 0  and 6 3 0 0 0 
12990614		 # 	collision with: 4 0 0 0 0  and 6 0 0 0 0 
12990644		 # 	collision with: 2 4 0 0 0  and 2 5 0 0 0 
12990646		 # 	collision with: 4 0 0 0 0  and 6 0 0 0 0 
12990655		 # 	collision with: 6 4 1 0 0  and 4 6 1 0 0 
12990664		 # 	collision with: 4 3 0 0 0  and 4 4 0 0 0 
12990666		 # 	collision with: 4 0 0 0 0  and 6 0 0 0 0 
12990684		 # 	collision with: 6 2 0 0 0  and 5 4 0 0 0 
12990686		 # 	collision with: 4 0 0 0 0  and 6 0 0 0 0 
12990697		 # 	collision with: 7 4 1 0 0  and 4 6 1 0 0 
12990701		 # 	collision with: 4 7 5 0 0  and 4 0 6 0 0 
12990703		 # 	collision with: 4 0 4 0 0  and 6 0 4 0 0 
12990716		 # 	collision with: 3 3 0 0 0  and 3 5 0 0 0 
12990718		 # 	collision with: 4 0 0 0 0  and 6 0 0 0 0 
12990724		 # 	collision with: 9 0 0 0 0  and 9 2 0 0 0 
12990726		 # 	collision with: 4 0 0 0 0  and 6 0 0 0 0 
12990761		 # 	collision with: 7 4 2 0 0  and 4 6 2 0 0 
12990763		 # 	collision with: 4 0 3 0 0  and 6 0 3 0 0 
12990764		 # 	collision with: 10 0 0 0 0  and 10 1 0 0 0 
12990766		 # 	collision with: 4 0 0 0 0  and 6 0 0 0 0 
12990768		 # 	collision with: 9 0 0 0 0  and 9 2 0 0 0 
12990770		 # 	collision with: 4 0 0 0 0  and 6 0 0 0 0 
12990773		 # 	collision with: 5 2 1 0 0  and 6 2 1 0 0 
12990775		 # 	collision with: 10 5 0 0 0  and 10 6 0 0 0 
12990804		 # 	collision with: 3 3 0 0 0  and 3 5 0 0 0 
12990806		 # 	collision with: 4 0 0 0 0  and 6 0 0 0 0 
12990820		 # 	collision with: 2 4 0 0 0  and 2 5 0 0 0 
12990822		 # 	collision with: 4 0 0 0 0  and 6 0 0 0 0 
12990828		 # 	collision with: 7 0 0 0 0  and 4 1 0 0 0 
12990830		 # 	collision with: 4 0 0 0 0  and 6 0 0 0 0 
12990844		 # 	collision with: 5 2 0 0 0  and 5 4 0 0 0 
12990846		 # 	collision with: 4 0 0 0 0  and 6 0 0 0 0 
12990877		 # 	collision with: 5 2 1 0 0  and 6 2 1 0 0 
12990879		 # 	collision with: 6 1 5 0 0  and 6 1 6 0 0 
12990880		 # 	collision with: 9 0 0 0 0  and 2 2 0 0 0 
12990882		 # 	collision with: 4 0 0 0 0  and 6 0 0 0 0 
12990884		 # 	collision with: 4 3 0 0 0  and 4 4 0 0 0 
12990886		 # 	collision with: 4 0 0 0 0  and 6 0 0 0 0 
12990889		 # 	collision with: 9 10 5 0 0  and 9 3 6 0 0 
12990891		 # 	collision with: 10 3 3 0 0  and 0 4 3 0 0 
12990924		 # 	collision with: 9 0 0 0 0  and 2 2 0 0 0 
12990926		 # 	collision with: 4 0 0 0 0  and 6 0 0 0 0 
12990932		 # 	collision with: 5 2 0 0 0  and 5 4 0 0 0 
12990934		 # 	collision with: 4 0 0 0 0  and 6 0 0 0 0 
12990949		 # 	collision with: 7 1 2 0 0  and 7 3 2 0 0 
12990951		 # 	collision with: 10 5 0 0 0  and 10 6 0 0 0 
12990953		 # 	collision with: 5 2 3 0 0  and 6 2 3 0 0 
12990964		 # 	collision with: 6 2 0 0 0  and 6 3 0 0 0 
12990966		 # 	collision with: 4 0 0 0 0  and 6 0 0 0 0 
12990984		 # 	collision with: 10 0 0 0 0  and 10 1 0 0 0 
12990986		 # 	collision with: 4 0 0 0 0  and 6 0 0 0 0 
12990999		 # 	collision with: 10 1 4 0 0  and 0 3 4 0 0 
12991004		 # 	collision with: 7 0 0 0 0  and 4 1 0 0 0 
12991006		 # 	collision with: 4 0 0 0 0  and 6 0 0 0 0 
12991036		 # 	collision with: 6 2 0 0 0  and 5 4 0 0 0 
12991038		 # 	collision with: 4 0 0 0 0  and 6 0 0 0 0 
12991044		 # 	collision with: 9 6 10 0 0  and 5 4 3 1 0 
12991046		 # 	collision with: 9 3 7 0 0  and 7 10 0 1 0 
12991096		 # 	collision with: 2 4 5 0 0  and 2 5 5 0 0 
12991098		 # 	collision with: 7 1 5 0 0  and 7 2 5 0 0 
12991128		 # 	collision with: 5 2 1 0 0  and 6 2 1 0 0 
12991130		 # 	collision with: 10 5 1 0 0  and 10 6 1 0 0 
12991137		 # 	collision with: 5 2 4 0 0  and 6 2 4 0 0 
12991148		 # 	collision with: 5 2 1 0 0  and 6 2 1 0 0 
12991150		 # 	collision with: 4 0 5 0 0  and 6 0 5 0 0 
12991168		 # 	collision with: 9 0 6 0 0  and 2 2 6 0 0 
12991170		 # 	collision with: 4 0 5 0 0  and 6 0 5 0 0 
12991183		 # 	collision with: 4 0 0 0 0  and 6 0 0 0 0 
12991185		 # 	collision with: 7 4 0 0 0  and 4 6 0 0 0 
12991187		 # 	collision with: 4 0 0 0 0  and 6 0 0 0 0 
12991200		 # 	collision with: 5 2 3 0 0  and 6 2 3 0 0 
12991202		 # 	collision with: 4 0 7 0 0  and 6 0 7 0 0 
12991208		 # 	collision with: 2 4 4 0 0  and 2 5 4 0 0 
12991210		 # 	collision with: 1 0 4 0 0  and 9 1 4 0 0 
12991245		 # 	collision with: 7 1 1 0 0  and 7 3 1 0 0 
12991247		 # 	collision with: 4 0 0 0 0  and 6 0 0 0 0 
12991250		 # 	collision with: 7 1 3 0 0  and 7 2 3 0 0 
12991252		 # 	collision with: 5 2 4 0 0  and 6 2 4 0 0 
12991254		 # 	collision with: 4 2 4 0 0  and 4 4 4 0 0 
12991257		 # 	collision with: 8 1 2 0 0  and 8 2 2 0 0 
12991288		 # 	collision with: 5 2 4 0 0  and 6 2 4 0 0 
12991290		 # 	collision with: 4 0 2 0 0  and 6 0 2 0 0 
12991304		 # 	collision with: 1 4 1 0 0  and 1 6 1 0 0 
12991306		 # 	collision with: 10 5 1 0 0  and 10 6 1 0 0 
12991312		 # 	collision with: 5 2 5 0 0  and 6 2 5 0 0 
12991314		 # 	collision with: 4 0 9 0 0  and 6 0 9 0 0 
12991328		 # 	collision with: 5 2 0 0 0  and 6 2 0 0 0 
12991330		 # 	collision with: 6 1 2 0 0  and 6 3 2 0 0 
12991361		 # 	collision with: 7 4 0 0 0  and 4 6 0 0 0 
12991363		 # 	collision with: 4 0 0 0 0  and 6 0 0 0 0 
12991366		 # 	collision with: 4 0 3 0 0  and 6 0 3 0 0 
12991368		 # 	collision with: 5 2 5 0 0  and 6 2 5 0 0 
12991370		 # 	collision with: 4 0 3 0 0  and 6 0 3 0 0 
12991373		 # 	collision with: 5 2 0 0 0  and 6 2 0 0 0 
12991375		 # 	collision with: 4 0 0 0 0  and 6 0 0 0 0 
12991408		 # 	collision with: 5 2 6 0 0  and 6 2 6 0 0 
12991416		 # 	collision with: 5 2 0 0 0  and 6 2 0 0 0 
12991418		 # 	collision with: 6 1 2 0 0  and 6 3 2 0 0 
12991435		 # 	collision with: 4 0 0 0 0  and 6 0 0 0 0 
12991437		 # 	collision with: 7 0 4 0 0  and 7 0 6 0 0 
12991439		 # 	collision with: 4 0 0 0 0  and 6 0 0 0 0 
12991448		 # 	collision with: 5 2 5 0 0  and 6 3 5 0 0 
12991450		 # 	collision with: 7 1 5 0 0  and 7 2 5 0 0 
12991468		 # 	collision with: 5 2 2 0 0  and 6 2 2 0 0 
12991481		 # 	collision with: 8 1 4 0 0  and 3 2 4 0 0 
12991483		 # 	collision with: 4 0 0 0 0  and 6 0 0 0 0 
12991488		 # 	collision with: 5 2 3 0 0  and 6 2 3 0 0 
12991490		 # 	collision with: 4 0 1 0 0  and 6 0 1 0 0 
12991520		 # 	collision with: 5 2 8 0 0  and 6 2 8 0 0 
12991522		 # 	collision with: 4 0 1 0 0  and 6 0 1 0 0 
12991528		 # 	collision with: 5 7 9 0 0  and 10 10 0 1 0 
12991530		 # 	collision with: 5 10 9 0 0  and 8 7 0 1 0 
12991580		 # 	collision with: 5 2 5 0 0  and 6 2 5 0 0 
12991582		 # 	collision with: 4 0 9 0 0  and 6 0 9 0 0 
12991612		 # 	collision with: 5 2 0 0 0  and 6 2 0 0 0 
12991614		 # 	collision with: 9 0 2 0 0  and 9 1 2 0 0 
12991621		 # 	collision with: 6 2 3 0 0  and 5 4 3 0 0 
12991623		 # 	collision with: 3 3 2 0 0  and 3 4 2 0 0 
12991632		 # 	collision with: 5 2 5 0 0  and 5 4 5 0 0 
12991634		 # 	collision with: 1 4 5 0 0  and 1 5 5 0 0 
12991652		 # 	collision with: 5 2 1 0 0  and 6 2 1 0 0 
12991654		 # 	collision with: 1 0 1 0 0  and 9 1 1 0 0 
12991665		 # 	collision with: 7 9 4 0 0  and 7 6 5 0 0 
12991667		 # 	collision with: 3 3 2 0 0  and 3 4 2 0 0 
12991669		 # 	collision with: 8 1 3 0 0  and 8 2 3 0 0 
12991671		 # 	collision with: 5 2 2 0 0  and 5 3 2 0 0 
12991686		 # 	collision with: 4 0 3 0 0  and 6 0 3 0 0 
12991692		 # 	collision with: 5 2 5 0 0  and 6 2 5 0 0 
12991694		 # 	collision with: 4 0 3 0 0  and 6 0 3 0 0 
12991729		 # 	collision with: 5 2 2 0 0  and 6 2 2 0 0 
12991731		 # 	collision with: 9 0 5 0 0  and 9 1 5 0 0 
12991732		 # 	collision with: 9 0 6 0 0  and 2 2 6 0 0 
12991734		 # 	collision with: 4 0 5 0 0  and 6 0 5 0 0 
12991736		 # 	collision with: 5 2 1 0 0  and 6 2 1 0 0 
12991738		 # 	collision with: 4 0 5 0 0  and 6 0 5 0 0 
12991741		 # 	collision with: 9 0 2 0 0  and 9 2 2 0 0 
12991743		 # 	collision with: 1 4 0 0 0  and 1 5 0 0 0 
12991772		 # 	collision with: 5 2 6 0 0  and 6 2 6 0 0 
12991788		 # 	collision with: 5 2 0 0 0  and 6 2 0 0 0 
12991790		 # 	collision with: 9 0 2 0 0  and 9 1 2 0 0 
12991796		 # 	collision with: 5 2 3 0 0  and 6 2 3 0 0 
12991798		 # 	collision with: 4 0 7 0 0  and 6 0 7 0 0 
12991812		 # 	collision with: 6 2 4 0 0  and 6 3 4 0 0 
12991814		 # 	collision with: 1 0 4 0 0  and 9 1 4 0 0 
12991845		 # 	collision with: 5 2 2 0 0  and 6 3 2 0 0 
12991847		 # 	collision with: 5 2 2 0 0  and 5 3 2 0 0 
12991848		 # 	collision with: 5 2 2 0 0  and 6 2 2 0 0 
12991852		 # 	collision with: 5 2 5 0 0  and 5 4 5 0 0 
12991854		 # 	collision with: 1 4 5 0 0  and 1 5 5 0 0 
12991857		 # 	collision with: 5 2 3 0 0  and 6 2 3 0 0 
12991859		 # 	collision with: 3 4 0 0 0  and 7 5 0 0 0 
12991894		 # 	collision with: 2 0 3 0 0  and 8 2 3 0 0 
12991900		 # 	collision with: 5 2 4 0 0  and 6 2 4 0 0 
12991902		 # 	collision with: 1 4 4 0 0  and 1 5 4 0 0 
12991917		 # 	collision with: 9 0 2 0 0  and 9 2 2 0 0 
12991919		 # 	collision with: 1 4 0 0 0  and 1 5 0 0 0 
12991921		 # 	collision with: 5 2 0 0 0  and 6 2 0 0 0 
12991923		 # 	collision with: 4 0 4 0 0  and 6 0 4 0 0 
12991932		 # 	collision with: 5 2 3 0 0  and 6 2 3 0 0 
12991934		 # 	collision with: 4 0 1 0 0  and 6 0 1 0 0 
12991952		 # 	collision with: 2 4 6 0 0  and 2 5 6 0 0 
12991954		 # 	collision with: 4 0 1 0 0  and 6 0 1 0 0 
12991965		 # 	collision with: 5 2 0 0 0  and 6 2 0 0 0 
12991967		 # 	collision with: 8 1 5 0 0  and 2 2 5 0 0 
12991972		 # 	collision with: 5 2 4 0 0  and 6 2 4 0 0 
12991974		 # 	collision with: 4 0 2 0 0  and 6 0 2 0 0 
12992004		 # 	collision with: 4 3 1 0 0  and 7 5 1 0 0 
12992006		 # 	collision with: 6 4 1 0 0  and 4 6 1 0 0 
12992012		 # 	collision with: 2 8 7 0 0  and 1 8 1 1 0 
12992014		 # 	collision with: 6 8 6 0 0  and 8 5 0 1 0 
12992064		 # 	collision with: 5 2 4 0 0  and 6 2 4 0 0 
12992066		 # 	collision with: 10 5 4 0 0  and 10 6 4 0 0 
12992098		 # 	collision with: 8 0 3 0 0  and 8 2 3 0 0 
12992105		 # 	collision with: 4 3 1 0 0  and 4 4 1 0 0 
12992107		 # 	collision with: 6 1 4 0 0  and 6 3 4 0 0 
12992116		 # 	collision with: 5 2 0 0 0  and 6 2 0 0 0 
12992118		 # 	collision with: 7 1 2 0 0  and 7 2 2 0 0 
12992136		 # 	collision with: 5 2 6 0 0  and 6 2 6 0 0 
12992149		 # 	collision with: 4 3 1 0 0  and 4 4 1 0 0 
12992151		 # 	collision with: 4 0 3 0 0  and 6 0 3 0 0 
12992153		 # 	collision with: 8 2 3 0 0  and 8 1 5 0 0 
12992168		 # 	collision with: 1 4 5 0 0  and 1 6 5 0 0 
12992170		 # 	collision with: 9 0 5 0 0  and 9 1 5 0 0 
12992176		 # 	collision with: 7 0 1 0 0  and 4 1 1 0 0 
12992178		 # 	collision with: 2 0 1 0 0  and 8 2 1 0 0 
12992216		 # 	collision with: 5 2 4 0 0  and 6 2 4 0 0 
12992218		 # 	collision with: 4 0 2 0 0  and 6 0 2 0 0 
12992220		 # 	collision with: 10 0 1 0 0  and 10 1 1 0 0 
12992222		 # 	collision with: 1 4 1 0 0  and 1 5 1 0 0 
12992225		 # 	collision with: 7 4 1 0 0  and 4 6 1 0 0 
12992227		 # 	collision with: 2 3 0 0 0  and 2 5 0 0 0 
12992256		 # 	collision with: 1 4 5 0 0  and 1 6 5 0 0 
12992258		 # 	collision with: 9 0 5 0 0  and 9 1 5 0 0 
12992272		 # 	collision with: 5 2 2 0 0  and 6 2 2 0 0 
12992280		 # 	collision with: 5 2 1 0 0  and 6 2 1 0 0 
12992282		 # 	collision with: 4 0 5 0 0  and 6 0 5 0 0 
12992296		 # 	collision with: 9 0 6 0 0  and 2 2 6 0 0 
12992298		 # 	collision with: 4 0 5 0 0  and 6 0 5 0 0 
12992331		 # 	collision with: 10 5 4 0 0  and 10 6 4 0 0 
12992332		 # 	collision with: 5 2 5 0 0  and 6 2 5 0 0 
12992334		 # 	collision with: 4 0 9 0 0  and 6 0 9 0 0 
12992336		 # 	collision with: 5 2 0 0 0  and 6 2 0 0 0 
12992338		 # 	collision with: 7 1 2 0 0  and 7 2 2 0 0 
12992341		 # 	collision with: 4 3 0 0 0  and 7 5 0 0 0 
12992343		 # 	collision with: 3 0 3 0 0  and 3 7 5 0 0 
12992376		 # 	collision with: 5 2 3 0 0  and 6 2 3 0 0 
12992378		 # 	collision with: 4 0 1 0 0  and 6 0 1 0 0 
12992384		 # 	collision with: 1 4 6 0 0  and 1 6 6 0 0 
12992386		 # 	collision with: 4 0 1 0 0  and 6 0 1 0 0 
12992401		 # 	collision with: 10 0 2 0 0  and 10 1 2 0 0 
12992403		 # 	collision with: 2 3 0 0 0  and 2 5 0 0 0 
12992405		 # 	collision with: 5 2 4 0 0  and 6 2 4 0 0 
12992407		 # 	collision with: 8 4 3 0 0  and 8 4 5 0 0 
12992416		 # 	collision with: 5 2 4 0 0  and 5 4 4 0 0 
12992418		 # 	collision with: 1 0 4 0 0  and 9 1 4 0 0 
12992436		 # 	collision with: 5 2 3 0 0  and 6 2 3 0 0 
12992438		 # 	collision with: 4 0 7 0 0  and 6 0 7 0 0 
12992449		 # 	collision with: 7 4 2 0 0  and 4 6 2 0 0 
12992451		 # 	collision with: 4 0 1 0 0  and 6 0 1 0 0 
12992456		 # 	collision with: 5 2 5 0 0  and 6 2 5 0 0 
12992458		 # 	collision with: 4 0 3 0 0  and 6 0 3 0 0 
12992490		 # 	collision with: 4 0 3 0 0  and 6 0 3 0 0 
12992496		 # 	collision with: 8 9 10 0 0  and 4 6 0 1 0 
12992498		 # 	collision with: 3 8 0 0 0  and 5 0 1 1 0 
12992548		 # 	collision with: 5 2 3 0 0  and 6 2 3 0 0 
12992550		 # 	collision with: 4 0 7 0 0  and 6 0 7 0 0 
12992580		 # 	collision with: 9 0 4 0 0  and 9 2 4 0 0 
12992582		 # 	collision with: 1 0 4 0 0  and 9 1 4 0 0 
12992589		 # 	collision with: 7 1 3 0 0  and 7 3 3 0 0 
12992591		 # 	collision with: 4 0 4 0 0  and 6 0 4 0 0 
12992600		 # 	collision with: 5 2 5 0 0  and 6 2 5 0 0 
12992602		 # 	collision with: 4 0 9 0 0  and 6 0 9 0 0 
12992620		 # 	collision with: 5 2 0 0 0  and 6 2 0 0 0 
12992622		 # 	collision with: 1 0 2 0 0  and 9 1 2 0 0 
12992633		 # 	collision with: 7 1 3 0 0  and 7 3 3 0 0 
12992635		 # 	collision with: 9 2 1 0 0  and 1 4 1 0 0 
12992637		 # 	collision with: 5 2 1 0 0  and 6 2 1 0 0 
12992639		 # 	collision with: 2 8 3 0 0  and 8 2 4 0 0 
12992652		 # 	collision with: 5 2 2 0 0  and 6 2 2 0 0 
12992660		 # 	collision with: 3 3 5 0 0  and 3 5 5 0 0 
12992662		 # 	collision with: 5 2 5 0 0  and 5 3 5 0 0 
12992697		 # 	collision with: 9 0 3 0 0  and 2 2 4 0 0 
12992699		 # 	collision with: 4 0 2 0 0  and 6 0 2 0 0 
12992700		 # 	collision with: 5 2 1 0 0  and 6 2 1 0 0 
12992702		 # 	collision with: 6 1 1 0 0  and 6 3 1 0 0 
12992704		 # 	collision with: 6 2 5 0 0  and 5 4 5 0 0 
12992706		 # 	collision with: 10 1 5 0 0  and 0 3 5 0 0 
12992709		 # 	collision with: 5 2 0 0 0  and 6 2 0 0 0 
12992711		 # 	collision with: 3 3 0 0 0  and 3 4 0 0 0 
12992742		 # 	collision with: 8 1 3 0 0  and 2 2 3 0 0 
12992756		 # 	collision with: 9 0 4 0 0  and 2 2 4 0 0 
12992758		 # 	collision with: 7 1 4 0 0  and 7 2 4 0 0 
12992766		 # 	collision with: 4 0 3 0 0  and 6 0 3 0 0 
12992780		 # 	collision with: 5 2 5 0 0  and 6 2 5 0 0 
12992782		 # 	collision with: 4 0 3 0 0  and 6 0 3 0 0 
12992813		 # 	collision with: 5 2 2 0 0  and 6 2 2 0 0 
12992815		 # 	collision with: 1 0 3 0 0  and 9 1 3 0 0 
12992816		 # 	collision with: 8 1 6 0 0  and 8 2 6 0 0 
12992818		 # 	collision with: 4 0 1 0 0  and 6 0 1 0 0 
12992820		 # 	collision with: 5 2 3 0 0  and 6 2 3 0 0 
12992822		 # 	collision with: 4 0 1 0 0  and 6 0 1 0 0 
12992825		 # 	collision with: 2 1 3 0 0  and 2 1 4 0 0 
12992827		 # 	collision with: 5 1 3 0 0  and 5 1 4 0 0 
12992860		 # 	collision with: 9 0 6 0 0  and 2 2 6 0 0 
12992862		 # 	collision with: 4 0 5 0 0  and 6 0 5 0 0 
12992868		 # 	collision with: 5 2 1 0 0  and 6 2 1 0 0 
12992870		 # 	collision with: 4 0 5 0 0  and 6 0 5 0 0 
12992885		 # 	collision with: 5 2 0 0 0  and 6 2 0 0 0 
12992887		 # 	collision with: 3 3 0 0 0  and 3 4 0 0 0 
12992889		 # 	collision with: 6 3 0 0 0  and 5 4 0 0 0 
12992891		 # 	collision with: 4 0 1 0 0  and 6 0 1 0 0 
12992900		 # 	collision with: 5 2 4 0 0  and 6 2 4 0 0 
12992902		 # 	collision with: 4 0 2 0 0  and 6 0 2 0 0 
12992920		 # 	collision with: 5 2 1 0 0  and 5 4 1 0 0 
12992922		 # 	collision with: 6 1 1 0 0  and 6 3 1 0 0 
12992933		 # 	collision with: 6 3 0 0 0  and 5 4 0 0 0 
12992935		 # 	collision with: 8 2 3 0 0  and 2 0 4 0 0 
12992940		 # 	collision with: 5 2 6 0 0  and 6 2 6 0 0 
12992972		 # 	collision with: 5 2 0 0 0  and 6 2 0 0 0 
12992974		 # 	collision with: 6 4 2 0 0  and 4 6 2 0 0 
12992980		 # 	collision with: 8 10 8 0 0  and 2 3 0 1 0 
12992982		 # 	collision with: 0 6 8 0 0  and 8 1 0 1 0 
12993032		 # 	collision with: 5 2 2 0 0  and 6 2 2 0 0 
12993064		 # 	collision with: 7 0 5 0 0  and 4 1 5 0 0 
12993066		 # 	collision with: 6 1 5 0 0  and 6 3 5 0 0 
12993073		 # 	collision with: 5 2 2 0 0  and 6 2 2 0 0 
12993075		 # 	collision with: 6 3 2 0 0  and 6 3 4 0 0 
12993086		 # 	collision with: 4 0 3 0 0  and 6 0 3 0 0 
12993104		 # 	collision with: 5 2 5 0 0  and 6 2 5 0 0 
12993106		 # 	collision with: 4 0 3 0 0  and 6 0 3 0 0 
12993117		 # 	collision with: 8 1 3 0 0  and 3 2 3 0 0 
12993119		 # 	collision with: 0 10 2 0 0  and 10 0 4 0 0 
12993121		 # 	collision with: 9 0 2 0 0  and 2 2 2 0 0 
12993123		 # 	collision with: 9 2 0 0 0  and 1 4 0 0 0 
12993136		 # 	collision with: 7 1 1 0 0  and 7 3 1 0 0 
12993138		 # 	collision with: 10 3 1 0 0  and 0 4 1 0 0 
12993144		 # 	collision with: 5 2 4 0 0  and 6 2 4 0 0 
12993146		 # 	collision with: 4 0 2 0 0  and 6 0 2 0 0 
12993181		 # 	collision with: 5 2 4 0 0  and 6 2 4 0 0 
12993183		 # 	collision with: 8 8 2 0 0  and 2 1 4 0 0 
12993184		 # 	collision with: 1 4 4 0 0  and 1 6 4 0 0 
12993186		 # 	collision with: 1 0 4 0 0  and 9 1 4 0 0 
12993188		 # 	collision with: 5 2 3 0 0  and 6 2 3 0 0 
12993190		 # 	collision with: 4 0 7 0 0  and 6 0 7 0 0 
12993193		 # 	collision with: 1 4 2 0 0  and 1 6 2 0 0 
12993195		 # 	collision with: 4 2 0 0 0  and 4 4 0 0 0 
12993224		 # 	collision with: 5 2 1 0 0  and 6 2 1 0 0 
12993226		 # 	collision with: 4 2 1 0 0  and 4 4 1 0 0 
12993240		 # 	collision with: 8 1 5 0 0  and 8 2 5 0 0 
12993242		 # 	collision with: 6 1 5 0 0  and 6 3 5 0 0 
12993248		 # 	collision with: 8 1 6 0 0  and 3 2 6 0 0 
12993250		 # 	collision with: 4 0 1 0 0  and 6 0 1 0 0 
12993264		 # 	collision with: 5 2 3 0 0  and 6 2 3 0 0 
12993266		 # 	collision with: 4 0 1 0 0  and 6 0 1 0 0 
12993297		 # 	collision with: 4 4 4 0 0  and 7 5 4 0 0 
12993299		 # 	collision with: 9 2 0 0 0  and 1 4 0 0 0 
12993300		 # 	collision with: 5 2 0 0 0  and 6 2 0 0 0 
12993302		 # 	collision with: 8 1 2 0 0  and 2 2 2 0 0 
12993304		 # 	collision with: 5 2 6 0 0  and 6 2 6 0 0 
12993309		 # 	collision with: 5 2 0 0 0  and 5 4 0 0 0 
12993311		 # 	collision with: 4 0 1 0 0  and 6 0 1 0 0 
12993344		 # 	collision with: 5 2 0 0 0  and 6 2 0 0 0 
12993346		 # 	collision with: 4 2 2 0 0  and 4 4 2 0 0 
12993352		 # 	collision with: 5 2 5 0 0  and 6 2 5 0 0 
12993354		 # 	collision with: 4 0 9 0 0  and 6 0 9 0 0 
12993369		 # 	collision with: 1 4 2 0 0  and 1 6 2 0 0 
12993371		 # 	collision with: 4 2 0 0 0  and 4 4 0 0 0 
12993373		 # 	collision with: 5 2 1 0 0  and 6 2 1 0 0 
12993375		 # 	collision with: 3 3 2 0 0  and 7 5 2 0 0 
12993386		 # 	collision with: 2 3 3 0 0  and 2 5 3 0 0 
12993404		 # 	collision with: 5 2 4 0 0  and 6 2 4 0 0 
12993406		 # 	collision with: 2 3 4 0 0  and 2 5 4 0 0 
12993417		 # 	collision with: 9 0 2 0 0  and 2 2 4 0 0 
12993419		 # 	collision with: 4 0 2 0 0  and 6 0 2 0 0 
12993424		 # 	collision with: 9 0 6 0 0  and 2 2 6 0 0 
12993426		 # 	collision with: 4 0 5 0 0  and 6 0 5 0 0 
12993456		 # 	collision with: 5 2 1 0 0  and 6 2 1 0 0 
12993458		 # 	collision with: 4 0 5 0 0  and 6 0 5 0 0 
12993464		 # 	collision with: 0 4 4 0 0  and 4 5 1 1 0 
12993466		 # 	collision with: 8 1 3 0 0  and 0 4 0 1 0 
12993516		 # 	collision with: 5 2 1 0 0  and 6 2 1 0 0 
12993518		 # 	collision with: 4 0 5 0 0  and 6 0 5 0 0 
12993548		 # 	collision with: 9 0 6 0 0  and 2 2 6 0 0 
12993550		 # 	collision with: 4 0 5 0 0  and 6 0 5 0 0 
12993557		 # 	collision with: 8 1 2 0 0  and 8 1 3 0 0 
12993559		 # 	collision with: 4 0 3 0 0  and 6 0 3 0 0 
12993568		 # 	collision with: 5 2 4 0 0  and 6 2 4 0 0 
12993570		 # 	collision with: 3 3 4 0 0  and 3 4 4 0 0 
12993590		 # 	collision with: 1 0 3 0 0  and 9 1 3 0 0 
12993601		 # 	collision with: 5 2 1 0 0  and 6 2 1 0 0 
12993603		 # 	collision with: 4 0 2 0 0  and 6 0 2 0 0 
12993605		 # 	collision with: 6 2 0 0 0  and 6 3 0 0 0 
12993607		 # 	collision with: 4 0 2 0 0  and 6 0 2 0 0 
12993620		 # 	collision with: 5 2 5 0 0  and 6 2 5 0 0 
12993622		 # 	collision with: 4 0 9 0 0  and 6 0 9 0 0 
12993628		 # 	collision with: 5 2 0 0 0  and 6 2 0 0 0 
12993630		 # 	collision with: 8 1 2 0 0  and 2 2 2 0 0 
12993665		 # 	collision with: 5 2 1 0 0  and 6 2 1 0 0 
12993667		 # 	collision with: 9 2 2 0 0  and 9 2 3 0 0 
12993668		 # 	collision with: 5 2 6 0 0  and 6 2 6 0 0 
12993672		 # 	collision with: 5 2 0 0 0  and 6 2 0 0 0 
12993674		 # 	collision with: 2 3 2 0 0  and 2 5 2 0 0 
12993677		 # 	collision with: 5 2 0 0 0  and 6 3 0 0 0 
12993679		 # 	collision with: 5 2 0 0 0  and 5 3 0 0 0 
12993708		 # 	collision with: 5 2 3 0 0  and 6 2 3 0 0 
12993710		 # 	collision with: 4 0 1 0 0  and 6 0 1 0 0 
12993724		 # 	collision with: 7 0 6 0 0  and 4 1 6 0 0 
12993726		 # 	collision with: 4 0 1 0 0  and 6 0 1 0 0 
12993732		 # 	collision with: 10 0 5 0 0  and 10 1 5 0 0 
12993734		 # 	collision with: 2 3 5 0 0  and 2 5 5 0 0 
12993748		 # 	collision with: 8 1 1 0 0  and 3 2 1 0 0 
12993750		 # 	collision with: 8 1 1 0 0  and 2 2 1 0 0 
12993781		 # 	collision with: 6 2 0 0 0  and 6 3 0 0 0 
12993783		 # 	collision with: 3 6 2 0 0  and 3 6 3 0 0 
12993784		 # 	collision with: 5 2 3 0 0  and 6 2 3 0 0 
12993786		 # 	collision with: 4 0 7 0 0  and 6 0 7 0 0 
12993788		 # 	collision with: 7 1 4 0 0  and 7 3 4 0 0 
12993790		 # 	collision with: 1 0 4 0 0  and 9 1 4 0 0 
12993793		 # 	collision with: 9 7 2 0 0  and 9 6 3 0 0 
12993795		 # 	collision with: 9 0 3 0 0  and 9 1 3 0 0 
12993828		 # 	collision with: 5 2 4 0 0  and 6 2 4 0 0 
12993830		 # 	collision with: 4 0 2 0 0  and 6 0 2 0 0 
12993836		 # 	collision with: 9 0 1 0 0  and 2 2 1 0 0 
12993838		 # 	collision with: 1 0 1 0 0  and 9 1 1 0 0 
12993853		 # 	collision with: 5 2 0 0 0  and 6 3 0 0 0 
12993855		 # 	collision with: 5 2 0 0 0  and 5 3 0 0 0 
12993857		 # 	collision with: 9 3 2 0 0  and 2 0 3 0 0 
12993859		 # 	collision with: 6 4 2 0 0  and 6 0 3 0 0 
12993868		 # 	collision with: 5 2 5 0 0  and 6 2 5 0 0 
12993870		 # 	collision with: 4 0 3 0 0  and 6 0 3 0 0 
12993890		 # 	collision with: 4 0 3 0 0  and 6 0 3 0 0 
12993901		 # 	collision with: 5 2 2 0 0  and 6 2 2 0 0 
12993903		 # 	collision with: 7 8 2 0 0  and 3 9 3 0 0 
12993908		 # 	collision with: 10 0 5 0 0  and 10 1 5 0 0 
12993910		 # 	collision with: 2 3 5 0 0  and 2 5 5 0 0 
12993940		 # 	collision with: 5 2 2 0 0  and 6 2 2 0 0 
12993948		 # 	collision with: 0 1 1 0 0  and 2 5 0 1 0 
12993950		 # 	collision with: 4 9 1 0 0  and 1 5 0 1 0 
12994000		 # 	collision with: 5 2 0 0 0  and 6 2 0 0 0 
12994002		 # 	collision with: 1 0 2 0 0  and 9 1 2 0 0 
12994032		 # 	collision with: 5 2 6 0 0  and 6 2 6 0 0 
12994041		 # 	collision with: 5 2 1 0 0  and 6 2 1 0 0 
12994043		 # 	collision with: 7 1 1 0 0  and 7 2 1 0 0 
12994052		 # 	collision with: 2 4 1 0 0  and 2 5 1 0 0 
12994054		 # 	collision with: 9 0 1 0 0  and 9 1 1 0 0 
12994072		 # 	collision with: 5 2 4 0 0  and 6 2 4 0 0 
12994074		 # 	collision with: 4 0 2 0 0  and 6 0 2 0 0 
12994085		 # 	collision with: 10 10 1 0 0  and 10 10 3 0 0 
12994087		 # 	collision with: 7 1 1 0 0  and 7 2 1 0 0 
12994089		 # 	collision with: 5 2 0 0 0  and 6 2 0 0 0 
12994091		 # 	collision with: 8 0 1 0 0  and 8 2 1 0 0 
12994104		 # 	collision with: 5 2 1 0 0  and 6 2 1 0 0 
12994106		 # 	collision with: 4 0 5 0 0  and 6 0 5 0 0 
12994112		 # 	collision with: 9 0 6 0 0  and 2 2 6 0 0 
12994114		 # 	collision with: 4 0 5 0 0  and 6 0 5 0 0 
12994149		 # 	collision with: 4 3 3 0 0  and 7 5 3 0 0 
12994151		 # 	collision with: 3 3 3 0 0  and 7 5 3 0 0 
12994152		 # 	collision with: 5 2 3 0 0  and 6 2 3 0 0 
12994154		 # 	collision with: 4 0 1 0 0  and 6 0 1 0 0 
12994156		 # 	collision with: 4 3 6 0 0  and 4 4 6 0 0 
12994158		 # 	collision with: 4 0 1 0 0  and 6 0 1 0 0 
12994161		 # 	collision with: 5 2 2 0 0  and 6 2 2 0 0 
12994163		 # 	collision with: 6 1 0 0 0  and 6 3 0 0 0 
12994192		 # 	collision with: 5 2 5 0 0  and 6 2 5 0 0 
12994194		 # 	collision with: 4 0 3 0 0  and 6 0 3 0 0 
12994210		 # 	collision with: 4 0 3 0 0  and 6 0 3 0 0 
12994216		 # 	collision with: 5 2 4 0 0  and 6 2 4 0 0 
12994218		 # 	collision with: 2 0 4 0 0  and 8 2 4 0 0 
12994234		 # 	collision with: 9 0 3 0 0  and 9 1 3 0 0 
12994265		 # 	collision with: 5 2 0 0 0  and 6 2 0 0 0 
12994267		 # 	collision with: 8 0 1 0 0  and 8 2 1 0 0 
12994268		 # 	collision with: 6 2 5 0 0  and 6 3 5 0 0 
12994270		 # 	collision with: 9 2 5 0 0  and 1 4 5 0 0 
12994272		 # 	collision with: 5 2 1 0 0  and 6 2 1 0 0 
12994274		 # 	collision with: 9 0 1 0 0  and 9 1 1 0 0 
12994277		 # 	collision with: 8 9 1 0 0  and 3 0 3 0 0 
12994279		 # 	collision with: 2 8 1 0 0  and 8 2 3 0 0 
12994312		 # 	collision with: 9 0 5 0 0  and 2 2 5 0 0 
12994314		 # 	collision with: 8 1 5 0 0  and 2 2 5 0 0 
12994320		 # 	collision with: 5 2 2 0 0  and 6 2 2 0 0 
12994337		 # 	collision with: 5 2 1 0 0  and 6 2 1 0 0 
12994339		 # 	collision with: 6 1 0 0 0  and 6 3 0 0 0 
12994341		 # 	collision with: 6 2 2 0 0  and 5 4 2 0 0 
12994343		 # 	collision with: 4 0 2 0 0  and 6 0 2 0 0 
12994352		 # 	collision with: 5 2 0 0 0  and 6 2 0 0 0 
12994354		 # 	collision with: 10 1 2 0 0  and 0 3 2 0 0 
12994372		 # 	collision with: 5 2 5 0 0  and 6 2 5 0 0 
12994374		 # 	collision with: 4 0 9 0 0  and 6 0 9 0 0 
12994385		 # 	collision with: 8 1 1 0 0  and 8 1 3 0 0 
12994387		 # 	collision with: 2 8 1 0 0  and 2 0 3 0 0 
12994392		 # 	collision with: 3 3 4 0 0  and 3 5 4 0 0 
12994394		 # 	collision with: 1 0 4 0 0  and 9 1 4 0 0 
12994424		 # 	collision with: 5 2 3 0 0  and 6 2 3 0 0 
12994426		 # 	collision with: 4 0 7 0 0  and 6 0 7 0 0 
12994432		 # 	collision with: 10 10 5 0 0  and 2 1 0 1 0 
12994434		 # 	collision with: 8 9 5 0 0  and 4 4 0 1 0 
12994486		 # 	collision with: 4 0 3 0 0  and 6 0 3 0 0 
12994516		 # 	collision with: 5 2 5 0 0  and 6 2 5 0 0 
12994518		 # 	collision with: 4 0 3 0 0  and 6 0 3 0 0 
12994525		 # 	collision with: 8 1 0 0 0  and 8 2 0 0 0 
12994527		 # 	collision with: 4 0 2 0 0  and 6 0 2 0 0 
12994536		 # 	collision with: 5 2 3 0 0  and 6 2 3 0 0 
12994538		 # 	collision with: 4 0 7 0 0  and 6 0 7 0 0 
12994556		 # 	collision with: 5 2 9 0 0  and 6 2 9 0 0 
12994558		 # 	collision with: 1 0 4 0 0  and 9 1 4 0 0 
12994569		 # 	collision with: 8 1 0 0 0  and 8 2 0 0 0 
12994571		 # 	collision with: 2 0 1 0 0  and 8 2 1 0 0 
12994573		 # 	collision with: 5 4 1 0 0  and 5 4 2 0 0 
12994575		 # 	collision with: 1 4 1 0 0  and 1 4 2 0 0 
12994588		 # 	collision with: 5 2 6 0 0  and 5 4 6 0 0 
12994590		 # 	collision with: 4 0 1 0 0  and 6 0 1 0 0 
12994596		 # 	collision with: 5 2 3 0 0  and 6 2 3 0 0 
12994598		 # 	collision with: 4 0 1 0 0  and 6 0 1 0 0 
12994633		 # 	collision with: 3 3 1 0 0  and 3 5 2 0 0 
12994635		 # 	collision with: 4 0 1 0 0  and 6 0 1 0 0 
12994636		 # 	collision with: 5 2 0 0 0  and 6 2 0 0 0 
12994638		 # 	collision with: 1 4 2 0 0  and 1 5 2 0 0 
12994640		 # 	collision with: 5 2 5 0 0  and 6 2 5 0 0 
12994642		 # 	collision with: 4 0 9 0 0  and 6 0 9 0 0 
12994647		 # 	collision with: 7 1 0 0 0  and 7 2 0 0 0 
12994676		 # 	collision with: 7 0 6 0 0  and 4 1 6 0 0 
12994678		 # 	collision with: 4 0 5 0 0  and 6 0 5 0 0 
12994692		 # 	collision with: 5 2 1 0 0  and 6 2 1 0 0 
12994694		 # 	collision with: 4 0 5 0 0  and 6 0 5 0 0 
12994700		 # 	collision with: 5 2 2 0 0  and 6 2 2 0 0 
12994716		 # 	collision with: 9 0 5 0 0  and 9 2 5 0 0 
12994718		 # 	collision with: 10 1 5 0 0  and 0 3 5 0 0 
12994749		 # 	collision with: 4 5 1 0 0  and 7 2 2 0 0 
12994751		 # 	collision with: 2 4 1 0 0  and 2 4 2 0 0 
12994752		 # 	collision with: 8 1 1 0 0  and 3 2 1 0 0 
12994754		 # 	collision with: 10 1 1 0 0  and 0 3 1 0 0 
12994756		 # 	collision with: 5 2 4 0 0  and 6 2 4 0 0 
12994758		 # 	collision with: 4 0 2 0 0  and 6 0 2 0 0 
12994796		 # 	collision with: 9 0 1 0 0  and 2 2 1 0 0 
12994798		 # 	collision with: 2 3 1 0 0  and 2 5 1 0 0 
12994804		 # 	collision with: 8 1 5 0 0  and 3 2 5 0 0 
12994806		 # 	collision with: 4 2 5 0 0  and 4 4 5 0 0 
12994821		 # 	collision with: 8 1 0 0 0  and 3 2 0 0 0 
12994825		 # 	collision with: 5 2 2 0 0  and 6 2 2 0 0 
12994827		 # 	collision with: 6 3 1 0 0  and 6 3 2 0 0 
12994836		 # 	collision with: 5 2 6 0 0  and 6 2 6 0 0 
12994856		 # 	collision with: 5 2 0 0 0  and 6 2 0 0 0 
12994858		 # 	collision with: 10 3 2 0 0  and 0 4 2 0 0 
12994869		 # 	collision with: 5 8 1 0 0  and 6 1 2 0 0 
12994871		 # 	collision with: 1 8 1 0 0  and 1 1 2 0 0 
12994878		 # 	collision with: 10 5 3 0 0  and 10 6 3 0 0 
12994908		 # 	collision with: 5 2 4 0 0  and 6 2 4 0 0 
12994910		 # 	collision with: 6 4 4 0 0  and 4 6 4 0 0 
12994916		 # 	collision with: 10 0 2 0 0  and 6 1 0 1 0 
12994918		 # 	collision with: 4 8 3 0 0  and 10 3 1 1 0 
12994968		 # 	collision with: 3 3 1 0 0  and 3 5 1 0 0 
12994970		 # 	collision with: 8 0 1 0 0  and 8 2 1 0 0 
12995000		 # 	collision with: 5 2 4 0 0  and 6 2 4 0 0 
12995002		 # 	collision with: 4 0 2 0 0  and 6 0 2 0 0 
12995009		 # 	collision with: 5 2 0 0 0  and 6 2 0 0 0 
12995011		 # 	collision with: 1 6 0 0 0  and 1 6 2 0 0 
12995020		 # 	collision with: 3 3 6 0 0  and 3 5 6 0 0 
12995022		 # 	collision with: 4 0 1 0 0  and 6 0 1 0 0 
12995040		 # 	collision with: 5 2 3 0 0  and 6 2 3 0 0 
12995042		 # 	collision with: 4 0 1 0 0  and 6 0 1 0 0 
12995053		 # 	collision with: 5 2 0 0 0  and 6 2 0 0 0 
12995055		 # 	collision with: 4 0 1 0 0  and 6 0 1 0 0 
12995057		 # 	collision with: 10 7 0 0 0  and 1 1 2 0 0 
12995059		 # 	collision with: 4 0 1 0 0  and 6 0 1 0 0 
12995072		 # 	collision with: 8 1 4 0 0  and 3 2 4 0 0 
12995074		 # 	collision with: 8 1 4 0 0  and 2 2 4 0 0 
12995082		 # 	collision with: 3 3 3 0 0  and 3 4 3 0 0 
12995117		 # 	collision with: 2 1 0 0 0  and 2 1 2 0 0 
12995119		 # 	collision with: 2 0 0 0 0  and 8 2 0 0 0 
12995120		 # 	collision with: 7 1 5 0 0  and 7 3 5 0 0 
12995122		 # 	collision with: 8 0 5 0 0  and 8 2 5 0 0 
12995124		 # 	collision with: 5 2 2 0 0  and 6 2 2 0 0 
12995129		 # 	collision with: 4 1 0 0 0  and 7 0 2 0 0 
12995131		 # 	collision with: 8 0 0 0 0  and 8 2 0 0 0 
12995160		 # 	collision with: 8 1 4 0 0  and 8 2 4 0 0 
12995162		 # 	collision with: 1 0 4 0 0  and 9 1 4 0 0 
12995176		 # 	collision with: 5 2 3 0 0  and 6 2 3 0 0 
12995178		 # 	collision with: 4 0 7 0 0  and 6 0 7 0 0 
12995184		 # 	collision with: 5 2 0 0 0  and 6 2 0 0 0 
12995186		 # 	collision with: 3 3 2 0 0  and 3 4 2 0 0 
12995200		 # 	collision with: 5 2 6 0 0  and 6 2 6 0 0 
12995233		 # 	collision with: 4 3 0 0 0  and 4 3 2 0 0 
12995235		 # 	collision with: 4 0 2 0 0  and 6 0 2 0 0 
12995236		 # 	collision with: 5 2 1 0 0  and 6 2 1 0 0 
12995238		 # 	collision with: 4 0 5 0 0  and 6 0 5 0 0 
12995240		 # 	collision with: 9 0 6 0 0  and 2 2 6 0 0 
12995242		 # 	collision with: 4 0 5 0 0  and 6 0 5 0 0 
12995245		 # 	collision with: 9 0 0 0 0  and 2 2 0 0 0 
12995247		 # 	collision with: 4 0 2 0 0  and 6 0 2 0 0 
12995280		 # 	collision with: 5 2 5 0 0  and 6 2 5 0 0 
12995282		 # 	collision with: 4 0 3 0 0  and 6 0 3 0 0 
12995290		 # 	collision with: 4 0 3 0 0  and 6 0 3 0 0 
12995305		 # 	collision with: 5 2 2 0 0  and 5 4 2 0 0 
12995307		 # 	collision with: 8 0 0 0 0  and 8 2 0 0 0 
12995309		 # 	collision with: 6 5 0 0 0  and 6 5 2 0 0 
12995311		 # 	collision with: 8 1 1 0 0  and 2 2 1 0 0 
12995320		 # 	collision with: 5 2 1 0 0  and 6 2 1 0 0 
12995322		 # 	collision with: 8 0 1 0 0  and 8 2 1 0 0 
12995340		 # 	collision with: 9 0 5 0 0  and 2 2 5 0 0 
12995342		 # 	collision with: 8 0 5 0 0  and 8 2 5 0 0 
12995353		 # 	collision with: 4 1 0 0 0  and 7 0 2 0 0 
12995355		 # 	collision with: 4 5 0 0 0  and 4 5 2 0 0 
12995360		 # 	collision with: 5 2 0 0 0  and 6 2 0 0 0 
12995362		 # 	collision with: 3 3 2 0 0  and 3 4 2 0 0 
12995392		 # 	collision with: 5 2 5 0 0  and 6 2 5 0 0 
12995394		 # 	collision with: 4 0 9 0 0  and 6 0 9 0 0 
12995400		 # 	collision with: 6 9 6 0 0  and 2 7 2 1 0 
12995402		 # 	collision with: 3 0 6 0 0  and 9 10 2 1 0 
12995452		 # 	collision with: 10 0 6 0 0  and 10 1 6 0 0 
12995454		 # 	collision with: 4 0 1 0 0  and 6 0 1 0 0 
12995484		 # 	collision with: 5 2 3 0 0  and 6 2 3 0 0 
12995486		 # 	collision with: 4 0 1 0 0  and 6 0 1 0 0 
12995493		 # 	collision with: 3 4 0 0 0  and 3 4 1 0 0 
12995495		 # 	collision with: 8 5 0 0 0  and 2 7 0 0 0 
12995504		 # 	collision with: 5 2 2 0 0  and 6 2 2 0 0 
12995524		 # 	collision with: 8 1 5 0 0  and 3 2 5 0 0 
12995526		 # 	collision with: 1 0 5 0 0  and 9 1 5 0 0 
12995537		 # 	collision with: 2 4 0 0 0  and 2 4 1 0 0 
12995539		 # 	collision with: 8 5 0 0 0  and 2 7 0 0 0 
12995543		 # 	collision with: 6 2 0 0 0  and 6 2 1 0 0 
12995556		 # 	collision with: 5 2 0 0 0  and 6 2 0 0 0 
12995558		 # 	collision with: 8 0 2 0 0  and 8 2 2 0 0 
12995564		 # 	collision with: 5 2 6 0 0  and 6 2 6 0 0 
12995601		 # 	collision with: 5 2 0 0 0  and 6 2 0 0 0 
12995603		 # 	collision with: 2 2 0 0 0  and 8 1 1 0 0 
12995604		 # 	collision with: 5 2 5 0 0  and 6 2 5 0 0 
12995606		 # 	collision with: 4 0 3 0 0  and 6 0 3 0 0 
12995610		 # 	collision with: 4 0 3 0 0  and 6 0 3 0 0 
12995613		 # 	collision with: 3 9 0 0 0  and 3 9 1 0 0 
12995615		 # 	collision with: 9 0 0 0 0  and 9 1 0 0 0 
12995644		 # 	collision with: 5 2 0 0 0  and 6 2 0 0 0 
12995646		 # 	collision with: 8 0 2 0 0  and 8 2 2 0 0 
12995660		 # 	collision with: 5 2 5 0 0  and 6 2 5 0 0 
12995662		 # 	collision with: 4 0 9 0 0  and 6 0 9 0 0 
12995668		 # 	collision with: 4 3 1 0 0  and 4 4 1 0 0 
12995670		 # 	collision with: 7 1 1 0 0  and 7 2 1 0 0 
12995684		 # 	collision with: 5 2 4 0 0  and 6 2 4 0 0 
12995686		 # 	collision with: 4 0 2 0 0  and 6 0 2 0 0 
12995717		 # 	collision with: 7 2 0 0 0  and 4 2 1 0 0 
12995720		 # 	collision with: 5 2 4 0 0  and 6 2 4 0 0 
12995722		 # 	collision with: 8 0 4 0 0  and 8 2 4 0 0 
12995726		 # 	collision with: 5 2 3 0 0  and 5 3 3 0 0 
12995729		 # 	collision with: 1 3 0 0 0  and 1 3 1 0 0 
12995731		 # 	collision with: 4 3 0 0 0  and 4 3 1 0 0 
12995764		 # 	collision with: 9 0 4 0 0  and 2 2 4 0 0 
12995766		 # 	collision with: 1 0 4 0 0  and 9 1 4 0 0 
12995772		 # 	collision with: 5 2 3 0 0  and 6 2 3 0 0 
12995774		 # 	collision with: 4 0 7 0 0  and 6 0 7 0 0 
12995789		 # 	collision with: 7 9 0 0 0  and 7 9 1 0 0 
12995791		 # 	collision with: 9 0 0 0 0  and 9 1 0 0 0 
12995795		 # 	collision with: 4 1 0 0 0  and 4 5 1 0 0 
12995804		 # 	collision with: 10 0 6 0 0  and 10 1 6 0 0 
12995806		 # 	collision with: 4 0 5 0 0  and 6 0 5 0 0 
12995824		 # 	collision with: 5 2 1 0 0  and 6 2 1 0 0 
12995826		 # 	collision with: 4 0 5 0 0  and 6 0 5 0 0 
12995837		 # 	collision with: 7 3 0 0 0  and 7 1 1 0 0 
12995844		 # 	collision with: 5 2 1 0 0  and 6 2 1 0 0 
12995846		 # 	collision with: 7 1 1 0 0  and 7 2 1 0 0 
12995876		 # 	collision with: 7 0 5 0 0  and 4 1 5 0 0 
12995878		 # 	collision with: 6 4 5 0 0  and 4 6 5 0 0 
12995944		 # 	collision with: 7 1 0 0 0  and 7 3 0 0 0 
12995946		 # 	collision with: 9 0 0 0 0  and 9 1 0 0 0 
12995960		 # 	collision with: 10 0 0 0 0  and 10 1 0 0 0 
12995962		 # 	collision with: 5 2 0 0 0  and 5 3 0 0 0 
12995979		 # 	collision with: 4 1 0 0 0  and 6 1 0 0 0 
12995992		 # 	collision with: 5 2 0 0 0  and 6 3 0 0 0 
12995994		 # 	collision with: 2 3 0 0 0  and 2 5 0 0 0 
81.5545secs	27405
