# prime 11
# degree 2
# input variables 3
# output variables 4
# reload computed balance functions from file balance-137of3248-p11d2m3-debug.log
# p = 11
# n = 4
# smalldomain p^m 1331
# domain p^n 14641
#	 p^2 = 121
#	 p^3 = 1331
#	 p^4 = 14641
#	 p^5 = 161051
#	 p^6 = 1771561
#	 p^7 = 19487171
#	 p^8 = 214358881
#	 p^9 = 2357947691
opening file : balance-137of3248-p11d2m3-debug.log
reloading for step2...
822008		 # 	collision with: 9 4 0 0  and 10 1 1 0 
822010		 # 	collision with: 5 7 0 0  and 7 1 2 0 
822045		 # 	collision with: 4 7 0 0  and 6 7 0 0 
822047		 # 	collision with: 7 2 0 0  and 7 0 1 0 
822052		 # 	collision with: 3 3 1 0  and 10 8 3 0 
822054		 # 	collision with: 8 6 1 0  and 10 3 2 0 
822073		 # 	collision with: 2 7 0 0  and 3 7 0 0 
822075		 # 	collision with: 6 1 0 0  and 2 8 1 0 
822096		 # 	collision with: 5 8 0 0  and 3 5 1 0 
822098		 # 	collision with: 9 7 0 0  and 7 4 1 0 
822121		 # 	collision with: 1 3 0 0  and 5 4 0 0 
822140		 # 	collision with: 6 8 0 0  and 1 2 2 0 
822142		 # 	collision with: 9 0 0 0  and 3 5 2 0 
822149		 # 	collision with: 1 7 0 0  and 3 7 0 0 
822151		 # 	collision with: 4 5 0 0  and 4 5 1 0 
822184		 # 	collision with: 6 3 0 0  and 5 0 1 0 
822186		 # 	collision with: 6 1 0 0  and 10 9 1 0 
822225		 # 	collision with: 9 3 0 0  and 1 4 0 0 
822227		 # 	collision with: 6 6 0 0  and 5 1 1 0 
822228		 # 	collision with: 8 6 0 0  and 2 3 1 0 
822230		 # 	collision with: 9 8 0 0  and 6 5 1 0 
822245		 # 	collision with: 0 7 0 0  and 1 7 0 0 
822247		 # 	collision with: 1 5 0 0  and 4 3 1 0 
822272		 # 	collision with: 6 6 0 0  and 4 0 2 0 
822274		 # 	collision with: 10 3 1 0  and 4 0 2 0 
822305		 # 	collision with: 2 7 0 0  and 4 7 0 0 
822307		 # 	collision with: 5 4 0 0  and 1 6 1 0 
822316		 # 	collision with: 4 4 2 0  and 3 0 0 1 
822318		 # 	collision with: 6 9 0 0  and 1 0 1 0 
822320		 # 	collision with: 7 0 6 0  and 10 1 6 0 
822322		 # 	collision with: 0 5 0 0  and 6 4 1 0 
822324		 # 	collision with: 9 0 3 0  and 5 1 3 0 
822326		 # 	collision with: 1 7 0 0  and 7 8 1 0 
822328		 # 	collision with: 6 0 2 0  and 7 1 2 0 
822330		 # 	collision with: 6 3 0 0  and 1 10 1 0 
822332		 # 	collision with: 0 7 0 0  and 1 7 0 0 
822336		 # 	collision with: 8 0 10 0  and 2 1 10 0 
822338		 # 	collision with: 7 0 10 0  and 7 1 10 0 
822340		 # 	collision with: 3 0 1 0  and 9 1 1 0 
822342		 # 	collision with: 2 9 0 0  and 8 8 1 0 
822344		 # 	collision with: 1 0 4 0  and 3 1 4 0 
822346		 # 	collision with: 7 6 0 0  and 2 7 1 0 
822348		 # 	collision with: 5 0 9 0  and 4 1 9 0 
822350		 # 	collision with: 7 3 0 0  and 2 7 1 0 
822352		 # 	collision with: 2 0 8 0  and 6 1 8 0 
822354		 # 	collision with: 7 0 8 0  and 7 1 8 0 
822356		 # 	collision with: 4 0 5 0  and 1 1 5 0 
822358		 # 	collision with: 1 7 0 0  and 7 3 1 0 
822360		 # 	collision with: 1 9 0 0  and 6 0 1 0 
822362		 # 	collision with: 9 9 1 0  and 8 0 2 0 
822373		 # 	collision with: 3 7 0 0  and 4 7 0 0 
822404		 # 	collision with: 2 1 0 0  and 3 3 1 0 
822406		 # 	collision with: 10 0 0 0  and 9 2 1 0 
822433		 # 	collision with: 0 7 0 0  and 1 7 0 0 
822435		 # 	collision with: 3 3 0 0  and 0 0 2 0 
822448		 # 	collision with: 8 2 2 0  and 6 4 3 0 
822450		 # 	collision with: 9 8 0 0  and 3 1 2 0 
822453		 # 	collision with: 4 7 0 0  and 6 7 0 0 
822531		 # 	collision with: 2 4 0 0  and 6 3 2 0 
822536		 # 	collision with: 4 0 0 0  and 10 2 1 0 
822538		 # 	collision with: 10 10 1 0  and 0 1 2 0 
822557		 # 	collision with: 1 7 0 0  and 3 7 0 0 
822559		 # 	collision with: 5 3 1 0  and 2 1 2 0 
822580		 # 	collision with: 5 2 0 0  and 1 4 1 0 
822582		 # 	collision with: 9 1 0 0  and 10 3 1 0 
822605		 # 	collision with: 3 7 0 0  and 5 7 0 0 
822607		 # 	collision with: 10 9 0 0  and 10 9 1 0 
822624		 # 	collision with: 2 3 0 0  and 4 5 1 0 
822626		 # 	collision with: 9 10 0 0  and 6 1 1 0 
822633		 # 	collision with: 1 7 0 0  and 2 7 0 0 
822635		 # 	collision with: 7 0 0 0  and 7 7 1 0 
822668		 # 	collision with: 3 3 1 0  and 6 5 2 0 
822670		 # 	collision with: 1 2 1 0  and 8 4 2 0 
822709		 # 	collision with: 8 2 0 0  and 6 4 0 0 
822711		 # 	collision with: 0 0 1 0  and 6 2 2 0 
822712		 # 	collision with: 4 1 1 0  and 6 3 2 0 
822714		 # 	collision with: 9 0 1 0  and 1 2 2 0 
822729		 # 	collision with: 5 2 0 0  and 1 4 0 0 
822731		 # 	collision with: 7 2 0 0  and 10 7 1 0 
822756		 # 	collision with: 3 10 1 0  and 4 1 2 0 
822758		 # 	collision with: 5 4 0 0  and 1 6 1 0 
822789		 # 	collision with: 4 2 0 0  and 3 4 0 0 
822791		 # 	collision with: 2 7 1 0  and 4 7 1 0 
822800		 # 	collision with: 10 4 9 0  and 3 0 0 1 
822802		 # 	collision with: 2 7 0 0  and 7 5 1 0 
822804		 # 	collision with: 7 0 5 0  and 10 1 5 0 
822806		 # 	collision with: 10 0 0 0  and 4 3 1 0 
822808		 # 	collision with: 9 0 8 0  and 5 1 8 0 
822810		 # 	collision with: 1 9 0 0  and 6 8 1 0 
822812		 # 	collision with: 6 0 9 0  and 7 1 9 0 
822814		 # 	collision with: 6 0 0 0  and 0 6 1 0 
822816		 # 	collision with: 10 0 4 0  and 8 1 4 0 
822818		 # 	collision with: 3 5 0 0  and 8 4 1 0 
822820		 # 	collision with: 8 0 1 0  and 2 1 1 0 
822822		 # 	collision with: 7 2 0 0  and 1 7 1 0 
822824		 # 	collision with: 3 0 10 0  and 9 1 10 0 
822826		 # 	collision with: 2 7 0 0  and 7 8 1 0 
822828		 # 	collision with: 0 7 0 0  and 1 7 0 0 
822832		 # 	collision with: 5 0 2 0  and 4 1 2 0 
822834		 # 	collision with: 0 9 0 0  and 5 3 1 0 
822836		 # 	collision with: 2 0 3 0  and 6 1 3 0 
822838		 # 	collision with: 1 1 0 0  and 6 4 1 0 
822840		 # 	collision with: 4 0 6 0  and 1 1 6 0 
822842		 # 	collision with: 7 6 0 0  and 1 7 1 0 
822844		 # 	collision with: 1 4 0 0  and 5 2 1 0 
822846		 # 	collision with: 2 1 0 0  and 4 8 2 0 
822857		 # 	collision with: 5 2 0 0  and 9 3 0 0 
822859		 # 	collision with: 7 2 0 0  and 7 3 0 0 
822888		 # 	collision with: 3 9 0 0  and 8 5 2 0 
822890		 # 	collision with: 9 3 0 0  and 1 1 1 0 
822917		 # 	collision with: 5 7 0 0  and 6 7 0 0 
822919		 # 	collision with: 3 9 0 0  and 6 4 1 0 
822932		 # 	collision with: 10 4 0 0  and 9 0 2 0 
822934		 # 	collision with: 3 6 0 0  and 2 4 1 0 
822937		 # 	collision with: 3 2 0 0  and 1 3 0 0 
822939		 # 	collision with: 7 1 1 0  and 7 3 1 0 
822976		 # 	collision with: 10 2 0 0  and 4 0 1 0 
822978		 # 	collision with: 1 4 0 0  and 10 2 1 0 
823013		 # 	collision with: 3 7 0 0  and 5 7 0 0 
823015		 # 	collision with: 2 0 0 0  and 10 4 1 0 
823020		 # 	collision with: 10 8 0 0  and 1 6 1 0 
823022		 # 	collision with: 7 9 0 0  and 2 7 1 0 
823041		 # 	collision with: 1 7 0 0  and 2 7 0 0 
823043		 # 	collision with: 3 2 0 0  and 3 2 1 0 
823064		 # 	collision with: 4 8 1 0  and 7 6 2 0 
823066		 # 	collision with: 9 5 0 0  and 4 1 2 0 
823089		 # 	collision with: 3 7 0 0  and 4 7 0 0 
823091		 # 	collision with: 1 3 1 0  and 10 4 2 0 
823119		 # 	collision with: 7 1 0 0  and 0 7 1 0 
823152		 # 	collision with: 3 3 0 0  and 2 1 1 0 
823154		 # 	collision with: 10 7 0 0  and 7 3 2 0 
823193		 # 	collision with: 7 2 0 0  and 6 3 0 0 
823196		 # 	collision with: 4 4 1 0  and 9 2 2 0 
823198		 # 	collision with: 1 7 1 0  and 7 3 3 0 
823213		 # 	collision with: 9 2 0 0  and 3 3 0 0 
823215		 # 	collision with: 8 1 1 0  and 2 6 2 0 
823240		 # 	collision with: 5 8 1 0  and 2 4 3 0 
823242		 # 	collision with: 10 2 1 0  and 6 0 2 0 
823273		 # 	collision with: 1 7 0 0  and 3 7 0 0 
823284		 # 	collision with: 9 9 3 0  and 3 0 0 1 
823286		 # 	collision with: 0 1 0 0  and 4 4 1 0 
823288		 # 	collision with: 7 0 4 0  and 10 1 4 0 
823290		 # 	collision with: 4 3 0 0  and 8 8 1 0 
823292		 # 	collision with: 9 0 2 0  and 5 1 2 0 
823294		 # 	collision with: 7 6 0 0  and 0 7 1 0 
823296		 # 	collision with: 6 0 5 0  and 7 1 5 0 
823298		 # 	collision with: 9 5 0 0  and 2 10 1 0 
823300		 # 	collision with: 10 0 1 0  and 8 1 1 0 
823302		 # 	collision with: 9 6 1 0  and 1 0 0 1 
823304		 # 	collision with: 8 0 3 0  and 2 1 3 0 
823306		 # 	collision with: 4 4 0 0  and 8 5 1 0 
823308		 # 	collision with: 3 0 8 0  and 9 1 8 0 
823310		 # 	collision with: 10 3 0 0  and 3 10 1 0 
823312		 # 	collision with: 1 0 10 0  and 3 1 10 0 
823314		 # 	collision with: 6 5 0 0  and 10 4 1 0 
823316		 # 	collision with: 5 0 6 0  and 4 1 6 0 
823318		 # 	collision with: 7 1 0 0  and 0 7 1 0 
823320		 # 	collision with: 2 0 9 0  and 6 1 9 0 
823322		 # 	collision with: 9 8 0 0  and 2 0 1 0 
823324		 # 	collision with: 0 7 0 0  and 1 7 0 0 
823328		 # 	collision with: 5 8 0 0  and 4 0 1 0 
823330		 # 	collision with: 3 8 2 0  and 6 0 3 0 
823341		 # 	collision with: 2 7 0 0  and 3 7 0 0 
823343		 # 	collision with: 7 1 0 0  and 7 3 0 0 
823372		 # 	collision with: 5 9 0 0  and 2 1 1 0 
823374		 # 	collision with: 10 5 0 0  and 1 8 1 0 
823401		 # 	collision with: 5 1 0 0  and 2 3 0 0 
823403		 # 	collision with: 3 5 0 0  and 2 1 1 0 
823416		 # 	collision with: 10 10 0 0  and 5 2 1 0 
823418		 # 	collision with: 8 7 0 0  and 7 2 2 0 
823421		 # 	collision with: 3 7 0 0  and 5 7 0 0 
823423		 # 	collision with: 7 1 1 0  and 7 2 1 0 
823460		 # 	collision with: 3 3 0 0  and 1 6 1 0 
823462		 # 	collision with: 10 8 0 0  and 5 0 1 0 
823497		 # 	collision with: 2 1 0 0  and 3 3 0 0 
823499		 # 	collision with: 9 6 0 0  and 9 6 1 0 
823504		 # 	collision with: 5 5 0 0  and 3 0 2 0 
823506		 # 	collision with: 8 10 0 0  and 2 2 1 0 
823525		 # 	collision with: 0 7 0 0  and 2 7 0 0 
823548		 # 	collision with: 4 9 1 0  and 6 1 2 0 
823550		 # 	collision with: 1 8 1 0  and 0 0 2 0 
823573		 # 	collision with: 2 7 0 0  and 4 7 0 0 
823575		 # 	collision with: 7 3 0 0  and 0 7 2 0 
823592		 # 	collision with: 2 8 1 0  and 6 0 2 0 
823594		 # 	collision with: 1 2 1 0  and 3 5 2 0 
823601		 # 	collision with: 1 1 0 0  and 7 3 0 0 
823603		 # 	collision with: 8 9 0 0  and 0 2 1 0 
823636		 # 	collision with: 9 8 0 0  and 6 3 2 0 
823638		 # 	collision with: 2 10 0 0  and 9 5 2 0 
823677		 # 	collision with: 7 1 0 0  and 5 3 0 0 
823679		 # 	collision with: 4 5 0 0  and 5 4 2 0 
823680		 # 	collision with: 3 6 2 0  and 6 1 4 0 
823682		 # 	collision with: 5 2 1 0  and 6 8 3 0 
823697		 # 	collision with: 4 7 0 0  and 5 7 0 0 
823699		 # 	collision with: 9 10 0 0  and 10 9 1 0 
823759		 # 	collision with: 10 3 1 0  and 0 4 1 0 
823768		 # 	collision with: 6 8 10 0  and 8 1 0 1 
823770		 # 	collision with: 3 1 0 0  and 6 5 1 0 
823772		 # 	collision with: 7 0 3 0  and 10 1 3 0 
823774		 # 	collision with: 10 3 0 0  and 2 5 1 0 
823776		 # 	collision with: 0 7 0 0  and 1 7 0 0 
823780		 # 	collision with: 6 0 1 0  and 7 1 1 0 
823782		 # 	collision with: 4 7 0 0  and 7 0 1 0 
823784		 # 	collision with: 10 0 9 0  and 8 1 9 0 
823786		 # 	collision with: 5 0 0 0  and 8 10 1 0 
823788		 # 	collision with: 8 0 5 0  and 2 1 5 0 
823790		 # 	collision with: 7 6 0 0  and 10 7 1 0 
823792		 # 	collision with: 3 0 6 0  and 9 1 6 0 
823794		 # 	collision with: 7 0 0 0  and 10 7 1 0 
823796		 # 	collision with: 1 0 2 0  and 3 1 2 0 
823798		 # 	collision with: 3 9 0 0  and 6 4 1 0 
823800		 # 	collision with: 5 0 10 0  and 4 1 10 0 
823802		 # 	collision with: 5 1 0 0  and 8 8 1 0 
823804		 # 	collision with: 2 0 4 0  and 6 1 4 0 
823806		 # 	collision with: 9 9 0 0  and 1 10 1 0 
823808		 # 	collision with: 4 0 8 0  and 1 1 8 0 
823810		 # 	collision with: 9 5 0 0  and 1 4 1 0 
823812		 # 	collision with: 4 2 1 0  and 9 6 2 0 
823814		 # 	collision with: 0 9 1 0  and 1 2 2 0 
823825		 # 	collision with: 4 1 0 0  and 7 2 0 0 
823827		 # 	collision with: 7 1 0 0  and 7 2 0 0 
823887		 # 	collision with: 3 3 0 0  and 9 4 1 0 
823900		 # 	collision with: 5 8 0 0  and 1 1 1 0 
823902		 # 	collision with: 5 4 0 0  and 2 8 1 0 
823905		 # 	collision with: 7 1 0 0  and 4 2 0 0 
823907		 # 	collision with: 0 3 0 0  and 6 1 1 0 
823944		 # 	collision with: 10 2 0 0  and 9 10 2 0 
823946		 # 	collision with: 3 10 0 0  and 10 3 1 0 
823981		 # 	collision with: 10 1 0 0  and 1 2 0 0 
823988		 # 	collision with: 2 4 0 0  and 5 8 1 0 
823990		 # 	collision with: 5 3 0 0  and 9 0 2 0 
824009		 # 	collision with: 5 1 0 0  and 6 2 0 0 
824011		 # 	collision with: 5 1 2 0  and 4 3 2 0 
824032		 # 	collision with: 5 3 0 0  and 6 0 2 0 
824034		 # 	collision with: 8 7 0 0  and 7 4 2 0 
824057		 # 	collision with: 1 1 0 0  and 10 2 0 0 
824059		 # 	collision with: 8 3 1 0  and 4 1 3 0 
824076		 # 	collision with: 0 3 0 0  and 2 7 1 0 
824078		 # 	collision with: 2 3 1 0  and 1 0 3 0 
824085		 # 	collision with: 5 7 0 0  and 6 7 0 0 
824087		 # 	collision with: 6 1 0 0  and 1 6 1 0 
824120		 # 	collision with: 1 7 1 0  and 0 0 2 0 
824122		 # 	collision with: 5 7 0 0  and 7 0 1 0 
824161		 # 	collision with: 6 1 0 0  and 5 2 0 0 
824163		 # 	collision with: 7 0 0 0  and 1 7 1 0 
824164		 # 	collision with: 3 2 0 0  and 4 6 1 0 
824166		 # 	collision with: 2 7 1 0  and 7 0 2 0 
824181		 # 	collision with: 2 1 0 0  and 9 2 0 0 
824208		 # 	collision with: 5 4 0 0  and 8 1 2 0 
824210		 # 	collision with: 8 0 0 0  and 2 4 1 0 
824241		 # 	collision with: 8 1 0 0  and 3 2 0 0 
824243		 # 	collision with: 5 2 1 0  and 0 4 1 0 
824252		 # 	collision with: 0 1 2 0  and 2 0 0 1 
824254		 # 	collision with: 6 4 0 0  and 8 10 1 0 
824256		 # 	collision with: 7 0 2 0  and 10 1 2 0 
824258		 # 	collision with: 8 0 0 0  and 10 1 1 0 
824260		 # 	collision with: 9 0 1 0  and 5 1 1 0 
824262		 # 	collision with: 1 5 0 0  and 3 4 1 0 
824264		 # 	collision with: 6 0 8 0  and 7 1 8 0 
824266		 # 	collision with: 2 6 0 0  and 4 9 1 0 
824268		 # 	collision with: 10 0 6 0  and 8 1 6 0 
824270		 # 	collision with: 10 0 10 0  and 0 1 0 1 
824272		 # 	collision with: 0 7 0 0  and 1 7 0 0 
824276		 # 	collision with: 3 0 4 0  and 9 1 4 0 
824278		 # 	collision with: 7 0 4 0  and 7 1 4 0 
824280		 # 	collision with: 1 0 5 0  and 3 1 5 0 
824282		 # 	collision with: 3 1 0 0  and 5 6 1 0 
824284		 # 	collision with: 5 0 3 0  and 4 1 3 0 
824286		 # 	collision with: 2 5 0 0  and 4 0 1 0 
824288		 # 	collision with: 2 0 10 0  and 6 1 10 0 
824290		 # 	collision with: 4 9 0 0  and 6 2 1 0 
824292		 # 	collision with: 4 0 9 0  and 1 1 9 0 
824294		 # 	collision with: 7 10 0 0  and 9 7 1 0 
824296		 # 	collision with: 5 10 1 0  and 9 5 2 0 
824298		 # 	collision with: 6 2 1 0  and 1 8 2 0 
824309		 # 	collision with: 3 0 0 0  and 2 2 0 0 
824311		 # 	collision with: 7 0 0 0  and 7 2 0 0 
824340		 # 	collision with: 7 9 0 0  and 1 10 2 0 
824342		 # 	collision with: 4 8 1 0  and 5 3 2 0 
824369		 # 	collision with: 10 0 0 0  and 3 2 0 0 
824371		 # 	collision with: 6 3 0 0  and 6 3 1 0 
824384		 # 	collision with: 2 10 0 0  and 8 5 1 0 
824386		 # 	collision with: 0 8 0 0  and 6 3 1 0 
824389		 # 	collision with: 2 7 0 0  and 4 7 0 0 
824391		 # 	collision with: 7 0 1 0  and 7 1 1 0 
824428		 # 	collision with: 4 0 0 0  and 6 6 1 0 
824430		 # 	collision with: 5 5 0 0  and 8 0 1 0 
824465		 # 	collision with: 2 7 0 0  and 3 7 0 0 
824467		 # 	collision with: 5 0 0 0  and 10 8 1 0 
824495		 # 	collision with: 0 4 0 0  and 2 5 1 0 
824516		 # 	collision with: 5 9 0 0  and 4 4 1 0 
824518		 # 	collision with: 5 9 0 0  and 1 4 1 0 
824541		 # 	collision with: 7 0 0 0  and 1 2 0 0 
824543		 # 	collision with: 6 0 0 0  and 1 4 1 0 
824560		 # 	collision with: 1 5 0 0  and 5 0 1 0 
824562		 # 	collision with: 0 2 0 0  and 1 3 2 0 
824569		 # 	collision with: 4 7 0 0  and 6 7 0 0 
824571		 # 	collision with: 7 3 1 0  and 0 7 2 0 
824604		 # 	collision with: 5 3 0 0  and 3 4 2 0 
824606		 # 	collision with: 0 0 0 0  and 8 1 2 0 
824645		 # 	collision with: 6 0 0 0  and 4 2 0 0 
824647		 # 	collision with: 7 1 2 0  and 7 3 2 0 
824648		 # 	collision with: 6 5 1 0  and 8 0 2 0 
824650		 # 	collision with: 2 7 0 0  and 7 2 1 0 
824665		 # 	collision with: 9 0 0 0  and 6 2 0 0 
824667		 # 	collision with: 7 3 1 0  and 10 7 2 0 
824692		 # 	collision with: 0 1 0 0  and 9 7 1 0 
824694		 # 	collision with: 8 10 2 0  and 5 0 4 0 
824725		 # 	collision with: 0 7 0 0  and 1 7 0 0 
824727		 # 	collision with: 0 7 1 0  and 2 7 1 0 
824736		 # 	collision with: 1 7 7 0  and 1 0 0 1 
824738		 # 	collision with: 7 6 0 0  and 8 7 1 0 
824740		 # 	collision with: 7 0 1 0  and 10 1 1 0 
824742		 # 	collision with: 7 0 1 0  and 7 1 1 0 
824744		 # 	collision with: 9 0 6 0  and 5 1 6 0 
824746		 # 	collision with: 7 0 6 0  and 7 1 6 0 
824748		 # 	collision with: 6 0 4 0  and 7 1 4 0 
824750		 # 	collision with: 3 2 0 0  and 4 4 1 0 
824752		 # 	collision with: 10 0 3 0  and 8 1 3 0 
824754		 # 	collision with: 6 7 0 0  and 7 1 1 0 
824756		 # 	collision with: 8 0 9 0  and 2 1 9 0 
824758		 # 	collision with: 4 5 0 0  and 5 4 1 0 
824760		 # 	collision with: 3 0 2 0  and 9 1 2 0 
824762		 # 	collision with: 1 4 0 0  and 2 10 1 0 
824764		 # 	collision with: 1 0 8 0  and 3 1 8 0 
824766		 # 	collision with: 3 10 0 0  and 4 0 1 0 
824768		 # 	collision with: 0 7 0 0  and 1 7 0 0 
824772		 # 	collision with: 2 0 5 0  and 6 1 5 0 
824774		 # 	collision with: 7 9 0 0  and 8 7 1 0 
824776		 # 	collision with: 4 0 10 0  and 1 1 10 0 
824778		 # 	collision with: 0 8 0 0  and 1 10 1 0 
824780		 # 	collision with: 9 3 0 0  and 1 4 1 0 
824782		 # 	collision with: 3 10 0 0  and 9 1 2 0 
824793		 # 	collision with: 0 7 0 0  and 2 7 0 0 
824795		 # 	collision with: 7 0 0 0  and 7 1 0 0 
824824		 # 	collision with: 2 9 1 0  and 1 0 3 0 
824826		 # 	collision with: 1 10 0 0  and 8 0 1 0 
824853		 # 	collision with: 3 7 0 0  and 4 7 0 0 
824855		 # 	collision with: 2 4 0 0  and 8 0 1 0 
824868		 # 	collision with: 7 1 0 0  and 4 2 1 0 
824870		 # 	collision with: 3 4 0 0  and 1 5 1 0 
824873		 # 	collision with: 2 7 0 0  and 3 7 0 0 
824875		 # 	collision with: 7 5 1 0  and 7 6 1 0 
824912		 # 	collision with: 7 4 1 0  and 5 5 2 0 
824914		 # 	collision with: 1 9 0 0  and 4 0 2 0 
824949		 # 	collision with: 1 7 0 0  and 3 7 0 0 
824951		 # 	collision with: 5 2 0 0  and 4 0 2 0 
824956		 # 	collision with: 4 0 1 0  and 1 1 2 0 
824958		 # 	collision with: 9 1 0 0  and 10 3 2 0 
824977		 # 	collision with: 7 0 0 0  and 10 1 0 0 
824979		 # 	collision with: 5 7 2 0  and 6 7 2 0 
825000		 # 	collision with: 8 0 0 0  and 2 1 1 0 
825002		 # 	collision with: 1 2 1 0  and 8 4 3 0 
825025		 # 	collision with: 6 0 0 0  and 7 1 0 0 
825027		 # 	collision with: 8 2 0 0  and 3 0 2 0 
825044		 # 	collision with: 7 3 1 0  and 2 4 2 0 
825046		 # 	collision with: 3 0 0 0  and 6 1 1 0 
825053		 # 	collision with: 4 7 0 0  and 5 7 0 0 
825055		 # 	collision with: 9 10 1 0  and 1 6 2 0 
825131		 # 	collision with: 9 5 0 0  and 1 4 1 0 
825132		 # 	collision with: 3 10 0 0  and 5 0 1 0 
825134		 # 	collision with: 6 10 1 0  and 9 0 2 0 
825149		 # 	collision with: 2 7 0 0  and 4 7 0 0 
825151		 # 	collision with: 3 7 0 0  and 7 2 2 0 
825176		 # 	collision with: 1 1 1 0  and 7 3 3 0 
825178		 # 	collision with: 10 7 0 0  and 7 8 1 0 
825209		 # 	collision with: 9 0 0 0  and 5 1 0 0 
825211		 # 	collision with: 0 7 0 0  and 7 3 1 0 
825226		 # 	collision with: 7 1 0 0  and 7 2 0 0 
825230		 # 	collision with: 7 3 0 0  and 7 4 0 0 
825234		 # 	collision with: 7 5 0 0  and 7 6 0 0 
825238		 # 	collision with: 7 1 0 0  and 7 3 0 0 
825242		 # 	collision with: 7 3 0 0  and 7 5 0 0 
825246		 # 	collision with: 7 0 0 0  and 7 1 0 0 
825250		 # 	collision with: 7 2 0 0  and 7 3 0 0 
825254		 # 	collision with: 7 4 0 0  and 7 5 0 0 
825258		 # 	collision with: 7 0 0 0  and 7 2 0 0 
825262		 # 	collision with: 7 2 0 0  and 7 4 0 0 
825280		 # 	collision with: 4 0 0 0  and 6 0 0 0 
825282		 # 	collision with: 7 1 0 0  and 7 3 0 0 
825293		 # 	collision with: 0 3 0 0  and 1 3 0 0 
825325		 # 	collision with: 3 1 0 0  and 4 1 0 0 
825327		 # 	collision with: 10 6 0 0  and 3 2 1 0 
825340		 # 	collision with: 4 0 0 0  and 6 0 0 0 
825342		 # 	collision with: 7 4 0 0  and 7 5 0 0 
825356		 # 	collision with: 4 0 0 0  and 6 0 0 0 
825358		 # 	collision with: 7 1 0 0  and 7 2 0 0 
825361		 # 	collision with: 0 10 0 0  and 2 10 0 0 
825363		 # 	collision with: 7 4 0 0  and 7 8 1 0 
825409		 # 	collision with: 7 5 0 0  and 8 6 0 0 
825411		 # 	collision with: 7 5 0 0  and 7 6 0 0 
825416		 # 	collision with: 4 0 0 0  and 6 0 0 0 
825418		 # 	collision with: 7 3 0 0  and 7 5 0 0 
825453		 # 	collision with: 7 5 0 0  and 8 6 0 0 
825455		 # 	collision with: 7 5 0 0  and 7 6 0 0 
825476		 # 	collision with: 4 0 0 0  and 6 0 0 0 
825478		 # 	collision with: 7 0 0 0  and 7 2 0 0 
825492		 # 	collision with: 4 0 0 0  and 6 0 0 0 
825494		 # 	collision with: 7 3 0 0  and 7 4 0 0 
825517		 # 	collision with: 6 5 0 0  and 0 6 0 0 
825519		 # 	collision with: 6 10 0 0  and 7 5 1 0 
825552		 # 	collision with: 4 0 0 0  and 6 0 0 0 
825554		 # 	collision with: 7 0 0 0  and 7 1 0 0 
825561		 # 	collision with: 6 5 0 0  and 0 6 0 0 
825563		 # 	collision with: 0 3 0 0  and 4 8 1 0 
825609		 # 	collision with: 1 2 0 0  and 3 2 0 0 
825611		 # 	collision with: 8 7 0 0  and 2 3 1 0 
825612		 # 	collision with: 4 0 0 0  and 6 0 0 0 
825614		 # 	collision with: 7 2 0 0  and 7 4 0 0 
825628		 # 	collision with: 4 0 0 0  and 6 0 0 0 
825630		 # 	collision with: 7 5 0 0  and 7 6 0 0 
825645		 # 	collision with: 0 3 0 0  and 1 3 0 0 
825647		 # 	collision with: 3 1 0 0  and 9 7 1 0 
825677		 # 	collision with: 3 1 0 0  and 4 1 0 0 
825688		 # 	collision with: 4 0 0 0  and 6 0 0 0 
825690		 # 	collision with: 7 2 0 0  and 7 3 0 0 
825704		 # 	collision with: 1 0 9 0  and 6 2 0 1 
825706		 # 	collision with: 2 7 0 0  and 1 5 1 0 
825708		 # 	collision with: 0 10 0 0  and 2 10 0 0 
825710		 # 	collision with: 8 2 0 0  and 7 0 1 0 
825712		 # 	collision with: 2 5 0 0  and 4 5 0 0 
825714		 # 	collision with: 1 5 1 0  and 0 0 2 0 
825716		 # 	collision with: 5 7 0 0  and 6 7 0 0 
825720		 # 	collision with: 3 8 0 0  and 5 8 0 0 
825722		 # 	collision with: 5 1 0 0  and 4 2 1 0 
825724		 # 	collision with: 1 2 0 0  and 3 2 0 0 
825726		 # 	collision with: 7 0 2 0  and 7 2 2 0 
825728		 # 	collision with: 2 9 0 0  and 3 9 0 0 
825730		 # 	collision with: 10 1 0 0  and 9 3 1 0 
825732		 # 	collision with: 0 3 0 0  and 1 3 0 0 
825734		 # 	collision with: 0 3 0 0  and 9 2 2 0 
825736		 # 	collision with: 4 4 0 0  and 5 4 0 0 
825738		 # 	collision with: 2 3 0 0  and 0 5 2 0 
825740		 # 	collision with: 1 6 0 0  and 2 6 0 0 
825742		 # 	collision with: 5 2 0 0  and 3 5 2 0 
825744		 # 	collision with: 3 1 0 0  and 4 1 0 0 
825746		 # 	collision with: 7 1 1 0  and 7 2 1 0 
825764		 # 	collision with: 3 8 0 0  and 5 8 0 0 
825766		 # 	collision with: 2 2 0 0  and 6 0 1 0 
825777		 # 	collision with: 4 0 0 0  and 6 0 0 0 
825779		 # 	collision with: 6 1 0 0  and 2 0 1 0 
825809		 # 	collision with: 4 0 0 0  and 6 0 0 0 
825811		 # 	collision with: 1 2 1 0  and 10 6 3 0 
825824		 # 	collision with: 4 4 0 0  and 5 4 0 0 
825826		 # 	collision with: 9 8 0 0  and 10 8 1 0 
825842		 # 	collision with: 9 1 0 0  and 2 5 1 0 
825893		 # 	collision with: 4 0 0 0  and 6 0 0 0 
825895		 # 	collision with: 5 4 1 0  and 2 0 3 0 
825900		 # 	collision with: 1 2 0 0  and 3 2 0 0 
825902		 # 	collision with: 7 10 0 0  and 10 5 1 0 
825937		 # 	collision with: 4 0 0 0  and 6 0 0 0 
825939		 # 	collision with: 7 1 2 0  and 5 3 2 0 
825960		 # 	collision with: 1 6 0 0  and 2 6 0 0 
825962		 # 	collision with: 4 0 2 0  and 6 0 2 0 
825976		 # 	collision with: 2 5 0 0  and 4 5 0 0 
825978		 # 	collision with: 8 7 0 0  and 1 9 1 0 
826001		 # 	collision with: 4 0 0 0  and 6 0 0 0 
826003		 # 	collision with: 0 9 0 0  and 6 0 1 0 
826036		 # 	collision with: 2 9 0 0  and 3 9 0 0 
826038		 # 	collision with: 2 4 0 0  and 7 5 1 0 
826045		 # 	collision with: 4 0 0 0  and 6 0 0 0 
826093		 # 	collision with: 4 0 0 0  and 6 0 0 0 
826095		 # 	collision with: 8 4 1 0  and 6 8 3 0 
826096		 # 	collision with: 3 1 0 0  and 4 1 0 0 
826098		 # 	collision with: 7 1 1 0  and 7 2 1 0 
826112		 # 	collision with: 5 7 0 0  and 6 7 0 0 
826114		 # 	collision with: 1 3 0 0  and 0 3 1 0 
826129		 # 	collision with: 4 0 0 0  and 6 0 0 0 
826131		 # 	collision with: 10 0 0 0  and 3 1 1 0 
826161		 # 	collision with: 4 0 0 0  and 6 0 0 0 
826163		 # 	collision with: 2 1 0 0  and 9 0 1 0 
826172		 # 	collision with: 0 3 0 0  and 1 3 0 0 
826188		 # 	collision with: 7 10 1 0  and 0 0 0 1 
826190		 # 	collision with: 10 6 0 0  and 8 5 1 0 
826192		 # 	collision with: 2 9 0 0  and 3 9 0 0 
826194		 # 	collision with: 7 0 0 0  and 5 3 1 0 
826196		 # 	collision with: 0 10 0 0  and 2 10 0 0 
826198		 # 	collision with: 3 4 0 0  and 1 7 1 0 
826200		 # 	collision with: 0 3 0 0  and 1 3 0 0 
826202		 # 	collision with: 3 7 0 0  and 1 9 1 0 
826204		 # 	collision with: 2 5 0 0  and 4 5 0 0 
826206		 # 	collision with: 9 5 0 0  and 5 7 2 0 
826208		 # 	collision with: 4 4 0 0  and 5 4 0 0 
826210		 # 	collision with: 9 9 0 0  and 7 7 1 0 
826212		 # 	collision with: 5 7 0 0  and 6 7 0 0 
826216		 # 	collision with: 1 6 0 0  and 2 6 0 0 
826218		 # 	collision with: 8 0 0 0  and 6 1 1 0 
826220		 # 	collision with: 3 8 0 0  and 5 8 0 0 
826222		 # 	collision with: 3 6 0 0  and 1 1 1 0 
826224		 # 	collision with: 3 1 0 0  and 4 1 0 0 
826226		 # 	collision with: 8 1 0 0  and 6 0 1 0 
826228		 # 	collision with: 1 2 0 0  and 3 2 0 0 
826230		 # 	collision with: 4 6 0 0  and 2 10 1 0 
826248		 # 	collision with: 2 5 0 0  and 4 5 0 0 
826250		 # 	collision with: 7 7 0 0  and 8 2 1 0 
826261		 # 	collision with: 9 4 0 0  and 0 5 0 0 
826263		 # 	collision with: 7 0 1 0  and 7 2 1 0 
826293		 # 	collision with: 0 10 0 0  and 2 10 0 0 
826295		 # 	collision with: 1 4 0 0  and 3 5 1 0 
826308		 # 	collision with: 3 8 0 0  and 5 8 0 0 
826310		 # 	collision with: 0 1 0 0  and 3 0 1 0 
826324		 # 	collision with: 2 9 0 0  and 3 9 0 0 
826326		 # 	collision with: 10 2 0 0  and 2 8 1 0 
826329		 # 	collision with: 3 1 0 0  and 4 1 0 0 
826331		 # 	collision with: 4 4 0 0  and 1 1 2 0 
826377		 # 	collision with: 1 4 0 0  and 2 5 0 0 
826379		 # 	collision with: 3 7 0 0  and 0 5 1 0 
826384		 # 	collision with: 4 4 0 0  and 5 4 0 0 
826386		 # 	collision with: 5 4 0 0  and 5 4 1 0 
826421		 # 	collision with: 1 4 0 0  and 2 5 0 0 
826423		 # 	collision with: 3 7 0 0  and 0 5 1 0 
826444		 # 	collision with: 3 1 0 0  and 4 1 0 0 
826446		 # 	collision with: 6 1 0 0  and 8 0 1 0 
826462		 # 	collision with: 7 8 1 0  and 7 1 2 0 
826487		 # 	collision with: 7 4 0 0  and 7 5 0 0 
826520		 # 	collision with: 5 7 0 0  and 6 7 0 0 
826522		 # 	collision with: 7 6 0 0  and 2 4 1 0 
826529		 # 	collision with: 1 2 0 0  and 3 2 0 0 
826531		 # 	collision with: 7 4 0 0  and 7 5 0 0 
826577		 # 	collision with: 5 4 0 0  and 3 5 0 0 
826579		 # 	collision with: 7 1 0 0  and 9 9 2 0 
826580		 # 	collision with: 1 2 0 0  and 3 2 0 0 
826582		 # 	collision with: 7 1 0 0  and 3 0 1 0 
826596		 # 	collision with: 0 3 0 0  and 1 3 0 0 
826613		 # 	collision with: 9 4 0 0  and 0 5 0 0 
826615		 # 	collision with: 7 0 1 0  and 7 2 1 0 
826645		 # 	collision with: 0 10 0 0  and 2 10 0 0 
826647		 # 	collision with: 4 0 1 0  and 6 0 1 0 
826656		 # 	collision with: 1 6 0 0  and 2 6 0 0 
826658		 # 	collision with: 2 9 0 0  and 0 3 1 0 
826672		 # 	collision with: 8 3 1 0  and 4 0 0 1 
826674		 # 	collision with: 9 1 0 0  and 6 4 1 0 
826676		 # 	collision with: 3 8 0 0  and 5 8 0 0 
826678		 # 	collision with: 6 7 0 0  and 3 2 1 0 
826680		 # 	collision with: 4 4 0 0  and 5 4 0 0 
826682		 # 	collision with: 9 5 0 0  and 6 7 1 0 
826684		 # 	collision with: 0 10 0 0  and 2 10 0 0 
826686		 # 	collision with: 9 4 0 0  and 6 9 1 0 
826688		 # 	collision with: 1 2 0 0  and 3 2 0 0 
826690		 # 	collision with: 7 4 2 0  and 7 5 2 0 
826692		 # 	collision with: 1 6 0 0  and 2 6 0 0 
826694		 # 	collision with: 0 2 0 0  and 8 6 1 0 
826696		 # 	collision with: 2 5 0 0  and 4 5 0 0 
826698		 # 	collision with: 2 9 0 0  and 10 4 1 0 
826700		 # 	collision with: 2 9 0 0  and 3 9 0 0 
826702		 # 	collision with: 8 8 0 0  and 5 0 1 0 
826704		 # 	collision with: 3 1 0 0  and 4 1 0 0 
826706		 # 	collision with: 7 2 1 0  and 7 4 1 0 
826708		 # 	collision with: 5 7 0 0  and 6 7 0 0 
826712		 # 	collision with: 0 3 0 0  and 1 3 0 0 
826714		 # 	collision with: 10 5 1 0  and 7 6 2 0 
826732		 # 	collision with: 1 2 0 0  and 3 2 0 0 
826734		 # 	collision with: 0 4 0 0  and 4 3 1 0 
826745		 # 	collision with: 2 5 0 0  and 4 5 0 0 
826747		 # 	collision with: 4 0 0 0  and 9 3 2 0 
826777		 # 	collision with: 10 3 0 0  and 3 5 0 0 
826779		 # 	collision with: 8 0 0 0  and 4 4 2 0 
826792		 # 	collision with: 3 1 0 0  and 4 1 0 0 
826794		 # 	collision with: 7 8 0 0  and 5 3 1 0 
826808		 # 	collision with: 3 8 0 0  and 5 8 0 0 
826810		 # 	collision with: 3 9 1 0  and 6 2 2 0 
826813		 # 	collision with: 1 2 0 0  and 3 2 0 0 
826815		 # 	collision with: 5 2 1 0  and 2 8 2 0 
826861		 # 	collision with: 3 3 0 0  and 5 5 0 0 
826863		 # 	collision with: 8 10 0 0  and 1 3 2 0 
826868		 # 	collision with: 1 6 0 0  and 2 6 0 0 
826870		 # 	collision with: 6 10 0 0  and 0 1 2 0 
826905		 # 	collision with: 3 3 0 0  and 5 5 0 0 
826907		 # 	collision with: 9 0 2 0  and 4 2 2 0 
826928		 # 	collision with: 5 7 0 0  and 6 7 0 0 
826930		 # 	collision with: 3 1 2 0  and 4 1 2 0 
826944		 # 	collision with: 4 4 0 0  and 5 4 0 0 
826946		 # 	collision with: 0 0 1 0  and 4 1 2 0 
826969		 # 	collision with: 4 4 0 0  and 5 4 0 0 
826971		 # 	collision with: 2 2 1 0  and 4 0 2 0 
827004		 # 	collision with: 2 5 0 0  and 4 5 0 0 
827006		 # 	collision with: 1 6 0 0  and 8 3 1 0 
827013		 # 	collision with: 4 4 0 0  and 5 4 0 0 
827015		 # 	collision with: 7 1 2 0  and 7 2 2 0 
827061		 # 	collision with: 5 7 0 0  and 6 7 0 0 
827063		 # 	collision with: 4 7 0 0  and 0 1 1 0 
827064		 # 	collision with: 0 3 0 0  and 1 3 0 0 
827082		 # 	collision with: 7 8 0 0  and 7 0 1 0 
827099		 # 	collision with: 10 0 0 0  and 5 5 1 0 
827129		 # 	collision with: 10 3 0 0  and 3 5 0 0 
827131		 # 	collision with: 4 2 0 0  and 2 1 1 0 
827140		 # 	collision with: 2 9 0 0  and 3 9 0 0 
827142		 # 	collision with: 3 0 0 0  and 8 2 1 0 
827156		 # 	collision with: 3 4 8 0  and 10 0 0 1 
827158		 # 	collision with: 4 7 0 0  and 0 1 1 0 
827160		 # 	collision with: 5 7 0 0  and 6 7 0 0 
827164		 # 	collision with: 2 9 0 0  and 3 9 0 0 
827166		 # 	collision with: 6 1 0 0  and 9 8 2 0 
827168		 # 	collision with: 1 6 0 0  and 2 6 0 0 
827170		 # 	collision with: 8 0 1 0  and 4 4 2 0 
827172		 # 	collision with: 0 10 0 0  and 2 10 0 0 
827174		 # 	collision with: 0 1 0 0  and 7 3 1 0 
827176		 # 	collision with: 3 8 0 0  and 5 8 0 0 
827178		 # 	collision with: 0 1 0 0  and 7 10 1 0 
827180		 # 	collision with: 0 3 0 0  and 1 3 0 0 
827182		 # 	collision with: 9 5 1 0  and 5 7 2 0 
827184		 # 	collision with: 3 1 0 0  and 4 1 0 0 
827186		 # 	collision with: 7 0 1 0  and 7 2 1 0 
827188		 # 	collision with: 2 5 0 0  and 4 5 0 0 
827190		 # 	collision with: 10 7 0 0  and 6 4 1 0 
827192		 # 	collision with: 1 2 0 0  and 3 2 0 0 
827194		 # 	collision with: 7 3 2 0  and 7 4 2 0 
827196		 # 	collision with: 4 4 0 0  and 5 4 0 0 
827198		 # 	collision with: 5 4 0 0  and 1 1 1 0 
827218		 # 	collision with: 9 5 0 0  and 8 5 1 0 
827231		 # 	collision with: 9 9 0 0  and 2 4 1 0 
827261		 # 	collision with: 3 8 0 0  and 5 8 0 0 
827276		 # 	collision with: 2 5 0 0  and 4 5 0 0 
827278		 # 	collision with: 9 1 0 0  and 9 1 2 0 
827292		 # 	collision with: 5 7 0 0  and 6 7 0 0 
827294		 # 	collision with: 5 3 1 0  and 7 0 2 0 
827297		 # 	collision with: 0 3 0 0  and 1 3 0 0 
827299		 # 	collision with: 7 3 0 0  and 7 4 0 0 
827345		 # 	collision with: 6 3 0 0  and 7 4 0 0 
827347		 # 	collision with: 9 9 0 0  and 7 4 2 0 
827352		 # 	collision with: 3 8 0 0  and 5 8 0 0 
827354		 # 	collision with: 1 3 0 0  and 9 2 2 0 
827389		 # 	collision with: 6 3 0 0  and 7 4 0 0 
827412		 # 	collision with: 1 2 0 0  and 3 2 0 0 
827414		 # 	collision with: 8 1 0 0  and 8 1 1 0 
827428		 # 	collision with: 2 9 0 0  and 3 9 0 0 
827430		 # 	collision with: 9 8 1 0  and 2 0 2 0 
827453		 # 	collision with: 1 6 0 0  and 2 6 0 0 
827455		 # 	collision with: 2 10 0 0  and 6 7 2 0 
827488		 # 	collision with: 0 3 0 0  and 1 3 0 0 
827497		 # 	collision with: 1 6 0 0  and 2 6 0 0 
827499		 # 	collision with: 9 2 3 0  and 1 3 3 0 
827545		 # 	collision with: 2 5 0 0  and 4 5 0 0 
827547		 # 	collision with: 10 3 0 0  and 3 7 1 0 
827548		 # 	collision with: 4 4 0 0  and 5 4 0 0 
827550		 # 	collision with: 9 9 0 0  and 2 4 2 0 
827564		 # 	collision with: 1 6 0 0  and 2 6 0 0 
827566		 # 	collision with: 7 4 0 0  and 8 2 1 0 
827581		 # 	collision with: 1 2 0 0  and 3 2 0 0 
827583		 # 	collision with: 4 1 0 0  and 1 5 1 0 
827613		 # 	collision with: 3 8 0 0  and 5 8 0 0 
827615		 # 	collision with: 2 1 1 0  and 0 2 1 0 
827624		 # 	collision with: 3 1 0 0  and 4 1 0 0 
827626		 # 	collision with: 1 0 1 0  and 2 1 1 0 
827640		 # 	collision with: 10 10 1 0  and 1 6 0 1 
827642		 # 	collision with: 9 5 0 0  and 10 6 2 0 
827644		 # 	collision with: 1 6 0 0  and 2 6 0 0 
827646		 # 	collision with: 0 6 0 0  and 6 1 1 0 
827648		 # 	collision with: 0 3 0 0  and 1 3 0 0 
827650		 # 	collision with: 10 7 0 0  and 5 0 1 0 
827652		 # 	collision with: 1 2 0 0  and 3 2 0 0 
827654		 # 	collision with: 1 8 0 0  and 7 2 1 0 
827656		 # 	collision with: 5 7 0 0  and 6 7 0 0 
827660		 # 	collision with: 0 10 0 0  and 2 10 0 0 
827662		 # 	collision with: 10 7 1 0  and 5 0 2 0 
827664		 # 	collision with: 3 1 0 0  and 4 1 0 0 
827666		 # 	collision with: 9 7 0 0  and 4 1 1 0 
827668		 # 	collision with: 4 4 0 0  and 5 4 0 0 
827670		 # 	collision with: 3 0 0 0  and 9 9 1 0 
827672		 # 	collision with: 2 9 0 0  and 3 9 0 0 
827674		 # 	collision with: 6 10 0 0  and 7 0 2 0 
827676		 # 	collision with: 3 8 0 0  and 5 8 0 0 
827678		 # 	collision with: 6 1 0 0  and 1 1 1 0 
827680		 # 	collision with: 2 5 0 0  and 4 5 0 0 
827682		 # 	collision with: 0 8 0 0  and 6 4 1 0 
827700		 # 	collision with: 5 7 0 0  and 6 7 0 0 
827702		 # 	collision with: 6 5 0 0  and 6 5 1 0 
827713		 # 	collision with: 0 10 0 0  and 2 10 0 0 
827715		 # 	collision with: 2 7 2 0  and 10 0 3 0 
827745		 # 	collision with: 5 7 0 0  and 6 7 0 0 
827747		 # 	collision with: 2 2 0 0  and 2 2 2 0 
827760		 # 	collision with: 2 9 0 0  and 3 9 0 0 
827762		 # 	collision with: 3 5 1 0  and 3 5 2 0 
827776		 # 	collision with: 1 6 0 0  and 2 6 0 0 
827778		 # 	collision with: 2 5 2 0  and 2 5 3 0 
827781		 # 	collision with: 4 4 0 0  and 5 4 0 0 
827783		 # 	collision with: 7 1 1 0  and 7 3 1 0 
827831		 # 	collision with: 10 0 0 0  and 3 1 1 0 
827838		 # 	collision with: 1 4 0 0  and 8 4 1 0 
827873		 # 	collision with: 8 2 0 0  and 10 4 0 0 
827875		 # 	collision with: 5 0 0 0  and 9 1 1 0 
827896		 # 	collision with: 3 8 0 0  and 5 8 0 0 
827898		 # 	collision with: 1 9 0 0  and 3 7 1 0 
827912		 # 	collision with: 0 3 0 0  and 1 3 0 0 
827937		 # 	collision with: 3 8 0 0  and 5 8 0 0 
827939		 # 	collision with: 4 1 0 0  and 6 3 1 0 
827972		 # 	collision with: 3 1 0 0  and 4 1 0 0 
827974		 # 	collision with: 8 7 0 0  and 10 3 1 0 
827981		 # 	collision with: 3 8 0 0  and 5 8 0 0 
827983		 # 	collision with: 6 1 0 0  and 0 6 1 0 
34.7703secs	16658
