# prime 11
# degree 2
# input variables 3
# output variables 5
# reload computed balance functions from file balance-997of3248-p11d2m3-debug.log
# p = 11
# n = 5
# smalldomain p^m 1331
# domain p^n 161051
#	 p^2 = 121
#	 p^3 = 1331
#	 p^4 = 14641
#	 p^5 = 161051
#	 p^6 = 1771561
#	 p^7 = 19487171
#	 p^8 = 214358881
#	 p^9 = 2357947691
opening file : balance-997of3248-p11d2m3-debug.log
reloading for step2...
5982012		 # 	collision with: 1 3 0 0 0  and 3 3 0 0 0 
5982014		 # 	collision with: 7 3 3 0 0  and 7 4 3 0 0 
5982028		 # 	collision with: 5 8 0 0 0  and 6 8 0 0 0 
5982030		 # 	collision with: 7 3 8 0 0  and 7 5 8 0 0 
5982053		 # 	collision with: 10 2 0 0 0  and 1 3 0 0 0 
5982055		 # 	collision with: 3 1 2 0 0  and 3 1 3 0 0 
5982088		 # 	collision with: 2 10 0 0 0  and 3 10 0 0 0 
5982090		 # 	collision with: 7 3 10 0 0  and 7 4 10 0 0 
5982097		 # 	collision with: 10 2 0 0 0  and 1 3 0 0 0 
5982099		 # 	collision with: 7 5 2 0 0  and 7 0 3 0 0 
5982145		 # 	collision with: 7 2 0 0 0  and 4 3 0 0 0 
5982147		 # 	collision with: 7 2 0 0 0  and 7 3 0 0 0 
5982148		 # 	collision with: 2 6 0 0 0  and 4 6 0 0 0 
5982164		 # 	collision with: 3 9 0 0 0  and 5 9 0 0 0 
5982166		 # 	collision with: 7 4 9 0 0  and 7 5 9 0 0 
5982181		 # 	collision with: 4 2 0 0 0  and 8 3 0 0 0 
5982183		 # 	collision with: 7 0 2 0 0  and 7 2 2 0 0 
5982213		 # 	collision with: 8 2 0 0 0  and 1 3 0 0 0 
5982215		 # 	collision with: 7 2 2 0 0  and 7 2 3 0 0 
5982224		 # 	collision with: 1 7 0 0 0  and 2 7 0 0 0 
5982226		 # 	collision with: 7 4 7 0 0  and 7 5 7 0 0 
5982240		 # 	collision with: 1 10 6 7 0  and 2 0 0 0 1 
5982242		 # 	collision with: 0 4 3 0 0  and 4 9 0 1 0 
5982244		 # 	collision with: 0 4 0 0 0  and 1 4 0 0 0 
5982246		 # 	collision with: 7 2 4 0 0  and 7 3 4 0 0 
5982248		 # 	collision with: 3 2 0 0 0  and 4 2 0 0 0 
5982250		 # 	collision with: 7 1 2 0 0  and 7 3 2 0 0 
5982252		 # 	collision with: 4 5 0 0 0  and 5 5 0 0 0 
5982254		 # 	collision with: 7 4 5 0 0  and 7 6 5 0 0 
5982256		 # 	collision with: 4 1 0 0 0  and 6 1 0 0 0 
5982258		 # 	collision with: 7 1 1 0 0  and 7 3 1 0 0 
5982260		 # 	collision with: 1 3 0 0 0  and 3 3 0 0 0 
5982262		 # 	collision with: 7 0 3 0 0  and 7 2 3 0 0 
5982264		 # 	collision with: 5 8 0 0 0  and 6 8 0 0 0 
5982266		 # 	collision with: 7 0 8 0 0  and 7 2 8 0 0 
5982268		 # 	collision with: 2 10 0 0 0  and 3 10 0 0 0 
5982270		 # 	collision with: 7 5 10 0 0  and 7 6 10 0 0 
5982272		 # 	collision with: 2 6 0 0 0  and 4 6 0 0 0 
5982274		 # 	collision with: 7 2 6 0 0  and 7 3 6 0 0 
5982276		 # 	collision with: 3 9 0 0 0  and 5 9 0 0 0 
5982278		 # 	collision with: 7 5 9 0 0  and 7 6 9 0 0 
5982280		 # 	collision with: 1 7 0 0 0  and 2 7 0 0 0 
5982300		 # 	collision with: 4 1 0 0 0  and 6 1 0 0 0 
5982302		 # 	collision with: 7 1 1 0 0  and 7 3 1 0 0 
5982313		 # 	collision with: 0 1 0 0 0  and 4 3 0 0 0 
5982315		 # 	collision with: 7 10 1 0 0  and 7 3 3 0 0 
5982345		 # 	collision with: 3 2 0 0 0  and 4 2 0 0 0 
5982347		 # 	collision with: 7 9 1 0 0  and 7 3 3 0 0 
5982360		 # 	collision with: 2 6 0 0 0  and 4 6 0 0 0 
5982376		 # 	collision with: 0 4 0 0 0  and 1 4 0 0 0 
5982378		 # 	collision with: 7 2 4 0 0  and 7 3 4 0 0 
5982381		 # 	collision with: 3 9 0 0 0  and 5 9 0 0 0 
5982383		 # 	collision with: 8 10 1 0 0  and 8 10 3 0 0 
5982429		 # 	collision with: 7 1 0 0 0  and 9 3 0 0 0 
5982431		 # 	collision with: 3 3 1 0 0  and 3 3 3 0 0 
5982436		 # 	collision with: 1 3 0 0 0  and 3 3 0 0 0 
5982438		 # 	collision with: 7 0 3 0 0  and 7 2 3 0 0 
5982473		 # 	collision with: 7 1 0 0 0  and 9 3 0 0 0 
5982475		 # 	collision with: 9 3 1 0 0  and 9 3 3 0 0 
5982496		 # 	collision with: 3 9 0 0 0  and 5 9 0 0 0 
5982498		 # 	collision with: 7 5 9 0 0  and 7 6 9 0 0 
5982514		 # 	collision with: 7 1 2 0 0  and 7 3 2 0 0 
5982539		 # 	collision with: 7 5 1 0 0  and 7 4 3 0 0 
5982572		 # 	collision with: 5 8 0 0 0  and 6 8 0 0 0 
5982574		 # 	collision with: 7 0 8 0 0  and 7 2 8 0 0 
5982581		 # 	collision with: 1 7 0 0 0  and 2 7 0 0 0 
5982583		 # 	collision with: 9 8 1 0 0  and 9 8 3 0 0 
5982629		 # 	collision with: 5 1 0 0 0  and 1 3 0 0 0 
5982631		 # 	collision with: 5 1 1 0 0  and 5 1 3 0 0 
5982632		 # 	collision with: 1 7 0 0 0  and 2 7 0 0 0 
5982634		 # 	collision with: 7 4 7 0 0  and 7 6 7 0 0 
5982648		 # 	collision with: 4 5 0 0 0  and 5 5 0 0 0 
5982650		 # 	collision with: 7 4 5 0 0  and 7 6 5 0 0 
5982665		 # 	collision with: 0 1 0 0 0  and 4 3 0 0 0 
5982667		 # 	collision with: 7 1 1 0 0  and 7 0 3 0 0 
5982697		 # 	collision with: 3 2 0 0 0  and 4 2 0 0 0 
5982699		 # 	collision with: 5 5 1 0 0  and 5 5 3 0 0 
5982708		 # 	collision with: 2 10 0 0 0  and 3 10 0 0 0 
5982710		 # 	collision with: 7 5 10 0 0  and 7 6 10 0 0 
5982724		 # 	collision with: 1 10 1 3 0  and 1 0 0 0 1 
5982726		 # 	collision with: 7 1 4 0 0  and 10 6 0 1 0 
5982728		 # 	collision with: 1 3 0 0 0  and 3 3 0 0 0 
5982730		 # 	collision with: 7 3 3 0 0  and 7 5 3 0 0 
5982732		 # 	collision with: 1 7 0 0 0  and 2 7 0 0 0 
5982736		 # 	collision with: 4 1 0 0 0  and 6 1 0 0 0 
5982738		 # 	collision with: 7 5 1 0 0  and 7 6 1 0 0 
5982740		 # 	collision with: 3 9 0 0 0  and 5 9 0 0 0 
5982742		 # 	collision with: 7 0 9 0 0  and 7 2 9 0 0 
5982744		 # 	collision with: 4 5 0 0 0  and 5 5 0 0 0 
5982746		 # 	collision with: 7 3 5 0 0  and 7 4 5 0 0 
5982748		 # 	collision with: 2 6 0 0 0  and 4 6 0 0 0 
5982750		 # 	collision with: 7 3 6 0 0  and 7 5 6 0 0 
5982752		 # 	collision with: 3 2 0 0 0  and 4 2 0 0 0 
5982754		 # 	collision with: 7 0 2 0 0  and 7 2 2 0 0 
5982756		 # 	collision with: 2 10 0 0 0  and 3 10 0 0 0 
5982758		 # 	collision with: 7 1 10 0 0  and 7 3 10 0 0 
5982760		 # 	collision with: 0 4 0 0 0  and 1 4 0 0 0 
5982762		 # 	collision with: 7 1 4 0 0  and 7 3 4 0 0 
5982764		 # 	collision with: 5 8 0 0 0  and 6 8 0 0 0 
5982766		 # 	collision with: 7 3 8 0 0  and 7 4 8 0 0 
5982784		 # 	collision with: 3 9 0 0 0  and 5 9 0 0 0 
5982786		 # 	collision with: 7 0 9 0 0  and 7 2 9 0 0 
5982797		 # 	collision with: 1 3 0 0 0  and 3 3 0 0 0 
5982799		 # 	collision with: 1 3 1 0 0  and 1 3 2 0 0 
5982829		 # 	collision with: 4 1 0 0 0  and 6 1 0 0 0 
5982831		 # 	collision with: 4 8 1 0 0  and 4 8 2 0 0 
5982844		 # 	collision with: 2 10 0 0 0  and 3 10 0 0 0 
5982846		 # 	collision with: 7 1 10 0 0  and 7 3 10 0 0 
5982860		 # 	collision with: 1 3 0 0 0  and 3 3 0 0 0 
5982862		 # 	collision with: 7 3 3 0 0  and 7 5 3 0 0 
5982865		 # 	collision with: 7 1 0 0 0  and 5 2 0 0 0 
5982867		 # 	collision with: 7 10 1 0 0  and 7 3 2 0 0 
5982913		 # 	collision with: 10 1 0 0 0  and 0 2 0 0 0 
5982915		 # 	collision with: 7 1 0 0 0  and 7 2 0 0 0 
5982920		 # 	collision with: 4 5 0 0 0  and 5 5 0 0 0 
5982922		 # 	collision with: 7 3 5 0 0  and 7 4 5 0 0 
5982957		 # 	collision with: 10 1 0 0 0  and 0 2 0 0 0 
5982959		 # 	collision with: 7 1 0 0 0  and 7 2 0 0 0 
5982980		 # 	collision with: 0 4 0 0 0  and 1 4 0 0 0 
5982982		 # 	collision with: 7 1 4 0 0  and 7 3 4 0 0 
5982996		 # 	collision with: 1 7 0 0 0  and 2 7 0 0 0 
5982998		 # 	collision with: 7 5 7 0 0  and 7 6 7 0 0 
5983021		 # 	collision with: 3 9 0 0 0  and 5 9 0 0 0 
5983023		 # 	collision with: 7 4 1 0 0  and 7 4 2 0 0 
5983056		 # 	collision with: 2 6 0 0 0  and 4 6 0 0 0 
5983065		 # 	collision with: 3 9 0 0 0  and 5 9 0 0 0 
5983067		 # 	collision with: 6 4 1 0 0  and 6 4 2 0 0 
5983113		 # 	collision with: 3 2 0 0 0  and 4 2 0 0 0 
5983115		 # 	collision with: 7 0 1 0 0  and 7 4 2 0 0 
5983116		 # 	collision with: 5 8 0 0 0  and 6 8 0 0 0 
5983118		 # 	collision with: 7 3 8 0 0  and 7 4 8 0 0 
5983132		 # 	collision with: 4 1 0 0 0  and 6 1 0 0 0 
5983134		 # 	collision with: 7 5 1 0 0  and 7 6 1 0 0 
5983149		 # 	collision with: 1 3 0 0 0  and 3 3 0 0 0 
5983151		 # 	collision with: 5 3 1 0 0  and 5 3 2 0 0 
5983183		 # 	collision with: 3 8 1 0 0  and 3 8 2 0 0 
5983194		 # 	collision with: 7 0 2 0 0  and 7 2 2 0 0 
5983208		 # 	collision with: 2 4 2 5 0  and 8 0 0 0 1 
5983210		 # 	collision with: 1 2 6 0 0  and 3 7 0 1 0 
5983212		 # 	collision with: 3 2 0 0 0  and 4 2 0 0 0 
5983214		 # 	collision with: 7 5 2 0 0  and 7 6 2 0 0 
5983216		 # 	collision with: 4 1 0 0 0  and 6 1 0 0 0 
5983218		 # 	collision with: 7 3 1 0 0  and 7 4 1 0 0 
5983220		 # 	collision with: 5 8 0 0 0  and 6 8 0 0 0 
5983222		 # 	collision with: 7 0 8 0 0  and 7 1 8 0 0 
5983224		 # 	collision with: 2 6 0 0 0  and 4 6 0 0 0 
5983226		 # 	collision with: 7 5 6 0 0  and 7 6 6 0 0 
5983228		 # 	collision with: 1 7 0 0 0  and 2 7 0 0 0 
5983232		 # 	collision with: 0 4 0 0 0  and 1 4 0 0 0 
5983234		 # 	collision with: 7 1 4 0 0  and 7 2 4 0 0 
5983236		 # 	collision with: 4 5 0 0 0  and 5 5 0 0 0 
5983238		 # 	collision with: 7 1 5 0 0  and 7 3 5 0 0 
5983240		 # 	collision with: 1 3 0 0 0  and 3 3 0 0 0 
5983242		 # 	collision with: 7 1 3 0 0  and 7 2 3 0 0 
5983244		 # 	collision with: 2 10 0 0 0  and 3 10 0 0 0 
5983246		 # 	collision with: 7 3 10 0 0  and 7 5 10 0 0 
5983248		 # 	collision with: 3 9 0 0 0  and 5 9 0 0 0 
5983250		 # 	collision with: 7 1 9 0 0  and 7 3 9 0 0 
5983268		 # 	collision with: 2 6 0 0 0  and 4 6 0 0 0 
5983281		 # 	collision with: 0 0 0 0 0  and 2 0 0 0 0 
5983283		 # 	collision with: 10 0 0 0 0  and 10 0 2 0 0 
5983313		 # 	collision with: 0 0 0 0 0  and 2 0 0 0 0 
5983315		 # 	collision with: 5 0 0 0 0  and 5 0 2 0 0 
5983328		 # 	collision with: 1 3 0 0 0  and 3 3 0 0 0 
5983330		 # 	collision with: 7 1 3 0 0  and 7 2 3 0 0 
5983346		 # 	collision with: 7 5 2 0 0  and 7 6 2 0 0 
5983397		 # 	collision with: 0 0 0 0 0  and 2 0 0 0 0 
5983399		 # 	collision with: 8 0 0 0 0  and 8 0 2 0 0 
5983404		 # 	collision with: 1 7 0 0 0  and 2 7 0 0 0 
5983406		 # 	collision with: 7 0 7 0 0  and 7 1 7 0 0 
5983441		 # 	collision with: 0 0 0 0 0  and 2 0 0 0 0 
5983443		 # 	collision with: 2 0 0 0 0  and 2 0 2 0 0 
5983464		 # 	collision with: 2 10 0 0 0  and 3 10 0 0 0 
5983466		 # 	collision with: 7 3 10 0 0  and 7 5 10 0 0 
5983480		 # 	collision with: 4 1 0 0 0  and 6 1 0 0 0 
5983482		 # 	collision with: 7 3 1 0 0  and 7 4 1 0 0 
5983505		 # 	collision with: 0 0 0 0 0  and 2 0 0 0 0 
5983507		 # 	collision with: 9 0 0 0 0  and 9 0 2 0 0 
5983540		 # 	collision with: 0 4 0 0 0  and 1 4 0 0 0 
5983542		 # 	collision with: 7 1 4 0 0  and 7 2 4 0 0 
5983549		 # 	collision with: 0 0 0 0 0  and 2 0 0 0 0 
5983551		 # 	collision with: 3 0 0 0 0  and 3 0 2 0 0 
5983597		 # 	collision with: 0 0 0 0 0  and 2 0 0 0 0 
5983599		 # 	collision with: 4 0 0 0 0  and 4 0 2 0 0 
5983600		 # 	collision with: 3 9 0 0 0  and 5 9 0 0 0 
5983602		 # 	collision with: 7 1 9 0 0  and 7 3 9 0 0 
5983616		 # 	collision with: 5 8 0 0 0  and 6 8 0 0 0 
5983618		 # 	collision with: 7 0 8 0 0  and 7 1 8 0 0 
5983633		 # 	collision with: 0 0 0 0 0  and 2 0 0 0 0 
5983665		 # 	collision with: 0 0 0 0 0  and 2 0 0 0 0 
5983667		 # 	collision with: 7 10 0 0 0  and 7 7 2 0 0 
5983676		 # 	collision with: 4 5 0 0 0  and 5 5 0 0 0 
5983678		 # 	collision with: 7 1 5 0 0  and 7 3 5 0 0 
5983692		 # 	collision with: 5 9 2 7 0  and 9 0 0 0 1 
5983694		 # 	collision with: 8 2 1 0 0  and 9 4 0 1 0 
5983696		 # 	collision with: 4 1 0 0 0  and 6 1 0 0 0 
5983698		 # 	collision with: 7 1 1 0 0  and 7 2 1 0 0 
5983700		 # 	collision with: 2 6 0 0 0  and 4 6 0 0 0 
5983702		 # 	collision with: 7 1 6 0 0  and 7 2 6 0 0 
5983704		 # 	collision with: 0 4 0 0 0  and 1 4 0 0 0 
5983706		 # 	collision with: 7 0 4 0 0  and 7 2 4 0 0 
5983708		 # 	collision with: 1 3 0 0 0  and 3 3 0 0 0 
5983710		 # 	collision with: 7 4 3 0 0  and 7 5 3 0 0 
5983712		 # 	collision with: 3 9 0 0 0  and 5 9 0 0 0 
5983714		 # 	collision with: 7 2 9 0 0  and 7 4 9 0 0 
5983716		 # 	collision with: 3 2 0 0 0  and 4 2 0 0 0 
5983718		 # 	collision with: 7 4 2 0 0  and 7 5 2 0 0 
5983720		 # 	collision with: 5 8 0 0 0  and 6 8 0 0 0 
5983722		 # 	collision with: 7 2 8 0 0  and 7 4 8 0 0 
5983724		 # 	collision with: 1 7 0 0 0  and 2 7 0 0 0 
5983728		 # 	collision with: 4 5 0 0 0  and 5 5 0 0 0 
5983730		 # 	collision with: 7 0 5 0 0  and 7 1 5 0 0 
5983732		 # 	collision with: 2 10 0 0 0  and 3 10 0 0 0 
5983734		 # 	collision with: 7 0 10 0 0  and 7 1 10 0 0 
5983752		 # 	collision with: 1 3 0 0 0  and 3 3 0 0 0 
5983754		 # 	collision with: 7 4 3 0 0  and 7 5 3 0 0 
5983765		 # 	collision with: 5 8 0 0 0  and 6 8 0 0 0 
5983797		 # 	collision with: 9 0 0 0 0  and 5 1 0 0 0 
5983799		 # 	collision with: 7 7 0 0 0  and 7 2 1 0 0 
5983812		 # 	collision with: 1 7 0 0 0  and 2 7 0 0 0 
5983814		 # 	collision with: 7 0 7 0 0  and 7 2 7 0 0 
5983828		 # 	collision with: 4 1 0 0 0  and 6 1 0 0 0 
5983830		 # 	collision with: 7 1 1 0 0  and 7 2 1 0 0 
5983833		 # 	collision with: 4 1 0 0 0  and 6 1 0 0 0 
5983835		 # 	collision with: 1 6 0 0 0  and 1 6 1 0 0 
5983881		 # 	collision with: 4 0 0 0 0  and 5 1 0 0 0 
5983883		 # 	collision with: 5 4 0 0 0  and 5 4 1 0 0 
5983888		 # 	collision with: 3 9 0 0 0  and 5 9 0 0 0 
5983890		 # 	collision with: 7 2 9 0 0  and 7 4 9 0 0 
5983925		 # 	collision with: 4 0 0 0 0  and 5 1 0 0 0 
5983948		 # 	collision with: 4 5 0 0 0  and 5 5 0 0 0 
5983950		 # 	collision with: 7 0 5 0 0  and 7 1 5 0 0 
5983964		 # 	collision with: 2 6 0 0 0  and 4 6 0 0 0 
5983989		 # 	collision with: 3 2 0 0 0  and 4 2 0 0 0 
5983991		 # 	collision with: 7 0 0 0 0  and 7 1 0 0 0 
5984026		 # 	collision with: 7 4 2 0 0  and 7 5 2 0 0 
5984035		 # 	collision with: 7 0 0 0 0  and 7 1 0 0 0 
5984081		 # 	collision with: 6 0 0 0 0  and 1 1 0 0 0 
5984083		 # 	collision with: 9 5 0 0 0  and 9 5 1 0 0 
5984084		 # 	collision with: 2 10 0 0 0  and 3 10 0 0 0 
5984086		 # 	collision with: 7 0 10 0 0  and 7 1 10 0 0 
5984100		 # 	collision with: 0 4 0 0 0  and 1 4 0 0 0 
5984102		 # 	collision with: 7 0 4 0 0  and 7 2 4 0 0 
5984117		 # 	collision with: 5 8 0 0 0  and 6 8 0 0 0 
5984119		 # 	collision with: 7 2 1 0 0  and 7 3 1 0 0 
5984149		 # 	collision with: 9 0 0 0 0  and 5 1 0 0 0 
5984151		 # 	collision with: 7 5 0 0 0  and 7 2 1 0 0 
5984160		 # 	collision with: 5 8 0 0 0  and 6 8 0 0 0 
5984162		 # 	collision with: 7 2 8 0 0  and 7 4 8 0 0 
5984182		 # 	collision with: 7 1 0 0 0  and 7 2 0 0 0 
5984186		 # 	collision with: 7 2 0 0 0  and 7 3 0 0 0 
5984190		 # 	collision with: 7 3 0 0 0  and 7 4 0 0 0 
5984194		 # 	collision with: 7 4 0 0 0  and 7 5 0 0 0 
5984198		 # 	collision with: 7 5 0 0 0  and 7 6 0 0 0 
5984202		 # 	collision with: 7 0 0 0 0  and 7 2 0 0 0 
5984206		 # 	collision with: 7 1 0 0 0  and 7 3 0 0 0 
5984210		 # 	collision with: 7 2 0 0 0  and 7 4 0 0 0 
5984214		 # 	collision with: 7 3 0 0 0  and 7 5 0 0 0 
5984218		 # 	collision with: 7 4 0 0 0  and 7 6 0 0 0 
5984221		 # 	collision with: 5 8 0 0 0  and 6 8 0 0 0 
5984223		 # 	collision with: 7 5 5 0 0  and 7 4 6 0 0 
5984252		 # 	collision with: 5 0 0 0 0  and 7 0 0 0 0 
5984254		 # 	collision with: 7 2 0 0 0  and 7 4 0 0 0 
5984269		 # 	collision with: 4 2 0 0 0  and 5 2 0 0 0 
5984271		 # 	collision with: 2 2 5 0 0  and 2 2 6 0 0 
5984284		 # 	collision with: 5 0 0 0 0  and 7 0 0 0 0 
5984286		 # 	collision with: 7 5 0 0 0  and 7 6 0 0 0 
5984316		 # 	collision with: 5 0 0 0 0  and 7 0 0 0 0 
5984318		 # 	collision with: 7 2 0 0 0  and 7 3 0 0 0 
5984321		 # 	collision with: 0 3 0 0 0  and 2 3 0 0 0 
5984323		 # 	collision with: 10 8 5 0 0  and 10 8 6 0 0 
5984385		 # 	collision with: 3 10 0 0 0  and 5 10 0 0 0 
5984387		 # 	collision with: 7 1 5 0 0  and 7 3 5 0 0 
5984392		 # 	collision with: 5 0 0 0 0  and 7 0 0 0 0 
5984394		 # 	collision with: 7 4 0 0 0  and 7 6 0 0 0 
5984401		 # 	collision with: 4 2 0 0 0  and 5 2 0 0 0 
5984403		 # 	collision with: 3 2 5 0 0  and 3 2 6 0 0 
5984424		 # 	collision with: 5 0 0 0 0  and 7 0 0 0 0 
5984426		 # 	collision with: 7 1 0 0 0  and 7 3 0 0 0 
5984456		 # 	collision with: 5 0 0 0 0  and 7 0 0 0 0 
5984458		 # 	collision with: 7 4 0 0 0  and 7 5 0 0 0 
5984481		 # 	collision with: 0 5 0 0 0  and 3 6 0 0 0 
5984483		 # 	collision with: 7 1 4 0 0  and 7 3 4 0 0 
5984488		 # 	collision with: 5 0 0 0 0  and 7 0 0 0 0 
5984490		 # 	collision with: 7 1 0 0 0  and 7 2 0 0 0 
5984497		 # 	collision with: 0 3 0 0 0  and 2 3 0 0 0 
5984499		 # 	collision with: 7 4 5 0 0  and 7 6 6 0 0 
5984561		 # 	collision with: 3 10 0 0 0  and 5 10 0 0 0 
5984563		 # 	collision with: 7 1 5 0 0  and 7 3 5 0 0 
5984564		 # 	collision with: 5 0 0 0 0  and 7 0 0 0 0 
5984566		 # 	collision with: 7 3 0 0 0  and 7 5 0 0 0 
5984596		 # 	collision with: 5 0 0 0 0  and 7 0 0 0 0 
5984598		 # 	collision with: 7 0 0 0 0  and 7 2 0 0 0 
5984613		 # 	collision with: 0 5 0 0 0  and 3 6 0 0 0 
5984615		 # 	collision with: 7 1 4 0 0  and 7 3 4 0 0 
5984617		 # 	collision with: 5 8 0 0 0  and 6 8 0 0 0 
5984619		 # 	collision with: 7 5 8 0 0  and 7 6 8 0 0 
5984628		 # 	collision with: 5 0 0 0 0  and 7 0 0 0 0 
5984630		 # 	collision with: 7 3 0 0 0  and 7 4 0 0 0 
5984660		 # 	collision with: 4 9 6 6 0  and 2 1 0 0 1 
5984662		 # 	collision with: 8 9 0 0 0  and 7 8 0 1 0 
5984664		 # 	collision with: 3 10 0 0 0  and 5 10 0 0 0 
5984666		 # 	collision with: 7 4 10 0 0  and 7 6 10 0 0 
5984668		 # 	collision with: 4 5 0 0 0  and 6 5 0 0 0 
5984670		 # 	collision with: 7 1 5 0 0  and 7 2 5 0 0 
5984672		 # 	collision with: 3 7 0 0 0  and 4 7 0 0 0 
5984676		 # 	collision with: 5 8 0 0 0  and 6 8 0 0 0 
5984678		 # 	collision with: 7 3 8 0 0  and 7 5 8 0 0 
5984680		 # 	collision with: 4 2 0 0 0  and 5 2 0 0 0 
5984682		 # 	collision with: 7 3 2 0 0  and 7 5 2 0 0 
5984684		 # 	collision with: 1 9 0 0 0  and 3 9 0 0 0 
5984686		 # 	collision with: 7 2 9 0 0  and 7 3 9 0 0 
5984688		 # 	collision with: 0 3 0 0 0  and 2 3 0 0 0 
5984690		 # 	collision with: 7 2 3 0 0  and 7 3 3 0 0 
5984692		 # 	collision with: 2 4 0 0 0  and 4 4 0 0 0 
5984694		 # 	collision with: 7 5 4 0 0  and 7 6 4 0 0 
5984696		 # 	collision with: 1 6 0 0 0  and 2 6 0 0 0 
5984698		 # 	collision with: 7 4 6 0 0  and 7 6 6 0 0 
5984700		 # 	collision with: 2 1 0 0 0  and 3 1 0 0 0 
5984702		 # 	collision with: 7 1 1 0 0  and 7 2 1 0 0 
5984705		 # 	collision with: 4 5 0 0 0  and 6 5 0 0 0 
5984707		 # 	collision with: 7 4 5 0 0  and 7 6 5 0 0 
5984736		 # 	collision with: 2 4 0 0 0  and 4 4 0 0 0 
5984738		 # 	collision with: 7 5 4 0 0  and 7 6 4 0 0 
5984753		 # 	collision with: 2 4 0 0 0  and 4 4 0 0 0 
5984755		 # 	collision with: 7 0 4 0 0  and 7 1 6 0 0 
5984768		 # 	collision with: 4 2 0 0 0  and 5 2 0 0 0 
5984770		 # 	collision with: 7 3 2 0 0  and 7 5 2 0 0 
5984800		 # 	collision with: 4 5 0 0 0  and 6 5 0 0 0 
5984805		 # 	collision with: 1 6 0 0 0  and 2 6 0 0 0 
5984807		 # 	collision with: 7 1 2 0 0  and 7 3 2 0 0 
5984871		 # 	collision with: 7 5 4 0 0  and 7 6 4 0 0 
5984878		 # 	collision with: 7 1 1 0 0  and 7 2 1 0 0 
5984885		 # 	collision with: 2 4 0 0 0  and 4 4 0 0 0 
5984887		 # 	collision with: 7 6 4 0 0  and 7 1 6 0 0 
5984908		 # 	collision with: 0 3 0 0 0  and 2 3 0 0 0 
5984910		 # 	collision with: 7 2 3 0 0  and 7 3 3 0 0 
5984940		 # 	collision with: 5 8 0 0 0  and 6 8 0 0 0 
5984942		 # 	collision with: 7 3 8 0 0  and 7 5 8 0 0 
5984965		 # 	collision with: 0 3 0 0 0  and 2 3 0 0 0 
5984967		 # 	collision with: 7 4 0 0 0  and 7 6 0 0 0 
5984972		 # 	collision with: 3 10 0 0 0  and 5 10 0 0 0 
5984974		 # 	collision with: 7 4 10 0 0  and 7 6 10 0 0 
5984981		 # 	collision with: 1 6 0 0 0  and 2 6 0 0 0 
5984983		 # 	collision with: 7 1 2 0 0  and 7 3 2 0 0 
5985045		 # 	collision with: 6 4 0 0 0  and 0 6 0 0 0 
5985047		 # 	collision with: 7 5 4 0 0  and 7 6 4 0 0 
5985048		 # 	collision with: 1 6 0 0 0  and 2 6 0 0 0 
5985050		 # 	collision with: 7 4 6 0 0  and 7 6 6 0 0 
5985080		 # 	collision with: 1 9 0 0 0  and 3 9 0 0 0 
5985082		 # 	collision with: 7 2 9 0 0  and 7 3 9 0 0 
5985097		 # 	collision with: 0 3 0 0 0  and 2 3 0 0 0 
5985099		 # 	collision with: 7 4 0 0 0  and 7 6 0 0 0 
5985101		 # 	collision with: 4 5 0 0 0  and 6 5 0 0 0 
5985103		 # 	collision with: 7 4 5 0 0  and 7 6 5 0 0 
5985112		 # 	collision with: 3 7 0 0 0  and 4 7 0 0 0 
5985114		 # 	collision with: 7 0 7 0 0  and 7 2 7 0 0 
5985144		 # 	collision with: 4 4 10 4 0  and 10 0 0 0 1 
5985146		 # 	collision with: 0 7 0 0 0  and 9 1 0 1 0 
5985148		 # 	collision with: 1 9 0 0 0  and 3 9 0 0 0 
5985150		 # 	collision with: 7 2 9 0 0  and 7 4 9 0 0 
5985152		 # 	collision with: 3 10 0 0 0  and 5 10 0 0 0 
5985154		 # 	collision with: 7 0 10 0 0  and 7 1 10 0 0 
5985156		 # 	collision with: 0 3 0 0 0  and 2 3 0 0 0 
5985158		 # 	collision with: 7 3 3 0 0  and 7 5 3 0 0 
5985160		 # 	collision with: 4 5 0 0 0  and 6 5 0 0 0 
5985162		 # 	collision with: 7 3 5 0 0  and 7 4 5 0 0 
5985164		 # 	collision with: 2 4 0 0 0  and 4 4 0 0 0 
5985166		 # 	collision with: 7 2 4 0 0  and 7 3 4 0 0 
5985168		 # 	collision with: 3 7 0 0 0  and 4 7 0 0 0 
5985172		 # 	collision with: 1 6 0 0 0  and 2 6 0 0 0 
5985174		 # 	collision with: 7 2 6 0 0  and 7 4 6 0 0 
5985176		 # 	collision with: 5 8 0 0 0  and 6 8 0 0 0 
5985178		 # 	collision with: 7 2 8 0 0  and 7 3 8 0 0 
5985180		 # 	collision with: 2 1 0 0 0  and 3 1 0 0 0 
5985182		 # 	collision with: 7 0 1 0 0  and 7 1 1 0 0 
5985184		 # 	collision with: 4 2 0 0 0  and 5 2 0 0 0 
5985186		 # 	collision with: 7 3 2 0 0  and 7 4 2 0 0 
5985189		 # 	collision with: 4 2 0 0 0  and 5 2 0 0 0 
5985191		 # 	collision with: 7 4 2 0 0  and 7 5 2 0 0 
5985220		 # 	collision with: 5 8 0 0 0  and 6 8 0 0 0 
5985222		 # 	collision with: 7 2 8 0 0  and 7 3 8 0 0 
5985237		 # 	collision with: 1 6 0 0 0  and 2 6 0 0 0 
5985239		 # 	collision with: 7 6 4 0 0  and 7 6 5 0 0 
5985252		 # 	collision with: 2 4 0 0 0  and 4 4 0 0 0 
5985254		 # 	collision with: 7 2 4 0 0  and 7 3 4 0 0 
5985284		 # 	collision with: 3 10 0 0 0  and 5 10 0 0 0 
5985286		 # 	collision with: 7 0 10 0 0  and 7 1 10 0 0 
5985289		 # 	collision with: 5 4 0 0 0  and 8 5 0 0 0 
5985291		 # 	collision with: 5 2 4 0 0  and 5 2 5 0 0 
5985353		 # 	collision with: 5 8 0 0 0  and 6 8 0 0 0 
5985355		 # 	collision with: 7 3 3 0 0  and 7 4 3 0 0 
5985360		 # 	collision with: 4 2 0 0 0  and 5 2 0 0 0 
5985362		 # 	collision with: 7 3 2 0 0  and 7 4 2 0 0 
5985369		 # 	collision with: 1 6 0 0 0  and 2 6 0 0 0 
5985371		 # 	collision with: 7 3 4 0 0  and 7 0 5 0 0 
5985392		 # 	collision with: 1 6 0 0 0  and 2 6 0 0 0 
5985394		 # 	collision with: 7 2 6 0 0  and 7 4 6 0 0 
5985424		 # 	collision with: 4 5 0 0 0  and 6 5 0 0 0 
5985449		 # 	collision with: 3 4 0 0 0  and 1 5 0 0 0 
5985451		 # 	collision with: 1 5 4 0 0  and 1 5 5 0 0 
5985456		 # 	collision with: 1 9 0 0 0  and 3 9 0 0 0 
5985458		 # 	collision with: 7 2 9 0 0  and 7 4 9 0 0 
5985465		 # 	collision with: 5 4 0 0 0  and 8 5 0 0 0 
5985467		 # 	collision with: 7 6 4 0 0  and 7 2 5 0 0 
5985531		 # 	collision with: 7 3 3 0 0  and 7 4 3 0 0 
5985534		 # 	collision with: 7 0 1 0 0  and 7 1 1 0 0 
5985564		 # 	collision with: 3 7 0 0 0  and 4 7 0 0 0 
5985566		 # 	collision with: 7 3 7 0 0  and 7 5 7 0 0 
5985581		 # 	collision with: 3 4 0 0 0  and 1 5 0 0 0 
5985583		 # 	collision with: 8 5 4 0 0  and 8 5 5 0 0 
5985585		 # 	collision with: 4 2 0 0 0  and 5 2 0 0 0 
5985587		 # 	collision with: 7 4 2 0 0  and 7 5 2 0 0 
5985596		 # 	collision with: 0 3 0 0 0  and 2 3 0 0 0 
5985598		 # 	collision with: 7 3 3 0 0  and 7 5 3 0 0 
5985628		 # 	collision with: 8 9 7 9 0  and 9 1 0 0 1 
5985630		 # 	collision with: 10 4 0 0 0  and 7 0 0 1 0 
5985632		 # 	collision with: 5 8 0 0 0  and 6 8 0 0 0 
5985634		 # 	collision with: 7 0 8 0 0  and 7 2 8 0 0 
5985636		 # 	collision with: 2 4 0 0 0  and 4 4 0 0 0 
5985638		 # 	collision with: 7 4 4 0 0  and 7 6 4 0 0 
5985640		 # 	collision with: 3 10 0 0 0  and 5 10 0 0 0 
5985642		 # 	collision with: 7 1 10 0 0  and 7 2 10 0 0 
5985644		 # 	collision with: 4 2 0 0 0  and 5 2 0 0 0 
5985646		 # 	collision with: 7 2 2 0 0  and 7 4 2 0 0 
5985648		 # 	collision with: 1 6 0 0 0  and 2 6 0 0 0 
5985650		 # 	collision with: 7 0 6 0 0  and 7 2 6 0 0 
5985652		 # 	collision with: 4 5 0 0 0  and 6 5 0 0 0 
5985654		 # 	collision with: 7 5 5 0 0  and 7 6 5 0 0 
5985656		 # 	collision with: 1 9 0 0 0  and 3 9 0 0 0 
5985658		 # 	collision with: 7 3 9 0 0  and 7 4 9 0 0 
5985660		 # 	collision with: 2 1 0 0 0  and 3 1 0 0 0 
5985662		 # 	collision with: 7 4 1 0 0  and 7 6 1 0 0 
5985664		 # 	collision with: 3 7 0 0 0  and 4 7 0 0 0 
5985668		 # 	collision with: 0 3 0 0 0  and 2 3 0 0 0 
5985670		 # 	collision with: 7 5 3 0 0  and 7 6 3 0 0 
5985675		 # 	collision with: 7 4 3 0 0  and 7 0 5 0 0 
5985706		 # 	collision with: 7 4 1 0 0  and 7 6 1 0 0 
5985721		 # 	collision with: 5 8 0 0 0  and 6 8 0 0 0 
5985736		 # 	collision with: 1 6 0 0 0  and 2 6 0 0 0 
5985738		 # 	collision with: 7 0 6 0 0  and 7 2 6 0 0 
5985768		 # 	collision with: 2 4 0 0 0  and 4 4 0 0 0 
5985770		 # 	collision with: 7 4 4 0 0  and 7 6 4 0 0 
5985773		 # 	collision with: 2 1 0 0 0  and 3 1 0 0 0 
5985775		 # 	collision with: 7 8 3 0 0  and 7 0 5 0 0 
5985837		 # 	collision with: 3 7 0 0 0  and 4 7 0 0 0 
5985839		 # 	collision with: 7 1 2 0 0  and 7 2 2 0 0 
5985844		 # 	collision with: 0 3 0 0 0  and 2 3 0 0 0 
5985846		 # 	collision with: 7 5 3 0 0  and 7 6 3 0 0 
5985853		 # 	collision with: 5 8 0 0 0  and 6 8 0 0 0 
5985855		 # 	collision with: 7 3 1 0 0  and 7 4 1 0 0 
5985876		 # 	collision with: 1 9 0 0 0  and 3 9 0 0 0 
5985878		 # 	collision with: 7 3 9 0 0  and 7 4 9 0 0 
5985908		 # 	collision with: 4 2 0 0 0  and 5 2 0 0 0 
5985910		 # 	collision with: 7 2 2 0 0  and 7 4 2 0 0 
5985933		 # 	collision with: 7 3 0 0 0  and 1 5 0 0 0 
5985935		 # 	collision with: 7 5 3 0 0  and 7 6 3 0 0 
5985940		 # 	collision with: 5 8 0 0 0  and 6 8 0 0 0 
5985942		 # 	collision with: 7 0 8 0 0  and 7 2 8 0 0 
5985949		 # 	collision with: 2 1 0 0 0  and 3 1 0 0 0 
5986013		 # 	collision with: 3 7 0 0 0  and 4 7 0 0 0 
5986015		 # 	collision with: 7 1 2 0 0  and 7 2 2 0 0 
5986016		 # 	collision with: 3 7 0 0 0  and 4 7 0 0 0 
5986018		 # 	collision with: 7 1 7 0 0  and 7 2 7 0 0 
5986048		 # 	collision with: 4 5 0 0 0  and 6 5 0 0 0 
5986065		 # 	collision with: 7 3 0 0 0  and 1 5 0 0 0 
5986067		 # 	collision with: 7 5 3 0 0  and 7 6 3 0 0 
5986069		 # 	collision with: 6 3 0 0 0  and 1 5 0 0 0 
5986071		 # 	collision with: 7 3 10 0 0  and 7 5 10 0 0 
5986080		 # 	collision with: 3 10 0 0 0  and 5 10 0 0 0 
5986082		 # 	collision with: 7 1 10 0 0  and 7 2 10 0 0 
5986112		 # 	collision with: 5 3 1 7 0  and 2 0 0 0 1 
5986114		 # 	collision with: 7 8 0 0 0  and 3 5 0 1 0 
5986116		 # 	collision with: 3 7 0 0 0  and 4 7 0 0 0 
5986120		 # 	collision with: 1 9 0 0 0  and 3 9 0 0 0 
5986122		 # 	collision with: 7 3 9 0 0  and 7 5 9 0 0 
5986124		 # 	collision with: 1 6 0 0 0  and 2 6 0 0 0 
5986126		 # 	collision with: 7 4 6 0 0  and 7 5 6 0 0 
5986128		 # 	collision with: 3 10 0 0 0  and 5 10 0 0 0 
5986130		 # 	collision with: 7 2 10 0 0  and 7 3 10 0 0 
5986132		 # 	collision with: 5 8 0 0 0  and 6 8 0 0 0 
5986134		 # 	collision with: 7 4 8 0 0  and 7 6 8 0 0 
5986136		 # 	collision with: 0 3 0 0 0  and 2 3 0 0 0 
5986138		 # 	collision with: 7 1 3 0 0  and 7 2 3 0 0 
5986140		 # 	collision with: 2 1 0 0 0  and 3 1 0 0 0 
5986142		 # 	collision with: 7 3 1 0 0  and 7 5 1 0 0 
5986144		 # 	collision with: 4 5 0 0 0  and 6 5 0 0 0 
5986146		 # 	collision with: 7 1 5 0 0  and 7 3 5 0 0 
5986148		 # 	collision with: 4 2 0 0 0  and 5 2 0 0 0 
5986150		 # 	collision with: 7 2 2 0 0  and 7 3 2 0 0 
5986152		 # 	collision with: 2 4 0 0 0  and 4 4 0 0 0 
5986154		 # 	collision with: 7 1 4 0 0  and 7 3 4 0 0 
5986157		 # 	collision with: 2 3 0 0 0  and 0 4 0 0 0 
5986159		 # 	collision with: 7 5 3 0 0  and 7 0 4 0 0 
5986188		 # 	collision with: 4 5 0 0 0  and 6 5 0 0 0 
5986205		 # 	collision with: 6 3 0 0 0  and 3 4 0 0 0 
5986207		 # 	collision with: 7 1 3 0 0  and 7 3 3 0 0 
5986220		 # 	collision with: 5 8 0 0 0  and 6 8 0 0 0 
5986222		 # 	collision with: 7 4 8 0 0  and 7 6 8 0 0 
5986252		 # 	collision with: 1 9 0 0 0  and 3 9 0 0 0 
5986254		 # 	collision with: 7 3 9 0 0  and 7 5 9 0 0 
5986257		 # 	collision with: 3 3 0 0 0  and 2 4 0 0 0 
5986259		 # 	collision with: 7 3 0 0 0  and 7 4 0 0 0 
5986321		 # 	collision with: 0 3 0 0 0  and 6 4 0 0 0 
5986323		 # 	collision with: 7 4 1 0 0  and 7 6 1 0 0 
5986328		 # 	collision with: 2 4 0 0 0  and 4 4 0 0 0 
5986330		 # 	collision with: 7 1 4 0 0  and 7 3 4 0 0 
5986339		 # 	collision with: 7 1 3 0 0  and 7 3 3 0 0 
5986362		 # 	collision with: 7 3 1 0 0  and 7 5 1 0 0 
5986392		 # 	collision with: 3 10 0 0 0  and 5 10 0 0 0 
5986394		 # 	collision with: 7 2 10 0 0  and 7 3 10 0 0 
5986417		 # 	collision with: 4 2 0 0 0  and 5 2 0 0 0 
5986424		 # 	collision with: 3 7 0 0 0  and 4 7 0 0 0 
5986426		 # 	collision with: 7 4 7 0 0  and 7 5 7 0 0 
5986433		 # 	collision with: 3 3 0 0 0  and 2 4 0 0 0 
5986435		 # 	collision with: 7 3 0 0 0  and 7 4 0 0 0 
5986497		 # 	collision with: 0 3 0 0 0  and 6 4 0 0 0 
5986499		 # 	collision with: 7 4 1 0 0  and 7 6 1 0 0 
5986500		 # 	collision with: 4 2 0 0 0  and 5 2 0 0 0 
5986502		 # 	collision with: 7 2 2 0 0  and 7 3 2 0 0 
5986532		 # 	collision with: 0 3 0 0 0  and 2 3 0 0 0 
5986534		 # 	collision with: 7 1 3 0 0  and 7 2 3 0 0 
5986549		 # 	collision with: 4 2 0 0 0  and 5 2 0 0 0 
5986551		 # 	collision with: 2 1 3 0 0  and 2 1 4 0 0 
5986553		 # 	collision with: 2 3 0 0 0  and 0 4 0 0 0 
5986555		 # 	collision with: 7 0 3 0 0  and 7 4 4 0 0 
5986564		 # 	collision with: 1 6 0 0 0  and 2 6 0 0 0 
5986566		 # 	collision with: 7 4 6 0 0  and 7 5 6 0 0 
5986596		 # 	collision with: 4 2 4 4 0  and 3 1 0 0 1 
5986598		 # 	collision with: 9 4 0 0 0  and 4 6 0 1 0 
5986600		 # 	collision with: 1 6 0 0 0  and 2 6 0 0 0 
5986602		 # 	collision with: 7 2 6 0 0  and 7 3 6 0 0 
5986604		 # 	collision with: 0 3 0 0 0  and 2 3 0 0 0 
5986606		 # 	collision with: 7 2 3 0 0  and 7 4 3 0 0 
5986608		 # 	collision with: 4 2 0 0 0  and 5 2 0 0 0 
5986610		 # 	collision with: 7 1 2 0 0  and 7 3 2 0 0 
5986612		 # 	collision with: 3 7 0 0 0  and 4 7 0 0 0 
5986616		 # 	collision with: 3 10 0 0 0  and 5 10 0 0 0 
5986618		 # 	collision with: 7 3 10 0 0  and 7 4 10 0 0 
5986620		 # 	collision with: 2 1 0 0 0  and 3 1 0 0 0 
5986622		 # 	collision with: 7 2 1 0 0  and 7 4 1 0 0 
5986624		 # 	collision with: 2 4 0 0 0  and 4 4 0 0 0 
5986626		 # 	collision with: 7 4 4 0 0  and 7 5 4 0 0 
5986628		 # 	collision with: 1 9 0 0 0  and 3 9 0 0 0 
5986630		 # 	collision with: 7 4 9 0 0  and 7 5 9 0 0 
5986632		 # 	collision with: 5 8 0 0 0  and 6 8 0 0 0 
5986634		 # 	collision with: 7 3 8 0 0  and 7 4 8 0 0 
5986636		 # 	collision with: 4 5 0 0 0  and 6 5 0 0 0 
5986638		 # 	collision with: 7 3 5 0 0  and 7 5 5 0 0 
5986641		 # 	collision with: 2 4 0 0 0  and 4 4 0 0 0 
5986672		 # 	collision with: 1 9 0 0 0  and 3 9 0 0 0 
5986674		 # 	collision with: 7 4 9 0 0  and 7 5 9 0 0 
5986689		 # 	collision with: 2 1 0 0 0  and 3 1 0 0 0 
5986691		 # 	collision with: 9 1 2 0 0  and 9 1 4 0 0 
5986704		 # 	collision with: 3 10 0 0 0  and 5 10 0 0 0 
5986706		 # 	collision with: 7 3 10 0 0  and 7 4 10 0 0 
5986736		 # 	collision with: 0 3 0 0 0  and 2 3 0 0 0 
5986738		 # 	collision with: 7 2 3 0 0  and 7 4 3 0 0 
5986741		 # 	collision with: 5 2 0 0 0  and 3 4 0 0 0 
5986805		 # 	collision with: 4 5 0 0 0  and 6 5 0 0 0 
5986807		 # 	collision with: 7 2 0 0 0  and 7 4 0 0 0 
5986812		 # 	collision with: 4 5 0 0 0  and 6 5 0 0 0 
5986821		 # 	collision with: 2 1 0 0 0  and 3 1 0 0 0 
5986823		 # 	collision with: 8 1 2 0 0  and 8 1 4 0 0 
5986844		 # 	collision with: 2 4 0 0 0  and 4 4 0 0 0 
5986846		 # 	collision with: 7 4 4 0 0  and 7 5 4 0 0 
5986876		 # 	collision with: 3 7 0 0 0  and 4 7 0 0 0 
5986878		 # 	collision with: 7 1 7 0 0  and 7 3 7 0 0 
5986901		 # 	collision with: 9 2 0 0 0  and 0 4 0 0 0 
5986903		 # 	collision with: 7 3 2 0 0  and 7 4 4 0 0 
5986908		 # 	collision with: 1 6 0 0 0  and 2 6 0 0 0 
5986910		 # 	collision with: 7 2 6 0 0  and 7 3 6 0 0 
5986917		 # 	collision with: 5 2 0 0 0  and 3 4 0 0 0 
5986919		 # 	collision with: 7 3 3 0 0  and 7 5 3 0 0 
5986981		 # 	collision with: 4 5 0 0 0  and 6 5 0 0 0 
5986983		 # 	collision with: 7 2 0 0 0  and 7 4 0 0 0 
5986984		 # 	collision with: 5 8 0 0 0  and 6 8 0 0 0 
5986986		 # 	collision with: 7 3 8 0 0  and 7 4 8 0 0 
5987018		 # 	collision with: 7 2 1 0 0  and 7 4 1 0 0 
5987035		 # 	collision with: 7 1 2 0 0  and 7 2 4 0 0 
5987037		 # 	collision with: 2 4 0 0 0  and 4 4 0 0 0 
5987039		 # 	collision with: 7 2 4 0 0  and 7 4 4 0 0 
5987048		 # 	collision with: 4 2 0 0 0  and 5 2 0 0 0 
5987050		 # 	collision with: 7 1 2 0 0  and 7 3 2 0 0 
5987080		 # 	collision with: 4 5 3 10 0  and 9 0 0 0 1 
5987082		 # 	collision with: 5 8 0 0 0  and 10 6 0 1 0 
5987084		 # 	collision with: 4 5 0 0 0  and 6 5 0 0 0 
5987086		 # 	collision with: 7 0 5 0 0  and 7 1 5 0 0 
5987088		 # 	collision with: 5 8 0 0 0  and 6 8 0 0 0 
5987090		 # 	collision with: 7 1 8 0 0  and 7 3 8 0 0 
5987092		 # 	collision with: 1 9 0 0 0  and 3 9 0 0 0 
5987094		 # 	collision with: 7 4 9 0 0  and 7 6 9 0 0 
5987096		 # 	collision with: 2 4 0 0 0  and 4 4 0 0 0 
5987098		 # 	collision with: 7 1 4 0 0  and 7 2 4 0 0 
5987100		 # 	collision with: 2 1 0 0 0  and 3 1 0 0 0 
5987102		 # 	collision with: 7 1 1 0 0  and 7 3 1 0 0 
5987104		 # 	collision with: 3 10 0 0 0  and 5 10 0 0 0 
5987106		 # 	collision with: 7 4 10 0 0  and 7 5 10 0 0 
5987108		 # 	collision with: 3 7 0 0 0  and 4 7 0 0 0 
5987112		 # 	collision with: 4 2 0 0 0  and 5 2 0 0 0 
5987114		 # 	collision with: 7 1 2 0 0  and 7 2 2 0 0 
5987116		 # 	collision with: 0 3 0 0 0  and 2 3 0 0 0 
5987118		 # 	collision with: 7 4 3 0 0  and 7 5 3 0 0 
5987120		 # 	collision with: 1 6 0 0 0  and 2 6 0 0 0 
5987122		 # 	collision with: 7 0 6 0 0  and 7 1 6 0 0 
5987125		 # 	collision with: 2 1 0 0 0  and 3 1 0 0 0 
5987127		 # 	collision with: 7 2 1 0 0  and 7 3 1 0 0 
5987156		 # 	collision with: 4 2 0 0 0  and 5 2 0 0 0 
5987158		 # 	collision with: 7 1 2 0 0  and 7 2 2 0 0 
5987175		 # 	collision with: 6 3 2 0 0  and 6 3 3 0 0 
5987190		 # 	collision with: 7 1 1 0 0  and 7 3 1 0 0 
5987220		 # 	collision with: 5 8 0 0 0  and 6 8 0 0 0 
5987222		 # 	collision with: 7 1 8 0 0  and 7 3 8 0 0 
5987225		 # 	collision with: 6 2 0 0 0  and 5 3 0 0 0 
5987227		 # 	collision with: 6 1 2 0 0  and 6 1 3 0 0 
5987289		 # 	collision with: 5 2 0 0 0  and 7 3 0 0 0 
5987291		 # 	collision with: 6 10 2 0 0  and 6 10 3 0 0 
5987296		 # 	collision with: 1 6 0 0 0  and 2 6 0 0 0 
5987298		 # 	collision with: 7 0 6 0 0  and 7 1 6 0 0 
5987305		 # 	collision with: 0 3 0 0 0  and 2 3 0 0 0 
5987307		 # 	collision with: 9 3 2 0 0  and 9 3 3 0 0 
5987328		 # 	collision with: 3 7 0 0 0  and 4 7 0 0 0 
5987330		 # 	collision with: 7 4 7 0 0  and 7 6 7 0 0 
5987360		 # 	collision with: 2 4 0 0 0  and 4 4 0 0 0 
5987362		 # 	collision with: 7 1 4 0 0  and 7 2 4 0 0 
5987385		 # 	collision with: 9 2 0 0 0  and 2 3 0 0 0 
5987387		 # 	collision with: 7 3 2 0 0  and 7 4 2 0 0 
5987392		 # 	collision with: 4 5 0 0 0  and 6 5 0 0 0 
5987401		 # 	collision with: 6 2 0 0 0  and 5 3 0 0 0 
5987403		 # 	collision with: 1 1 2 0 0  and 1 1 3 0 0 
5987465		 # 	collision with: 5 2 0 0 0  and 7 3 0 0 0 
5987468		 # 	collision with: 0 3 0 0 0  and 2 3 0 0 0 
5987470		 # 	collision with: 7 4 3 0 0  and 7 5 3 0 0 
5987500		 # 	collision with: 3 10 0 0 0  and 5 10 0 0 0 
5987502		 # 	collision with: 7 4 10 0 0  and 7 5 10 0 0 
5987517		 # 	collision with: 9 2 0 0 0  and 2 3 0 0 0 
5987519		 # 	collision with: 7 3 2 0 0  and 7 4 2 0 0 
5987521		 # 	collision with: 2 1 0 0 0  and 3 1 0 0 0 
5987532		 # 	collision with: 1 9 0 0 0  and 3 9 0 0 0 
5987534		 # 	collision with: 7 4 9 0 0  and 7 6 9 0 0 
5987564		 # 	collision with: 7 5 10 7 0  and 9 1 0 0 1 
5987566		 # 	collision with: 7 4 0 0 0  and 0 7 0 1 0 
5987568		 # 	collision with: 2 4 0 0 0  and 4 4 0 0 0 
5987570		 # 	collision with: 7 3 4 0 0  and 7 5 4 0 0 
5987572		 # 	collision with: 4 2 0 0 0  and 5 2 0 0 0 
5987574		 # 	collision with: 7 0 2 0 0  and 7 2 2 0 0 
5987576		 # 	collision with: 4 5 0 0 0  and 6 5 0 0 0 
5987578		 # 	collision with: 7 2 5 0 0  and 7 3 5 0 0 
5987580		 # 	collision with: 2 1 0 0 0  and 3 1 0 0 0 
5987582		 # 	collision with: 7 0 1 0 0  and 7 2 1 0 0 
5987584		 # 	collision with: 0 3 0 0 0  and 2 3 0 0 0 
5987586		 # 	collision with: 7 0 3 0 0  and 7 1 3 0 0 
5987588		 # 	collision with: 5 8 0 0 0  and 6 8 0 0 0 
5987590		 # 	collision with: 7 0 8 0 0  and 7 1 8 0 0 
5987592		 # 	collision with: 3 10 0 0 0  and 5 10 0 0 0 
5987594		 # 	collision with: 7 5 10 0 0  and 7 6 10 0 0 
5987596		 # 	collision with: 1 6 0 0 0  and 2 6 0 0 0 
5987598		 # 	collision with: 7 3 6 0 0  and 7 5 6 0 0 
5987600		 # 	collision with: 1 9 0 0 0  and 3 9 0 0 0 
5987602		 # 	collision with: 7 5 9 0 0  and 7 6 9 0 0 
5987604		 # 	collision with: 3 7 0 0 0  and 4 7 0 0 0 
5987609		 # 	collision with: 1 9 0 0 0  and 3 9 0 0 0 
5987611		 # 	collision with: 7 1 9 0 0  and 7 3 9 0 0 
5987640		 # 	collision with: 1 6 0 0 0  and 2 6 0 0 0 
5987642		 # 	collision with: 7 3 6 0 0  and 7 5 6 0 0 
5987657		 # 	collision with: 4 5 0 0 0  and 6 5 0 0 0 
5987659		 # 	collision with: 3 5 1 0 0  and 3 5 3 0 0 
5987672		 # 	collision with: 0 3 0 0 0  and 2 3 0 0 0 
5987674		 # 	collision with: 7 0 3 0 0  and 7 1 3 0 0 
5987704		 # 	collision with: 4 2 0 0 0  and 5 2 0 0 0 
5987706		 # 	collision with: 7 0 2 0 0  and 7 2 2 0 0 
5987709		 # 	collision with: 4 2 0 0 0  and 5 2 0 0 0 
5987711		 # 	collision with: 7 3 1 0 0  and 7 9 3 0 0 
5987773		 # 	collision with: 5 1 0 0 0  and 0 3 0 0 0 
5987775		 # 	collision with: 7 7 1 0 0  and 7 1 3 0 0 
5987780		 # 	collision with: 3 7 0 0 0  and 4 7 0 0 0 
5987782		 # 	collision with: 7 2 7 0 0  and 7 3 7 0 0 
5987789		 # 	collision with: 4 5 0 0 0  and 6 5 0 0 0 
5987812		 # 	collision with: 3 10 0 0 0  and 5 10 0 0 0 
5987814		 # 	collision with: 7 5 10 0 0  and 7 6 10 0 0 
5987846		 # 	collision with: 7 0 1 0 0  and 7 2 1 0 0 
5987871		 # 	collision with: 6 6 1 0 0  and 6 6 3 0 0 
5987876		 # 	collision with: 2 4 0 0 0  and 4 4 0 0 0 
5987878		 # 	collision with: 7 3 4 0 0  and 7 5 4 0 0 
5987885		 # 	collision with: 4 2 0 0 0  and 5 2 0 0 0 
5987887		 # 	collision with: 7 4 1 0 0  and 7 6 3 0 0 
5987949		 # 	collision with: 5 1 0 0 0  and 0 3 0 0 0 
5987951		 # 	collision with: 6 2 1 0 0  and 6 2 3 0 0 
5987952		 # 	collision with: 1 9 0 0 0  and 3 9 0 0 0 
5987954		 # 	collision with: 7 5 9 0 0  and 7 6 9 0 0 
5987984		 # 	collision with: 5 8 0 0 0  and 6 8 0 0 0 
5987986		 # 	collision with: 7 0 8 0 0  and 7 1 8 0 0 
118.327secs	42880
