# prime 11
# degree 2
# input variables 3
# output variables 4
# reload computed balance functions from file balance-3125of3248-p11d2m3-debug.log
# p = 11
# n = 4
# smalldomain p^m 1331
# domain p^n 14641
#	 p^2 = 121
#	 p^3 = 1331
#	 p^4 = 14641
#	 p^5 = 161051
#	 p^6 = 1771561
#	 p^7 = 19487171
#	 p^8 = 214358881
#	 p^9 = 2357947691
opening file : balance-3125of3248-p11d2m3-debug.log
reloading for step2...
68750021		 # 	collision with: 2 5 0 0  and 8 2 1 0 
68750023		 # 	collision with: 6 1 0 0  and 8 1 1 0 
68750069		 # 	collision with: 7 3 2 0  and 7 5 2 0 
68750071		 # 	collision with: 4 4 0 0  and 4 5 0 0 
68750115		 # 	collision with: 4 4 0 0  and 4 5 0 0 
68750121		 # 	collision with: 8 4 1 0  and 7 3 2 0 
68750123		 # 	collision with: 10 4 0 0  and 7 5 0 0 
68750141		 # 	collision with: 1 4 0 0  and 1 5 0 0 
68750145		 # 	collision with: 4 10 0 0  and 9 0 2 0 
68750147		 # 	collision with: 4 10 0 0  and 8 0 2 0 
68750264		 # 	collision with: 3 10 0 0  and 7 8 1 0 
68750266		 # 	collision with: 3 0 0 0  and 8 4 2 0 
68750273		 # 	collision with: 3 0 1 0  and 1 2 2 0 
68750275		 # 	collision with: 2 8 0 0  and 8 9 1 0 
68750301		 # 	collision with: 7 7 2 0  and 8 6 3 0 
68750303		 # 	collision with: 7 3 0 0  and 10 5 0 0 
68750429		 # 	collision with: 7 3 0 0  and 7 5 0 0 
68750431		 # 	collision with: 2 3 0 0  and 4 3 0 0 
68750433		 # 	collision with: 6 1 0 0  and 1 4 1 0 
68750435		 # 	collision with: 7 3 0 0  and 10 5 0 0 
68750453		 # 	collision with: 5 10 0 0  and 6 10 0 0 
68750455		 # 	collision with: 2 1 1 0  and 1 3 2 0 
68750461		 # 	collision with: 1 6 0 0  and 3 4 1 0 
68750463		 # 	collision with: 8 4 0 0  and 3 0 1 0 
68750505		 # 	collision with: 2 4 0 0  and 4 3 1 0 
68750507		 # 	collision with: 7 2 0 0  and 1 9 2 0 
68750553		 # 	collision with: 7 10 0 0  and 6 3 1 0 
68750555		 # 	collision with: 5 2 0 0  and 7 8 1 0 
68750597		 # 	collision with: 0 2 0 0  and 4 5 1 0 
68750599		 # 	collision with: 4 4 0 0  and 5 2 1 0 
68750605		 # 	collision with: 7 3 0 0  and 7 5 0 0 
68750607		 # 	collision with: 2 3 0 0  and 4 3 0 0 
68750625		 # 	collision with: 6 10 0 0  and 5 2 1 0 
68750627		 # 	collision with: 10 9 0 0  and 6 2 1 0 
68750629		 # 	collision with: 5 10 0 0  and 6 10 0 0 
68750631		 # 	collision with: 3 6 0 0  and 6 0 2 0 
68750748		 # 	collision with: 10 7 0 0  and 5 0 1 0 
68750750		 # 	collision with: 4 0 0 0  and 8 4 1 0 
68750757		 # 	collision with: 1 3 0 0  and 10 4 0 0 
68750759		 # 	collision with: 1 2 0 0  and 4 10 1 0 
68750787		 # 	collision with: 1 8 0 0  and 4 5 1 0 
68750913		 # 	collision with: 10 0 2 0  and 10 2 2 0 
68750915		 # 	collision with: 1 3 0 0  and 5 4 0 0 
68750917		 # 	collision with: 4 3 0 0  and 3 0 2 0 
68750919		 # 	collision with: 7 3 0 0  and 5 6 1 0 
68750937		 # 	collision with: 0 4 1 0  and 2 4 1 0 
68750939		 # 	collision with: 9 1 1 0  and 10 3 1 0 
68750945		 # 	collision with: 7 1 0 0  and 7 1 1 0 
68750947		 # 	collision with: 2 0 1 0  and 2 2 1 0 
68750989		 # 	collision with: 10 1 0 0  and 10 1 1 0 
68750991		 # 	collision with: 2 0 1 0  and 2 2 1 0 
68751037		 # 	collision with: 2 0 1 0  and 10 7 2 0 
68751081		 # 	collision with: 6 8 0 0  and 9 10 1 0 
68751083		 # 	collision with: 3 0 1 0  and 1 1 1 0 
68751089		 # 	collision with: 0 9 0 0  and 7 7 1 0 
68751109		 # 	collision with: 1 3 0 0  and 10 4 0 0 
68751111		 # 	collision with: 9 10 0 0  and 3 2 2 0 
68751113		 # 	collision with: 9 9 0 0  and 9 6 1 0 
68751115		 # 	collision with: 8 0 2 0  and 8 1 2 0 
68751232		 # 	collision with: 1 4 0 0  and 8 5 1 0 
68751234		 # 	collision with: 2 9 0 0  and 6 10 1 0 
68751241		 # 	collision with: 4 6 1 0  and 3 4 2 0 
68751243		 # 	collision with: 2 10 0 0  and 1 9 1 0 
68751269		 # 	collision with: 1 7 1 0  and 4 0 2 0 
68751397		 # 	collision with: 1 1 2 0  and 2 1 2 0 
68751399		 # 	collision with: 1 5 1 0  and 1 5 2 0 
68751401		 # 	collision with: 3 8 0 0  and 2 2 1 0 
68751403		 # 	collision with: 1 8 0 0  and 5 2 2 0 
68751421		 # 	collision with: 4 9 0 0  and 4 9 1 0 
68751423		 # 	collision with: 1 1 1 0  and 5 4 2 0 
68751429		 # 	collision with: 5 10 0 0  and 6 10 0 0 
68751431		 # 	collision with: 4 1 0 0  and 4 1 1 0 
68751473		 # 	collision with: 5 10 0 0  and 6 10 0 0 
68751475		 # 	collision with: 1 1 0 0  and 1 1 1 0 
68751521		 # 	collision with: 6 6 0 0  and 7 4 1 0 
68751523		 # 	collision with: 9 10 0 0  and 2 10 1 0 
68751565		 # 	collision with: 3 3 0 0  and 6 9 2 0 
68751567		 # 	collision with: 3 0 0 0  and 5 4 1 0 
68751573		 # 	collision with: 1 4 1 0  and 8 5 1 0 
68751575		 # 	collision with: 1 9 1 0  and 3 9 1 0 
68751593		 # 	collision with: 9 2 0 0  and 2 3 1 0 
68751595		 # 	collision with: 4 9 0 0  and 8 8 1 0 
68751597		 # 	collision with: 2 9 0 0  and 2 9 1 0 
68751716		 # 	collision with: 3 0 0 0  and 9 2 2 0 
68751718		 # 	collision with: 4 0 1 0  and 5 3 2 0 
68751725		 # 	collision with: 4 6 0 0  and 5 3 1 0 
68751753		 # 	collision with: 10 9 1 0  and 0 1 2 0 
68751755		 # 	collision with: 9 7 0 0  and 2 8 1 0 
68751881		 # 	collision with: 6 9 0 0  and 3 2 2 0 
68751885		 # 	collision with: 10 1 0 0  and 4 2 1 0 
68751887		 # 	collision with: 9 1 0 0  and 10 5 1 0 
68751905		 # 	collision with: 3 2 0 0  and 3 3 0 0 
68751907		 # 	collision with: 5 6 0 0  and 7 0 1 0 
68751913		 # 	collision with: 5 5 1 0  and 8 6 1 0 
68751915		 # 	collision with: 7 4 3 0  and 9 2 4 0 
68751957		 # 	collision with: 8 2 2 0  and 8 4 2 0 
68751959		 # 	collision with: 5 5 0 0  and 4 4 1 0 
68752005		 # 	collision with: 5 10 0 0  and 6 10 0 0 
68752007		 # 	collision with: 8 4 0 0  and 1 3 1 0 
68752049		 # 	collision with: 5 10 0 0  and 6 10 0 0 
68752051		 # 	collision with: 2 10 0 0  and 9 10 1 0 
68752057		 # 	collision with: 4 10 0 0  and 8 8 1 0 
68752059		 # 	collision with: 3 3 0 0  and 0 2 1 0 
68752077		 # 	collision with: 6 10 0 0  and 6 0 1 0 
68752079		 # 	collision with: 3 10 1 0  and 3 1 2 0 
68752081		 # 	collision with: 3 2 0 0  and 3 3 0 0 
68752083		 # 	collision with: 0 9 0 0  and 4 9 1 0 
68752200		 # 	collision with: 4 1 1 0  and 6 2 2 0 
68752202		 # 	collision with: 9 4 1 0  and 4 5 2 0 
68752211		 # 	collision with: 7 9 1 0  and 7 5 3 0 
68752237		 # 	collision with: 4 6 0 0  and 3 1 1 0 
68752239		 # 	collision with: 9 7 0 0  and 2 8 2 0 
68752365		 # 	collision with: 2 5 0 0  and 10 3 1 0 
68752367		 # 	collision with: 1 1 0 0  and 1 3 0 0 
68752369		 # 	collision with: 1 3 0 0  and 1 3 1 0 
68752371		 # 	collision with: 8 8 0 0  and 8 8 2 0 
68752389		 # 	collision with: 3 3 0 0  and 7 2 1 0 
68752397		 # 	collision with: 9 3 0 0  and 9 1 1 0 
68752399		 # 	collision with: 5 3 0 0  and 2 1 1 0 
68752441		 # 	collision with: 5 2 0 0  and 3 7 1 0 
68752489		 # 	collision with: 1 1 1 0  and 2 1 1 0 
68752491		 # 	collision with: 7 8 0 0  and 9 6 1 0 
68752533		 # 	collision with: 1 4 1 0  and 1 5 1 0 
68752535		 # 	collision with: 4 8 0 0  and 2 6 1 0 
68752541		 # 	collision with: 1 7 0 0  and 3 0 2 0 
68752543		 # 	collision with: 1 1 0 0  and 1 3 0 0 
68752561		 # 	collision with: 5 1 0 0  and 2 7 1 0 
68752563		 # 	collision with: 10 1 0 0  and 10 7 1 0 
68752565		 # 	collision with: 2 2 0 0  and 3 8 1 0 
68752567		 # 	collision with: 2 3 0 0  and 4 3 0 0 
68752684		 # 	collision with: 4 0 1 0  and 3 5 2 0 
68752686		 # 	collision with: 2 4 0 0  and 10 6 1 0 
68752693		 # 	collision with: 9 4 0 0  and 6 7 1 0 
68752695		 # 	collision with: 4 0 1 0  and 2 1 1 0 
68752721		 # 	collision with: 9 7 0 0  and 6 0 1 0 
68752723		 # 	collision with: 2 7 0 0  and 3 5 1 0 
68752849		 # 	collision with: 5 10 0 0  and 6 10 0 0 
68752851		 # 	collision with: 4 2 0 0  and 6 2 1 0 
68752853		 # 	collision with: 0 7 0 0  and 3 5 1 0 
68752855		 # 	collision with: 8 3 0 0  and 8 3 1 0 
68752873		 # 	collision with: 1 6 0 0  and 0 1 1 0 
68752875		 # 	collision with: 0 2 0 0  and 6 6 1 0 
68752881		 # 	collision with: 1 6 0 0  and 0 1 2 0 
68752883		 # 	collision with: 1 1 2 0  and 1 3 2 0 
68752925		 # 	collision with: 5 5 0 0  and 8 0 2 0 
68752927		 # 	collision with: 4 3 1 0  and 9 0 2 0 
68752973		 # 	collision with: 2 3 2 0  and 4 3 2 0 
68752975		 # 	collision with: 9 5 0 0  and 3 1 1 0 
68753017		 # 	collision with: 9 7 0 0  and 1 0 1 0 
68753019		 # 	collision with: 5 7 0 0  and 5 0 1 0 
68753025		 # 	collision with: 5 10 0 0  and 6 10 0 0 
68753027		 # 	collision with: 4 4 2 0  and 4 5 2 0 
68753045		 # 	collision with: 1 7 0 0  and 4 0 1 0 
68753047		 # 	collision with: 2 3 1 0  and 7 1 2 0 
68753049		 # 	collision with: 1 6 0 0  and 0 1 1 0 
68753051		 # 	collision with: 10 5 1 0  and 0 6 1 0 
68753168		 # 	collision with: 2 10 0 0  and 6 2 1 0 
68753170		 # 	collision with: 5 7 0 0  and 8 10 1 0 
68753177		 # 	collision with: 8 8 0 0  and 6 3 1 0 
68753179		 # 	collision with: 0 8 0 0  and 8 8 1 0 
68753205		 # 	collision with: 5 10 0 0  and 6 10 0 0 
68753207		 # 	collision with: 8 0 0 0  and 9 2 0 0 
68753333		 # 	collision with: 3 2 1 0  and 3 3 1 0 
68753335		 # 	collision with: 9 2 0 0  and 1 2 1 0 
68753337		 # 	collision with: 5 10 0 0  and 6 10 0 0 
68753357		 # 	collision with: 6 4 1 0  and 6 6 1 0 
68753359		 # 	collision with: 2 0 0 0  and 2 2 0 0 
68753367		 # 	collision with: 3 8 0 0  and 5 10 1 0 
68753409		 # 	collision with: 10 0 0 0  and 10 2 0 0 
68753411		 # 	collision with: 1 1 1 0  and 2 1 1 0 
68753457		 # 	collision with: 6 2 0 0  and 2 8 2 0 
68753459		 # 	collision with: 2 3 0 0  and 4 3 0 0 
68753501		 # 	collision with: 4 5 1 0  and 5 5 1 0 
68753511		 # 	collision with: 3 2 0 0  and 2 3 1 0 
68753529		 # 	collision with: 7 8 0 0  and 7 8 1 0 
68753531		 # 	collision with: 5 1 0 0  and 7 0 2 0 
68753533		 # 	collision with: 6 4 1 0  and 6 6 1 0 
68753535		 # 	collision with: 2 0 0 0  and 2 2 0 0 
68753652		 # 	collision with: 2 6 1 0  and 3 10 2 0 
68753654		 # 	collision with: 1 3 0 0  and 0 9 1 0 
68753661		 # 	collision with: 8 4 0 0  and 8 2 1 0 
68753663		 # 	collision with: 4 0 0 0  and 2 1 0 0 
68753689		 # 	collision with: 9 10 0 0  and 2 8 1 0 
68753691		 # 	collision with: 4 3 0 0  and 2 3 1 0 
68753817		 # 	collision with: 4 0 0 0  and 6 5 1 0 
68753819		 # 	collision with: 4 7 0 0  and 6 3 2 0 
68753823		 # 	collision with: 0 1 1 0  and 2 2 1 0 
68753841		 # 	collision with: 2 7 0 0  and 5 1 1 0 
68753843		 # 	collision with: 8 10 0 0  and 8 2 2 0 
68753849		 # 	collision with: 2 0 0 0  and 9 1 0 0 
68753851		 # 	collision with: 1 3 0 0  and 4 0 1 0 
68753893		 # 	collision with: 2 0 0 0  and 9 1 0 0 
68753895		 # 	collision with: 10 3 0 0  and 6 7 1 0 
68753941		 # 	collision with: 3 5 0 0  and 1 2 1 0 
68753943		 # 	collision with: 4 5 1 0  and 5 5 1 0 
68753985		 # 	collision with: 0 3 0 0  and 9 0 1 0 
68753987		 # 	collision with: 9 2 1 0  and 6 4 1 0 
68753993		 # 	collision with: 0 3 0 0  and 9 0 1 0 
68753995		 # 	collision with: 7 5 1 0  and 2 5 2 0 
68754013		 # 	collision with: 6 9 0 0  and 1 5 2 0 
68754015		 # 	collision with: 4 0 0 0  and 2 1 0 0 
68754019		 # 	collision with: 7 5 2 0  and 10 4 3 0 
68754180		 # 	collision with: 5 6 0 0  and 6 6 0 0 
68754182		 # 	collision with: 2 6 0 0  and 4 6 0 0 
68754193		 # 	collision with: 8 6 0 0  and 0 5 2 0 
68754195		 # 	collision with: 7 5 0 0  and 10 3 1 0 
68754197		 # 	collision with: 10 3 1 0  and 10 4 1 0 
68754199		 # 	collision with: 9 9 0 0  and 0 10 1 0 
68754208		 # 	collision with: 10 3 0 0  and 10 4 0 0 
68754224		 # 	collision with: 5 6 0 0  and 6 6 0 0 
68754226		 # 	collision with: 2 6 0 0  and 4 6 0 0 
68754236		 # 	collision with: 10 2 0 0  and 1 3 0 0 
68754245		 # 	collision with: 6 8 0 0  and 7 3 1 0 
68754247		 # 	collision with: 5 3 0 0  and 5 3 1 0 
68754261		 # 	collision with: 6 0 0 0  and 5 5 1 0 
68754263		 # 	collision with: 4 5 0 0  and 2 6 0 0 
68754268		 # 	collision with: 5 6 0 0  and 6 6 0 0 
68754270		 # 	collision with: 2 6 0 0  and 4 6 0 0 
68754308		 # 	collision with: 7 2 0 0  and 7 4 0 0 
68754312		 # 	collision with: 5 6 0 0  and 6 6 0 0 
68754314		 # 	collision with: 2 6 0 0  and 4 6 0 0 
68754336		 # 	collision with: 1 1 0 0  and 10 2 0 0 
68754356		 # 	collision with: 5 6 0 0  and 6 6 0 0 
68754358		 # 	collision with: 2 6 0 0  and 4 6 0 0 
68754363		 # 	collision with: 4 5 0 0  and 4 6 0 0 
68754364		 # 	collision with: 2 3 0 0  and 2 5 0 0 
68754400		 # 	collision with: 5 6 0 0  and 6 6 0 0 
68754402		 # 	collision with: 2 6 0 0  and 4 6 0 0 
68754436		 # 	collision with: 9 1 0 0  and 9 2 0 0 
68754443		 # 	collision with: 2 6 0 0  and 4 6 0 0 
68754444		 # 	collision with: 5 6 0 0  and 6 6 0 0 
68754446		 # 	collision with: 2 6 0 0  and 4 6 0 0 
68754464		 # 	collision with: 3 0 0 0  and 3 1 0 0 
68754488		 # 	collision with: 5 6 0 0  and 6 6 0 0 
68754490		 # 	collision with: 2 6 0 0  and 4 6 0 0 
68754492		 # 	collision with: 4 2 0 0  and 4 3 0 0 
68754532		 # 	collision with: 5 6 0 0  and 6 6 0 0 
68754534		 # 	collision with: 2 6 0 0  and 4 6 0 0 
68754541		 # 	collision with: 0 0 0 0  and 2 3 1 0 
68754543		 # 	collision with: 9 4 1 0  and 9 5 1 0 
68754557		 # 	collision with: 5 1 0 0  and 4 2 1 0 
68754559		 # 	collision with: 3 9 1 0  and 1 0 3 0 
68754564		 # 	collision with: 6 0 0 0  and 6 2 0 0 
68754576		 # 	collision with: 5 6 0 0  and 6 6 0 0 
68754578		 # 	collision with: 2 6 0 0  and 4 6 0 0 
68754592		 # 	collision with: 10 0 0 0  and 1 2 0 0 
68754605		 # 	collision with: 1 1 1 0  and 1 3 1 0 
68754607		 # 	collision with: 7 3 2 0  and 9 5 2 0 
68754609		 # 	collision with: 10 6 0 0  and 4 6 1 0 
68754611		 # 	collision with: 4 6 0 0  and 3 6 1 0 
68754620		 # 	collision with: 4 7 0 0  and 0 0 1 0 
68754622		 # 	collision with: 0 0 1 0  and 1 4 2 0 
68754664		 # 	collision with: 4 7 0 0  and 0 0 1 0 
68754666		 # 	collision with: 5 4 0 0  and 9 1 2 0 
68754677		 # 	collision with: 8 4 0 0  and 3 6 0 0 
68754679		 # 	collision with: 9 3 0 0  and 3 1 1 0 
68754681		 # 	collision with: 7 7 1 0  and 5 0 2 0 
68754683		 # 	collision with: 1 4 0 0  and 1 6 0 0 
68754692		 # 	collision with: 4 1 0 0  and 0 2 1 0 
68754694		 # 	collision with: 8 6 0 0  and 1 4 1 0 
68754708		 # 	collision with: 4 7 0 0  and 0 0 1 0 
68754710		 # 	collision with: 6 7 1 0  and 8 0 2 0 
68754722		 # 	collision with: 1 4 1 0  and 8 6 2 0 
68754729		 # 	collision with: 7 3 0 0  and 9 2 1 0 
68754731		 # 	collision with: 7 3 0 0  and 10 2 1 0 
68754745		 # 	collision with: 5 6 0 0  and 6 6 0 0 
68754747		 # 	collision with: 10 5 0 0  and 10 8 1 0 
68754752		 # 	collision with: 4 7 0 0  and 0 0 1 0 
68754754		 # 	collision with: 7 7 0 0  and 6 0 1 0 
68754792		 # 	collision with: 4 2 1 0  and 4 3 1 0 
68754794		 # 	collision with: 6 1 1 0  and 7 2 1 0 
68754796		 # 	collision with: 4 7 0 0  and 0 0 1 0 
68754798		 # 	collision with: 6 8 0 0  and 7 5 2 0 
68754820		 # 	collision with: 8 1 0 0  and 5 7 1 0 
68754822		 # 	collision with: 3 1 1 0  and 6 6 3 0 
68754840		 # 	collision with: 4 7 0 0  and 0 0 1 0 
68754842		 # 	collision with: 5 8 1 0  and 4 1 2 0 
68754845		 # 	collision with: 4 10 0 0  and 4 6 1 0 
68754847		 # 	collision with: 4 4 0 0  and 10 5 1 0 
68754848		 # 	collision with: 9 10 0 0  and 6 1 1 0 
68754850		 # 	collision with: 3 1 2 0  and 1 6 3 0 
68754884		 # 	collision with: 4 7 0 0  and 0 0 1 0 
68754886		 # 	collision with: 6 2 0 0  and 8 10 2 0 
68754920		 # 	collision with: 5 6 0 0  and 6 6 0 0 
68754922		 # 	collision with: 2 6 0 0  and 4 6 0 0 
68754925		 # 	collision with: 8 0 2 0  and 9 1 2 0 
68754927		 # 	collision with: 4 5 1 0  and 4 6 1 0 
68754928		 # 	collision with: 4 7 0 0  and 0 0 1 0 
68754930		 # 	collision with: 2 7 0 0  and 5 4 2 0 
68754948		 # 	collision with: 8 2 0 0  and 6 1 1 0 
68754950		 # 	collision with: 3 3 0 0  and 3 3 1 0 
68754972		 # 	collision with: 4 7 0 0  and 0 0 1 0 
68754974		 # 	collision with: 6 5 0 0  and 8 9 1 0 
68754976		 # 	collision with: 9 3 0 0  and 8 9 1 0 
68754978		 # 	collision with: 6 10 0 0  and 2 7 1 0 
68755025		 # 	collision with: 9 2 2 0  and 0 4 2 0 
68755027		 # 	collision with: 2 3 1 0  and 2 0 2 0 
68755041		 # 	collision with: 8 4 0 0  and 8 6 0 0 
68755043		 # 	collision with: 1 4 0 0  and 5 6 0 0 
68755048		 # 	collision with: 6 10 0 0  and 4 4 1 0 
68755050		 # 	collision with: 8 6 0 0  and 5 6 1 0 
68755060		 # 	collision with: 4 7 0 0  and 0 0 1 0 
68755062		 # 	collision with: 5 7 0 0  and 10 0 1 0 
68755076		 # 	collision with: 0 2 0 0  and 6 10 1 0 
68755078		 # 	collision with: 5 6 0 0  and 1 4 2 0 
68755089		 # 	collision with: 4 0 0 0  and 10 4 1 0 
68755093		 # 	collision with: 2 6 0 0  and 2 6 1 0 
68755095		 # 	collision with: 2 6 0 0  and 4 6 0 0 
68755104		 # 	collision with: 6 7 0 0  and 7 0 2 0 
68755106		 # 	collision with: 5 2 0 0  and 10 4 1 0 
68755148		 # 	collision with: 2 6 0 0  and 9 8 1 0 
68755150		 # 	collision with: 9 9 0 0  and 9 0 1 0 
68755161		 # 	collision with: 5 4 0 0  and 5 5 0 0 
68755163		 # 	collision with: 0 6 1 0  and 1 6 1 0 
68755165		 # 	collision with: 0 8 0 0  and 7 1 1 0 
68755167		 # 	collision with: 3 8 0 0  and 7 1 1 0 
68755176		 # 	collision with: 5 6 0 0  and 6 6 0 0 
68755178		 # 	collision with: 2 6 0 0  and 4 6 0 0 
68755192		 # 	collision with: 5 5 1 0  and 1 7 2 0 
68755194		 # 	collision with: 10 10 0 0  and 8 1 1 0 
68755204		 # 	collision with: 0 6 1 0  and 1 6 1 0 
68755206		 # 	collision with: 3 6 1 0  and 4 6 1 0 
68755213		 # 	collision with: 4 7 0 0  and 4 9 1 0 
68755215		 # 	collision with: 4 7 0 0  and 3 9 1 0 
68755229		 # 	collision with: 4 9 0 0  and 8 2 1 0 
68755236		 # 	collision with: 0 9 0 0  and 2 0 1 0 
68755238		 # 	collision with: 4 2 0 0  and 8 4 1 0 
68755276		 # 	collision with: 0 9 0 0  and 2 0 1 0 
68755278		 # 	collision with: 1 7 0 0  and 7 1 2 0 
68755280		 # 	collision with: 5 9 1 0  and 5 0 2 0 
68755282		 # 	collision with: 1 4 0 0  and 3 6 1 0 
68755306		 # 	collision with: 6 2 0 0  and 1 4 2 0 
68755324		 # 	collision with: 7 10 0 0  and 1 3 2 0 
68755326		 # 	collision with: 7 6 0 0  and 8 10 2 0 
68755329		 # 	collision with: 9 4 0 0  and 2 5 0 0 
68755331		 # 	collision with: 5 3 2 0  and 6 4 2 0 
68755332		 # 	collision with: 1 5 0 0  and 9 3 2 0 
68755334		 # 	collision with: 5 3 0 0  and 8 8 1 0 
68755368		 # 	collision with: 8 6 0 0  and 9 8 1 0 
68755370		 # 	collision with: 5 0 2 0  and 8 2 3 0 
68755404		 # 	collision with: 9 0 1 0  and 5 2 1 0 
68755406		 # 	collision with: 2 1 1 0  and 2 2 1 0 
68755409		 # 	collision with: 6 5 0 0  and 9 2 1 0 
68755411		 # 	collision with: 5 6 0 0  and 4 5 1 0 
68755432		 # 	collision with: 5 6 0 0  and 6 7 1 0 
68755434		 # 	collision with: 10 7 0 0  and 3 1 1 0 
68755456		 # 	collision with: 2 10 0 0  and 5 1 1 0 
68755458		 # 	collision with: 6 1 0 0  and 3 3 1 0 
68755460		 # 	collision with: 10 2 1 0  and 4 8 2 0 
68755462		 # 	collision with: 6 1 0 0  and 7 2 1 0 
68755500		 # 	collision with: 4 3 0 0  and 8 5 1 0 
68755502		 # 	collision with: 5 10 0 0  and 1 1 1 0 
68755509		 # 	collision with: 7 2 0 0  and 7 2 1 0 
68755511		 # 	collision with: 5 4 0 0  and 1 5 0 0 
68755525		 # 	collision with: 3 1 1 0  and 7 2 1 0 
68755527		 # 	collision with: 2 6 0 0  and 4 6 0 0 
68755532		 # 	collision with: 1 6 0 0  and 1 6 1 0 
68755534		 # 	collision with: 1 8 0 0  and 1 2 1 0 
68755544		 # 	collision with: 10 9 0 0  and 8 0 1 0 
68755546		 # 	collision with: 2 6 2 0  and 3 6 2 0 
68755560		 # 	collision with: 2 8 0 0  and 3 7 1 0 
68755562		 # 	collision with: 2 9 1 0  and 3 8 2 0 
68755573		 # 	collision with: 5 6 0 0  and 6 6 0 0 
68755575		 # 	collision with: 9 3 0 0  and 1 4 1 0 
68755577		 # 	collision with: 3 6 0 0  and 2 6 1 0 
68755579		 # 	collision with: 3 4 0 0  and 3 3 1 0 
68755588		 # 	collision with: 3 7 0 0  and 4 1 1 0 
68755590		 # 	collision with: 6 0 0 0  and 7 5 1 0 
68755632		 # 	collision with: 5 4 0 0  and 3 3 2 0 
68755634		 # 	collision with: 9 8 0 0  and 8 2 1 0 
68755645		 # 	collision with: 2 10 0 0  and 5 8 1 0 
68755647		 # 	collision with: 10 1 1 0  and 1 2 2 0 
68755649		 # 	collision with: 5 7 0 0  and 8 1 1 0 
68755651		 # 	collision with: 2 6 0 0  and 4 6 0 0 
68755660		 # 	collision with: 5 8 2 0  and 1 4 3 0 
68755662		 # 	collision with: 5 5 1 0  and 1 9 2 0 
68755676		 # 	collision with: 4 3 0 0  and 4 2 2 0 
68755678		 # 	collision with: 7 10 1 0  and 3 4 2 0 
68755688		 # 	collision with: 4 4 0 0  and 4 1 2 0 
68755690		 # 	collision with: 2 2 0 0  and 3 9 1 0 
68755697		 # 	collision with: 5 6 0 0  and 6 6 0 0 
68755699		 # 	collision with: 2 9 1 0  and 7 1 2 0 
68755713		 # 	collision with: 9 9 0 0  and 3 1 1 0 
68755715		 # 	collision with: 3 6 1 0  and 4 6 1 0 
68755720		 # 	collision with: 10 1 0 0  and 8 6 1 0 
68755722		 # 	collision with: 8 6 1 0  and 0 0 2 0 
68755760		 # 	collision with: 2 0 0 0  and 0 2 1 0 
68755762		 # 	collision with: 1 8 0 0  and 6 3 1 0 
68755764		 # 	collision with: 1 6 2 0  and 3 6 2 0 
68755766		 # 	collision with: 4 7 0 0  and 2 1 1 0 
68755788		 # 	collision with: 1 4 0 0  and 4 3 1 0 
68755790		 # 	collision with: 5 9 0 0  and 6 6 2 0 
68755813		 # 	collision with: 1 3 0 0  and 10 5 0 0 
68755815		 # 	collision with: 10 1 0 0  and 1 8 1 0 
68755816		 # 	collision with: 6 2 0 0  and 6 2 1 0 
68755818		 # 	collision with: 6 7 0 0  and 6 1 2 0 
68755852		 # 	collision with: 1 0 1 0  and 8 5 2 0 
68755854		 # 	collision with: 1 10 0 0  and 4 4 1 0 
68755890		 # 	collision with: 5 10 1 0  and 7 8 2 0 
68755893		 # 	collision with: 4 7 0 0  and 8 2 1 0 
68755895		 # 	collision with: 1 4 2 0  and 1 6 2 0 
68755896		 # 	collision with: 10 1 0 0  and 7 6 1 0 
68755898		 # 	collision with: 8 2 0 0  and 9 1 2 0 
68755916		 # 	collision with: 5 6 0 0  and 6 6 0 0 
68755918		 # 	collision with: 2 6 0 0  and 4 6 0 0 
68755940		 # 	collision with: 1 6 1 0  and 3 6 1 0 
68755942		 # 	collision with: 4 6 1 0  and 6 6 1 0 
68755944		 # 	collision with: 2 0 0 0  and 4 1 1 0 
68755946		 # 	collision with: 5 5 0 0  and 1 9 2 0 
68755984		 # 	collision with: 7 6 1 0  and 7 0 2 0 
68755986		 # 	collision with: 7 9 0 0  and 7 3 1 0 
68755993		 # 	collision with: 2 3 0 0  and 2 5 0 0 
68755995		 # 	collision with: 2 2 0 0  and 2 2 1 0 
68756009		 # 	collision with: 0 10 0 0  and 1 7 1 0 
68756016		 # 	collision with: 9 3 1 0  and 1 5 1 0 
68756018		 # 	collision with: 5 1 1 0  and 5 3 1 0 
68756028		 # 	collision with: 0 5 0 0  and 4 10 1 0 
68756030		 # 	collision with: 8 10 0 0  and 1 4 1 0 
68756044		 # 	collision with: 2 2 0 0  and 5 3 1 0 
68756046		 # 	collision with: 3 10 0 0  and 3 8 1 0 
68756057		 # 	collision with: 4 3 0 0  and 1 0 1 0 
68756059		 # 	collision with: 10 3 0 0  and 7 5 0 0 
68756061		 # 	collision with: 2 6 1 0  and 3 6 1 0 
68756063		 # 	collision with: 6 3 0 0  and 6 5 0 0 
68756072		 # 	collision with: 1 0 1 0  and 5 1 2 0 
68756074		 # 	collision with: 9 6 0 0  and 10 7 1 0 
68756116		 # 	collision with: 3 10 0 0  and 2 1 2 0 
68756118		 # 	collision with: 6 6 0 0  and 10 7 1 0 
68756129		 # 	collision with: 5 6 0 0  and 6 6 0 0 
68756131		 # 	collision with: 7 0 2 0  and 7 1 2 0 
68756135		 # 	collision with: 8 7 0 0  and 2 4 1 0 
68756144		 # 	collision with: 9 0 1 0  and 8 1 1 0 
68756146		 # 	collision with: 1 3 1 0  and 0 4 1 0 
68756160		 # 	collision with: 0 7 1 0  and 6 8 2 0 
68756162		 # 	collision with: 4 5 0 0  and 1 6 1 0 
68756172		 # 	collision with: 5 6 0 0  and 6 6 0 0 
68756174		 # 	collision with: 2 6 0 0  and 4 6 0 0 
68756181		 # 	collision with: 6 4 0 0  and 0 3 1 0 
68756183		 # 	collision with: 3 3 0 0  and 3 4 0 0 
68756197		 # 	collision with: 1 4 0 0  and 5 1 1 0 
68756199		 # 	collision with: 2 3 0 0  and 7 8 1 0 
68756244		 # 	collision with: 9 9 2 0  and 3 0 3 0 
68756246		 # 	collision with: 5 9 0 0  and 4 6 1 0 
68756248		 # 	collision with: 10 10 0 0  and 3 0 1 0 
68756250		 # 	collision with: 2 3 1 0  and 7 4 2 0 
68756272		 # 	collision with: 10 4 0 0  and 3 2 1 0 
68756274		 # 	collision with: 10 9 0 0  and 10 4 1 0 
68756292		 # 	collision with: 7 10 0 0  and 5 0 1 0 
68756294		 # 	collision with: 9 1 0 0  and 8 3 2 0 
68756297		 # 	collision with: 1 3 0 0  and 10 2 1 0 
68756299		 # 	collision with: 5 4 1 0  and 5 0 3 0 
68756300		 # 	collision with: 4 1 0 0  and 3 5 1 0 
68756302		 # 	collision with: 8 2 0 0  and 8 2 1 0 
68756336		 # 	collision with: 3 5 0 0  and 3 7 2 0 
68756338		 # 	collision with: 7 1 0 0  and 1 3 2 0 
68756372		 # 	collision with: 3 9 0 0  and 3 9 1 0 
68756374		 # 	collision with: 0 2 2 0  and 1 3 2 0 
68756377		 # 	collision with: 1 2 1 0  and 7 1 2 0 
68756380		 # 	collision with: 10 2 0 0  and 1 3 1 0 
68756382		 # 	collision with: 4 3 0 0  and 10 4 1 0 
68756400		 # 	collision with: 9 4 0 0  and 8 8 2 0 
68756402		 # 	collision with: 4 2 1 0  and 6 0 2 0 
68756424		 # 	collision with: 6 9 0 0  and 5 10 1 0 
68756426		 # 	collision with: 10 0 0 0  and 4 1 1 0 
68756430		 # 	collision with: 10 5 0 0  and 4 7 1 0 
68756468		 # 	collision with: 0 5 0 0  and 1 6 1 0 
68756470		 # 	collision with: 4 5 0 0  and 3 6 1 0 
68756477		 # 	collision with: 8 2 1 0  and 2 3 1 0 
68756479		 # 	collision with: 2 6 0 0  and 4 6 0 0 
68756493		 # 	collision with: 3 0 1 0  and 3 1 1 0 
68756495		 # 	collision with: 5 8 0 0  and 9 4 1 0 
68756500		 # 	collision with: 3 6 0 0  and 0 6 1 0 
68756502		 # 	collision with: 8 6 0 0  and 1 6 1 0 
68756512		 # 	collision with: 0 5 0 0  and 8 6 1 0 
68756514		 # 	collision with: 7 2 0 0  and 3 3 1 0 
68756528		 # 	collision with: 6 10 0 0  and 2 0 1 0 
68756530		 # 	collision with: 3 7 1 0  and 0 5 2 0 
68756541		 # 	collision with: 10 3 0 0  and 10 4 0 0 
68756543		 # 	collision with: 2 1 0 0  and 0 3 1 0 
68756547		 # 	collision with: 10 6 0 0  and 9 6 1 0 
68756556		 # 	collision with: 9 5 0 0  and 10 8 1 0 
68756558		 # 	collision with: 1 8 1 0  and 4 0 2 0 
68756613		 # 	collision with: 6 2 0 0  and 5 4 0 0 
68756615		 # 	collision with: 9 0 0 0  and 6 4 1 0 
68756617		 # 	collision with: 5 1 0 0  and 5 1 1 0 
68756619		 # 	collision with: 10 0 1 0  and 10 2 1 0 
68756628		 # 	collision with: 3 9 0 0  and 5 5 1 0 
68756630		 # 	collision with: 2 5 0 0  and 1 7 1 0 
68756644		 # 	collision with: 0 10 0 0  and 6 2 1 0 
68756646		 # 	collision with: 3 2 0 0  and 3 5 1 0 
68756656		 # 	collision with: 3 5 0 0  and 3 5 1 0 
68756658		 # 	collision with: 7 0 2 0  and 7 1 2 0 
68756665		 # 	collision with: 5 7 0 0  and 9 0 1 0 
68756667		 # 	collision with: 3 6 1 0  and 4 6 1 0 
68756683		 # 	collision with: 9 5 0 0  and 10 2 1 0 
68756688		 # 	collision with: 0 8 0 0  and 10 0 1 0 
68756690		 # 	collision with: 8 10 0 0  and 6 2 1 0 
68756728		 # 	collision with: 0 8 0 0  and 10 0 1 0 
68756730		 # 	collision with: 1 4 0 0  and 3 6 1 0 
68756732		 # 	collision with: 1 1 1 0  and 2 4 2 0 
68756734		 # 	collision with: 1 1 1 0  and 7 4 2 0 
68756756		 # 	collision with: 3 0 1 0  and 3 1 1 0 
68756758		 # 	collision with: 3 3 1 0  and 3 4 1 0 
68756776		 # 	collision with: 6 6 1 0  and 1 9 2 0 
68756778		 # 	collision with: 7 9 0 0  and 4 1 1 0 
68756781		 # 	collision with: 5 6 0 0  and 6 6 0 0 
68756783		 # 	collision with: 3 4 0 0  and 3 4 2 0 
68756784		 # 	collision with: 3 6 1 0  and 5 6 1 0 
68756786		 # 	collision with: 2 8 0 0  and 0 0 1 0 
68756820		 # 	collision with: 1 6 1 0  and 2 6 1 0 
68756822		 # 	collision with: 4 6 1 0  and 5 6 1 0 
68756856		 # 	collision with: 8 2 0 0  and 4 7 2 0 
68756858		 # 	collision with: 5 6 0 0  and 1 4 1 0 
68756861		 # 	collision with: 7 2 0 0  and 7 4 0 0 
68756863		 # 	collision with: 9 5 0 0  and 7 3 1 0 
68756864		 # 	collision with: 9 10 1 0  and 8 2 2 0 
68756866		 # 	collision with: 0 4 0 0  and 1 7 1 0 
68756884		 # 	collision with: 2 2 1 0  and 6 6 2 0 
68756886		 # 	collision with: 5 4 0 0  and 2 7 2 0 
68756908		 # 	collision with: 6 7 0 0  and 4 10 1 0 
68756910		 # 	collision with: 8 2 0 0  and 1 5 1 0 
68756912		 # 	collision with: 5 6 0 0  and 6 6 0 0 
68756914		 # 	collision with: 2 6 0 0  and 4 6 0 0 
68756952		 # 	collision with: 8 9 0 0  and 8 1 1 0 
68756954		 # 	collision with: 5 2 0 0  and 4 8 2 0 
68756961		 # 	collision with: 6 7 0 0  and 8 4 1 0 
68756963		 # 	collision with: 7 8 1 0  and 2 3 2 0 
68756979		 # 	collision with: 2 6 1 0  and 3 6 1 0 
68756984		 # 	collision with: 4 3 0 0  and 1 4 1 0 
68756986		 # 	collision with: 5 7 0 0  and 7 3 1 0 
68756996		 # 	collision with: 8 7 0 0  and 10 10 1 0 
68756998		 # 	collision with: 7 4 0 0  and 9 7 1 0 
68757014		 # 	collision with: 7 8 0 0  and 2 0 1 0 
68757025		 # 	collision with: 4 6 2 0  and 6 6 2 0 
68757027		 # 	collision with: 1 4 1 0  and 1 6 1 0 
68757029		 # 	collision with: 5 4 1 0  and 5 5 1 0 
68757040		 # 	collision with: 10 8 0 0  and 9 5 1 0 
68757042		 # 	collision with: 2 7 1 0  and 5 4 2 0 
68757084		 # 	collision with: 6 6 0 0  and 5 3 1 0 
68757086		 # 	collision with: 3 1 0 0  and 10 6 2 0 
68757097		 # 	collision with: 6 0 1 0  and 6 2 1 0 
68757101		 # 	collision with: 5 0 1 0  and 1 1 1 0 
68757103		 # 	collision with: 2 4 0 0  and 4 0 1 0 
68757114		 # 	collision with: 1 3 0 0  and 7 0 1 0 
68757128		 # 	collision with: 7 1 0 0  and 6 9 1 0 
68757130		 # 	collision with: 8 10 0 0  and 10 7 1 0 
68757140		 # 	collision with: 8 8 0 0  and 4 7 1 0 
68757142		 # 	collision with: 8 5 0 0  and 8 5 1 0 
68757151		 # 	collision with: 2 5 0 0  and 2 9 1 0 
68757165		 # 	collision with: 1 3 1 0  and 1 1 2 0 
68757167		 # 	collision with: 2 6 0 0  and 4 6 0 0 
68757172		 # 	collision with: 3 10 0 0  and 2 7 1 0 
68757174		 # 	collision with: 4 4 2 0  and 2 1 3 0 
68757212		 # 	collision with: 5 6 0 0  and 6 6 0 0 
68757214		 # 	collision with: 2 6 0 0  and 4 6 0 0 
68757216		 # 	collision with: 0 3 0 0  and 10 0 1 0 
68757218		 # 	collision with: 10 3 0 0  and 6 0 1 0 
68757240		 # 	collision with: 0 3 0 0  and 10 0 1 0 
68757242		 # 	collision with: 4 1 0 0  and 4 10 1 0 
68757260		 # 	collision with: 2 6 0 0  and 5 3 1 0 
68757262		 # 	collision with: 1 6 1 0  and 2 6 1 0 
68757265		 # 	collision with: 4 2 0 0  and 4 3 0 0 
68757267		 # 	collision with: 6 6 0 0  and 2 8 1 0 
68757268		 # 	collision with: 1 2 2 0  and 1 2 3 0 
68757270		 # 	collision with: 4 3 0 0  and 3 7 2 0 
68757304		 # 	collision with: 6 4 0 0  and 7 1 1 0 
68757306		 # 	collision with: 1 4 1 0  and 3 1 2 0 
68757340		 # 	collision with: 1 6 1 0  and 2 6 1 0 
68757342		 # 	collision with: 9 2 0 0  and 7 4 1 0 
68757345		 # 	collision with: 5 6 0 0  and 6 6 0 0 
68757347		 # 	collision with: 4 9 2 0  and 6 0 3 0 
68757348		 # 	collision with: 2 3 1 0  and 0 0 2 0 
68757350		 # 	collision with: 3 1 0 0  and 4 6 2 0 
68757368		 # 	collision with: 1 4 1 0  and 8 5 1 0 
68757370		 # 	collision with: 8 2 1 0  and 8 3 1 0 
68757392		 # 	collision with: 4 3 0 0  and 1 0 1 0 
68757394		 # 	collision with: 8 3 0 0  and 5 0 1 0 
68757396		 # 	collision with: 2 4 0 0  and 2 4 2 0 
68757398		 # 	collision with: 5 2 1 0  and 0 5 2 0 
68757436		 # 	collision with: 8 7 0 0  and 7 4 1 0 
68757438		 # 	collision with: 1 5 1 0  and 8 2 2 0 
68757447		 # 	collision with: 8 10 1 0  and 9 6 2 0 
68757461		 # 	collision with: 5 2 0 0  and 3 4 1 0 
68757463		 # 	collision with: 8 2 0 0  and 8 3 0 0 
68757468		 # 	collision with: 4 10 0 0  and 5 3 1 0 
68757470		 # 	collision with: 3 6 0 0  and 2 6 1 0 
68757496		 # 	collision with: 6 1 0 0  and 6 1 1 0 
68757498		 # 	collision with: 6 2 0 0  and 6 6 1 0 
68757509		 # 	collision with: 8 5 0 0  and 4 3 1 0 
68757511		 # 	collision with: 10 2 0 0  and 7 3 0 0 
68757513		 # 	collision with: 7 5 0 0  and 7 1 1 0 
68757515		 # 	collision with: 9 1 0 0  and 5 0 1 0 
68757524		 # 	collision with: 9 8 0 0  and 0 6 2 0 
68757526		 # 	collision with: 10 7 0 0  and 9 6 1 0 
68757568		 # 	collision with: 4 3 0 0  and 4 2 1 0 
68757570		 # 	collision with: 10 7 1 0  and 7 6 2 0 
68757583		 # 	collision with: 5 1 0 0  and 5 3 0 0 
68757585		 # 	collision with: 1 1 0 0  and 1 3 0 0 
68757587		 # 	collision with: 0 6 1 0  and 1 6 1 0 
68757596		 # 	collision with: 0 6 1 0  and 7 0 2 0 
68757598		 # 	collision with: 2 4 0 0  and 8 7 1 0 
68757612		 # 	collision with: 6 7 0 0  and 4 6 1 0 
68757614		 # 	collision with: 10 1 1 0  and 4 0 2 0 
68757624		 # 	collision with: 2 0 1 0  and 0 2 2 0 
68757626		 # 	collision with: 4 4 0 0  and 2 1 1 0 
68757633		 # 	collision with: 3 1 0 0  and 8 3 0 0 
68757635		 # 	collision with: 7 2 0 0  and 7 10 1 0 
68757649		 # 	collision with: 7 2 0 0  and 3 1 2 0 
68757651		 # 	collision with: 1 2 0 0  and 4 0 1 0 
68757656		 # 	collision with: 10 3 0 0  and 3 2 1 0 
68757658		 # 	collision with: 1 8 0 0  and 8 7 1 0 
68757698		 # 	collision with: 5 10 0 0  and 5 5 1 0 
68757700		 # 	collision with: 0 6 1 0  and 2 6 1 0 
68757702		 # 	collision with: 5 5 0 0  and 7 4 1 0 
68757724		 # 	collision with: 4 4 0 0  and 3 5 1 0 
68757726		 # 	collision with: 0 3 1 0  and 4 4 2 0 
68757744		 # 	collision with: 8 3 0 0  and 3 1 2 0 
68757746		 # 	collision with: 6 3 0 0  and 1 2 1 0 
68757749		 # 	collision with: 7 1 1 0  and 1 2 1 0 
68757752		 # 	collision with: 3 1 0 0  and 3 0 1 0 
68757754		 # 	collision with: 6 3 0 0  and 2 4 1 0 
68757788		 # 	collision with: 1 9 0 0  and 9 8 1 0 
68757790		 # 	collision with: 5 2 1 0  and 0 1 2 0 
68757824		 # 	collision with: 6 8 1 0  and 8 0 2 0 
68757826		 # 	collision with: 9 4 0 0  and 4 1 2 0 
68757829		 # 	collision with: 7 6 0 0  and 2 2 1 0 
68757831		 # 	collision with: 4 7 0 0  and 4 7 2 0 
68757832		 # 	collision with: 2 1 0 0  and 4 0 1 0 
68757834		 # 	collision with: 7 3 0 0  and 10 2 1 0 
68757852		 # 	collision with: 1 9 0 0  and 10 1 1 0 
68757854		 # 	collision with: 3 1 0 0  and 0 0 1 0 
68757880		 # 	collision with: 7 3 1 0  and 9 1 3 0 
68757882		 # 	collision with: 6 4 0 0  and 6 4 2 0 
68757920		 # 	collision with: 5 3 0 0  and 10 1 2 0 
68757922		 # 	collision with: 8 2 0 0  and 9 1 1 0 
68757929		 # 	collision with: 8 4 0 0  and 9 8 1 0 
68757931		 # 	collision with: 2 6 1 0  and 3 6 1 0 
68757945		 # 	collision with: 8 4 0 0  and 9 6 1 0 
68757947		 # 	collision with: 4 8 0 0  and 4 8 1 0 
68757952		 # 	collision with: 5 6 0 0  and 6 6 0 0 
68757954		 # 	collision with: 2 6 0 0  and 4 6 0 0 
68757964		 # 	collision with: 9 8 0 0  and 0 6 2 0 
68757966		 # 	collision with: 5 1 0 0  and 9 0 1 0 
68757980		 # 	collision with: 9 1 1 0  and 7 3 1 0 
68757982		 # 	collision with: 9 1 0 0  and 5 0 1 0 
68757995		 # 	collision with: 2 6 0 0  and 4 6 0 0 
68757997		 # 	collision with: 5 6 0 0  and 6 6 0 0 
68757999		 # 	collision with: 9 1 0 0  and 8 3 0 0 
68758008		 # 	collision with: 4 7 0 0  and 8 2 1 0 
68758010		 # 	collision with: 7 5 0 0  and 6 0 1 0 
68758052		 # 	collision with: 6 0 0 0  and 0 1 2 0 
68758054		 # 	collision with: 2 2 0 0  and 0 3 2 0 
68758065		 # 	collision with: 1 9 0 0  and 0 6 1 0 
68758067		 # 	collision with: 2 9 0 0  and 2 5 1 0 
68758069		 # 	collision with: 5 3 1 0  and 9 8 2 0 
68758071		 # 	collision with: 3 7 0 0  and 5 2 2 0 
68758080		 # 	collision with: 3 0 2 0  and 3 1 2 0 
68758082		 # 	collision with: 9 0 0 0  and 5 1 1 0 
68758096		 # 	collision with: 6 0 0 0  and 0 1 2 0 
68758098		 # 	collision with: 2 2 0 0  and 0 3 2 0 
68758108		 # 	collision with: 6 0 1 0  and 6 2 1 0 
68758110		 # 	collision with: 4 5 0 0  and 9 3 1 0 
68758117		 # 	collision with: 5 3 0 0  and 2 6 1 0 
68758133		 # 	collision with: 9 1 0 0  and 9 2 0 0 
68758135		 # 	collision with: 0 5 0 0  and 3 7 1 0 
68758140		 # 	collision with: 3 6 1 0  and 4 6 1 0 
68758142		 # 	collision with: 5 9 0 0  and 1 4 1 0 
68758180		 # 	collision with: 10 6 0 0  and 2 2 2 0 
68758182		 # 	collision with: 0 8 0 0  and 8 5 1 0 
68758184		 # 	collision with: 8 10 0 0  and 6 5 1 0 
68758186		 # 	collision with: 7 10 0 0  and 8 5 1 0 
68758208		 # 	collision with: 5 6 0 0  and 6 6 0 0 
68758210		 # 	collision with: 2 6 0 0  and 4 6 0 0 
68758228		 # 	collision with: 7 10 0 0  and 10 5 1 0 
68758230		 # 	collision with: 2 10 0 0  and 6 5 1 0 
68758233		 # 	collision with: 9 1 0 0  and 7 3 2 0 
68758235		 # 	collision with: 9 1 0 0  and 8 2 0 0 
68758238		 # 	collision with: 1 5 0 0  and 5 0 1 0 
68758308		 # 	collision with: 7 1 0 0  and 1 2 1 0 
68758310		 # 	collision with: 4 3 1 0  and 3 0 2 0 
68758313		 # 	collision with: 4 10 0 0  and 10 1 1 0 
68758315		 # 	collision with: 3 1 2 0  and 2 6 3 0 
68758316		 # 	collision with: 2 1 0 0  and 2 7 1 0 
68758318		 # 	collision with: 4 7 0 0  and 2 2 1 0 
68758336		 # 	collision with: 6 7 0 0  and 7 6 2 0 
68758338		 # 	collision with: 2 3 1 0  and 2 3 2 0 
68758360		 # 	collision with: 2 7 0 0  and 3 2 1 0 
68758362		 # 	collision with: 3 2 0 0  and 8 8 1 0 
68758364		 # 	collision with: 10 4 0 0  and 10 4 1 0 
68758366		 # 	collision with: 8 10 0 0  and 6 2 1 0 
68758404		 # 	collision with: 9 8 0 0  and 5 3 1 0 
68758406		 # 	collision with: 10 2 0 0  and 5 8 1 0 
68758413		 # 	collision with: 4 10 0 0  and 6 7 2 0 
68758415		 # 	collision with: 2 1 0 0  and 2 2 0 0 
68758429		 # 	collision with: 5 6 0 0  and 6 6 0 0 
68758431		 # 	collision with: 4 4 1 0  and 2 1 2 0 
68758436		 # 	collision with: 7 6 0 0  and 6 6 1 0 
68758438		 # 	collision with: 2 6 0 0  and 1 6 1 0 
68758448		 # 	collision with: 1 8 0 0  and 3 3 1 0 
68758450		 # 	collision with: 8 5 0 0  and 8 0 1 0 
68758464		 # 	collision with: 0 8 0 0  and 5 10 2 0 
68758466		 # 	collision with: 5 7 0 0  and 9 4 2 0 
68758477		 # 	collision with: 4 3 1 0  and 1 4 1 0 
68758479		 # 	collision with: 9 7 0 0  and 2 3 1 0 
68758481		 # 	collision with: 1 1 0 0  and 10 2 0 0 
68758483		 # 	collision with: 5 6 0 0  and 4 6 1 0 
68758492		 # 	collision with: 6 4 0 0  and 10 0 2 0 
68758494		 # 	collision with: 10 4 0 0  and 5 2 1 0 
68758536		 # 	collision with: 3 2 1 0  and 4 0 2 0 
68758538		 # 	collision with: 0 5 1 0  and 4 3 2 0 
68758549		 # 	collision with: 10 3 1 0  and 2 1 2 0 
68758551		 # 	collision with: 2 6 0 0  and 4 6 0 0 
68758553		 # 	collision with: 5 6 0 0  and 6 6 0 0 
68758555		 # 	collision with: 8 2 2 0  and 8 3 2 0 
68758564		 # 	collision with: 2 4 1 0  and 10 2 2 0 
68758566		 # 	collision with: 2 0 0 0  and 2 3 1 0 
68758580		 # 	collision with: 0 6 1 0  and 1 6 1 0 
68758582		 # 	collision with: 3 6 1 0  and 4 6 1 0 
68758592		 # 	collision with: 1 7 0 0  and 0 1 1 0 
68758594		 # 	collision with: 10 4 1 0  and 5 2 2 0 
68758601		 # 	collision with: 8 8 2 0  and 0 0 3 0 
68758603		 # 	collision with: 10 2 0 0  and 5 7 1 0 
68758617		 # 	collision with: 0 6 1 0  and 1 6 1 0 
68758619		 # 	collision with: 8 1 1 0  and 10 3 1 0 
68758624		 # 	collision with: 8 10 1 0  and 6 8 2 0 
68758626		 # 	collision with: 2 8 0 0  and 7 6 1 0 
68758664		 # 	collision with: 2 8 1 0  and 3 5 2 0 
68758666		 # 	collision with: 8 2 0 0  and 5 0 1 0 
68758692		 # 	collision with: 0 10 0 0  and 1 7 1 0 
68758694		 # 	collision with: 10 0 0 0  and 4 1 1 0 
68758712		 # 	collision with: 9 8 0 0  and 8 4 2 0 
68758714		 # 	collision with: 6 10 0 0  and 9 8 1 0 
68758717		 # 	collision with: 9 9 0 0  and 10 8 1 0 
68758719		 # 	collision with: 7 0 1 0  and 7 1 1 0 
68758720		 # 	collision with: 9 1 1 0  and 9 2 1 0 
68758722		 # 	collision with: 1 0 1 0  and 2 1 1 0 
68758756		 # 	collision with: 4 10 0 0  and 2 6 2 0 
68758758		 # 	collision with: 4 10 0 0  and 5 8 1 0 
68758792		 # 	collision with: 4 4 0 0  and 4 1 1 0 
68758794		 # 	collision with: 8 6 0 0  and 6 2 1 0 
68758797		 # 	collision with: 2 7 0 0  and 2 7 1 0 
68758799		 # 	collision with: 4 0 0 0  and 2 4 1 0 
68758800		 # 	collision with: 9 5 0 0  and 8 3 1 0 
68758802		 # 	collision with: 6 7 0 0  and 8 5 1 0 
68758822		 # 	collision with: 6 10 0 0  and 8 2 1 0 
68758844		 # 	collision with: 9 2 1 0  and 8 0 2 0 
68758846		 # 	collision with: 2 4 0 0  and 1 2 1 0 
68758848		 # 	collision with: 1 4 1 0  and 5 1 2 0 
68758850		 # 	collision with: 7 2 0 0  and 8 0 1 0 
68758888		 # 	collision with: 6 7 1 0  and 5 3 3 0 
68758890		 # 	collision with: 5 5 0 0  and 2 3 1 0 
68758897		 # 	collision with: 1 9 1 0  and 2 2 2 0 
68758913		 # 	collision with: 10 0 0 0  and 1 2 0 0 
68758915		 # 	collision with: 0 0 0 0  and 6 2 0 0 
68758920		 # 	collision with: 1 6 0 0  and 0 6 1 0 
68758922		 # 	collision with: 2 6 1 0  and 3 6 1 0 
68758932		 # 	collision with: 10 2 0 0  and 5 0 1 0 
68758934		 # 	collision with: 3 0 0 0  and 10 9 1 0 
68758948		 # 	collision with: 5 6 0 0  and 6 6 0 0 
68758950		 # 	collision with: 2 6 0 0  and 4 6 0 0 
68758961		 # 	collision with: 2 6 1 0  and 3 6 1 0 
68758963		 # 	collision with: 10 0 0 0  and 10 2 0 0 
68758965		 # 	collision with: 6 0 0 0  and 6 2 0 0 
68758967		 # 	collision with: 1 6 0 0  and 0 6 1 0 
68758976		 # 	collision with: 0 0 0 0  and 4 7 1 0 
68758978		 # 	collision with: 0 9 1 0  and 8 5 2 0 
68759020		 # 	collision with: 3 6 0 0  and 2 2 1 0 
68759022		 # 	collision with: 2 6 0 0  and 6 2 1 0 
68759033		 # 	collision with: 5 3 0 0  and 4 10 1 0 
68759035		 # 	collision with: 6 3 0 0  and 2 4 2 0 
68759037		 # 	collision with: 5 3 0 0  and 4 6 1 0 
68759048		 # 	collision with: 10 1 0 0  and 5 6 1 0 
68759050		 # 	collision with: 2 0 1 0  and 9 2 2 0 
68759076		 # 	collision with: 10 8 0 0  and 9 9 1 0 
68759078		 # 	collision with: 0 7 0 0  and 6 4 1 0 
68759085		 # 	collision with: 3 0 0 0  and 3 1 0 0 
68759087		 # 	collision with: 0 4 0 0  and 7 1 1 0 
68759101		 # 	collision with: 10 1 1 0  and 2 2 1 0 
68759103		 # 	collision with: 2 1 1 0  and 2 2 1 0 
68759108		 # 	collision with: 3 5 1 0  and 4 1 2 0 
68759110		 # 	collision with: 4 2 0 0  and 4 9 1 0 
68759148		 # 	collision with: 7 4 0 0  and 3 0 1 0 
68759150		 # 	collision with: 2 4 0 0  and 4 0 1 0 
68759152		 # 	collision with: 6 5 0 0  and 9 1 1 0 
68759154		 # 	collision with: 8 10 0 0  and 2 6 1 0 
68759176		 # 	collision with: 1 8 0 0  and 0 1 2 0 
68759178		 # 	collision with: 8 3 0 0  and 6 9 1 0 
68759196		 # 	collision with: 4 9 0 0  and 2 5 1 0 
68759198		 # 	collision with: 1 1 0 0  and 7 4 2 0 
68759201		 # 	collision with: 6 6 1 0  and 7 0 3 0 
68759203		 # 	collision with: 2 6 0 0  and 4 6 0 0 
68759204		 # 	collision with: 5 6 0 0  and 6 6 0 0 
68759206		 # 	collision with: 2 6 0 0  and 4 6 0 0 
68759240		 # 	collision with: 0 4 1 0  and 8 0 2 0 
68759242		 # 	collision with: 8 10 0 0  and 10 6 1 0 
68759276		 # 	collision with: 2 7 0 0  and 2 1 1 0 
68759278		 # 	collision with: 3 0 2 0  and 0 1 3 0 
68759281		 # 	collision with: 9 4 0 0  and 8 2 2 0 
68759283		 # 	collision with: 7 0 0 0  and 7 1 0 0 
68759284		 # 	collision with: 3 0 0 0  and 8 7 1 0 
68759286		 # 	collision with: 10 6 0 0  and 6 2 1 0 
68759304		 # 	collision with: 7 7 0 0  and 10 2 1 0 
68759306		 # 	collision with: 4 4 0 0  and 1 0 1 0 
68759328		 # 	collision with: 5 4 1 0  and 6 0 2 0 
68759330		 # 	collision with: 2 3 0 0  and 5 10 1 0 
68759332		 # 	collision with: 10 1 1 0  and 5 3 1 0 
68759334		 # 	collision with: 7 0 1 0  and 7 1 1 0 
68759372		 # 	collision with: 8 8 1 0  and 9 4 2 0 
68759374		 # 	collision with: 1 5 1 0  and 9 1 2 0 
68759381		 # 	collision with: 5 6 0 0  and 6 6 0 0 
68759383		 # 	collision with: 1 6 2 0  and 3 6 2 0 
68759397		 # 	collision with: 8 2 0 0  and 6 1 1 0 
68759399		 # 	collision with: 5 4 0 0  and 6 9 1 0 
68759406		 # 	collision with: 1 6 0 0  and 0 6 1 0 
68759416		 # 	collision with: 1 9 0 0  and 10 1 2 0 
68759418		 # 	collision with: 4 9 0 0  and 8 1 2 0 
68759432		 # 	collision with: 2 6 1 0  and 3 6 1 0 
68759434		 # 	collision with: 1 4 0 0  and 0 0 1 0 
68759445		 # 	collision with: 1 3 0 0  and 1 1 2 0 
68759447		 # 	collision with: 2 8 0 0  and 6 2 1 0 
68759449		 # 	collision with: 4 6 0 0  and 3 6 1 0 
68759451		 # 	collision with: 5 1 1 0  and 5 3 1 0 
68759481		 # 	collision with: 8 6 0 0  and 9 5 1 0 
68759483		 # 	collision with: 4 0 2 0  and 2 1 2 0 
68759485		 # 	collision with: 4 2 1 0  and 4 3 1 0 
68759487		 # 	collision with: 0 9 0 0  and 1 4 1 0 
68759597		 # 	collision with: 3 1 1 0  and 4 1 1 0 
68759629		 # 	collision with: 7 1 0 0  and 7 5 1 0 
68759631		 # 	collision with: 3 0 1 0  and 1 0 3 0 
68759637		 # 	collision with: 5 6 0 0  and 6 6 0 0 
68759639		 # 	collision with: 2 3 0 0  and 10 1 1 0 
68759661		 # 	collision with: 4 2 1 0  and 4 3 1 0 
68759663		 # 	collision with: 7 1 1 0  and 0 5 2 0 
68759687		 # 	collision with: 4 5 0 0  and 4 6 0 0 
68759767		 # 	collision with: 6 8 0 0  and 10 6 2 0 
68759769		 # 	collision with: 5 6 0 0  and 6 6 0 0 
68759771		 # 	collision with: 1 0 1 0  and 3 0 1 0 
68759789		 # 	collision with: 3 6 0 0  and 6 1 1 0 
68759791		 # 	collision with: 1 0 1 0  and 3 0 1 0 
68759821		 # 	collision with: 2 1 0 0  and 7 6 1 0 
68759823		 # 	collision with: 2 8 0 0  and 4 8 0 0 
68759853		 # 	collision with: 2 7 0 0  and 7 6 1 0 
68759944		 # 	collision with: 6 2 0 0  and 3 5 1 0 
68759946		 # 	collision with: 7 2 0 0  and 3 5 1 0 
68759965		 # 	collision with: 5 9 0 0  and 9 2 1 0 
68759967		 # 	collision with: 1 4 0 0  and 1 6 0 0 
68759969		 # 	collision with: 8 4 0 0  and 3 6 0 0 
68759971		 # 	collision with: 2 8 0 0  and 4 8 0 0 
68760081		 # 	collision with: 8 5 0 0  and 4 9 1 0 
68760083		 # 	collision with: 9 4 1 0  and 9 5 1 0 
68760113		 # 	collision with: 5 6 0 0  and 6 6 0 0 
68760115		 # 	collision with: 0 3 1 0  and 2 3 1 0 
68760121		 # 	collision with: 3 4 1 0  and 10 6 1 0 
68760123		 # 	collision with: 5 5 0 0  and 5 10 1 0 
68760145		 # 	collision with: 8 4 0 0  and 3 6 0 0 
68760147		 # 	collision with: 2 8 0 0  and 4 8 0 0 
68760169		 # 	collision with: 6 9 0 0  and 10 4 2 0 
68760171		 # 	collision with: 9 4 1 0  and 9 5 1 0 
68760249		 # 	collision with: 2 8 2 0  and 4 8 2 0 
68760251		 # 	collision with: 2 7 0 0  and 3 2 1 0 
68760253		 # 	collision with: 3 1 2 0  and 4 1 2 0 
68760255		 # 	collision with: 10 5 0 0  and 1 10 1 0 
68760273		 # 	collision with: 8 5 0 0  and 10 0 1 0 
68760275		 # 	collision with: 1 4 0 0  and 1 6 0 0 
68760305		 # 	collision with: 8 4 0 0  and 8 6 0 0 
68760307		 # 	collision with: 8 5 0 0  and 8 0 1 0 
68760337		 # 	collision with: 9 7 0 0  and 5 2 1 0 
68760339		 # 	collision with: 4 5 1 0  and 4 6 1 0 
68760428		 # 	collision with: 0 6 0 0  and 1 2 1 0 
68760430		 # 	collision with: 1 3 0 0  and 7 10 1 0 
68760449		 # 	collision with: 1 10 1 0  and 8 2 2 0 
68760451		 # 	collision with: 5 1 1 0  and 5 3 1 0 
68760453		 # 	collision with: 9 4 0 0  and 2 5 0 0 
68760455		 # 	collision with: 10 4 0 0  and 6 4 2 0 
68760565		 # 	collision with: 7 7 0 0  and 2 0 1 0 
68760567		 # 	collision with: 7 1 0 0  and 3 4 1 0 
68760597		 # 	collision with: 6 0 0 0  and 3 5 1 0 
68760599		 # 	collision with: 10 5 0 0  and 3 7 1 0 
68760605		 # 	collision with: 9 7 0 0  and 2 9 1 0 
68760607		 # 	collision with: 6 10 0 0  and 5 4 1 0 
68760629		 # 	collision with: 9 4 0 0  and 2 5 0 0 
68760631		 # 	collision with: 3 5 1 0  and 5 5 1 0 
68760653		 # 	collision with: 10 3 2 0  and 6 4 2 0 
68760655		 # 	collision with: 3 3 2 0  and 3 4 2 0 
68760733		 # 	collision with: 5 4 0 0  and 5 5 0 0 
68760735		 # 	collision with: 2 8 0 0  and 4 8 0 0 
68760737		 # 	collision with: 9 10 0 0  and 9 4 1 0 
68760739		 # 	collision with: 2 0 0 0  and 8 1 1 0 
68760757		 # 	collision with: 1 5 0 0  and 7 5 1 0 
68760759		 # 	collision with: 5 1 1 0  and 5 3 1 0 
68760789		 # 	collision with: 10 5 0 0  and 1 1 1 0 
68760791		 # 	collision with: 1 4 1 0  and 9 0 2 0 
68760821		 # 	collision with: 5 4 0 0  and 5 5 0 0 
68760823		 # 	collision with: 2 8 0 0  and 4 8 0 0 
68760912		 # 	collision with: 9 7 1 0  and 0 0 2 0 
68760914		 # 	collision with: 1 10 0 0  and 3 0 1 0 
68760933		 # 	collision with: 5 6 0 0  and 6 6 0 0 
68760935		 # 	collision with: 1 3 0 0  and 5 5 0 0 
68760937		 # 	collision with: 2 4 0 0  and 3 4 2 0 
68761049		 # 	collision with: 5 3 0 0  and 1 4 1 0 
68761051		 # 	collision with: 1 3 0 0  and 5 5 0 0 
68761081		 # 	collision with: 2 3 0 0  and 2 5 0 0 
68761083		 # 	collision with: 1 3 0 0  and 5 5 0 0 
68761089		 # 	collision with: 5 3 0 0  and 1 0 2 0 
68761115		 # 	collision with: 1 3 0 0  and 5 5 0 0 
68761137		 # 	collision with: 0 6 1 0  and 9 1 2 0 
68761139		 # 	collision with: 1 3 0 0  and 5 5 0 0 
68761217		 # 	collision with: 2 6 0 0  and 7 5 1 0 
68761219		 # 	collision with: 1 3 0 0  and 5 5 0 0 
68761223		 # 	collision with: 1 3 0 0  and 5 5 0 0 
68761241		 # 	collision with: 5 6 0 0  and 6 6 0 0 
68761243		 # 	collision with: 1 3 0 0  and 5 5 0 0 
68761273		 # 	collision with: 1 10 1 0  and 0 1 2 0 
68761275		 # 	collision with: 1 3 0 0  and 5 5 0 0 
68761305		 # 	collision with: 3 5 2 0  and 5 5 2 0 
68761307		 # 	collision with: 1 3 0 0  and 5 5 0 0 
68761396		 # 	collision with: 8 4 0 0  and 0 2 1 0 
68761398		 # 	collision with: 2 8 0 0  and 9 6 1 0 
68761417		 # 	collision with: 1 9 0 0  and 8 1 1 0 
68761419		 # 	collision with: 1 8 0 0  and 2 0 1 0 
68761421		 # 	collision with: 1 0 1 0  and 3 0 3 0 
68761423		 # 	collision with: 9 9 0 0  and 6 0 2 0 
68761533		 # 	collision with: 2 8 0 0  and 2 0 1 0 
68761535		 # 	collision with: 3 2 0 0  and 7 2 2 0 
68761573		 # 	collision with: 4 10 0 0  and 7 0 1 0 
68761575		 # 	collision with: 2 10 0 0  and 8 0 1 0 
68761597		 # 	collision with: 6 8 1 0  and 0 3 2 0 
68761599		 # 	collision with: 10 10 0 0  and 7 1 1 0 
68761621		 # 	collision with: 3 0 0 0  and 4 4 1 0 
68761623		 # 	collision with: 10 7 0 0  and 4 4 1 0 
68761701		 # 	collision with: 1 9 0 0  and 1 6 1 0 
68761705		 # 	collision with: 10 3 1 0  and 10 4 1 0 
68761707		 # 	collision with: 3 3 1 0  and 3 4 1 0 
68761725		 # 	collision with: 4 1 0 0  and 4 4 1 0 
68761727		 # 	collision with: 5 0 1 0  and 10 2 1 0 
68761757		 # 	collision with: 2 0 0 0  and 6 9 1 0 
68761759		 # 	collision with: 4 0 0 0  and 10 9 1 0 
68761791		 # 	collision with: 3 3 0 0  and 3 4 0 0 
68761880		 # 	collision with: 9 9 0 0  and 1 3 1 0 
68761882		 # 	collision with: 5 1 0 0  and 6 4 2 0 
68761903		 # 	collision with: 4 2 0 0  and 5 9 1 0 
68761905		 # 	collision with: 7 2 0 0  and 7 4 0 0 
68761907		 # 	collision with: 9 2 0 0  and 8 4 0 0 
68762017		 # 	collision with: 5 6 0 0  and 6 6 0 0 
68762019		 # 	collision with: 8 2 1 0  and 5 3 1 0 
68762049		 # 	collision with: 6 6 1 0  and 1 0 2 0 
68762051		 # 	collision with: 6 3 1 0  and 6 5 1 0 
68762057		 # 	collision with: 0 3 1 0  and 2 3 1 0 
68762059		 # 	collision with: 2 8 0 0  and 4 8 0 0 
68762081		 # 	collision with: 7 2 0 0  and 7 4 0 0 
68762083		 # 	collision with: 9 2 0 0  and 8 4 0 0 
68762105		 # 	collision with: 5 6 0 0  and 6 6 0 0 
68762107		 # 	collision with: 1 4 0 0  and 1 6 1 0 
68762185		 # 	collision with: 9 5 0 0  and 0 2 2 0 
68762187		 # 	collision with: 9 7 0 0  and 2 3 1 0 
68762189		 # 	collision with: 0 6 0 0  and 1 2 1 0 
68762191		 # 	collision with: 2 8 0 0  and 4 8 0 0 
68762209		 # 	collision with: 10 4 0 0  and 3 9 1 0 
68762241		 # 	collision with: 10 7 1 0  and 10 0 2 0 
68762243		 # 	collision with: 2 1 1 0  and 8 3 1 0 
68762273		 # 	collision with: 5 10 0 0  and 2 0 2 0 
68762275		 # 	collision with: 3 2 0 0  and 1 3 2 0 
68762364		 # 	collision with: 3 3 0 0  and 2 0 2 0 
68762366		 # 	collision with: 4 5 0 0  and 5 0 1 0 
68762385		 # 	collision with: 9 8 0 0  and 1 5 2 0 
68762387		 # 	collision with: 9 6 0 0  and 4 3 1 0 
68762391		 # 	collision with: 9 4 0 0  and 3 0 2 0 
68762501		 # 	collision with: 6 8 0 0  and 2 5 1 0 
68762503		 # 	collision with: 1 2 0 0  and 8 1 1 0 
68762533		 # 	collision with: 5 3 1 0  and 3 0 2 0 
68762535		 # 	collision with: 5 1 0 0  and 8 3 1 0 
68762541		 # 	collision with: 4 6 1 0  and 2 1 2 0 
68762543		 # 	collision with: 7 2 1 0  and 1 3 1 0 
68762565		 # 	collision with: 9 10 0 0  and 7 4 1 0 
68762589		 # 	collision with: 3 1 1 0  and 5 3 1 0 
68762591		 # 	collision with: 0 3 0 0  and 2 3 1 0 
68762669		 # 	collision with: 5 6 0 0  and 6 6 0 0 
68762671		 # 	collision with: 1 0 1 0  and 10 5 2 0 
68762673		 # 	collision with: 4 9 1 0  and 5 9 1 0 
68762675		 # 	collision with: 3 9 0 0  and 4 6 1 0 
68762693		 # 	collision with: 7 6 0 0  and 1 8 1 0 
68762695		 # 	collision with: 5 1 1 0  and 8 3 2 0 
68762725		 # 	collision with: 1 10 0 0  and 7 1 1 0 
68762727		 # 	collision with: 2 1 1 0  and 2 2 1 0 
68762757		 # 	collision with: 5 6 0 0  and 6 6 0 0 
68762759		 # 	collision with: 4 2 1 0  and 6 2 1 0 
68762848		 # 	collision with: 4 5 0 0  and 5 7 1 0 
68762850		 # 	collision with: 3 1 0 0  and 6 3 1 0 
68762869		 # 	collision with: 4 1 0 0  and 3 0 1 0 
68762871		 # 	collision with: 7 1 0 0  and 10 3 0 0 
68762873		 # 	collision with: 1 6 0 0  and 7 3 1 0 
68762875		 # 	collision with: 4 5 0 0  and 10 2 1 0 
68762987		 # 	collision with: 10 1 0 0  and 2 0 1 0 
68763017		 # 	collision with: 1 4 0 0  and 1 4 1 0 
68763019		 # 	collision with: 0 4 0 0  and 5 4 1 0 
68763025		 # 	collision with: 1 1 0 0  and 1 3 0 0 
68763027		 # 	collision with: 5 1 0 0  and 5 3 0 0 
68763049		 # 	collision with: 0 10 0 0  and 8 2 1 0 
68763051		 # 	collision with: 7 9 0 0  and 8 6 1 0 
68763073		 # 	collision with: 8 10 2 0  and 4 10 3 0 
68763153		 # 	collision with: 3 2 1 0  and 0 3 1 0 
68763155		 # 	collision with: 7 1 0 0  and 0 5 1 0 
68763157		 # 	collision with: 1 1 0 0  and 1 3 0 0 
68763159		 # 	collision with: 5 1 0 0  and 5 3 0 0 
68763177		 # 	collision with: 4 4 1 0  and 5 6 1 0 
68763179		 # 	collision with: 7 1 0 0  and 10 3 0 0 
68763241		 # 	collision with: 2 7 0 0  and 1 8 1 0 
68763243		 # 	collision with: 3 3 0 0  and 8 0 1 0 
68763332		 # 	collision with: 0 0 0 0  and 2 10 1 0 
68763334		 # 	collision with: 4 6 1 0  and 10 2 2 0 
68763353		 # 	collision with: 9 1 0 0  and 9 2 0 0 
68763357		 # 	collision with: 5 6 0 0  and 6 6 0 0 
68763359		 # 	collision with: 2 1 0 0  and 2 2 0 0 
68763469		 # 	collision with: 3 3 0 0  and 10 3 1 0 
68763471		 # 	collision with: 2 8 0 0  and 4 8 0 0 
68763501		 # 	collision with: 1 1 0 0  and 10 2 0 0 
68763503		 # 	collision with: 8 4 0 0  and 8 4 1 0 
68763511		 # 	collision with: 8 7 0 0  and 1 1 1 0 
68763533		 # 	collision with: 5 6 0 0  and 6 6 0 0 
68763535		 # 	collision with: 2 1 0 0  and 2 2 0 0 
68763557		 # 	collision with: 2 6 0 0  and 7 1 2 0 
68763559		 # 	collision with: 2 8 0 0  and 4 8 0 0 
68763637		 # 	collision with: 1 2 0 0  and 0 6 1 0 
68763639		 # 	collision with: 0 4 0 0  and 10 2 1 0 
68763641		 # 	collision with: 10 8 0 0  and 0 0 2 0 
68763663		 # 	collision with: 0 3 0 0  and 8 1 1 0 
68763693		 # 	collision with: 3 0 1 0  and 3 1 1 0 
68763695		 # 	collision with: 8 1 0 0  and 9 2 0 0 
68763725		 # 	collision with: 1 2 0 0  and 0 6 1 0 
68763727		 # 	collision with: 1 1 1 0  and 9 3 1 0 
68763816		 # 	collision with: 2 0 0 0  and 6 4 1 0 
68763818		 # 	collision with: 8 3 0 0  and 2 1 2 0 
68763837		 # 	collision with: 3 8 0 0  and 6 3 1 0 
68763839		 # 	collision with: 2 8 0 0  and 4 8 0 0 
68763841		 # 	collision with: 8 2 1 0  and 2 2 2 0 
68763843		 # 	collision with: 1 4 0 0  and 6 0 1 0 
68763953		 # 	collision with: 5 3 0 0  and 8 3 1 0 
68763955		 # 	collision with: 4 9 2 0  and 5 9 2 0 
68763985		 # 	collision with: 6 9 0 0  and 10 4 1 0 
68763987		 # 	collision with: 10 0 0 0  and 10 2 0 0 
68763993		 # 	collision with: 3 2 0 0  and 3 10 1 0 
68763995		 # 	collision with: 8 0 0 0  and 2 10 1 0 
68764017		 # 	collision with: 0 3 1 0  and 2 3 1 0 
68764019		 # 	collision with: 3 9 0 0  and 5 0 1 0 
68764041		 # 	collision with: 5 0 0 0  and 9 2 2 0 
68764043		 # 	collision with: 2 1 2 0  and 0 0 3 0 
68764121		 # 	collision with: 1 7 1 0  and 2 7 1 0 
68764123		 # 	collision with: 1 4 0 0  and 9 0 1 0 
68764125		 # 	collision with: 5 1 0 0  and 2 7 1 0 
68764127		 # 	collision with: 10 1 1 0  and 2 0 2 0 
68764145		 # 	collision with: 6 4 0 0  and 2 0 1 0 
68764147		 # 	collision with: 2 8 0 0  and 4 8 0 0 
68764177		 # 	collision with: 7 0 0 0  and 7 6 1 0 
68764179		 # 	collision with: 4 2 0 0  and 5 6 1 0 
68764209		 # 	collision with: 6 9 0 0  and 3 3 1 0 
68764211		 # 	collision with: 5 1 2 0  and 5 3 2 0 
68764300		 # 	collision with: 2 3 1 0  and 3 2 2 0 
68764302		 # 	collision with: 3 4 0 0  and 7 1 1 0 
68764321		 # 	collision with: 2 3 1 0  and 9 4 1 0 
68764323		 # 	collision with: 8 3 0 0  and 5 1 2 0 
68764325		 # 	collision with: 6 6 0 0  and 5 6 1 0 
68764327		 # 	collision with: 9 2 1 0  and 8 4 1 0 
68764437		 # 	collision with: 3 0 0 0  and 3 1 0 0 
68764439		 # 	collision with: 4 0 0 0  and 2 1 0 0 
68764469		 # 	collision with: 9 1 1 0  and 9 2 1 0 
68764471		 # 	collision with: 2 8 0 0  and 4 8 0 0 
68764477		 # 	collision with: 5 6 0 0  and 3 1 1 0 
68764479		 # 	collision with: 3 5 1 0  and 5 5 1 0 
68764501		 # 	collision with: 6 6 0 0  and 3 0 1 0 
68764503		 # 	collision with: 9 7 3 0  and 2 0 4 0 
68764525		 # 	collision with: 3 0 0 0  and 3 1 0 0 
68764527		 # 	collision with: 4 0 0 0  and 2 1 0 0 
68764605		 # 	collision with: 6 0 1 0  and 6 2 1 0 
68764607		 # 	collision with: 4 0 0 0  and 8 3 1 0 
68764609		 # 	collision with: 9 3 0 0  and 3 7 1 0 
68764611		 # 	collision with: 2 2 0 0  and 8 3 2 0 
68764629		 # 	collision with: 4 3 1 0  and 5 4 1 0 
68764631		 # 	collision with: 6 2 1 0  and 6 6 2 0 
68764661		 # 	collision with: 5 6 0 0  and 6 6 0 0 
68764663		 # 	collision with: 7 0 0 0  and 7 1 0 0 
68764693		 # 	collision with: 1 0 1 0  and 3 0 1 0 
68764695		 # 	collision with: 3 8 0 0  and 1 5 1 0 
68764836		 # 	collision with: 7 2 0 0  and 7 4 0 0 
68764838		 # 	collision with: 8 2 0 0  and 8 3 0 0 
68764848		 # 	collision with: 2 3 0 0  and 2 5 0 0 
68764850		 # 	collision with: 7 0 0 0  and 7 1 0 0 
68764861		 # 	collision with: 0 9 0 0  and 5 7 1 0 
68764863		 # 	collision with: 10 3 0 0  and 2 0 1 0 
68764869		 # 	collision with: 0 0 0 0  and 2 0 2 0 
68764871		 # 	collision with: 2 8 0 0  and 5 0 1 0 
68764873		 # 	collision with: 5 6 0 0  and 6 6 0 0 
68764875		 # 	collision with: 10 2 0 0  and 10 2 2 0 
68764885		 # 	collision with: 10 3 1 0  and 2 5 1 0 
68764887		 # 	collision with: 8 5 0 0  and 9 6 0 0 
68764888		 # 	collision with: 4 2 0 0  and 4 3 0 0 
68764890		 # 	collision with: 3 3 0 0  and 3 4 0 0 
68764912		 # 	collision with: 10 3 0 0  and 10 4 0 0 
68764914		 # 	collision with: 2 1 0 0  and 2 2 0 0 
68764932		 # 	collision with: 4 2 0 0  and 4 3 0 0 
68764934		 # 	collision with: 3 3 0 0  and 3 4 0 0 
68764940		 # 	collision with: 5 4 0 0  and 5 5 0 0 
68764942		 # 	collision with: 1 4 0 0  and 1 6 0 0 
68764992		 # 	collision with: 3 0 0 0  and 3 1 0 0 
68764994		 # 	collision with: 5 1 0 0  and 5 3 0 0 
68764996		 # 	collision with: 6 2 0 0  and 5 4 0 0 
68764998		 # 	collision with: 6 3 0 0  and 6 5 0 0 
68765011		 # 	collision with: 4 5 0 0  and 4 6 0 0 
68765016		 # 	collision with: 1 3 0 0  and 10 5 0 0 
68765018		 # 	collision with: 9 0 0 0  and 8 1 0 0 
68765044		 # 	collision with: 10 3 0 0  and 10 4 0 0 
68765046		 # 	collision with: 2 1 0 0  and 2 2 0 0 
68765052		 # 	collision with: 9 1 0 0  and 9 2 0 0 
68765054		 # 	collision with: 1 1 0 0  and 5 2 0 0 
68765080		 # 	collision with: 3 0 0 0  and 3 1 0 0 
68765082		 # 	collision with: 5 1 0 0  and 5 3 0 0 
68765091		 # 	collision with: 9 0 0 0  and 0 2 1 0 
68765100		 # 	collision with: 7 2 0 0  and 7 4 0 0 
68765102		 # 	collision with: 8 2 0 0  and 8 3 0 0 
68765104		 # 	collision with: 1 3 0 0  and 10 5 0 0 
68765106		 # 	collision with: 9 0 0 0  and 8 1 0 0 
68765156		 # 	collision with: 2 3 0 0  and 2 5 0 0 
68765158		 # 	collision with: 7 0 0 0  and 7 1 0 0 
68765164		 # 	collision with: 1 1 0 0  and 1 3 0 0 
68765166		 # 	collision with: 9 4 0 0  and 9 5 0 0 
68765181		 # 	collision with: 5 6 0 0  and 6 6 0 0 
68765183		 # 	collision with: 1 2 0 0  and 1 2 2 0 
68765184		 # 	collision with: 9 1 0 0  and 9 2 0 0 
68765186		 # 	collision with: 1 1 0 0  and 5 2 0 0 
68765208		 # 	collision with: 1 1 0 0  and 1 3 0 0 
68765210		 # 	collision with: 9 4 0 0  and 9 5 0 0 
68765213		 # 	collision with: 0 9 0 0  and 2 7 1 0 
68765215		 # 	collision with: 6 3 0 0  and 6 3 1 0 
68765229		 # 	collision with: 0 3 0 0  and 6 0 1 0 
68765231		 # 	collision with: 4 5 0 0  and 4 6 0 0 
68765237		 # 	collision with: 0 3 0 0  and 6 0 1 0 
68765239		 # 	collision with: 8 5 0 0  and 9 6 0 0 
68765248		 # 	collision with: 5 4 0 0  and 5 5 0 0 
68765250		 # 	collision with: 1 4 0 0  and 1 6 0 0 
68765260		 # 	collision with: 6 2 0 0  and 5 4 0 0 
68765262		 # 	collision with: 6 3 0 0  and 6 5 0 0 
68765268		 # 	collision with: 8 5 0 0  and 2 7 1 0 
68765270		 # 	collision with: 7 0 0 0  and 3 2 1 0 
68765320		 # 	collision with: 0 0 0 0  and 1 8 1 0 
68765332		 # 	collision with: 7 7 0 0  and 0 7 1 0 
68765334		 # 	collision with: 1 9 0 0  and 4 0 1 0 
68765345		 # 	collision with: 2 10 1 0  and 4 10 1 0 
68765347		 # 	collision with: 10 0 1 0  and 10 2 1 0 
68765353		 # 	collision with: 3 0 2 0  and 3 1 2 0 
68765355		 # 	collision with: 0 3 1 0  and 1 3 1 0 
68765357		 # 	collision with: 0 6 0 0  and 4 0 1 0 
68765359		 # 	collision with: 4 9 0 0  and 4 9 2 0 
68765369		 # 	collision with: 0 6 0 0  and 4 0 1 0 
68765372		 # 	collision with: 8 9 0 0  and 1 1 2 0 
68765374		 # 	collision with: 2 1 0 0  and 1 5 2 0 
68765396		 # 	collision with: 1 1 1 0  and 0 3 1 0 
68765398		 # 	collision with: 8 9 0 0  and 7 4 1 0 
68765416		 # 	collision with: 7 5 1 0  and 7 5 2 0 
68765424		 # 	collision with: 7 1 0 0  and 0 2 1 0 
68765426		 # 	collision with: 2 2 3 0  and 3 2 3 0 
68765476		 # 	collision with: 2 6 0 0  and 5 1 2 0 
68765478		 # 	collision with: 8 3 0 0  and 8 3 1 0 
68765482		 # 	collision with: 9 8 0 0  and 0 1 1 0 
68765493		 # 	collision with: 5 7 0 0  and 7 1 1 0 
68765495		 # 	collision with: 2 8 0 0  and 4 2 1 0 
68765500		 # 	collision with: 5 4 0 0  and 9 7 1 0 
68765502		 # 	collision with: 9 2 2 0  and 2 3 3 0 
68765528		 # 	collision with: 8 9 0 0  and 7 0 1 0 
68765530		 # 	collision with: 10 2 1 0  and 4 4 1 0 
68765536		 # 	collision with: 3 5 1 0  and 1 10 2 0 
68765538		 # 	collision with: 2 10 0 0  and 4 10 0 0 
68765564		 # 	collision with: 3 9 0 0  and 4 0 1 0 
68765566		 # 	collision with: 9 3 0 0  and 9 3 1 0 
68765573		 # 	collision with: 0 0 0 0  and 2 0 2 0 
68765575		 # 	collision with: 10 7 0 0  and 2 5 1 0 
68765584		 # 	collision with: 9 10 0 0  and 10 4 1 0 
68765586		 # 	collision with: 7 10 0 0  and 9 2 2 0 
68765590		 # 	collision with: 5 6 0 0  and 6 2 1 0 
68765640		 # 	collision with: 7 7 0 0  and 0 7 1 0 
68765642		 # 	collision with: 5 9 0 0  and 3 0 1 0 
68765648		 # 	collision with: 1 5 1 0  and 3 5 1 0 
68765650		 # 	collision with: 6 1 0 0  and 8 10 1 0 
68765665		 # 	collision with: 0 2 0 0  and 7 5 1 0 
68765667		 # 	collision with: 3 8 0 0  and 9 5 1 0 
68765668		 # 	collision with: 1 1 1 0  and 7 0 2 0 
68765670		 # 	collision with: 2 10 0 0  and 4 10 0 0 
68765692		 # 	collision with: 1 3 1 0  and 7 0 2 0 
68765694		 # 	collision with: 8 3 1 0  and 1 0 2 0 
68765697		 # 	collision with: 10 5 0 0  and 1 1 1 0 
68765699		 # 	collision with: 10 0 1 0  and 10 2 1 0 
68765713		 # 	collision with: 10 2 1 0  and 5 4 2 0 
68765715		 # 	collision with: 6 0 0 0  and 1 5 1 0 
68765721		 # 	collision with: 2 2 1 0  and 3 2 1 0 
68765723		 # 	collision with: 6 6 0 0  and 10 0 1 0 
68765732		 # 	collision with: 10 5 0 0  and 1 1 1 0 
68765734		 # 	collision with: 1 10 0 0  and 10 8 1 0 
68765744		 # 	collision with: 5 6 0 0  and 6 6 0 0 
68765746		 # 	collision with: 9 8 0 0  and 0 1 1 0 
68765752		 # 	collision with: 5 3 0 0  and 7 3 2 0 
68765754		 # 	collision with: 9 0 0 0  and 1 1 1 0 
68765804		 # 	collision with: 9 9 0 0  and 9 5 1 0 
68765806		 # 	collision with: 2 10 0 0  and 4 10 0 0 
68765816		 # 	collision with: 0 0 0 0  and 2 0 2 0 
68765818		 # 	collision with: 10 4 0 0  and 6 3 1 0 
68765829		 # 	collision with: 2 8 1 0  and 1 8 2 0 
68765831		 # 	collision with: 2 10 0 0  and 4 10 0 0 
68765839		 # 	collision with: 5 8 0 0  and 4 6 2 0 
68765841		 # 	collision with: 9 4 0 0  and 2 5 0 0 
68765843		 # 	collision with: 9 4 1 0  and 9 5 1 0 
68765853		 # 	collision with: 1 0 1 0  and 9 1 2 0 
68765855		 # 	collision with: 4 2 1 0  and 3 4 1 0 
68765856		 # 	collision with: 10 6 0 0  and 10 6 1 0 
68765880		 # 	collision with: 3 0 2 0  and 3 1 2 0 
68765882		 # 	collision with: 1 2 0 0  and 9 6 1 0 
68765900		 # 	collision with: 0 2 0 0  and 2 1 1 0 
68765902		 # 	collision with: 4 3 0 0  and 5 5 1 0 
68765910		 # 	collision with: 2 5 0 0  and 8 7 1 0 
68765960		 # 	collision with: 10 4 2 0  and 5 0 3 0 
68765962		 # 	collision with: 4 9 0 0  and 1 2 1 0 
68765964		 # 	collision with: 3 0 1 0  and 3 1 1 0 
68765966		 # 	collision with: 6 0 1 0  and 2 1 1 0 
68765977		 # 	collision with: 6 2 0 0  and 6 2 1 0 
68765979		 # 	collision with: 0 0 0 0  and 2 0 2 0 
68765984		 # 	collision with: 3 5 0 0  and 6 9 1 0 
68765986		 # 	collision with: 1 9 0 0  and 8 4 1 0 
68766012		 # 	collision with: 6 4 0 0  and 1 10 1 0 
68766014		 # 	collision with: 9 2 1 0  and 0 0 2 0 
68766020		 # 	collision with: 4 10 0 0  and 7 0 1 0 
68766022		 # 	collision with: 10 1 0 0  and 7 5 1 0 
68766048		 # 	collision with: 5 8 0 0  and 4 4 1 0 
68766057		 # 	collision with: 0 10 0 0  and 6 3 1 0 
68766059		 # 	collision with: 1 10 0 0  and 4 3 1 0 
68766068		 # 	collision with: 4 1 1 0  and 5 1 1 0 
68766070		 # 	collision with: 2 10 0 0  and 4 10 0 0 
68766072		 # 	collision with: 3 0 0 0  and 10 7 1 0 
68766074		 # 	collision with: 0 9 0 0  and 9 4 1 0 
68766124		 # 	collision with: 9 9 0 0  and 10 6 1 0 
68766126		 # 	collision with: 4 9 1 0  and 6 9 1 0 
68766134		 # 	collision with: 5 10 1 0  and 1 0 2 0 
68766149		 # 	collision with: 9 4 0 0  and 2 5 0 0 
68766152		 # 	collision with: 3 4 3 0  and 5 4 3 0 
68766154		 # 	collision with: 3 3 1 0  and 6 9 3 0 
68766176		 # 	collision with: 5 6 0 0  and 6 6 0 0 
68766178		 # 	collision with: 1 1 0 0  and 1 9 1 0 
68766181		 # 	collision with: 10 9 0 0  and 5 2 1 0 
68766183		 # 	collision with: 2 10 0 0  and 4 10 0 0 
68766197		 # 	collision with: 3 2 0 0  and 3 2 1 0 
68766207		 # 	collision with: 10 1 0 0  and 6 9 1 0 
68766216		 # 	collision with: 2 6 0 0  and 3 10 1 0 
68766218		 # 	collision with: 2 6 0 0  and 3 4 2 0 
68766228		 # 	collision with: 3 0 1 0  and 3 1 1 0 
68766230		 # 	collision with: 0 10 0 0  and 10 1 1 0 
68766236		 # 	collision with: 8 9 0 0  and 4 6 1 0 
68766238		 # 	collision with: 0 6 0 0  and 10 3 1 0 
68766288		 # 	collision with: 0 3 2 0  and 1 3 2 0 
68766290		 # 	collision with: 4 3 1 0  and 8 2 3 0 
68766302		 # 	collision with: 8 10 1 0  and 8 6 2 0 
68766313		 # 	collision with: 9 3 0 0  and 7 8 2 0 
68766315		 # 	collision with: 1 2 0 0  and 6 10 1 0 
68766321		 # 	collision with: 8 8 0 0  and 6 5 1 0 
68766323		 # 	collision with: 0 9 0 0  and 10 9 1 0 
68766325		 # 	collision with: 9 3 2 0  and 4 5 2 0 
68766327		 # 	collision with: 4 9 0 0  and 1 8 1 0 
68766339		 # 	collision with: 9 9 0 0  and 9 0 1 0 
68766340		 # 	collision with: 10 2 2 0  and 3 4 2 0 
68766342		 # 	collision with: 8 4 0 0  and 5 2 1 0 
68766364		 # 	collision with: 1 3 0 0  and 6 0 1 0 
68766366		 # 	collision with: 1 10 0 0  and 10 8 2 0 
68766384		 # 	collision with: 10 3 0 0  and 8 0 1 0 
68766386		 # 	collision with: 10 6 0 0  and 10 6 1 0 
68766392		 # 	collision with: 7 3 0 0  and 2 0 1 0 
68766444		 # 	collision with: 10 3 0 0  and 9 4 1 0 
68766446		 # 	collision with: 0 3 0 0  and 3 1 1 0 
68766448		 # 	collision with: 10 1 0 0  and 9 5 1 0 
68766450		 # 	collision with: 4 10 0 0  and 2 10 1 0 
68766461		 # 	collision with: 0 0 0 0  and 2 0 2 0 
68766463		 # 	collision with: 8 2 0 0  and 8 2 1 0 
68766468		 # 	collision with: 1 0 1 0  and 0 1 2 0 
68766470		 # 	collision with: 2 10 0 0  and 4 10 0 0 
68766496		 # 	collision with: 2 2 2 0  and 3 2 2 0 
68766498		 # 	collision with: 1 8 1 0  and 2 8 1 0 
68766504		 # 	collision with: 5 2 0 0  and 5 2 1 0 
68766506		 # 	collision with: 3 3 1 0  and 1 2 2 0 
68766532		 # 	collision with: 6 0 1 0  and 8 1 1 0 
68766534		 # 	collision with: 10 0 1 0  and 10 2 1 0 
68766541		 # 	collision with: 3 9 0 0  and 3 9 1 0 
68766543		 # 	collision with: 8 0 1 0  and 9 6 2 0 
68766552		 # 	collision with: 0 1 1 0  and 9 2 2 0 
68766554		 # 	collision with: 6 9 1 0  and 9 3 2 0 
68766556		 # 	collision with: 6 2 0 0  and 10 5 1 0 
68766558		 # 	collision with: 2 10 0 0  and 4 10 0 0 
68766608		 # 	collision with: 5 6 0 0  and 6 6 0 0 
68766610		 # 	collision with: 5 2 0 0  and 1 1 1 0 
68766616		 # 	collision with: 10 2 0 0  and 1 3 1 0 
68766618		 # 	collision with: 5 4 0 0  and 1 8 1 0 
68766635		 # 	collision with: 6 10 0 0  and 8 0 1 0 
68766636		 # 	collision with: 7 2 0 0  and 7 2 1 0 
68766660		 # 	collision with: 7 5 2 0  and 7 1 3 0 
68766662		 # 	collision with: 9 5 0 0  and 3 8 2 0 
68766665		 # 	collision with: 8 2 0 0  and 10 1 1 0 
68766667		 # 	collision with: 2 2 1 0  and 3 2 1 0 
68766681		 # 	collision with: 1 6 0 0  and 9 5 1 0 
68766683		 # 	collision with: 4 2 0 0  and 4 2 1 0 
68766689		 # 	collision with: 7 9 0 0  and 4 0 1 0 
68766691		 # 	collision with: 3 1 0 0  and 9 10 1 0 
68766700		 # 	collision with: 2 10 1 0  and 7 0 2 0 
68766702		 # 	collision with: 2 4 1 0  and 5 3 2 0 
68766714		 # 	collision with: 8 0 0 0  and 1 2 1 0 
68766720		 # 	collision with: 1 4 0 0  and 6 10 1 0 
68766722		 # 	collision with: 2 6 1 0  and 8 0 2 0 
68766772		 # 	collision with: 3 8 0 0  and 6 2 1 0 
68766774		 # 	collision with: 0 3 1 0  and 1 3 1 0 
68766784		 # 	collision with: 2 9 0 0  and 1 3 1 0 
68766797		 # 	collision with: 8 4 1 0  and 8 6 1 0 
68766799		 # 	collision with: 9 7 0 0  and 7 2 2 0 
68766805		 # 	collision with: 10 3 0 0  and 10 4 0 0 
68766807		 # 	collision with: 2 10 0 0  and 4 10 0 0 
68766809		 # 	collision with: 3 8 0 0  and 3 4 1 0 
68766811		 # 	collision with: 2 3 0 0  and 7 2 1 0 
68766821		 # 	collision with: 5 6 0 0  and 6 6 0 0 
68766823		 # 	collision with: 6 0 2 0  and 2 1 2 0 
68766824		 # 	collision with: 9 0 0 0  and 9 3 1 0 
68766826		 # 	collision with: 2 10 0 0  and 4 10 0 0 
68766848		 # 	collision with: 3 1 0 0  and 1 2 1 0 
68766850		 # 	collision with: 5 10 0 0  and 8 3 1 0 
68766868		 # 	collision with: 5 5 0 0  and 6 0 1 0 
68766870		 # 	collision with: 2 10 0 0  and 4 10 0 0 
68766876		 # 	collision with: 3 6 0 0  and 0 7 1 0 
68766878		 # 	collision with: 10 9 0 0  and 9 5 2 0 
68766928		 # 	collision with: 8 6 0 0  and 0 4 1 0 
68766932		 # 	collision with: 9 1 1 0  and 7 2 2 0 
68766934		 # 	collision with: 3 4 1 0  and 5 4 1 0 
68766945		 # 	collision with: 7 6 0 0  and 0 3 2 0 
68766947		 # 	collision with: 4 2 0 0  and 3 4 1 0 
68766954		 # 	collision with: 8 10 0 0  and 8 6 1 0 
68766980		 # 	collision with: 8 9 0 0  and 8 9 1 0 
68766982		 # 	collision with: 7 10 0 0  and 2 3 1 0 
68766990		 # 	collision with: 4 1 1 0  and 5 1 1 0 
68767016		 # 	collision with: 8 6 0 0  and 0 4 1 0 
68767018		 # 	collision with: 5 3 0 0  and 7 3 1 0 
68767025		 # 	collision with: 10 3 0 0  and 10 4 0 0 
68767036		 # 	collision with: 1 4 1 0  and 1 0 2 0 
68767038		 # 	collision with: 1 9 1 0  and 1 1 2 0 
68767040		 # 	collision with: 5 6 0 0  and 6 6 0 0 
68767042		 # 	collision with: 6 0 1 0  and 3 2 2 0 
68767092		 # 	collision with: 8 1 0 0  and 0 8 1 0 
68767094		 # 	collision with: 6 7 0 0  and 1 7 1 0 
68767100		 # 	collision with: 9 2 1 0  and 6 3 1 0 
68767102		 # 	collision with: 7 0 1 0  and 7 1 1 0 
68767117		 # 	collision with: 8 10 0 0  and 2 3 1 0 
68767119		 # 	collision with: 4 3 0 0  and 5 5 1 0 
68767120		 # 	collision with: 4 9 1 0  and 6 9 1 0 
68767122		 # 	collision with: 2 2 0 0  and 2 2 1 0 
68767144		 # 	collision with: 10 3 1 0  and 10 4 1 0 
68767146		 # 	collision with: 7 0 1 0  and 7 1 1 0 
68767149		 # 	collision with: 8 4 1 0  and 8 6 1 0 
68767151		 # 	collision with: 9 9 1 0  and 9 0 2 0 
68767165		 # 	collision with: 0 0 0 0  and 2 0 2 0 
68767167		 # 	collision with: 6 6 0 0  and 10 2 2 0 
68767173		 # 	collision with: 5 6 0 0  and 6 6 0 0 
68767184		 # 	collision with: 3 6 0 0  and 0 7 1 0 
68767186		 # 	collision with: 1 9 1 0  and 9 0 2 0 
68767196		 # 	collision with: 7 3 0 0  and 1 7 1 0 
68767198		 # 	collision with: 7 0 2 0  and 7 1 2 0 
68767204		 # 	collision with: 10 6 0 0  and 8 2 1 0 
68767206		 # 	collision with: 0 1 0 0  and 9 1 2 0 
68767256		 # 	collision with: 8 10 0 0  and 5 9 1 0 
68767258		 # 	collision with: 4 8 0 0  and 8 2 2 0 
68767268		 # 	collision with: 8 5 1 0  and 2 1 2 0 
68767270		 # 	collision with: 2 10 0 0  and 4 10 0 0 
68767281		 # 	collision with: 0 6 0 0  and 4 5 1 0 
68767283		 # 	collision with: 9 6 1 0  and 4 2 2 0 
68767289		 # 	collision with: 6 2 0 0  and 1 1 1 0 
68767291		 # 	collision with: 4 5 0 0  and 9 8 1 0 
68767293		 # 	collision with: 6 2 0 0  and 5 4 0 0 
68767295		 # 	collision with: 2 10 0 0  and 4 10 0 0 
68767305		 # 	collision with: 6 10 0 0  and 9 1 1 0 
68767307		 # 	collision with: 10 8 0 0  and 4 8 1 0 
68767310		 # 	collision with: 2 9 0 0  and 7 4 1 0 
68767332		 # 	collision with: 9 7 0 0  and 8 1 1 0 
68767334		 # 	collision with: 3 7 1 0  and 4 7 1 0 
68767352		 # 	collision with: 9 10 0 0  and 2 3 2 0 
68767354		 # 	collision with: 0 4 0 0  and 9 0 1 0 
68767360		 # 	collision with: 7 1 1 0  and 0 2 1 0 
68767362		 # 	collision with: 0 4 0 0  and 9 0 1 0 
68767412		 # 	collision with: 6 2 0 0  and 1 1 2 0 
68767414		 # 	collision with: 4 0 0 0  and 8 1 1 0 
68767416		 # 	collision with: 6 3 0 0  and 1 4 2 0 
68767429		 # 	collision with: 5 6 0 0  and 6 6 0 0 
68767431		 # 	collision with: 8 2 1 0  and 8 3 1 0 
68767436		 # 	collision with: 3 10 0 0  and 4 1 1 0 
68767438		 # 	collision with: 4 4 0 0  and 3 0 1 0 
68767464		 # 	collision with: 1 3 0 0  and 9 7 1 0 
68767472		 # 	collision with: 5 6 0 0  and 6 6 0 0 
68767474		 # 	collision with: 4 9 0 0  and 9 6 1 0 
68767500		 # 	collision with: 1 4 0 0  and 1 0 1 0 
68767502		 # 	collision with: 4 9 0 0  and 6 10 2 0 
68767509		 # 	collision with: 10 2 0 0  and 4 6 1 0 
68767511		 # 	collision with: 0 4 0 0  and 1 1 1 0 
68767520		 # 	collision with: 7 0 0 0  and 5 5 1 0 
68767522		 # 	collision with: 1 5 1 0  and 3 5 1 0 
68767524		 # 	collision with: 6 10 0 0  and 9 1 1 0 
68767526		 # 	collision with: 2 10 0 0  and 4 1 1 0 
68767576		 # 	collision with: 4 6 0 0  and 6 2 2 0 
68767578		 # 	collision with: 2 10 0 0  and 4 10 0 0 
68767584		 # 	collision with: 9 5 0 0  and 9 5 1 0 
68767586		 # 	collision with: 4 5 0 0  and 0 5 1 0 
68767601		 # 	collision with: 6 2 0 0  and 5 4 0 0 
68767603		 # 	collision with: 2 10 0 0  and 4 10 0 0 
68767606		 # 	collision with: 9 8 1 0  and 0 5 2 0 
68767628		 # 	collision with: 6 0 0 0  and 10 2 1 0 
68767630		 # 	collision with: 4 5 0 0  and 0 5 1 0 
68767633		 # 	collision with: 2 0 0 0  and 0 0 2 0 
68767635		 # 	collision with: 3 3 0 0  and 2 6 1 0 
68767649		 # 	collision with: 5 6 0 0  and 6 6 0 0 
68767651		 # 	collision with: 8 2 1 0  and 8 3 1 0 
68767657		 # 	collision with: 6 3 0 0  and 6 10 1 0 
68767659		 # 	collision with: 5 6 1 0  and 6 6 1 0 
68767668		 # 	collision with: 6 0 1 0  and 6 2 1 0 
68767670		 # 	collision with: 2 1 1 0  and 2 2 1 0 
68767680		 # 	collision with: 2 2 1 0  and 3 2 1 0 
68767682		 # 	collision with: 10 7 0 0  and 2 5 1 0 
68767688		 # 	collision with: 1 7 0 0  and 2 0 1 0 
68767690		 # 	collision with: 9 1 0 0  and 0 1 2 0 
68767740		 # 	collision with: 5 1 0 0  and 5 1 1 0 
68767742		 # 	collision with: 2 1 1 0  and 1 5 2 0 
68767752		 # 	collision with: 5 7 0 0  and 5 2 1 0 
68767754		 # 	collision with: 0 3 1 0  and 1 3 1 0 
68767765		 # 	collision with: 0 3 2 0  and 1 3 2 0 
68767767		 # 	collision with: 2 0 0 0  and 0 0 2 0 
68767773		 # 	collision with: 5 6 0 0  and 6 6 0 0 
68767775		 # 	collision with: 2 9 0 0  and 8 9 1 0 
68767777		 # 	collision with: 9 7 0 0  and 10 2 1 0 
68767779		 # 	collision with: 4 5 0 0  and 5 8 1 0 
68767789		 # 	collision with: 10 2 0 0  and 1 3 0 0 
68767791		 # 	collision with: 4 5 0 0  and 5 7 1 0 
68767792		 # 	collision with: 6 3 0 0  and 9 2 1 0 
68767794		 # 	collision with: 7 9 0 0  and 4 10 1 0 
68767818		 # 	collision with: 5 1 1 0  and 7 9 2 0 
68767836		 # 	collision with: 2 6 0 0  and 5 1 2 0 
68767838		 # 	collision with: 9 8 0 0  and 4 5 1 0 
68767844		 # 	collision with: 4 6 0 0  and 10 5 1 0 
68767846		 # 	collision with: 2 10 0 0  and 4 10 0 0 
68767896		 # 	collision with: 10 10 0 0  and 8 6 1 0 
68767898		 # 	collision with: 10 3 0 0  and 2 3 1 0 
68767900		 # 	collision with: 7 9 0 0  and 9 3 1 0 
68767902		 # 	collision with: 0 0 0 0  and 2 0 2 0 
68767913		 # 	collision with: 0 10 0 0  and 9 1 1 0 
68767915		 # 	collision with: 2 10 0 0  and 4 10 0 0 
68767920		 # 	collision with: 9 8 0 0  and 5 8 1 0 
68767922		 # 	collision with: 10 10 0 0  and 9 2 1 0 
68767948		 # 	collision with: 5 6 0 0  and 6 6 0 0 
68767950		 # 	collision with: 1 4 0 0  and 10 6 2 0 
68767956		 # 	collision with: 9 4 0 0  and 8 10 1 0 
68767984		 # 	collision with: 10 7 0 0  and 10 0 1 0 
68767986		 # 	collision with: 9 7 0 0  and 2 0 1 0 
68767993		 # 	collision with: 5 6 0 0  and 6 6 0 0 
68767995		 # 	collision with: 2 0 0 0  and 0 0 2 0 
68768004		 # 	collision with: 7 1 0 0  and 7 1 1 0 
68768008		 # 	collision with: 1 9 0 0  and 6 5 1 0 
68768010		 # 	collision with: 3 7 0 0  and 10 0 1 0 
68768060		 # 	collision with: 2 7 0 0  and 2 1 1 0 
68768062		 # 	collision with: 3 3 1 0  and 3 4 1 0 
68768068		 # 	collision with: 4 10 0 0  and 0 3 2 0 
68768070		 # 	collision with: 2 5 0 0  and 2 5 1 0 
68768085		 # 	collision with: 0 0 0 0  and 2 0 2 0 
68768087		 # 	collision with: 2 0 0 0  and 0 0 2 0 
68768088		 # 	collision with: 0 4 1 0  and 8 6 2 0 
68768090		 # 	collision with: 0 6 0 0  and 9 7 1 0 
68768114		 # 	collision with: 3 5 0 0  and 3 5 1 0 
68768117		 # 	collision with: 2 8 0 0  and 1 7 1 0 
68768119		 # 	collision with: 7 4 0 0  and 2 9 1 0 
68768133		 # 	collision with: 4 6 0 0  and 9 7 2 0 
68768135		 # 	collision with: 2 10 0 0  and 4 10 0 0 
68768141		 # 	collision with: 10 2 0 0  and 1 3 0 0 
68768143		 # 	collision with: 6 8 0 0  and 8 8 1 0 
68768152		 # 	collision with: 2 9 0 0  and 1 1 1 0 
68768154		 # 	collision with: 2 10 0 0  and 4 10 0 0 
68768164		 # 	collision with: 0 0 0 0  and 2 0 2 0 
68768166		 # 	collision with: 6 3 0 0  and 6 5 1 0 
68768172		 # 	collision with: 2 0 0 0  and 0 0 2 0 
68768174		 # 	collision with: 3 6 1 0  and 6 1 2 0 
68768224		 # 	collision with: 2 0 0 0  and 0 0 2 0 
68768226		 # 	collision with: 4 1 0 0  and 4 1 1 0 
68768236		 # 	collision with: 2 0 0 0  and 0 0 2 0 
68768238		 # 	collision with: 3 4 0 0  and 1 8 1 0 
68768249		 # 	collision with: 5 6 0 0  and 6 6 0 0 
68768257		 # 	collision with: 3 1 0 0  and 8 3 0 0 
68768259		 # 	collision with: 10 0 0 0  and 6 6 2 0 
68768261		 # 	collision with: 3 10 0 0  and 2 2 1 0 
68768263		 # 	collision with: 2 8 0 0  and 9 6 1 0 
68768273		 # 	collision with: 6 2 1 0  and 7 0 2 0 
68768275		 # 	collision with: 6 1 0 0  and 0 3 0 0 
68768276		 # 	collision with: 1 1 1 0  and 0 3 1 0 
68768278		 # 	collision with: 2 6 0 0  and 5 0 1 0 
68768300		 # 	collision with: 9 4 0 0  and 2 5 1 0 
68768302		 # 	collision with: 3 9 0 0  and 7 9 1 0 
68768320		 # 	collision with: 7 1 1 0  and 0 2 1 0 
68768322		 # 	collision with: 6 0 1 0  and 7 1 1 0 
68768328		 # 	collision with: 6 4 0 0  and 2 4 1 0 
68768330		 # 	collision with: 5 10 0 0  and 8 3 1 0 
68768380		 # 	collision with: 5 6 0 0  and 6 6 0 0 
68768382		 # 	collision with: 8 8 0 0  and 7 1 2 0 
68768384		 # 	collision with: 0 0 1 0  and 2 0 1 0 
68768386		 # 	collision with: 1 8 0 0  and 7 5 1 0 
68768397		 # 	collision with: 6 0 2 0  and 6 2 2 0 
68768404		 # 	collision with: 3 8 0 0  and 3 8 1 0 
68768406		 # 	collision with: 3 5 1 0  and 3 2 2 0 
68768434		 # 	collision with: 5 6 0 0  and 10 0 1 0 
68768440		 # 	collision with: 8 3 0 0  and 8 7 1 0 
68768442		 # 	collision with: 0 3 2 0  and 1 3 2 0 
68768470		 # 	collision with: 9 6 0 0  and 8 0 1 0 
68768477		 # 	collision with: 3 1 0 0  and 8 3 0 0 
68768479		 # 	collision with: 7 2 1 0  and 2 3 1 0 
68768488		 # 	collision with: 2 9 0 0  and 4 6 1 0 
68768490		 # 	collision with: 10 1 0 0  and 10 1 1 0 
68768492		 # 	collision with: 10 8 0 0  and 10 8 1 0 
68768544		 # 	collision with: 2 0 0 0  and 0 0 2 0 
68768546		 # 	collision with: 2 0 0 0  and 7 2 1 0 
68768552		 # 	collision with: 3 10 0 0  and 2 2 1 0 
68768554		 # 	collision with: 2 10 0 0  and 4 10 0 0 
68768569		 # 	collision with: 8 1 0 0  and 9 7 1 0 
68768571		 # 	collision with: 6 7 1 0  and 0 3 2 0 
68768572		 # 	collision with: 9 5 0 0  and 1 6 1 0 
68768574		 # 	collision with: 10 7 0 0  and 2 5 1 0 
68768596		 # 	collision with: 0 5 0 0  and 4 5 1 0 
68768598		 # 	collision with: 2 10 0 0  and 4 10 0 0 
68768601		 # 	collision with: 5 6 0 0  and 6 6 0 0 
68768603		 # 	collision with: 5 1 0 0  and 5 3 0 0 
68768617		 # 	collision with: 9 7 0 0  and 1 1 2 0 
68768619		 # 	collision with: 9 3 0 0  and 8 5 1 0 
68768625		 # 	collision with: 1 2 1 0  and 3 0 2 0 
68768627		 # 	collision with: 6 1 0 0  and 0 3 0 0 
68768636		 # 	collision with: 9 7 0 0  and 8 9 1 0 
68768648		 # 	collision with: 3 2 0 0  and 4 1 1 0 
68768650		 # 	collision with: 4 2 0 0  and 10 1 1 0 
68768656		 # 	collision with: 4 3 1 0  and 3 0 2 0 
68768658		 # 	collision with: 2 0 0 0  and 0 0 2 0 
68768710		 # 	collision with: 9 3 0 0  and 7 7 1 0 
68768720		 # 	collision with: 3 0 0 0  and 3 1 1 0 
68768722		 # 	collision with: 8 8 0 0  and 7 0 1 0 
68768733		 # 	collision with: 1 3 0 0  and 0 3 1 0 
68768735		 # 	collision with: 2 3 0 0  and 10 3 1 0 
68768741		 # 	collision with: 1 1 0 0  and 10 2 0 0 
68768743		 # 	collision with: 2 1 0 0  and 2 2 0 0 
68768747		 # 	collision with: 0 2 0 0  and 4 0 1 0 
68768757		 # 	collision with: 5 5 1 0  and 7 6 1 0 
68768759		 # 	collision with: 2 10 0 0  and 4 10 0 0 
68768760		 # 	collision with: 0 3 1 0  and 1 3 1 0 
68768762		 # 	collision with: 10 9 0 0  and 0 8 1 0 
68768784		 # 	collision with: 10 5 3 0  and 1 1 4 0 
68768804		 # 	collision with: 8 1 0 0  and 7 6 2 0 
68768806		 # 	collision with: 0 0 1 0  and 2 0 1 0 
68768812		 # 	collision with: 5 6 0 0  and 6 6 0 0 
68768814		 # 	collision with: 0 0 1 0  and 2 0 1 0 
68768864		 # 	collision with: 3 8 0 0  and 6 0 1 0 
68768866		 # 	collision with: 2 10 0 0  and 4 10 0 0 
68768868		 # 	collision with: 5 10 0 0  and 4 9 2 0 
68768870		 # 	collision with: 2 0 0 0  and 0 0 2 0 
68768881		 # 	collision with: 9 1 0 0  and 9 2 0 0 
68768883		 # 	collision with: 10 1 1 0  and 2 6 2 0 
68768888		 # 	collision with: 5 3 2 0  and 5 6 3 0 
68768890		 # 	collision with: 1 8 0 0  and 9 3 1 0 
68768916		 # 	collision with: 0 2 0 0  and 7 1 1 0 
68768918		 # 	collision with: 0 7 0 0  and 4 2 1 0 
68768924		 # 	collision with: 4 10 0 0  and 1 3 1 0 
68768926		 # 	collision with: 10 1 0 0  and 9 6 1 0 
68768952		 # 	collision with: 5 7 0 0  and 8 5 1 0 
68768954		 # 	collision with: 2 10 0 0  and 4 10 0 0 
68768961		 # 	collision with: 1 1 0 0  and 10 2 0 0 
68768963		 # 	collision with: 2 1 0 0  and 2 2 0 0 
68768972		 # 	collision with: 9 2 0 0  and 7 4 1 0 
68768974		 # 	collision with: 2 0 0 0  and 0 0 2 0 
68768976		 # 	collision with: 2 8 0 0  and 2 0 1 0 
68768978		 # 	collision with: 4 0 1 0  and 0 2 1 0 
68769028		 # 	collision with: 10 10 0 0  and 10 8 1 0 
68769036		 # 	collision with: 10 4 0 0  and 10 3 1 0 
68769038		 # 	collision with: 2 0 0 0  and 0 0 2 0 
68769053		 # 	collision with: 6 1 1 0  and 4 2 1 0 
68769055		 # 	collision with: 2 2 1 0  and 3 2 1 0 
68769056		 # 	collision with: 0 0 0 0  and 2 0 2 0 
68769058		 # 	collision with: 2 0 0 0  and 0 0 2 0 
68769080		 # 	collision with: 0 0 0 0  and 2 0 2 0 
68769082		 # 	collision with: 2 0 0 0  and 0 0 2 0 
68769087		 # 	collision with: 7 1 0 0  and 6 0 1 0 
68769101		 # 	collision with: 9 1 0 0  and 9 2 0 0 
68769103		 # 	collision with: 9 2 0 0  and 2 0 1 0 
68769109		 # 	collision with: 5 5 0 0  and 8 1 1 0 
68769111		 # 	collision with: 2 10 0 0  and 4 10 0 0 
68769122		 # 	collision with: 6 4 0 0  and 2 4 1 0 
68769132		 # 	collision with: 4 6 0 0  and 1 1 2 0 
68769134		 # 	collision with: 9 0 0 0  and 8 4 1 0 
68769140		 # 	collision with: 7 2 0 0  and 9 1 1 0 
68769142		 # 	collision with: 10 1 0 0  and 5 0 1 0 
68769192		 # 	collision with: 4 2 1 0  and 4 3 1 0 
68769194		 # 	collision with: 5 1 1 0  and 5 3 1 0 
68769204		 # 	collision with: 5 8 0 0  and 3 10 1 0 
68769206		 # 	collision with: 2 10 2 0  and 2 4 3 0 
68769219		 # 	collision with: 5 0 0 0  and 1 2 0 0 
68769225		 # 	collision with: 4 1 1 0  and 2 2 1 0 
68769229		 # 	collision with: 6 0 0 0  and 6 2 0 0 
68769241		 # 	collision with: 0 0 0 0  and 2 0 2 0 
68769243		 # 	collision with: 8 5 0 0  and 4 2 1 0 
68769244		 # 	collision with: 5 6 0 0  and 6 6 0 0 
68769246		 # 	collision with: 6 10 0 0  and 4 2 1 0 
68769268		 # 	collision with: 10 2 0 0  and 0 8 1 0 
68769270		 # 	collision with: 2 5 1 0  and 8 7 2 0 
68769290		 # 	collision with: 8 2 0 0  and 5 10 1 0 
68769296		 # 	collision with: 0 0 0 0  and 2 0 2 0 
68769298		 # 	collision with: 2 1 0 0  and 7 0 1 0 
68769348		 # 	collision with: 1 3 0 0  and 0 3 1 0 
68769350		 # 	collision with: 9 6 0 0  and 1 2 1 0 
68769352		 # 	collision with: 3 2 0 0  and 9 6 1 0 
68769354		 # 	collision with: 2 10 0 0  and 4 10 0 0 
68769365		 # 	collision with: 8 9 1 0  and 10 2 2 0 
68769367		 # 	collision with: 3 8 0 0  and 6 3 1 0 
68769372		 # 	collision with: 10 5 0 0  and 0 3 1 0 
68769400		 # 	collision with: 10 2 0 0  and 0 8 1 0 
68769402		 # 	collision with: 8 4 0 0  and 5 2 2 0 
68769408		 # 	collision with: 0 2 0 0  and 5 2 1 0 
68769410		 # 	collision with: 4 4 0 0  and 5 6 1 0 
68769436		 # 	collision with: 1 3 0 0  and 0 3 1 0 
68769438		 # 	collision with: 4 8 0 0  and 5 5 1 0 
68769445		 # 	collision with: 3 1 1 0  and 1 2 2 0 
68769447		 # 	collision with: 9 7 0 0  and 10 10 1 0 
68769456		 # 	collision with: 3 0 1 0  and 6 1 1 0 
68769458		 # 	collision with: 5 1 1 0  and 5 3 1 0 
68769460		 # 	collision with: 10 5 0 0  and 0 3 1 0 
68769462		 # 	collision with: 3 10 0 0  and 9 4 1 0 
68769514		 # 	collision with: 0 0 0 0  and 2 0 2 0 
68769520		 # 	collision with: 3 4 0 0  and 1 1 1 0 
68769522		 # 	collision with: 0 0 0 0  and 2 0 2 0 
68769537		 # 	collision with: 6 0 0 0  and 6 2 0 0 
68769539		 # 	collision with: 10 0 0 0  and 10 2 0 0 
68769540		 # 	collision with: 6 9 0 0  and 1 5 1 0 
68769542		 # 	collision with: 4 8 0 0  and 8 3 1 0 
68769564		 # 	collision with: 10 0 0 0  and 10 7 1 0 
68769569		 # 	collision with: 2 10 0 0  and 6 2 1 0 
68769571		 # 	collision with: 5 0 0 0  and 1 2 0 0 
68769587		 # 	collision with: 10 1 0 0  and 1 8 1 0 
68769593		 # 	collision with: 8 1 0 0  and 9 7 1 0 
68769595		 # 	collision with: 7 5 0 0  and 1 8 1 0 
68769604		 # 	collision with: 6 8 0 0  and 8 2 1 0 
68769606		 # 	collision with: 9 4 0 0  and 9 4 1 0 
68769616		 # 	collision with: 6 5 0 0  and 8 2 1 0 
68769618		 # 	collision with: 2 10 0 0  and 4 10 0 0 
68769624		 # 	collision with: 8 3 0 0  and 6 1 1 0 
68769626		 # 	collision with: 7 3 0 0  and 5 3 2 0 
68769676		 # 	collision with: 5 6 0 0  and 6 6 0 0 
68769678		 # 	collision with: 9 6 1 0  and 7 5 2 0 
68769688		 # 	collision with: 1 7 0 0  and 1 7 1 0 
68769690		 # 	collision with: 7 5 0 0  and 4 2 1 0 
68769701		 # 	collision with: 3 0 0 0  and 3 1 0 0 
68769703		 # 	collision with: 5 1 1 0  and 7 3 1 0 
68769709		 # 	collision with: 7 8 0 0  and 9 3 1 0 
68769711		 # 	collision with: 3 7 0 0  and 10 0 1 0 
68769713		 # 	collision with: 10 5 0 0  and 8 1 1 0 
68769715		 # 	collision with: 8 0 1 0  and 10 1 1 0 
68769725		 # 	collision with: 0 3 1 0  and 1 3 1 0 
68769727		 # 	collision with: 9 10 0 0  and 1 3 1 0 
68769728		 # 	collision with: 3 1 0 0  and 4 3 2 0 
68769730		 # 	collision with: 6 0 0 0  and 6 8 1 0 
68769752		 # 	collision with: 6 2 0 0  and 6 0 1 0 
68769754		 # 	collision with: 2 10 0 0  and 4 10 0 0 
68769772		 # 	collision with: 0 1 0 0  and 1 4 1 0 
68769774		 # 	collision with: 8 2 0 0  and 1 0 1 0 
68769780		 # 	collision with: 3 7 1 0  and 4 7 1 0 
68769782		 # 	collision with: 9 6 0 0  and 1 8 1 0 
68769834		 # 	collision with: 1 3 0 0  and 0 3 1 0 
68769836		 # 	collision with: 3 10 1 0  and 3 2 2 0 
68769838		 # 	collision with: 9 1 0 0  and 2 7 1 0 
68769849		 # 	collision with: 8 7 0 0  and 10 0 1 0 
68769851		 # 	collision with: 7 7 0 0  and 8 0 1 0 
68769856		 # 	collision with: 2 5 0 0  and 9 4 1 0 
68769858		 # 	collision with: 5 8 0 0  and 4 5 2 0 
68769884		 # 	collision with: 3 4 1 0  and 5 4 1 0 
68769886		 # 	collision with: 2 10 0 0  and 4 10 0 0 
68769892		 # 	collision with: 2 3 1 0  and 2 5 1 0 
68769894		 # 	collision with: 2 0 1 0  and 7 2 1 0 
68769920		 # 	collision with: 9 2 0 0  and 1 0 1 0 
68769922		 # 	collision with: 1 3 0 0  and 0 3 1 0 
68769929		 # 	collision with: 2 3 0 0  and 10 4 1 0 
68769931		 # 	collision with: 9 0 1 0  and 0 2 1 0 
68769942		 # 	collision with: 2 9 0 0  and 1 4 1 0 
68769944		 # 	collision with: 1 7 0 0  and 7 3 2 0 
68769946		 # 	collision with: 7 5 1 0  and 3 3 3 0 
68769996		 # 	collision with: 7 7 0 0  and 7 7 1 0 
68769998		 # 	collision with: 2 8 1 0  and 0 7 2 0 
68770004		 # 	collision with: 0 0 0 0  and 2 0 2 0 
68770021		 # 	collision with: 8 1 0 0  and 6 2 1 0 
68770023		 # 	collision with: 4 0 1 0  and 1 1 1 0 
68770024		 # 	collision with: 10 2 0 0  and 8 1 1 0 
68770026		 # 	collision with: 2 1 1 0  and 3 2 1 0 
68770048		 # 	collision with: 10 1 0 0  and 8 2 1 0 
68770050		 # 	collision with: 6 2 0 0  and 3 0 1 0 
68770053		 # 	collision with: 3 0 0 0  and 3 1 0 0 
68770069		 # 	collision with: 6 10 0 0  and 7 2 1 0 
68770071		 # 	collision with: 9 8 0 0  and 4 5 1 0 
68770077		 # 	collision with: 6 5 0 0  and 9 9 1 0 
68770079		 # 	collision with: 4 1 0 0  and 6 4 1 0 
68770088		 # 	collision with: 1 2 0 0  and 10 0 1 0 
68770090		 # 	collision with: 3 3 2 0  and 3 4 2 0 
68770100		 # 	collision with: 8 9 0 0  and 7 6 1 0 
68770108		 # 	collision with: 10 2 0 0  and 1 3 0 0 
68770109		 # 	collision with: 5 6 0 0  and 6 6 0 0 
68770110		 # 	collision with: 2 1 0 0  and 4 1 0 0 
68770111		 # 	collision with: 2 7 0 0  and 9 1 2 0 
68770188		 # 	collision with: 10 0 0 0  and 1 2 0 0 
68770189		 # 	collision with: 4 5 0 0  and 6 5 1 0 
68770190		 # 	collision with: 3 3 0 0  and 3 4 0 0 
68770191		 # 	collision with: 3 10 0 0  and 6 7 1 0 
68770224		 # 	collision with: 6 0 0 0  and 6 2 0 0 
68770225		 # 	collision with: 4 2 0 0  and 1 5 1 0 
68770226		 # 	collision with: 1 4 0 0  and 1 6 0 0 
68770227		 # 	collision with: 9 5 0 0  and 8 6 0 0 
68770260		 # 	collision with: 3 1 0 0  and 8 3 0 0 
68770261		 # 	collision with: 7 2 0 0  and 0 9 1 0 
68770262		 # 	collision with: 5 1 0 0  and 5 3 0 0 
68770263		 # 	collision with: 2 1 0 0  and 4 1 0 0 
68770296		 # 	collision with: 1 1 0 0  and 1 3 0 0 
68770297		 # 	collision with: 2 5 0 0  and 1 7 1 0 
68770298		 # 	collision with: 2 1 0 0  and 2 2 0 0 
68770299		 # 	collision with: 2 3 1 0  and 6 5 1 0 
68770332		 # 	collision with: 2 3 0 0  and 2 5 0 0 
68770333		 # 	collision with: 8 0 0 0  and 7 7 1 0 
68770334		 # 	collision with: 4 5 0 0  and 4 6 0 0 
68770335		 # 	collision with: 4 5 0 0  and 4 6 0 0 
68770412		 # 	collision with: 8 4 0 0  and 3 6 0 0 
68770413		 # 	collision with: 1 7 0 0  and 6 3 1 0 
68770414		 # 	collision with: 7 0 0 0  and 10 1 0 0 
68770415		 # 	collision with: 8 0 1 0  and 1 1 1 0 
68770448		 # 	collision with: 9 1 0 0  and 9 2 0 0 
68770449		 # 	collision with: 6 5 1 0  and 7 9 2 0 
68770450		 # 	collision with: 7 0 0 0  and 7 1 0 0 
68770451		 # 	collision with: 6 8 0 0  and 7 8 2 0 
68770484		 # 	collision with: 10 3 0 0  and 10 4 0 0 
68770485		 # 	collision with: 3 9 1 0  and 7 4 2 0 
68770486		 # 	collision with: 9 4 0 0  and 9 5 0 0 
68770487		 # 	collision with: 10 1 0 0  and 1 8 1 0 
68770520		 # 	collision with: 3 0 0 0  and 3 1 0 0 
68770521		 # 	collision with: 5 0 0 0  and 4 2 1 0 
68770522		 # 	collision with: 6 3 0 0  and 6 5 0 0 
68770523		 # 	collision with: 6 0 0 0  and 10 2 1 0 
68770556		 # 	collision with: 6 2 0 0  and 5 4 0 0 
68770557		 # 	collision with: 4 1 0 0  and 5 4 1 0 
68770558		 # 	collision with: 10 0 0 0  and 10 2 0 0 
68770559		 # 	collision with: 5 6 1 0  and 6 6 1 0 
68770592		 # 	collision with: 5 1 0 0  and 8 2 1 0 
68770593		 # 	collision with: 2 0 0 0  and 4 7 1 0 
68770594		 # 	collision with: 10 4 0 0  and 3 5 1 0 
68770595		 # 	collision with: 9 4 2 0  and 8 6 2 0 
68770672		 # 	collision with: 5 6 0 0  and 6 6 0 0 
68770673		 # 	collision with: 5 6 0 0  and 6 6 0 0 
68770674		 # 	collision with: 3 7 0 0  and 6 3 1 0 
68770675		 # 	collision with: 0 0 0 0  and 4 4 1 0 
68770708		 # 	collision with: 5 2 0 0  and 7 10 1 0 
68770709		 # 	collision with: 0 4 0 0  and 8 5 1 0 
68770710		 # 	collision with: 1 7 0 0  and 2 1 1 0 
68770711		 # 	collision with: 1 4 0 0  and 1 6 0 0 
68770744		 # 	collision with: 0 10 1 0  and 7 0 2 0 
68770745		 # 	collision with: 8 4 0 0  and 8 6 0 0 
68770746		 # 	collision with: 0 8 1 0  and 2 8 1 0 
68770747		 # 	collision with: 4 8 0 0  and 8 1 1 0 
68770780		 # 	collision with: 3 10 0 0  and 5 0 1 0 
68770781		 # 	collision with: 8 6 0 0  and 1 4 1 0 
68770782		 # 	collision with: 8 1 1 0  and 8 1 3 0 
68770783		 # 	collision with: 3 3 1 0  and 5 3 1 0 
68770816		 # 	collision with: 8 6 0 0  and 7 9 1 0 
68770817		 # 	collision with: 8 4 0 0  and 3 6 0 0 
68770818		 # 	collision with: 9 6 0 0  and 3 9 1 0 
68770819		 # 	collision with: 5 3 0 0  and 6 4 1 0 
68770896		 # 	collision with: 6 5 1 0  and 8 6 1 0 
68770897		 # 	collision with: 4 5 0 0  and 7 8 1 0 
68770898		 # 	collision with: 2 1 0 0  and 4 1 0 0 
68770899		 # 	collision with: 9 4 0 0  and 8 6 0 0 
68770932		 # 	collision with: 5 4 1 0  and 10 7 2 0 
68770933		 # 	collision with: 8 8 0 0  and 5 8 2 0 
68770934		 # 	collision with: 9 10 0 0  and 0 0 1 0 
68770935		 # 	collision with: 7 3 0 0  and 1 7 1 0 
68770968		 # 	collision with: 7 2 0 0  and 0 2 1 0 
68770969		 # 	collision with: 1 1 1 0  and 1 3 1 0 
68770970		 # 	collision with: 8 2 0 0  and 10 2 1 0 
68770971		 # 	collision with: 9 10 0 0  and 8 9 1 0 
68771004		 # 	collision with: 0 3 0 0  and 8 3 1 0 
68771005		 # 	collision with: 4 4 2 0  and 5 4 2 0 
68771006		 # 	collision with: 6 3 0 0  and 6 3 1 0 
68771007		 # 	collision with: 2 1 0 0  and 4 1 0 0 
68771040		 # 	collision with: 2 0 1 0  and 3 0 1 0 
68771041		 # 	collision with: 2 6 0 0  and 2 6 1 0 
68771042		 # 	collision with: 1 6 0 0  and 10 6 1 0 
68771043		 # 	collision with: 7 3 1 0  and 1 3 2 0 
68771076		 # 	collision with: 0 6 0 0  and 1 1 1 0 
68771077		 # 	collision with: 4 8 0 0  and 8 10 2 0 
68771078		 # 	collision with: 1 3 0 0  and 7 9 1 0 
68771079		 # 	collision with: 3 8 0 0  and 1 10 2 0 
68771156		 # 	collision with: 4 5 0 0  and 1 0 1 0 
68771157		 # 	collision with: 8 9 0 0  and 8 1 1 0 
68771158		 # 	collision with: 2 1 0 0  and 4 1 0 0 
68771159		 # 	collision with: 5 5 0 0  and 2 6 1 0 
68771192		 # 	collision with: 5 6 0 0  and 6 6 0 0 
68771193		 # 	collision with: 5 6 0 0  and 6 6 0 0 
68771194		 # 	collision with: 10 2 0 0  and 10 0 2 0 
68771195		 # 	collision with: 10 0 1 0  and 8 2 1 0 
68771228		 # 	collision with: 3 6 0 0  and 4 5 1 0 
68771229		 # 	collision with: 9 4 0 0  and 2 5 0 0 
68771230		 # 	collision with: 7 3 0 0  and 4 1 1 0 
68771231		 # 	collision with: 10 3 0 0  and 10 10 1 0 
68771264		 # 	collision with: 0 1 1 0  and 9 0 2 0 
68771265		 # 	collision with: 9 10 0 0  and 1 7 2 0 
68771266		 # 	collision with: 7 5 0 0  and 4 9 2 0 
68771267		 # 	collision with: 2 1 0 0  and 4 1 0 0 
68771300		 # 	collision with: 2 7 1 0  and 5 4 2 0 
68771301		 # 	collision with: 2 8 0 0  and 8 7 1 0 
68771302		 # 	collision with: 2 1 0 0  and 4 1 1 0 
68771303		 # 	collision with: 6 3 0 0  and 9 7 2 0 
68771380		 # 	collision with: 1 2 0 0  and 4 1 2 0 
68771381		 # 	collision with: 5 7 0 0  and 9 6 1 0 
68771382		 # 	collision with: 4 2 0 0  and 3 5 1 0 
68771383		 # 	collision with: 10 0 0 0  and 8 3 1 0 
68771416		 # 	collision with: 3 2 0 0  and 0 0 2 0 
68771417		 # 	collision with: 2 9 1 0  and 1 9 2 0 
68771418		 # 	collision with: 9 7 1 0  and 6 3 2 0 
68771419		 # 	collision with: 4 9 0 0  and 8 8 1 0 
68771452		 # 	collision with: 2 9 0 0  and 10 1 1 0 
68771453		 # 	collision with: 1 2 0 0  and 1 2 1 0 
68771454		 # 	collision with: 0 1 0 0  and 3 10 1 0 
68771455		 # 	collision with: 9 4 0 0  and 9 5 0 0 
68771488		 # 	collision with: 0 8 0 0  and 3 1 1 0 
68771489		 # 	collision with: 7 4 0 0  and 3 9 1 0 
68771490		 # 	collision with: 2 0 1 0  and 3 0 1 0 
68771491		 # 	collision with: 7 6 0 0  and 9 2 1 0 
68771524		 # 	collision with: 2 6 0 0  and 2 6 1 0 
68771525		 # 	collision with: 5 4 0 0  and 5 5 0 0 
68771526		 # 	collision with: 0 5 0 0  and 1 0 1 0 
68771527		 # 	collision with: 10 4 0 0  and 7 5 0 0 
68771560		 # 	collision with: 3 10 0 0  and 4 3 1 0 
68771561		 # 	collision with: 1 2 0 0  and 6 0 1 0 
68771562		 # 	collision with: 6 0 0 0  and 7 4 1 0 
68771563		 # 	collision with: 2 9 1 0  and 1 1 2 0 
68771640		 # 	collision with: 9 0 0 0  and 0 1 1 0 
68771641		 # 	collision with: 4 6 0 0  and 7 0 1 0 
68771642		 # 	collision with: 8 1 1 0  and 8 4 2 0 
68771643		 # 	collision with: 6 1 0 0  and 6 1 2 0 
68771676		 # 	collision with: 4 5 0 0  and 4 0 2 0 
68771677		 # 	collision with: 1 3 0 0  and 10 5 0 0 
68771678		 # 	collision with: 8 2 0 0  and 2 4 1 0 
68771679		 # 	collision with: 10 8 1 0  and 0 1 2 0 
68771712		 # 	collision with: 5 6 0 0  and 6 6 0 0 
68771713		 # 	collision with: 5 6 0 0  and 6 6 0 0 
68771714		 # 	collision with: 8 0 0 0  and 2 9 2 0 
68771715		 # 	collision with: 4 10 1 0  and 0 10 2 0 
68771748		 # 	collision with: 10 6 1 0  and 7 1 2 0 
68771749		 # 	collision with: 1 2 0 0  and 10 0 1 0 
68771750		 # 	collision with: 2 8 0 0  and 2 6 1 0 
68771751		 # 	collision with: 5 5 0 0  and 10 3 2 0 
68771784		 # 	collision with: 3 3 1 0  and 5 3 1 0 
68771785		 # 	collision with: 2 3 0 0  and 2 5 0 0 
68771786		 # 	collision with: 4 6 0 0  and 9 2 1 0 
68771787		 # 	collision with: 10 6 0 0  and 2 7 1 0 
68771864		 # 	collision with: 1 9 1 0  and 2 9 1 0 
68771865		 # 	collision with: 0 1 0 0  and 9 0 2 0 
68771866		 # 	collision with: 7 9 0 0  and 1 3 1 0 
68771867		 # 	collision with: 2 3 0 0  and 4 5 0 0 
68771900		 # 	collision with: 2 3 1 0  and 2 5 1 0 
68771901		 # 	collision with: 4 7 0 0  and 3 0 2 0 
68771902		 # 	collision with: 2 1 0 0  and 4 1 0 0 
68771903		 # 	collision with: 1 1 0 0  and 3 4 1 0 
68771936		 # 	collision with: 1 2 0 0  and 1 2 1 0 
68771937		 # 	collision with: 2 10 0 0  and 10 1 2 0 
68771938		 # 	collision with: 3 10 0 0  and 6 1 1 0 
68771939		 # 	collision with: 5 2 0 0  and 5 2 1 0 
68771972		 # 	collision with: 4 7 0 0  and 3 0 1 0 
68771973		 # 	collision with: 0 5 0 0  and 1 1 1 0 
68771974		 # 	collision with: 5 1 2 0  and 5 3 2 0 
68771975		 # 	collision with: 6 3 0 0  and 6 5 0 0 
80.1092secs	36392
