# prime 11
# degree 2
# input variables 3
# output variables 3
# reload computed balance functions from file balance-1911of3248-p11d2m3-debug.log
# p = 11
# n = 3
# smalldomain p^m 1331
# domain p^n 1331
#	 p^2 = 121
#	 p^3 = 1331
#	 p^4 = 14641
#	 p^5 = 161051
#	 p^6 = 1771561
#	 p^7 = 19487171
#	 p^8 = 214358881
#	 p^9 = 2357947691
opening file : balance-1911of3248-p11d2m3-debug.log
reloading for step2...
11466001		 # 	collision with: 5 1 0  and 5 3 0 
11466009		 # 	collision with: 1 3 0  and 2 4 0 
11466011		 # 	collision with: 4 3 0  and 7 4 0 
11466033		 # 	collision with: 7 1 0  and 7 0 1 
11466081		 # 	collision with: 2 4 0  and 7 0 1 
11466083		 # 	collision with: 3 0 0  and 1 1 0 
11466193		 # 	collision with: 10 4 0  and 3 0 1 
11466195		 # 	collision with: 3 0 0  and 7 2 0 
11466197		 # 	collision with: 4 4 0  and 6 6 0 
11466199		 # 	collision with: 3 1 0  and 9 3 0 
11466253		 # 	collision with: 4 4 0  and 5 4 0 
11466255		 # 	collision with: 7 8 0  and 3 1 1 
11466257		 # 	collision with: 0 5 0  and 7 6 0 
11466259		 # 	collision with: 2 1 0  and 6 3 0 
11466369		 # 	collision with: 2 2 0  and 1 3 0 
11466371		 # 	collision with: 0 1 0  and 1 1 0 
11466417		 # 	collision with: 6 0 0  and 3 1 0 
11466419		 # 	collision with: 6 0 0  and 2 2 0 
11466441		 # 	collision with: 10 9 0  and 6 1 1 
11466443		 # 	collision with: 0 1 0  and 4 2 0 
11466444		 # 	collision with: 4 1 0  and 0 3 0 
11466446		 # 	collision with: 4 8 0  and 5 0 1 
11466449		 # 	collision with: 1 1 0  and 10 2 0 
11466451		 # 	collision with: 4 5 0  and 3 6 0 
11466485		 # 	collision with: 2 4 0  and 8 5 0 
11466487		 # 	collision with: 10 3 0  and 2 3 1 
11466495		 # 	collision with: 9 1 0  and 0 2 0 
11466517		 # 	collision with: 1 2 0  and 2 0 1 
11466519		 # 	collision with: 7 6 0  and 5 1 1 
11466565		 # 	collision with: 2 2 0  and 7 4 0 
11466567		 # 	collision with: 2 8 0  and 3 8 0 
11466677		 # 	collision with: 6 0 0  and 9 1 0 
11466679		 # 	collision with: 1 4 0  and 6 5 0 
11466681		 # 	collision with: 10 3 0  and 10 5 0 
11466683		 # 	collision with: 8 2 0  and 10 3 0 
11466737		 # 	collision with: 10 5 0  and 0 0 1 
11466739		 # 	collision with: 7 6 0  and 3 1 1 
11466741		 # 	collision with: 6 1 0  and 8 2 0 
11466743		 # 	collision with: 9 1 0  and 9 3 0 
11466853		 # 	collision with: 1 4 0  and 4 5 0 
11466855		 # 	collision with: 6 6 0  and 5 7 0 
11466903		 # 	collision with: 0 3 0  and 4 0 1 
11466925		 # 	collision with: 10 0 1  and 2 1 1 
11466927		 # 	collision with: 2 2 0  and 2 3 0 
11466928		 # 	collision with: 6 2 0  and 7 3 0 
11466930		 # 	collision with: 0 2 0  and 1 3 0 
11466933		 # 	collision with: 5 2 0  and 6 2 0 
11466935		 # 	collision with: 3 0 0  and 1 1 0 
11466969		 # 	collision with: 6 0 0  and 9 1 0 
11466971		 # 	collision with: 0 0 0  and 1 1 1 
11466977		 # 	collision with: 1 1 0  and 2 0 1 
11466979		 # 	collision with: 6 9 0  and 6 0 1 
11467001		 # 	collision with: 4 0 0  and 8 1 0 
11467003		 # 	collision with: 6 0 0  and 9 2 0 
11467049		 # 	collision with: 6 4 0  and 9 6 0 
11467051		 # 	collision with: 1 8 0  and 4 0 1 
11467161		 # 	collision with: 6 3 0  and 8 1 1 
11467163		 # 	collision with: 6 1 0  and 6 0 1 
11467165		 # 	collision with: 7 3 0  and 6 5 0 
11467167		 # 	collision with: 9 4 0  and 3 5 0 
11467221		 # 	collision with: 3 3 0  and 6 5 0 
11467223		 # 	collision with: 5 1 0  and 6 2 0 
11467225		 # 	collision with: 2 3 0  and 7 5 0 
11467227		 # 	collision with: 4 3 0  and 2 4 0 
11467337		 # 	collision with: 9 2 0  and 7 4 0 
11467339		 # 	collision with: 7 3 0  and 5 5 0 
11467385		 # 	collision with: 5 3 0  and 5 0 1 
11467387		 # 	collision with: 2 1 0  and 2 0 1 
11467409		 # 	collision with: 7 0 0  and 9 1 0 
11467411		 # 	collision with: 3 2 0  and 10 3 0 
11467412		 # 	collision with: 6 0 0  and 9 1 0 
11467414		 # 	collision with: 10 8 0  and 2 0 1 
11467417		 # 	collision with: 9 2 0  and 7 4 0 
11467419		 # 	collision with: 8 0 0  and 8 1 0 
11467455		 # 	collision with: 9 1 0  and 0 2 0 
11467461		 # 	collision with: 2 3 0  and 7 5 0 
11467463		 # 	collision with: 4 3 0  and 1 5 0 
11467485		 # 	collision with: 2 0 0  and 4 2 0 
11467487		 # 	collision with: 9 1 0  and 9 0 1 
11467533		 # 	collision with: 0 2 0  and 4 3 0 
11467535		 # 	collision with: 2 5 0  and 1 0 1 
11467645		 # 	collision with: 4 3 0  and 3 5 0 
11467647		 # 	collision with: 9 1 0  and 2 0 1 
11467649		 # 	collision with: 6 5 0  and 3 6 0 
11467705		 # 	collision with: 3 2 0  and 5 4 0 
11467707		 # 	collision with: 10 3 0  and 10 4 0 
11467709		 # 	collision with: 8 10 0  and 3 1 1 
11467711		 # 	collision with: 10 7 0  and 0 0 2 
11467821		 # 	collision with: 9 0 0  and 8 1 0 
11467869		 # 	collision with: 8 2 0  and 5 4 0 
11467871		 # 	collision with: 10 3 0  and 4 5 0 
11467893		 # 	collision with: 5 2 0  and 3 3 0 
11467895		 # 	collision with: 6 4 0  and 8 5 0 
11467913		 # 	collision with: 7 0 0  and 2 1 0 
11467915		 # 	collision with: 9 0 0  and 7 1 0 
11467925		 # 	collision with: 2 0 0  and 0 2 0 
11467927		 # 	collision with: 0 5 0  and 4 7 0 
11467953		 # 	collision with: 2 0 0  and 0 2 0 
11467955		 # 	collision with: 2 5 0  and 0 1 1 
11467961		 # 	collision with: 2 0 0  and 0 2 0 
11467963		 # 	collision with: 6 9 0  and 4 0 1 
11468019		 # 	collision with: 9 10 0  and 10 0 1 
11468117		 # 	collision with: 2 0 0  and 0 2 0 
11468119		 # 	collision with: 5 2 0  and 6 2 0 
11468145		 # 	collision with: 2 0 0  and 0 2 0 
11468147		 # 	collision with: 3 0 0  and 5 1 0 
11468161		 # 	collision with: 2 0 0  and 0 2 0 
11468163		 # 	collision with: 4 0 0  and 1 1 0 
11468177		 # 	collision with: 2 0 0  and 0 2 0 
11468179		 # 	collision with: 8 8 0  and 1 0 1 
11468307		 # 	collision with: 0 2 0  and 3 4 0 
11468361		 # 	collision with: 2 0 0  and 0 2 0 
11468363		 # 	collision with: 2 0 0  and 10 2 0 
11468369		 # 	collision with: 2 0 0  and 0 2 0 
11468371		 # 	collision with: 7 1 0  and 6 0 1 
11468380		 # 	collision with: 5 0 0  and 1 2 0 
11468382		 # 	collision with: 0 6 0  and 6 0 1 
11468397		 # 	collision with: 2 9 0  and 5 2 1 
11468409		 # 	collision with: 0 0 0  and 1 1 1 
11468411		 # 	collision with: 10 0 0  and 6 1 0 
11468437		 # 	collision with: 10 6 0  and 0 0 1 
11468439		 # 	collision with: 5 4 0  and 4 5 0 
11468445		 # 	collision with: 9 3 0  and 2 4 0 
11468447		 # 	collision with: 5 4 0  and 4 5 0 
11468501		 # 	collision with: 9 10 0  and 10 0 1 
11468601		 # 	collision with: 2 3 0  and 2 0 1 
11468603		 # 	collision with: 5 4 0  and 4 5 0 
11468629		 # 	collision with: 5 4 0  and 1 0 1 
11468631		 # 	collision with: 5 4 0  and 4 5 0 
11468645		 # 	collision with: 5 3 0  and 2 5 0 
11468647		 # 	collision with: 5 2 0  and 6 4 0 
11468661		 # 	collision with: 7 9 0  and 6 0 1 
11468663		 # 	collision with: 5 2 0  and 2 4 0 
11468789		 # 	collision with: 5 7 0  and 8 0 1 
11468791		 # 	collision with: 5 4 0  and 4 5 0 
11468845		 # 	collision with: 10 5 0  and 8 6 0 
11468847		 # 	collision with: 5 4 0  and 4 5 0 
11468853		 # 	collision with: 6 1 0  and 7 0 1 
11468855		 # 	collision with: 7 2 0  and 3 3 0 
11468864		 # 	collision with: 7 0 0  and 5 1 0 
11468866		 # 	collision with: 9 3 0  and 8 0 1 
11468881		 # 	collision with: 9 0 0  and 1 1 0 
11468883		 # 	collision with: 9 2 0  and 2 3 0 
11468893		 # 	collision with: 5 7 0  and 8 0 1 
11468895		 # 	collision with: 3 4 0  and 2 1 1 
11468923		 # 	collision with: 2 0 0  and 10 2 0 
11468929		 # 	collision with: 3 1 0  and 0 0 1 
11468931		 # 	collision with: 0 0 0  and 2 1 0 
11468985		 # 	collision with: 8 10 0  and 9 0 1 
11468987		 # 	collision with: 7 10 0  and 8 0 1 
11469085		 # 	collision with: 10 3 0  and 2 5 0 
11469087		 # 	collision with: 1 7 0  and 4 0 1 
11469113		 # 	collision with: 10 1 0  and 2 2 0 
11469129		 # 	collision with: 1 1 0  and 1 2 0 
11469131		 # 	collision with: 7 0 0  and 3 2 0 
11469145		 # 	collision with: 9 2 0  and 2 4 0 
11469147		 # 	collision with: 1 1 0  and 8 3 0 
11469273		 # 	collision with: 3 4 0  and 5 4 0 
11469275		 # 	collision with: 10 3 0  and 10 4 0 
11469337		 # 	collision with: 0 7 0  and 4 0 1 
11469339		 # 	collision with: 5 0 0  and 7 1 0 
11469348		 # 	collision with: 6 2 0  and 0 3 0 
11469350		 # 	collision with: 8 3 0  and 0 0 1 
11469367		 # 	collision with: 5 5 0  and 0 7 0 
11469377		 # 	collision with: 7 2 0  and 8 4 0 
11469379		 # 	collision with: 9 2 0  and 8 4 0 
11469405		 # 	collision with: 2 2 0  and 2 4 0 
11469413		 # 	collision with: 2 6 0  and 0 0 1 
11469415		 # 	collision with: 3 4 0  and 0 4 1 
11469469		 # 	collision with: 0 5 0  and 1 5 0 
11469471		 # 	collision with: 7 0 0  and 3 2 0 
11469569		 # 	collision with: 1 1 0  and 1 2 0 
11469597		 # 	collision with: 4 3 0  and 6 5 0 
11469599		 # 	collision with: 5 4 0  and 8 5 0 
11469613		 # 	collision with: 5 2 0  and 0 3 0 
11469615		 # 	collision with: 3 4 0  and 5 4 0 
11469629		 # 	collision with: 6 1 0  and 10 2 0 
11469631		 # 	collision with: 0 0 0  and 2 1 0 
11469757		 # 	collision with: 2 10 0  and 6 1 1 
11469759		 # 	collision with: 9 1 0  and 3 2 0 
11469813		 # 	collision with: 1 8 0  and 3 0 1 
11469815		 # 	collision with: 2 6 0  and 3 6 0 
11469821		 # 	collision with: 10 1 0  and 9 3 0 
11469823		 # 	collision with: 7 4 0  and 5 5 0 
11469832		 # 	collision with: 3 4 0  and 10 6 0 
11469834		 # 	collision with: 6 1 0  and 7 3 0 
11469849		 # 	collision with: 1 2 0  and 1 0 1 
11469851		 # 	collision with: 3 6 0  and 7 0 1 
11469861		 # 	collision with: 1 2 0  and 5 4 0 
11469863		 # 	collision with: 3 9 0  and 5 0 1 
11469889		 # 	collision with: 5 4 0  and 10 6 0 
11469891		 # 	collision with: 5 5 0  and 1 1 1 
11469897		 # 	collision with: 10 10 0  and 6 3 1 
11469899		 # 	collision with: 2 1 1  and 1 2 1 
11469953		 # 	collision with: 8 0 0  and 8 2 0 
11469955		 # 	collision with: 1 3 0  and 3 0 1 
11470053		 # 	collision with: 5 0 0  and 10 2 0 
11470055		 # 	collision with: 3 3 0  and 9 0 1 
11470083		 # 	collision with: 10 4 0  and 3 1 1 
11470099		 # 	collision with: 5 1 0  and 2 1 1 
11470113		 # 	collision with: 10 0 0  and 4 1 0 
11470115		 # 	collision with: 4 6 0  and 2 0 1 
11470241		 # 	collision with: 7 0 0  and 2 1 0 
11470243		 # 	collision with: 7 10 0  and 4 0 1 
11470297		 # 	collision with: 5 7 0  and 1 1 1 
11470299		 # 	collision with: 4 5 0  and 9 0 1 
11470305		 # 	collision with: 9 0 0  and 10 2 0 
11470307		 # 	collision with: 2 4 0  and 8 0 1 
11470316		 # 	collision with: 5 4 0  and 3 5 0 
11470318		 # 	collision with: 5 4 0  and 4 6 0 
11470333		 # 	collision with: 10 6 0  and 2 1 1 
11470335		 # 	collision with: 4 10 0  and 6 10 0 
11470345		 # 	collision with: 2 1 0  and 0 2 1 
11470347		 # 	collision with: 4 5 0  and 0 0 1 
11470373		 # 	collision with: 3 4 0  and 1 0 1 
11470375		 # 	collision with: 6 0 0  and 8 1 0 
11470381		 # 	collision with: 10 3 0  and 8 0 1 
11470383		 # 	collision with: 5 1 0  and 5 0 1 
11470437		 # 	collision with: 5 10 0  and 6 0 1 
11470439		 # 	collision with: 1 3 0  and 3 3 0 
11470537		 # 	collision with: 1 2 0  and 6 1 1 
11470539		 # 	collision with: 5 1 0  and 5 2 0 
11470565		 # 	collision with: 1 7 0  and 7 0 1 
11470567		 # 	collision with: 2 8 0  and 1 0 1 
11470581		 # 	collision with: 4 10 0  and 7 0 1 
11470583		 # 	collision with: 1 5 0  and 6 6 0 
11470597		 # 	collision with: 4 10 0  and 3 1 1 
11470599		 # 	collision with: 9 2 0  and 8 4 0 
11470725		 # 	collision with: 5 3 0  and 4 0 1 
11470727		 # 	collision with: 6 6 0  and 9 1 1 
11470781		 # 	collision with: 2 3 0  and 6 0 1 
11470783		 # 	collision with: 7 6 0  and 1 1 1 
11470789		 # 	collision with: 4 4 0  and 5 0 1 
11470791		 # 	collision with: 3 0 0  and 5 2 0 
11470800		 # 	collision with: 9 3 0  and 5 5 0 
11470802		 # 	collision with: 6 5 0  and 6 0 1 
11470817		 # 	collision with: 9 0 0  and 1 2 1 
11470819		 # 	collision with: 7 2 0  and 3 3 0 
11470829		 # 	collision with: 10 0 0  and 4 1 0 
11470831		 # 	collision with: 4 0 0  and 1 1 0 
11470857		 # 	collision with: 4 3 0  and 6 5 0 
11470859		 # 	collision with: 10 0 0  and 6 1 0 
11470865		 # 	collision with: 10 3 0  and 2 5 0 
11470867		 # 	collision with: 3 2 0  and 9 3 0 
11470921		 # 	collision with: 7 4 0  and 1 0 1 
11470923		 # 	collision with: 5 3 0  and 10 4 0 
11471021		 # 	collision with: 6 1 0  and 10 2 0 
11471023		 # 	collision with: 6 0 0  and 8 1 0 
11471049		 # 	collision with: 3 5 0  and 0 1 1 
11471051		 # 	collision with: 1 10 0  and 1 0 1 
11471065		 # 	collision with: 5 0 0  and 1 1 0 
11471067		 # 	collision with: 1 3 0  and 3 5 0 
11471081		 # 	collision with: 1 3 0  and 3 3 0 
11471083		 # 	collision with: 6 5 0  and 9 6 0 
11471209		 # 	collision with: 10 1 0  and 9 3 0 
11471211		 # 	collision with: 0 5 0  and 4 7 0 
11471265		 # 	collision with: 0 2 0  and 3 3 0 
11471267		 # 	collision with: 10 2 0  and 10 0 1 
11471273		 # 	collision with: 9 0 0  and 6 1 0 
11471275		 # 	collision with: 9 1 0  and 3 2 0 
11471284		 # 	collision with: 9 0 0  and 10 2 0 
11471286		 # 	collision with: 4 4 0  and 1 5 0 
11471301		 # 	collision with: 8 8 0  and 0 2 1 
11471303		 # 	collision with: 0 1 0  and 10 3 0 
11471313		 # 	collision with: 5 1 0  and 5 3 0 
11471315		 # 	collision with: 1 4 0  and 5 5 0 
11471341		 # 	collision with: 7 6 0  and 0 0 1 
11471343		 # 	collision with: 4 2 0  and 1 3 0 
11471349		 # 	collision with: 7 7 0  and 10 1 1 
11471351		 # 	collision with: 0 3 0  and 7 5 0 
11471405		 # 	collision with: 9 1 0  and 0 3 0 
11471407		 # 	collision with: 7 0 0  and 8 2 0 
11471507		 # 	collision with: 4 3 0  and 1 4 0 
11471533		 # 	collision with: 1 3 0  and 2 0 1 
11471535		 # 	collision with: 5 3 0  and 0 2 1 
11471549		 # 	collision with: 9 0 0  and 1 1 0 
11471551		 # 	collision with: 0 4 1  and 6 5 1 
11471567		 # 	collision with: 0 2 0  and 3 4 0 
11471693		 # 	collision with: 9 3 0  and 5 5 0 
11471695		 # 	collision with: 0 2 0  and 3 0 1 
11471749		 # 	collision with: 4 10 0  and 6 10 0 
11471751		 # 	collision with: 9 0 0  and 7 1 0 
11471757		 # 	collision with: 9 3 0  and 2 4 0 
11471759		 # 	collision with: 6 0 0  and 10 1 0 
11471768		 # 	collision with: 4 2 0  and 0 4 0 
11471770		 # 	collision with: 0 0 0  and 1 1 1 
11471785		 # 	collision with: 2 1 0  and 2 0 1 
11471787		 # 	collision with: 5 8 0  and 0 0 1 
11471799		 # 	collision with: 0 3 0  and 7 5 0 
11471825		 # 	collision with: 5 2 0  and 0 3 0 
11471827		 # 	collision with: 8 9 0  and 9 1 1 
11471833		 # 	collision with: 3 6 0  and 0 2 1 
11471835		 # 	collision with: 8 3 0  and 5 0 1 
11471889		 # 	collision with: 2 10 0  and 3 0 1 
11471891		 # 	collision with: 4 1 0  and 1 2 0 
11471989		 # 	collision with: 4 7 0  and 4 0 1 
11471991		 # 	collision with: 3 0 0  and 6 2 0 
5.10492secs	2447
