# prime 11
# degree 2
# input variables 3
# output variables 5
# reload computed balance functions from file balance-1994of3248-p11d2m3-debug.log
# p = 11
# n = 5
# smalldomain p^m 1331
# domain p^n 161051
#	 p^2 = 121
#	 p^3 = 1331
#	 p^4 = 14641
#	 p^5 = 161051
#	 p^6 = 1771561
#	 p^7 = 19487171
#	 p^8 = 214358881
#	 p^9 = 2357947691
opening file : balance-1994of3248-p11d2m3-debug.log
reloading for step2...
11964009		 # 	collision with: 9 4 4 0 0  and 2 2 5 0 0 
11964011		 # 	collision with: 8 2 1 0 0  and 8 4 1 0 0 
11964029		 # 	collision with: 10 4 0 0 0  and 1 5 0 0 0 
11964031		 # 	collision with: 6 4 0 0 0  and 4 5 0 0 0 
11964045		 # 	collision with: 5 8 1 0 0  and 6 8 1 0 0 
11964047		 # 	collision with: 8 5 4 0 0  and 2 7 5 0 0 
11964061		 # 	collision with: 5 8 2 0 0  and 6 8 2 0 0 
11964063		 # 	collision with: 2 4 0 0 0  and 2 5 0 0 0 
11964109		 # 	collision with: 5 0 5 0 0  and 6 1 5 0 0 
11964111		 # 	collision with: 6 3 2 0 0  and 4 5 2 0 0 
11964217		 # 	collision with: 5 8 4 0 0  and 6 8 4 0 0 
11964249		 # 	collision with: 10 4 0 0 0  and 1 5 0 0 0 
11964251		 # 	collision with: 6 4 0 0 0  and 4 5 0 0 0 
11964261		 # 	collision with: 10 4 4 0 0  and 1 5 4 0 0 
11964263		 # 	collision with: 9 3 4 0 0  and 1 1 5 0 0 
11964273		 # 	collision with: 5 8 3 0 0  and 6 8 3 0 0 
11964275		 # 	collision with: 8 2 1 0 0  and 8 4 1 0 0 
11964413		 # 	collision with: 9 1 4 0 0  and 9 0 5 0 0 
11964415		 # 	collision with: 2 4 0 0 0  and 2 5 0 0 0 
11964461		 # 	collision with: 2 3 4 0 0  and 2 7 5 0 0 
11964477		 # 	collision with: 4 1 4 0 0  and 4 1 5 0 0 
11964479		 # 	collision with: 5 1 4 0 0  and 5 1 5 0 0 
11964480		 # 	collision with: 6 5 9 0 0  and 0 6 2 1 0 
11964482		 # 	collision with: 10 4 7 0 0  and 5 10 0 1 0 
11964493		 # 	collision with: 1 7 3 0 0  and 10 5 5 0 0 
11964495		 # 	collision with: 4 3 0 0 0  and 6 3 0 0 0 
11964513		 # 	collision with: 2 2 3 0 0  and 9 4 3 0 0 
11964515		 # 	collision with: 6 4 4 0 0  and 4 5 4 0 0 
11964545		 # 	collision with: 5 8 1 0 0  and 6 8 1 0 0 
11964547		 # 	collision with: 4 9 3 0 0  and 6 2 5 0 0 
11964593		 # 	collision with: 7 3 2 0 0  and 4 4 2 0 0 
11964595		 # 	collision with: 4 3 0 0 0  and 4 5 0 0 0 
11964701		 # 	collision with: 7 3 3 0 0  and 4 5 3 0 0 
11964703		 # 	collision with: 4 3 4 0 0  and 6 3 4 0 0 
11964733		 # 	collision with: 5 8 2 0 0  and 6 8 2 0 0 
11964745		 # 	collision with: 6 3 4 0 0  and 6 5 4 0 0 
11964747		 # 	collision with: 4 3 4 0 0  and 4 5 4 0 0 
11964757		 # 	collision with: 5 8 1 0 0  and 6 8 1 0 0 
11964759		 # 	collision with: 4 3 0 0 0  and 6 3 0 0 0 
11964897		 # 	collision with: 4 4 2 0 0  and 4 5 2 0 0 
11964899		 # 	collision with: 4 3 3 0 0  and 6 3 3 0 0 
11964947		 # 	collision with: 4 3 0 0 0  and 4 5 0 0 0 
11964961		 # 	collision with: 10 2 3 0 0  and 10 4 5 0 0 
11964963		 # 	collision with: 3 8 3 0 0  and 3 6 5 0 0 
11964964		 # 	collision with: 4 7 8 0 0  and 10 0 0 1 0 
11964966		 # 	collision with: 9 7 0 0 0  and 4 1 3 1 0 
11964977		 # 	collision with: 5 0 2 0 0  and 6 1 2 0 0 
11964979		 # 	collision with: 8 9 3 0 0  and 8 8 4 0 0 
11964997		 # 	collision with: 8 10 3 0 0  and 8 8 4 0 0 
11964999		 # 	collision with: 6 10 3 0 0  and 6 8 4 0 0 
11965013		 # 	collision with: 7 3 0 0 0  and 4 4 0 0 0 
11965015		 # 	collision with: 10 2 2 0 0  and 10 3 2 0 0 
11965029		 # 	collision with: 5 8 0 0 0  and 6 8 0 0 0 
11965031		 # 	collision with: 5 0 1 0 0  and 5 2 1 0 0 
11965077		 # 	collision with: 3 8 3 0 0  and 3 7 4 0 0 
11965079		 # 	collision with: 1 0 1 0 0  and 9 1 1 0 0 
11965185		 # 	collision with: 7 3 3 0 0  and 4 4 3 0 0 
11965187		 # 	collision with: 4 3 2 0 0  and 6 4 2 0 0 
11965217		 # 	collision with: 2 10 3 0 0  and 2 0 4 0 0 
11965219		 # 	collision with: 8 6 3 0 0  and 8 0 4 0 0 
11965229		 # 	collision with: 5 8 3 0 0  and 6 8 3 0 0 
11965231		 # 	collision with: 4 3 3 0 0  and 6 4 3 0 0 
11965241		 # 	collision with: 6 0 3 0 0  and 6 8 4 0 0 
11965243		 # 	collision with: 8 9 3 0 0  and 8 9 4 0 0 
11965381		 # 	collision with: 5 8 0 0 0  and 6 8 0 0 0 
11965383		 # 	collision with: 5 0 1 0 0  and 5 2 1 0 0 
11965429		 # 	collision with: 5 0 1 0 0  and 6 1 1 0 0 
11965431		 # 	collision with: 2 5 3 0 0  and 8 6 3 0 0 
11965445		 # 	collision with: 7 3 1 0 0  and 4 5 1 0 0 
11965447		 # 	collision with: 4 3 0 0 0  and 6 3 0 0 0 
11965448		 # 	collision with: 6 7 2 0 0  and 8 1 0 1 0 
11965450		 # 	collision with: 0 8 2 0 0  and 2 4 0 1 0 
11965461		 # 	collision with: 10 2 0 0 0  and 10 4 0 0 0 
11965463		 # 	collision with: 0 1 2 0 0  and 10 6 4 0 0 
11965481		 # 	collision with: 2 2 0 0 0  and 9 4 0 0 0 
11965483		 # 	collision with: 6 4 1 0 0  and 4 5 1 0 0 
11965497		 # 	collision with: 7 0 4 0 0  and 7 2 4 0 0 
11965499		 # 	collision with: 8 2 0 0 0  and 8 4 0 0 0 
11965513		 # 	collision with: 7 0 3 0 0  and 7 2 3 0 0 
11965515		 # 	collision with: 4 3 3 0 0  and 6 3 3 0 0 
11965561		 # 	collision with: 5 8 1 0 0  and 6 8 1 0 0 
11965563		 # 	collision with: 4 3 0 0 0  and 6 3 0 0 0 
11965669		 # 	collision with: 2 2 1 0 0  and 9 4 1 0 0 
11965671		 # 	collision with: 9 1 2 0 0  and 1 0 4 0 0 
11965703		 # 	collision with: 4 3 1 0 0  and 6 3 1 0 0 
11965715		 # 	collision with: 4 3 3 0 0  and 6 3 3 0 0 
11965725		 # 	collision with: 10 2 0 0 0  and 10 4 0 0 0 
11965727		 # 	collision with: 10 3 2 0 0  and 0 7 4 0 0 
11965865		 # 	collision with: 7 0 3 0 0  and 7 2 3 0 0 
11965867		 # 	collision with: 1 0 1 0 0  and 9 1 1 0 0 
11965913		 # 	collision with: 6 7 2 0 0  and 6 1 4 0 0 
11965915		 # 	collision with: 4 3 0 0 0  and 6 3 0 0 0 
11965929		 # 	collision with: 2 3 2 0 0  and 2 3 4 0 0 
11965931		 # 	collision with: 4 3 1 0 0  and 6 3 1 0 0 
11965932		 # 	collision with: 9 6 9 0 0  and 8 0 0 1 0 
11965934		 # 	collision with: 2 5 0 0 0  and 0 2 2 1 0 
11965945		 # 	collision with: 2 4 2 0 0  and 2 6 2 0 0 
11965947		 # 	collision with: 10 2 0 0 0  and 0 3 0 0 0 
11965965		 # 	collision with: 3 3 2 0 0  and 3 1 3 0 0 
11965967		 # 	collision with: 1 3 2 0 0  and 1 1 3 0 0 
11965981		 # 	collision with: 5 1 2 0 0  and 5 2 2 0 0 
11965983		 # 	collision with: 5 0 2 0 0  and 5 0 3 0 0 
11965997		 # 	collision with: 6 0 2 0 0  and 6 0 3 0 0 
11965999		 # 	collision with: 4 3 2 0 0  and 6 3 2 0 0 
11966045		 # 	collision with: 2 4 1 0 0  and 2 6 1 0 0 
11966047		 # 	collision with: 8 0 2 0 0  and 8 0 3 0 0 
11966155		 # 	collision with: 10 2 0 0 0  and 10 3 0 0 0 
11966185		 # 	collision with: 7 3 1 0 0  and 4 5 1 0 0 
11966187		 # 	collision with: 1 0 2 0 0  and 1 0 3 0 0 
11966197		 # 	collision with: 1 2 0 0 0  and 1 3 0 0 0 
11966199		 # 	collision with: 10 2 0 0 0  and 10 3 0 0 0 
11966211		 # 	collision with: 10 2 0 0 0  and 0 3 0 0 0 
11966349		 # 	collision with: 5 8 1 0 0  and 6 8 1 0 0 
11966351		 # 	collision with: 8 2 2 0 0  and 8 4 2 0 0 
11966397		 # 	collision with: 2 4 1 0 0  and 2 6 1 0 0 
11966399		 # 	collision with: 4 3 1 0 0  and 6 3 1 0 0 
11966413		 # 	collision with: 7 3 2 0 0  and 4 4 2 0 0 
11966415		 # 	collision with: 4 3 2 0 0  and 6 3 2 0 0 
11966416		 # 	collision with: 1 8 3 0 0  and 7 10 0 1 0 
11966418		 # 	collision with: 1 6 4 0 0  and 8 8 1 1 0 
11966429		 # 	collision with: 2 2 3 0 0  and 9 4 3 0 0 
11966431		 # 	collision with: 1 1 0 0 0  and 1 3 0 0 0 
11966449		 # 	collision with: 6 6 1 0 0  and 6 2 3 0 0 
11966451		 # 	collision with: 4 6 1 0 0  and 4 2 3 0 0 
11966465		 # 	collision with: 3 1 0 0 0  and 3 3 0 0 0 
11966467		 # 	collision with: 4 3 2 0 0  and 6 3 2 0 0 
11966481		 # 	collision with: 9 4 1 0 0  and 2 2 3 0 0 
11966483		 # 	collision with: 4 3 1 0 0  and 6 3 1 0 0 
11966529		 # 	collision with: 5 8 0 0 0  and 6 8 0 0 0 
11966531		 # 	collision with: 1 1 0 0 0  and 9 3 0 0 0 
11966637		 # 	collision with: 5 8 3 0 0  and 6 8 3 0 0 
11966639		 # 	collision with: 4 3 1 0 0  and 6 3 1 0 0 
11966669		 # 	collision with: 8 4 2 0 0  and 3 6 2 0 0 
11966671		 # 	collision with: 8 1 1 0 0  and 2 2 3 0 0 
11966681		 # 	collision with: 6 6 1 0 0  and 6 2 3 0 0 
11966683		 # 	collision with: 4 6 1 0 0  and 4 2 3 0 0 
11966693		 # 	collision with: 2 1 1 0 0  and 2 1 3 0 0 
11966695		 # 	collision with: 1 1 0 0 0  and 1 3 0 0 0 
11966833		 # 	collision with: 8 6 1 0 0  and 3 2 3 0 0 
11966835		 # 	collision with: 9 8 1 0 0  and 1 1 3 0 0 
11966881		 # 	collision with: 5 8 0 0 0  and 6 8 0 0 0 
11966883		 # 	collision with: 1 1 0 0 0  and 9 3 0 0 0 
11966897		 # 	collision with: 6 1 0 0 0  and 5 3 0 0 0 
11966899		 # 	collision with: 4 3 3 0 0  and 6 3 3 0 0 
11966900		 # 	collision with: 1 1 4 0 0  and 2 9 0 1 0 
11966902		 # 	collision with: 2 4 4 0 0  and 4 5 0 1 0 
11966913		 # 	collision with: 7 8 1 0 0  and 4 1 2 0 0 
11966915		 # 	collision with: 9 8 1 0 0  and 1 1 2 0 0 
11966933		 # 	collision with: 2 2 1 0 0  and 9 4 1 0 0 
11966935		 # 	collision with: 6 4 2 0 0  and 4 5 2 0 0 
11966949		 # 	collision with: 7 10 1 0 0  and 4 5 2 0 0 
11966951		 # 	collision with: 4 3 1 0 0  and 6 3 1 0 0 
11966967		 # 	collision with: 4 3 0 0 0  and 6 3 0 0 0 
11967013		 # 	collision with: 1 1 1 0 0  and 1 1 2 0 0 
11967015		 # 	collision with: 6 1 1 0 0  and 6 1 2 0 0 
11967121		 # 	collision with: 5 1 1 0 0  and 5 2 1 0 0 
11967123		 # 	collision with: 3 1 1 0 0  and 3 2 1 0 0 
11967153		 # 	collision with: 5 8 1 0 0  and 6 8 1 0 0 
11967155		 # 	collision with: 4 8 1 0 0  and 4 0 2 0 0 
11967165		 # 	collision with: 5 1 1 0 0  and 5 2 1 0 0 
11967167		 # 	collision with: 3 1 1 0 0  and 3 2 1 0 0 
11967177		 # 	collision with: 3 2 1 0 0  and 3 2 2 0 0 
11967317		 # 	collision with: 4 5 1 0 0  and 7 3 2 0 0 
11967319		 # 	collision with: 4 3 0 0 0  and 6 3 0 0 0 
11967365		 # 	collision with: 5 8 1 0 0  and 6 8 1 0 0 
11967367		 # 	collision with: 2 7 1 0 0  and 8 1 2 0 0 
11967384		 # 	collision with: 6 4 6 0 0  and 4 1 0 1 0 
11967386		 # 	collision with: 8 8 6 0 0  and 5 0 0 1 0 
11967397		 # 	collision with: 5 8 0 0 0  and 6 8 0 0 0 
11967399		 # 	collision with: 5 10 0 0 0  and 5 3 2 0 0 
11967417		 # 	collision with: 1 10 0 0 0  and 1 6 2 0 0 
11967419		 # 	collision with: 1 8 0 0 0  and 9 0 2 0 0 
11967433		 # 	collision with: 10 4 0 0 0  and 10 2 2 0 0 
11967435		 # 	collision with: 4 3 0 0 0  and 6 3 0 0 0 
11967449		 # 	collision with: 8 6 0 0 0  and 8 1 2 0 0 
11967497		 # 	collision with: 7 0 0 0 0  and 7 2 0 0 0 
11967499		 # 	collision with: 4 8 0 0 0  and 4 0 2 0 0 
11967605		 # 	collision with: 7 0 7 0 0  and 7 2 7 0 0 
11967607		 # 	collision with: 1 8 0 0 0  and 9 0 2 0 0 
11967637		 # 	collision with: 5 8 0 0 0  and 6 0 2 0 0 
11967639		 # 	collision with: 4 10 0 0 0  and 6 2 2 0 0 
11967649		 # 	collision with: 5 8 4 0 0  and 6 8 4 0 0 
11967661		 # 	collision with: 5 8 0 0 0  and 6 8 0 0 0 
11967663		 # 	collision with: 2 3 0 0 0  and 2 3 2 0 0 
11967801		 # 	collision with: 6 7 0 0 0  and 6 1 2 0 0 
11967803		 # 	collision with: 4 8 0 0 0  and 4 0 2 0 0 
11967849		 # 	collision with: 7 0 0 0 0  and 7 2 0 0 0 
11967851		 # 	collision with: 2 5 0 0 0  and 8 0 2 0 0 
11967865		 # 	collision with: 5 8 1 0 0  and 6 8 1 0 0 
11967867		 # 	collision with: 4 2 0 0 0  and 4 2 2 0 0 
11967868		 # 	collision with: 0 5 2 0 0  and 10 7 1 1 0 
11967870		 # 	collision with: 5 5 2 0 0  and 6 8 1 1 0 
11967881		 # 	collision with: 4 4 0 0 0  and 4 5 1 0 0 
11967903		 # 	collision with: 7 0 0 0 0  and 7 1 0 0 0 
11967917		 # 	collision with: 4 1 0 0 0  and 4 1 1 0 0 
11967919		 # 	collision with: 3 1 0 0 0  and 3 1 1 0 0 
11967933		 # 	collision with: 9 0 0 0 0  and 9 1 0 0 0 
11967935		 # 	collision with: 9 7 0 0 0  and 9 4 1 0 0 
11967981		 # 	collision with: 10 2 0 0 0  and 10 2 1 0 0 
11967983		 # 	collision with: 4 2 0 0 0  and 4 2 1 0 0 
11968089		 # 	collision with: 4 1 0 0 0  and 7 8 1 0 0 
11968091		 # 	collision with: 9 0 0 0 0  and 1 8 1 0 0 
11968121		 # 	collision with: 9 7 0 0 0  and 9 7 1 0 0 
11968123		 # 	collision with: 7 0 0 0 0  and 7 1 0 0 0 
11968133		 # 	collision with: 5 4 0 0 0  and 5 10 1 0 0 
11968135		 # 	collision with: 3 4 0 0 0  and 3 10 1 0 0 
11968145		 # 	collision with: 5 4 0 0 0  and 5 4 1 0 0 
11968147		 # 	collision with: 3 4 0 0 0  and 3 4 1 0 0 
11968285		 # 	collision with: 9 0 0 0 0  and 9 1 0 0 0 
11968333		 # 	collision with: 2 2 0 0 0  and 2 2 1 0 0 
11968335		 # 	collision with: 3 2 0 0 0  and 3 2 1 0 0 
11968349		 # 	collision with: 1 0 1 0 0  and 10 2 1 0 0 
11968351		 # 	collision with: 10 2 0 0 0  and 10 3 1 0 0 
11968424		 # 	collision with: 3 1 0 0 0  and 3 3 0 0 0 
11968436		 # 	collision with: 6 3 0 0 0  and 6 5 0 0 0 
11968438		 # 	collision with: 1 1 0 0 0  and 1 3 0 0 0 
11968452		 # 	collision with: 4 4 0 0 0  and 4 5 0 0 0 
11968467		 # 	collision with: 4 5 2 0 0  and 6 5 2 0 0 
11968476		 # 	collision with: 10 2 0 0 0  and 10 4 0 0 0 
11968478		 # 	collision with: 9 5 0 0 0  and 9 6 0 0 0 
11968497		 # 	collision with: 5 8 3 0 0  and 6 8 3 0 0 
11968499		 # 	collision with: 2 9 5 0 0  and 2 0 6 0 0 
11968501		 # 	collision with: 5 8 4 0 0  and 6 8 4 0 0 
11968503		 # 	collision with: 4 5 1 0 0  and 6 5 1 0 0 
11968516		 # 	collision with: 8 3 0 0 0  and 8 4 0 0 0 
11968518		 # 	collision with: 5 0 0 0 0  and 5 2 0 0 0 
11968524		 # 	collision with: 6 3 0 0 0  and 6 5 0 0 0 
11968549		 # 	collision with: 5 8 1 0 0  and 6 8 1 0 0 
11968551		 # 	collision with: 8 2 1 0 0  and 8 4 1 0 0 
11968552		 # 	collision with: 1 2 0 0 0  and 1 3 0 0 0 
11968556		 # 	collision with: 3 1 0 0 0  and 3 3 0 0 0 
11968558		 # 	collision with: 6 3 0 0 0  and 6 4 0 0 0 
11968561		 # 	collision with: 8 1 1 0 0  and 3 2 1 0 0 
11968563		 # 	collision with: 2 4 3 0 0  and 2 5 3 0 0 
11968580		 # 	collision with: 8 4 0 0 0  and 3 6 0 0 0 
11968596		 # 	collision with: 1 2 0 0 0  and 1 3 0 0 0 
11968598		 # 	collision with: 2 4 0 0 0  and 2 5 0 0 0 
11968636		 # 	collision with: 5 1 0 0 0  and 5 2 0 0 0 
11968638		 # 	collision with: 10 2 0 0 0  and 10 3 0 0 0 
11968652		 # 	collision with: 10 2 0 0 0  and 10 4 0 0 0 
11968673		 # 	collision with: 7 3 1 0 0  and 4 5 1 0 0 
11968675		 # 	collision with: 5 5 5 0 0  and 5 5 6 0 0 
11968676		 # 	collision with: 8 1 0 0 0  and 3 2 0 0 0 
11968678		 # 	collision with: 0 1 0 0 0  and 10 2 0 0 0 
11968680		 # 	collision with: 5 1 0 0 0  and 5 2 0 0 0 
11968685		 # 	collision with: 5 8 1 0 0  and 6 8 1 0 0 
11968687		 # 	collision with: 0 1 3 0 0  and 10 3 3 0 0 
11968708		 # 	collision with: 7 0 0 0 0  and 7 2 0 0 0 
11968716		 # 	collision with: 4 4 0 0 0  and 4 5 0 0 0 
11968718		 # 	collision with: 8 2 0 0 0  and 8 4 0 0 0 
11968733		 # 	collision with: 5 8 4 0 0  and 6 8 4 0 0 
11968735		 # 	collision with: 6 2 4 0 0  and 4 3 4 0 0 
11968737		 # 	collision with: 5 8 3 0 0  and 6 8 3 0 0 
11968739		 # 	collision with: 4 5 2 0 0  and 6 5 2 0 0 
11968756		 # 	collision with: 8 4 0 0 0  and 3 6 0 0 0 
11968758		 # 	collision with: 9 3 0 0 0  and 1 4 0 0 0 
11968771		 # 	collision with: 8 2 1 0 0  and 8 4 1 0 0 
11968780		 # 	collision with: 8 3 0 0 0  and 8 4 0 0 0 
11968796		 # 	collision with: 7 0 0 0 0  and 7 2 0 0 0 
11968798		 # 	collision with: 3 1 0 0 0  and 3 2 0 0 0 
11968808		 # 	collision with: 8 1 0 0 0  and 3 2 0 0 0 
11968836		 # 	collision with: 2 7 0 0 0  and 6 6 0 1 0 
11968838		 # 	collision with: 3 2 0 0 0  and 0 0 0 1 0 
11968908		 # 	collision with: 1 0 3 0 0  and 10 2 3 0 0 
11968910		 # 	collision with: 9 5 3 0 0  and 9 6 3 0 0 
11968920		 # 	collision with: 8 3 1 0 0  and 8 4 1 0 0 
11968938		 # 	collision with: 4 5 3 0 0  and 6 5 3 0 0 
11968949		 # 	collision with: 5 8 3 0 0  and 6 8 3 0 0 
11968960		 # 	collision with: 5 8 2 0 0  and 6 8 2 0 0 
11968962		 # 	collision with: 7 0 6 0 0  and 7 1 6 0 0 
11968981		 # 	collision with: 3 1 2 0 0  and 3 3 2 0 0 
11968983		 # 	collision with: 0 1 2 0 0  and 10 3 2 0 0 
11968985		 # 	collision with: 2 4 0 0 0  and 2 6 0 0 0 
11968987		 # 	collision with: 4 3 4 0 0  and 6 2 6 0 0 
11969000		 # 	collision with: 10 4 4 0 0  and 1 5 4 0 0 
11969002		 # 	collision with: 4 5 1 0 0  and 6 5 1 0 0 
11969008		 # 	collision with: 8 3 1 0 0  and 8 4 1 0 0 
11969010		 # 	collision with: 3 1 1 0 0  and 3 2 1 0 0 
11969033		 # 	collision with: 10 2 3 0 0  and 10 4 3 0 0 
11969035		 # 	collision with: 4 5 2 0 0  and 6 5 2 0 0 
11969036		 # 	collision with: 5 8 7 0 0  and 6 8 7 0 0 
11969038		 # 	collision with: 4 5 6 0 0  and 6 5 6 0 0 
11969040		 # 	collision with: 6 1 3 0 0  and 5 3 3 0 0 
11969042		 # 	collision with: 4 5 2 0 0  and 6 5 2 0 0 
11969045		 # 	collision with: 7 0 1 0 0  and 7 2 1 0 0 
11969047		 # 	collision with: 4 5 1 0 0  and 6 5 1 0 0 
11969064		 # 	collision with: 5 8 1 0 0  and 6 8 1 0 0 
11969066		 # 	collision with: 4 5 0 0 0  and 6 5 0 0 0 
11969080		 # 	collision with: 4 4 9 0 0  and 4 5 9 0 0 
11969082		 # 	collision with: 4 5 7 0 0  and 6 5 7 0 0 
11969120		 # 	collision with: 5 0 2 0 0  and 6 1 2 0 0 
11969122		 # 	collision with: 6 3 2 0 0  and 6 4 2 0 0 
11969136		 # 	collision with: 8 3 6 0 0  and 8 4 6 0 0 
11969138		 # 	collision with: 7 0 6 0 0  and 7 1 6 0 0 
11969157		 # 	collision with: 3 1 2 0 0  and 3 3 2 0 0 
11969159		 # 	collision with: 4 5 1 0 0  and 6 5 1 0 0 
11969160		 # 	collision with: 5 8 0 0 0  and 6 8 0 0 0 
11969162		 # 	collision with: 2 4 8 0 0  and 2 5 8 0 0 
11969164		 # 	collision with: 1 2 2 0 0  and 1 3 2 0 0 
11969166		 # 	collision with: 4 5 1 0 0  and 6 5 1 0 0 
11969169		 # 	collision with: 7 3 4 0 0  and 4 5 4 0 0 
11969171		 # 	collision with: 0 1 1 0 0  and 10 3 1 0 0 
11969192		 # 	collision with: 5 8 3 0 0  and 6 8 3 0 0 
11969194		 # 	collision with: 4 5 2 0 0  and 6 5 2 0 0 
11969200		 # 	collision with: 5 8 1 0 0  and 6 8 1 0 0 
11969202		 # 	collision with: 10 2 7 0 0  and 10 3 7 0 0 
11969217		 # 	collision with: 9 0 6 0 0  and 9 1 6 0 0 
11969219		 # 	collision with: 9 3 2 0 0  and 1 4 2 0 0 
11969221		 # 	collision with: 7 0 1 0 0  and 7 2 1 0 0 
11969223		 # 	collision with: 2 1 4 0 0  and 2 1 6 0 0 
11969242		 # 	collision with: 4 5 0 0 0  and 6 5 0 0 0 
11969253		 # 	collision with: 10 2 3 0 0  and 10 4 3 0 0 
11969255		 # 	collision with: 1 2 3 0 0  and 9 4 3 0 0 
11969264		 # 	collision with: 4 4 4 0 0  and 4 5 4 0 0 
11969266		 # 	collision with: 1 1 4 0 0  and 1 3 4 0 0 
11969280		 # 	collision with: 5 8 9 0 0  and 6 8 9 0 0 
11969282		 # 	collision with: 4 5 6 0 0  and 6 5 6 0 0 
11969292		 # 	collision with: 5 8 0 0 0  and 6 8 0 0 0 
11969294		 # 	collision with: 0 1 8 0 0  and 10 2 8 0 0 
11969320		 # 	collision with: 0 2 0 0 0  and 8 7 0 1 0 
11969322		 # 	collision with: 10 0 1 0 0  and 4 7 1 1 0 
11969392		 # 	collision with: 9 0 6 0 0  and 9 1 6 0 0 
11969394		 # 	collision with: 0 1 6 0 0  and 10 2 6 0 0 
11969404		 # 	collision with: 10 2 2 0 0  and 10 4 2 0 0 
11969406		 # 	collision with: 5 0 2 0 0  and 5 2 2 0 0 
11969420		 # 	collision with: 5 0 3 0 0  and 6 1 3 0 0 
11969422		 # 	collision with: 1 1 3 0 0  and 1 3 3 0 0 
11969433		 # 	collision with: 5 1 1 0 0  and 5 2 1 0 0 
11969435		 # 	collision with: 2 4 0 0 0  and 2 5 0 0 0 
11969444		 # 	collision with: 6 3 1 0 0  and 6 5 1 0 0 
11969467		 # 	collision with: 4 5 2 0 0  and 6 5 2 0 0 
11969469		 # 	collision with: 5 0 2 0 0  and 6 1 2 0 0 
11969471		 # 	collision with: 4 5 4 0 0  and 6 5 4 0 0 
11969484		 # 	collision with: 5 8 0 0 0  and 6 8 0 0 0 
11969486		 # 	collision with: 8 2 8 0 0  and 8 4 8 0 0 
11969492		 # 	collision with: 2 2 2 0 0  and 9 4 2 0 0 
11969494		 # 	collision with: 4 5 1 0 0  and 6 5 1 0 0 
11969517		 # 	collision with: 3 1 1 0 0  and 3 3 1 0 0 
11969519		 # 	collision with: 2 4 0 0 0  and 8 5 0 0 0 
11969522		 # 	collision with: 4 5 3 0 0  and 6 5 3 0 0 
11969524		 # 	collision with: 5 8 2 0 0  and 6 8 2 0 0 
11969526		 # 	collision with: 1 1 6 0 0  and 1 3 6 0 0 
11969529		 # 	collision with: 5 8 0 0 0  and 6 8 0 0 0 
11969531		 # 	collision with: 6 6 4 0 0  and 6 1 5 0 0 
11969548		 # 	collision with: 5 8 3 0 0  and 6 8 3 0 0 
11969550		 # 	collision with: 4 5 2 0 0  and 6 5 2 0 0 
11969564		 # 	collision with: 5 8 1 0 0  and 6 8 1 0 0 
11969566		 # 	collision with: 8 2 7 0 0  and 8 4 7 0 0 
11969604		 # 	collision with: 7 3 4 0 0  and 4 4 4 0 0 
11969606		 # 	collision with: 4 5 1 0 0  and 6 5 1 0 0 
11969620		 # 	collision with: 8 1 1 0 0  and 3 2 1 0 0 
11969622		 # 	collision with: 5 0 1 0 0  and 5 2 1 0 0 
11969641		 # 	collision with: 4 4 0 0 0  and 4 5 0 0 0 
11969643		 # 	collision with: 4 5 4 0 0  and 6 5 4 0 0 
11969646		 # 	collision with: 4 5 0 0 0  and 6 5 0 0 0 
11969648		 # 	collision with: 8 3 4 0 0  and 8 4 4 0 0 
11969650		 # 	collision with: 2 4 4 0 0  and 2 5 4 0 0 
11969653		 # 	collision with: 5 1 1 0 0  and 5 2 1 0 0 
11969655		 # 	collision with: 2 4 0 0 0  and 2 5 0 0 0 
11969676		 # 	collision with: 5 8 7 0 0  and 6 8 7 0 0 
11969678		 # 	collision with: 4 5 6 0 0  and 6 5 6 0 0 
11969684		 # 	collision with: 8 1 3 0 0  and 3 2 3 0 0 
11969686		 # 	collision with: 4 5 2 0 0  and 6 5 2 0 0 
11969705		 # 	collision with: 5 8 0 0 0  and 6 8 0 0 0 
11969707		 # 	collision with: 10 4 4 0 0  and 10 1 5 0 0 
11969724		 # 	collision with: 5 8 9 0 0  and 6 8 9 0 0 
11969726		 # 	collision with: 4 5 6 0 0  and 6 5 6 0 0 
11969737		 # 	collision with: 3 1 1 0 0  and 3 3 1 0 0 
11969739		 # 	collision with: 2 4 0 0 0  and 8 5 0 0 0 
11969748		 # 	collision with: 5 8 0 0 0  and 6 8 0 0 0 
11969750		 # 	collision with: 0 1 8 0 0  and 10 3 8 0 0 
11969764		 # 	collision with: 6 3 9 0 0  and 6 5 9 0 0 
11969766		 # 	collision with: 4 5 7 0 0  and 6 5 7 0 0 
11969776		 # 	collision with: 5 8 1 0 0  and 6 8 1 0 0 
11969778		 # 	collision with: 4 5 0 0 0  and 6 5 0 0 0 
11969804		 # 	collision with: 6 1 1 0 0  and 0 6 1 1 0 
11969806		 # 	collision with: 6 5 0 0 0  and 2 8 0 1 0 
11969876		 # 	collision with: 5 8 7 0 0  and 6 8 7 0 0 
11969878		 # 	collision with: 4 5 6 0 0  and 6 5 6 0 0 
11969888		 # 	collision with: 1 2 3 0 0  and 1 3 3 0 0 
11969890		 # 	collision with: 4 5 2 0 0  and 6 5 2 0 0 
11969904		 # 	collision with: 5 8 3 0 0  and 6 8 3 0 0 
11969906		 # 	collision with: 4 5 2 0 0  and 6 5 2 0 0 
11969917		 # 	collision with: 5 8 2 0 0  and 6 8 2 0 0 
11969919		 # 	collision with: 4 10 3 0 0  and 4 10 5 0 0 
11969928		 # 	collision with: 5 8 1 0 0  and 6 8 1 0 0 
11969930		 # 	collision with: 3 1 7 0 0  and 3 2 7 0 0 
11969949		 # 	collision with: 7 3 0 0 0  and 4 5 0 0 0 
11969951		 # 	collision with: 6 3 4 0 0  and 6 4 4 0 0 
11969953		 # 	collision with: 6 1 1 0 0  and 5 3 1 0 0 
11969955		 # 	collision with: 4 3 0 0 0  and 4 5 0 0 0 
11969968		 # 	collision with: 7 0 1 0 0  and 7 2 1 0 0 
11969976		 # 	collision with: 1 0 3 0 0  and 10 2 3 0 0 
11969978		 # 	collision with: 7 0 3 0 0  and 7 1 3 0 0 
69.4741secs	16428
