# prime 11
# degree 2
# input variables 3
# output variables 5
# reload computed balance functions from file balance-1352of3248-p11d2m3-debug.log
# p = 11
# n = 5
# smalldomain p^m 1331
# domain p^n 161051
#	 p^2 = 121
#	 p^3 = 1331
#	 p^4 = 14641
#	 p^5 = 161051
#	 p^6 = 1771561
#	 p^7 = 19487171
#	 p^8 = 214358881
#	 p^9 = 2357947691
opening file : balance-1352of3248-p11d2m3-debug.log
reloading for step2...
8112029		 # 	collision with: 2 8 1 0 0  and 2 2 3 0 0 
8112031		 # 	collision with: 8 1 0 0 0  and 2 3 0 0 0 
8112032		 # 	collision with: 6 2 1 0 0  and 5 3 1 0 0 
8112034		 # 	collision with: 6 3 1 0 0  and 6 4 1 0 0 
8112052		 # 	collision with: 5 9 0 0 0  and 6 9 0 0 0 
8112054		 # 	collision with: 4 8 5 0 0  and 6 8 5 0 0 
8112057		 # 	collision with: 2 1 0 0 0  and 9 3 0 0 0 
8112074		 # 	collision with: 3 1 5 0 0  and 3 2 5 0 0 
8112080		 # 	collision with: 7 0 3 0 0  and 4 1 3 0 0 
8112082		 # 	collision with: 1 1 3 0 0  and 1 3 3 0 0 
8112130		 # 	collision with: 4 8 0 0 0  and 6 8 0 0 0 
8112136		 # 	collision with: 7 0 6 0 0  and 4 1 6 0 0 
8112138		 # 	collision with: 4 8 1 0 0  and 6 8 1 0 0 
8112153		 # 	collision with: 4 1 1 0 0  and 7 0 3 0 0 
8112155		 # 	collision with: 1 1 0 0 0  and 1 3 0 0 0 
8112156		 # 	collision with: 4 4 2 0 0  and 4 5 2 0 0 
8112176		 # 	collision with: 5 9 1 0 0  and 6 9 1 0 0 
8112178		 # 	collision with: 4 8 2 0 0  and 6 8 2 0 0 
8112181		 # 	collision with: 6 7 1 0 0  and 6 7 3 0 0 
8112183		 # 	collision with: 4 8 1 0 0  and 6 8 1 0 0 
8112213		 # 	collision with: 1 9 1 0 0  and 1 9 3 0 0 
8112215		 # 	collision with: 10 2 2 0 0  and 10 3 2 0 0 
8112220		 # 	collision with: 5 9 5 0 0  and 6 9 5 0 0 
8112222		 # 	collision with: 1 1 10 0 0  and 1 3 10 0 0 
8112224		 # 	collision with: 4 1 6 0 0  and 7 2 6 0 0 
8112226		 # 	collision with: 8 5 6 0 0  and 2 6 6 0 0 
8112233		 # 	collision with: 2 1 0 0 0  and 9 3 0 0 0 
8112235		 # 	collision with: 10 2 1 0 0  and 10 3 1 0 0 
8112240		 # 	collision with: 2 4 4 0 0  and 2 6 4 0 0 
8112242		 # 	collision with: 4 8 2 0 0  and 6 8 2 0 0 
8112257		 # 	collision with: 8 7 1 0 0  and 3 5 3 0 0 
8112259		 # 	collision with: 4 8 1 0 0  and 6 8 1 0 0 
8112272		 # 	collision with: 5 9 0 0 0  and 6 9 0 0 0 
8112274		 # 	collision with: 4 8 1 0 0  and 6 8 1 0 0 
8112304		 # 	collision with: 5 9 6 0 0  and 6 9 6 0 0 
8112306		 # 	collision with: 4 8 0 0 0  and 6 8 0 0 0 
8112320		 # 	collision with: 7 0 7 0 0  and 4 1 7 0 0 
8112322		 # 	collision with: 3 1 7 0 0  and 3 2 7 0 0 
8112324		 # 	collision with: 3 3 10 0 0  and 1 6 1 1 0 
8112326		 # 	collision with: 5 2 9 0 0  and 0 4 0 1 0 
8112372		 # 	collision with: 9 0 3 0 0  and 9 1 3 0 0 
8112374		 # 	collision with: 2 4 3 0 0  and 2 5 3 0 0 
8112390		 # 	collision with: 5 0 5 0 0  and 5 2 5 0 0 
8112420		 # 	collision with: 9 0 7 0 0  and 9 1 7 0 0 
8112422		 # 	collision with: 10 2 7 0 0  and 10 3 7 0 0 
8112437		 # 	collision with: 1 1 1 0 0  and 1 1 2 0 0 
8112439		 # 	collision with: 4 8 0 0 0  and 6 8 0 0 0 
8112452		 # 	collision with: 5 9 6 0 0  and 6 9 6 0 0 
8112454		 # 	collision with: 4 8 0 0 0  and 6 8 0 0 0 
8112461		 # 	collision with: 9 6 1 0 0  and 9 6 2 0 0 
8112463		 # 	collision with: 5 0 1 0 0  and 5 2 1 0 0 
8112468		 # 	collision with: 9 2 1 0 0  and 2 4 1 0 0 
8112470		 # 	collision with: 7 0 1 0 0  and 7 1 1 0 0 
8112472		 # 	collision with: 5 9 0 0 0  and 6 9 0 0 0 
8112474		 # 	collision with: 4 8 5 0 0  and 6 8 5 0 0 
8112481		 # 	collision with: 8 1 1 0 0  and 8 1 2 0 0 
8112483		 # 	collision with: 4 8 0 0 0  and 6 8 0 0 0 
8112516		 # 	collision with: 5 9 0 0 0  and 6 9 0 0 0 
8112518		 # 	collision with: 4 8 1 0 0  and 6 8 1 0 0 
8112536		 # 	collision with: 8 3 4 0 0  and 8 4 4 0 0 
8112538		 # 	collision with: 4 8 2 0 0  and 6 8 2 0 0 
8112541		 # 	collision with: 5 1 0 0 0  and 5 2 0 0 0 
8112543		 # 	collision with: 4 1 0 0 0  and 6 2 0 0 0 
8112556		 # 	collision with: 2 1 1 0 0  and 9 3 1 0 0 
8112558		 # 	collision with: 7 0 1 0 0  and 7 1 1 0 0 
8112564		 # 	collision with: 3 1 5 0 0  and 3 3 5 0 0 
8112566		 # 	collision with: 5 0 5 0 0  and 5 2 5 0 0 
8112612		 # 	collision with: 7 0 6 0 0  and 4 1 6 0 0 
8112614		 # 	collision with: 5 0 6 0 0  and 5 2 6 0 0 
8112620		 # 	collision with: 5 9 5 0 0  and 6 9 5 0 0 
8112622		 # 	collision with: 4 8 10 0 0  and 6 8 10 0 0 
8112639		 # 	collision with: 5 0 1 0 0  and 5 2 1 0 0 
8112640		 # 	collision with: 5 9 1 0 0  and 6 9 1 0 0 
8112642		 # 	collision with: 4 8 6 0 0  and 6 8 6 0 0 
8112660		 # 	collision with: 2 4 2 0 0  and 2 6 2 0 0 
8112662		 # 	collision with: 0 0 2 0 0  and 10 1 2 0 0 
8112665		 # 	collision with: 6 8 1 0 0  and 6 0 2 0 0 
8112667		 # 	collision with: 2 9 1 0 0  and 2 0 2 0 0 
8112697		 # 	collision with: 6 10 1 0 0  and 5 5 2 0 0 
8112699		 # 	collision with: 4 8 1 0 0  and 6 8 1 0 0 
8112704		 # 	collision with: 5 0 2 0 0  and 6 2 2 0 0 
8112708		 # 	collision with: 5 9 1 0 0  and 6 9 1 0 0 
8112710		 # 	collision with: 4 8 2 0 0  and 6 8 2 0 0 
8112717		 # 	collision with: 5 1 0 0 0  and 5 2 0 0 0 
8112719		 # 	collision with: 4 1 0 0 0  and 6 2 0 0 0 
8112724		 # 	collision with: 7 0 3 0 0  and 4 1 3 0 0 
8112726		 # 	collision with: 2 4 3 0 0  and 2 5 3 0 0 
8112741		 # 	collision with: 8 4 1 0 0  and 8 3 2 0 0 
8112743		 # 	collision with: 3 4 1 0 0  and 7 5 1 0 0 
8112756		 # 	collision with: 7 0 4 0 0  and 4 1 4 0 0 
8112758		 # 	collision with: 2 4 4 0 0  and 2 5 4 0 0 
8112788		 # 	collision with: 9 4 6 0 0  and 2 5 6 0 0 
8112790		 # 	collision with: 4 8 1 0 0  and 6 8 1 0 0 
8112806		 # 	collision with: 4 8 0 0 0  and 6 8 0 0 0 
8112808		 # 	collision with: 10 0 8 0 0  and 5 7 0 1 0 
8112810		 # 	collision with: 8 0 8 0 0  and 5 2 0 1 0 
8112856		 # 	collision with: 7 0 2 0 0  and 4 1 2 0 0 
8112858		 # 	collision with: 10 2 2 0 0  and 0 4 2 0 0 
8112872		 # 	collision with: 5 9 1 0 0  and 6 9 1 0 0 
8112874		 # 	collision with: 4 8 6 0 0  and 6 8 6 0 0 
8112904		 # 	collision with: 3 1 1 0 0  and 3 3 1 0 0 
8112906		 # 	collision with: 4 3 1 0 0  and 4 5 1 0 0 
8112921		 # 	collision with: 10 0 0 0 0  and 10 0 2 0 0 
8112923		 # 	collision with: 4 0 0 0 0  and 4 0 2 0 0 
8112936		 # 	collision with: 5 9 0 0 0  and 6 9 0 0 0 
8112938		 # 	collision with: 4 8 5 0 0  and 6 8 5 0 0 
8112945		 # 	collision with: 3 0 0 0 0  and 3 0 2 0 0 
8112947		 # 	collision with: 0 0 1 0 0  and 10 1 1 0 0 
8112954		 # 	collision with: 4 8 0 0 0  and 6 8 0 0 0 
8112956		 # 	collision with: 1 2 6 0 0  and 1 3 6 0 0 
8112958		 # 	collision with: 4 8 1 0 0  and 6 8 1 0 0 
8112965		 # 	collision with: 5 9 1 0 0  and 6 9 1 0 0 
8112997		 # 	collision with: 5 0 0 0 0  and 5 0 2 0 0 
8112999		 # 	collision with: 2 0 0 0 0  and 2 0 2 0 0 
8113000		 # 	collision with: 1 2 6 0 0  and 1 3 6 0 0 
8113002		 # 	collision with: 8 2 6 0 0  and 8 4 6 0 0 
8113020		 # 	collision with: 5 9 5 0 0  and 6 9 5 0 0 
8113022		 # 	collision with: 10 2 10 0 0  and 10 3 10 0 0 
8113025		 # 	collision with: 5 9 0 0 0  and 6 9 0 0 0 
8113027		 # 	collision with: 4 8 0 0 0  and 6 8 0 0 0 
8113040		 # 	collision with: 5 9 6 0 0  and 6 9 6 0 0 
8113042		 # 	collision with: 4 8 0 0 0  and 6 8 0 0 0 
8113048		 # 	collision with: 7 0 7 0 0  and 7 2 7 0 0 
8113050		 # 	collision with: 9 5 7 0 0  and 9 6 7 0 0 
8113096		 # 	collision with: 7 0 4 0 0  and 7 2 4 0 0 
8113098		 # 	collision with: 4 1 4 0 0  and 6 2 4 0 0 
8113104		 # 	collision with: 5 9 3 0 0  and 6 9 3 0 0 
8113106		 # 	collision with: 0 0 3 0 0  and 10 1 3 0 0 
8113121		 # 	collision with: 6 0 0 0 0  and 6 0 2 0 0 
8113123		 # 	collision with: 5 2 0 0 0  and 5 0 2 0 0 
8113124		 # 	collision with: 3 1 1 0 0  and 3 3 1 0 0 
8113126		 # 	collision with: 4 3 1 0 0  and 4 5 1 0 0 
8113144		 # 	collision with: 9 0 5 0 0  and 9 1 5 0 0 
8113146		 # 	collision with: 8 1 5 0 0  and 2 3 5 0 0 
8113149		 # 	collision with: 5 9 1 0 0  and 6 9 1 0 0 
8113151		 # 	collision with: 9 0 0 0 0  and 9 0 2 0 0 
8113181		 # 	collision with: 6 3 1 0 0  and 6 5 1 0 0 
8113183		 # 	collision with: 4 8 5 0 0  and 6 8 5 0 0 
8113190		 # 	collision with: 4 3 5 0 0  and 4 5 5 0 0 
8113192		 # 	collision with: 5 0 3 0 0  and 6 2 3 0 0 
8113194		 # 	collision with: 4 8 6 0 0  and 6 8 6 0 0 
8113201		 # 	collision with: 5 9 0 0 0  and 6 9 0 0 0 
8113203		 # 	collision with: 4 8 0 0 0  and 6 8 0 0 0 
8113208		 # 	collision with: 5 1 2 0 0  and 5 2 2 0 0 
8113225		 # 	collision with: 6 3 1 0 0  and 6 5 1 0 0 
8113227		 # 	collision with: 7 0 0 0 0  and 7 0 2 0 0 
8113240		 # 	collision with: 5 9 1 0 0  and 6 9 1 0 0 
8113242		 # 	collision with: 4 8 2 0 0  and 6 8 2 0 0 
8113272		 # 	collision with: 7 0 4 0 0  and 7 2 4 0 0 
8113274		 # 	collision with: 4 8 2 0 0  and 6 8 2 0 0 
8113288		 # 	collision with: 5 9 0 0 0  and 6 9 0 0 0 
8113290		 # 	collision with: 4 8 1 0 0  and 6 8 1 0 0 
8113292		 # 	collision with: 0 0 5 0 0  and 1 3 0 1 0 
8113294		 # 	collision with: 5 9 8 0 0  and 4 2 3 1 0 
8113340		 # 	collision with: 1 2 1 0 0  and 1 3 1 0 0 
8113342		 # 	collision with: 0 0 1 0 0  and 10 1 1 0 0 
8113356		 # 	collision with: 5 9 0 0 0  and 6 9 0 0 0 
8113358		 # 	collision with: 4 8 5 0 0  and 6 8 5 0 0 
8113388		 # 	collision with: 8 3 6 0 0  and 8 4 6 0 0 
8113390		 # 	collision with: 8 1 6 0 0  and 2 3 6 0 0 
8113405		 # 	collision with: 7 0 0 0 0  and 4 1 0 0 0 
8113407		 # 	collision with: 9 7 0 0 0  and 9 4 1 0 0 
8113420		 # 	collision with: 5 9 5 0 0  and 6 9 5 0 0 
8113422		 # 	collision with: 5 0 10 0 0  and 5 2 10 0 0 
8113429		 # 	collision with: 8 5 0 0 0  and 8 5 1 0 0 
8113431		 # 	collision with: 4 5 0 0 0  and 4 5 1 0 0 
8113436		 # 	collision with: 5 1 4 0 0  and 5 2 4 0 0 
8113438		 # 	collision with: 4 3 4 0 0  and 4 5 4 0 0 
8113440		 # 	collision with: 2 4 3 0 0  and 2 6 3 0 0 
8113442		 # 	collision with: 8 1 3 0 0  and 2 3 3 0 0 
8113451		 # 	collision with: 10 4 0 0 0  and 10 1 1 0 0 
8113481		 # 	collision with: 9 0 0 0 0  and 9 1 0 0 0 
8113483		 # 	collision with: 4 8 0 0 0  and 6 8 0 0 0 
8113484		 # 	collision with: 2 4 3 0 0  and 2 6 3 0 0 
8113486		 # 	collision with: 4 1 3 0 0  and 6 2 3 0 0 
8113506		 # 	collision with: 7 0 5 0 0  and 7 1 5 0 0 
8113509		 # 	collision with: 10 6 0 0 0  and 10 6 1 0 0 
8113511		 # 	collision with: 7 6 0 0 0  and 7 6 1 0 0 
8113524		 # 	collision with: 5 1 4 0 0  and 5 2 4 0 0 
8113526		 # 	collision with: 4 8 2 0 0  and 6 8 2 0 0 
8113532		 # 	collision with: 5 9 0 0 0  and 6 9 0 0 0 
8113534		 # 	collision with: 4 8 1 0 0  and 6 8 1 0 0 
8113580		 # 	collision with: 4 1 2 0 0  and 7 2 2 0 0 
8113582		 # 	collision with: 10 3 2 0 0  and 0 4 2 0 0 
8113588		 # 	collision with: 5 9 1 0 0  and 6 9 1 0 0 
8113590		 # 	collision with: 4 8 6 0 0  and 6 8 6 0 0 
8113605		 # 	collision with: 7 1 0 0 0  and 4 4 1 0 0 
8113607		 # 	collision with: 8 3 0 0 0  and 2 0 1 0 0 
8113608		 # 	collision with: 2 1 6 0 0  and 9 3 6 0 0 
8113610		 # 	collision with: 4 8 1 0 0  and 6 8 1 0 0 
8113630		 # 	collision with: 4 8 0 0 0  and 6 8 0 0 0 
8113633		 # 	collision with: 5 3 0 0 0  and 5 0 1 0 0 
8113635		 # 	collision with: 0 0 0 0 0  and 10 1 0 0 0 
8113665		 # 	collision with: 5 9 0 0 0  and 6 9 0 0 0 
8113667		 # 	collision with: 10 1 0 0 0  and 10 1 1 0 0 
8113672		 # 	collision with: 5 9 6 0 0  and 6 9 6 0 0 
8113674		 # 	collision with: 4 8 0 0 0  and 6 8 0 0 0 
8113676		 # 	collision with: 9 2 7 0 0  and 2 4 7 0 0 
8113678		 # 	collision with: 8 1 7 0 0  and 2 3 7 0 0 
8113687		 # 	collision with: 8 5 0 0 0  and 2 3 1 0 0 
8113692		 # 	collision with: 1 2 1 0 0  and 1 3 1 0 0 
8113694		 # 	collision with: 5 0 1 0 0  and 5 2 1 0 0 
8113709		 # 	collision with: 5 9 0 0 0  and 6 9 0 0 0 
8113724		 # 	collision with: 2 4 5 0 0  and 2 6 5 0 0 
8113726		 # 	collision with: 7 0 5 0 0  and 7 1 5 0 0 
8113756		 # 	collision with: 1 2 2 0 0  and 1 3 2 0 0 
8113772		 # 	collision with: 5 9 1 0 0  and 6 9 1 0 0 
8113774		 # 	collision with: 4 8 2 0 0  and 6 8 2 0 0 
8113852		 # 	collision with: 4 1 0 0 0  and 7 2 0 0 0 
8113854		 # 	collision with: 1 1 0 0 0  and 1 3 0 0 0 
8113856		 # 	collision with: 9 0 0 0 0  and 9 1 0 0 0 
8113858		 # 	collision with: 10 2 0 0 0  and 10 3 0 0 0 
8113884		 # 	collision with: 5 1 0 0 0  and 5 2 0 0 0 
8113886		 # 	collision with: 10 1 0 0 0  and 0 3 0 0 0 
8113891		 # 	collision with: 9 5 0 0 0  and 9 6 0 0 0 
8113892		 # 	collision with: 5 0 0 0 0  and 6 2 0 0 0 
8113894		 # 	collision with: 4 3 0 0 0  and 4 5 0 0 0 
8113909		 # 	collision with: 5 9 0 0 0  and 6 9 0 0 0 
8113911		 # 	collision with: 3 5 2 0 0  and 7 6 2 0 0 
8113916		 # 	collision with: 1 2 0 0 0  and 1 3 0 0 0 
8113918		 # 	collision with: 8 0 0 0 0  and 2 1 0 0 0 
8113928		 # 	collision with: 5 1 0 0 0  and 5 2 0 0 0 
8113930		 # 	collision with: 10 1 0 0 0  and 0 3 0 0 0 
8113937		 # 	collision with: 5 9 1 0 0  and 6 9 1 0 0 
8113939		 # 	collision with: 2 4 5 0 0  and 2 5 5 0 0 
8113964		 # 	collision with: 9 2 0 0 0  and 2 4 0 0 0 
8113966		 # 	collision with: 3 3 0 0 0  and 7 5 0 0 0 
8113977		 # 	collision with: 5 9 3 0 0  and 6 9 3 0 0 
8113981		 # 	collision with: 9 0 3 0 0  and 9 1 3 0 0 
8113983		 # 	collision with: 4 10 2 0 0  and 6 10 2 0 0 
8113992		 # 	collision with: 3 1 0 0 0  and 3 3 0 0 0 
8113994		 # 	collision with: 7 0 0 0 0  and 7 1 0 0 0 
8114000		 # 	collision with: 7 0 0 0 0  and 4 1 0 0 0 
8114002		 # 	collision with: 3 1 0 0 0  and 3 2 0 0 0 
8114024		 # 	collision with: 5 0 0 0 0  and 6 2 0 0 0 
8114026		 # 	collision with: 4 3 0 0 0  and 4 5 0 0 0 
8114056		 # 	collision with: 10 2 0 0 0  and 10 4 0 0 0 
8114058		 # 	collision with: 5 0 0 0 0  and 5 2 0 0 0 
8114080		 # 	collision with: 3 1 0 0 0  and 3 3 0 0 0 
8114082		 # 	collision with: 7 0 0 0 0  and 7 1 0 0 0 
8114088		 # 	collision with: 7 0 0 0 0  and 4 1 0 0 0 
8114090		 # 	collision with: 3 1 0 0 0  and 3 2 0 0 0 
8114101		 # 	collision with: 10 5 5 0 0  and 10 1 6 0 0 
8114103		 # 	collision with: 7 10 5 0 0  and 3 4 6 0 0 
8114105		 # 	collision with: 5 9 3 0 0  and 6 9 3 0 0 
8114116		 # 	collision with: 4 1 0 0 0  and 7 2 0 0 0 
8114118		 # 	collision with: 1 1 0 0 0  and 1 3 0 0 0 
8114129		 # 	collision with: 5 9 0 0 0  and 6 9 0 0 0 
8114131		 # 	collision with: 3 5 5 0 0  and 7 6 5 0 0 
8114145		 # 	collision with: 5 9 1 0 0  and 6 9 1 0 0 
8114147		 # 	collision with: 4 10 2 0 0  and 6 10 2 0 0 
8114152		 # 	collision with: 7 0 0 0 0  and 7 2 0 0 0 
8114154		 # 	collision with: 1 1 0 0 0  and 9 2 0 0 0 
8114164		 # 	collision with: 9 0 0 0 0  and 9 1 0 0 0 
8114166		 # 	collision with: 10 2 0 0 0  and 10 3 0 0 0 
8114188		 # 	collision with: 10 2 0 0 0  and 10 4 0 0 0 
8114190		 # 	collision with: 5 0 0 0 0  and 5 2 0 0 0 
8114195		 # 	collision with: 3 5 0 0 0  and 7 6 0 0 0 
8114196		 # 	collision with: 7 0 0 0 0  and 7 2 0 0 0 
8114198		 # 	collision with: 1 1 0 0 0  and 9 2 0 0 0 
8114224		 # 	collision with: 1 2 0 0 0  and 1 3 0 0 0 
8114226		 # 	collision with: 8 0 0 0 0  and 2 1 0 0 0 
8114228		 # 	collision with: 9 2 0 0 0  and 2 4 0 0 0 
8114230		 # 	collision with: 3 3 0 0 0  and 7 5 0 0 0 
8114260		 # 	collision with: 9 8 7 0 0  and 5 0 0 1 0 
8114262		 # 	collision with: 6 5 7 0 0  and 5 7 0 1 0 
8114338		 # 	collision with: 5 0 4 0 0  and 5 2 4 0 0 
8114340		 # 	collision with: 3 1 6 0 0  and 3 3 6 0 0 
8114342		 # 	collision with: 1 1 6 0 0  and 9 2 6 0 0 
8114368		 # 	collision with: 10 2 2 0 0  and 10 4 2 0 0 
8114370		 # 	collision with: 2 4 2 0 0  and 2 5 2 0 0 
8114373		 # 	collision with: 5 9 0 0 0  and 6 9 0 0 0 
8114376		 # 	collision with: 5 9 1 0 0  and 6 9 1 0 0 
8114378		 # 	collision with: 5 0 3 0 0  and 5 2 3 0 0 
8114393		 # 	collision with: 6 4 0 0 0  and 5 6 0 0 0 
8114395		 # 	collision with: 4 10 0 0 0  and 6 10 0 0 0 
8114400		 # 	collision with: 5 9 1 0 0  and 6 9 1 0 0 
8114412		 # 	collision with: 10 2 2 0 0  and 10 4 2 0 0 
8114414		 # 	collision with: 9 2 2 0 0  and 1 3 2 0 0 
8114421		 # 	collision with: 6 3 5 0 0  and 6 5 5 0 0 
8114423		 # 	collision with: 2 9 4 0 0  and 2 0 6 0 0 
8114448		 # 	collision with: 5 9 4 0 0  and 6 9 4 0 0 
8114450		 # 	collision with: 4 10 6 0 0  and 6 10 6 0 0 
8114463		 # 	collision with: 4 4 0 0 0  and 6 6 0 0 0 
8114465		 # 	collision with: 4 1 1 0 0  and 7 2 1 0 0 
8114467		 # 	collision with: 1 1 1 0 0  and 9 2 1 0 0 
8114476		 # 	collision with: 10 2 1 0 0  and 10 4 1 0 0 
8114478		 # 	collision with: 3 1 1 0 0  and 3 2 1 0 0 
8114484		 # 	collision with: 5 9 9 0 0  and 6 9 9 0 0 
8114486		 # 	collision with: 4 10 0 0 0  and 6 10 0 0 0 
8114508		 # 	collision with: 9 0 3 0 0  and 9 1 3 0 0 
8114510		 # 	collision with: 5 0 3 0 0  and 5 2 3 0 0 
8114540		 # 	collision with: 5 9 3 0 0  and 6 9 3 0 0 
8114542		 # 	collision with: 4 10 6 0 0  and 6 10 6 0 0 
8114564		 # 	collision with: 5 0 1 0 0  and 6 2 1 0 0 
8114566		 # 	collision with: 3 1 1 0 0  and 3 2 1 0 0 
8114572		 # 	collision with: 5 9 8 0 0  and 6 9 8 0 0 
8114574		 # 	collision with: 4 10 0 0 0  and 6 10 0 0 0 
8114587		 # 	collision with: 8 0 5 0 0  and 2 1 5 0 0 
8114589		 # 	collision with: 6 2 1 0 0  and 5 3 1 0 0 
8114591		 # 	collision with: 7 0 4 0 0  and 7 1 4 0 0 
8114600		 # 	collision with: 6 3 4 0 0  and 6 5 4 0 0 
8114613		 # 	collision with: 6 4 0 0 0  and 5 6 0 0 0 
8114615		 # 	collision with: 4 10 0 0 0  and 6 10 0 0 0 
8114629		 # 	collision with: 5 9 5 0 0  and 6 9 5 0 0 
8114636		 # 	collision with: 5 9 0 0 0  and 6 9 0 0 0 
8114638		 # 	collision with: 4 10 2 0 0  and 6 10 2 0 0 
8114648		 # 	collision with: 3 1 6 0 0  and 3 3 6 0 0 
8114650		 # 	collision with: 4 10 1 0 0  and 6 10 1 0 0 
8114672		 # 	collision with: 5 9 2 0 0  and 6 9 2 0 0 
8114674		 # 	collision with: 4 10 4 0 0  and 6 10 4 0 0 
8114677		 # 	collision with: 5 9 1 0 0  and 6 9 1 0 0 
8114679		 # 	collision with: 9 2 1 0 0  and 1 3 1 0 0 
8114680		 # 	collision with: 5 9 0 0 0  and 6 9 0 0 0 
8114682		 # 	collision with: 4 10 3 0 0  and 6 10 3 0 0 
8114710		 # 	collision with: 3 1 5 0 0  and 3 2 5 0 0 
8114712		 # 	collision with: 5 9 6 0 0  and 6 9 6 0 0 
8114714		 # 	collision with: 7 2 7 0 0  and 3 4 7 0 0 
8114744		 # 	collision with: 5 8 9 0 0  and 10 2 0 1 0 
8114746		 # 	collision with: 5 3 10 0 0  and 2 9 1 1 0 
8114820		 # 	collision with: 5 9 3 0 0  and 6 9 3 0 0 
8114822		 # 	collision with: 4 10 6 0 0  and 6 10 6 0 0 
8114824		 # 	collision with: 2 1 1 0 0  and 9 3 1 0 0 
8114826		 # 	collision with: 9 5 1 0 0  and 9 6 1 0 0 
8114854		 # 	collision with: 7 0 4 0 0  and 7 1 4 0 0 
8114857		 # 	collision with: 5 1 1 0 0  and 5 2 1 0 0 
8114859		 # 	collision with: 6 0 4 0 0  and 6 0 5 0 0 
8114860		 # 	collision with: 9 2 6 0 0  and 2 4 6 0 0 
8114862		 # 	collision with: 1 1 6 0 0  and 9 2 6 0 0 
8114877		 # 	collision with: 4 4 0 0 0  and 4 5 0 0 0 
8114879		 # 	collision with: 2 4 0 0 0  and 2 5 0 0 0 
8114884		 # 	collision with: 5 9 8 0 0  and 6 9 8 0 0 
8114886		 # 	collision with: 4 10 0 0 0  and 6 10 0 0 0 
8114896		 # 	collision with: 4 4 4 0 0  and 4 5 4 0 0 
8114905		 # 	collision with: 5 9 4 0 0  and 6 9 4 0 0 
8114907		 # 	collision with: 4 10 2 0 0  and 6 10 2 0 0 
8114932		 # 	collision with: 5 9 1 0 0  and 6 9 1 0 0 
8114934		 # 	collision with: 4 10 3 0 0  and 6 10 3 0 0 
8114945		 # 	collision with: 5 1 1 0 0  and 5 2 1 0 0 
8114947		 # 	collision with: 4 10 4 0 0  and 6 10 4 0 0 
8114949		 # 	collision with: 5 9 3 0 0  and 6 9 3 0 0 
8114951		 # 	collision with: 3 0 4 0 0  and 3 0 5 0 0 
8114960		 # 	collision with: 6 3 2 0 0  and 6 5 2 0 0 
8114962		 # 	collision with: 9 2 2 0 0  and 1 3 2 0 0 
8114968		 # 	collision with: 5 9 0 0 0  and 6 9 0 0 0 
8114970		 # 	collision with: 4 10 2 0 0  and 6 10 2 0 0 
8114992		 # 	collision with: 10 2 6 0 0  and 10 4 6 0 0 
8114994		 # 	collision with: 4 10 1 0 0  and 6 10 1 0 0 
8115024		 # 	collision with: 5 9 1 0 0  and 6 9 1 0 0 
8115048		 # 	collision with: 6 3 2 0 0  and 6 5 2 0 0 
8115050		 # 	collision with: 10 2 2 0 0  and 10 3 2 0 0 
8115056		 # 	collision with: 5 9 0 0 0  and 6 9 0 0 0 
8115058		 # 	collision with: 4 10 3 0 0  and 6 10 3 0 0 
8115069		 # 	collision with: 9 0 2 0 0  and 9 1 2 0 0 
8115071		 # 	collision with: 10 2 1 0 0  and 10 3 1 0 0 
8115073		 # 	collision with: 5 0 4 0 0  and 5 0 5 0 0 
8115075		 # 	collision with: 10 2 3 0 0  and 10 3 3 0 0 
8115084		 # 	collision with: 5 9 2 0 0  and 6 9 2 0 0 
8115086		 # 	collision with: 4 10 4 0 0  and 6 10 4 0 0 
8115097		 # 	collision with: 4 4 0 0 0  and 4 5 0 0 0 
8115099		 # 	collision with: 2 4 0 0 0  and 2 5 0 0 0 
8115113		 # 	collision with: 9 0 2 0 0  and 9 1 2 0 0 
8115115		 # 	collision with: 10 2 1 0 0  and 10 3 1 0 0 
8115120		 # 	collision with: 5 9 4 0 0  and 6 9 4 0 0 
8115122		 # 	collision with: 4 10 6 0 0  and 6 10 6 0 0 
8115132		 # 	collision with: 8 3 1 0 0  and 8 4 1 0 0 
8115134		 # 	collision with: 9 5 1 0 0  and 9 6 1 0 0 
8115158		 # 	collision with: 8 2 5 0 0  and 8 4 5 0 0 
8115161		 # 	collision with: 2 1 1 0 0  and 9 3 1 0 0 
8115163		 # 	collision with: 10 1 1 0 0  and 0 3 1 0 0 
8115164		 # 	collision with: 5 9 6 0 0  and 6 9 6 0 0 
8115166		 # 	collision with: 6 3 7 0 0  and 6 4 7 0 0 
8115192		 # 	collision with: 5 9 9 0 0  and 6 9 9 0 0 
8115194		 # 	collision with: 4 10 0 0 0  and 6 10 0 0 0 
8115196		 # 	collision with: 2 1 3 0 0  and 9 3 3 0 0 
8115198		 # 	collision with: 10 1 3 0 0  and 0 3 3 0 0 
8115228		 # 	collision with: 1 2 7 0 0  and 8 6 1 1 0 
8115230		 # 	collision with: 3 0 6 0 0  and 6 0 0 1 0 
8115304		 # 	collision with: 7 0 1 0 0  and 4 1 1 0 0 
8115306		 # 	collision with: 2 4 1 0 0  and 2 5 1 0 0 
8115308		 # 	collision with: 5 9 4 0 0  and 6 9 4 0 0 
8115310		 # 	collision with: 4 10 6 0 0  and 6 10 6 0 0 
8115336		 # 	collision with: 9 0 6 0 0  and 9 1 6 0 0 
8115338		 # 	collision with: 4 10 1 0 0  and 6 10 1 0 0 
8115341		 # 	collision with: 7 0 3 0 0  and 4 1 3 0 0 
8115343		 # 	collision with: 4 10 2 0 0  and 6 10 2 0 0 
8115344		 # 	collision with: 5 9 0 0 0  and 6 9 0 0 0 
8115346		 # 	collision with: 4 10 2 0 0  and 6 10 2 0 0 
8115361		 # 	collision with: 6 3 1 0 0  and 6 5 1 0 0 
8115363		 # 	collision with: 4 3 1 0 0  and 4 5 1 0 0 
8115370		 # 	collision with: 8 0 4 0 0  and 2 1 4 0 0 
8115380		 # 	collision with: 7 0 6 0 0  and 4 1 6 0 0 
8115382		 # 	collision with: 1 1 6 0 0  and 9 2 6 0 0 
8115389		 # 	collision with: 5 9 0 0 0  and 6 9 0 0 0 
8115391		 # 	collision with: 4 3 0 0 0  and 4 5 0 0 0 
8115416		 # 	collision with: 5 9 9 0 0  and 6 9 9 0 0 
8115418		 # 	collision with: 4 10 0 0 0  and 6 10 0 0 0 
8115429		 # 	collision with: 10 2 4 0 0  and 10 4 4 0 0 
8115431		 # 	collision with: 4 10 1 0 0  and 6 10 1 0 0 
8115433		 # 	collision with: 5 9 0 0 0  and 6 9 0 0 0 
8115435		 # 	collision with: 4 3 0 0 0  and 4 5 0 0 0 
8115444		 # 	collision with: 2 4 3 0 0  and 2 6 3 0 0 
8115446		 # 	collision with: 6 3 3 0 0  and 6 4 3 0 0 
8115452		 # 	collision with: 5 9 2 0 0  and 6 9 2 0 0 
8115454		 # 	collision with: 4 10 4 0 0  and 6 10 4 0 0 
8115476		 # 	collision with: 5 9 0 0 0  and 6 9 0 0 0 
8115478		 # 	collision with: 4 10 3 0 0  and 6 10 3 0 0 
8115508		 # 	collision with: 9 0 2 0 0  and 9 1 2 0 0 
8115510		 # 	collision with: 4 3 2 0 0  and 4 5 2 0 0 
8115532		 # 	collision with: 5 9 1 0 0  and 6 9 1 0 0 
8115534		 # 	collision with: 6 3 3 0 0  and 6 4 3 0 0 
8115540		 # 	collision with: 5 9 3 0 0  and 6 9 3 0 0 
8115542		 # 	collision with: 4 10 6 0 0  and 6 10 6 0 0 
8115553		 # 	collision with: 4 1 4 0 0  and 7 2 4 0 0 
8115555		 # 	collision with: 0 3 3 0 0  and 10 4 3 0 0 
8115557		 # 	collision with: 5 9 1 0 0  and 6 9 1 0 0 
8115559		 # 	collision with: 2 4 2 0 0  and 2 5 2 0 0 
8115568		 # 	collision with: 3 1 1 0 0  and 3 3 1 0 0 
8115570		 # 	collision with: 2 4 1 0 0  and 2 5 1 0 0 
8115581		 # 	collision with: 10 3 1 0 0  and 1 5 1 0 0 
8115583		 # 	collision with: 4 3 1 0 0  and 4 5 1 0 0 
8115597		 # 	collision with: 5 9 2 0 0  and 6 9 2 0 0 
8115599		 # 	collision with: 4 10 3 0 0  and 6 10 3 0 0 
8115606		 # 	collision with: 8 0 5 0 0  and 2 1 5 0 0 
8115616		 # 	collision with: 5 9 6 0 0  and 6 9 6 0 0 
8115618		 # 	collision with: 3 1 7 0 0  and 3 2 7 0 0 
8115640		 # 	collision with: 9 0 2 0 0  and 9 1 2 0 0 
8115642		 # 	collision with: 8 0 2 0 0  and 2 1 2 0 0 
8115645		 # 	collision with: 5 9 2 0 0  and 6 9 2 0 0 
8115647		 # 	collision with: 1 1 1 0 0  and 9 2 1 0 0 
8115648		 # 	collision with: 5 9 1 0 0  and 6 9 1 0 0 
8115676		 # 	collision with: 3 1 4 0 0  and 3 3 4 0 0 
8115680		 # 	collision with: 5 9 8 0 0  and 6 9 8 0 0 
8115682		 # 	collision with: 4 10 0 0 0  and 6 10 0 0 0 
8115712		 # 	collision with: 3 8 10 0 0  and 4 9 0 1 0 
8115714		 # 	collision with: 9 5 1 0 0  and 6 5 2 1 0 
8115788		 # 	collision with: 5 9 1 0 0  and 6 9 1 0 0 
8115792		 # 	collision with: 7 0 2 0 0  and 7 2 2 0 0 
8115794		 # 	collision with: 8 2 2 0 0  and 8 4 2 0 0 
8115820		 # 	collision with: 5 9 3 0 0  and 6 9 3 0 0 
8115822		 # 	collision with: 4 10 6 0 0  and 6 10 6 0 0 
8115825		 # 	collision with: 7 2 3 0 0  and 7 2 4 0 0 
8115827		 # 	collision with: 7 0 1 0 0  and 7 1 1 0 0 
8115828		 # 	collision with: 1 2 1 0 0  and 1 3 1 0 0 
8115830		 # 	collision with: 8 2 1 0 0  and 8 4 1 0 0 
8115845		 # 	collision with: 8 3 2 0 0  and 8 4 2 0 0 
8115852		 # 	collision with: 5 9 0 0 0  and 6 9 0 0 0 
8115854		 # 	collision with: 4 10 3 0 0  and 6 10 3 0 0 
8115864		 # 	collision with: 5 9 2 0 0  and 6 9 2 0 0 
8115866		 # 	collision with: 4 10 4 0 0  and 6 10 4 0 0 
8115875		 # 	collision with: 3 5 1 0 0  and 7 6 1 0 0 
8115900		 # 	collision with: 5 9 6 0 0  and 6 9 6 0 0 
8115902		 # 	collision with: 1 1 6 0 0  and 9 2 6 0 0 
8115913		 # 	collision with: 5 9 2 0 0  and 6 9 2 0 0 
8115915		 # 	collision with: 7 0 1 0 0  and 7 1 1 0 0 
8115917		 # 	collision with: 8 3 0 0 0  and 8 4 0 0 0 
8115930		 # 	collision with: 7 2 4 0 0  and 3 4 4 0 0 
8115936		 # 	collision with: 5 9 4 0 0  and 6 9 4 0 0 
8115938		 # 	collision with: 4 10 6 0 0  and 6 10 6 0 0 
8115960		 # 	collision with: 1 2 1 0 0  and 1 3 1 0 0 
8115962		 # 	collision with: 8 2 1 0 0  and 8 4 1 0 0 
8115992		 # 	collision with: 5 9 8 0 0  and 6 9 8 0 0 
8115994		 # 	collision with: 4 10 0 0 0  and 6 10 0 0 0 
8116016		 # 	collision with: 9 0 4 0 0  and 9 1 4 0 0 
8116024		 # 	collision with: 5 9 6 0 0  and 6 9 6 0 0 
8116026		 # 	collision with: 2 4 7 0 0  and 2 5 7 0 0 
8116037		 # 	collision with: 5 0 4 0 0  and 6 2 4 0 0 
8116039		 # 	collision with: 1 3 3 0 0  and 1 3 4 0 0 
8116041		 # 	collision with: 10 3 2 0 0  and 1 5 2 0 0 
8116043		 # 	collision with: 5 0 1 0 0  and 5 2 1 0 0 
8116054		 # 	collision with: 6 3 5 0 0  and 6 4 5 0 0 
8116067		 # 	collision with: 4 10 1 0 0  and 6 10 1 0 0 
8116081		 # 	collision with: 1 3 3 0 0  and 1 3 4 0 0 
8116083		 # 	collision with: 4 4 2 0 0  and 6 6 2 0 0 
8116088		 # 	collision with: 5 9 1 0 0  and 6 9 1 0 0 
8116090		 # 	collision with: 3 1 3 0 0  and 3 2 3 0 0 
8116100		 # 	collision with: 7 0 2 0 0  and 7 2 2 0 0 
8116102		 # 	collision with: 7 2 2 0 0  and 3 4 2 0 0 
8116124		 # 	collision with: 5 9 9 0 0  and 6 9 9 0 0 
8116126		 # 	collision with: 4 10 0 0 0  and 6 10 0 0 0 
8116129		 # 	collision with: 4 4 4 0 0  and 4 5 4 0 0 
8116131		 # 	collision with: 5 0 1 0 0  and 5 2 1 0 0 
8116132		 # 	collision with: 7 0 3 0 0  and 4 1 3 0 0 
8116134		 # 	collision with: 3 1 3 0 0  and 3 2 3 0 0 
8116160		 # 	collision with: 5 9 0 0 0  and 6 9 0 0 0 
8116162		 # 	collision with: 4 10 2 0 0  and 6 10 2 0 0 
8116164		 # 	collision with: 5 0 6 0 0  and 6 2 6 0 0 
8116166		 # 	collision with: 4 10 1 0 0  and 6 10 1 0 0 
8116196		 # 	collision with: 8 3 9 0 0  and 2 9 1 1 0 
8116198		 # 	collision with: 9 1 8 0 0  and 5 2 0 1 0 
8116272		 # 	collision with: 5 9 0 0 0  and 6 9 0 0 0 
8116274		 # 	collision with: 4 10 3 0 0  and 6 10 3 0 0 
8116276		 # 	collision with: 5 9 2 0 0  and 6 9 2 0 0 
8116278		 # 	collision with: 4 10 4 0 0  and 6 10 4 0 0 
8116304		 # 	collision with: 5 9 8 0 0  and 6 9 8 0 0 
8116306		 # 	collision with: 4 10 0 0 0  and 6 10 0 0 0 
8116309		 # 	collision with: 10 3 2 0 0  and 10 3 4 0 0 
8116311		 # 	collision with: 4 10 1 0 0  and 6 10 1 0 0 
8116312		 # 	collision with: 2 4 4 0 0  and 2 6 4 0 0 
8116329		 # 	collision with: 5 9 2 0 0  and 6 9 2 0 0 
8116331		 # 	collision with: 8 2 3 0 0  and 8 4 3 0 0 
8116336		 # 	collision with: 4 1 3 0 0  and 7 2 3 0 0 
8116338		 # 	collision with: 8 0 3 0 0  and 2 1 3 0 0 
8116348		 # 	collision with: 5 9 9 0 0  and 6 9 9 0 0 
8116350		 # 	collision with: 4 10 0 0 0  and 6 10 0 0 0 
8116357		 # 	collision with: 5 1 2 0 0  and 5 2 2 0 0 
8116359		 # 	collision with: 7 2 0 0 0  and 3 4 0 0 0 
8116384		 # 	collision with: 5 0 2 0 0  and 6 2 2 0 0 
8116386		 # 	collision with: 4 10 5 0 0  and 6 10 5 0 0 
8116397		 # 	collision with: 9 3 2 0 0  and 2 1 4 0 0 
8116399		 # 	collision with: 9 2 2 0 0  and 1 3 2 0 0 
8116401		 # 	collision with: 5 1 2 0 0  and 5 2 2 0 0 
8116403		 # 	collision with: 7 2 0 0 0  and 3 4 0 0 0 
8116412		 # 	collision with: 5 9 1 0 0  and 6 9 1 0 0 
8116420		 # 	collision with: 2 4 6 0 0  and 2 6 6 0 0 
8116422		 # 	collision with: 8 0 6 0 0  and 2 1 6 0 0 
8116446		 # 	collision with: 9 5 4 0 0  and 9 6 4 0 0 
8116476		 # 	collision with: 5 9 6 0 0  and 6 9 6 0 0 
8116478		 # 	collision with: 7 0 7 0 0  and 7 1 7 0 0 
8116502		 # 	collision with: 9 5 5 0 0  and 9 6 5 0 0 
8116508		 # 	collision with: 9 4 6 0 0  and 2 5 6 0 0 
8116510		 # 	collision with: 4 10 1 0 0  and 6 10 1 0 0 
8116521		 # 	collision with: 10 2 0 0 0  and 10 4 0 0 0 
8116523		 # 	collision with: 4 10 0 0 0  and 6 10 0 0 0 
8116525		 # 	collision with: 9 2 0 0 0  and 2 4 0 0 0 
8116527		 # 	collision with: 8 2 0 0 0  and 8 4 0 0 0 
8116536		 # 	collision with: 5 9 0 0 0  and 6 9 0 0 0 
8116538		 # 	collision with: 4 10 2 0 0  and 6 10 2 0 0 
8116549		 # 	collision with: 10 2 3 0 0  and 10 4 3 0 0 
8116551		 # 	collision with: 8 2 3 0 0  and 8 4 3 0 0 
8116565		 # 	collision with: 10 2 0 0 0  and 10 4 0 0 0 
8116567		 # 	collision with: 4 10 0 0 0  and 6 10 0 0 0 
8116572		 # 	collision with: 5 1 1 0 0  and 5 2 1 0 0 
8116574		 # 	collision with: 7 0 1 0 0  and 7 1 1 0 0 
8116584		 # 	collision with: 5 9 3 0 0  and 6 9 3 0 0 
8116586		 # 	collision with: 4 10 6 0 0  and 6 10 6 0 0 
8116608		 # 	collision with: 5 9 4 0 0  and 6 9 4 0 0 
8116610		 # 	collision with: 4 10 6 0 0  and 6 10 6 0 0 
8116613		 # 	collision with: 9 2 0 0 0  and 2 4 0 0 0 
8116615		 # 	collision with: 8 2 0 0 0  and 8 4 0 0 0 
8116616		 # 	collision with: 5 1 1 0 0  and 5 2 1 0 0 
8116618		 # 	collision with: 7 0 1 0 0  and 7 1 1 0 0 
8116644		 # 	collision with: 5 9 1 0 0  and 6 9 1 0 0 
8116646		 # 	collision with: 2 4 3 0 0  and 2 5 3 0 0 
8116648		 # 	collision with: 7 0 2 0 0  and 4 1 2 0 0 
8116650		 # 	collision with: 4 10 2 0 0  and 6 10 2 0 0 
8116680		 # 	collision with: 0 7 4 0 0  and 4 3 1 1 0 
8116682		 # 	collision with: 5 0 4 0 0  and 1 5 1 1 0 
8116756		 # 	collision with: 5 0 2 0 0  and 6 2 2 0 0 
8116758		 # 	collision with: 3 1 2 0 0  and 3 2 2 0 0 
8116760		 # 	collision with: 5 9 1 0 0  and 6 9 1 0 0 
8116762		 # 	collision with: 8 0 3 0 0  and 2 1 3 0 0 
8116788		 # 	collision with: 4 1 1 0 0  and 7 2 1 0 0 
8116790		 # 	collision with: 5 0 1 0 0  and 5 2 1 0 0 
8116793		 # 	collision with: 3 1 2 0 0  and 3 3 2 0 0 
8116795		 # 	collision with: 9 2 0 0 0  and 1 3 0 0 0 
8116796		 # 	collision with: 5 9 4 0 0  and 6 9 4 0 0 
8116798		 # 	collision with: 4 10 6 0 0  and 6 10 6 0 0 
8116813		 # 	collision with: 7 2 2 0 0  and 4 1 3 0 0 
8116815		 # 	collision with: 4 10 2 0 0  and 6 10 2 0 0 
8116820		 # 	collision with: 5 9 3 0 0  and 6 9 3 0 0 
8116822		 # 	collision with: 4 10 6 0 0  and 6 10 6 0 0 
8116832		 # 	collision with: 9 4 1 0 0  and 2 5 1 0 0 
8116834		 # 	collision with: 5 0 1 0 0  and 5 2 1 0 0 
8116841		 # 	collision with: 3 5 2 0 0  and 3 5 3 0 0 
8116843		 # 	collision with: 10 5 2 0 0  and 10 5 3 0 0 
8116868		 # 	collision with: 5 9 0 0 0  and 6 9 0 0 0 
8116870		 # 	collision with: 4 10 2 0 0  and 6 10 2 0 0 
8116881		 # 	collision with: 3 1 2 0 0  and 3 3 2 0 0 
8116883		 # 	collision with: 9 2 0 0 0  and 1 3 0 0 0 
8116885		 # 	collision with: 5 9 2 0 0  and 6 9 2 0 0 
8116887		 # 	collision with: 2 5 2 0 0  and 2 5 3 0 0 
8116896		 # 	collision with: 1 2 6 0 0  and 1 3 6 0 0 
8116898		 # 	collision with: 4 10 1 0 0  and 6 10 1 0 0 
8116906		 # 	collision with: 7 0 5 0 0  and 7 1 5 0 0 
8116928		 # 	collision with: 5 9 6 0 0  and 6 9 6 0 0 
8116930		 # 	collision with: 10 2 7 0 0  and 10 3 7 0 0 
8116962		 # 	collision with: 3 1 4 0 0  and 3 2 4 0 0 
8116984		 # 	collision with: 1 2 6 0 0  and 1 3 6 0 0 
8116986		 # 	collision with: 5 0 6 0 0  and 5 2 6 0 0 
8116992		 # 	collision with: 5 9 1 0 0  and 6 9 1 0 0 
8117005		 # 	collision with: 3 1 3 0 0  and 3 3 3 0 0 
8117007		 # 	collision with: 4 3 2 0 0  and 4 5 2 0 0 
8117009		 # 	collision with: 10 2 2 0 0  and 10 4 2 0 0 
8117011		 # 	collision with: 4 10 0 0 0  and 6 10 0 0 0 
8117020		 # 	collision with: 4 4 2 0 0  and 4 5 2 0 0 
8117022		 # 	collision with: 3 1 2 0 0  and 3 2 2 0 0 
8117033		 # 	collision with: 5 9 2 0 0  and 6 9 2 0 0 
8117035		 # 	collision with: 10 2 4 0 0  and 10 3 4 0 0 
8117049		 # 	collision with: 10 3 2 0 0  and 1 5 2 0 0 
8117051		 # 	collision with: 4 3 2 0 0  and 4 5 2 0 0 
8117056		 # 	collision with: 5 9 9 0 0  and 6 9 9 0 0 
8117058		 # 	collision with: 4 10 0 0 0  and 6 10 0 0 0 
8117068		 # 	collision with: 6 3 3 0 0  and 6 5 3 0 0 
8117070		 # 	collision with: 7 0 3 0 0  and 7 1 3 0 0 
8117092		 # 	collision with: 4 1 4 0 0  and 7 2 4 0 0 
8117097		 # 	collision with: 10 2 2 0 0  and 10 4 2 0 0 
8117099		 # 	collision with: 4 10 0 0 0  and 6 10 0 0 0 
8117100		 # 	collision with: 5 9 8 0 0  and 6 9 8 0 0 
8117102		 # 	collision with: 4 10 0 0 0  and 6 10 0 0 0 
8117128		 # 	collision with: 5 9 2 0 0  and 6 9 2 0 0 
8117130		 # 	collision with: 4 10 4 0 0  and 6 10 4 0 0 
8117132		 # 	collision with: 5 9 0 0 0  and 6 9 0 0 0 
8117134		 # 	collision with: 4 10 3 0 0  and 6 10 3 0 0 
8117164		 # 	collision with: 10 6 2 0 0  and 4 3 1 1 0 
8117166		 # 	collision with: 1 4 1 0 0  and 8 0 0 1 0 
8117240		 # 	collision with: 8 3 6 0 0  and 8 4 6 0 0 
8117242		 # 	collision with: 4 10 1 0 0  and 6 10 1 0 0 
8117244		 # 	collision with: 5 9 0 0 0  and 6 9 0 0 0 
8117246		 # 	collision with: 4 10 2 0 0  and 6 10 2 0 0 
8117272		 # 	collision with: 7 0 3 0 0  and 7 2 3 0 0 
8117274		 # 	collision with: 10 2 3 0 0  and 10 3 3 0 0 
8117277		 # 	collision with: 5 5 1 0 0  and 5 5 3 0 0 
8117279		 # 	collision with: 4 10 0 0 0  and 6 10 0 0 0 
8117280		 # 	collision with: 5 9 9 0 0  and 6 9 9 0 0 
8117282		 # 	collision with: 4 10 0 0 0  and 6 10 0 0 0 
8117299		 # 	collision with: 2 4 1 0 0  and 2 5 3 0 0 
8117304		 # 	collision with: 2 4 2 0 0  and 2 6 2 0 0 
8117306		 # 	collision with: 8 0 2 0 0  and 2 1 2 0 0 
8117316		 # 	collision with: 5 9 1 0 0  and 6 9 1 0 0 
8117318		 # 	collision with: 9 2 3 0 0  and 1 3 3 0 0 
8117325		 # 	collision with: 10 10 1 0 0  and 10 7 3 0 0 
8117327		 # 	collision with: 9 2 3 0 0  and 1 3 3 0 0 
8117354		 # 	collision with: 3 5 5 0 0  and 7 6 5 0 0 
8117365		 # 	collision with: 8 4 1 0 0  and 8 3 3 0 0 
8117367		 # 	collision with: 4 10 0 0 0  and 6 10 0 0 0 
8117369		 # 	collision with: 3 4 1 0 0  and 3 0 3 0 0 
8117371		 # 	collision with: 2 10 1 0 0  and 8 7 3 0 0 
8117380		 # 	collision with: 5 9 6 0 0  and 6 9 6 0 0 
8117382		 # 	collision with: 1 1 7 0 0  and 1 3 7 0 0 
8117388		 # 	collision with: 7 0 4 0 0  and 7 2 4 0 0 
8117412		 # 	collision with: 5 9 8 0 0  and 6 9 8 0 0 
8117414		 # 	collision with: 4 10 0 0 0  and 6 10 0 0 0 
8117444		 # 	collision with: 5 0 1 0 0  and 6 2 1 0 0 
8117446		 # 	collision with: 10 2 1 0 0  and 10 3 1 0 0 
8117468		 # 	collision with: 5 9 4 0 0  and 6 9 4 0 0 
8117470		 # 	collision with: 4 10 6 0 0  and 6 10 6 0 0 
8117478		 # 	collision with: 4 3 4 0 0  and 4 5 4 0 0 
8117489		 # 	collision with: 9 9 1 0 0  and 2 1 3 0 0 
8117493		 # 	collision with: 2 4 1 0 0  and 2 6 1 0 0 
8117495		 # 	collision with: 2 6 1 0 0  and 2 6 3 0 0 
8117504		 # 	collision with: 8 3 6 0 0  and 8 4 6 0 0 
8117506		 # 	collision with: 7 0 6 0 0  and 7 1 6 0 0 
8117517		 # 	collision with: 2 1 0 0 0  and 9 3 0 0 0 
8117535		 # 	collision with: 3 2 1 0 0  and 3 1 3 0 0 
8117540		 # 	collision with: 5 9 2 0 0  and 6 9 2 0 0 
8117542		 # 	collision with: 4 10 4 0 0  and 6 10 4 0 0 
8117552		 # 	collision with: 5 9 0 0 0  and 6 9 0 0 0 
8117554		 # 	collision with: 4 10 3 0 0  and 6 10 3 0 0 
8117576		 # 	collision with: 6 2 1 0 0  and 5 3 1 0 0 
8117578		 # 	collision with: 10 2 1 0 0  and 10 3 1 0 0 
8117581		 # 	collision with: 2 4 1 0 0  and 2 6 1 0 0 
8117583		 # 	collision with: 4 4 1 0 0  and 6 6 1 0 0 
8117584		 # 	collision with: 5 9 3 0 0  and 6 9 3 0 0 
8117586		 # 	collision with: 4 10 6 0 0  and 6 10 6 0 0 
8117612		 # 	collision with: 4 1 2 0 0  and 7 2 2 0 0 
8117614		 # 	collision with: 7 0 2 0 0  and 7 1 2 0 0 
8117616		 # 	collision with: 5 9 1 0 0  and 6 9 1 0 0 
8117648		 # 	collision with: 10 9 6 0 0  and 2 2 1 1 0 
8117650		 # 	collision with: 5 0 5 0 0  and 10 4 0 1 0 
8117724		 # 	collision with: 5 9 8 0 0  and 6 9 8 0 0 
8117726		 # 	collision with: 4 10 0 0 0  and 6 10 0 0 0 
8117728		 # 	collision with: 5 1 4 0 0  and 5 2 4 0 0 
8117756		 # 	collision with: 5 9 1 0 0  and 6 9 1 0 0 
8117761		 # 	collision with: 8 6 1 0 0  and 8 6 2 0 0 
8117763		 # 	collision with: 5 0 2 0 0  and 5 2 2 0 0 
8117764		 # 	collision with: 7 0 2 0 0  and 4 1 2 0 0 
8117766		 # 	collision with: 1 1 2 0 0  and 1 3 2 0 0 
8117781		 # 	collision with: 5 9 1 0 0  and 6 9 1 0 0 
8117783		 # 	collision with: 4 7 1 0 0  and 4 1 2 0 0 
8117788		 # 	collision with: 5 9 6 0 0  and 6 9 6 0 0 
8117790		 # 	collision with: 8 0 7 0 0  and 2 1 7 0 0 
8117802		 # 	collision with: 9 2 5 0 0  and 1 3 5 0 0 
8117809		 # 	collision with: 6 2 1 0 0  and 6 2 2 0 0 
8117811		 # 	collision with: 4 10 0 0 0  and 6 10 0 0 0 
8117836		 # 	collision with: 7 0 1 0 0  and 4 1 1 0 0 
8117838		 # 	collision with: 10 1 1 0 0  and 0 3 1 0 0 
8117849		 # 	collision with: 5 9 1 0 0  and 6 9 1 0 0 
8117851		 # 	collision with: 5 0 2 0 0  and 5 2 2 0 0 
8117853		 # 	collision with: 10 2 1 0 0  and 10 2 2 0 0 
8117855		 # 	collision with: 4 10 0 0 0  and 6 10 0 0 0 
8117864		 # 	collision with: 5 9 3 0 0  and 6 9 3 0 0 
8117866		 # 	collision with: 4 10 6 0 0  and 6 10 6 0 0 
8117872		 # 	collision with: 5 9 1 0 0  and 6 9 1 0 0 
8117874		 # 	collision with: 10 1 3 0 0  and 0 3 3 0 0 
8117896		 # 	collision with: 5 1 2 0 0  and 5 2 2 0 0 
8117898		 # 	collision with: 10 1 2 0 0  and 0 3 2 0 0 
8117928		 # 	collision with: 5 9 0 0 0  and 6 9 0 0 0 
8117930		 # 	collision with: 4 10 3 0 0  and 6 10 3 0 0 
8117952		 # 	collision with: 5 9 2 0 0  and 6 9 2 0 0 
8117954		 # 	collision with: 4 10 4 0 0  and 6 10 4 0 0 
8117960		 # 	collision with: 4 4 3 0 0  and 4 5 3 0 0 
8117962		 # 	collision with: 1 1 3 0 0  and 9 2 3 0 0 
8117973		 # 	collision with: 5 9 0 0 0  and 6 9 0 0 0 
8117975		 # 	collision with: 1 1 0 0 0  and 9 2 0 0 0 
8117977		 # 	collision with: 5 1 0 0 0  and 5 2 0 0 0 
8117979		 # 	collision with: 3 5 1 0 0  and 3 5 2 0 0 
8117988		 # 	collision with: 5 9 9 0 0  and 6 9 9 0 0 
8117990		 # 	collision with: 4 10 0 0 0  and 6 10 0 0 0 
73.605secs	31270
