# prime 11
# degree 2
# input variables 3
# output variables 3
# reload computed balance functions from file balance-1958of3248-p11d2m3-debug.log
# p = 11
# n = 3
# smalldomain p^m 1331
# domain p^n 1331
#	 p^2 = 121
#	 p^3 = 1331
#	 p^4 = 14641
#	 p^5 = 161051
#	 p^6 = 1771561
#	 p^7 = 19487171
#	 p^8 = 214358881
#	 p^9 = 2357947691
opening file : balance-1958of3248-p11d2m3-debug.log
reloading for step2...
11748081		 # 	collision with: 8 1 0  and 1 3 0 
11748083		 # 	collision with: 4 0 0  and 4 2 0 
11748093		 # 	collision with: 9 0 0  and 1 2 0 
11748095		 # 	collision with: 4 2 0  and 9 4 0 
11748121		 # 	collision with: 5 1 0  and 0 3 0 
11748132		 # 	collision with: 4 3 0  and 8 4 0 
11748134		 # 	collision with: 8 1 0  and 8 0 1 
11748145		 # 	collision with: 2 3 0  and 1 4 0 
11748147		 # 	collision with: 7 2 0  and 5 4 0 
11748165		 # 	collision with: 4 0 0  and 8 2 0 
11748189		 # 	collision with: 8 3 0  and 4 5 0 
11748191		 # 	collision with: 10 4 0  and 8 5 0 
11748217		 # 	collision with: 5 7 0  and 4 0 1 
11748229		 # 	collision with: 3 2 0  and 6 0 1 
11748231		 # 	collision with: 0 3 0  and 5 5 0 
11748357		 # 	collision with: 0 1 0  and 4 2 0 
11748359		 # 	collision with: 10 4 0  and 8 5 0 
11748389		 # 	collision with: 8 1 0  and 6 3 0 
11748391		 # 	collision with: 1 2 0  and 0 3 0 
11748405		 # 	collision with: 5 0 0  and 10 1 0 
11748407		 # 	collision with: 4 2 0  and 9 4 0 
11748437		 # 	collision with: 10 1 0  and 3 2 1 
11748439		 # 	collision with: 10 4 0  and 8 5 0 
11748565		 # 	collision with: 5 1 0  and 10 0 1 
11748567		 # 	collision with: 10 4 0  and 8 5 0 
11748577		 # 	collision with: 5 3 0  and 2 4 0 
11748579		 # 	collision with: 10 4 0  and 8 5 0 
11748605		 # 	collision with: 6 0 0  and 3 1 0 
11748607		 # 	collision with: 10 4 0  and 8 5 0 
11748616		 # 	collision with: 0 2 0  and 5 3 0 
11748618		 # 	collision with: 3 1 0  and 3 0 1 
11748629		 # 	collision with: 8 2 0  and 6 4 0 
11748631		 # 	collision with: 1 2 0  and 0 3 0 
11748649		 # 	collision with: 10 4 0  and 8 0 1 
11748651		 # 	collision with: 1 4 0  and 1 0 1 
11748675		 # 	collision with: 9 2 0  and 2 4 0 
11748701		 # 	collision with: 2 9 0  and 2 0 1 
11748703		 # 	collision with: 6 0 0  and 8 2 0 
11748713		 # 	collision with: 10 3 0  and 3 0 1 
11748715		 # 	collision with: 3 4 0  and 0 6 0 
11748841		 # 	collision with: 2 9 0  and 1 0 1 
11748843		 # 	collision with: 5 1 0  and 3 0 1 
11748873		 # 	collision with: 2 0 0  and 1 1 0 
11748875		 # 	collision with: 7 0 0  and 5 2 0 
11748889		 # 	collision with: 3 0 0  and 5 1 0 
11748891		 # 	collision with: 8 4 0  and 10 6 0 
11748921		 # 	collision with: 9 1 0  and 9 3 0 
11748923		 # 	collision with: 1 1 0  and 3 1 0 
11749049		 # 	collision with: 2 8 0  and 6 1 1 
11749051		 # 	collision with: 9 5 0  and 6 6 0 
11749063		 # 	collision with: 2 3 0  and 6 5 0 
11749089		 # 	collision with: 10 0 0  and 10 2 0 
11749091		 # 	collision with: 0 0 0  and 1 1 1 
11749100		 # 	collision with: 8 4 0  and 0 5 0 
11749102		 # 	collision with: 9 1 0  and 9 0 1 
11749113		 # 	collision with: 2 2 0  and 1 3 0 
11749115		 # 	collision with: 7 1 0  and 5 3 0 
11749133		 # 	collision with: 10 0 0  and 10 2 0 
11749135		 # 	collision with: 6 5 0  and 7 1 1 
11749157		 # 	collision with: 1 3 0  and 2 5 0 
11749159		 # 	collision with: 4 8 0  and 10 1 1 
11749185		 # 	collision with: 5 1 0  and 7 3 0 
11749187		 # 	collision with: 9 1 0  and 2 2 0 
11749197		 # 	collision with: 3 0 0  and 10 1 0 
11749199		 # 	collision with: 9 10 0  and 3 0 1 
11749325		 # 	collision with: 4 3 0  and 10 5 0 
11749327		 # 	collision with: 5 2 0  and 6 2 0 
11749357		 # 	collision with: 2 4 0  and 1 5 0 
11749359		 # 	collision with: 7 4 0  and 5 6 0 
11749373		 # 	collision with: 2 0 0  and 3 1 0 
11749375		 # 	collision with: 6 1 0  and 9 2 0 
11749405		 # 	collision with: 1 1 0  and 3 0 1 
11749407		 # 	collision with: 1 3 0  and 9 5 0 
11749533		 # 	collision with: 1 9 0  and 9 0 1 
11749535		 # 	collision with: 2 1 0  and 2 0 1 
11749545		 # 	collision with: 9 1 0  and 8 0 1 
11749547		 # 	collision with: 6 3 0  and 9 5 0 
11749573		 # 	collision with: 8 1 0  and 2 2 0 
11749575		 # 	collision with: 1 4 0  and 2 4 0 
11749584		 # 	collision with: 1 1 0  and 9 2 1 
11749586		 # 	collision with: 3 4 0  and 9 5 0 
11749597		 # 	collision with: 8 1 0  and 6 3 0 
11749599		 # 	collision with: 1 1 0  and 0 2 0 
11749619		 # 	collision with: 0 3 0  and 5 5 0 
11749641		 # 	collision with: 2 7 0  and 1 0 1 
11749643		 # 	collision with: 2 4 0  and 10 5 0 
11749669		 # 	collision with: 4 0 0  and 8 2 0 
11749671		 # 	collision with: 9 0 0  and 5 1 0 
11749681		 # 	collision with: 10 3 0  and 8 1 1 
11749683		 # 	collision with: 6 6 0  and 2 0 1 
11749809		 # 	collision with: 6 8 0  and 0 0 1 
11749841		 # 	collision with: 3 3 0  and 4 3 0 
11749843		 # 	collision with: 1 3 0  and 0 4 0 
11749857		 # 	collision with: 6 3 0  and 2 5 0 
11749859		 # 	collision with: 8 5 0  and 0 0 1 
11749889		 # 	collision with: 0 2 0  and 2 3 0 
11749891		 # 	collision with: 6 4 0  and 6 5 0 
11750017		 # 	collision with: 0 8 0  and 10 1 1 
11750029		 # 	collision with: 2 6 0  and 4 6 0 
11750031		 # 	collision with: 0 1 0  and 5 2 0 
11750057		 # 	collision with: 9 9 0  and 3 0 1 
11750059		 # 	collision with: 3 1 0  and 3 3 0 
11750132		 # 	collision with: 0 4 0  and 6 5 0 
11750134		 # 	collision with: 4 0 0  and 6 0 0 
11750144		 # 	collision with: 0 5 0  and 8 1 1 
11750146		 # 	collision with: 4 0 0  and 6 0 0 
11750167		 # 	collision with: 2 9 0  and 2 0 1 
11750176		 # 	collision with: 6 10 0  and 0 2 1 
11750178		 # 	collision with: 4 0 0  and 6 0 0 
11750196		 # 	collision with: 9 0 0  and 3 1 0 
11750198		 # 	collision with: 4 0 0  and 6 0 0 
11750208		 # 	collision with: 0 0 0  and 1 1 1 
11750210		 # 	collision with: 4 0 0  and 6 0 0 
11750216		 # 	collision with: 9 8 0  and 7 0 1 
11750218		 # 	collision with: 4 0 0  and 6 0 0 
11750233		 # 	collision with: 9 0 0  and 5 2 0 
11750235		 # 	collision with: 8 7 0  and 0 0 1 
11750237		 # 	collision with: 2 1 0  and 7 3 0 
11750239		 # 	collision with: 7 4 0  and 2 0 1 
11750245		 # 	collision with: 3 1 0  and 6 2 0 
11750277		 # 	collision with: 5 3 0  and 3 5 0 
11750279		 # 	collision with: 10 3 0  and 7 4 0 
11750280		 # 	collision with: 0 0 0  and 7 1 0 
11750282		 # 	collision with: 4 0 0  and 6 0 0 
11750284		 # 	collision with: 0 1 0  and 3 2 0 
11750286		 # 	collision with: 4 0 0  and 6 0 0 
11750300		 # 	collision with: 1 1 0  and 1 0 1 
11750302		 # 	collision with: 4 0 0  and 6 0 0 
11750316		 # 	collision with: 1 7 0  and 0 0 1 
11750318		 # 	collision with: 4 0 0  and 6 0 0 
11750348		 # 	collision with: 2 0 1  and 4 1 1 
11750350		 # 	collision with: 4 0 0  and 6 0 0 
11750364		 # 	collision with: 3 1 0  and 10 3 0 
11750366		 # 	collision with: 4 0 0  and 6 0 0 
11750377		 # 	collision with: 4 3 0  and 2 4 0 
11750380		 # 	collision with: 0 1 0  and 8 2 0 
11750382		 # 	collision with: 4 0 0  and 6 0 0 
11750384		 # 	collision with: 2 1 0  and 5 2 0 
11750386		 # 	collision with: 4 0 0  and 6 0 0 
11750389		 # 	collision with: 5 3 0  and 3 5 0 
11750391		 # 	collision with: 9 1 0  and 9 2 0 
11750429		 # 	collision with: 5 3 0  and 3 5 0 
11750431		 # 	collision with: 8 9 0  and 0 0 1 
11750433		 # 	collision with: 9 0 0  and 6 2 0 
11750435		 # 	collision with: 2 2 0  and 2 4 0 
11750448		 # 	collision with: 3 0 1  and 6 2 1 
11750450		 # 	collision with: 4 0 0  and 6 0 0 
11750456		 # 	collision with: 4 3 0  and 10 4 0 
11750458		 # 	collision with: 4 0 0  and 6 0 0 
11750468		 # 	collision with: 6 0 1  and 6 1 1 
11750470		 # 	collision with: 4 0 0  and 6 0 0 
11750488		 # 	collision with: 10 2 0  and 8 3 0 
11750490		 # 	collision with: 4 0 0  and 6 0 0 
11750503		 # 	collision with: 0 2 0  and 8 2 1 
11750520		 # 	collision with: 3 3 0  and 4 4 0 
11750522		 # 	collision with: 4 0 0  and 6 0 0 
11750532		 # 	collision with: 2 1 0  and 6 2 0 
11750534		 # 	collision with: 4 0 0  and 6 0 0 
11750552		 # 	collision with: 4 10 0  and 9 1 1 
11750554		 # 	collision with: 9 2 0  and 10 4 0 
11750616		 # 	collision with: 9 0 0  and 5 2 0 
11750618		 # 	collision with: 9 0 0  and 8 2 0 
11750628		 # 	collision with: 6 5 0  and 1 1 1 
11750630		 # 	collision with: 9 2 0  and 10 4 0 
11750649		 # 	collision with: 5 9 0  and 7 1 1 
11750660		 # 	collision with: 1 5 0  and 5 0 1 
11750662		 # 	collision with: 0 2 0  and 7 3 0 
11750682		 # 	collision with: 10 1 0  and 2 3 0 
11750692		 # 	collision with: 7 3 0  and 0 5 0 
11750700		 # 	collision with: 1 7 0  and 6 0 1 
11750702		 # 	collision with: 9 2 0  and 10 4 0 
11750717		 # 	collision with: 0 0 0  and 9 1 0 
11750719		 # 	collision with: 4 0 0  and 6 0 0 
11750721		 # 	collision with: 2 1 0  and 6 2 0 
11750723		 # 	collision with: 4 0 0  and 6 0 0 
11750729		 # 	collision with: 6 1 0  and 6 0 1 
11750731		 # 	collision with: 4 0 0  and 6 0 0 
11750761		 # 	collision with: 0 1 0  and 3 3 0 
11750763		 # 	collision with: 4 0 0  and 6 0 0 
11750764		 # 	collision with: 8 2 0  and 8 4 0 
11750766		 # 	collision with: 9 2 0  and 10 4 0 
11750768		 # 	collision with: 6 2 0  and 9 4 0 
11750770		 # 	collision with: 0 2 0  and 10 3 0 
11750784		 # 	collision with: 4 5 0  and 7 0 1 
11750786		 # 	collision with: 2 2 0  and 2 4 0 
11750800		 # 	collision with: 5 2 0  and 10 3 0 
11750802		 # 	collision with: 2 3 0  and 4 3 0 
11750832		 # 	collision with: 5 10 0  and 4 0 1 
11750834		 # 	collision with: 9 2 0  and 10 4 0 
11750848		 # 	collision with: 5 0 0  and 3 2 0 
11750850		 # 	collision with: 0 1 0  and 10 2 0 
11750861		 # 	collision with: 7 4 0  and 3 6 0 
11750863		 # 	collision with: 4 0 0  and 6 0 0 
11750864		 # 	collision with: 7 1 0  and 10 2 0 
11750866		 # 	collision with: 9 2 0  and 10 4 0 
11750868		 # 	collision with: 3 1 0  and 5 2 0 
11750873		 # 	collision with: 1 1 0  and 7 2 0 
11750875		 # 	collision with: 4 0 0  and 6 0 0 
11750913		 # 	collision with: 9 8 0  and 0 0 1 
11750917		 # 	collision with: 6 5 0  and 8 1 1 
11750919		 # 	collision with: 4 0 0  and 6 0 0 
11750932		 # 	collision with: 10 1 0  and 2 2 0 
11750934		 # 	collision with: 9 2 0  and 10 4 0 
11750940		 # 	collision with: 6 6 0  and 2 0 1 
11750942		 # 	collision with: 7 1 0  and 0 3 0 
11750952		 # 	collision with: 9 0 0  and 3 1 0 
11750954		 # 	collision with: 9 2 0  and 10 4 0 
11750974		 # 	collision with: 9 2 0  and 10 4 0 
11750985		 # 	collision with: 4 2 0  and 8 0 1 
11750987		 # 	collision with: 4 0 0  and 6 0 0 
11751004		 # 	collision with: 10 0 1  and 2 1 1 
11751006		 # 	collision with: 9 2 0  and 10 4 0 
11751016		 # 	collision with: 1 3 0  and 4 5 0 
11751018		 # 	collision with: 5 0 0  and 9 2 0 
11751036		 # 	collision with: 0 1 0  and 8 2 0 
11751038		 # 	collision with: 1 4 0  and 10 5 0 
11751100		 # 	collision with: 7 1 0  and 10 2 0 
11751102		 # 	collision with: 8 5 0  and 0 6 0 
11751112		 # 	collision with: 7 5 0  and 2 6 0 
11751114		 # 	collision with: 0 7 0  and 2 1 1 
11751133		 # 	collision with: 3 1 0  and 7 3 0 
11751135		 # 	collision with: 9 0 0  and 8 2 0 
11751144		 # 	collision with: 1 1 0  and 5 0 1 
11751146		 # 	collision with: 0 4 0  and 8 5 0 
11751164		 # 	collision with: 10 0 0  and 10 2 0 
11751166		 # 	collision with: 9 2 0  and 8 1 1 
11751176		 # 	collision with: 4 3 0  and 2 4 0 
11751178		 # 	collision with: 1 1 0  and 1 0 1 
11751184		 # 	collision with: 3 5 0  and 4 5 0 
11751203		 # 	collision with: 8 2 0  and 1 0 1 
11751205		 # 	collision with: 0 4 0  and 10 0 1 
11751207		 # 	collision with: 3 3 0  and 3 0 1 
11751213		 # 	collision with: 9 0 0  and 2 1 0 
11751215		 # 	collision with: 3 5 0  and 7 6 0 
11751245		 # 	collision with: 3 3 0  and 4 4 0 
11751247		 # 	collision with: 1 5 0  and 9 6 0 
11751250		 # 	collision with: 7 5 0  and 3 6 0 
11751252		 # 	collision with: 10 2 0  and 9 3 0 
11751254		 # 	collision with: 0 5 0  and 10 6 0 
11751268		 # 	collision with: 9 0 0  and 3 1 0 
11751270		 # 	collision with: 4 0 0  and 4 2 0 
11751284		 # 	collision with: 5 5 0  and 5 1 1 
11751286		 # 	collision with: 5 0 0  and 9 2 0 
11751316		 # 	collision with: 5 7 0  and 3 0 1 
11751332		 # 	collision with: 5 2 0  and 3 4 0 
11751334		 # 	collision with: 0 3 0  and 10 4 0 
11751345		 # 	collision with: 9 0 0  and 5 2 0 
11751347		 # 	collision with: 2 4 0  and 3 5 0 
11751350		 # 	collision with: 5 3 0  and 6 5 0 
11751352		 # 	collision with: 10 0 0  and 7 1 0 
11751354		 # 	collision with: 9 1 0  and 9 0 1 
11751357		 # 	collision with: 7 3 0  and 0 5 0 
11751359		 # 	collision with: 2 2 0  and 2 4 0 
11751399		 # 	collision with: 3 3 0  and 2 5 0 
11751401		 # 	collision with: 5 2 0  and 10 3 0 
11751403		 # 	collision with: 9 1 0  and 9 2 0 
11751416		 # 	collision with: 7 3 0  and 9 4 0 
11751418		 # 	collision with: 2 1 0  and 3 3 0 
11751424		 # 	collision with: 0 0 0  and 10 2 0 
11751426		 # 	collision with: 7 0 0  and 1 1 0 
11751436		 # 	collision with: 2 1 0  and 7 3 0 
11751438		 # 	collision with: 1 2 0  and 2 0 1 
11751456		 # 	collision with: 3 1 0  and 6 2 0 
11751458		 # 	collision with: 0 5 0  and 3 6 0 
11751469		 # 	collision with: 7 1 0  and 1 2 0 
11751471		 # 	collision with: 0 3 0  and 4 5 0 
11751488		 # 	collision with: 9 8 0  and 0 0 1 
11751490		 # 	collision with: 2 2 0  and 2 4 0 
11751500		 # 	collision with: 3 2 0  and 8 4 0 
11751502		 # 	collision with: 5 6 0  and 9 0 1 
11751520		 # 	collision with: 2 8 0  and 1 0 1 
11751522		 # 	collision with: 6 3 0  and 2 4 0 
11751584		 # 	collision with: 9 0 0  and 3 1 0 
11751586		 # 	collision with: 0 4 0  and 5 1 1 
11751596		 # 	collision with: 10 1 0  and 2 2 0 
11751598		 # 	collision with: 10 4 0  and 6 6 0 
11751617		 # 	collision with: 7 5 0  and 2 6 0 
11751619		 # 	collision with: 10 9 0  and 2 0 1 
11751628		 # 	collision with: 0 0 0  and 1 2 0 
11751630		 # 	collision with: 7 1 0  and 7 0 1 
11751648		 # 	collision with: 1 1 0  and 7 2 0 
11751650		 # 	collision with: 10 4 0  and 7 6 0 
11751660		 # 	collision with: 6 6 0  and 6 1 1 
11751662		 # 	collision with: 7 5 0  and 10 6 0 
11751668		 # 	collision with: 4 1 0  and 7 2 0 
11751670		 # 	collision with: 1 2 0  and 9 2 1 
11751685		 # 	collision with: 3 4 0  and 0 5 0 
11751687		 # 	collision with: 10 4 0  and 7 6 0 
11751689		 # 	collision with: 3 2 0  and 4 4 0 
11751691		 # 	collision with: 7 7 0  and 2 2 1 
11751697		 # 	collision with: 2 3 0  and 10 4 0 
11751699		 # 	collision with: 9 2 0  and 0 3 0 
11751729		 # 	collision with: 5 3 0  and 4 5 0 
11751731		 # 	collision with: 9 0 0  and 3 2 0 
11751732		 # 	collision with: 9 0 0  and 2 1 0 
11751734		 # 	collision with: 2 4 0  and 6 6 0 
11751736		 # 	collision with: 10 5 0  and 9 6 0 
11751738		 # 	collision with: 6 2 0  and 4 4 0 
11751752		 # 	collision with: 7 5 0  and 8 1 1 
11751754		 # 	collision with: 6 4 0  and 6 5 0 
11751770		 # 	collision with: 10 4 0  and 4 5 0 
11751800		 # 	collision with: 3 1 0  and 7 3 0 
11751802		 # 	collision with: 4 5 0  and 6 6 0 
11751818		 # 	collision with: 0 5 0  and 10 6 0 
11751829		 # 	collision with: 10 2 0  and 8 3 0 
11751831		 # 	collision with: 2 4 0  and 4 5 0 
11751832		 # 	collision with: 9 1 0  and 9 3 0 
11751834		 # 	collision with: 1 4 0  and 2 6 0 
11751836		 # 	collision with: 6 2 0  and 5 0 1 
11751838		 # 	collision with: 8 1 0  and 3 0 1 
11751841		 # 	collision with: 10 1 0  and 2 2 0 
11751843		 # 	collision with: 10 0 0  and 6 1 0 
11751881		 # 	collision with: 1 1 0  and 4 2 0 
11751883		 # 	collision with: 2 5 0  and 5 6 0 
11751885		 # 	collision with: 3 1 0  and 7 3 0 
11751887		 # 	collision with: 7 3 0  and 7 4 0 
11751900		 # 	collision with: 1 4 0  and 1 5 0 
11751902		 # 	collision with: 6 0 0  and 7 2 0 
11751908		 # 	collision with: 10 0 0  and 1 2 0 
11751910		 # 	collision with: 3 9 0  and 2 0 1 
11751920		 # 	collision with: 4 1 0  and 7 0 1 
11751922		 # 	collision with: 9 0 0  and 8 2 0 
11751940		 # 	collision with: 7 7 0  and 9 1 1 
11751953		 # 	collision with: 9 0 0  and 2 1 0 
11751955		 # 	collision with: 10 3 0  and 1 3 1 
11751972		 # 	collision with: 2 3 0  and 9 5 0 
11751974		 # 	collision with: 3 1 0  and 3 3 0 
11751984		 # 	collision with: 6 6 0  and 2 1 1 
11752004		 # 	collision with: 3 6 0  and 2 0 1 
11752006		 # 	collision with: 0 0 0  and 1 1 1 
11752068		 # 	collision with: 3 1 0  and 7 3 0 
11752070		 # 	collision with: 10 3 0  and 8 1 1 
11752080		 # 	collision with: 8 5 0  and 0 0 1 
11752101		 # 	collision with: 2 1 0  and 5 2 0 
11752103		 # 	collision with: 0 2 0  and 7 4 0 
11752112		 # 	collision with: 4 1 0  and 1 1 1 
11752114		 # 	collision with: 9 2 0  and 2 0 1 
11752132		 # 	collision with: 1 1 0  and 4 2 0 
11752134		 # 	collision with: 9 0 0  and 8 2 0 
11752146		 # 	collision with: 8 2 0  and 7 0 1 
11752152		 # 	collision with: 0 10 0  and 3 0 1 
11752154		 # 	collision with: 5 1 0  and 1 2 0 
11752169		 # 	collision with: 9 4 0  and 7 5 0 
11752173		 # 	collision with: 7 3 0  and 9 4 0 
11752175		 # 	collision with: 2 5 0  and 5 6 0 
11752181		 # 	collision with: 5 2 0  and 2 0 1 
11752183		 # 	collision with: 0 5 0  and 9 0 1 
11752213		 # 	collision with: 1 10 0  and 3 10 0 
11752216		 # 	collision with: 7 10 0  and 1 0 1 
11752218		 # 	collision with: 5 0 0  and 2 2 0 
11752220		 # 	collision with: 0 1 0  and 8 2 0 
11752222		 # 	collision with: 0 0 0  and 10 1 0 
11752236		 # 	collision with: 10 7 0  and 4 0 1 
11752238		 # 	collision with: 2 2 0  and 0 3 0 
11752252		 # 	collision with: 9 4 0  and 7 5 0 
11752254		 # 	collision with: 2 1 0  and 3 1 0 
11752284		 # 	collision with: 6 1 0  and 9 2 0 
11752286		 # 	collision with: 0 3 0  and 3 5 0 
11752300		 # 	collision with: 10 1 0  and 9 2 0 
11752313		 # 	collision with: 1 2 0  and 9 3 0 
11752315		 # 	collision with: 4 8 0  and 10 1 1 
11752316		 # 	collision with: 3 3 0  and 8 4 0 
11752318		 # 	collision with: 0 0 0  and 6 1 0 
11752320		 # 	collision with: 7 3 0  and 3 4 0 
11752322		 # 	collision with: 5 4 0  and 3 0 1 
11752325		 # 	collision with: 1 10 0  and 10 0 1 
11752327		 # 	collision with: 2 2 0  and 6 3 0 
11752365		 # 	collision with: 4 3 0  and 10 4 0 
11752367		 # 	collision with: 6 5 0  and 4 6 0 
11752369		 # 	collision with: 3 4 0  and 4 0 1 
11752371		 # 	collision with: 5 5 0  and 5 6 0 
11752386		 # 	collision with: 2 5 0  and 8 6 0 
11752392		 # 	collision with: 8 10 0  and 3 0 1 
11752394		 # 	collision with: 6 2 0  and 8 4 0 
11752404		 # 	collision with: 4 3 0  and 2 4 0 
11752406		 # 	collision with: 6 4 0  and 5 0 1 
11752424		 # 	collision with: 2 3 0  and 4 3 0 
11752426		 # 	collision with: 4 2 0  and 1 2 1 
11752437		 # 	collision with: 10 1 0  and 2 2 0 
11752439		 # 	collision with: 8 3 0  and 2 1 1 
11752456		 # 	collision with: 2 4 0  and 9 5 0 
11752458		 # 	collision with: 4 0 0  and 4 2 0 
11752468		 # 	collision with: 1 8 0  and 9 0 1 
11752470		 # 	collision with: 10 2 0  and 7 1 1 
11752488		 # 	collision with: 0 7 0  and 10 0 1 
11752490		 # 	collision with: 0 3 0  and 2 4 0 
11752552		 # 	collision with: 7 9 0  and 0 0 1 
11752554		 # 	collision with: 2 2 0  and 6 3 0 
11752566		 # 	collision with: 3 3 0  and 5 5 0 
11752585		 # 	collision with: 8 10 0  and 7 0 1 
11752587		 # 	collision with: 5 0 0  and 9 2 0 
11752596		 # 	collision with: 0 5 0  and 2 6 0 
11752598		 # 	collision with: 8 5 0  and 9 0 1 
11752616		 # 	collision with: 1 5 0  and 0 0 1 
11752628		 # 	collision with: 1 6 0  and 5 5 1 
11752630		 # 	collision with: 2 10 0  and 2 2 1 
11752636		 # 	collision with: 6 1 0  and 2 2 0 
11752638		 # 	collision with: 10 3 0  and 7 4 0 
11752653		 # 	collision with: 2 3 0  and 9 5 0 
11752655		 # 	collision with: 10 0 0  and 6 1 0 
11752657		 # 	collision with: 1 1 0  and 4 2 0 
11752659		 # 	collision with: 2 2 0  and 6 3 0 
11752667		 # 	collision with: 6 8 0  and 7 1 1 
11752697		 # 	collision with: 3 2 0  and 3 3 0 
11752699		 # 	collision with: 0 2 0  and 5 4 0 
11752700		 # 	collision with: 9 0 0  and 3 1 0 
11752702		 # 	collision with: 9 0 0  and 3 2 0 
11752704		 # 	collision with: 10 0 0  and 9 1 0 
11752720		 # 	collision with: 9 1 0  and 1 2 0 
11752722		 # 	collision with: 7 0 0  and 4 1 0 
11752736		 # 	collision with: 2 1 0  and 5 2 0 
11752738		 # 	collision with: 3 0 0  and 1 1 0 
11752768		 # 	collision with: 0 1 0  and 8 2 0 
11752770		 # 	collision with: 2 2 0  and 1 0 1 
11752784		 # 	collision with: 10 3 0  and 9 4 0 
11752786		 # 	collision with: 9 0 0  and 8 2 0 
11752797		 # 	collision with: 3 2 0  and 4 4 0 
11752799		 # 	collision with: 3 2 0  and 6 0 1 
11752800		 # 	collision with: 0 6 0  and 2 6 0 
11752802		 # 	collision with: 7 1 0  and 2 2 0 
11752804		 # 	collision with: 3 2 0  and 0 2 1 
11752806		 # 	collision with: 10 1 0  and 4 3 0 
11752811		 # 	collision with: 8 2 0  and 8 3 0 
11752849		 # 	collision with: 6 6 0  and 5 0 1 
11752851		 # 	collision with: 5 1 0  and 1 2 0 
11752853		 # 	collision with: 0 1 0  and 3 3 0 
11752855		 # 	collision with: 3 1 0  and 3 3 0 
11752868		 # 	collision with: 0 4 0  and 1 4 0 
11752870		 # 	collision with: 6 4 0  and 1 5 0 
11752876		 # 	collision with: 7 4 0  and 3 6 0 
11752878		 # 	collision with: 1 4 0  and 8 5 0 
11752888		 # 	collision with: 3 8 0  and 5 1 1 
11752890		 # 	collision with: 8 1 0  and 6 2 0 
11752908		 # 	collision with: 5 5 0  and 7 0 1 
11752910		 # 	collision with: 5 1 0  and 10 2 0 
11752921		 # 	collision with: 0 0 0  and 1 2 0 
11752923		 # 	collision with: 1 2 0  and 9 0 1 
11752940		 # 	collision with: 9 1 0  and 8 3 0 
11752942		 # 	collision with: 5 5 0  and 5 6 0 
11752954		 # 	collision with: 1 5 0  and 9 6 0 
11752972		 # 	collision with: 9 0 0  and 3 1 0 
11752974		 # 	collision with: 3 2 0  and 6 0 1 
11753038		 # 	collision with: 4 5 0  and 6 6 0 
11753048		 # 	collision with: 3 5 0  and 1 6 0 
11753050		 # 	collision with: 8 5 0  and 2 6 0 
11753069		 # 	collision with: 9 1 0  and 8 3 0 
11753071		 # 	collision with: 5 0 0  and 2 2 0 
11753080		 # 	collision with: 9 1 0  and 1 2 0 
11753082		 # 	collision with: 6 8 0  and 7 1 1 
11753100		 # 	collision with: 6 0 1  and 3 1 1 
11753102		 # 	collision with: 7 5 0  and 10 6 0 
11753112		 # 	collision with: 6 7 0  and 5 1 1 
11753114		 # 	collision with: 0 4 0  and 8 5 0 
11753120		 # 	collision with: 3 4 0  and 0 6 0 
11753122		 # 	collision with: 2 8 0  and 8 0 1 
11753137		 # 	collision with: 4 3 0  and 2 4 0 
11753139		 # 	collision with: 3 5 0  and 6 6 0 
11753141		 # 	collision with: 7 1 0  and 7 0 1 
11753143		 # 	collision with: 4 8 0  and 0 1 1 
11753149		 # 	collision with: 4 3 0  and 10 4 0 
11753151		 # 	collision with: 3 3 0  and 5 5 0 
11753183		 # 	collision with: 1 3 0  and 6 5 0 
11753184		 # 	collision with: 6 1 0  and 9 2 0 
11753186		 # 	collision with: 3 0 0  and 1 1 0 
11753188		 # 	collision with: 10 3 0  and 9 4 0 
11753190		 # 	collision with: 6 0 0  and 4 2 0 
11753204		 # 	collision with: 4 2 0  and 6 1 1 
11753206		 # 	collision with: 1 3 0  and 1 5 0 
11753220		 # 	collision with: 1 4 0  and 1 5 0 
11753222		 # 	collision with: 3 7 0  and 5 7 0 
11753252		 # 	collision with: 0 0 0  and 1 1 1 
11753254		 # 	collision with: 6 5 0  and 9 6 0 
11753268		 # 	collision with: 10 5 0  and 9 6 0 
11753270		 # 	collision with: 0 0 0  and 10 1 0 
11753283		 # 	collision with: 8 1 0  and 8 0 1 
11753284		 # 	collision with: 8 5 0  and 4 6 0 
11753288		 # 	collision with: 7 3 0  and 7 5 0 
11753290		 # 	collision with: 0 0 0  and 1 1 1 
11753293		 # 	collision with: 2 1 0  and 0 2 1 
11753295		 # 	collision with: 10 0 0  and 10 1 0 
11753333		 # 	collision with: 10 5 0  and 4 6 0 
11753335		 # 	collision with: 3 10 0  and 2 1 1 
11753337		 # 	collision with: 0 0 0  and 1 2 0 
11753339		 # 	collision with: 8 1 0  and 6 2 0 
11753352		 # 	collision with: 7 4 0  and 10 6 0 
11753354		 # 	collision with: 10 3 0  and 5 4 0 
11753360		 # 	collision with: 0 1 0  and 8 2 0 
11753362		 # 	collision with: 3 8 0  and 5 1 1 
11753372		 # 	collision with: 0 4 0  and 10 0 1 
11753392		 # 	collision with: 8 7 0  and 4 0 1 
11753394		 # 	collision with: 6 4 0  and 9 6 0 
11753405		 # 	collision with: 0 8 0  and 10 0 1 
11753407		 # 	collision with: 7 3 0  and 5 4 0 
11753426		 # 	collision with: 9 2 0  and 0 3 0 
11753436		 # 	collision with: 5 1 0  and 3 2 0 
11753438		 # 	collision with: 9 0 0  and 8 2 0 
11753456		 # 	collision with: 0 0 0  and 9 1 0 
11753458		 # 	collision with: 5 3 0  and 1 0 1 
11753520		 # 	collision with: 3 2 0  and 6 0 1 
11753522		 # 	collision with: 2 5 0  and 1 0 1 
11753532		 # 	collision with: 4 6 0  and 5 0 1 
11753534		 # 	collision with: 9 3 0  and 3 1 1 
11753553		 # 	collision with: 8 2 0  and 4 4 0 
11753555		 # 	collision with: 3 2 0  and 9 3 0 
11753564		 # 	collision with: 2 3 0  and 2 4 0 
11753566		 # 	collision with: 9 10 0  and 3 0 1 
11753584		 # 	collision with: 3 7 0  and 5 7 0 
11753586		 # 	collision with: 9 4 0  and 0 0 1 
11753596		 # 	collision with: 0 0 0  and 7 1 0 
11753598		 # 	collision with: 8 1 0  and 6 2 0 
11753606		 # 	collision with: 9 0 0  and 8 2 0 
11753621		 # 	collision with: 8 2 0  and 4 4 0 
11753623		 # 	collision with: 0 3 0  and 4 5 0 
11753625		 # 	collision with: 8 2 0  and 4 4 0 
11753627		 # 	collision with: 9 2 0  and 0 3 0 
11753633		 # 	collision with: 8 2 0  and 4 4 0 
11753635		 # 	collision with: 3 5 0  and 6 6 0 
11753665		 # 	collision with: 8 2 0  and 4 4 0 
11753667		 # 	collision with: 2 4 0  and 7 6 0 
11753668		 # 	collision with: 5 1 0  and 0 1 1 
11753670		 # 	collision with: 10 6 0  and 1 0 1 
11753672		 # 	collision with: 5 0 0  and 3 2 0 
11753674		 # 	collision with: 6 3 0  and 4 5 0 
11753688		 # 	collision with: 1 4 0  and 4 0 1 
11753704		 # 	collision with: 2 3 0  and 7 0 1 
11753706		 # 	collision with: 1 10 0  and 3 10 0 
11753736		 # 	collision with: 2 1 0  and 3 1 0 
11753738		 # 	collision with: 0 4 0  and 8 5 0 
11753752		 # 	collision with: 3 1 0  and 6 2 0 
11753754		 # 	collision with: 0 2 0  and 10 3 0 
11753765		 # 	collision with: 8 2 0  and 4 4 0 
11753767		 # 	collision with: 5 0 0  and 2 2 0 
11753768		 # 	collision with: 9 4 0  and 0 6 0 
11753770		 # 	collision with: 10 3 0  and 5 4 0 
11753772		 # 	collision with: 9 0 0  and 3 1 0 
11753774		 # 	collision with: 5 9 0  and 0 1 1 
11753777		 # 	collision with: 8 2 0  and 4 4 0 
11753817		 # 	collision with: 8 2 0  and 4 4 0 
11753819		 # 	collision with: 7 2 0  and 5 0 1 
11753821		 # 	collision with: 8 2 0  and 4 4 0 
11753836		 # 	collision with: 4 2 0  and 1 0 1 
11753838		 # 	collision with: 3 2 0  and 9 3 0 
11753846		 # 	collision with: 2 6 0  and 10 0 1 
11753856		 # 	collision with: 9 0 0  and 6 2 0 
11753858		 # 	collision with: 4 0 0  and 7 2 0 
11753876		 # 	collision with: 8 2 0  and 10 0 1 
11753878		 # 	collision with: 2 4 0  and 7 0 1 
11753889		 # 	collision with: 8 2 0  and 4 4 0 
11753891		 # 	collision with: 0 0 0  and 1 1 1 
11753908		 # 	collision with: 0 1 0  and 8 2 0 
11753920		 # 	collision with: 3 2 0  and 4 4 0 
11753922		 # 	collision with: 2 6 0  and 8 0 1 
11753940		 # 	collision with: 5 0 0  and 8 2 0 
11753942		 # 	collision with: 0 6 0  and 7 1 1 
7.32967secs	4120
