# prime 11
# degree 2
# input variables 3
# output variables 5
# reload computed balance functions from file balance-142of3248-p11d2m3-debug.log
# p = 11
# n = 5
# smalldomain p^m 1331
# domain p^n 161051
#	 p^2 = 121
#	 p^3 = 1331
#	 p^4 = 14641
#	 p^5 = 161051
#	 p^6 = 1771561
#	 p^7 = 19487171
#	 p^8 = 214358881
#	 p^9 = 2357947691
opening file : balance-142of3248-p11d2m3-debug.log
reloading for step2...
852001		 # 	collision with: 3 2 0 0 0  and 5 2 0 0 0 
852003		 # 	collision with: 7 1 1 0 0  and 7 3 1 0 0 
852041		 # 	collision with: 0 5 0 0 0  and 6 6 0 0 0 
852043		 # 	collision with: 4 9 5 0 0  and 4 9 6 0 0 
852048		 # 	collision with: 4 0 0 0 0  and 5 0 0 0 0 
852050		 # 	collision with: 7 3 0 0 0  and 7 4 0 0 0 
852077		 # 	collision with: 3 5 0 0 0  and 5 6 0 0 0 
852100		 # 	collision with: 4 0 0 0 0  and 5 0 0 0 0 
852102		 # 	collision with: 7 0 0 0 0  and 7 1 0 0 0 
852108		 # 	collision with: 4 0 0 0 0  and 5 0 0 0 0 
852110		 # 	collision with: 7 2 0 0 0  and 7 4 0 0 0 
852133		 # 	collision with: 3 2 0 0 0  and 5 2 0 0 0 
852160		 # 	collision with: 4 0 0 0 0  and 5 0 0 0 0 
852162		 # 	collision with: 7 5 0 0 0  and 7 6 0 0 0 
852169		 # 	collision with: 4 9 0 0 0  and 6 9 0 0 0 
852171		 # 	collision with: 7 3 5 0 0  and 7 5 5 0 0 
852209		 # 	collision with: 3 5 0 0 0  and 5 6 0 0 0 
852211		 # 	collision with: 7 2 4 0 0  and 7 4 4 0 0 
852212		 # 	collision with: 4 0 0 0 0  and 5 0 0 0 0 
852214		 # 	collision with: 7 2 0 0 0  and 7 3 0 0 0 
852237		 # 	collision with: 1 5 0 0 0  and 0 6 0 0 0 
852239		 # 	collision with: 7 2 5 0 0  and 7 5 6 0 0 
852264		 # 	collision with: 4 0 0 0 0  and 5 0 0 0 0 
852266		 # 	collision with: 7 4 0 0 0  and 7 6 0 0 0 
852305		 # 	collision with: 0 5 0 0 0  and 6 6 0 0 0 
852307		 # 	collision with: 7 3 5 0 0  and 7 2 6 0 0 
852316		 # 	collision with: 4 0 0 0 0  and 5 0 0 0 0 
852318		 # 	collision with: 7 1 0 0 0  and 7 3 0 0 0 
852324		 # 	collision with: 1 3 9 6 0  and 7 0 0 0 1 
852326		 # 	collision with: 0 7 7 0 0  and 10 10 0 1 0 
852328		 # 	collision with: 1 10 0 0 0  and 3 10 0 0 0 
852330		 # 	collision with: 7 0 10 0 0  and 7 1 10 0 0 
852332		 # 	collision with: 0 5 0 0 0  and 1 5 0 0 0 
852334		 # 	collision with: 7 2 5 0 0  and 7 4 5 0 0 
852336		 # 	collision with: 5 7 0 0 0  and 6 7 0 0 0 
852340		 # 	collision with: 2 8 0 0 0  and 3 8 0 0 0 
852342		 # 	collision with: 7 1 8 0 0  and 7 3 8 0 0 
852344		 # 	collision with: 3 2 0 0 0  and 5 2 0 0 0 
852346		 # 	collision with: 7 1 2 0 0  and 7 3 2 0 0 
852348		 # 	collision with: 4 9 0 0 0  and 6 9 0 0 0 
852350		 # 	collision with: 7 1 9 0 0  and 7 2 9 0 0 
852352		 # 	collision with: 0 3 0 0 0  and 2 3 0 0 0 
852354		 # 	collision with: 7 1 3 0 0  and 7 2 3 0 0 
852356		 # 	collision with: 3 4 0 0 0  and 4 4 0 0 0 
852358		 # 	collision with: 7 2 4 0 0  and 7 3 4 0 0 
852360		 # 	collision with: 2 6 0 0 0  and 4 6 0 0 0 
852362		 # 	collision with: 7 0 6 0 0  and 7 1 6 0 0 
852364		 # 	collision with: 1 1 0 0 0  and 2 1 0 0 0 
852366		 # 	collision with: 7 2 1 0 0  and 7 4 1 0 0 
852376		 # 	collision with: 0 5 0 0 0  and 1 5 0 0 0 
852378		 # 	collision with: 7 2 5 0 0  and 7 4 5 0 0 
852389		 # 	collision with: 1 10 0 0 0  and 3 10 0 0 0 
852391		 # 	collision with: 7 1 4 0 0  and 7 1 6 0 0 
852413		 # 	collision with: 7 4 0 0 0  and 0 6 0 0 0 
852415		 # 	collision with: 7 9 4 0 0  and 7 3 6 0 0 
852428		 # 	collision with: 2 8 0 0 0  and 3 8 0 0 0 
852430		 # 	collision with: 7 1 8 0 0  and 7 3 8 0 0 
852482		 # 	collision with: 7 1 9 0 0  and 7 2 9 0 0 
852487		 # 	collision with: 7 4 0 0 0  and 7 6 0 0 0 
852525		 # 	collision with: 9 4 0 0 0  and 10 6 0 0 0 
852527		 # 	collision with: 7 10 4 0 0  and 7 8 6 0 0 
852532		 # 	collision with: 3 4 0 0 0  and 4 4 0 0 0 
852534		 # 	collision with: 7 2 4 0 0  and 7 3 4 0 0 
852561		 # 	collision with: 0 5 0 0 0  and 1 5 0 0 0 
852563		 # 	collision with: 7 5 4 0 0  and 7 2 6 0 0 
852584		 # 	collision with: 1 1 0 0 0  and 2 1 0 0 0 
852586		 # 	collision with: 7 2 1 0 0  and 7 4 1 0 0 
852592		 # 	collision with: 1 10 0 0 0  and 3 10 0 0 0 
852594		 # 	collision with: 7 0 10 0 0  and 7 1 10 0 0 
852617		 # 	collision with: 1 1 0 0 0  and 2 1 0 0 0 
852619		 # 	collision with: 7 4 0 0 0  and 7 6 0 0 0 
852644		 # 	collision with: 5 7 0 0 0  and 6 7 0 0 0 
852646		 # 	collision with: 7 0 7 0 0  and 7 2 7 0 0 
852653		 # 	collision with: 1 10 0 0 0  and 3 10 0 0 0 
852655		 # 	collision with: 1 1 4 0 0  and 1 1 6 0 0 
852693		 # 	collision with: 0 5 0 0 0  and 1 5 0 0 0 
852695		 # 	collision with: 8 4 4 0 0  and 8 4 6 0 0 
852696		 # 	collision with: 3 2 0 0 0  and 5 2 0 0 0 
852721		 # 	collision with: 7 4 0 0 0  and 0 6 0 0 0 
852723		 # 	collision with: 7 1 4 0 0  and 7 3 6 0 0 
852748		 # 	collision with: 0 3 0 0 0  and 2 3 0 0 0 
852750		 # 	collision with: 7 1 3 0 0  and 7 2 3 0 0 
852789		 # 	collision with: 9 4 0 0 0  and 10 6 0 0 0 
852791		 # 	collision with: 7 9 4 0 0  and 7 8 6 0 0 
852800		 # 	collision with: 2 6 0 0 0  and 4 6 0 0 0 
852802		 # 	collision with: 7 0 6 0 0  and 7 1 6 0 0 
852808		 # 	collision with: 10 6 5 5 0  and 1 0 0 0 1 
852810		 # 	collision with: 10 4 0 0 0  and 8 4 2 1 0 
852812		 # 	collision with: 4 9 0 0 0  and 6 9 0 0 0 
852814		 # 	collision with: 7 3 9 0 0  and 7 4 9 0 0 
852816		 # 	collision with: 1 10 0 0 0  and 3 10 0 0 0 
852818		 # 	collision with: 7 4 10 0 0  and 7 5 10 0 0 
852820		 # 	collision with: 0 3 0 0 0  and 2 3 0 0 0 
852822		 # 	collision with: 7 1 3 0 0  and 7 3 3 0 0 
852824		 # 	collision with: 0 5 0 0 0  and 1 5 0 0 0 
852826		 # 	collision with: 7 5 5 0 0  and 7 6 5 0 0 
852828		 # 	collision with: 3 4 0 0 0  and 4 4 0 0 0 
852830		 # 	collision with: 7 1 4 0 0  and 7 2 4 0 0 
852832		 # 	collision with: 5 7 0 0 0  and 6 7 0 0 0 
852836		 # 	collision with: 2 6 0 0 0  and 4 6 0 0 0 
852838		 # 	collision with: 7 3 6 0 0  and 7 4 6 0 0 
852840		 # 	collision with: 2 8 0 0 0  and 3 8 0 0 0 
852842		 # 	collision with: 7 1 8 0 0  and 7 2 8 0 0 
852844		 # 	collision with: 1 1 0 0 0  and 2 1 0 0 0 
852846		 # 	collision with: 7 4 1 0 0  and 7 5 1 0 0 
852848		 # 	collision with: 3 2 0 0 0  and 5 2 0 0 0 
852850		 # 	collision with: 7 5 2 0 0  and 7 6 2 0 0 
852860		 # 	collision with: 1 10 0 0 0  and 3 10 0 0 0 
852862		 # 	collision with: 7 4 10 0 0  and 7 5 10 0 0 
852873		 # 	collision with: 4 0 0 0 0  and 5 0 0 0 0 
852875		 # 	collision with: 10 0 4 0 0  and 10 0 5 0 0 
852897		 # 	collision with: 4 0 0 0 0  and 5 0 0 0 0 
852899		 # 	collision with: 7 4 0 0 0  and 7 5 0 0 0 
852912		 # 	collision with: 0 5 0 0 0  and 1 5 0 0 0 
852914		 # 	collision with: 7 5 5 0 0  and 7 6 5 0 0 
852964		 # 	collision with: 5 7 0 0 0  and 6 7 0 0 0 
852966		 # 	collision with: 7 1 7 0 0  and 7 3 7 0 0 
852969		 # 	collision with: 4 0 0 0 0  and 5 0 0 0 0 
852971		 # 	collision with: 7 0 4 0 0  and 7 0 5 0 0 
853009		 # 	collision with: 4 0 0 0 0  and 5 0 0 0 0 
853011		 # 	collision with: 8 0 4 0 0  and 8 0 5 0 0 
853016		 # 	collision with: 2 8 0 0 0  and 3 8 0 0 0 
853018		 # 	collision with: 7 1 8 0 0  and 7 2 8 0 0 
853045		 # 	collision with: 4 0 0 0 0  and 5 0 0 0 0 
853047		 # 	collision with: 2 0 4 0 0  and 2 0 5 0 0 
853068		 # 	collision with: 3 2 0 0 0  and 5 2 0 0 0 
853078		 # 	collision with: 7 3 9 0 0  and 7 4 9 0 0 
853103		 # 	collision with: 9 0 4 0 0  and 9 0 5 0 0 
853128		 # 	collision with: 0 3 0 0 0  and 2 3 0 0 0 
853130		 # 	collision with: 7 1 3 0 0  and 7 3 3 0 0 
853137		 # 	collision with: 4 0 0 0 0  and 5 0 0 0 0 
853177		 # 	collision with: 4 0 0 0 0  and 5 0 0 0 0 
853179		 # 	collision with: 4 0 4 0 0  and 4 0 5 0 0 
853180		 # 	collision with: 3 4 0 0 0  and 4 4 0 0 0 
853182		 # 	collision with: 7 1 4 0 0  and 7 2 4 0 0 
853205		 # 	collision with: 4 0 0 0 0  and 5 0 0 0 0 
853232		 # 	collision with: 2 6 0 0 0  and 4 6 0 0 0 
853234		 # 	collision with: 7 3 6 0 0  and 7 4 6 0 0 
853273		 # 	collision with: 4 0 0 0 0  and 5 0 0 0 0 
853275		 # 	collision with: 1 0 4 0 0  and 1 0 5 0 0 
853284		 # 	collision with: 1 1 0 0 0  and 2 1 0 0 0 
853286		 # 	collision with: 7 4 1 0 0  and 7 5 1 0 0 
853292		 # 	collision with: 2 2 5 1 0  and 6 0 0 0 1 
853294		 # 	collision with: 3 10 6 0 0  and 0 3 0 1 0 
853296		 # 	collision with: 2 8 0 0 0  and 3 8 0 0 0 
853298		 # 	collision with: 7 0 8 0 0  and 7 2 8 0 0 
853300		 # 	collision with: 3 4 0 0 0  and 4 4 0 0 0 
853302		 # 	collision with: 7 0 4 0 0  and 7 1 4 0 0 
853304		 # 	collision with: 1 10 0 0 0  and 3 10 0 0 0 
853306		 # 	collision with: 7 2 10 0 0  and 7 4 10 0 0 
853308		 # 	collision with: 3 2 0 0 0  and 5 2 0 0 0 
853310		 # 	collision with: 7 3 2 0 0  and 7 4 2 0 0 
853312		 # 	collision with: 2 6 0 0 0  and 4 6 0 0 0 
853314		 # 	collision with: 7 0 6 0 0  and 7 2 6 0 0 
853316		 # 	collision with: 0 5 0 0 0  and 1 5 0 0 0 
853318		 # 	collision with: 7 2 5 0 0  and 7 3 5 0 0 
853320		 # 	collision with: 4 9 0 0 0  and 6 9 0 0 0 
853322		 # 	collision with: 7 5 9 0 0  and 7 6 9 0 0 
853324		 # 	collision with: 1 1 0 0 0  and 2 1 0 0 0 
853326		 # 	collision with: 7 0 1 0 0  and 7 1 1 0 0 
853328		 # 	collision with: 5 7 0 0 0  and 6 7 0 0 0 
853332		 # 	collision with: 0 3 0 0 0  and 2 3 0 0 0 
853334		 # 	collision with: 7 2 3 0 0  and 7 3 3 0 0 
853344		 # 	collision with: 3 4 0 0 0  and 4 4 0 0 0 
853346		 # 	collision with: 7 0 4 0 0  and 7 1 4 0 0 
853357		 # 	collision with: 1 1 0 0 0  and 2 1 0 0 0 
853359		 # 	collision with: 2 10 3 0 0  and 2 10 5 0 0 
853381		 # 	collision with: 3 2 0 0 0  and 5 2 0 0 0 
853383		 # 	collision with: 7 3 2 0 0  and 7 5 2 0 0 
853396		 # 	collision with: 3 2 0 0 0  and 5 2 0 0 0 
853448		 # 	collision with: 0 5 0 0 0  and 1 5 0 0 0 
853450		 # 	collision with: 7 2 5 0 0  and 7 3 5 0 0 
853453		 # 	collision with: 1 10 0 0 0  and 3 10 0 0 0 
853493		 # 	collision with: 0 3 0 0 0  and 1 5 0 0 0 
853495		 # 	collision with: 10 1 3 0 0  and 10 1 5 0 0 
853500		 # 	collision with: 1 1 0 0 0  and 2 1 0 0 0 
853502		 # 	collision with: 7 0 1 0 0  and 7 1 1 0 0 
853529		 # 	collision with: 2 3 0 0 0  and 1 5 0 0 0 
853531		 # 	collision with: 7 3 0 0 0  and 7 5 0 0 0 
853552		 # 	collision with: 0 3 0 0 0  and 2 3 0 0 0 
853554		 # 	collision with: 7 2 3 0 0  and 7 3 3 0 0 
853560		 # 	collision with: 2 8 0 0 0  and 3 8 0 0 0 
853562		 # 	collision with: 7 0 8 0 0  and 7 2 8 0 0 
853585		 # 	collision with: 1 10 0 0 0  and 3 10 0 0 0 
853587		 # 	collision with: 7 4 3 0 0  and 7 4 5 0 0 
853612		 # 	collision with: 1 10 0 0 0  and 3 10 0 0 0 
853614		 # 	collision with: 7 2 10 0 0  and 7 4 10 0 0 
853621		 # 	collision with: 1 1 0 0 0  and 2 1 0 0 0 
853623		 # 	collision with: 5 10 3 0 0  and 5 10 5 0 0 
853661		 # 	collision with: 2 3 0 0 0  and 1 5 0 0 0 
853663		 # 	collision with: 7 3 0 0 0  and 7 5 0 0 0 
853664		 # 	collision with: 2 6 0 0 0  and 4 6 0 0 0 
853666		 # 	collision with: 7 0 6 0 0  and 7 2 6 0 0 
853691		 # 	collision with: 7 3 2 0 0  and 7 5 2 0 0 
853718		 # 	collision with: 7 5 9 0 0  and 7 6 9 0 0 
853757		 # 	collision with: 0 3 0 0 0  and 1 5 0 0 0 
853768		 # 	collision with: 5 7 0 0 0  and 6 7 0 0 0 
853770		 # 	collision with: 7 2 7 0 0  and 7 4 7 0 0 
853776		 # 	collision with: 2 0 8 4 0  and 3 1 0 0 1 
853778		 # 	collision with: 2 2 10 0 0  and 9 3 0 1 0 
853780		 # 	collision with: 5 7 0 0 0  and 6 7 0 0 0 
853784		 # 	collision with: 4 9 0 0 0  and 6 9 0 0 0 
853786		 # 	collision with: 7 1 9 0 0  and 7 3 9 0 0 
853788		 # 	collision with: 2 6 0 0 0  and 4 6 0 0 0 
853790		 # 	collision with: 7 3 6 0 0  and 7 5 6 0 0 
853792		 # 	collision with: 1 10 0 0 0  and 3 10 0 0 0 
853794		 # 	collision with: 7 1 10 0 0  and 7 2 10 0 0 
853796		 # 	collision with: 2 8 0 0 0  and 3 8 0 0 0 
853798		 # 	collision with: 7 0 8 0 0  and 7 1 8 0 0 
853800		 # 	collision with: 0 3 0 0 0  and 2 3 0 0 0 
853802		 # 	collision with: 7 2 3 0 0  and 7 4 3 0 0 
853804		 # 	collision with: 1 1 0 0 0  and 2 1 0 0 0 
853806		 # 	collision with: 7 1 1 0 0  and 7 3 1 0 0 
853808		 # 	collision with: 0 5 0 0 0  and 1 5 0 0 0 
853810		 # 	collision with: 7 4 5 0 0  and 7 6 5 0 0 
853812		 # 	collision with: 3 2 0 0 0  and 5 2 0 0 0 
853814		 # 	collision with: 7 1 2 0 0  and 7 2 2 0 0 
853816		 # 	collision with: 3 4 0 0 0  and 4 4 0 0 0 
853818		 # 	collision with: 7 4 4 0 0  and 7 6 4 0 0 
853830		 # 	collision with: 7 1 9 0 0  and 7 3 9 0 0 
853843		 # 	collision with: 7 8 3 0 0  and 7 2 4 0 0 
853865		 # 	collision with: 3 4 0 0 0  and 4 4 0 0 0 
853867		 # 	collision with: 7 4 3 0 0  and 7 0 4 0 0 
853880		 # 	collision with: 1 10 0 0 0  and 3 10 0 0 0 
853882		 # 	collision with: 7 1 10 0 0  and 7 2 10 0 0 
853932		 # 	collision with: 0 3 0 0 0  and 2 3 0 0 0 
853934		 # 	collision with: 7 2 3 0 0  and 7 4 3 0 0 
853937		 # 	collision with: 2 3 0 0 0  and 0 4 0 0 0 
853939		 # 	collision with: 7 5 3 0 0  and 7 6 4 0 0 
853977		 # 	collision with: 4 3 0 0 0  and 10 4 0 0 0 
853979		 # 	collision with: 1 2 3 0 0  and 1 2 4 0 0 
853984		 # 	collision with: 0 5 0 0 0  and 1 5 0 0 0 
853986		 # 	collision with: 7 4 5 0 0  and 7 6 5 0 0 
854013		 # 	collision with: 1 1 0 0 0  and 2 1 0 0 0 
854015		 # 	collision with: 9 3 3 0 0  and 9 3 4 0 0 
854036		 # 	collision with: 3 4 0 0 0  and 4 4 0 0 0 
854038		 # 	collision with: 7 4 4 0 0  and 7 6 4 0 0 
854044		 # 	collision with: 5 7 0 0 0  and 6 7 0 0 0 
854046		 # 	collision with: 7 3 7 0 0  and 7 5 7 0 0 
854069		 # 	collision with: 2 3 0 0 0  and 0 4 0 0 0 
854071		 # 	collision with: 7 2 3 0 0  and 7 0 4 0 0 
854096		 # 	collision with: 2 6 0 0 0  and 4 6 0 0 0 
854098		 # 	collision with: 7 3 6 0 0  and 7 5 6 0 0 
854105		 # 	collision with: 3 2 0 0 0  and 5 2 0 0 0 
854107		 # 	collision with: 7 9 3 0 0  and 7 9 4 0 0 
854145		 # 	collision with: 1 1 0 0 0  and 2 1 0 0 0 
854147		 # 	collision with: 7 3 3 0 0  and 7 3 4 0 0 
854148		 # 	collision with: 2 8 0 0 0  and 3 8 0 0 0 
854150		 # 	collision with: 7 0 8 0 0  and 7 1 8 0 0 
854173		 # 	collision with: 3 4 0 0 0  and 4 4 0 0 0 
854175		 # 	collision with: 7 3 4 0 0  and 7 4 4 0 0 
854200		 # 	collision with: 1 1 0 0 0  and 2 1 0 0 0 
854202		 # 	collision with: 7 1 1 0 0  and 7 3 1 0 0 
854241		 # 	collision with: 4 3 0 0 0  and 10 4 0 0 0 
854243		 # 	collision with: 7 2 3 0 0  and 7 2 4 0 0 
854252		 # 	collision with: 3 2 0 0 0  and 5 2 0 0 0 
854260		 # 	collision with: 4 2 2 4 0  and 8 1 0 0 1 
854262		 # 	collision with: 3 9 8 0 0  and 9 8 0 1 0 
854264		 # 	collision with: 2 6 0 0 0  and 4 6 0 0 0 
854266		 # 	collision with: 7 1 6 0 0  and 7 2 6 0 0 
854268		 # 	collision with: 0 3 0 0 0  and 2 3 0 0 0 
854270		 # 	collision with: 7 3 3 0 0  and 7 4 3 0 0 
854272		 # 	collision with: 3 2 0 0 0  and 5 2 0 0 0 
854274		 # 	collision with: 7 4 2 0 0  and 7 6 2 0 0 
854276		 # 	collision with: 5 7 0 0 0  and 6 7 0 0 0 
854280		 # 	collision with: 1 10 0 0 0  and 3 10 0 0 0 
854282		 # 	collision with: 7 5 10 0 0  and 7 6 10 0 0 
854284		 # 	collision with: 1 1 0 0 0  and 2 1 0 0 0 
854286		 # 	collision with: 7 3 1 0 0  and 7 4 1 0 0 
854288		 # 	collision with: 3 4 0 0 0  and 4 4 0 0 0 
854290		 # 	collision with: 7 3 4 0 0  and 7 5 4 0 0 
854292		 # 	collision with: 4 9 0 0 0  and 6 9 0 0 0 
854294		 # 	collision with: 7 3 9 0 0  and 7 5 9 0 0 
854296		 # 	collision with: 2 8 0 0 0  and 3 8 0 0 0 
854298		 # 	collision with: 7 5 8 0 0  and 7 6 8 0 0 
854300		 # 	collision with: 0 5 0 0 0  and 1 5 0 0 0 
854302		 # 	collision with: 7 1 5 0 0  and 7 3 5 0 0 
854312		 # 	collision with: 0 3 0 0 0  and 2 3 0 0 0 
854314		 # 	collision with: 7 3 3 0 0  and 7 4 3 0 0 
854325		 # 	collision with: 0 3 0 0 0  and 2 3 0 0 0 
854327		 # 	collision with: 7 8 2 0 0  and 7 0 4 0 0 
854349		 # 	collision with: 6 2 0 0 0  and 4 4 0 0 0 
854351		 # 	collision with: 7 2 2 0 0  and 7 1 4 0 0 
854364		 # 	collision with: 5 7 0 0 0  and 6 7 0 0 0 
854366		 # 	collision with: 7 4 7 0 0  and 7 6 7 0 0 
854416		 # 	collision with: 1 1 0 0 0  and 2 1 0 0 0 
854418		 # 	collision with: 7 3 1 0 0  and 7 4 1 0 0 
854421		 # 	collision with: 2 8 0 0 0  and 3 8 0 0 0 
854423		 # 	collision with: 6 1 2 0 0  and 6 1 4 0 0 
854463		 # 	collision with: 3 3 2 0 0  and 3 3 4 0 0 
854470		 # 	collision with: 7 3 9 0 0  and 7 5 9 0 0 
854497		 # 	collision with: 5 7 0 0 0  and 6 7 0 0 0 
854499		 # 	collision with: 7 0 1 0 0  and 7 2 1 0 0 
854520		 # 	collision with: 0 5 0 0 0  and 1 5 0 0 0 
854522		 # 	collision with: 7 1 5 0 0  and 7 3 5 0 0 
854528		 # 	collision with: 2 6 0 0 0  and 4 6 0 0 0 
854530		 # 	collision with: 7 1 6 0 0  and 7 2 6 0 0 
854553		 # 	collision with: 2 8 0 0 0  and 3 8 0 0 0 
854555		 # 	collision with: 3 1 2 0 0  and 3 1 4 0 0 
854580		 # 	collision with: 3 2 0 0 0  and 5 2 0 0 0 
854589		 # 	collision with: 0 3 0 0 0  and 2 3 0 0 0 
854591		 # 	collision with: 9 8 2 0 0  and 9 8 4 0 0 
854629		 # 	collision with: 5 7 0 0 0  and 6 7 0 0 0 
854631		 # 	collision with: 7 0 1 0 0  and 7 2 1 0 0 
854632		 # 	collision with: 1 10 0 0 0  and 3 10 0 0 0 
854634		 # 	collision with: 7 5 10 0 0  and 7 6 10 0 0 
854657		 # 	collision with: 6 2 0 0 0  and 4 4 0 0 0 
854659		 # 	collision with: 7 2 6 0 0  and 7 4 6 0 0 
854684		 # 	collision with: 3 4 0 0 0  and 4 4 0 0 0 
854686		 # 	collision with: 7 3 4 0 0  and 7 5 4 0 0 
854725		 # 	collision with: 2 2 0 0 0  and 3 4 0 0 0 
854727		 # 	collision with: 10 3 2 0 0  and 10 3 4 0 0 
854736		 # 	collision with: 2 8 0 0 0  and 3 8 0 0 0 
854738		 # 	collision with: 7 5 8 0 0  and 7 6 8 0 0 
854744		 # 	collision with: 7 9 7 3 0  and 0 0 0 0 1 
854746		 # 	collision with: 6 0 7 0 0  and 0 2 4 1 0 
854748		 # 	collision with: 0 5 0 0 0  and 1 5 0 0 0 
854750		 # 	collision with: 7 4 5 0 0  and 7 5 5 0 0 
854752		 # 	collision with: 2 8 0 0 0  and 3 8 0 0 0 
854754		 # 	collision with: 7 4 8 0 0  and 7 6 8 0 0 
854756		 # 	collision with: 4 9 0 0 0  and 6 9 0 0 0 
854758		 # 	collision with: 7 0 9 0 0  and 7 1 9 0 0 
854760		 # 	collision with: 3 4 0 0 0  and 4 4 0 0 0 
854762		 # 	collision with: 7 2 4 0 0  and 7 4 4 0 0 
854764		 # 	collision with: 1 1 0 0 0  and 2 1 0 0 0 
854766		 # 	collision with: 7 4 1 0 0  and 7 6 1 0 0 
854768		 # 	collision with: 1 10 0 0 0  and 3 10 0 0 0 
854770		 # 	collision with: 7 3 10 0 0  and 7 5 10 0 0 
854772		 # 	collision with: 5 7 0 0 0  and 6 7 0 0 0 
854776		 # 	collision with: 3 2 0 0 0  and 5 2 0 0 0 
854778		 # 	collision with: 7 2 2 0 0  and 7 4 2 0 0 
854780		 # 	collision with: 0 3 0 0 0  and 2 3 0 0 0 
854782		 # 	collision with: 7 3 3 0 0  and 7 5 3 0 0 
854784		 # 	collision with: 2 6 0 0 0  and 4 6 0 0 0 
854786		 # 	collision with: 7 4 6 0 0  and 7 5 6 0 0 
854796		 # 	collision with: 2 8 0 0 0  and 3 8 0 0 0 
854798		 # 	collision with: 7 4 8 0 0  and 7 6 8 0 0 
854809		 # 	collision with: 0 2 0 0 0  and 2 3 0 0 0 
854811		 # 	collision with: 7 2 0 0 0  and 7 3 0 0 0 
854833		 # 	collision with: 2 2 0 0 0  and 1 3 0 0 0 
854835		 # 	collision with: 7 3 2 0 0  and 7 1 3 0 0 
854848		 # 	collision with: 3 4 0 0 0  and 4 4 0 0 0 
854850		 # 	collision with: 7 2 4 0 0  and 7 4 4 0 0 
854900		 # 	collision with: 1 10 0 0 0  and 3 10 0 0 0 
854902		 # 	collision with: 7 3 10 0 0  and 7 5 10 0 0 
854905		 # 	collision with: 5 7 0 0 0  and 6 7 0 0 0 
854907		 # 	collision with: 7 0 2 0 0  and 7 3 3 0 0 
854945		 # 	collision with: 6 2 0 0 0  and 1 3 0 0 0 
854947		 # 	collision with: 5 4 2 0 0  and 5 4 3 0 0 
854952		 # 	collision with: 3 2 0 0 0  and 5 2 0 0 0 
854981		 # 	collision with: 3 2 0 0 0  and 5 2 0 0 0 
854983		 # 	collision with: 7 9 2 0 0  and 7 4 3 0 0 
855004		 # 	collision with: 2 6 0 0 0  and 4 6 0 0 0 
855006		 # 	collision with: 7 4 6 0 0  and 7 5 6 0 0 
855012		 # 	collision with: 0 5 0 0 0  and 1 5 0 0 0 
855014		 # 	collision with: 7 4 5 0 0  and 7 5 5 0 0 
855037		 # 	collision with: 5 7 0 0 0  and 6 7 0 0 0 
855039		 # 	collision with: 1 5 2 0 0  and 1 5 3 0 0 
855066		 # 	collision with: 7 0 9 0 0  and 7 1 9 0 0 
855075		 # 	collision with: 7 2 0 0 0  and 7 3 0 0 0 
855113		 # 	collision with: 3 2 0 0 0  and 5 2 0 0 0 
855115		 # 	collision with: 7 4 2 0 0  and 7 3 3 0 0 
855116		 # 	collision with: 1 1 0 0 0  and 2 1 0 0 0 
855118		 # 	collision with: 7 4 1 0 0  and 7 6 1 0 0 
855141		 # 	collision with: 2 2 0 0 0  and 1 3 0 0 0 
855143		 # 	collision with: 7 0 2 0 0  and 7 8 3 0 0 
855168		 # 	collision with: 5 7 0 0 0  and 6 7 0 0 0 
855170		 # 	collision with: 7 0 7 0 0  and 7 1 7 0 0 
855209		 # 	collision with: 6 2 0 0 0  and 1 3 0 0 0 
855211		 # 	collision with: 2 4 2 0 0  and 2 4 3 0 0 
855220		 # 	collision with: 0 3 0 0 0  and 2 3 0 0 0 
855222		 # 	collision with: 7 3 3 0 0  and 7 5 3 0 0 
855228		 # 	collision with: 5 7 10 1 0  and 0 1 0 0 1 
855230		 # 	collision with: 6 5 1 0 0  and 10 9 0 1 0 
855232		 # 	collision with: 3 4 0 0 0  and 4 4 0 0 0 
855234		 # 	collision with: 7 1 4 0 0  and 7 3 4 0 0 
855236		 # 	collision with: 3 2 0 0 0  and 5 2 0 0 0 
855238		 # 	collision with: 7 0 2 0 0  and 7 2 2 0 0 
855240		 # 	collision with: 0 5 0 0 0  and 1 5 0 0 0 
855242		 # 	collision with: 7 1 5 0 0  and 7 2 5 0 0 
855244		 # 	collision with: 1 1 0 0 0  and 2 1 0 0 0 
855246		 # 	collision with: 7 0 1 0 0  and 7 2 1 0 0 
855248		 # 	collision with: 0 3 0 0 0  and 2 3 0 0 0 
855250		 # 	collision with: 7 4 3 0 0  and 7 5 3 0 0 
855252		 # 	collision with: 2 8 0 0 0  and 3 8 0 0 0 
855254		 # 	collision with: 7 4 8 0 0  and 7 5 8 0 0 
855256		 # 	collision with: 1 10 0 0 0  and 3 10 0 0 0 
855258		 # 	collision with: 7 2 10 0 0  and 7 3 10 0 0 
855260		 # 	collision with: 2 6 0 0 0  and 4 6 0 0 0 
855262		 # 	collision with: 7 1 6 0 0  and 7 3 6 0 0 
855264		 # 	collision with: 4 9 0 0 0  and 6 9 0 0 0 
855266		 # 	collision with: 7 2 9 0 0  and 7 3 9 0 0 
855268		 # 	collision with: 5 7 0 0 0  and 6 7 0 0 0 
855280		 # 	collision with: 3 2 0 0 0  and 5 2 0 0 0 
855293		 # 	collision with: 4 1 0 0 0  and 5 3 0 0 0 
855295		 # 	collision with: 7 4 1 0 0  and 7 6 1 0 0 
855317		 # 	collision with: 4 1 0 0 0  and 5 3 0 0 0 
855319		 # 	collision with: 7 1 10 0 0  and 7 3 10 0 0 
855332		 # 	collision with: 1 1 0 0 0  and 2 1 0 0 0 
855334		 # 	collision with: 7 0 1 0 0  and 7 2 1 0 0 
855384		 # 	collision with: 2 8 0 0 0  and 3 8 0 0 0 
855386		 # 	collision with: 7 4 8 0 0  and 7 5 8 0 0 
855389		 # 	collision with: 0 1 0 0 0  and 2 3 0 0 0 
855391		 # 	collision with: 7 4 1 0 0  and 7 0 3 0 0 
855429		 # 	collision with: 4 1 0 0 0  and 5 3 0 0 0 
855431		 # 	collision with: 7 5 1 0 0  and 7 5 3 0 0 
855436		 # 	collision with: 2 6 0 0 0  and 4 6 0 0 0 
855438		 # 	collision with: 7 1 6 0 0  and 7 3 6 0 0 
855465		 # 	collision with: 9 1 0 0 0  and 1 3 0 0 0 
855467		 # 	collision with: 7 3 2 0 0  and 7 4 2 0 0 
855488		 # 	collision with: 5 7 0 0 0  and 6 7 0 0 0 
855490		 # 	collision with: 7 1 7 0 0  and 7 2 7 0 0 
855496		 # 	collision with: 3 4 0 0 0  and 4 4 0 0 0 
855498		 # 	collision with: 7 1 4 0 0  and 7 3 4 0 0 
855521		 # 	collision with: 0 1 0 0 0  and 2 3 0 0 0 
855523		 # 	collision with: 10 9 1 0 0  and 10 9 3 0 0 
855548		 # 	collision with: 0 5 0 0 0  and 1 5 0 0 0 
855550		 # 	collision with: 7 1 5 0 0  and 7 2 5 0 0 
855557		 # 	collision with: 4 1 0 0 0  and 5 3 0 0 0 
855559		 # 	collision with: 7 4 1 0 0  and 7 6 1 0 0 
855597		 # 	collision with: 9 1 0 0 0  and 1 3 0 0 0 
855599		 # 	collision with: 7 3 2 0 0  and 7 4 2 0 0 
855600		 # 	collision with: 0 3 0 0 0  and 2 3 0 0 0 
855602		 # 	collision with: 7 4 3 0 0  and 7 5 3 0 0 
855625		 # 	collision with: 4 1 0 0 0  and 5 3 0 0 0 
855627		 # 	collision with: 7 1 10 0 0  and 7 3 10 0 0 
855652		 # 	collision with: 1 10 0 0 0  and 3 10 0 0 0 
855654		 # 	collision with: 7 2 10 0 0  and 7 3 10 0 0 
855695		 # 	collision with: 5 5 1 0 0  and 5 5 3 0 0 
855706		 # 	collision with: 7 2 9 0 0  and 7 3 9 0 0 
855712		 # 	collision with: 0 5 6 1 0  and 4 2 0 0 1 
855714		 # 	collision with: 8 2 5 0 0  and 0 2 0 1 0 
855716		 # 	collision with: 0 3 0 0 0  and 2 3 0 0 0 
855718		 # 	collision with: 7 4 3 0 0  and 7 6 3 0 0 
855720		 # 	collision with: 5 7 0 0 0  and 6 7 0 0 0 
855724		 # 	collision with: 1 1 0 0 0  and 2 1 0 0 0 
855726		 # 	collision with: 7 2 1 0 0  and 7 3 1 0 0 
855728		 # 	collision with: 4 9 0 0 0  and 6 9 0 0 0 
855730		 # 	collision with: 7 4 9 0 0  and 7 5 9 0 0 
855732		 # 	collision with: 0 5 0 0 0  and 1 5 0 0 0 
855734		 # 	collision with: 7 3 5 0 0  and 7 5 5 0 0 
855736		 # 	collision with: 2 6 0 0 0  and 4 6 0 0 0 
855738		 # 	collision with: 7 4 6 0 0  and 7 6 6 0 0 
855740		 # 	collision with: 3 2 0 0 0  and 5 2 0 0 0 
855742		 # 	collision with: 7 4 2 0 0  and 7 5 2 0 0 
855744		 # 	collision with: 1 10 0 0 0  and 3 10 0 0 0 
855746		 # 	collision with: 7 0 10 0 0  and 7 2 10 0 0 
855748		 # 	collision with: 3 4 0 0 0  and 4 4 0 0 0 
855750		 # 	collision with: 7 0 4 0 0  and 7 2 4 0 0 
855752		 # 	collision with: 2 8 0 0 0  and 3 8 0 0 0 
855754		 # 	collision with: 7 3 8 0 0  and 7 5 8 0 0 
855764		 # 	collision with: 5 7 0 0 0  and 6 7 0 0 0 
855766		 # 	collision with: 7 2 7 0 0  and 7 3 7 0 0 
855777		 # 	collision with: 7 1 0 0 0  and 4 2 0 0 0 
855803		 # 	collision with: 7 1 1 0 0  and 7 2 1 0 0 
855818		 # 	collision with: 7 4 9 0 0  and 7 5 9 0 0 
855868		 # 	collision with: 2 6 0 0 0  and 4 6 0 0 0 
855870		 # 	collision with: 7 4 6 0 0  and 7 6 6 0 0 
855873		 # 	collision with: 5 1 0 0 0  and 2 2 0 0 0 
855875		 # 	collision with: 5 2 1 0 0  and 5 2 2 0 0 
855913		 # 	collision with: 8 1 0 0 0  and 3 2 0 0 0 
855915		 # 	collision with: 9 6 1 0 0  and 9 6 2 0 0 
855920		 # 	collision with: 1 10 0 0 0  and 3 10 0 0 0 
855922		 # 	collision with: 7 0 10 0 0  and 7 2 10 0 0 
855949		 # 	collision with: 5 1 0 0 0  and 6 2 0 0 0 
855951		 # 	collision with: 1 9 1 0 0  and 1 9 2 0 0 
855972		 # 	collision with: 2 8 0 0 0  and 3 8 0 0 0 
855974		 # 	collision with: 7 3 8 0 0  and 7 5 8 0 0 
855980		 # 	collision with: 0 3 0 0 0  and 2 3 0 0 0 
855982		 # 	collision with: 7 4 3 0 0  and 7 6 3 0 0 
856005		 # 	collision with: 5 1 0 0 0  and 2 2 0 0 0 
856007		 # 	collision with: 8 2 1 0 0  and 8 2 2 0 0 
856032		 # 	collision with: 1 1 0 0 0  and 2 1 0 0 0 
856034		 # 	collision with: 7 2 1 0 0  and 7 3 1 0 0 
856041		 # 	collision with: 7 1 0 0 0  and 4 2 0 0 0 
856043		 # 	collision with: 7 7 1 0 0  and 7 0 2 0 0 
856081		 # 	collision with: 5 1 0 0 0  and 6 2 0 0 0 
856084		 # 	collision with: 0 5 0 0 0  and 1 5 0 0 0 
856086		 # 	collision with: 7 3 5 0 0  and 7 5 5 0 0 
856109		 # 	collision with: 1 1 0 0 0  and 2 1 0 0 0 
856111		 # 	collision with: 7 1 1 0 0  and 7 2 1 0 0 
856136		 # 	collision with: 3 2 0 0 0  and 5 2 0 0 0 
856177		 # 	collision with: 8 1 0 0 0  and 3 2 0 0 0 
856179		 # 	collision with: 7 3 1 0 0  and 7 1 2 0 0 
856188		 # 	collision with: 3 4 0 0 0  and 4 4 0 0 0 
856190		 # 	collision with: 7 0 4 0 0  and 7 2 4 0 0 
856196		 # 	collision with: 2 8 1 6 0  and 1 1 0 0 1 
856198		 # 	collision with: 9 3 2 0 0  and 0 7 0 1 0 
856200		 # 	collision with: 3 2 0 0 0  and 5 2 0 0 0 
856202		 # 	collision with: 7 2 2 0 0  and 7 3 2 0 0 
856204		 # 	collision with: 1 1 0 0 0  and 2 1 0 0 0 
856206		 # 	collision with: 7 3 1 0 0  and 7 5 1 0 0 
856208		 # 	collision with: 2 8 0 0 0  and 3 8 0 0 0 
856210		 # 	collision with: 7 3 8 0 0  and 7 4 8 0 0 
856212		 # 	collision with: 2 6 0 0 0  and 4 6 0 0 0 
856214		 # 	collision with: 7 2 6 0 0  and 7 3 6 0 0 
856216		 # 	collision with: 5 7 0 0 0  and 6 7 0 0 0 
856220		 # 	collision with: 3 4 0 0 0  and 4 4 0 0 0 
856222		 # 	collision with: 7 5 4 0 0  and 7 6 4 0 0 
856224		 # 	collision with: 0 5 0 0 0  and 1 5 0 0 0 
856226		 # 	collision with: 7 0 5 0 0  and 7 2 5 0 0 
856228		 # 	collision with: 0 3 0 0 0  and 2 3 0 0 0 
856230		 # 	collision with: 7 5 3 0 0  and 7 6 3 0 0 
856232		 # 	collision with: 1 10 0 0 0  and 3 10 0 0 0 
856234		 # 	collision with: 7 4 10 0 0  and 7 6 10 0 0 
856236		 # 	collision with: 4 9 0 0 0  and 6 9 0 0 0 
856238		 # 	collision with: 7 0 9 0 0  and 7 2 9 0 0 
856248		 # 	collision with: 1 1 0 0 0  and 2 1 0 0 0 
856250		 # 	collision with: 7 3 1 0 0  and 7 5 1 0 0 
856261		 # 	collision with: 6 0 0 0 0  and 1 2 0 0 0 
856263		 # 	collision with: 7 6 0 0 0  and 7 2 2 0 0 
856285		 # 	collision with: 3 0 0 0 0  and 1 2 0 0 0 
856300		 # 	collision with: 2 6 0 0 0  and 4 6 0 0 0 
856302		 # 	collision with: 7 2 6 0 0  and 7 3 6 0 0 
856352		 # 	collision with: 3 4 0 0 0  and 4 4 0 0 0 
856354		 # 	collision with: 7 5 4 0 0  and 7 6 4 0 0 
856357		 # 	collision with: 3 4 0 0 0  and 4 4 0 0 0 
856359		 # 	collision with: 1 6 0 0 0  and 1 6 2 0 0 
856397		 # 	collision with: 6 0 0 0 0  and 7 2 0 0 0 
856404		 # 	collision with: 0 3 0 0 0  and 2 3 0 0 0 
856406		 # 	collision with: 7 5 3 0 0  and 7 6 3 0 0 
856435		 # 	collision with: 7 0 0 0 0  and 7 4 2 0 0 
856458		 # 	collision with: 7 0 9 0 0  and 7 2 9 0 0 
856464		 # 	collision with: 3 2 0 0 0  and 5 2 0 0 0 
856489		 # 	collision with: 3 4 0 0 0  and 4 4 0 0 0 
856491		 # 	collision with: 7 6 0 0 0  and 7 4 2 0 0 
856516		 # 	collision with: 2 8 0 0 0  and 3 8 0 0 0 
856518		 # 	collision with: 7 3 8 0 0  and 7 4 8 0 0 
856525		 # 	collision with: 6 0 0 0 0  and 1 2 0 0 0 
856527		 # 	collision with: 7 8 0 0 0  and 7 0 2 0 0 
856565		 # 	collision with: 4 9 0 0 0  and 6 9 0 0 0 
856567		 # 	collision with: 9 5 0 0 0  and 9 5 2 0 0 
856568		 # 	collision with: 5 7 0 0 0  and 6 7 0 0 0 
856570		 # 	collision with: 7 3 7 0 0  and 7 4 7 0 0 
856593		 # 	collision with: 3 0 0 0 0  and 1 2 0 0 0 
856595		 # 	collision with: 7 8 0 0 0  and 7 0 2 0 0 
856620		 # 	collision with: 0 5 0 0 0  and 1 5 0 0 0 
856622		 # 	collision with: 7 0 5 0 0  and 7 2 5 0 0 
856661		 # 	collision with: 6 0 0 0 0  and 7 2 0 0 0 
856663		 # 	collision with: 7 0 0 0 0  and 7 2 0 0 0 
856672		 # 	collision with: 1 10 0 0 0  and 3 10 0 0 0 
856674		 # 	collision with: 7 4 10 0 0  and 7 6 10 0 0 
856680		 # 	collision with: 10 1 1 5 0  and 7 1 0 0 1 
856682		 # 	collision with: 8 6 4 0 0  and 9 6 0 1 0 
856684		 # 	collision with: 1 1 0 0 0  and 2 1 0 0 0 
856686		 # 	collision with: 7 5 1 0 0  and 7 6 1 0 0 
856688		 # 	collision with: 2 6 0 0 0  and 4 6 0 0 0 
856690		 # 	collision with: 7 5 6 0 0  and 7 6 6 0 0 
856692		 # 	collision with: 3 4 0 0 0  and 4 4 0 0 0 
856694		 # 	collision with: 7 4 4 0 0  and 7 5 4 0 0 
856696		 # 	collision with: 0 3 0 0 0  and 2 3 0 0 0 
856698		 # 	collision with: 7 0 3 0 0  and 7 1 3 0 0 
856700		 # 	collision with: 4 9 0 0 0  and 6 9 0 0 0 
856702		 # 	collision with: 7 2 9 0 0  and 7 4 9 0 0 
856704		 # 	collision with: 3 2 0 0 0  and 5 2 0 0 0 
856706		 # 	collision with: 7 0 2 0 0  and 7 1 2 0 0 
856708		 # 	collision with: 2 8 0 0 0  and 3 8 0 0 0 
856710		 # 	collision with: 7 2 8 0 0  and 7 4 8 0 0 
856712		 # 	collision with: 5 7 0 0 0  and 6 7 0 0 0 
856716		 # 	collision with: 0 5 0 0 0  and 1 5 0 0 0 
856718		 # 	collision with: 7 3 5 0 0  and 7 4 5 0 0 
856720		 # 	collision with: 1 10 0 0 0  and 3 10 0 0 0 
856722		 # 	collision with: 7 3 10 0 0  and 7 4 10 0 0 
856732		 # 	collision with: 2 6 0 0 0  and 4 6 0 0 0 
856734		 # 	collision with: 7 5 6 0 0  and 7 6 6 0 0 
856745		 # 	collision with: 9 0 0 0 0  and 3 1 0 0 0 
856747		 # 	collision with: 7 4 0 0 0  and 7 1 1 0 0 
856769		 # 	collision with: 6 0 0 0 0  and 4 1 0 0 0 
856771		 # 	collision with: 7 2 0 0 0  and 7 3 1 0 0 
856784		 # 	collision with: 0 3 0 0 0  and 2 3 0 0 0 
856786		 # 	collision with: 7 0 3 0 0  and 7 1 3 0 0 
856836		 # 	collision with: 3 2 0 0 0  and 5 2 0 0 0 
856841		 # 	collision with: 0 3 0 0 0  and 2 3 0 0 0 
856843		 # 	collision with: 8 10 0 0 0  and 8 10 1 0 0 
856881		 # 	collision with: 10 0 0 0 0  and 5 1 0 0 0 
856883		 # 	collision with: 7 7 0 0 0  and 7 3 1 0 0 
856888		 # 	collision with: 5 7 0 0 0  and 6 7 0 0 0 
856890		 # 	collision with: 7 4 7 0 0  and 7 5 7 0 0 
856917		 # 	collision with: 3 4 0 0 0  and 4 4 0 0 0 
856919		 # 	collision with: 8 1 0 0 0  and 8 1 1 0 0 
856940		 # 	collision with: 1 10 0 0 0  and 3 10 0 0 0 
856942		 # 	collision with: 7 3 10 0 0  and 7 4 10 0 0 
856948		 # 	collision with: 1 1 0 0 0  and 2 1 0 0 0 
856950		 # 	collision with: 7 5 1 0 0  and 7 6 1 0 0 
856973		 # 	collision with: 0 3 0 0 0  and 2 3 0 0 0 
856975		 # 	collision with: 7 8 0 0 0  and 7 3 1 0 0 
857000		 # 	collision with: 3 4 0 0 0  and 4 4 0 0 0 
857002		 # 	collision with: 7 4 4 0 0  and 7 5 4 0 0 
857009		 # 	collision with: 9 0 0 0 0  and 3 1 0 0 0 
857011		 # 	collision with: 8 3 0 0 0  and 8 3 1 0 0 
857051		 # 	collision with: 5 1 0 0 0  and 5 1 1 0 0 
857054		 # 	collision with: 7 2 9 0 0  and 7 4 9 0 0 
857077		 # 	collision with: 6 0 0 0 0  and 4 1 0 0 0 
857079		 # 	collision with: 7 0 5 0 0  and 7 1 5 0 0 
857104		 # 	collision with: 2 8 0 0 0  and 3 8 0 0 0 
857106		 # 	collision with: 7 2 8 0 0  and 7 4 8 0 0 
857145		 # 	collision with: 10 0 0 0 0  and 5 1 0 0 0 
857147		 # 	collision with: 7 2 0 0 0  and 7 5 1 0 0 
857156		 # 	collision with: 0 5 0 0 0  and 1 5 0 0 0 
857158		 # 	collision with: 7 3 5 0 0  and 7 4 5 0 0 
857170		 # 	collision with: 7 0 0 0 0  and 7 2 0 0 0 
857174		 # 	collision with: 7 0 0 0 0  and 7 1 0 0 0 
857178		 # 	collision with: 7 5 0 0 0  and 7 6 0 0 0 
857182		 # 	collision with: 7 4 0 0 0  and 7 6 0 0 0 
857186		 # 	collision with: 7 4 0 0 0  and 7 5 0 0 0 
857190		 # 	collision with: 7 3 0 0 0  and 7 5 0 0 0 
857194		 # 	collision with: 7 3 0 0 0  and 7 4 0 0 0 
857198		 # 	collision with: 7 2 0 0 0  and 7 4 0 0 0 
857202		 # 	collision with: 7 2 0 0 0  and 7 3 0 0 0 
857206		 # 	collision with: 7 1 0 0 0  and 7 3 0 0 0 
857232		 # 	collision with: 0 0 0 0 0  and 3 0 0 0 0 
857234		 # 	collision with: 7 3 0 0 0  and 7 5 0 0 0 
857245		 # 	collision with: 7 5 0 0 0  and 1 6 0 0 0 
857247		 # 	collision with: 7 3 4 0 0  and 7 5 4 0 0 
857256		 # 	collision with: 0 0 0 0 0  and 3 0 0 0 0 
857258		 # 	collision with: 7 0 0 0 0  and 7 2 0 0 0 
857285		 # 	collision with: 1 5 0 0 0  and 3 5 0 0 0 
857287		 # 	collision with: 10 4 5 0 0  and 10 4 6 0 0 
857324		 # 	collision with: 0 0 0 0 0  and 3 0 0 0 0 
857326		 # 	collision with: 7 3 0 0 0  and 7 4 0 0 0 
857329		 # 	collision with: 1 5 0 0 0  and 3 5 0 0 0 
857331		 # 	collision with: 3 4 5 0 0  and 3 4 6 0 0 
857341		 # 	collision with: 4 5 0 0 0  and 2 6 0 0 0 
857348		 # 	collision with: 0 0 0 0 0  and 3 0 0 0 0 
857350		 # 	collision with: 7 0 0 0 0  and 7 1 0 0 0 
857393		 # 	collision with: 4 5 0 0 0  and 0 6 0 0 0 
857395		 # 	collision with: 7 2 5 0 0  and 7 3 6 0 0 
857416		 # 	collision with: 0 0 0 0 0  and 3 0 0 0 0 
857418		 # 	collision with: 7 2 0 0 0  and 7 4 0 0 0 
857440		 # 	collision with: 0 0 0 0 0  and 3 0 0 0 0 
857442		 # 	collision with: 7 5 0 0 0  and 7 6 0 0 0 
857465		 # 	collision with: 7 5 0 0 0  and 1 6 0 0 0 
857467		 # 	collision with: 7 3 4 0 0  and 7 5 4 0 0 
857473		 # 	collision with: 4 5 0 0 0  and 2 6 0 0 0 
857508		 # 	collision with: 0 0 0 0 0  and 3 0 0 0 0 
857510		 # 	collision with: 7 2 0 0 0  and 7 3 0 0 0 
857529		 # 	collision with: 4 8 0 0 0  and 5 8 0 0 0 
857531		 # 	collision with: 7 5 0 0 0  and 7 6 0 0 0 
857532		 # 	collision with: 0 0 0 0 0  and 3 0 0 0 0 
857534		 # 	collision with: 7 4 0 0 0  and 7 6 0 0 0 
857573		 # 	collision with: 4 8 0 0 0  and 5 8 0 0 0 
857575		 # 	collision with: 7 5 0 0 0  and 7 6 0 0 0 
857600		 # 	collision with: 0 0 0 0 0  and 3 0 0 0 0 
857602		 # 	collision with: 7 1 0 0 0  and 7 3 0 0 0 
857613		 # 	collision with: 4 5 0 0 0  and 0 6 0 0 0 
857615		 # 	collision with: 5 5 5 0 0  and 5 5 6 0 0 
857624		 # 	collision with: 0 0 0 0 0  and 3 0 0 0 0 
857626		 # 	collision with: 7 4 0 0 0  and 7 5 0 0 0 
857648		 # 	collision with: 5 1 7 9 0  and 4 1 0 0 1 
857650		 # 	collision with: 9 8 8 0 0  and 8 1 0 1 0 
857652		 # 	collision with: 2 10 0 0 0  and 3 10 0 0 0 
857654		 # 	collision with: 7 1 10 0 0  and 7 3 10 0 0 
857656		 # 	collision with: 1 5 0 0 0  and 3 5 0 0 0 
857658		 # 	collision with: 7 0 5 0 0  and 7 2 5 0 0 
857660		 # 	collision with: 5 7 0 0 0  and 6 7 0 0 0 
857664		 # 	collision with: 4 8 0 0 0  and 5 8 0 0 0 
857666		 # 	collision with: 7 2 8 0 0  and 7 3 8 0 0 
857668		 # 	collision with: 4 2 0 0 0  and 6 2 0 0 0 
857670		 # 	collision with: 7 2 2 0 0  and 7 3 2 0 0 
857672		 # 	collision with: 3 9 0 0 0  and 4 9 0 0 0 
857674		 # 	collision with: 7 0 9 0 0  and 7 1 9 0 0 
857676		 # 	collision with: 3 3 0 0 0  and 5 3 0 0 0 
857678		 # 	collision with: 7 0 3 0 0  and 7 1 3 0 0 
857680		 # 	collision with: 2 4 0 0 0  and 4 4 0 0 0 
857682		 # 	collision with: 7 4 4 0 0  and 7 5 4 0 0 
857684		 # 	collision with: 0 6 0 0 0  and 2 6 0 0 0 
857686		 # 	collision with: 7 1 6 0 0  and 7 3 6 0 0 
857688		 # 	collision with: 0 1 0 0 0  and 1 1 0 0 0 
857690		 # 	collision with: 7 0 1 0 0  and 7 2 1 0 0 
857716		 # 	collision with: 3 9 0 0 0  and 4 9 0 0 0 
857718		 # 	collision with: 7 0 9 0 0  and 7 1 9 0 0 
857729		 # 	collision with: 0 1 0 0 0  and 1 1 0 0 0 
857731		 # 	collision with: 7 3 4 0 0  and 7 0 6 0 0 
857740		 # 	collision with: 2 10 0 0 0  and 3 10 0 0 0 
857742		 # 	collision with: 7 1 10 0 0  and 7 3 10 0 0 
857769		 # 	collision with: 3 3 0 0 0  and 5 3 0 0 0 
857771		 # 	collision with: 7 1 4 0 0  and 7 3 6 0 0 
857810		 # 	collision with: 7 0 3 0 0  and 7 1 3 0 0 
857815		 # 	collision with: 9 9 4 0 0  and 9 9 6 0 0 
857825		 # 	collision with: 4 2 0 0 0  and 6 2 0 0 0 
857827		 # 	collision with: 7 4 2 0 0  and 7 6 2 0 0 
857832		 # 	collision with: 1 5 0 0 0  and 3 5 0 0 0 
857834		 # 	collision with: 7 0 5 0 0  and 7 2 5 0 0 
857877		 # 	collision with: 3 4 0 0 0  and 6 6 0 0 0 
857879		 # 	collision with: 9 3 4 0 0  and 9 3 6 0 0 
857900		 # 	collision with: 2 4 0 0 0  and 4 4 0 0 0 
857902		 # 	collision with: 7 4 4 0 0  and 7 5 4 0 0 
857924		 # 	collision with: 5 7 0 0 0  and 6 7 0 0 0 
857949		 # 	collision with: 0 1 0 0 0  and 1 1 0 0 0 
857951		 # 	collision with: 7 4 4 0 0  and 7 0 6 0 0 
857957		 # 	collision with: 4 2 0 0 0  and 6 2 0 0 0 
857959		 # 	collision with: 7 4 2 0 0  and 7 6 2 0 0 
857992		 # 	collision with: 0 6 0 0 0  and 2 6 0 0 0 
857994		 # 	collision with: 7 1 6 0 0  and 7 3 6 0 0 
126.416secs	43277
