# prime 11
# degree 2
# input variables 3
# output variables 3
# reload computed balance functions from file balance-3083of3248-p11d2m3-debug.log
# p = 11
# n = 3
# smalldomain p^m 1331
# domain p^n 1331
#	 p^2 = 121
#	 p^3 = 1331
#	 p^4 = 14641
#	 p^5 = 161051
#	 p^6 = 1771561
#	 p^7 = 19487171
#	 p^8 = 214358881
#	 p^9 = 2357947691
opening file : balance-3083of3248-p11d2m3-debug.log
reloading for step2...
67826001		 # 	collision with: 6 6 0  and 3 2 1 
67826021		 # 	collision with: 0 5 0  and 4 1 1 
67826023		 # 	collision with: 7 10 0  and 2 0 1 
67826085		 # 	collision with: 4 0 0  and 6 1 1 
67826093		 # 	collision with: 2 1 0  and 2 2 0 
67826095		 # 	collision with: 7 7 0  and 10 1 1 
67826133		 # 	collision with: 5 0 0  and 5 2 1 
67826135		 # 	collision with: 3 2 0  and 3 3 0 
67826157		 # 	collision with: 0 0 0  and 6 1 0 
67826159		 # 	collision with: 6 4 0  and 6 0 1 
67826181		 # 	collision with: 0 7 0  and 5 1 1 
67826183		 # 	collision with: 1 4 0  and 5 6 0 
67826213		 # 	collision with: 0 1 0  and 1 3 0 
67826215		 # 	collision with: 10 9 0  and 6 0 1 
67826308		 # 	collision with: 10 4 0  and 4 5 0 
67826310		 # 	collision with: 2 0 0  and 0 2 0 
67826329		 # 	collision with: 0 1 0  and 1 3 0 
67826331		 # 	collision with: 4 2 0  and 7 0 1 
67826333		 # 	collision with: 10 6 0  and 2 0 1 
67826335		 # 	collision with: 5 4 0  and 7 0 1 
67826449		 # 	collision with: 2 1 0  and 1 3 0 
67826451		 # 	collision with: 4 2 0  and 9 3 0 
67826481		 # 	collision with: 4 6 0  and 5 6 0 
67826483		 # 	collision with: 8 7 0  and 6 3 1 
67826485		 # 	collision with: 8 2 0  and 6 3 0 
67826487		 # 	collision with: 4 0 0  and 9 2 0 
67826505		 # 	collision with: 4 3 0  and 5 5 0 
67826507		 # 	collision with: 8 0 1  and 4 1 1 
67826569		 # 	collision with: 0 6 0  and 7 0 1 
67826571		 # 	collision with: 3 0 0  and 10 2 0 
67826577		 # 	collision with: 6 3 0  and 3 4 0 
67826579		 # 	collision with: 4 0 0  and 4 1 0 
67826617		 # 	collision with: 3 2 0  and 0 3 0 
67826619		 # 	collision with: 7 7 0  and 0 1 1 
67826641		 # 	collision with: 6 5 0  and 7 6 0 
67826643		 # 	collision with: 9 0 0  and 4 1 1 
67826665		 # 	collision with: 10 0 0  and 4 1 0 
67826667		 # 	collision with: 4 0 0  and 9 1 0 
67826697		 # 	collision with: 2 7 0  and 4 7 0 
67826699		 # 	collision with: 2 4 0  and 2 5 0 
67826792		 # 	collision with: 10 3 0  and 0 4 0 
67826794		 # 	collision with: 7 0 0  and 5 1 0 
67826815		 # 	collision with: 4 5 0  and 1 0 1 
67826817		 # 	collision with: 2 0 0  and 9 2 0 
67826819		 # 	collision with: 10 0 0  and 7 2 0 
67826933		 # 	collision with: 7 1 0  and 9 3 0 
67826935		 # 	collision with: 4 0 0  and 1 2 0 
67826965		 # 	collision with: 4 3 0  and 5 5 0 
67826969		 # 	collision with: 0 1 0  and 2 1 0 
67826971		 # 	collision with: 5 2 0  and 0 1 1 
67826989		 # 	collision with: 6 0 0  and 4 1 0 
67826991		 # 	collision with: 9 1 0  and 0 3 0 
67827053		 # 	collision with: 2 5 0  and 4 6 0 
67827055		 # 	collision with: 4 3 0  and 9 4 0 
67827061		 # 	collision with: 10 4 0  and 4 5 0 
67827063		 # 	collision with: 0 6 0  and 9 0 1 
67827101		 # 	collision with: 3 10 0  and 6 0 1 
67827103		 # 	collision with: 4 2 0  and 9 3 0 
67827125		 # 	collision with: 8 0 0  and 8 1 0 
67827149		 # 	collision with: 9 4 0  and 2 6 0 
67827151		 # 	collision with: 5 9 0  and 7 1 1 
67827181		 # 	collision with: 2 0 0  and 1 2 0 
67827183		 # 	collision with: 2 6 0  and 9 4 1 
67827276		 # 	collision with: 0 0 0  and 7 1 0 
67827278		 # 	collision with: 7 7 0  and 3 0 1 
67827297		 # 	collision with: 5 9 0  and 6 9 0 
67827299		 # 	collision with: 10 4 0  and 0 5 0 
67827301		 # 	collision with: 8 0 0  and 8 1 0 
67827303		 # 	collision with: 9 7 0  and 2 4 1 
67827417		 # 	collision with: 8 2 0  and 6 3 0 
67827419		 # 	collision with: 4 1 0  and 0 3 0 
67827449		 # 	collision with: 10 1 0  and 10 3 0 
67827451		 # 	collision with: 0 1 0  and 2 1 0 
67827453		 # 	collision with: 2 5 0  and 1 0 1 
67827455		 # 	collision with: 8 5 0  and 9 6 0 
67827475		 # 	collision with: 6 0 0  and 3 2 0 
67827537		 # 	collision with: 7 0 0  and 10 2 0 
67827539		 # 	collision with: 7 8 0  and 7 0 1 
67827545		 # 	collision with: 2 5 0  and 5 6 0 
67827547		 # 	collision with: 0 0 0  and 8 2 0 
67827587		 # 	collision with: 2 9 0  and 1 1 1 
67827609		 # 	collision with: 5 2 0  and 9 3 0 
67827611		 # 	collision with: 3 0 0  and 10 2 0 
67827633		 # 	collision with: 2 10 0  and 2 1 1 
67827635		 # 	collision with: 4 7 0  and 0 0 1 
67827665		 # 	collision with: 0 6 0  and 1 0 1 
67827667		 # 	collision with: 3 3 0  and 4 3 0 
67827809		 # 	collision with: 3 0 0  and 0 2 0 
67827811		 # 	collision with: 8 0 0  and 9 2 0 
67827817		 # 	collision with: 3 0 0  and 0 2 0 
67827819		 # 	collision with: 5 1 0  and 6 2 0 
67827828		 # 	collision with: 0 1 0  and 7 3 0 
67827840		 # 	collision with: 3 0 0  and 5 2 0 
67827842		 # 	collision with: 3 4 0  and 0 0 1 
67827849		 # 	collision with: 3 0 0  and 0 2 0 
67827851		 # 	collision with: 3 0 0  and 10 1 0 
67827852		 # 	collision with: 3 3 0  and 0 4 0 
67827876		 # 	collision with: 9 0 0  and 8 2 0 
67827878		 # 	collision with: 6 0 0  and 8 2 0 
67827881		 # 	collision with: 3 0 0  and 0 2 0 
67827883		 # 	collision with: 4 3 0  and 5 3 0 
67827912		 # 	collision with: 7 2 0  and 5 4 0 
67827914		 # 	collision with: 0 0 0  and 9 2 0 
67827920		 # 	collision with: 10 8 0  and 10 1 1 
67827944		 # 	collision with: 8 4 0  and 1 6 0 
67827948		 # 	collision with: 3 4 0  and 7 0 1 
67827950		 # 	collision with: 3 10 0  and 3 1 1 
67827984		 # 	collision with: 4 7 0  and 1 0 1 
67827986		 # 	collision with: 0 0 0  and 3 1 0 
67828012		 # 	collision with: 6 0 0  and 7 2 0 
67828023		 # 	collision with: 8 4 0  and 3 6 0 
67828031		 # 	collision with: 4 3 0  and 5 5 0 
67828036		 # 	collision with: 2 0 1  and 5 1 1 
67828064		 # 	collision with: 10 8 0  and 9 0 1 
67828066		 # 	collision with: 4 0 0  and 8 1 0 
67828100		 # 	collision with: 3 2 0  and 1 1 1 
67828102		 # 	collision with: 3 1 0  and 9 2 0 
67828104		 # 	collision with: 6 5 0  and 0 1 1 
67828128		 # 	collision with: 9 1 0  and 8 3 0 
67828136		 # 	collision with: 2 3 0  and 8 4 0 
67828138		 # 	collision with: 6 1 0  and 2 2 0 
67828157		 # 	collision with: 3 0 0  and 0 2 0 
67828159		 # 	collision with: 5 2 0  and 0 4 0 
67828169		 # 	collision with: 3 0 0  and 0 2 0 
67828171		 # 	collision with: 1 3 0  and 3 0 1 
67828172		 # 	collision with: 7 4 0  and 0 5 0 
67828174		 # 	collision with: 9 4 0  and 6 5 0 
67828196		 # 	collision with: 7 4 0  and 6 5 0 
67828208		 # 	collision with: 10 1 0  and 2 2 0 
67828210		 # 	collision with: 1 10 0  and 5 0 1 
67828220		 # 	collision with: 2 8 0  and 6 0 1 
67828233		 # 	collision with: 3 0 0  and 0 2 0 
67828235		 # 	collision with: 6 0 0  and 8 2 0 
67828241		 # 	collision with: 3 0 0  and 0 2 0 
67828243		 # 	collision with: 8 9 0  and 1 0 1 
67828244		 # 	collision with: 5 4 0  and 3 5 0 
67828246		 # 	collision with: 0 0 0  and 1 1 1 
67828293		 # 	collision with: 4 2 0  and 4 4 0 
67828295		 # 	collision with: 6 8 0  and 1 0 1 
67828301		 # 	collision with: 1 2 0  and 2 0 1 
67828303		 # 	collision with: 4 4 0  and 0 5 0 
67828312		 # 	collision with: 0 1 0  and 2 3 0 
67828314		 # 	collision with: 10 3 0  and 4 5 0 
67828326		 # 	collision with: 4 3 0  and 1 5 0 
67828335		 # 	collision with: 0 4 0  and 4 5 0 
67828336		 # 	collision with: 3 2 0  and 5 1 1 
67828338		 # 	collision with: 8 4 0  and 10 5 0 
67828360		 # 	collision with: 9 1 0  and 8 3 0 
67828362		 # 	collision with: 4 3 0  and 5 3 0 
67828365		 # 	collision with: 10 0 0  and 8 2 0 
67828367		 # 	collision with: 1 3 0  and 10 5 0 
67828396		 # 	collision with: 7 4 0  and 6 5 0 
67828398		 # 	collision with: 0 2 0  and 10 3 0 
67828404		 # 	collision with: 2 2 0  and 2 0 1 
67828406		 # 	collision with: 7 5 0  and 7 6 0 
67828428		 # 	collision with: 4 5 0  and 1 0 1 
67828430		 # 	collision with: 0 0 0  and 7 2 0 
67828432		 # 	collision with: 1 7 0  and 2 7 0 
67828434		 # 	collision with: 8 3 0  and 8 4 0 
67828468		 # 	collision with: 4 4 0  and 8 6 0 
67828470		 # 	collision with: 0 8 0  and 2 0 1 
67828496		 # 	collision with: 0 0 0  and 4 1 0 
67828498		 # 	collision with: 2 2 0  and 6 3 0 
67828505		 # 	collision with: 6 0 0  and 1 1 0 
67828507		 # 	collision with: 5 1 0  and 10 2 0 
67828513		 # 	collision with: 2 1 0  and 2 0 1 
67828515		 # 	collision with: 5 5 0  and 10 6 0 
67828520		 # 	collision with: 3 0 1  and 3 2 1 
67828522		 # 	collision with: 3 1 0  and 5 3 0 
67828548		 # 	collision with: 8 0 0  and 4 1 0 
67828550		 # 	collision with: 8 0 0  and 9 1 0 
67828584		 # 	collision with: 3 3 0  and 0 4 0 
67828586		 # 	collision with: 2 0 0  and 8 2 0 
67828588		 # 	collision with: 4 6 0  and 6 6 0 
67828590		 # 	collision with: 5 2 0  and 1 1 1 
67828612		 # 	collision with: 6 0 0  and 7 2 0 
67828614		 # 	collision with: 4 4 0  and 0 5 0 
67828620		 # 	collision with: 1 1 0  and 7 3 0 
67828622		 # 	collision with: 0 3 0  and 9 0 1 
67828641		 # 	collision with: 7 3 0  and 3 5 0 
67828643		 # 	collision with: 7 1 0  and 10 2 0 
67828655		 # 	collision with: 9 7 0  and 2 0 1 
67828656		 # 	collision with: 5 0 0  and 6 1 0 
67828680		 # 	collision with: 0 5 0  and 10 6 0 
67828682		 # 	collision with: 0 0 0  and 9 2 0 
67828692		 # 	collision with: 1 3 0  and 1 4 0 
67828694		 # 	collision with: 5 0 0  and 10 1 0 
67828706		 # 	collision with: 2 2 0  and 3 2 0 
67828717		 # 	collision with: 3 7 0  and 5 0 1 
67828719		 # 	collision with: 2 2 0  and 3 2 0 
67828725		 # 	collision with: 3 4 0  and 7 6 0 
67828728		 # 	collision with: 6 0 0  and 7 2 0 
67828730		 # 	collision with: 5 1 0  and 10 2 0 
67828777		 # 	collision with: 2 0 0  and 0 1 0 
67828779		 # 	collision with: 4 3 0  and 3 4 0 
67828785		 # 	collision with: 2 0 0  and 0 1 0 
67828787		 # 	collision with: 4 3 0  and 3 4 0 
67828796		 # 	collision with: 1 7 0  and 7 0 1 
67828798		 # 	collision with: 9 1 0  and 9 2 0 
67828808		 # 	collision with: 10 5 0  and 8 0 1 
67828810		 # 	collision with: 0 1 0  and 1 1 0 
67828817		 # 	collision with: 2 0 0  and 0 1 0 
67828820		 # 	collision with: 6 5 0  and 10 6 0 
67828822		 # 	collision with: 1 3 0  and 7 5 0 
67828846		 # 	collision with: 7 5 0  and 3 6 0 
67828849		 # 	collision with: 2 0 0  and 0 1 0 
67828851		 # 	collision with: 4 3 0  and 3 4 0 
67828880		 # 	collision with: 2 0 0  and 1 1 0 
67828882		 # 	collision with: 1 3 0  and 10 5 0 
67828888		 # 	collision with: 5 2 0  and 3 1 1 
67828890		 # 	collision with: 1 4 0  and 2 0 1 
67828912		 # 	collision with: 0 1 0  and 9 2 0 
67828914		 # 	collision with: 9 4 0  and 0 5 0 
67828916		 # 	collision with: 6 0 1  and 4 1 1 
67828918		 # 	collision with: 5 4 0  and 1 0 1 
67828952		 # 	collision with: 4 2 0  and 4 4 0 
67828954		 # 	collision with: 7 10 0  and 6 1 1 
67828980		 # 	collision with: 1 2 0  and 4 4 0 
67828982		 # 	collision with: 10 3 0  and 2 5 0 
67828989		 # 	collision with: 2 0 0  and 0 1 0 
67828991		 # 	collision with: 5 2 0  and 0 4 0 
67828997		 # 	collision with: 2 0 0  and 0 1 0 
67828999		 # 	collision with: 4 3 0  and 3 4 0 
67829004		 # 	collision with: 4 3 0  and 5 3 0 
67829006		 # 	collision with: 9 3 0  and 6 0 1 
67829032		 # 	collision with: 7 4 0  and 0 6 0 
67829034		 # 	collision with: 8 5 0  and 5 1 1 
67829068		 # 	collision with: 4 5 0  and 7 0 1 
67829072		 # 	collision with: 6 6 0  and 4 1 1 
67829074		 # 	collision with: 5 3 0  and 3 4 0 
67829096		 # 	collision with: 6 2 0  and 0 3 0 
67829098		 # 	collision with: 1 2 0  and 2 0 1 
67829104		 # 	collision with: 2 2 0  and 5 0 1 
67829106		 # 	collision with: 10 1 0  and 10 0 1 
67829125		 # 	collision with: 2 0 0  and 0 1 0 
67829127		 # 	collision with: 4 3 0  and 3 4 0 
67829137		 # 	collision with: 2 0 0  and 0 1 0 
67829139		 # 	collision with: 4 3 0  and 3 4 0 
67829140		 # 	collision with: 5 4 0  and 3 5 0 
67829142		 # 	collision with: 9 2 0  and 3 4 0 
67829166		 # 	collision with: 4 1 0  and 2 3 0 
67829176		 # 	collision with: 1 5 0  and 2 6 0 
67829178		 # 	collision with: 7 1 0  and 10 2 0 
67829188		 # 	collision with: 2 1 0  and 2 2 0 
67829190		 # 	collision with: 4 4 0  and 2 0 1 
67829201		 # 	collision with: 2 0 0  and 0 1 0 
67829203		 # 	collision with: 4 3 0  and 3 4 0 
67829209		 # 	collision with: 2 0 0  and 0 1 0 
67829211		 # 	collision with: 4 3 0  and 3 4 0 
67829212		 # 	collision with: 3 1 0  and 1 3 0 
67829214		 # 	collision with: 3 5 0  and 8 0 1 
67829263		 # 	collision with: 9 9 0  and 4 0 1 
67829269		 # 	collision with: 1 2 0  and 4 0 1 
67829271		 # 	collision with: 7 2 0  and 5 3 0 
67829280		 # 	collision with: 3 1 0  and 1 3 0 
67829282		 # 	collision with: 5 0 0  and 2 1 0 
67829292		 # 	collision with: 3 1 0  and 1 3 0 
67829294		 # 	collision with: 0 10 0  and 2 0 1 
67829301		 # 	collision with: 8 5 0  and 8 0 1 
67829303		 # 	collision with: 8 4 0  and 10 5 0 
67829304		 # 	collision with: 3 1 0  and 1 3 0 
67829306		 # 	collision with: 0 0 0  and 9 1 0 
67829328		 # 	collision with: 3 1 0  and 1 3 0 
67829330		 # 	collision with: 1 4 0  and 0 0 1 
67829333		 # 	collision with: 0 5 0  and 10 6 0 
67829335		 # 	collision with: 8 2 0  and 6 4 0 
67829366		 # 	collision with: 1 5 0  and 0 6 0 
67829372		 # 	collision with: 6 0 0  and 7 2 0 
67829374		 # 	collision with: 5 2 0  and 3 0 1 
67829396		 # 	collision with: 3 1 0  and 1 3 0 
67829398		 # 	collision with: 1 3 0  and 8 4 0 
67829400		 # 	collision with: 3 1 0  and 1 3 0 
67829402		 # 	collision with: 9 1 0  and 4 3 0 
67829436		 # 	collision with: 3 1 0  and 1 3 0 
67829464		 # 	collision with: 3 1 0  and 1 3 0 
67829466		 # 	collision with: 5 5 0  and 0 6 0 
67829473		 # 	collision with: 8 0 0  and 8 1 0 
67829475		 # 	collision with: 3 0 0  and 10 1 0 
67829481		 # 	collision with: 4 2 0  and 4 4 0 
67829483		 # 	collision with: 0 4 0  and 2 5 0 
67829488		 # 	collision with: 2 0 0  and 7 2 0 
67829490		 # 	collision with: 0 0 0  and 1 1 1 
67829516		 # 	collision with: 3 1 0  and 1 3 0 
67829518		 # 	collision with: 5 2 0  and 10 3 0 
67829552		 # 	collision with: 3 1 0  and 1 3 0 
67829554		 # 	collision with: 3 7 0  and 1 0 1 
67829556		 # 	collision with: 3 1 0  and 1 3 0 
67829558		 # 	collision with: 1 7 0  and 2 7 0 
67829582		 # 	collision with: 10 4 0  and 1 5 0 
67829588		 # 	collision with: 3 1 0  and 1 3 0 
67829590		 # 	collision with: 8 0 0  and 3 1 0 
67829609		 # 	collision with: 9 2 0  and 7 3 0 
67829611		 # 	collision with: 10 4 0  and 5 5 0 
67829621		 # 	collision with: 0 10 0  and 6 0 1 
67829624		 # 	collision with: 3 1 0  and 1 3 0 
67829626		 # 	collision with: 10 5 0  and 3 6 0 
67829648		 # 	collision with: 3 1 0  and 1 3 0 
67829650		 # 	collision with: 8 2 0  and 6 4 0 
67829660		 # 	collision with: 3 1 0  and 1 3 0 
67829662		 # 	collision with: 3 2 0  and 3 3 0 
67829672		 # 	collision with: 3 1 0  and 1 3 0 
67829674		 # 	collision with: 2 2 0  and 3 3 0 
67829687		 # 	collision with: 10 1 0  and 10 0 1 
67829693		 # 	collision with: 0 0 0  and 8 1 0 
67829695		 # 	collision with: 10 5 0  and 5 2 1 
67829696		 # 	collision with: 6 4 0  and 4 0 1 
67829698		 # 	collision with: 6 1 0  and 3 2 0 
67829745		 # 	collision with: 6 2 0  and 9 3 0 
67829747		 # 	collision with: 4 4 0  and 6 5 0 
67829753		 # 	collision with: 5 5 0  and 2 6 0 
67829755		 # 	collision with: 6 2 1  and 4 3 1 
67829764		 # 	collision with: 9 1 0  and 9 0 1 
67829766		 # 	collision with: 6 1 0  and 3 2 0 
67829776		 # 	collision with: 10 10 0  and 5 0 1 
67829778		 # 	collision with: 6 1 0  and 3 2 0 
67829785		 # 	collision with: 3 0 0  and 5 2 0 
67829787		 # 	collision with: 5 3 0  and 5 5 0 
67829788		 # 	collision with: 2 0 0  and 9 2 0 
67829790		 # 	collision with: 6 1 0  and 3 2 0 
67829812		 # 	collision with: 0 1 0  and 1 1 0 
67829814		 # 	collision with: 6 1 0  and 3 2 0 
67829817		 # 	collision with: 4 4 0  and 2 6 0 
67829819		 # 	collision with: 0 2 0  and 10 3 0 
67829848		 # 	collision with: 3 3 0  and 2 4 0 
67829856		 # 	collision with: 6 4 0  and 6 5 0 
67829858		 # 	collision with: 6 1 0  and 3 2 0 
67829880		 # 	collision with: 0 9 0  and 5 2 1 
67829882		 # 	collision with: 6 1 0  and 3 2 0 
67829886		 # 	collision with: 6 1 0  and 3 2 0 
67829920		 # 	collision with: 2 1 0  and 10 3 0 
67829922		 # 	collision with: 6 1 0  and 3 2 0 
67829948		 # 	collision with: 1 5 0  and 2 6 0 
67829950		 # 	collision with: 6 1 0  and 3 2 0 
67829957		 # 	collision with: 1 4 0  and 5 6 0 
67829959		 # 	collision with: 2 0 0  and 8 2 0 
67829965		 # 	collision with: 1 4 0  and 4 0 1 
67829972		 # 	collision with: 6 0 0  and 7 2 0 
67829974		 # 	collision with: 6 1 0  and 3 2 0 
67830000		 # 	collision with: 8 2 0  and 6 0 1 
67830002		 # 	collision with: 6 1 0  and 3 2 0 
67830036		 # 	collision with: 6 0 0  and 9 2 0 
67830038		 # 	collision with: 6 1 0  and 3 2 0 
67830042		 # 	collision with: 6 1 0  and 3 2 0 
67830064		 # 	collision with: 3 1 0  and 8 3 0 
67830066		 # 	collision with: 6 1 0  and 3 2 0 
67830072		 # 	collision with: 5 7 0  and 9 0 1 
67830074		 # 	collision with: 6 1 0  and 3 2 0 
67830093		 # 	collision with: 5 4 0  and 3 5 0 
67830095		 # 	collision with: 3 2 0  and 6 3 0 
67830105		 # 	collision with: 2 1 0  and 3 2 0 
67830107		 # 	collision with: 0 4 0  and 5 6 0 
67830108		 # 	collision with: 2 3 0  and 5 4 0 
67830110		 # 	collision with: 6 1 0  and 3 2 0 
67830132		 # 	collision with: 7 2 0  and 5 4 0 
67830134		 # 	collision with: 6 1 0  and 3 2 0 
67830144		 # 	collision with: 2 3 0  and 3 5 0 
67830146		 # 	collision with: 6 1 0  and 3 2 0 
67830156		 # 	collision with: 1 4 0  and 5 6 0 
67830158		 # 	collision with: 6 1 0  and 3 2 0 
67830169		 # 	collision with: 2 2 0  and 10 3 0 
67830171		 # 	collision with: 0 0 0  and 1 1 1 
67830177		 # 	collision with: 6 6 0  and 6 2 1 
67830179		 # 	collision with: 2 4 0  and 2 5 0 
67830180		 # 	collision with: 6 0 0  and 0 1 0 
67830182		 # 	collision with: 5 2 0  and 0 4 0 
67830229		 # 	collision with: 0 4 0  and 2 4 0 
67830231		 # 	collision with: 3 1 0  and 5 3 0 
67830237		 # 	collision with: 10 3 0  and 7 0 1 
67830239		 # 	collision with: 6 4 0  and 4 1 1 
67830248		 # 	collision with: 6 0 0  and 0 1 0 
67830250		 # 	collision with: 0 1 0  and 1 1 0 
67830260		 # 	collision with: 6 0 0  and 0 1 0 
67830269		 # 	collision with: 1 1 0  and 5 0 1 
67830271		 # 	collision with: 5 5 0  and 0 6 0 
67830272		 # 	collision with: 6 0 0  and 0 1 0 
67830274		 # 	collision with: 5 5 0  and 0 6 0 
67830296		 # 	collision with: 6 0 0  and 0 1 0 
67830298		 # 	collision with: 5 0 0  and 0 2 1 
67830301		 # 	collision with: 7 4 0  and 6 5 0 
67830303		 # 	collision with: 4 1 0  and 2 3 0 
67830332		 # 	collision with: 6 0 0  and 0 1 0 
67830334		 # 	collision with: 8 2 0  and 6 4 0 
67830340		 # 	collision with: 6 0 0  and 0 1 0 
67830342		 # 	collision with: 3 3 0  and 4 1 1 
67830364		 # 	collision with: 6 0 0  and 0 1 0 
67830366		 # 	collision with: 4 0 0  and 8 1 0 
67830368		 # 	collision with: 6 0 0  and 0 1 0 
67830370		 # 	collision with: 8 3 0  and 10 5 0 
67830406		 # 	collision with: 4 6 0  and 6 6 0 
67830432		 # 	collision with: 6 0 0  and 0 1 0 
67830434		 # 	collision with: 0 2 0  and 2 4 0 
67830441		 # 	collision with: 3 0 0  and 8 1 1 
67830443		 # 	collision with: 3 1 0  and 9 2 0 
67830449		 # 	collision with: 4 2 0  and 0 0 1 
67830451		 # 	collision with: 0 4 0  and 5 6 0 
67830458		 # 	collision with: 8 4 0  and 7 6 0 
67830484		 # 	collision with: 6 0 0  and 0 1 0 
67830486		 # 	collision with: 3 0 0  and 10 1 0 
67830520		 # 	collision with: 6 0 0  and 0 1 0 
67830522		 # 	collision with: 5 6 0  and 0 0 1 
67830524		 # 	collision with: 6 0 0  and 0 1 0 
67830526		 # 	collision with: 4 0 0  and 4 1 0 
67830548		 # 	collision with: 6 0 0  and 0 1 0 
67830550		 # 	collision with: 5 1 0  and 5 0 1 
67830556		 # 	collision with: 6 0 0  and 0 1 0 
67830558		 # 	collision with: 9 1 0  and 9 2 0 
67830577		 # 	collision with: 2 0 0  and 9 2 0 
67830579		 # 	collision with: 2 0 0  and 8 2 0 
67830589		 # 	collision with: 6 2 0  and 9 3 0 
67830591		 # 	collision with: 10 10 0  and 3 0 1 
67830592		 # 	collision with: 6 0 0  and 0 1 0 
67830594		 # 	collision with: 8 3 0  and 5 4 0 
67830616		 # 	collision with: 6 0 0  and 0 1 0 
67830618		 # 	collision with: 5 4 0  and 3 6 0 
67830628		 # 	collision with: 6 0 0  and 0 1 0 
67830630		 # 	collision with: 7 2 1  and 7 3 1 
67830640		 # 	collision with: 6 0 0  and 0 1 0 
67830642		 # 	collision with: 7 3 0  and 3 0 1 
67830653		 # 	collision with: 5 1 0  and 5 0 1 
67830661		 # 	collision with: 8 10 0  and 7 0 1 
67830663		 # 	collision with: 5 1 0  and 2 1 1 
67830664		 # 	collision with: 8 3 0  and 1 4 0 
67830666		 # 	collision with: 6 6 0  and 4 0 1 
67830713		 # 	collision with: 1 5 0  and 8 6 0 
67830715		 # 	collision with: 4 0 0  and 8 1 0 
67830721		 # 	collision with: 3 5 0  and 9 6 0 
67830732		 # 	collision with: 6 0 0  and 7 2 0 
67830734		 # 	collision with: 8 3 0  and 5 4 0 
67830744		 # 	collision with: 5 0 0  and 5 2 0 
67830746		 # 	collision with: 9 1 0  and 9 1 1 
67830753		 # 	collision with: 5 5 0  and 2 6 0 
67830755		 # 	collision with: 4 10 0  and 4 0 1 
67830756		 # 	collision with: 2 9 0  and 9 0 1 
67830758		 # 	collision with: 5 2 0  and 10 3 0 
67830780		 # 	collision with: 6 1 0  and 0 2 0 
67830782		 # 	collision with: 10 0 0  and 7 3 1 
67830785		 # 	collision with: 0 3 0  and 9 5 0 
67830787		 # 	collision with: 7 1 0  and 6 2 0 
67830816		 # 	collision with: 10 0 0  and 8 2 0 
67830818		 # 	collision with: 8 4 0  and 7 5 0 
67830824		 # 	collision with: 8 2 0  and 3 4 0 
67830826		 # 	collision with: 8 0 0  and 9 1 0 
67830848		 # 	collision with: 9 3 0  and 3 1 1 
67830850		 # 	collision with: 1 2 0  and 2 0 1 
67830852		 # 	collision with: 1 3 0  and 2 0 1 
67830854		 # 	collision with: 5 9 0  and 3 0 1 
67830888		 # 	collision with: 9 4 0  and 1 5 0 
67830890		 # 	collision with: 9 2 0  and 5 3 0 
67830918		 # 	collision with: 2 4 0  and 4 5 0 
67830925		 # 	collision with: 10 2 0  and 5 2 1 
67830927		 # 	collision with: 9 2 0  and 3 4 0 
67830933		 # 	collision with: 1 1 0  and 7 3 0 
67830935		 # 	collision with: 4 1 0  and 4 0 1 
67830940		 # 	collision with: 10 1 0  and 10 3 0 
67830942		 # 	collision with: 5 5 0  and 0 6 0 
67830970		 # 	collision with: 1 4 0  and 4 0 1 
67831004		 # 	collision with: 8 4 0  and 1 6 0 
67831006		 # 	collision with: 7 4 0  and 2 0 1 
67831008		 # 	collision with: 6 1 0  and 6 0 1 
67831010		 # 	collision with: 6 4 0  and 9 5 0 
67831032		 # 	collision with: 6 0 0  and 9 2 0 
67831034		 # 	collision with: 10 2 0  and 6 0 1 
67831040		 # 	collision with: 2 2 0  and 10 3 0 
67831042		 # 	collision with: 10 3 0  and 0 4 0 
67831061		 # 	collision with: 0 1 0  and 2 3 0 
67831063		 # 	collision with: 8 4 0  and 3 6 0 
67831073		 # 	collision with: 3 1 0  and 8 3 0 
67831075		 # 	collision with: 3 1 0  and 2 0 1 
67831076		 # 	collision with: 7 4 0  and 10 6 0 
67831078		 # 	collision with: 0 4 0  and 2 4 0 
67831100		 # 	collision with: 4 4 0  and 2 6 0 
67831102		 # 	collision with: 3 0 0  and 2 1 0 
67831112		 # 	collision with: 3 8 0  and 4 8 0 
67831124		 # 	collision with: 5 0 0  and 6 1 0 
67831126		 # 	collision with: 6 1 0  and 6 3 0 
67831137		 # 	collision with: 3 8 0  and 4 8 0 
67831139		 # 	collision with: 10 5 0  and 1 1 1 
67831145		 # 	collision with: 7 1 1  and 3 2 1 
67831147		 # 	collision with: 5 0 0  and 2 1 0 
67831148		 # 	collision with: 8 4 0  and 10 1 1 
67831150		 # 	collision with: 9 6 0  and 1 0 1 
67831197		 # 	collision with: 8 2 0  and 10 4 0 
67831199		 # 	collision with: 10 3 0  and 2 4 0 
67831205		 # 	collision with: 8 2 0  and 3 4 0 
67831207		 # 	collision with: 0 1 0  and 1 1 0 
67831216		 # 	collision with: 3 3 0  and 1 1 1 
67831218		 # 	collision with: 9 4 0  and 6 5 0 
67831228		 # 	collision with: 0 1 0  and 7 2 0 
67831230		 # 	collision with: 4 0 0  and 4 1 0 
67831237		 # 	collision with: 9 3 0  and 9 5 0 
67831239		 # 	collision with: 10 3 0  and 2 4 0 
67831240		 # 	collision with: 10 1 0  and 10 0 1 
67831242		 # 	collision with: 7 6 0  and 10 0 1 
67831264		 # 	collision with: 6 2 0  and 0 3 0 
67831266		 # 	collision with: 5 8 0  and 4 2 1 
67831269		 # 	collision with: 3 3 0  and 2 4 0 
67831271		 # 	collision with: 0 0 0  and 9 2 0 
67831300		 # 	collision with: 10 2 0  and 9 3 0 
67831302		 # 	collision with: 3 0 0  and 2 1 0 
67831308		 # 	collision with: 9 2 0  and 5 4 0 
67831310		 # 	collision with: 5 5 0  and 10 6 0 
67831334		 # 	collision with: 10 3 0  and 0 4 0 
67831336		 # 	collision with: 2 9 0  and 2 0 1 
67831338		 # 	collision with: 8 0 0  and 7 2 0 
67831372		 # 	collision with: 0 0 0  and 1 1 1 
67831374		 # 	collision with: 1 3 0  and 3 0 1 
67831400		 # 	collision with: 6 10 0  and 4 1 1 
67831402		 # 	collision with: 4 6 0  and 6 6 0 
67831409		 # 	collision with: 1 5 0  and 5 0 1 
67831417		 # 	collision with: 6 5 0  and 8 0 1 
67831419		 # 	collision with: 0 0 0  and 7 2 0 
67831424		 # 	collision with: 4 4 0  and 8 6 0 
67831426		 # 	collision with: 6 1 0  and 2 2 0 
67831452		 # 	collision with: 8 0 0  and 8 1 0 
67831454		 # 	collision with: 1 7 0  and 10 0 1 
67831490		 # 	collision with: 4 4 0  and 0 5 0 
67831492		 # 	collision with: 6 4 0  and 10 0 1 
67831494		 # 	collision with: 3 4 0  and 0 6 0 
67831516		 # 	collision with: 9 0 0  and 8 2 0 
67831518		 # 	collision with: 10 6 0  and 3 0 1 
67831524		 # 	collision with: 1 2 0  and 2 0 1 
67831545		 # 	collision with: 5 4 0  and 1 6 0 
67831547		 # 	collision with: 10 3 0  and 2 4 0 
67831557		 # 	collision with: 7 4 0  and 10 6 0 
67831559		 # 	collision with: 10 3 0  and 2 4 0 
67831560		 # 	collision with: 0 4 0  and 4 6 0 
67831562		 # 	collision with: 8 0 0  and 9 2 0 
67831584		 # 	collision with: 2 0 0  and 1 1 0 
67831586		 # 	collision with: 7 1 0  and 6 2 0 
67831596		 # 	collision with: 5 4 0  and 3 5 0 
67831598		 # 	collision with: 2 2 0  and 3 2 0 
67831608		 # 	collision with: 8 0 0  and 4 1 0 
67831610		 # 	collision with: 0 0 0  and 3 1 0 
67831621		 # 	collision with: 2 3 0  and 8 4 0 
67831623		 # 	collision with: 8 0 0  and 7 2 0 
67831629		 # 	collision with: 8 0 0  and 8 1 0 
67831631		 # 	collision with: 0 0 0  and 9 1 0 
67831632		 # 	collision with: 10 2 0  and 10 0 1 
67831634		 # 	collision with: 10 6 0  and 6 7 0 
67831681		 # 	collision with: 8 4 0  and 3 5 0 
67831683		 # 	collision with: 5 3 0  and 1 5 0 
67831691		 # 	collision with: 8 1 0  and 7 3 0 
67831700		 # 	collision with: 3 4 0  and 3 6 0 
67831702		 # 	collision with: 6 0 0  and 8 2 0 
67831712		 # 	collision with: 0 4 0  and 2 4 0 
67831714		 # 	collision with: 2 9 0  and 3 3 1 
67831721		 # 	collision with: 2 8 0  and 1 0 1 
67831723		 # 	collision with: 2 5 0  and 10 0 1 
67831724		 # 	collision with: 6 5 0  and 5 0 1 
67831726		 # 	collision with: 4 3 0  and 5 3 0 
67831748		 # 	collision with: 6 3 0  and 0 4 0 
67831750		 # 	collision with: 9 2 0  and 4 3 0 
67831753		 # 	collision with: 7 2 0  and 5 4 0 
67831784		 # 	collision with: 0 3 0  and 9 5 0 
67831786		 # 	collision with: 4 1 0  and 2 3 0 
67831794		 # 	collision with: 5 5 0  and 0 6 0 
67831816		 # 	collision with: 3 0 0  and 6 1 0 
67831818		 # 	collision with: 4 1 0  and 9 2 1 
67831820		 # 	collision with: 5 5 0  and 8 6 0 
67831822		 # 	collision with: 7 3 0  and 6 1 1 
67831856		 # 	collision with: 6 3 0  and 2 4 0 
67831858		 # 	collision with: 8 1 0  and 7 3 0 
67831884		 # 	collision with: 8 9 0  and 1 2 1 
67831886		 # 	collision with: 9 1 0  and 5 3 0 
67831893		 # 	collision with: 2 2 0  and 3 2 0 
67831895		 # 	collision with: 3 2 0  and 6 3 0 
67831901		 # 	collision with: 7 2 0  and 2 3 0 
67831903		 # 	collision with: 5 2 0  and 2 4 0 
67831908		 # 	collision with: 3 0 0  and 5 2 0 
67831910		 # 	collision with: 3 9 0  and 1 0 1 
67831936		 # 	collision with: 10 2 0  and 0 3 0 
67831972		 # 	collision with: 10 4 0  and 7 6 0 
67831974		 # 	collision with: 1 5 0  and 2 0 1 
67831976		 # 	collision with: 6 0 0  and 7 2 0 
67831978		 # 	collision with: 7 9 0  and 2 2 1 
67832000		 # 	collision with: 9 2 0  and 2 3 0 
67832002		 # 	collision with: 9 1 0  and 4 3 0 
67832010		 # 	collision with: 7 0 0  and 4 2 0 
67832029		 # 	collision with: 0 1 0  and 9 2 0 
67832031		 # 	collision with: 4 0 0  and 8 1 0 
67832041		 # 	collision with: 9 1 0  and 9 0 1 
67832043		 # 	collision with: 0 4 0  and 2 4 0 
67832044		 # 	collision with: 7 5 0  and 7 2 1 
67832046		 # 	collision with: 2 2 0  and 3 3 0 
67832068		 # 	collision with: 6 1 0  and 5 2 0 
67832070		 # 	collision with: 0 2 0  and 10 3 0 
67832080		 # 	collision with: 2 0 0  and 7 2 0 
67832082		 # 	collision with: 9 4 0  and 2 0 1 
67832092		 # 	collision with: 3 5 0  and 1 6 0 
67832094		 # 	collision with: 8 2 0  and 7 4 0 
67832105		 # 	collision with: 3 0 0  and 5 2 0 
67832107		 # 	collision with: 3 4 0  and 10 6 0 
67832115		 # 	collision with: 2 2 0  and 3 2 0 
67832116		 # 	collision with: 6 4 0  and 10 6 0 
67832118		 # 	collision with: 4 3 0  and 3 4 0 
67832165		 # 	collision with: 0 9 0  and 7 0 1 
67832167		 # 	collision with: 0 1 0  and 1 1 0 
67832173		 # 	collision with: 3 3 0  and 4 1 1 
67832175		 # 	collision with: 9 4 0  and 6 5 0 
67832184		 # 	collision with: 0 4 0  and 2 4 0 
67832186		 # 	collision with: 7 0 0  and 1 2 0 
67832196		 # 	collision with: 2 10 0  and 9 4 1 
67832198		 # 	collision with: 3 1 0  and 5 3 0 
67832205		 # 	collision with: 8 9 0  and 8 2 1 
67832207		 # 	collision with: 6 0 0  and 8 2 0 
67832210		 # 	collision with: 4 3 0  and 3 4 0 
67832232		 # 	collision with: 3 0 0  and 6 1 0 
67832234		 # 	collision with: 4 3 0  and 3 4 0 
67832237		 # 	collision with: 10 2 0  and 9 3 0 
67832239		 # 	collision with: 1 5 0  and 0 6 0 
67832268		 # 	collision with: 0 5 0  and 10 6 0 
67832270		 # 	collision with: 4 3 0  and 3 4 0 
67832276		 # 	collision with: 5 6 0  and 2 0 1 
67832278		 # 	collision with: 4 3 0  and 3 4 0 
67832300		 # 	collision with: 7 4 0  and 10 6 0 
67832302		 # 	collision with: 4 3 0  and 3 4 0 
67832304		 # 	collision with: 4 2 0  and 9 4 0 
67832340		 # 	collision with: 2 2 0  and 3 2 0 
67832342		 # 	collision with: 4 3 0  and 3 4 0 
67832368		 # 	collision with: 1 1 0  and 9 2 0 
67832370		 # 	collision with: 4 3 0  and 3 4 0 
67832377		 # 	collision with: 2 1 0  and 3 2 0 
67832379		 # 	collision with: 7 1 0  and 10 2 0 
67832385		 # 	collision with: 8 3 0  and 0 0 1 
67832387		 # 	collision with: 6 0 1  and 8 1 1 
67832392		 # 	collision with: 1 3 0  and 3 0 1 
67832394		 # 	collision with: 4 3 0  and 3 4 0 
67832420		 # 	collision with: 5 4 0  and 3 5 0 
67832422		 # 	collision with: 4 3 0  and 3 4 0 
67832456		 # 	collision with: 4 1 0  and 9 0 1 
67832458		 # 	collision with: 4 3 0  and 3 4 0 
67832460		 # 	collision with: 5 0 0  and 5 2 0 
67832462		 # 	collision with: 5 0 0  and 10 1 0 
67832484		 # 	collision with: 6 1 0  and 0 2 0 
67832486		 # 	collision with: 4 3 0  and 3 4 0 
67832492		 # 	collision with: 3 4 0  and 3 6 0 
67832494		 # 	collision with: 4 3 0  and 3 4 0 
67832513		 # 	collision with: 7 3 0  and 5 4 0 
67832525		 # 	collision with: 6 2 0  and 0 3 0 
67832527		 # 	collision with: 8 3 0  and 8 4 0 
67832530		 # 	collision with: 5 0 0  and 2 1 0 
67832552		 # 	collision with: 10 2 0  and 9 3 0 
67832554		 # 	collision with: 4 3 0  and 3 4 0 
67832564		 # 	collision with: 1 2 0  and 9 4 0 
67832566		 # 	collision with: 4 3 0  and 3 4 0 
67832576		 # 	collision with: 6 0 0  and 7 2 0 
67832578		 # 	collision with: 3 0 0  and 10 1 0 
67832589		 # 	collision with: 8 3 0  and 2 3 1 
67832591		 # 	collision with: 7 0 0  and 1 2 0 
67832597		 # 	collision with: 8 2 0  and 10 4 0 
67832599		 # 	collision with: 10 4 0  and 1 5 0 
67832600		 # 	collision with: 2 1 0  and 3 2 0 
67832602		 # 	collision with: 5 1 0  and 6 2 0 
67832649		 # 	collision with: 3 1 0  and 1 3 0 
67832657		 # 	collision with: 3 1 0  and 1 3 0 
67832659		 # 	collision with: 2 6 0  and 9 0 1 
67832670		 # 	collision with: 9 1 0  and 7 2 0 
67832680		 # 	collision with: 6 0 0  and 2 1 1 
67832682		 # 	collision with: 5 9 0  and 5 1 1 
67832689		 # 	collision with: 0 1 0  and 1 1 0 
67832691		 # 	collision with: 7 3 0  and 1 1 1 
67832692		 # 	collision with: 0 1 0  and 1 1 0 
67832694		 # 	collision with: 1 3 0  and 5 4 0 
67832716		 # 	collision with: 6 4 0  and 6 5 0 
67832723		 # 	collision with: 1 3 0  and 8 4 0 
67832752		 # 	collision with: 6 1 0  and 5 2 0 
67832754		 # 	collision with: 5 4 0  and 3 6 0 
67832760		 # 	collision with: 6 8 0  and 1 0 1 
67832762		 # 	collision with: 3 8 0  and 4 8 0 
67832784		 # 	collision with: 10 1 0  and 3 2 0 
67832786		 # 	collision with: 3 2 0  and 3 3 0 
67832788		 # 	collision with: 5 4 0  and 3 5 0 
67832790		 # 	collision with: 5 8 0  and 2 0 1 
67832824		 # 	collision with: 10 9 0  and 3 0 1 
67832826		 # 	collision with: 5 9 0  and 3 1 1 
67832852		 # 	collision with: 7 4 0  and 0 6 0 
67832854		 # 	collision with: 8 4 0  and 3 6 0 
67832861		 # 	collision with: 3 1 0  and 1 3 0 
67832863		 # 	collision with: 0 0 0  and 3 1 0 
67832869		 # 	collision with: 3 1 0  and 1 3 0 
67832871		 # 	collision with: 9 8 0  and 8 1 1 
67832876		 # 	collision with: 9 4 0  and 5 0 1 
67832878		 # 	collision with: 3 1 0  and 3 0 1 
67832904		 # 	collision with: 1 1 0  and 2 3 0 
67832906		 # 	collision with: 2 4 0  and 2 5 0 
67832940		 # 	collision with: 9 0 0  and 4 2 1 
67832942		 # 	collision with: 1 7 0  and 2 7 0 
67832944		 # 	collision with: 2 2 0  and 10 3 0 
67832946		 # 	collision with: 7 5 0  and 3 6 0 
67832968		 # 	collision with: 7 2 0  and 7 3 0 
67832970		 # 	collision with: 6 10 0  and 0 0 1 
67832976		 # 	collision with: 9 1 0  and 1 3 0 
67832978		 # 	collision with: 4 8 0  and 5 0 1 
67832999		 # 	collision with: 7 0 0  and 1 2 0 
67833009		 # 	collision with: 3 1 0  and 1 3 0 
67833011		 # 	collision with: 8 0 0  and 3 1 0 
67833012		 # 	collision with: 0 5 0  and 2 0 1 
67833014		 # 	collision with: 7 2 0  and 4 3 0 
67833036		 # 	collision with: 3 3 0  and 2 4 0 
67833038		 # 	collision with: 8 4 0  and 7 5 0 
67833050		 # 	collision with: 5 3 0  and 7 2 1 
67833060		 # 	collision with: 4 7 0  and 4 0 1 
67833062		 # 	collision with: 6 5 0  and 9 1 1 
67833073		 # 	collision with: 6 2 0  and 0 3 0 
67833075		 # 	collision with: 1 3 0  and 5 4 0 
67833081		 # 	collision with: 3 1 0  and 1 3 0 
67833083		 # 	collision with: 8 1 0  and 7 0 1 
67833084		 # 	collision with: 8 4 0  and 3 5 0 
67833085		 # 	collision with: 9 1 0  and 0 2 0 
67833086		 # 	collision with: 2 3 0  and 4 3 0 
67833087		 # 	collision with: 10 4 0  and 1 5 0 
67833136		 # 	collision with: 5 3 0  and 0 0 1 
67833137		 # 	collision with: 8 6 0  and 4 0 1 
67833138		 # 	collision with: 0 0 0  and 1 1 0 
67833139		 # 	collision with: 3 2 0  and 4 2 0 
67833188		 # 	collision with: 5 6 0  and 1 0 1 
67833189		 # 	collision with: 10 4 0  and 7 1 1 
67833190		 # 	collision with: 7 4 0  and 10 5 0 
67833191		 # 	collision with: 3 2 0  and 3 3 0 
67833240		 # 	collision with: 6 4 0  and 3 0 1 
67833241		 # 	collision with: 9 3 0  and 3 1 1 
67833242		 # 	collision with: 7 4 0  and 10 5 0 
67833243		 # 	collision with: 9 10 0  and 6 1 1 
67833292		 # 	collision with: 0 0 0  and 4 2 0 
67833293		 # 	collision with: 4 0 0  and 2 2 0 
67833294		 # 	collision with: 7 4 0  and 10 5 0 
67833295		 # 	collision with: 7 0 0  and 4 2 0 
67833344		 # 	collision with: 8 5 0  and 9 0 1 
67833345		 # 	collision with: 9 2 0  and 2 3 0 
67833346		 # 	collision with: 7 4 0  and 10 5 0 
67833347		 # 	collision with: 7 0 0  and 3 2 0 
67833352		 # 	collision with: 10 6 0  and 1 1 1 
67833353		 # 	collision with: 1 3 0  and 4 4 0 
67833354		 # 	collision with: 0 2 0  and 4 3 0 
67833355		 # 	collision with: 7 1 0  and 9 3 0 
67833404		 # 	collision with: 4 5 0  and 3 6 0 
67833405		 # 	collision with: 7 0 0  and 9 2 0 
67833406		 # 	collision with: 7 2 0  and 5 4 0 
67833407		 # 	collision with: 2 1 0  and 10 2 0 
67833456		 # 	collision with: 2 1 0  and 5 2 0 
67833457		 # 	collision with: 4 8 0  and 10 1 1 
67833458		 # 	collision with: 7 4 0  and 10 5 0 
67833459		 # 	collision with: 1 5 0  and 0 0 1 
67833508		 # 	collision with: 10 1 0  and 0 2 0 
67833509		 # 	collision with: 2 3 0  and 7 5 0 
67833510		 # 	collision with: 7 4 0  and 10 5 0 
67833511		 # 	collision with: 5 1 0  and 5 0 1 
67833560		 # 	collision with: 3 3 0  and 7 4 0 
67833561		 # 	collision with: 6 3 0  and 2 5 0 
67833562		 # 	collision with: 7 4 0  and 10 5 0 
67833563		 # 	collision with: 9 7 0  and 2 0 1 
67833568		 # 	collision with: 3 3 0  and 9 4 0 
67833569		 # 	collision with: 3 2 0  and 1 3 0 
67833570		 # 	collision with: 2 9 0  and 3 0 1 
67833571		 # 	collision with: 8 0 0  and 5 1 0 
67833620		 # 	collision with: 0 0 0  and 4 2 0 
67833621		 # 	collision with: 5 1 1  and 3 2 1 
67833622		 # 	collision with: 0 4 0  and 7 1 1 
67833623		 # 	collision with: 0 3 0  and 5 0 1 
67833672		 # 	collision with: 9 10 0  and 9 0 1 
67833673		 # 	collision with: 1 9 0  and 5 0 1 
67833674		 # 	collision with: 10 5 0  and 7 7 0 
67833675		 # 	collision with: 8 4 0  and 3 6 0 
67833724		 # 	collision with: 7 1 0  and 3 3 0 
67833725		 # 	collision with: 1 3 0  and 1 4 0 
67833726		 # 	collision with: 2 3 0  and 0 4 0 
67833727		 # 	collision with: 6 3 0  and 7 5 0 
67833776		 # 	collision with: 4 2 0  and 1 3 0 
67833777		 # 	collision with: 3 2 0  and 1 4 0 
67833778		 # 	collision with: 10 0 0  and 5 2 0 
67833779		 # 	collision with: 3 4 0  and 2 5 0 
67833828		 # 	collision with: 3 1 0  and 5 1 0 
67833829		 # 	collision with: 9 1 0  and 0 2 0 
67833830		 # 	collision with: 0 9 0  and 2 0 1 
67833831		 # 	collision with: 2 9 0  and 0 0 1 
67833836		 # 	collision with: 2 6 0  and 1 2 1 
67833837		 # 	collision with: 8 3 0  and 9 5 0 
67833838		 # 	collision with: 1 2 0  and 2 4 0 
67833839		 # 	collision with: 10 4 0  and 1 5 0 
67833888		 # 	collision with: 4 1 0  and 8 2 0 
67833889		 # 	collision with: 0 0 0  and 1 1 1 
67833890		 # 	collision with: 8 5 0  and 7 6 0 
67833891		 # 	collision with: 2 4 0  and 4 0 1 
67833940		 # 	collision with: 4 2 0  and 4 4 0 
67833941		 # 	collision with: 4 2 0  and 5 3 0 
67833942		 # 	collision with: 2 0 0  and 4 2 0 
67833943		 # 	collision with: 4 3 0  and 5 4 0 
67833992		 # 	collision with: 1 3 0  and 4 4 0 
67833993		 # 	collision with: 3 7 0  and 5 0 1 
67833994		 # 	collision with: 10 4 0  and 0 0 1 
67833995		 # 	collision with: 6 5 0  and 3 0 1 
67834044		 # 	collision with: 1 1 0  and 3 3 0 
67834045		 # 	collision with: 0 7 0  and 2 7 0 
67834046		 # 	collision with: 0 2 0  and 2 3 0 
67834047		 # 	collision with: 8 3 0  and 8 4 0 
67834052		 # 	collision with: 9 1 0  and 7 2 0 
67834053		 # 	collision with: 6 4 0  and 6 5 0 
67834054		 # 	collision with: 4 2 0  and 0 0 1 
67834055		 # 	collision with: 2 4 0  and 2 5 0 
67834104		 # 	collision with: 4 3 0  and 9 1 1 
67834105		 # 	collision with: 4 0 0  and 5 2 0 
67834106		 # 	collision with: 9 1 0  and 9 2 0 
67834107		 # 	collision with: 10 4 0  and 1 5 0 
67834156		 # 	collision with: 5 5 0  and 0 2 1 
67834157		 # 	collision with: 2 0 0  and 9 2 0 
67834158		 # 	collision with: 3 3 0  and 0 0 1 
67834159		 # 	collision with: 2 0 0  and 3 2 0 
67834208		 # 	collision with: 1 10 0  and 10 0 1 
67834209		 # 	collision with: 4 1 0  and 8 2 0 
67834210		 # 	collision with: 1 7 0  and 5 0 1 
67834211		 # 	collision with: 4 1 0  and 2 0 1 
67834260		 # 	collision with: 3 6 0  and 3 1 1 
67834261		 # 	collision with: 2 4 0  and 0 6 0 
67834262		 # 	collision with: 9 2 0  and 4 4 0 
67834263		 # 	collision with: 8 0 0  and 6 2 0 
67834312		 # 	collision with: 0 9 0  and 5 0 1 
67834313		 # 	collision with: 9 7 0  and 2 0 1 
67834314		 # 	collision with: 6 2 0  and 2 4 0 
67834315		 # 	collision with: 7 9 0  and 9 0 1 
67834320		 # 	collision with: 2 3 0  and 7 5 0 
67834321		 # 	collision with: 1 5 0  and 3 5 0 
67834322		 # 	collision with: 7 1 0  and 8 3 0 
67834323		 # 	collision with: 5 9 0  and 6 9 0 
67834372		 # 	collision with: 4 2 0  and 5 3 0 
67834373		 # 	collision with: 10 8 0  and 4 0 1 
67834374		 # 	collision with: 4 2 0  and 3 3 0 
67834375		 # 	collision with: 3 2 0  and 1 1 1 
67834424		 # 	collision with: 2 4 0  and 3 4 0 
67834425		 # 	collision with: 9 7 0  and 0 0 1 
67834426		 # 	collision with: 0 2 0  and 2 3 0 
67834427		 # 	collision with: 2 3 0  and 0 4 0 
67834476		 # 	collision with: 0 0 0  and 4 2 0 
67834477		 # 	collision with: 6 4 0  and 9 5 0 
67834478		 # 	collision with: 5 1 0  and 6 2 0 
67834479		 # 	collision with: 1 4 0  and 4 0 1 
67834528		 # 	collision with: 2 1 0  and 2 2 0 
67834529		 # 	collision with: 9 1 0  and 0 2 0 
67834530		 # 	collision with: 5 3 0  and 10 5 0 
67834531		 # 	collision with: 1 5 0  and 4 6 0 
67834536		 # 	collision with: 4 1 0  and 10 2 0 
67834537		 # 	collision with: 9 0 0  and 3 2 0 
67834538		 # 	collision with: 6 4 0  and 4 6 0 
67834539		 # 	collision with: 10 2 0  and 6 3 0 
67834588		 # 	collision with: 7 3 0  and 0 0 1 
67834589		 # 	collision with: 1 7 0  and 7 0 1 
67834590		 # 	collision with: 6 4 0  and 4 6 0 
67834591		 # 	collision with: 10 0 0  and 2 2 0 
67834640		 # 	collision with: 10 2 0  and 3 0 1 
67834641		 # 	collision with: 2 1 1  and 3 2 1 
67834642		 # 	collision with: 6 4 0  and 4 6 0 
67834643		 # 	collision with: 5 1 0  and 1 2 0 
67834692		 # 	collision with: 3 1 0  and 9 3 0 
67834693		 # 	collision with: 8 5 0  and 9 6 0 
67834694		 # 	collision with: 6 4 0  and 4 6 0 
67834695		 # 	collision with: 0 0 0  and 7 1 0 
67834744		 # 	collision with: 9 1 0  and 0 0 1 
67834745		 # 	collision with: 9 1 0  and 0 2 0 
67834746		 # 	collision with: 3 1 0  and 5 1 0 
67834747		 # 	collision with: 7 2 0  and 5 4 0 
67834796		 # 	collision with: 5 10 0  and 1 0 1 
67834797		 # 	collision with: 3 3 0  and 4 1 1 
67834798		 # 	collision with: 7 1 0  and 9 3 0 
67834799		 # 	collision with: 4 3 0  and 0 4 0 
67834804		 # 	collision with: 0 0 0  and 4 2 0 
67834805		 # 	collision with: 5 9 0  and 5 1 1 
67834806		 # 	collision with: 2 0 0  and 3 2 0 
67834807		 # 	collision with: 1 1 0  and 8 3 0 
67834856		 # 	collision with: 2 0 0  and 9 2 0 
67834857		 # 	collision with: 3 3 0  and 9 4 0 
67834858		 # 	collision with: 6 4 0  and 4 6 0 
67834859		 # 	collision with: 2 0 0  and 4 2 0 
67834908		 # 	collision with: 6 2 0  and 8 4 0 
67834909		 # 	collision with: 0 4 0  and 7 6 0 
67834910		 # 	collision with: 6 4 0  and 4 6 0 
67834911		 # 	collision with: 8 4 0  and 0 6 0 
67834960		 # 	collision with: 4 2 0  and 1 4 0 
67834961		 # 	collision with: 5 0 0  and 2 2 0 
67834962		 # 	collision with: 1 1 0  and 9 3 0 
67834963		 # 	collision with: 9 0 0  and 1 1 0 
67835012		 # 	collision with: 0 7 0  and 2 7 0 
67835013		 # 	collision with: 7 4 0  and 2 6 0 
67835014		 # 	collision with: 8 2 0  and 6 3 0 
67835015		 # 	collision with: 4 1 0  and 7 3 0 
67835020		 # 	collision with: 10 0 0  and 5 1 0 
67835021		 # 	collision with: 10 0 0  and 3 1 0 
67835022		 # 	collision with: 4 5 0  and 8 6 0 
67835023		 # 	collision with: 8 0 0  and 3 1 0 
67835072		 # 	collision with: 10 1 0  and 7 2 0 
67835073		 # 	collision with: 5 0 0  and 5 2 0 
67835074		 # 	collision with: 1 1 0  and 8 3 0 
67835075		 # 	collision with: 6 4 0  and 4 6 0 
67835124		 # 	collision with: 2 3 0  and 8 5 0 
67835125		 # 	collision with: 10 0 0  and 5 1 0 
67835126		 # 	collision with: 10 2 0  and 0 3 0 
67835127		 # 	collision with: 10 4 0  and 1 5 0 
67835176		 # 	collision with: 0 0 0  and 4 2 0 
67835177		 # 	collision with: 2 5 0  and 4 1 1 
67835178		 # 	collision with: 10 1 0  and 0 0 1 
67835179		 # 	collision with: 9 0 0  and 7 1 0 
67835228		 # 	collision with: 5 0 0  and 2 2 0 
67835229		 # 	collision with: 5 3 0  and 4 4 0 
67835230		 # 	collision with: 3 1 0  and 6 2 0 
67835231		 # 	collision with: 0 2 0  and 5 4 0 
67835280		 # 	collision with: 9 10 0  and 0 0 1 
67835281		 # 	collision with: 3 1 0  and 5 1 0 
67835282		 # 	collision with: 2 4 0  and 3 4 0 
67835283		 # 	collision with: 10 2 0  and 0 3 0 
67835288		 # 	collision with: 9 3 0  and 10 4 0 
67835289		 # 	collision with: 8 5 0  and 5 6 0 
67835290		 # 	collision with: 0 5 0  and 6 6 0 
67835291		 # 	collision with: 6 4 0  and 4 6 0 
67835340		 # 	collision with: 10 4 0  and 9 5 0 
67835341		 # 	collision with: 7 9 0  and 1 2 1 
67835342		 # 	collision with: 2 1 0  and 0 3 0 
67835343		 # 	collision with: 6 4 0  and 4 6 0 
67835392		 # 	collision with: 4 0 0  and 2 1 0 
67835393		 # 	collision with: 9 3 0  and 4 2 1 
67835394		 # 	collision with: 5 3 0  and 5 5 0 
67835395		 # 	collision with: 1 5 0  and 3 5 0 
67835444		 # 	collision with: 9 9 0  and 0 0 1 
67835445		 # 	collision with: 9 1 0  and 0 2 0 
67835446		 # 	collision with: 10 5 0  and 6 0 1 
67835447		 # 	collision with: 6 4 0  and 4 6 0 
67835496		 # 	collision with: 2 9 0  and 6 0 1 
67835497		 # 	collision with: 5 3 0  and 3 0 1 
67835498		 # 	collision with: 2 1 0  and 10 2 0 
67835499		 # 	collision with: 6 4 0  and 4 6 0 
67835504		 # 	collision with: 0 0 0  and 4 2 0 
67835505		 # 	collision with: 8 9 0  and 7 0 1 
67835506		 # 	collision with: 4 3 0  and 0 0 1 
67835507		 # 	collision with: 2 3 0  and 4 3 0 
67835556		 # 	collision with: 4 3 0  and 7 5 0 
67835557		 # 	collision with: 2 5 0  and 6 6 0 
67835558		 # 	collision with: 8 4 0  and 2 0 1 
67835559		 # 	collision with: 8 7 0  and 1 1 1 
67835608		 # 	collision with: 8 4 0  and 1 5 0 
67835609		 # 	collision with: 4 10 0  and 6 10 0 
67835610		 # 	collision with: 0 2 0  and 2 3 0 
67835611		 # 	collision with: 4 0 0  and 6 1 1 
67835660		 # 	collision with: 5 1 0  and 8 3 0 
67835661		 # 	collision with: 9 1 0  and 0 2 0 
67835662		 # 	collision with: 7 2 0  and 7 0 1 
67835663		 # 	collision with: 6 1 0  and 0 3 0 
67835712		 # 	collision with: 7 2 0  and 7 3 0 
67835713		 # 	collision with: 4 5 0  and 3 6 0 
67835714		 # 	collision with: 2 3 0  and 5 4 0 
67835715		 # 	collision with: 10 1 0  and 9 2 0 
67835764		 # 	collision with: 0 0 0  and 3 2 0 
67835765		 # 	collision with: 6 2 0  and 8 4 0 
67835766		 # 	collision with: 8 4 0  and 7 0 1 
67835767		 # 	collision with: 10 2 0  and 8 0 1 
67835772		 # 	collision with: 0 2 0  and 7 3 0 
67835773		 # 	collision with: 7 1 0  and 3 3 0 
67835774		 # 	collision with: 6 4 0  and 1 5 0 
67835775		 # 	collision with: 3 1 0  and 6 2 0 
67835824		 # 	collision with: 6 1 0  and 2 2 0 
67835825		 # 	collision with: 8 2 1  and 6 3 1 
67835826		 # 	collision with: 1 2 0  and 3 4 0 
67835827		 # 	collision with: 2 6 0  and 5 0 1 
67835876		 # 	collision with: 8 2 0  and 2 4 0 
67835877		 # 	collision with: 3 2 0  and 4 4 0 
67835878		 # 	collision with: 3 1 0  and 1 2 0 
67835879		 # 	collision with: 10 4 0  and 1 5 0 
67835928		 # 	collision with: 4 5 0  and 0 6 0 
67835929		 # 	collision with: 10 1 0  and 10 3 0 
67835930		 # 	collision with: 7 3 0  and 10 0 1 
67835931		 # 	collision with: 7 4 0  and 5 5 0 
67835980		 # 	collision with: 10 4 0  and 6 5 0 
67835981		 # 	collision with: 3 4 0  and 0 5 0 
67835982		 # 	collision with: 0 2 0  and 5 4 0 
67835983		 # 	collision with: 1 2 0  and 2 4 0 
67835988		 # 	collision with: 8 3 0  and 9 5 0 
67835989		 # 	collision with: 10 4 0  and 6 5 0 
67835990		 # 	collision with: 7 0 0  and 3 2 0 
67835991		 # 	collision with: 2 6 0  and 1 0 1 
67836040		 # 	collision with: 5 0 0  and 5 2 0 
67836041		 # 	collision with: 4 0 0  and 2 1 0 
67836042		 # 	collision with: 3 9 0  and 1 0 1 
67836043		 # 	collision with: 5 1 0  and 1 2 1 
67836092		 # 	collision with: 3 4 0  and 0 5 0 
67836093		 # 	collision with: 9 4 0  and 1 6 0 
67836094		 # 	collision with: 1 3 0  and 8 0 1 
67836095		 # 	collision with: 3 5 0  and 4 6 0 
67836144		 # 	collision with: 7 4 0  and 1 0 1 
67836145		 # 	collision with: 4 5 0  and 0 6 0 
67836146		 # 	collision with: 4 10 0  and 6 10 0 
67836147		 # 	collision with: 10 4 0  and 1 5 0 
67836196		 # 	collision with: 5 6 0  and 2 0 1 
67836197		 # 	collision with: 0 0 0  and 3 2 0 
67836198		 # 	collision with: 1 5 0  and 4 6 0 
67836199		 # 	collision with: 3 1 0  and 5 1 0 
67836248		 # 	collision with: 8 9 0  and 4 0 1 
67836249		 # 	collision with: 9 3 0  and 6 4 0 
67836250		 # 	collision with: 1 6 0  and 1 7 0 
67836251		 # 	collision with: 5 6 0  and 2 7 0 
67836256		 # 	collision with: 9 2 0  and 2 3 0 
67836257		 # 	collision with: 3 4 0  and 0 6 0 
67836258		 # 	collision with: 1 3 0  and 7 4 0 
67836259		 # 	collision with: 7 4 0  and 3 1 1 
67836308		 # 	collision with: 8 3 0  and 6 5 0 
67836309		 # 	collision with: 10 2 0  and 2 4 0 
67836310		 # 	collision with: 10 1 0  and 9 2 0 
67836311		 # 	collision with: 5 9 0  and 4 1 1 
67836360		 # 	collision with: 0 0 0  and 4 2 0 
67836361		 # 	collision with: 9 1 0  and 0 2 0 
67836362		 # 	collision with: 8 1 0  and 7 0 1 
67836363		 # 	collision with: 4 1 0  and 10 3 0 
67836412		 # 	collision with: 8 5 0  and 7 0 1 
67836413		 # 	collision with: 6 1 0  and 2 2 0 
67836414		 # 	collision with: 0 0 0  and 1 1 1 
67836415		 # 	collision with: 0 5 0  and 6 6 0 
67836464		 # 	collision with: 4 3 0  and 5 0 1 
67836465		 # 	collision with: 5 1 0  and 8 3 0 
67836466		 # 	collision with: 6 1 0  and 10 2 0 
67836467		 # 	collision with: 6 2 0  and 2 4 0 
67836472		 # 	collision with: 3 2 0  and 4 4 0 
67836473		 # 	collision with: 10 6 0  and 1 0 1 
67836474		 # 	collision with: 6 1 0  and 1 1 1 
67836475		 # 	collision with: 5 1 0  and 6 2 0 
67836524		 # 	collision with: 7 10 0  and 7 0 1 
67836525		 # 	collision with: 1 6 0  and 2 6 0 
67836526		 # 	collision with: 3 2 0  and 4 2 0 
67836527		 # 	collision with: 6 2 0  and 3 4 0 
67836576		 # 	collision with: 1 8 0  and 8 0 1 
67836577		 # 	collision with: 9 1 0  and 0 2 0 
67836578		 # 	collision with: 7 2 0  and 2 2 1 
67836579		 # 	collision with: 3 1 0  and 1 2 0 
67836628		 # 	collision with: 5 0 0  and 2 1 0 
67836629		 # 	collision with: 2 4 0  and 0 5 0 
67836630		 # 	collision with: 10 8 0  and 4 1 1 
67836631		 # 	collision with: 6 2 0  and 3 4 0 
67836680		 # 	collision with: 1 5 0  and 0 0 1 
67836681		 # 	collision with: 2 1 0  and 5 2 0 
67836682		 # 	collision with: 4 1 0  and 10 3 0 
67836683		 # 	collision with: 6 2 0  and 3 4 0 
67836732		 # 	collision with: 0 0 0  and 4 2 0 
67836733		 # 	collision with: 1 9 0  and 3 0 1 
67836734		 # 	collision with: 0 2 0  and 3 0 1 
67836735		 # 	collision with: 6 2 0  and 3 4 0 
67836740		 # 	collision with: 2 4 0  and 0 5 0 
67836741		 # 	collision with: 5 0 0  and 6 1 0 
67836742		 # 	collision with: 7 2 0  and 2 3 0 
67836743		 # 	collision with: 6 2 0  and 3 4 0 
67836792		 # 	collision with: 4 0 0  and 2 2 0 
67836793		 # 	collision with: 9 10 0  and 4 0 1 
67836794		 # 	collision with: 1 3 0  and 10 5 0 
67836795		 # 	collision with: 6 2 0  and 3 4 0 
67836844		 # 	collision with: 10 2 0  and 5 0 1 
67836845		 # 	collision with: 9 7 0  and 0 1 1 
67836846		 # 	collision with: 5 4 0  and 2 6 0 
67836847		 # 	collision with: 7 2 0  and 2 3 0 
67836896		 # 	collision with: 0 0 0  and 1 1 1 
67836897		 # 	collision with: 9 2 0  and 4 3 0 
67836898		 # 	collision with: 9 0 0  and 7 1 0 
67836899		 # 	collision with: 6 2 0  and 3 4 0 
67836948		 # 	collision with: 7 7 0  and 0 5 1 
67836949		 # 	collision with: 9 3 0  and 2 2 1 
67836950		 # 	collision with: 8 0 0  and 5 1 0 
67836951		 # 	collision with: 6 2 0  and 3 4 0 
67836956		 # 	collision with: 9 1 0  and 10 3 0 
67836957		 # 	collision with: 7 5 0  and 5 7 0 
67836958		 # 	collision with: 10 2 0  and 6 3 0 
67836959		 # 	collision with: 6 3 0  and 1 0 1 
67837008		 # 	collision with: 9 0 0  and 4 2 0 
67837009		 # 	collision with: 7 5 0  and 5 7 0 
67837010		 # 	collision with: 9 2 0  and 1 4 0 
67837011		 # 	collision with: 7 1 0  and 9 2 1 
67837060		 # 	collision with: 0 0 0  and 4 2 0 
67837061		 # 	collision with: 10 1 0  and 7 2 0 
67837062		 # 	collision with: 3 5 0  and 10 6 0 
67837063		 # 	collision with: 10 4 0  and 9 0 1 
67837112		 # 	collision with: 1 3 0  and 1 4 0 
67837113		 # 	collision with: 7 5 0  and 5 7 0 
67837114		 # 	collision with: 4 3 0  and 0 4 0 
67837115		 # 	collision with: 1 2 0  and 3 4 0 
67837164		 # 	collision with: 2 9 0  and 8 0 1 
67837165		 # 	collision with: 1 2 0  and 8 4 0 
67837166		 # 	collision with: 0 0 0  and 7 1 0 
67837167		 # 	collision with: 2 1 0  and 0 3 0 
67837216		 # 	collision with: 3 1 0  and 8 3 0 
67837217		 # 	collision with: 3 1 0  and 9 3 0 
67837218		 # 	collision with: 10 0 0  and 2 2 0 
67837219		 # 	collision with: 9 2 0  and 4 4 0 
67837224		 # 	collision with: 3 10 0  and 3 0 1 
67837225		 # 	collision with: 7 5 0  and 5 7 0 
67837226		 # 	collision with: 2 1 0  and 8 2 0 
67837227		 # 	collision with: 9 8 0  and 1 0 1 
67837276		 # 	collision with: 5 3 0  and 4 4 0 
67837277		 # 	collision with: 9 1 0  and 0 2 0 
67837278		 # 	collision with: 8 0 0  and 6 2 0 
67837279		 # 	collision with: 0 4 0  and 1 6 0 
67837328		 # 	collision with: 6 4 0  and 0 0 1 
67837329		 # 	collision with: 2 4 0  and 3 4 0 
67837330		 # 	collision with: 1 5 0  and 3 5 0 
67837331		 # 	collision with: 0 0 0  and 1 1 1 
67837380		 # 	collision with: 0 5 0  and 5 0 1 
67837381		 # 	collision with: 7 5 0  and 5 7 0 
67837382		 # 	collision with: 3 3 0  and 6 5 0 
67837383		 # 	collision with: 5 1 0  and 0 0 1 
67837432		 # 	collision with: 6 3 0  and 2 5 0 
67837433		 # 	collision with: 1 1 0  and 3 3 0 
67837434		 # 	collision with: 5 1 0  and 1 2 0 
67837435		 # 	collision with: 6 4 0  and 3 5 0 
67837440		 # 	collision with: 4 0 0  and 5 2 0 
67837441		 # 	collision with: 7 2 0  and 10 3 0 
67837442		 # 	collision with: 1 3 0  and 9 4 0 
67837443		 # 	collision with: 6 2 0  and 8 1 1 
67837492		 # 	collision with: 7 5 0  and 5 7 0 
67837493		 # 	collision with: 9 1 0  and 0 2 0 
67837494		 # 	collision with: 1 3 0  and 9 4 0 
67837495		 # 	collision with: 0 3 0  and 7 5 0 
67837544		 # 	collision with: 7 5 0  and 5 7 0 
67837545		 # 	collision with: 4 3 0  and 9 0 1 
67837546		 # 	collision with: 1 3 0  and 9 4 0 
67837547		 # 	collision with: 3 6 0  and 3 1 1 
67837596		 # 	collision with: 7 5 0  and 5 7 0 
67837597		 # 	collision with: 7 2 0  and 1 0 1 
67837598		 # 	collision with: 1 3 0  and 9 4 0 
67837599		 # 	collision with: 4 0 0  and 4 1 0 
67837648		 # 	collision with: 5 0 0  and 6 1 0 
67837649		 # 	collision with: 0 2 0  and 10 3 0 
67837650		 # 	collision with: 9 0 0  and 1 1 0 
67837651		 # 	collision with: 1 1 0  and 9 3 0 
67837700		 # 	collision with: 7 5 0  and 5 7 0 
67837701		 # 	collision with: 4 1 0  and 7 0 1 
67837702		 # 	collision with: 7 0 0  and 4 2 0 
67837703		 # 	collision with: 0 10 0  and 10 0 1 
67837708		 # 	collision with: 7 5 0  and 5 7 0 
67837709		 # 	collision with: 0 5 0  and 8 0 1 
67837710		 # 	collision with: 8 0 0  and 3 1 0 
67837711		 # 	collision with: 7 1 0  and 8 3 0 
67837760		 # 	collision with: 7 5 0  and 5 7 0 
67837761		 # 	collision with: 5 0 0  and 2 1 0 
67837762		 # 	collision with: 9 3 0  and 8 4 0 
67837763		 # 	collision with: 10 2 0  and 6 0 1 
67837812		 # 	collision with: 7 5 0  and 5 7 0 
67837813		 # 	collision with: 3 3 0  and 7 4 0 
67837814		 # 	collision with: 1 3 0  and 9 4 0 
67837815		 # 	collision with: 8 3 0  and 2 0 1 
67837864		 # 	collision with: 10 1 0  and 10 3 0 
67837865		 # 	collision with: 9 1 0  and 7 2 0 
67837866		 # 	collision with: 1 3 0  and 9 4 0 
67837867		 # 	collision with: 1 9 0  and 1 0 1 
67837916		 # 	collision with: 0 0 0  and 4 2 0 
67837917		 # 	collision with: 9 1 0  and 10 3 0 
67837918		 # 	collision with: 1 3 0  and 9 4 0 
67837919		 # 	collision with: 10 4 0  and 1 5 0 
67837924		 # 	collision with: 7 0 0  and 9 2 0 
67837925		 # 	collision with: 8 1 0  and 8 0 1 
67837926		 # 	collision with: 4 1 0  and 6 1 1 
67837927		 # 	collision with: 0 0 0  and 1 1 1 
67837976		 # 	collision with: 1 6 0  and 2 6 0 
67837977		 # 	collision with: 4 5 0  and 10 2 1 
67837978		 # 	collision with: 4 3 0  and 10 0 1 
67837979		 # 	collision with: 0 0 0  and 1 1 0 
67838028		 # 	collision with: 8 4 0  and 7 0 1 
67838029		 # 	collision with: 9 1 0  and 6 0 1 
67838030		 # 	collision with: 9 4 0  and 10 0 1 
67838031		 # 	collision with: 6 8 0  and 2 4 1 
67838080		 # 	collision with: 2 3 0  and 2 0 1 
67838081		 # 	collision with: 2 8 0  and 2 1 1 
67838082		 # 	collision with: 4 0 0  and 4 1 0 
67838083		 # 	collision with: 9 3 0  and 4 1 1 
67838132		 # 	collision with: 2 9 0  and 4 0 1 
67838133		 # 	collision with: 10 4 0  and 9 5 0 
67838134		 # 	collision with: 8 2 0  and 0 3 0 
67838135		 # 	collision with: 5 0 0  and 4 1 0 
67838184		 # 	collision with: 1 2 0  and 8 4 0 
67838185		 # 	collision with: 8 4 0  and 3 5 0 
67838186		 # 	collision with: 1 7 0  and 7 0 1 
67838187		 # 	collision with: 2 4 0  and 3 4 0 
67838192		 # 	collision with: 7 1 0  and 0 0 1 
67838193		 # 	collision with: 9 1 0  and 0 2 0 
67838194		 # 	collision with: 0 4 0  and 1 6 0 
67838195		 # 	collision with: 7 2 0  and 4 3 0 
67838244		 # 	collision with: 8 0 0  and 8 1 0 
67838245		 # 	collision with: 4 4 0  and 8 0 1 
67838246		 # 	collision with: 5 0 0  and 4 1 0 
67838247		 # 	collision with: 8 5 0  and 4 0 1 
67838296		 # 	collision with: 2 5 0  and 6 6 0 
67838297		 # 	collision with: 8 2 0  and 3 4 0 
67838298		 # 	collision with: 3 5 0  and 1 1 1 
67838299		 # 	collision with: 9 2 0  and 4 0 1 
67838348		 # 	collision with: 2 1 0  and 7 0 1 
67838349		 # 	collision with: 10 5 0  and 9 1 1 
67838350		 # 	collision with: 8 6 0  and 0 0 1 
67838351		 # 	collision with: 1 3 1  and 8 4 1 
67838400		 # 	collision with: 10 5 0  and 7 0 1 
67838401		 # 	collision with: 2 1 0  and 2 2 0 
67838402		 # 	collision with: 10 4 0  and 4 6 0 
67838403		 # 	collision with: 10 7 0  and 6 2 1 
67838417		 # 	collision with: 9 4 0  and 10 1 1 
67838419		 # 	collision with: 5 4 0  and 8 6 0 
67838445		 # 	collision with: 0 9 0  and 8 1 1 
67838447		 # 	collision with: 1 4 0  and 8 5 0 
67838541		 # 	collision with: 1 3 0  and 0 4 0 
67838543		 # 	collision with: 4 1 0  and 3 2 0 
67838545		 # 	collision with: 0 2 0  and 5 3 0 
67838547		 # 	collision with: 2 3 0  and 2 0 1 
67838613		 # 	collision with: 8 0 0  and 8 1 0 
67838615		 # 	collision with: 2 5 0  and 6 6 0 
67838621		 # 	collision with: 4 2 0  and 4 4 0 
67838623		 # 	collision with: 6 3 0  and 3 5 0 
67838671		 # 	collision with: 4 3 0  and 3 5 0 
67838679		 # 	collision with: 4 1 0  and 5 2 0 
67838725		 # 	collision with: 0 10 0  and 2 10 0 
67838727		 # 	collision with: 2 3 0  and 4 4 0 
67838733		 # 	collision with: 9 10 0  and 9 0 1 
67838735		 # 	collision with: 9 5 0  and 4 6 0 
67838761		 # 	collision with: 9 0 0  and 7 1 0 
67838763		 # 	collision with: 3 1 0  and 2 0 1 
67838801		 # 	collision with: 0 1 0  and 5 2 0 
67838803		 # 	collision with: 0 4 0  and 8 5 0 
67838892		 # 	collision with: 8 0 0  and 9 1 0 
67838894		 # 	collision with: 5 2 0  and 1 0 1 
67838901		 # 	collision with: 5 10 0  and 3 1 1 
67838903		 # 	collision with: 10 4 0  and 10 6 0 
67838929		 # 	collision with: 0 0 0  and 1 1 1 
67838931		 # 	collision with: 3 1 0  and 10 3 0 
67839025		 # 	collision with: 4 3 0  and 6 3 0 
67839029		 # 	collision with: 3 0 0  and 4 1 0 
67839031		 # 	collision with: 5 5 0  and 4 0 1 
67839097		 # 	collision with: 0 3 0  and 7 4 0 
67839099		 # 	collision with: 6 1 0  and 7 2 0 
67839105		 # 	collision with: 4 3 0  and 7 5 0 
67839153		 # 	collision with: 0 7 0  and 10 1 1 
67839155		 # 	collision with: 4 5 0  and 3 7 0 
67839161		 # 	collision with: 6 0 0  and 10 1 0 
67839163		 # 	collision with: 2 4 0  and 2 5 0 
67839209		 # 	collision with: 10 3 0  and 5 4 0 
67839211		 # 	collision with: 0 1 0  and 4 3 0 
67839217		 # 	collision with: 5 5 0  and 0 7 0 
67839219		 # 	collision with: 7 0 0  and 3 1 0 
67839245		 # 	collision with: 1 3 0  and 3 0 1 
67839247		 # 	collision with: 0 0 0  and 1 1 1 
67839285		 # 	collision with: 4 2 0  and 8 4 0 
67839287		 # 	collision with: 0 3 0  and 9 4 0 
67839376		 # 	collision with: 6 4 0  and 4 6 0 
67839378		 # 	collision with: 1 1 0  and 1 0 1 
67839385		 # 	collision with: 7 1 0  and 0 3 0 
67839387		 # 	collision with: 5 1 0  and 2 2 0 
67839413		 # 	collision with: 3 0 0  and 4 1 0 
67839415		 # 	collision with: 9 0 1  and 1 2 1 
67839509		 # 	collision with: 4 4 0  and 3 5 0 
67839511		 # 	collision with: 7 2 0  and 6 3 0 
67839513		 # 	collision with: 2 8 0  and 0 0 1 
67839515		 # 	collision with: 0 1 0  and 6 3 0 
67839581		 # 	collision with: 8 2 0  and 3 4 0 
67839583		 # 	collision with: 0 3 0  and 9 4 0 
67839589		 # 	collision with: 10 0 0  and 5 2 0 
67839591		 # 	collision with: 8 0 0  and 4 2 0 
67839637		 # 	collision with: 3 0 0  and 9 2 1 
67839639		 # 	collision with: 1 2 0  and 6 3 0 
67839645		 # 	collision with: 1 6 0  and 10 0 1 
67839647		 # 	collision with: 5 9 0  and 6 9 0 
67839693		 # 	collision with: 9 1 0  and 6 3 0 
67839695		 # 	collision with: 0 0 0  and 2 1 0 
67839701		 # 	collision with: 2 0 0  and 10 2 0 
67839703		 # 	collision with: 2 1 0  and 5 2 0 
67839729		 # 	collision with: 0 7 0  and 5 0 1 
67839731		 # 	collision with: 8 0 0  and 3 1 0 
67839769		 # 	collision with: 10 1 0  and 0 3 0 
67839771		 # 	collision with: 2 2 0  and 1 0 1 
67839860		 # 	collision with: 5 3 0  and 1 1 1 
67839862		 # 	collision with: 5 9 0  and 3 0 1 
67839869		 # 	collision with: 3 0 0  and 6 2 0 
67839871		 # 	collision with: 2 1 0  and 4 1 0 
67839897		 # 	collision with: 6 4 0  and 8 5 0 
67839899		 # 	collision with: 8 7 0  and 4 0 1 
67839993		 # 	collision with: 6 4 0  and 4 6 0 
67839995		 # 	collision with: 0 1 0  and 1 2 0 
67839997		 # 	collision with: 6 4 0  and 4 6 0 
67840065		 # 	collision with: 6 4 0  and 4 6 0 
67840067		 # 	collision with: 4 0 0  and 5 2 0 
67840075		 # 	collision with: 8 0 0  and 3 1 0 
67840121		 # 	collision with: 6 4 0  and 4 6 0 
67840123		 # 	collision with: 1 4 0  and 6 5 0 
67840129		 # 	collision with: 6 4 0  and 4 6 0 
67840131		 # 	collision with: 2 4 0  and 10 6 0 
67840177		 # 	collision with: 6 4 0  and 4 6 0 
67840179		 # 	collision with: 10 4 0  and 1 5 0 
67840213		 # 	collision with: 3 2 0  and 5 2 0 
67840215		 # 	collision with: 6 1 0  and 6 3 0 
67840253		 # 	collision with: 8 5 0  and 1 6 0 
67840255		 # 	collision with: 6 6 0  and 1 0 1 
67840344		 # 	collision with: 5 4 0  and 0 0 1 
67840346		 # 	collision with: 9 1 0  and 10 2 0 
67840353		 # 	collision with: 5 9 0  and 6 9 0 
67840381		 # 	collision with: 3 0 0  and 2 2 0 
67840383		 # 	collision with: 10 8 0  and 4 0 1 
67840479		 # 	collision with: 4 1 0  and 3 3 0 
67840481		 # 	collision with: 2 10 0  and 8 0 1 
67840483		 # 	collision with: 7 1 0  and 0 2 0 
67840549		 # 	collision with: 1 2 0  and 7 3 0 
67840551		 # 	collision with: 8 6 0  and 0 7 0 
67840557		 # 	collision with: 4 4 0  and 5 6 0 
67840559		 # 	collision with: 1 2 0  and 4 3 0 
67840605		 # 	collision with: 8 2 0  and 3 4 0 
67840607		 # 	collision with: 4 0 0  and 3 2 0 
67840613		 # 	collision with: 9 3 0  and 0 4 0 
67840661		 # 	collision with: 4 0 0  and 5 1 0 
67840663		 # 	collision with: 8 2 0  and 1 4 0 
67840669		 # 	collision with: 6 4 0  and 6 5 0 
67840671		 # 	collision with: 2 6 0  and 3 6 0 
67840697		 # 	collision with: 10 1 0  and 10 3 0 
67840699		 # 	collision with: 4 3 0  and 0 5 0 
67840739		 # 	collision with: 3 6 0  and 5 0 1 
67840828		 # 	collision with: 8 4 0  and 5 6 0 
67840830		 # 	collision with: 2 1 0  and 2 0 1 
67840837		 # 	collision with: 6 5 0  and 8 7 0 
67840839		 # 	collision with: 10 4 0  and 2 5 0 
67840867		 # 	collision with: 10 2 0  and 7 4 0 
67840961		 # 	collision with: 3 0 0  and 2 1 0 
67840963		 # 	collision with: 0 2 0  and 1 4 0 
67840965		 # 	collision with: 3 5 0  and 0 6 0 
67840967		 # 	collision with: 0 0 0  and 1 1 1 
67841033		 # 	collision with: 8 2 0  and 8 0 1 
67841035		 # 	collision with: 7 5 0  and 7 6 0 
67841041		 # 	collision with: 10 0 0  and 3 2 0 
67841043		 # 	collision with: 9 1 0  and 9 2 0 
67841089		 # 	collision with: 2 1 0  and 2 0 1 
67841091		 # 	collision with: 3 1 0  and 10 3 0 
67841097		 # 	collision with: 3 2 0  and 10 4 0 
67841099		 # 	collision with: 7 4 0  and 8 6 0 
67841145		 # 	collision with: 2 1 0  and 2 2 0 
67841147		 # 	collision with: 4 1 0  and 5 2 0 
67841153		 # 	collision with: 0 2 0  and 3 4 0 
67841155		 # 	collision with: 3 6 0  and 1 0 1 
67841181		 # 	collision with: 3 3 0  and 2 5 0 
67841183		 # 	collision with: 1 8 0  and 8 0 1 
67841221		 # 	collision with: 3 2 0  and 5 2 0 
67841223		 # 	collision with: 4 5 0  and 6 0 1 
67841312		 # 	collision with: 3 0 0  and 2 2 0 
67841314		 # 	collision with: 0 0 0  and 2 1 0 
67841323		 # 	collision with: 5 5 0  and 2 0 1 
67841349		 # 	collision with: 2 0 0  and 10 2 0 
67841351		 # 	collision with: 10 9 0  and 6 1 1 
67841445		 # 	collision with: 8 0 0  and 9 1 0 
67841447		 # 	collision with: 8 0 0  and 4 2 0 
67841449		 # 	collision with: 9 9 0  and 0 1 1 
67841451		 # 	collision with: 0 4 0  and 1 4 0 
67841517		 # 	collision with: 8 1 0  and 4 3 0 
67841519		 # 	collision with: 4 8 0  and 10 1 1 
67841525		 # 	collision with: 9 3 0  and 5 5 0 
67841527		 # 	collision with: 4 2 0  and 9 4 0 
67841573		 # 	collision with: 7 2 0  and 3 3 0 
67841575		 # 	collision with: 4 4 0  and 3 6 0 
67841581		 # 	collision with: 0 4 0  and 1 4 0 
67841583		 # 	collision with: 10 4 0  and 6 6 0 
67841629		 # 	collision with: 2 9 0  and 1 0 1 
67841631		 # 	collision with: 7 5 0  and 9 6 0 
67841637		 # 	collision with: 3 4 0  and 9 0 1 
67841639		 # 	collision with: 0 1 0  and 1 2 0 
67841665		 # 	collision with: 5 3 0  and 2 1 1 
67841667		 # 	collision with: 10 3 0  and 3 4 0 
67841705		 # 	collision with: 10 3 0  and 7 4 0 
67841707		 # 	collision with: 7 1 0  and 0 2 0 
67841796		 # 	collision with: 10 9 0  and 6 4 1 
67841798		 # 	collision with: 3 0 0  and 0 1 0 
67841805		 # 	collision with: 3 1 0  and 8 3 0 
67841807		 # 	collision with: 1 1 0  and 6 2 0 
67841833		 # 	collision with: 5 9 0  and 6 9 0 
67841929		 # 	collision with: 6 1 0  and 5 2 0 
67841931		 # 	collision with: 1 1 0  and 6 2 0 
67841935		 # 	collision with: 1 1 0  and 6 2 0 
67842001		 # 	collision with: 3 0 0  and 2 2 0 
67842003		 # 	collision with: 1 1 0  and 6 2 0 
67842009		 # 	collision with: 3 2 0  and 2 4 0 
67842011		 # 	collision with: 1 1 0  and 6 2 0 
67842057		 # 	collision with: 8 3 0  and 6 0 1 
67842065		 # 	collision with: 7 7 0  and 0 1 1 
67842067		 # 	collision with: 1 1 0  and 6 2 0 
67842113		 # 	collision with: 9 0 0  and 7 1 0 
67842115		 # 	collision with: 1 1 0  and 6 2 0 
67842121		 # 	collision with: 10 0 0  and 3 2 0 
67842123		 # 	collision with: 1 1 0  and 6 2 0 
67842151		 # 	collision with: 1 1 0  and 6 2 0 
67842189		 # 	collision with: 1 3 0  and 1 4 0 
67842191		 # 	collision with: 1 1 0  and 6 2 0 
67842280		 # 	collision with: 6 1 0  and 1 3 1 
67842282		 # 	collision with: 4 3 0  and 0 5 0 
67842289		 # 	collision with: 2 1 0  and 2 2 0 
67842291		 # 	collision with: 5 2 0  and 7 3 0 
67842317		 # 	collision with: 1 5 0  and 5 0 1 
67842319		 # 	collision with: 9 1 0  and 9 2 0 
67842413		 # 	collision with: 8 1 0  and 6 3 0 
67842415		 # 	collision with: 5 2 0  and 7 3 0 
67842417		 # 	collision with: 5 0 1  and 7 1 1 
67842419		 # 	collision with: 4 0 0  and 5 2 0 
67842493		 # 	collision with: 4 6 0  and 8 0 1 
67842495		 # 	collision with: 5 2 0  and 7 3 0 
67842541		 # 	collision with: 2 0 0  and 9 2 0 
67842543		 # 	collision with: 5 2 0  and 7 3 0 
67842549		 # 	collision with: 7 2 0  and 7 3 0 
67842551		 # 	collision with: 5 2 0  and 7 3 0 
67842599		 # 	collision with: 5 2 0  and 7 3 0 
67842605		 # 	collision with: 10 1 0  and 0 3 0 
67842607		 # 	collision with: 5 2 0  and 7 3 0 
67842633		 # 	collision with: 3 9 0  and 8 2 1 
67842635		 # 	collision with: 5 2 0  and 7 3 0 
67842673		 # 	collision with: 8 1 0  and 6 0 1 
67842764		 # 	collision with: 4 1 0  and 2 2 0 
67842766		 # 	collision with: 7 1 0  and 7 0 1 
67842773		 # 	collision with: 3 10 0  and 9 0 1 
67842775		 # 	collision with: 7 5 0  and 5 7 0 
67842801		 # 	collision with: 2 0 0  and 9 2 0 
67842803		 # 	collision with: 7 5 0  and 5 7 0 
67842897		 # 	collision with: 6 0 0  and 10 1 0 
67842899		 # 	collision with: 4 2 0  and 3 4 0 
67842901		 # 	collision with: 4 3 0  and 6 3 0 
67842903		 # 	collision with: 4 2 0  and 9 4 0 
67842969		 # 	collision with: 9 5 0  and 6 0 1 
67842971		 # 	collision with: 7 5 0  and 5 7 0 
67842977		 # 	collision with: 3 5 0  and 0 6 0 
67842979		 # 	collision with: 7 5 0  and 5 7 0 
67843025		 # 	collision with: 2 6 0  and 8 1 1 
67843027		 # 	collision with: 1 5 0  and 6 6 0 
67843033		 # 	collision with: 4 0 0  and 5 1 0 
67843035		 # 	collision with: 7 5 0  and 5 7 0 
67843081		 # 	collision with: 10 1 0  and 3 0 1 
67843083		 # 	collision with: 3 0 0  and 7 2 0 
67843089		 # 	collision with: 7 9 0  and 7 0 1 
67843091		 # 	collision with: 7 5 0  and 5 7 0 
67843117		 # 	collision with: 4 4 0  and 5 6 0 
67843119		 # 	collision with: 7 0 0  and 3 1 0 
67843157		 # 	collision with: 8 1 0  and 4 3 0 
67843159		 # 	collision with: 7 1 0  and 8 2 0 
67843248		 # 	collision with: 4 4 0  and 2 0 1 
67843250		 # 	collision with: 3 2 0  and 7 3 0 
67843257		 # 	collision with: 2 7 0  and 3 0 1 
67843259		 # 	collision with: 2 1 0  and 9 0 1 
67843285		 # 	collision with: 7 3 0  and 1 5 0 
67843287		 # 	collision with: 7 4 0  and 8 6 0 
67843381		 # 	collision with: 10 1 0  and 10 3 0 
67843383		 # 	collision with: 3 0 0  and 1 2 0 
67843385		 # 	collision with: 7 0 0  and 3 2 1 
67843387		 # 	collision with: 6 10 0  and 2 1 1 
67843453		 # 	collision with: 1 4 0  and 5 5 0 
67843455		 # 	collision with: 8 3 0  and 4 4 0 
67843461		 # 	collision with: 5 3 0  and 9 4 0 
67843463		 # 	collision with: 0 0 0  and 3 2 0 
67843509		 # 	collision with: 9 3 0  and 0 4 0 
67843511		 # 	collision with: 4 1 0  and 3 3 0 
67843517		 # 	collision with: 3 0 0  and 6 1 1 
67843519		 # 	collision with: 2 1 0  and 5 2 0 
67843565		 # 	collision with: 4 7 0  and 5 0 1 
67843573		 # 	collision with: 0 0 0  and 1 1 1 
67843575		 # 	collision with: 10 2 0  and 7 4 0 
67843601		 # 	collision with: 0 2 0  and 3 4 0 
67843641		 # 	collision with: 8 5 0  and 4 6 0 
67843643		 # 	collision with: 9 5 0  and 4 6 0 
67843780		 # 	collision with: 9 7 0  and 0 0 1 
67843782		 # 	collision with: 8 6 0  and 10 1 1 
67843788		 # 	collision with: 2 2 0  and 6 4 0 
67843790		 # 	collision with: 10 6 0  and 1 0 1 
67843797		 # 	collision with: 4 5 0  and 4 0 1 
67843817		 # 	collision with: 8 6 0  and 0 1 1 
67843819		 # 	collision with: 3 1 0  and 1 3 0 
67843828		 # 	collision with: 6 0 0  and 3 2 0 
67843830		 # 	collision with: 4 4 0  and 8 5 0 
67843833		 # 	collision with: 6 1 0  and 5 2 0 
67843835		 # 	collision with: 3 1 0  and 1 3 0 
67843841		 # 	collision with: 6 1 0  and 8 2 0 
67843843		 # 	collision with: 7 0 0  and 9 2 0 
67843844		 # 	collision with: 0 3 0  and 5 5 0 
67843846		 # 	collision with: 9 9 0  and 2 2 1 
67843876		 # 	collision with: 10 5 0  and 8 6 0 
67843878		 # 	collision with: 4 8 0  and 1 0 1 
67843900		 # 	collision with: 7 1 0  and 7 0 1 
67843902		 # 	collision with: 9 1 0  and 9 0 1 
67843912		 # 	collision with: 7 2 0  and 2 4 0 
67843914		 # 	collision with: 10 3 0  and 7 0 1 
67843924		 # 	collision with: 4 4 0  and 9 6 0 
67843926		 # 	collision with: 1 3 0  and 3 4 0 
67843968		 # 	collision with: 8 5 0  and 8 1 1 
67843970		 # 	collision with: 2 2 0  and 7 3 0 
67843972		 # 	collision with: 5 2 0  and 0 4 0 
67843974		 # 	collision with: 1 10 0  and 10 0 1 
67843995		 # 	collision with: 3 1 0  and 1 3 0 
67844003		 # 	collision with: 3 1 0  and 1 3 0 
67844020		 # 	collision with: 4 2 0  and 2 1 1 
67844022		 # 	collision with: 0 0 0  and 1 2 0 
67844024		 # 	collision with: 4 0 1  and 5 1 1 
67844026		 # 	collision with: 7 3 0  and 3 4 0 
67844068		 # 	collision with: 2 5 0  and 1 6 0 
67844070		 # 	collision with: 2 2 0  and 0 4 0 
67844080		 # 	collision with: 8 1 0  and 9 3 0 
67844082		 # 	collision with: 3 2 0  and 5 3 0 
67844092		 # 	collision with: 4 1 0  and 0 3 0 
67844094		 # 	collision with: 2 2 0  and 3 4 0 
67844116		 # 	collision with: 7 10 0  and 0 0 1 
67844118		 # 	collision with: 6 3 0  and 7 4 0 
67844148		 # 	collision with: 1 1 0  and 5 2 0 
67844150		 # 	collision with: 1 2 0  and 9 4 0 
67844153		 # 	collision with: 2 3 0  and 10 4 0 
67844155		 # 	collision with: 3 1 0  and 1 3 0 
67844161		 # 	collision with: 6 0 0  and 8 2 1 
67844163		 # 	collision with: 3 1 0  and 1 3 0 
67844164		 # 	collision with: 5 0 0  and 8 2 0 
67844166		 # 	collision with: 10 4 0  and 5 6 0 
67844177		 # 	collision with: 9 4 0  and 2 6 0 
67844179		 # 	collision with: 3 1 0  and 1 3 0 
67844197		 # 	collision with: 2 10 0  and 4 10 0 
67844204		 # 	collision with: 4 3 0  and 0 4 0 
67844206		 # 	collision with: 1 4 0  and 2 5 0 
67844212		 # 	collision with: 6 1 0  and 8 2 0 
67844214		 # 	collision with: 5 2 0  and 4 4 0 
67844216		 # 	collision with: 2 9 0  and 1 0 1 
67844218		 # 	collision with: 5 2 0  and 10 4 0 
67844264		 # 	collision with: 9 1 1  and 9 2 1 
67844266		 # 	collision with: 10 4 0  and 10 6 0 
67844272		 # 	collision with: 9 4 0  and 2 6 0 
67844274		 # 	collision with: 2 8 0  and 6 0 1 
67844281		 # 	collision with: 4 3 0  and 3 4 0 
67844283		 # 	collision with: 7 1 1  and 1 3 1 
67844303		 # 	collision with: 1 7 0  and 7 0 1 
67844312		 # 	collision with: 3 1 0  and 8 3 0 
67844314		 # 	collision with: 0 2 0  and 3 4 0 
67844317		 # 	collision with: 4 3 0  and 3 4 0 
67844319		 # 	collision with: 3 1 0  and 4 1 0 
67844325		 # 	collision with: 4 3 0  and 3 4 0 
67844327		 # 	collision with: 9 1 0  and 9 2 0 
67844328		 # 	collision with: 7 0 0  and 1 1 0 
67844330		 # 	collision with: 7 4 0  and 2 6 0 
67844362		 # 	collision with: 6 10 0  and 8 0 1 
67844384		 # 	collision with: 3 1 0  and 0 3 0 
67844386		 # 	collision with: 1 6 0  and 3 6 0 
67844396		 # 	collision with: 2 8 0  and 5 0 1 
67844398		 # 	collision with: 2 8 0  and 9 1 1 
67844408		 # 	collision with: 8 2 0  and 0 4 0 
67844410		 # 	collision with: 8 5 0  and 10 6 0 
67844452		 # 	collision with: 8 2 0  and 4 3 0 
67844456		 # 	collision with: 4 0 0  and 8 1 0 
67844458		 # 	collision with: 9 1 0  and 4 2 0 
67844477		 # 	collision with: 4 3 0  and 3 4 0 
67844479		 # 	collision with: 9 3 0  and 4 1 1 
67844485		 # 	collision with: 4 3 0  and 3 4 0 
67844487		 # 	collision with: 9 4 0  and 4 0 1 
67844504		 # 	collision with: 7 9 0  and 9 1 1 
67844506		 # 	collision with: 5 9 0  and 6 9 0 
67844508		 # 	collision with: 2 0 0  and 9 2 0 
67844510		 # 	collision with: 6 4 0  and 4 1 1 
67844552		 # 	collision with: 5 2 0  and 4 3 0 
67844554		 # 	collision with: 2 1 0  and 7 2 0 
67844564		 # 	collision with: 0 1 0  and 3 1 1 
67844566		 # 	collision with: 7 3 0  and 0 4 0 
67844578		 # 	collision with: 2 4 0  and 7 5 0 
67844600		 # 	collision with: 10 1 0  and 9 3 0 
67844632		 # 	collision with: 10 0 0  and 4 2 0 
67844634		 # 	collision with: 0 2 0  and 7 3 0 
67844637		 # 	collision with: 2 1 0  and 2 2 0 
67844639		 # 	collision with: 3 4 0  and 6 6 0 
67844645		 # 	collision with: 3 3 0  and 5 3 0 
67844647		 # 	collision with: 3 2 0  and 3 3 0 
67844648		 # 	collision with: 5 0 0  and 6 1 0 
67844650		 # 	collision with: 6 3 0  and 7 4 0 
67844661		 # 	collision with: 4 3 0  and 3 4 0 
67844663		 # 	collision with: 5 1 0  and 6 0 1 
67844683		 # 	collision with: 2 4 0  and 8 6 0 
67844688		 # 	collision with: 8 10 0  and 0 0 1 
67844690		 # 	collision with: 5 7 0  and 8 1 1 
67844696		 # 	collision with: 2 3 0  and 4 4 0 
67844698		 # 	collision with: 8 4 0  and 3 6 0 
67844700		 # 	collision with: 2 4 0  and 0 0 1 
67844702		 # 	collision with: 8 5 0  and 5 6 0 
67844748		 # 	collision with: 7 0 0  and 1 1 0 
67844750		 # 	collision with: 10 10 0  and 7 0 1 
67844756		 # 	collision with: 6 1 0  and 8 2 0 
67844758		 # 	collision with: 2 6 0  and 2 1 1 
67844765		 # 	collision with: 9 4 0  and 2 6 0 
67844767		 # 	collision with: 0 3 0  and 6 4 0 
67844785		 # 	collision with: 10 10 0  and 2 0 1 
67844787		 # 	collision with: 8 10 0  and 8 0 1 
67844796		 # 	collision with: 0 4 0  and 3 6 0 
67844798		 # 	collision with: 6 4 0  and 1 6 0 
67844801		 # 	collision with: 1 3 0  and 1 4 0 
67844803		 # 	collision with: 4 0 0  and 3 1 0 
67844809		 # 	collision with: 2 0 0  and 4 2 0 
67844811		 # 	collision with: 10 3 0  and 3 5 0 
67844812		 # 	collision with: 9 2 0  and 2 3 0 
67844814		 # 	collision with: 4 1 0  and 0 2 0 
67844844		 # 	collision with: 3 1 0  and 0 3 1 
67844846		 # 	collision with: 6 10 0  and 9 4 1 
67844868		 # 	collision with: 3 1 0  and 4 1 0 
67844870		 # 	collision with: 0 6 0  and 3 2 1 
67844880		 # 	collision with: 10 5 0  and 8 6 0 
67844882		 # 	collision with: 2 1 0  and 4 3 0 
67844892		 # 	collision with: 0 5 0  and 4 6 0 
67844894		 # 	collision with: 3 1 0  and 7 3 0 
67844938		 # 	collision with: 7 6 0  and 4 1 1 
67844940		 # 	collision with: 6 4 0  and 3 5 0 
67844961		 # 	collision with: 1 6 0  and 3 6 0 
67844963		 # 	collision with: 8 2 0  and 10 4 0 
67844969		 # 	collision with: 0 0 0  and 1 1 1 
67844971		 # 	collision with: 6 3 0  and 7 4 0 
67844990		 # 	collision with: 7 3 0  and 0 4 0 
67844992		 # 	collision with: 1 3 0  and 0 0 1 
67844994		 # 	collision with: 7 5 0  and 7 6 0 
67845036		 # 	collision with: 5 0 0  and 6 1 0 
67845038		 # 	collision with: 2 2 0  and 1 3 0 
67845048		 # 	collision with: 0 10 0  and 5 0 1 
67845050		 # 	collision with: 0 2 0  and 2 2 0 
67845060		 # 	collision with: 4 1 0  and 4 0 1 
67845062		 # 	collision with: 2 5 0  and 7 0 1 
67845084		 # 	collision with: 8 7 0  and 5 1 1 
67845086		 # 	collision with: 2 8 0  and 3 8 0 
67845116		 # 	collision with: 1 1 0  and 8 2 0 
67845118		 # 	collision with: 7 4 0  and 2 6 0 
67845121		 # 	collision with: 3 2 0  and 5 4 0 
67845123		 # 	collision with: 10 9 0  and 6 1 1 
67845129		 # 	collision with: 6 2 0  and 2 4 0 
67845131		 # 	collision with: 7 5 0  and 9 0 1 
67845132		 # 	collision with: 10 3 0  and 0 5 0 
67845134		 # 	collision with: 1 1 0  and 2 3 0 
67845145		 # 	collision with: 7 9 0  and 2 2 1 
67845147		 # 	collision with: 0 2 0  and 3 4 0 
67845165		 # 	collision with: 9 5 0  and 0 6 0 
67845167		 # 	collision with: 1 4 0  and 7 5 0 
67845172		 # 	collision with: 0 3 0  and 10 0 1 
67845180		 # 	collision with: 9 5 0  and 0 6 0 
67845182		 # 	collision with: 6 3 0  and 7 4 0 
67845184		 # 	collision with: 7 4 0  and 1 5 0 
67845186		 # 	collision with: 7 2 0  and 4 3 0 
67845232		 # 	collision with: 5 1 0  and 2 2 0 
67845234		 # 	collision with: 10 2 0  and 5 3 0 
67845240		 # 	collision with: 2 3 0  and 4 4 0 
67845242		 # 	collision with: 8 0 0  and 4 1 0 
67845249		 # 	collision with: 1 3 0  and 9 0 1 
67845251		 # 	collision with: 9 4 0  and 0 6 0 
67845269		 # 	collision with: 4 4 0  and 9 6 0 
67845271		 # 	collision with: 2 1 0  and 6 2 0 
67845280		 # 	collision with: 4 2 0  and 4 4 0 
67845285		 # 	collision with: 0 2 0  and 2 2 0 
67845287		 # 	collision with: 2 2 0  and 1 3 0 
67845293		 # 	collision with: 7 2 0  and 7 3 0 
67845295		 # 	collision with: 2 7 0  and 6 4 1 
67845298		 # 	collision with: 10 1 0  and 3 1 1 
67845328		 # 	collision with: 2 2 0  and 3 2 1 
67845330		 # 	collision with: 1 2 0  and 9 4 0 
67845352		 # 	collision with: 7 5 0  and 7 0 1 
67845354		 # 	collision with: 0 8 0  and 1 0 1 
67845364		 # 	collision with: 5 0 0  and 1 1 0 
67845376		 # 	collision with: 7 5 0  and 3 0 1 
67845378		 # 	collision with: 10 3 0  and 3 5 0 
67845420		 # 	collision with: 7 2 0  and 2 4 0 
67845422		 # 	collision with: 7 4 0  and 2 6 0 
67845424		 # 	collision with: 5 0 0  and 6 1 0 
67845426		 # 	collision with: 4 1 0  and 0 2 0 
67845445		 # 	collision with: 8 2 0  and 0 4 0 
67845447		 # 	collision with: 5 1 0  and 4 3 0 
67845453		 # 	collision with: 8 1 0  and 1 0 1 
67845455		 # 	collision with: 4 1 0  and 2 0 1 
67845472		 # 	collision with: 1 1 0  and 8 2 0 
67845474		 # 	collision with: 3 1 1  and 1 2 1 
67845476		 # 	collision with: 8 8 0  and 5 1 1 
67845478		 # 	collision with: 1 4 0  and 7 5 0 
67845520		 # 	collision with: 6 1 0  and 4 3 0 
67845522		 # 	collision with: 0 4 0  and 9 6 0 
67845532		 # 	collision with: 0 8 0  and 4 0 1 
67845534		 # 	collision with: 1 2 0  and 5 4 0 
67845544		 # 	collision with: 7 3 0  and 2 4 0 
67845546		 # 	collision with: 0 2 0  and 4 0 1 
67845568		 # 	collision with: 2 4 0  and 3 0 1 
67845570		 # 	collision with: 5 5 0  and 2 1 1 
67845600		 # 	collision with: 7 2 0  and 7 3 0 
67845602		 # 	collision with: 5 2 0  and 4 4 0 
67845605		 # 	collision with: 5 0 1  and 5 1 1 
67845607		 # 	collision with: 7 4 0  and 2 6 0 
67845613		 # 	collision with: 6 4 0  and 6 5 0 
67845615		 # 	collision with: 5 5 0  and 9 1 1 
67845618		 # 	collision with: 4 7 0  and 6 7 0 
67845629		 # 	collision with: 9 1 1  and 5 3 1 
67845631		 # 	collision with: 3 8 0  and 3 0 1 
67845649		 # 	collision with: 8 2 0  and 3 4 0 
67845651		 # 	collision with: 5 1 0  and 6 2 0 
67845656		 # 	collision with: 0 2 0  and 8 4 0 
67845658		 # 	collision with: 3 2 0  and 3 3 0 
67845664		 # 	collision with: 4 1 0  and 8 3 0 
67845666		 # 	collision with: 2 1 1  and 2 2 1 
67845668		 # 	collision with: 6 3 0  and 4 4 0 
67845670		 # 	collision with: 3 1 0  and 1 3 0 
67845718		 # 	collision with: 3 1 0  and 1 3 0 
67845724		 # 	collision with: 9 5 0  and 0 6 0 
67845726		 # 	collision with: 3 1 0  and 1 3 0 
67845733		 # 	collision with: 4 1 0  and 0 3 0 
67845735		 # 	collision with: 0 3 0  and 8 4 0 
67845753		 # 	collision with: 5 0 0  and 5 2 0 
67845755		 # 	collision with: 0 2 0  and 1 3 0 
67845764		 # 	collision with: 8 2 0  and 3 4 0 
67845766		 # 	collision with: 3 1 0  and 1 3 0 
67845777		 # 	collision with: 1 5 0  and 5 0 1 
67845779		 # 	collision with: 5 4 0  and 0 6 0 
67845780		 # 	collision with: 2 0 0  and 4 2 0 
67845782		 # 	collision with: 3 1 0  and 1 3 0 
67845812		 # 	collision with: 5 0 0  and 6 1 0 
67845814		 # 	collision with: 3 1 0  and 1 3 0 
67845836		 # 	collision with: 0 4 0  and 3 6 0 
67845838		 # 	collision with: 3 1 0  and 1 3 0 
67845848		 # 	collision with: 10 3 0  and 0 5 0 
67845850		 # 	collision with: 3 1 0  and 1 3 0 
67845860		 # 	collision with: 10 1 0  and 10 3 0 
67845862		 # 	collision with: 7 0 0  and 9 1 0 
67845904		 # 	collision with: 4 5 0  and 0 0 1 
67845906		 # 	collision with: 3 1 0  and 1 3 0 
67845908		 # 	collision with: 8 9 0  and 1 1 1 
67845910		 # 	collision with: 3 1 0  and 1 3 0 
67845929		 # 	collision with: 5 1 0  and 2 2 0 
67845931		 # 	collision with: 0 0 0  and 1 1 1 
67845937		 # 	collision with: 9 3 0  and 9 5 0 
67845956		 # 	collision with: 8 4 0  and 6 1 1 
67845958		 # 	collision with: 3 1 0  and 1 3 0 
67845960		 # 	collision with: 10 0 0  and 9 2 0 
67845962		 # 	collision with: 3 1 0  and 1 3 0 
67846004		 # 	collision with: 3 4 0  and 2 5 0 
67846006		 # 	collision with: 3 1 0  and 1 3 0 
67846016		 # 	collision with: 1 4 0  and 2 4 0 
67846018		 # 	collision with: 3 1 0  and 1 3 0 
67846028		 # 	collision with: 3 4 0  and 10 0 1 
67846030		 # 	collision with: 3 1 0  and 1 3 0 
67846052		 # 	collision with: 4 5 0  and 5 5 0 
67846054		 # 	collision with: 3 1 0  and 1 3 0 
67846084		 # 	collision with: 7 2 0  and 2 4 0 
67846091		 # 	collision with: 2 2 0  and 7 3 0 
67846097		 # 	collision with: 3 4 0  and 1 1 1 
67846099		 # 	collision with: 1 1 0  and 1 0 1 
67846100		 # 	collision with: 10 8 0  and 4 0 1 
67846102		 # 	collision with: 3 1 0  and 1 3 0 
67846113		 # 	collision with: 6 2 0  and 1 3 0 
67846115		 # 	collision with: 3 3 0  and 5 5 0 
67846133		 # 	collision with: 6 2 0  and 2 4 0 
67846135		 # 	collision with: 1 1 0  and 6 3 0 
67846142		 # 	collision with: 3 1 0  and 1 3 0 
67846148		 # 	collision with: 0 3 0  and 4 5 0 
67846152		 # 	collision with: 8 3 0  and 5 5 0 
67846154		 # 	collision with: 1 1 0  and 6 3 0 
67846200		 # 	collision with: 5 0 0  and 6 1 0 
67846202		 # 	collision with: 7 5 0  and 1 0 1 
67846208		 # 	collision with: 4 1 0  and 8 3 0 
67846210		 # 	collision with: 6 1 0  and 6 3 0 
67846217		 # 	collision with: 7 0 0  and 8 2 0 
67846219		 # 	collision with: 6 4 0  and 3 0 1 
67846237		 # 	collision with: 1 3 0  and 2 4 0 
67846248		 # 	collision with: 6 2 0  and 2 4 0 
67846250		 # 	collision with: 6 3 0  and 7 4 0 
67846253		 # 	collision with: 7 0 0  and 6 1 0 
67846255		 # 	collision with: 4 0 0  and 2 2 0 
67846261		 # 	collision with: 1 1 0  and 5 2 0 
67846263		 # 	collision with: 2 5 0  and 8 6 0 
67846264		 # 	collision with: 7 2 0  and 2 4 0 
67846266		 # 	collision with: 3 1 0  and 4 1 0 
67846296		 # 	collision with: 8 1 0  and 0 0 1 
67846298		 # 	collision with: 0 3 0  and 6 4 0 
67846320		 # 	collision with: 7 8 0  and 8 1 1 
67846332		 # 	collision with: 7 9 0  and 1 0 1 
67846334		 # 	collision with: 5 2 0  and 10 0 1 
67846346		 # 	collision with: 4 1 0  and 1 3 0 
67846388		 # 	collision with: 10 1 0  and 10 3 0 
67846390		 # 	collision with: 4 5 0  and 0 1 1 
67846392		 # 	collision with: 7 5 0  and 3 6 0 
67846394		 # 	collision with: 1 10 0  and 0 0 1 
67846413		 # 	collision with: 0 0 0  and 1 1 1 
67846415		 # 	collision with: 7 0 0  and 9 1 0 
67846421		 # 	collision with: 4 7 0  and 6 7 0 
67846423		 # 	collision with: 4 4 0  and 8 5 0 
67846440		 # 	collision with: 10 7 0  and 4 0 1 
67846442		 # 	collision with: 1 6 0  and 1 7 0 
67846444		 # 	collision with: 6 2 0  and 7 3 0 
67846446		 # 	collision with: 3 6 0  and 2 1 1 
67846488		 # 	collision with: 7 1 0  and 1 2 0 
67846502		 # 	collision with: 5 1 0  and 7 2 0 
67846512		 # 	collision with: 10 2 0  and 9 4 0 
67846514		 # 	collision with: 7 3 0  and 10 5 0 
67846536		 # 	collision with: 10 0 0  and 4 2 0 
67846538		 # 	collision with: 4 7 0  and 2 0 1 
67846568		 # 	collision with: 4 2 0  and 2 3 0 
67846570		 # 	collision with: 7 0 0  and 9 2 0 
67846573		 # 	collision with: 2 2 0  and 8 4 0 
67846581		 # 	collision with: 4 4 0  and 9 6 0 
67846583		 # 	collision with: 7 2 0  and 4 3 0 
67846584		 # 	collision with: 9 1 0  and 6 0 1 
67846586		 # 	collision with: 5 0 0  and 4 2 0 
67846597		 # 	collision with: 5 0 0  and 6 1 0 
67846599		 # 	collision with: 9 3 0  and 3 5 0 
67846617		 # 	collision with: 0 4 0  and 1 6 0 
67846619		 # 	collision with: 4 5 0  and 5 5 0 
67846624		 # 	collision with: 8 4 0  and 3 5 0 
67846626		 # 	collision with: 3 2 0  and 2 0 1 
67846632		 # 	collision with: 8 0 0  and 10 1 0 
67846634		 # 	collision with: 4 5 0  and 5 5 0 
67846636		 # 	collision with: 5 5 0  and 1 2 1 
67846638		 # 	collision with: 4 4 0  and 1 5 0 
67846684		 # 	collision with: 4 3 0  and 5 0 1 
67846686		 # 	collision with: 2 1 0  and 6 2 0 
67846692		 # 	collision with: 0 3 0  and 4 5 0 
67846694		 # 	collision with: 4 4 0  and 1 5 0 
67846701		 # 	collision with: 5 4 0  and 2 6 0 
67846703		 # 	collision with: 8 5 0  and 10 6 0 
67846721		 # 	collision with: 2 9 0  and 3 0 1 
67846723		 # 	collision with: 5 1 0  and 2 0 1 
67846732		 # 	collision with: 7 5 0  and 1 6 0 
67846734		 # 	collision with: 4 4 0  and 1 5 0 
67846737		 # 	collision with: 4 1 0  and 0 3 0 
67846739		 # 	collision with: 9 1 0  and 4 2 0 
67846745		 # 	collision with: 7 3 0  and 2 4 0 
67846748		 # 	collision with: 0 4 0  and 1 6 0 
67846750		 # 	collision with: 0 2 0  and 1 3 0 
67846780		 # 	collision with: 4 0 0  and 10 1 0 
67846782		 # 	collision with: 4 1 0  and 7 3 0 
67846804		 # 	collision with: 6 2 1  and 6 3 1 
67846806		 # 	collision with: 0 2 0  and 3 4 0 
67846818		 # 	collision with: 5 0 0  and 9 1 0 
67846828		 # 	collision with: 4 2 0  and 2 3 0 
67846872		 # 	collision with: 2 5 0  and 10 0 1 
67846874		 # 	collision with: 4 4 0  and 1 5 0 
67846876		 # 	collision with: 10 1 0  and 3 2 1 
67846878		 # 	collision with: 4 4 0  and 1 5 0 
67846897		 # 	collision with: 5 0 0  and 5 2 0 
67846899		 # 	collision with: 3 3 0  and 5 3 0 
67846905		 # 	collision with: 10 5 0  and 8 6 0 
67846907		 # 	collision with: 0 2 0  and 10 0 1 
67846924		 # 	collision with: 2 3 0  and 3 0 1 
67846926		 # 	collision with: 4 4 0  and 1 5 0 
67846928		 # 	collision with: 8 2 0  and 0 4 0 
67846930		 # 	collision with: 4 4 0  and 1 5 0 
67846974		 # 	collision with: 3 1 0  and 2 2 0 
67846984		 # 	collision with: 2 1 0  and 0 2 0 
67846986		 # 	collision with: 8 0 0  and 3 1 0 
67846996		 # 	collision with: 3 4 0  and 7 5 0 
67847020		 # 	collision with: 1 8 0  and 0 0 1 
67847022		 # 	collision with: 4 4 0  and 1 5 0 
67847052		 # 	collision with: 10 4 0  and 9 6 0 
67847054		 # 	collision with: 4 4 0  and 1 5 0 
67847057		 # 	collision with: 6 2 0  and 1 3 0 
67847059		 # 	collision with: 10 9 0  and 6 0 1 
67847065		 # 	collision with: 3 3 0  and 3 0 1 
67847067		 # 	collision with: 0 0 0  and 1 2 0 
67847068		 # 	collision with: 3 3 0  and 5 3 0 
67847070		 # 	collision with: 4 4 0  and 1 5 0 
67847081		 # 	collision with: 2 10 0  and 4 10 0 
67847101		 # 	collision with: 3 4 0  and 7 5 0 
67847103		 # 	collision with: 5 0 0  and 9 2 0 
67847108		 # 	collision with: 6 4 0  and 6 5 0 
67847110		 # 	collision with: 4 4 0  and 1 5 0 
67847116		 # 	collision with: 5 0 0  and 6 1 0 
67847118		 # 	collision with: 4 4 0  and 1 5 0 
67847120		 # 	collision with: 5 10 0  and 2 0 1 
67847122		 # 	collision with: 3 1 0  and 0 2 0 
67847168		 # 	collision with: 7 0 0  and 8 2 0 
67847178		 # 	collision with: 3 3 0  and 5 5 0 
67847185		 # 	collision with: 9 3 0  and 0 5 0 
67847187		 # 	collision with: 10 3 0  and 6 5 0 
67847205		 # 	collision with: 5 2 0  and 0 4 0 
67847207		 # 	collision with: 8 3 0  and 8 4 0 
67847216		 # 	collision with: 0 2 0  and 2 2 0 
67847218		 # 	collision with: 2 4 0  and 2 5 0 
67847221		 # 	collision with: 3 4 0  and 2 5 0 
67847223		 # 	collision with: 3 2 0  and 5 3 0 
67847231		 # 	collision with: 10 3 0  and 6 5 0 
67847232		 # 	collision with: 2 1 0  and 2 2 0 
67847264		 # 	collision with: 2 2 0  and 8 4 0 
67847266		 # 	collision with: 7 0 0  and 0 3 1 
67847288		 # 	collision with: 7 1 0  and 1 2 0 
67847290		 # 	collision with: 4 1 0  and 1 0 1 
67847300		 # 	collision with: 8 5 0  and 6 0 1 
67847302		 # 	collision with: 1 4 0  and 2 4 0 
67847312		 # 	collision with: 8 0 1  and 2 1 1 
67847314		 # 	collision with: 5 0 0  and 9 2 0 
67847356		 # 	collision with: 0 0 0  and 9 1 0 
67847358		 # 	collision with: 7 3 0  and 3 2 1 
67847360		 # 	collision with: 2 1 0  and 2 1 1 
67847362		 # 	collision with: 3 3 0  and 5 3 0 
67847381		 # 	collision with: 4 2 0  and 6 3 0 
67847389		 # 	collision with: 6 6 0  and 6 1 1 
67847391		 # 	collision with: 7 0 0  and 9 1 0 
67847408		 # 	collision with: 4 1 0  and 0 3 0 
67847410		 # 	collision with: 1 1 0  and 3 2 1 
67847412		 # 	collision with: 9 5 0  and 4 6 0 
67847414		 # 	collision with: 0 0 0  and 1 1 1 
67847456		 # 	collision with: 7 0 0  and 5 2 0 
67847458		 # 	collision with: 1 3 0  and 10 5 0 
67847468		 # 	collision with: 5 4 0  and 2 6 0 
67847470		 # 	collision with: 8 5 0  and 10 6 0 
67847480		 # 	collision with: 4 2 0  and 3 0 1 
67847482		 # 	collision with: 4 5 0  and 1 0 1 
67847504		 # 	collision with: 5 0 0  and 6 1 0 
67847506		 # 	collision with: 1 4 0  and 7 5 0 
67847536		 # 	collision with: 3 3 0  and 5 3 0 
67847538		 # 	collision with: 9 1 0  and 9 2 0 
67847541		 # 	collision with: 3 3 0  and 5 3 0 
67847543		 # 	collision with: 10 3 0  and 6 5 0 
67847552		 # 	collision with: 10 3 0  and 9 5 0 
67847554		 # 	collision with: 7 3 0  and 10 5 0 
67847565		 # 	collision with: 2 0 0  and 9 2 0 
67847567		 # 	collision with: 10 3 0  and 6 5 0 
67847585		 # 	collision with: 2 5 0  and 3 6 0 
67847587		 # 	collision with: 10 3 0  and 6 5 0 
67847592		 # 	collision with: 7 2 0  and 2 4 0 
67847594		 # 	collision with: 0 0 0  and 1 2 0 
67847602		 # 	collision with: 6 6 0  and 0 1 1 
67847604		 # 	collision with: 4 3 0  and 3 4 0 
67847606		 # 	collision with: 4 0 0  and 0 2 0 
67847652		 # 	collision with: 4 3 0  and 3 4 0 
67847654		 # 	collision with: 4 0 0  and 0 2 0 
67847660		 # 	collision with: 4 2 0  and 6 3 0 
67847662		 # 	collision with: 4 0 0  and 0 2 0 
67847669		 # 	collision with: 4 3 0  and 7 5 0 
67847671		 # 	collision with: 1 5 0  and 5 6 0 
67847689		 # 	collision with: 2 9 0  and 2 2 1 
67847691		 # 	collision with: 2 2 0  and 7 3 0 
67847702		 # 	collision with: 4 0 0  and 0 2 0 
67847705		 # 	collision with: 7 0 0  and 5 2 0 
67847707		 # 	collision with: 3 1 0  and 2 2 0 
67847713		 # 	collision with: 3 6 0  and 8 1 1 
67847715		 # 	collision with: 9 1 0  and 4 0 1 
67847716		 # 	collision with: 4 3 0  and 3 4 0 
67847718		 # 	collision with: 4 0 0  and 0 2 0 
67847748		 # 	collision with: 3 1 0  and 4 1 0 
67847750		 # 	collision with: 4 0 0  and 0 2 0 
67847772		 # 	collision with: 7 2 0  and 2 4 0 
67847774		 # 	collision with: 4 0 0  and 0 2 0 
67847784		 # 	collision with: 4 3 0  and 3 4 0 
67847786		 # 	collision with: 4 0 0  and 0 2 0 
67847796		 # 	collision with: 4 3 0  and 3 4 0 
67847798		 # 	collision with: 4 0 0  and 0 2 0 
67847840		 # 	collision with: 4 0 0  and 10 1 0 
67847842		 # 	collision with: 4 0 0  and 0 2 0 
67847844		 # 	collision with: 5 1 0  and 0 2 0 
67847846		 # 	collision with: 5 0 0  and 9 1 0 
67847865		 # 	collision with: 5 6 0  and 9 0 1 
67847867		 # 	collision with: 1 1 0  and 6 3 0 
67847873		 # 	collision with: 4 2 0  and 6 3 0 
67847875		 # 	collision with: 5 4 0  and 4 6 0 
67847892		 # 	collision with: 5 0 0  and 6 1 0 
67847894		 # 	collision with: 4 0 0  and 0 2 0 
67847896		 # 	collision with: 4 3 0  and 3 4 0 
67847898		 # 	collision with: 4 0 0  and 0 2 0 
67847940		 # 	collision with: 4 3 0  and 3 4 0 
67847942		 # 	collision with: 4 0 0  and 0 2 0 
67847952		 # 	collision with: 4 3 0  and 3 4 0 
67847964		 # 	collision with: 0 1 0  and 1 2 0 
67847966		 # 	collision with: 4 0 0  and 0 2 0 
67847988		 # 	collision with: 2 1 0  and 0 2 0 
67847990		 # 	collision with: 8 0 0  and 4 1 0 
24.1471secs	14352
