# prime 11
# degree 2
# input variables 3
# output variables 5
# reload computed balance functions from file balance-2689of3248-p11d2m3-debug.log
# p = 11
# n = 5
# smalldomain p^m 1331
# domain p^n 161051
#	 p^2 = 121
#	 p^3 = 1331
#	 p^4 = 14641
#	 p^5 = 161051
#	 p^6 = 1771561
#	 p^7 = 19487171
#	 p^8 = 214358881
#	 p^9 = 2357947691
opening file : balance-2689of3248-p11d2m3-debug.log
reloading for step2...
16134000		 # 	collision with: 7 5 2 0 0  and 7 6 2 0 0 
16134002		 # 	collision with: 0 0 2 0 0  and 5 1 2 0 0 
16134024		 # 	collision with: 2 5 10 0 0  and 2 6 10 0 0 
16134026		 # 	collision with: 4 1 10 0 0  and 1 2 10 0 0 
16134029		 # 	collision with: 6 3 0 0 0  and 5 4 0 0 0 
16134031		 # 	collision with: 6 2 3 0 0  and 6 3 4 0 0 
16134035		 # 	collision with: 1 3 0 0 0  and 4 4 0 0 0 
16134036		 # 	collision with: 4 2 1 0 0  and 7 4 1 0 0 
16134038		 # 	collision with: 7 0 1 0 0  and 9 2 1 0 0 
16134056		 # 	collision with: 8 5 7 0 0  and 8 6 7 0 0 
16134058		 # 	collision with: 5 2 7 0 0  and 5 3 7 0 0 
16134092		 # 	collision with: 4 0 4 0 0  and 7 1 4 0 0 
16134094		 # 	collision with: 7 0 4 0 0  and 9 2 4 0 0 
16134101		 # 	collision with: 3 6 3 0 0  and 3 6 4 0 0 
16134103		 # 	collision with: 5 2 2 0 0  and 5 3 2 0 0 
16134116		 # 	collision with: 1 1 8 0 0  and 10 2 8 0 0 
16134122		 # 	collision with: 10 2 3 0 0  and 10 3 3 0 0 
16134137		 # 	collision with: 3 5 3 0 0  and 3 5 4 0 0 
16134139		 # 	collision with: 5 4 2 0 0  and 0 5 2 0 0 
16134140		 # 	collision with: 0 3 6 0 0  and 5 7 0 1 0 
16134142		 # 	collision with: 9 1 6 0 0  and 6 7 0 1 0 
16134153		 # 	collision with: 10 5 2 0 0  and 10 6 2 0 0 
16134155		 # 	collision with: 9 2 4 0 0  and 9 3 4 0 0 
16134173		 # 	collision with: 3 4 1 0 0  and 8 5 1 0 0 
16134175		 # 	collision with: 3 8 2 0 0  and 2 2 4 0 0 
16134189		 # 	collision with: 10 0 2 0 0  and 10 0 4 0 0 
16134191		 # 	collision with: 1 2 0 0 0  and 4 4 0 0 0 
16134204		 # 	collision with: 4 0 10 0 0  and 7 1 10 0 0 
16134206		 # 	collision with: 1 2 10 0 0  and 1 3 10 0 0 
16134208		 # 	collision with: 6 3 1 0 0  and 5 4 1 0 0 
16134210		 # 	collision with: 4 1 1 0 0  and 1 3 1 0 0 
16134225		 # 	collision with: 10 0 2 0 0  and 10 0 4 0 0 
16134227		 # 	collision with: 9 0 2 0 0  and 9 0 4 0 0 
16134232		 # 	collision with: 4 0 6 0 0  and 7 1 6 0 0 
16134234		 # 	collision with: 5 2 6 0 0  and 5 3 6 0 0 
16134268		 # 	collision with: 3 5 5 0 0  and 3 6 5 0 0 
16134270		 # 	collision with: 6 2 5 0 0  and 6 3 5 0 0 
16134288		 # 	collision with: 2 5 7 0 0  and 2 6 7 0 0 
16134290		 # 	collision with: 4 2 7 0 0  and 4 3 7 0 0 
16134293		 # 	collision with: 7 0 2 0 0  and 7 0 4 0 0 
16134297		 # 	collision with: 5 5 1 0 0  and 5 6 1 0 0 
16134299		 # 	collision with: 10 2 2 0 0  and 10 3 2 0 0 
16134300		 # 	collision with: 9 5 4 0 0  and 9 6 4 0 0 
16134302		 # 	collision with: 7 2 4 0 0  and 7 3 4 0 0 
16134326		 # 	collision with: 8 2 3 0 0  and 8 3 3 0 0 
16134352		 # 	collision with: 7 5 8 0 0  and 7 6 8 0 0 
16134354		 # 	collision with: 3 2 8 0 0  and 3 3 8 0 0 
16134372		 # 	collision with: 5 0 2 0 0  and 6 2 2 0 0 
16134374		 # 	collision with: 4 1 2 0 0  and 1 2 2 0 0 
16134392		 # 	collision with: 9 2 9 0 0  and 2 3 9 0 0 
16134394		 # 	collision with: 2 2 9 0 0  and 2 3 9 0 0 
16134416		 # 	collision with: 10 5 2 0 0  and 10 6 2 0 0 
16134418		 # 	collision with: 9 2 2 0 0  and 9 3 2 0 0 
16134436		 # 	collision with: 1 5 9 0 0  and 1 6 9 0 0 
16134458		 # 	collision with: 8 2 3 0 0  and 8 3 3 0 0 
16134484		 # 	collision with: 4 2 8 0 0  and 7 4 8 0 0 
16134508		 # 	collision with: 2 5 7 0 0  and 2 6 7 0 0 
16134510		 # 	collision with: 7 0 7 0 0  and 9 2 7 0 0 
16134513		 # 	collision with: 4 0 2 0 0  and 4 0 4 0 0 
16134515		 # 	collision with: 8 0 2 0 0  and 8 0 4 0 0 
16134517		 # 	collision with: 5 5 1 0 0  and 5 6 1 0 0 
16134519		 # 	collision with: 10 2 2 0 0  and 10 3 2 0 0 
16134520		 # 	collision with: 1 1 4 0 0  and 10 2 4 0 0 
16134522		 # 	collision with: 7 2 4 0 0  and 7 3 4 0 0 
16134540		 # 	collision with: 8 5 6 0 0  and 8 6 6 0 0 
16134542		 # 	collision with: 0 0 6 0 0  and 5 1 6 0 0 
16134576		 # 	collision with: 3 5 5 0 0  and 3 6 5 0 0 
16134578		 # 	collision with: 0 0 5 0 0  and 5 1 5 0 0 
16134585		 # 	collision with: 1 1 3 0 0  and 10 2 3 0 0 
16134600		 # 	collision with: 6 5 10 0 0  and 6 6 10 0 0 
16134602		 # 	collision with: 1 2 10 0 0  and 1 3 10 0 0 
16134604		 # 	collision with: 4 2 1 0 0  and 7 4 1 0 0 
16134606		 # 	collision with: 10 2 1 0 0  and 10 3 1 0 0 
16134621		 # 	collision with: 1 0 2 0 0  and 1 0 4 0 0 
16134623		 # 	collision with: 5 4 3 0 0  and 0 5 3 0 0 
16134624		 # 	collision with: 9 8 5 0 0  and 10 9 0 1 0 
16134626		 # 	collision with: 7 10 5 0 0  and 5 9 0 1 0 
16134637		 # 	collision with: 1 10 2 0 0  and 1 1 3 0 0 
16134639		 # 	collision with: 9 2 0 0 0  and 9 3 0 0 0 
16134657		 # 	collision with: 9 2 0 0 0  and 2 3 0 0 0 
16134659		 # 	collision with: 2 2 0 0 0  and 2 3 0 0 0 
16134673		 # 	collision with: 10 1 2 0 0  and 1 3 3 0 0 
16134675		 # 	collision with: 5 2 0 0 0  and 5 3 0 0 0 
16134688		 # 	collision with: 1 1 1 0 0  and 10 2 1 0 0 
16134690		 # 	collision with: 1 2 1 0 0  and 1 3 1 0 0 
16134692		 # 	collision with: 5 5 10 0 0  and 5 6 10 0 0 
16134694		 # 	collision with: 10 2 10 0 0  and 10 3 10 0 0 
16134709		 # 	collision with: 4 6 2 0 0  and 7 2 3 0 0 
16134716		 # 	collision with: 8 5 5 0 0  and 8 6 5 0 0 
16134718		 # 	collision with: 5 2 5 0 0  and 5 3 5 0 0 
16134752		 # 	collision with: 4 0 6 0 0  and 7 1 6 0 0 
16134754		 # 	collision with: 7 0 6 0 0  and 9 2 6 0 0 
16134772		 # 	collision with: 2 5 4 0 0  and 2 6 4 0 0 
16134774		 # 	collision with: 4 1 4 0 0  and 1 2 4 0 0 
16134777		 # 	collision with: 6 5 1 0 0  and 6 6 1 0 0 
16134779		 # 	collision with: 1 2 0 0 0  and 1 3 0 0 0 
16134781		 # 	collision with: 10 8 2 0 0  and 10 3 3 0 0 
16134783		 # 	collision with: 10 2 0 0 0  and 10 3 0 0 0 
16134784		 # 	collision with: 9 5 7 0 0  and 9 6 7 0 0 
16134786		 # 	collision with: 4 1 7 0 0  and 1 2 7 0 0 
16134808		 # 	collision with: 5 0 8 0 0  and 6 2 8 0 0 
16134838		 # 	collision with: 0 0 3 0 0  and 5 1 3 0 0 
16134856		 # 	collision with: 10 5 9 0 0  and 10 6 9 0 0 
16134876		 # 	collision with: 10 1 2 0 0  and 1 3 2 0 0 
16134878		 # 	collision with: 2 2 2 0 0  and 2 3 2 0 0 
16134900		 # 	collision with: 4 0 9 0 0  and 7 1 9 0 0 
16134902		 # 	collision with: 9 2 9 0 0  and 9 3 9 0 0 
16134920		 # 	collision with: 9 3 2 0 0  and 2 5 2 0 0 
16134922		 # 	collision with: 2 2 2 0 0  and 2 3 2 0 0 
16134940		 # 	collision with: 4 5 8 0 0  and 4 6 8 0 0 
16134942		 # 	collision with: 8 2 8 0 0  and 8 3 8 0 0 
16134970		 # 	collision with: 7 0 3 0 0  and 9 2 3 0 0 
16134992		 # 	collision with: 9 2 4 0 0  and 2 3 4 0 0 
16134994		 # 	collision with: 4 2 4 0 0  and 4 3 4 0 0 
16134997		 # 	collision with: 6 5 1 0 0  and 6 6 1 0 0 
16134999		 # 	collision with: 1 2 0 0 0  and 1 3 0 0 0 
16135001		 # 	collision with: 7 10 2 0 0  and 7 10 3 0 0 
16135004		 # 	collision with: 10 1 7 0 0  and 1 3 7 0 0 
16135006		 # 	collision with: 7 2 7 0 0  and 7 3 7 0 0 
16135024		 # 	collision with: 9 2 5 0 0  and 2 3 5 0 0 
16135026		 # 	collision with: 5 2 5 0 0  and 5 3 5 0 0 
16135060		 # 	collision with: 1 1 6 0 0  and 10 2 6 0 0 
16135062		 # 	collision with: 6 2 6 0 0  and 6 3 6 0 0 
16135069		 # 	collision with: 7 9 2 0 0  and 4 5 3 0 0 
16135071		 # 	collision with: 5 2 0 0 0  and 5 3 0 0 0 
16135084		 # 	collision with: 6 5 1 0 0  and 6 6 1 0 0 
16135086		 # 	collision with: 1 2 1 0 0  and 1 3 1 0 0 
16135088		 # 	collision with: 5 5 10 0 0  and 5 6 10 0 0 
16135090		 # 	collision with: 10 2 10 0 0  and 10 3 10 0 0 
16135105		 # 	collision with: 8 5 2 0 0  and 3 4 3 0 0 
16135107		 # 	collision with: 6 2 0 0 0  and 6 3 0 0 0 
16135108		 # 	collision with: 1 7 9 0 0  and 5 4 0 1 0 
16135110		 # 	collision with: 9 9 10 0 0  and 3 3 1 1 0 
16135121		 # 	collision with: 8 6 1 0 0  and 8 5 3 0 0 
16135123		 # 	collision with: 5 10 1 0 0  and 5 6 3 0 0 
16135141		 # 	collision with: 3 4 2 0 0  and 8 6 2 0 0 
16135143		 # 	collision with: 9 6 1 0 0  and 9 10 3 0 0 
16135157		 # 	collision with: 9 3 1 0 0  and 2 5 3 0 0 
16135159		 # 	collision with: 0 0 3 0 0  and 5 1 3 0 0 
16135174		 # 	collision with: 4 1 3 0 0  and 1 2 3 0 0 
16135176		 # 	collision with: 4 2 8 0 0  and 7 4 8 0 0 
16135193		 # 	collision with: 3 1 1 0 0  and 3 1 3 0 0 
16135195		 # 	collision with: 4 1 0 0 0  and 1 3 0 0 0 
16135200		 # 	collision with: 8 5 4 0 0  and 8 6 4 0 0 
16135202		 # 	collision with: 0 0 4 0 0  and 5 1 4 0 0 
16135236		 # 	collision with: 9 3 7 0 0  and 2 5 7 0 0 
16135238		 # 	collision with: 6 2 7 0 0  and 6 3 7 0 0 
16135256		 # 	collision with: 4 0 1 0 0  and 7 1 1 0 0 
16135258		 # 	collision with: 4 2 1 0 0  and 4 3 1 0 0 
16135263		 # 	collision with: 1 2 2 0 0  and 1 3 2 0 0 
16135265		 # 	collision with: 2 4 1 0 0  and 9 0 3 0 0 
16135267		 # 	collision with: 5 5 1 0 0  and 5 0 3 0 0 
16135268		 # 	collision with: 1 1 10 0 0  and 10 2 10 0 0 
16135270		 # 	collision with: 7 2 10 0 0  and 7 3 10 0 0 
16135292		 # 	collision with: 4 5 2 0 0  and 4 6 2 0 0 
16135294		 # 	collision with: 8 2 2 0 0  and 8 3 2 0 0 
16135320		 # 	collision with: 7 5 9 0 0  and 7 6 9 0 0 
16135340		 # 	collision with: 1 1 5 0 0  and 10 2 5 0 0 
16135342		 # 	collision with: 9 2 5 0 0  and 9 3 5 0 0 
16135360		 # 	collision with: 1 5 6 0 0  and 1 6 6 0 0 
16135362		 # 	collision with: 2 2 6 0 0  and 2 3 6 0 0 
16135384		 # 	collision with: 5 0 5 0 0  and 6 2 5 0 0 
16135386		 # 	collision with: 4 1 5 0 0  and 1 2 5 0 0 
16135404		 # 	collision with: 5 0 6 0 0  and 6 2 6 0 0 
16135406		 # 	collision with: 2 2 6 0 0  and 2 3 6 0 0 
16135424		 # 	collision with: 9 2 2 0 0  and 2 3 2 0 0 
16135426		 # 	collision with: 8 2 2 0 0  and 8 3 2 0 0 
16135452		 # 	collision with: 7 5 9 0 0  and 7 6 9 0 0 
16135454		 # 	collision with: 3 2 9 0 0  and 3 3 9 0 0 
16135476		 # 	collision with: 2 5 1 0 0  and 2 6 1 0 0 
16135478		 # 	collision with: 4 2 1 0 0  and 4 3 1 0 0 
16135483		 # 	collision with: 1 2 2 0 0  and 1 3 2 0 0 
16135485		 # 	collision with: 9 7 1 0 0  and 9 4 3 0 0 
16135487		 # 	collision with: 7 5 1 0 0  and 7 0 3 0 0 
16135488		 # 	collision with: 9 5 10 0 0  and 9 6 10 0 0 
16135490		 # 	collision with: 7 2 10 0 0  and 7 3 10 0 0 
16135508		 # 	collision with: 8 5 4 0 0  and 8 6 4 0 0 
16135510		 # 	collision with: 5 2 4 0 0  and 5 3 4 0 0 
16135544		 # 	collision with: 3 5 7 0 0  and 3 6 7 0 0 
16135546		 # 	collision with: 6 2 7 0 0  and 6 3 7 0 0 
16135553		 # 	collision with: 8 5 1 0 0  and 8 6 3 0 0 
16135555		 # 	collision with: 6 0 1 0 0  and 6 5 3 0 0 
16135570		 # 	collision with: 1 2 3 0 0  and 1 3 3 0 0 
16135572		 # 	collision with: 5 5 8 0 0  and 5 6 8 0 0 
16135574		 # 	collision with: 0 0 8 0 0  and 5 1 8 0 0 
16135589		 # 	collision with: 8 1 1 0 0  and 8 1 3 0 0 
16135591		 # 	collision with: 4 1 0 0 0  and 1 3 0 0 0 
16135592		 # 	collision with: 3 0 1 0 0  and 7 9 0 1 0 
16135594		 # 	collision with: 5 2 1 0 0  and 4 4 0 1 0 
16135605		 # 	collision with: 10 5 1 0 0  and 10 6 1 0 0 
16135607		 # 	collision with: 7 5 1 0 0  and 9 3 2 0 0 
16135625		 # 	collision with: 1 1 0 0 0  and 10 2 0 0 0 
16135627		 # 	collision with: 2 10 1 0 0  and 3 9 2 0 0 
16135643		 # 	collision with: 0 0 2 0 0  and 5 1 2 0 0 
16135656		 # 	collision with: 5 0 5 0 0  and 6 2 5 0 0 
16135658		 # 	collision with: 1 2 5 0 0  and 1 3 5 0 0 
16135660		 # 	collision with: 3 4 6 0 0  and 8 5 6 0 0 
16135662		 # 	collision with: 10 2 6 0 0  and 10 3 6 0 0 
16135677		 # 	collision with: 6 9 1 0 0  and 6 2 2 0 0 
16135679		 # 	collision with: 9 2 1 0 0  and 7 0 2 0 0 
16135686		 # 	collision with: 5 2 3 0 0  and 5 3 3 0 0 
16135720		 # 	collision with: 3 5 8 0 0  and 3 6 8 0 0 
16135722		 # 	collision with: 6 2 8 0 0  and 6 3 8 0 0 
16135740		 # 	collision with: 10 1 9 0 0  and 1 3 9 0 0 
16135745		 # 	collision with: 2 8 1 0 0  and 9 2 2 0 0 
16135747		 # 	collision with: 5 4 1 0 0  and 0 5 1 0 0 
16135749		 # 	collision with: 2 3 1 0 0  and 9 2 2 0 0 
16135751		 # 	collision with: 4 1 0 0 0  and 1 2 0 0 0 
16135752		 # 	collision with: 4 0 2 0 0  and 7 1 2 0 0 
16135754		 # 	collision with: 7 2 2 0 0  and 7 3 2 0 0 
16135776		 # 	collision with: 4 5 7 0 0  and 4 6 7 0 0 
16135778		 # 	collision with: 0 0 7 0 0  and 5 1 7 0 0 
16135804		 # 	collision with: 4 0 4 0 0  and 7 1 4 0 0 
16135806		 # 	collision with: 3 2 4 0 0  and 3 3 4 0 0 
16135824		 # 	collision with: 9 2 1 0 0  and 2 3 1 0 0 
16135826		 # 	collision with: 0 0 1 0 0  and 5 1 1 0 0 
16135844		 # 	collision with: 1 5 10 0 0  and 1 6 10 0 0 
16135846		 # 	collision with: 7 0 10 0 0  and 9 2 10 0 0 
16135868		 # 	collision with: 10 5 1 0 0  and 10 6 1 0 0 
16135870		 # 	collision with: 9 2 1 0 0  and 9 3 1 0 0 
16135888		 # 	collision with: 1 5 10 0 0  and 1 6 10 0 0 
16135890		 # 	collision with: 2 2 10 0 0  and 2 3 10 0 0 
16135908		 # 	collision with: 4 5 7 0 0  and 4 6 7 0 0 
16135910		 # 	collision with: 7 0 7 0 0  and 9 2 7 0 0 
16135936		 # 	collision with: 10 1 4 0 0  and 1 3 4 0 0 
16135938		 # 	collision with: 3 2 4 0 0  and 3 3 4 0 0 
16135960		 # 	collision with: 5 0 9 0 0  and 6 2 9 0 0 
16135962		 # 	collision with: 4 1 9 0 0  and 1 3 9 0 0 
16135965		 # 	collision with: 2 3 1 0 0  and 2 3 2 0 0 
16135967		 # 	collision with: 6 3 1 0 0  and 6 3 2 0 0 
16135969		 # 	collision with: 3 7 1 0 0  and 3 4 2 0 0 
16135971		 # 	collision with: 4 1 0 0 0  and 1 2 0 0 0 
16135972		 # 	collision with: 9 5 2 0 0  and 9 6 2 0 0 
16135974		 # 	collision with: 4 1 2 0 0  and 1 3 2 0 0 
16135994		 # 	collision with: 5 2 3 0 0  and 5 3 3 0 0 
16136028		 # 	collision with: 6 3 8 0 0  and 5 4 8 0 0 
16136039		 # 	collision with: 7 4 1 0 0  and 7 4 2 0 0 
16136052		 # 	collision with: 6 5 5 0 0  and 6 6 5 0 0 
16136054		 # 	collision with: 1 2 5 0 0  and 1 3 5 0 0 
16136056		 # 	collision with: 5 5 6 0 0  and 5 6 6 0 0 
16136058		 # 	collision with: 4 1 6 0 0  and 1 2 6 0 0 
16136073		 # 	collision with: 8 9 1 0 0  and 8 2 2 0 0 
16136075		 # 	collision with: 4 1 1 0 0  and 1 3 1 0 0 
16136076		 # 	collision with: 0 2 8 0 0  and 1 0 1 1 0 
16136078		 # 	collision with: 10 2 7 0 0  and 1 8 0 1 0 
16136089		 # 	collision with: 10 5 0 0 0  and 1 0 2 0 0 
16136091		 # 	collision with: 6 5 0 0 0  and 6 0 2 0 0 
16136125		 # 	collision with: 4 9 0 0 0  and 4 2 2 0 0 
16136127		 # 	collision with: 0 0 1 0 0  and 5 1 1 0 0 
16136140		 # 	collision with: 6 5 7 0 0  and 6 6 7 0 0 
16136142		 # 	collision with: 1 2 7 0 0  and 1 3 7 0 0 
16136144		 # 	collision with: 5 5 4 0 0  and 5 6 4 0 0 
16136146		 # 	collision with: 4 1 4 0 0  and 1 2 4 0 0 
16136161		 # 	collision with: 7 2 0 0 0  and 7 2 2 0 0 
16136163		 # 	collision with: 6 5 0 0 0  and 6 0 2 0 0 
16136168		 # 	collision with: 1 1 2 0 0  and 10 2 2 0 0 
16136170		 # 	collision with: 5 2 2 0 0  and 5 3 2 0 0 
16136204		 # 	collision with: 1 1 9 0 0  and 10 2 9 0 0 
16136224		 # 	collision with: 9 2 6 0 0  and 2 3 6 0 0 
16136226		 # 	collision with: 4 2 6 0 0  and 4 3 6 0 0 
16136229		 # 	collision with: 7 7 0 0 0  and 4 2 2 0 0 
16136231		 # 	collision with: 3 5 0 0 0  and 3 0 2 0 0 
16136233		 # 	collision with: 6 7 0 0 0  and 6 7 2 0 0 
16136235		 # 	collision with: 1 5 0 0 0  and 1 0 2 0 0 
16136236		 # 	collision with: 9 5 5 0 0  and 9 6 5 0 0 
16136238		 # 	collision with: 4 1 5 0 0  and 1 3 5 0 0 
16136260		 # 	collision with: 4 5 1 0 0  and 4 6 1 0 0 
16136262		 # 	collision with: 7 0 1 0 0  and 9 2 1 0 0 
16136288		 # 	collision with: 7 5 10 0 0  and 7 6 10 0 0 
16136290		 # 	collision with: 7 0 10 0 0  and 9 2 10 0 0 
16136308		 # 	collision with: 4 0 8 0 0  and 7 1 8 0 0 
16136310		 # 	collision with: 9 2 8 0 0  and 9 3 8 0 0 
16136330		 # 	collision with: 2 2 3 0 0  and 2 3 3 0 0 
16136352		 # 	collision with: 9 2 8 0 0  and 2 3 8 0 0 
16136374		 # 	collision with: 2 2 3 0 0  and 2 3 3 0 0 
16136392		 # 	collision with: 5 0 1 0 0  and 6 2 1 0 0 
16136394		 # 	collision with: 8 2 1 0 0  and 8 3 1 0 0 
16136420		 # 	collision with: 4 0 10 0 0  and 7 1 10 0 0 
16136422		 # 	collision with: 3 2 10 0 0  and 3 3 10 0 0 
16136444		 # 	collision with: 10 1 6 0 0  and 1 3 6 0 0 
16136446		 # 	collision with: 4 2 6 0 0  and 4 3 6 0 0 
16136449		 # 	collision with: 9 8 0 0 0  and 9 3 2 0 0 
16136453		 # 	collision with: 6 3 1 0 0  and 5 4 1 0 0 
16136455		 # 	collision with: 8 5 0 0 0  and 8 0 2 0 0 
16136456		 # 	collision with: 9 5 5 0 0  and 9 6 5 0 0 
16136458		 # 	collision with: 4 1 5 0 0  and 1 2 5 0 0 
16136476		 # 	collision with: 8 5 2 0 0  and 8 6 2 0 0 
16136478		 # 	collision with: 5 2 2 0 0  and 5 3 2 0 0 
16136512		 # 	collision with: 3 5 9 0 0  and 3 6 9 0 0 
16136514		 # 	collision with: 6 2 9 0 0  and 6 3 9 0 0 
16136521		 # 	collision with: 8 8 0 0 0  and 3 0 2 0 0 
16136523		 # 	collision with: 5 5 0 0 0  and 5 0 2 0 0 
16136536		 # 	collision with: 5 0 7 0 0  and 6 2 7 0 0 
16136538		 # 	collision with: 1 2 7 0 0  and 1 3 7 0 0 
16136540		 # 	collision with: 5 5 4 0 0  and 5 6 4 0 0 
16136542		 # 	collision with: 10 2 4 0 0  and 10 3 4 0 0 
16136557		 # 	collision with: 10 5 0 0 0  and 1 0 2 0 0 
16136559		 # 	collision with: 3 5 0 0 0  and 3 0 2 0 0 
16136560		 # 	collision with: 8 3 3 0 0  and 2 6 0 1 0 
16136562		 # 	collision with: 5 1 3 0 0  and 6 5 0 1 0 
16136573		 # 	collision with: 5 8 0 0 0  and 5 3 1 0 0 
16136575		 # 	collision with: 2 6 0 0 0  and 3 9 1 0 0 
16136593		 # 	collision with: 9 5 0 0 0  and 9 6 1 0 0 
16136595		 # 	collision with: 10 6 0 0 0  and 6 4 1 0 0 
16136609		 # 	collision with: 7 4 0 0 0  and 4 2 1 0 0 
16136611		 # 	collision with: 0 0 0 0 0  and 5 1 0 0 0 
16136624		 # 	collision with: 9 2 9 0 0  and 2 3 9 0 0 
16136628		 # 	collision with: 5 0 2 0 0  and 6 2 2 0 0 
16136630		 # 	collision with: 10 2 2 0 0  and 10 3 2 0 0 
16136645		 # 	collision with: 5 4 0 0 0  and 6 8 1 0 0 
16136647		 # 	collision with: 8 8 0 0 0  and 8 8 1 0 0 
16136652		 # 	collision with: 8 5 1 0 0  and 8 6 1 0 0 
16136654		 # 	collision with: 5 2 1 0 0  and 5 3 1 0 0 
16136688		 # 	collision with: 5 0 10 0 0  and 6 2 10 0 0 
16136690		 # 	collision with: 6 2 10 0 0  and 6 3 10 0 0 
16136710		 # 	collision with: 4 2 3 0 0  and 4 3 3 0 0 
16136713		 # 	collision with: 10 6 0 0 0  and 1 0 1 0 0 
16136715		 # 	collision with: 10 5 0 0 0  and 10 5 1 0 0 
16136717		 # 	collision with: 3 6 0 0 0  and 3 6 1 0 0 
16136719		 # 	collision with: 4 1 0 0 0  and 1 2 1 0 0 
16136720		 # 	collision with: 4 2 8 0 0  and 7 4 8 0 0 
16136744		 # 	collision with: 4 5 6 0 0  and 4 6 6 0 0 
16136746		 # 	collision with: 4 1 6 0 0  and 1 2 6 0 0 
16136772		 # 	collision with: 7 5 5 0 0  and 7 6 5 0 0 
16136774		 # 	collision with: 3 2 5 0 0  and 3 3 5 0 0 
16136792		 # 	collision with: 10 5 4 0 0  and 10 6 4 0 0 
16136794		 # 	collision with: 9 2 4 0 0  and 9 3 4 0 0 
16136812		 # 	collision with: 1 5 7 0 0  and 1 6 7 0 0 
16136814		 # 	collision with: 2 2 7 0 0  and 2 3 7 0 0 
16136836		 # 	collision with: 10 5 4 0 0  and 10 6 4 0 0 
16136838		 # 	collision with: 9 2 4 0 0  and 9 3 4 0 0 
16136856		 # 	collision with: 4 0 7 0 0  and 7 1 7 0 0 
16136858		 # 	collision with: 0 0 7 0 0  and 5 1 7 0 0 
16136876		 # 	collision with: 4 5 6 0 0  and 4 6 6 0 0 
16136878		 # 	collision with: 8 2 6 0 0  and 8 3 6 0 0 
16136904		 # 	collision with: 1 1 5 0 0  and 10 2 5 0 0 
16136906		 # 	collision with: 3 2 5 0 0  and 3 3 5 0 0 
16136930		 # 	collision with: 0 0 3 0 0  and 5 1 3 0 0 
16136933		 # 	collision with: 2 10 0 0 0  and 2 1 1 0 0 
16136935		 # 	collision with: 10 10 0 0 0  and 6 1 1 0 0 
16136937		 # 	collision with: 10 6 0 0 0  and 1 0 1 0 0 
16136939		 # 	collision with: 3 1 0 0 0  and 3 4 1 0 0 
16136940		 # 	collision with: 6 3 8 0 0  and 5 4 8 0 0 
16136942		 # 	collision with: 7 2 8 0 0  and 7 3 8 0 0 
16136960		 # 	collision with: 10 1 1 0 0  and 1 3 1 0 0 
16136962		 # 	collision with: 5 2 1 0 0  and 5 3 1 0 0 
16136996		 # 	collision with: 10 1 10 0 0  and 1 3 10 0 0 
16136998		 # 	collision with: 4 1 10 0 0  and 1 3 10 0 0 
16137005		 # 	collision with: 6 7 0 0 0  and 5 1 1 0 0 
16137007		 # 	collision with: 0 0 0 0 0  and 5 1 0 0 0 
16137020		 # 	collision with: 6 5 9 0 0  and 6 6 9 0 0 
16137022		 # 	collision with: 1 2 9 0 0  and 1 3 9 0 0 
16137024		 # 	collision with: 5 5 2 0 0  and 5 6 2 0 0 
16137026		 # 	collision with: 10 2 2 0 0  and 10 3 2 0 0 
16137041		 # 	collision with: 2 8 0 0 0  and 2 8 1 0 0 
16137043		 # 	collision with: 7 6 0 0 0  and 9 0 1 0 0 
16137137		 # 	collision with: 8 5 0 0 0  and 8 6 0 0 0 
16137139		 # 	collision with: 2 6 0 0 0  and 3 6 0 0 0 
16137173		 # 	collision with: 3 5 0 0 0  and 3 6 0 0 0 
16137175		 # 	collision with: 2 5 0 0 0  and 3 5 0 0 0 
16137233		 # 	collision with: 10 5 0 0 0  and 10 6 0 0 0 
16137235		 # 	collision with: 2 2 0 0 0  and 3 2 0 0 0 
16137253		 # 	collision with: 1 5 0 0 0  and 1 6 0 0 0 
16137255		 # 	collision with: 2 9 0 0 0  and 3 9 0 0 0 
16137273		 # 	collision with: 4 5 0 0 0  and 4 6 0 0 0 
16137275		 # 	collision with: 2 3 0 0 0  and 3 3 0 0 0 
16137301		 # 	collision with: 7 5 0 0 0  and 7 6 0 0 0 
16137303		 # 	collision with: 2 8 0 0 0  and 3 8 0 0 0 
16137317		 # 	collision with: 4 5 0 0 0  and 4 6 0 0 0 
16137319		 # 	collision with: 2 3 0 0 0  and 3 3 0 0 0 
16137345		 # 	collision with: 7 5 0 0 0  and 7 6 0 0 0 
16137347		 # 	collision with: 2 8 0 0 0  and 3 8 0 0 0 
16137365		 # 	collision with: 10 5 0 0 0  and 10 6 0 0 0 
16137367		 # 	collision with: 2 2 0 0 0  and 3 2 0 0 0 
16137385		 # 	collision with: 1 5 0 0 0  and 1 6 0 0 0 
16137387		 # 	collision with: 2 9 0 0 0  and 3 9 0 0 0 
16137445		 # 	collision with: 8 5 0 0 0  and 8 6 0 0 0 
16137447		 # 	collision with: 2 6 0 0 0  and 3 6 0 0 0 
16137481		 # 	collision with: 3 5 0 0 0  and 3 6 0 0 0 
16137483		 # 	collision with: 2 5 0 0 0  and 3 5 0 0 0 
16137528		 # 	collision with: 3 10 9 0 0  and 5 4 0 1 0 
16137530		 # 	collision with: 5 0 9 0 0  and 2 4 0 1 0 
16137621		 # 	collision with: 1 3 4 0 0  and 1 3 6 0 0 
16137623		 # 	collision with: 2 5 0 0 0  and 3 5 0 0 0 
16137657		 # 	collision with: 3 5 1 0 0  and 3 6 1 0 0 
16137659		 # 	collision with: 2 6 0 0 0  and 3 6 0 0 0 
16137717		 # 	collision with: 6 1 4 0 0  and 6 1 6 0 0 
16137719		 # 	collision with: 2 9 0 0 0  and 3 9 0 0 0 
16137737		 # 	collision with: 1 5 4 0 0  and 1 6 4 0 0 
16137739		 # 	collision with: 2 2 0 0 0  and 3 2 0 0 0 
16137757		 # 	collision with: 4 5 5 0 0  and 4 6 5 0 0 
16137759		 # 	collision with: 2 8 0 0 0  and 3 8 0 0 0 
16137785		 # 	collision with: 9 2 3 0 0  and 2 3 3 0 0 
16137787		 # 	collision with: 2 3 0 0 0  and 3 3 0 0 0 
16137801		 # 	collision with: 4 5 5 0 0  and 4 6 5 0 0 
16137803		 # 	collision with: 2 8 0 0 0  and 3 8 0 0 0 
16137829		 # 	collision with: 4 4 4 0 0  and 4 4 6 0 0 
16137849		 # 	collision with: 3 4 4 0 0  and 8 5 4 0 0 
16137851		 # 	collision with: 2 9 0 0 0  and 3 9 0 0 0 
16137869		 # 	collision with: 1 5 4 0 0  and 1 6 4 0 0 
16137929		 # 	collision with: 4 2 4 0 0  and 7 4 4 0 0 
16137931		 # 	collision with: 2 5 0 0 0  and 3 5 0 0 0 
16137965		 # 	collision with: 3 5 1 0 0  and 3 6 1 0 0 
16137967		 # 	collision with: 2 6 0 0 0  and 3 6 0 0 0 
16138012		 # 	collision with: 9 10 10 0 0  and 6 5 0 1 0 
16138014		 # 	collision with: 4 8 0 0 0  and 10 2 1 1 0 
16138105		 # 	collision with: 2 9 4 0 0  and 2 9 5 0 0 
16138107		 # 	collision with: 2 4 0 0 0  and 3 4 0 0 0 
16138141		 # 	collision with: 3 4 1 0 0  and 8 6 1 0 0 
16138143		 # 	collision with: 2 7 0 0 0  and 3 7 0 0 0 
16138201		 # 	collision with: 10 5 3 0 0  and 10 6 3 0 0 
16138203		 # 	collision with: 2 5 0 0 0  and 3 5 0 0 0 
16138223		 # 	collision with: 2 6 0 0 0  and 3 6 0 0 0 
16138241		 # 	collision with: 6 2 4 0 0  and 5 0 5 0 0 
16138243		 # 	collision with: 2 2 0 0 0  and 3 2 0 0 0 
16138269		 # 	collision with: 3 4 0 0 0  and 8 5 0 0 0 
16138271		 # 	collision with: 2 9 0 0 0  and 3 9 0 0 0 
16138285		 # 	collision with: 8 10 4 0 0  and 8 10 5 0 0 
16138313		 # 	collision with: 3 4 0 0 0  and 8 5 0 0 0 
16138315		 # 	collision with: 2 9 0 0 0  and 3 9 0 0 0 
16138333		 # 	collision with: 4 2 1 0 0  and 7 4 1 0 0 
16138335		 # 	collision with: 2 5 0 0 0  and 3 5 0 0 0 
16138355		 # 	collision with: 2 6 0 0 0  and 3 6 0 0 0 
16138413		 # 	collision with: 9 9 4 0 0  and 9 9 5 0 0 
16138415		 # 	collision with: 2 4 0 0 0  and 3 4 0 0 0 
16138449		 # 	collision with: 3 5 2 0 0  and 3 6 2 0 0 
16138496		 # 	collision with: 10 4 3 0 0  and 7 6 0 1 0 
16138498		 # 	collision with: 8 1 3 0 0  and 6 10 0 1 0 
16138591		 # 	collision with: 2 3 0 0 0  and 3 3 0 0 0 
16138625		 # 	collision with: 3 5 3 0 0  and 3 6 3 0 0 
16138685		 # 	collision with: 5 0 2 0 0  and 6 2 2 0 0 
16138687		 # 	collision with: 2 1 0 0 0  and 3 1 0 0 0 
16138705		 # 	collision with: 9 3 0 0 0  and 2 5 0 0 0 
16138725		 # 	collision with: 10 1 2 0 0  and 1 3 2 0 0 
16138727		 # 	collision with: 2 7 0 0 0  and 3 7 0 0 0 
16138753		 # 	collision with: 8 10 3 0 0  and 3 5 5 0 0 
16138755		 # 	collision with: 2 4 0 0 0  and 3 4 0 0 0 
16138769		 # 	collision with: 4 5 4 0 0  and 4 6 4 0 0 
16138771		 # 	collision with: 2 7 0 0 0  and 3 7 0 0 0 
16138797		 # 	collision with: 3 4 1 0 0  and 8 6 1 0 0 
16138799		 # 	collision with: 2 4 0 0 0  and 3 4 0 0 0 
16138817		 # 	collision with: 8 10 3 0 0  and 8 1 5 0 0 
16138819		 # 	collision with: 2 1 0 0 0  and 3 1 0 0 0 
16138837		 # 	collision with: 9 3 0 0 0  and 2 5 0 0 0 
16138839		 # 	collision with: 2 10 0 0 0  and 3 10 0 0 0 
16138899		 # 	collision with: 2 3 0 0 0  and 3 3 0 0 0 
16138933		 # 	collision with: 3 5 3 0 0  and 3 6 3 0 0 
16138935		 # 	collision with: 2 8 0 0 0  and 3 8 0 0 0 
16138980		 # 	collision with: 7 5 5 0 0  and 5 10 0 1 0 
16138982		 # 	collision with: 1 3 5 0 0  and 3 5 0 1 0 
16139073		 # 	collision with: 3 4 3 0 0  and 8 5 4 0 0 
16139075		 # 	collision with: 2 2 0 0 0  and 3 2 0 0 0 
16139109		 # 	collision with: 9 3 1 0 0  and 2 5 1 0 0 
16139111		 # 	collision with: 2 9 0 0 0  and 3 9 0 0 0 
16139169		 # 	collision with: 4 0 2 0 0  and 7 1 2 0 0 
16139171		 # 	collision with: 2 8 0 0 0  and 3 8 0 0 0 
16139189		 # 	collision with: 2 4 3 0 0  and 2 4 4 0 0 
16139191		 # 	collision with: 2 3 0 0 0  and 3 3 0 0 0 
16139209		 # 	collision with: 10 10 3 0 0  and 1 3 4 0 0 
16139211		 # 	collision with: 2 1 0 0 0  and 3 1 0 0 0 
16139237		 # 	collision with: 7 5 2 0 0  and 7 6 2 0 0 
16139239		 # 	collision with: 2 10 0 0 0  and 3 10 0 0 0 
16139253		 # 	collision with: 5 5 3 0 0  and 5 5 4 0 0 
16139255		 # 	collision with: 2 1 0 0 0  and 3 1 0 0 0 
16139281		 # 	collision with: 7 5 2 0 0  and 7 6 2 0 0 
16139283		 # 	collision with: 2 10 0 0 0  and 3 10 0 0 0 
16139301		 # 	collision with: 10 1 1 0 0  and 1 3 1 0 0 
16139303		 # 	collision with: 2 8 0 0 0  and 3 8 0 0 0 
16139321		 # 	collision with: 9 4 3 0 0  and 9 4 4 0 0 
16139323		 # 	collision with: 2 3 0 0 0  and 3 3 0 0 0 
16139381		 # 	collision with: 10 6 3 0 0  and 1 0 4 0 0 
16139383		 # 	collision with: 2 2 0 0 0  and 3 2 0 0 0 
16139417		 # 	collision with: 2 7 3 0 0  and 9 0 4 0 0 
16139419		 # 	collision with: 2 9 0 0 0  and 3 9 0 0 0 
16139464		 # 	collision with: 1 6 4 0 0  and 2 3 0 1 0 
16139466		 # 	collision with: 0 2 4 0 0  and 7 1 0 1 0 
16139557		 # 	collision with: 1 9 2 0 0  and 1 2 4 0 0 
16139559		 # 	collision with: 2 1 0 0 0  and 3 1 0 0 0 
16139593		 # 	collision with: 8 6 2 0 0  and 3 4 4 0 0 
16139595		 # 	collision with: 2 10 0 0 0  and 3 10 0 0 0 
16139653		 # 	collision with: 10 5 2 0 0  and 10 6 2 0 0 
16139655		 # 	collision with: 2 4 0 0 0  and 3 4 0 0 0 
16139673		 # 	collision with: 4 2 0 0 0  and 7 4 0 0 0 
16139675		 # 	collision with: 2 7 0 0 0  and 3 7 0 0 0 
16139693		 # 	collision with: 4 5 3 0 0  and 4 6 3 0 0 
16139695		 # 	collision with: 2 6 0 0 0  and 3 6 0 0 0 
16139723		 # 	collision with: 2 5 0 0 0  and 3 5 0 0 0 
16139737		 # 	collision with: 4 5 3 0 0  and 4 6 3 0 0 
16139739		 # 	collision with: 2 6 0 0 0  and 3 6 0 0 0 
16139767		 # 	collision with: 2 5 0 0 0  and 3 5 0 0 0 
16139785		 # 	collision with: 10 5 2 0 0  and 10 6 2 0 0 
16139787		 # 	collision with: 2 4 0 0 0  and 3 4 0 0 0 
16139805		 # 	collision with: 4 2 0 0 0  and 7 4 0 0 0 
16139807		 # 	collision with: 2 7 0 0 0  and 3 7 0 0 0 
16139865		 # 	collision with: 9 2 1 0 0  and 2 3 1 0 0 
16139867		 # 	collision with: 2 1 0 0 0  and 3 1 0 0 0 
16139901		 # 	collision with: 6 6 2 0 0  and 6 6 4 0 0 
16139903		 # 	collision with: 2 10 0 0 0  and 3 10 0 0 0 
16139948		 # 	collision with: 2 9 7 0 0  and 1 8 0 1 0 
16139950		 # 	collision with: 6 8 7 0 0  and 9 5 0 1 0 
89.5168secs	27945
