# prime 11
# degree 2
# input variables 3
# output variables 4
# reload computed balance functions from file balance-2036of3248-p11d2m3-debug.log
# p = 11
# n = 4
# smalldomain p^m 1331
# domain p^n 14641
#	 p^2 = 121
#	 p^3 = 1331
#	 p^4 = 14641
#	 p^5 = 161051
#	 p^6 = 1771561
#	 p^7 = 19487171
#	 p^8 = 214358881
#	 p^9 = 2357947691
opening file : balance-2036of3248-p11d2m3-debug.log
reloading for step2...
12216077		 # 	collision with: 6 8 0 0  and 9 9 1 0 
12216079		 # 	collision with: 4 2 0 0  and 6 4 0 0 
12216129		 # 	collision with: 7 2 0 0  and 4 4 0 0 
12216131		 # 	collision with: 10 5 0 0  and 6 1 2 0 
12216153		 # 	collision with: 10 6 0 0  and 3 9 1 0 
12216155		 # 	collision with: 3 3 1 0  and 8 5 1 0 
12216160		 # 	collision with: 3 6 1 0  and 6 0 2 0 
12216162		 # 	collision with: 8 4 0 0  and 10 0 1 0 
12216165		 # 	collision with: 4 8 0 0  and 3 4 1 0 
12216167		 # 	collision with: 1 8 0 0  and 8 0 1 0 
12216201		 # 	collision with: 4 3 0 0  and 0 0 2 0 
12216203		 # 	collision with: 5 3 0 0  and 3 4 1 0 
12216213		 # 	collision with: 7 5 0 0  and 9 3 2 0 
12216215		 # 	collision with: 10 5 0 0  and 6 1 1 0 
12216237		 # 	collision with: 5 2 0 0  and 5 3 0 0 
12216239		 # 	collision with: 10 5 0 0  and 3 10 1 0 
12216289		 # 	collision with: 9 3 0 0  and 7 2 1 0 
12216291		 # 	collision with: 0 4 1 0  and 3 0 2 0 
12216413		 # 	collision with: 5 2 0 0  and 5 3 0 0 
12216417		 # 	collision with: 10 1 1 0  and 7 4 2 0 
12216419		 # 	collision with: 5 0 1 0  and 3 2 3 0 
12216433		 # 	collision with: 1 0 2 0  and 9 1 2 0 
12216435		 # 	collision with: 9 4 0 0  and 7 2 2 0 
12216437		 # 	collision with: 3 2 0 0  and 8 3 0 0 
12216439		 # 	collision with: 6 2 0 0  and 6 3 0 0 
12216561		 # 	collision with: 4 9 1 0  and 8 1 2 0 
12216563		 # 	collision with: 9 8 0 0  and 9 0 1 0 
12216613		 # 	collision with: 3 2 0 0  and 8 3 0 0 
12216615		 # 	collision with: 6 2 0 0  and 6 3 0 0 
12216637		 # 	collision with: 3 1 0 0  and 2 6 1 0 
12216644		 # 	collision with: 10 4 0 0  and 4 10 1 0 
12216646		 # 	collision with: 1 5 0 0  and 2 0 1 0 
12216649		 # 	collision with: 7 1 0 0  and 8 3 2 0 
12216651		 # 	collision with: 3 8 2 0  and 0 1 3 0 
12216685		 # 	collision with: 5 7 0 0  and 6 7 0 0 
12216697		 # 	collision with: 5 6 0 0  and 2 1 1 0 
12216699		 # 	collision with: 2 8 0 0  and 2 4 2 0 
12216721		 # 	collision with: 8 9 0 0  and 3 3 1 0 
12216773		 # 	collision with: 5 7 0 0  and 6 7 0 0 
12216775		 # 	collision with: 7 10 0 0  and 7 7 1 0 
12216897		 # 	collision with: 0 6 0 0  and 4 4 1 0 
12216899		 # 	collision with: 2 9 1 0  and 8 0 3 0 
12216903		 # 	collision with: 10 3 0 0  and 9 1 1 0 
12216917		 # 	collision with: 2 0 1 0  and 2 2 1 0 
12216919		 # 	collision with: 1 10 0 0  and 5 10 1 0 
12216923		 # 	collision with: 6 0 0 0  and 6 5 1 0 
12217045		 # 	collision with: 2 7 1 0  and 6 3 2 0 
12217047		 # 	collision with: 10 8 2 0  and 7 0 3 0 
12217097		 # 	collision with: 3 3 0 0  and 8 9 1 0 
12217099		 # 	collision with: 8 0 0 0  and 3 7 1 0 
12217121		 # 	collision with: 3 1 0 0  and 8 3 0 0 
12217123		 # 	collision with: 10 2 0 0  and 6 8 1 0 
12217128		 # 	collision with: 0 0 0 0  and 5 8 1 0 
12217130		 # 	collision with: 4 2 0 0  and 3 10 1 0 
12217133		 # 	collision with: 1 10 0 0  and 5 6 1 0 
12217135		 # 	collision with: 8 10 0 0  and 5 7 1 0 
12217171		 # 	collision with: 10 8 1 0  and 0 1 2 0 
12217181		 # 	collision with: 5 7 0 0  and 6 7 0 0 
12217183		 # 	collision with: 4 1 0 0  and 4 2 0 0 
12217205		 # 	collision with: 9 8 0 0  and 2 9 1 0 
12217207		 # 	collision with: 4 6 1 0  and 5 6 1 0 
12217257		 # 	collision with: 3 1 0 0  and 3 2 0 0 
12217259		 # 	collision with: 9 9 0 0  and 7 1 1 0 
12217381		 # 	collision with: 10 4 0 0  and 2 3 1 0 
12217383		 # 	collision with: 3 2 0 0  and 7 10 1 0 
12217385		 # 	collision with: 2 2 0 0  and 5 4 1 0 
12217387		 # 	collision with: 4 5 0 0  and 0 1 2 0 
12217401		 # 	collision with: 5 7 0 0  and 6 7 0 0 
12217403		 # 	collision with: 4 1 0 0  and 4 2 0 0 
12217405		 # 	collision with: 4 3 0 0  and 4 3 1 0 
12217407		 # 	collision with: 10 4 0 0  and 4 2 2 0 
12217529		 # 	collision with: 3 3 0 0  and 0 3 2 0 
12217531		 # 	collision with: 6 0 2 0  and 8 1 2 0 
12217581		 # 	collision with: 9 3 0 0  and 9 3 1 0 
12217583		 # 	collision with: 6 1 0 0  and 0 7 2 0 
12217605		 # 	collision with: 0 2 0 0  and 2 1 1 0 
12217607		 # 	collision with: 4 5 0 0  and 0 1 2 0 
12217612		 # 	collision with: 6 9 0 0  and 7 10 1 0 
12217614		 # 	collision with: 4 2 0 0  and 0 3 1 0 
12217617		 # 	collision with: 5 0 0 0  and 2 5 1 0 
12217619		 # 	collision with: 3 0 0 0  and 3 2 0 0 
12217653		 # 	collision with: 7 0 1 0  and 9 1 2 0 
12217655		 # 	collision with: 0 6 0 0  and 3 0 1 0 
12217665		 # 	collision with: 4 1 1 0  and 6 1 1 0 
12217667		 # 	collision with: 0 7 1 0  and 6 4 2 0 
12217691		 # 	collision with: 7 7 0 0  and 5 0 1 0 
12217741		 # 	collision with: 6 6 0 0  and 6 0 1 0 
12217743		 # 	collision with: 6 9 0 0  and 6 7 1 0 
12217865		 # 	collision with: 10 8 0 0  and 3 8 1 0 
12217867		 # 	collision with: 3 9 1 0  and 2 8 2 0 
12217869		 # 	collision with: 7 7 0 0  and 1 0 1 0 
12217871		 # 	collision with: 2 4 1 0  and 3 4 1 0 
12217885		 # 	collision with: 4 3 0 0  and 6 1 1 0 
12217887		 # 	collision with: 0 3 0 0  and 6 1 1 0 
12217889		 # 	collision with: 2 10 0 0  and 2 3 1 0 
12217891		 # 	collision with: 4 1 0 0  and 6 1 0 0 
12218013		 # 	collision with: 10 7 0 0  and 6 1 1 0 
12218015		 # 	collision with: 3 0 0 0  and 3 2 0 0 
12218065		 # 	collision with: 0 6 0 0  and 4 0 1 0 
12218067		 # 	collision with: 4 1 0 0  and 6 1 0 0 
12218091		 # 	collision with: 9 6 0 0  and 5 4 1 0 
12218096		 # 	collision with: 0 9 2 0  and 1 2 3 0 
12218098		 # 	collision with: 5 7 0 0  and 6 9 1 0 
12218101		 # 	collision with: 5 1 0 0  and 10 2 2 0 
12218103		 # 	collision with: 9 0 0 0  and 9 8 1 0 
12218137		 # 	collision with: 2 2 0 0  and 2 0 1 0 
12218139		 # 	collision with: 2 0 0 0  and 2 1 0 0 
12218149		 # 	collision with: 8 6 0 0  and 4 2 1 0 
12218151		 # 	collision with: 4 1 0 0  and 6 1 0 0 
12218173		 # 	collision with: 5 7 0 0  and 6 7 0 0 
12218175		 # 	collision with: 5 2 0 0  and 2 0 1 0 
12218225		 # 	collision with: 4 3 1 0  and 0 0 2 0 
12218227		 # 	collision with: 2 0 0 0  and 2 1 0 0 
12218349		 # 	collision with: 5 7 0 0  and 6 7 0 0 
12218351		 # 	collision with: 1 4 1 0  and 4 10 2 0 
12218353		 # 	collision with: 1 5 0 0  and 1 7 0 0 
12218369		 # 	collision with: 0 7 2 0  and 2 0 3 0 
12218371		 # 	collision with: 4 1 0 0  and 6 1 0 0 
12218373		 # 	collision with: 5 9 0 0  and 7 3 1 0 
12218375		 # 	collision with: 10 1 1 0  and 1 0 2 0 
12218497		 # 	collision with: 3 5 1 0  and 10 6 1 0 
12218549		 # 	collision with: 1 1 0 0  and 1 1 2 0 
12218551		 # 	collision with: 0 6 0 0  and 5 4 2 0 
12218573		 # 	collision with: 1 5 0 0  and 1 7 0 0 
12218575		 # 	collision with: 7 9 0 0  and 1 4 1 0 
12218597		 # 	collision with: 0 5 1 0  and 6 5 3 0 
12218599		 # 	collision with: 1 5 0 0  and 1 6 0 0 
12218609		 # 	collision with: 4 6 0 0  and 2 0 1 0 
12218611		 # 	collision with: 6 2 0 0  and 5 6 1 0 
12218641		 # 	collision with: 6 5 0 0  and 1 0 1 0 
12218643		 # 	collision with: 1 5 0 0  and 1 6 0 0 
12218649		 # 	collision with: 1 6 0 0  and 0 0 1 0 
12218651		 # 	collision with: 6 2 1 0  and 6 3 1 0 
12218711		 # 	collision with: 7 5 0 0  and 0 1 1 0 
12218805		 # 	collision with: 9 1 0 0  and 2 4 1 0 
12218807		 # 	collision with: 2 5 0 0  and 3 0 1 0 
12218821		 # 	collision with: 5 3 0 0  and 3 5 1 0 
12218823		 # 	collision with: 2 9 1 0  and 3 9 1 0 
12218869		 # 	collision with: 1 6 0 0  and 0 0 1 0 
12218871		 # 	collision with: 1 2 1 0  and 3 2 1 0 
12218885		 # 	collision with: 1 3 0 0  and 0 3 1 0 
12218887		 # 	collision with: 7 5 0 0  and 0 1 1 0 
12218983		 # 	collision with: 6 7 0 0  and 6 9 1 0 
12219041		 # 	collision with: 9 2 1 0  and 3 4 1 0 
12219043		 # 	collision with: 2 5 0 0  and 7 0 1 0 
12219049		 # 	collision with: 9 5 1 0  and 3 2 2 0 
12219051		 # 	collision with: 10 10 1 0  and 7 2 2 0 
12219064		 # 	collision with: 1 10 0 0  and 0 7 1 0 
12219066		 # 	collision with: 5 2 0 0  and 8 4 2 0 
12219081		 # 	collision with: 9 5 0 0  and 3 1 2 0 
12219093		 # 	collision with: 0 7 0 0  and 3 2 1 0 
12219095		 # 	collision with: 4 0 0 0  and 6 0 0 0 
12219125		 # 	collision with: 0 2 0 0  and 4 2 1 0 
12219127		 # 	collision with: 4 0 0 0  and 6 0 0 0 
12219133		 # 	collision with: 7 3 1 0  and 2 4 2 0 
12219135		 # 	collision with: 4 0 0 0  and 6 0 0 0 
12219193		 # 	collision with: 1 0 2 0  and 1 1 2 0 
12219291		 # 	collision with: 4 0 0 0  and 6 0 0 0 
12219305		 # 	collision with: 5 2 1 0  and 5 3 1 0 
12219307		 # 	collision with: 4 0 0 0  and 6 0 0 0 
12219355		 # 	collision with: 4 0 0 0  and 6 0 0 0 
12219369		 # 	collision with: 10 4 0 0  and 2 0 2 0 
12219371		 # 	collision with: 4 0 0 0  and 6 0 0 0 
12219465		 # 	collision with: 0 10 1 0  and 2 10 1 0 
12219467		 # 	collision with: 4 0 0 0  and 6 0 0 0 
12219525		 # 	collision with: 5 2 1 0  and 5 3 1 0 
12219527		 # 	collision with: 4 0 0 0  and 6 0 0 0 
12219533		 # 	collision with: 0 3 1 0  and 1 3 1 0 
12219535		 # 	collision with: 4 0 0 0  and 6 0 0 0 
12219548		 # 	collision with: 0 0 0 0  and 3 4 1 0 
12219550		 # 	collision with: 1 5 1 0  and 0 2 2 0 
12219565		 # 	collision with: 6 1 1 0  and 3 8 2 0 
12219567		 # 	collision with: 10 4 0 0  and 10 5 0 0 
12219579		 # 	collision with: 0 4 0 0  and 5 1 1 0 
12219609		 # 	collision with: 4 1 0 0  and 9 5 1 0 
12219611		 # 	collision with: 10 4 0 0  and 10 5 0 0 
12219617		 # 	collision with: 5 7 0 0  and 6 7 0 0 
12219619		 # 	collision with: 10 5 0 0  and 7 5 1 0 
12219677		 # 	collision with: 10 4 1 0  and 10 6 1 0 
12219679		 # 	collision with: 2 4 0 0  and 8 5 0 0 
12219773		 # 	collision with: 1 9 1 0  and 1 9 3 0 
12219789		 # 	collision with: 4 5 0 0  and 3 7 1 0 
12219791		 # 	collision with: 4 8 0 0  and 6 4 1 0 
12219837		 # 	collision with: 5 7 0 0  and 6 7 0 0 
12219839		 # 	collision with: 5 3 0 0  and 9 4 2 0 
12219853		 # 	collision with: 10 4 1 0  and 10 6 1 0 
12219855		 # 	collision with: 2 4 0 0  and 8 5 0 0 
12219949		 # 	collision with: 3 10 0 0  and 6 2 2 0 
12219951		 # 	collision with: 9 5 2 0  and 7 2 3 0 
12220009		 # 	collision with: 2 1 0 0  and 4 0 1 0 
12220017		 # 	collision with: 4 4 0 0  and 7 5 0 0 
12220019		 # 	collision with: 0 3 2 0  and 1 3 2 0 
12220032		 # 	collision with: 1 2 0 0  and 3 1 1 0 
12220034		 # 	collision with: 6 5 0 0  and 8 4 1 0 
12220049		 # 	collision with: 8 6 0 0  and 7 2 1 0 
12220051		 # 	collision with: 9 3 0 0  and 9 5 0 0 
12220061		 # 	collision with: 4 9 0 0  and 1 3 1 0 
12220063		 # 	collision with: 8 7 0 0  and 9 4 1 0 
12220093		 # 	collision with: 5 7 1 0  and 5 9 2 0 
12220101		 # 	collision with: 3 10 0 0  and 10 0 2 0 
12220103		 # 	collision with: 3 4 0 0  and 2 3 1 0 
12220161		 # 	collision with: 8 3 0 0  and 8 5 0 0 
12220163		 # 	collision with: 4 6 1 0  and 6 4 2 0 
12220257		 # 	collision with: 2 8 0 0  and 6 8 1 0 
12220259		 # 	collision with: 2 9 1 0  and 3 9 1 0 
12220273		 # 	collision with: 10 10 0 0  and 10 0 2 0 
12220321		 # 	collision with: 0 4 0 0  and 4 3 1 0 
12220323		 # 	collision with: 6 3 0 0  and 10 5 1 0 
12220337		 # 	collision with: 8 3 0 0  and 8 5 0 0 
12220339		 # 	collision with: 1 2 1 0  and 3 2 1 0 
12220433		 # 	collision with: 2 8 0 0  and 2 8 1 0 
12220435		 # 	collision with: 9 6 0 0  and 5 9 1 0 
12220493		 # 	collision with: 5 0 0 0  and 5 5 2 0 
12220495		 # 	collision with: 4 3 0 0  and 6 5 0 0 
12220501		 # 	collision with: 5 3 1 0  and 3 5 2 0 
12220503		 # 	collision with: 4 9 0 0  and 4 9 1 0 
12220516		 # 	collision with: 9 7 1 0  and 0 0 2 0 
12220518		 # 	collision with: 2 5 1 0  and 1 9 2 0 
12220533		 # 	collision with: 4 4 1 0  and 8 6 2 0 
12220535		 # 	collision with: 8 3 0 0  and 8 4 0 0 
12220545		 # 	collision with: 7 4 0 0  and 2 9 2 0 
12220547		 # 	collision with: 1 8 0 0  and 5 4 1 0 
12220577		 # 	collision with: 6 5 0 0  and 6 1 1 0 
12220579		 # 	collision with: 8 3 0 0  and 8 4 0 0 
12220585		 # 	collision with: 4 7 0 0  and 3 3 2 0 
12220587		 # 	collision with: 5 5 1 0  and 4 2 2 0 
12220645		 # 	collision with: 1 3 0 0  and 10 4 0 0 
12220647		 # 	collision with: 7 4 0 0  and 3 3 1 0 
12220741		 # 	collision with: 5 7 0 0  and 6 7 0 0 
12220743		 # 	collision with: 7 2 1 0  and 7 4 1 0 
12220757		 # 	collision with: 10 7 1 0  and 1 5 2 0 
12220759		 # 	collision with: 1 5 2 0  and 4 2 3 0 
12220805		 # 	collision with: 4 6 1 0  and 0 3 2 0 
12220807		 # 	collision with: 3 2 0 0  and 2 7 1 0 
12220821		 # 	collision with: 1 3 0 0  and 10 4 0 0 
12220823		 # 	collision with: 3 5 0 0  and 2 10 1 0 
12220917		 # 	collision with: 5 7 0 0  and 6 7 0 0 
12220919		 # 	collision with: 7 2 1 0  and 7 4 1 0 
12220977		 # 	collision with: 0 7 0 0  and 9 4 1 0 
12220979		 # 	collision with: 2 7 0 0  and 1 9 1 0 
12220985		 # 	collision with: 0 5 0 0  and 3 8 1 0 
12220987		 # 	collision with: 8 6 1 0  and 10 1 2 0 
12221000		 # 	collision with: 3 0 0 0  and 9 6 1 0 
12221002		 # 	collision with: 1 7 0 0  and 5 2 1 0 
12221017		 # 	collision with: 5 7 0 0  and 6 7 0 0 
12221019		 # 	collision with: 7 2 0 0  and 7 4 0 0 
12221029		 # 	collision with: 6 1 2 0  and 9 0 3 0 
12221031		 # 	collision with: 5 4 0 0  and 9 10 1 0 
12221061		 # 	collision with: 5 7 0 0  and 6 7 0 0 
12221063		 # 	collision with: 7 2 0 0  and 7 4 0 0 
12221071		 # 	collision with: 5 2 0 0  and 4 0 1 0 
12221129		 # 	collision with: 5 3 0 0  and 7 4 1 0 
12221131		 # 	collision with: 2 6 0 0  and 8 10 1 0 
12221225		 # 	collision with: 6 2 0 0  and 6 4 0 0 
12221227		 # 	collision with: 8 2 0 0  and 2 4 0 0 
12221241		 # 	collision with: 1 6 0 0  and 1 6 1 0 
12221243		 # 	collision with: 7 0 1 0  and 9 1 1 0 
12221289		 # 	collision with: 1 1 0 0  and 6 5 1 0 
12221291		 # 	collision with: 8 4 0 0  and 4 0 1 0 
12221305		 # 	collision with: 1 3 0 0  and 10 4 1 0 
12221307		 # 	collision with: 8 3 0 0  and 4 3 1 0 
12221401		 # 	collision with: 6 2 0 0  and 6 4 0 0 
12221403		 # 	collision with: 8 2 0 0  and 2 4 0 0 
12221461		 # 	collision with: 6 6 0 0  and 6 6 1 0 
12221463		 # 	collision with: 4 4 0 0  and 5 0 1 0 
12221471		 # 	collision with: 0 8 0 0  and 4 1 1 0 
12221484		 # 	collision with: 4 1 0 0  and 9 5 2 0 
12221486		 # 	collision with: 3 10 0 0  and 2 4 1 0 
12221501		 # 	collision with: 0 3 0 0  and 2 2 1 0 
12221503		 # 	collision with: 6 2 0 0  and 6 3 0 0 
12221513		 # 	collision with: 5 2 0 0  and 5 3 0 0 
12221515		 # 	collision with: 4 6 0 0  and 1 1 1 0 
12221547		 # 	collision with: 6 2 0 0  and 6 3 0 0 
12221553		 # 	collision with: 4 5 0 0  and 4 5 1 0 
12221555		 # 	collision with: 3 1 1 0  and 4 2 2 0 
12221613		 # 	collision with: 3 2 0 0  and 4 3 1 0 
12221615		 # 	collision with: 1 8 1 0  and 1 3 2 0 
12221709		 # 	collision with: 5 5 0 0  and 7 1 1 0 
12221711		 # 	collision with: 6 0 0 0  and 8 3 1 0 
12221725		 # 	collision with: 5 1 0 0  and 7 2 1 0 
12221727		 # 	collision with: 1 7 0 0  and 6 0 1 0 
12221773		 # 	collision with: 8 5 0 0  and 8 5 1 0 
12221775		 # 	collision with: 7 9 0 0  and 5 0 1 0 
12221789		 # 	collision with: 10 3 0 0  and 2 3 1 0 
12221791		 # 	collision with: 8 7 0 0  and 8 0 1 0 
12221885		 # 	collision with: 9 5 0 0  and 4 3 1 0 
12221887		 # 	collision with: 1 6 2 0  and 2 6 2 0 
12221947		 # 	collision with: 10 4 0 0  and 9 2 1 0 
12221953		 # 	collision with: 5 2 0 0  and 5 3 0 0 
12221955		 # 	collision with: 7 2 0 0  and 7 4 1 0 
12221968		 # 	collision with: 4 3 0 0  and 3 1 1 0 
12221970		 # 	collision with: 4 5 1 0  and 9 1 2 0 
12221985		 # 	collision with: 0 1 0 0  and 2 3 2 0 
12221987		 # 	collision with: 5 1 0 0  and 5 3 0 0 
12221997		 # 	collision with: 0 2 0 0  and 5 7 1 0 
12221999		 # 	collision with: 2 2 0 0  and 6 7 1 0 
17.617secs	5631
