# prime 11
# degree 2
# input variables 3
# output variables 4
# reload computed balance functions from file balance-1186of3248-p11d2m3-debug.log
# p = 11
# n = 4
# smalldomain p^m 1331
# domain p^n 14641
#	 p^2 = 121
#	 p^3 = 1331
#	 p^4 = 14641
#	 p^5 = 161051
#	 p^6 = 1771561
#	 p^7 = 19487171
#	 p^8 = 214358881
#	 p^9 = 2357947691
opening file : balance-1186of3248-p11d2m3-debug.log
reloading for step2...
7116005		 # 	collision with: 5 4 0 0  and 6 4 0 0 
7116007		 # 	collision with: 3 8 0 0  and 2 6 1 0 
7116017		 # 	collision with: 5 7 0 0  and 6 7 0 0 
7116019		 # 	collision with: 1 8 0 0  and 10 2 1 0 
7116049		 # 	collision with: 5 4 0 0  and 6 4 0 0 
7116051		 # 	collision with: 8 10 0 0  and 7 4 1 0 
7116061		 # 	collision with: 5 7 0 0  and 6 7 0 0 
7116063		 # 	collision with: 2 8 0 0  and 7 7 1 0 
7116165		 # 	collision with: 4 2 1 0  and 9 3 1 0 
7116167		 # 	collision with: 5 5 0 0  and 8 10 1 0 
7116217		 # 	collision with: 5 8 0 0  and 6 8 0 0 
7116219		 # 	collision with: 5 3 0 0  and 10 0 1 0 
7116245		 # 	collision with: 5 3 0 0  and 6 3 0 0 
7116247		 # 	collision with: 5 8 1 0  and 6 8 1 0 
7116252		 # 	collision with: 5 10 0 0  and 0 4 2 0 
7116254		 # 	collision with: 6 1 0 0  and 9 5 1 0 
7116265		 # 	collision with: 5 5 0 0  and 6 5 0 0 
7116267		 # 	collision with: 4 4 2 0  and 6 5 2 0 
7116285		 # 	collision with: 5 6 0 0  and 6 6 0 0 
7116287		 # 	collision with: 0 4 1 0  and 7 2 2 0 
7116305		 # 	collision with: 5 2 0 0  and 6 2 0 0 
7116307		 # 	collision with: 10 6 2 0  and 8 9 3 0 
7116333		 # 	collision with: 5 9 0 0  and 6 9 0 0 
7116335		 # 	collision with: 5 1 0 0  and 0 2 1 0 
7116341		 # 	collision with: 0 10 0 0  and 8 0 1 0 
7116343		 # 	collision with: 7 10 0 0  and 7 0 1 0 
7116489		 # 	collision with: 5 1 0 0  and 6 1 0 0 
7116491		 # 	collision with: 7 3 0 0  and 4 3 2 0 
7116501		 # 	collision with: 5 10 0 0  and 6 10 0 0 
7116503		 # 	collision with: 0 2 0 0  and 9 5 2 0 
7116533		 # 	collision with: 5 1 0 0  and 6 1 0 0 
7116535		 # 	collision with: 10 5 1 0  and 5 6 1 0 
7116545		 # 	collision with: 5 10 0 0  and 6 10 0 0 
7116547		 # 	collision with: 7 9 2 0  and 6 7 3 0 
7116649		 # 	collision with: 10 5 0 0  and 5 2 2 0 
7116651		 # 	collision with: 4 10 0 0  and 4 0 1 0 
7116701		 # 	collision with: 5 2 0 0  and 6 2 0 0 
7116703		 # 	collision with: 4 5 0 0  and 1 2 1 0 
7116729		 # 	collision with: 5 9 0 0  and 6 9 0 0 
7116731		 # 	collision with: 5 1 0 0  and 0 2 1 0 
7116736		 # 	collision with: 1 2 0 0  and 2 0 1 0 
7116738		 # 	collision with: 5 4 4 0  and 1 0 0 1 
7116749		 # 	collision with: 5 1 0 0  and 6 1 0 0 
7116751		 # 	collision with: 4 1 0 0  and 10 0 2 0 
7116769		 # 	collision with: 5 10 0 0  and 6 10 0 0 
7116771		 # 	collision with: 8 0 0 0  and 5 5 1 0 
7116789		 # 	collision with: 5 7 0 0  and 6 7 0 0 
7116791		 # 	collision with: 9 1 0 0  and 1 2 0 0 
7116817		 # 	collision with: 5 4 0 0  and 6 4 0 0 
7116819		 # 	collision with: 7 5 0 0  and 1 2 1 0 
7116825		 # 	collision with: 3 10 0 0  and 9 9 1 0 
7116827		 # 	collision with: 9 1 1 0  and 10 2 1 0 
7116973		 # 	collision with: 5 9 0 0  and 6 9 0 0 
7116985		 # 	collision with: 5 2 0 0  and 6 2 0 0 
7117017		 # 	collision with: 5 9 0 0  and 6 9 0 0 
7117019		 # 	collision with: 4 4 1 0  and 4 6 1 0 
7117029		 # 	collision with: 5 2 0 0  and 6 2 0 0 
7117031		 # 	collision with: 7 1 0 0  and 1 0 2 0 
7117133		 # 	collision with: 10 1 0 0  and 3 4 1 0 
7117135		 # 	collision with: 8 10 0 0  and 6 5 1 0 
7117185		 # 	collision with: 5 7 0 0  and 6 7 0 0 
7117187		 # 	collision with: 9 1 0 0  and 1 2 0 0 
7117213		 # 	collision with: 5 4 0 0  and 6 4 0 0 
7117215		 # 	collision with: 5 9 1 0  and 6 9 1 0 
7117220		 # 	collision with: 8 5 0 0  and 0 2 1 0 
7117222		 # 	collision with: 1 2 0 0  and 2 1 2 0 
7117233		 # 	collision with: 5 8 0 0  and 6 8 0 0 
7117235		 # 	collision with: 9 4 1 0  and 9 6 1 0 
7117253		 # 	collision with: 5 3 0 0  and 6 3 0 0 
7117255		 # 	collision with: 3 4 0 0  and 3 6 2 0 
7117273		 # 	collision with: 5 1 0 0  and 6 1 0 0 
7117275		 # 	collision with: 6 4 0 0  and 10 5 1 0 
7117301		 # 	collision with: 5 10 0 0  and 6 10 0 0 
7117303		 # 	collision with: 1 5 0 0  and 8 7 1 0 
7117309		 # 	collision with: 5 7 0 0  and 6 4 1 0 
7117311		 # 	collision with: 4 9 0 0  and 6 3 1 0 
7117457		 # 	collision with: 5 6 0 0  and 6 6 0 0 
7117459		 # 	collision with: 5 9 2 0  and 6 9 2 0 
7117469		 # 	collision with: 5 5 0 0  and 6 5 0 0 
7117471		 # 	collision with: 3 2 1 0  and 2 4 1 0 
7117501		 # 	collision with: 5 6 0 0  and 6 6 0 0 
7117503		 # 	collision with: 6 5 0 0  and 8 10 1 0 
7117513		 # 	collision with: 5 5 0 0  and 6 5 0 0 
7117515		 # 	collision with: 0 0 0 0  and 9 1 1 0 
7117617		 # 	collision with: 5 8 0 0  and 8 1 1 0 
7117619		 # 	collision with: 4 5 1 0  and 0 0 2 0 
7117669		 # 	collision with: 5 1 0 0  and 6 1 0 0 
7117671		 # 	collision with: 1 10 0 0  and 6 3 1 0 
7117697		 # 	collision with: 5 10 0 0  and 6 10 0 0 
7117699		 # 	collision with: 5 4 1 0  and 6 4 1 0 
7117704		 # 	collision with: 9 8 0 0  and 7 2 1 0 
7117706		 # 	collision with: 7 3 0 0  and 9 8 1 0 
7117717		 # 	collision with: 5 4 0 0  and 6 4 0 0 
7117719		 # 	collision with: 7 0 0 0  and 3 1 0 0 
7117737		 # 	collision with: 5 7 0 0  and 6 7 0 0 
7117739		 # 	collision with: 8 8 0 0  and 8 2 1 0 
7117757		 # 	collision with: 5 6 0 0  and 6 6 0 0 
7117759		 # 	collision with: 8 4 1 0  and 8 6 1 0 
7117785		 # 	collision with: 5 5 0 0  and 6 5 0 0 
7117787		 # 	collision with: 6 5 0 0  and 3 0 2 0 
7117793		 # 	collision with: 5 2 0 0  and 1 6 1 0 
7117795		 # 	collision with: 4 10 0 0  and 10 6 1 0 
7117941		 # 	collision with: 5 3 0 0  and 6 3 0 0 
7117943		 # 	collision with: 6 0 1 0  and 9 2 2 0 
7117953		 # 	collision with: 5 8 0 0  and 6 8 0 0 
7117955		 # 	collision with: 4 6 1 0  and 4 4 2 0 
7117985		 # 	collision with: 5 3 0 0  and 6 3 0 0 
7117987		 # 	collision with: 8 1 1 0  and 7 0 2 0 
7117997		 # 	collision with: 5 8 0 0  and 6 8 0 0 
7117999		 # 	collision with: 1 1 0 0  and 9 4 2 0 
7118101		 # 	collision with: 0 7 1 0  and 8 2 3 0 
7118153		 # 	collision with: 5 6 0 0  and 6 6 0 0 
7118155		 # 	collision with: 5 1 1 0  and 6 1 1 0 
7118181		 # 	collision with: 5 5 0 0  and 6 5 0 0 
7118183		 # 	collision with: 5 10 1 0  and 6 10 1 0 
7118250		 # 	collision with: 8 3 0 0  and 2 4 0 0 
7118262		 # 	collision with: 3 0 0 0  and 7 1 0 0 
7118279		 # 	collision with: 5 3 0 0  and 3 6 1 0 
7118290		 # 	collision with: 6 1 0 0  and 4 3 0 0 
7118310		 # 	collision with: 1 1 0 0  and 9 2 0 0 
7118326		 # 	collision with: 6 4 0 0  and 6 6 0 0 
7118343		 # 	collision with: 7 3 0 0  and 0 4 1 0 
7118347		 # 	collision with: 6 0 0 0  and 10 3 1 0 
7118362		 # 	collision with: 2 2 0 0  and 8 4 0 0 
7118383		 # 	collision with: 8 6 0 0  and 9 8 1 0 
7118386		 # 	collision with: 10 4 0 0  and 10 6 0 0 
7118390		 # 	collision with: 1 4 0 0  and 1 6 0 0 
7118395		 # 	collision with: 4 5 0 0  and 6 6 0 0 
7118418		 # 	collision with: 3 4 0 0  and 3 6 0 0 
7118446		 # 	collision with: 8 4 0 0  and 8 6 0 0 
7118462		 # 	collision with: 3 4 0 0  and 3 6 0 0 
7118490		 # 	collision with: 8 4 0 0  and 8 6 0 0 
7118515		 # 	collision with: 5 7 0 0  and 6 3 1 0 
7118518		 # 	collision with: 10 4 0 0  and 10 6 0 0 
7118522		 # 	collision with: 1 4 0 0  and 1 6 0 0 
7118527		 # 	collision with: 4 5 0 0  and 6 6 0 0 
7118546		 # 	collision with: 6 4 0 0  and 6 6 0 0 
7118563		 # 	collision with: 7 3 0 0  and 0 4 1 0 
7118567		 # 	collision with: 1 4 2 0  and 1 6 2 0 
7118582		 # 	collision with: 2 2 0 0  and 8 4 0 0 
7118587		 # 	collision with: 3 9 0 0  and 1 8 1 0 
7118598		 # 	collision with: 6 1 0 0  and 4 3 0 0 
7118618		 # 	collision with: 1 1 0 0  and 9 2 0 0 
7118646		 # 	collision with: 8 3 0 0  and 2 4 0 0 
7118658		 # 	collision with: 3 0 0 0  and 7 1 0 0 
7118672		 # 	collision with: 9 8 0 0  and 5 2 1 0 
7118674		 # 	collision with: 9 3 0 0  and 7 8 1 0 
7118732		 # 	collision with: 5 8 0 0  and 6 8 0 0 
7118734		 # 	collision with: 10 7 0 0  and 10 3 2 0 
7118744		 # 	collision with: 5 3 0 0  and 6 3 0 0 
7118746		 # 	collision with: 6 0 0 0  and 3 5 2 0 
7118761		 # 	collision with: 5 4 2 0  and 6 7 3 0 
7118772		 # 	collision with: 5 7 0 0  and 6 7 0 0 
7118792		 # 	collision with: 5 4 0 0  and 6 4 0 0 
7118808		 # 	collision with: 5 10 0 0  and 6 10 0 0 
7118810		 # 	collision with: 10 8 0 0  and 3 1 1 0 
7118825		 # 	collision with: 5 2 0 0  and 6 2 0 0 
7118827		 # 	collision with: 10 4 0 0  and 10 6 0 0 
7118829		 # 	collision with: 5 9 0 0  and 6 9 0 0 
7118831		 # 	collision with: 1 4 0 0  and 1 6 0 0 
7118844		 # 	collision with: 5 1 0 0  and 6 1 0 0 
7118846		 # 	collision with: 4 6 0 0  and 10 0 1 0 
7118865		 # 	collision with: 5 8 0 0  and 6 8 0 0 
7118867		 # 	collision with: 7 4 0 0  and 7 6 0 0 
7118868		 # 	collision with: 5 2 0 0  and 6 2 0 0 
7118870		 # 	collision with: 8 0 0 0  and 8 10 1 0 
7118872		 # 	collision with: 5 9 0 0  and 6 9 0 0 
7118874		 # 	collision with: 9 0 1 0  and 5 2 2 0 
7118877		 # 	collision with: 5 3 0 0  and 6 3 0 0 
7118879		 # 	collision with: 4 4 0 0  and 4 6 0 0 
7118900		 # 	collision with: 5 5 0 0  and 6 5 0 0 
7118902		 # 	collision with: 2 4 0 0  and 3 3 1 0 
7118928		 # 	collision with: 5 6 0 0  and 6 6 0 0 
7118930		 # 	collision with: 5 0 2 0  and 6 0 2 0 
7118944		 # 	collision with: 5 5 0 0  and 6 5 0 0 
7118946		 # 	collision with: 5 3 1 0  and 6 7 2 0 
7118972		 # 	collision with: 5 6 0 0  and 6 6 0 0 
7118974		 # 	collision with: 10 4 2 0  and 1 4 3 0 
7118997		 # 	collision with: 5 8 0 0  and 6 8 0 0 
7118999		 # 	collision with: 7 4 0 0  and 7 6 0 0 
7119000		 # 	collision with: 5 2 0 0  and 6 2 0 0 
7119002		 # 	collision with: 9 2 0 0  and 0 5 2 0 
7119004		 # 	collision with: 5 9 0 0  and 6 9 0 0 
7119006		 # 	collision with: 1 10 0 0  and 7 4 2 0 
7119009		 # 	collision with: 5 3 0 0  and 6 3 0 0 
7119011		 # 	collision with: 4 4 0 0  and 4 6 0 0 
7119028		 # 	collision with: 5 10 0 0  and 6 10 0 0 
7119030		 # 	collision with: 3 1 0 0  and 0 3 1 0 
7119045		 # 	collision with: 5 2 0 0  and 6 2 0 0 
7119047		 # 	collision with: 10 4 0 0  and 10 6 0 0 
7119049		 # 	collision with: 5 9 0 0  and 6 9 0 0 
7119051		 # 	collision with: 1 4 0 0  and 1 6 0 0 
7119064		 # 	collision with: 5 1 0 0  and 6 1 0 0 
7119066		 # 	collision with: 10 6 0 0  and 1 6 1 0 
7119069		 # 	collision with: 0 6 1 0  and 2 1 2 0 
7119071		 # 	collision with: 5 3 0 0  and 9 8 1 0 
7119080		 # 	collision with: 5 7 0 0  and 6 7 0 0 
7119082		 # 	collision with: 2 2 0 0  and 4 0 2 0 
7119100		 # 	collision with: 5 4 0 0  and 6 4 0 0 
7119102		 # 	collision with: 0 3 0 0  and 1 2 2 0 
7119128		 # 	collision with: 5 8 0 0  and 6 8 0 0 
7119130		 # 	collision with: 5 0 1 0  and 6 0 1 0 
7119140		 # 	collision with: 5 3 0 0  and 6 3 0 0 
7119142		 # 	collision with: 5 0 1 0  and 6 0 1 0 
7119156		 # 	collision with: 4 5 0 0  and 6 2 1 0 
7119158		 # 	collision with: 5 2 0 0  and 2 10 1 0 
7119216		 # 	collision with: 5 5 0 0  and 6 5 0 0 
7119218		 # 	collision with: 9 4 0 0  and 9 4 1 0 
7119228		 # 	collision with: 5 6 0 0  and 6 6 0 0 
7119230		 # 	collision with: 9 7 0 0  and 9 7 1 0 
7119245		 # 	collision with: 7 2 0 0  and 5 4 1 0 
7119247		 # 	collision with: 5 6 0 0  and 6 4 2 0 
7119256		 # 	collision with: 5 3 0 0  and 6 3 0 0 
7119258		 # 	collision with: 3 10 0 0  and 2 5 1 0 
7119276		 # 	collision with: 5 8 0 0  and 6 8 0 0 
7119278		 # 	collision with: 10 2 0 0  and 10 2 1 0 
7119292		 # 	collision with: 5 9 0 0  and 6 9 0 0 
7119294		 # 	collision with: 4 2 0 0  and 9 3 1 0 
7119309		 # 	collision with: 5 4 0 0  and 6 4 0 0 
7119311		 # 	collision with: 4 8 0 0  and 9 3 2 0 
7119313		 # 	collision with: 5 7 0 0  and 6 7 0 0 
7119315		 # 	collision with: 0 3 0 0  and 10 2 1 0 
7119328		 # 	collision with: 5 2 0 0  and 6 2 0 0 
7119330		 # 	collision with: 3 6 0 0  and 3 6 1 0 
7119349		 # 	collision with: 5 5 0 0  and 6 5 0 0 
7119352		 # 	collision with: 5 4 0 0  and 6 4 0 0 
7119356		 # 	collision with: 5 7 0 0  and 6 7 0 0 
7119361		 # 	collision with: 5 6 0 0  and 6 6 0 0 
7119384		 # 	collision with: 5 10 0 0  and 6 10 0 0 
7119386		 # 	collision with: 1 9 0 0  and 5 3 1 0 
7119412		 # 	collision with: 5 1 0 0  and 6 1 0 0 
7119414		 # 	collision with: 6 3 0 0  and 4 0 1 0 
7119428		 # 	collision with: 5 10 0 0  and 6 10 0 0 
7119430		 # 	collision with: 7 8 0 0  and 7 8 1 0 
7119456		 # 	collision with: 5 1 0 0  and 6 1 0 0 
7119458		 # 	collision with: 7 3 0 0  and 7 3 1 0 
7119481		 # 	collision with: 5 5 0 0  and 6 5 0 0 
7119483		 # 	collision with: 9 8 1 0  and 6 3 2 0 
7119484		 # 	collision with: 5 4 0 0  and 6 4 0 0 
7119486		 # 	collision with: 6 1 0 0  and 6 1 1 0 
7119488		 # 	collision with: 5 7 0 0  and 6 7 0 0 
7119490		 # 	collision with: 6 10 0 0  and 6 10 1 0 
7119493		 # 	collision with: 5 6 0 0  and 6 6 0 0 
7119495		 # 	collision with: 3 7 0 0  and 2 6 1 0 
7119512		 # 	collision with: 5 9 0 0  and 6 9 0 0 
7119514		 # 	collision with: 8 5 0 0  and 8 5 1 0 
7119529		 # 	collision with: 5 4 0 0  and 6 4 0 0 
7119531		 # 	collision with: 10 9 0 0  and 4 10 1 0 
7119533		 # 	collision with: 5 7 0 0  and 6 7 0 0 
7119535		 # 	collision with: 10 9 0 0  and 7 10 2 0 
7119548		 # 	collision with: 5 2 0 0  and 6 2 0 0 
7119550		 # 	collision with: 8 6 0 0  and 8 6 1 0 
7119553		 # 	collision with: 7 0 1 0  and 3 3 2 0 
7119555		 # 	collision with: 4 0 1 0  and 6 3 2 0 
7119564		 # 	collision with: 5 3 0 0  and 6 3 0 0 
7119566		 # 	collision with: 1 9 0 0  and 1 9 1 0 
7119584		 # 	collision with: 5 8 0 0  and 6 8 0 0 
7119586		 # 	collision with: 1 2 0 0  and 1 2 1 0 
7119612		 # 	collision with: 5 5 0 0  and 6 5 0 0 
7119614		 # 	collision with: 2 4 0 0  and 2 4 1 0 
7119624		 # 	collision with: 5 6 0 0  and 6 6 0 0 
7119626		 # 	collision with: 5 3 1 0  and 6 3 1 0 
7119640		 # 	collision with: 10 2 0 0  and 3 0 1 0 
7119642		 # 	collision with: 4 10 0 0  and 2 8 1 0 
7119700		 # 	collision with: 5 2 0 0  and 6 2 0 0 
7119702		 # 	collision with: 10 1 1 0  and 3 4 2 0 
7119712		 # 	collision with: 5 9 0 0  and 6 9 0 0 
7119714		 # 	collision with: 0 5 0 0  and 2 2 1 0 
7119729		 # 	collision with: 2 4 0 0  and 1 1 2 0 
7119731		 # 	collision with: 5 7 0 0  and 7 10 1 0 
7119740		 # 	collision with: 5 10 0 0  and 6 10 0 0 
7119742		 # 	collision with: 3 6 0 0  and 9 2 1 0 
7119760		 # 	collision with: 5 1 0 0  and 6 1 0 0 
7119762		 # 	collision with: 10 1 1 0  and 9 2 1 0 
7119776		 # 	collision with: 5 8 0 0  and 6 8 0 0 
7119778		 # 	collision with: 9 4 0 0  and 3 7 1 0 
7119793		 # 	collision with: 5 6 0 0  and 6 6 0 0 
7119795		 # 	collision with: 4 7 0 0  and 6 1 1 0 
7119797		 # 	collision with: 5 5 0 0  and 6 5 0 0 
7119799		 # 	collision with: 3 10 0 0  and 8 10 1 0 
7119812		 # 	collision with: 5 3 0 0  and 6 3 0 0 
7119814		 # 	collision with: 9 4 0 0  and 3 3 1 0 
7119833		 # 	collision with: 5 2 0 0  and 6 2 0 0 
7119835		 # 	collision with: 4 6 1 0  and 4 4 2 0 
7119836		 # 	collision with: 5 6 0 0  and 6 6 0 0 
7119838		 # 	collision with: 2 2 0 0  and 2 2 2 0 
7119840		 # 	collision with: 5 5 0 0  and 6 5 0 0 
7119842		 # 	collision with: 5 3 0 0  and 8 4 1 0 
7119845		 # 	collision with: 5 9 0 0  and 6 9 0 0 
7119847		 # 	collision with: 5 2 1 0  and 2 10 2 0 
7119868		 # 	collision with: 5 4 0 0  and 6 4 0 0 
7119870		 # 	collision with: 4 10 0 0  and 6 7 1 0 
7119896		 # 	collision with: 5 7 0 0  and 6 7 0 0 
7119898		 # 	collision with: 8 0 0 0  and 9 5 1 0 
7119912		 # 	collision with: 5 4 0 0  and 6 4 0 0 
7119940		 # 	collision with: 5 7 0 0  and 6 7 0 0 
7119965		 # 	collision with: 5 2 0 0  and 6 2 0 0 
7119967		 # 	collision with: 8 4 1 0  and 2 2 2 0 
7119968		 # 	collision with: 5 6 0 0  and 6 6 0 0 
7119970		 # 	collision with: 9 0 0 0  and 5 2 1 0 
7119972		 # 	collision with: 5 5 0 0  and 6 5 0 0 
7119974		 # 	collision with: 10 6 1 0  and 2 9 2 0 
7119977		 # 	collision with: 5 9 0 0  and 6 9 0 0 
7119979		 # 	collision with: 4 0 1 0  and 10 1 1 0 
7119996		 # 	collision with: 5 8 0 0  and 6 8 0 0 
7119998		 # 	collision with: 1 10 0 0  and 1 10 2 0 
7120013		 # 	collision with: 5 6 0 0  and 6 6 0 0 
7120015		 # 	collision with: 7 6 1 0  and 1 0 2 0 
7120017		 # 	collision with: 5 5 0 0  and 6 5 0 0 
7120019		 # 	collision with: 2 2 0 0  and 4 10 2 0 
7120032		 # 	collision with: 5 3 0 0  and 6 3 0 0 
7120034		 # 	collision with: 1 1 0 0  and 1 1 2 0 
7120037		 # 	collision with: 10 6 0 0  and 4 1 1 0 
7120039		 # 	collision with: 4 9 0 0  and 9 5 2 0 
7120048		 # 	collision with: 5 10 0 0  and 6 10 0 0 
7120050		 # 	collision with: 8 6 1 0  and 2 2 2 0 
7120068		 # 	collision with: 5 1 0 0  and 6 1 0 0 
7120070		 # 	collision with: 3 3 1 0  and 9 4 1 0 
7120096		 # 	collision with: 5 2 0 0  and 6 2 0 0 
7120098		 # 	collision with: 5 5 1 0  and 6 5 1 0 
7120108		 # 	collision with: 5 9 0 0  and 6 9 0 0 
7120110		 # 	collision with: 3 9 0 0  and 3 1 1 0 
7120124		 # 	collision with: 7 1 0 0  and 1 5 1 0 
7120126		 # 	collision with: 9 2 1 0  and 6 3 2 0 
7120184		 # 	collision with: 5 10 0 0  and 6 10 0 0 
7120186		 # 	collision with: 7 1 1 0  and 7 1 2 0 
7120196		 # 	collision with: 5 1 0 0  and 6 1 0 0 
7120198		 # 	collision with: 4 4 1 0  and 4 6 1 0 
7120213		 # 	collision with: 2 8 1 0  and 5 2 2 0 
7120215		 # 	collision with: 7 7 0 0  and 5 1 1 0 
7120224		 # 	collision with: 5 6 0 0  and 6 6 0 0 
7120226		 # 	collision with: 9 5 1 0  and 9 5 2 0 
7120244		 # 	collision with: 5 5 0 0  and 6 5 0 0 
7120246		 # 	collision with: 5 7 0 0  and 7 0 1 0 
7120260		 # 	collision with: 5 7 0 0  and 6 7 0 0 
7120262		 # 	collision with: 4 0 0 0  and 1 1 1 0 
7120277		 # 	collision with: 5 8 0 0  and 6 8 0 0 
7120279		 # 	collision with: 2 8 0 0  and 5 7 1 0 
7120281		 # 	collision with: 5 3 0 0  and 6 3 0 0 
7120283		 # 	collision with: 3 0 1 0  and 4 1 1 0 
7120296		 # 	collision with: 5 4 0 0  and 6 4 0 0 
7120298		 # 	collision with: 7 0 0 0  and 10 9 1 0 
7120317		 # 	collision with: 5 10 0 0  and 6 10 0 0 
7120319		 # 	collision with: 0 6 0 0  and 5 9 1 0 
7120320		 # 	collision with: 5 8 0 0  and 6 8 0 0 
7120322		 # 	collision with: 8 4 0 0  and 3 6 1 0 
7120324		 # 	collision with: 5 3 0 0  and 6 3 0 0 
7120326		 # 	collision with: 10 6 0 0  and 10 4 1 0 
7120329		 # 	collision with: 5 1 0 0  and 6 1 0 0 
7120331		 # 	collision with: 8 3 0 0  and 2 4 0 0 
7120352		 # 	collision with: 5 9 0 0  and 6 9 0 0 
7120354		 # 	collision with: 2 8 1 0  and 10 1 2 0 
7120380		 # 	collision with: 5 2 0 0  and 6 2 0 0 
7120382		 # 	collision with: 0 6 0 0  and 6 1 2 0 
7120396		 # 	collision with: 5 9 0 0  and 6 9 0 0 
7120398		 # 	collision with: 3 2 1 0  and 3 2 2 0 
7120424		 # 	collision with: 5 2 0 0  and 6 2 0 0 
7120426		 # 	collision with: 10 5 0 0  and 2 7 1 0 
7120449		 # 	collision with: 5 10 0 0  and 6 10 0 0 
7120451		 # 	collision with: 1 1 1 0  and 2 2 1 0 
7120452		 # 	collision with: 5 8 0 0  and 6 8 0 0 
7120454		 # 	collision with: 10 7 0 0  and 6 0 1 0 
7120456		 # 	collision with: 5 3 0 0  and 6 3 0 0 
7120458		 # 	collision with: 10 9 0 0  and 6 3 1 0 
7120461		 # 	collision with: 5 1 0 0  and 6 1 0 0 
7120463		 # 	collision with: 8 3 0 0  and 2 4 0 0 
7120480		 # 	collision with: 5 7 0 0  and 6 7 0 0 
7120497		 # 	collision with: 5 8 0 0  and 6 8 0 0 
7120501		 # 	collision with: 5 3 0 0  and 6 3 0 0 
7120516		 # 	collision with: 5 4 0 0  and 6 4 0 0 
7120521		 # 	collision with: 3 0 0 0  and 5 6 1 0 
7120523		 # 	collision with: 10 1 0 0  and 3 4 1 0 
7120532		 # 	collision with: 5 6 0 0  and 6 6 0 0 
7120534		 # 	collision with: 3 4 0 0  and 6 3 1 0 
7120552		 # 	collision with: 5 5 0 0  and 6 5 0 0 
7120554		 # 	collision with: 3 8 0 0  and 6 4 1 0 
7120580		 # 	collision with: 5 10 0 0  and 6 10 0 0 
7120582		 # 	collision with: 5 2 1 0  and 6 2 1 0 
7120592		 # 	collision with: 5 1 0 0  and 6 1 0 0 
7120594		 # 	collision with: 4 4 1 0  and 4 6 1 0 
7120608		 # 	collision with: 3 9 0 0  and 2 10 1 0 
7120610		 # 	collision with: 10 8 0 0  and 3 1 2 0 
7120668		 # 	collision with: 5 7 0 0  and 6 7 0 0 
7120670		 # 	collision with: 5 3 0 0  and 1 1 1 0 
7120680		 # 	collision with: 5 4 0 0  and 6 4 0 0 
7120682		 # 	collision with: 6 10 0 0  and 6 0 1 0 
7120697		 # 	collision with: 4 2 1 0  and 5 4 1 0 
7120699		 # 	collision with: 2 4 1 0  and 3 7 2 0 
7120708		 # 	collision with: 5 2 0 0  and 6 2 0 0 
7120710		 # 	collision with: 3 10 0 0  and 3 0 1 0 
7120728		 # 	collision with: 5 9 0 0  and 6 9 0 0 
7120730		 # 	collision with: 9 9 0 0  and 2 1 2 0 
7120744		 # 	collision with: 5 6 0 0  and 6 6 0 0 
7120746		 # 	collision with: 2 4 0 0  and 2 6 1 0 
7120761		 # 	collision with: 5 10 0 0  and 6 10 0 0 
7120763		 # 	collision with: 2 5 0 0  and 7 1 1 0 
7120765		 # 	collision with: 5 1 0 0  and 6 1 0 0 
7120767		 # 	collision with: 2 2 0 0  and 8 4 0 0 
7120780		 # 	collision with: 5 5 0 0  and 6 5 0 0 
7120782		 # 	collision with: 2 10 0 0  and 2 0 1 0 
7120801		 # 	collision with: 5 7 0 0  and 6 7 0 0 
7120803		 # 	collision with: 0 5 0 0  and 9 2 1 0 
7120804		 # 	collision with: 5 10 0 0  and 6 10 0 0 
7120806		 # 	collision with: 3 0 1 0  and 4 1 2 0 
7120808		 # 	collision with: 5 1 0 0  and 6 1 0 0 
7120810		 # 	collision with: 7 10 0 0  and 7 0 1 0 
7120813		 # 	collision with: 5 4 0 0  and 6 4 0 0 
7120815		 # 	collision with: 4 4 1 0  and 4 6 1 0 
7120836		 # 	collision with: 5 3 0 0  and 6 3 0 0 
7120838		 # 	collision with: 10 10 0 0  and 10 0 1 0 
7120864		 # 	collision with: 5 8 0 0  and 6 8 0 0 
7120866		 # 	collision with: 7 2 0 0  and 1 5 1 0 
7120880		 # 	collision with: 5 3 0 0  and 6 3 0 0 
7120882		 # 	collision with: 1 9 0 0  and 8 6 2 0 
7120908		 # 	collision with: 5 8 0 0  and 6 8 0 0 
7120910		 # 	collision with: 1 10 0 0  and 1 0 1 0 
7120933		 # 	collision with: 5 7 0 0  and 6 7 0 0 
7120935		 # 	collision with: 8 1 1 0  and 3 1 2 0 
7120936		 # 	collision with: 5 10 0 0  and 6 10 0 0 
7120938		 # 	collision with: 4 10 0 0  and 4 0 1 0 
7120940		 # 	collision with: 5 1 0 0  and 6 1 0 0 
7120942		 # 	collision with: 1 4 1 0  and 1 6 1 0 
7120945		 # 	collision with: 5 4 0 0  and 6 4 0 0 
7120947		 # 	collision with: 2 5 0 0  and 3 0 1 0 
7120964		 # 	collision with: 5 6 0 0  and 6 6 0 0 
7120966		 # 	collision with: 9 10 0 0  and 9 0 1 0 
7120981		 # 	collision with: 5 10 0 0  and 6 10 0 0 
7120983		 # 	collision with: 6 7 0 0  and 10 1 2 0 
7120985		 # 	collision with: 5 1 0 0  and 6 1 0 0 
7120987		 # 	collision with: 2 2 0 0  and 8 4 0 0 
7121000		 # 	collision with: 5 5 0 0  and 6 5 0 0 
7121002		 # 	collision with: 1 8 1 0  and 3 1 2 0 
7121005		 # 	collision with: 9 8 0 0  and 6 2 2 0 
7121007		 # 	collision with: 8 4 1 0  and 4 10 2 0 
7121016		 # 	collision with: 5 2 0 0  and 6 2 0 0 
7121018		 # 	collision with: 2 6 0 0  and 8 3 1 0 
7121036		 # 	collision with: 5 9 0 0  and 6 9 0 0 
7121038		 # 	collision with: 8 10 0 0  and 8 0 1 0 
7121064		 # 	collision with: 5 7 0 0  and 6 7 0 0 
7121076		 # 	collision with: 5 4 0 0  and 6 4 0 0 
7121092		 # 	collision with: 2 10 0 0  and 8 9 1 0 
7121094		 # 	collision with: 8 9 0 0  and 10 8 1 0 
7121152		 # 	collision with: 5 4 0 0  and 6 4 0 0 
7121164		 # 	collision with: 5 7 0 0  and 6 7 0 0 
7121181		 # 	collision with: 8 8 1 0  and 6 10 2 0 
7121183		 # 	collision with: 2 10 0 0  and 2 0 1 0 
7121192		 # 	collision with: 5 9 0 0  and 6 9 0 0 
7121194		 # 	collision with: 2 6 0 0  and 8 7 1 0 
7121212		 # 	collision with: 5 2 0 0  and 6 2 0 0 
7121214		 # 	collision with: 2 4 0 0  and 9 4 2 0 
7121228		 # 	collision with: 5 5 0 0  and 6 5 0 0 
7121230		 # 	collision with: 10 7 0 0  and 8 5 2 0 
7121245		 # 	collision with: 5 1 0 0  and 6 1 0 0 
7121247		 # 	collision with: 8 1 0 0  and 3 1 1 0 
7121249		 # 	collision with: 5 10 0 0  and 6 10 0 0 
7121251		 # 	collision with: 1 4 1 0  and 1 6 1 0 
7121264		 # 	collision with: 5 6 0 0  and 6 6 0 0 
7121266		 # 	collision with: 1 9 0 0  and 9 2 2 0 
7121285		 # 	collision with: 5 4 0 0  and 6 4 0 0 
7121287		 # 	collision with: 0 4 1 0  and 5 1 3 0 
7121288		 # 	collision with: 5 1 0 0  and 6 1 0 0 
7121290		 # 	collision with: 1 1 0 0  and 7 0 1 0 
7121292		 # 	collision with: 5 10 0 0  and 6 10 0 0 
7121294		 # 	collision with: 5 0 0 0  and 3 5 1 0 
7121297		 # 	collision with: 5 7 0 0  and 6 7 0 0 
7121299		 # 	collision with: 9 8 0 0  and 9 2 2 0 
7121320		 # 	collision with: 5 8 0 0  and 6 8 0 0 
7121322		 # 	collision with: 3 6 0 0  and 10 1 1 0 
7121348		 # 	collision with: 5 3 0 0  and 6 3 0 0 
7121350		 # 	collision with: 2 2 0 0  and 5 7 1 0 
7121364		 # 	collision with: 5 8 0 0  and 6 8 0 0 
7121366		 # 	collision with: 1 6 0 0  and 2 1 1 0 
7121392		 # 	collision with: 5 3 0 0  and 6 3 0 0 
7121394		 # 	collision with: 10 1 1 0  and 4 0 3 0 
7121417		 # 	collision with: 5 4 0 0  and 6 4 0 0 
7121419		 # 	collision with: 2 3 1 0  and 7 2 2 0 
7121420		 # 	collision with: 5 1 0 0  and 6 1 0 0 
7121422		 # 	collision with: 9 0 1 0  and 5 2 1 0 
7121424		 # 	collision with: 5 10 0 0  and 6 10 0 0 
7121426		 # 	collision with: 3 6 1 0  and 6 3 2 0 
7121429		 # 	collision with: 5 7 0 0  and 6 7 0 0 
7121431		 # 	collision with: 7 2 0 0  and 9 3 2 0 
7121448		 # 	collision with: 5 5 0 0  and 6 5 0 0 
7121450		 # 	collision with: 2 8 1 0  and 2 2 2 0 
7121465		 # 	collision with: 5 1 0 0  and 6 1 0 0 
7121467		 # 	collision with: 7 5 1 0  and 6 6 1 0 
7121469		 # 	collision with: 5 10 0 0  and 6 10 0 0 
7121471		 # 	collision with: 1 4 1 0  and 1 6 1 0 
7121484		 # 	collision with: 5 6 0 0  and 6 6 0 0 
7121486		 # 	collision with: 8 4 0 0  and 2 8 1 0 
7121489		 # 	collision with: 8 8 0 0  and 6 1 1 0 
7121491		 # 	collision with: 9 10 0 0  and 9 0 1 0 
7121500		 # 	collision with: 5 9 0 0  and 6 9 0 0 
7121502		 # 	collision with: 7 1 0 0  and 3 0 1 0 
7121520		 # 	collision with: 5 2 0 0  and 6 2 0 0 
7121522		 # 	collision with: 7 9 0 0  and 9 5 1 0 
7121548		 # 	collision with: 5 4 0 0  and 6 4 0 0 
7121550		 # 	collision with: 5 7 1 0  and 6 7 1 0 
7121560		 # 	collision with: 5 7 0 0  and 6 7 0 0 
7121562		 # 	collision with: 10 1 0 0  and 7 0 1 0 
7121576		 # 	collision with: 1 7 1 0  and 7 6 2 0 
7121578		 # 	collision with: 6 5 0 0  and 9 1 1 0 
7121636		 # 	collision with: 5 1 0 0  and 6 1 0 0 
7121638		 # 	collision with: 9 0 1 0  and 0 1 1 0 
7121648		 # 	collision with: 5 10 0 0  and 6 10 0 0 
7121650		 # 	collision with: 8 4 1 0  and 3 6 2 0 
7121665		 # 	collision with: 1 2 0 0  and 6 6 1 0 
7121667		 # 	collision with: 8 1 1 0  and 0 3 1 0 
7121676		 # 	collision with: 5 5 0 0  and 6 5 0 0 
7121678		 # 	collision with: 10 8 1 0  and 3 9 2 0 
7121696		 # 	collision with: 5 6 0 0  and 6 6 0 0 
7121698		 # 	collision with: 0 7 0 0  and 1 8 1 0 
7121712		 # 	collision with: 5 4 0 0  and 6 4 0 0 
7121729		 # 	collision with: 5 3 0 0  and 6 3 0 0 
7121733		 # 	collision with: 5 8 0 0  and 6 8 0 0 
7121748		 # 	collision with: 5 7 0 0  and 6 7 0 0 
7121769		 # 	collision with: 5 1 0 0  and 6 1 0 0 
7121771		 # 	collision with: 3 6 1 0  and 10 9 2 0 
7121772		 # 	collision with: 5 3 0 0  and 6 3 0 0 
7121774		 # 	collision with: 1 2 0 0  and 1 8 1 0 
7121776		 # 	collision with: 5 8 0 0  and 6 8 0 0 
7121778		 # 	collision with: 7 6 1 0  and 0 2 2 0 
7121781		 # 	collision with: 5 10 0 0  and 6 10 0 0 
7121783		 # 	collision with: 10 5 0 0  and 4 2 1 0 
7121804		 # 	collision with: 5 2 0 0  and 6 2 0 0 
7121806		 # 	collision with: 5 2 1 0  and 2 0 2 0 
7121832		 # 	collision with: 5 9 0 0  and 6 9 0 0 
7121834		 # 	collision with: 4 10 0 0  and 8 4 1 0 
7121848		 # 	collision with: 5 2 0 0  and 6 2 0 0 
7121850		 # 	collision with: 0 5 0 0  and 7 0 2 0 
7121876		 # 	collision with: 5 9 0 0  and 6 9 0 0 
7121878		 # 	collision with: 2 8 0 0  and 7 10 1 0 
7121901		 # 	collision with: 5 1 0 0  and 6 1 0 0 
7121903		 # 	collision with: 5 1 1 0  and 0 6 2 0 
7121904		 # 	collision with: 5 3 0 0  and 6 3 0 0 
7121906		 # 	collision with: 0 6 0 0  and 4 3 1 0 
7121908		 # 	collision with: 5 8 0 0  and 6 8 0 0 
7121910		 # 	collision with: 2 0 0 0  and 5 8 1 0 
7121913		 # 	collision with: 5 10 0 0  and 6 10 0 0 
7121915		 # 	collision with: 2 8 0 0  and 1 1 1 0 
7121932		 # 	collision with: 5 4 0 0  and 6 4 0 0 
7121934		 # 	collision with: 10 2 0 0  and 8 1 1 0 
7121949		 # 	collision with: 5 3 0 0  and 6 3 0 0 
7121951		 # 	collision with: 6 1 0 0  and 4 3 0 0 
7121953		 # 	collision with: 5 8 0 0  and 6 8 0 0 
7121955		 # 	collision with: 3 7 0 0  and 8 3 1 0 
7121968		 # 	collision with: 5 7 0 0  and 6 7 0 0 
7121970		 # 	collision with: 0 7 0 0  and 8 9 1 0 
7121973		 # 	collision with: 2 8 0 0  and 3 1 2 0 
7121975		 # 	collision with: 4 0 0 0  and 4 10 1 0 
7121984		 # 	collision with: 5 5 0 0  and 6 5 0 0 
7121986		 # 	collision with: 6 7 0 0  and 10 1 1 0 
17.7716secs	8576
