# prime 11
# degree 2
# input variables 3
# output variables 4
# reload computed balance functions from file balance-2793of3248-p11d2m3-debug.log
# p = 11
# n = 4
# smalldomain p^m 1331
# domain p^n 14641
#	 p^2 = 121
#	 p^3 = 1331
#	 p^4 = 14641
#	 p^5 = 161051
#	 p^6 = 1771561
#	 p^7 = 19487171
#	 p^8 = 214358881
#	 p^9 = 2357947691
opening file : balance-2793of3248-p11d2m3-debug.log
reloading for step2...
16758000		 # 	collision with: 3 10 0 0  and 5 0 1 0 
16758002		 # 	collision with: 6 7 0 0  and 5 2 1 0 
16758005		 # 	collision with: 3 2 0 0  and 0 8 1 0 
16758007		 # 	collision with: 3 2 0 0  and 3 3 0 0 
16758016		 # 	collision with: 6 10 0 0  and 7 3 1 0 
16758018		 # 	collision with: 3 7 0 0  and 1 0 1 0 
16758025		 # 	collision with: 8 10 0 0  and 4 0 1 0 
16758027		 # 	collision with: 3 0 1 0  and 0 2 2 0 
16758073		 # 	collision with: 9 0 0 0  and 0 3 1 0 
16758075		 # 	collision with: 9 7 1 0  and 3 4 2 0 
16758076		 # 	collision with: 3 7 0 0  and 5 2 1 0 
16758078		 # 	collision with: 6 2 1 0  and 6 3 1 0 
16758088		 # 	collision with: 5 2 1 0  and 9 1 2 0 
16758090		 # 	collision with: 4 2 0 0  and 4 3 1 0 
16758093		 # 	collision with: 9 8 0 0  and 5 1 1 0 
16758095		 # 	collision with: 9 1 0 0  and 7 3 0 0 
16758116		 # 	collision with: 2 6 0 0  and 8 7 1 0 
16758118		 # 	collision with: 3 4 0 0  and 2 10 1 0 
16758136		 # 	collision with: 2 7 0 0  and 2 4 2 0 
16758138		 # 	collision with: 2 6 1 0  and 2 6 2 0 
16758152		 # 	collision with: 8 10 0 0  and 0 4 1 0 
16758154		 # 	collision with: 6 7 0 0  and 7 0 1 0 
16758165		 # 	collision with: 2 1 0 0  and 9 3 0 0 
16758167		 # 	collision with: 10 1 0 0  and 4 6 1 0 
16758177		 # 	collision with: 10 9 0 0  and 3 5 1 0 
16758179		 # 	collision with: 4 9 0 0  and 1 5 1 0 
16758188		 # 	collision with: 5 8 0 0  and 5 3 1 0 
16758212		 # 	collision with: 10 2 0 0  and 8 9 1 0 
16758214		 # 	collision with: 4 7 0 0  and 1 0 1 0 
16758216		 # 	collision with: 8 9 1 0  and 1 0 2 0 
16758218		 # 	collision with: 8 6 0 0  and 4 2 1 0 
16758244		 # 	collision with: 2 7 0 0  and 7 0 1 0 
16758246		 # 	collision with: 2 10 0 0  and 5 6 1 0 
16758274		 # 	collision with: 8 1 0 0  and 1 7 1 0 
16758288		 # 	collision with: 2 2 2 0  and 3 4 2 0 
16758290		 # 	collision with: 8 2 1 0  and 8 2 2 0 
16758318		 # 	collision with: 0 7 1 0  and 9 2 2 0 
16758344		 # 	collision with: 5 1 0 0  and 2 1 2 0 
16758346		 # 	collision with: 9 6 0 0  and 6 4 1 0 
16758348		 # 	collision with: 4 6 1 0  and 8 2 2 0 
16758350		 # 	collision with: 10 1 0 0  and 8 1 1 0 
16758372		 # 	collision with: 8 10 0 0  and 0 4 1 0 
16758374		 # 	collision with: 5 3 0 0  and 2 2 1 0 
16758385		 # 	collision with: 2 1 0 0  and 9 3 0 0 
16758387		 # 	collision with: 3 3 0 0  and 8 6 1 0 
16758397		 # 	collision with: 3 0 1 0  and 4 0 1 0 
16758399		 # 	collision with: 6 9 0 0  and 2 3 1 0 
16758408		 # 	collision with: 6 8 0 0  and 1 3 1 0 
16758410		 # 	collision with: 10 0 0 0  and 6 1 1 0 
16758424		 # 	collision with: 3 9 0 0  and 0 8 1 0 
16758426		 # 	collision with: 3 5 0 0  and 7 3 1 0 
16758444		 # 	collision with: 8 3 0 0  and 1 4 1 0 
16758446		 # 	collision with: 3 1 2 0  and 4 1 2 0 
16758469		 # 	collision with: 9 0 0 0  and 0 3 1 0 
16758471		 # 	collision with: 2 5 0 0  and 7 6 2 0 
16758472		 # 	collision with: 2 0 1 0  and 4 1 1 0 
16758474		 # 	collision with: 6 2 1 0  and 6 3 1 0 
16758484		 # 	collision with: 3 9 0 0  and 6 1 1 0 
16758486		 # 	collision with: 9 3 0 0  and 7 9 1 0 
16758489		 # 	collision with: 3 6 0 0  and 1 0 2 0 
16758491		 # 	collision with: 9 1 0 0  and 7 3 0 0 
16758500		 # 	collision with: 4 10 0 0  and 1 8 1 0 
16758502		 # 	collision with: 5 6 0 0  and 4 4 1 0 
16758509		 # 	collision with: 2 3 0 0  and 7 9 1 0 
16758511		 # 	collision with: 8 7 0 0  and 7 4 1 0 
16758537		 # 	collision with: 5 9 0 0  and 2 2 1 0 
16758539		 # 	collision with: 10 2 1 0  and 10 3 1 0 
16758557		 # 	collision with: 6 5 1 0  and 6 6 1 0 
16758559		 # 	collision with: 1 3 0 0  and 1 2 2 0 
16758562		 # 	collision with: 2 2 0 0  and 7 0 1 0 
16758572		 # 	collision with: 8 10 1 0  and 4 0 2 0 
16758574		 # 	collision with: 6 4 0 0  and 1 4 1 0 
16758577		 # 	collision with: 8 7 1 0  and 9 0 2 0 
16758600		 # 	collision with: 10 0 1 0  and 0 2 1 0 
16758602		 # 	collision with: 8 2 1 0  and 8 3 1 0 
16758620		 # 	collision with: 4 3 0 0  and 7 6 1 0 
16758622		 # 	collision with: 3 4 1 0  and 4 1 2 0 
16758636		 # 	collision with: 10 2 0 0  and 1 0 1 0 
16758638		 # 	collision with: 4 9 0 0  and 1 5 1 0 
16758651		 # 	collision with: 4 8 0 0  and 7 1 1 0 
16758661		 # 	collision with: 8 4 0 0  and 7 3 1 0 
16758663		 # 	collision with: 1 7 0 0  and 2 2 1 0 
16758672		 # 	collision with: 8 4 0 0  and 10 7 1 0 
16758674		 # 	collision with: 1 8 0 0  and 8 10 1 0 
16758696		 # 	collision with: 9 6 0 0  and 9 5 1 0 
16758698		 # 	collision with: 0 5 0 0  and 8 1 1 0 
16758700		 # 	collision with: 3 1 2 0  and 4 1 2 0 
16758702		 # 	collision with: 0 4 0 0  and 8 9 1 0 
16758728		 # 	collision with: 6 3 1 0  and 4 1 2 0 
16758756		 # 	collision with: 9 10 0 0  and 3 7 1 0 
16758758		 # 	collision with: 6 5 0 0  and 3 7 2 0 
16758772		 # 	collision with: 5 1 1 0  and 9 3 2 0 
16758774		 # 	collision with: 4 0 0 0  and 3 5 1 0 
16758800		 # 	collision with: 5 9 0 0  and 2 2 1 0 
16758802		 # 	collision with: 10 0 0 0  and 6 1 1 0 
16758828		 # 	collision with: 1 9 0 0  and 9 6 1 0 
16758830		 # 	collision with: 3 8 1 0  and 4 8 1 0 
16758832		 # 	collision with: 8 5 0 0  and 9 8 2 0 
16758834		 # 	collision with: 3 3 1 0  and 4 3 1 0 
16758856		 # 	collision with: 10 10 0 0  and 10 1 1 0 
16758858		 # 	collision with: 6 0 0 0  and 2 8 1 0 
16758871		 # 	collision with: 4 6 0 0  and 6 9 1 0 
16758881		 # 	collision with: 8 7 0 0  and 3 2 1 0 
16758883		 # 	collision with: 2 3 1 0  and 10 4 1 0 
16758892		 # 	collision with: 3 5 1 0  and 4 5 1 0 
16758894		 # 	collision with: 2 0 1 0  and 10 8 2 0 
16758908		 # 	collision with: 7 2 1 0  and 5 3 1 0 
16758910		 # 	collision with: 1 2 0 0  and 2 1 1 0 
16758928		 # 	collision with: 10 4 0 0  and 6 1 1 0 
16758930		 # 	collision with: 10 6 0 0  and 3 2 1 0 
16758953		 # 	collision with: 6 5 1 0  and 6 6 1 0 
16758955		 # 	collision with: 9 7 0 0  and 2 10 1 0 
16758958		 # 	collision with: 3 10 0 0  and 1 9 1 0 
16758968		 # 	collision with: 8 10 1 0  and 4 0 2 0 
16758970		 # 	collision with: 5 1 2 0  and 1 3 2 0 
16758973		 # 	collision with: 0 0 1 0  and 1 6 2 0 
16758975		 # 	collision with: 6 2 1 0  and 5 4 1 0 
16758984		 # 	collision with: 6 3 0 0  and 2 0 1 0 
16758986		 # 	collision with: 3 10 0 0  and 6 7 1 0 
16758993		 # 	collision with: 8 4 0 0  and 2 5 1 0 
16758995		 # 	collision with: 5 3 0 0  and 0 5 2 0 
16759021		 # 	collision with: 7 4 0 0  and 7 7 2 0 
16759023		 # 	collision with: 1 7 0 0  and 8 1 1 0 
16759041		 # 	collision with: 10 8 1 0  and 10 3 2 0 
16759044		 # 	collision with: 4 2 0 0  and 6 1 1 0 
16759046		 # 	collision with: 3 10 0 0  and 8 4 1 0 
16759056		 # 	collision with: 2 2 0 0  and 3 7 1 0 
16759058		 # 	collision with: 0 7 1 0  and 6 6 2 0 
16759061		 # 	collision with: 6 6 0 0  and 5 7 0 0 
16759063		 # 	collision with: 3 2 1 0  and 3 3 1 0 
16759084		 # 	collision with: 0 2 0 0  and 7 2 1 0 
16759086		 # 	collision with: 3 10 1 0  and 1 9 2 0 
16759104		 # 	collision with: 0 9 0 0  and 7 9 1 0 
16759106		 # 	collision with: 7 3 1 0  and 3 0 2 0 
16759120		 # 	collision with: 2 3 0 0  and 10 0 1 0 
16759122		 # 	collision with: 7 3 0 0  and 3 0 1 0 
16759133		 # 	collision with: 8 4 0 0  and 10 4 2 0 
16759135		 # 	collision with: 6 2 2 0  and 6 3 2 0 
16759145		 # 	collision with: 8 7 0 0  and 10 7 2 0 
16759147		 # 	collision with: 3 1 0 0  and 9 9 1 0 
16759158		 # 	collision with: 7 4 0 0  and 3 8 1 0 
16759180		 # 	collision with: 1 3 0 0  and 5 0 1 0 
16759182		 # 	collision with: 0 5 1 0  and 8 1 2 0 
16759184		 # 	collision with: 3 1 1 0  and 1 3 2 0 
16759186		 # 	collision with: 8 2 2 0  and 9 0 3 0 
16759212		 # 	collision with: 9 5 1 0  and 9 6 1 0 
16759214		 # 	collision with: 9 0 1 0  and 10 2 1 0 
16759240		 # 	collision with: 9 0 1 0  and 0 3 2 0 
16759242		 # 	collision with: 7 3 1 0  and 4 5 2 0 
16759256		 # 	collision with: 9 5 1 0  and 9 6 1 0 
16759258		 # 	collision with: 1 2 1 0  and 1 3 1 0 
16759284		 # 	collision with: 7 3 1 0  and 2 5 2 0 
16759286		 # 	collision with: 4 2 1 0  and 6 8 2 0 
16759312		 # 	collision with: 5 3 0 0  and 8 0 1 0 
16759316		 # 	collision with: 1 1 1 0  and 0 3 2 0 
16759318		 # 	collision with: 3 1 1 0  and 4 1 1 0 
16759340		 # 	collision with: 3 5 1 0  and 4 5 1 0 
16759342		 # 	collision with: 6 4 1 0  and 10 0 2 0 
16759353		 # 	collision with: 2 6 0 0  and 4 2 1 0 
16759355		 # 	collision with: 6 2 2 0  and 6 3 2 0 
16759365		 # 	collision with: 2 0 0 0  and 3 1 1 0 
16759367		 # 	collision with: 9 4 0 0  and 7 2 1 0 
16759378		 # 	collision with: 3 2 0 0  and 3 3 1 0 
16759392		 # 	collision with: 4 6 0 0  and 3 5 1 0 
16759394		 # 	collision with: 5 7 1 0  and 9 0 2 0 
16759412		 # 	collision with: 7 3 0 0  and 9 0 1 0 
16759414		 # 	collision with: 6 9 0 0  and 8 1 2 0 
16759437		 # 	collision with: 10 10 0 0  and 7 4 1 0 
16759439		 # 	collision with: 9 6 0 0  and 8 5 1 0 
16759440		 # 	collision with: 7 1 0 0  and 1 2 1 0 
16759442		 # 	collision with: 2 10 1 0  and 9 7 3 0 
16759452		 # 	collision with: 6 1 1 0  and 4 9 2 0 
16759454		 # 	collision with: 5 9 0 0  and 10 2 1 0 
16759457		 # 	collision with: 6 6 0 0  and 5 7 0 0 
16759459		 # 	collision with: 3 2 1 0  and 3 3 1 0 
16759468		 # 	collision with: 3 4 0 0  and 2 9 1 0 
16759470		 # 	collision with: 2 7 4 0  and 10 0 0 1 
16759477		 # 	collision with: 10 1 1 0  and 0 4 2 0 
16759479		 # 	collision with: 0 0 0 0  and 5 2 1 0 
16759505		 # 	collision with: 9 7 0 0  and 9 4 1 0 
16759507		 # 	collision with: 9 1 1 0  and 7 2 1 0 
16759525		 # 	collision with: 9 4 1 0  and 7 5 1 0 
16759527		 # 	collision with: 6 7 0 0  and 2 3 1 0 
16759528		 # 	collision with: 7 7 0 0  and 0 7 1 0 
16759530		 # 	collision with: 2 2 0 0  and 0 5 1 0 
16759540		 # 	collision with: 7 4 0 0  and 0 4 1 0 
16759542		 # 	collision with: 3 5 0 0  and 0 2 1 0 
16759545		 # 	collision with: 1 9 0 0  and 0 1 2 0 
16759547		 # 	collision with: 6 2 0 0  and 2 1 1 0 
16759568		 # 	collision with: 7 2 0 0  and 0 2 1 0 
16759570		 # 	collision with: 6 4 0 0  and 6 1 1 0 
16759588		 # 	collision with: 4 8 0 0  and 0 6 1 0 
16759590		 # 	collision with: 3 6 0 0  and 0 0 1 0 
16759604		 # 	collision with: 9 6 0 0  and 7 1 1 0 
16759606		 # 	collision with: 9 1 1 0  and 0 3 1 0 
16759617		 # 	collision with: 4 5 1 0  and 6 0 2 0 
16759619		 # 	collision with: 0 0 0 0  and 1 7 2 0 
16759629		 # 	collision with: 8 5 1 0  and 10 6 2 0 
16759631		 # 	collision with: 9 8 0 0  and 8 1 1 0 
16759640		 # 	collision with: 7 5 0 0  and 0 5 1 0 
16759642		 # 	collision with: 8 1 0 0  and 2 3 1 0 
16759666		 # 	collision with: 9 0 0 0  and 2 7 1 0 
16759668		 # 	collision with: 7 1 0 0  and 0 1 1 0 
16759670		 # 	collision with: 0 1 0 0  and 7 1 1 0 
16759696		 # 	collision with: 2 6 0 0  and 9 0 1 0 
16759698		 # 	collision with: 7 2 0 0  and 9 4 1 0 
16759724		 # 	collision with: 2 7 0 0  and 5 4 1 0 
16759726		 # 	collision with: 5 2 0 0  and 4 6 1 0 
16759740		 # 	collision with: 7 3 0 0  and 0 3 1 0 
16759742		 # 	collision with: 4 6 0 0  and 7 0 1 0 
16759768		 # 	collision with: 1 5 0 0  and 5 7 1 0 
16759770		 # 	collision with: 8 1 2 0  and 5 2 3 0 
16759798		 # 	collision with: 3 1 1 0  and 4 1 1 0 
16759800		 # 	collision with: 7 1 0 0  and 0 1 1 0 
16759802		 # 	collision with: 3 10 1 0  and 4 10 1 0 
16759824		 # 	collision with: 3 4 1 0  and 4 4 1 0 
16759826		 # 	collision with: 10 1 1 0  and 2 2 1 0 
16759837		 # 	collision with: 3 2 1 0  and 4 2 1 0 
16759849		 # 	collision with: 3 9 1 0  and 4 9 1 0 
16759851		 # 	collision with: 5 2 1 0  and 5 3 1 0 
16759860		 # 	collision with: 7 5 0 0  and 0 5 1 0 
16759862		 # 	collision with: 7 9 0 0  and 7 7 1 0 
16759876		 # 	collision with: 7 2 0 0  and 0 2 1 0 
16759878		 # 	collision with: 5 5 1 0  and 2 5 2 0 
16759896		 # 	collision with: 4 8 0 0  and 0 6 1 0 
16759921		 # 	collision with: 0 10 0 0  and 6 2 1 0 
16759923		 # 	collision with: 3 2 0 0  and 4 2 1 0 
16759924		 # 	collision with: 10 0 0 0  and 7 2 1 0 
16759926		 # 	collision with: 2 2 0 0  and 0 5 1 0 
16759936		 # 	collision with: 7 4 0 0  and 0 4 1 0 
16759938		 # 	collision with: 7 0 0 0  and 8 1 1 0 
16759941		 # 	collision with: 1 9 0 0  and 0 1 2 0 
16759943		 # 	collision with: 7 8 0 0  and 6 2 1 0 
16760049		 # 	collision with: 9 5 0 0  and 9 6 0 0 
16760051		 # 	collision with: 10 5 0 0  and 6 6 0 0 
16760077		 # 	collision with: 2 5 0 0  and 2 6 0 0 
16760079		 # 	collision with: 2 4 0 0  and 7 1 1 0 
16760149		 # 	collision with: 8 5 0 0  and 8 6 0 0 
16760151		 # 	collision with: 3 1 0 0  and 9 5 1 0 
16760153		 # 	collision with: 3 5 0 0  and 3 6 0 0 
16760155		 # 	collision with: 5 2 1 0  and 5 3 1 0 
16760189		 # 	collision with: 10 5 0 0  and 10 6 0 0 
16760191		 # 	collision with: 3 0 0 0  and 2 1 1 0 
16760201		 # 	collision with: 1 5 0 0  and 1 6 0 0 
16760233		 # 	collision with: 10 5 0 0  and 10 6 0 0 
16760245		 # 	collision with: 1 5 0 0  and 1 6 0 0 
16760247		 # 	collision with: 10 6 0 0  and 0 3 1 0 
16760281		 # 	collision with: 8 5 0 0  and 8 6 0 0 
16760283		 # 	collision with: 4 2 2 0  and 5 2 2 0 
16760285		 # 	collision with: 3 5 0 0  and 3 6 0 0 
16760287		 # 	collision with: 5 2 1 0  and 5 3 1 0 
16760357		 # 	collision with: 9 5 0 0  and 9 6 0 0 
16760359		 # 	collision with: 10 5 0 0  and 6 6 0 0 
16760385		 # 	collision with: 2 5 0 0  and 2 6 0 0 
16760387		 # 	collision with: 4 0 1 0  and 2 2 1 0 
16760436		 # 	collision with: 0 5 0 0  and 4 10 1 0 
16760438		 # 	collision with: 8 0 0 0  and 1 5 1 0 
16760533		 # 	collision with: 10 8 0 0  and 10 8 1 0 
16760535		 # 	collision with: 8 3 1 0  and 7 5 1 0 
16760561		 # 	collision with: 5 8 0 0  and 9 0 1 0 
16760563		 # 	collision with: 5 5 0 0  and 7 2 1 0 
16760633		 # 	collision with: 5 1 0 0  and 5 1 1 0 
16760635		 # 	collision with: 6 2 1 0  and 6 3 1 0 
16760637		 # 	collision with: 3 2 0 0  and 7 0 1 0 
16760639		 # 	collision with: 2 4 0 0  and 10 3 2 0 
16760673		 # 	collision with: 4 3 0 0  and 10 1 1 0 
16760675		 # 	collision with: 5 8 0 0  and 6 0 1 0 
16760685		 # 	collision with: 4 1 1 0  and 10 2 1 0 
16760687		 # 	collision with: 5 1 1 0  and 3 2 1 0 
16760717		 # 	collision with: 7 4 0 0  and 7 4 1 0 
16760719		 # 	collision with: 3 3 0 0  and 5 1 1 0 
16760729		 # 	collision with: 7 7 0 0  and 7 7 1 0 
16760731		 # 	collision with: 8 2 1 0  and 1 3 2 0 
16760765		 # 	collision with: 3 8 0 0  and 4 0 1 0 
16760767		 # 	collision with: 6 2 1 0  and 6 3 1 0 
16760769		 # 	collision with: 6 10 0 0  and 6 10 1 0 
16760771		 # 	collision with: 5 1 0 0  and 3 2 1 0 
16760841		 # 	collision with: 1 8 0 0  and 1 8 1 0 
16760843		 # 	collision with: 7 1 0 0  and 3 5 1 0 
16760869		 # 	collision with: 1 3 0 0  and 1 3 1 0 
16760871		 # 	collision with: 0 10 0 0  and 8 7 2 0 
16760920		 # 	collision with: 9 0 0 0  and 5 8 1 0 
16760922		 # 	collision with: 6 1 0 0  and 2 9 1 0 
16761019		 # 	collision with: 4 8 0 0  and 4 8 1 0 
16761045		 # 	collision with: 2 6 0 0  and 5 3 1 0 
16761047		 # 	collision with: 4 3 0 0  and 4 3 1 0 
16761117		 # 	collision with: 2 1 0 0  and 7 1 1 0 
16761119		 # 	collision with: 2 1 0 0  and 2 1 1 0 
16761121		 # 	collision with: 4 3 1 0  and 5 3 1 0 
16761123		 # 	collision with: 2 10 0 0  and 2 10 1 0 
16761157		 # 	collision with: 2 2 1 0  and 1 3 1 0 
16761159		 # 	collision with: 2 2 1 0  and 2 3 1 0 
16761169		 # 	collision with: 5 7 0 0  and 6 6 1 0 
16761171		 # 	collision with: 5 10 0 0  and 7 5 1 0 
16761201		 # 	collision with: 5 0 0 0  and 3 3 1 0 
16761203		 # 	collision with: 2 2 1 0  and 2 3 1 0 
16761213		 # 	collision with: 6 10 0 0  and 5 5 1 0 
16761215		 # 	collision with: 5 7 0 0  and 5 7 1 0 
16761249		 # 	collision with: 1 5 0 0  and 1 5 2 0 
16761251		 # 	collision with: 9 1 0 0  and 9 1 1 0 
16761253		 # 	collision with: 2 3 0 0  and 4 2 1 0 
16761255		 # 	collision with: 9 10 0 0  and 9 10 1 0 
16761327		 # 	collision with: 7 8 0 0  and 7 8 1 0 
16761353		 # 	collision with: 3 0 0 0  and 10 4 1 0 
16761355		 # 	collision with: 7 3 0 0  and 7 3 1 0 
16761404		 # 	collision with: 10 6 0 0  and 7 4 1 0 
16761406		 # 	collision with: 7 2 0 0  and 4 0 1 0 
16761501		 # 	collision with: 4 3 2 0  and 5 3 2 0 
16761503		 # 	collision with: 2 1 1 0  and 10 2 2 0 
16761529		 # 	collision with: 6 3 0 0  and 7 7 1 0 
16761531		 # 	collision with: 7 3 0 0  and 2 2 2 0 
16761601		 # 	collision with: 4 10 1 0  and 5 10 1 0 
16761603		 # 	collision with: 3 5 1 0  and 6 0 2 0 
16761605		 # 	collision with: 4 3 0 0  and 7 5 0 0 
16761607		 # 	collision with: 5 6 0 0  and 2 5 1 0 
16761641		 # 	collision with: 0 0 0 0  and 2 5 1 0 
16761643		 # 	collision with: 9 10 0 0  and 8 9 2 0 
16761653		 # 	collision with: 1 8 1 0  and 1 8 2 0 
16761655		 # 	collision with: 6 0 1 0  and 2 1 1 0 
16761685		 # 	collision with: 1 4 0 0  and 2 0 1 0 
16761687		 # 	collision with: 2 8 0 0  and 3 10 1 0 
16761697		 # 	collision with: 0 7 0 0  and 9 7 1 0 
16761733		 # 	collision with: 4 1 0 0  and 10 2 1 0 
16761735		 # 	collision with: 4 1 0 0  and 6 2 1 0 
16761737		 # 	collision with: 4 3 0 0  and 7 5 0 0 
16761739		 # 	collision with: 5 0 1 0  and 2 2 1 0 
16761809		 # 	collision with: 8 6 0 0  and 8 5 2 0 
16761811		 # 	collision with: 4 7 1 0  and 0 3 2 0 
16761837		 # 	collision with: 6 1 0 0  and 4 6 1 0 
16761888		 # 	collision with: 7 7 0 0  and 5 0 1 0 
16761890		 # 	collision with: 8 5 0 0  and 0 9 1 0 
16761985		 # 	collision with: 3 9 1 0  and 8 4 2 0 
16761987		 # 	collision with: 4 2 1 0  and 4 3 1 0 
16762013		 # 	collision with: 8 8 1 0  and 2 2 2 0 
16762085		 # 	collision with: 4 1 1 0  and 5 1 1 0 
16762087		 # 	collision with: 7 10 0 0  and 7 6 1 0 
16762089		 # 	collision with: 10 8 0 0  and 3 2 1 0 
16762091		 # 	collision with: 1 2 1 0  and 1 2 2 0 
16762127		 # 	collision with: 9 2 0 0  and 4 7 1 0 
16762137		 # 	collision with: 10 9 0 0  and 4 1 1 0 
16762139		 # 	collision with: 5 3 0 0  and 0 4 0 0 
16762171		 # 	collision with: 3 1 0 0  and 9 5 1 0 
16762181		 # 	collision with: 5 7 0 0  and 4 4 1 0 
16762183		 # 	collision with: 5 3 0 0  and 0 4 0 0 
16762217		 # 	collision with: 7 7 0 0  and 7 4 2 0 
16762221		 # 	collision with: 0 5 0 0  and 10 9 1 0 
16762223		 # 	collision with: 2 5 0 0  and 8 3 1 0 
16762293		 # 	collision with: 0 1 2 0  and 2 2 2 0 
16762295		 # 	collision with: 4 2 1 0  and 4 3 1 0 
16762321		 # 	collision with: 6 1 0 0  and 3 10 1 0 
16762323		 # 	collision with: 9 4 0 0  and 5 3 1 0 
16762372		 # 	collision with: 1 3 1 0  and 9 1 2 0 
16762374		 # 	collision with: 3 1 0 0  and 0 0 2 0 
16762469		 # 	collision with: 1 1 0 0  and 6 0 1 0 
16762471		 # 	collision with: 8 3 0 0  and 8 2 1 0 
16762497		 # 	collision with: 2 9 0 0  and 7 2 1 0 
16762499		 # 	collision with: 8 1 0 0  and 7 8 1 0 
16762571		 # 	collision with: 9 5 0 0  and 0 0 1 0 
16762573		 # 	collision with: 3 5 1 0  and 3 6 1 0 
16762575		 # 	collision with: 8 10 0 0  and 5 1 1 0 
16762609		 # 	collision with: 3 7 1 0  and 7 1 2 0 
16762611		 # 	collision with: 1 4 2 0  and 10 5 2 0 
16762621		 # 	collision with: 5 4 0 0  and 3 5 1 0 
16762623		 # 	collision with: 5 2 0 0  and 0 4 0 0 
16762653		 # 	collision with: 6 5 0 0  and 8 2 1 0 
16762655		 # 	collision with: 8 5 0 0  and 1 0 1 0 
16762665		 # 	collision with: 10 1 0 0  and 9 0 1 0 
16762667		 # 	collision with: 5 2 0 0  and 0 4 0 0 
16762703		 # 	collision with: 9 5 0 0  and 0 0 1 0 
16762705		 # 	collision with: 6 7 0 0  and 2 1 1 0 
16762777		 # 	collision with: 9 2 0 0  and 8 1 1 0 
16762779		 # 	collision with: 9 1 0 0  and 0 4 1 0 
16762805		 # 	collision with: 3 8 1 0  and 6 3 2 0 
16762807		 # 	collision with: 4 2 0 0  and 0 4 2 0 
16762856		 # 	collision with: 10 8 0 0  and 8 7 1 0 
16762858		 # 	collision with: 7 0 0 0  and 5 10 1 0 
16762953		 # 	collision with: 9 6 0 0  and 8 0 1 0 
16762955		 # 	collision with: 4 2 0 0  and 4 3 0 0 
16762981		 # 	collision with: 2 2 0 0  and 8 3 1 0 
16762983		 # 	collision with: 7 2 0 0  and 7 3 0 0 
16763053		 # 	collision with: 4 5 1 0  and 5 5 1 0 
16763059		 # 	collision with: 5 2 0 0  and 5 3 0 0 
16763093		 # 	collision with: 4 10 0 0  and 8 0 1 0 
16763095		 # 	collision with: 2 2 0 0  and 2 3 0 0 
16763105		 # 	collision with: 8 7 0 0  and 3 2 1 0 
16763107		 # 	collision with: 9 2 0 0  and 9 3 0 0 
16763137		 # 	collision with: 9 0 1 0  and 10 1 1 0 
16763139		 # 	collision with: 2 2 0 0  and 2 3 0 0 
16763149		 # 	collision with: 1 5 1 0  and 2 3 2 0 
16763151		 # 	collision with: 9 2 0 0  and 9 3 0 0 
16763185		 # 	collision with: 8 5 1 0  and 8 6 1 0 
16763187		 # 	collision with: 6 2 0 0  and 6 3 0 0 
16763191		 # 	collision with: 5 2 0 0  and 5 3 0 0 
16763261		 # 	collision with: 0 4 0 0  and 3 10 2 0 
16763263		 # 	collision with: 4 2 0 0  and 4 3 0 0 
16763289		 # 	collision with: 8 5 0 0  and 1 6 1 0 
16763291		 # 	collision with: 7 2 0 0  and 7 3 0 0 
16763340		 # 	collision with: 10 1 0 0  and 5 8 1 0 
16763342		 # 	collision with: 7 10 0 0  and 2 6 1 0 
16763437		 # 	collision with: 2 5 0 0  and 10 1 1 0 
16763439		 # 	collision with: 1 5 0 0  and 1 0 2 0 
16763465		 # 	collision with: 2 6 0 0  and 10 1 1 0 
16763467		 # 	collision with: 0 0 0 0  and 2 9 1 0 
16763537		 # 	collision with: 2 1 0 0  and 9 3 0 0 
16763539		 # 	collision with: 5 6 0 0  and 8 2 1 0 
16763541		 # 	collision with: 9 8 0 0  and 0 3 1 0 
16763577		 # 	collision with: 9 4 0 0  and 0 4 1 0 
16763579		 # 	collision with: 4 10 1 0  and 7 5 3 0 
16763591		 # 	collision with: 2 5 1 0  and 4 6 2 0 
16763621		 # 	collision with: 9 4 0 0  and 0 4 1 0 
16763623		 # 	collision with: 3 2 1 0  and 4 1 2 0 
16763635		 # 	collision with: 1 10 0 0  and 3 2 1 0 
16763669		 # 	collision with: 2 1 0 0  and 9 3 0 0 
16763671		 # 	collision with: 9 6 0 0  and 3 8 1 0 
16763673		 # 	collision with: 9 8 0 0  and 0 3 1 0 
16763675		 # 	collision with: 7 3 0 0  and 4 5 1 0 
16763745		 # 	collision with: 3 0 1 0  and 9 2 1 0 
16763773		 # 	collision with: 9 3 0 0  and 0 3 1 0 
16763775		 # 	collision with: 1 6 0 0  and 4 1 1 0 
16763824		 # 	collision with: 3 5 0 0  and 4 7 1 0 
16763826		 # 	collision with: 0 9 0 0  and 1 0 1 0 
16763921		 # 	collision with: 1 4 0 0  and 1 7 1 0 
16763949		 # 	collision with: 0 1 0 0  and 7 9 1 0 
16763951		 # 	collision with: 0 1 0 0  and 5 2 0 0 
18.7017secs	8678
