# prime 11
# degree 2
# input variables 3
# output variables 3
# reload computed balance functions from file balance-1372of3248-p11d2m3-debug.log
# p = 11
# n = 3
# smalldomain p^m 1331
# domain p^n 1331
#	 p^2 = 121
#	 p^3 = 1331
#	 p^4 = 14641
#	 p^5 = 161051
#	 p^6 = 1771561
#	 p^7 = 19487171
#	 p^8 = 214358881
#	 p^9 = 2357947691
opening file : balance-1372of3248-p11d2m3-debug.log
reloading for step2...
8232125		 # 	collision with: 8 0 0  and 8 2 0 
8232127		 # 	collision with: 4 5 0  and 4 6 0 
8232133		 # 	collision with: 8 2 0  and 1 3 0 
8232135		 # 	collision with: 5 2 0  and 5 0 1 
8232141		 # 	collision with: 1 1 0  and 9 2 0 
8232143		 # 	collision with: 10 1 0  and 4 3 0 
8232149		 # 	collision with: 1 1 0  and 1 2 0 
8232151		 # 	collision with: 6 2 0  and 6 4 0 
8232281		 # 	collision with: 9 9 0  and 0 0 1 
8232283		 # 	collision with: 4 4 0  and 10 5 0 
8232317		 # 	collision with: 2 2 0  and 4 3 0 
8232319		 # 	collision with: 0 2 0  and 7 4 0 
8232321		 # 	collision with: 8 0 0  and 9 1 0 
8232323		 # 	collision with: 2 1 0  and 2 0 1 
8232356		 # 	collision with: 2 4 0  and 2 0 1 
8232358		 # 	collision with: 5 7 0  and 2 0 1 
8232365		 # 	collision with: 5 1 0  and 0 3 0 
8232367		 # 	collision with: 3 3 0  and 3 5 0 
8232393		 # 	collision with: 1 5 0  and 3 6 0 
8232437		 # 	collision with: 6 1 0  and 8 2 0 
8232439		 # 	collision with: 0 8 0  and 2 8 0 
8232443		 # 	collision with: 1 4 0  and 2 5 0 
8232477		 # 	collision with: 6 7 0  and 3 1 1 
8232479		 # 	collision with: 4 5 0  and 4 6 0 
8232609		 # 	collision with: 8 0 0  and 9 1 0 
8232611		 # 	collision with: 1 1 0  and 10 2 0 
8232617		 # 	collision with: 0 5 0  and 3 0 1 
8232619		 # 	collision with: 6 4 0  and 9 5 0 
8232625		 # 	collision with: 10 0 0  and 9 2 0 
8232627		 # 	collision with: 2 2 0  and 3 3 0 
8232633		 # 	collision with: 6 5 0  and 1 6 0 
8232635		 # 	collision with: 4 1 0  and 5 1 1 
8232765		 # 	collision with: 10 1 0  and 0 3 0 
8232767		 # 	collision with: 5 4 0  and 9 5 0 
8232801		 # 	collision with: 4 0 0  and 4 1 0 
8232807		 # 	collision with: 6 0 0  and 4 1 0 
8232840		 # 	collision with: 10 0 0  and 9 2 0 
8232842		 # 	collision with: 4 0 0  and 3 2 0 
8232849		 # 	collision with: 6 3 0  and 6 4 0 
8232851		 # 	collision with: 8 4 0  and 8 2 1 
8232877		 # 	collision with: 2 1 0  and 1 3 1 
8232879		 # 	collision with: 5 4 0  and 8 5 0 
8232921		 # 	collision with: 8 0 0  and 2 2 0 
8232925		 # 	collision with: 0 5 0  and 1 6 0 
8232927		 # 	collision with: 10 0 0  and 6 2 0 
8232961		 # 	collision with: 8 0 0  and 8 2 0 
8232963		 # 	collision with: 3 4 0  and 7 6 0 
8233093		 # 	collision with: 1 5 0  and 3 6 0 
8233101		 # 	collision with: 3 2 0  and 8 3 0 
8233103		 # 	collision with: 1 5 0  and 1 0 1 
8233109		 # 	collision with: 1 3 0  and 2 4 0 
8233111		 # 	collision with: 7 2 0  and 5 3 0 
8233117		 # 	collision with: 8 2 0  and 1 3 0 
8233119		 # 	collision with: 1 1 0  and 3 1 0 
8233249		 # 	collision with: 2 2 0  and 9 4 0 
8233251		 # 	collision with: 3 6 0  and 8 1 1 
8233285		 # 	collision with: 8 3 0  and 2 5 0 
8233287		 # 	collision with: 7 3 0  and 0 5 0 
8233289		 # 	collision with: 6 3 0  and 9 0 1 
8233291		 # 	collision with: 6 5 0  and 9 1 1 
8233324		 # 	collision with: 5 5 0  and 5 0 1 
8233326		 # 	collision with: 0 0 0  and 1 1 1 
8233333		 # 	collision with: 8 3 0  and 4 5 0 
8233335		 # 	collision with: 9 3 0  and 6 5 0 
8233361		 # 	collision with: 1 1 0  and 7 3 0 
8233363		 # 	collision with: 4 2 0  and 6 2 0 
8233405		 # 	collision with: 10 7 0  and 3 3 1 
8233407		 # 	collision with: 3 5 0  and 0 1 1 
8233409		 # 	collision with: 10 2 0  and 3 4 0 
8233411		 # 	collision with: 10 3 0  and 10 4 0 
8233445		 # 	collision with: 5 6 0  and 5 1 1 
8233447		 # 	collision with: 0 4 0  and 1 6 0 
8233579		 # 	collision with: 5 2 0  and 1 0 1 
8233585		 # 	collision with: 9 2 0  and 9 3 0 
8233587		 # 	collision with: 2 3 0  and 3 5 0 
8233595		 # 	collision with: 2 2 0  and 2 3 0 
8233601		 # 	collision with: 1 2 0  and 2 0 1 
8233603		 # 	collision with: 9 0 0  and 2 1 0 
8233733		 # 	collision with: 1 1 0  and 1 0 1 
8233735		 # 	collision with: 0 2 0  and 7 4 0 
8233769		 # 	collision with: 3 1 0  and 9 3 0 
8233771		 # 	collision with: 3 9 0  and 5 9 0 
8233773		 # 	collision with: 9 9 0  and 2 0 1 
8233775		 # 	collision with: 3 4 0  and 7 6 0 
8233808		 # 	collision with: 9 6 0  and 0 0 1 
8233810		 # 	collision with: 1 5 0  and 10 0 1 
8233817		 # 	collision with: 2 5 0  and 9 1 1 
8233819		 # 	collision with: 2 1 0  and 9 1 1 
8233845		 # 	collision with: 0 2 0  and 3 4 0 
8233847		 # 	collision with: 1 2 0  and 2 0 1 
8233889		 # 	collision with: 9 1 0  and 1 3 0 
8233891		 # 	collision with: 6 0 0  and 4 1 0 
8233893		 # 	collision with: 3 1 0  and 1 2 0 
8233895		 # 	collision with: 0 8 0  and 2 8 0 
8233929		 # 	collision with: 0 0 0  and 1 1 1 
8233931		 # 	collision with: 10 3 0  and 10 0 1 
8234061		 # 	collision with: 4 3 0  and 9 4 0 
8234063		 # 	collision with: 4 5 0  and 8 6 0 
8234071		 # 	collision with: 6 10 0  and 2 0 1 
8234077		 # 	collision with: 8 3 0  and 4 5 0 
8234079		 # 	collision with: 1 1 0  and 3 1 0 
8234087		 # 	collision with: 0 0 0  and 1 1 1 
8234217		 # 	collision with: 1 1 0  and 9 2 0 
8234219		 # 	collision with: 6 2 0  and 6 4 0 
8234253		 # 	collision with: 5 5 0  and 9 6 0 
8234255		 # 	collision with: 3 1 0  and 0 2 0 
8234257		 # 	collision with: 1 2 0  and 9 3 0 
8234259		 # 	collision with: 3 3 0  and 3 5 0 
8234292		 # 	collision with: 3 0 0  and 7 1 1 
8234294		 # 	collision with: 3 3 0  and 4 1 1 
8234301		 # 	collision with: 3 6 0  and 4 1 1 
8234303		 # 	collision with: 3 2 0  and 0 3 0 
8234329		 # 	collision with: 0 0 0  and 1 1 1 
8234331		 # 	collision with: 4 1 0  and 1 0 1 
8234373		 # 	collision with: 3 5 0  and 3 0 1 
8234375		 # 	collision with: 1 6 0  and 6 0 1 
8234377		 # 	collision with: 10 1 0  and 0 3 0 
8234379		 # 	collision with: 8 4 0  and 0 5 0 
8234413		 # 	collision with: 3 1 0  and 1 2 0 
8234415		 # 	collision with: 10 4 0  and 4 6 0 
8234545		 # 	collision with: 8 0 0  and 2 2 0 
8234547		 # 	collision with: 6 2 0  and 10 0 1 
8234553		 # 	collision with: 5 5 0  and 3 6 0 
8234555		 # 	collision with: 9 0 0  and 2 1 0 
8234561		 # 	collision with: 10 3 0  and 5 4 0 
8234563		 # 	collision with: 3 4 0  and 6 5 0 
8234569		 # 	collision with: 1 2 0  and 9 3 0 
8234701		 # 	collision with: 5 1 0  and 3 1 1 
8234703		 # 	collision with: 4 3 0  and 4 0 1 
8234737		 # 	collision with: 10 3 0  and 6 4 0 
8234739		 # 	collision with: 3 8 0  and 4 1 1 
8234741		 # 	collision with: 3 1 0  and 7 3 0 
8234776		 # 	collision with: 8 0 0  and 2 2 0 
8234778		 # 	collision with: 2 2 0  and 5 0 1 
8234785		 # 	collision with: 4 1 0  and 6 0 1 
8234813		 # 	collision with: 5 4 0  and 6 4 0 
8234815		 # 	collision with: 6 0 0  and 0 1 0 
8234859		 # 	collision with: 6 0 0  and 0 1 0 
8234861		 # 	collision with: 9 2 0  and 9 3 0 
8234897		 # 	collision with: 5 1 0  and 0 3 0 
8234899		 # 	collision with: 6 0 0  and 0 1 0 
8235029		 # 	collision with: 8 0 0  and 6 1 0 
8235031		 # 	collision with: 6 0 0  and 0 1 0 
8235037		 # 	collision with: 7 7 0  and 6 0 1 
8235039		 # 	collision with: 6 0 0  and 0 1 0 
8235045		 # 	collision with: 4 0 0  and 4 1 0 
8235047		 # 	collision with: 6 0 0  and 0 1 0 
8235053		 # 	collision with: 6 5 0  and 9 0 1 
8235055		 # 	collision with: 6 0 0  and 0 1 0 
8235185		 # 	collision with: 4 8 0  and 10 1 1 
8235187		 # 	collision with: 6 0 0  and 0 1 0 
8235223		 # 	collision with: 6 0 0  and 0 1 0 
8235225		 # 	collision with: 9 2 0  and 7 3 0 
8235227		 # 	collision with: 6 0 0  and 0 1 0 
8235260		 # 	collision with: 7 8 0  and 4 0 1 
8235262		 # 	collision with: 5 0 0  and 7 2 0 
8235269		 # 	collision with: 6 3 0  and 7 2 1 
8235271		 # 	collision with: 7 4 0  and 7 0 1 
8235297		 # 	collision with: 6 8 0  and 0 0 1 
8235299		 # 	collision with: 3 1 0  and 0 2 0 
8235341		 # 	collision with: 2 1 0  and 2 0 1 
8235343		 # 	collision with: 10 10 0  and 0 1 1 
8235345		 # 	collision with: 1 1 0  and 9 3 0 
8235347		 # 	collision with: 0 2 0  and 4 4 0 
8235381		 # 	collision with: 2 1 0  and 0 0 1 
8235383		 # 	collision with: 10 0 0  and 6 2 0 
8235513		 # 	collision with: 10 1 1  and 6 2 1 
8235515		 # 	collision with: 9 5 0  and 10 7 0 
8235521		 # 	collision with: 1 1 0  and 1 0 1 
8235523		 # 	collision with: 10 3 0  and 10 4 0 
8235529		 # 	collision with: 0 2 0  and 8 4 0 
8235531		 # 	collision with: 4 1 0  and 8 3 0 
8235537		 # 	collision with: 5 10 0  and 0 1 1 
8235539		 # 	collision with: 5 0 0  and 7 2 0 
8235669		 # 	collision with: 0 1 0  and 10 3 0 
8235671		 # 	collision with: 1 3 0  and 3 0 1 
8235705		 # 	collision with: 4 4 0  and 5 6 0 
8235707		 # 	collision with: 0 5 0  and 9 0 1 
8235709		 # 	collision with: 0 1 0  and 6 3 0 
8235711		 # 	collision with: 8 0 0  and 9 2 0 
8235744		 # 	collision with: 10 1 0  and 5 3 0 
8235746		 # 	collision with: 0 4 0  and 1 6 0 
8235753		 # 	collision with: 1 4 0  and 9 5 0 
8235755		 # 	collision with: 7 2 0  and 5 3 0 
8235783		 # 	collision with: 8 4 0  and 6 5 0 
8235825		 # 	collision with: 7 10 0  and 4 0 1 
8235827		 # 	collision with: 6 4 0  and 9 5 0 
8235829		 # 	collision with: 2 5 0  and 4 5 0 
8235831		 # 	collision with: 4 4 0  and 10 5 0 
8235865		 # 	collision with: 8 2 0  and 2 4 0 
8235867		 # 	collision with: 2 4 0  and 5 5 0 
8235997		 # 	collision with: 3 1 0  and 9 3 0 
8235999		 # 	collision with: 8 7 0  and 7 0 1 
8236005		 # 	collision with: 7 1 0  and 2 3 0 
8236007		 # 	collision with: 3 5 0  and 6 7 0 
8236013		 # 	collision with: 4 2 0  and 6 2 0 
8236021		 # 	collision with: 4 1 0  and 6 3 0 
8236023		 # 	collision with: 3 10 0  and 0 0 1 
8236153		 # 	collision with: 1 1 0  and 1 2 0 
8236189		 # 	collision with: 2 2 0  and 9 4 0 
8236191		 # 	collision with: 2 2 0  and 9 0 1 
8236193		 # 	collision with: 6 3 0  and 6 4 0 
8236195		 # 	collision with: 10 3 0  and 4 5 0 
8236276		 # 	collision with: 3 2 0  and 1 3 0 
8236300		 # 	collision with: 0 4 0  and 5 6 0 
8236302		 # 	collision with: 5 0 0  and 2 1 0 
8236324		 # 	collision with: 0 1 0  and 5 3 0 
8236328		 # 	collision with: 4 0 0  and 6 2 0 
8236330		 # 	collision with: 3 9 0  and 3 0 1 
8236351		 # 	collision with: 8 3 0  and 7 5 0 
8236361		 # 	collision with: 5 4 0  and 4 5 0 
8236363		 # 	collision with: 8 3 0  and 7 5 0 
8236369		 # 	collision with: 3 0 0  and 2 2 0 
8236371		 # 	collision with: 10 1 0  and 1 3 0 
8236372		 # 	collision with: 7 4 0  and 4 0 1 
8236400		 # 	collision with: 6 2 0  and 2 0 1 
8236402		 # 	collision with: 7 7 0  and 4 1 1 
8236413		 # 	collision with: 5 4 0  and 4 5 0 
8236415		 # 	collision with: 8 3 0  and 7 5 0 
8236420		 # 	collision with: 7 2 0  and 5 4 0 
8236428		 # 	collision with: 8 6 0  and 7 0 1 
8236430		 # 	collision with: 0 0 0  and 6 1 0 
8236437		 # 	collision with: 7 2 0  and 3 3 0 
8236439		 # 	collision with: 4 3 0  and 5 3 0 
8236456		 # 	collision with: 6 1 0  and 7 3 0 
8236458		 # 	collision with: 10 1 0  and 1 3 0 
8236468		 # 	collision with: 2 9 0  and 1 0 1 
8236516		 # 	collision with: 7 6 0  and 8 7 0 
8236528		 # 	collision with: 5 1 0  and 4 3 0 
8236530		 # 	collision with: 0 2 0  and 8 4 0 
8236549		 # 	collision with: 4 2 0  and 8 3 0 
8236551		 # 	collision with: 0 0 0  and 9 2 0 
8236556		 # 	collision with: 2 8 0  and 1 0 1 
8236558		 # 	collision with: 1 2 0  and 5 4 0 
8236564		 # 	collision with: 2 5 0  and 4 6 0 
8236573		 # 	collision with: 5 4 0  and 4 5 0 
8236575		 # 	collision with: 8 3 0  and 7 5 0 
8236581		 # 	collision with: 1 1 0  and 1 2 0 
8236583		 # 	collision with: 5 4 0  and 6 4 0 
8236584		 # 	collision with: 1 5 0  and 8 6 0 
8236586		 # 	collision with: 2 1 1  and 1 2 1 
8236612		 # 	collision with: 3 5 0  and 3 0 1 
8236617		 # 	collision with: 4 0 0  and 4 1 0 
8236619		 # 	collision with: 8 3 0  and 7 5 0 
8236639		 # 	collision with: 8 3 0  and 7 5 0 
8236656		 # 	collision with: 0 0 0  and 10 1 1 
8236658		 # 	collision with: 4 3 0  and 9 4 0 
8236660		 # 	collision with: 10 1 0  and 2 3 0 
8236684		 # 	collision with: 6 0 0  and 10 2 0 
8236686		 # 	collision with: 2 1 0  and 5 3 0 
8236708		 # 	collision with: 7 8 0  and 1 1 1 
8236712		 # 	collision with: 8 8 0  and 1 0 1 
8236714		 # 	collision with: 5 1 0  and 2 3 0 
8236760		 # 	collision with: 0 10 0  and 1 10 0 
8236762		 # 	collision with: 6 5 0  and 5 6 0 
8236784		 # 	collision with: 2 0 0  and 4 2 0 
8236808		 # 	collision with: 7 6 0  and 8 7 0 
8236810		 # 	collision with: 6 5 0  and 5 6 0 
8236812		 # 	collision with: 3 0 0  and 7 1 0 
8236814		 # 	collision with: 6 1 0  and 1 3 0 
8236833		 # 	collision with: 6 1 0  and 2 3 0 
8236845		 # 	collision with: 6 1 0  and 2 3 0 
8236847		 # 	collision with: 6 5 0  and 5 6 0 
8236853		 # 	collision with: 0 0 0  and 2 2 0 
8236855		 # 	collision with: 6 5 0  and 5 6 0 
8236856		 # 	collision with: 5 4 0  and 9 5 0 
8236858		 # 	collision with: 6 5 0  and 5 6 0 
8236884		 # 	collision with: 2 5 0  and 4 6 0 
8236886		 # 	collision with: 0 1 0  and 7 3 0 
8236897		 # 	collision with: 6 1 0  and 2 3 0 
8236899		 # 	collision with: 6 5 0  and 5 6 0 
8236904		 # 	collision with: 4 1 0  and 1 2 0 
8236906		 # 	collision with: 6 5 0  and 5 6 0 
8236912		 # 	collision with: 3 3 0  and 6 4 0 
8236914		 # 	collision with: 1 1 0  and 6 3 0 
8236921		 # 	collision with: 6 1 0  and 2 3 0 
8236923		 # 	collision with: 4 4 0  and 6 5 0 
8236942		 # 	collision with: 3 1 0  and 4 3 0 
8236952		 # 	collision with: 4 4 0  and 7 6 0 
8236954		 # 	collision with: 2 1 0  and 4 3 0 
8237002		 # 	collision with: 6 5 0  and 5 6 0 
8237012		 # 	collision with: 4 3 0  and 10 4 0 
8237014		 # 	collision with: 9 1 0  and 9 3 0 
8237033		 # 	collision with: 4 0 0  and 6 2 0 
8237035		 # 	collision with: 6 5 0  and 5 6 0 
8237040		 # 	collision with: 10 0 0  and 4 1 0 
8237042		 # 	collision with: 3 2 0  and 4 2 0 
8237048		 # 	collision with: 10 0 0  and 6 2 0 
8237050		 # 	collision with: 6 4 0  and 0 5 0 
8237057		 # 	collision with: 6 1 0  and 2 3 0 
8237059		 # 	collision with: 6 0 0  and 8 1 0 
8237065		 # 	collision with: 4 1 0  and 6 2 0 
8237067		 # 	collision with: 5 1 0  and 5 2 0 
8237068		 # 	collision with: 10 10 0  and 3 0 1 
8237070		 # 	collision with: 7 1 0  and 0 3 0 
8237096		 # 	collision with: 7 1 0  and 9 0 1 
8237098		 # 	collision with: 5 4 0  and 6 4 0 
8237101		 # 	collision with: 6 1 0  and 2 3 0 
8237103		 # 	collision with: 9 1 0  and 9 3 0 
8237121		 # 	collision with: 6 1 0  and 2 3 0 
8237123		 # 	collision with: 6 5 0  and 5 6 0 
8237140		 # 	collision with: 1 5 0  and 8 6 0 
8237142		 # 	collision with: 2 1 0  and 5 3 0 
8237144		 # 	collision with: 0 4 0  and 6 0 1 
8237146		 # 	collision with: 3 0 0  and 9 2 0 
8237168		 # 	collision with: 3 8 0  and 5 8 0 
8237170		 # 	collision with: 4 1 0  and 3 3 0 
8237192		 # 	collision with: 8 1 0  and 0 2 0 
8237194		 # 	collision with: 6 5 0  and 5 6 0 
8237196		 # 	collision with: 4 10 0  and 4 1 1 
8237198		 # 	collision with: 5 3 0  and 2 4 0 
8237246		 # 	collision with: 0 3 0  and 1 5 0 
8237268		 # 	collision with: 9 2 0  and 9 3 0 
8237270		 # 	collision with: 1 6 0  and 3 6 0 
8237292		 # 	collision with: 10 3 0  and 10 5 0 
8237294		 # 	collision with: 0 10 0  and 1 10 0 
8237296		 # 	collision with: 2 5 0  and 0 6 0 
8237317		 # 	collision with: 3 0 0  and 2 2 0 
8237319		 # 	collision with: 9 5 0  and 4 6 0 
8237329		 # 	collision with: 1 7 0  and 0 0 1 
8237331		 # 	collision with: 10 3 0  and 5 3 1 
8237337		 # 	collision with: 5 2 0  and 2 4 0 
8237339		 # 	collision with: 9 4 0  and 10 1 1 
8237340		 # 	collision with: 10 3 0  and 3 5 0 
8237342		 # 	collision with: 3 3 0  and 3 5 0 
8237368		 # 	collision with: 2 6 0  and 9 2 1 
8237370		 # 	collision with: 6 1 0  and 8 3 0 
8237383		 # 	collision with: 5 4 0  and 0 5 0 
8237388		 # 	collision with: 7 1 0  and 2 2 0 
8237390		 # 	collision with: 10 1 0  and 8 3 0 
8237396		 # 	collision with: 4 2 0  and 1 3 0 
8237398		 # 	collision with: 2 0 0  and 6 2 0 
8237405		 # 	collision with: 0 5 0  and 2 5 0 
8237407		 # 	collision with: 2 1 0  and 4 3 0 
8237424		 # 	collision with: 2 7 0  and 10 1 1 
8237426		 # 	collision with: 2 5 0  and 6 1 1 
8237436		 # 	collision with: 7 6 0  and 9 0 1 
8237438		 # 	collision with: 6 1 0  and 9 2 0 
8237484		 # 	collision with: 3 2 0  and 8 3 0 
8237486		 # 	collision with: 10 4 0  and 6 6 0 
8237496		 # 	collision with: 2 1 0  and 3 1 0 
8237498		 # 	collision with: 10 6 0  and 5 1 1 
8237519		 # 	collision with: 4 3 0  and 2 4 0 
8237524		 # 	collision with: 2 9 0  and 5 1 1 
8237526		 # 	collision with: 9 0 0  and 3 1 0 
8237532		 # 	collision with: 0 0 0  and 5 2 0 
8237534		 # 	collision with: 2 1 0  and 4 3 0 
8237541		 # 	collision with: 9 1 0  and 5 2 0 
8237543		 # 	collision with: 2 6 0  and 3 3 1 
8237549		 # 	collision with: 4 3 0  and 5 3 0 
8237551		 # 	collision with: 0 1 0  and 2 3 0 
8237552		 # 	collision with: 6 10 0  and 0 0 1 
8237554		 # 	collision with: 2 1 0  and 5 3 0 
8237580		 # 	collision with: 5 4 0  and 1 6 0 
8237582		 # 	collision with: 9 7 0  and 1 1 1 
8237585		 # 	collision with: 0 2 0  and 3 3 0 
8237605		 # 	collision with: 1 6 0  and 6 0 1 
8237607		 # 	collision with: 10 8 0  and 0 0 1 
8237624		 # 	collision with: 0 0 0  and 2 2 0 
8237626		 # 	collision with: 6 1 0  and 6 0 1 
8237628		 # 	collision with: 7 6 0  and 8 7 0 
8237630		 # 	collision with: 4 5 0  and 0 6 0 
8237654		 # 	collision with: 2 2 0  and 2 3 0 
8237676		 # 	collision with: 7 2 0  and 3 3 0 
8237678		 # 	collision with: 0 1 0  and 5 2 0 
8237680		 # 	collision with: 2 0 0  and 3 2 0 
8237682		 # 	collision with: 4 3 0  and 2 4 0 
8237728		 # 	collision with: 4 0 0  and 1 1 0 
8237730		 # 	collision with: 2 2 0  and 4 0 1 
8237752		 # 	collision with: 0 3 0  and 8 5 0 
8237754		 # 	collision with: 9 5 0  and 0 6 0 
8237776		 # 	collision with: 6 4 0  and 3 6 0 
8237778		 # 	collision with: 2 0 0  and 6 2 0 
8237780		 # 	collision with: 2 2 0  and 5 0 1 
8237782		 # 	collision with: 4 4 0  and 5 6 0 
8237801		 # 	collision with: 6 4 0  and 9 5 0 
8237803		 # 	collision with: 4 5 0  and 4 6 0 
8237813		 # 	collision with: 5 4 0  and 9 5 0 
8237815		 # 	collision with: 2 1 0  and 5 3 0 
8237823		 # 	collision with: 10 2 0  and 6 3 0 
8237824		 # 	collision with: 0 4 0  and 10 6 0 
8237826		 # 	collision with: 1 3 0  and 7 4 0 
8237852		 # 	collision with: 8 4 0  and 5 0 1 
8237865		 # 	collision with: 2 1 1  and 1 3 1 
8237867		 # 	collision with: 6 2 0  and 6 4 0 
8237872		 # 	collision with: 6 3 0  and 5 4 0 
8237874		 # 	collision with: 2 2 0  and 2 3 0 
8237882		 # 	collision with: 1 7 0  and 9 2 1 
8237889		 # 	collision with: 3 0 0  and 5 2 0 
8237891		 # 	collision with: 5 3 0  and 9 4 0 
8237908		 # 	collision with: 10 8 0  and 5 0 1 
8237910		 # 	collision with: 6 2 0  and 6 4 0 
8237920		 # 	collision with: 7 6 0  and 8 7 0 
8237922		 # 	collision with: 1 7 0  and 9 1 1 
8237968		 # 	collision with: 0 2 0  and 3 3 0 
8237970		 # 	collision with: 0 5 0  and 2 5 0 
8237980		 # 	collision with: 5 10 0  and 7 0 1 
8237982		 # 	collision with: 1 3 0  and 4 4 0 
5.41988secs	2988
