# prime 11
# degree 2
# input variables 3
# output variables 5
# reload computed balance functions from file balance-344of3248-p11d2m3-debug.log
# p = 11
# n = 5
# smalldomain p^m 1331
# domain p^n 161051
#	 p^2 = 121
#	 p^3 = 1331
#	 p^4 = 14641
#	 p^5 = 161051
#	 p^6 = 1771561
#	 p^7 = 19487171
#	 p^8 = 214358881
#	 p^9 = 2357947691
opening file : balance-344of3248-p11d2m3-debug.log
reloading for step2...
2064001		 # 	collision with: 0 0 0 0 0  and 4 0 0 0 0 
2064003		 # 	collision with: 2 0 1 0 0  and 2 0 3 0 0 
2064016		 # 	collision with: 0 3 0 0 0  and 1 3 0 0 0 
2064018		 # 	collision with: 5 2 3 0 0  and 5 3 3 0 0 
2064064		 # 	collision with: 3 8 0 0 0  and 4 8 0 0 0 
2064066		 # 	collision with: 5 1 8 0 0  and 5 2 8 0 0 
2064081		 # 	collision with: 0 0 0 0 0  and 4 0 0 0 0 
2064083		 # 	collision with: 9 0 1 0 0  and 9 0 3 0 0 
2064089		 # 	collision with: 0 0 0 0 0  and 4 0 0 0 0 
2064091		 # 	collision with: 3 0 1 0 0  and 3 0 3 0 0 
2064112		 # 	collision with: 2 10 0 0 0  and 3 10 0 0 0 
2064129		 # 	collision with: 0 0 0 0 0  and 4 0 0 0 0 
2064131		 # 	collision with: 5 1 0 0 0  and 5 3 0 0 0 
2064160		 # 	collision with: 4 6 0 0 0  and 5 6 0 0 0 
2064162		 # 	collision with: 5 5 6 0 0  and 5 6 6 0 0 
2064205		 # 	collision with: 0 0 0 0 0  and 4 0 0 0 0 
2064207		 # 	collision with: 6 0 1 0 0  and 6 0 3 0 0 
2064208		 # 	collision with: 2 9 0 0 0  and 4 9 0 0 0 
2064210		 # 	collision with: 5 5 9 0 0  and 5 6 9 0 0 
2064249		 # 	collision with: 0 0 0 0 0  and 4 0 0 0 0 
2064251		 # 	collision with: 1 0 1 0 0  and 1 0 3 0 0 
2064256		 # 	collision with: 3 7 0 0 0  and 5 7 0 0 0 
2064258		 # 	collision with: 5 2 7 0 0  and 5 3 7 0 0 
2064260		 # 	collision with: 3 6 1 2 0  and 0 3 0 0 1 
2064262		 # 	collision with: 9 9 2 0 0  and 1 1 0 1 0 
2064264		 # 	collision with: 0 3 0 0 0  and 1 3 0 0 0 
2064266		 # 	collision with: 5 1 3 0 0  and 5 3 3 0 0 
2064268		 # 	collision with: 3 7 0 0 0  and 5 7 0 0 0 
2064270		 # 	collision with: 5 1 7 0 0  and 5 2 7 0 0 
2064272		 # 	collision with: 1 1 0 0 0  and 2 1 0 0 0 
2064274		 # 	collision with: 5 0 1 0 0  and 5 1 1 0 0 
2064276		 # 	collision with: 2 9 0 0 0  and 4 9 0 0 0 
2064278		 # 	collision with: 5 3 9 0 0  and 5 4 9 0 0 
2064280		 # 	collision with: 4 5 0 0 0  and 6 5 0 0 0 
2064284		 # 	collision with: 4 6 0 0 0  and 5 6 0 0 0 
2064286		 # 	collision with: 5 2 6 0 0  and 5 3 6 0 0 
2064288		 # 	collision with: 0 2 0 0 0  and 2 2 0 0 0 
2064290		 # 	collision with: 5 0 2 0 0  and 5 1 2 0 0 
2064292		 # 	collision with: 2 10 0 0 0  and 3 10 0 0 0 
2064294		 # 	collision with: 5 3 10 0 0  and 5 4 10 0 0 
2064296		 # 	collision with: 5 4 0 0 0  and 6 4 0 0 0 
2064298		 # 	collision with: 5 2 4 0 0  and 5 3 4 0 0 
2064300		 # 	collision with: 3 8 0 0 0  and 4 8 0 0 0 
2064302		 # 	collision with: 5 1 8 0 0  and 5 3 8 0 0 
2064308		 # 	collision with: 0 3 0 0 0  and 1 3 0 0 0 
2064310		 # 	collision with: 5 1 3 0 0  and 5 3 3 0 0 
2064317		 # 	collision with: 3 1 0 0 0  and 0 2 0 0 0 
2064319		 # 	collision with: 5 4 1 0 0  and 5 3 2 0 0 
2064356		 # 	collision with: 3 7 0 0 0  and 5 7 0 0 0 
2064358		 # 	collision with: 5 1 7 0 0  and 5 2 7 0 0 
2064361		 # 	collision with: 3 1 0 0 0  and 0 2 0 0 0 
2064393		 # 	collision with: 1 1 0 0 0  and 2 1 0 0 0 
2064395		 # 	collision with: 5 1 1 0 0  and 5 2 1 0 0 
2064404		 # 	collision with: 1 1 0 0 0  and 2 1 0 0 0 
2064406		 # 	collision with: 5 0 1 0 0  and 5 1 1 0 0 
2064452		 # 	collision with: 2 9 0 0 0  and 4 9 0 0 0 
2064454		 # 	collision with: 5 3 9 0 0  and 5 4 9 0 0 
2064477		 # 	collision with: 5 1 0 0 0  and 1 2 0 0 0 
2064479		 # 	collision with: 5 5 1 0 0  and 5 4 2 0 0 
2064485		 # 	collision with: 0 1 0 0 0  and 2 2 0 0 0 
2064487		 # 	collision with: 10 2 1 0 0  and 10 2 2 0 0 
2064500		 # 	collision with: 4 5 0 0 0  and 6 5 0 0 0 
2064502		 # 	collision with: 5 1 5 0 0  and 5 2 5 0 0 
2064548		 # 	collision with: 4 6 0 0 0  and 5 6 0 0 0 
2064550		 # 	collision with: 5 2 6 0 0  and 5 3 6 0 0 
2064565		 # 	collision with: 5 1 0 0 0  and 1 2 0 0 0 
2064573		 # 	collision with: 0 1 0 0 0  and 2 2 0 0 0 
2064575		 # 	collision with: 4 2 1 0 0  and 4 2 2 0 0 
2064596		 # 	collision with: 0 2 0 0 0  and 2 2 0 0 0 
2064598		 # 	collision with: 5 0 2 0 0  and 5 1 2 0 0 
2064613		 # 	collision with: 1 1 0 0 0  and 2 1 0 0 0 
2064615		 # 	collision with: 5 1 1 0 0  and 5 2 1 0 0 
2064644		 # 	collision with: 2 10 0 0 0  and 3 10 0 0 0 
2064691		 # 	collision with: 9 3 1 0 0  and 9 3 2 0 0 
2064694		 # 	collision with: 5 2 4 0 0  and 5 3 4 0 0 
2064733		 # 	collision with: 0 3 0 0 0  and 1 3 0 0 0 
2064735		 # 	collision with: 7 3 1 0 0  and 7 3 2 0 0 
2064740		 # 	collision with: 3 8 0 0 0  and 4 8 0 0 0 
2064742		 # 	collision with: 5 1 8 0 0  and 5 3 8 0 0 
2064744		 # 	collision with: 5 1 8 3 0  and 0 0 0 0 1 
2064746		 # 	collision with: 8 2 3 0 0  and 10 0 0 1 0 
2064748		 # 	collision with: 0 2 0 0 0  and 2 2 0 0 0 
2064750		 # 	collision with: 5 2 2 0 0  and 5 3 2 0 0 
2064752		 # 	collision with: 1 1 0 0 0  and 2 1 0 0 0 
2064754		 # 	collision with: 5 4 1 0 0  and 5 5 1 0 0 
2064756		 # 	collision with: 3 8 0 0 0  and 4 8 0 0 0 
2064758		 # 	collision with: 5 2 8 0 0  and 5 3 8 0 0 
2064760		 # 	collision with: 4 6 0 0 0  and 5 6 0 0 0 
2064762		 # 	collision with: 5 4 6 0 0  and 5 6 6 0 0 
2064764		 # 	collision with: 3 7 0 0 0  and 5 7 0 0 0 
2064766		 # 	collision with: 5 0 7 0 0  and 5 1 7 0 0 
2064768		 # 	collision with: 5 4 0 0 0  and 6 4 0 0 0 
2064770		 # 	collision with: 5 3 4 0 0  and 5 4 4 0 0 
2064772		 # 	collision with: 4 5 0 0 0  and 6 5 0 0 0 
2064776		 # 	collision with: 0 3 0 0 0  and 1 3 0 0 0 
2064778		 # 	collision with: 5 1 3 0 0  and 5 2 3 0 0 
2064780		 # 	collision with: 2 10 0 0 0  and 3 10 0 0 0 
2064782		 # 	collision with: 5 4 10 0 0  and 5 6 10 0 0 
2064784		 # 	collision with: 2 9 0 0 0  and 4 9 0 0 0 
2064786		 # 	collision with: 5 1 9 0 0  and 5 2 9 0 0 
2064792		 # 	collision with: 0 2 0 0 0  and 2 2 0 0 0 
2064794		 # 	collision with: 5 2 2 0 0  and 5 3 2 0 0 
2064801		 # 	collision with: 3 6 0 0 0  and 7 7 0 0 0 
2064803		 # 	collision with: 5 0 0 0 0  and 5 2 0 0 0 
2064840		 # 	collision with: 1 1 0 0 0  and 2 1 0 0 0 
2064842		 # 	collision with: 5 4 1 0 0  and 5 5 1 0 0 
2064845		 # 	collision with: 3 6 0 0 0  and 7 7 0 0 0 
2064847		 # 	collision with: 5 0 0 0 0  and 5 2 0 0 0 
2064877		 # 	collision with: 7 0 0 0 0  and 1 2 0 0 0 
2064879		 # 	collision with: 5 10 0 0 0  and 5 0 2 0 0 
2064888		 # 	collision with: 3 8 0 0 0  and 4 8 0 0 0 
2064890		 # 	collision with: 5 2 8 0 0  and 5 3 8 0 0 
2064936		 # 	collision with: 4 6 0 0 0  and 5 6 0 0 0 
2064938		 # 	collision with: 5 4 6 0 0  and 5 6 6 0 0 
2064961		 # 	collision with: 1 1 0 0 0  and 2 1 0 0 0 
2064963		 # 	collision with: 5 0 0 0 0  and 5 3 2 0 0 
2064969		 # 	collision with: 8 0 0 0 0  and 1 2 0 0 0 
2064971		 # 	collision with: 7 4 0 0 0  and 7 4 2 0 0 
2064984		 # 	collision with: 3 7 0 0 0  and 5 7 0 0 0 
2064986		 # 	collision with: 5 0 7 0 0  and 5 1 7 0 0 
2065034		 # 	collision with: 5 3 4 0 0  and 5 4 4 0 0 
2065051		 # 	collision with: 5 0 0 0 0  and 5 1 2 0 0 
2065057		 # 	collision with: 8 0 0 0 0  and 1 2 0 0 0 
2065059		 # 	collision with: 5 4 0 0 0  and 5 4 2 0 0 
2065080		 # 	collision with: 4 5 0 0 0  and 6 5 0 0 0 
2065082		 # 	collision with: 5 4 5 0 0  and 5 5 5 0 0 
2065097		 # 	collision with: 7 0 0 0 0  and 1 2 0 0 0 
2065099		 # 	collision with: 5 3 0 0 0  and 5 0 2 0 0 
2065128		 # 	collision with: 0 3 0 0 0  and 1 3 0 0 0 
2065130		 # 	collision with: 5 1 3 0 0  and 5 2 3 0 0 
2065173		 # 	collision with: 4 6 0 0 0  and 5 6 0 0 0 
2065175		 # 	collision with: 5 2 1 0 0  and 5 3 1 0 0 
2065176		 # 	collision with: 2 10 0 0 0  and 3 10 0 0 0 
2065217		 # 	collision with: 4 6 0 0 0  and 5 6 0 0 0 
2065224		 # 	collision with: 2 9 0 0 0  and 4 9 0 0 0 
2065226		 # 	collision with: 5 1 9 0 0  and 5 2 9 0 0 
2065228		 # 	collision with: 1 8 3 2 0  and 2 2 0 0 1 
2065230		 # 	collision with: 5 5 6 0 0  and 6 4 0 1 0 
2065232		 # 	collision with: 1 1 0 0 0  and 2 1 0 0 0 
2065234		 # 	collision with: 5 2 1 0 0  and 5 4 1 0 0 
2065236		 # 	collision with: 4 6 0 0 0  and 5 6 0 0 0 
2065238		 # 	collision with: 5 1 6 0 0  and 5 3 6 0 0 
2065240		 # 	collision with: 5 4 0 0 0  and 6 4 0 0 0 
2065242		 # 	collision with: 5 4 4 0 0  and 5 5 4 0 0 
2065244		 # 	collision with: 0 3 0 0 0  and 1 3 0 0 0 
2065246		 # 	collision with: 5 0 3 0 0  and 5 2 3 0 0 
2065248		 # 	collision with: 2 9 0 0 0  and 4 9 0 0 0 
2065250		 # 	collision with: 5 4 9 0 0  and 5 6 9 0 0 
2065252		 # 	collision with: 0 2 0 0 0  and 2 2 0 0 0 
2065254		 # 	collision with: 5 4 2 0 0  and 5 5 2 0 0 
2065256		 # 	collision with: 3 8 0 0 0  and 4 8 0 0 0 
2065258		 # 	collision with: 5 2 8 0 0  and 5 4 8 0 0 
2065260		 # 	collision with: 3 7 0 0 0  and 5 7 0 0 0 
2065262		 # 	collision with: 5 4 7 0 0  and 5 6 7 0 0 
2065264		 # 	collision with: 4 5 0 0 0  and 6 5 0 0 0 
2065268		 # 	collision with: 2 10 0 0 0  and 3 10 0 0 0 
2065270		 # 	collision with: 5 0 10 0 0  and 5 2 10 0 0 
2065276		 # 	collision with: 1 1 0 0 0  and 2 1 0 0 0 
2065278		 # 	collision with: 5 2 1 0 0  and 5 4 1 0 0 
2065285		 # 	collision with: 5 4 0 0 0  and 6 4 0 0 0 
2065287		 # 	collision with: 6 2 0 0 0  and 6 2 1 0 0 
2065324		 # 	collision with: 4 6 0 0 0  and 5 6 0 0 0 
2065326		 # 	collision with: 5 1 6 0 0  and 5 3 6 0 0 
2065329		 # 	collision with: 5 4 0 0 0  and 6 4 0 0 0 
2065331		 # 	collision with: 3 2 0 0 0  and 3 2 1 0 0 
2065363		 # 	collision with: 5 1 0 0 0  and 5 3 1 0 0 
2065374		 # 	collision with: 5 4 4 0 0  and 5 5 4 0 0 
2065420		 # 	collision with: 0 3 0 0 0  and 1 3 0 0 0 
2065422		 # 	collision with: 5 0 3 0 0  and 5 2 3 0 0 
2065445		 # 	collision with: 7 0 0 0 0  and 5 1 0 0 0 
2065447		 # 	collision with: 5 0 0 0 0  and 5 1 0 0 0 
2065453		 # 	collision with: 7 0 0 0 0  and 9 1 0 0 0 
2065455		 # 	collision with: 4 6 0 0 0  and 4 6 1 0 0 
2065468		 # 	collision with: 2 9 0 0 0  and 4 9 0 0 0 
2065470		 # 	collision with: 5 4 9 0 0  and 5 6 9 0 0 
2065516		 # 	collision with: 0 2 0 0 0  and 2 2 0 0 0 
2065518		 # 	collision with: 5 4 2 0 0  and 5 5 2 0 0 
2065533		 # 	collision with: 7 0 0 0 0  and 5 1 0 0 0 
2065535		 # 	collision with: 5 0 0 0 0  and 5 1 0 0 0 
2065541		 # 	collision with: 7 0 0 0 0  and 9 1 0 0 0 
2065543		 # 	collision with: 6 6 0 0 0  and 6 6 1 0 0 
2065564		 # 	collision with: 3 8 0 0 0  and 4 8 0 0 0 
2065566		 # 	collision with: 5 2 8 0 0  and 5 4 8 0 0 
2065581		 # 	collision with: 0 0 0 0 0  and 3 1 0 0 0 
2065583		 # 	collision with: 5 3 0 0 0  and 5 4 1 0 0 
2065612		 # 	collision with: 3 7 0 0 0  and 5 7 0 0 0 
2065614		 # 	collision with: 5 4 7 0 0  and 5 6 7 0 0 
2065657		 # 	collision with: 2 9 0 0 0  and 4 9 0 0 0 
2065659		 # 	collision with: 4 9 0 0 0  and 4 9 1 0 0 
2065660		 # 	collision with: 4 5 0 0 0  and 6 5 0 0 0 
2065662		 # 	collision with: 5 1 5 0 0  and 5 3 5 0 0 
2065701		 # 	collision with: 2 9 0 0 0  and 4 9 0 0 0 
2065703		 # 	collision with: 5 4 0 0 0  and 5 2 1 0 0 
2065708		 # 	collision with: 2 10 0 0 0  and 3 10 0 0 0 
2065718		 # 	collision with: 5 0 0 0 0  and 5 1 0 0 0 
2065722		 # 	collision with: 5 1 0 0 0  and 5 2 0 0 0 
2065726		 # 	collision with: 5 2 0 0 0  and 5 3 0 0 0 
2065730		 # 	collision with: 5 3 0 0 0  and 5 4 0 0 0 
2065734		 # 	collision with: 5 4 0 0 0  and 5 5 0 0 0 
2065738		 # 	collision with: 5 5 0 0 0  and 5 6 0 0 0 
2065742		 # 	collision with: 5 0 0 0 0  and 5 2 0 0 0 
2065746		 # 	collision with: 5 1 0 0 0  and 5 3 0 0 0 
2065750		 # 	collision with: 5 2 0 0 0  and 5 4 0 0 0 
2065754		 # 	collision with: 5 3 0 0 0  and 5 5 0 0 0 
2065784		 # 	collision with: 4 0 0 0 0  and 6 0 0 0 0 
2065786		 # 	collision with: 5 0 0 0 0  and 5 2 0 0 0 
2065793		 # 	collision with: 0 1 0 0 0  and 2 1 0 0 0 
2065795		 # 	collision with: 5 4 5 0 0  and 5 6 5 0 0 
2065812		 # 	collision with: 4 0 0 0 0  and 6 0 0 0 0 
2065814		 # 	collision with: 5 2 0 0 0  and 5 3 0 0 0 
2065817		 # 	collision with: 3 5 0 0 0  and 0 6 0 0 0 
2065819		 # 	collision with: 3 2 5 0 0  and 3 2 6 0 0 
2065873		 # 	collision with: 3 10 0 0 0  and 4 10 0 0 0 
2065875		 # 	collision with: 5 3 2 0 0  and 5 5 2 0 0 
2065884		 # 	collision with: 4 0 0 0 0  and 6 0 0 0 0 
2065886		 # 	collision with: 5 3 0 0 0  and 5 5 0 0 0 
2065893		 # 	collision with: 3 3 0 0 0  and 5 3 0 0 0 
2065895		 # 	collision with: 5 4 5 0 0  and 5 0 6 0 0 
2065912		 # 	collision with: 4 0 0 0 0  and 6 0 0 0 0 
2065914		 # 	collision with: 5 5 0 0 0  and 5 6 0 0 0 
2065940		 # 	collision with: 4 0 0 0 0  and 6 0 0 0 0 
2065942		 # 	collision with: 5 1 0 0 0  and 5 2 0 0 0 
2065969		 # 	collision with: 0 1 0 0 0  and 2 1 0 0 0 
2065971		 # 	collision with: 5 4 5 0 0  and 5 6 5 0 0 
2065985		 # 	collision with: 1 9 0 0 0  and 3 9 0 0 0 
2065987		 # 	collision with: 4 4 5 0 0  and 4 4 6 0 0 
2066012		 # 	collision with: 4 0 0 0 0  and 6 0 0 0 0 
2066014		 # 	collision with: 5 2 0 0 0  and 5 4 0 0 0 
2066040		 # 	collision with: 4 0 0 0 0  and 6 0 0 0 0 
2066042		 # 	collision with: 5 4 0 0 0  and 5 5 0 0 0 
2066061		 # 	collision with: 2 6 0 0 0  and 4 6 0 0 0 
2066063		 # 	collision with: 5 6 5 0 0  and 5 2 6 0 0 
2066068		 # 	collision with: 4 0 0 0 0  and 6 0 0 0 0 
2066070		 # 	collision with: 5 0 0 0 0  and 5 1 0 0 0 
2066081		 # 	collision with: 3 5 0 0 0  and 0 6 0 0 0 
2066083		 # 	collision with: 9 2 5 0 0  and 9 2 6 0 0 
2066137		 # 	collision with: 3 10 0 0 0  and 4 10 0 0 0 
2066139		 # 	collision with: 5 3 2 0 0  and 5 5 2 0 0 
2066140		 # 	collision with: 4 0 0 0 0  and 6 0 0 0 0 
2066142		 # 	collision with: 5 1 0 0 0  and 5 3 0 0 0 
2066161		 # 	collision with: 1 9 0 0 0  and 3 9 0 0 0 
2066163		 # 	collision with: 5 5 5 0 0  and 5 2 6 0 0 
2066168		 # 	collision with: 4 0 0 0 0  and 6 0 0 0 0 
2066170		 # 	collision with: 5 3 0 0 0  and 5 4 0 0 0 
2066196		 # 	collision with: 3 8 5 9 0  and 7 1 0 0 1 
2066198		 # 	collision with: 4 2 6 0 0  and 3 6 0 1 0 
2066200		 # 	collision with: 3 10 0 0 0  and 4 10 0 0 0 
2066202		 # 	collision with: 5 4 10 0 0  and 5 5 10 0 0 
2066204		 # 	collision with: 1 5 0 0 0  and 2 5 0 0 0 
2066208		 # 	collision with: 4 7 0 0 0  and 5 7 0 0 0 
2066210		 # 	collision with: 5 1 7 0 0  and 5 3 7 0 0 
2066212		 # 	collision with: 0 8 0 0 0  and 1 8 0 0 0 
2066214		 # 	collision with: 5 4 8 0 0  and 5 5 8 0 0 
2066216		 # 	collision with: 2 2 0 0 0  and 3 2 0 0 0 
2066218		 # 	collision with: 5 1 2 0 0  and 5 3 2 0 0 
2066220		 # 	collision with: 1 9 0 0 0  and 3 9 0 0 0 
2066222		 # 	collision with: 5 2 9 0 0  and 5 3 9 0 0 
2066224		 # 	collision with: 3 3 0 0 0  and 5 3 0 0 0 
2066226		 # 	collision with: 5 5 3 0 0  and 5 6 3 0 0 
2066228		 # 	collision with: 5 4 0 0 0  and 6 4 0 0 0 
2066230		 # 	collision with: 5 2 4 0 0  and 5 3 4 0 0 
2066232		 # 	collision with: 2 6 0 0 0  and 4 6 0 0 0 
2066234		 # 	collision with: 5 0 6 0 0  and 5 2 6 0 0 
2066236		 # 	collision with: 0 1 0 0 0  and 2 1 0 0 0 
2066238		 # 	collision with: 5 5 1 0 0  and 5 6 1 0 0 
2066268		 # 	collision with: 3 3 0 0 0  and 5 3 0 0 0 
2066270		 # 	collision with: 5 5 3 0 0  and 5 6 3 0 0 
2066277		 # 	collision with: 4 0 0 0 0  and 6 0 0 0 0 
2066279		 # 	collision with: 5 3 4 0 0  and 5 4 4 0 0 
2066296		 # 	collision with: 4 7 0 0 0  and 5 7 0 0 0 
2066298		 # 	collision with: 5 1 7 0 0  and 5 3 7 0 0 
2066301		 # 	collision with: 4 0 0 0 0  and 6 0 0 0 0 
2066303		 # 	collision with: 5 0 2 0 0  and 5 2 2 0 0 
2066357		 # 	collision with: 4 0 0 0 0  and 6 0 0 0 0 
2066359		 # 	collision with: 5 5 3 0 0  and 5 6 3 0 0 
2066368		 # 	collision with: 0 1 0 0 0  and 2 1 0 0 0 
2066370		 # 	collision with: 5 5 1 0 0  and 5 6 1 0 0 
2066377		 # 	collision with: 4 0 0 0 0  and 6 0 0 0 0 
2066379		 # 	collision with: 5 2 5 0 0  and 5 3 5 0 0 
2066396		 # 	collision with: 1 9 0 0 0  and 3 9 0 0 0 
2066398		 # 	collision with: 5 2 9 0 0  and 5 3 9 0 0 
2066424		 # 	collision with: 1 5 0 0 0  and 2 5 0 0 0 
2066453		 # 	collision with: 4 0 0 0 0  and 6 0 0 0 0 
2066455		 # 	collision with: 5 3 4 0 0  and 5 4 4 0 0 
2066469		 # 	collision with: 4 0 0 0 0  and 6 0 0 0 0 
2066496		 # 	collision with: 2 6 0 0 0  and 4 6 0 0 0 
2066498		 # 	collision with: 5 0 6 0 0  and 5 2 6 0 0 
2066524		 # 	collision with: 2 2 0 0 0  and 3 2 0 0 0 
2066526		 # 	collision with: 5 1 2 0 0  and 5 3 2 0 0 
2066545		 # 	collision with: 4 0 0 0 0  and 6 0 0 0 0 
2066547		 # 	collision with: 5 5 1 0 0  and 5 6 1 0 0 
2066554		 # 	collision with: 5 4 10 0 0  and 5 5 10 0 0 
2066567		 # 	collision with: 5 0 2 0 0  and 5 2 2 0 0 
2066621		 # 	collision with: 4 0 0 0 0  and 6 0 0 0 0 
2066623		 # 	collision with: 5 5 3 0 0  and 5 6 3 0 0 
2066624		 # 	collision with: 5 4 0 0 0  and 6 4 0 0 0 
2066626		 # 	collision with: 5 2 4 0 0  and 5 3 4 0 0 
2066645		 # 	collision with: 4 0 0 0 0  and 6 0 0 0 0 
2066652		 # 	collision with: 0 8 0 0 0  and 1 8 0 0 0 
2066654		 # 	collision with: 5 4 8 0 0  and 5 5 8 0 0 
2066680		 # 	collision with: 9 9 2 8 0  and 5 1 0 0 1 
2066682		 # 	collision with: 8 4 4 0 0  and 6 2 1 1 0 
2066684		 # 	collision with: 1 9 0 0 0  and 3 9 0 0 0 
2066686		 # 	collision with: 5 2 9 0 0  and 5 4 9 0 0 
2066688		 # 	collision with: 3 10 0 0 0  and 4 10 0 0 0 
2066690		 # 	collision with: 5 5 10 0 0  and 5 6 10 0 0 
2066692		 # 	collision with: 3 3 0 0 0  and 5 3 0 0 0 
2066694		 # 	collision with: 5 1 3 0 0  and 5 2 3 0 0 
2066696		 # 	collision with: 1 5 0 0 0  and 2 5 0 0 0 
2066700		 # 	collision with: 5 4 0 0 0  and 6 4 0 0 0 
2066702		 # 	collision with: 5 4 4 0 0  and 5 6 4 0 0 
2066704		 # 	collision with: 4 7 0 0 0  and 5 7 0 0 0 
2066706		 # 	collision with: 5 4 7 0 0  and 5 6 7 0 0 
2066708		 # 	collision with: 2 6 0 0 0  and 4 6 0 0 0 
2066710		 # 	collision with: 5 4 6 0 0  and 5 5 6 0 0 
2066712		 # 	collision with: 0 8 0 0 0  and 1 8 0 0 0 
2066714		 # 	collision with: 5 2 8 0 0  and 5 4 8 0 0 
2066716		 # 	collision with: 0 1 0 0 0  and 2 1 0 0 0 
2066718		 # 	collision with: 5 4 1 0 0  and 5 5 1 0 0 
2066720		 # 	collision with: 2 2 0 0 0  and 3 2 0 0 0 
2066722		 # 	collision with: 5 1 2 0 0  and 5 2 2 0 0 
2066752		 # 	collision with: 2 6 0 0 0  and 4 6 0 0 0 
2066754		 # 	collision with: 5 4 6 0 0  and 5 5 6 0 0 
2066761		 # 	collision with: 2 4 0 0 0  and 4 5 0 0 0 
2066763		 # 	collision with: 5 1 3 0 0  and 5 3 3 0 0 
2066780		 # 	collision with: 3 3 0 0 0  and 5 3 0 0 0 
2066782		 # 	collision with: 5 1 3 0 0  and 5 2 3 0 0 
2066785		 # 	collision with: 3 3 0 0 0  and 5 3 0 0 0 
2066841		 # 	collision with: 0 1 0 0 0  and 2 1 0 0 0 
2066843		 # 	collision with: 5 1 4 0 0  and 5 2 4 0 0 
2066852		 # 	collision with: 2 2 0 0 0  and 3 2 0 0 0 
2066854		 # 	collision with: 5 1 2 0 0  and 5 2 2 0 0 
2066861		 # 	collision with: 3 4 0 0 0  and 1 5 0 0 0 
2066863		 # 	collision with: 5 3 2 0 0  and 5 4 2 0 0 
2066880		 # 	collision with: 4 7 0 0 0  and 5 7 0 0 0 
2066882		 # 	collision with: 5 4 7 0 0  and 5 6 7 0 0 
2066910		 # 	collision with: 5 5 10 0 0  and 5 6 10 0 0 
2066939		 # 	collision with: 5 1 3 0 0  and 5 3 3 0 0 
2066953		 # 	collision with: 2 2 0 0 0  and 3 2 0 0 0 
2066955		 # 	collision with: 5 3 4 0 0  and 5 6 5 0 0 
2066980		 # 	collision with: 0 1 0 0 0  and 2 1 0 0 0 
2066982		 # 	collision with: 5 4 1 0 0  and 5 5 1 0 0 
2067008		 # 	collision with: 5 4 0 0 0  and 6 4 0 0 0 
2067010		 # 	collision with: 5 4 4 0 0  and 5 6 4 0 0 
2067029		 # 	collision with: 1 5 0 0 0  and 2 5 0 0 0 
2067031		 # 	collision with: 5 10 4 0 0  and 5 7 5 0 0 
2067036		 # 	collision with: 1 9 0 0 0  and 3 9 0 0 0 
2067038		 # 	collision with: 5 2 9 0 0  and 5 4 9 0 0 
2067049		 # 	collision with: 3 3 0 0 0  and 5 3 0 0 0 
2067105		 # 	collision with: 0 1 0 0 0  and 2 1 0 0 0 
2067107		 # 	collision with: 5 1 4 0 0  and 5 2 4 0 0 
2067108		 # 	collision with: 0 8 0 0 0  and 1 8 0 0 0 
2067110		 # 	collision with: 5 2 8 0 0  and 5 4 8 0 0 
2067129		 # 	collision with: 2 2 0 0 0  and 3 2 0 0 0 
2067131		 # 	collision with: 5 5 4 0 0  and 5 3 5 0 0 
2067136		 # 	collision with: 1 5 0 0 0  and 2 5 0 0 0 
2067164		 # 	collision with: 8 1 3 5 0  and 10 1 0 0 1 
2067166		 # 	collision with: 9 6 2 0 0  and 6 8 0 1 0 
2067168		 # 	collision with: 0 8 0 0 0  and 1 8 0 0 0 
2067170		 # 	collision with: 5 1 8 0 0  and 5 2 8 0 0 
2067172		 # 	collision with: 5 4 0 0 0  and 6 4 0 0 0 
2067174		 # 	collision with: 5 1 4 0 0  and 5 3 4 0 0 
2067176		 # 	collision with: 3 10 0 0 0  and 4 10 0 0 0 
2067178		 # 	collision with: 5 0 10 0 0  and 5 2 10 0 0 
2067180		 # 	collision with: 2 2 0 0 0  and 3 2 0 0 0 
2067182		 # 	collision with: 5 0 2 0 0  and 5 2 2 0 0 
2067184		 # 	collision with: 2 6 0 0 0  and 4 6 0 0 0 
2067186		 # 	collision with: 5 2 6 0 0  and 5 3 6 0 0 
2067188		 # 	collision with: 1 5 0 0 0  and 2 5 0 0 0 
2067192		 # 	collision with: 1 9 0 0 0  and 3 9 0 0 0 
2067194		 # 	collision with: 5 3 9 0 0  and 5 4 9 0 0 
2067196		 # 	collision with: 0 1 0 0 0  and 2 1 0 0 0 
2067198		 # 	collision with: 5 3 1 0 0  and 5 4 1 0 0 
2067200		 # 	collision with: 4 7 0 0 0  and 5 7 0 0 0 
2067202		 # 	collision with: 5 2 7 0 0  and 5 3 7 0 0 
2067204		 # 	collision with: 3 3 0 0 0  and 5 3 0 0 0 
2067206		 # 	collision with: 5 2 3 0 0  and 5 4 3 0 0 
2067236		 # 	collision with: 1 9 0 0 0  and 3 9 0 0 0 
2067238		 # 	collision with: 5 3 9 0 0  and 5 4 9 0 0 
2067245		 # 	collision with: 10 3 0 0 0  and 1 5 0 0 0 
2067247		 # 	collision with: 5 0 2 0 0  and 5 1 2 0 0 
2067266		 # 	collision with: 5 0 10 0 0  and 5 2 10 0 0 
2067271		 # 	collision with: 5 9 3 0 0  and 5 5 5 0 0 
2067325		 # 	collision with: 2 2 0 0 0  and 3 2 0 0 0 
2067327		 # 	collision with: 5 2 5 0 0  and 5 4 5 0 0 
2067336		 # 	collision with: 3 3 0 0 0  and 5 3 0 0 0 
2067338		 # 	collision with: 5 2 3 0 0  and 5 4 3 0 0 
2067345		 # 	collision with: 1 5 0 0 0  and 2 5 0 0 0 
2067347		 # 	collision with: 5 6 3 0 0  and 5 6 5 0 0 
2067364		 # 	collision with: 1 5 0 0 0  and 2 5 0 0 0 
2067392		 # 	collision with: 5 4 0 0 0  and 6 4 0 0 0 
2067394		 # 	collision with: 5 1 4 0 0  and 5 3 4 0 0 
2067421		 # 	collision with: 10 3 0 0 0  and 1 5 0 0 0 
2067423		 # 	collision with: 5 0 2 0 0  and 5 1 2 0 0 
2067437		 # 	collision with: 5 4 0 0 0  and 6 4 0 0 0 
2067439		 # 	collision with: 5 2 1 0 0  and 5 4 1 0 0 
2067464		 # 	collision with: 4 7 0 0 0  and 5 7 0 0 0 
2067466		 # 	collision with: 5 2 7 0 0  and 5 3 7 0 0 
2067492		 # 	collision with: 2 6 0 0 0  and 4 6 0 0 0 
2067494		 # 	collision with: 5 2 6 0 0  and 5 3 6 0 0 
2067513		 # 	collision with: 6 3 0 0 0  and 5 5 0 0 0 
2067515		 # 	collision with: 5 3 0 0 0  and 5 5 0 0 0 
2067520		 # 	collision with: 0 8 0 0 0  and 1 8 0 0 0 
2067522		 # 	collision with: 5 1 8 0 0  and 5 2 8 0 0 
2067533		 # 	collision with: 0 3 0 0 0  and 3 5 0 0 0 
2067535		 # 	collision with: 5 7 3 0 0  and 5 7 5 0 0 
2067589		 # 	collision with: 2 2 0 0 0  and 3 2 0 0 0 
2067591		 # 	collision with: 5 2 5 0 0  and 5 4 5 0 0 
2067592		 # 	collision with: 0 1 0 0 0  and 2 1 0 0 0 
2067594		 # 	collision with: 5 3 1 0 0  and 5 4 1 0 0 
2067613		 # 	collision with: 5 4 0 0 0  and 6 4 0 0 0 
2067615		 # 	collision with: 5 2 1 0 0  and 5 4 1 0 0 
2067620		 # 	collision with: 2 2 0 0 0  and 3 2 0 0 0 
2067622		 # 	collision with: 5 0 2 0 0  and 5 2 2 0 0 
2067648		 # 	collision with: 8 6 2 7 0  and 0 1 0 0 1 
2067650		 # 	collision with: 4 0 8 0 0  and 0 5 1 1 0 
2067652		 # 	collision with: 4 7 0 0 0  and 5 7 0 0 0 
2067654		 # 	collision with: 5 5 7 0 0  and 5 6 7 0 0 
2067656		 # 	collision with: 1 9 0 0 0  and 3 9 0 0 0 
2067658		 # 	collision with: 5 3 9 0 0  and 5 5 9 0 0 
2067660		 # 	collision with: 2 6 0 0 0  and 4 6 0 0 0 
2067662		 # 	collision with: 5 0 6 0 0  and 5 1 6 0 0 
2067664		 # 	collision with: 3 10 0 0 0  and 4 10 0 0 0 
2067666		 # 	collision with: 5 1 10 0 0  and 5 3 10 0 0 
2067668		 # 	collision with: 0 8 0 0 0  and 1 8 0 0 0 
2067670		 # 	collision with: 5 5 8 0 0  and 5 6 8 0 0 
2067672		 # 	collision with: 3 3 0 0 0  and 5 3 0 0 0 
2067674		 # 	collision with: 5 4 3 0 0  and 5 5 3 0 0 
2067676		 # 	collision with: 0 1 0 0 0  and 2 1 0 0 0 
2067678		 # 	collision with: 5 2 1 0 0  and 5 3 1 0 0 
2067680		 # 	collision with: 1 5 0 0 0  and 2 5 0 0 0 
2067684		 # 	collision with: 2 2 0 0 0  and 3 2 0 0 0 
2067686		 # 	collision with: 5 0 2 0 0  and 5 1 2 0 0 
2067688		 # 	collision with: 5 4 0 0 0  and 6 4 0 0 0 
2067690		 # 	collision with: 5 4 4 0 0  and 5 5 4 0 0 
2067720		 # 	collision with: 0 1 0 0 0  and 2 1 0 0 0 
2067722		 # 	collision with: 5 2 1 0 0  and 5 3 1 0 0 
2067729		 # 	collision with: 0 8 0 0 0  and 1 8 0 0 0 
2067731		 # 	collision with: 5 4 1 0 0  and 5 5 1 0 0 
2067748		 # 	collision with: 2 6 0 0 0  and 4 6 0 0 0 
2067750		 # 	collision with: 5 0 6 0 0  and 5 1 6 0 0 
2067753		 # 	collision with: 9 3 0 0 0  and 3 4 0 0 0 
2067755		 # 	collision with: 5 3 0 0 0  and 5 4 0 0 0 
2067809		 # 	collision with: 3 3 0 0 0  and 5 3 0 0 0 
2067811		 # 	collision with: 3 6 3 0 0  and 3 6 4 0 0 
2067820		 # 	collision with: 5 4 0 0 0  and 6 4 0 0 0 
2067822		 # 	collision with: 5 4 4 0 0  and 5 5 4 0 0 
2067829		 # 	collision with: 2 2 0 0 0  and 3 2 0 0 0 
2067831		 # 	collision with: 9 9 3 0 0  and 9 9 4 0 0 
2067848		 # 	collision with: 3 3 0 0 0  and 5 3 0 0 0 
2067850		 # 	collision with: 5 4 3 0 0  and 5 5 3 0 0 
2067876		 # 	collision with: 1 9 0 0 0  and 3 9 0 0 0 
2067878		 # 	collision with: 5 3 9 0 0  and 5 5 9 0 0 
2067905		 # 	collision with: 0 8 0 0 0  and 1 8 0 0 0 
2067907		 # 	collision with: 5 4 1 0 0  and 5 5 1 0 0 
2067921		 # 	collision with: 2 6 0 0 0  and 4 6 0 0 0 
2067923		 # 	collision with: 5 0 3 0 0  and 5 1 3 0 0 
2067948		 # 	collision with: 2 2 0 0 0  and 3 2 0 0 0 
2067950		 # 	collision with: 5 0 2 0 0  and 5 1 2 0 0 
2067976		 # 	collision with: 0 8 0 0 0  and 1 8 0 0 0 
2067978		 # 	collision with: 5 5 8 0 0  and 5 6 8 0 0 
2067997		 # 	collision with: 10 3 0 0 0  and 3 4 0 0 0 
2067999		 # 	collision with: 4 2 3 0 0  and 4 2 4 0 0 
2068004		 # 	collision with: 4 7 0 0 0  and 5 7 0 0 0 
2068006		 # 	collision with: 5 5 7 0 0  and 5 6 7 0 0 
2068017		 # 	collision with: 9 3 0 0 0  and 3 4 0 0 0 
2068019		 # 	collision with: 5 3 0 0 0  and 5 4 0 0 0 
2068073		 # 	collision with: 3 3 0 0 0  and 5 3 0 0 0 
2068075		 # 	collision with: 1 6 3 0 0  and 1 6 4 0 0 
2068076		 # 	collision with: 1 5 0 0 0  and 2 5 0 0 0 
2068099		 # 	collision with: 5 0 3 0 0  and 5 1 3 0 0 
2068106		 # 	collision with: 5 1 10 0 0  and 5 3 10 0 0 
2068132		 # 	collision with: 7 5 1 1 0  and 5 0 0 0 1 
2068134		 # 	collision with: 0 2 10 0 0  and 6 4 0 1 0 
2068136		 # 	collision with: 2 6 0 0 0  and 4 6 0 0 0 
2068138		 # 	collision with: 5 3 6 0 0  and 5 5 6 0 0 
2068140		 # 	collision with: 3 3 0 0 0  and 5 3 0 0 0 
2068142		 # 	collision with: 5 0 3 0 0  and 5 1 3 0 0 
2068144		 # 	collision with: 2 2 0 0 0  and 3 2 0 0 0 
2068146		 # 	collision with: 5 5 2 0 0  and 5 6 2 0 0 
2068148		 # 	collision with: 4 7 0 0 0  and 5 7 0 0 0 
2068150		 # 	collision with: 5 2 7 0 0  and 5 4 7 0 0 
2068152		 # 	collision with: 3 10 0 0 0  and 4 10 0 0 0 
2068154		 # 	collision with: 5 2 10 0 0  and 5 4 10 0 0 
2068156		 # 	collision with: 0 1 0 0 0  and 2 1 0 0 0 
2068158		 # 	collision with: 5 1 1 0 0  and 5 2 1 0 0 
2068160		 # 	collision with: 5 4 0 0 0  and 6 4 0 0 0 
2068162		 # 	collision with: 5 1 4 0 0  and 5 2 4 0 0 
2068164		 # 	collision with: 1 9 0 0 0  and 3 9 0 0 0 
2068166		 # 	collision with: 5 4 9 0 0  and 5 5 9 0 0 
2068168		 # 	collision with: 0 8 0 0 0  and 1 8 0 0 0 
2068170		 # 	collision with: 5 3 8 0 0  and 5 5 8 0 0 
2068172		 # 	collision with: 1 5 0 0 0  and 2 5 0 0 0 
2068204		 # 	collision with: 5 4 0 0 0  and 6 4 0 0 0 
2068206		 # 	collision with: 5 1 4 0 0  and 5 2 4 0 0 
2068213		 # 	collision with: 4 7 0 0 0  and 5 7 0 0 0 
2068215		 # 	collision with: 5 2 0 0 0  and 5 4 0 0 0 
2068232		 # 	collision with: 2 2 0 0 0  and 3 2 0 0 0 
2068234		 # 	collision with: 5 5 2 0 0  and 5 6 2 0 0 
2068237		 # 	collision with: 0 1 0 0 0  and 2 1 0 0 0 
2068239		 # 	collision with: 5 2 3 0 0  and 5 3 3 0 0 
2068293		 # 	collision with: 5 4 0 0 0  and 6 4 0 0 0 
2068295		 # 	collision with: 9 8 2 0 0  and 9 8 4 0 0 
2068304		 # 	collision with: 1 5 0 0 0  and 2 5 0 0 0 
2068313		 # 	collision with: 3 10 0 0 0  and 4 10 0 0 0 
2068315		 # 	collision with: 2 1 2 0 0  and 2 1 4 0 0 
2068332		 # 	collision with: 0 1 0 0 0  and 2 1 0 0 0 
2068334		 # 	collision with: 5 1 1 0 0  and 5 2 1 0 0 
2068360		 # 	collision with: 3 3 0 0 0  and 5 3 0 0 0 
2068362		 # 	collision with: 5 0 3 0 0  and 5 1 3 0 0 
2068389		 # 	collision with: 4 7 0 0 0  and 5 7 0 0 0 
2068391		 # 	collision with: 5 2 0 0 0  and 5 4 0 0 0 
2068405		 # 	collision with: 2 2 0 0 0  and 4 4 0 0 0 
2068407		 # 	collision with: 5 0 2 0 0  and 5 5 4 0 0 
2068432		 # 	collision with: 0 8 0 0 0  and 1 8 0 0 0 
2068434		 # 	collision with: 5 3 8 0 0  and 5 5 8 0 0 
2068462		 # 	collision with: 5 2 10 0 0  and 5 4 10 0 0 
2068488		 # 	collision with: 2 6 0 0 0  and 4 6 0 0 0 
2068490		 # 	collision with: 5 3 6 0 0  and 5 5 6 0 0 
2068501		 # 	collision with: 0 1 0 0 0  and 2 1 0 0 0 
2068503		 # 	collision with: 5 2 3 0 0  and 5 3 3 0 0 
2068557		 # 	collision with: 5 4 0 0 0  and 6 4 0 0 0 
2068559		 # 	collision with: 3 8 2 0 0  and 3 8 4 0 0 
2068560		 # 	collision with: 1 9 0 0 0  and 3 9 0 0 0 
2068562		 # 	collision with: 5 4 9 0 0  and 5 5 9 0 0 
2068581		 # 	collision with: 2 2 0 0 0  and 4 4 0 0 0 
2068583		 # 	collision with: 2 6 2 0 0  and 2 6 4 0 0 
2068588		 # 	collision with: 4 7 0 0 0  and 5 7 0 0 0 
2068590		 # 	collision with: 5 2 7 0 0  and 5 4 7 0 0 
2068616		 # 	collision with: 7 3 5 3 0  and 6 1 0 0 1 
2068618		 # 	collision with: 6 5 1 0 0  and 0 4 0 1 0 
2068620		 # 	collision with: 1 5 0 0 0  and 2 5 0 0 0 
2068624		 # 	collision with: 0 8 0 0 0  and 1 8 0 0 0 
2068626		 # 	collision with: 5 2 8 0 0  and 5 3 8 0 0 
2068628		 # 	collision with: 1 9 0 0 0  and 3 9 0 0 0 
2068630		 # 	collision with: 5 4 9 0 0  and 5 6 9 0 0 
2068632		 # 	collision with: 5 4 0 0 0  and 6 4 0 0 0 
2068634		 # 	collision with: 5 3 4 0 0  and 5 5 4 0 0 
2068636		 # 	collision with: 0 1 0 0 0  and 2 1 0 0 0 
2068638		 # 	collision with: 5 0 1 0 0  and 5 1 1 0 0 
2068640		 # 	collision with: 3 10 0 0 0  and 4 10 0 0 0 
2068642		 # 	collision with: 5 3 10 0 0  and 5 5 10 0 0 
2068644		 # 	collision with: 4 7 0 0 0  and 5 7 0 0 0 
2068646		 # 	collision with: 5 0 7 0 0  and 5 1 7 0 0 
2068648		 # 	collision with: 2 2 0 0 0  and 3 2 0 0 0 
2068650		 # 	collision with: 5 4 2 0 0  and 5 6 2 0 0 
2068652		 # 	collision with: 3 3 0 0 0  and 5 3 0 0 0 
2068654		 # 	collision with: 5 1 3 0 0  and 5 3 3 0 0 
2068656		 # 	collision with: 2 6 0 0 0  and 4 6 0 0 0 
2068658		 # 	collision with: 5 1 6 0 0  and 5 3 6 0 0 
2068688		 # 	collision with: 4 7 0 0 0  and 5 7 0 0 0 
2068690		 # 	collision with: 5 0 7 0 0  and 5 1 7 0 0 
2068697		 # 	collision with: 2 6 0 0 0  and 4 6 0 0 0 
2068699		 # 	collision with: 3 9 2 0 0  and 3 9 3 0 0 
2068716		 # 	collision with: 1 9 0 0 0  and 3 9 0 0 0 
2068718		 # 	collision with: 5 4 9 0 0  and 5 6 9 0 0 
2068721		 # 	collision with: 5 2 0 0 0  and 0 3 0 0 0 
2068723		 # 	collision with: 4 1 2 0 0  and 4 1 3 0 0 
2068777		 # 	collision with: 1 5 0 0 0  and 2 5 0 0 0 
2068779		 # 	collision with: 5 6 2 0 0  and 5 1 3 0 0 
2068788		 # 	collision with: 2 6 0 0 0  and 4 6 0 0 0 
2068790		 # 	collision with: 5 1 6 0 0  and 5 3 6 0 0 
2068818		 # 	collision with: 5 3 10 0 0  and 5 5 10 0 0 
2068844		 # 	collision with: 0 8 0 0 0  and 1 8 0 0 0 
2068846		 # 	collision with: 5 2 8 0 0  and 5 3 8 0 0 
2068873		 # 	collision with: 2 6 0 0 0  and 4 6 0 0 0 
2068875		 # 	collision with: 5 2 2 0 0  and 5 1 3 0 0 
2068889		 # 	collision with: 3 10 0 0 0  and 4 10 0 0 0 
2068891		 # 	collision with: 1 2 2 0 0  and 1 2 3 0 0 
2068916		 # 	collision with: 3 3 0 0 0  and 5 3 0 0 0 
2068918		 # 	collision with: 5 1 3 0 0  and 5 3 3 0 0 
2068944		 # 	collision with: 0 1 0 0 0  and 2 1 0 0 0 
2068946		 # 	collision with: 5 0 1 0 0  and 5 1 1 0 0 
2068965		 # 	collision with: 3 3 0 0 0  and 5 3 0 0 0 
2068967		 # 	collision with: 1 7 2 0 0  and 1 7 3 0 0 
2068972		 # 	collision with: 1 5 0 0 0  and 2 5 0 0 0 
2068985		 # 	collision with: 5 2 0 0 0  and 0 3 0 0 0 
2068987		 # 	collision with: 1 1 2 0 0  and 1 1 3 0 0 
2069041		 # 	collision with: 1 5 0 0 0  and 2 5 0 0 0 
2069043		 # 	collision with: 5 10 2 0 0  and 5 10 3 0 0 
2069044		 # 	collision with: 2 2 0 0 0  and 3 2 0 0 0 
2069046		 # 	collision with: 5 4 2 0 0  and 5 6 2 0 0 
2069065		 # 	collision with: 3 10 0 0 0  and 4 10 0 0 0 
2069067		 # 	collision with: 5 2 2 0 0  and 5 2 3 0 0 
2069072		 # 	collision with: 5 4 0 0 0  and 6 4 0 0 0 
2069074		 # 	collision with: 5 3 4 0 0  and 5 5 4 0 0 
2069100		 # 	collision with: 7 5 9 3 0  and 2 1 0 0 1 
2069102		 # 	collision with: 7 6 7 0 0  and 0 5 3 1 0 
2069104		 # 	collision with: 5 4 0 0 0  and 6 4 0 0 0 
2069106		 # 	collision with: 5 0 4 0 0  and 5 2 4 0 0 
2069108		 # 	collision with: 2 2 0 0 0  and 3 2 0 0 0 
2069110		 # 	collision with: 5 4 2 0 0  and 5 5 2 0 0 
2069112		 # 	collision with: 1 5 0 0 0  and 2 5 0 0 0 
2069116		 # 	collision with: 0 1 0 0 0  and 2 1 0 0 0 
2069118		 # 	collision with: 5 4 1 0 0  and 5 6 1 0 0 
2069120		 # 	collision with: 3 3 0 0 0  and 5 3 0 0 0 
2069122		 # 	collision with: 5 3 3 0 0  and 5 4 3 0 0 
2069124		 # 	collision with: 0 8 0 0 0  and 1 8 0 0 0 
2069126		 # 	collision with: 5 0 8 0 0  and 5 2 8 0 0 
2069128		 # 	collision with: 3 10 0 0 0  and 4 10 0 0 0 
2069130		 # 	collision with: 5 4 10 0 0  and 5 6 10 0 0 
2069132		 # 	collision with: 2 6 0 0 0  and 4 6 0 0 0 
2069134		 # 	collision with: 5 5 6 0 0  and 5 6 6 0 0 
2069136		 # 	collision with: 1 9 0 0 0  and 3 9 0 0 0 
2069138		 # 	collision with: 5 5 9 0 0  and 5 6 9 0 0 
2069140		 # 	collision with: 4 7 0 0 0  and 5 7 0 0 0 
2069142		 # 	collision with: 5 3 7 0 0  and 5 4 7 0 0 
2069174		 # 	collision with: 5 4 10 0 0  and 5 6 10 0 0 
2069183		 # 	collision with: 6 2 1 0 0  and 6 2 3 0 0 
2069200		 # 	collision with: 1 5 0 0 0  and 2 5 0 0 0 
2069205		 # 	collision with: 5 1 0 0 0  and 7 3 0 0 0 
2069207		 # 	collision with: 5 2 1 0 0  and 5 6 3 0 0 
2069261		 # 	collision with: 8 1 0 0 0  and 7 3 0 0 0 
2069263		 # 	collision with: 10 1 1 0 0  and 10 1 3 0 0 
2069272		 # 	collision with: 4 7 0 0 0  and 5 7 0 0 0 
2069274		 # 	collision with: 5 3 7 0 0  and 5 4 7 0 0 
2069281		 # 	collision with: 2 1 0 0 0  and 8 3 0 0 0 
2069283		 # 	collision with: 10 7 1 0 0  and 10 7 3 0 0 
2069300		 # 	collision with: 0 8 0 0 0  and 1 8 0 0 0 
2069302		 # 	collision with: 5 0 8 0 0  and 5 2 8 0 0 
2069328		 # 	collision with: 2 2 0 0 0  and 3 2 0 0 0 
2069330		 # 	collision with: 5 4 2 0 0  and 5 5 2 0 0 
2069357		 # 	collision with: 1 1 0 0 0  and 6 3 0 0 0 
2069359		 # 	collision with: 10 2 1 0 0  and 10 2 3 0 0 
2069373		 # 	collision with: 0 1 0 0 0  and 2 1 0 0 0 
2069375		 # 	collision with: 6 9 1 0 0  and 6 9 3 0 0 
2069400		 # 	collision with: 1 9 0 0 0  and 3 9 0 0 0 
2069402		 # 	collision with: 5 5 9 0 0  and 5 6 9 0 0 
2069428		 # 	collision with: 3 3 0 0 0  and 5 3 0 0 0 
2069430		 # 	collision with: 5 3 3 0 0  and 5 4 3 0 0 
2069449		 # 	collision with: 8 1 0 0 0  and 1 3 0 0 0 
2069451		 # 	collision with: 5 4 1 0 0  and 5 4 3 0 0 
2069456		 # 	collision with: 5 4 0 0 0  and 6 4 0 0 0 
2069458		 # 	collision with: 5 0 4 0 0  and 5 2 4 0 0 
2069469		 # 	collision with: 5 1 0 0 0  and 7 3 0 0 0 
2069471		 # 	collision with: 7 10 1 0 0  and 7 10 3 0 0 
2069525		 # 	collision with: 8 1 0 0 0  and 7 3 0 0 0 
2069527		 # 	collision with: 7 1 1 0 0  and 7 1 3 0 0 
2069528		 # 	collision with: 2 6 0 0 0  and 4 6 0 0 0 
2069530		 # 	collision with: 5 5 6 0 0  and 5 6 6 0 0 
2069549		 # 	collision with: 0 1 0 0 0  and 2 1 0 0 0 
2069551		 # 	collision with: 8 9 1 0 0  and 8 9 3 0 0 
2069556		 # 	collision with: 0 1 0 0 0  and 2 1 0 0 0 
2069558		 # 	collision with: 5 4 1 0 0  and 5 6 1 0 0 
2069584		 # 	collision with: 1 8 6 8 0  and 7 0 0 0 1 
2069586		 # 	collision with: 4 5 0 0 0  and 7 9 2 1 0 
2069588		 # 	collision with: 3 3 0 0 0  and 5 3 0 0 0 
2069590		 # 	collision with: 5 4 3 0 0  and 5 6 3 0 0 
2069592		 # 	collision with: 4 7 0 0 0  and 5 7 0 0 0 
2069594		 # 	collision with: 5 0 7 0 0  and 5 2 7 0 0 
2069596		 # 	collision with: 0 1 0 0 0  and 2 1 0 0 0 
2069598		 # 	collision with: 5 3 1 0 0  and 5 5 1 0 0 
2069600		 # 	collision with: 1 9 0 0 0  and 3 9 0 0 0 
2069602		 # 	collision with: 5 0 9 0 0  and 5 1 9 0 0 
2069604		 # 	collision with: 1 5 0 0 0  and 2 5 0 0 0 
2069608		 # 	collision with: 2 6 0 0 0  and 4 6 0 0 0 
2069610		 # 	collision with: 5 3 6 0 0  and 5 4 6 0 0 
2069612		 # 	collision with: 2 2 0 0 0  and 3 2 0 0 0 
2069614		 # 	collision with: 5 3 2 0 0  and 5 5 2 0 0 
2069616		 # 	collision with: 3 10 0 0 0  and 4 10 0 0 0 
2069618		 # 	collision with: 5 0 10 0 0  and 5 1 10 0 0 
2069620		 # 	collision with: 5 4 0 0 0  and 6 4 0 0 0 
2069622		 # 	collision with: 5 3 4 0 0  and 5 4 4 0 0 
2069624		 # 	collision with: 0 8 0 0 0  and 1 8 0 0 0 
2069626		 # 	collision with: 5 4 8 0 0  and 5 6 8 0 0 
2069656		 # 	collision with: 2 2 0 0 0  and 3 2 0 0 0 
2069658		 # 	collision with: 5 3 2 0 0  and 5 5 2 0 0 
2069665		 # 	collision with: 5 4 0 0 0  and 6 4 0 0 0 
2069667		 # 	collision with: 5 10 1 0 0  and 5 6 2 0 0 
2069684		 # 	collision with: 0 1 0 0 0  and 2 1 0 0 0 
2069686		 # 	collision with: 5 3 1 0 0  and 5 5 1 0 0 
2069689		 # 	collision with: 3 10 0 0 0  and 4 10 0 0 0 
2069691		 # 	collision with: 5 4 1 0 0  and 5 6 1 0 0 
2069745		 # 	collision with: 2 1 0 0 0  and 0 2 0 0 0 
2069747		 # 	collision with: 5 3 1 0 0  and 5 3 2 0 0 
2069756		 # 	collision with: 0 8 0 0 0  and 1 8 0 0 0 
2069758		 # 	collision with: 5 4 8 0 0  and 5 6 8 0 0 
2069765		 # 	collision with: 0 1 0 0 0  and 2 1 0 0 0 
2069767		 # 	collision with: 5 3 1 0 0  and 5 2 2 0 0 
2069784		 # 	collision with: 2 6 0 0 0  and 4 6 0 0 0 
2069786		 # 	collision with: 5 3 6 0 0  and 5 4 6 0 0 
2069812		 # 	collision with: 4 7 0 0 0  and 5 7 0 0 0 
2069814		 # 	collision with: 5 0 7 0 0  and 5 2 7 0 0 
2069841		 # 	collision with: 5 4 0 0 0  and 6 4 0 0 0 
2069843		 # 	collision with: 5 0 1 0 0  and 5 3 2 0 0 
2069857		 # 	collision with: 10 1 0 0 0  and 7 2 0 0 0 
2069859		 # 	collision with: 5 1 0 0 0  and 5 2 0 0 0 
2069884		 # 	collision with: 5 4 0 0 0  and 6 4 0 0 0 
2069886		 # 	collision with: 5 3 4 0 0  and 5 4 4 0 0 
2069912		 # 	collision with: 1 5 0 0 0  and 2 5 0 0 0 
2069933		 # 	collision with: 2 2 0 0 0  and 3 2 0 0 0 
2069935		 # 	collision with: 9 1 1 0 0  and 9 1 2 0 0 
2069940		 # 	collision with: 3 3 0 0 0  and 5 3 0 0 0 
2069942		 # 	collision with: 5 4 3 0 0  and 5 6 3 0 0 
2069953		 # 	collision with: 3 10 0 0 0  and 4 10 0 0 0 
2069955		 # 	collision with: 5 4 1 0 0  and 5 6 1 0 0 
108.073secs	42322
