# prime 11
# degree 2
# input variables 3
# output variables 4
# reload computed balance functions from file balance-3101of3248-p11d2m3-debug.log
# p = 11
# n = 4
# smalldomain p^m 1331
# domain p^n 14641
#	 p^2 = 121
#	 p^3 = 1331
#	 p^4 = 14641
#	 p^5 = 161051
#	 p^6 = 1771561
#	 p^7 = 19487171
#	 p^8 = 214358881
#	 p^9 = 2357947691
opening file : balance-3101of3248-p11d2m3-debug.log
reloading for step2...
68222015		 # 	collision with: 1 2 2 0  and 1 3 2 0 
68222053		 # 	collision with: 7 4 1 0  and 2 5 1 0 
68222055		 # 	collision with: 8 4 1 0  and 8 5 1 0 
68222065		 # 	collision with: 6 8 0 0  and 6 8 2 0 
68222067		 # 	collision with: 3 10 0 0  and 3 10 1 0 
68222097		 # 	collision with: 4 3 1 0  and 5 2 2 0 
68222099		 # 	collision with: 9 8 0 0  and 10 3 1 0 
68222113		 # 	collision with: 10 7 0 0  and 2 0 1 0 
68222115		 # 	collision with: 8 3 0 0  and 8 3 2 0 
68222220		 # 	collision with: 4 9 1 0  and 0 6 2 0 
68222222		 # 	collision with: 6 5 0 0  and 1 0 1 0 
68222233		 # 	collision with: 0 7 0 0  and 1 9 1 0 
68222235		 # 	collision with: 5 8 0 0  and 7 2 1 0 
68222253		 # 	collision with: 5 4 0 0  and 6 6 0 0 
68222255		 # 	collision with: 1 4 0 0  and 10 5 1 0 
68222375		 # 	collision with: 2 3 0 0  and 5 4 1 0 
68222389		 # 	collision with: 9 4 1 0  and 1 1 2 0 
68222391		 # 	collision with: 2 1 2 0  and 7 2 2 0 
68222421		 # 	collision with: 3 1 0 0  and 1 1 1 0 
68222423		 # 	collision with: 1 1 1 0  and 7 3 1 0 
68222433		 # 	collision with: 7 5 0 0  and 1 0 2 0 
68222435		 # 	collision with: 8 8 0 0  and 4 8 1 0 
68222473		 # 	collision with: 5 4 0 0  and 6 6 0 0 
68222475		 # 	collision with: 1 1 0 0  and 8 4 1 0 
68222497		 # 	collision with: 4 4 1 0  and 5 2 2 0 
68222499		 # 	collision with: 9 1 2 0  and 3 3 2 0 
68222537		 # 	collision with: 5 6 0 0  and 6 7 1 0 
68222549		 # 	collision with: 9 9 0 0  and 9 4 2 0 
68222583		 # 	collision with: 2 1 3 0  and 2 3 3 0 
68222597		 # 	collision with: 3 2 1 0  and 2 3 2 0 
68222599		 # 	collision with: 0 4 1 0  and 6 6 3 0 
68222704		 # 	collision with: 5 8 0 0  and 9 0 1 0 
68222706		 # 	collision with: 2 10 0 0  and 8 6 2 0 
68222717		 # 	collision with: 5 3 0 0  and 6 3 0 0 
68222719		 # 	collision with: 4 7 0 0  and 7 0 2 0 
68222737		 # 	collision with: 3 4 0 0  and 8 5 0 0 
68222739		 # 	collision with: 6 8 0 0  and 10 7 1 0 
68222857		 # 	collision with: 2 4 0 0  and 0 3 1 0 
68222873		 # 	collision with: 3 2 0 0  and 1 5 1 0 
68222905		 # 	collision with: 8 1 1 0  and 5 2 1 0 
68222907		 # 	collision with: 0 6 0 0  and 3 9 1 0 
68222919		 # 	collision with: 10 2 0 0  and 10 2 2 0 
68222957		 # 	collision with: 3 4 0 0  and 8 5 0 0 
68222959		 # 	collision with: 4 9 0 0  and 9 3 1 0 
68222981		 # 	collision with: 5 3 0 0  and 6 3 0 0 
68222983		 # 	collision with: 3 6 0 0  and 3 8 2 0 
68223021		 # 	collision with: 9 3 0 0  and 9 3 1 0 
68223023		 # 	collision with: 4 3 0 0  and 7 3 1 0 
68223035		 # 	collision with: 6 10 0 0  and 2 5 1 0 
68223065		 # 	collision with: 6 10 0 0  and 8 1 1 0 
68223067		 # 	collision with: 9 6 0 0  and 7 4 1 0 
68223081		 # 	collision with: 1 1 0 0  and 3 1 1 0 
68223083		 # 	collision with: 8 3 0 0  and 2 5 2 0 
68223188		 # 	collision with: 8 2 0 0  and 4 4 1 0 
68223190		 # 	collision with: 0 2 1 0  and 10 1 2 0 
68223201		 # 	collision with: 10 0 1 0  and 2 4 2 0 
68223203		 # 	collision with: 7 3 0 0  and 10 5 0 0 
68223221		 # 	collision with: 3 3 0 0  and 3 5 0 0 
68223223		 # 	collision with: 9 2 0 0  and 7 4 1 0 
68223341		 # 	collision with: 1 1 1 0  and 6 2 1 0 
68223343		 # 	collision with: 1 7 0 0  and 9 9 1 0 
68223357		 # 	collision with: 6 8 0 0  and 6 8 1 0 
68223359		 # 	collision with: 2 7 1 0  and 1 7 2 0 
68223389		 # 	collision with: 10 5 0 0  and 10 7 1 0 
68223391		 # 	collision with: 8 9 0 0  and 3 8 1 0 
68223401		 # 	collision with: 10 8 0 0  and 10 8 1 0 
68223403		 # 	collision with: 2 7 1 0  and 1 7 2 0 
68223441		 # 	collision with: 3 3 0 0  and 3 5 0 0 
68223443		 # 	collision with: 8 2 0 0  and 8 7 1 0 
68223465		 # 	collision with: 1 7 1 0  and 2 7 1 0 
68223467		 # 	collision with: 7 3 0 0  and 10 5 0 0 
68223505		 # 	collision with: 5 2 1 0  and 4 4 1 0 
68223507		 # 	collision with: 1 3 0 0  and 1 3 1 0 
68223517		 # 	collision with: 3 3 1 0  and 9 2 2 0 
68223519		 # 	collision with: 8 10 0 0  and 2 4 1 0 
68223549		 # 	collision with: 8 6 0 0  and 0 9 1 0 
68223551		 # 	collision with: 5 3 0 0  and 5 3 1 0 
68223565		 # 	collision with: 2 5 1 0  and 2 5 2 0 
68223567		 # 	collision with: 9 5 0 0  and 9 3 2 0 
68223672		 # 	collision with: 4 2 0 0  and 8 0 2 0 
68223674		 # 	collision with: 2 2 1 0  and 9 4 2 0 
68223687		 # 	collision with: 8 6 0 0  and 3 0 1 0 
68223705		 # 	collision with: 9 7 0 0  and 10 8 1 0 
68223707		 # 	collision with: 2 3 0 0  and 4 4 0 0 
68223825		 # 	collision with: 5 9 0 0  and 7 7 1 0 
68223827		 # 	collision with: 4 0 1 0  and 4 2 1 0 
68223841		 # 	collision with: 9 1 0 0  and 2 0 1 0 
68223843		 # 	collision with: 10 1 0 0  and 5 0 1 0 
68223873		 # 	collision with: 5 3 0 0  and 6 3 0 0 
68223875		 # 	collision with: 5 0 1 0  and 5 1 1 0 
68223885		 # 	collision with: 3 4 1 0  and 10 5 1 0 
68223887		 # 	collision with: 7 8 0 0  and 7 8 1 0 
68223925		 # 	collision with: 8 0 0 0  and 4 2 1 0 
68223927		 # 	collision with: 2 3 0 0  and 4 4 0 0 
68223949		 # 	collision with: 4 3 0 0  and 4 4 0 0 
68223989		 # 	collision with: 6 2 1 0  and 6 3 1 0 
68223991		 # 	collision with: 6 6 0 0  and 1 0 1 0 
68224001		 # 	collision with: 4 8 0 0  and 4 10 1 0 
68224003		 # 	collision with: 4 0 1 0  and 4 2 1 0 
68224033		 # 	collision with: 0 6 0 0  and 1 0 1 0 
68224035		 # 	collision with: 4 3 0 0  and 10 2 1 0 
68224049		 # 	collision with: 5 3 0 0  and 6 3 0 0 
68224051		 # 	collision with: 5 0 1 0  and 5 1 1 0 
68224156		 # 	collision with: 2 3 0 0  and 10 2 1 0 
68224158		 # 	collision with: 5 6 0 0  and 4 5 1 0 
68224169		 # 	collision with: 8 8 0 0  and 1 3 1 0 
68224171		 # 	collision with: 2 0 0 0  and 4 0 0 0 
68224189		 # 	collision with: 2 4 1 0  and 2 5 1 0 
68224191		 # 	collision with: 2 0 0 0  and 4 0 0 0 
68224309		 # 	collision with: 1 0 1 0  and 1 10 2 0 
68224311		 # 	collision with: 2 0 0 0  and 4 0 0 0 
68224325		 # 	collision with: 3 9 0 0  and 2 8 1 0 
68224327		 # 	collision with: 2 0 0 0  and 4 0 0 0 
68224357		 # 	collision with: 0 2 0 0  and 10 3 1 0 
68224359		 # 	collision with: 2 0 0 0  and 4 0 0 0 
68224369		 # 	collision with: 2 2 0 0  and 0 2 2 0 
68224371		 # 	collision with: 2 0 0 0  and 4 0 0 0 
68224409		 # 	collision with: 9 8 0 0  and 3 0 1 0 
68224411		 # 	collision with: 2 0 0 0  and 4 0 0 0 
68224433		 # 	collision with: 8 4 1 0  and 0 1 2 0 
68224435		 # 	collision with: 2 0 0 0  and 4 0 0 0 
68224473		 # 	collision with: 5 3 0 0  and 6 3 0 0 
68224475		 # 	collision with: 2 0 0 0  and 4 0 0 0 
68224485		 # 	collision with: 8 10 0 0  and 1 4 2 0 
68224487		 # 	collision with: 2 0 0 0  and 4 0 0 0 
68224517		 # 	collision with: 5 3 0 0  and 6 3 0 0 
68224519		 # 	collision with: 2 0 0 0  and 4 0 0 0 
68224533		 # 	collision with: 8 5 0 0  and 6 1 1 0 
68224535		 # 	collision with: 2 0 0 0  and 4 0 0 0 
68224640		 # 	collision with: 10 2 0 0  and 2 3 1 0 
68224642		 # 	collision with: 3 8 0 0  and 8 9 1 0 
68224653		 # 	collision with: 10 0 1 0  and 1 2 1 0 
68224655		 # 	collision with: 1 3 1 0  and 8 0 2 0 
68224673		 # 	collision with: 8 3 1 0  and 3 5 1 0 
68224675		 # 	collision with: 10 3 0 0  and 9 0 1 0 
68224793		 # 	collision with: 1 7 0 0  and 4 8 1 0 
68224795		 # 	collision with: 1 2 0 0  and 8 0 1 0 
68224809		 # 	collision with: 6 2 0 0  and 5 3 0 0 
68224811		 # 	collision with: 1 8 0 0  and 5 10 1 0 
68224841		 # 	collision with: 2 3 0 0  and 6 0 1 0 
68224843		 # 	collision with: 5 9 0 0  and 1 6 1 0 
68224853		 # 	collision with: 6 2 0 0  and 5 3 0 0 
68224855		 # 	collision with: 6 3 0 0  and 10 0 1 0 
68224893		 # 	collision with: 3 10 1 0  and 5 10 1 0 
68224895		 # 	collision with: 1 10 0 0  and 6 3 2 0 
68224917		 # 	collision with: 0 8 0 0  and 2 4 1 0 
68224919		 # 	collision with: 4 4 1 0  and 5 4 1 0 
68224957		 # 	collision with: 1 2 0 0  and 10 0 1 0 
68224959		 # 	collision with: 10 2 0 0  and 7 3 0 0 
68224969		 # 	collision with: 9 7 0 0  and 2 1 2 0 
68224971		 # 	collision with: 1 1 1 0  and 3 1 1 0 
68225001		 # 	collision with: 2 10 1 0  and 4 4 2 0 
68225003		 # 	collision with: 10 2 0 0  and 7 3 0 0 
68225017		 # 	collision with: 6 1 0 0  and 6 1 1 0 
68225019		 # 	collision with: 2 10 0 0  and 3 3 1 0 
68225124		 # 	collision with: 8 1 0 0  and 4 3 2 0 
68225126		 # 	collision with: 9 2 1 0  and 4 0 2 0 
68225137		 # 	collision with: 10 0 1 0  and 10 1 1 0 
68225139		 # 	collision with: 9 3 2 0  and 6 2 3 0 
68225159		 # 	collision with: 10 8 0 0  and 0 1 1 0 
68225277		 # 	collision with: 5 3 0 0  and 6 3 0 0 
68225279		 # 	collision with: 9 1 0 0  and 8 3 0 0 
68225293		 # 	collision with: 2 1 0 0  and 10 4 1 0 
68225295		 # 	collision with: 1 6 0 0  and 1 10 1 0 
68225325		 # 	collision with: 7 1 0 0  and 7 3 0 0 
68225327		 # 	collision with: 9 1 0 0  and 9 1 1 0 
68225337		 # 	collision with: 3 4 0 0  and 6 1 1 0 
68225339		 # 	collision with: 7 3 0 0  and 8 4 1 0 
68225377		 # 	collision with: 4 5 0 0  and 9 0 1 0 
68225401		 # 	collision with: 0 10 0 0  and 4 1 1 0 
68225403		 # 	collision with: 1 10 0 0  and 10 0 1 0 
68225441		 # 	collision with: 8 1 0 0  and 4 3 1 0 
68225443		 # 	collision with: 1 1 0 0  and 7 3 1 0 
68225453		 # 	collision with: 5 3 0 0  and 6 3 0 0 
68225455		 # 	collision with: 9 1 0 0  and 8 3 0 0 
68225485		 # 	collision with: 9 5 0 0  and 3 0 1 0 
68225487		 # 	collision with: 8 10 0 0  and 4 0 1 0 
68225501		 # 	collision with: 7 1 0 0  and 7 3 0 0 
68225503		 # 	collision with: 10 1 0 0  and 10 1 1 0 
68225608		 # 	collision with: 4 2 0 0  and 8 0 1 0 
68225610		 # 	collision with: 3 4 0 0  and 5 2 1 0 
68225621		 # 	collision with: 1 9 0 0  and 0 4 1 0 
68225623		 # 	collision with: 7 7 0 0  and 1 1 1 0 
68225641		 # 	collision with: 9 2 1 0  and 9 0 2 0 
68225643		 # 	collision with: 2 9 0 0  and 3 8 1 0 
68225761		 # 	collision with: 1 8 0 0  and 7 4 1 0 
68225763		 # 	collision with: 8 1 0 0  and 5 6 1 0 
68225777		 # 	collision with: 1 8 0 0  and 0 8 1 0 
68225779		 # 	collision with: 4 9 0 0  and 6 2 1 0 
68225809		 # 	collision with: 8 10 0 0  and 4 6 1 0 
68225811		 # 	collision with: 10 2 2 0  and 8 4 3 0 
68225821		 # 	collision with: 2 3 0 0  and 3 6 1 0 
68225823		 # 	collision with: 8 9 0 0  and 1 2 1 0 
68225861		 # 	collision with: 4 3 0 0  and 7 1 1 0 
68225863		 # 	collision with: 1 2 1 0  and 8 9 2 0 
68225885		 # 	collision with: 1 9 0 0  and 0 4 1 0 
68225887		 # 	collision with: 6 5 1 0  and 6 6 1 0 
68225925		 # 	collision with: 2 8 1 0  and 10 4 2 0 
68225927		 # 	collision with: 8 2 0 0  and 8 7 2 0 
68225937		 # 	collision with: 8 2 0 0  and 7 3 1 0 
68225939		 # 	collision with: 6 1 0 0  and 8 3 1 0 
68225969		 # 	collision with: 1 1 1 0  and 3 1 1 0 
68225971		 # 	collision with: 10 6 0 0  and 2 2 1 0 
68225985		 # 	collision with: 0 0 0 0  and 2 3 2 0 
68225987		 # 	collision with: 3 2 0 0  and 3 1 1 0 
68226092		 # 	collision with: 2 10 1 0  and 6 6 2 0 
68226094		 # 	collision with: 7 6 0 0  and 8 10 2 0 
68226105		 # 	collision with: 9 3 0 0  and 3 6 1 0 
68226107		 # 	collision with: 2 3 2 0  and 4 4 2 0 
68226125		 # 	collision with: 5 3 0 0  and 6 3 0 0 
68226127		 # 	collision with: 6 1 0 0  and 8 3 1 0 
68226245		 # 	collision with: 6 5 0 0  and 10 2 1 0 
68226247		 # 	collision with: 1 5 0 0  and 2 2 1 0 
68226261		 # 	collision with: 10 0 0 0  and 1 2 0 0 
68226263		 # 	collision with: 2 0 0 0  and 4 2 0 0 
68226295		 # 	collision with: 7 3 1 0  and 1 4 1 0 
68226305		 # 	collision with: 10 0 0 0  and 1 2 0 0 
68226307		 # 	collision with: 2 0 0 0  and 4 2 0 0 
68226345		 # 	collision with: 5 3 0 0  and 6 3 0 0 
68226347		 # 	collision with: 3 4 0 0  and 8 7 1 0 
68226369		 # 	collision with: 4 6 0 0  and 9 5 1 0 
68226371		 # 	collision with: 4 3 2 0  and 8 4 2 0 
68226411		 # 	collision with: 1 1 1 0  and 3 1 1 0 
68226421		 # 	collision with: 3 3 1 0  and 3 5 1 0 
68226423		 # 	collision with: 10 10 0 0  and 9 9 1 0 
68226453		 # 	collision with: 9 0 0 0  and 9 2 0 0 
68226469		 # 	collision with: 6 7 0 0  and 1 10 1 0 
68226576		 # 	collision with: 9 5 0 0  and 8 10 1 0 
68226578		 # 	collision with: 0 8 0 0  and 8 2 1 0 
68226589		 # 	collision with: 10 10 0 0  and 10 2 1 0 
68226591		 # 	collision with: 8 6 0 0  and 9 1 1 0 
68226609		 # 	collision with: 7 8 0 0  and 4 2 1 0 
68226611		 # 	collision with: 1 8 0 0  and 5 2 1 0 
68226729		 # 	collision with: 10 0 0 0  and 10 1 0 0 
68226731		 # 	collision with: 4 3 0 0  and 3 2 1 0 
68226747		 # 	collision with: 0 2 1 0  and 2 2 1 0 
68226777		 # 	collision with: 2 0 0 0  and 8 5 1 0 
68226789		 # 	collision with: 9 5 0 0  and 8 10 1 0 
68226829		 # 	collision with: 8 4 2 0  and 8 4 3 0 
68226831		 # 	collision with: 5 8 0 0  and 7 2 1 0 
68226853		 # 	collision with: 9 0 0 0  and 9 2 2 0 
68226855		 # 	collision with: 2 5 0 0  and 8 6 1 0 
68226893		 # 	collision with: 5 1 0 0  and 1 2 1 0 
68226895		 # 	collision with: 10 1 0 0  and 2 2 1 0 
68226905		 # 	collision with: 10 0 0 0  and 10 1 0 0 
68226907		 # 	collision with: 8 3 0 0  and 5 5 1 0 
68226937		 # 	collision with: 3 3 2 0  and 3 5 2 0 
68226939		 # 	collision with: 1 9 0 0  and 2 7 1 0 
68226955		 # 	collision with: 10 5 0 0  and 7 7 0 0 
68227104		 # 	collision with: 5 6 0 0  and 6 6 0 0 
68227106		 # 	collision with: 2 6 0 0  and 4 6 0 0 
68227109		 # 	collision with: 4 9 0 0  and 6 4 1 0 
68227111		 # 	collision with: 1 5 0 0  and 5 6 0 0 
68227125		 # 	collision with: 10 2 1 0  and 10 4 1 0 
68227127		 # 	collision with: 1 5 0 0  and 1 6 0 0 
68227128		 # 	collision with: 10 2 0 0  and 10 4 0 0 
68227148		 # 	collision with: 5 6 0 0  and 6 6 0 0 
68227150		 # 	collision with: 2 6 0 0  and 4 6 0 0 
68227152		 # 	collision with: 5 1 0 0  and 5 2 0 0 
68227161		 # 	collision with: 7 10 0 0  and 1 4 1 0 
68227163		 # 	collision with: 5 9 0 0  and 5 9 1 0 
68227185		 # 	collision with: 1 8 0 0  and 3 1 2 0 
68227187		 # 	collision with: 8 0 1 0  and 8 2 1 0 
68227192		 # 	collision with: 5 6 0 0  and 6 6 0 0 
68227194		 # 	collision with: 2 6 0 0  and 4 6 0 0 
68227220		 # 	collision with: 7 0 0 0  and 7 2 0 0 
68227236		 # 	collision with: 5 6 0 0  and 6 6 0 0 
68227238		 # 	collision with: 2 6 0 0  and 4 6 0 0 
68227244		 # 	collision with: 8 3 0 0  and 8 4 0 0 
68227280		 # 	collision with: 5 6 0 0  and 6 6 0 0 
68227282		 # 	collision with: 2 6 0 0  and 4 6 0 0 
68227299		 # 	collision with: 9 0 0 0  and 0 1 1 0 
68227312		 # 	collision with: 3 1 0 0  and 8 2 0 0 
68227324		 # 	collision with: 5 6 0 0  and 6 6 0 0 
68227326		 # 	collision with: 2 6 0 0  and 4 6 0 0 
68227336		 # 	collision with: 9 0 0 0  and 9 1 0 0 
68227355		 # 	collision with: 4 1 1 0  and 4 3 1 0 
68227368		 # 	collision with: 5 6 0 0  and 6 6 0 0 
68227370		 # 	collision with: 2 6 0 0  and 4 6 0 0 
68227404		 # 	collision with: 8 0 0 0  and 3 2 0 0 
68227412		 # 	collision with: 5 6 0 0  and 6 6 0 0 
68227414		 # 	collision with: 2 6 0 0  and 4 6 0 0 
68227428		 # 	collision with: 9 1 0 0  and 2 3 0 0 
68227456		 # 	collision with: 5 6 0 0  and 6 6 0 0 
68227458		 # 	collision with: 2 6 0 0  and 4 6 0 0 
68227465		 # 	collision with: 6 6 0 0  and 6 2 1 0 
68227467		 # 	collision with: 0 3 0 0  and 6 1 1 0 
68227489		 # 	collision with: 7 1 1 0  and 2 2 2 0 
68227491		 # 	collision with: 0 4 0 0  and 6 5 1 0 
68227496		 # 	collision with: 6 3 0 0  and 6 5 0 0 
68227500		 # 	collision with: 5 6 0 0  and 6 6 0 0 
68227502		 # 	collision with: 2 6 0 0  and 4 6 0 0 
68227520		 # 	collision with: 1 2 0 0  and 1 3 0 0 
68227525		 # 	collision with: 1 2 1 0  and 1 3 1 0 
68227527		 # 	collision with: 3 4 2 0  and 3 6 2 0 
68227541		 # 	collision with: 4 6 0 0  and 0 6 1 0 
68227543		 # 	collision with: 2 6 0 0  and 4 6 0 0 
68227544		 # 	collision with: 3 0 0 0  and 2 5 1 0 
68227546		 # 	collision with: 9 4 0 0  and 0 9 1 0 
68227588		 # 	collision with: 8 1 1 0  and 1 6 2 0 
68227590		 # 	collision with: 10 7 0 0  and 2 1 1 0 
68227593		 # 	collision with: 4 6 0 0  and 5 8 1 0 
68227595		 # 	collision with: 8 6 0 0  and 9 1 1 0 
68227609		 # 	collision with: 1 2 0 0  and 3 0 1 0 
68227611		 # 	collision with: 0 1 0 0  and 8 4 1 0 
68227612		 # 	collision with: 1 6 0 0  and 10 0 1 0 
68227614		 # 	collision with: 8 5 0 0  and 0 3 1 0 
68227632		 # 	collision with: 3 3 1 0  and 8 2 3 0 
68227634		 # 	collision with: 3 7 0 0  and 10 1 1 0 
68227638		 # 	collision with: 8 7 0 0  and 0 6 1 0 
68227645		 # 	collision with: 0 6 1 0  and 1 6 1 0 
68227647		 # 	collision with: 1 8 0 0  and 9 0 1 0 
68227669		 # 	collision with: 5 6 0 0  and 6 6 0 0 
68227671		 # 	collision with: 3 4 0 0  and 3 6 0 0 
68227676		 # 	collision with: 9 8 0 0  and 4 2 1 0 
68227678		 # 	collision with: 9 1 0 0  and 2 6 1 0 
68227704		 # 	collision with: 7 5 0 0  and 0 4 1 0 
68227706		 # 	collision with: 3 9 0 0  and 4 10 1 0 
68227720		 # 	collision with: 4 7 0 0  and 2 1 1 0 
68227722		 # 	collision with: 9 4 0 0  and 0 9 1 0 
68227728		 # 	collision with: 8 8 0 0  and 8 8 1 0 
68227730		 # 	collision with: 9 6 0 0  and 0 0 1 0 
68227764		 # 	collision with: 9 4 0 0  and 2 9 1 0 
68227766		 # 	collision with: 9 4 0 0  and 0 9 1 0 
68227781		 # 	collision with: 3 0 0 0  and 6 9 1 0 
68227783		 # 	collision with: 5 2 0 0  and 6 0 1 0 
68227796		 # 	collision with: 7 7 0 0  and 0 5 1 0 
68227798		 # 	collision with: 8 6 0 0  and 0 0 1 0 
68227808		 # 	collision with: 2 7 0 0  and 9 1 1 0 
68227810		 # 	collision with: 9 1 0 0  and 9 6 1 0 
68227820		 # 	collision with: 6 3 0 0  and 2 2 1 0 
68227822		 # 	collision with: 9 9 0 0  and 9 9 1 0 
68227837		 # 	collision with: 2 4 0 0  and 9 6 0 0 
68227839		 # 	collision with: 4 9 0 0  and 6 6 1 0 
68227852		 # 	collision with: 9 6 0 0  and 10 0 1 0 
68227854		 # 	collision with: 9 4 0 0  and 0 9 1 0 
68227888		 # 	collision with: 5 6 0 0  and 6 6 0 0 
68227890		 # 	collision with: 2 6 0 0  and 4 6 0 0 
68227896		 # 	collision with: 5 2 1 0  and 0 7 2 0 
68227898		 # 	collision with: 9 4 0 0  and 0 9 1 0 
68227912		 # 	collision with: 1 6 1 0  and 3 6 1 0 
68227914		 # 	collision with: 1 5 0 0  and 7 2 1 0 
68227949		 # 	collision with: 4 1 0 0  and 2 5 1 0 
68227951		 # 	collision with: 1 8 0 0  and 1 8 1 0 
68227973		 # 	collision with: 2 4 0 0  and 2 6 0 0 
68227975		 # 	collision with: 2 6 0 0  and 4 6 0 0 
68227980		 # 	collision with: 5 1 1 0  and 5 2 1 0 
68227982		 # 	collision with: 2 3 1 0  and 3 5 1 0 
68227984		 # 	collision with: 2 6 1 0  and 3 6 1 0 
68227986		 # 	collision with: 5 6 1 0  and 6 6 1 0 
68228004		 # 	collision with: 10 0 0 0  and 1 10 1 0 
68228006		 # 	collision with: 8 0 2 0  and 8 2 2 0 
68228009		 # 	collision with: 4 1 1 0  and 1 3 1 0 
68228025		 # 	collision with: 2 6 0 0  and 3 6 1 0 
68228027		 # 	collision with: 6 6 0 0  and 1 5 1 0 
68228028		 # 	collision with: 9 6 0 0  and 4 3 1 0 
68228030		 # 	collision with: 9 0 1 0  and 1 8 2 0 
68228072		 # 	collision with: 10 5 0 0  and 3 2 1 0 
68228074		 # 	collision with: 7 10 0 0  and 6 7 1 0 
68228077		 # 	collision with: 8 4 0 0  and 8 3 1 0 
68228079		 # 	collision with: 5 4 0 0  and 5 5 0 0 
68228093		 # 	collision with: 2 4 2 0  and 10 6 2 0 
68228095		 # 	collision with: 8 4 0 0  and 4 2 1 0 
68228096		 # 	collision with: 2 3 0 0  and 9 0 1 0 
68228098		 # 	collision with: 9 4 0 0  and 9 3 1 0 
68228116		 # 	collision with: 3 6 2 0  and 4 3 3 0 
68228118		 # 	collision with: 5 10 0 0  and 9 7 1 0 
68228120		 # 	collision with: 10 5 0 0  and 10 5 2 0 
68228122		 # 	collision with: 10 0 0 0  and 9 8 2 0 
68228129		 # 	collision with: 9 3 1 0  and 3 8 2 0 
68228153		 # 	collision with: 2 6 0 0  and 4 3 2 0 
68228155		 # 	collision with: 9 4 1 0  and 7 1 2 0 
68228160		 # 	collision with: 3 8 0 0  and 4 5 1 0 
68228162		 # 	collision with: 4 1 0 0  and 5 9 1 0 
68228188		 # 	collision with: 5 6 0 0  and 6 6 0 0 
68228190		 # 	collision with: 2 6 0 0  and 4 6 0 0 
68228204		 # 	collision with: 5 3 0 0  and 5 0 1 0 
68228206		 # 	collision with: 9 1 0 0  and 4 9 1 0 
68228214		 # 	collision with: 5 8 0 0  and 5 8 1 0 
68228248		 # 	collision with: 4 8 0 0  and 1 2 2 0 
68228250		 # 	collision with: 9 4 0 0  and 7 1 1 0 
68228265		 # 	collision with: 4 4 0 0  and 4 5 0 0 
68228267		 # 	collision with: 4 9 0 0  and 5 3 1 0 
68228280		 # 	collision with: 3 6 1 0  and 5 6 1 0 
68228282		 # 	collision with: 5 7 0 0  and 6 3 1 0 
68228292		 # 	collision with: 4 6 0 0  and 10 0 2 0 
68228294		 # 	collision with: 10 5 1 0  and 1 2 2 0 
68228304		 # 	collision with: 7 6 0 0  and 10 0 2 0 
68228306		 # 	collision with: 9 5 1 0  and 4 1 2 0 
68228321		 # 	collision with: 5 6 0 0  and 6 6 0 0 
68228323		 # 	collision with: 0 4 0 0  and 6 5 0 0 
68228372		 # 	collision with: 10 3 0 0  and 5 2 1 0 
68228374		 # 	collision with: 10 3 0 0  and 1 1 1 0 
68228380		 # 	collision with: 4 3 0 0  and 5 8 2 0 
68228382		 # 	collision with: 0 3 0 0  and 3 0 1 0 
68228396		 # 	collision with: 0 2 0 0  and 9 7 1 0 
68228398		 # 	collision with: 0 3 0 0  and 3 0 1 0 
68228424		 # 	collision with: 4 8 0 0  and 2 5 1 0 
68228426		 # 	collision with: 2 6 1 0  and 3 6 1 0 
68228433		 # 	collision with: 4 9 0 0  and 3 1 1 0 
68228435		 # 	collision with: 5 3 0 0  and 8 7 2 0 
68228457		 # 	collision with: 5 4 0 0  and 6 5 0 0 
68228459		 # 	collision with: 8 1 2 0  and 7 3 2 0 
68228464		 # 	collision with: 10 6 0 0  and 9 6 1 0 
68228466		 # 	collision with: 5 6 0 0  and 4 6 1 0 
68228468		 # 	collision with: 8 9 0 0  and 10 3 2 0 
68228470		 # 	collision with: 2 4 0 0  and 2 1 1 0 
68228488		 # 	collision with: 10 10 0 0  and 8 2 1 0 
68228490		 # 	collision with: 2 2 0 0  and 2 3 2 0 
68228493		 # 	collision with: 2 0 0 0  and 5 2 2 0 
68228495		 # 	collision with: 2 6 0 0  and 4 6 0 0 
68228509		 # 	collision with: 3 6 0 0  and 2 6 1 0 
68228511		 # 	collision with: 7 6 0 0  and 6 6 1 0 
68228512		 # 	collision with: 7 3 0 0  and 1 1 1 0 
68228514		 # 	collision with: 1 6 0 0  and 3 4 1 0 
68228556		 # 	collision with: 5 9 1 0  and 2 7 2 0 
68228558		 # 	collision with: 4 10 1 0  and 10 8 2 0 
68228561		 # 	collision with: 7 5 0 0  and 7 5 1 0 
68228563		 # 	collision with: 0 6 1 0  and 1 6 1 0 
68228577		 # 	collision with: 5 6 0 0  and 6 6 0 0 
68228579		 # 	collision with: 5 9 0 0  and 0 7 2 0 
68228580		 # 	collision with: 2 2 0 0  and 0 0 1 0 
68228582		 # 	collision with: 3 1 0 0  and 5 7 1 0 
68228600		 # 	collision with: 3 9 1 0  and 7 7 2 0 
68228602		 # 	collision with: 7 6 1 0  and 3 4 2 0 
68228604		 # 	collision with: 7 0 0 0  and 4 4 1 0 
68228606		 # 	collision with: 9 2 0 0  and 5 0 1 0 
68228613		 # 	collision with: 1 6 1 0  and 10 0 2 0 
68228615		 # 	collision with: 2 2 1 0  and 2 3 1 0 
68228637		 # 	collision with: 8 4 0 0  and 1 0 1 0 
68228639		 # 	collision with: 8 4 0 0  and 9 0 1 0 
68228644		 # 	collision with: 5 8 0 0  and 4 6 1 0 
68228646		 # 	collision with: 8 5 1 0  and 0 3 2 0 
68228672		 # 	collision with: 4 5 1 0  and 7 0 2 0 
68228674		 # 	collision with: 10 1 0 0  and 3 3 1 0 
68228688		 # 	collision with: 2 7 0 0  and 2 3 2 0 
68228690		 # 	collision with: 6 3 0 0  and 3 1 1 0 
68228696		 # 	collision with: 5 10 0 0  and 1 7 1 0 
68228698		 # 	collision with: 8 9 0 0  and 5 10 2 0 
68228749		 # 	collision with: 1 2 1 0  and 4 1 2 0 
68228751		 # 	collision with: 2 6 0 0  and 4 6 0 0 
68228764		 # 	collision with: 9 0 1 0  and 9 1 1 0 
68228766		 # 	collision with: 1 2 1 0  and 2 4 1 0 
68228776		 # 	collision with: 6 6 1 0  and 2 4 2 0 
68228778		 # 	collision with: 1 3 0 0  and 5 10 2 0 
68228790		 # 	collision with: 1 1 0 0  and 5 5 1 0 
68228805		 # 	collision with: 7 1 0 0  and 6 5 1 0 
68228807		 # 	collision with: 7 3 0 0  and 7 5 0 0 
68228820		 # 	collision with: 9 7 0 0  and 9 5 1 0 
68228822		 # 	collision with: 8 4 0 0  and 9 0 2 0 
68228856		 # 	collision with: 3 7 1 0  and 0 10 2 0 
68228858		 # 	collision with: 9 6 0 0  and 9 1 1 0 
68228864		 # 	collision with: 6 3 0 0  and 7 1 1 0 
68228866		 # 	collision with: 9 6 0 0  and 3 4 1 0 
68228880		 # 	collision with: 4 3 0 0  and 6 2 1 0 
68228882		 # 	collision with: 1 5 0 0  and 1 6 1 0 
68228908		 # 	collision with: 5 8 1 0  and 6 6 2 0 
68228910		 # 	collision with: 5 4 0 0  and 8 2 1 0 
68228917		 # 	collision with: 8 4 0 0  and 1 5 2 0 
68228941		 # 	collision with: 3 3 0 0  and 8 5 0 0 
68228943		 # 	collision with: 2 10 0 0  and 2 6 1 0 
68228948		 # 	collision with: 4 6 0 0  and 3 6 1 0 
68228950		 # 	collision with: 1 6 0 0  and 8 6 1 0 
68228952		 # 	collision with: 8 5 0 0  and 3 1 2 0 
68228954		 # 	collision with: 9 4 0 0  and 10 2 1 0 
68228972		 # 	collision with: 5 6 0 0  and 6 6 0 0 
68228974		 # 	collision with: 2 6 0 0  and 4 6 0 0 
68228977		 # 	collision with: 10 4 0 0  and 9 0 1 0 
68228979		 # 	collision with: 0 0 1 0  and 9 1 2 0 
68228993		 # 	collision with: 6 3 0 0  and 6 5 0 0 
68228995		 # 	collision with: 5 4 1 0  and 5 5 1 0 
68228996		 # 	collision with: 5 3 0 0  and 4 7 1 0 
68228998		 # 	collision with: 3 6 0 0  and 5 3 2 0 
68229040		 # 	collision with: 7 7 0 0  and 10 0 1 0 
68229042		 # 	collision with: 5 7 0 0  and 6 0 1 0 
68229045		 # 	collision with: 3 10 0 0  and 5 3 1 0 
68229047		 # 	collision with: 6 5 0 0  and 6 5 1 0 
68229063		 # 	collision with: 2 10 0 0  and 0 6 1 0 
68229064		 # 	collision with: 10 7 0 0  and 4 0 1 0 
68229066		 # 	collision with: 5 1 0 0  and 3 5 2 0 
68229084		 # 	collision with: 6 4 1 0  and 1 8 2 0 
68229086		 # 	collision with: 2 3 0 0  and 6 7 1 0 
68229088		 # 	collision with: 9 5 0 0  and 9 5 1 0 
68229090		 # 	collision with: 9 7 0 0  and 9 0 1 0 
68229097		 # 	collision with: 5 6 0 0  and 6 6 0 0 
68229099		 # 	collision with: 9 3 0 0  and 9 4 0 0 
68229121		 # 	collision with: 2 4 0 0  and 4 6 1 0 
68229123		 # 	collision with: 3 4 0 0  and 4 6 1 0 
68229156		 # 	collision with: 3 7 0 0  and 7 0 1 0 
68229158		 # 	collision with: 4 1 1 0  and 4 3 1 0 
68229172		 # 	collision with: 1 7 0 0  and 5 4 2 0 
68229174		 # 	collision with: 10 4 0 0  and 10 8 1 0 
68229180		 # 	collision with: 4 6 1 0  and 8 1 2 0 
68229182		 # 	collision with: 10 0 1 0  and 0 2 2 0 
68229216		 # 	collision with: 3 1 0 0  and 8 5 1 0 
68229218		 # 	collision with: 8 8 0 0  and 6 1 1 0 
68229233		 # 	collision with: 9 1 1 0  and 10 2 1 0 
68229235		 # 	collision with: 2 3 0 0  and 4 4 0 0 
68229248		 # 	collision with: 6 4 0 0  and 4 9 2 0 
68229250		 # 	collision with: 8 2 1 0  and 8 2 2 0 
68229260		 # 	collision with: 1 5 0 0  and 9 2 2 0 
68229262		 # 	collision with: 6 8 1 0  and 1 5 3 0 
68229272		 # 	collision with: 5 6 0 0  and 6 6 0 0 
68229274		 # 	collision with: 2 6 0 0  and 4 6 0 0 
68229289		 # 	collision with: 1 3 0 0  and 1 2 1 0 
68229304		 # 	collision with: 8 8 0 0  and 9 1 1 0 
68229306		 # 	collision with: 5 10 0 0  and 1 3 1 0 
68229340		 # 	collision with: 6 0 2 0  and 1 1 2 0 
68229342		 # 	collision with: 1 7 0 0  and 3 0 1 0 
68229348		 # 	collision with: 2 10 1 0  and 10 3 2 0 
68229350		 # 	collision with: 1 6 0 0  and 5 3 2 0 
68229366		 # 	collision with: 0 1 0 0  and 1 8 1 0 
68229392		 # 	collision with: 9 8 0 0  and 2 1 1 0 
68229394		 # 	collision with: 1 6 2 0  and 3 6 2 0 
68229401		 # 	collision with: 8 3 0 0  and 8 4 0 0 
68229403		 # 	collision with: 2 6 0 0  and 4 6 0 0 
68229425		 # 	collision with: 2 8 0 0  and 7 1 1 0 
68229427		 # 	collision with: 2 6 1 0  and 3 6 1 0 
68229432		 # 	collision with: 9 1 0 0  and 2 3 1 0 
68229434		 # 	collision with: 2 3 0 0  and 2 2 1 0 
68229436		 # 	collision with: 5 7 0 0  and 3 0 1 0 
68229438		 # 	collision with: 10 10 1 0  and 9 3 2 0 
68229456		 # 	collision with: 2 6 1 0  and 3 6 1 0 
68229458		 # 	collision with: 7 10 0 0  and 3 5 1 0 
68229461		 # 	collision with: 2 6 1 0  and 3 6 1 0 
68229463		 # 	collision with: 7 10 1 0  and 7 10 2 0 
68229479		 # 	collision with: 10 5 0 0  and 2 4 1 0 
68229480		 # 	collision with: 10 1 0 0  and 3 2 1 0 
68229482		 # 	collision with: 8 1 0 0  and 3 2 1 0 
68229529		 # 	collision with: 5 6 0 0  and 6 6 0 0 
68229531		 # 	collision with: 1 6 0 0  and 7 2 1 0 
68229545		 # 	collision with: 5 10 0 0  and 5 4 1 0 
68229547		 # 	collision with: 10 0 1 0  and 10 1 1 0 
68229548		 # 	collision with: 1 2 1 0  and 1 3 1 0 
68229550		 # 	collision with: 1 5 1 0  and 1 6 1 0 
68229568		 # 	collision with: 4 9 0 0  and 10 10 1 0 
68229570		 # 	collision with: 3 10 0 0  and 3 0 1 0 
68229572		 # 	collision with: 5 6 0 0  and 6 6 0 0 
68229574		 # 	collision with: 2 6 0 0  and 4 6 0 0 
68229583		 # 	collision with: 1 6 1 0  and 9 1 2 0 
68229605		 # 	collision with: 8 3 0 0  and 8 3 1 0 
68229607		 # 	collision with: 0 0 3 0  and 9 1 3 0 
68229612		 # 	collision with: 2 0 0 0  and 5 1 1 0 
68229614		 # 	collision with: 5 3 0 0  and 3 4 1 0 
68229640		 # 	collision with: 4 3 1 0  and 8 1 2 0 
68229642		 # 	collision with: 8 10 0 0  and 7 0 1 0 
68229656		 # 	collision with: 8 10 1 0  and 9 0 2 0 
68229658		 # 	collision with: 10 1 0 0  and 3 3 2 0 
68229664		 # 	collision with: 5 10 0 0  and 0 0 1 0 
68229666		 # 	collision with: 3 1 0 0  and 6 3 1 0 
68229700		 # 	collision with: 1 10 0 0  and 10 0 1 0 
68229702		 # 	collision with: 10 0 2 0  and 10 1 3 0 
68229717		 # 	collision with: 7 0 1 0  and 7 2 1 0 
68229719		 # 	collision with: 1 4 0 0  and 1 4 1 0 
68229732		 # 	collision with: 5 6 0 0  and 8 1 1 0 
68229734		 # 	collision with: 2 10 0 0  and 0 0 1 0 
68229744		 # 	collision with: 1 6 1 0  and 2 6 1 0 
68229746		 # 	collision with: 1 10 0 0  and 8 0 1 0 
68229756		 # 	collision with: 6 0 0 0  and 0 2 1 0 
68229758		 # 	collision with: 6 1 2 0  and 6 2 2 0 
68229773		 # 	collision with: 7 2 0 0  and 4 4 0 0 
68229775		 # 	collision with: 8 6 0 0  and 4 9 2 0 
68229788		 # 	collision with: 0 10 0 0  and 7 0 1 0 
68229790		 # 	collision with: 2 10 0 0  and 9 1 2 0 
68229824		 # 	collision with: 0 10 0 0  and 7 0 1 0 
68229826		 # 	collision with: 1 6 1 0  and 3 6 1 0 
68229832		 # 	collision with: 0 5 0 0  and 1 6 1 0 
68229834		 # 	collision with: 3 7 0 0  and 6 9 2 0 
68229848		 # 	collision with: 9 4 0 0  and 9 4 1 0 
68229850		 # 	collision with: 9 1 0 0  and 9 6 1 0 
68229876		 # 	collision with: 3 1 0 0  and 8 2 1 0 
68229878		 # 	collision with: 0 2 1 0  and 3 3 2 0 
68229887		 # 	collision with: 0 5 0 0  and 9 0 1 0 
68229909		 # 	collision with: 5 1 0 0  and 2 0 1 0 
68229911		 # 	collision with: 0 5 0 0  and 9 0 1 0 
68229916		 # 	collision with: 10 10 0 0  and 4 0 1 0 
68229918		 # 	collision with: 9 6 0 0  and 8 6 1 0 
68229920		 # 	collision with: 2 4 0 0  and 6 6 2 0 
68229922		 # 	collision with: 7 6 1 0  and 8 7 2 0 
68229942		 # 	collision with: 5 1 1 0  and 5 1 2 0 
68229945		 # 	collision with: 10 2 0 0  and 10 4 0 0 
68229947		 # 	collision with: 1 1 0 0  and 8 0 1 0 
68229961		 # 	collision with: 0 10 0 0  and 7 2 1 0 
68229964		 # 	collision with: 3 2 0 0  and 10 1 1 0 
68229966		 # 	collision with: 3 2 0 0  and 8 1 1 0 
68230008		 # 	collision with: 5 8 0 0  and 5 6 2 0 
68230010		 # 	collision with: 10 6 1 0  and 1 5 2 0 
68230013		 # 	collision with: 8 1 0 0  and 10 6 1 0 
68230029		 # 	collision with: 1 2 0 0  and 1 3 0 0 
68230031		 # 	collision with: 3 6 0 0  and 0 0 1 0 
68230034		 # 	collision with: 7 9 1 0  and 2 2 2 0 
68230052		 # 	collision with: 4 8 1 0  and 5 7 2 0 
68230054		 # 	collision with: 3 6 0 0  and 1 5 1 0 
68230056		 # 	collision with: 6 7 0 0  and 9 2 1 0 
68230058		 # 	collision with: 3 2 0 0  and 6 4 1 0 
68230065		 # 	collision with: 0 9 1 0  and 1 1 2 0 
68230067		 # 	collision with: 2 2 0 0  and 5 1 1 0 
68230091		 # 	collision with: 2 6 0 0  and 4 6 0 0 
68230096		 # 	collision with: 3 9 0 0  and 5 8 1 0 
68230098		 # 	collision with: 10 4 0 0  and 5 2 2 0 
68230124		 # 	collision with: 9 1 0 0  and 9 0 1 0 
68230126		 # 	collision with: 9 8 0 0  and 9 10 1 0 
68230140		 # 	collision with: 4 4 0 0  and 9 3 1 0 
68230142		 # 	collision with: 10 3 0 0  and 1 1 2 0 
68230148		 # 	collision with: 0 6 1 0  and 2 6 1 0 
68230150		 # 	collision with: 4 9 0 0  and 4 6 1 0 
68230184		 # 	collision with: 3 6 1 0  and 5 6 1 0 
68230186		 # 	collision with: 1 6 1 0  and 2 6 1 0 
68230201		 # 	collision with: 7 5 1 0  and 10 3 3 0 
68230203		 # 	collision with: 6 1 0 0  and 1 4 1 0 
68230216		 # 	collision with: 5 1 2 0  and 5 2 2 0 
68230218		 # 	collision with: 1 2 0 0  and 1 2 2 0 
68230228		 # 	collision with: 1 2 0 0  and 4 1 1 0 
68230230		 # 	collision with: 0 6 0 0  and 1 5 1 0 
68230240		 # 	collision with: 0 4 0 0  and 5 1 2 0 
68230242		 # 	collision with: 9 10 0 0  and 0 4 2 0 
68230257		 # 	collision with: 4 4 1 0  and 4 5 1 0 
68230259		 # 	collision with: 9 9 0 0  and 1 7 1 0 
68230272		 # 	collision with: 4 3 1 0  and 6 2 2 0 
68230274		 # 	collision with: 8 3 0 0  and 1 2 1 0 
68230308		 # 	collision with: 1 1 0 0  and 6 0 1 0 
68230310		 # 	collision with: 7 2 0 0  and 8 7 1 0 
68230316		 # 	collision with: 3 3 1 0  and 8 2 2 0 
68230318		 # 	collision with: 1 6 2 0  and 2 6 2 0 
68230332		 # 	collision with: 9 0 0 0  and 2 7 2 0 
68230334		 # 	collision with: 1 8 0 0  and 4 2 1 0 
68230360		 # 	collision with: 7 7 1 0  and 6 6 2 0 
68230362		 # 	collision with: 2 0 0 0  and 10 10 1 0 
68230369		 # 	collision with: 0 6 0 0  and 4 3 1 0 
68230371		 # 	collision with: 7 10 0 0  and 2 3 1 0 
68230395		 # 	collision with: 2 2 0 0  and 2 3 0 0 
68230400		 # 	collision with: 5 6 0 0  and 6 6 0 0 
68230402		 # 	collision with: 2 6 0 0  and 4 6 0 0 
68230424		 # 	collision with: 0 1 0 0  and 9 3 1 0 
68230426		 # 	collision with: 1 1 0 0  and 8 0 1 0 
68230429		 # 	collision with: 8 2 0 0  and 3 3 0 0 
68230431		 # 	collision with: 5 6 0 0  and 2 10 1 0 
68230445		 # 	collision with: 5 6 0 0  and 6 6 0 0 
68230447		 # 	collision with: 2 6 0 0  and 1 6 1 0 
68230448		 # 	collision with: 4 7 0 0  and 5 3 1 0 
68230450		 # 	collision with: 1 0 1 0  and 0 1 0 1 
68230492		 # 	collision with: 3 2 0 0  and 7 9 1 0 
68230494		 # 	collision with: 2 4 1 0  and 7 0 2 0 
68230499		 # 	collision with: 6 1 1 0  and 6 2 1 0 
68230513		 # 	collision with: 3 1 0 0  and 3 1 1 0 
68230515		 # 	collision with: 10 1 2 0  and 10 1 3 0 
68230516		 # 	collision with: 2 6 1 0  and 4 6 1 0 
68230518		 # 	collision with: 4 2 0 0  and 8 4 1 0 
68230536		 # 	collision with: 0 8 0 0  and 7 4 1 0 
68230538		 # 	collision with: 2 10 0 0  and 5 6 1 0 
68230540		 # 	collision with: 9 0 0 0  and 10 2 1 0 
68230542		 # 	collision with: 4 9 0 0  and 5 3 1 0 
68230549		 # 	collision with: 7 1 0 0  and 5 10 1 0 
68230551		 # 	collision with: 2 3 1 0  and 4 0 2 0 
68230573		 # 	collision with: 3 1 0 0  and 3 3 0 0 
68230575		 # 	collision with: 3 4 0 0  and 8 6 2 0 
68230580		 # 	collision with: 0 4 1 0  and 2 0 2 0 
68230582		 # 	collision with: 1 8 0 0  and 8 4 1 0 
68230610		 # 	collision with: 5 0 0 0  and 5 9 1 0 
68230624		 # 	collision with: 0 6 1 0  and 2 6 1 0 
68230626		 # 	collision with: 3 6 1 0  and 5 6 1 0 
68230632		 # 	collision with: 9 0 2 0  and 9 1 2 0 
68230634		 # 	collision with: 1 8 0 0  and 1 3 2 0 
68230668		 # 	collision with: 3 4 0 0  and 3 0 1 0 
68230670		 # 	collision with: 6 4 0 0  and 1 0 1 0 
68230685		 # 	collision with: 3 6 1 0  and 5 6 1 0 
68230700		 # 	collision with: 5 6 0 0  and 6 6 0 0 
68230702		 # 	collision with: 2 6 0 0  and 4 6 0 0 
68230712		 # 	collision with: 0 4 0 0  and 2 0 1 0 
68230714		 # 	collision with: 9 9 0 0  and 8 5 1 0 
68230724		 # 	collision with: 0 4 0 0  and 2 0 1 0 
68230726		 # 	collision with: 9 5 1 0  and 5 0 2 0 
68230741		 # 	collision with: 9 7 2 0  and 0 9 3 0 
68230743		 # 	collision with: 2 6 0 0  and 4 6 0 0 
68230756		 # 	collision with: 9 9 0 0  and 0 1 2 0 
68230758		 # 	collision with: 6 4 1 0  and 1 0 2 0 
68230792		 # 	collision with: 7 10 0 0  and 1 4 1 0 
68230794		 # 	collision with: 3 4 0 0  and 0 0 1 0 
68230816		 # 	collision with: 7 0 1 0  and 7 2 1 0 
68230818		 # 	collision with: 7 3 1 0  and 7 5 1 0 
68230844		 # 	collision with: 2 2 0 0  and 1 9 1 0 
68230846		 # 	collision with: 3 5 0 0  and 5 1 1 0 
68230853		 # 	collision with: 2 10 0 0  and 5 1 1 0 
68230855		 # 	collision with: 2 6 1 0  and 3 6 1 0 
68230877		 # 	collision with: 5 6 0 0  and 6 6 0 0 
68230879		 # 	collision with: 3 0 0 0  and 6 1 1 0 
68230884		 # 	collision with: 2 6 0 0  and 1 6 1 0 
68230886		 # 	collision with: 10 8 0 0  and 3 1 1 0 
68230888		 # 	collision with: 9 9 0 0  and 0 1 2 0 
68230890		 # 	collision with: 10 6 0 0  and 7 2 1 0 
68230908		 # 	collision with: 4 9 0 0  and 3 3 2 0 
68230910		 # 	collision with: 7 1 0 0  and 7 1 2 0 
68230915		 # 	collision with: 6 8 0 0  and 2 6 1 0 
68230929		 # 	collision with: 8 4 0 0  and 8 3 1 0 
68230931		 # 	collision with: 9 6 0 0  and 3 6 1 0 
68230932		 # 	collision with: 1 1 0 0  and 7 3 1 0 
68230934		 # 	collision with: 3 4 0 0  and 1 6 1 0 
68230976		 # 	collision with: 6 7 0 0  and 1 0 2 0 
68230978		 # 	collision with: 9 8 1 0  and 10 1 3 0 
68230981		 # 	collision with: 5 1 0 0  and 5 2 0 0 
68230983		 # 	collision with: 2 0 1 0  and 10 2 1 0 
68230997		 # 	collision with: 1 7 0 0  and 0 0 1 0 
68230999		 # 	collision with: 2 6 0 0  and 4 6 0 0 
68231000		 # 	collision with: 5 6 0 0  and 6 6 0 0 
68231002		 # 	collision with: 2 6 0 0  and 4 6 0 0 
68231020		 # 	collision with: 7 0 0 0  and 7 2 1 0 
68231022		 # 	collision with: 10 10 0 0  and 7 1 1 0 
68231024		 # 	collision with: 0 1 0 0  and 4 4 2 0 
68231026		 # 	collision with: 4 6 0 0  and 9 1 1 0 
68231033		 # 	collision with: 6 2 0 0  and 2 6 1 0 
68231035		 # 	collision with: 6 9 0 0  and 6 9 2 0 
68231057		 # 	collision with: 10 2 1 0  and 2 3 1 0 
68231064		 # 	collision with: 9 2 0 0  and 8 4 1 0 
68231066		 # 	collision with: 0 6 1 0  and 2 6 1 0 
68231092		 # 	collision with: 1 2 2 0  and 1 3 2 0 
68231094		 # 	collision with: 3 0 2 0  and 6 1 2 0 
68231108		 # 	collision with: 3 2 0 0  and 7 4 1 0 
68231110		 # 	collision with: 8 9 0 0  and 9 0 1 0 
68231116		 # 	collision with: 9 10 0 0  and 9 2 2 0 
68231118		 # 	collision with: 6 10 0 0  and 7 3 1 0 
68231152		 # 	collision with: 7 3 0 0  and 9 5 1 0 
68231154		 # 	collision with: 10 1 0 0  and 3 3 1 0 
68231169		 # 	collision with: 4 6 1 0  and 6 2 2 0 
68231171		 # 	collision with: 10 7 0 0  and 7 0 1 0 
68231186		 # 	collision with: 5 2 0 0  and 5 2 1 0 
68231208		 # 	collision with: 8 1 1 0  and 6 2 1 0 
68231210		 # 	collision with: 9 0 1 0  and 0 1 1 0 
68231225		 # 	collision with: 5 3 1 0  and 9 4 1 0 
68231227		 # 	collision with: 0 8 0 0  and 10 2 1 0 
68231240		 # 	collision with: 9 1 0 0  and 5 5 2 0 
68231242		 # 	collision with: 5 8 0 0  and 7 10 1 0 
68231276		 # 	collision with: 0 5 0 0  and 6 2 1 0 
68231278		 # 	collision with: 5 5 0 0  and 8 2 1 0 
68231284		 # 	collision with: 6 2 0 0  and 0 6 2 0 
68231286		 # 	collision with: 3 9 0 0  and 5 2 2 0 
68231300		 # 	collision with: 9 3 0 0  and 3 7 1 0 
68231302		 # 	collision with: 9 5 0 0  and 4 1 1 0 
68231328		 # 	collision with: 2 0 0 0  and 5 2 1 0 
68231330		 # 	collision with: 3 10 0 0  and 6 1 1 0 
68231337		 # 	collision with: 1 10 0 0  and 0 5 1 0 
68231339		 # 	collision with: 6 8 0 0  and 7 2 2 0 
68231361		 # 	collision with: 9 4 1 0  and 4 7 2 0 
68231363		 # 	collision with: 5 4 2 0  and 5 5 2 0 
68231368		 # 	collision with: 7 6 0 0  and 4 6 1 0 
68231370		 # 	collision with: 2 6 0 0  and 1 6 1 0 
68231372		 # 	collision with: 6 10 0 0  and 4 1 1 0 
68231374		 # 	collision with: 6 8 0 0  and 2 10 1 0 
68231392		 # 	collision with: 8 1 0 0  and 8 1 1 0 
68231394		 # 	collision with: 6 7 0 0  and 2 3 1 0 
68231397		 # 	collision with: 5 6 0 0  and 6 6 0 0 
68231399		 # 	collision with: 7 9 1 0  and 2 3 2 0 
68231413		 # 	collision with: 3 1 0 0  and 8 2 0 0 
68231415		 # 	collision with: 6 1 0 0  and 6 2 0 0 
68231416		 # 	collision with: 4 3 0 0  and 9 6 1 0 
68231418		 # 	collision with: 7 8 0 0  and 8 3 2 0 
68231460		 # 	collision with: 3 9 1 0  and 8 1 2 0 
68231462		 # 	collision with: 7 5 0 0  and 1 0 2 0 
68231465		 # 	collision with: 2 6 1 0  and 4 6 1 0 
68231467		 # 	collision with: 10 9 0 0  and 8 2 1 0 
68231481		 # 	collision with: 3 6 0 0  and 4 3 1 0 
68231483		 # 	collision with: 5 1 2 0  and 2 2 2 0 
68231484		 # 	collision with: 1 1 0 0  and 0 9 1 0 
68231486		 # 	collision with: 10 2 0 0  and 9 3 1 0 
68231504		 # 	collision with: 0 6 1 0  and 1 6 1 0 
68231506		 # 	collision with: 3 6 1 0  and 4 6 1 0 
68231508		 # 	collision with: 10 8 0 0  and 1 0 1 0 
68231510		 # 	collision with: 5 5 0 0  and 1 1 2 0 
68231517		 # 	collision with: 2 4 1 0  and 2 6 1 0 
68231519		 # 	collision with: 2 6 0 0  and 4 6 0 0 
68231541		 # 	collision with: 10 10 0 0  and 3 1 1 0 
68231543		 # 	collision with: 10 2 0 0  and 2 5 1 0 
68231548		 # 	collision with: 10 9 1 0  and 6 1 2 0 
68231550		 # 	collision with: 8 2 0 0  and 5 5 1 0 
68231576		 # 	collision with: 8 0 0 0  and 10 1 1 0 
68231578		 # 	collision with: 8 4 1 0  and 1 3 2 0 
68231600		 # 	collision with: 8 8 0 0  and 9 1 1 0 
68231602		 # 	collision with: 0 8 0 0  and 2 5 1 0 
68231636		 # 	collision with: 3 1 1 0  and 6 4 2 0 
68231638		 # 	collision with: 9 5 0 0  and 5 0 2 0 
68231653		 # 	collision with: 5 6 0 0  and 6 6 0 0 
68231655		 # 	collision with: 5 2 2 0  and 6 3 2 0 
68231668		 # 	collision with: 4 3 1 0  and 2 4 2 0 
68231670		 # 	collision with: 7 8 0 0  and 7 0 1 0 
68231680		 # 	collision with: 8 4 2 0  and 6 7 3 0 
68231682		 # 	collision with: 0 0 0 0  and 7 6 2 0 
68231692		 # 	collision with: 1 6 1 0  and 2 6 1 0 
68231694		 # 	collision with: 4 6 1 0  and 5 6 1 0 
68231709		 # 	collision with: 7 0 0 0  and 7 2 0 0 
68231711		 # 	collision with: 4 6 1 0  and 5 6 1 0 
68231724		 # 	collision with: 4 3 0 0  and 3 6 1 0 
68231726		 # 	collision with: 1 3 0 0  and 8 9 2 0 
68231762		 # 	collision with: 3 7 0 0  and 6 5 1 0 
68231768		 # 	collision with: 8 10 1 0  and 10 2 2 0 
68231770		 # 	collision with: 10 2 0 0  and 2 5 1 0 
68231784		 # 	collision with: 5 6 0 0  and 6 6 0 0 
68231786		 # 	collision with: 2 6 0 0  and 4 6 0 0 
68231812		 # 	collision with: 8 9 0 0  and 5 1 1 0 
68231814		 # 	collision with: 0 9 1 0  and 7 1 2 0 
68231821		 # 	collision with: 6 6 1 0  and 6 2 2 0 
68231823		 # 	collision with: 8 0 0 0  and 8 2 0 0 
68231845		 # 	collision with: 8 3 2 0  and 1 5 2 0 
68231852		 # 	collision with: 1 6 0 0  and 0 6 1 0 
68231854		 # 	collision with: 7 6 0 0  and 6 6 1 0 
68231856		 # 	collision with: 6 1 0 0  and 8 4 1 0 
68231858		 # 	collision with: 5 1 0 0  and 4 4 1 0 
68231876		 # 	collision with: 1 10 0 0  and 5 6 1 0 
68231878		 # 	collision with: 9 1 0 0  and 9 1 1 0 
68231881		 # 	collision with: 10 10 0 0  and 10 10 1 0 
68231883		 # 	collision with: 5 6 1 0  and 6 6 1 0 
68231897		 # 	collision with: 10 8 0 0  and 6 1 1 0 
68231899		 # 	collision with: 4 0 0 0  and 2 2 0 0 
68231900		 # 	collision with: 2 5 0 0  and 3 0 1 0 
68231902		 # 	collision with: 0 9 0 0  and 9 4 1 0 
68231944		 # 	collision with: 0 6 0 0  and 8 1 1 0 
68231946		 # 	collision with: 1 8 0 0  and 1 3 1 0 
68231949		 # 	collision with: 0 5 1 0  and 6 6 1 0 
68231951		 # 	collision with: 2 6 0 0  and 4 6 0 0 
68231965		 # 	collision with: 7 3 0 0  and 9 7 1 0 
68231968		 # 	collision with: 8 5 0 0  and 4 0 1 0 
68231970		 # 	collision with: 0 0 2 0  and 7 2 2 0 
68231992		 # 	collision with: 9 4 1 0  and 3 5 1 0 
68231994		 # 	collision with: 6 1 1 0  and 6 2 1 0 
68232001		 # 	collision with: 9 0 0 0  and 9 1 0 0 
68232003		 # 	collision with: 8 4 1 0  and 9 7 2 0 
68232025		 # 	collision with: 10 3 1 0  and 10 3 2 0 
68232027		 # 	collision with: 8 9 0 0  and 1 3 1 0 
68232032		 # 	collision with: 6 6 0 0  and 8 1 1 0 
68232034		 # 	collision with: 8 7 0 0  and 6 8 2 0 
68232060		 # 	collision with: 4 9 0 0  and 3 3 1 0 
68232062		 # 	collision with: 0 6 1 0  and 2 6 1 0 
68232076		 # 	collision with: 5 5 0 0  and 9 0 1 0 
68232078		 # 	collision with: 5 9 1 0  and 7 4 2 0 
68232084		 # 	collision with: 5 6 0 0  and 6 6 0 0 
68232086		 # 	collision with: 2 6 0 0  and 4 6 0 0 
68232120		 # 	collision with: 10 3 0 0  and 0 4 2 0 
68232122		 # 	collision with: 0 0 1 0  and 4 6 2 0 
68232137		 # 	collision with: 6 7 2 0  and 9 2 3 0 
68232139		 # 	collision with: 7 3 1 0  and 7 5 1 0 
68232152		 # 	collision with: 7 5 0 0  and 2 0 1 0 
68232154		 # 	collision with: 9 0 0 0  and 9 7 1 0 
68232164		 # 	collision with: 2 10 0 0  and 2 0 2 0 
68232166		 # 	collision with: 8 10 0 0  and 10 5 1 0 
68232176		 # 	collision with: 6 10 0 0  and 3 0 2 0 
68232178		 # 	collision with: 1 3 0 0  and 0 1 1 0 
68232193		 # 	collision with: 3 0 0 0  and 1 2 1 0 
68232195		 # 	collision with: 2 1 0 0  and 8 3 1 0 
68232208		 # 	collision with: 1 6 1 0  and 8 1 2 0 
68232210		 # 	collision with: 5 3 0 0  and 4 9 1 0 
68232244		 # 	collision with: 5 2 0 0  and 2 10 1 0 
68232246		 # 	collision with: 8 0 0 0  and 8 2 1 0 
68232252		 # 	collision with: 5 7 0 0  and 1 2 1 0 
68232254		 # 	collision with: 10 7 0 0  and 7 8 2 0 
68232268		 # 	collision with: 7 6 0 0  and 1 10 2 0 
68232270		 # 	collision with: 2 2 0 0  and 5 1 1 0 
68232296		 # 	collision with: 10 3 0 0  and 8 9 1 0 
68232298		 # 	collision with: 6 7 0 0  and 2 2 1 0 
68232305		 # 	collision with: 5 6 0 0  and 6 6 0 0 
68232307		 # 	collision with: 3 4 1 0  and 3 6 1 0 
68232329		 # 	collision with: 1 3 0 0  and 3 0 1 0 
68232331		 # 	collision with: 7 3 0 0  and 1 0 1 0 
68232338		 # 	collision with: 1 6 0 0  and 0 6 1 0 
68232340		 # 	collision with: 4 5 1 0  and 7 0 2 0 
68232342		 # 	collision with: 6 10 0 0  and 7 5 1 0 
68232360		 # 	collision with: 10 10 0 0  and 10 7 1 0 
68232362		 # 	collision with: 1 5 0 0  and 0 0 1 0 
68232365		 # 	collision with: 7 1 0 0  and 2 8 1 0 
68232367		 # 	collision with: 10 0 0 0  and 10 1 0 0 
68232381		 # 	collision with: 4 6 0 0  and 3 6 1 0 
68232383		 # 	collision with: 8 6 0 0  and 7 6 1 0 
68232432		 # 	collision with: 8 0 0 0  and 3 2 0 0 
68232434		 # 	collision with: 9 3 0 0  and 9 4 0 0 
68232448		 # 	collision with: 6 3 0 0  and 6 5 0 0 
68232450		 # 	collision with: 1 5 0 0  and 1 6 0 0 
68232461		 # 	collision with: 9 2 1 0  and 4 6 2 0 
68232465		 # 	collision with: 10 0 0 0  and 7 5 1 0 
68232467		 # 	collision with: 2 3 0 0  and 7 7 1 0 
68232480		 # 	collision with: 7 0 0 0  and 7 2 0 0 
68232482		 # 	collision with: 0 1 0 0  and 6 2 0 0 
68232489		 # 	collision with: 8 3 1 0  and 8 4 1 0 
68232491		 # 	collision with: 9 2 0 0  and 0 8 1 0 
68232505		 # 	collision with: 4 4 1 0  and 9 1 2 0 
68232507		 # 	collision with: 9 4 0 0  and 0 2 1 0 
68232512		 # 	collision with: 7 2 0 0  and 4 4 0 0 
68232514		 # 	collision with: 10 0 0 0  and 7 1 0 0 
68232528		 # 	collision with: 9 1 0 0  and 2 3 0 0 
68232530		 # 	collision with: 4 1 0 0  and 4 3 0 0 
68232532		 # 	collision with: 3 1 0 0  and 3 3 0 0 
68232534		 # 	collision with: 6 1 0 0  and 6 2 0 0 
68232576		 # 	collision with: 3 1 0 0  and 3 3 0 0 
68232578		 # 	collision with: 6 1 0 0  and 6 2 0 0 
68232596		 # 	collision with: 9 0 0 0  and 9 1 0 0 
68232598		 # 	collision with: 2 1 0 0  and 4 3 0 0 
68232616		 # 	collision with: 9 1 0 0  and 2 3 0 0 
68232618		 # 	collision with: 4 1 0 0  and 4 3 0 0 
68232623		 # 	collision with: 9 10 0 0  and 3 6 1 0 
68232624		 # 	collision with: 6 3 0 0  and 6 5 0 0 
68232626		 # 	collision with: 1 5 0 0  and 1 6 0 0 
68232672		 # 	collision with: 2 4 0 0  and 9 6 0 0 
68232674		 # 	collision with: 4 3 0 0  and 2 4 0 0 
68232679		 # 	collision with: 10 9 0 0  and 5 1 1 0 
68232680		 # 	collision with: 8 3 0 0  and 8 4 0 0 
68232682		 # 	collision with: 10 2 0 0  and 7 4 0 0 
68232700		 # 	collision with: 7 0 0 0  and 7 2 0 0 
68232702		 # 	collision with: 0 1 0 0  and 6 2 0 0 
68232720		 # 	collision with: 5 1 0 0  and 5 2 0 0 
68232722		 # 	collision with: 10 0 0 0  and 10 1 0 0 
68232764		 # 	collision with: 5 1 0 0  and 5 2 0 0 
68232766		 # 	collision with: 10 0 0 0  and 10 1 0 0 
68232768		 # 	collision with: 8 3 0 0  and 8 4 0 0 
68232770		 # 	collision with: 10 2 0 0  and 7 4 0 0 
68232784		 # 	collision with: 8 0 0 0  and 3 2 0 0 
68232786		 # 	collision with: 9 3 0 0  and 9 4 0 0 
68232793		 # 	collision with: 1 1 0 0  and 1 4 2 0 
68232795		 # 	collision with: 0 7 0 0  and 6 9 1 0 
68232809		 # 	collision with: 5 6 0 0  and 6 2 1 0 
68232811		 # 	collision with: 0 5 0 0  and 6 2 1 0 
68232816		 # 	collision with: 9 0 0 0  and 9 1 0 0 
68232818		 # 	collision with: 2 1 0 0  and 4 3 0 0 
68232833		 # 	collision with: 4 4 1 0  and 4 5 1 0 
68232835		 # 	collision with: 5 6 1 0  and 6 6 1 0 
68232837		 # 	collision with: 4 7 0 0  and 5 9 1 0 
68232848		 # 	collision with: 2 4 0 0  and 9 6 0 0 
68232850		 # 	collision with: 4 3 0 0  and 2 4 0 0 
68232864		 # 	collision with: 7 2 0 0  and 4 4 0 0 
68232866		 # 	collision with: 10 0 0 0  and 7 1 0 0 
68232868		 # 	collision with: 6 5 0 0  and 3 9 1 0 
68232870		 # 	collision with: 6 3 0 0  and 5 7 1 0 
68232916		 # 	collision with: 0 0 0 0  and 8 2 2 0 
68232918		 # 	collision with: 0 9 0 0  and 3 1 1 0 
68232932		 # 	collision with: 2 7 1 0  and 7 0 2 0 
68232934		 # 	collision with: 8 3 0 0  and 0 3 1 0 
68232945		 # 	collision with: 2 4 0 0  and 9 6 0 0 
68232947		 # 	collision with: 10 0 1 0  and 2 2 1 0 
68232949		 # 	collision with: 5 6 0 0  and 6 6 0 0 
68232951		 # 	collision with: 0 7 1 0  and 1 7 1 0 
68232964		 # 	collision with: 2 1 1 0  and 4 1 2 0 
68232966		 # 	collision with: 3 3 2 0  and 5 3 2 0 
68232973		 # 	collision with: 0 9 0 0  and 8 1 1 0 
68232975		 # 	collision with: 2 1 0 0  and 4 1 0 0 
68232989		 # 	collision with: 2 4 0 0  and 9 6 0 0 
68232991		 # 	collision with: 7 0 0 0  and 6 6 2 0 
68232996		 # 	collision with: 7 0 1 0  and 7 2 1 0 
68232998		 # 	collision with: 2 1 0 0  and 4 1 0 0 
68233012		 # 	collision with: 9 7 0 0  and 4 0 1 0 
68233014		 # 	collision with: 8 0 0 0  and 2 1 1 0 
68233016		 # 	collision with: 6 7 0 0  and 4 10 2 0 
68233018		 # 	collision with: 3 7 0 0  and 9 0 1 0 
68233060		 # 	collision with: 2 7 0 0  and 10 10 2 0 
68233062		 # 	collision with: 0 10 0 0  and 4 5 1 0 
68233080		 # 	collision with: 5 6 0 0  and 6 6 0 0 
68233082		 # 	collision with: 8 9 0 0  and 8 9 1 0 
68233102		 # 	collision with: 1 9 1 0  and 2 9 1 0 
68233105		 # 	collision with: 6 3 0 0  and 1 8 1 0 
68233107		 # 	collision with: 2 1 0 0  and 4 1 0 0 
68233108		 # 	collision with: 2 0 2 0  and 3 0 2 0 
68233158		 # 	collision with: 7 9 0 0  and 5 5 1 0 
68233161		 # 	collision with: 4 10 0 0  and 7 4 1 0 
68233163		 # 	collision with: 4 4 1 0  and 5 4 1 0 
68233164		 # 	collision with: 5 2 0 0  and 2 8 1 0 
68233166		 # 	collision with: 9 2 0 0  and 0 8 1 0 
68233184		 # 	collision with: 0 5 0 0  and 2 0 2 0 
68233186		 # 	collision with: 9 3 0 0  and 4 6 1 0 
68233204		 # 	collision with: 9 5 0 0  and 10 8 1 0 
68233206		 # 	collision with: 9 1 0 0  and 4 2 1 0 
68233248		 # 	collision with: 10 5 1 0  and 0 5 2 0 
68233252		 # 	collision with: 2 3 0 0  and 7 2 1 0 
68233254		 # 	collision with: 10 6 0 0  and 1 6 1 0 
68233268		 # 	collision with: 1 7 1 0  and 2 9 2 0 
68233270		 # 	collision with: 0 4 0 0  and 6 7 2 0 
68233277		 # 	collision with: 2 4 0 0  and 2 6 0 0 
68233279		 # 	collision with: 10 1 0 0  and 7 1 2 0 
68233293		 # 	collision with: 4 5 1 0  and 6 5 1 0 
68233295		 # 	collision with: 5 8 0 0  and 4 9 1 0 
68233300		 # 	collision with: 5 6 0 0  and 6 6 0 0 
68233302		 # 	collision with: 6 9 0 0  and 6 9 1 0 
68233317		 # 	collision with: 5 10 1 0  and 9 0 2 0 
68233319		 # 	collision with: 3 4 0 0  and 3 6 0 0 
68233321		 # 	collision with: 2 4 0 0  and 2 6 0 0 
68233323		 # 	collision with: 2 2 0 0  and 2 3 1 0 
68233332		 # 	collision with: 2 0 1 0  and 3 0 1 0 
68233334		 # 	collision with: 4 9 0 0  and 8 5 1 0 
68233348		 # 	collision with: 2 0 1 0  and 3 0 1 0 
68233350		 # 	collision with: 2 1 0 0  and 4 1 0 0 
68233352		 # 	collision with: 1 3 0 0  and 5 6 2 0 
68233354		 # 	collision with: 3 6 0 0  and 4 8 1 0 
68233402		 # 	collision with: 6 7 0 0  and 4 6 1 0 
68233416		 # 	collision with: 2 1 0 0  and 9 4 1 0 
68233418		 # 	collision with: 7 8 0 0  and 6 6 1 0 
68233429		 # 	collision with: 8 6 0 0  and 8 6 1 0 
68233431		 # 	collision with: 5 4 0 0  and 5 5 0 0 
68233433		 # 	collision with: 2 6 0 0  and 6 1 2 0 
68233435		 # 	collision with: 8 0 0 0  and 8 2 1 0 
68233448		 # 	collision with: 7 0 0 0  and 9 1 1 0 
68233450		 # 	collision with: 6 1 0 0  and 2 7 1 0 
68233459		 # 	collision with: 2 5 0 0  and 3 10 1 0 
68233473		 # 	collision with: 4 6 0 0  and 4 6 1 0 
68233475		 # 	collision with: 5 4 0 0  and 5 5 0 0 
68233480		 # 	collision with: 10 7 0 0  and 10 7 1 0 
68233482		 # 	collision with: 7 2 0 0  and 8 8 1 0 
68233496		 # 	collision with: 3 2 1 0  and 4 2 1 0 
68233498		 # 	collision with: 7 9 0 0  and 4 0 1 0 
68233500		 # 	collision with: 3 8 0 0  and 3 7 1 0 
68233502		 # 	collision with: 4 8 0 0  and 8 7 1 0 
68233544		 # 	collision with: 3 6 0 0  and 4 4 2 0 
68233546		 # 	collision with: 2 5 0 0  and 7 6 1 0 
68233564		 # 	collision with: 5 0 1 0  and 8 2 1 0 
68233566		 # 	collision with: 2 1 0 0  and 4 1 0 0 
68233584		 # 	collision with: 8 3 0 0  and 2 2 1 0 
68233589		 # 	collision with: 1 2 1 0  and 7 3 1 0 
68233591		 # 	collision with: 7 1 1 0  and 5 7 2 0 
68233592		 # 	collision with: 4 9 0 0  and 4 0 1 0 
68233594		 # 	collision with: 4 3 1 0  and 4 1 2 0 
68233640		 # 	collision with: 7 8 0 0  and 10 0 2 0 
68233642		 # 	collision with: 7 8 0 0  and 7 8 1 0 
68233645		 # 	collision with: 5 6 0 0  and 6 6 0 0 
68233647		 # 	collision with: 4 6 0 0  and 10 9 1 0 
68233648		 # 	collision with: 8 2 0 0  and 5 3 1 0 
68233650		 # 	collision with: 10 4 0 0  and 2 10 1 0 
68233668		 # 	collision with: 5 4 0 0  and 6 3 1 0 
68233670		 # 	collision with: 2 1 1 0  and 4 1 2 0 
68233688		 # 	collision with: 5 6 0 0  and 6 6 0 0 
68233690		 # 	collision with: 10 9 0 0  and 3 0 1 0 
68233732		 # 	collision with: 5 6 0 0  and 6 6 0 0 
68233734		 # 	collision with: 6 6 0 0  and 3 3 1 0 
68233736		 # 	collision with: 8 0 0 0  and 8 7 1 0 
68233738		 # 	collision with: 9 6 0 0  and 2 6 1 0 
68233752		 # 	collision with: 0 5 0 0  and 7 1 1 0 
68233754		 # 	collision with: 2 0 1 0  and 3 0 1 0 
68233763		 # 	collision with: 2 1 0 0  and 4 1 0 0 
68233777		 # 	collision with: 5 6 0 0  and 6 6 0 0 
68233779		 # 	collision with: 10 3 0 0  and 9 4 1 0 
68233784		 # 	collision with: 8 1 1 0  and 2 3 1 0 
68233786		 # 	collision with: 2 1 0 0  and 4 1 0 0 
68233801		 # 	collision with: 9 1 0 0  and 0 9 1 0 
68233803		 # 	collision with: 5 1 1 0  and 5 1 2 0 
68233805		 # 	collision with: 5 1 2 0  and 5 2 2 0 
68233807		 # 	collision with: 2 1 0 0  and 4 1 0 0 
68233818		 # 	collision with: 4 3 0 0  and 2 4 1 0 
68233832		 # 	collision with: 7 4 0 0  and 6 1 1 0 
68233836		 # 	collision with: 8 6 0 0  and 7 0 1 0 
68233838		 # 	collision with: 7 6 0 0  and 2 0 1 0 
68233884		 # 	collision with: 8 6 0 0  and 9 0 1 0 
68233886		 # 	collision with: 0 7 1 0  and 1 7 1 0 
68233900		 # 	collision with: 5 6 0 0  and 6 6 0 0 
68233902		 # 	collision with: 9 10 0 0  and 8 7 1 0 
68233913		 # 	collision with: 6 3 0 0  and 9 0 1 0 
68233915		 # 	collision with: 8 5 1 0  and 4 6 1 0 
68233917		 # 	collision with: 6 5 0 0  and 9 0 1 0 
68233919		 # 	collision with: 7 3 0 0  and 7 5 0 0 
68233932		 # 	collision with: 2 9 0 0  and 0 4 1 0 
68233934		 # 	collision with: 9 4 0 0  and 5 1 1 0 
68233941		 # 	collision with: 8 4 0 0  and 0 8 1 0 
68233943		 # 	collision with: 1 10 0 0  and 0 2 2 0 
68233957		 # 	collision with: 4 5 1 0  and 8 6 1 0 
68233959		 # 	collision with: 9 6 0 0  and 9 6 1 0 
68233964		 # 	collision with: 9 1 0 0  and 0 9 1 0 
68233980		 # 	collision with: 4 8 0 0  and 2 1 1 0 
68233982		 # 	collision with: 5 4 0 0  and 7 10 1 0 
68233984		 # 	collision with: 4 1 0 0  and 2 1 1 0 
68233986		 # 	collision with: 7 2 0 0  and 10 3 1 0 
68234028		 # 	collision with: 3 6 1 0  and 7 0 2 0 
68234050		 # 	collision with: 9 4 1 0  and 4 9 3 0 
68234068		 # 	collision with: 8 10 1 0  and 1 2 2 0 
68234070		 # 	collision with: 0 1 0 0  and 6 1 2 0 
68234073		 # 	collision with: 9 5 0 0  and 4 0 1 0 
68234075		 # 	collision with: 10 1 0 0  and 2 3 1 0 
68234076		 # 	collision with: 5 6 0 0  and 6 6 0 0 
68234078		 # 	collision with: 6 0 0 0  and 6 3 2 0 
68234124		 # 	collision with: 0 9 0 0  and 8 1 1 0 
68234126		 # 	collision with: 2 1 0 0  and 10 2 1 0 
68234129		 # 	collision with: 3 3 0 0  and 0 0 1 0 
68234131		 # 	collision with: 9 3 0 0  and 8 5 0 0 
68234132		 # 	collision with: 3 1 1 0  and 3 3 1 0 
68234134		 # 	collision with: 2 1 0 0  and 4 1 0 0 
68234152		 # 	collision with: 2 9 0 0  and 0 4 1 0 
68234154		 # 	collision with: 1 1 1 0  and 5 1 2 0 
68234174		 # 	collision with: 1 0 1 0  and 5 4 2 0 
68234216		 # 	collision with: 10 1 0 0  and 3 4 1 0 
68234218		 # 	collision with: 9 2 0 0  and 3 1 1 0 
68234220		 # 	collision with: 3 1 1 0  and 3 3 1 0 
68234222		 # 	collision with: 2 1 0 0  and 4 1 0 0 
68234236		 # 	collision with: 1 3 0 0  and 5 6 1 0 
68234238		 # 	collision with: 10 0 0 0  and 7 1 1 0 
68234245		 # 	collision with: 2 5 0 0  and 2 5 1 0 
68234247		 # 	collision with: 9 10 0 0  and 4 8 1 0 
68234261		 # 	collision with: 3 3 0 0  and 0 0 1 0 
68234263		 # 	collision with: 9 3 0 0  and 8 5 0 0 
68234268		 # 	collision with: 2 10 0 0  and 10 1 1 0 
68234270		 # 	collision with: 7 1 0 0  and 7 7 1 0 
68234285		 # 	collision with: 2 8 1 0  and 5 2 2 0 
68234287		 # 	collision with: 2 1 0 0  and 4 1 0 0 
68234289		 # 	collision with: 5 2 1 0  and 0 3 1 0 
68234291		 # 	collision with: 7 5 0 0  and 3 5 1 0 
68234300		 # 	collision with: 8 2 0 0  and 3 3 2 0 
68234302		 # 	collision with: 10 9 0 0  and 5 1 1 0 
68234316		 # 	collision with: 0 3 0 0  and 1 1 1 0 
68234318		 # 	collision with: 8 0 0 0  and 10 2 1 0 
68234320		 # 	collision with: 5 10 0 0  and 7 0 1 0 
68234322		 # 	collision with: 4 1 0 0  and 8 2 1 0 
68234368		 # 	collision with: 5 10 0 0  and 9 0 1 0 
68234370		 # 	collision with: 7 2 1 0  and 7 2 2 0 
68234384		 # 	collision with: 5 4 0 0  and 9 1 1 0 
68234386		 # 	collision with: 5 4 1 0  and 7 9 2 0 
68234397		 # 	collision with: 8 3 0 0  and 8 4 0 0 
68234399		 # 	collision with: 10 4 1 0  and 2 6 1 0 
68234401		 # 	collision with: 0 1 1 0  and 7 4 2 0 
68234403		 # 	collision with: 1 1 0 0  and 2 0 2 0 
68234418		 # 	collision with: 2 7 0 0  and 1 9 1 0 
68234425		 # 	collision with: 2 1 0 0  and 4 1 1 0 
68234427		 # 	collision with: 4 6 0 0  and 0 2 1 0 
68234441		 # 	collision with: 8 3 0 0  and 8 4 0 0 
68234448		 # 	collision with: 2 10 0 0  and 3 0 1 0 
68234450		 # 	collision with: 8 2 1 0  and 2 4 2 0 
68234464		 # 	collision with: 5 6 0 0  and 6 6 0 0 
68234466		 # 	collision with: 4 1 1 0  and 10 2 2 0 
68234468		 # 	collision with: 8 8 0 0  and 7 10 1 0 
68234470		 # 	collision with: 6 5 1 0  and 6 9 2 0 
68234512		 # 	collision with: 10 5 2 0  and 7 1 3 0 
68234514		 # 	collision with: 7 6 0 0  and 10 9 1 0 
68234532		 # 	collision with: 1 10 0 0  and 10 0 1 0 
68234534		 # 	collision with: 9 5 0 0  and 3 1 1 0 
68234552		 # 	collision with: 5 6 0 0  and 6 6 0 0 
68234554		 # 	collision with: 2 9 1 0  and 0 1 2 0 
68234557		 # 	collision with: 10 7 1 0  and 4 5 2 0 
68234559		 # 	collision with: 4 6 0 0  and 0 2 1 0 
68234560		 # 	collision with: 10 2 1 0  and 5 3 2 0 
68234562		 # 	collision with: 9 7 0 0  and 6 6 1 0 
68234608		 # 	collision with: 2 1 2 0  and 4 1 2 0 
68234610		 # 	collision with: 6 0 0 0  and 5 7 1 0 
68234613		 # 	collision with: 6 4 0 0  and 0 5 1 0 
68234616		 # 	collision with: 6 3 0 0  and 7 2 2 0 
68234618		 # 	collision with: 3 6 0 0  and 3 6 1 0 
68234636		 # 	collision with: 1 7 0 0  and 1 9 1 0 
68234638		 # 	collision with: 1 6 0 0  and 3 1 1 0 
68234656		 # 	collision with: 2 0 1 0  and 7 1 1 0 
68234658		 # 	collision with: 2 1 0 0  and 4 1 0 0 
68234700		 # 	collision with: 6 3 1 0  and 6 5 1 0 
68234702		 # 	collision with: 2 1 0 0  and 4 1 0 0 
68234704		 # 	collision with: 3 3 2 0  and 5 3 2 0 
68234706		 # 	collision with: 5 6 0 0  and 5 6 1 0 
68234722		 # 	collision with: 4 3 0 0  and 2 1 1 0 
68234729		 # 	collision with: 5 6 0 0  and 6 6 0 0 
68234731		 # 	collision with: 8 5 0 0  and 8 5 1 0 
68234745		 # 	collision with: 4 9 0 0  and 1 0 1 0 
68234747		 # 	collision with: 9 4 0 0  and 8 5 1 0 
68234752		 # 	collision with: 9 4 0 0  and 2 1 2 0 
68234769		 # 	collision with: 5 9 0 0  and 5 5 1 0 
68234771		 # 	collision with: 5 9 0 0  and 5 0 1 0 
68234773		 # 	collision with: 5 6 0 0  and 6 6 0 0 
68234775		 # 	collision with: 1 1 1 0  and 10 3 1 0 
68234784		 # 	collision with: 10 10 0 0  and 7 0 1 0 
68234800		 # 	collision with: 8 6 0 0  and 0 2 1 0 
68234802		 # 	collision with: 10 10 0 0  and 8 0 1 0 
68234804		 # 	collision with: 10 2 0 0  and 8 5 1 0 
68234806		 # 	collision with: 2 9 0 0  and 6 1 1 0 
68234852		 # 	collision with: 5 6 0 0  and 6 6 0 0 
68234854		 # 	collision with: 2 7 0 0  and 0 1 1 0 
68234868		 # 	collision with: 2 1 1 0  and 4 1 1 0 
68234870		 # 	collision with: 9 2 0 0  and 2 8 1 0 
68234881		 # 	collision with: 6 5 0 0  and 5 10 1 0 
68234883		 # 	collision with: 10 2 0 0  and 7 4 0 0 
68234900		 # 	collision with: 9 9 0 0  and 4 7 1 0 
68234902		 # 	collision with: 3 2 1 0  and 4 2 1 0 
68234909		 # 	collision with: 10 3 0 0  and 4 2 2 0 
68234911		 # 	collision with: 3 2 1 0  and 4 2 1 0 
68234925		 # 	collision with: 10 8 0 0  and 4 0 2 0 
68234927		 # 	collision with: 10 2 0 0  and 7 4 0 0 
68234932		 # 	collision with: 7 1 0 0  and 10 5 1 0 
68234934		 # 	collision with: 3 3 0 0  and 3 7 2 0 
68234948		 # 	collision with: 5 1 0 0  and 0 8 1 0 
68234954		 # 	collision with: 9 9 0 0  and 7 3 1 0 
68234996		 # 	collision with: 7 8 0 0  and 6 0 1 0 
68234998		 # 	collision with: 10 5 0 0  and 1 2 1 0 
68235016		 # 	collision with: 5 1 0 0  and 0 3 1 0 
68235018		 # 	collision with: 7 2 0 0  and 1 1 1 0 
68235036		 # 	collision with: 1 5 0 0  and 9 5 1 0 
68235038		 # 	collision with: 10 5 0 0  and 10 5 1 0 
68235041		 # 	collision with: 3 0 1 0  and 0 5 2 0 
68235043		 # 	collision with: 1 6 0 0  and 1 5 1 0 
68235044		 # 	collision with: 3 8 0 0  and 4 0 1 0 
68235046		 # 	collision with: 1 9 1 0  and 2 9 1 0 
68235092		 # 	collision with: 2 2 1 0  and 1 4 1 0 
68235094		 # 	collision with: 2 1 0 0  and 4 1 0 0 
68235097		 # 	collision with: 1 9 1 0  and 2 9 1 0 
68235099		 # 	collision with: 10 8 0 0  and 10 4 1 0 
68235100		 # 	collision with: 1 4 1 0  and 1 1 2 0 
68235102		 # 	collision with: 2 6 0 0  and 9 6 1 0 
68235120		 # 	collision with: 4 4 0 0  and 4 5 1 0 
68235140		 # 	collision with: 4 2 0 0  and 3 2 2 0 
68235142		 # 	collision with: 4 5 0 0  and 0 7 1 0 
68235184		 # 	collision with: 5 7 0 0  and 4 6 1 0 
68235186		 # 	collision with: 4 5 0 0  and 0 7 1 0 
68235190		 # 	collision with: 9 5 0 0  and 9 2 2 0 
68235204		 # 	collision with: 5 6 0 0  and 6 6 0 0 
68235206		 # 	collision with: 2 7 0 0  and 0 1 1 0 
68235213		 # 	collision with: 3 5 0 0  and 7 5 1 0 
68235215		 # 	collision with: 3 7 0 0  and 3 3 1 0 
68235229		 # 	collision with: 4 6 1 0  and 4 3 2 0 
68235236		 # 	collision with: 5 1 0 0  and 0 3 1 0 
68235238		 # 	collision with: 1 2 0 0  and 0 5 2 0 
68235253		 # 	collision with: 0 7 0 0  and 9 4 1 0 
68235255		 # 	collision with: 5 1 1 0  and 1 1 2 0 
68235259		 # 	collision with: 1 10 0 0  and 3 0 1 0 
68235268		 # 	collision with: 4 5 2 0  and 6 5 2 0 
68235270		 # 	collision with: 2 1 0 0  and 4 1 0 0 
68235284		 # 	collision with: 7 10 0 0  and 8 8 1 0 
68235286		 # 	collision with: 7 6 0 0  and 9 3 1 0 
68235288		 # 	collision with: 3 2 0 0  and 9 3 2 0 
68235290		 # 	collision with: 2 0 0 0  and 5 8 1 0 
68235336		 # 	collision with: 9 0 0 0  and 10 10 1 0 
68235338		 # 	collision with: 5 4 0 0  and 5 4 1 0 
68235352		 # 	collision with: 5 3 0 0  and 5 0 1 0 
68235354		 # 	collision with: 2 1 0 0  and 4 1 0 0 
68235367		 # 	collision with: 4 4 0 0  and 4 0 1 0 
68235369		 # 	collision with: 2 1 1 0  and 4 1 1 0 
68235371		 # 	collision with: 3 2 2 0  and 4 2 2 0 
68235384		 # 	collision with: 0 7 1 0  and 1 7 1 0 
68235386		 # 	collision with: 5 1 1 0  and 1 1 2 0 
68235393		 # 	collision with: 5 4 0 0  and 8 1 1 0 
68235409		 # 	collision with: 0 5 0 0  and 7 1 1 0 
68235411		 # 	collision with: 4 2 0 0  and 2 10 1 0 
68235416		 # 	collision with: 5 6 0 0  and 6 6 0 0 
68235418		 # 	collision with: 2 9 1 0  and 1 9 2 0 
68235434		 # 	collision with: 0 2 0 0  and 10 3 1 0 
68235436		 # 	collision with: 4 9 0 0  and 10 8 1 0 
68235438		 # 	collision with: 7 10 0 0  and 4 0 2 0 
68235480		 # 	collision with: 5 4 1 0  and 2 3 2 0 
68235482		 # 	collision with: 3 3 1 0  and 5 3 1 0 
68235500		 # 	collision with: 4 1 0 0  and 4 8 1 0 
68235520		 # 	collision with: 1 1 0 0  and 1 1 2 0 
68235522		 # 	collision with: 2 0 2 0  and 3 0 3 0 
68235525		 # 	collision with: 8 4 0 0  and 5 1 1 0 
68235527		 # 	collision with: 0 2 0 0  and 2 5 1 0 
68235528		 # 	collision with: 5 1 1 0  and 5 2 1 0 
68235530		 # 	collision with: 2 1 0 0  and 4 1 0 0 
68235576		 # 	collision with: 10 5 0 0  and 10 1 1 0 
68235578		 # 	collision with: 9 3 0 0  and 2 0 1 0 
68235581		 # 	collision with: 7 0 2 0  and 7 2 2 0 
68235583		 # 	collision with: 3 0 0 0  and 9 3 1 0 
68235584		 # 	collision with: 5 4 0 0  and 7 2 1 0 
68235586		 # 	collision with: 4 4 1 0  and 5 4 1 0 
68235604		 # 	collision with: 1 2 0 0  and 6 2 1 0 
68235606		 # 	collision with: 10 2 0 0  and 8 2 1 0 
68235624		 # 	collision with: 10 10 0 0  and 9 0 2 0 
68235626		 # 	collision with: 8 3 0 0  and 1 0 1 0 
68235670		 # 	collision with: 2 2 0 0  and 2 2 2 0 
68235672		 # 	collision with: 9 0 2 0  and 9 1 2 0 
68235688		 # 	collision with: 7 0 0 0  and 5 10 1 0 
68235690		 # 	collision with: 2 3 0 0  and 6 0 1 0 
68235697		 # 	collision with: 6 4 0 0  and 3 0 1 0 
68235699		 # 	collision with: 9 6 0 0  and 9 1 1 0 
68235713		 # 	collision with: 5 4 0 0  and 3 9 1 0 
68235715		 # 	collision with: 8 5 0 0  and 7 6 1 0 
68235720		 # 	collision with: 3 0 0 0  and 7 1 1 0 
68235722		 # 	collision with: 0 8 0 0  and 9 2 1 0 
68235741		 # 	collision with: 3 6 0 0  and 2 3 2 0 
68235743		 # 	collision with: 2 4 0 0  and 10 2 1 0 
68235752		 # 	collision with: 0 8 0 0  and 8 3 2 0 
68235754		 # 	collision with: 0 10 0 0  and 6 9 1 0 
68235768		 # 	collision with: 5 6 0 0  and 6 6 0 0 
68235770		 # 	collision with: 6 2 0 0  and 6 1 1 0 
68235772		 # 	collision with: 0 2 0 0  and 8 1 1 0 
68235774		 # 	collision with: 10 10 0 0  and 4 3 2 0 
68235820		 # 	collision with: 2 9 0 0  and 0 4 2 0 
68235822		 # 	collision with: 3 2 2 0  and 4 2 2 0 
68235836		 # 	collision with: 7 1 0 0  and 2 0 1 0 
68235849		 # 	collision with: 5 6 0 0  and 6 6 0 0 
68235851		 # 	collision with: 7 6 0 0  and 1 1 1 0 
68235853		 # 	collision with: 8 7 0 0  and 3 2 1 0 
68235855		 # 	collision with: 2 1 0 0  and 4 1 0 0 
68235868		 # 	collision with: 2 2 0 0  and 2 2 1 0 
68235877		 # 	collision with: 3 1 0 0  and 3 3 0 0 
68235879		 # 	collision with: 5 10 0 0  and 4 3 1 0 
68235893		 # 	collision with: 5 6 0 0  and 6 6 0 0 
68235895		 # 	collision with: 2 6 0 0  and 9 6 1 0 
68235902		 # 	collision with: 10 5 0 0  and 6 1 1 0 
68235916		 # 	collision with: 10 4 0 0  and 3 1 1 0 
68235918		 # 	collision with: 9 8 0 0  and 3 6 1 0 
68235920		 # 	collision with: 8 3 1 0  and 8 4 1 0 
68235922		 # 	collision with: 2 1 0 0  and 4 1 0 0 
68235964		 # 	collision with: 5 2 1 0  and 8 3 1 0 
68235966		 # 	collision with: 2 1 0 0  and 4 1 0 0 
68235984		 # 	collision with: 7 1 0 0  and 3 0 1 0 
68235986		 # 	collision with: 3 10 0 0  and 6 7 2 0 
68236004		 # 	collision with: 3 9 0 0  and 5 10 1 0 
68236006		 # 	collision with: 3 1 0 0  and 3 1 2 0 
68236009		 # 	collision with: 3 1 0 0  and 3 3 0 0 
68236012		 # 	collision with: 0 9 0 0  and 9 1 1 0 
68236014		 # 	collision with: 3 3 0 0  and 3 3 1 0 
68236060		 # 	collision with: 6 3 1 0  and 8 1 2 0 
68236062		 # 	collision with: 0 0 1 0  and 7 3 2 0 
68236065		 # 	collision with: 6 3 1 0  and 6 5 1 0 
68236067		 # 	collision with: 0 4 0 0  and 6 7 1 0 
68236068		 # 	collision with: 5 6 0 0  and 6 6 0 0 
68236070		 # 	collision with: 5 1 0 0  and 3 0 1 0 
68236088		 # 	collision with: 10 2 0 0  and 10 2 1 0 
68236090		 # 	collision with: 8 0 2 0  and 8 2 2 0 
68236108		 # 	collision with: 7 10 0 0  and 8 10 1 0 
68236110		 # 	collision with: 5 0 0 0  and 7 5 2 0 
68236152		 # 	collision with: 6 2 0 0  and 6 6 1 0 
68236154		 # 	collision with: 0 5 0 0  and 6 2 1 0 
68236156		 # 	collision with: 5 6 0 0  and 6 6 0 0 
68236158		 # 	collision with: 4 8 0 0  and 3 4 1 0 
68236172		 # 	collision with: 1 8 0 0  and 7 2 2 0 
68236174		 # 	collision with: 3 10 0 0  and 5 1 1 0 
68236181		 # 	collision with: 9 0 1 0  and 9 1 1 0 
68236197		 # 	collision with: 6 3 1 0  and 6 5 1 0 
68236199		 # 	collision with: 2 0 0 0  and 1 1 1 0 
68236206		 # 	collision with: 9 4 0 0  and 7 2 1 0 
68236221		 # 	collision with: 2 0 1 0  and 3 0 1 0 
68236223		 # 	collision with: 2 1 0 0  and 4 3 0 0 
68236225		 # 	collision with: 2 0 1 0  and 3 0 1 0 
68236227		 # 	collision with: 4 1 0 0  and 4 3 0 0 
68236236		 # 	collision with: 4 2 0 0  and 9 9 1 0 
68236238		 # 	collision with: 4 10 0 0  and 1 4 1 0 
68236252		 # 	collision with: 3 6 0 0  and 4 4 1 0 
68236254		 # 	collision with: 8 6 0 0  and 6 4 1 0 
68236256		 # 	collision with: 1 5 0 0  and 4 0 1 0 
68236258		 # 	collision with: 10 7 0 0  and 6 2 1 0 
68236304		 # 	collision with: 3 9 0 0  and 3 6 1 0 
68236306		 # 	collision with: 3 7 0 0  and 3 3 1 0 
68236320		 # 	collision with: 1 8 0 0  and 8 1 1 0 
68236322		 # 	collision with: 0 7 1 0  and 1 7 1 0 
68236333		 # 	collision with: 9 2 0 0  and 4 3 1 0 
68236335		 # 	collision with: 2 1 0 0  and 4 1 0 0 
68236337		 # 	collision with: 10 6 0 0  and 6 0 1 0 
68236339		 # 	collision with: 8 2 1 0  and 4 3 1 0 
68236352		 # 	collision with: 3 5 0 0  and 10 0 1 0 
68236354		 # 	collision with: 7 2 0 0  and 7 2 1 0 
68236361		 # 	collision with: 0 6 1 0  and 2 0 2 0 
68236363		 # 	collision with: 6 1 0 0  and 6 2 0 0 
68236377		 # 	collision with: 1 1 0 0  and 0 3 2 0 
68236379		 # 	collision with: 2 1 0 0  and 4 1 0 0 
68236384		 # 	collision with: 8 4 0 0  and 2 2 1 0 
68236386		 # 	collision with: 7 5 0 0  and 0 0 1 0 
68236400		 # 	collision with: 9 0 1 0  and 9 1 1 0 
68236402		 # 	collision with: 2 1 0 0  and 4 1 0 0 
68236404		 # 	collision with: 1 1 0 0  and 1 1 1 0 
68236406		 # 	collision with: 1 7 1 0  and 1 4 2 0 
68236450		 # 	collision with: 4 0 0 0  and 5 4 1 0 
68236468		 # 	collision with: 8 10 0 0  and 7 3 1 0 
68236470		 # 	collision with: 6 1 0 0  and 1 2 1 0 
68236488		 # 	collision with: 7 5 0 0  and 10 0 1 0 
68236490		 # 	collision with: 2 1 0 0  and 4 1 0 0 
68236493		 # 	collision with: 0 6 0 0  and 2 0 1 0 
68236495		 # 	collision with: 6 1 0 0  and 6 2 0 0 
68236496		 # 	collision with: 6 7 0 0  and 0 1 2 0 
68236498		 # 	collision with: 8 8 0 0  and 1 1 1 0 
68236544		 # 	collision with: 5 6 0 0  and 6 6 0 0 
68236546		 # 	collision with: 2 9 0 0  and 0 5 2 0 
68236549		 # 	collision with: 5 1 0 0  and 5 2 0 0 
68236551		 # 	collision with: 8 8 0 0  and 3 0 1 0 
68236552		 # 	collision with: 5 4 0 0  and 6 5 1 0 
68236554		 # 	collision with: 10 7 0 0  and 0 1 1 0 
68236574		 # 	collision with: 2 2 0 0  and 2 2 1 0 
68236592		 # 	collision with: 8 8 0 0  and 5 6 1 0 
68236636		 # 	collision with: 10 7 0 0  and 5 4 1 0 
68236638		 # 	collision with: 8 0 0 0  and 4 1 1 0 
68236640		 # 	collision with: 9 5 0 0  and 1 0 1 0 
68236642		 # 	collision with: 10 7 0 0  and 0 1 1 0 
68236656		 # 	collision with: 4 5 1 0  and 6 5 1 0 
68236665		 # 	collision with: 3 1 0 0  and 8 2 0 0 
68236667		 # 	collision with: 2 0 1 0  and 3 0 1 0 
68236681		 # 	collision with: 5 1 0 0  and 5 2 0 0 
68236683		 # 	collision with: 2 0 1 0  and 3 0 1 0 
68236688		 # 	collision with: 10 4 1 0  and 3 1 2 0 
68236690		 # 	collision with: 10 3 0 0  and 5 1 1 0 
68236705		 # 	collision with: 10 3 3 0  and 5 5 3 0 
68236707		 # 	collision with: 1 1 0 0  and 7 2 1 0 
68236709		 # 	collision with: 3 1 0 0  and 8 2 0 0 
68236711		 # 	collision with: 2 0 2 0  and 3 0 2 0 
68236720		 # 	collision with: 5 6 0 0  and 6 6 0 0 
68236722		 # 	collision with: 6 3 0 0  and 2 2 1 0 
68236736		 # 	collision with: 10 5 0 0  and 3 0 1 0 
68236738		 # 	collision with: 7 5 0 0  and 0 0 1 0 
68236740		 # 	collision with: 7 2 0 0  and 9 0 1 0 
68236742		 # 	collision with: 3 1 0 0  and 0 9 2 0 
68236788		 # 	collision with: 2 1 1 0  and 4 1 1 0 
68236806		 # 	collision with: 7 8 0 0  and 9 7 1 0 
68236817		 # 	collision with: 0 3 0 0  and 8 4 1 0 
68236819		 # 	collision with: 8 2 1 0  and 4 3 1 0 
68236821		 # 	collision with: 8 9 0 0  and 4 6 1 0 
68236823		 # 	collision with: 5 8 0 0  and 1 1 1 0 
68236836		 # 	collision with: 4 4 1 0  and 4 5 1 0 
68236838		 # 	collision with: 2 1 0 0  and 4 1 0 0 
68236845		 # 	collision with: 5 6 0 0  and 6 6 0 0 
68236847		 # 	collision with: 0 5 0 0  and 1 2 1 0 
68236863		 # 	collision with: 2 10 0 0  and 8 1 1 0 
68236868		 # 	collision with: 10 2 0 0  and 0 0 1 0 
68236870		 # 	collision with: 5 9 0 0  and 1 3 2 0 
68236884		 # 	collision with: 3 2 0 0  and 8 0 1 0 
68236886		 # 	collision with: 9 9 0 0  and 1 8 2 0 
68236888		 # 	collision with: 5 6 0 0  and 6 6 0 0 
68236890		 # 	collision with: 8 1 0 0  and 8 1 1 0 
68236932		 # 	collision with: 5 6 0 0  and 6 6 0 0 
68236934		 # 	collision with: 6 1 0 0  and 6 1 1 0 
68236952		 # 	collision with: 4 2 0 0  and 8 0 1 0 
68236954		 # 	collision with: 9 4 0 0  and 1 1 1 0 
68236972		 # 	collision with: 5 10 1 0  and 6 3 2 0 
68236974		 # 	collision with: 9 1 0 0  and 4 2 1 0 
68236977		 # 	collision with: 5 6 0 0  and 6 6 0 0 
68236979		 # 	collision with: 9 3 1 0  and 7 6 2 0 
68236980		 # 	collision with: 9 3 0 0  and 8 0 2 0 
68236982		 # 	collision with: 10 1 1 0  and 5 2 2 0 
68237028		 # 	collision with: 4 4 0 0  and 10 10 1 0 
68237030		 # 	collision with: 6 7 0 0  and 10 3 1 0 
68237033		 # 	collision with: 4 3 0 0  and 5 7 1 0 
68237035		 # 	collision with: 2 1 0 0  and 4 1 0 0 
68237036		 # 	collision with: 4 5 0 0  and 10 10 1 0 
68237056		 # 	collision with: 9 1 1 0  and 0 2 1 0 
68237058		 # 	collision with: 2 1 0 0  and 4 1 0 0 
68237076		 # 	collision with: 1 8 0 0  and 0 2 1 0 
68237078		 # 	collision with: 8 2 0 0  and 10 2 2 0 
68237120		 # 	collision with: 1 8 0 0  and 0 2 1 0 
68237122		 # 	collision with: 7 10 0 0  and 8 10 1 0 
68237124		 # 	collision with: 5 8 1 0  and 1 2 2 0 
68237126		 # 	collision with: 10 9 0 0  and 8 5 1 0 
68237140		 # 	collision with: 8 3 0 0  and 5 2 1 0 
68237142		 # 	collision with: 2 2 2 0  and 2 3 2 0 
68237149		 # 	collision with: 8 0 0 0  and 3 2 0 0 
68237151		 # 	collision with: 3 4 0 0  and 4 7 1 0 
68237167		 # 	collision with: 2 1 0 0  and 4 1 0 0 
68237172		 # 	collision with: 2 0 2 0  and 3 0 3 0 
68237174		 # 	collision with: 5 6 1 0  and 7 0 2 0 
68237189		 # 	collision with: 7 0 0 0  and 7 2 0 0 
68237191		 # 	collision with: 1 5 1 0  and 10 6 1 0 
68237193		 # 	collision with: 8 0 0 0  and 3 2 0 0 
68237195		 # 	collision with: 9 1 0 0  and 2 6 2 0 
68237204		 # 	collision with: 2 6 0 0  and 7 9 1 0 
68237206		 # 	collision with: 8 5 0 0  and 9 4 1 0 
68237222		 # 	collision with: 5 7 0 0  and 7 7 1 0 
68237224		 # 	collision with: 8 3 1 0  and 5 1 2 0 
68237226		 # 	collision with: 3 10 0 0  and 7 6 1 0 
68237272		 # 	collision with: 1 2 1 0  and 1 3 1 0 
68237274		 # 	collision with: 2 1 0 0  and 4 1 0 0 
68237288		 # 	collision with: 3 4 0 0  and 2 0 1 0 
68237290		 # 	collision with: 9 4 1 0  and 0 2 2 0 
68237301		 # 	collision with: 3 1 1 0  and 3 3 1 0 
68237303		 # 	collision with: 10 1 1 0  and 2 3 1 0 
68237305		 # 	collision with: 9 0 0 0  and 9 1 0 0 
68237307		 # 	collision with: 10 0 0 0  and 7 1 0 0 
68237320		 # 	collision with: 5 6 0 0  and 6 6 0 0 
68237322		 # 	collision with: 2 0 2 0  and 3 0 3 0 
68237329		 # 	collision with: 1 2 0 0  and 7 3 2 0 
68237331		 # 	collision with: 2 3 1 0  and 6 3 3 0 
68237345		 # 	collision with: 3 1 1 0  and 3 3 1 0 
68237347		 # 	collision with: 6 3 0 0  and 7 7 1 0 
68237352		 # 	collision with: 1 4 0 0  and 0 3 2 0 
68237354		 # 	collision with: 1 7 0 0  and 0 7 1 0 
68237368		 # 	collision with: 1 4 1 0  and 5 2 2 0 
68237370		 # 	collision with: 4 4 0 0  and 4 0 1 0 
68237372		 # 	collision with: 0 1 0 0  and 6 1 1 0 
68237416		 # 	collision with: 3 6 1 0  and 3 6 2 0 
68237418		 # 	collision with: 5 3 1 0  and 7 0 2 0 
68237436		 # 	collision with: 8 10 0 0  and 1 3 2 0 
68237438		 # 	collision with: 3 3 0 0  and 3 7 1 0 
68237456		 # 	collision with: 2 7 0 0  and 7 2 2 0 
68237458		 # 	collision with: 9 10 0 0  and 9 8 1 0 
68237461		 # 	collision with: 8 2 0 0  and 10 4 1 0 
68237463		 # 	collision with: 9 9 1 0  and 0 0 2 0 
68237466		 # 	collision with: 9 7 1 0  and 9 7 2 0 
68237512		 # 	collision with: 9 0 0 0  and 2 3 1 0 
68237517		 # 	collision with: 3 10 0 0  and 1 6 1 0 
68237519		 # 	collision with: 10 0 0 0  and 10 1 0 0 
68237522		 # 	collision with: 4 6 0 0  and 7 6 1 0 
68237540		 # 	collision with: 5 6 0 0  and 6 6 0 0 
68237542		 # 	collision with: 0 9 0 0  and 10 6 1 0 
68237560		 # 	collision with: 5 8 0 0  and 7 3 1 0 
68237562		 # 	collision with: 4 4 0 0  and 1 0 1 0 
68237604		 # 	collision with: 1 10 1 0  and 3 10 1 0 
68237606		 # 	collision with: 4 9 0 0  and 5 1 1 0 
68237608		 # 	collision with: 0 8 0 0  and 5 1 1 0 
68237610		 # 	collision with: 7 5 0 0  and 7 3 1 0 
68237624		 # 	collision with: 1 4 0 0  and 2 2 1 0 
68237626		 # 	collision with: 2 1 0 0  and 4 1 0 0 
68237633		 # 	collision with: 4 5 1 0  and 6 5 1 0 
68237635		 # 	collision with: 9 0 0 0  and 3 3 1 0 
68237649		 # 	collision with: 0 2 0 0  and 10 10 1 0 
68237651		 # 	collision with: 10 0 0 0  and 10 1 0 0 
68237656		 # 	collision with: 10 3 0 0  and 8 7 1 0 
68237658		 # 	collision with: 1 6 0 0  and 0 8 1 0 
68237673		 # 	collision with: 5 6 0 0  and 6 6 0 0 
68237675		 # 	collision with: 2 2 0 0  and 5 2 1 0 
68237677		 # 	collision with: 6 9 0 0  and 9 10 1 0 
68237679		 # 	collision with: 8 0 0 0  and 4 3 1 0 
68237688		 # 	collision with: 4 4 1 0  and 7 2 2 0 
68237690		 # 	collision with: 0 3 0 0  and 7 9 1 0 
68237704		 # 	collision with: 10 1 0 0  and 6 4 1 0 
68237706		 # 	collision with: 1 7 0 0  and 0 7 1 0 
68237729		 # 	collision with: 7 2 1 0  and 4 4 1 0 
68237731		 # 	collision with: 1 5 0 0  and 1 6 0 0 
68237733		 # 	collision with: 5 2 0 0  and 4 2 2 0 
68237735		 # 	collision with: 9 6 0 0  and 0 10 1 0 
68237849		 # 	collision with: 1 1 2 0  and 2 1 2 0 
68237851		 # 	collision with: 5 4 1 0  and 5 5 1 0 
68237861		 # 	collision with: 3 9 1 0  and 4 9 1 0 
68237863		 # 	collision with: 1 5 0 0  and 1 6 0 0 
68237901		 # 	collision with: 5 10 1 0  and 4 8 2 0 
68237903		 # 	collision with: 9 3 1 0  and 9 4 1 0 
68237921		 # 	collision with: 3 4 0 0  and 0 2 2 0 
68237923		 # 	collision with: 6 7 1 0  and 2 6 2 0 
68237947		 # 	collision with: 9 3 1 0  and 9 4 1 0 
68238003		 # 	collision with: 2 7 0 0  and 4 7 0 0 
68238025		 # 	collision with: 8 7 0 0  and 6 2 1 0 
68238027		 # 	collision with: 9 4 0 0  and 4 2 1 0 
68238045		 # 	collision with: 3 9 0 0  and 0 4 2 0 
68238047		 # 	collision with: 2 7 0 0  and 4 7 0 0 
68238085		 # 	collision with: 0 4 2 0  and 8 6 2 0 
68238087		 # 	collision with: 9 6 0 0  and 0 10 1 0 
68238097		 # 	collision with: 3 4 0 0  and 0 2 2 0 
68238099		 # 	collision with: 10 7 0 0  and 1 2 2 0 
68238192		 # 	collision with: 6 5 0 0  and 8 8 1 0 
68238194		 # 	collision with: 0 6 0 0  and 1 9 1 0 
68238213		 # 	collision with: 10 1 0 0  and 9 9 2 0 
68238215		 # 	collision with: 3 1 0 0  and 2 3 1 0 
68238217		 # 	collision with: 3 10 1 0  and 0 3 2 0 
68238333		 # 	collision with: 6 3 1 0  and 6 5 1 0 
68238335		 # 	collision with: 4 7 1 0  and 10 2 2 0 
68238345		 # 	collision with: 10 4 0 0  and 4 0 2 0 
68238347		 # 	collision with: 10 1 0 0  and 4 3 1 0 
68238387		 # 	collision with: 5 1 0 0  and 5 8 1 0 
68238405		 # 	collision with: 2 4 0 0  and 2 6 0 0 
68238407		 # 	collision with: 9 0 1 0  and 10 1 1 0 
68238429		 # 	collision with: 8 5 0 0  and 6 0 1 0 
68238431		 # 	collision with: 1 10 0 0  and 8 4 1 0 
68238485		 # 	collision with: 9 1 1 0  and 5 2 1 0 
68238487		 # 	collision with: 10 3 0 0  and 2 4 1 0 
68238511		 # 	collision with: 5 3 0 0  and 2 1 1 0 
68238529		 # 	collision with: 6 8 0 0  and 3 1 1 0 
68238531		 # 	collision with: 1 3 1 0  and 3 3 1 0 
68238569		 # 	collision with: 3 1 1 0  and 1 3 1 0 
68238571		 # 	collision with: 3 4 0 0  and 3 6 0 0 
68238581		 # 	collision with: 2 4 0 0  and 2 6 0 0 
68238676		 # 	collision with: 6 10 0 0  and 9 6 1 0 
68238678		 # 	collision with: 9 2 0 0  and 7 3 2 0 
68238697		 # 	collision with: 4 4 0 0  and 4 5 0 0 
68238699		 # 	collision with: 4 1 1 0  and 4 3 1 0 
68238703		 # 	collision with: 7 6 0 0  and 4 6 1 0 
68238817		 # 	collision with: 10 4 0 0  and 8 6 1 0 
68238819		 # 	collision with: 2 7 0 0  and 4 7 0 0 
68238829		 # 	collision with: 4 4 0 0  and 4 5 0 0 
68238831		 # 	collision with: 4 1 1 0  and 4 3 1 0 
68238869		 # 	collision with: 5 4 0 0  and 6 5 0 0 
68238871		 # 	collision with: 5 4 0 0  and 5 5 0 0 
68238889		 # 	collision with: 2 9 0 0  and 0 6 1 0 
68238891		 # 	collision with: 7 2 0 0  and 0 1 2 0 
68238913		 # 	collision with: 5 4 0 0  and 6 5 0 0 
68238915		 # 	collision with: 5 4 0 0  and 5 5 0 0 
68238969		 # 	collision with: 5 6 0 0  and 6 6 0 0 
68238971		 # 	collision with: 7 7 0 0  and 1 2 1 0 
68238993		 # 	collision with: 4 2 1 0  and 5 2 1 0 
68238995		 # 	collision with: 2 7 0 0  and 4 7 0 0 
68239013		 # 	collision with: 5 6 0 0  and 6 6 0 0 
68239015		 # 	collision with: 8 7 0 0  and 9 0 1 0 
68239053		 # 	collision with: 4 2 0 0  and 9 0 1 0 
68239055		 # 	collision with: 4 4 1 0  and 6 4 1 0 
68239065		 # 	collision with: 2 9 0 0  and 0 6 1 0 
68239067		 # 	collision with: 1 4 0 0  and 9 4 1 0 
68239160		 # 	collision with: 1 4 0 0  and 2 1 2 0 
68239162		 # 	collision with: 0 2 0 0  and 7 3 1 0 
68239181		 # 	collision with: 5 6 0 0  and 6 6 0 0 
68239183		 # 	collision with: 2 7 0 0  and 4 7 0 0 
68239185		 # 	collision with: 8 3 2 0  and 8 4 2 0 
68239187		 # 	collision with: 7 9 2 0  and 6 10 3 0 
68239301		 # 	collision with: 3 3 0 0  and 8 5 0 0 
68239303		 # 	collision with: 4 2 2 0  and 5 2 2 0 
68239313		 # 	collision with: 5 6 0 0  and 6 6 0 0 
68239315		 # 	collision with: 2 7 0 0  and 4 7 0 0 
68239353		 # 	collision with: 4 9 1 0  and 4 0 2 0 
68239355		 # 	collision with: 9 6 1 0  and 7 0 2 0 
68239373		 # 	collision with: 3 10 0 0  and 0 3 1 0 
68239375		 # 	collision with: 8 3 0 0  and 9 5 0 0 
68239397		 # 	collision with: 2 7 0 0  and 4 2 1 0 
68239399		 # 	collision with: 0 9 0 0  and 4 0 2 0 
68239453		 # 	collision with: 10 9 0 0  and 1 0 2 0 
68239455		 # 	collision with: 10 0 1 0  and 10 1 1 0 
68239477		 # 	collision with: 3 3 0 0  and 8 5 0 0 
68239479		 # 	collision with: 4 8 0 0  and 10 2 1 0 
68239497		 # 	collision with: 4 2 1 0  and 5 2 1 0 
68239499		 # 	collision with: 10 0 1 0  and 10 1 1 0 
68239537		 # 	collision with: 6 3 0 0  and 10 1 1 0 
68239539		 # 	collision with: 5 6 0 0  and 5 6 1 0 
68239549		 # 	collision with: 3 10 0 0  and 0 3 1 0 
68239551		 # 	collision with: 8 3 0 0  and 9 5 0 0 
68239644		 # 	collision with: 3 8 0 0  and 0 6 1 0 
68239646		 # 	collision with: 2 8 0 0  and 7 3 2 0 
68239665		 # 	collision with: 2 10 0 0  and 1 2 1 0 
68239667		 # 	collision with: 8 8 0 0  and 3 0 1 0 
68239669		 # 	collision with: 0 6 1 0  and 3 7 2 0 
68239671		 # 	collision with: 1 8 0 0  and 4 0 1 0 
68239785		 # 	collision with: 0 0 0 0  and 8 7 1 0 
68239787		 # 	collision with: 7 3 0 0  and 10 4 0 0 
68239797		 # 	collision with: 7 0 1 0  and 7 2 1 0 
68239799		 # 	collision with: 2 2 0 0  and 0 5 1 0 
68239837		 # 	collision with: 7 2 0 0  and 6 4 1 0 
68239839		 # 	collision with: 9 0 0 0  and 10 1 2 0 
68239857		 # 	collision with: 5 8 0 0  and 0 0 1 0 
68239881		 # 	collision with: 6 10 0 0  and 8 3 1 0 
68239883		 # 	collision with: 6 7 1 0  and 1 0 3 0 
68239937		 # 	collision with: 8 0 0 0  and 7 5 1 0 
68239961		 # 	collision with: 5 3 2 0  and 5 3 3 0 
68239963		 # 	collision with: 7 3 0 0  and 10 4 0 0 
68239981		 # 	collision with: 5 1 2 0  and 2 3 2 0 
68239983		 # 	collision with: 5 3 1 0  and 10 3 2 0 
68240021		 # 	collision with: 2 10 0 0  and 6 0 1 0 
68240023		 # 	collision with: 8 4 0 0  and 1 10 1 0 
68240033		 # 	collision with: 5 8 0 0  and 0 0 1 0 
68240035		 # 	collision with: 2 9 0 0  and 10 10 1 0 
68240128		 # 	collision with: 0 4 0 0  and 4 0 2 0 
68240130		 # 	collision with: 1 5 0 0  and 6 1 2 0 
68240149		 # 	collision with: 1 10 1 0  and 4 2 2 0 
68240151		 # 	collision with: 2 3 1 0  and 7 6 2 0 
68240153		 # 	collision with: 7 2 0 0  and 4 4 0 0 
68240155		 # 	collision with: 5 2 0 0  and 1 4 0 0 
68240271		 # 	collision with: 6 8 0 0  and 10 3 1 0 
68240281		 # 	collision with: 6 0 1 0  and 1 3 2 0 
68240321		 # 	collision with: 5 0 0 0  and 7 4 2 0 
68240341		 # 	collision with: 0 3 1 0  and 2 5 1 0 
68240343		 # 	collision with: 4 4 0 0  and 4 4 1 0 
68240365		 # 	collision with: 2 7 0 0  and 5 1 1 0 
68240367		 # 	collision with: 5 6 0 0  and 1 10 1 0 
68240421		 # 	collision with: 10 2 0 0  and 10 4 0 0 
68240423		 # 	collision with: 7 5 0 0  and 10 4 1 0 
68240445		 # 	collision with: 7 9 1 0  and 5 0 2 0 
68240447		 # 	collision with: 1 3 1 0  and 3 3 1 0 
68240465		 # 	collision with: 10 2 0 0  and 10 4 0 0 
68240467		 # 	collision with: 1 3 0 0  and 6 4 2 0 
68240507		 # 	collision with: 5 2 0 0  and 1 4 0 0 
68240517		 # 	collision with: 1 3 1 0  and 3 3 1 0 
68240519		 # 	collision with: 2 4 0 0  and 2 4 1 0 
68240612		 # 	collision with: 1 6 0 0  and 9 1 1 0 
68240614		 # 	collision with: 2 4 0 0  and 1 10 1 0 
68240633		 # 	collision with: 9 9 1 0  and 5 4 2 0 
68240635		 # 	collision with: 7 5 0 0  and 9 5 1 0 
68240637		 # 	collision with: 1 2 0 0  and 1 3 0 0 
68240639		 # 	collision with: 10 7 0 0  and 8 2 1 0 
68240753		 # 	collision with: 8 7 0 0  and 9 7 1 0 
68240755		 # 	collision with: 3 1 0 0  and 0 5 1 0 
68240767		 # 	collision with: 10 0 3 0  and 10 1 3 0 
68240805		 # 	collision with: 1 7 0 0  and 1 9 1 0 
68240807		 # 	collision with: 6 8 1 0  and 6 8 2 0 
68240825		 # 	collision with: 8 2 0 0  and 3 3 0 0 
68240827		 # 	collision with: 8 3 1 0  and 0 4 1 0 
68240849		 # 	collision with: 1 9 0 0  and 6 9 1 0 
68240851		 # 	collision with: 7 8 1 0  and 7 8 2 0 
68240905		 # 	collision with: 0 5 0 0  and 1 1 1 0 
68240907		 # 	collision with: 8 10 0 0  and 10 4 2 0 
68240929		 # 	collision with: 2 1 0 0  and 5 5 2 0 
68240931		 # 	collision with: 3 1 0 0  and 0 5 1 0 
68240949		 # 	collision with: 10 2 0 0  and 10 2 1 0 
68240989		 # 	collision with: 1 2 0 0  and 1 3 0 0 
68241003		 # 	collision with: 6 4 0 0  and 4 4 1 0 
68241096		 # 	collision with: 5 10 0 0  and 10 1 1 0 
68241098		 # 	collision with: 9 3 0 0  and 2 5 1 0 
68241117		 # 	collision with: 5 10 0 0  and 10 1 2 0 
68241119		 # 	collision with: 10 5 0 0  and 6 5 1 0 
68241121		 # 	collision with: 1 10 0 0  and 4 2 1 0 
68241123		 # 	collision with: 2 7 0 0  and 4 7 0 0 
68241237		 # 	collision with: 1 3 0 0  and 6 0 1 0 
68241239		 # 	collision with: 4 1 0 0  and 4 3 0 0 
68241249		 # 	collision with: 1 10 0 0  and 9 1 2 0 
68241251		 # 	collision with: 6 3 3 0  and 2 0 4 0 
68241289		 # 	collision with: 9 1 0 0  and 2 3 0 0 
68241291		 # 	collision with: 6 9 0 0  and 1 2 1 0 
68241309		 # 	collision with: 9 1 0 0  and 9 0 1 0 
68241311		 # 	collision with: 3 3 0 0  and 4 0 1 0 
68241333		 # 	collision with: 9 1 0 0  and 2 3 0 0 
68241389		 # 	collision with: 6 6 0 0  and 8 7 1 0 
68241391		 # 	collision with: 6 2 0 0  and 6 2 1 0 
68241413		 # 	collision with: 0 1 0 0  and 6 0 1 0 
68241433		 # 	collision with: 0 1 0 0  and 6 0 1 0 
68241435		 # 	collision with: 2 2 0 0  and 2 2 1 0 
68241473		 # 	collision with: 5 7 1 0  and 2 6 2 0 
68241475		 # 	collision with: 2 7 0 0  and 4 7 0 0 
68241485		 # 	collision with: 6 4 0 0  and 2 2 1 0 
68241487		 # 	collision with: 9 8 1 0  and 6 1 2 0 
68241580		 # 	collision with: 10 7 0 0  and 4 6 1 0 
68241582		 # 	collision with: 7 10 0 0  and 0 9 1 0 
68241601		 # 	collision with: 1 3 0 0  and 0 1 1 0 
68241603		 # 	collision with: 10 4 1 0  and 7 5 1 0 
68241605		 # 	collision with: 5 6 0 0  and 6 6 0 0 
68241607		 # 	collision with: 7 10 0 0  and 1 3 1 0 
68241721		 # 	collision with: 5 1 0 0  and 5 2 0 0 
68241723		 # 	collision with: 4 9 0 0  and 7 2 1 0 
68241733		 # 	collision with: 1 3 0 0  and 0 1 1 0 
68241735		 # 	collision with: 8 9 0 0  and 8 4 1 0 
68241773		 # 	collision with: 2 4 1 0  and 2 6 1 0 
68241775		 # 	collision with: 2 4 1 0  and 6 6 1 0 
68241793		 # 	collision with: 8 0 0 0  and 9 7 1 0 
68241795		 # 	collision with: 6 1 0 0  and 6 2 0 0 
68241817		 # 	collision with: 2 4 1 0  and 2 6 1 0 
68241819		 # 	collision with: 10 5 0 0  and 7 1 1 0 
68241873		 # 	collision with: 3 1 0 0  and 8 2 0 0 
68241875		 # 	collision with: 5 4 1 0  and 2 3 2 0 
68241897		 # 	collision with: 5 1 0 0  and 5 2 0 0 
68241899		 # 	collision with: 5 1 0 0  and 5 8 1 0 
68241917		 # 	collision with: 3 1 0 0  and 8 2 0 0 
68241919		 # 	collision with: 3 2 0 0  and 6 2 1 0 
68241957		 # 	collision with: 5 6 0 0  and 6 6 0 0 
68241959		 # 	collision with: 1 1 2 0  and 2 1 2 0 
68241969		 # 	collision with: 10 5 0 0  and 4 8 1 0 
68241971		 # 	collision with: 6 1 0 0  and 6 2 0 0 
68242064		 # 	collision with: 10 10 0 0  and 0 3 1 0 
68242066		 # 	collision with: 2 7 0 0  and 3 0 1 0 
68242087		 # 	collision with: 5 4 0 0  and 5 5 2 0 
68242089		 # 	collision with: 8 0 0 0  and 3 2 0 0 
68242091		 # 	collision with: 6 9 0 0  and 8 0 1 0 
68242205		 # 	collision with: 5 2 0 0  and 10 6 1 0 
68242207		 # 	collision with: 2 0 0 0  and 4 2 0 0 
68242217		 # 	collision with: 3 4 1 0  and 3 0 3 0 
68242219		 # 	collision with: 6 5 1 0  and 7 7 2 0 
68242257		 # 	collision with: 5 6 0 0  and 6 6 0 0 
68242259		 # 	collision with: 3 1 0 0  and 5 4 1 0 
68242277		 # 	collision with: 3 4 0 0  and 3 0 1 0 
68242279		 # 	collision with: 1 9 0 0  and 0 0 1 0 
68242301		 # 	collision with: 5 6 0 0  and 6 6 0 0 
68242303		 # 	collision with: 4 10 0 0  and 6 2 2 0 
68242357		 # 	collision with: 7 9 0 0  and 5 0 1 0 
68242359		 # 	collision with: 8 0 0 0  and 8 2 0 0 
68242381		 # 	collision with: 3 7 0 0  and 1 4 1 0 
68242383		 # 	collision with: 2 0 0 0  and 4 2 0 0 
68242401		 # 	collision with: 3 9 0 0  and 8 6 1 0 
68242403		 # 	collision with: 8 0 0 0  and 8 2 0 0 
68242441		 # 	collision with: 8 0 0 0  and 3 2 0 0 
68242443		 # 	collision with: 7 7 0 0  and 7 1 1 0 
68242453		 # 	collision with: 3 0 2 0  and 5 0 2 0 
68242455		 # 	collision with: 1 9 0 0  and 0 0 1 0 
68242548		 # 	collision with: 4 2 0 0  and 9 0 2 0 
68242550		 # 	collision with: 1 2 0 0  and 8 0 2 0 
68242569		 # 	collision with: 5 2 1 0  and 9 0 2 0 
68242573		 # 	collision with: 10 2 1 0  and 10 4 1 0 
68242575		 # 	collision with: 5 2 1 0  and 1 4 1 0 
68242689		 # 	collision with: 5 6 0 0  and 6 6 0 0 
68242701		 # 	collision with: 6 7 0 0  and 4 0 2 0 
68242703		 # 	collision with: 4 7 0 0  and 10 2 1 0 
68242741		 # 	collision with: 9 0 0 0  and 9 1 0 0 
68242743		 # 	collision with: 2 7 0 0  and 4 7 0 0 
68242763		 # 	collision with: 3 0 1 0  and 5 0 1 0 
68242785		 # 	collision with: 9 0 0 0  and 9 1 0 0 
68242787		 # 	collision with: 2 7 0 0  and 4 7 0 0 
68242841		 # 	collision with: 1 2 1 0  and 1 3 1 0 
68242843		 # 	collision with: 6 3 0 0  and 4 2 2 0 
68242865		 # 	collision with: 5 6 0 0  and 6 6 0 0 
68242867		 # 	collision with: 6 9 0 0  and 0 6 1 0 
68242887		 # 	collision with: 8 6 0 0  and 10 0 1 0 
68242925		 # 	collision with: 1 1 0 0  and 9 4 1 0 
68242927		 # 	collision with: 4 5 2 0  and 10 6 2 0 
68242937		 # 	collision with: 5 8 1 0  and 6 2 3 0 
68242939		 # 	collision with: 2 4 0 0  and 10 9 2 0 
68243085		 # 	collision with: 2 2 1 0  and 4 2 1 0 
68243087		 # 	collision with: 7 8 0 0  and 2 0 1 0 
68243093		 # 	collision with: 1 8 0 0  and 10 7 1 0 
68243095		 # 	collision with: 10 3 0 0  and 2 7 1 0 
68243104		 # 	collision with: 8 0 0 0  and 3 2 0 0 
68243106		 # 	collision with: 7 4 0 0  and 10 5 0 0 
68243116		 # 	collision with: 9 0 0 0  and 9 1 0 0 
68243118		 # 	collision with: 7 4 0 0  and 10 5 0 0 
68243129		 # 	collision with: 10 5 0 0  and 10 5 2 0 
68243132		 # 	collision with: 7 0 0 0  and 7 2 0 0 
68243134		 # 	collision with: 9 0 0 0  and 8 1 0 0 
68243156		 # 	collision with: 3 1 0 0  and 8 2 0 0 
68243158		 # 	collision with: 10 0 0 0  and 10 1 0 0 
68243161		 # 	collision with: 5 3 0 0  and 5 0 1 0 
68243163		 # 	collision with: 5 9 0 0  and 5 9 1 0 
68243196		 # 	collision with: 5 1 0 0  and 5 2 0 0 
68243198		 # 	collision with: 6 1 0 0  and 0 2 0 0 
68243204		 # 	collision with: 9 0 0 0  and 9 1 0 0 
68243206		 # 	collision with: 7 4 0 0  and 10 5 0 0 
68243232		 # 	collision with: 6 3 0 0  and 6 5 0 0 
68243234		 # 	collision with: 8 0 0 0  and 9 2 0 0 
68243236		 # 	collision with: 8 0 0 0  and 3 2 0 0 
68243238		 # 	collision with: 7 4 0 0  and 10 5 0 0 
68243260		 # 	collision with: 10 2 0 0  and 10 4 0 0 
68243262		 # 	collision with: 7 3 0 0  and 7 5 0 0 
68243271		 # 	collision with: 2 10 1 0  and 7 4 2 0 
68243276		 # 	collision with: 6 3 0 0  and 6 5 0 0 
68243278		 # 	collision with: 8 0 0 0  and 9 2 0 0 
68243316		 # 	collision with: 3 1 0 0  and 3 3 0 0 
68243318		 # 	collision with: 4 2 0 0  and 2 3 0 0 
68243327		 # 	collision with: 8 5 0 0  and 9 6 0 0 
68243332		 # 	collision with: 3 1 0 0  and 8 2 0 0 
68243334		 # 	collision with: 10 0 0 0  and 10 1 0 0 
68243356		 # 	collision with: 2 4 0 0  and 2 6 0 0 
68243358		 # 	collision with: 8 0 0 0  and 8 2 0 0 
68243360		 # 	collision with: 3 1 0 0  and 3 3 0 0 
68243362		 # 	collision with: 4 2 0 0  and 2 3 0 0 
68243388		 # 	collision with: 1 2 0 0  and 1 3 0 0 
68243390		 # 	collision with: 4 1 0 0  and 4 3 0 0 
68243396		 # 	collision with: 7 0 0 0  and 7 2 0 0 
68243398		 # 	collision with: 9 0 0 0  and 8 1 0 0 
68243433		 # 	collision with: 7 2 0 0  and 10 2 1 0 
68243435		 # 	collision with: 0 2 0 0  and 6 2 1 0 
68243436		 # 	collision with: 10 2 0 0  and 10 4 0 0 
68243438		 # 	collision with: 7 3 0 0  and 7 5 0 0 
68243460		 # 	collision with: 5 1 0 0  and 5 2 0 0 
68243462		 # 	collision with: 6 1 0 0  and 0 2 0 0 
68243465		 # 	collision with: 5 8 0 0  and 6 2 1 0 
68243476		 # 	collision with: 1 2 0 0  and 1 3 0 0 
68243478		 # 	collision with: 4 1 0 0  and 4 3 0 0 
68243488		 # 	collision with: 2 4 0 0  and 2 6 0 0 
68243490		 # 	collision with: 8 0 0 0  and 8 2 0 0 
68243501		 # 	collision with: 10 8 0 0  and 1 0 1 0 
68243503		 # 	collision with: 8 5 0 0  and 9 6 0 0 
68243509		 # 	collision with: 6 5 1 0  and 1 0 2 0 
68243511		 # 	collision with: 8 3 0 0  and 4 2 2 0 
68243516		 # 	collision with: 6 5 0 0  and 8 7 1 0 
68243518		 # 	collision with: 0 5 0 0  and 1 7 1 0 
68243569		 # 	collision with: 2 9 0 0  and 8 7 1 0 
68243571		 # 	collision with: 2 2 0 0  and 4 2 0 0 
68243577		 # 	collision with: 2 4 0 0  and 2 6 0 0 
68243588		 # 	collision with: 10 2 0 0  and 2 0 2 0 
68243590		 # 	collision with: 3 0 0 0  and 6 3 1 0 
68243602		 # 	collision with: 3 0 1 0  and 9 1 1 0 
68243615		 # 	collision with: 2 2 0 0  and 4 2 0 0 
68243616		 # 	collision with: 5 8 0 0  and 5 8 1 0 
68243618		 # 	collision with: 3 9 0 0  and 10 0 1 0 
68243640		 # 	collision with: 5 6 0 0  and 6 6 0 0 
68243642		 # 	collision with: 5 9 0 0  and 5 0 1 0 
68243645		 # 	collision with: 2 4 0 0  and 9 6 0 0 
68243647		 # 	collision with: 3 4 0 0  and 3 6 0 0 
68243680		 # 	collision with: 3 5 1 0  and 4 5 1 0 
68243682		 # 	collision with: 7 5 1 0  and 7 5 2 0 
68243688		 # 	collision with: 10 1 1 0  and 8 2 1 0 
68243690		 # 	collision with: 9 1 1 0  and 4 3 1 0 
68243716		 # 	collision with: 0 1 1 0  and 2 1 1 0 
68243718		 # 	collision with: 5 7 1 0  and 6 3 3 0 
68243720		 # 	collision with: 4 6 0 0  and 2 1 1 0 
68243744		 # 	collision with: 3 8 1 0  and 5 8 1 0 
68243746		 # 	collision with: 2 6 0 0  and 2 10 1 0 
68243753		 # 	collision with: 2 4 0 0  and 2 6 0 0 
68243755		 # 	collision with: 0 2 1 0  and 3 4 1 0 
68243760		 # 	collision with: 8 2 0 0  and 7 10 1 0 
68243762		 # 	collision with: 3 4 0 0  and 6 1 2 0 
68243800		 # 	collision with: 5 0 0 0  and 1 4 1 0 
68243802		 # 	collision with: 2 2 0 0  and 4 2 0 0 
68243809		 # 	collision with: 3 1 1 0  and 3 1 2 0 
68243811		 # 	collision with: 2 4 0 0  and 3 3 1 0 
68243816		 # 	collision with: 5 6 0 0  and 6 6 0 0 
68243840		 # 	collision with: 7 7 0 0  and 9 4 1 0 
68243842		 # 	collision with: 2 5 0 0  and 5 4 2 0 
68243844		 # 	collision with: 5 3 2 0  and 2 4 2 0 
68243846		 # 	collision with: 2 2 0 0  and 4 2 0 0 
68243872		 # 	collision with: 8 0 0 0  and 6 3 2 0 
68243874		 # 	collision with: 1 4 0 0  and 3 3 1 0 
68243880		 # 	collision with: 9 10 0 0  and 7 3 1 0 
68243882		 # 	collision with: 3 2 0 0  and 5 1 1 0 
68243920		 # 	collision with: 6 8 0 0  and 4 7 1 0 
68243922		 # 	collision with: 0 4 0 0  and 6 2 1 0 
68243944		 # 	collision with: 4 5 0 0  and 10 2 1 0 
68243946		 # 	collision with: 9 7 0 0  and 5 1 1 0 
68243949		 # 	collision with: 5 6 0 0  and 6 6 0 0 
68243951		 # 	collision with: 2 2 1 0  and 2 2 2 0 
68243960		 # 	collision with: 7 2 0 0  and 2 0 2 0 
68243962		 # 	collision with: 4 3 1 0  and 0 8 2 0 
68243974		 # 	collision with: 4 2 0 0  and 8 3 1 0 
68243985		 # 	collision with: 4 1 1 0  and 4 1 2 0 
68243987		 # 	collision with: 8 1 1 0  and 3 2 1 0 
68243993		 # 	collision with: 5 6 0 0  and 6 6 0 0 
68243995		 # 	collision with: 2 4 0 0  and 2 1 1 0 
72.6531secs	35013
