# prime 11
# degree 2
# input variables 3
# output variables 3
# reload computed balance functions from file balance-603of3248-p11d2m3-debug.log
# p = 11
# n = 3
# smalldomain p^m 1331
# domain p^n 1331
#	 p^2 = 121
#	 p^3 = 1331
#	 p^4 = 14641
#	 p^5 = 161051
#	 p^6 = 1771561
#	 p^7 = 19487171
#	 p^8 = 214358881
#	 p^9 = 2357947691
opening file : balance-603of3248-p11d2m3-debug.log
reloading for step2...
3618028		 # 	collision with: 8 7 0  and 7 0 1 
3618030		 # 	collision with: 10 0 0  and 5 1 0 
3618048		 # 	collision with: 6 4 0  and 0 5 0 
3618050		 # 	collision with: 9 4 0  and 9 6 0 
3618057		 # 	collision with: 10 0 0  and 1 2 0 
3618059		 # 	collision with: 5 1 0  and 0 3 0 
3618097		 # 	collision with: 7 0 0  and 9 2 0 
3618099		 # 	collision with: 9 0 0  and 9 2 0 
3618112		 # 	collision with: 0 1 0  and 2 2 0 
3618114		 # 	collision with: 2 1 0  and 2 0 1 
3618131		 # 	collision with: 9 1 0  and 9 3 0 
3618134		 # 	collision with: 5 2 0  and 1 3 0 
3618196		 # 	collision with: 7 2 0  and 3 4 0 
3618198		 # 	collision with: 2 2 0  and 0 1 1 
3618201		 # 	collision with: 1 7 0  and 9 0 1 
3618203		 # 	collision with: 9 4 0  and 3 0 1 
3618216		 # 	collision with: 4 0 0  and 7 2 0 
3618218		 # 	collision with: 5 0 0  and 1 2 0 
3618233		 # 	collision with: 5 3 0  and 8 4 0 
3618235		 # 	collision with: 6 3 0  and 9 5 0 
3618273		 # 	collision with: 6 1 0  and 10 2 0 
3618275		 # 	collision with: 4 2 0  and 9 4 0 
3618280		 # 	collision with: 3 7 0  and 10 1 1 
3618282		 # 	collision with: 5 4 0  and 2 5 0 
3618300		 # 	collision with: 1 1 0  and 6 3 0 
3618302		 # 	collision with: 1 2 0  and 10 4 0 
3618333		 # 	collision with: 1 6 0  and 6 0 1 
3618335		 # 	collision with: 5 0 0  and 4 1 1 
3618341		 # 	collision with: 4 5 0  and 8 6 0 
3618343		 # 	collision with: 8 3 0  and 6 0 1 
3618364		 # 	collision with: 5 10 0  and 5 0 1 
3618366		 # 	collision with: 9 1 0  and 6 3 0 
3618384		 # 	collision with: 7 2 0  and 2 0 1 
3618386		 # 	collision with: 1 5 0  and 5 6 0 
3618388		 # 	collision with: 2 4 0  and 4 4 0 
3618390		 # 	collision with: 7 4 0  and 0 5 0 
3618392		 # 	collision with: 0 2 0  and 2 2 0 
3618394		 # 	collision with: 2 4 0  and 10 6 0 
3618396		 # 	collision with: 3 5 0  and 5 5 0 
3618398		 # 	collision with: 2 3 0  and 6 4 0 
3618400		 # 	collision with: 5 1 0  and 6 1 0 
3618402		 # 	collision with: 8 3 0  and 5 5 0 
3618404		 # 	collision with: 1 3 0  and 3 3 0 
3618406		 # 	collision with: 3 2 0  and 0 4 0 
3618408		 # 	collision with: 1 8 0  and 2 8 0 
3618410		 # 	collision with: 4 0 0  and 1 2 0 
3618412		 # 	collision with: 3 10 0  and 4 10 0 
3618414		 # 	collision with: 9 0 0  and 2 1 0 
3618416		 # 	collision with: 4 6 0  and 6 6 0 
3618418		 # 	collision with: 2 6 0  and 6 0 1 
3618420		 # 	collision with: 2 9 0  and 3 9 0 
3618424		 # 	collision with: 0 7 0  and 1 7 0 
3618426		 # 	collision with: 9 1 0  and 6 3 0 
3618429		 # 	collision with: 9 1 0  and 5 2 0 
3618431		 # 	collision with: 3 1 0  and 6 2 0 
3618448		 # 	collision with: 10 8 0  and 4 0 1 
3618450		 # 	collision with: 9 4 0  and 10 5 0 
3618481		 # 	collision with: 3 5 0  and 0 2 1 
3618483		 # 	collision with: 3 2 0  and 2 3 0 
3618512		 # 	collision with: 9 0 0  and 2 2 0 
3618514		 # 	collision with: 4 2 0  and 8 4 0 
3618532		 # 	collision with: 9 1 0  and 9 0 1 
3618534		 # 	collision with: 7 4 0  and 8 5 0 
3618541		 # 	collision with: 4 3 0  and 0 4 0 
3618543		 # 	collision with: 3 2 0  and 2 3 0 
3618583		 # 	collision with: 5 0 0  and 1 2 0 
3618598		 # 	collision with: 4 4 0  and 5 5 0 
3618613		 # 	collision with: 3 1 1  and 5 1 1 
3618615		 # 	collision with: 3 2 0  and 2 3 0 
3618616		 # 	collision with: 6 1 0  and 10 2 0 
3618618		 # 	collision with: 3 1 0  and 6 2 0 
3618680		 # 	collision with: 7 5 0  and 2 0 1 
3618682		 # 	collision with: 1 4 0  and 2 5 0 
3618685		 # 	collision with: 5 6 0  and 0 2 1 
3618687		 # 	collision with: 3 2 0  and 2 3 0 
3618700		 # 	collision with: 3 8 0  and 7 5 1 
3618702		 # 	collision with: 8 4 0  and 9 5 0 
3618717		 # 	collision with: 3 0 0  and 5 2 0 
3618719		 # 	collision with: 3 2 0  and 2 3 0 
3618757		 # 	collision with: 6 4 0  and 0 5 0 
3618764		 # 	collision with: 4 2 0  and 1 3 0 
3618766		 # 	collision with: 5 4 0  and 6 5 0 
3618784		 # 	collision with: 2 2 0  and 0 4 0 
3618786		 # 	collision with: 9 0 0  and 9 1 0 
3618817		 # 	collision with: 8 7 0  and 1 0 1 
3618819		 # 	collision with: 3 2 0  and 2 3 0 
3618825		 # 	collision with: 7 0 0  and 9 2 0 
3618827		 # 	collision with: 3 2 0  and 2 3 0 
3618848		 # 	collision with: 5 4 0  and 1 0 1 
3618850		 # 	collision with: 2 3 0  and 0 4 0 
3618868		 # 	collision with: 9 1 0  and 1 0 1 
3618870		 # 	collision with: 1 2 0  and 7 4 0 
3618872		 # 	collision with: 1 3 0  and 3 3 0 
3618874		 # 	collision with: 10 2 0  and 2 3 0 
3618876		 # 	collision with: 0 7 0  and 1 7 0 
3618878		 # 	collision with: 6 3 0  and 9 4 0 
3618880		 # 	collision with: 5 1 0  and 6 1 0 
3618882		 # 	collision with: 9 5 0  and 1 6 0 
3618884		 # 	collision with: 2 9 0  and 3 9 0 
3618888		 # 	collision with: 3 5 0  and 5 5 0 
3618890		 # 	collision with: 0 0 0  and 1 1 1 
3618892		 # 	collision with: 4 6 0  and 6 6 0 
3618894		 # 	collision with: 8 3 0  and 3 5 0 
3618896		 # 	collision with: 0 2 0  and 2 2 0 
3618898		 # 	collision with: 2 4 0  and 5 5 0 
3618900		 # 	collision with: 3 10 0  and 4 10 0 
3618902		 # 	collision with: 9 0 0  and 4 2 0 
3618904		 # 	collision with: 2 4 0  and 4 4 0 
3618906		 # 	collision with: 5 1 0  and 0 3 0 
3618908		 # 	collision with: 1 8 0  and 2 8 0 
3618910		 # 	collision with: 3 1 0  and 6 2 0 
3618913		 # 	collision with: 3 0 0  and 2 1 0 
3618915		 # 	collision with: 7 0 0  and 10 1 0 
3618932		 # 	collision with: 7 6 0  and 8 7 0 
3618934		 # 	collision with: 9 4 0  and 1 6 0 
3618965		 # 	collision with: 6 1 0  and 3 2 0 
3618967		 # 	collision with: 8 4 0  and 10 5 0 
3618996		 # 	collision with: 5 0 0  and 7 2 0 
3618998		 # 	collision with: 7 2 0  and 1 1 1 
3619018		 # 	collision with: 0 0 0  and 9 1 0 
3619027		 # 	collision with: 5 1 0  and 4 3 0 
3619065		 # 	collision with: 6 1 0  and 3 2 0 
3619067		 # 	collision with: 2 3 0  and 0 4 0 
3619080		 # 	collision with: 7 0 0  and 9 2 0 
3619082		 # 	collision with: 9 1 0  and 9 2 0 
3619097		 # 	collision with: 6 1 0  and 3 2 0 
3619099		 # 	collision with: 9 4 0  and 10 5 0 
3619100		 # 	collision with: 3 0 0  and 5 2 0 
3619102		 # 	collision with: 6 1 0  and 6 0 1 
3619164		 # 	collision with: 4 0 0  and 6 2 0 
3619166		 # 	collision with: 1 4 0  and 0 0 1 
3619169		 # 	collision with: 9 0 0  and 2 2 0 
3619171		 # 	collision with: 3 2 0  and 5 0 1 
3619184		 # 	collision with: 0 0 0  and 2 2 0 
3619186		 # 	collision with: 2 1 1  and 4 2 1 
3619201		 # 	collision with: 6 1 0  and 3 2 0 
3619241		 # 	collision with: 6 1 0  and 3 2 0 
3619243		 # 	collision with: 10 0 0  and 5 1 0 
3619248		 # 	collision with: 8 0 0  and 10 2 0 
3619250		 # 	collision with: 1 5 0  and 5 0 1 
3619268		 # 	collision with: 2 0 0  and 4 2 0 
3619270		 # 	collision with: 0 0 0  and 9 2 0 
3619301		 # 	collision with: 6 1 0  and 3 2 0 
3619303		 # 	collision with: 6 3 0  and 8 4 0 
3619309		 # 	collision with: 6 1 0  and 3 2 0 
3619311		 # 	collision with: 8 3 0  and 1 1 1 
3619332		 # 	collision with: 6 0 0  and 8 2 0 
3619334		 # 	collision with: 4 2 0  and 6 3 0 
3619352		 # 	collision with: 0 7 0  and 1 0 1 
3619354		 # 	collision with: 2 1 0  and 6 3 0 
3619356		 # 	collision with: 0 2 0  and 2 2 0 
3619358		 # 	collision with: 0 0 0  and 2 1 0 
3619360		 # 	collision with: 5 1 0  and 6 1 0 
3619362		 # 	collision with: 8 4 0  and 1 6 0 
3619364		 # 	collision with: 1 8 0  and 2 8 0 
3619366		 # 	collision with: 6 3 0  and 8 4 0 
3619368		 # 	collision with: 4 6 0  and 6 6 0 
3619370		 # 	collision with: 0 0 0  and 4 2 0 
3619372		 # 	collision with: 0 7 0  and 1 7 0 
3619374		 # 	collision with: 2 1 0  and 4 2 0 
3619376		 # 	collision with: 2 4 0  and 4 4 0 
3619378		 # 	collision with: 4 2 0  and 8 4 0 
3619380		 # 	collision with: 3 5 0  and 5 5 0 
3619382		 # 	collision with: 3 1 0  and 3 0 1 
3619384		 # 	collision with: 1 3 0  and 3 3 0 
3619386		 # 	collision with: 4 2 0  and 6 3 0 
3619388		 # 	collision with: 3 10 0  and 4 10 0 
3619390		 # 	collision with: 6 3 0  and 10 5 0 
3619392		 # 	collision with: 2 9 0  and 3 9 0 
3619397		 # 	collision with: 10 3 0  and 9 4 0 
3619399		 # 	collision with: 5 2 0  and 3 3 0 
3619416		 # 	collision with: 1 6 0  and 6 0 1 
3619418		 # 	collision with: 8 1 0  and 8 0 1 
3619451		 # 	collision with: 4 4 0  and 10 6 0 
3619482		 # 	collision with: 8 3 0  and 4 4 0 
3619500		 # 	collision with: 2 1 0  and 5 2 0 
3619502		 # 	collision with: 5 6 0  and 9 1 1 
3619509		 # 	collision with: 1 6 0  and 3 0 1 
3619511		 # 	collision with: 4 4 0  and 10 6 0 
3619549		 # 	collision with: 9 1 0  and 0 0 1 
3619551		 # 	collision with: 0 0 0  and 9 1 0 
3619564		 # 	collision with: 7 1 0  and 10 3 0 
3619566		 # 	collision with: 7 3 0  and 4 0 1 
3619581		 # 	collision with: 8 1 0  and 8 0 1 
3619584		 # 	collision with: 7 7 0  and 7 0 1 
3619586		 # 	collision with: 6 9 0  and 2 0 1 
3619648		 # 	collision with: 10 0 1  and 10 1 1 
3619650		 # 	collision with: 2 0 0  and 10 1 0 
3619653		 # 	collision with: 4 7 0  and 6 0 1 
3619655		 # 	collision with: 9 1 0  and 9 2 0 
3619668		 # 	collision with: 3 3 0  and 0 0 1 
3619670		 # 	collision with: 3 4 0  and 0 0 1 
3619685		 # 	collision with: 0 1 0  and 4 3 0 
3619687		 # 	collision with: 9 2 0  and 9 3 0 
3619725		 # 	collision with: 3 4 0  and 9 6 0 
3619727		 # 	collision with: 4 4 0  and 10 6 0 
3619732		 # 	collision with: 2 1 0  and 2 0 1 
3619734		 # 	collision with: 0 0 0  and 1 1 1 
3619752		 # 	collision with: 6 6 0  and 5 7 0 
3619754		 # 	collision with: 2 4 0  and 5 5 0 
3619785		 # 	collision with: 9 2 0  and 1 3 0 
3619787		 # 	collision with: 8 2 0  and 1 3 0 
3619793		 # 	collision with: 1 4 0  and 4 0 1 
3619795		 # 	collision with: 4 4 0  and 10 6 0 
3619816		 # 	collision with: 3 0 0  and 9 1 0 
3619818		 # 	collision with: 9 2 0  and 9 3 0 
3619836		 # 	collision with: 5 6 0  and 6 0 1 
3619838		 # 	collision with: 5 2 0  and 8 0 1 
3619840		 # 	collision with: 5 1 0  and 6 1 0 
3619842		 # 	collision with: 7 4 0  and 8 5 0 
3619844		 # 	collision with: 4 6 0  and 6 6 0 
3619846		 # 	collision with: 1 4 0  and 2 5 0 
3619848		 # 	collision with: 2 4 0  and 4 4 0 
3619850		 # 	collision with: 10 4 0  and 0 5 0 
3619852		 # 	collision with: 1 3 0  and 3 3 0 
3619854		 # 	collision with: 9 4 0  and 10 5 0 
3619856		 # 	collision with: 2 9 0  and 3 9 0 
3619860		 # 	collision with: 0 2 0  and 2 2 0 
3619862		 # 	collision with: 8 4 0  and 9 5 0 
3619864		 # 	collision with: 1 8 0  and 2 8 0 
3619866		 # 	collision with: 3 4 0  and 4 5 0 
3619868		 # 	collision with: 0 7 0  and 1 7 0 
3619870		 # 	collision with: 2 4 0  and 3 5 0 
3619872		 # 	collision with: 3 5 0  and 5 5 0 
3619874		 # 	collision with: 0 4 0  and 1 5 0 
3619876		 # 	collision with: 3 10 0  and 4 10 0 
3619878		 # 	collision with: 5 4 0  and 6 5 0 
3619883		 # 	collision with: 2 0 0  and 1 1 0 
3619902		 # 	collision with: 4 10 0  and 3 0 1 
3619933		 # 	collision with: 5 4 0  and 0 2 1 
3619935		 # 	collision with: 5 3 0  and 8 2 1 
3619964		 # 	collision with: 5 5 0  and 7 1 1 
3619966		 # 	collision with: 7 0 0  and 10 1 0 
3619984		 # 	collision with: 7 0 0  and 4 2 0 
3619986		 # 	collision with: 1 2 0  and 2 0 1 
3619993		 # 	collision with: 3 1 0  and 3 0 1 
3619995		 # 	collision with: 7 0 0  and 10 1 0 
3620033		 # 	collision with: 5 7 0  and 1 1 1 
3620035		 # 	collision with: 10 2 0  and 6 4 0 
3620048		 # 	collision with: 9 7 0  and 2 0 1 
3620050		 # 	collision with: 2 9 0  and 8 1 1 
3620065		 # 	collision with: 0 1 0  and 4 3 0 
3620067		 # 	collision with: 3 1 0  and 3 1 1 
3620068		 # 	collision with: 6 4 0  and 0 5 0 
3620070		 # 	collision with: 9 3 0  and 9 4 0 
3620132		 # 	collision with: 6 0 0  and 2 1 0 
3620134		 # 	collision with: 0 1 0  and 3 3 0 
3620137		 # 	collision with: 0 2 0  and 6 4 0 
3620139		 # 	collision with: 8 3 0  and 5 0 1 
3620152		 # 	collision with: 1 2 0  and 7 3 0 
3620154		 # 	collision with: 2 7 0  and 2 0 1 
3620169		 # 	collision with: 2 1 0  and 2 0 1 
3620171		 # 	collision with: 0 0 0  and 1 1 1 
3620209		 # 	collision with: 1 9 0  and 9 0 1 
3620211		 # 	collision with: 9 4 0  and 10 5 0 
3620216		 # 	collision with: 6 4 0  and 10 6 0 
3620218		 # 	collision with: 2 3 0  and 1 5 0 
3620236		 # 	collision with: 0 5 0  and 10 6 0 
3620238		 # 	collision with: 2 1 0  and 4 2 0 
3620269		 # 	collision with: 6 4 0  and 1 0 1 
3620271		 # 	collision with: 9 1 0  and 0 0 1 
3620277		 # 	collision with: 7 4 0  and 5 5 0 
3620300		 # 	collision with: 9 6 0  and 8 0 1 
3620302		 # 	collision with: 9 2 0  and 2 2 1 
3620326		 # 	collision with: 9 3 0  and 9 4 0 
3620330		 # 	collision with: 9 2 0  and 9 4 0 
3620334		 # 	collision with: 9 2 0  and 9 3 0 
3620338		 # 	collision with: 9 1 0  and 9 3 0 
3620342		 # 	collision with: 9 1 0  and 9 2 0 
3620346		 # 	collision with: 9 0 0  and 9 2 0 
3620350		 # 	collision with: 9 0 0  and 9 1 0 
3620354		 # 	collision with: 9 5 0  and 9 6 0 
3620358		 # 	collision with: 9 4 0  and 9 6 0 
3620362		 # 	collision with: 9 4 0  and 9 5 0 
3620373		 # 	collision with: 7 4 0  and 6 5 0 
3620375		 # 	collision with: 9 1 0  and 5 2 0 
3620392		 # 	collision with: 3 0 0  and 5 0 0 
3620394		 # 	collision with: 2 1 0  and 5 2 0 
3620420		 # 	collision with: 3 0 0  and 5 0 0 
3620422		 # 	collision with: 2 2 0  and 1 0 1 
3620433		 # 	collision with: 4 4 0  and 10 5 0 
3620435		 # 	collision with: 10 5 0  and 0 0 1 
3620457		 # 	collision with: 0 10 0  and 7 0 1 
3620459		 # 	collision with: 1 1 0  and 8 2 0 
3620492		 # 	collision with: 3 0 0  and 5 0 0 
3620494		 # 	collision with: 5 2 0  and 9 3 0 
3620505		 # 	collision with: 6 0 0  and 5 2 0 
3620507		 # 	collision with: 10 3 0  and 4 4 0 
3620520		 # 	collision with: 3 0 0  and 5 0 0 
3620522		 # 	collision with: 9 2 0  and 8 0 1 
3620545		 # 	collision with: 5 6 0  and 3 0 1 
3620548		 # 	collision with: 3 0 0  and 5 0 0 
3620550		 # 	collision with: 2 0 0  and 4 1 0 
3620620		 # 	collision with: 3 0 0  and 5 0 0 
3620622		 # 	collision with: 3 4 0  and 5 6 0 
3620625		 # 	collision with: 1 10 0  and 6 0 1 
3620648		 # 	collision with: 3 0 0  and 5 0 0 
3620650		 # 	collision with: 1 2 0  and 10 4 0 
3620665		 # 	collision with: 5 0 0  and 6 2 0 
3620667		 # 	collision with: 2 3 0  and 4 3 0 
3620676		 # 	collision with: 3 0 0  and 5 0 0 
3620678		 # 	collision with: 9 2 0  and 1 0 1 
3620713		 # 	collision with: 6 3 0  and 1 5 0 
3620715		 # 	collision with: 5 1 0  and 3 0 1 
3620737		 # 	collision with: 2 3 0  and 1 4 0 
3620739		 # 	collision with: 0 2 0  and 1 3 0 
3620748		 # 	collision with: 3 0 0  and 5 0 0 
3620750		 # 	collision with: 10 3 0  and 4 4 0 
3620776		 # 	collision with: 3 0 0  and 5 0 0 
3620778		 # 	collision with: 5 5 0  and 3 0 1 
3620797		 # 	collision with: 6 3 0  and 9 4 0 
3620799		 # 	collision with: 5 4 0  and 6 5 0 
3620804		 # 	collision with: 3 4 0  and 2 0 1 
3620806		 # 	collision with: 2 0 0  and 0 2 0 
3620808		 # 	collision with: 2 10 0  and 3 10 0 
3620810		 # 	collision with: 10 0 0  and 9 1 0 
3620812		 # 	collision with: 0 5 0  and 1 5 0 
3620814		 # 	collision with: 2 0 0  and 0 2 0 
3620816		 # 	collision with: 3 7 0  and 4 7 0 
3620818		 # 	collision with: 2 0 0  and 0 2 0 
3620820		 # 	collision with: 4 8 0  and 6 8 0 
3620822		 # 	collision with: 2 0 0  and 0 2 0 
3620824		 # 	collision with: 1 2 0  and 2 2 0 
3620826		 # 	collision with: 2 0 0  and 0 2 0 
3620828		 # 	collision with: 0 9 0  and 2 9 0 
3620832		 # 	collision with: 2 3 0  and 4 3 0 
3620834		 # 	collision with: 2 0 0  and 0 2 0 
3620836		 # 	collision with: 4 4 0  and 5 4 0 
3620838		 # 	collision with: 2 0 0  and 0 2 0 
3620840		 # 	collision with: 1 6 0  and 3 6 0 
3620842		 # 	collision with: 2 0 0  and 0 2 0 
3620844		 # 	collision with: 5 1 0  and 6 1 0 
3620846		 # 	collision with: 2 0 0  and 0 2 0 
3620857		 # 	collision with: 7 0 0  and 9 1 0 
3620859		 # 	collision with: 9 2 0  and 8 3 0 
3620876		 # 	collision with: 2 3 0  and 6 1 1 
3620878		 # 	collision with: 2 0 0  and 0 2 0 
3620904		 # 	collision with: 4 4 0  and 2 5 0 
3620906		 # 	collision with: 2 0 0  and 0 2 0 
3620917		 # 	collision with: 1 6 0  and 3 0 1 
3620919		 # 	collision with: 1 9 0  and 1 0 1 
3620941		 # 	collision with: 7 1 0  and 7 0 1 
3620943		 # 	collision with: 10 0 0  and 2 1 0 
3620976		 # 	collision with: 2 1 0  and 10 2 0 
3620978		 # 	collision with: 2 0 0  and 0 2 0 
3620989		 # 	collision with: 5 1 1  and 0 2 1 
3620991		 # 	collision with: 3 5 0  and 6 6 0 
3621004		 # 	collision with: 4 3 0  and 8 0 1 
3621006		 # 	collision with: 2 0 0  and 0 2 0 
3621029		 # 	collision with: 3 0 0  and 6 2 0 
3621031		 # 	collision with: 6 0 0  and 3 2 0 
3621032		 # 	collision with: 6 8 0  and 6 0 1 
3621034		 # 	collision with: 2 0 0  and 0 2 0 
3621104		 # 	collision with: 6 2 0  and 7 3 0 
3621106		 # 	collision with: 2 0 0  and 0 2 0 
3621109		 # 	collision with: 6 5 0  and 1 6 0 
3621111		 # 	collision with: 6 4 0  and 7 4 1 
3621132		 # 	collision with: 10 0 0  and 3 1 0 
3621134		 # 	collision with: 2 0 0  and 0 2 0 
3621149		 # 	collision with: 4 8 0  and 3 0 1 
3621151		 # 	collision with: 4 1 0  and 1 3 0 
3621160		 # 	collision with: 6 3 0  and 0 4 0 
3621197		 # 	collision with: 9 0 0  and 1 2 0 
3621199		 # 	collision with: 3 5 0  and 9 6 0 
3621221		 # 	collision with: 2 3 0  and 8 4 0 
3621223		 # 	collision with: 0 4 0  and 9 6 0 
3621232		 # 	collision with: 5 0 0  and 6 2 0 
3621234		 # 	collision with: 10 0 0  and 2 1 0 
3621262		 # 	collision with: 2 0 0  and 0 2 0 
3621283		 # 	collision with: 7 5 0  and 6 2 1 
3621288		 # 	collision with: 4 7 0  and 0 0 1 
3621290		 # 	collision with: 6 2 0  and 2 4 0 
3621292		 # 	collision with: 0 9 0  and 2 9 0 
3621296		 # 	collision with: 2 10 0  and 3 10 0 
3621298		 # 	collision with: 1 4 0  and 4 0 1 
3621300		 # 	collision with: 2 3 0  and 4 3 0 
3621302		 # 	collision with: 6 0 0  and 4 1 0 
3621304		 # 	collision with: 0 5 0  and 1 5 0 
3621306		 # 	collision with: 3 4 0  and 10 6 0 
3621308		 # 	collision with: 4 4 0  and 5 4 0 
3621310		 # 	collision with: 9 0 0  and 5 2 0 
3621312		 # 	collision with: 3 7 0  and 4 7 0 
3621314		 # 	collision with: 0 4 0  and 9 5 0 
3621316		 # 	collision with: 1 6 0  and 3 6 0 
3621318		 # 	collision with: 4 5 0  and 2 6 0 
3621320		 # 	collision with: 4 8 0  and 6 8 0 
3621322		 # 	collision with: 3 2 0  and 1 3 0 
3621324		 # 	collision with: 5 1 0  and 6 1 0 
3621326		 # 	collision with: 7 3 0  and 5 4 0 
3621328		 # 	collision with: 1 2 0  and 2 2 0 
3621330		 # 	collision with: 10 1 0  and 8 2 0 
3621341		 # 	collision with: 9 0 0  and 8 1 0 
3621343		 # 	collision with: 10 0 0  and 9 1 0 
3621360		 # 	collision with: 0 1 0  and 6 3 0 
3621362		 # 	collision with: 9 0 0  and 9 1 0 
3621388		 # 	collision with: 1 9 0  and 0 0 1 
3621390		 # 	collision with: 1 1 0  and 3 3 0 
3621401		 # 	collision with: 2 6 0  and 6 0 1 
3621403		 # 	collision with: 4 0 0  and 8 2 0 
3621425		 # 	collision with: 0 1 0  and 2 1 1 
3621427		 # 	collision with: 2 1 0  and 7 1 1 
3621460		 # 	collision with: 9 10 0  and 0 1 1 
3621462		 # 	collision with: 9 3 0  and 0 4 0 
3621473		 # 	collision with: 7 0 0  and 10 2 0 
3621475		 # 	collision with: 9 2 0  and 9 4 0 
3621488		 # 	collision with: 5 4 0  and 5 0 1 
3621490		 # 	collision with: 0 4 0  and 6 6 0 
3621513		 # 	collision with: 9 1 0  and 4 2 0 
3621515		 # 	collision with: 8 2 0  and 3 3 0 
3621516		 # 	collision with: 2 3 0  and 8 4 0 
3621588		 # 	collision with: 6 2 0  and 10 3 0 
3621590		 # 	collision with: 0 2 0  and 6 1 1 
3621593		 # 	collision with: 0 0 0  and 3 2 0 
3621595		 # 	collision with: 5 1 0  and 5 0 1 
3621616		 # 	collision with: 2 1 0  and 4 2 0 
3621618		 # 	collision with: 8 4 0  and 7 5 0 
3621633		 # 	collision with: 10 1 0  and 8 0 1 
3621644		 # 	collision with: 4 1 0  and 7 0 1 
3621646		 # 	collision with: 4 8 0  and 3 2 1 
3621681		 # 	collision with: 4 3 0  and 1 4 0 
3621683		 # 	collision with: 10 4 0  and 4 6 0 
3621718		 # 	collision with: 6 0 0  and 3 2 0 
3621744		 # 	collision with: 4 2 0  and 3 4 0 
3621746		 # 	collision with: 5 1 0  and 2 2 0 
3621765		 # 	collision with: 8 1 0  and 1 2 0 
3621767		 # 	collision with: 5 1 0  and 6 1 0 
3621772		 # 	collision with: 9 8 0  and 9 0 1 
3621774		 # 	collision with: 8 4 0  and 5 5 0 
3621776		 # 	collision with: 4 8 0  and 6 8 0 
3621778		 # 	collision with: 5 1 0  and 2 2 0 
3621780		 # 	collision with: 4 4 0  and 5 4 0 
3621782		 # 	collision with: 9 5 0  and 6 6 0 
3621784		 # 	collision with: 2 10 0  and 3 10 0 
3621786		 # 	collision with: 7 3 0  and 4 4 0 
3621788		 # 	collision with: 1 2 0  and 2 2 0 
3621790		 # 	collision with: 9 3 0  and 3 5 0 
3621792		 # 	collision with: 1 6 0  and 3 6 0 
3621794		 # 	collision with: 7 1 0  and 1 3 0 
3621796		 # 	collision with: 0 5 0  and 1 5 0 
3621798		 # 	collision with: 4 0 0  and 1 1 0 
3621800		 # 	collision with: 0 9 0  and 2 9 0 
3621804		 # 	collision with: 5 1 0  and 6 1 0 
3621806		 # 	collision with: 10 4 0  and 4 6 0 
3621808		 # 	collision with: 3 7 0  and 4 7 0 
3621810		 # 	collision with: 0 0 0  and 1 1 1 
3621812		 # 	collision with: 2 3 0  and 4 3 0 
3621814		 # 	collision with: 6 2 0  and 3 3 0 
3621825		 # 	collision with: 3 0 0  and 5 0 0 
3621827		 # 	collision with: 6 3 0  and 4 5 0 
3621844		 # 	collision with: 9 5 0  and 2 1 1 
3621846		 # 	collision with: 6 0 0  and 7 1 0 
3621872		 # 	collision with: 9 4 0  and 0 6 0 
3621885		 # 	collision with: 3 0 0  and 5 0 0 
3621887		 # 	collision with: 0 0 0  and 1 1 1 
3621909		 # 	collision with: 3 0 0  and 5 0 0 
3621944		 # 	collision with: 2 6 0  and 3 0 1 
3621946		 # 	collision with: 3 0 0  and 2 1 1 
3621957		 # 	collision with: 3 0 0  and 5 0 0 
3621959		 # 	collision with: 6 0 0  and 7 1 0 
3621972		 # 	collision with: 7 0 0  and 2 1 0 
3621974		 # 	collision with: 6 4 0  and 10 6 0 
3621997		 # 	collision with: 3 0 0  and 5 0 0 
3621999		 # 	collision with: 9 1 0  and 8 3 0 
3622000		 # 	collision with: 4 1 0  and 9 3 0 
3622002		 # 	collision with: 8 3 0  and 3 5 0 
3622072		 # 	collision with: 5 6 0  and 5 0 1 
3622074		 # 	collision with: 3 1 0  and 3 0 1 
3622077		 # 	collision with: 3 0 0  and 5 0 0 
3622079		 # 	collision with: 9 4 0  and 9 5 0 
3622100		 # 	collision with: 2 3 0  and 1 4 0 
3622102		 # 	collision with: 9 1 0  and 9 2 0 
3622117		 # 	collision with: 3 0 0  and 5 0 0 
3622119		 # 	collision with: 9 0 0  and 2 1 0 
3622130		 # 	collision with: 2 0 0  and 3 2 0 
3622167		 # 	collision with: 0 6 0  and 1 0 1 
3622189		 # 	collision with: 3 0 0  and 5 0 0 
3622191		 # 	collision with: 3 3 0  and 2 4 0 
3622200		 # 	collision with: 10 2 0  and 3 4 0 
3622202		 # 	collision with: 3 5 0  and 8 1 1 
3622228		 # 	collision with: 8 0 0  and 3 2 0 
3622230		 # 	collision with: 2 2 0  and 10 4 0 
3622249		 # 	collision with: 3 0 0  and 5 0 0 
3622256		 # 	collision with: 10 5 0  and 1 0 1 
3622258		 # 	collision with: 10 10 0  and 3 1 1 
3622260		 # 	collision with: 3 7 0  and 4 7 0 
3622262		 # 	collision with: 3 1 0  and 10 2 0 
3622264		 # 	collision with: 0 9 0  and 2 9 0 
3622268		 # 	collision with: 1 6 0  and 3 6 0 
3622270		 # 	collision with: 10 1 0  and 6 2 0 
3622272		 # 	collision with: 2 10 0  and 3 10 0 
3622274		 # 	collision with: 4 1 0  and 0 2 0 
3622276		 # 	collision with: 4 8 0  and 6 8 0 
3622278		 # 	collision with: 7 1 0  and 3 2 0 
3622280		 # 	collision with: 2 3 0  and 4 3 0 
3622282		 # 	collision with: 9 1 0  and 5 2 0 
3622284		 # 	collision with: 5 1 0  and 6 1 0 
3622286		 # 	collision with: 1 1 0  and 8 2 0 
3622288		 # 	collision with: 0 5 0  and 1 5 0 
3622290		 # 	collision with: 6 1 0  and 2 2 0 
3622292		 # 	collision with: 1 2 0  and 2 2 0 
3622294		 # 	collision with: 5 1 0  and 1 2 0 
3622296		 # 	collision with: 4 4 0  and 5 4 0 
3622298		 # 	collision with: 2 1 0  and 9 2 0 
3622309		 # 	collision with: 2 0 0  and 5 2 0 
3622311		 # 	collision with: 10 1 0  and 8 2 0 
3622328		 # 	collision with: 3 3 0  and 4 4 0 
3622330		 # 	collision with: 10 3 0  and 5 4 0 
3622356		 # 	collision with: 5 1 0  and 4 3 0 
3622358		 # 	collision with: 4 0 0  and 8 2 0 
3622369		 # 	collision with: 9 4 0  and 0 6 0 
3622371		 # 	collision with: 0 3 0  and 1 0 1 
3622393		 # 	collision with: 6 0 0  and 9 2 0 
3622395		 # 	collision with: 0 2 0  and 6 0 1 
3622428		 # 	collision with: 1 8 0  and 3 2 1 
3622430		 # 	collision with: 8 2 0  and 4 0 1 
3622441		 # 	collision with: 4 6 0  and 9 2 1 
3622443		 # 	collision with: 10 1 0  and 6 2 0 
3622456		 # 	collision with: 7 10 0  and 7 0 1 
3622458		 # 	collision with: 2 1 0  and 0 0 1 
3622481		 # 	collision with: 6 6 0  and 1 0 1 
3622483		 # 	collision with: 3 3 0  and 7 4 0 
3622484		 # 	collision with: 10 0 0  and 8 1 0 
3622486		 # 	collision with: 5 4 0  and 6 5 0 
3622556		 # 	collision with: 3 7 0  and 5 0 1 
3622558		 # 	collision with: 7 1 0  and 1 3 0 
3622561		 # 	collision with: 0 2 0  and 5 1 1 
3622563		 # 	collision with: 2 1 0  and 9 2 0 
3622586		 # 	collision with: 10 0 0  and 9 1 0 
3622603		 # 	collision with: 5 2 0  and 9 3 0 
3622612		 # 	collision with: 7 3 0  and 2 0 1 
3622614		 # 	collision with: 5 2 0  and 0 4 0 
3622649		 # 	collision with: 0 4 0  and 4 6 0 
3622651		 # 	collision with: 10 1 0  and 10 0 1 
3622673		 # 	collision with: 9 0 0  and 8 1 0 
3622675		 # 	collision with: 9 1 0  and 9 2 0 
3622684		 # 	collision with: 8 9 0  and 9 0 1 
3622686		 # 	collision with: 2 6 0  and 3 0 1 
3622712		 # 	collision with: 7 0 0  and 4 2 0 
3622733		 # 	collision with: 8 1 0  and 2 2 0 
3622735		 # 	collision with: 8 2 0  and 3 3 0 
3622740		 # 	collision with: 9 10 0  and 0 5 1 
3622742		 # 	collision with: 4 0 0  and 10 1 0 
3622744		 # 	collision with: 1 6 0  and 3 6 0 
3622746		 # 	collision with: 10 3 0  and 5 4 0 
3622748		 # 	collision with: 2 3 0  and 4 3 0 
3622750		 # 	collision with: 8 2 0  and 3 3 0 
3622752		 # 	collision with: 1 2 0  and 2 2 0 
3622754		 # 	collision with: 1 4 0  and 7 5 0 
3622756		 # 	collision with: 3 7 0  and 4 7 0 
3622758		 # 	collision with: 6 2 0  and 7 4 0 
3622760		 # 	collision with: 2 10 0  and 3 10 0 
3622762		 # 	collision with: 8 3 0  and 9 5 0 
3622764		 # 	collision with: 5 1 0  and 6 1 0 
3622766		 # 	collision with: 7 4 0  and 5 0 1 
3622768		 # 	collision with: 4 4 0  and 5 4 0 
3622770		 # 	collision with: 3 5 0  and 9 6 0 
3622772		 # 	collision with: 0 9 0  and 2 9 0 
3622776		 # 	collision with: 4 8 0  and 6 8 0 
3622778		 # 	collision with: 10 4 0  and 0 6 0 
3622780		 # 	collision with: 0 5 0  and 1 5 0 
3622782		 # 	collision with: 6 1 0  and 1 2 0 
3622793		 # 	collision with: 1 5 0  and 0 6 0 
3622795		 # 	collision with: 2 5 0  and 1 6 0 
3622812		 # 	collision with: 0 0 0  and 1 1 1 
3622814		 # 	collision with: 3 5 0  and 1 0 1 
3622840		 # 	collision with: 1 2 0  and 5 2 1 
3622842		 # 	collision with: 3 3 0  and 4 1 1 
3622853		 # 	collision with: 10 0 0  and 2 2 0 
3622855		 # 	collision with: 2 10 0  and 5 0 1 
3622877		 # 	collision with: 8 5 0  and 2 7 0 
3622879		 # 	collision with: 7 1 0  and 1 3 0 
3622912		 # 	collision with: 9 4 0  and 1 5 0 
3622914		 # 	collision with: 10 4 0  and 4 6 0 
3622925		 # 	collision with: 7 1 0  and 7 0 1 
3622927		 # 	collision with: 0 0 0  and 1 1 1 
3622940		 # 	collision with: 8 1 0  and 2 2 0 
3622942		 # 	collision with: 2 6 0  and 2 1 1 
3622965		 # 	collision with: 6 2 0  and 7 3 0 
3622967		 # 	collision with: 5 2 0  and 9 3 0 
3622968		 # 	collision with: 7 1 0  and 9 3 0 
3622970		 # 	collision with: 10 0 0  and 9 2 0 
3623042		 # 	collision with: 7 1 0  and 0 2 0 
3623047		 # 	collision with: 6 2 0  and 3 3 0 
3623068		 # 	collision with: 10 4 0  and 8 6 0 
3623085		 # 	collision with: 4 5 0  and 9 1 1 
3623087		 # 	collision with: 1 4 0  and 5 5 0 
3623096		 # 	collision with: 7 0 0  and 9 1 0 
3623098		 # 	collision with: 9 2 0  and 0 4 0 
3623133		 # 	collision with: 2 3 0  and 8 4 0 
3623135		 # 	collision with: 3 4 0  and 5 6 0 
3623157		 # 	collision with: 8 2 0  and 7 3 0 
3623159		 # 	collision with: 7 1 0  and 5 3 0 
3623168		 # 	collision with: 3 2 0  and 0 4 0 
3623170		 # 	collision with: 3 2 0  and 5 3 0 
3623196		 # 	collision with: 3 2 0  and 0 3 0 
3623198		 # 	collision with: 9 6 0  and 6 2 1 
3623217		 # 	collision with: 4 0 0  and 7 2 0 
3623219		 # 	collision with: 3 4 0  and 10 6 0 
3623224		 # 	collision with: 7 10 0  and 4 0 1 
3623226		 # 	collision with: 2 0 0  and 7 1 0 
3623228		 # 	collision with: 0 5 0  and 1 5 0 
3623230		 # 	collision with: 5 10 0  and 1 0 1 
3623232		 # 	collision with: 4 8 0  and 6 8 0 
3623234		 # 	collision with: 0 2 0  and 5 3 0 
3623236		 # 	collision with: 0 9 0  and 2 9 0 
3623240		 # 	collision with: 4 4 0  and 5 4 0 
3623242		 # 	collision with: 8 5 0  and 2 6 0 
3623244		 # 	collision with: 5 1 0  and 6 1 0 
3623246		 # 	collision with: 9 4 0  and 3 5 0 
3623248		 # 	collision with: 2 10 0  and 3 10 0 
3623250		 # 	collision with: 6 4 0  and 5 6 0 
3623252		 # 	collision with: 3 7 0  and 4 7 0 
3623254		 # 	collision with: 10 3 0  and 4 4 0 
3623256		 # 	collision with: 1 2 0  and 2 2 0 
3623258		 # 	collision with: 7 3 0  and 6 5 0 
3623260		 # 	collision with: 2 3 0  and 4 3 0 
3623262		 # 	collision with: 8 2 0  and 7 4 0 
3623264		 # 	collision with: 1 6 0  and 3 6 0 
3623266		 # 	collision with: 10 0 0  and 9 2 0 
3623277		 # 	collision with: 2 3 0  and 1 4 0 
3623279		 # 	collision with: 3 3 0  and 2 4 0 
3623296		 # 	collision with: 6 0 0  and 5 2 0 
3623298		 # 	collision with: 6 2 0  and 3 3 0 
3623324		 # 	collision with: 3 10 0  and 3 0 1 
3623326		 # 	collision with: 9 1 0  and 9 0 1 
3623337		 # 	collision with: 5 10 0  and 8 0 1 
3623339		 # 	collision with: 2 10 0  and 8 0 1 
3623361		 # 	collision with: 7 5 0  and 6 0 1 
3623363		 # 	collision with: 8 6 0  and 7 1 1 
3623396		 # 	collision with: 10 4 0  and 7 0 1 
3623398		 # 	collision with: 3 1 0  and 4 2 0 
3623409		 # 	collision with: 0 0 0  and 1 1 1 
3623411		 # 	collision with: 10 1 0  and 3 0 1 
3623424		 # 	collision with: 8 8 0  and 8 0 1 
3623451		 # 	collision with: 7 1 0  and 0 2 0 
3623454		 # 	collision with: 3 6 0  and 7 0 1 
3623524		 # 	collision with: 3 1 0  and 1 2 0 
3623526		 # 	collision with: 9 6 0  and 2 0 1 
3623529		 # 	collision with: 3 10 0  and 3 0 1 
3623531		 # 	collision with: 10 0 0  and 2 1 0 
3623552		 # 	collision with: 0 2 0  and 6 3 0 
3623554		 # 	collision with: 10 0 0  and 5 2 0 
3623569		 # 	collision with: 6 6 0  and 4 0 1 
3623571		 # 	collision with: 6 0 0  and 3 2 0 
3623580		 # 	collision with: 6 5 0  and 8 7 0 
3623582		 # 	collision with: 0 3 0  and 4 5 0 
3623617		 # 	collision with: 0 4 0  and 1 5 0 
3623619		 # 	collision with: 6 1 0  and 2 2 0 
3623641		 # 	collision with: 7 4 0  and 6 5 0 
3623643		 # 	collision with: 7 1 0  and 1 3 0 
3623652		 # 	collision with: 0 4 0  and 2 2 1 
3623654		 # 	collision with: 3 4 0  and 10 6 0 
3623680		 # 	collision with: 0 6 0  and 9 1 1 
3623682		 # 	collision with: 3 1 0  and 2 0 1 
3623701		 # 	collision with: 3 0 0  and 8 2 0 
3623703		 # 	collision with: 6 2 0  and 3 3 0 
3623708		 # 	collision with: 0 5 0  and 9 0 1 
3623710		 # 	collision with: 10 5 0  and 3 6 0 
3623712		 # 	collision with: 4 4 0  and 5 4 0 
3623714		 # 	collision with: 9 0 0  and 2 1 0 
3623716		 # 	collision with: 1 2 0  and 2 2 0 
3623718		 # 	collision with: 5 5 0  and 10 0 1 
3623720		 # 	collision with: 0 5 0  and 1 5 0 
3623722		 # 	collision with: 0 3 0  and 8 5 0 
3623724		 # 	collision with: 5 1 0  and 6 1 0 
3623726		 # 	collision with: 1 4 0  and 5 5 0 
3623728		 # 	collision with: 2 3 0  and 4 3 0 
3623730		 # 	collision with: 6 0 0  and 3 2 0 
3623732		 # 	collision with: 4 8 0  and 6 8 0 
3623734		 # 	collision with: 4 1 0  and 1 3 0 
3623736		 # 	collision with: 2 10 0  and 3 10 0 
3623738		 # 	collision with: 7 1 0  and 0 2 0 
3623740		 # 	collision with: 1 6 0  and 3 6 0 
3623742		 # 	collision with: 2 2 0  and 10 4 0 
3623744		 # 	collision with: 0 9 0  and 2 9 0 
3623748		 # 	collision with: 3 7 0  and 4 7 0 
3623750		 # 	collision with: 3 3 0  and 7 4 0 
3623761		 # 	collision with: 3 1 0  and 2 2 0 
3623763		 # 	collision with: 4 1 0  and 3 2 0 
3623780		 # 	collision with: 5 2 0  and 10 4 0 
3623808		 # 	collision with: 7 7 0  and 3 1 1 
3623810		 # 	collision with: 0 5 0  and 1 5 0 
3623821		 # 	collision with: 6 1 0  and 2 3 0 
3623823		 # 	collision with: 1 4 0  and 4 0 1 
3623845		 # 	collision with: 6 1 0  and 2 3 0 
3623847		 # 	collision with: 2 0 0  and 4 1 0 
3623880		 # 	collision with: 8 1 0  and 1 2 0 
3623882		 # 	collision with: 3 7 0  and 4 7 0 
3623895		 # 	collision with: 4 8 0  and 6 8 0 
3623910		 # 	collision with: 4 8 0  and 6 8 0 
3623933		 # 	collision with: 6 1 0  and 2 3 0 
3623935		 # 	collision with: 9 0 0  and 2 1 0 
3623936		 # 	collision with: 9 0 0  and 3 1 0 
3623938		 # 	collision with: 1 2 0  and 2 2 0 
7.85366secs	4995
