# prime 13
# degree 2
# input variables 2
# output variables 7
# p = 13
# n = 7
# smalldomain p^m 169
# domain p^n 62748517
#	 p^2 = 169
#	 p^3 = 2197
#	 p^4 = 28561
#	 p^5 = 371293
#	 p^6 = 4826809
#	 p^7 = 62748517
# dimension of the chunk  137
# number of the chunk  24 of 64 blocks
# functions to test 137
# startcode = 3288  :: endcode = 3425:: fdomain = 137
3294
3295
3346
3347
3395
# 0.612936secs	# 5 balance functions. Density 0.0364964
