# prime 13
# degree 2
# input variables 2
# output variables 3
# reload computed balance functions from file balance-29of64-p13d2m2-debug.log
# p = 13
# n = 3
# smalldomain p^m 169
# domain p^n 2197
#	 p^2 = 169
#	 p^3 = 2197
#	 p^4 = 28561
#	 p^5 = 371293
opening file : balance-29of64-p13d2m2-debug.log
reloading for step2...
4018		 # 	collision with: 2 0 0  and 2 1 0 
 # max = 15
4019		 # 	collision with: 7 0 0  and 7 1 0 
 # max = 20
4095		 # 	collision with: 2 6 0  and 2 7 0 
 # max = 93
0.0207924secs	93 25
