# prime 19
# degree 3
# input variables 2
# output variables 7
# p = 19
# n = 7
# smalldomain p^m 361
# domain p^n 893871739
#	 p^2 = 361
#	 p^3 = 6859
#	 p^4 = 130321
#	 p^5 = 2476099
#	 p^6 = 47045881
#	 p^7 = 893871739
#	 p^8 = 16983563041
#	 p^9 = 322687697779
# dimension of the chunk  4837
# number of the chunk  1414 of 2047 blocks
# functions to test 4837
# startcode = 6839518  :: endcode = 6844355:: fdomain = 4837
6839524
6840076
6840077
6841008
6841520
6841521
6842932
6842964
6842965
6843549
6843739
# 62.4711secs	# 11 balance functions. Density 0.00227414
