# prime 19
# degree 3
# input variables 2
# output variables 7
# p = 19
# n = 7
# smalldomain p^m 361
# domain p^n 893871739
#	 p^2 = 361
#	 p^3 = 6859
#	 p^4 = 130321
#	 p^5 = 2476099
#	 p^6 = 47045881
#	 p^7 = 893871739
#	 p^8 = 16983563041
#	 p^9 = 322687697779
# dimension of the chunk  4837
# number of the chunk  1676 of 2047 blocks
# functions to test 4837
# startcode = 8106812  :: endcode = 8111649:: fdomain = 4837
8107017
8108247
8108269
8108413
8108493
8110188
8110189
8110948
8111632
8111633
# 69.8579secs	# 10 balance functions. Density 0.0020674
