# prime 19
# degree 3
# input variables 2
# output variables 7
# p = 19
# n = 7
# smalldomain p^m 361
# domain p^n 893871739
#	 p^2 = 361
#	 p^3 = 6859
#	 p^4 = 130321
#	 p^5 = 2476099
#	 p^6 = 47045881
#	 p^7 = 893871739
#	 p^8 = 16983563041
#	 p^9 = 322687697779
# dimension of the chunk  4837
# number of the chunk  276 of 2047 blocks
# functions to test 4837
# startcode = 1335012  :: endcode = 1339849:: fdomain = 4837
1336384
1336385
1337871
1337930
1338108
1338860
1338875
# 60.6288secs	# 7 balance functions. Density 0.00144718
