# prime 19
# degree 3
# input variables 2
# output variables 7
# p = 19
# n = 7
# smalldomain p^m 361
# domain p^n 893871739
#	 p^2 = 361
#	 p^3 = 6859
#	 p^4 = 130321
#	 p^5 = 2476099
#	 p^6 = 47045881
#	 p^7 = 893871739
#	 p^8 = 16983563041
#	 p^9 = 322687697779
# dimension of the chunk  4837
# number of the chunk  1337 of 2047 blocks
# functions to test 4837
# startcode = 6467069  :: endcode = 6471906:: fdomain = 4837
6467284
6467317
6468084
6468588
6468589
6470032
6470033
6470824
6471476
6471477
6471812
# 65.8057secs	# 11 balance functions. Density 0.00227414
