# prime 19
# degree 3
# input variables 2
# output variables 7
# p = 19
# n = 7
# smalldomain p^m 361
# domain p^n 893871739
#	 p^2 = 361
#	 p^3 = 6859
#	 p^4 = 130321
#	 p^5 = 2476099
#	 p^6 = 47045881
#	 p^7 = 893871739
#	 p^8 = 16983563041
#	 p^9 = 322687697779
# dimension of the chunk  4837
# number of the chunk  1136 of 2047 blocks
# functions to test 4837
# startcode = 5494832  :: endcode = 5499669:: fdomain = 4837
5496515
5496548
5496549
5497029
5497163
5497542
5497992
5497993
5498160
5499336
5499436
5499437
5499568
# 63.7332secs	# 13 balance functions. Density 0.00268762
