# prime 19
# degree 3
# input variables 2
# output variables 7
# p = 19
# n = 7
# smalldomain p^m 361
# domain p^n 893871739
#	 p^2 = 361
#	 p^3 = 6859
#	 p^4 = 130321
#	 p^5 = 2476099
#	 p^6 = 47045881
#	 p^7 = 893871739
#	 p^8 = 16983563041
#	 p^9 = 322687697779
# dimension of the chunk  4837
# number of the chunk  2033 of 2047 blocks
# functions to test 4837
# startcode = 9833621  :: endcode = 9838458:: fdomain = 4837
9834206
9834454
9834788
9835312
9835313
9835386
9835398
9836196
9836756
9836757
9836762
9836857
9836881
9836902
9837620
# 60.9372secs	# 15 balance functions. Density 0.0031011
