# prime 19
# degree 3
# input variables 2
# output variables 7
# p = 19
# n = 7
# smalldomain p^m 361
# domain p^n 893871739
#	 p^2 = 361
#	 p^3 = 6859
#	 p^4 = 130321
#	 p^5 = 2476099
#	 p^6 = 47045881
#	 p^7 = 893871739
#	 p^8 = 16983563041
#	 p^9 = 322687697779
# dimension of the chunk  4837
# number of the chunk  861 of 2047 blocks
# functions to test 4837
# startcode = 4164657  :: endcode = 4169494:: fdomain = 4837
4165062
4165236
4165245
4165321
4166016
4166017
4166306
4166720
4167200
4167460
4167461
4169037
# 58.0362secs	# 12 balance functions. Density 0.00248088
