# prime 19
# degree 3
# input variables 2
# output variables 7
# p = 19
# n = 7
# smalldomain p^m 361
# domain p^n 893871739
#	 p^2 = 361
#	 p^3 = 6859
#	 p^4 = 130321
#	 p^5 = 2476099
#	 p^6 = 47045881
#	 p^7 = 893871739
#	 p^8 = 16983563041
#	 p^9 = 322687697779
# dimension of the chunk  4837
# number of the chunk  1808 of 2047 blocks
# functions to test 4837
# startcode = 8745296  :: endcode = 8750133:: fdomain = 4837
8745557
8745864
8746163
8746620
8746688
8746689
8747272
8748132
8748133
8749664
8749774
8749965
8750012
# 57.6507secs	# 13 balance functions. Density 0.00268762
