# prime 19
# degree 3
# input variables 2
# output variables 7
# p = 19
# n = 7
# smalldomain p^m 361
# domain p^n 893871739
#	 p^2 = 361
#	 p^3 = 6859
#	 p^4 = 130321
#	 p^5 = 2476099
#	 p^6 = 47045881
#	 p^7 = 893871739
#	 p^8 = 16983563041
#	 p^9 = 322687697779
# dimension of the chunk  4837
# number of the chunk  1697 of 2047 blocks
# functions to test 4837
# startcode = 8208389  :: endcode = 8213226:: fdomain = 4837
8208389
8208445
8209039
8209520
8209521
8209891
8209926
8210192
8211150
8211676
8212262
8212288
8212408
8212409
# 65.8541secs	# 14 balance functions. Density 0.00289436
