# prime 19
# degree 3
# input variables 2
# output variables 7
# p = 19
# n = 7
# smalldomain p^m 361
# domain p^n 893871739
#	 p^2 = 361
#	 p^3 = 6859
#	 p^4 = 130321
#	 p^5 = 2476099
#	 p^6 = 47045881
#	 p^7 = 893871739
#	 p^8 = 16983563041
#	 p^9 = 322687697779
# dimension of the chunk  4837
# number of the chunk  1849 of 2047 blocks
# functions to test 4837
# startcode = 8943613  :: endcode = 8948450:: fdomain = 4837
8944591
8945540
8945544
8946796
8946797
8946923
8948240
8948241
# 61.0355secs	# 8 balance functions. Density 0.00165392
