# prime 19
# degree 3
# input variables 2
# output variables 7
# p = 19
# n = 7
# smalldomain p^m 361
# domain p^n 893871739
#	 p^2 = 361
#	 p^3 = 6859
#	 p^4 = 130321
#	 p^5 = 2476099
#	 p^6 = 47045881
#	 p^7 = 893871739
#	 p^8 = 16983563041
#	 p^9 = 322687697779
# dimension of the chunk  4837
# number of the chunk  49 of 2047 blocks
# functions to test 4837
# startcode = 237013  :: endcode = 241850:: fdomain = 4837
237128
238005
238159
238224
238333
238335
238688
239777
239779
240327
240540
240541
240719
240964
241732
# 72.7899secs	# 15 balance functions. Density 0.0031011
