# prime 19
# degree 3
# input variables 2
# output variables 4
# reload computed balance functions from file balance-1195of2048-p19d3m2-debug.log
# p = 19
# n = 4
# smalldomain p^m 361
# domain p^n 130321
#	 p^2 = 361
#	 p^3 = 6859
#	 p^4 = 130321
#	 p^5 = 2476099
#	 p^6 = 47045881
#	 p^7 = 893871739
#	 p^8 = 16983563041
#	 p^9 = 322687697779
opening file : balance-1195of2048-p19d3m2-debug.log
reloading for step2...
5780256		 # 	collision with: 11 11 11 0  and 0 0 0 1 
 # max = 6859
5780257		 # 	collision with: 6 5 13 0  and 13 0 0 1 
 # max = 6872
5780391		 # 	collision with: 9 1 0 0  and 10 1 0 0 
 # max = 6872
5781700		 # 	collision with: 8 14 11 0  and 0 0 0 1 
 # max = 6872
5781701		 # 	collision with: 3 16 13 0  and 4 0 0 1 
 # max = 6872
5781776		 # 	collision with: 9 4 0 0  and 10 4 0 0 
 # max = 6872
5782399		 # 	collision with: 1 4 0 0  and 11 4 0 0 
 # max = 6872
5783144		 # 	collision with: 9 5 11 0  and 5 0 0 1 
 # max = 6872
5783145		 # 	collision with: 1 8 13 0  and 14 1 0 1 
 # max = 6892
5783454		 # 	collision with: 1 3 0 0  and 3 3 0 0 
 # max = 6892
5783786		 # 	collision with: 9 2 0 0  and 16 2 0 0 
 # max = 6892
11.0815secs	6892 4613
