# prime 19
# degree 3
# input variables 2
# output variables 4
# reload computed balance functions from file balance-1770of2048-p19d3m2-debug.log
# p = 19
# n = 4
# smalldomain p^m 361
# domain p^n 130321
#	 p^2 = 361
#	 p^3 = 6859
#	 p^4 = 130321
#	 p^5 = 2476099
#	 p^6 = 47045881
#	 p^7 = 893871739
#	 p^8 = 16983563041
#	 p^9 = 322687697779
opening file : balance-1770of2048-p19d3m2-debug.log
reloading for step2...
8562312		 # 	collision with: 10 6 2 0  and 5 1 0 1 
 # max = 6883
8562313		 # 	collision with: 10 2 7 0  and 15 0 0 1 
 # max = 6883
8562819		 # 	collision with: 12 0 0 0  and 13 0 0 0 
 # max = 6883
8562870		 # 	collision with: 5 0 0 0  and 18 0 0 0 
 # max = 6883
8563756		 # 	collision with: 16 7 2 0  and 4 0 0 1 
 # max = 6883
8563757		 # 	collision with: 2 9 7 0  and 6 1 0 1 
 # max = 6884
8563884		 # 	collision with: 1 3 0 0  and 14 3 0 0 
 # max = 6884
8564738		 # 	collision with: 14 2 0 0  and 15 2 0 0 
 # max = 6884
8565150		 # 	collision with: 3 0 0 0  and 13 0 0 0 
 # max = 6884
8565200		 # 	collision with: 0 0 0 0  and 1 1 1 1 
 # max = 7240
8565201		 # 	collision with: 8 16 7 0  and 3 0 0 1 
 # max = 7240
8565216		 # 	collision with: 9 2 0 0  and 17 2 0 0 
 # max = 7240
8565867		 # 	collision with: 0 2 0 0  and 18 2 0 0 
 # max = 7240
8566235		 # 	collision with: 7 0 0 0  and 12 0 0 0 
 # max = 7240
8566241		 # 	collision with: 9 1 0 0  and 13 1 0 0 
 # max = 7240
9.34781secs	7240 4658
