# prime 19
# degree 3
# input variables 2
# output variables 5
# reload computed balance functions from file balance-201of2048-p19d3m2-debug.log
# p = 19
# n = 5
# smalldomain p^m 361
# domain p^n 2476099
#	 p^2 = 361
#	 p^3 = 6859
#	 p^4 = 130321
#	 p^5 = 2476099
#	 p^6 = 47045881
#	 p^7 = 893871739
#	 p^8 = 16983563041
#	 p^9 = 322687697779
opening file : balance-201of2048-p19d3m2-debug.log
reloading for step2...
972592		 # 	collision with: 2 0 0 0 0  and 12 0 0 0 0 
 # max = 12
972812		 # 	collision with: 0 0 0 0 0  and 6 0 0 0 0 
 # max = 12
973484		 # 	collision with: 4 11 3 6 0  and 0 0 0 0 1 
 # max = 130321
973485		 # 	collision with: 8 3 2 18 0  and 3 0 0 0 1 
 # max = 130324
973490		 # 	collision with: 7 0 0 0 0  and 9 0 0 0 0 
 # max = 130324
974152		 # 	collision with: 4 0 0 0 0  and 13 0 0 0 0 
 # max = 130324
974928		 # 	collision with: 15 16 6 6 0  and 7 1 0 0 1 
 # max = 130347
974929		 # 	collision with: 16 6 17 18 0  and 8 5 0 0 1 
 # max = 130424
975002		 # 	collision with: 10 0 0 0 0  and 12 0 0 0 0 
 # max = 130424
975552		 # 	collision with: 7 0 0 0 0  and 10 0 0 0 0 
 # max = 130424
976144		 # 	collision with: 9 2 0 0 0  and 10 2 0 0 0 
 # max = 130424
976960		 # 	collision with: 5 0 0 0 0  and 9 0 0 0 0 
 # max = 130424
143.696secs	130424 57948
