# prime 19
# degree 3
# input variables 2
# output variables 4
# reload computed balance functions from file balance-1288of2048-p19d3m2-debug.log
# p = 19
# n = 4
# smalldomain p^m 361
# domain p^n 130321
#	 p^2 = 361
#	 p^3 = 6859
#	 p^4 = 130321
#	 p^5 = 2476099
#	 p^6 = 47045881
#	 p^7 = 893871739
#	 p^8 = 16983563041
#	 p^9 = 322687697779
opening file : balance-1288of2048-p19d3m2-debug.log
reloading for step2...
6230196		 # 	collision with: 2 0 0 0  and 15 0 0 0 
 # max = 15
6230936		 # 	collision with: 4 6 8 0  and 5 0 0 1 
 # max = 6864
6230937		 # 	collision with: 0 1 6 0  and 6 0 0 1 
 # max = 6865
6232254		 # 	collision with: 12 0 0 0  and 15 0 0 0 
 # max = 6865
6232380		 # 	collision with: 0 3 8 0  and 7 4 0 1 
 # max = 6942
6232381		 # 	collision with: 12 12 6 0  and 0 0 0 1 
 # max = 6942
6233240		 # 	collision with: 10 0 0 0  and 16 0 0 0 
 # max = 6942
6233421		 # 	collision with: 10 0 0 0  and 12 0 0 0 
 # max = 6942
6234800		 # 	collision with: 6 2 0 0  and 5 6 0 0 
 # max = 6942
6.70769secs	6942 3078
