# prime 19
# degree 3
# input variables 2
# output variables 5
# reload computed balance functions from file balance-1204of2048-p19d3m2-debug.log
# p = 19
# n = 5
# smalldomain p^m 361
# domain p^n 2476099
#	 p^2 = 361
#	 p^3 = 6859
#	 p^4 = 130321
#	 p^5 = 2476099
#	 p^6 = 47045881
#	 p^7 = 893871739
#	 p^8 = 16983563041
#	 p^9 = 322687697779
opening file : balance-1204of2048-p19d3m2-debug.log
reloading for step2...
5824667		 # 	collision with: 9 0 0 0 0  and 13 0 0 0 0 
 # max = 13
5825992		 # 	collision with: 5 0 0 0 0  and 7 0 0 0 0 
 # max = 13
5826312		 # 	collision with: 14 12 4 10 0  and 2 0 0 0 1 
 # max = 130323
5826313		 # 	collision with: 1 17 17 17 0  and 17 0 0 0 1 
 # max = 130338
5826504		 # 	collision with: 2 0 0 0 0  and 6 0 0 0 0 
 # max = 130338
5826893		 # 	collision with: 3 2 0 0 0  and 18 2 0 0 0 
 # max = 130338
5826914		 # 	collision with: 10 1 0 0 0  and 14 1 0 0 0 
 # max = 130338
5827476		 # 	collision with: 12 1 0 0 0  and 15 1 0 0 0 
 # max = 130338
5827729		 # 	collision with: 11 1 0 0 0  and 12 2 0 0 0 
 # max = 130338
5827836		 # 	collision with: 0 3 0 0 0  and 8 3 0 0 0 
 # max = 130338
5828286		 # 	collision with: 0 0 0 0 0  and 11 0 0 0 0 
 # max = 130338
81.352secs	130338 28992
