# prime 19
# degree 3
# input variables 2
# output variables 3
# reload computed balance functions from file balance-853of2048-p19d3m2-debug.log
# p = 19
# n = 3
# smalldomain p^m 361
# domain p^n 6859
#	 p^2 = 361
#	 p^3 = 6859
#	 p^4 = 130321
#	 p^5 = 2476099
#	 p^6 = 47045881
#	 p^7 = 893871739
#	 p^8 = 16983563041
#	 p^9 = 322687697779
opening file : balance-853of2048-p19d3m2-debug.log
reloading for step2...
4126064		 # 	collision with: 9 0 0  and 18 0 0 
 # max = 18
4126978		 # 	collision with: 0 2 0  and 2 2 0 
 # max = 40
4128548		 # 	collision with: 9 7 0  and 1 4 1 
 # max = 438
4128549		 # 	collision with: 3 10 0  and 0 1 1 
 # max = 438
4128804		 # 	collision with: 0 2 0  and 18 2 0 
 # max = 438
4128962		 # 	collision with: 15 0 0  and 16 0 0 
 # max = 438
4129992		 # 	collision with: 15 6 0  and 1 0 1 
 # max = 438
4129993		 # 	collision with: 0 0 0  and 1 1 1 
 # max = 438
4130268		 # 	collision with: 10 1 0  and 17 1 0 
 # max = 438
4130418		 # 	collision with: 10 2 0  and 18 2 0 
 # max = 438
0.479573secs	438 198
