# prime 19
# degree 3
# input variables 2
# output variables 3
# reload computed balance functions from file balance-925of2048-p19d3m2-debug.log
# p = 19
# n = 3
# smalldomain p^m 361
# domain p^n 6859
#	 p^2 = 361
#	 p^3 = 6859
#	 p^4 = 130321
#	 p^5 = 2476099
#	 p^6 = 47045881
#	 p^7 = 893871739
#	 p^8 = 16983563041
#	 p^9 = 322687697779
opening file : balance-925of2048-p19d3m2-debug.log
reloading for step2...
4475112		 # 	collision with: 15 1 0  and 16 4 0 
 # max = 92
4475125		 # 	collision with: 1 2 0  and 1 3 0 
 # max = 92
4475383		 # 	collision with: 0 1 0  and 9 1 0 
 # max = 92
4475564		 # 	collision with: 7 18 0  and 15 0 1 
 # max = 376
4475565		 # 	collision with: 14 13 0  and 12 0 1 
 # max = 376
4476252		 # 	collision with: 9 1 0  and 9 2 0 
 # max = 376
4476587		 # 	collision with: 6 1 0  and 12 1 0 
 # max = 376
4476609		 # 	collision with: 11 0 0  and 13 0 0 
 # max = 376
4476687		 # 	collision with: 5 1 0  and 12 1 0 
 # max = 376
4476722		 # 	collision with: 5 2 0  and 7 2 0 
 # max = 376
4477008		 # 	collision with: 8 5 0  and 7 3 1 
 # max = 425
4477009		 # 	collision with: 7 15 0  and 9 1 1 
 # max = 425
4477660		 # 	collision with: 0 0 0  and 0 1 0 
 # max = 425
4478992		 # 	collision with: 1 1 0  and 2 1 0 
 # max = 425
0.429192secs	425 216
