# prime 19
# degree 3
# input variables 2
# output variables 4
# reload computed balance functions from file balance-273of2048-p19d3m2-debug.log
# p = 19
# n = 4
# smalldomain p^m 361
# domain p^n 130321
#	 p^2 = 361
#	 p^3 = 6859
#	 p^4 = 130321
#	 p^5 = 2476099
#	 p^6 = 47045881
#	 p^7 = 893871739
#	 p^8 = 16983563041
#	 p^9 = 322687697779
opening file : balance-273of2048-p19d3m2-debug.log
reloading for step2...
1320556		 # 	collision with: 0 1 0 0  and 8 1 0 0 
 # max = 27
1321632		 # 	collision with: 14 4 0 0  and 16 4 0 0 
 # max = 92
1321944		 # 	collision with: 7 8 4 0  and 2 3 0 1 
 # max = 6918
1321945		 # 	collision with: 18 18 8 0  and 6 0 0 1 
 # max = 6918
1321953		 # 	collision with: 0 1 0 0  and 8 1 0 0 
 # max = 6918
1322964		 # 	collision with: 12 0 0 0  and 15 0 0 0 
 # max = 6918
1324003		 # 	collision with: 3 0 0 0  and 16 0 0 0 
 # max = 6918
1324053		 # 	collision with: 13 4 0 0  and 15 4 0 0 
 # max = 6918
1324897		 # 	collision with: 4 2 0 0  and 18 2 0 0 
 # max = 6918
1324962		 # 	collision with: 3 0 0 0  and 18 0 0 0 
 # max = 6918
1325084		 # 	collision with: 7 0 0 0  and 15 0 0 0 
 # max = 6918
4.20828secs	6918 1571
