# prime 19
# degree 3
# input variables 2
# output variables 3
# reload computed balance functions from file balance-681of2048-p19d3m2-debug.log
# p = 19
# n = 3
# smalldomain p^m 361
# domain p^n 6859
#	 p^2 = 361
#	 p^3 = 6859
#	 p^4 = 130321
#	 p^5 = 2476099
#	 p^6 = 47045881
#	 p^7 = 893871739
#	 p^8 = 16983563041
#	 p^9 = 322687697779
opening file : balance-681of2048-p19d3m2-debug.log
reloading for step2...
3294284		 # 	collision with: 12 1 0  and 14 1 0 
 # max = 33
3294388		 # 	collision with: 14 2 0  and 17 2 0 
 # max = 55
3294550		 # 	collision with: 2 0 0  and 9 0 0 
 # max = 55
3294752		 # 	collision with: 12 1 0  and 3 0 1 
 # max = 364
3294753		 # 	collision with: 12 14 0  and 3 0 1 
 # max = 364
3295510		 # 	collision with: 0 1 0  and 6 1 0 
 # max = 364
3295948		 # 	collision with: 4 0 0  and 7 0 0 
 # max = 364
3296196		 # 	collision with: 18 8 0  and 0 2 1 
 # max = 399
3296197		 # 	collision with: 9 8 0  and 16 1 1 
 # max = 399
3296974		 # 	collision with: 1 3 0  and 3 3 0 
 # max = 399
0.413817secs	399 190
