# prime 19
# degree 3
# input variables 2
# output variables 3
# reload computed balance functions from file balance-1246of2048-p19d3m2-debug.log
# p = 19
# n = 3
# smalldomain p^m 361
# domain p^n 6859
#	 p^2 = 361
#	 p^3 = 6859
#	 p^4 = 130321
#	 p^5 = 2476099
#	 p^6 = 47045881
#	 p^7 = 893871739
#	 p^8 = 16983563041
#	 p^9 = 322687697779
opening file : balance-1246of2048-p19d3m2-debug.log
reloading for step2...
6027628		 # 	collision with: 10 0 0  and 14 2 0 
 # max = 52
6027940		 # 	collision with: 7 10 0  and 8 1 1 
 # max = 388
6027941		 # 	collision with: 17 7 0  and 9 0 1 
 # max = 388
6029014		 # 	collision with: 5 4 0  and 9 4 0 
 # max = 388
6029127		 # 	collision with: 0 3 0  and 16 3 0 
 # max = 388
6030368		 # 	collision with: 16 0 0  and 18 0 0 
 # max = 388
0.264591secs	388 109
