# prime 19
# degree 3
# input variables 2
# output variables 4
# reload computed balance functions from file balance-1479of2048-p19d3m2-debug.log
# p = 19
# n = 4
# smalldomain p^m 361
# domain p^n 130321
#	 p^2 = 361
#	 p^3 = 6859
#	 p^4 = 130321
#	 p^5 = 2476099
#	 p^6 = 47045881
#	 p^7 = 893871739
#	 p^8 = 16983563041
#	 p^9 = 322687697779
opening file : balance-1479of2048-p19d3m2-debug.log
reloading for step2...
7154160		 # 	collision with: 12 0 0 0  and 13 0 0 0 
 # max = 13
7154875		 # 	collision with: 5 3 0 0  and 18 3 0 0 
 # max = 75
7154925		 # 	collision with: 7 0 0 0  and 16 0 0 0 
 # max = 75
7155342		 # 	collision with: 2 0 0 0  and 5 0 0 0 
 # max = 75
7155476		 # 	collision with: 1 8 1 0  and 0 0 0 1 
 # max = 6859
7155477		 # 	collision with: 10 3 7 0  and 1 0 0 1 
 # max = 6860
7158364		 # 	collision with: 1 16 1 0  and 0 0 0 1 
 # max = 6860
7158365		 # 	collision with: 11 12 7 0  and 16 0 0 1 
 # max = 6875
7158688		 # 	collision with: 4 0 0 0  and 7 0 0 0 
 # max = 6875
7.44641secs	6875 3063
