# prime 19
# degree 3
# input variables 2
# output variables 3
# reload computed balance functions from file balance-1459of2048-p19d3m2-debug.log
# p = 19
# n = 3
# smalldomain p^m 361
# domain p^n 6859
#	 p^2 = 361
#	 p^3 = 6859
#	 p^4 = 130321
#	 p^5 = 2476099
#	 p^6 = 47045881
#	 p^7 = 893871739
#	 p^8 = 16983563041
#	 p^9 = 322687697779
opening file : balance-1459of2048-p19d3m2-debug.log
reloading for step2...
7057410		 # 	collision with: 12 2 0  and 12 3 0 
 # max = 69
7057577		 # 	collision with: 0 1 0  and 14 1 0 
 # max = 69
7057680		 # 	collision with: 15 0 0  and 18 0 0 
 # max = 69
7058939		 # 	collision with: 11 0 0  and 14 0 0 
 # max = 69
7059088		 # 	collision with: 3 1 0  and 8 1 0 
 # max = 69
7059872		 # 	collision with: 7 1 0  and 15 1 0 
 # max = 69
7060143		 # 	collision with: 8 0 0  and 17 0 0 
 # max = 69
7060400		 # 	collision with: 0 7 0  and 1 0 1 
 # max = 362
7060401		 # 	collision with: 17 9 0  and 15 3 1 
 # max = 433
7061432		 # 	collision with: 2 2 0  and 10 2 0 
 # max = 433
7061828		 # 	collision with: 14 0 0  and 15 0 0 
 # max = 433
7061844		 # 	collision with: 12 16 0  and 4 2 1 
 # max = 433
7061845		 # 	collision with: 4 11 0  and 0 0 1 
 # max = 433
0.442958secs	433 203
