# prime 19
# degree 3
# input variables 2
# output variables 3
# reload computed balance functions from file balance-777of2048-p19d3m2-debug.log
# p = 19
# n = 3
# smalldomain p^m 361
# domain p^n 6859
#	 p^2 = 361
#	 p^3 = 6859
#	 p^4 = 130321
#	 p^5 = 2476099
#	 p^6 = 47045881
#	 p^7 = 893871739
#	 p^8 = 16983563041
#	 p^9 = 322687697779
opening file : balance-777of2048-p19d3m2-debug.log
reloading for step2...
3758504		 # 	collision with: 3 14 0  and 4 3 1 
 # max = 422
3758505		 # 	collision with: 1 3 0  and 3 0 1 
 # max = 422
3759356		 # 	collision with: 2 2 0  and 2 4 0 
 # max = 422
3759400		 # 	collision with: 2 1 0  and 6 1 0 
 # max = 422
3760732		 # 	collision with: 1 1 0  and 5 1 0 
 # max = 422
3760916		 # 	collision with: 6 1 0  and 16 1 0 
 # max = 422
3761316		 # 	collision with: 4 16 0  and 14 0 1 
 # max = 422
3761317		 # 	collision with: 3 7 0  and 6 0 1 
 # max = 422
3761907		 # 	collision with: 2 1 0  and 12 1 0 
 # max = 422
3762400		 # 	collision with: 3 0 0  and 13 0 0 
 # max = 422
0.266382secs	422 192
