# prime 19
# degree 3
# input variables 2
# output variables 5
# reload computed balance functions from file balance-634of2048-p19d3m2-debug.log
# p = 19
# n = 5
# smalldomain p^m 361
# domain p^n 2476099
#	 p^2 = 361
#	 p^3 = 6859
#	 p^4 = 130321
#	 p^5 = 2476099
#	 p^6 = 47045881
#	 p^7 = 893871739
#	 p^8 = 16983563041
#	 p^9 = 322687697779
opening file : balance-634of2048-p19d3m2-debug.log
reloading for step2...
3067056		 # 	collision with: 9 4 0 0 0  and 10 4 0 0 0 
 # max = 86
3067225		 # 	collision with: 4 0 0 0 0  and 12 0 0 0 0 
 # max = 86
3067284		 # 	collision with: 2 11 5 11 0  and 1 2 0 0 1 
 # max = 130360
3067285		 # 	collision with: 7 3 8 4 0  and 4 0 0 0 1 
 # max = 130360
3068173		 # 	collision with: 0 2 0 0 0  and 7 2 0 0 0 
 # max = 130360
3070153		 # 	collision with: 6 0 0 0 0  and 10 0 0 0 0 
 # max = 130360
3070172		 # 	collision with: 10 4 4 11 0  and 2 0 0 0 1 
 # max = 130360
3070173		 # 	collision with: 16 3 15 4 0  and 12 0 0 0 1 
 # max = 130360
3071447		 # 	collision with: 14 0 0 0 0  and 17 0 0 0 0 
 # max = 130360
143.729secs	130360 57945
