# prime 19
# degree 3
# input variables 2
# output variables 5
# reload computed balance functions from file balance-88of2048-p19d3m2-debug.log
# p = 19
# n = 5
# smalldomain p^m 361
# domain p^n 2476099
#	 p^2 = 361
#	 p^3 = 6859
#	 p^4 = 130321
#	 p^5 = 2476099
#	 p^6 = 47045881
#	 p^7 = 893871739
#	 p^8 = 16983563041
#	 p^9 = 322687697779
opening file : balance-88of2048-p19d3m2-debug.log
reloading for step2...
425701		 # 	collision with: 11 0 0 0 0  and 17 0 0 0 0 
 # max = 17
426284		 # 	collision with: 13 7 7 7 1  and 10 1 1 1 2 
 # max = 267891
426285		 # 	collision with: 12 8 2 9 0  and 14 0 0 0 1 
 # max = 267891
426381		 # 	collision with: 1 1 0 0 0  and 1 3 0 0 0 
 # max = 267891
426980		 # 	collision with: 12 0 0 0 0  and 18 0 0 0 0 
 # max = 267891
427728		 # 	collision with: 6 17 12 10 1  and 3 5 1 1 2 
 # max = 267960
427729		 # 	collision with: 11 1 3 9 0  and 12 0 0 0 1 
 # max = 267960
428941		 # 	collision with: 0 0 14 9 0  and 7 2 0 0 1 
 # max = 267960
428943		 # 	collision with: 12 17 17 5 0  and 0 0 0 1 1 
 # max = 267960
429172		 # 	collision with: 6 8 8 3 1  and 13 4 1 1 2 
 # max = 267960
429173		 # 	collision with: 5 7 6 9 0  and 11 1 0 0 1 
 # max = 267960
429720		 # 	collision with: 10 0 0 0 0  and 15 0 0 0 0 
 # max = 267960
430385		 # 	collision with: 0 13 7 9 0  and 5 0 1 0 1 
 # max = 267960
430387		 # 	collision with: 15 7 18 13 0  and 9 0 0 1 1 
 # max = 267960
532.448secs	267960 192261
