# prime 19
# degree 3
# input variables 2
# output variables 5
# reload computed balance functions from file balance-1063of2048-p19d3m2-debug.log
# p = 19
# n = 5
# smalldomain p^m 361
# domain p^n 2476099
#	 p^2 = 361
#	 p^3 = 6859
#	 p^4 = 130321
#	 p^5 = 2476099
#	 p^6 = 47045881
#	 p^7 = 893871739
#	 p^8 = 16983563041
#	 p^9 = 322687697779
opening file : balance-1063of2048-p19d3m2-debug.log
reloading for step2...
5142240		 # 	collision with: 3 0 0 0 0  and 13 0 0 0 0 
 # max = 13
5142450		 # 	collision with: 5 5 0 0 0  and 8 5 0 0 0 
 # max = 103
5142777		 # 	collision with: 2 3 0 0 0  and 18 3 0 0 0 
 # max = 103
5143393		 # 	collision with: 9 0 0 0 0  and 17 0 0 0 0 
 # max = 103
5143756		 # 	collision with: 18 8 8 16 0  and 11 5 0 0 1 
 # max = 130427
5143757		 # 	collision with: 10 3 2 9 0  and 3 2 0 0 1 
 # max = 130427
5143900		 # 	collision with: 7 2 0 0 0  and 16 2 0 0 0 
 # max = 130427
5144279		 # 	collision with: 6 2 0 0 0  and 10 2 0 0 0 
 # max = 130427
5145200		 # 	collision with: 6 9 4 16 0  and 4 1 0 0 1 
 # max = 130427
5145201		 # 	collision with: 3 4 13 9 0  and 0 1 0 0 1 
 # max = 130427
5145284		 # 	collision with: 13 1 0 0 0  and 7 2 0 0 0 
 # max = 130427
174.333secs	130427 57980
