# prime 19
# degree 3
# input variables 2
# output variables 3
# reload computed balance functions from file balance-574of2048-p19d3m2-debug.log
# p = 19
# n = 3
# smalldomain p^m 361
# domain p^n 6859
#	 p^2 = 361
#	 p^3 = 6859
#	 p^4 = 130321
#	 p^5 = 2476099
#	 p^6 = 47045881
#	 p^7 = 893871739
#	 p^8 = 16983563041
#	 p^9 = 322687697779
opening file : balance-574of2048-p19d3m2-debug.log
reloading for step2...
2777245		 # 	collision with: 6 0 0  and 9 0 0 
 # max = 9
2777800		 # 	collision with: 10 4 0  and 4 0 1 
 # max = 365
2777801		 # 	collision with: 0 17 0  and 8 0 1 
 # max = 369
2778256		 # 	collision with: 1 8 0  and 1 10 0 
 # max = 369
2778516		 # 	collision with: 11 1 0  and 15 1 0 
 # max = 369
2779308		 # 	collision with: 0 1 0  and 8 1 0 
 # max = 369
2779650		 # 	collision with: 4 3 0  and 4 5 0 
 # max = 369
2779924		 # 	collision with: 4 1 0  and 13 1 0 
 # max = 369
2780101		 # 	collision with: 6 0 0  and 9 0 0 
 # max = 369
2780266		 # 	collision with: 11 0 0  and 15 0 0 
 # max = 369
2780792		 # 	collision with: 12 3 0  and 14 3 0 
 # max = 369
2781203		 # 	collision with: 13 1 0  and 17 1 0 
 # max = 369
0.195518secs	369 139
