# prime 19
# degree 3
# input variables 2
# output variables 4
# reload computed balance functions from file balance-819of2048-p19d3m2-debug.log
# p = 19
# n = 4
# smalldomain p^m 361
# domain p^n 130321
#	 p^2 = 361
#	 p^3 = 6859
#	 p^4 = 130321
#	 p^5 = 2476099
#	 p^6 = 47045881
#	 p^7 = 893871739
#	 p^8 = 16983563041
#	 p^9 = 322687697779
opening file : balance-819of2048-p19d3m2-debug.log
reloading for step2...
3962523		 # 	collision with: 15 2 0 0  and 2 3 0 0 
 # max = 59
3962702		 # 	collision with: 11 0 0 0  and 15 0 0 0 
 # max = 59
3962959		 # 	collision with: 8 0 0 0  and 9 0 0 0 
 # max = 59
3964388		 # 	collision with: 9 6 11 0  and 6 0 0 1 
 # max = 6865
3964389		 # 	collision with: 11 8 6 0  and 2 1 0 1 
 # max = 6880
3965283		 # 	collision with: 10 4 0 0  and 9 5 0 0 
 # max = 6880
3965832		 # 	collision with: 8 14 11 0  and 0 0 0 1 
 # max = 6880
3965833		 # 	collision with: 16 9 6 0  and 18 0 0 1 
 # max = 6880
5.80696secs	6880 3074
