# prime 19
# degree 3
# input variables 2
# output variables 4
# reload computed balance functions from file balance-1112of2048-p19d3m2-debug.log
# p = 19
# n = 4
# smalldomain p^m 361
# domain p^n 130321
#	 p^2 = 361
#	 p^3 = 6859
#	 p^4 = 130321
#	 p^5 = 2476099
#	 p^6 = 47045881
#	 p^7 = 893871739
#	 p^8 = 16983563041
#	 p^9 = 322687697779
opening file : balance-1112of2048-p19d3m2-debug.log
reloading for step2...
5379212		 # 	collision with: 10 0 0 0  and 16 0 0 0 
 # max = 16
5379888		 # 	collision with: 0 3 8 0  and 7 4 0 1 
 # max = 6942
5379889		 # 	collision with: 3 15 2 0  and 0 0 0 1 
 # max = 6942
5380456		 # 	collision with: 12 0 0 0  and 17 0 0 0 
 # max = 6942
5381332		 # 	collision with: 2 13 8 0  and 5 0 0 1 
 # max = 6942
5381333		 # 	collision with: 11 9 2 0  and 0 0 0 1 
 # max = 6942
5381531		 # 	collision with: 17 1 0 0  and 3 2 0 0 
 # max = 6942
5383401		 # 	collision with: 4 2 0 0  and 16 2 0 0 
 # max = 6942
6.44156secs	6942 3072
