# prime 19
# degree 3
# input variables 2
# output variables 3
# reload computed balance functions from file balance-2079of2048-p19d3m2-debug.log
# p = 19
# n = 3
# smalldomain p^m 361
# domain p^n 6859
#	 p^2 = 361
#	 p^3 = 6859
#	 p^4 = 130321
#	 p^5 = 2476099
#	 p^6 = 47045881
#	 p^7 = 893871739
#	 p^8 = 16983563041
#	 p^9 = 322687697779
opening file : balance-2079of2048-p19d3m2-debug.log
reloading for step2...
2.0515e-05secs	0 0
