# prime 19
# degree 3
# input variables 2
# output variables 4
# reload computed balance functions from file balance-1392of2048-p19d3m2-debug.log
# p = 19
# n = 4
# smalldomain p^m 361
# domain p^n 130321
#	 p^2 = 361
#	 p^3 = 6859
#	 p^4 = 130321
#	 p^5 = 2476099
#	 p^6 = 47045881
#	 p^7 = 893871739
#	 p^8 = 16983563041
#	 p^9 = 322687697779
opening file : balance-1392of2048-p19d3m2-debug.log
reloading for step2...
6733484		 # 	collision with: 4 0 0 0  and 13 0 0 0 
 # max = 13
6733659		 # 	collision with: 11 0 0 0  and 12 0 0 0 
 # max = 13
6733674		 # 	collision with: 11 0 0 0  and 14 0 0 0 
 # max = 14
6734968		 # 	collision with: 12 11 13 0  and 14 0 0 1 
 # max = 6873
6734969		 # 	collision with: 18 10 12 0  and 3 1 0 1 
 # max = 6881
6735543		 # 	collision with: 2 0 0 0  and 8 0 0 0 
 # max = 6881
6735602		 # 	collision with: 14 0 0 0  and 18 0 0 0 
 # max = 6881
6736412		 # 	collision with: 5 10 13 0  and 4 0 0 1 
 # max = 6881
6736413		 # 	collision with: 6 4 12 0  and 2 0 0 1 
 # max = 6881
6737074		 # 	collision with: 1 2 0 0  and 1 3 0 0 
 # max = 6881
6737569		 # 	collision with: 13 4 0 0  and 8 5 0 0 
 # max = 6881
6737820		 # 	collision with: 7 0 0 0  and 10 0 0 0 
 # max = 6881
6737938		 # 	collision with: 11 0 0 0  and 4 1 0 0 
 # max = 6881
6.60024secs	6881 3081
