# prime 19
# degree 3
# input variables 2
# output variables 3
# reload computed balance functions from file balance-1666of2048-p19d3m2-debug.log
# p = 19
# n = 3
# smalldomain p^m 361
# domain p^n 6859
#	 p^2 = 361
#	 p^3 = 6859
#	 p^4 = 130321
#	 p^5 = 2476099
#	 p^6 = 47045881
#	 p^7 = 893871739
#	 p^8 = 16983563041
#	 p^9 = 322687697779
opening file : balance-1666of2048-p19d3m2-debug.log
reloading for step2...
8059076		 # 	collision with: 15 2 0  and 18 2 0 
 # max = 56
8059397		 # 	collision with: 3 2 0  and 17 2 0 
 # max = 56
8059800		 # 	collision with: 4 6 0  and 10 1 1 
 # max = 390
8059801		 # 	collision with: 14 14 0  and 2 0 1 
 # max = 390
8060577		 # 	collision with: 9 0 0  and 13 0 0 
 # max = 390
8061304		 # 	collision with: 0 1 0  and 18 1 0 
 # max = 390
8062205		 # 	collision with: 2 2 0  and 7 2 0 
 # max = 390
8062688		 # 	collision with: 12 9 0  and 4 0 1 
 # max = 390
8062689		 # 	collision with: 10 16 0  and 2 1 1 
 # max = 390
8062788		 # 	collision with: 8 2 0  and 13 2 0 
 # max = 390
8062937		 # 	collision with: 11 0 0  and 18 0 0 
 # max = 390
8063260		 # 	collision with: 3 0 0  and 4 0 0 
 # max = 390
0.526256secs	390 197
