# prime 19
# degree 3
# input variables 2
# output variables 3
# reload computed balance functions from file balance-2027of2048-p19d3m2-debug.log
# p = 19
# n = 3
# smalldomain p^m 361
# domain p^n 6859
#	 p^2 = 361
#	 p^3 = 6859
#	 p^4 = 130321
#	 p^5 = 2476099
#	 p^6 = 47045881
#	 p^7 = 893871739
#	 p^8 = 16983563041
#	 p^9 = 322687697779
opening file : balance-2027of2048-p19d3m2-debug.log
reloading for step2...
9805062		 # 	collision with: 4 1 0  and 4 2 0 
 # max = 42
9805064		 # 	collision with: 2 11 0  and 4 2 1 
 # max = 403
9805065		 # 	collision with: 1 14 0  and 14 0 1 
 # max = 403
9806056		 # 	collision with: 9 1 0  and 14 1 0 
 # max = 403
9806508		 # 	collision with: 2 5 0  and 0 0 1 
 # max = 403
9806509		 # 	collision with: 11 14 0  and 13 0 1 
 # max = 403
9806605		 # 	collision with: 8 0 0  and 15 0 0 
 # max = 403
9806637		 # 	collision with: 2 1 0  and 15 1 0 
 # max = 403
9806766		 # 	collision with: 3 0 0  and 3 1 0 
 # max = 403
9807256		 # 	collision with: 1 4 0  and 8 4 0 
 # max = 403
9807464		 # 	collision with: 5 0 0  and 8 0 0 
 # max = 403
9807952		 # 	collision with: 6 15 0  and 11 4 1 
 # max = 448
9807953		 # 	collision with: 12 7 0  and 6 1 1 
 # max = 448
9808397		 # 	collision with: 8 6 0  and 12 6 0 
 # max = 448
9809396		 # 	collision with: 7 0 0  and 4 2 1 
 # max = 448
9809397		 # 	collision with: 12 14 0  and 10 0 1 
 # max = 448
0.768737secs	448 387
