# prime 19
# degree 3
# input variables 2
# output variables 3
# reload computed balance functions from file balance-1820of2048-p19d3m2-debug.log
# p = 19
# n = 3
# smalldomain p^m 361
# domain p^n 6859
#	 p^2 = 361
#	 p^3 = 6859
#	 p^4 = 130321
#	 p^5 = 2476099
#	 p^6 = 47045881
#	 p^7 = 893871739
#	 p^8 = 16983563041
#	 p^9 = 322687697779
opening file : balance-1820of2048-p19d3m2-debug.log
reloading for step2...
8803813		 # 	collision with: 9 0 0  and 15 0 0 
 # max = 15
8804296		 # 	collision with: 6 1 0  and 5 0 1 
 # max = 366
8804297		 # 	collision with: 3 13 0  and 12 0 1 
 # max = 373
8804442		 # 	collision with: 15 0 0  and 17 0 0 
 # max = 373
8805740		 # 	collision with: 18 8 0  and 0 2 1 
 # max = 399
8805741		 # 	collision with: 5 13 0  and 1 0 1 
 # max = 399
8805940		 # 	collision with: 4 0 0  and 7 0 0 
 # max = 399
8806337		 # 	collision with: 12 1 0  and 15 1 0 
 # max = 399
8806821		 # 	collision with: 4 1 0  and 9 1 0 
 # max = 399
8808145		 # 	collision with: 12 0 0  and 13 0 0 
 # max = 399
0.39014secs	399 179
