# prime 19
# degree 3
# input variables 2
# output variables 3
# reload computed balance functions from file balance-165of2048-p19d3m2-debug.log
# p = 19
# n = 3
# smalldomain p^m 361
# domain p^n 6859
#	 p^2 = 361
#	 p^3 = 6859
#	 p^4 = 130321
#	 p^5 = 2476099
#	 p^6 = 47045881
#	 p^7 = 893871739
#	 p^8 = 16983563041
#	 p^9 = 322687697779
opening file : balance-165of2048-p19d3m2-debug.log
reloading for step2...
798885		 # 	collision with: 9 0 0  and 12 0 0 
 # max = 12
799052		 # 	collision with: 4 0 0  and 12 0 0 
 # max = 12
799312		 # 	collision with: 8 4 0  and 17 4 0 
 # max = 93
800660		 # 	collision with: 5 2 0  and 15 0 1 
 # max = 376
800661		 # 	collision with: 1 6 0  and 4 0 1 
 # max = 376
800872		 # 	collision with: 3 1 0  and 9 1 0 
 # max = 376
801607		 # 	collision with: 3 0 0  and 7 0 0 
 # max = 376
801792		 # 	collision with: 7 0 0  and 14 0 0 
 # max = 376
801986		 # 	collision with: 5 1 0  and 8 1 0 
 # max = 376
802043		 # 	collision with: 0 1 0  and 12 1 0 
 # max = 376
802171		 # 	collision with: 4 0 0  and 13 0 0 
 # max = 376
802923		 # 	collision with: 7 0 0  and 11 0 0 
 # max = 376
0.38065secs	376 109
