# prime 19
# degree 3
# input variables 2
# output variables 4
# reload computed balance functions from file balance-1463of2048-p19d3m2-debug.log
# p = 19
# n = 4
# smalldomain p^m 361
# domain p^n 130321
#	 p^2 = 361
#	 p^3 = 6859
#	 p^4 = 130321
#	 p^5 = 2476099
#	 p^6 = 47045881
#	 p^7 = 893871739
#	 p^8 = 16983563041
#	 p^9 = 322687697779
opening file : balance-1463of2048-p19d3m2-debug.log
reloading for step2...
7076652		 # 	collision with: 0 1 0 0  and 17 1 0 0 
 # max = 36
7077728		 # 	collision with: 6 4 7 0  and 12 0 0 1 
 # max = 6871
7077729		 # 	collision with: 18 6 11 0  and 2 0 0 1 
 # max = 6871
7078136		 # 	collision with: 5 0 0 0  and 12 0 0 0 
 # max = 6871
7078304		 # 	collision with: 0 0 0 0  and 4 0 0 0 
 # max = 6871
7079239		 # 	collision with: 3 0 0 0  and 17 0 0 0 
 # max = 6871
7079580		 # 	collision with: 0 2 0 0  and 9 2 0 0 
 # max = 6871
7079600		 # 	collision with: 7 4 0 0  and 8 4 0 0 
 # max = 6871
7079677		 # 	collision with: 8 2 0 0  and 13 2 0 0 
 # max = 6871
7080254		 # 	collision with: 15 0 0 0  and 16 0 0 0 
 # max = 6871
7080359		 # 	collision with: 9 0 0 0  and 15 0 0 0 
 # max = 6871
7080540		 # 	collision with: 2 6 15 0  and 1 1 0 1 
 # max = 6879
7080541		 # 	collision with: 10 0 10 0  and 0 1 0 1 
 # max = 6879
7080932		 # 	collision with: 5 2 0 0  and 15 2 0 0 
 # max = 6879
7.64983secs	6879 3091
