# prime 19
# degree 3
# input variables 2
# output variables 4
# reload computed balance functions from file balance-124of2048-p19d3m2-debug.log
# p = 19
# n = 4
# smalldomain p^m 361
# domain p^n 130321
#	 p^2 = 361
#	 p^3 = 6859
#	 p^4 = 130321
#	 p^5 = 2476099
#	 p^6 = 47045881
#	 p^7 = 893871739
#	 p^8 = 16983563041
#	 p^9 = 322687697779
opening file : balance-124of2048-p19d3m2-debug.log
reloading for step2...
601796		 # 	collision with: 3 0 0 0  and 4 0 0 0 
 # max = 4
602112		 # 	collision with: 0 0 0 0  and 17 0 0 0 
 # max = 17
602382		 # 	collision with: 2 0 0 0  and 7 0 0 0 
 # max = 17
603356		 # 	collision with: 2 0 0 0  and 2 1 0 0 
 # max = 21
603444		 # 	collision with: 0 4 0 0  and 18 4 0 0 
 # max = 94
0.0353416secs	94 15
