# prime 19
# degree 3
# input variables 2
# output variables 3
# reload computed balance functions from file balance-661of2048-p19d3m2-debug.log
# p = 19
# n = 3
# smalldomain p^m 361
# domain p^n 6859
#	 p^2 = 361
#	 p^3 = 6859
#	 p^4 = 130321
#	 p^5 = 2476099
#	 p^6 = 47045881
#	 p^7 = 893871739
#	 p^8 = 16983563041
#	 p^9 = 322687697779
opening file : balance-661of2048-p19d3m2-debug.log
reloading for step2...
3198308		 # 	collision with: 16 3 0  and 6 0 1 
 # max = 367
3198309		 # 	collision with: 10 0 0  and 9 3 1 
 # max = 427
3198647		 # 	collision with: 5 0 0  and 9 0 0 
 # max = 427
3198669		 # 	collision with: 3 1 0  and 12 1 0 
 # max = 427
3198732		 # 	collision with: 10 2 0  and 14 2 0 
 # max = 427
3199187		 # 	collision with: 5 0 0  and 12 0 0 
 # max = 427
3199759		 # 	collision with: 1 4 0  and 14 4 0 
 # max = 427
3201196		 # 	collision with: 0 15 0  and 4 2 1 
 # max = 427
3201197		 # 	collision with: 13 4 0  and 9 0 1 
 # max = 427
3201312		 # 	collision with: 6 1 0  and 17 1 0 
 # max = 427
3201650		 # 	collision with: 8 0 0  and 16 0 0 
 # max = 427
3201776		 # 	collision with: 5 0 0  and 11 0 0 
 # max = 427
0.530289secs	427 202
