# prime 19
# degree 3
# input variables 2
# output variables 3
# reload computed balance functions from file balance-339of2048-p19d3m2-debug.log
# p = 19
# n = 3
# smalldomain p^m 361
# domain p^n 6859
#	 p^2 = 361
#	 p^3 = 6859
#	 p^4 = 130321
#	 p^5 = 2476099
#	 p^6 = 47045881
#	 p^7 = 893871739
#	 p^8 = 16983563041
#	 p^9 = 322687697779
opening file : balance-339of2048-p19d3m2-debug.log
reloading for step2...
1640232		 # 	collision with: 7 6 0  and 14 2 1 
 # max = 413
1640233		 # 	collision with: 16 12 0  and 9 0 1 
 # max = 413
1641676		 # 	collision with: 1 11 0  and 11 0 1 
 # max = 413
1641677		 # 	collision with: 4 12 0  and 0 0 1 
 # max = 413
1641683		 # 	collision with: 3 3 0  and 16 3 0 
 # max = 413
1643506		 # 	collision with: 1 1 0  and 17 1 0 
 # max = 413
0.351115secs	413 180
