# prime 19
# degree 3
# input variables 2
# output variables 3
# reload computed balance functions from file balance-474of2048-p19d3m2-debug.log
# p = 19
# n = 3
# smalldomain p^m 361
# domain p^n 6859
#	 p^2 = 361
#	 p^3 = 6859
#	 p^4 = 130321
#	 p^5 = 2476099
#	 p^6 = 47045881
#	 p^7 = 893871739
#	 p^8 = 16983563041
#	 p^9 = 322687697779
opening file : balance-474of2048-p19d3m2-debug.log
reloading for step2...
2293984		 # 	collision with: 3 1 0  and 2 2 1 
 # max = 401
2293985		 # 	collision with: 5 9 0  and 7 0 1 
 # max = 401
2294332		 # 	collision with: 8 0 0  and 14 0 0 
 # max = 401
2294882		 # 	collision with: 0 0 0  and 0 1 0 
 # max = 401
2294949		 # 	collision with: 0 0 0  and 0 1 0 
 # max = 401
2295664		 # 	collision with: 6 1 0  and 10 1 0 
 # max = 401
2295859		 # 	collision with: 12 2 0  and 17 2 0 
 # max = 401
2295960		 # 	collision with: 11 8 0  and 8 10 0 
 # max = 401
2296116		 # 	collision with: 2 0 0  and 12 0 0 
 # max = 401
2297072		 # 	collision with: 0 0 0  and 6 0 0 
 # max = 401
0.163906secs	401 124
