# prime 19
# degree 3
# input variables 2
# output variables 5
# reload computed balance functions from file balance-966of2048-p19d3m2-debug.log
# p = 19
# n = 5
# smalldomain p^m 361
# domain p^n 2476099
#	 p^2 = 361
#	 p^3 = 6859
#	 p^4 = 130321
#	 p^5 = 2476099
#	 p^6 = 47045881
#	 p^7 = 893871739
#	 p^8 = 16983563041
#	 p^9 = 322687697779
opening file : balance-966of2048-p19d3m2-debug.log
reloading for step2...
4672860		 # 	collision with: 4 5 14 11 0  and 11 1 0 0 1 
 # max = 130351
4672861		 # 	collision with: 1 11 1 9 0  and 12 0 0 0 1 
 # max = 130351
4673113		 # 	collision with: 0 1 0 0 0  and 18 1 0 0 0 
 # max = 130351
4674304		 # 	collision with: 11 11 11 11 0  and 0 0 0 0 1 
 # max = 130351
4674305		 # 	collision with: 15 2 2 9 0  and 7 0 0 0 1 
 # max = 130351
4674515		 # 	collision with: 11 2 0 0 0  and 13 2 0 0 0 
 # max = 130351
4674806		 # 	collision with: 14 0 0 0 0  and 16 0 0 0 0 
 # max = 130351
4675974		 # 	collision with: 10 4 0 0 0  and 18 4 0 0 0 
 # max = 130351
4676486		 # 	collision with: 6 1 0 0 0  and 12 1 0 0 0 
 # max = 130351
168.165secs	130351 57951
