# prime 19
# degree 3
# input variables 2
# output variables 5
# reload computed balance functions from file balance-1580of2048-p19d3m2-debug.log
# p = 19
# n = 5
# smalldomain p^m 361
# domain p^n 2476099
#	 p^2 = 361
#	 p^3 = 6859
#	 p^4 = 130321
#	 p^5 = 2476099
#	 p^6 = 47045881
#	 p^7 = 893871739
#	 p^8 = 16983563041
#	 p^9 = 322687697779
opening file : balance-1580of2048-p19d3m2-debug.log
reloading for step2...
7643092		 # 	collision with: 3 8 0 0 0  and 3 10 0 0 0 
 # max = 193
7643547		 # 	collision with: 10 2 0 0 0  and 13 2 0 0 0 
 # max = 193
7643624		 # 	collision with: 11 3 18 17 0  and 5 0 0 0 1 
 # max = 130326
7643625		 # 	collision with: 4 17 11 14 0  and 11 1 0 0 1 
 # max = 130351
7644964		 # 	collision with: 0 1 0 0 0  and 0 5 0 0 0 
 # max = 130351
7646448		 # 	collision with: 14 0 0 0 0  and 17 0 0 0 0 
 # max = 130351
78.932secs	130351 29003
