# prime 19
# degree 3
# input variables 2
# output variables 5
# reload computed balance functions from file balance-131of2048-p19d3m2-debug.log
# p = 19
# n = 5
# smalldomain p^m 361
# domain p^n 2476099
#	 p^2 = 361
#	 p^3 = 6859
#	 p^4 = 130321
#	 p^5 = 2476099
#	 p^6 = 47045881
#	 p^7 = 893871739
#	 p^8 = 16983563041
#	 p^9 = 322687697779
opening file : balance-131of2048-p19d3m2-debug.log
reloading for step2...
633942		 # 	collision with: 2 1 0 0 0  and 18 1 0 0 0 
 # max = 37
635164		 # 	collision with: 4 0 0 0 0  and 11 0 0 0 0 
 # max = 37
636212		 # 	collision with: 12 9 0 0 0  and 15 9 0 0 0 
 # max = 186
636804		 # 	collision with: 5 8 0 0 0  and 5 10 0 0 0 
 # max = 195
637471		 # 	collision with: 5 0 0 0 0  and 9 0 0 0 0 
 # max = 195
637620		 # 	collision with: 17 0 0 0 0  and 18 0 0 0 0 
 # max = 195
638208		 # 	collision with: 5 1 0 0 0  and 15 1 0 0 0 
 # max = 195
0.158877secs	195 54
