# prime 19
# degree 3
# input variables 2
# output variables 5
# reload computed balance functions from file balance-1116of2048-p19d3m2-debug.log
# p = 19
# n = 5
# smalldomain p^m 361
# domain p^n 2476099
#	 p^2 = 361
#	 p^3 = 6859
#	 p^4 = 130321
#	 p^5 = 2476099
#	 p^6 = 47045881
#	 p^7 = 893871739
#	 p^8 = 16983563041
#	 p^9 = 322687697779
opening file : balance-1116of2048-p19d3m2-debug.log
reloading for step2...
5399036		 # 	collision with: 6 2 0 0 0  and 5 6 0 0 0 
 # max = 119
5399175		 # 	collision with: 3 1 0 0 0  and 14 1 0 0 0 
 # max = 119
5400104		 # 	collision with: 14 11 15 8 0  and 7 5 0 0 1 
 # max = 130423
5400105		 # 	collision with: 3 17 18 2 0  and 0 0 0 0 1 
 # max = 130423
5400520		 # 	collision with: 9 1 0 0 0  and 14 1 0 0 0 
 # max = 130423
5400961		 # 	collision with: 0 0 0 0 0  and 15 0 0 0 0 
 # max = 130423
5401869		 # 	collision with: 2 1 0 0 0  and 5 1 0 0 0 
 # max = 130423
5402120		 # 	collision with: 2 3 0 0 0  and 7 3 0 0 0 
 # max = 130423
75.6342secs	130423 29003
