# prime 19
# degree 3
# input variables 2
# output variables 4
# reload computed balance functions from file balance-1206of2048-p19d3m2-debug.log
# p = 19
# n = 4
# smalldomain p^m 361
# domain p^n 130321
#	 p^2 = 361
#	 p^3 = 6859
#	 p^4 = 130321
#	 p^5 = 2476099
#	 p^6 = 47045881
#	 p^7 = 893871739
#	 p^8 = 16983563041
#	 p^9 = 322687697779
opening file : balance-1206of2048-p19d3m2-debug.log
reloading for step2...
5833433		 # 	collision with: 3 1 0 0  and 10 1 0 0 
 # max = 29
5833564		 # 	collision with: 0 1 0 0  and 1 1 0 0 
 # max = 29
5833929		 # 	collision with: 0 0 0 0  and 7 0 0 0 
 # max = 29
5834074		 # 	collision with: 7 2 0 0  and 18 2 0 0 
 # max = 56
5834215		 # 	collision with: 2 1 0 0  and 10 1 0 0 
 # max = 56
5834724		 # 	collision with: 3 0 0 0  and 12 0 0 0 
 # max = 56
5835124		 # 	collision with: 15 6 0 0  and 16 6 0 0 
 # max = 130
5836056		 # 	collision with: 13 0 0 0  and 18 0 0 0 
 # max = 130
5836420		 # 	collision with: 1 10 10 0  and 7 0 0 1 
 # max = 6866
5836421		 # 	collision with: 8 18 17 0  and 14 4 0 1 
 # max = 6949
5836608		 # 	collision with: 11 1 0 0  and 17 1 0 0 
 # max = 6949
4.06945secs	6949 1572
