# prime 19
# degree 3
# input variables 2
# output variables 4
# reload computed balance functions from file balance-987of2048-p19d3m2-debug.log
# p = 19
# n = 4
# smalldomain p^m 361
# domain p^n 130321
#	 p^2 = 361
#	 p^3 = 6859
#	 p^4 = 130321
#	 p^5 = 2476099
#	 p^6 = 47045881
#	 p^7 = 893871739
#	 p^8 = 16983563041
#	 p^9 = 322687697779
opening file : balance-987of2048-p19d3m2-debug.log
reloading for step2...
4774633		 # 	collision with: 1 4 0 0  and 3 4 0 0 
 # max = 79
4775053		 # 	collision with: 8 0 0 0  and 14 0 0 0 
 # max = 79
4775932		 # 	collision with: 6 0 0 0  and 11 0 0 0 
 # max = 79
4776524		 # 	collision with: 11 12 3 0  and 5 0 0 1 
 # max = 6864
4776525		 # 	collision with: 4 13 10 0  and 8 1 0 1 
 # max = 6886
4777160		 # 	collision with: 10 0 0 0  and 14 2 0 0 
 # max = 6886
4777767		 # 	collision with: 3 0 0 0  and 4 0 0 0 
 # max = 6886
4777968		 # 	collision with: 4 7 3 0  and 5 4 0 1 
 # max = 6940
4777969		 # 	collision with: 4 13 10 0  and 11 0 0 1 
 # max = 6940
6.18519secs	6940 3080
