# prime 19
# degree 3
# input variables 2
# output variables 3
# reload computed balance functions from file balance-1800of2048-p19d3m2-debug.log
# p = 19
# n = 3
# smalldomain p^m 361
# domain p^n 6859
#	 p^2 = 361
#	 p^3 = 6859
#	 p^4 = 130321
#	 p^5 = 2476099
#	 p^6 = 47045881
#	 p^7 = 893871739
#	 p^8 = 16983563041
#	 p^9 = 322687697779
opening file : balance-1800of2048-p19d3m2-debug.log
reloading for step2...
8707084		 # 	collision with: 3 0 0  and 4 0 0 
 # max = 4
8707544		 # 	collision with: 2 0 0  and 6 0 0 
 # max = 6
8707776		 # 	collision with: 10 10 0  and 1 0 1 
 # max = 362
8707777		 # 	collision with: 3 16 0  and 15 0 1 
 # max = 376
8707882		 # 	collision with: 12 0 0  and 15 0 0 
 # max = 376
8707987		 # 	collision with: 0 1 0  and 5 1 0 
 # max = 376
8708069		 # 	collision with: 3 0 0  and 18 0 0 
 # max = 376
8708568		 # 	collision with: 5 0 0  and 7 0 0 
 # max = 376
8709220		 # 	collision with: 7 6 0  and 1 3 1 
 # max = 419
8709221		 # 	collision with: 1 16 0  and 15 0 1 
 # max = 419
0.27451secs	419 178
