# prime 19
# degree 3
# input variables 2
# output variables 4
# reload computed balance functions from file balance-1702of2048-p19d3m2-debug.log
# p = 19
# n = 4
# smalldomain p^m 361
# domain p^n 130321
#	 p^2 = 361
#	 p^3 = 6859
#	 p^4 = 130321
#	 p^5 = 2476099
#	 p^6 = 47045881
#	 p^7 = 893871739
#	 p^8 = 16983563041
#	 p^9 = 322687697779
opening file : balance-1702of2048-p19d3m2-debug.log
reloading for step2...
8232800		 # 	collision with: 0 3 0 0  and 7 3 0 0 
 # max = 64
8234457		 # 	collision with: 2 3 0 0  and 3 3 0 0 
 # max = 64
8235755		 # 	collision with: 2 0 0 0  and 15 0 0 0 
 # max = 64
8236028		 # 	collision with: 12 0 0 0  and 13 0 0 0 
 # max = 64
8236217		 # 	collision with: 11 0 0 0  and 16 0 0 0 
 # max = 64
8236810		 # 	collision with: 5 0 0 0  and 9 0 0 0 
 # max = 64
8236948		 # 	collision with: 14 7 0 0  and 18 7 0 0 
 # max = 151
0.0948848secs	151 36
