# prime 19
# degree 3
# input variables 2
# output variables 3
# reload computed balance functions from file balance-1434of2048-p19d3m2-debug.log
# p = 19
# n = 3
# smalldomain p^m 361
# domain p^n 6859
#	 p^2 = 361
#	 p^3 = 6859
#	 p^4 = 130321
#	 p^5 = 2476099
#	 p^6 = 47045881
#	 p^7 = 893871739
#	 p^8 = 16983563041
#	 p^9 = 322687697779
opening file : balance-1434of2048-p19d3m2-debug.log
reloading for step2...
6936596		 # 	collision with: 10 17 0  and 3 1 1 
 # max = 383
6936597		 # 	collision with: 11 3 0  and 10 0 1 
 # max = 383
6936780		 # 	collision with: 9 0 0  and 17 0 0 
 # max = 383
6937348		 # 	collision with: 2 0 0  and 8 0 0 
 # max = 383
6938040		 # 	collision with: 6 14 0  and 15 0 1 
 # max = 383
6938041		 # 	collision with: 13 3 0  and 16 0 1 
 # max = 383
6938093		 # 	collision with: 1 1 0  and 8 1 0 
 # max = 383
6939147		 # 	collision with: 0 0 0  and 17 0 0 
 # max = 383
6939814		 # 	collision with: 10 2 0  and 17 2 0 
 # max = 383
6939824		 # 	collision with: 5 0 0  and 8 0 0 
 # max = 383
6940088		 # 	collision with: 3 0 0  and 18 0 0 
 # max = 383
0.351894secs	383 184
