# prime 19
# degree 3
# input variables 2
# output variables 3
# reload computed balance functions from file balance-874of2048-p19d3m2-debug.log
# p = 19
# n = 3
# smalldomain p^m 361
# domain p^n 6859
#	 p^2 = 361
#	 p^3 = 6859
#	 p^4 = 130321
#	 p^5 = 2476099
#	 p^6 = 47045881
#	 p^7 = 893871739
#	 p^8 = 16983563041
#	 p^9 = 322687697779
opening file : balance-874of2048-p19d3m2-debug.log
reloading for step2...
4228588		 # 	collision with: 4 1 0  and 13 1 0 
 # max = 32
4228928		 # 	collision with: 12 3 0  and 14 3 0 
 # max = 71
4230383		 # 	collision with: 10 0 0  and 17 0 0 
 # max = 71
4230412		 # 	collision with: 11 0 0  and 16 0 0 
 # max = 71
4230491		 # 	collision with: 3 1 0  and 11 1 0 
 # max = 71
4231328		 # 	collision with: 6 2 0  and 17 2 0 
 # max = 71
4232212		 # 	collision with: 10 6 0  and 12 1 1 
 # max = 392
4232213		 # 	collision with: 17 5 0  and 3 0 1 
 # max = 392
4232263		 # 	collision with: 7 0 0  and 8 0 0 
 # max = 392
0.187842secs	392 109
