# prime 19
# degree 3
# input variables 2
# output variables 3
# reload computed balance functions from file balance-934of2048-p19d3m2-debug.log
# p = 19
# n = 3
# smalldomain p^m 361
# domain p^n 6859
#	 p^2 = 361
#	 p^3 = 6859
#	 p^4 = 130321
#	 p^5 = 2476099
#	 p^6 = 47045881
#	 p^7 = 893871739
#	 p^8 = 16983563041
#	 p^9 = 322687697779
opening file : balance-934of2048-p19d3m2-debug.log
reloading for step2...
4518943		 # 	collision with: 8 0 0  and 18 0 0 
 # max = 18
4519101		 # 	collision with: 16 0 0  and 18 0 0 
 # max = 18
4519212		 # 	collision with: 0 2 0  and 5 2 0 
 # max = 43
4519585		 # 	collision with: 4 0 0  and 10 0 0 
 # max = 43
4520092		 # 	collision with: 0 0 0  and 4 0 0 
 # max = 43
4520252		 # 	collision with: 11 7 0  and 3 0 1 
 # max = 364
4520253		 # 	collision with: 7 0 0  and 9 2 1 
 # max = 408
4520286		 # 	collision with: 2 1 0  and 7 2 0 
 # max = 408
4520772		 # 	collision with: 5 0 0  and 12 0 0 
 # max = 408
4521696		 # 	collision with: 1 7 0  and 14 0 1 
 # max = 408
4521697		 # 	collision with: 18 4 0  and 1 0 1 
 # max = 408
4522256		 # 	collision with: 3 0 0  and 17 0 0 
 # max = 408
0.462529secs	408 186
