# prime 19
# degree 3
# input variables 2
# output variables 4
# reload computed balance functions from file balance-1510of2048-p19d3m2-debug.log
# p = 19
# n = 4
# smalldomain p^m 361
# domain p^n 130321
#	 p^2 = 361
#	 p^3 = 6859
#	 p^4 = 130321
#	 p^5 = 2476099
#	 p^6 = 47045881
#	 p^7 = 893871739
#	 p^8 = 16983563041
#	 p^9 = 322687697779
opening file : balance-1510of2048-p19d3m2-debug.log
reloading for step2...
7304375		 # 	collision with: 4 2 0 0  and 18 2 0 0 
 # max = 56
7304521		 # 	collision with: 5 0 0 0  and 14 0 0 0 
 # max = 56
7306495		 # 	collision with: 5 0 0 0  and 15 0 0 0 
 # max = 56
7307391		 # 	collision with: 3 0 0 0  and 13 0 0 0 
 # max = 56
0.0326729secs	56 10
