# prime 19
# degree 3
# input variables 2
# output variables 5
# reload computed balance functions from file balance-879of2048-p19d3m2-debug.log
# p = 19
# n = 5
# smalldomain p^m 361
# domain p^n 2476099
#	 p^2 = 361
#	 p^3 = 6859
#	 p^4 = 130321
#	 p^5 = 2476099
#	 p^6 = 47045881
#	 p^7 = 893871739
#	 p^8 = 16983563041
#	 p^9 = 322687697779
opening file : balance-879of2048-p19d3m2-debug.log
reloading for step2...
4251905		 # 	collision with: 2 1 0 0 0  and 4 1 0 0 0 
 # max = 23
4251952		 # 	collision with: 2 3 0 0 0  and 15 3 0 0 0 
 # max = 72
4254024		 # 	collision with: 12 8 0 0 0  and 7 10 0 0 0 
 # max = 197
4254425		 # 	collision with: 7 0 0 0 0  and 2 2 0 0 0 
 # max = 197
4254580		 # 	collision with: 11 2 0 0 0  and 16 2 0 0 0 
 # max = 197
4254764		 # 	collision with: 3 0 0 0 0  and 11 0 0 0 0 
 # max = 197
4255240		 # 	collision with: 0 3 7 9 0  and 5 0 0 0 1 
 # max = 130326
4255241		 # 	collision with: 15 12 10 16 0  and 0 0 0 0 1 
 # max = 130326
4255988		 # 	collision with: 1 1 0 0 0  and 13 1 0 0 0 
 # max = 130326
86.443secs	130326 29008
