# prime 19
# degree 3
# input variables 2
# output variables 3
# reload computed balance functions from file balance-1737of2048-p19d3m2-debug.log
# p = 19
# n = 3
# smalldomain p^m 361
# domain p^n 6859
#	 p^2 = 361
#	 p^3 = 6859
#	 p^4 = 130321
#	 p^5 = 2476099
#	 p^6 = 47045881
#	 p^7 = 893871739
#	 p^8 = 16983563041
#	 p^9 = 322687697779
opening file : balance-1737of2048-p19d3m2-debug.log
reloading for step2...
8402484		 # 	collision with: 16 10 0  and 11 1 1 
 # max = 391
8402485		 # 	collision with: 7 9 0  and 13 0 1 
 # max = 391
8402491		 # 	collision with: 0 1 0  and 10 1 0 
 # max = 391
8403104		 # 	collision with: 9 1 0  and 14 1 0 
 # max = 391
8403198		 # 	collision with: 6 2 0  and 15 2 0 
 # max = 391
8403387		 # 	collision with: 0 1 0  and 15 1 0 
 # max = 391
8403928		 # 	collision with: 10 8 0  and 6 0 1 
 # max = 391
8403929		 # 	collision with: 1 2 0  and 12 1 1 
 # max = 392
8404849		 # 	collision with: 0 0 0  and 3 0 0 
 # max = 392
8405192		 # 	collision with: 0 4 0  and 5 4 0 
 # max = 392
8405372		 # 	collision with: 0 5 0  and 12 18 1 
 # max = 715
8405373		 # 	collision with: 2 12 0  and 17 1 1 
 # max = 715
8405578		 # 	collision with: 5 2 0  and 11 2 0 
 # max = 715
8406524		 # 	collision with: 12 0 0  and 17 0 0 
 # max = 715
0.598656secs	715 326
