# prime 19
# degree 3
# input variables 2
# output variables 4
# reload computed balance functions from file balance-763of2048-p19d3m2-debug.log
# p = 19
# n = 4
# smalldomain p^m 361
# domain p^n 130321
#	 p^2 = 361
#	 p^3 = 6859
#	 p^4 = 130321
#	 p^5 = 2476099
#	 p^6 = 47045881
#	 p^7 = 893871739
#	 p^8 = 16983563041
#	 p^9 = 322687697779
opening file : balance-763of2048-p19d3m2-debug.log
reloading for step2...
3690976		 # 	collision with: 3 1 0 0  and 8 1 0 0 
 # max = 27
3691051		 # 	collision with: 1 1 0 0  and 6 1 0 0 
 # max = 27
3691073		 # 	collision with: 9 0 0 0  and 16 0 0 0 
 # max = 27
3691650		 # 	collision with: 13 2 0 0  and 18 2 0 0 
 # max = 56
3692580		 # 	collision with: 1 3 0 0  and 3 3 0 0 
 # max = 60
3692886		 # 	collision with: 15 0 0 0  and 17 0 0 0 
 # max = 60
3692890		 # 	collision with: 9 3 0 0  and 14 5 0 0 
 # max = 109
3693651		 # 	collision with: 0 0 0 0  and 12 0 0 0 
 # max = 109
3694064		 # 	collision with: 7 1 0 0  and 15 1 0 0 
 # max = 109
3694501		 # 	collision with: 10 1 0 0  and 14 1 0 0 
 # max = 109
3695051		 # 	collision with: 6 1 0 0  and 16 1 0 0 
 # max = 109
3695120		 # 	collision with: 14 10 7 0  and 6 0 0 1 
 # max = 6865
3695121		 # 	collision with: 17 7 9 0  and 13 0 0 1 
 # max = 6872
3.43124secs	6872 1573
