# prime 19
# degree 3
# input variables 2
# output variables 4
# reload computed balance functions from file balance-516of2048-p19d3m2-debug.log
# p = 19
# n = 4
# smalldomain p^m 361
# domain p^n 130321
#	 p^2 = 361
#	 p^3 = 6859
#	 p^4 = 130321
#	 p^5 = 2476099
#	 p^6 = 47045881
#	 p^7 = 893871739
#	 p^8 = 16983563041
#	 p^9 = 322687697779
opening file : balance-516of2048-p19d3m2-debug.log
reloading for step2...
2496910		 # 	collision with: 2 1 0 0  and 12 1 0 0 
 # max = 31
2496978		 # 	collision with: 5 0 0 0  and 9 0 0 0 
 # max = 31
2498236		 # 	collision with: 15 1 0 0  and 16 4 0 0 
 # max = 92
2498407		 # 	collision with: 7 1 0 0  and 7 2 0 0 
 # max = 92
2498424		 # 	collision with: 6 4 18 0  and 2 0 0 1 
 # max = 6861
2498425		 # 	collision with: 18 9 8 0  and 2 0 0 1 
 # max = 6861
2499528		 # 	collision with: 9 1 0 0  and 9 2 0 0 
 # max = 6861
4.79476secs	6861 1549
