# prime 19
# degree 3
# input variables 2
# output variables 5
# reload computed balance functions from file balance-1774of2048-p19d3m2-debug.log
# p = 19
# n = 5
# smalldomain p^m 361
# domain p^n 2476099
#	 p^2 = 361
#	 p^3 = 6859
#	 p^4 = 130321
#	 p^5 = 2476099
#	 p^6 = 47045881
#	 p^7 = 893871739
#	 p^8 = 16983563041
#	 p^9 = 322687697779
opening file : balance-1774of2048-p19d3m2-debug.log
reloading for step2...
8580975		 # 	collision with: 5 2 0 0 0  and 6 2 0 0 0 
 # max = 44
8580988		 # 	collision with: 6 0 0 0 0  and 17 0 0 0 0 
 # max = 44
8581084		 # 	collision with: 10 2 3 2 0  and 7 3 0 0 1 
 # max = 130385
8581085		 # 	collision with: 7 14 13 7 0  and 1 1 0 0 1 
 # max = 130385
8581333		 # 	collision with: 2 0 0 0 0  and 8 0 0 0 0 
 # max = 130385
8582472		 # 	collision with: 11 1 0 0 0  and 14 1 0 0 0 
 # max = 130385
8583100		 # 	collision with: 3 2 0 0 0  and 7 2 0 0 0 
 # max = 130385
8583450		 # 	collision with: 15 2 0 0 0  and 16 2 0 0 0 
 # max = 130385
8583887		 # 	collision with: 14 1 0 0 0  and 9 4 0 0 0 
 # max = 130385
8583950		 # 	collision with: 2 3 0 0 0  and 2 4 0 0 0 
 # max = 130385
8583972		 # 	collision with: 0 2 15 2 0  and 18 12 4 0 1 
 # max = 132011
8583973		 # 	collision with: 18 8 18 7 0  and 12 0 0 0 1 
 # max = 132011
8584032		 # 	collision with: 0 1 0 0 0  and 4 1 0 0 0 
 # max = 132011
8585247		 # 	collision with: 9 1 0 0 0  and 10 1 0 0 0 
 # max = 132011
8585416		 # 	collision with: 11 8 5 2 0  and 2 0 0 0 1 
 # max = 132011
8585417		 # 	collision with: 17 14 6 7 0  and 18 2 0 0 1 
 # max = 132011
8585516		 # 	collision with: 5 0 0 0 0  and 6 0 0 0 0 
 # max = 132011
231.729secs	132011 87132
