# prime 19
# degree 3
# input variables 2
# output variables 4
# reload computed balance functions from file balance-1660of2048-p19d3m2-debug.log
# p = 19
# n = 4
# smalldomain p^m 361
# domain p^n 130321
#	 p^2 = 361
#	 p^3 = 6859
#	 p^4 = 130321
#	 p^5 = 2476099
#	 p^6 = 47045881
#	 p^7 = 893871739
#	 p^8 = 16983563041
#	 p^9 = 322687697779
opening file : balance-1660of2048-p19d3m2-debug.log
reloading for step2...
8030344		 # 	collision with: 6 0 0 0  and 18 0 0 0 
 # max = 18
8030511		 # 	collision with: 2 5 0 0  and 3 5 0 0 
 # max = 98
8032440		 # 	collision with: 16 14 13 0  and 9 0 0 1 
 # max = 6868
8032441		 # 	collision with: 17 5 16 0  and 6 2 0 1 
 # max = 6903
8033259		 # 	collision with: 2 0 0 0  and 3 0 0 0 
 # max = 6903
8033884		 # 	collision with: 15 8 13 0  and 8 1 0 1 
 # max = 6903
8033885		 # 	collision with: 18 10 16 0  and 1 1 0 1 
 # max = 6903
8033908		 # 	collision with: 0 1 0 0  and 7 1 0 0 
 # max = 6903
7.69854secs	6903 3075
