# prime 19
# degree 3
# input variables 2
# output variables 4
# reload computed balance functions from file balance-16of2048-p19d3m2-debug.log
# p = 19
# n = 4
# smalldomain p^m 361
# domain p^n 130321
#	 p^2 = 361
#	 p^3 = 6859
#	 p^4 = 130321
#	 p^5 = 2476099
#	 p^6 = 47045881
#	 p^7 = 893871739
#	 p^8 = 16983563041
#	 p^9 = 322687697779
opening file : balance-16of2048-p19d3m2-debug.log
reloading for step2...
77824		 # 	collision with: 13 1 13 1  and 1 2 1 2 
 # max = 14118
77825		 # 	collision with: 1 0 1 0  and 0 1 0 1 
 # max = 14118
78049		 # 	collision with: 2 5 5 0  and 7 1 2 1 
 # max = 14118
78051		 # 	collision with: 10 13 2 0  and 11 0 0 1 
 # max = 14118
78088		 # 	collision with: 2 3 0 0  and 3 3 0 0 
 # max = 14118
79068		 # 	collision with: 8 0 0 0  and 18 0 0 0 
 # max = 14118
79493		 # 	collision with: 4 5 14 0  and 0 1 1 1 
 # max = 14118
79495		 # 	collision with: 14 16 2 0  and 5 0 0 1 
 # max = 14118
80171		 # 	collision with: 9 2 0 0  and 12 3 0 0 
 # max = 14118
80327		 # 	collision with: 1 4 0 0  and 18 4 0 0 
 # max = 14118
81689		 # 	collision with: 5 1 0 0  and 5 2 0 0 
 # max = 14118
82112		 # 	collision with: 5 0 0 0  and 16 0 0 0 
 # max = 14118
12.4798secs	14118 5541
