# prime 19
# degree 3
# input variables 2
# output variables 5
# reload computed balance functions from file balance-253of2048-p19d3m2-debug.log
# p = 19
# n = 5
# smalldomain p^m 361
# domain p^n 2476099
#	 p^2 = 361
#	 p^3 = 6859
#	 p^4 = 130321
#	 p^5 = 2476099
#	 p^6 = 47045881
#	 p^7 = 893871739
#	 p^8 = 16983563041
#	 p^9 = 322687697779
opening file : balance-253of2048-p19d3m2-debug.log
reloading for step2...
1224056		 # 	collision with: 4 9 11 13 0  and 1 0 0 0 1 
 # max = 130322
1224057		 # 	collision with: 6 2 15 7 0  and 7 0 0 0 1 
 # max = 130328
1225298		 # 	collision with: 3 1 0 0 0  and 15 1 0 0 0 
 # max = 130328
1225500		 # 	collision with: 8 14 14 13 0  and 1 1 0 0 1 
 # max = 130341
1225501		 # 	collision with: 2 14 13 7 0  and 16 1 0 0 1 
 # max = 130356
1226384		 # 	collision with: 13 2 0 0 0  and 17 2 0 0 0 
 # max = 130356
1227252		 # 	collision with: 1 3 0 0 0  and 6 3 0 0 0 
 # max = 130356
187.051secs	130356 57944
