# prime 19
# degree 3
# input variables 2
# output variables 5
# reload computed balance functions from file balance-1239of2048-p19d3m2-debug.log
# p = 19
# n = 5
# smalldomain p^m 361
# domain p^n 2476099
#	 p^2 = 361
#	 p^3 = 6859
#	 p^4 = 130321
#	 p^5 = 2476099
#	 p^6 = 47045881
#	 p^7 = 893871739
#	 p^8 = 16983563041
#	 p^9 = 322687697779
opening file : balance-1239of2048-p19d3m2-debug.log
reloading for step2...
5993184		 # 	collision with: 13 1 0 0 0  and 7 2 0 0 0 
 # max = 45
5993360		 # 	collision with: 6 9 4 16 0  and 4 1 0 0 1 
 # max = 130344
5993361		 # 	collision with: 18 3 16 12 0  and 11 1 0 0 1 
 # max = 130351
5993507		 # 	collision with: 14 1 0 0 0  and 14 2 0 0 0 
 # max = 130351
5994606		 # 	collision with: 2 0 0 0 0  and 16 0 0 0 0 
 # max = 130351
5994748		 # 	collision with: 12 0 0 0 0  and 16 0 0 0 0 
 # max = 130351
5995059		 # 	collision with: 11 0 0 0 0  and 0 2 0 0 0 
 # max = 130351
5995889		 # 	collision with: 2 2 0 0 0  and 11 2 0 0 0 
 # max = 130351
5996070		 # 	collision with: 4 1 0 0 0  and 11 1 0 0 0 
 # max = 130351
5996228		 # 	collision with: 3 2 0 0 0  and 15 2 0 0 0 
 # max = 130351
5996237		 # 	collision with: 2 1 0 0 0  and 5 1 0 0 0 
 # max = 130351
5996831		 # 	collision with: 4 0 0 0 0  and 5 0 0 0 0 
 # max = 130351
5997488		 # 	collision with: 7 2 0 0 0  and 16 2 0 0 0 
 # max = 130351
5997692		 # 	collision with: 18 8 8 16 0  and 11 5 0 0 1 
 # max = 130427
5997693		 # 	collision with: 9 5 5 12 0  and 3 2 0 0 1 
 # max = 130427
158.04secs	130427 57985
