# prime 19
# degree 3
# input variables 2
# output variables 3
# reload computed balance functions from file balance-592of2048-p19d3m2-debug.log
# p = 19
# n = 3
# smalldomain p^m 361
# domain p^n 6859
#	 p^2 = 361
#	 p^3 = 6859
#	 p^4 = 130321
#	 p^5 = 2476099
#	 p^6 = 47045881
#	 p^7 = 893871739
#	 p^8 = 16983563041
#	 p^9 = 322687697779
opening file : balance-592of2048-p19d3m2-debug.log
reloading for step2...
2863661		 # 	collision with: 6 1 0  and 10 1 0 
 # max = 29
2864212		 # 	collision with: 3 5 0  and 2 3 1 
 # max = 420
2864213		 # 	collision with: 9 5 0  and 12 0 1 
 # max = 420
2864795		 # 	collision with: 6 0 0  and 9 0 0 
 # max = 420
2865656		 # 	collision with: 13 9 0  and 2 0 1 
 # max = 420
2865657		 # 	collision with: 0 8 0  and 2 1 1 
 # max = 420
2865948		 # 	collision with: 15 2 0  and 17 2 0 
 # max = 420
2866654		 # 	collision with: 5 1 0  and 13 1 0 
 # max = 420
2867154		 # 	collision with: 2 0 0  and 10 0 0 
 # max = 420
2867247		 # 	collision with: 1 1 0  and 18 2 0 
 # max = 420
2868158		 # 	collision with: 2 1 0  and 16 1 0 
 # max = 420
0.290285secs	420 196
