# prime 19
# degree 3
# input variables 2
# output variables 3
# reload computed balance functions from file balance-455of2048-p19d3m2-debug.log
# p = 19
# n = 3
# smalldomain p^m 361
# domain p^n 6859
#	 p^2 = 361
#	 p^3 = 6859
#	 p^4 = 130321
#	 p^5 = 2476099
#	 p^6 = 47045881
#	 p^7 = 893871739
#	 p^8 = 16983563041
#	 p^9 = 322687697779
opening file : balance-455of2048-p19d3m2-debug.log
reloading for step2...
2201212		 # 	collision with: 13 0 0  and 16 0 0 
 # max = 16
2201470		 # 	collision with: 17 0 0  and 6 1 0 
 # max = 25
2201864		 # 	collision with: 0 1 0  and 2 1 0 
 # max = 25
2202620		 # 	collision with: 3 0 0  and 8 0 0 
 # max = 25
2202662		 # 	collision with: 11 3 0  and 18 3 0 
 # max = 75
2203240		 # 	collision with: 17 7 0  and 10 1 1 
 # max = 390
2203241		 # 	collision with: 0 11 0  and 10 0 1 
 # max = 390
2203952		 # 	collision with: 11 2 0  and 18 2 0 
 # max = 390
2205047		 # 	collision with: 3 0 0  and 18 0 0 
 # max = 390
2205360		 # 	collision with: 12 1 0  and 14 1 0 
 # max = 390
0.251611secs	390 112
