# prime 19
# degree 3
# input variables 2
# output variables 5
# reload computed balance functions from file balance-569of2048-p19d3m2-debug.log
# p = 19
# n = 5
# smalldomain p^m 361
# domain p^n 2476099
#	 p^2 = 361
#	 p^3 = 6859
#	 p^4 = 130321
#	 p^5 = 2476099
#	 p^6 = 47045881
#	 p^7 = 893871739
#	 p^8 = 16983563041
#	 p^9 = 322687697779
opening file : balance-569of2048-p19d3m2-debug.log
reloading for step2...
2753328		 # 	collision with: 11 8 15 1 0  and 5 2 0 0 1 
 # max = 130364
2753329		 # 	collision with: 18 3 15 9 0  and 8 0 0 0 1 
 # max = 130364
2753472		 # 	collision with: 6 6 0 0 0  and 14 6 0 0 0 
 # max = 130364
2755938		 # 	collision with: 0 1 0 0 0  and 0 2 0 0 0 
 # max = 130364
2756216		 # 	collision with: 17 3 16 1 0  and 9 1 0 0 1 
 # max = 130364
2756217		 # 	collision with: 13 6 12 9 0  and 1 0 0 0 1 
 # max = 130364
2756516		 # 	collision with: 4 0 0 0 0  and 7 0 0 0 0 
 # max = 130364
2756596		 # 	collision with: 9 8 0 0 0  and 9 10 0 0 0 
 # max = 130364
2756898		 # 	collision with: 9 2 0 0 0  and 12 2 0 0 0 
 # max = 130364
169.248secs	130364 57976
