# prime 19
# degree 3
# input variables 2
# output variables 5
# reload computed balance functions from file balance-1987of2048-p19d3m2-debug.log
# p = 19
# n = 5
# smalldomain p^m 361
# domain p^n 2476099
#	 p^2 = 361
#	 p^3 = 6859
#	 p^4 = 130321
#	 p^5 = 2476099
#	 p^6 = 47045881
#	 p^7 = 893871739
#	 p^8 = 16983563041
#	 p^9 = 322687697779
opening file : balance-1987of2048-p19d3m2-debug.log
reloading for step2...
9612668		 # 	collision with: 0 1 0 0 0  and 17 1 0 0 0 
 # max = 36
9613116		 # 	collision with: 15 0 0 0 0  and 18 0 0 0 0 
 # max = 36
9613494		 # 	collision with: 0 1 0 0 0  and 16 1 0 0 0 
 # max = 36
9614178		 # 	collision with: 0 5 0 0 0  and 16 5 0 0 0 
 # max = 111
9614268		 # 	collision with: 5 2 0 0 0  and 15 2 0 0 0 
 # max = 111
9615856		 # 	collision with: 6 0 0 0 0  and 14 0 0 0 0 
 # max = 111
0.0977764secs	111 29
