# prime 19
# degree 3
# input variables 2
# output variables 4
# reload computed balance functions from file balance-363of2048-p19d3m2-debug.log
# p = 19
# n = 4
# smalldomain p^m 361
# domain p^n 130321
#	 p^2 = 361
#	 p^3 = 6859
#	 p^4 = 130321
#	 p^5 = 2476099
#	 p^6 = 47045881
#	 p^7 = 893871739
#	 p^8 = 16983563041
#	 p^9 = 322687697779
opening file : balance-363of2048-p19d3m2-debug.log
reloading for step2...
1756073		 # 	collision with: 5 0 0 0  and 9 0 0 0 
 # max = 9
1756233		 # 	collision with: 1 2 0 0  and 17 2 0 0 
 # max = 55
1756608		 # 	collision with: 4 0 0 0  and 11 0 0 0 
 # max = 55
1756644		 # 	collision with: 2 0 0 0  and 13 0 0 0 
 # max = 55
1757926		 # 	collision with: 11 1 0 0  and 11 3 0 0 
 # max = 68
1758128		 # 	collision with: 5 0 0 0  and 8 0 0 0 
 # max = 68
1759348		 # 	collision with: 0 0 0 0  and 9 0 0 0 
 # max = 68
1759688		 # 	collision with: 9 0 0 0  and 17 0 0 0 
 # max = 68
1759704		 # 	collision with: 17 8 14 0  and 5 0 0 1 
 # max = 6864
1759705		 # 	collision with: 8 13 17 0  and 13 0 0 1 
 # max = 6872
1760295		 # 	collision with: 3 2 0 0  and 5 2 0 0 
 # max = 6872
4.7271secs	6872 1552
