# prime 19
# degree 3
# input variables 2
# output variables 5
# reload computed balance functions from file balance-586of2048-p19d3m2-debug.log
# p = 19
# n = 5
# smalldomain p^m 361
# domain p^n 2476099
#	 p^2 = 361
#	 p^3 = 6859
#	 p^4 = 130321
#	 p^5 = 2476099
#	 p^6 = 47045881
#	 p^7 = 893871739
#	 p^8 = 16983563041
#	 p^9 = 322687697779
opening file : balance-586of2048-p19d3m2-debug.log
reloading for step2...
2835508		 # 	collision with: 10 2 0 0 0  and 14 2 0 0 0 
 # max = 52
2837068		 # 	collision with: 10 1 0 0 0  and 18 1 0 0 0 
 # max = 52
2837325		 # 	collision with: 3 1 0 0 0  and 9 1 0 0 0 
 # max = 52
0.0504514secs	52 13
