# prime 19
# degree 3
# input variables 2
# output variables 3
# reload computed balance functions from file balance-23of2048-p19d3m2-debug.log
# p = 19
# n = 3
# smalldomain p^m 361
# domain p^n 6859
#	 p^2 = 361
#	 p^3 = 6859
#	 p^4 = 130321
#	 p^5 = 2476099
#	 p^6 = 47045881
#	 p^7 = 893871739
#	 p^8 = 16983563041
#	 p^9 = 322687697779
opening file : balance-23of2048-p19d3m2-debug.log
reloading for step2...
111621		 # 	collision with: 5 2 0  and 10 2 0 
 # max = 48
112300		 # 	collision with: 10 0 0  and 13 0 0 
 # max = 48
112328		 # 	collision with: 1 9 1  and 12 1 2 
 # max = 753
112329		 # 	collision with: 12 10 0  and 16 0 1 
 # max = 753
112436		 # 	collision with: 6 0 0  and 9 0 0 
 # max = 753
112705		 # 	collision with: 8 15 0  and 0 1 1 
 # max = 753
112707		 # 	collision with: 8 16 0  and 9 3 1 
 # max = 753
113632		 # 	collision with: 5 0 0  and 16 0 0 
 # max = 753
114149		 # 	collision with: 8 1 0  and 0 2 1 
 # max = 753
114151		 # 	collision with: 10 7 0  and 13 2 1 
 # max = 753
115040		 # 	collision with: 16 0 0  and 17 0 0 
 # max = 753
0.54287secs	753 316
