# prime 19
# degree 3
# input variables 2
# output variables 4
# reload computed balance functions from file balance-1312of2048-p19d3m2-debug.log
# p = 19
# n = 4
# smalldomain p^m 361
# domain p^n 130321
#	 p^2 = 361
#	 p^3 = 6859
#	 p^4 = 130321
#	 p^5 = 2476099
#	 p^6 = 47045881
#	 p^7 = 893871739
#	 p^8 = 16983563041
#	 p^9 = 322687697779
opening file : balance-1312of2048-p19d3m2-debug.log
reloading for step2...
6346344		 # 	collision with: 12 0 0 0  and 15 0 0 0 
 # max = 15
6346694		 # 	collision with: 4 0 0 0  and 12 0 0 0 
 # max = 15
6347596		 # 	collision with: 0 1 4 0  and 4 0 0 1 
 # max = 6863
6347597		 # 	collision with: 7 17 11 0  and 8 0 0 1 
 # max = 6867
6347676		 # 	collision with: 6 2 0 0  and 17 2 0 0 
 # max = 6867
6347824		 # 	collision with: 9 5 0 0  and 10 5 0 0 
 # max = 6867
6348251		 # 	collision with: 5 2 0 0  and 13 2 0 0 
 # max = 6867
6348517		 # 	collision with: 5 1 0 0  and 14 1 0 0 
 # max = 6867
6348720		 # 	collision with: 4 0 0 0  and 8 0 0 0 
 # max = 6867
6349084		 # 	collision with: 0 2 0 0  and 11 2 0 0 
 # max = 6867
6350416		 # 	collision with: 2 3 0 0  and 15 3 0 0 
 # max = 6867
6350611		 # 	collision with: 4 0 0 0  and 15 0 0 0 
 # max = 6867
3.90214secs	6867 1571
