# prime 19
# degree 3
# input variables 2
# output variables 4
# reload computed balance functions from file balance-385of2048-p19d3m2-debug.log
# p = 19
# n = 4
# smalldomain p^m 361
# domain p^n 130321
#	 p^2 = 361
#	 p^3 = 6859
#	 p^4 = 130321
#	 p^5 = 2476099
#	 p^6 = 47045881
#	 p^7 = 893871739
#	 p^8 = 16983563041
#	 p^9 = 322687697779
opening file : balance-385of2048-p19d3m2-debug.log
reloading for step2...
1863326		 # 	collision with: 5 2 0 0  and 5 3 0 0 
 # max = 62
1863529		 # 	collision with: 14 1 0 0  and 18 1 0 0 
 # max = 62
1864760		 # 	collision with: 1 1 0 0  and 14 1 0 0 
 # max = 62
1864888		 # 	collision with: 11 7 6 0  and 7 1 0 1 
 # max = 6885
1864889		 # 	collision with: 18 7 10 0  and 9 1 0 1 
 # max = 6887
1866056		 # 	collision with: 3 1 0 0  and 12 1 0 0 
 # max = 6887
1866076		 # 	collision with: 3 6 0 0  and 8 6 0 0 
 # max = 6887
1866957		 # 	collision with: 1 1 0 0  and 10 1 0 0 
 # max = 6887
3.78528secs	6887 1565
