# prime 3
# degree 2
# input variables 3
# output variables 7
# p = 3
# n = 7
# smalldomain p^m 27
# domain p^n 2187
#	 p^2 = 9
#	 p^3 = 27
#	 p^4 = 81
#	 p^5 = 243
#	 p^6 = 729
#	 p^7 = 2187
#	 p^8 = 6561
#	 p^9 = 19683
# dimension of the chunk  69
# number of the chunk  85 of 126 blocks
# functions to test 69
# startcode = 5865  :: endcode = 5934:: fdomain = 69
5868
5870
5904
5906
# 0.0949696secs	# 4 balance functions. Density 0.057971
