# prime 3
# degree 2
# input variables 3
# output variables 7
# p = 3
# n = 7
# smalldomain p^m 27
# domain p^n 2187
#	 p^2 = 9
#	 p^3 = 27
#	 p^4 = 81
#	 p^5 = 243
#	 p^6 = 729
#	 p^7 = 2187
#	 p^8 = 6561
#	 p^9 = 19683
# dimension of the chunk  69
# number of the chunk  106 of 126 blocks
# functions to test 69
# startcode = 7314  :: endcode = 7383:: fdomain = 69
7323
7329
7331
7333
7344
7345
7360
7361
7376
7377
7380
7381
7382
# 0.102754secs	# 13 balance functions. Density 0.188406
