# prime 3
# degree 2
# input variables 3
# output variables 23
# reload computed balance functions from file balance-150of128-p3d2m3-debug.log
# p = 3
# n = 23
# smalldomain p^m 27
# domain p^n 94143178827
#	 p^2 = 9
#	 p^3 = 27
#	 p^4 = 81
#	 p^5 = 243
#	 p^6 = 729
#	 p^7 = 2187
#	 p^8 = 6561
#	 p^9 = 19683
#	 p^10 = 59049
#	 p^11 = 177147
#	 p^12 = 531441
#	 p^13 = 1594323
#	 p^14 = 4782969
#	 p^15 = 14348907
#	 p^16 = 43046721
#	 p^17 = 129140163
#	 p^18 = 387420489
#	 p^19 = 1162261467
#	 p^20 = 3486784401
#	 p^21 = 10460353203
#	 p^22 = 31381059609
#	 p^23 = 94143178827
opening file : balance-150of128-p3d2m3-debug.log
reloading for step2...
0.0125814secs	0 0
