# prime 3
# degree 2
# input variables 3
# output variables 13
# reload computed balance functions from file balance-107of128-p3d2m3-debug.log
# p = 3
# n = 13
# smalldomain p^m 27
# domain p^n 1594323
#	 p^2 = 9
#	 p^3 = 27
#	 p^4 = 81
#	 p^5 = 243
#	 p^6 = 729
#	 p^7 = 2187
#	 p^8 = 6561
#	 p^9 = 19683
#	 p^10 = 59049
#	 p^11 = 177147
#	 p^12 = 531441
#	 p^13 = 1594323
opening file : balance-107of128-p3d2m3-debug.log
reloading for step2...
7396		 # 	collision with: 1 2 0 0 0 0 0 0 0 0 0 0 0  and 2 2 0 0 0 0 0 0 0 0 0 0 0 
 # max = 8
7397		 # 	collision with: 1 2 0 0 0 0 0 0 0 0 0 0 0  and 2 2 0 0 0 0 0 0 0 0 0 0 0 
 # max = 8
7412		 # 	collision with: 1 0 1 0 0 0 0 0 0 0 0 0 0  and 1 1 1 0 0 0 0 0 0 0 0 0 0 
 # max = 13
7413		 # 	collision with: 2 0 0 0 0 0 0 0 0 0 0 0 0  and 2 2 0 0 0 0 0 0 0 0 0 0 0 
 # max = 13
7416		 # 	collision with: 1 1 0 2 0 1 1 2 0 1 0 0 0  and 0 0 2 0 0 0 0 0 0 0 0 1 0 
 # max = 177165
7417		 # 	collision with: 0 1 0 0 0 0 0 0 0 0 0 0 0  and 0 1 1 0 0 0 0 0 0 0 0 0 0 
 # max = 177165
7418		 # 	collision with: 1 0 1 1 1 1 1 1 0 2 1 0 0  and 2 2 0 0 0 0 1 0 0 0 1 1 0 
 # max = 236933
7432		 # 	collision with: 1 2 2 0 0 0 0 0 0 0 0 0 0  and 2 2 2 0 0 0 0 0 0 0 0 0 0 
 # max = 236933
7433		 # 	collision with: 2 0 2 0 0 0 0 0 0 0 0 0 0  and 1 2 2 0 0 0 0 0 0 0 0 0 0 
 # max = 236933
7448		 # 	collision with: 1 2 0 0 0 0 0 0 0 0 0 0 0  and 2 2 0 0 0 0 0 0 0 0 0 0 0 
 # max = 236933
7449		 # 	collision with: 1 2 0 0 0 0 0 0 0 0 0 0 0  and 2 2 0 0 0 0 0 0 0 0 0 0 0 
 # max = 236933
1077.22secs	236933 46023
