# prime 3
# degree 2
# input variables 3
# output variables 7
# reload computed balance functions from file balance-22of128-p3d2m3-debug.log
# p = 3
# n = 7
# smalldomain p^m 27
# domain p^n 2187
#	 p^2 = 9
#	 p^3 = 27
#	 p^4 = 81
#	 p^5 = 243
#	 p^6 = 729
#	 p^7 = 2187
#	 p^8 = 6561
#	 p^9 = 19683
opening file : balance-22of128-p3d2m3-debug.log
reloading for step2...
1518		 # 	collision with: 2 1 0 0 0 0 0  and 2 2 0 0 0 0 0 
 # max = 8
1522		 # 	collision with: 2 0 0 0 0 0 0  and 2 2 0 0 0 0 0 
 # max = 8
1525		 # 	collision with: 2 1 0 0 0 0 0  and 0 2 0 0 0 0 0 
 # max = 8
1532		 # 	collision with: 0 0 0 0 0 0 0  and 0 1 0 0 0 0 0 
 # max = 8
1534		 # 	collision with: 2 0 0 0 0 0 0  and 2 2 0 0 0 0 0 
 # max = 8
1537		 # 	collision with: 2 1 0 0 0 0 0  and 0 2 0 0 0 0 0 
 # max = 8
1540		 # 	collision with: 0 0 0 0 0 0 0  and 0 1 0 0 0 0 0 
 # max = 8
1542		 # 	collision with: 2 1 0 0 0 0 0  and 2 2 0 0 0 0 0 
 # max = 8
1548		 # 	collision with: 2 2 1 1 2 2 0  and 2 0 0 0 0 0 1 
 # max = 731
1550		 # 	collision with: 1 1 0 1 0 0 0  and 0 2 0 0 0 1 0 
 # max = 731
1552		 # 	collision with: 1 2 0 0 0 0 0  and 2 2 0 0 0 0 0 
 # max = 731
1556		 # 	collision with: 0 1 0 0 0 0 0  and 2 1 0 0 0 0 0 
 # max = 731
1558		 # 	collision with: 2 1 1 0 0 0 0  and 2 2 1 0 0 0 0 
 # max = 731
1563		 # 	collision with: 2 0 1 0 0 0 0  and 2 2 1 0 0 0 0 
 # max = 731
1570		 # 	collision with: 2 1 1 0 0 0 0  and 2 2 1 0 0 0 0 
 # max = 731
1573		 # 	collision with: 0 1 0 0 0 0 0  and 2 1 0 0 0 0 0 
 # max = 731
1575		 # 	collision with: 2 0 1 0 0 0 0  and 2 2 1 0 0 0 0 
 # max = 731
1576		 # 	collision with: 1 2 0 0 0 0 0  and 2 2 0 0 0 0 0 
 # max = 731
1584		 # 	collision with: 1 2 1 2 1 2 0  and 1 0 1 0 0 0 1 
 # max = 739
1586		 # 	collision with: 2 2 2 2 0 0 0  and 0 1 1 0 0 1 0 
 # max = 739
1.60345secs	739 235
