# prime 3
# degree 2
# input variables 3
# output variables 5
# reload computed balance functions from file balance-147of128-p3d2m3-debug.log
# p = 3
# n = 5
# smalldomain p^m 27
# domain p^n 243
#	 p^2 = 9
#	 p^3 = 27
#	 p^4 = 81
#	 p^5 = 243
#	 p^6 = 729
#	 p^7 = 2187
#	 p^8 = 6561
#	 p^9 = 19683
opening file : balance-147of128-p3d2m3-debug.log
reloading for step2...
1.4368e-05secs	0 0
