# prime 5
# degree 2
# input variables 2
# output variables 7
# p = 5
# n = 7
# smalldomain p^m 25
# domain p^n 78125
#	 p^2 = 25
#	 p^3 = 125
#	 p^4 = 625
#	 p^5 = 3125
#	 p^6 = 15625
#	 p^7 = 78125
