# prime 5
# degree 2
# input variables 2
# output variables 4
# reload computed balance functions from file balance-25of10-p5d2m2-debug.log
# p = 5
# n = 4
# smalldomain p^m 25
# domain p^n 625
#	 p^2 = 25
#	 p^3 = 125
#	 p^4 = 625
#	 p^5 = 3125
opening file : balance-25of10-p5d2m2-debug.log
reloading for step2...
1.566e-05secs	0 0
