# prime 17
# degree 2
# input variables 2
# output variables 7
# p = 17
# n = 7
# smalldomain p^m 289
# domain p^n 410338673
#	 p^2 = 289
#	 p^3 = 4913
#	 p^4 = 83521
#	 p^5 = 1419857
#	 p^6 = 24137569
#	 p^7 = 410338673
# dimension of the chunk  77
# number of the chunk  113 of 255 blocks
# functions to test 77
# startcode = 8701  :: endcode = 8778:: fdomain = 77
8738
8739
# 0.561672secs	# 2 balance functions. Density 0.025974
