# 0.384896secs	# 5 balance functions. Density 0.0649351
# 0.558313secs	# 2 balance functions. Density 0.025974
# 0.752494secs	# 2 balance functions. Density 0.025974
# 0.775047secs	# 4 balance functions. Density 0.0519481
# 0.72156secs	# 2 balance functions. Density 0.025974
# 0.537435secs	# 2 balance functions. Density 0.025974
# 0.543409secs	# 1 balance functions. Density 0.012987
# 0.738784secs	# 2 balance functions. Density 0.025974
# 0.574067secs	# 2 balance functions. Density 0.025974
# 0.679554secs	# 2 balance functions. Density 0.025974
# 0.702883secs	# 4 balance functions. Density 0.0519481
# 1.04456secs	# 37 balance functions. Density 0.480519
# 0.51152secs	# 2 balance functions. Density 0.025974
# 0.850535secs	# 2 balance functions. Density 0.025974
# 0.73716secs	# 2 balance functions. Density 0.025974
# 0.561672secs	# 2 balance functions. Density 0.025974
# 0.487987secs	# 1 balance functions. Density 0.012987
# 0.804128secs	# 2 balance functions. Density 0.025974
# 0.66139secs	# 2 balance functions. Density 0.025974
# 0.813405secs	# 4 balance functions. Density 0.0519481
# 0.746881secs	# 2 balance functions. Density 0.025974
# 0.638382secs	# 2 balance functions. Density 0.025974
# 1.03362secs	# 37 balance functions. Density 0.480519
# 0.494114secs	# 1 balance functions. Density 0.012987
# 0.504149secs	# 2 balance functions. Density 0.025974
# 0.563548secs	# 2 balance functions. Density 0.025974
# 0.68578secs	# 2 balance functions. Density 0.025974
# 0.585809secs	# 2 balance functions. Density 0.025974
# 0.70463secs	# 2 balance functions. Density 0.025974
# 0.741096secs	# 2 balance functions. Density 0.025974
# 0.762034secs	# 2 balance functions. Density 0.025974
# 0.320869secs	# 4 balance functions. Density 0.0519481
# 0.412417secs	# 2 balance functions. Density 0.025974
# 1.00363secs	# 38 balance functions. Density 0.493506
# 0.625782secs	# 2 balance functions. Density 0.025974
# 0.556379secs	# 2 balance functions. Density 0.025974
# 0.617696secs	# 1 balance functions. Density 0.012987
# 0.757094secs	# 2 balance functions. Density 0.025974
# 0.781749secs	# 2 balance functions. Density 0.025974
# 0.471817secs	# 3 balance functions. Density 0.038961
# 0.759823secs	# 2 balance functions. Density 0.025974
# 0.980001secs	# 2 balance functions. Density 0.025974
# 0.833267secs	# 2 balance functions. Density 0.025974
# 0.704965secs	# 1 balance functions. Density 0.012987
# 0.961577secs	# 38 balance functions. Density 0.493506
# 0.517491secs	# 2 balance functions. Density 0.025974
# 0.598359secs	# 2 balance functions. Density 0.025974
# 0.530117secs	# 2 balance functions. Density 0.025974
# 0.756854secs	# 4 balance functions. Density 0.0519481
# 0.767584secs	# 2 balance functions. Density 0.025974
# 0.82233secs	# 2 balance functions. Density 0.025974
# 0.734241secs	# 2 balance functions. Density 0.025974
# 0.598261secs	# 2 balance functions. Density 0.025974
# 0.573187secs	# 2 balance functions. Density 0.025974
# 0.415479secs	# 2 balance functions. Density 0.025974
# 0.83534secs	# 37 balance functions. Density 0.480519
# 0.380025secs	# 3 balance functions. Density 0.038961
# 0.557948secs	# 2 balance functions. Density 0.025974
# 0.622863secs	# 2 balance functions. Density 0.025974
# 0.833055secs	# 2 balance functions. Density 0.025974
# 0.566627secs	# 3 balance functions. Density 0.038961
# 0.752612secs	# 3 balance functions. Density 0.038961
# 0.495582secs	# 1 balance functions. Density 0.012987
# 0.651912secs	# 2 balance functions. Density 0.025974
# 0.721897secs	# 2 balance functions. Density 0.025974
# 0.664763secs	# 2 balance functions. Density 0.025974
# 0.455321secs	# 1 balance functions. Density 0.012987
# 0.562448secs	# 2 balance functions. Density 0.025974
# 0.694002secs	# 2 balance functions. Density 0.025974
# 0.549295secs	# 4 balance functions. Density 0.0519481
# 0.408516secs	# 2 balance functions. Density 0.025974
# 0.799493secs	# 2 balance functions. Density 0.025974
# 0.469454secs	# 1 balance functions. Density 0.012987
# 0.451374secs	# 2 balance functions. Density 0.025974
# 0.637638secs	# 2 balance functions. Density 0.025974
# 0.556304secs	# 2 balance functions. Density 0.025974
# 0.876057secs	# 2 balance functions. Density 0.025974
# 0.866474secs	# 2 balance functions. Density 0.025974
# 0.570168secs	# 4 balance functions. Density 0.0519481
# 0.559704secs	# 2 balance functions. Density 0.025974
# 0.520345secs	# 2 balance functions. Density 0.025974
# 0.545564secs	# 2 balance functions. Density 0.025974
# 0.776448secs	# 2 balance functions. Density 0.025974
# 0.847316secs	# 1 balance functions. Density 0.012987
# 0.549309secs	# 2 balance functions. Density 0.025974
# 0.62993secs	# 2 balance functions. Density 0.025974
# 0.679987secs	# 4 balance functions. Density 0.0519481
# 0.755095secs	# 2 balance functions. Density 0.025974
# 0.796194secs	# 1 balance functions. Density 0.012987
# 0.576002secs	# 1 balance functions. Density 0.012987
# 0.601974secs	# 2 balance functions. Density 0.025974
# 0.825537secs	# 3 balance functions. Density 0.038961
# 0.731883secs	# 2 balance functions. Density 0.025974
# 0.738226secs	# 2 balance functions. Density 0.025974
# 0.617011secs	# 2 balance functions. Density 0.025974
# 0.612584secs	# 2 balance functions. Density 0.025974
# 0.664722secs	# 2 balance functions. Density 0.025974
# 0.722173secs	# 2 balance functions. Density 0.025974
# 0.485813secs	# 2 balance functions. Density 0.025974
# 1.00188secs	# 2 balance functions. Density 0.025974
# 0.648447secs	# 4 balance functions. Density 0.0519481
# 0.755754secs	# 2 balance functions. Density 0.025974
# 0.712901secs	# 2 balance functions. Density 0.025974
# 0.576821secs	# 2 balance functions. Density 0.025974
# 0.579122secs	# 2 balance functions. Density 0.025974
# 0.353025secs	# 1 balance functions. Density 0.012987
# 0.804937secs	# 2 balance functions. Density 0.025974
# 0.665529secs	# 2 balance functions. Density 0.025974
# 0.662051secs	# 4 balance functions. Density 0.0519481
# 0.739668secs	# 2 balance functions. Density 0.025974
# 0.731135secs	# 2 balance functions. Density 0.025974
# 0.641507secs	# 38 balance functions. Density 0.493506
# 0.70986secs	# 2 balance functions. Density 0.025974
# 0.614544secs	# 2 balance functions. Density 0.025974
# 0.417597secs	# 1 balance functions. Density 0.012987
# 0.742689secs	# 2 balance functions. Density 0.025974
# 0.748165secs	# 2 balance functions. Density 0.025974
# 0.508226secs	# 2 balance functions. Density 0.025974
# 0.64842secs	# 4 balance functions. Density 0.0519481
# 0.805109secs	# 2 balance functions. Density 0.025974
# 0.643229secs	# 2 balance functions. Density 0.025974
# 0.511435secs	# 2 balance functions. Density 0.025974
# 0.653421secs	# 2 balance functions. Density 0.025974
# 0.547393secs	# 0 balance functions. Density 0
# 0.645641secs	# 3 balance functions. Density 0.038961
# 0.675344secs	# 2 balance functions. Density 0.025974
# 0.477041secs	# 2 balance functions. Density 0.025974
# 0.728229secs	# 2 balance functions. Density 0.025974
# 0.693998secs	# 1 balance functions. Density 0.012987
# 0.525603secs	# 2 balance functions. Density 0.025974
# 0.810061secs	# 2 balance functions. Density 0.025974
# 0.484808secs	# 4 balance functions. Density 0.0519481
# 0.558668secs	# 2 balance functions. Density 0.025974
# 0.676491secs	# 4 balance functions. Density 0.0519481
# 0.613744secs	# 2 balance functions. Density 0.025974
# 0.566456secs	# 2 balance functions. Density 0.025974
# 0.75204secs	# 2 balance functions. Density 0.025974
# 0.623006secs	# 2 balance functions. Density 0.025974
# 0.760192secs	# 2 balance functions. Density 0.025974
# 0.544911secs	# 3 balance functions. Density 0.038961
# 0.571135secs	# 2 balance functions. Density 0.025974
# 0.433444secs	# 4 balance functions. Density 0.0519481
# 0.618838secs	# 2 balance functions. Density 0.025974
# 0.309343secs	# 2 balance functions. Density 0.025974
# 0.802171secs	# 2 balance functions. Density 0.025974
# 0.55299secs	# 2 balance functions. Density 0.025974
# 0.68839secs	# 2 balance functions. Density 0.025974
# 0.539453secs	# 2 balance functions. Density 0.025974
# 0.95823secs	# 2 balance functions. Density 0.025974
# 0.53694secs	# 3 balance functions. Density 0.038961
# 0.965758secs	# 3 balance functions. Density 0.038961
# 0.786708secs	# 2 balance functions. Density 0.025974
# 0.892125secs	# 2 balance functions. Density 0.025974
# 0.814018secs	# 2 balance functions. Density 0.025974
# 0.560756secs	# 1 balance functions. Density 0.012987
# 0.670055secs	# 2 balance functions. Density 0.025974
# 0.418755secs	# 1 balance functions. Density 0.012987
# 0.429437secs	# 2 balance functions. Density 0.025974
# 0.534265secs	# 2 balance functions. Density 0.025974
# 0.451274secs	# 2 balance functions. Density 0.025974
# 0.489084secs	# 2 balance functions. Density 0.025974
# 0.525768secs	# 2 balance functions. Density 0.025974
# 0.534334secs	# 2 balance functions. Density 0.025974
# 0.67408secs	# 4 balance functions. Density 0.0519481
# 0.598266secs	# 2 balance functions. Density 0.025974
# 0.765506secs	# 2 balance functions. Density 0.025974
# 0.569854secs	# 2 balance functions. Density 0.025974
# 0.866787secs	# 2 balance functions. Density 0.025974
# 0.719916secs	# 2 balance functions. Density 0.025974
# 0.615769secs	# 2 balance functions. Density 0.025974
# 0.907388secs	# 2 balance functions. Density 0.025974
# 0.797104secs	# 1 balance functions. Density 0.012987
# 0.211539secs	# 2 balance functions. Density 0.117647
# 0.72523secs	# 2 balance functions. Density 0.025974
# 0.657803secs	# 2 balance functions. Density 0.025974
# 0.659514secs	# 2 balance functions. Density 0.025974
# 0.517767secs	# 4 balance functions. Density 0.0519481
# 0.344617secs	# 2 balance functions. Density 0.025974
# 0.845557secs	# 37 balance functions. Density 0.480519
# 0.612813secs	# 2 balance functions. Density 0.025974
# 0.797608secs	# 2 balance functions. Density 0.025974
# 0.737228secs	# 2 balance functions. Density 0.025974
# 0.798931secs	# 2 balance functions. Density 0.025974
# 0.845444secs	# 2 balance functions. Density 0.025974
# 0.731964secs	# 2 balance functions. Density 0.025974
# 0.75346secs	# 2 balance functions. Density 0.025974
# 0.838403secs	# 2 balance functions. Density 0.025974
# 0.446251secs	# 4 balance functions. Density 0.0519481
# 0.88727secs	# 2 balance functions. Density 0.025974
# 0.830956secs	# 37 balance functions. Density 0.480519
# 0.782195secs	# 2 balance functions. Density 0.025974
# 0.679835secs	# 2 balance functions. Density 0.025974
# 0.623823secs	# 2 balance functions. Density 0.025974
# 0.451026secs	# 2 balance functions. Density 0.025974
# 0.697544secs	# 2 balance functions. Density 0.025974
# 0.648815secs	# 1 balance functions. Density 0.012987
# 0.708338secs	# 2 balance functions. Density 0.025974
# 0.524081secs	# 2 balance functions. Density 0.025974
# 0.984473secs	# 2 balance functions. Density 0.025974
# 0.618164secs	# 2 balance functions. Density 0.025974
# 0.958006secs	# 38 balance functions. Density 0.493506
# 0.724686secs	# 2 balance functions. Density 0.025974
# 0.818978secs	# 2 balance functions. Density 0.025974
# 0.391722secs	# 4 balance functions. Density 0.0519481
# 0.693066secs	# 2 balance functions. Density 0.025974
# 0.530338secs	# 2 balance functions. Density 0.025974
# 0.534618secs	# 2 balance functions. Density 0.025974
# 0.600137secs	# 1 balance functions. Density 0.012987
# 0.632494secs	# 2 balance functions. Density 0.025974
# 0.709503secs	# 2 balance functions. Density 0.025974
# 0.599534secs	# 4 balance functions. Density 0.0519481
# 0.832934secs	# 38 balance functions. Density 0.493506
# 0.527023secs	# 1 balance functions. Density 0.012987
# 0.577547secs	# 2 balance functions. Density 0.025974
# 0.627293secs	# 4 balance functions. Density 0.0519481
# 0.946985secs	# 2 balance functions. Density 0.025974
# 0.600495secs	# 2 balance functions. Density 0.025974
# 0.668605secs	# 2 balance functions. Density 0.025974
# 0.606479secs	# 2 balance functions. Density 0.025974
# 0.614121secs	# 2 balance functions. Density 0.025974
# 0.478418secs	# 1 balance functions. Density 0.012987
# 0.718211secs	# 2 balance functions. Density 0.025974
# 0.870582secs	# 37 balance functions. Density 0.480519
# 0.870882secs	# 4 balance functions. Density 0.0519481
# 0.60618secs	# 2 balance functions. Density 0.025974
# 0.496431secs	# 2 balance functions. Density 0.025974
# 0.761218secs	# 2 balance functions. Density 0.025974
# 0.72459secs	# 2 balance functions. Density 0.025974
# 0.589179secs	# 1 balance functions. Density 0.012987
# 0.614583secs	# 4 balance functions. Density 0.0519481
# 0.626678secs	# 2 balance functions. Density 0.025974
# 0.738711secs	# 2 balance functions. Density 0.025974
# 0.894218secs	# 2 balance functions. Density 0.025974
# 0.87153secs	# 36 balance functions. Density 0.467532
# 0.860175secs	# 2 balance functions. Density 0.025974
# 0.643552secs	# 2 balance functions. Density 0.025974
# 0.809983secs	# 2 balance functions. Density 0.025974
# 0.700102secs	# 2 balance functions. Density 0.025974
# 0.894212secs	# 4 balance functions. Density 0.0519481
# 0.68073secs	# 2 balance functions. Density 0.025974
# 0.678332secs	# 2 balance functions. Density 0.025974
# 0.724328secs	# 1 balance functions. Density 0.012987
# 0.713281secs	# 2 balance functions. Density 0.025974
# 0.81966secs	# 2 balance functions. Density 0.025974
# 0.798207secs	# 38 balance functions. Density 0.493506
# 0.590422secs	# 1 balance functions. Density 0.012987
# 0.900424secs	# 2 balance functions. Density 0.025974
# 0.75525secs	# 2 balance functions. Density 0.025974
# 0.706895secs	# 2 balance functions. Density 0.025974
# 0.603504secs	# 3 balance functions. Density 0.038961
# 0.669505secs	# 2 balance functions. Density 0.025974
# 0.814839secs	# 2 balance functions. Density 0.025974
# 0.563372secs	# 2 balance functions. Density 0.025974
# 0.626707secs	# 2 balance functions. Density 0.025974
# 0.440067secs	# 2 balance functions. Density 0.025974
# 1.02742secs	# 38 balance functions. Density 0.493506
