# prime 17
# degree 2
# input variables 2
# output variables 3
# reload computed balance functions from file balance-9of256-p17d2m2-debug.log
# p = 17
# n = 3
# smalldomain p^m 289
# domain p^n 4913
#	 p^2 = 289
#	 p^3 = 4913
#	 p^4 = 83521
#	 p^5 = 1419857
opening file : balance-9of256-p17d2m2-debug.log
reloading for step2...
693		 # 	collision with: 2 14 0  and 1 0 1 
 # max = 290
696		 # 	collision with: 3 14 0  and 10 0 1 
 # max = 299
697		 # 	collision with: 13 9 0  and 14 0 1 
 # max = 303
700		 # 	collision with: 10 9 0  and 8 0 1 
 # max = 303
701		 # 	collision with: 4 4 0  and 9 0 1 
 # max = 303
704		 # 	collision with: 10 4 0  and 6 0 1 
 # max = 303
705		 # 	collision with: 15 16 0  and 7 0 1 
 # max = 303
708		 # 	collision with: 0 16 0  and 16 0 1 
 # max = 305
709		 # 	collision with: 16 11 0  and 10 0 1 
 # max = 305
712		 # 	collision with: 8 11 0  and 13 0 1 
 # max = 305
713		 # 	collision with: 8 6 0  and 0 0 1 
 # max = 305
716		 # 	collision with: 13 6 0  and 8 0 1 
 # max = 305
717		 # 	collision with: 14 1 0  and 15 0 1 
 # max = 305
720		 # 	collision with: 16 1 0  and 0 0 1 
 # max = 305
721		 # 	collision with: 14 13 0  and 16 0 1 
 # max = 305
724		 # 	collision with: 6 13 0  and 10 0 1 
 # max = 305
725		 # 	collision with: 15 8 0  and 8 0 1 
 # max = 305
728		 # 	collision with: 8 8 0  and 10 0 1 
 # max = 305
729		 # 	collision with: 12 3 0  and 1 0 1 
 # max = 305
732		 # 	collision with: 10 3 0  and 3 0 1 
 # max = 305
733		 # 	collision with: 0 15 0  and 5 0 1 
 # max = 305
736		 # 	collision with: 13 15 0  and 5 0 1 
 # max = 305
737		 # 	collision with: 15 10 0  and 3 0 1 
 # max = 305
740		 # 	collision with: 12 10 0  and 9 0 1 
 # max = 305
741		 # 	collision with: 1 5 0  and 5 0 1 
 # max = 305
744		 # 	collision with: 12 5 0  and 1 0 1 
 # max = 305
745		 # 	collision with: 12 10 1  and 3 0 2 
 # max = 581
751		 # 	collision with: 0 14 0  and 5 2 1 
 # max = 581
752		 # 	collision with: 3 14 0  and 10 0 1 
 # max = 581
753		 # 	collision with: 15 11 0  and 10 0 1 
 # max = 581
756		 # 	collision with: 8 11 0  and 13 0 1 
 # max = 581
757		 # 	collision with: 14 9 0  and 3 1 1 
 # max = 581
760		 # 	collision with: 8 8 0  and 10 0 1 
 # max = 581
761		 # 	collision with: 6 5 0  and 4 0 1 
 # max = 581
764		 # 	collision with: 12 5 0  and 1 0 1 
 # max = 581
765		 # 	collision with: 16 2 0  and 13 0 1 
 # max = 581
768		 # 	collision with: 5 2 0  and 13 0 1 
 # max = 581
769		 # 	collision with: 5 16 0  and 10 0 1 
 # max = 581
1.70036secs	581 2322
