# prime 17
# degree 2
# input variables 2
# output variables 4
# reload computed balance functions from file balance-167of256-p17d2m2-debug.log
# p = 17
# n = 4
# smalldomain p^m 289
# domain p^n 83521
#	 p^2 = 289
#	 p^3 = 4913
#	 p^4 = 83521
#	 p^5 = 1419857
opening file : balance-167of256-p17d2m2-debug.log
reloading for step2...
12890		 # 	collision with: 8 6 0 0  and 9 6 0 0 
 # max = 111
12891		 # 	collision with: 7 0 0 0  and 8 0 0 0 
 # max = 111
0.0260695secs	111 23
