# prime 17
# degree 2
# input variables 2
# output variables 4
# reload computed balance functions from file balance-153of256-p17d2m2-debug.log
# p = 17
# n = 4
# smalldomain p^m 289
# domain p^n 83521
#	 p^2 = 289
#	 p^3 = 4913
#	 p^4 = 83521
#	 p^5 = 1419857
opening file : balance-153of256-p17d2m2-debug.log
reloading for step2...
11798		 # 	collision with: 2 6 0 0  and 15 8 0 0 
 # max = 151
11799		 # 	collision with: 0 8 0 0  and 2 8 0 0 
 # max = 151
0.081146secs	151 57
