# prime 17
# degree 2
# input variables 2
# output variables 4
# reload computed balance functions from file balance-31of256-p17d2m2-debug.log
# p = 17
# n = 4
# smalldomain p^m 289
# domain p^n 83521
#	 p^2 = 289
#	 p^3 = 4913
#	 p^4 = 83521
#	 p^5 = 1419857
opening file : balance-31of256-p17d2m2-debug.log
reloading for step2...
2454		 # 	collision with: 1 7 0 0  and 1 8 0 0 
 # max = 137
2455		 # 	collision with: 9 7 0 0  and 7 8 0 0 
 # max = 143
0.0692066secs	143 56
