# prime 17
# degree 2
# input variables 2
# output variables 3
# reload computed balance functions from file balance-115of256-p17d2m2-debug.log
# p = 17
# n = 3
# smalldomain p^m 289
# domain p^n 4913
#	 p^2 = 289
#	 p^3 = 4913
#	 p^4 = 83521
#	 p^5 = 1419857
opening file : balance-115of256-p17d2m2-debug.log
reloading for step2...
8874		 # 	collision with: 10 2 0  and 7 4 0 
 # max = 75
8875		 # 	collision with: 0 3 0  and 2 3 0 
 # max = 75
0.00931563secs	75 25
