# prime 17
# degree 2
# input variables 2
# output variables 4
# reload computed balance functions from file balance-1of256-p17d2m2-debug.log
# p = 17
# n = 4
# smalldomain p^m 289
# domain p^n 83521
#	 p^2 = 289
#	 p^3 = 4913
#	 p^4 = 83521
#	 p^5 = 1419857
opening file : balance-1of256-p17d2m2-debug.log
reloading for step2...
77		 # 	collision with: 12 13 3 0  and 6 0 0 1 
 # max = 4919
80		 # 	collision with: 12 7 3 0  and 6 0 0 1 
 # max = 4919
81		 # 	collision with: 3 16 4 0  and 5 0 0 1 
 # max = 4919
84		 # 	collision with: 10 4 4 0  and 6 0 0 1 
 # max = 4919
85		 # 	collision with: 9 14 5 0  and 8 0 0 1 
 # max = 4921
88		 # 	collision with: 4 11 5 0  and 14 0 0 1 
 # max = 4927
89		 # 	collision with: 0 1 6 0  and 6 0 0 1 
 # max = 4927
92		 # 	collision with: 2 5 6 0  and 16 0 0 1 
 # max = 4929
93		 # 	collision with: 1 5 7 0  and 3 0 0 1 
 # max = 4929
96		 # 	collision with: 3 14 7 0  and 15 0 0 1 
 # max = 4929
97		 # 	collision with: 4 3 8 0  and 2 0 0 1 
 # max = 4929
100		 # 	collision with: 9 15 8 0  and 7 0 0 1 
 # max = 4929
101		 # 	collision with: 14 6 9 0  and 2 0 0 1 
 # max = 4929
104		 # 	collision with: 7 2 9 0  and 9 0 0 1 
 # max = 4929
105		 # 	collision with: 10 8 10 0  and 16 0 0 1 
 # max = 4929
108		 # 	collision with: 15 3 10 0  and 3 0 0 1 
 # max = 4929
109		 # 	collision with: 2 3 11 0  and 10 0 0 1 
 # max = 4929
112		 # 	collision with: 16 12 11 0  and 2 0 0 1 
 # max = 4929
113		 # 	collision with: 2 2 12 0  and 14 0 0 1 
 # max = 4929
116		 # 	collision with: 14 6 12 0  and 4 0 0 1 
 # max = 4929
117		 # 	collision with: 13 16 13 0  and 7 0 0 1 
 # max = 4929
120		 # 	collision with: 6 13 13 0  and 10 0 0 1 
 # max = 4929
121		 # 	collision with: 10 5 14 0  and 0 0 0 1 
 # max = 4929
124		 # 	collision with: 6 10 14 0  and 12 0 0 1 
 # max = 4929
125		 # 	collision with: 6 14 15 0  and 10 0 0 1 
 # max = 4929
128		 # 	collision with: 4 8 15 0  and 12 0 0 1 
 # max = 4929
129		 # 	collision with: 10 3 16 0  and 12 0 0 1 
 # max = 4929
132		 # 	collision with: 0 1 16 0  and 16 0 0 1 
 # max = 4929
133		 # 	collision with: 3 6 15 0  and 7 0 0 2 
 # max = 9833
139		 # 	collision with: 5 7 5 0  and 2 0 0 1 
 # max = 9833
140		 # 	collision with: 7 2 9 0  and 9 0 0 1 
 # max = 9833
141		 # 	collision with: 1 0 1 0  and 0 1 0 1 
 # max = 9833
144		 # 	collision with: 16 16 1 0  and 0 0 0 1 
 # max = 9833
145		 # 	collision with: 5 14 10 0  and 4 0 0 1 
 # max = 9833
148		 # 	collision with: 15 3 10 0  and 3 0 0 1 
 # max = 9833
149		 # 	collision with: 10 10 2 0  and 12 0 0 1 
 # max = 9833
152		 # 	collision with: 12 9 2 0  and 4 0 0 1 
 # max = 9833
153		 # 	collision with: 11 16 11 0  and 4 0 0 1 
 # max = 9833
42.2444secs	9833 38380
