# prime 17
# degree 2
# input variables 2
# output variables 5
# reload computed balance functions from file balance-121of256-p17d2m2-debug.log
# p = 17
# n = 5
# smalldomain p^m 289
# domain p^n 1419857
#	 p^2 = 289
#	 p^3 = 4913
#	 p^4 = 83521
#	 p^5 = 1419857
opening file : balance-121of256-p17d2m2-debug.log
reloading for step2...
9382		 # 	collision with: 8 2 0 0 0  and 9 2 0 0 0 
 # max = 43
9383		 # 	collision with: 0 4 0 0 0  and 1 4 0 0 0 
 # max = 69
0.0439209secs	69 22
