# prime 17
# degree 2
# input variables 2
# output variables 3
# reload computed balance functions from file balance-195of256-p17d2m2-debug.log
# p = 17
# n = 3
# smalldomain p^m 289
# domain p^n 4913
#	 p^2 = 289
#	 p^3 = 4913
#	 p^4 = 83521
#	 p^5 = 1419857
opening file : balance-195of256-p17d2m2-debug.log
reloading for step2...
15047		 # 	collision with: 1 1 0  and 3 1 0 
 # max = 20
0.00132989secs	20 4
