# prime 17
# degree 2
# input variables 2
# output variables 4
# reload computed balance functions from file balance-15of256-p17d2m2-debug.log
# p = 17
# n = 4
# smalldomain p^m 289
# domain p^n 83521
#	 p^2 = 289
#	 p^3 = 4913
#	 p^4 = 83521
#	 p^5 = 1419857
opening file : balance-15of256-p17d2m2-debug.log
reloading for step2...
1211		 # 	collision with: 6 4 0 0  and 7 4 0 0 
 # max = 75
0.0223635secs	75 15
