# prime 3
# degree 2
# input variables 2
# reload computed balance functions from file balance-2of18-p3d2m2-debug.log
# p = 3
# n = 0
# smalldomain p^m 9
# domain p^n 1
#	 p^2 = 9
#	 p^3 = 27
#	 p^4 = 81
#	 p^5 = 243
opening file : balance-2of18-p3d2m2-debug.log
reloading for step2...
15		 # 	collision with:  and 
 # max = 2
16		 # 	collision with:  and 
 # max = 2
17		 # 	collision with:  and 
 # max = 2
7.559e-05secs	2 1
