# prime 3
# degree 2
# input variables 2
# output variables 11
# reload computed balance functions from file balance-9of18-p3d2m2-debug.log
# p = 3
# n = 11
# smalldomain p^m 9
# domain p^n 177147
#	 p^2 = 9
#	 p^3 = 27
#	 p^4 = 81
#	 p^5 = 243
#	 p^6 = 729
#	 p^7 = 2187
#	 p^8 = 6561
#	 p^9 = 19683
#	 p^10 = 59049
#	 p^11 = 177147
opening file : balance-9of18-p3d2m2-debug.log
reloading for step2...
54		 # 	collision with: 1 2 0 0 0 0 0 0 0 0 0  and 2 2 0 0 0 0 0 0 0 0 0 
 # max = 8
55		 # 	collision with: 0 0 0 0 0 0 0 0 0 0 0  and 2 0 0 0 0 0 0 0 0 0 0 
 # max = 8
0.00166328secs	8 2
