# prime 3
# degree 2
# input variables 2
# output variables 5
# reload computed balance functions from file balance-24of18-p3d2m2-debug.log
# p = 3
# n = 5
# smalldomain p^m 9
# domain p^n 243
#	 p^2 = 9
#	 p^3 = 27
#	 p^4 = 81
#	 p^5 = 243
opening file : balance-24of18-p3d2m2-debug.log
reloading for step2...
1.5652e-05secs	0 0
