# prime 23
# degree 2
# input variables 2
# output variables 7
# p = 23
# n = 7
# smalldomain p^m 529
# domain p^n 3404825447
#	 p^2 = 529
#	 p^3 = 12167
#	 p^4 = 279841
#	 p^5 = 6436343
#	 p^6 = 148035889
#	 p^7 = 3404825447
# dimension of the chunk  48
# number of the chunk  925 of 1013 blocks
# functions to test 48
# startcode = 44400  :: endcode = 44448:: fdomain = 48
44443
# 0.707048secs	# 1 balance functions. Density 0.0208333
