# prime 23
# degree 2
# input variables 2
# output variables 5
# reload computed balance functions from file balance-545of1024-p23d2m2-debug.log
# p = 23
# n = 5
# smalldomain p^m 529
# domain p^n 6436343
#	 p^2 = 529
#	 p^3 = 12167
#	 p^4 = 279841
#	 p^5 = 6436343
opening file : balance-545of1024-p23d2m2-debug.log
reloading for step2...
26182		 # 	collision with: 11 7 0 0 0  and 12 7 0 0 0 
 # max = 173
26183		 # 	collision with: 10 7 0 0 0  and 20 8 0 0 0 
 # max = 204
0.0999433secs	204 75
