# prime 23
# degree 2
# input variables 2
# output variables 4
# reload computed balance functions from file balance-866of1024-p23d2m2-debug.log
# p = 23
# n = 4
# smalldomain p^m 529
# domain p^n 279841
#	 p^2 = 529
#	 p^3 = 12167
#	 p^4 = 279841
#	 p^5 = 6436343
opening file : balance-866of1024-p23d2m2-debug.log
reloading for step2...
41602		 # 	collision with: 8 3 0 0  and 8 5 0 0 
 # max = 123
41603		 # 	collision with: 7 3 0 0  and 10 5 0 0 
 # max = 125
0.0384435secs	125 49
