# prime 23
# degree 2
# input variables 2
# output variables 3
# reload computed balance functions from file balance-126of1024-p23d2m2-debug.log
# p = 23
# n = 3
# smalldomain p^m 529
# domain p^n 12167
#	 p^2 = 529
#	 p^3 = 12167
#	 p^4 = 279841
#	 p^5 = 6436343
opening file : balance-126of1024-p23d2m2-debug.log
reloading for step2...
6078		 # 	collision with: 10 1 0  and 10 2 0 
 # max = 56
6079		 # 	collision with: 21 1 0  and 1 2 0 
 # max = 56
0.0068222secs	56 20
