# prime 23
# degree 2
# input variables 2
# output variables 5
# reload computed balance functions from file balance-335of1024-p23d2m2-debug.log
# p = 23
# n = 5
# smalldomain p^m 529
# domain p^n 6436343
#	 p^2 = 529
#	 p^3 = 12167
#	 p^4 = 279841
#	 p^5 = 6436343
opening file : balance-335of1024-p23d2m2-debug.log
reloading for step2...
16082		 # 	collision with: 21 4 0 0 0  and 2 6 0 0 0 
 # max = 140
16083		 # 	collision with: 7 4 0 0 0  and 7 6 0 0 0 
 # max = 145
0.11359secs	145 57
