# prime 23
# degree 2
# input variables 2
# output variables 4
# reload computed balance functions from file balance-433of1024-p23d2m2-debug.log
# p = 23
# n = 4
# smalldomain p^m 529
# domain p^n 279841
#	 p^2 = 529
#	 p^3 = 12167
#	 p^4 = 279841
#	 p^5 = 6436343
opening file : balance-433of1024-p23d2m2-debug.log
reloading for step2...
20806		 # 	collision with: 14 1 0 0  and 9 3 0 0 
 # max = 78
20807		 # 	collision with: 19 1 0 0  and 19 3 0 0 
 # max = 88
0.0309702secs	88 33
