# prime 23
# degree 2
# input variables 2
# output variables 3
# reload computed balance functions from file balance-19of1024-p23d2m2-debug.log
# p = 23
# n = 3
# smalldomain p^m 529
# domain p^n 12167
#	 p^2 = 529
#	 p^3 = 12167
#	 p^4 = 279841
#	 p^5 = 6436343
opening file : balance-19of1024-p23d2m2-debug.log
reloading for step2...
912		 # 	collision with: 13 10 0  and 1 0 1 
 # max = 530
913		 # 	collision with: 0 5 0  and 18 0 1 
 # max = 547
916		 # 	collision with: 15 5 0  and 2 0 1 
 # max = 547
917		 # 	collision with: 20 10 1  and 10 0 2 
 # max = 1068
923		 # 	collision with: 14 2 0  and 3 0 1 
 # max = 1068
924		 # 	collision with: 15 7 0  and 13 0 1 
 # max = 1068
925		 # 	collision with: 3 14 0  and 1 0 1 
 # max = 1068
928		 # 	collision with: 6 14 0  and 13 0 1 
 # max = 1068
929		 # 	collision with: 11 21 0  and 7 0 1 
 # max = 1068
932		 # 	collision with: 9 21 0  and 1 0 1 
 # max = 1068
933		 # 	collision with: 10 5 0  and 18 0 1 
 # max = 1068
936		 # 	collision with: 15 5 0  and 2 0 1 
 # max = 1068
937		 # 	collision with: 16 12 0  and 15 0 1 
 # max = 1068
940		 # 	collision with: 2 12 0  and 5 0 1 
 # max = 1068
941		 # 	collision with: 18 19 0  and 21 0 1 
 # max = 1068
944		 # 	collision with: 5 19 0  and 10 0 1 
 # max = 1068
945		 # 	collision with: 3 3 0  and 11 0 1 
 # max = 1068
948		 # 	collision with: 20 3 0  and 1 0 1 
 # max = 1068
949		 # 	collision with: 15 10 0  and 17 0 1 
 # max = 1068
952		 # 	collision with: 13 10 0  and 1 0 1 
 # max = 1068
953		 # 	collision with: 10 17 0  and 6 0 1 
 # max = 1068
956		 # 	collision with: 3 17 0  and 17 0 1 
 # max = 1068
957		 # 	collision with: 4 1 0  and 5 0 1 
 # max = 1068
1.79432secs	1068 2578
