# prime 23
# degree 2
# input variables 2
# output variables 3
# reload computed balance functions from file balance-21of1024-p23d2m2-debug.log
# p = 23
# n = 3
# smalldomain p^m 529
# domain p^n 12167
#	 p^2 = 529
#	 p^3 = 12167
#	 p^4 = 279841
#	 p^5 = 6436343
opening file : balance-21of1024-p23d2m2-debug.log
reloading for step2...
1008		 # 	collision with: 13 16 0  and 15 0 1 
 # max = 544
1009		 # 	collision with: 2 9 1  and 4 0 2 
 # max = 1062
1015		 # 	collision with: 14 22 0  and 2 1 1 
 # max = 1062
1016		 # 	collision with: 9 21 0  and 1 0 1 
 # max = 1062
1017		 # 	collision with: 17 19 0  and 16 0 1 
 # max = 1062
1020		 # 	collision with: 5 19 0  and 10 0 1 
 # max = 1062
1021		 # 	collision with: 3 17 0  and 9 0 1 
 # max = 1062
1024		 # 	collision with: 3 17 0  and 17 0 1 
 # max = 1062
1025		 # 	collision with: 6 16 0  and 10 1 1 
 # max = 1062
1028		 # 	collision with: 20 15 0  and 14 0 1 
 # max = 1062
1029		 # 	collision with: 14 13 0  and 16 0 1 
 # max = 1062
1032		 # 	collision with: 1 13 0  and 13 0 1 
 # max = 1062
1033		 # 	collision with: 1 11 0  and 11 0 1 
 # max = 1062
1036		 # 	collision with: 5 11 0  and 2 0 1 
 # max = 1062
1037		 # 	collision with: 9 9 0  and 8 0 1 
 # max = 1062
1040		 # 	collision with: 13 9 0  and 6 0 1 
 # max = 1062
1041		 # 	collision with: 17 7 0  and 7 0 1 
 # max = 1062
1044		 # 	collision with: 15 7 0  and 13 0 1 
 # max = 1062
1045		 # 	collision with: 1 5 0  and 5 0 1 
 # max = 1062
1048		 # 	collision with: 15 5 0  and 2 0 1 
 # max = 1062
1049		 # 	collision with: 7 3 0  and 0 0 1 
 # max = 1062
1052		 # 	collision with: 20 3 0  and 1 0 1 
 # max = 1062
1053		 # 	collision with: 15 1 0  and 16 0 1 
 # max = 1062
1.67623secs	1062 2588
