# prime 23
# degree 2
# input variables 2
# output variables 5
# reload computed balance functions from file balance-492of1024-p23d2m2-debug.log
# p = 23
# n = 5
# smalldomain p^m 529
# domain p^n 6436343
#	 p^2 = 529
#	 p^3 = 12167
#	 p^4 = 279841
#	 p^5 = 6436343
opening file : balance-492of1024-p23d2m2-debug.log
reloading for step2...
1.6647e-05secs	0 0
