# prime 23
# degree 2
# input variables 2
# output variables 3
# reload computed balance functions from file balance-303of1024-p23d2m2-debug.log
# p = 23
# n = 3
# smalldomain p^m 529
# domain p^n 12167
#	 p^2 = 529
#	 p^3 = 12167
#	 p^4 = 279841
#	 p^5 = 6436343
opening file : balance-303of1024-p23d2m2-debug.log
reloading for step2...
14574		 # 	collision with: 7 1 0  and 7 2 0 
 # max = 53
14575		 # 	collision with: 3 1 0  and 3 2 0 
 # max = 53
0.00735324secs	53 20
