# prime 23
# degree 2
# input variables 2
# output variables 4
# reload computed balance functions from file balance-514of1024-p23d2m2-debug.log
# p = 23
# n = 4
# smalldomain p^m 529
# domain p^n 279841
#	 p^2 = 529
#	 p^3 = 12167
#	 p^4 = 279841
#	 p^5 = 6436343
opening file : balance-514of1024-p23d2m2-debug.log
reloading for step2...
24710		 # 	collision with: 1 3 0 0  and 1 5 0 0 
 # max = 116
24711		 # 	collision with: 3 3 0 0  and 3 5 0 0 
 # max = 118
0.0368413secs	118 46
