# prime 23
# degree 2
# input variables 2
# output variables 5
# reload computed balance functions from file balance-623of1024-p23d2m2-debug.log
# p = 23
# n = 5
# smalldomain p^m 529
# domain p^n 6436343
#	 p^2 = 529
#	 p^3 = 12167
#	 p^4 = 279841
#	 p^5 = 6436343
opening file : balance-623of1024-p23d2m2-debug.log
reloading for step2...
29914		 # 	collision with: 11 8 0 0 0  and 12 8 0 0 0 
 # max = 196
29915		 # 	collision with: 7 2 0 0 0  and 8 2 0 0 0 
 # max = 196
0.0412407secs	196 50
