# prime 23
# degree 2
# input variables 2
# output variables 4
# reload computed balance functions from file balance-651of1024-p23d2m2-debug.log
# p = 23
# n = 4
# smalldomain p^m 529
# domain p^n 279841
#	 p^2 = 529
#	 p^3 = 12167
#	 p^4 = 279841
#	 p^5 = 6436343
opening file : balance-651of1024-p23d2m2-debug.log
reloading for step2...
31294		 # 	collision with: 11 2 0 0  and 12 2 0 0 
 # max = 58
31295		 # 	collision with: 12 2 0 0  and 12 3 0 0 
 # max = 81
0.0361818secs	81 27
