# prime 23
# degree 2
# input variables 2
# output variables 4
# reload computed balance functions from file balance-991of1024-p23d2m2-debug.log
# p = 23
# n = 4
# smalldomain p^m 529
# domain p^n 279841
#	 p^2 = 529
#	 p^3 = 12167
#	 p^4 = 279841
#	 p^5 = 6436343
opening file : balance-991of1024-p23d2m2-debug.log
reloading for step2...
47590		 # 	collision with: 3 5 0 0  and 3 7 0 0 
 # max = 164
47591		 # 	collision with: 4 5 0 0  and 4 7 0 0 
 # max = 165
0.0279261secs	165 65
