# prime 23
# degree 2
# input variables 2
# output variables 4
# reload computed balance functions from file balance-777of1024-p23d2m2-debug.log
# p = 23
# n = 4
# smalldomain p^m 529
# domain p^n 279841
#	 p^2 = 529
#	 p^3 = 12167
#	 p^4 = 279841
#	 p^5 = 6436343
opening file : balance-777of1024-p23d2m2-debug.log
reloading for step2...
37298		 # 	collision with: 2 4 0 0  and 2 5 0 0 
 # max = 117
37299		 # 	collision with: 6 4 0 0  and 6 5 0 0 
 # max = 121
0.037959secs	121 47
