# prime 23
# degree 2
# input variables 2
# output variables 3
# reload computed balance functions from file balance-755of1024-p23d2m2-debug.log
# p = 23
# n = 3
# smalldomain p^m 529
# domain p^n 12167
#	 p^2 = 529
#	 p^3 = 12167
#	 p^4 = 279841
#	 p^5 = 6436343
opening file : balance-755of1024-p23d2m2-debug.log
reloading for step2...
36286		 # 	collision with: 7 9 0  and 7 11 0 
 # max = 260
36287		 # 	collision with: 2 9 0  and 3 9 0 
 # max = 260
0.067385secs	260 94
