# prime 23
# degree 2
# input variables 2
# output variables 5
# reload computed balance functions from file balance-406of1024-p23d2m2-debug.log
# p = 23
# n = 5
# smalldomain p^m 529
# domain p^n 6436343
#	 p^2 = 529
#	 p^3 = 12167
#	 p^4 = 279841
#	 p^5 = 6436343
opening file : balance-406of1024-p23d2m2-debug.log
reloading for step2...
19518		 # 	collision with: 11 2 0 0 0  and 12 2 0 0 0 
 # max = 58
19519		 # 	collision with: 7 8 0 0 0  and 8 8 0 0 0 
 # max = 192
0.0421276secs	192 50
