# prime 23
# degree 2
# input variables 2
# output variables 5
# reload computed balance functions from file balance-416of1024-p23d2m2-debug.log
# p = 23
# n = 5
# smalldomain p^m 529
# domain p^n 6436343
#	 p^2 = 529
#	 p^3 = 12167
#	 p^4 = 279841
#	 p^5 = 6436343
opening file : balance-416of1024-p23d2m2-debug.log
reloading for step2...
19978		 # 	collision with: 11 4 0 0 0  and 12 4 0 0 0 
 # max = 104
19979		 # 	collision with: 12 6 0 0 0  and 3 7 0 0 0 
 # max = 164
0.0682766secs	164 53
