# prime 23
# degree 2
# input variables 2
# output variables 5
# reload computed balance functions from file balance-510of1024-p23d2m2-debug.log
# p = 23
# n = 5
# smalldomain p^m 529
# domain p^n 6436343
#	 p^2 = 529
#	 p^3 = 12167
#	 p^4 = 279841
#	 p^5 = 6436343
opening file : balance-510of1024-p23d2m2-debug.log
reloading for step2...
24526		 # 	collision with: 11 3 0 0 0  and 12 3 0 0 0 
 # max = 81
24527		 # 	collision with: 3 4 0 0 0  and 4 6 0 0 0 
 # max = 142
0.0324317secs	142 44
