# prime 31
# degree 3
# input variables 2
# output variables 7
# p = 31
# n = 7
# smalldomain p^m 961
# domain p^n 27512614111
#	 p^2 = 961
#	 p^3 = 29791
#	 p^4 = 923521
#	 p^5 = 28629151
#	 p^6 = 887503681
#	 p^7 = 27512614111
#	 p^8 = 852891037441
#	 p^9 = 26439622160671
# dimension of the chunk  20000
# number of the chunk  2082 of 5725 blocks
# functions to test 72856604
# startcode = 41640000  :: endcode = 41660000:: fdomain = 114516604
41641060
41641061
41644695
41645328
41645652
41649693
41650061
41656577
41656880
41657300
41658950
# 1190.64secs	# 11 balance functions. Density 0.00055
