# prime 31
# degree 3
# input variables 2
# output variables 7
# p = 31
# n = 7
# smalldomain p^m 961
# domain p^n 27512614111
#	 p^2 = 961
#	 p^3 = 29791
#	 p^4 = 923521
#	 p^5 = 28629151
#	 p^6 = 887503681
#	 p^7 = 27512614111
#	 p^8 = 852891037441
#	 p^9 = 26439622160671
# dimension of the chunk  20000
# number of the chunk  2100 of 5725 blocks
# functions to test 72496604
# startcode = 42000000  :: endcode = 42020000:: fdomain = 114516604
42002024
42002025
42002504
42004503
42004727
42005868
42005869
42006438
42009712
42009713
42010262
42013556
42013557
42013944
42015470
42016189
42018384
# 1112.84secs	# 17 balance functions. Density 0.00085
