# prime 31
# degree 3
# input variables 2
# output variables 7
# p = 31
# n = 7
# smalldomain p^m 961
# domain p^n 27512614111
#	 p^2 = 961
#	 p^3 = 29791
#	 p^4 = 923521
#	 p^5 = 28629151
#	 p^6 = 887503681
#	 p^7 = 27512614111
#	 p^8 = 852891037441
#	 p^9 = 26439622160671
# dimension of the chunk  20000
# number of the chunk  1321 of 5725 blocks
# functions to test 88076604
# startcode = 26420000  :: endcode = 26440000:: fdomain = 114516604
26422006
26422594
26423160
26423161
26423481
26423778
26423977
26425168
26427196
26427811
26427961
26430856
26434007
26434640
26435170
26435738
26436457
26438238
26438536
26438537
# 543.193secs	# 20 balance functions. Density 0.001
