# prime 31
# degree 3
# input variables 2
# output variables 7
# p = 31
# n = 7
# smalldomain p^m 961
# domain p^n 27512614111
#	 p^2 = 961
#	 p^3 = 29791
#	 p^4 = 923521
#	 p^5 = 28629151
#	 p^6 = 887503681
#	 p^7 = 27512614111
#	 p^8 = 852891037441
#	 p^9 = 26439622160671
# dimension of the chunk  20000
# number of the chunk  3972 of 5725 blocks
# functions to test 20000
# startcode = 79440000  :: endcode = 79460000:: fdomain = 20000
79440989
79442088
79442089
79444620
79445964
79449254
79449781
79449996
79450489
79451159
79452064
79453620
79453621
79455462
79456595
79457936
79458530
79459508
# 538.222secs	# 18 balance functions. Density 0.0009
