# prime 31
# degree 3
# input variables 2
# output variables 7
# p = 31
# n = 7
# smalldomain p^m 961
# domain p^n 27512614111
#	 p^2 = 961
#	 p^3 = 29791
#	 p^4 = 923521
#	 p^5 = 28629151
#	 p^6 = 887503681
#	 p^7 = 27512614111
#	 p^8 = 852891037441
#	 p^9 = 26439622160671
# dimension of the chunk  20000
# number of the chunk  5606 of 5725 blocks
# functions to test 20000
# startcode = 112120000  :: endcode = 112140000:: fdomain = 20000
112120098
112120216
112120552
112120553
112121244
112124396
112124397
112124904
112130786
112130842
112131457
112132084
112132085
112133734
112133786
112134223
112139933
# 571.448secs	# 17 balance functions. Density 0.00085
