# prime 31
# degree 3
# input variables 2
# output variables 7
# p = 31
# n = 7
# smalldomain p^m 961
# domain p^n 27512614111
#	 p^2 = 961
#	 p^3 = 29791
#	 p^4 = 923521
#	 p^5 = 28629151
#	 p^6 = 887503681
#	 p^7 = 27512614111
#	 p^8 = 852891037441
#	 p^9 = 26439622160671
# dimension of the chunk  20000
# number of the chunk  5698 of 5725 blocks
# functions to test 20000
# startcode = 113960000  :: endcode = 113980000:: fdomain = 20000
113960323
113961240
113962580
113962869
113963967
113964590
113965272
113966670
113966912
113967532
113967533
113970417
113971376
113971377
113973389
113974727
113975220
113975221
113975567
113979064
113979065
113979329
# 3746.86secs	# 22 balance functions. Density 0.0011
