# prime 31
# degree 3
# input variables 2
# output variables 7
# p = 31
# n = 7
# smalldomain p^m 961
# domain p^n 27512614111
#	 p^2 = 961
#	 p^3 = 29791
#	 p^4 = 923521
#	 p^5 = 28629151
#	 p^6 = 887503681
#	 p^7 = 27512614111
#	 p^8 = 852891037441
#	 p^9 = 26439622160671
# dimension of the chunk  20000
# number of the chunk  4812 of 5725 blocks
# functions to test 20000
# startcode = 96240000  :: endcode = 96260000:: fdomain = 20000
96241687
96242104
96242105
96244120
96244123
96246235
96247187
96249792
96249793
96251564
96252579
96253192
96253636
96253637
96255749
96257224
96257480
96257481
96258335
# 550.914secs	# 19 balance functions. Density 0.00095
