# prime 31
# degree 3
# input variables 2
# output variables 7
# p = 31
# n = 7
# smalldomain p^m 961
# domain p^n 27512614111
#	 p^2 = 961
#	 p^3 = 29791
#	 p^4 = 923521
#	 p^5 = 28629151
#	 p^6 = 887503681
#	 p^7 = 27512614111
#	 p^8 = 852891037441
#	 p^9 = 26439622160671
# dimension of the chunk  20000
# number of the chunk  4676 of 5725 blocks
# functions to test 20000
# startcode = 93520000  :: endcode = 93540000:: fdomain = 20000
93521104
93521246
93523448
93524888
93527191
93527480
93528548
93528774
93529726
93531092
93531093
93531869
93532214
93534936
93534937
93535021
93539836
93539896
# 557.758secs	# 18 balance functions. Density 0.0009
