# prime 31
# degree 3
# input variables 2
# output variables 7
# p = 31
# n = 7
# smalldomain p^m 961
# domain p^n 27512614111
#	 p^2 = 961
#	 p^3 = 29791
#	 p^4 = 923521
#	 p^5 = 28629151
#	 p^6 = 887503681
#	 p^7 = 27512614111
#	 p^8 = 852891037441
#	 p^9 = 26439622160671
# dimension of the chunk  20000
# number of the chunk  2731 of 5725 blocks
# functions to test 59876604
# startcode = 54620000  :: endcode = 54640000:: fdomain = 114516604
54620369
54621044
54622091
54622161
54623979
54624108
54624109
54624828
54626909
54627285
54627840
54627952
54627953
54632272
54635780
54637554
54639716
# 1732.72secs	# 17 balance functions. Density 0.00085
