# prime 31
# degree 3
# input variables 2
# output variables 7
# p = 31
# n = 7
# smalldomain p^m 961
# domain p^n 27512614111
#	 p^2 = 961
#	 p^3 = 29791
#	 p^4 = 923521
#	 p^5 = 28629151
#	 p^6 = 887503681
#	 p^7 = 27512614111
#	 p^8 = 852891037441
#	 p^9 = 26439622160671
# dimension of the chunk  20000
# number of the chunk  4938 of 5725 blocks
# functions to test 20000
# startcode = 98760000  :: endcode = 98780000:: fdomain = 20000
98760691
98763874
98764055
98764900
98766042
98767736
98768851
98771235
98772696
98772697
98772840
98773900
98774947
98776540
98776541
98776872
98779390
# 647.477secs	# 17 balance functions. Density 0.00085
