# prime 31
# degree 3
# input variables 2
# output variables 7
# p = 31
# n = 7
# smalldomain p^m 961
# domain p^n 27512614111
#	 p^2 = 961
#	 p^3 = 29791
#	 p^4 = 923521
#	 p^5 = 28629151
#	 p^6 = 887503681
#	 p^7 = 27512614111
#	 p^8 = 852891037441
#	 p^9 = 26439622160671
# dimension of the chunk  20000
# number of the chunk  3116 of 5725 blocks
# functions to test 52176604
# startcode = 62320000  :: endcode = 62340000:: fdomain = 114516604
62320390
62320450
62324667
62325435
62326785
62327112
62327113
62328936
62329136
62330781
62330956
62330957
62331103
62334800
62334801
62336380
# 1231.07secs	# 16 balance functions. Density 0.0008
