# prime 31
# degree 3
# input variables 2
# output variables 7
# p = 31
# n = 7
# smalldomain p^m 961
# domain p^n 27512614111
#	 p^2 = 961
#	 p^3 = 29791
#	 p^4 = 923521
#	 p^5 = 28629151
#	 p^6 = 887503681
#	 p^7 = 27512614111
#	 p^8 = 852891037441
#	 p^9 = 26439622160671
# dimension of the chunk  20000
# number of the chunk  5593 of 5725 blocks
# functions to test 20000
# startcode = 111860000  :: endcode = 111880000:: fdomain = 20000
111860768
111863252
111863253
111864428
111866260
111870870
111870940
111870941
111872229
111874784
111874785
111875716
111877115
111877926
111878232
111879143
111879376
# 607.958secs	# 17 balance functions. Density 0.00085
