# prime 31
# degree 3
# input variables 2
# output variables 7
# p = 31
# n = 7
# smalldomain p^m 961
# domain p^n 27512614111
#	 p^2 = 961
#	 p^3 = 29791
#	 p^4 = 923521
#	 p^5 = 28629151
#	 p^6 = 887503681
#	 p^7 = 27512614111
#	 p^8 = 852891037441
#	 p^9 = 26439622160671
# dimension of the chunk  20000
# number of the chunk  4760 of 5725 blocks
# functions to test 20000
# startcode = 95200000  :: endcode = 95220000:: fdomain = 20000
95201496
95201497
95201952
95202640
95203807
95203939
95205340
95205341
95206055
95209774
95209892
95210084
95213684
95213736
95216748
95216749
95216979
95217468
95219315
# 602.117secs	# 19 balance functions. Density 0.00095
