# prime 31
# degree 3
# input variables 2
# output variables 7
# p = 31
# n = 7
# smalldomain p^m 961
# domain p^n 27512614111
#	 p^2 = 961
#	 p^3 = 29791
#	 p^4 = 923521
#	 p^5 = 28629151
#	 p^6 = 887503681
#	 p^7 = 27512614111
#	 p^8 = 852891037441
#	 p^9 = 26439622160671
# dimension of the chunk  20000
# number of the chunk  4797 of 5725 blocks
# functions to test 20000
# startcode = 95940000  :: endcode = 95960000:: fdomain = 20000
95940447
95940541
95942717
95942824
95943844
95943918
95944590
95946364
95946365
95947752
95948105
95948903
95949233
95950268
95952755
95954052
95954053
95955692
95957670
95957896
95957897
95959724
95959749
# 604.692secs	# 23 balance functions. Density 0.00115
