# prime 31
# degree 3
# input variables 2
# output variables 7
# p = 31
# n = 7
# smalldomain p^m 961
# domain p^n 27512614111
#	 p^2 = 961
#	 p^3 = 29791
#	 p^4 = 923521
#	 p^5 = 28629151
#	 p^6 = 887503681
#	 p^7 = 27512614111
#	 p^8 = 852891037441
#	 p^9 = 26439622160671
# dimension of the chunk  20000
# number of the chunk  1638 of 5725 blocks
# functions to test 81736604
# startcode = 32760000  :: endcode = 32780000:: fdomain = 114516604
32762003
32763032
32763033
32765107
32765109
32766209
32767838
32768899
32769755
32774066
32774354
32774440
32774441
32776726
32777379
32777613
32778284
32778285
# 472.445secs	# 18 balance functions. Density 0.0009
