# prime 31
# degree 3
# input variables 2
# output variables 7
# p = 31
# n = 7
# smalldomain p^m 961
# domain p^n 27512614111
#	 p^2 = 961
#	 p^3 = 29791
#	 p^4 = 923521
#	 p^5 = 28629151
#	 p^6 = 887503681
#	 p^7 = 27512614111
#	 p^8 = 852891037441
#	 p^9 = 26439622160671
# dimension of the chunk  20000
# number of the chunk  2863 of 5725 blocks
# functions to test 57236604
# startcode = 57260000  :: endcode = 57280000:: fdomain = 114516604
57262300
57262418
57262428
57263459
57263989
57265960
57266052
57266053
57266336
57269374
57269744
57269896
57269897
57271411
57273740
57273741
57276150
57277584
57277585
57278308
# 2209.72secs	# 20 balance functions. Density 0.001
