# prime 31
# degree 3
# input variables 2
# output variables 7
# p = 31
# n = 7
# smalldomain p^m 961
# domain p^n 27512614111
#	 p^2 = 961
#	 p^3 = 29791
#	 p^4 = 923521
#	 p^5 = 28629151
#	 p^6 = 887503681
#	 p^7 = 27512614111
#	 p^8 = 852891037441
#	 p^9 = 26439622160671
# dimension of the chunk  20000
# number of the chunk  530 of 5725 blocks
# functions to test 103896604
# startcode = 10600000  :: endcode = 10620000:: fdomain = 114516604
10605055
10606865
10609393
10609624
10609936
10609937
10610262
10613411
10613780
10613781
10613788
10617297
10617624
10617625
10617820
10619871
# 632.152secs	# 16 balance functions. Density 0.0008
