# prime 31
# degree 3
# input variables 2
# output variables 7
# p = 31
# n = 7
# smalldomain p^m 961
# domain p^n 27512614111
#	 p^2 = 961
#	 p^3 = 29791
#	 p^4 = 923521
#	 p^5 = 28629151
#	 p^6 = 887503681
#	 p^7 = 27512614111
#	 p^8 = 852891037441
#	 p^9 = 26439622160671
# dimension of the chunk  20000
# number of the chunk  3235 of 5725 blocks
# functions to test 49796604
# startcode = 64700000  :: endcode = 64720000:: fdomain = 114516604
64706058
64706174
64707574
64707634
64710406
64713131
64713436
64713676
64717096
64718946
# 1280.53secs	# 10 balance functions. Density 0.0005
