# prime 31
# degree 3
# input variables 2
# output variables 7
# p = 31
# n = 7
# smalldomain p^m 961
# domain p^n 27512614111
#	 p^2 = 961
#	 p^3 = 29791
#	 p^4 = 923521
#	 p^5 = 28629151
#	 p^6 = 887503681
#	 p^7 = 27512614111
#	 p^8 = 852891037441
#	 p^9 = 26439622160671
# dimension of the chunk  20000
# number of the chunk  3158 of 5725 blocks
# functions to test 51336604
# startcode = 63160000  :: endcode = 63180000:: fdomain = 114516604
63160565
63164236
63164237
63165768
63166308
63167689
63169552
63170216
63172194
63173212
63174248
63175289
63175768
63175769
63178005
63178241
63178835
63179612
63179613
# 1444.2secs	# 19 balance functions. Density 0.00095
