# prime 31
# degree 3
# input variables 2
# output variables 7
# p = 31
# n = 7
# smalldomain p^m 961
# domain p^n 27512614111
#	 p^2 = 961
#	 p^3 = 29791
#	 p^4 = 923521
#	 p^5 = 28629151
#	 p^6 = 887503681
#	 p^7 = 27512614111
#	 p^8 = 852891037441
#	 p^9 = 26439622160671
# dimension of the chunk  20000
# number of the chunk  1012 of 5725 blocks
# functions to test 94256604
# startcode = 20240000  :: endcode = 20260000:: fdomain = 114516604
20240768
20240769
20243512
20245247
20245306
20251393
20251452
20252024
20252300
20252301
20254036
20255484
20255684
20257339
20259284
20259328
# 599.514secs	# 16 balance functions. Density 0.0008
