# prime 31
# degree 3
# input variables 2
# output variables 7
# p = 31
# n = 7
# smalldomain p^m 961
# domain p^n 27512614111
#	 p^2 = 961
#	 p^3 = 29791
#	 p^4 = 923521
#	 p^5 = 28629151
#	 p^6 = 887503681
#	 p^7 = 27512614111
#	 p^8 = 852891037441
#	 p^9 = 26439622160671
# dimension of the chunk  20000
# number of the chunk  565 of 5725 blocks
# functions to test 103196604
# startcode = 11300000  :: endcode = 11320000:: fdomain = 114516604
11301544
11303337
11305080
11305081
11307099
11308006
11308164
11310317
11312151
11312768
11312769
11313859
11315657
11316104
11316492
# 580.015secs	# 15 balance functions. Density 0.00075
