# prime 31
# degree 3
# input variables 2
# output variables 7
# p = 31
# n = 7
# smalldomain p^m 961
# domain p^n 27512614111
#	 p^2 = 961
#	 p^3 = 29791
#	 p^4 = 923521
#	 p^5 = 28629151
#	 p^6 = 887503681
#	 p^7 = 27512614111
#	 p^8 = 852891037441
#	 p^9 = 26439622160671
# dimension of the chunk  20000
# number of the chunk  3891 of 5725 blocks
# functions to test 20000
# startcode = 77820000  :: endcode = 77840000:: fdomain = 20000
77821532
77821533
77822602
77823086
77826267
77826296
77827072
77830080
77830441
77832498
77835012
77835462
77836747
77837467
# 534.867secs	# 14 balance functions. Density 0.0007
