# prime 31
# degree 3
# input variables 2
# output variables 7
# p = 31
# n = 7
# smalldomain p^m 961
# domain p^n 27512614111
#	 p^2 = 961
#	 p^3 = 29791
#	 p^4 = 923521
#	 p^5 = 28629151
#	 p^6 = 887503681
#	 p^7 = 27512614111
#	 p^8 = 852891037441
#	 p^9 = 26439622160671
# dimension of the chunk  20000
# number of the chunk  1373 of 5725 blocks
# functions to test 87036604
# startcode = 27460000  :: endcode = 27480000:: fdomain = 114516604
27461292
27464748
27465076
27468145
27468656
27468736
27469867
27472520
27472688
27476180
27476596
# 409.128secs	# 11 balance functions. Density 0.00055
