# prime 31
# degree 3
# input variables 2
# output variables 7
# p = 31
# n = 7
# smalldomain p^m 961
# domain p^n 27512614111
#	 p^2 = 961
#	 p^3 = 29791
#	 p^4 = 923521
#	 p^5 = 28629151
#	 p^6 = 887503681
#	 p^7 = 27512614111
#	 p^8 = 852891037441
#	 p^9 = 26439622160671
# dimension of the chunk  20000
# number of the chunk  5391 of 5725 blocks
# functions to test 20000
# startcode = 107820000  :: endcode = 107840000:: fdomain = 20000
107820254
107820784
107823580
107823581
107824511
107828228
107831068
107831268
107831269
107835100
107838956
107838957
107839450
107839516
# 544.564secs	# 14 balance functions. Density 0.0007
