# prime 31
# degree 3
# input variables 2
# output variables 7
# p = 31
# n = 7
# smalldomain p^m 961
# domain p^n 27512614111
#	 p^2 = 961
#	 p^3 = 29791
#	 p^4 = 923521
#	 p^5 = 28629151
#	 p^6 = 887503681
#	 p^7 = 27512614111
#	 p^8 = 852891037441
#	 p^9 = 26439622160671
# dimension of the chunk  20000
# number of the chunk  273 of 5725 blocks
# functions to test 109036604
# startcode = 5460000  :: endcode = 5480000:: fdomain = 114516604
5461288
5461583
5462324
5464432
5464433
5468157
5468269
5468732
5471712
5472392
5474466
5475250
5475964
5475965
5478494
5479652
5479836
# 594.466secs	# 17 balance functions. Density 0.00085
