# prime 31
# degree 3
# input variables 2
# output variables 7
# p = 31
# n = 7
# smalldomain p^m 961
# domain p^n 27512614111
#	 p^2 = 961
#	 p^3 = 29791
#	 p^4 = 923521
#	 p^5 = 28629151
#	 p^6 = 887503681
#	 p^7 = 27512614111
#	 p^8 = 852891037441
#	 p^9 = 26439622160671
# dimension of the chunk  20000
# number of the chunk  1764 of 5725 blocks
# functions to test 79216604
# startcode = 35280000  :: endcode = 35300000:: fdomain = 114516604
35280039
35280660
35281176
35281814
35281968
35281969
35284444
35286747
35288104
35288391
35288703
35288893
35289116
35289166
35290070
35290970
35293024
35293500
35293501
35294577
35297056
35299392
# 897.267secs	# 22 balance functions. Density 0.0011
