# prime 31
# degree 3
# input variables 2
# output variables 7
# p = 31
# n = 7
# smalldomain p^m 961
# domain p^n 27512614111
#	 p^2 = 961
#	 p^3 = 29791
#	 p^4 = 923521
#	 p^5 = 28629151
#	 p^6 = 887503681
#	 p^7 = 27512614111
#	 p^8 = 852891037441
#	 p^9 = 26439622160671
# dimension of the chunk  20000
# number of the chunk  1202 of 5725 blocks
# functions to test 90456604
# startcode = 24040000  :: endcode = 24060000:: fdomain = 114516604
24040628
24040837
24041115
24041491
24042360
24042361
24042696
24044660
24045373
24045582
24046209
24048535
24048949
24050048
24050049
24053800
24053892
24053893
24057736
24057737
24058802
24059723
24059917
# 579.241secs	# 23 balance functions. Density 0.00115
