# prime 31
# degree 3
# input variables 2
# output variables 7
# p = 31
# n = 7
# smalldomain p^m 961
# domain p^n 27512614111
#	 p^2 = 961
#	 p^3 = 29791
#	 p^4 = 923521
#	 p^5 = 28629151
#	 p^6 = 887503681
#	 p^7 = 27512614111
#	 p^8 = 852891037441
#	 p^9 = 26439622160671
# dimension of the chunk  20000
# number of the chunk  5668 of 5725 blocks
# functions to test 20000
# startcode = 113360000  :: endcode = 113380000:: fdomain = 20000
113363588
113366112
113367798
113368517
113372332
113372333
113373069
113374052
113374876
113375675
113376089
113376176
113376177
113376925
113377960
113378536
# 543.07secs	# 16 balance functions. Density 0.0008
