# prime 31
# degree 3
# input variables 2
# output variables 7
# p = 31
# n = 7
# smalldomain p^m 961
# domain p^n 27512614111
#	 p^2 = 961
#	 p^3 = 29791
#	 p^4 = 923521
#	 p^5 = 28629151
#	 p^6 = 887503681
#	 p^7 = 27512614111
#	 p^8 = 852891037441
#	 p^9 = 26439622160671
# dimension of the chunk  20000
# number of the chunk  3817 of 5725 blocks
# functions to test 20000
# startcode = 76340000  :: endcode = 76360000:: fdomain = 20000
76340778
76342208
76343288
76347046
76347048
76347049
76349528
76349938
76353130
76354736
76354737
76355136
76357156
76358580
76358581
# 634.926secs	# 15 balance functions. Density 0.00075
