# prime 31
# degree 3
# input variables 2
# output variables 7
# p = 31
# n = 7
# smalldomain p^m 961
# domain p^n 27512614111
#	 p^2 = 961
#	 p^3 = 29791
#	 p^4 = 923521
#	 p^5 = 28629151
#	 p^6 = 887503681
#	 p^7 = 27512614111
#	 p^8 = 852891037441
#	 p^9 = 26439622160671
# dimension of the chunk  20000
# number of the chunk  1405 of 5725 blocks
# functions to test 86396604
# startcode = 28100000  :: endcode = 28120000:: fdomain = 114516604
28101252
28101253
28104369
28104383
28104888
28107580
28108672
28108690
28109035
28109961
28110409
28112332
28112784
28112785
28113937
28115426
28116116
28116628
28116629
# 442.903secs	# 19 balance functions. Density 0.00095
