# prime 31
# degree 3
# input variables 2
# output variables 7
# p = 31
# n = 7
# smalldomain p^m 961
# domain p^n 27512614111
#	 p^2 = 961
#	 p^3 = 29791
#	 p^4 = 923521
#	 p^5 = 28629151
#	 p^6 = 887503681
#	 p^7 = 27512614111
#	 p^8 = 852891037441
#	 p^9 = 26439622160671
# dimension of the chunk  20000
# number of the chunk  2268 of 5725 blocks
# functions to test 69136604
# startcode = 45360000  :: endcode = 45380000:: fdomain = 114516604
45363026
45364626
45365896
45365897
45369740
45369741
45370606
45377428
45377429
45378990
45379782
# 1621.5secs	# 11 balance functions. Density 0.00055
