# prime 31
# degree 3
# input variables 2
# output variables 7
# p = 31
# n = 7
# smalldomain p^m 961
# domain p^n 27512614111
#	 p^2 = 961
#	 p^3 = 29791
#	 p^4 = 923521
#	 p^5 = 28629151
#	 p^6 = 887503681
#	 p^7 = 27512614111
#	 p^8 = 852891037441
#	 p^9 = 26439622160671
# dimension of the chunk  20000
# number of the chunk  634 of 5725 blocks
# functions to test 101816604
# startcode = 12680000  :: endcode = 12700000:: fdomain = 114516604
12680542
12684099
12685384
12688435
12688916
12691145
12692824
12696672
12696920
12697885
12698439
# 591.572secs	# 11 balance functions. Density 0.00055
