# prime 31
# degree 3
# input variables 2
# output variables 7
# p = 31
# n = 7
# smalldomain p^m 961
# domain p^n 27512614111
#	 p^2 = 961
#	 p^3 = 29791
#	 p^4 = 923521
#	 p^5 = 28629151
#	 p^6 = 887503681
#	 p^7 = 27512614111
#	 p^8 = 852891037441
#	 p^9 = 26439622160671
# dimension of the chunk  20000
# number of the chunk  3589 of 5725 blocks
# functions to test 20000
# startcode = 71780000  :: endcode = 71800000:: fdomain = 20000
71781113
71781244
71781245
71781392
71782315
71785176
71786827
71787439
71792244
71793326
71794998
71796280
71798742
# 886.213secs	# 13 balance functions. Density 0.00065
