# prime 31
# degree 3
# input variables 2
# output variables 7
# p = 31
# n = 7
# smalldomain p^m 961
# domain p^n 27512614111
#	 p^2 = 961
#	 p^3 = 29791
#	 p^4 = 923521
#	 p^5 = 28629151
#	 p^6 = 887503681
#	 p^7 = 27512614111
#	 p^8 = 852891037441
#	 p^9 = 26439622160671
# dimension of the chunk  20000
# number of the chunk  471 of 5725 blocks
# functions to test 105076604
# startcode = 9420000  :: endcode = 9440000:: fdomain = 114516604
9420881
9423380
9423381
9423408
9425470
9426794
9427440
9430432
9431348
9432075
9432893
9434912
9434913
9435380
9439288
# 505.202secs	# 15 balance functions. Density 0.00075
