# prime 31
# degree 3
# input variables 2
# output variables 7
# p = 31
# n = 7
# smalldomain p^m 961
# domain p^n 27512614111
#	 p^2 = 961
#	 p^3 = 29791
#	 p^4 = 923521
#	 p^5 = 28629151
#	 p^6 = 887503681
#	 p^7 = 27512614111
#	 p^8 = 852891037441
#	 p^9 = 26439622160671
# dimension of the chunk  20000
# number of the chunk  3645 of 5725 blocks
# functions to test 20000
# startcode = 72900000  :: endcode = 72920000:: fdomain = 20000
72901216
72901582
72902793
72903224
72905000
72907256
72908660
72909022
72910610
72911164
72912383
72912890
72913155
72914108
72914109
72914298
72916104
72917952
72917953
72919104
# 545.019secs	# 20 balance functions. Density 0.001
