# prime 31
# degree 3
# input variables 2
# output variables 7
# p = 31
# n = 7
# smalldomain p^m 961
# domain p^n 27512614111
#	 p^2 = 961
#	 p^3 = 29791
#	 p^4 = 923521
#	 p^5 = 28629151
#	 p^6 = 887503681
#	 p^7 = 27512614111
#	 p^8 = 852891037441
#	 p^9 = 26439622160671
# dimension of the chunk  20000
# number of the chunk  4553 of 5725 blocks
# functions to test 20000
# startcode = 91060000  :: endcode = 91080000:: fdomain = 20000
91060987
91061880
91061881
91062164
91064161
91064523
91065724
91065725
91065948
91067384
91069568
91069569
91069608
91071416
91072054
91072779
91073412
91073413
91077052
91078589
91078995
91079195
# 616.188secs	# 22 balance functions. Density 0.0011
