# prime 31
# degree 3
# input variables 2
# output variables 7
# p = 31
# n = 7
# smalldomain p^m 961
# domain p^n 27512614111
#	 p^2 = 961
#	 p^3 = 29791
#	 p^4 = 923521
#	 p^5 = 28629151
#	 p^6 = 887503681
#	 p^7 = 27512614111
#	 p^8 = 852891037441
#	 p^9 = 26439622160671
# dimension of the chunk  20000
# number of the chunk  2733 of 5725 blocks
# functions to test 59836604
# startcode = 54660000  :: endcode = 54680000:: fdomain = 114516604
54662048
54662323
54662548
54662549
54662779
54663632
54664915
54665506
54666392
54666393
54671572
54673334
54674080
54674081
54677566
54679512
# 1906.01secs	# 16 balance functions. Density 0.0008
