# prime 31
# degree 3
# input variables 2
# output variables 7
# p = 31
# n = 7
# smalldomain p^m 961
# domain p^n 27512614111
#	 p^2 = 961
#	 p^3 = 29791
#	 p^4 = 923521
#	 p^5 = 28629151
#	 p^6 = 887503681
#	 p^7 = 27512614111
#	 p^8 = 852891037441
#	 p^9 = 26439622160671
# dimension of the chunk  20000
# number of the chunk  2723 of 5725 blocks
# functions to test 60036604
# startcode = 54460000  :: endcode = 54480000:: fdomain = 114516604
54461060
54461160
54461617
54464844
54465068
54465557
54466628
54466629
54468307
54469071
54469100
54470472
54470473
54470595
54473008
54473451
54473525
54474316
54474317
54474626
54474906
54475948
54476374
54477331
54477718
# 1821.95secs	# 25 balance functions. Density 0.00125
