# prime 31
# degree 3
# input variables 2
# output variables 7
# p = 31
# n = 7
# smalldomain p^m 961
# domain p^n 27512614111
#	 p^2 = 961
#	 p^3 = 29791
#	 p^4 = 923521
#	 p^5 = 28629151
#	 p^6 = 887503681
#	 p^7 = 27512614111
#	 p^8 = 852891037441
#	 p^9 = 26439622160671
# dimension of the chunk  20000
# number of the chunk  3036 of 5725 blocks
# functions to test 53776604
# startcode = 60720000  :: endcode = 60740000:: fdomain = 114516604
60721813
60721900
60722280
60726188
60727167
60727634
60732878
60733588
60733589
60734128
60734861
60735401
60736788
60737863
60738160
# 1485.44secs	# 15 balance functions. Density 0.00075
