# prime 31
# degree 3
# input variables 2
# output variables 7
# p = 31
# n = 7
# smalldomain p^m 961
# domain p^n 27512614111
#	 p^2 = 961
#	 p^3 = 29791
#	 p^4 = 923521
#	 p^5 = 28629151
#	 p^6 = 887503681
#	 p^7 = 27512614111
#	 p^8 = 852891037441
#	 p^9 = 26439622160671
# dimension of the chunk  20000
# number of the chunk  3268 of 5725 blocks
# functions to test 49136604
# startcode = 65360000  :: endcode = 65380000:: fdomain = 114516604
65360540
65363201
65364476
65365241
65366019
65367027
65368136
65368480
65370033
65371614
65371920
65372217
65372304
65372305
65374499
65375531
65375580
65375881
65376148
65376149
65378915
65379364
# 1316.19secs	# 22 balance functions. Density 0.0011
