# prime 31
# degree 3
# input variables 2
# output variables 7
# p = 31
# n = 7
# smalldomain p^m 961
# domain p^n 27512614111
#	 p^2 = 961
#	 p^3 = 29791
#	 p^4 = 923521
#	 p^5 = 28629151
#	 p^6 = 887503681
#	 p^7 = 27512614111
#	 p^8 = 852891037441
#	 p^9 = 26439622160671
# dimension of the chunk  20000
# number of the chunk  2739 of 5725 blocks
# functions to test 59716604
# startcode = 54780000  :: endcode = 54800000:: fdomain = 114516604
54781306
54782306
54782608
54784985
54785432
54785433
54790509
54792201
54792376
54794580
54795158
54795426
54795976
54797014
# 1863.64secs	# 14 balance functions. Density 0.0007
