# prime 31
# degree 3
# input variables 2
# output variables 7
# p = 31
# n = 7
# smalldomain p^m 961
# domain p^n 27512614111
#	 p^2 = 961
#	 p^3 = 29791
#	 p^4 = 923521
#	 p^5 = 28629151
#	 p^6 = 887503681
#	 p^7 = 27512614111
#	 p^8 = 852891037441
#	 p^9 = 26439622160671
# dimension of the chunk  20000
# number of the chunk  5616 of 5725 blocks
# functions to test 20000
# startcode = 112320000  :: endcode = 112340000:: fdomain = 20000
112321680
112322986
112324783
112325708
112326532
112328267
112331724
112331725
112333722
112336025
112336996
112338504
112339412
112339413
# 599.8secs	# 14 balance functions. Density 0.0007
