# prime 31
# degree 3
# input variables 2
# output variables 7
# p = 31
# n = 7
# smalldomain p^m 961
# domain p^n 27512614111
#	 p^2 = 961
#	 p^3 = 29791
#	 p^4 = 923521
#	 p^5 = 28629151
#	 p^6 = 887503681
#	 p^7 = 27512614111
#	 p^8 = 852891037441
#	 p^9 = 26439622160671
# dimension of the chunk  20000
# number of the chunk  3352 of 5725 blocks
# functions to test 47456604
# startcode = 67040000  :: endcode = 67060000:: fdomain = 114516604
67042168
67042824
67046552
67046553
67046732
67048163
67049830
67050351
67050396
67050397
67050764
67051402
67053272
67057479
67058084
67058085
67058241
67058768
67058990
# 1325.72secs	# 19 balance functions. Density 0.00095
