# prime 31
# degree 3
# input variables 2
# output variables 7
# p = 31
# n = 7
# smalldomain p^m 961
# domain p^n 27512614111
#	 p^2 = 961
#	 p^3 = 29791
#	 p^4 = 923521
#	 p^5 = 28629151
#	 p^6 = 887503681
#	 p^7 = 27512614111
#	 p^8 = 852891037441
#	 p^9 = 26439622160671
# dimension of the chunk  20000
# number of the chunk  2129 of 5725 blocks
# functions to test 71916604
# startcode = 42580000  :: endcode = 42600000:: fdomain = 114516604
42581752
42582981
42583100
42585692
42585693
42585784
42587574
42589536
42589537
42589692
42590979
42591111
42592143
42593380
42593381
42596946
42597224
42597225
42597988
42599991
# 1078.18secs	# 20 balance functions. Density 0.001
