# prime 31
# degree 3
# input variables 2
# output variables 7
# p = 31
# n = 7
# smalldomain p^m 961
# domain p^n 27512614111
#	 p^2 = 961
#	 p^3 = 29791
#	 p^4 = 923521
#	 p^5 = 28629151
#	 p^6 = 887503681
#	 p^7 = 27512614111
#	 p^8 = 852891037441
#	 p^9 = 26439622160671
# dimension of the chunk  20000
# number of the chunk  3325 of 5725 blocks
# functions to test 47996604
# startcode = 66500000  :: endcode = 66520000:: fdomain = 114516604
66500591
66507687
66509773
66510157
66516887
# 1273.08secs	# 5 balance functions. Density 0.00025
