# prime 31
# degree 3
# input variables 2
# output variables 7
# p = 31
# n = 7
# smalldomain p^m 961
# domain p^n 27512614111
#	 p^2 = 961
#	 p^3 = 29791
#	 p^4 = 923521
#	 p^5 = 28629151
#	 p^6 = 887503681
#	 p^7 = 27512614111
#	 p^8 = 852891037441
#	 p^9 = 26439622160671
# dimension of the chunk  20000
# number of the chunk  5251 of 5725 blocks
# functions to test 20000
# startcode = 105020000  :: endcode = 105040000:: fdomain = 20000
105020230
105020312
105020313
105021860
105023328
105023819
105026883
105027112
105028000
105028001
105030772
105033047
105036119
105036258
105037621
105037923
105038216
105038569
# 584.02secs	# 18 balance functions. Density 0.0009
