# prime 31
# degree 3
# input variables 2
# output variables 7
# p = 31
# n = 7
# smalldomain p^m 961
# domain p^n 27512614111
#	 p^2 = 961
#	 p^3 = 29791
#	 p^4 = 923521
#	 p^5 = 28629151
#	 p^6 = 887503681
#	 p^7 = 27512614111
#	 p^8 = 852891037441
#	 p^9 = 26439622160671
# dimension of the chunk  20000
# number of the chunk  419 of 5725 blocks
# functions to test 106116604
# startcode = 8380000  :: endcode = 8400000:: fdomain = 114516604
8380083
8382772
8382773
8383952
8385108
8387777
8387860
8389709
8390373
8394304
8394305
8398289
8399832
8399996
# 641.264secs	# 14 balance functions. Density 0.0007
