# prime 31
# degree 3
# input variables 2
# output variables 7
# p = 31
# n = 7
# smalldomain p^m 961
# domain p^n 27512614111
#	 p^2 = 961
#	 p^3 = 29791
#	 p^4 = 923521
#	 p^5 = 28629151
#	 p^6 = 887503681
#	 p^7 = 27512614111
#	 p^8 = 852891037441
#	 p^9 = 26439622160671
# dimension of the chunk  20000
# number of the chunk  3067 of 5725 blocks
# functions to test 53156604
# startcode = 61340000  :: endcode = 61360000:: fdomain = 114516604
61340320
61340321
61341228
61344164
61344165
61346396
61348008
61348009
61349039
61350362
61350608
61351542
61353200
61354983
61357108
61359540
61359541
# 1544.9secs	# 17 balance functions. Density 0.00085
