# prime 31
# degree 3
# input variables 2
# output variables 7
# p = 31
# n = 7
# smalldomain p^m 961
# domain p^n 27512614111
#	 p^2 = 961
#	 p^3 = 29791
#	 p^4 = 923521
#	 p^5 = 28629151
#	 p^6 = 887503681
#	 p^7 = 27512614111
#	 p^8 = 852891037441
#	 p^9 = 26439622160671
# dimension of the chunk  20000
# number of the chunk  3672 of 5725 blocks
# functions to test 20000
# startcode = 73440000  :: endcode = 73460000:: fdomain = 20000
73440091
73440116
73440117
73442832
73444320
73447804
73447805
73447918
73450772
73451648
73451649
73454917
73455197
73455619
73456390
73458501
73458712
73459208
73459336
73459337
# 541.427secs	# 20 balance functions. Density 0.001
