# prime 31
# degree 3
# input variables 2
# output variables 7
# p = 31
# n = 7
# smalldomain p^m 961
# domain p^n 27512614111
#	 p^2 = 961
#	 p^3 = 29791
#	 p^4 = 923521
#	 p^5 = 28629151
#	 p^6 = 887503681
#	 p^7 = 27512614111
#	 p^8 = 852891037441
#	 p^9 = 26439622160671
# dimension of the chunk  20000
# number of the chunk  3646 of 5725 blocks
# functions to test 20000
# startcode = 72920000  :: endcode = 72940000:: fdomain = 20000
72925640
72925641
72927332
72929267
72932674
72936225
72937048
72937049
72939707
# 543.81secs	# 9 balance functions. Density 0.00045
