# prime 31
# degree 3
# input variables 2
# output variables 7
# p = 31
# n = 7
# smalldomain p^m 961
# domain p^n 27512614111
#	 p^2 = 961
#	 p^3 = 29791
#	 p^4 = 923521
#	 p^5 = 28629151
#	 p^6 = 887503681
#	 p^7 = 27512614111
#	 p^8 = 852891037441
#	 p^9 = 26439622160671
# dimension of the chunk  20000
# number of the chunk  4498 of 5725 blocks
# functions to test 20000
# startcode = 89960000  :: endcode = 89980000:: fdomain = 20000
89960787
89961926
89964408
89966370
89966498
89967580
89967581
89968411
89968440
89968576
89968578
89968802
89969705
89971850
89971870
89972176
89972284
89976490
89978403
89978497
89978988
89978989
89979620
# 612.391secs	# 23 balance functions. Density 0.00115
