# prime 31
# degree 3
# input variables 2
# output variables 7
# p = 31
# n = 7
# smalldomain p^m 961
# domain p^n 27512614111
#	 p^2 = 961
#	 p^3 = 29791
#	 p^4 = 923521
#	 p^5 = 28629151
#	 p^6 = 887503681
#	 p^7 = 27512614111
#	 p^8 = 852891037441
#	 p^9 = 26439622160671
# dimension of the chunk  20000
# number of the chunk  344 of 5725 blocks
# functions to test 107616604
# startcode = 6880000  :: endcode = 6900000:: fdomain = 114516604
6880585
6881081
6882954
6885227
6885571
6887299
6887301
6888103
6889068
6889069
6892164
6893452
6896299
6896447
6896756
6896757
6897236
6898799
6899878
# 388.121secs	# 19 balance functions. Density 0.00095
