# prime 31
# degree 3
# input variables 2
# output variables 7
# p = 31
# n = 7
# smalldomain p^m 961
# domain p^n 27512614111
#	 p^2 = 961
#	 p^3 = 29791
#	 p^4 = 923521
#	 p^5 = 28629151
#	 p^6 = 887503681
#	 p^7 = 27512614111
#	 p^8 = 852891037441
#	 p^9 = 26439622160671
# dimension of the chunk  20000
# number of the chunk  4732 of 5725 blocks
# functions to test 20000
# startcode = 94640000  :: endcode = 94660000:: fdomain = 20000
94640768
94640769
94640868
94641943
94642304
94643293
94643595
94644393
94648312
94650244
94650529
94652174
94652300
94652301
94655756
94658184
94659599
94659988
94659989
# 602.593secs	# 19 balance functions. Density 0.00095
