# prime 31
# degree 3
# input variables 2
# output variables 7
# p = 31
# n = 7
# smalldomain p^m 961
# domain p^n 27512614111
#	 p^2 = 961
#	 p^3 = 29791
#	 p^4 = 923521
#	 p^5 = 28629151
#	 p^6 = 887503681
#	 p^7 = 27512614111
#	 p^8 = 852891037441
#	 p^9 = 26439622160671
# dimension of the chunk  20000
# number of the chunk  2348 of 5725 blocks
# functions to test 67536604
# startcode = 46960000  :: endcode = 46980000:: fdomain = 114516604
46961600
46962084
46963264
46963265
46964342
46965178
46967108
46967109
46969044
46970088
46972531
46972704
46974120
46977477
# 2595.19secs	# 14 balance functions. Density 0.0007
