# prime 31
# degree 3
# input variables 2
# output variables 7
# p = 31
# n = 7
# smalldomain p^m 961
# domain p^n 27512614111
#	 p^2 = 961
#	 p^3 = 29791
#	 p^4 = 923521
#	 p^5 = 28629151
#	 p^6 = 887503681
#	 p^7 = 27512614111
#	 p^8 = 852891037441
#	 p^9 = 26439622160671
# dimension of the chunk  20000
# number of the chunk  5130 of 5725 blocks
# functions to test 20000
# startcode = 102600000  :: endcode = 102620000:: fdomain = 20000
102601303
102601608
102601652
102603571
102604916
102604917
102605560
102607813
102609052
102609592
102612836
102616448
102616449
102616496
102617532
102619974
# 634.407secs	# 16 balance functions. Density 0.0008
