# prime 31
# degree 3
# input variables 2
# output variables 7
# p = 31
# n = 7
# smalldomain p^m 961
# domain p^n 27512614111
#	 p^2 = 961
#	 p^3 = 29791
#	 p^4 = 923521
#	 p^5 = 28629151
#	 p^6 = 887503681
#	 p^7 = 27512614111
#	 p^8 = 852891037441
#	 p^9 = 26439622160671
# dimension of the chunk  20000
# number of the chunk  2168 of 5725 blocks
# functions to test 71136604
# startcode = 43360000  :: endcode = 43380000:: fdomain = 114516604
43361436
43361437
43363122
43365063
43365280
43365281
43367157
43368651
43371773
43372968
43372969
43375594
43376965
43378689
# 1193.35secs	# 14 balance functions. Density 0.0007
