# prime 31
# degree 3
# input variables 2
# output variables 7
# p = 31
# n = 7
# smalldomain p^m 961
# domain p^n 27512614111
#	 p^2 = 961
#	 p^3 = 29791
#	 p^4 = 923521
#	 p^5 = 28629151
#	 p^6 = 887503681
#	 p^7 = 27512614111
#	 p^8 = 852891037441
#	 p^9 = 26439622160671
# dimension of the chunk  20000
# number of the chunk  623 of 5725 blocks
# functions to test 102036604
# startcode = 12460000  :: endcode = 12480000:: fdomain = 114516604
12460884
12460885
12461771
12462752
12463550
12466032
12466389
12466914
12468763
12469692
12472086
12472738
12473476
12474241
12474242
12476260
12476261
12476593
12477136
12477945
12478632
# 415.817secs	# 21 balance functions. Density 0.00105
