# prime 31
# degree 3
# input variables 2
# output variables 7
# p = 31
# n = 7
# smalldomain p^m 961
# domain p^n 27512614111
#	 p^2 = 961
#	 p^3 = 29791
#	 p^4 = 923521
#	 p^5 = 28629151
#	 p^6 = 887503681
#	 p^7 = 27512614111
#	 p^8 = 852891037441
#	 p^9 = 26439622160671
# dimension of the chunk  20000
# number of the chunk  3003 of 5725 blocks
# functions to test 54436604
# startcode = 60060000  :: endcode = 60080000:: fdomain = 114516604
60067016
60067540
60069196
60069197
60069374
60071494
60073040
60073041
60074032
60074460
60074503
60075480
60076814
60076884
60076885
60078244
60079209
60079388
# 1635.62secs	# 18 balance functions. Density 0.0009
