# prime 31
# degree 3
# input variables 2
# output variables 7
# p = 31
# n = 7
# smalldomain p^m 961
# domain p^n 27512614111
#	 p^2 = 961
#	 p^3 = 29791
#	 p^4 = 923521
#	 p^5 = 28629151
#	 p^6 = 887503681
#	 p^7 = 27512614111
#	 p^8 = 852891037441
#	 p^9 = 26439622160671
# dimension of the chunk  20000
# number of the chunk  3837 of 5725 blocks
# functions to test 20000
# startcode = 76740000  :: endcode = 76760000:: fdomain = 20000
76740040
76740336
76742021
76743884
76743936
76745381
76746328
76746329
76746799
76747596
76747916
76749467
76751380
76751824
76751999
76752001
76755040
76755856
76756451
76757542
76757860
76757861
76759764
# 536.258secs	# 23 balance functions. Density 0.00115
