# prime 31
# degree 3
# input variables 2
# output variables 7
# p = 31
# n = 7
# smalldomain p^m 961
# domain p^n 27512614111
#	 p^2 = 961
#	 p^3 = 29791
#	 p^4 = 923521
#	 p^5 = 28629151
#	 p^6 = 887503681
#	 p^7 = 27512614111
#	 p^8 = 852891037441
#	 p^9 = 26439622160671
# dimension of the chunk  20000
# number of the chunk  4802 of 5725 blocks
# functions to test 20000
# startcode = 96040000  :: endcode = 96060000:: fdomain = 20000
96042293
96043071
96043440
96045083
96047385
96057107
# 549.682secs	# 6 balance functions. Density 0.0003
