# prime 31
# degree 3
# input variables 2
# output variables 7
# p = 31
# n = 7
# smalldomain p^m 961
# domain p^n 27512614111
#	 p^2 = 961
#	 p^3 = 29791
#	 p^4 = 923521
#	 p^5 = 28629151
#	 p^6 = 887503681
#	 p^7 = 27512614111
#	 p^8 = 852891037441
#	 p^9 = 26439622160671
# dimension of the chunk  20000
# number of the chunk  4697 of 5725 blocks
# functions to test 20000
# startcode = 93940000  :: endcode = 93960000:: fdomain = 20000
93941194
93941504
93944020
93945164
93945748
93945749
93946159
93948052
93951960
93955992
# 586.658secs	# 10 balance functions. Density 0.0005
