# prime 31
# degree 3
# input variables 2
# output variables 7
# p = 31
# n = 7
# smalldomain p^m 961
# domain p^n 27512614111
#	 p^2 = 961
#	 p^3 = 29791
#	 p^4 = 923521
#	 p^5 = 28629151
#	 p^6 = 887503681
#	 p^7 = 27512614111
#	 p^8 = 852891037441
#	 p^9 = 26439622160671
# dimension of the chunk  20000
# number of the chunk  5565 of 5725 blocks
# functions to test 20000
# startcode = 111300000  :: endcode = 111320000:: fdomain = 20000
111302704
111302716
111306368
111306369
111306736
111310160
111310212
111310213
111313379
111313820
111314056
111314057
111314674
111314740
111315946
111317633
111318648
# 545.561secs	# 17 balance functions. Density 0.00085
