# prime 31
# degree 3
# input variables 2
# output variables 7
# p = 31
# n = 7
# smalldomain p^m 961
# domain p^n 27512614111
#	 p^2 = 961
#	 p^3 = 29791
#	 p^4 = 923521
#	 p^5 = 28629151
#	 p^6 = 887503681
#	 p^7 = 27512614111
#	 p^8 = 852891037441
#	 p^9 = 26439622160671
# dimension of the chunk  20000
# number of the chunk  79 of 5725 blocks
# functions to test 112916604
# startcode = 1580000  :: endcode = 1600000:: fdomain = 114516604
1580005
1580007
1581985
1582116
1582117
1583160
1583849
1583851
1584025
1585960
1585961
1587693
1587695
1588672
1591100
1592332
1593648
1593649
1594079
1595381
1595382
1595383
1596116
1598905
# 404.172secs	# 24 balance functions. Density 0.0012
