# prime 31
# degree 3
# input variables 2
# output variables 7
# p = 31
# n = 7
# smalldomain p^m 961
# domain p^n 27512614111
#	 p^2 = 961
#	 p^3 = 29791
#	 p^4 = 923521
#	 p^5 = 28629151
#	 p^6 = 887503681
#	 p^7 = 27512614111
#	 p^8 = 852891037441
#	 p^9 = 26439622160671
# dimension of the chunk  20000
# number of the chunk  1157 of 5725 blocks
# functions to test 91356604
# startcode = 23140000  :: endcode = 23160000:: fdomain = 114516604
23143732
23143733
23144893
23145195
23147576
23147577
23147748
23149728
23151780
23153512
23154277
23155264
23155265
23155688
23156995
23159108
23159109
# 519.085secs	# 17 balance functions. Density 0.00085
