# prime 31
# degree 3
# input variables 2
# output variables 3
# reload computed balance functions from file balance-2876of5726-p31d3m2-debug.log
# p = 31
# n = 3
# smalldomain p^m 961
# domain p^n 29791
#	 p^2 = 961
#	 p^3 = 29791
#	 p^4 = 923521
#	 p^5 = 28629151
#	 p^6 = 887503681
#	 p^7 = 27512614111
#	 p^8 = 852891037441
#	 p^9 = 26439622160671
opening file : balance-2876of5726-p31d3m2-debug.log
reloading for step2...
57520292		 # 	collision with: 12 1 0  and 27 1 0 
 # max = 58
57522259		 # 	collision with: 9 1 0  and 20 1 0 
 # max = 58
57522589		 # 	collision with: 15 4 0  and 16 4 0 
 # max = 140
57524324		 # 	collision with: 2 1 0  and 30 1 0 
 # max = 140
57525121		 # 	collision with: 7 0 0  and 25 0 0 
 # max = 140
57527196		 # 	collision with: 18 10 0  and 25 0 1 
 # max = 986
57527197		 # 	collision with: 14 1 0  and 9 0 1 
 # max = 986
57528232		 # 	collision with: 2 2 0  and 25 2 0 
 # max = 986
57530271		 # 	collision with: 12 1 0  and 16 1 0 
 # max = 986
57531040		 # 	collision with: 14 27 0  and 2 3 1 
 # max = 1056
57531041		 # 	collision with: 24 17 0  and 10 1 1 
 # max = 1056
57531947		 # 	collision with: 12 0 0  and 21 0 0 
 # max = 1056
57532264		 # 	collision with: 5 2 0  and 24 2 0 
 # max = 1056
57532385		 # 	collision with: 6 3 0  and 24 3 0 
 # max = 1056
57533130		 # 	collision with: 4 6 0  and 13 6 0 
 # max = 1056
57534450		 # 	collision with: 4 0 0  and 18 0 0 
 # max = 1056
57535013		 # 	collision with: 6 1 0  and 12 1 0 
 # max = 1056
57537604		 # 	collision with: 2 1 0  and 20 1 0 
 # max = 1056
57538728		 # 	collision with: 16 10 0  and 9 0 1 
 # max = 1056
57538729		 # 	collision with: 30 8 0  and 6 1 1 
 # max = 1056
0.92452secs	1056 776
