# prime 31
# degree 3
# input variables 2
# output variables 3
# reload computed balance functions from file balance-85of5726-p31d3m2-debug.log
# p = 31
# n = 3
# smalldomain p^m 961
# domain p^n 29791
#	 p^2 = 961
#	 p^3 = 29791
#	 p^4 = 923521
#	 p^5 = 28629151
#	 p^6 = 887503681
#	 p^7 = 27512614111
#	 p^8 = 852891037441
#	 p^9 = 26439622160671
opening file : balance-85of5726-p31d3m2-debug.log
reloading for step2...
1700208		 # 	collision with: 26 0 0  and 30 0 0 
 # max = 30
1701156		 # 	collision with: 20 20 1  and 13 1 2 
 # max = 1966
1701157		 # 	collision with: 4 9 0  and 19 0 1 
 # max = 1966
1702129		 # 	collision with: 5 0 0  and 24 0 0 
 # max = 1966
1703013		 # 	collision with: 6 26 0  and 1 0 1 
 # max = 1966
1703015		 # 	collision with: 2 8 0  and 28 0 1 
 # max = 1966
1703992		 # 	collision with: 6 0 0  and 30 0 0 
 # max = 1966
1706168		 # 	collision with: 12 1 0  and 21 1 0 
 # max = 1966
1706327		 # 	collision with: 3 0 0  and 29 0 0 
 # max = 1966
1706857		 # 	collision with: 26 26 0  and 6 0 1 
 # max = 1966
1706859		 # 	collision with: 3 8 0  and 16 0 1 
 # max = 1966
1707652		 # 	collision with: 24 0 0  and 27 0 0 
 # max = 1966
1709549		 # 	collision with: 7 0 0  and 15 0 0 
 # max = 1966
1710781		 # 	collision with: 7 0 0  and 21 0 0 
 # max = 1966
1711886		 # 	collision with: 12 0 0  and 21 0 0 
 # max = 1966
1712162		 # 	collision with: 17 0 0  and 23 0 0 
 # max = 1966
1712688		 # 	collision with: 1 1 1  and 3 3 3 
 # max = 2979
1712689		 # 	collision with: 29 12 0  and 2 1 1 
 # max = 2979
1714108		 # 	collision with: 12 0 0  and 29 0 0 
 # max = 2979
1714545		 # 	collision with: 2 4 0  and 3 0 1 
 # max = 2979
1714547		 # 	collision with: 1 8 0  and 8 0 1 
 # max = 2979
1716532		 # 	collision with: 3 28 1  and 4 2 2 
 # max = 2979
1716533		 # 	collision with: 28 9 0  and 26 0 1 
 # max = 2979
1717226		 # 	collision with: 8 0 0  and 14 0 0 
 # max = 2979
1718140		 # 	collision with: 11 0 0  and 24 0 0 
 # max = 2979
1718678		 # 	collision with: 6 0 0  and 26 0 0 
 # max = 2979
8.08296secs	2979 1787
