# prime 31
# degree 3
# input variables 2
# output variables 3
# reload computed balance functions from file balance-3088of5726-p31d3m2-debug.log
# p = 31
# n = 3
# smalldomain p^m 961
# domain p^n 29791
#	 p^2 = 961
#	 p^3 = 29791
#	 p^4 = 923521
#	 p^5 = 28629151
#	 p^6 = 887503681
#	 p^7 = 27512614111
#	 p^8 = 852891037441
#	 p^9 = 26439622160671
opening file : balance-3088of5726-p31d3m2-debug.log
reloading for step2...
61760337		 # 	collision with: 15 1 0  and 28 1 0 
 # max = 59
61761675		 # 	collision with: 4 2 0  and 12 2 0 
 # max = 74
61761749		 # 	collision with: 27 0 0  and 30 0 0 
 # max = 74
61764541		 # 	collision with: 0 0 0  and 13 0 0 
 # max = 74
61764629		 # 	collision with: 3 1 0  and 7 1 0 
 # max = 74
61765345		 # 	collision with: 6 0 0  and 21 0 0 
 # max = 74
61765832		 # 	collision with: 12 5 0  and 14 5 0 
 # max = 169
61766508		 # 	collision with: 25 26 0  and 2 6 1 
 # max = 1149
61766509		 # 	collision with: 23 29 0  and 14 0 1 
 # max = 1149
61766638		 # 	collision with: 3 2 0  and 20 2 0 
 # max = 1149
61767224		 # 	collision with: 13 0 0  and 26 0 0 
 # max = 1149
61768422		 # 	collision with: 15 0 0  and 17 0 0 
 # max = 1149
61770352		 # 	collision with: 23 12 0  and 3 0 1 
 # max = 1149
61770353		 # 	collision with: 26 29 0  and 14 0 1 
 # max = 1149
61770884		 # 	collision with: 18 0 0  and 23 0 0 
 # max = 1149
61772038		 # 	collision with: 1 2 0  and 9 2 0 
 # max = 1149
61774196		 # 	collision with: 22 12 0  and 28 0 1 
 # max = 1149
61774197		 # 	collision with: 22 7 0  and 16 1 1 
 # max = 1149
61774386		 # 	collision with: 6 3 0  and 9 3 0 
 # max = 1149
61774668		 # 	collision with: 14 0 0  and 20 0 0 
 # max = 1149
61774945		 # 	collision with: 19 3 0  and 25 3 0 
 # max = 1149
61776822		 # 	collision with: 2 1 0  and 30 1 0 
 # max = 1149
61778328		 # 	collision with: 7 0 0  and 13 0 0 
 # max = 1149
1.19961secs	1149 777
