# prime 31
# degree 3
# input variables 2
# output variables 3
# reload computed balance functions from file balance-4367of5726-p31d3m2-debug.log
# p = 31
# n = 3
# smalldomain p^m 961
# domain p^n 29791
#	 p^2 = 961
#	 p^3 = 29791
#	 p^4 = 923521
#	 p^5 = 28629151
#	 p^6 = 887503681
#	 p^7 = 27512614111
#	 p^8 = 852891037441
#	 p^9 = 26439622160671
opening file : balance-4367of5726-p31d3m2-debug.log
reloading for step2...
87340793		 # 	collision with: 2 0 0  and 23 0 0 
 # max = 23
87341012		 # 	collision with: 4 6 0  and 6 1 1 
 # max = 998
87341013		 # 	collision with: 25 11 0  and 3 1 1 
 # max = 998
87341718		 # 	collision with: 16 1 0  and 23 1 0 
 # max = 998
87341792		 # 	collision with: 5 0 0  and 28 0 0 
 # max = 998
87342332		 # 	collision with: 6 0 0  and 20 0 0 
 # max = 998
87345824		 # 	collision with: 17 0 0  and 29 0 0 
 # max = 998
87346735		 # 	collision with: 10 1 0  and 11 1 0 
 # max = 998
87347110		 # 	collision with: 3 2 0  and 24 2 0 
 # max = 998
87349077		 # 	collision with: 0 1 0  and 24 1 0 
 # max = 998
87349592		 # 	collision with: 6 2 0  and 14 2 0 
 # max = 998
87349668		 # 	collision with: 11 1 0  and 16 1 0 
 # max = 998
87351566		 # 	collision with: 6 3 0  and 19 3 0 
 # max = 998
87351955		 # 	collision with: 2 1 0  and 23 1 0 
 # max = 998
87353376		 # 	collision with: 0 0 0  and 6 0 0 
 # max = 998
87356264		 # 	collision with: 6 12 0  and 3 0 1 
 # max = 998
87356265		 # 	collision with: 30 9 0  and 3 0 1 
 # max = 998
87356482		 # 	collision with: 4 1 0  and 8 1 0 
 # max = 998
87356795		 # 	collision with: 6 0 0  and 16 0 0 
 # max = 998
87357608		 # 	collision with: 4 0 0  and 25 0 0 
 # max = 998
87359294		 # 	collision with: 16 0 0  and 20 0 0 
 # max = 998
0.745814secs	998 517
