# prime 31
# degree 3
# input variables 2
# output variables 3
# reload computed balance functions from file balance-4992of5726-p31d3m2-debug.log
# p = 31
# n = 3
# smalldomain p^m 961
# domain p^n 29791
#	 p^2 = 961
#	 p^3 = 29791
#	 p^4 = 923521
#	 p^5 = 28629151
#	 p^6 = 887503681
#	 p^7 = 27512614111
#	 p^8 = 852891037441
#	 p^9 = 26439622160671
opening file : balance-4992of5726-p31d3m2-debug.log
reloading for step2...
99842855		 # 	collision with: 0 0 0  and 10 0 0 
 # max = 10
99850563		 # 	collision with: 2 0 0  and 5 0 0 
 # max = 10
99850665		 # 	collision with: 13 3 0  and 23 3 0 
 # max = 116
99853013		 # 	collision with: 14 6 0  and 27 6 0 
 # max = 213
99855249		 # 	collision with: 5 1 0  and 27 1 0 
 # max = 213
99857689		 # 	collision with: 19 1 0  and 22 1 0 
 # max = 213
0.0530177secs	213 50
