# prime 31
# degree 3
# input variables 2
# output variables 3
# reload computed balance functions from file balance-1133of5726-p31d3m2-debug.log
# p = 31
# n = 3
# smalldomain p^m 961
# domain p^n 29791
#	 p^2 = 961
#	 p^3 = 29791
#	 p^4 = 923521
#	 p^5 = 28629151
#	 p^6 = 887503681
#	 p^7 = 27512614111
#	 p^8 = 852891037441
#	 p^9 = 26439622160671
opening file : balance-1133of5726-p31d3m2-debug.log
reloading for step2...
22660691		 # 	collision with: 16 0 0  and 12 3 0 
 # max = 105
22660701		 # 	collision with: 2 0 0  and 18 0 0 
 # max = 105
22663043		 # 	collision with: 4 0 0  and 26 0 0 
 # max = 105
22663728		 # 	collision with: 21 17 0  and 1 0 1 
 # max = 962
22663729		 # 	collision with: 3 2 0  and 7 0 1 
 # max = 968
22666989		 # 	collision with: 9 0 0  and 29 0 0 
 # max = 968
22673218		 # 	collision with: 17 1 0  and 30 1 0 
 # max = 968
22673245		 # 	collision with: 18 1 0  and 30 1 0 
 # max = 968
22675878		 # 	collision with: 4 1 0  and 29 1 0 
 # max = 968
22679104		 # 	collision with: 5 17 0  and 14 0 1 
 # max = 975
22679105		 # 	collision with: 21 2 0  and 9 0 1 
 # max = 975
22679582		 # 	collision with: 8 0 0  and 25 0 0 
 # max = 975
0.682046secs	975 473
