# prime 31
# degree 3
# input variables 2
# output variables 4
# reload computed balance functions from file balance-1731of5726-p31d3m2-debug.log
# p = 31
# n = 4
# smalldomain p^m 961
# domain p^n 923521
#	 p^2 = 961
#	 p^3 = 29791
#	 p^4 = 923521
#	 p^5 = 28629151
#	 p^6 = 887503681
#	 p^7 = 27512614111
#	 p^8 = 852891037441
#	 p^9 = 26439622160671
opening file : balance-1731of5726-p31d3m2-debug.log
reloading for step2...
34621544		 # 	collision with: 8 15 29 0  and 24 2 0 1 
 # max = 29877
34621545		 # 	collision with: 28 9 1 0  and 10 0 0 1 
 # max = 29877
34622360		 # 	collision with: 20 1 0 0  and 23 1 0 0 
 # max = 29877
34625388		 # 	collision with: 23 1 29 0  and 11 0 0 1 
 # max = 29877
34625389		 # 	collision with: 1 0 1 0  and 0 1 0 1 
 # max = 29877
34629395		 # 	collision with: 18 1 0 0  and 30 1 0 0 
 # max = 29877
34629804		 # 	collision with: 14 0 0 0  and 22 0 0 0 
 # max = 29877
34631898		 # 	collision with: 0 0 0 0  and 18 0 0 0 
 # max = 29877
34633464		 # 	collision with: 0 2 0 0  and 21 2 0 0 
 # max = 29877
34637248		 # 	collision with: 12 1 0 0  and 18 1 0 0 
 # max = 29877
34637939		 # 	collision with: 6 0 0 0  and 28 0 0 0 
 # max = 29877
22.1259secs	29877 13290
