# prime 31
# degree 3
# input variables 2
# output variables 4
# reload computed balance functions from file balance-2270of5726-p31d3m2-debug.log
# p = 31
# n = 4
# smalldomain p^m 961
# domain p^n 923521
#	 p^2 = 961
#	 p^3 = 29791
#	 p^4 = 923521
#	 p^5 = 28629151
#	 p^6 = 887503681
#	 p^7 = 27512614111
#	 p^8 = 852891037441
#	 p^9 = 26439622160671
opening file : balance-2270of5726-p31d3m2-debug.log
reloading for step2...
45401145		 # 	collision with: 3 2 0 0  and 15 2 0 0 
 # max = 77
45402457		 # 	collision with: 18 5 0 0  and 30 5 0 0 
 # max = 185
45402744		 # 	collision with: 7 0 0 0  and 17 0 0 0 
 # max = 185
45402828		 # 	collision with: 26 0 0 0  and 29 0 0 0 
 # max = 185
45406488		 # 	collision with: 6 1 0 0  and 19 1 0 0 
 # max = 185
45408056		 # 	collision with: 7 22 22 0  and 6 0 0 1 
 # max = 29797
45408057		 # 	collision with: 3 11 5 0  and 23 0 0 1 
 # max = 29814
45413626		 # 	collision with: 23 1 0 0  and 29 1 0 0 
 # max = 29814
45414716		 # 	collision with: 19 0 0 0  and 11 1 0 0 
 # max = 29814
45415744		 # 	collision with: 4 24 22 0  and 25 7 0 1 
 # max = 30033
45415745		 # 	collision with: 12 8 5 0  and 15 0 0 1 
 # max = 30033
45417716		 # 	collision with: 23 6 0 0  and 29 6 0 0 
 # max = 30033
45419588		 # 	collision with: 29 19 22 0  and 3 0 0 1 
 # max = 30033
45419589		 # 	collision with: 20 12 5 0  and 19 0 0 1 
 # max = 30033
45419603		 # 	collision with: 23 0 0 0  and 29 0 0 0 
 # max = 30033
59.069secs	30033 19973
