# prime 31
# degree 3
# input variables 2
# output variables 4
# reload computed balance functions from file balance-2450of5726-p31d3m2-debug.log
# p = 31
# n = 4
# smalldomain p^m 961
# domain p^n 923521
#	 p^2 = 961
#	 p^3 = 29791
#	 p^4 = 923521
#	 p^5 = 28629151
#	 p^6 = 887503681
#	 p^7 = 27512614111
#	 p^8 = 852891037441
#	 p^9 = 26439622160671
opening file : balance-2450of5726-p31d3m2-debug.log
reloading for step2...
49000080		 # 	collision with: 6 0 0 0  and 14 0 0 0 
 # max = 14
49002320		 # 	collision with: 0 10 21 0  and 18 12 0 1 
 # max = 30181
49002321		 # 	collision with: 30 27 29 0  and 20 0 0 1 
 # max = 30181
49003740		 # 	collision with: 0 0 0 0  and 19 0 0 0 
 # max = 30181
49005516		 # 	collision with: 25 0 0 0  and 28 0 0 0 
 # max = 30181
49006164		 # 	collision with: 20 21 21 0  and 7 0 0 1 
 # max = 30181
49006165		 # 	collision with: 24 6 29 0  and 0 0 0 1 
 # max = 30181
49009424		 # 	collision with: 15 1 0 0  and 23 1 0 0 
 # max = 30181
49011410		 # 	collision with: 13 5 0 0  and 19 5 0 0 
 # max = 30181
49011623		 # 	collision with: 3 4 0 0  and 3 5 0 0 
 # max = 30181
49013852		 # 	collision with: 5 12 21 0  and 2 2 0 1 
 # max = 30181
49013853		 # 	collision with: 19 1 29 0  and 0 0 0 1 
 # max = 30181
49016090		 # 	collision with: 22 0 0 0  and 26 0 0 0 
 # max = 30181
49017696		 # 	collision with: 2 18 21 0  and 3 0 0 1 
 # max = 30181
49017697		 # 	collision with: 18 8 29 0  and 21 0 0 1 
 # max = 30181
49018495		 # 	collision with: 0 0 0 0  and 29 0 0 0 
 # max = 30181
63.0796secs	30181 26592
