# prime 31
# degree 3
# input variables 2
# output variables 4
# reload computed balance functions from file balance-1275of5726-p31d3m2-debug.log
# p = 31
# n = 4
# smalldomain p^m 961
# domain p^n 923521
#	 p^2 = 961
#	 p^3 = 29791
#	 p^4 = 923521
#	 p^5 = 28629151
#	 p^6 = 887503681
#	 p^7 = 27512614111
#	 p^8 = 852891037441
#	 p^9 = 26439622160671
opening file : balance-1275of5726-p31d3m2-debug.log
reloading for step2...
25503729		 # 	collision with: 10 1 0 0  and 24 1 0 0 
 # max = 55
25503759		 # 	collision with: 4 0 0 0  and 26 0 0 0 
 # max = 55
25505067		 # 	collision with: 13 0 0 0  and 0 3 0 0 
 # max = 93
25505312		 # 	collision with: 23 1 29 0  and 11 0 0 1 
 # max = 29802
25505313		 # 	collision with: 14 28 18 0  and 0 1 0 1 
 # max = 29822
25505345		 # 	collision with: 3 1 0 0  and 24 1 0 0 
 # max = 29822
25505510		 # 	collision with: 6 3 0 0  and 13 3 0 0 
 # max = 29822
25506055		 # 	collision with: 13 1 0 0  and 23 1 0 0 
 # max = 29822
25506209		 # 	collision with: 5 0 0 0  and 22 0 0 0 
 # max = 29822
25512564		 # 	collision with: 7 2 0 0  and 11 2 0 0 
 # max = 29822
25512939		 # 	collision with: 9 0 0 0  and 24 0 0 0 
 # max = 29822
25514605		 # 	collision with: 3 0 0 0  and 5 0 0 0 
 # max = 29822
25515621		 # 	collision with: 15 1 0 0  and 20 1 0 0 
 # max = 29822
25515740		 # 	collision with: 12 1 0 0  and 18 1 0 0 
 # max = 29822
25516660		 # 	collision with: 15 2 0 0  and 25 2 0 0 
 # max = 29822
25516844		 # 	collision with: 0 15 7 0  and 17 4 1 1 
 # max = 30893
25516845		 # 	collision with: 0 1 18 0  and 18 0 0 1 
 # max = 30893
25518337		 # 	collision with: 10 0 0 0  and 29 0 0 0 
 # max = 30893
25519977		 # 	collision with: 7 0 0 0  and 8 0 0 0 
 # max = 30893
33.6086secs	30893 13451
