# prime 31
# degree 3
# input variables 2
# output variables 4
# reload computed balance functions from file balance-2889of5726-p31d3m2-debug.log
# p = 31
# n = 4
# smalldomain p^m 961
# domain p^n 923521
#	 p^2 = 961
#	 p^3 = 29791
#	 p^4 = 923521
#	 p^5 = 28629151
#	 p^6 = 887503681
#	 p^7 = 27512614111
#	 p^8 = 852891037441
#	 p^9 = 26439622160671
opening file : balance-2889of5726-p31d3m2-debug.log
reloading for step2...
57780652		 # 	collision with: 4 24 22 0  and 25 7 0 1 
 # max = 30033
57780653		 # 	collision with: 0 25 27 0  and 10 1 0 1 
 # max = 30033
57780746		 # 	collision with: 1 2 0 0  and 4 2 0 0 
 # max = 30033
57781929		 # 	collision with: 6 1 0 0  and 10 1 0 0 
 # max = 30033
57782188		 # 	collision with: 19 0 0 0  and 11 1 0 0 
 # max = 30033
57782833		 # 	collision with: 16 3 0 0  and 30 3 0 0 
 # max = 30033
57784496		 # 	collision with: 29 26 22 0  and 27 0 0 1 
 # max = 30033
57784497		 # 	collision with: 11 23 27 0  and 13 0 0 1 
 # max = 30033
57786220		 # 	collision with: 7 1 0 0  and 23 1 0 0 
 # max = 30033
57787751		 # 	collision with: 3 2 0 0  and 16 2 0 0 
 # max = 30033
57788340		 # 	collision with: 23 27 22 0  and 2 0 0 1 
 # max = 30033
57788341		 # 	collision with: 10 20 27 0  and 15 3 0 1 
 # max = 30033
57792685		 # 	collision with: 14 0 0 0  and 20 0 0 0 
 # max = 30033
57794160		 # 	collision with: 3 0 0 0  and 4 0 0 0 
 # max = 30033
57794296		 # 	collision with: 11 0 0 0  and 28 0 0 0 
 # max = 30033
57794347		 # 	collision with: 6 0 0 0  and 17 0 0 0 
 # max = 30033
57795279		 # 	collision with: 15 1 0 0  and 30 1 0 0 
 # max = 30033
57797896		 # 	collision with: 15 3 0 0  and 28 3 0 0 
 # max = 30033
57798004		 # 	collision with: 2 0 0 0  and 20 0 0 0 
 # max = 30033
57798681		 # 	collision with: 4 0 0 0  and 12 0 0 0 
 # max = 30033
57798789		 # 	collision with: 10 6 0 0  and 13 6 0 0 
 # max = 30033
57799115		 # 	collision with: 4 1 0 0  and 24 1 0 0 
 # max = 30033
59.8111secs	30033 20013
