# prime 31
# degree 3
# input variables 2
# output variables 3
# reload computed balance functions from file balance-15of5726-p31d3m2-debug.log
# p = 31
# n = 3
# smalldomain p^m 961
# domain p^n 29791
#	 p^2 = 961
#	 p^3 = 29791
#	 p^4 = 923521
#	 p^5 = 28629151
#	 p^6 = 887503681
#	 p^7 = 27512614111
#	 p^8 = 852891037441
#	 p^9 = 26439622160671
opening file : balance-15of5726-p31d3m2-debug.log
reloading for step2...
300442		 # 	collision with: 12 0 0  and 29 0 0 
 # max = 29
301480		 # 	collision with: 11 0 0  and 24 0 0 
 # max = 29
302825		 # 	collision with: 17 1 0  and 25 1 0 
 # max = 56
303428		 # 	collision with: 24 13 1  and 14 8 2 
 # max = 2184
303429		 # 	collision with: 6 1 0  and 18 0 1 
 # max = 2184
305264		 # 	collision with: 8 0 0  and 14 0 0 
 # max = 2184
307272		 # 	collision with: 19 29 1  and 10 1 2 
 # max = 2184
307273		 # 	collision with: 19 25 0  and 28 1 1 
 # max = 2184
308924		 # 	collision with: 11 0 0  and 27 0 0 
 # max = 2184
311116		 # 	collision with: 24 12 1  and 10 1 2 
 # max = 2184
311117		 # 	collision with: 7 1 0  and 2 0 1 
 # max = 2184
311485		 # 	collision with: 27 11 0  and 11 8 1 
 # max = 2184
311487		 # 	collision with: 12 19 0  and 2 2 1 
 # max = 2184
312263		 # 	collision with: 5 0 0  and 9 0 0 
 # max = 2184
312708		 # 	collision with: 6 0 0  and 30 0 0 
 # max = 2184
313568		 # 	collision with: 12 1 0  and 21 1 0 
 # max = 2184
315335		 # 	collision with: 7 3 0  and 11 3 0 
 # max = 2184
317197		 # 	collision with: 13 4 0  and 28 4 0 
 # max = 2184
318804		 # 	collision with: 19 11 1  and 12 1 2 
 # max = 2184
318805		 # 	collision with: 19 1 0  and 5 0 1 
 # max = 2184
319173		 # 	collision with: 4 21 0  and 0 1 1 
 # max = 2184
319175		 # 	collision with: 16 29 0  and 2 7 1 
 # max = 2184
319349		 # 	collision with: 4 1 0  and 8 1 0 
 # max = 2184
5.75225secs	2184 1884
