# prime 31
# degree 3
# input variables 2
# output variables 4
# reload computed balance functions from file balance-3181of5726-p31d3m2-debug.log
# p = 31
# n = 4
# smalldomain p^m 961
# domain p^n 923521
#	 p^2 = 961
#	 p^3 = 29791
#	 p^4 = 923521
#	 p^5 = 28629151
#	 p^6 = 887503681
#	 p^7 = 27512614111
#	 p^8 = 852891037441
#	 p^9 = 26439622160671
opening file : balance-3181of5726-p31d3m2-debug.log
reloading for step2...
63622736		 # 	collision with: 3 0 0 0  and 19 0 0 0 
 # max = 19
63625144		 # 	collision with: 29 3 8 0  and 20 1 0 1 
 # max = 29842
63625145		 # 	collision with: 4 8 29 0  and 24 4 0 1 
 # max = 29939
63628988		 # 	collision with: 16 1 8 0  and 8 2 0 1 
 # max = 29939
63628989		 # 	collision with: 15 13 29 0  and 24 0 0 1 
 # max = 29939
63631882		 # 	collision with: 8 1 0 0  and 22 1 0 0 
 # max = 29939
63632832		 # 	collision with: 4 29 8 0  and 11 0 0 1 
 # max = 29939
63632833		 # 	collision with: 17 23 29 0  and 28 0 0 1 
 # max = 29939
63637178		 # 	collision with: 7 3 0 0  and 9 3 0 0 
 # max = 29939
63637294		 # 	collision with: 8 0 0 0  and 10 0 0 0 
 # max = 29939
63638428		 # 	collision with: 15 2 0 0  and 25 2 0 0 
 # max = 29939
43.5098secs	29939 19927
