# prime 31
# degree 3
# input variables 2
# output variables 3
# reload computed balance functions from file balance-1149of5726-p31d3m2-debug.log
# p = 31
# n = 3
# smalldomain p^m 961
# domain p^n 29791
#	 p^2 = 961
#	 p^3 = 29791
#	 p^4 = 923521
#	 p^5 = 28629151
#	 p^6 = 887503681
#	 p^7 = 27512614111
#	 p^8 = 852891037441
#	 p^9 = 26439622160671
opening file : balance-1149of5726-p31d3m2-debug.log
reloading for step2...
22980254		 # 	collision with: 23 1 0  and 25 1 0 
 # max = 56
22981196		 # 	collision with: 11 0 0  and 29 0 0 
 # max = 56
22982103		 # 	collision with: 6 5 0  and 22 5 0 
 # max = 177
22982484		 # 	collision with: 13 0 0  and 24 0 0 
 # max = 177
22983919		 # 	collision with: 25 1 0  and 30 1 0 
 # max = 177
22984582		 # 	collision with: 13 2 0  and 29 2 0 
 # max = 177
22986144		 # 	collision with: 7 2 0  and 9 2 0 
 # max = 177
22987041		 # 	collision with: 6 0 0  and 30 0 0 
 # max = 177
22989933		 # 	collision with: 10 1 0  and 11 1 0 
 # max = 177
22990220		 # 	collision with: 5 1 0  and 14 0 1 
 # max = 975
22990221		 # 	collision with: 1 22 0  and 22 0 1 
 # max = 983
22993588		 # 	collision with: 3 4 0  and 11 4 0 
 # max = 983
22994064		 # 	collision with: 19 1 0  and 5 0 1 
 # max = 983
22994065		 # 	collision with: 24 22 0  and 1 0 1 
 # max = 983
22994935		 # 	collision with: 6 0 0  and 20 0 0 
 # max = 983
22996141		 # 	collision with: 5 0 0  and 14 0 0 
 # max = 983
22997076		 # 	collision with: 24 0 0  and 30 0 0 
 # max = 983
22997908		 # 	collision with: 4 6 0  and 3 1 1 
 # max = 995
22997909		 # 	collision with: 11 22 0  and 9 0 1 
 # max = 995
22999123		 # 	collision with: 10 0 0  and 10 2 0 
 # max = 995
1.10687secs	995 744
