# prime 31
# degree 3
# input variables 2
# output variables 3
# reload computed balance functions from file balance-3848of5726-p31d3m2-debug.log
# p = 31
# n = 3
# smalldomain p^m 961
# domain p^n 29791
#	 p^2 = 961
#	 p^3 = 29791
#	 p^4 = 923521
#	 p^5 = 28629151
#	 p^6 = 887503681
#	 p^7 = 27512614111
#	 p^8 = 852891037441
#	 p^9 = 26439622160671
opening file : balance-3848of5726-p31d3m2-debug.log
reloading for step2...
76961877		 # 	collision with: 5 1 0  and 21 1 0 
 # max = 52
76962236		 # 	collision with: 3 0 0  and 29 0 0 
 # max = 52
76964568		 # 	collision with: 15 14 0  and 16 14 0 
 # max = 450
76966268		 # 	collision with: 10 0 0  and 13 0 0 
 # max = 450
76967192		 # 	collision with: 2 0 0  and 17 0 0 
 # max = 450
76967649		 # 	collision with: 5 0 0  and 16 0 0 
 # max = 450
76969156		 # 	collision with: 24 23 0  and 22 1 1 
 # max = 1014
76969157		 # 	collision with: 4 17 0  and 11 0 1 
 # max = 1014
76970976		 # 	collision with: 13 2 0  and 19 2 0 
 # max = 1014
76972567		 # 	collision with: 5 2 0  and 8 2 0 
 # max = 1014
76973000		 # 	collision with: 14 28 0  and 7 1 1 
 # max = 1014
76973001		 # 	collision with: 0 17 0  and 13 0 1 
 # max = 1014
76974208		 # 	collision with: 9 3 0  and 24 3 0 
 # max = 1014
76976844		 # 	collision with: 17 2 0  and 9 1 1 
 # max = 1014
76976845		 # 	collision with: 18 17 0  and 26 0 1 
 # max = 1014
76977995		 # 	collision with: 9 0 0  and 29 0 0 
 # max = 1014
76978250		 # 	collision with: 12 0 0  and 30 0 0 
 # max = 1014
76978420		 # 	collision with: 0 0 0  and 16 0 0 
 # max = 1014
76979605		 # 	collision with: 22 1 0  and 30 1 0 
 # max = 1014
0.99687secs	1014 769
