# prime 31
# degree 3
# input variables 2
# output variables 3
# reload computed balance functions from file balance-413of5726-p31d3m2-debug.log
# p = 31
# n = 3
# smalldomain p^m 961
# domain p^n 29791
#	 p^2 = 961
#	 p^3 = 29791
#	 p^4 = 923521
#	 p^5 = 28629151
#	 p^6 = 887503681
#	 p^7 = 27512614111
#	 p^8 = 852891037441
#	 p^9 = 26439622160671
opening file : balance-413of5726-p31d3m2-debug.log
reloading for step2...
8262344		 # 	collision with: 26 1 0  and 29 1 0 
 # max = 60
8263732		 # 	collision with: 30 18 0  and 9 0 1 
 # max = 970
8263733		 # 	collision with: 15 27 0  and 7 3 1 
 # max = 1061
8264852		 # 	collision with: 5 0 0  and 8 0 0 
 # max = 1061
8268884		 # 	collision with: 17 2 0  and 25 2 0 
 # max = 1061
8269597		 # 	collision with: 5 0 0  and 12 0 0 
 # max = 1061
8269788		 # 	collision with: 17 0 0  and 30 0 0 
 # max = 1061
8271420		 # 	collision with: 10 18 0  and 1 0 1 
 # max = 1061
8271421		 # 	collision with: 14 4 0  and 30 2 1 
 # max = 1061
8272410		 # 	collision with: 0 9 0  and 2 9 0 
 # max = 1061
8272792		 # 	collision with: 4 1 0  and 18 1 0 
 # max = 1061
8273448		 # 	collision with: 2 0 0  and 15 0 0 
 # max = 1061
8275264		 # 	collision with: 12 18 0  and 10 0 1 
 # max = 1061
8275265		 # 	collision with: 6 22 0  and 5 2 1 
 # max = 1061
8276443		 # 	collision with: 12 0 0  and 18 0 0 
 # max = 1061
8276824		 # 	collision with: 14 0 0  and 19 0 0 
 # max = 1061
1.85847secs	1061 736
