# prime 31
# degree 3
# input variables 2
# output variables 3
# reload computed balance functions from file balance-898of5726-p31d3m2-debug.log
# p = 31
# n = 3
# smalldomain p^m 961
# domain p^n 29791
#	 p^2 = 961
#	 p^3 = 29791
#	 p^4 = 923521
#	 p^5 = 28629151
#	 p^6 = 887503681
#	 p^7 = 27512614111
#	 p^8 = 852891037441
#	 p^9 = 26439622160671
opening file : balance-898of5726-p31d3m2-debug.log
reloading for step2...
17963181		 # 	collision with: 2 1 0  and 13 1 0 
 # max = 44
17963213		 # 	collision with: 21 2 0  and 26 2 0 
 # max = 88
17963985		 # 	collision with: 10 3 0  and 26 3 0 
 # max = 119
17964111		 # 	collision with: 2 3 0  and 28 3 0 
 # max = 121
17964172		 # 	collision with: 4 2 0  and 30 2 0 
 # max = 121
17970068		 # 	collision with: 2 0 0  and 6 0 0 
 # max = 121
17971320		 # 	collision with: 1 19 0  and 6 1 1 
 # max = 998
17971321		 # 	collision with: 11 5 0  and 4 0 1 
 # max = 998
17971494		 # 	collision with: 11 2 0  and 26 2 0 
 # max = 998
17971616		 # 	collision with: 12 2 0  and 15 2 0 
 # max = 998
17973363		 # 	collision with: 10 0 0  and 10 2 0 
 # max = 998
17973976		 # 	collision with: 16 0 0  and 30 0 0 
 # max = 998
17975400		 # 	collision with: 2 2 0  and 6 2 0 
 # max = 998
17975813		 # 	collision with: 9 0 0  and 23 0 0 
 # max = 998
17976439		 # 	collision with: 9 0 0  and 11 0 0 
 # max = 998
17978008		 # 	collision with: 15 1 0  and 26 1 0 
 # max = 998
17978341		 # 	collision with: 11 3 0  and 23 3 0 
 # max = 998
17979008		 # 	collision with: 29 24 0  and 6 0 1 
 # max = 998
17979009		 # 	collision with: 16 5 0  and 6 0 1 
 # max = 998
0.915307secs	998 545
