# prime 31
# degree 3
# input variables 2
# output variables 3
# reload computed balance functions from file balance-4259of5726-p31d3m2-debug.log
# p = 31
# n = 3
# smalldomain p^m 961
# domain p^n 29791
#	 p^2 = 961
#	 p^3 = 29791
#	 p^4 = 923521
#	 p^5 = 28629151
#	 p^6 = 887503681
#	 p^7 = 27512614111
#	 p^8 = 852891037441
#	 p^9 = 26439622160671
opening file : balance-4259of5726-p31d3m2-debug.log
reloading for step2...
85180442		 # 	collision with: 18 0 0  and 26 0 0 
 # max = 26
85181939		 # 	collision with: 11 0 0  and 24 0 0 
 # max = 26
85181998		 # 	collision with: 2 0 0  and 15 0 0 
 # max = 26
85183351		 # 	collision with: 4 1 0  and 18 1 0 
 # max = 49
85183683		 # 	collision with: 6 1 0  and 22 1 0 
 # max = 53
85186760		 # 	collision with: 27 23 0  and 14 0 1 
 # max = 975
85186761		 # 	collision with: 9 25 0  and 3 0 1 
 # max = 975
85187324		 # 	collision with: 20 2 0  and 28 2 0 
 # max = 975
85187999		 # 	collision with: 13 2 0  and 22 2 0 
 # max = 975
85188985		 # 	collision with: 12 2 0  and 17 2 0 
 # max = 975
85190710		 # 	collision with: 7 0 0  and 13 0 0 
 # max = 975
85191232		 # 	collision with: 14 0 0  and 23 0 0 
 # max = 975
85193371		 # 	collision with: 14 0 0  and 19 0 0 
 # max = 975
85194448		 # 	collision with: 28 23 0  and 8 0 1 
 # max = 975
85194449		 # 	collision with: 18 22 0  and 3 1 1 
 # max = 995
85196467		 # 	collision with: 6 1 0  and 16 1 0 
 # max = 995
85199516		 # 	collision with: 8 0 0  and 16 0 0 
 # max = 995
0.687379secs	995 493
