# prime 31
# degree 3
# input variables 2
# output variables 3
# reload computed balance functions from file balance-5144of5726-p31d3m2-debug.log
# p = 31
# n = 3
# smalldomain p^m 961
# domain p^n 29791
#	 p^2 = 961
#	 p^3 = 29791
#	 p^4 = 923521
#	 p^5 = 28629151
#	 p^6 = 887503681
#	 p^7 = 27512614111
#	 p^8 = 852891037441
#	 p^9 = 26439622160671
opening file : balance-5144of5726-p31d3m2-debug.log
reloading for step2...
102880339		 # 	collision with: 17 0 0  and 30 0 0 
 # max = 30
102883336		 # 	collision with: 8 0 0  and 13 0 0 
 # max = 30
102883449		 # 	collision with: 14 0 0  and 27 0 0 
 # max = 30
102884416		 # 	collision with: 6 0 0  and 11 0 0 
 # max = 30
102885131		 # 	collision with: 17 1 0  and 22 1 0 
 # max = 53
102885280		 # 	collision with: 29 7 0  and 20 0 1 
 # max = 981
102885281		 # 	collision with: 25 19 0  and 20 0 1 
 # max = 981
102885966		 # 	collision with: 27 1 0  and 28 1 0 
 # max = 981
102888200		 # 	collision with: 14 1 0  and 20 1 0 
 # max = 981
102888262		 # 	collision with: 21 4 0  and 30 4 0 
 # max = 981
102889124		 # 	collision with: 24 23 0  and 22 1 1 
 # max = 1014
102889125		 # 	collision with: 9 20 0  and 3 2 1 
 # max = 1026
102891860		 # 	collision with: 13 2 0  and 19 2 0 
 # max = 1026
102892758		 # 	collision with: 0 1 0  and 28 1 0 
 # max = 1026
102892809		 # 	collision with: 15 0 0  and 29 0 0 
 # max = 1026
102892968		 # 	collision with: 17 7 0  and 6 0 1 
 # max = 1026
102892969		 # 	collision with: 20 19 0  and 5 0 1 
 # max = 1026
102895308		 # 	collision with: 21 0 0  and 20 2 0 
 # max = 1026
102895644		 # 	collision with: 16 0 0  and 30 0 0 
 # max = 1026
102896090		 # 	collision with: 3 1 0  and 6 1 0 
 # max = 1026
102896812		 # 	collision with: 20 7 0  and 17 0 1 
 # max = 1026
102896813		 # 	collision with: 15 19 0  and 30 0 1 
 # max = 1026
102898957		 # 	collision with: 13 3 0  and 14 3 0 
 # max = 1026
102899837		 # 	collision with: 12 2 0  and 18 2 0 
 # max = 1026
1.30904secs	1026 978
