# prime 31
# degree 3
# input variables 2
# output variables 4
# reload computed balance functions from file balance-422of5726-p31d3m2-debug.log
# p = 31
# n = 4
# smalldomain p^m 961
# domain p^n 923521
#	 p^2 = 961
#	 p^3 = 29791
#	 p^4 = 923521
#	 p^5 = 28629151
#	 p^6 = 887503681
#	 p^7 = 27512614111
#	 p^8 = 852891037441
#	 p^9 = 26439622160671
opening file : balance-422of5726-p31d3m2-debug.log
reloading for step2...
8440432		 # 	collision with: 5 20 8 0  and 14 0 0 1 
 # max = 29805
8440433		 # 	collision with: 16 19 16 0  and 15 0 0 1 
 # max = 29806
8443440		 # 	collision with: 4 4 0 0  and 16 4 0 0 
 # max = 29806
8444923		 # 	collision with: 21 1 0 0  and 22 1 0 0 
 # max = 29806
8447472		 # 	collision with: 3 0 0 0  and 19 0 0 0 
 # max = 29806
8448120		 # 	collision with: 29 3 8 0  and 20 1 0 1 
 # max = 29842
8448121		 # 	collision with: 1 22 16 0  and 23 0 0 1 
 # max = 29842
8450265		 # 	collision with: 18 1 0 0  and 22 1 0 0 
 # max = 29842
8450358		 # 	collision with: 5 1 0 0  and 16 1 0 0 
 # max = 29842
8450634		 # 	collision with: 4 0 0 0  and 16 0 0 0 
 # max = 29842
8451380		 # 	collision with: 28 5 0 0  and 13 9 0 0 
 # max = 29842
8451964		 # 	collision with: 2 27 8 0  and 0 1 0 1 
 # max = 29842
8451965		 # 	collision with: 28 11 16 0  and 20 1 0 1 
 # max = 29842
8452164		 # 	collision with: 10 1 0 0  and 18 1 0 0 
 # max = 29842
8452962		 # 	collision with: 18 3 0 0  and 30 3 0 0 
 # max = 29842
8455412		 # 	collision with: 16 0 0 0  and 17 0 0 0 
 # max = 29842
8455808		 # 	collision with: 9 5 8 0  and 17 1 0 1 
 # max = 29842
8455809		 # 	collision with: 28 30 16 0  and 7 0 0 1 
 # max = 29842
8457097		 # 	collision with: 8 1 0 0  and 24 1 0 0 
 # max = 29842
8458994		 # 	collision with: 24 0 0 0  and 15 2 0 0 
 # max = 29842
8459613		 # 	collision with: 3 1 0 0  and 25 1 0 0 
 # max = 29842
45.4602secs	29842 26618
