# prime 31
# degree 3
# input variables 2
# output variables 3
# reload computed balance functions from file balance-4784of5726-p31d3m2-debug.log
# p = 31
# n = 3
# smalldomain p^m 961
# domain p^n 29791
#	 p^2 = 961
#	 p^3 = 29791
#	 p^4 = 923521
#	 p^5 = 28629151
#	 p^6 = 887503681
#	 p^7 = 27512614111
#	 p^8 = 852891037441
#	 p^9 = 26439622160671
opening file : balance-4784of5726-p31d3m2-debug.log
reloading for step2...
95681500		 # 	collision with: 22 2 0  and 14 1 1 
 # max = 1006
95681501		 # 	collision with: 24 17 0  and 19 1 1 
 # max = 1011
95685344		 # 	collision with: 15 18 1  and 2 0 2 
 # max = 1924
95685345		 # 	collision with: 0 17 0  and 11 2 1 
 # max = 1924
95685491		 # 	collision with: 5 0 0  and 10 0 0 
 # max = 1924
95688409		 # 	collision with: 6 1 0  and 9 1 0 
 # max = 1924
95692908		 # 	collision with: 29 12 0  and 27 1 1 
 # max = 1924
95692909		 # 	collision with: 20 11 0  and 16 2 1 
 # max = 1924
95693636		 # 	collision with: 21 0 0  and 23 0 0 
 # max = 1924
95693782		 # 	collision with: 9 0 0  and 27 0 0 
 # max = 1924
95696581		 # 	collision with: 7 2 0  and 23 2 0 
 # max = 1924
95697296		 # 	collision with: 25 0 0  and 30 0 0 
 # max = 1924
95697828		 # 	collision with: 1 2 0  and 26 2 0 
 # max = 1924
1.00087secs	1924 815
