# prime 31
# degree 3
# input variables 2
# output variables 4
# reload computed balance functions from file balance-1225of5726-p31d3m2-debug.log
# p = 31
# n = 4
# smalldomain p^m 961
# domain p^n 923521
#	 p^2 = 961
#	 p^3 = 29791
#	 p^4 = 923521
#	 p^5 = 28629151
#	 p^6 = 887503681
#	 p^7 = 27512614111
#	 p^8 = 852891037441
#	 p^9 = 26439622160671
opening file : balance-1225of5726-p31d3m2-debug.log
reloading for step2...
24501373		 # 	collision with: 14 2 0 0  and 23 2 0 0 
 # max = 85
24502478		 # 	collision with: 5 0 0 0  and 21 0 0 0 
 # max = 85
24506988		 # 	collision with: 25 27 15 0  and 11 0 0 1 
 # max = 29802
24506989		 # 	collision with: 30 7 20 0  and 27 1 0 1 
 # max = 29849
24507636		 # 	collision with: 0 2 0 0  and 8 2 0 0 
 # max = 29849
24508282		 # 	collision with: 18 1 0 0  and 25 1 0 0 
 # max = 29849
24508776		 # 	collision with: 26 0 0 0  and 28 0 0 0 
 # max = 29849
24509967		 # 	collision with: 3 4 0 0  and 11 4 0 0 
 # max = 29849
24511420		 # 	collision with: 1 2 0 0  and 12 2 0 0 
 # max = 29849
24512808		 # 	collision with: 26 3 0 0  and 14 4 0 0 
 # max = 29849
24513659		 # 	collision with: 21 1 0 0  and 25 1 0 0 
 # max = 29849
24514676		 # 	collision with: 29 3 15 0  and 10 1 0 1 
 # max = 29849
24514677		 # 	collision with: 13 24 20 0  and 21 1 0 1 
 # max = 29849
24515080		 # 	collision with: 6 0 0 0  and 29 0 0 0 
 # max = 29849
24515831		 # 	collision with: 9 2 0 0  and 29 2 0 0 
 # max = 29849
24516716		 # 	collision with: 6 0 0 0  and 18 0 0 0 
 # max = 29849
24517201		 # 	collision with: 21 0 0 0  and 23 0 0 0 
 # max = 29849
24518864		 # 	collision with: 10 0 0 0  and 27 0 0 0 
 # max = 29849
35.9557secs	29849 13353
