# prime 31
# degree 3
# input variables 2
# output variables 3
# reload computed balance functions from file balance-3of5726-p31d3m2-debug.log
# p = 31
# n = 3
# smalldomain p^m 961
# domain p^n 29791
#	 p^2 = 961
#	 p^3 = 29791
#	 p^4 = 923521
#	 p^5 = 28629151
#	 p^6 = 887503681
#	 p^7 = 27512614111
#	 p^8 = 852891037441
#	 p^9 = 26439622160671
opening file : balance-3of5726-p31d3m2-debug.log
reloading for step2...
60323		 # 	collision with: 23 2 0  and 0 3 0 
 # max = 93
61095		 # 	collision with: 29 2 0  and 30 2 0 
 # max = 93
61221		 # 	collision with: 2 0 0  and 29 0 0 
 # max = 93
61625		 # 	collision with: 22 18 1  and 10 2 2 
 # max = 1994
61627		 # 	collision with: 4 5 0  and 6 0 1 
 # max = 1994
62773		 # 	collision with: 3 2 0  and 25 2 0 
 # max = 1994
64137		 # 	collision with: 9 4 0  and 17 4 0 
 # max = 1994
65971		 # 	collision with: 17 4 0  and 28 4 0 
 # max = 1994
66681		 # 	collision with: 3 0 0  and 28 0 0 
 # max = 1994
66687		 # 	collision with: 20 0 0  and 27 0 0 
 # max = 1994
68045		 # 	collision with: 3 0 0  and 28 0 0 
 # max = 1994
69597		 # 	collision with: 16 1 0  and 30 1 0 
 # max = 1994
72697		 # 	collision with: 9 1 0  and 19 1 0 
 # max = 1994
73157		 # 	collision with: 7 24 1  and 10 3 2 
 # max = 2025
73159		 # 	collision with: 15 25 0  and 4 0 1 
 # max = 2025
75679		 # 	collision with: 15 1 0  and 28 1 0 
 # max = 2025
77847		 # 	collision with: 18 2 0  and 22 2 0 
 # max = 2025
78033		 # 	collision with: 13 1 0  and 25 1 0 
 # max = 2025
79645		 # 	collision with: 15 2 0  and 19 2 0 
 # max = 2025
1.94128secs	2025 779
