# prime 31
# degree 3
# input variables 2
# output variables 4
# reload computed balance functions from file balance-1242of5726-p31d3m2-debug.log
# p = 31
# n = 4
# smalldomain p^m 961
# domain p^n 923521
#	 p^2 = 961
#	 p^3 = 29791
#	 p^4 = 923521
#	 p^5 = 28629151
#	 p^6 = 887503681
#	 p^7 = 27512614111
#	 p^8 = 852891037441
#	 p^9 = 26439622160671
opening file : balance-1242of5726-p31d3m2-debug.log
reloading for step2...
24841044		 # 	collision with: 18 0 20 0  and 0 2 0 1 
 # max = 29853
24841045		 # 	collision with: 0 1 6 0  and 6 0 0 1 
 # max = 29853
24842492		 # 	collision with: 7 0 0 0  and 22 0 0 0 
 # max = 29853
24842625		 # 	collision with: 6 0 0 0  and 18 0 0 0 
 # max = 29853
24844594		 # 	collision with: 8 1 0 0  and 11 1 0 0 
 # max = 29853
24844888		 # 	collision with: 29 5 20 0  and 17 0 0 1 
 # max = 29853
24844889		 # 	collision with: 19 29 6 0  and 22 0 0 1 
 # max = 29853
24846040		 # 	collision with: 4 3 0 0  and 6 3 0 0 
 # max = 29853
24846152		 # 	collision with: 4 1 0 0  and 8 1 0 0 
 # max = 29853
24848410		 # 	collision with: 20 5 0 0  and 23 5 0 0 
 # max = 29853
24848732		 # 	collision with: 18 0 20 0  and 0 2 0 1 
 # max = 29853
24848733		 # 	collision with: 7 15 6 0  and 23 0 0 1 
 # max = 29853
24849936		 # 	collision with: 9 0 0 0  and 23 0 0 0 
 # max = 29853
24850072		 # 	collision with: 13 1 0 0  and 27 1 0 0 
 # max = 29853
24850609		 # 	collision with: 4 0 0 0  and 9 0 0 0 
 # max = 29853
24852576		 # 	collision with: 28 28 20 0  and 1 0 0 1 
 # max = 29853
24852577		 # 	collision with: 8 25 6 0  and 10 2 0 1 
 # max = 29863
24853561		 # 	collision with: 4 0 0 0  and 15 0 0 0 
 # max = 29863
24853980		 # 	collision with: 16 1 0 0  and 24 1 0 0 
 # max = 29863
24855257		 # 	collision with: 0 2 0 0  and 7 2 0 0 
 # max = 29863
24857380		 # 	collision with: 4 0 0 0  and 15 0 0 0 
 # max = 29863
24858012		 # 	collision with: 18 3 0 0  and 29 3 0 0 
 # max = 29863
24859698		 # 	collision with: 14 1 0 0  and 24 1 0 0 
 # max = 29863
50.807secs	29863 26601
