# prime 31
# degree 3
# input variables 2
# output variables 3
# reload computed balance functions from file balance-4566of5726-p31d3m2-debug.log
# p = 31
# n = 3
# smalldomain p^m 961
# domain p^n 29791
#	 p^2 = 961
#	 p^3 = 29791
#	 p^4 = 923521
#	 p^5 = 28629151
#	 p^6 = 887503681
#	 p^7 = 27512614111
#	 p^8 = 852891037441
#	 p^9 = 26439622160671
opening file : balance-4566of5726-p31d3m2-debug.log
reloading for step2...
91321340		 # 	collision with: 18 4 0  and 20 4 0 
 # max = 144
91322205		 # 	collision with: 18 0 0  and 25 0 0 
 # max = 144
91322580		 # 	collision with: 2 5 0  and 14 5 0 
 # max = 169
91323024		 # 	collision with: 2 19 0  and 5 2 1 
 # max = 1028
91323025		 # 	collision with: 30 4 0  and 11 0 1 
 # max = 1028
91323154		 # 	collision with: 3 1 0  and 6 1 0 
 # max = 1028
91323773		 # 	collision with: 18 0 0  and 30 0 0 
 # max = 1028
91325372		 # 	collision with: 8 1 0  and 27 1 0 
 # max = 1028
91325407		 # 	collision with: 15 0 0  and 20 0 0 
 # max = 1028
91326868		 # 	collision with: 1 27 0  and 14 1 1 
 # max = 1028
91326869		 # 	collision with: 30 4 0  and 8 0 1 
 # max = 1028
91327146		 # 	collision with: 15 0 0  and 19 0 0 
 # max = 1028
91329280		 # 	collision with: 27 2 0  and 29 2 0 
 # max = 1028
91333312		 # 	collision with: 14 0 0  and 19 0 0 
 # max = 1028
91333808		 # 	collision with: 14 3 0  and 19 3 0 
 # max = 1028
91334556		 # 	collision with: 25 18 0  and 2 0 1 
 # max = 1028
91334557		 # 	collision with: 19 4 0  and 15 0 1 
 # max = 1028
91337220		 # 	collision with: 2 1 0  and 22 1 0 
 # max = 1028
91338400		 # 	collision with: 12 18 0  and 15 0 1 
 # max = 1028
91338401		 # 	collision with: 12 4 0  and 17 0 1 
 # max = 1028
1.27185secs	1028 960
