# prime 31
# degree 3
# input variables 2
# output variables 3
# reload computed balance functions from file balance-3327of5726-p31d3m2-debug.log
# p = 31
# n = 3
# smalldomain p^m 961
# domain p^n 29791
#	 p^2 = 961
#	 p^3 = 29791
#	 p^4 = 923521
#	 p^5 = 28629151
#	 p^6 = 887503681
#	 p^7 = 27512614111
#	 p^8 = 852891037441
#	 p^9 = 26439622160671
opening file : balance-3327of5726-p31d3m2-debug.log
reloading for step2...
66543291		 # 	collision with: 0 0 0  and 2 0 0 
 # max = 2
66544823		 # 	collision with: 7 1 0  and 21 1 0 
 # max = 52
66551955		 # 	collision with: 8 1 0  and 24 1 0 
 # max = 55
66554677		 # 	collision with: 7 4 0  and 30 4 0 
 # max = 154
0.0292093secs	154 29
