# prime 31
# degree 3
# input variables 2
# output variables 4
# reload computed balance functions from file balance-1542of5726-p31d3m2-debug.log
# p = 31
# n = 4
# smalldomain p^m 961
# domain p^n 923521
#	 p^2 = 961
#	 p^3 = 29791
#	 p^4 = 923521
#	 p^5 = 28629151
#	 p^6 = 887503681
#	 p^7 = 27512614111
#	 p^8 = 852891037441
#	 p^9 = 26439622160671
opening file : balance-1542of5726-p31d3m2-debug.log
reloading for step2...
30841774		 # 	collision with: 27 0 0 0  and 28 0 0 0 
 # max = 28
30842792		 # 	collision with: 13 2 0 0  and 13 3 0 0 
 # max = 106
30844014		 # 	collision with: 3 3 0 0  and 16 3 0 0 
 # max = 109
30844987		 # 	collision with: 3 1 0 0  and 18 2 0 0 
 # max = 109
30845264		 # 	collision with: 0 1 0 0  and 29 1 0 0 
 # max = 109
30846860		 # 	collision with: 1 19 7 0  and 3 0 0 1 
 # max = 29794
30846861		 # 	collision with: 1 0 1 0  and 0 1 0 1 
 # max = 29822
30848411		 # 	collision with: 6 0 0 0  and 27 0 0 0 
 # max = 29822
30849296		 # 	collision with: 16 0 0 0  and 21 0 0 0 
 # max = 29822
30850704		 # 	collision with: 30 6 7 0  and 7 1 0 1 
 # max = 29829
30850705		 # 	collision with: 10 18 1 0  and 16 0 0 1 
 # max = 29829
30853204		 # 	collision with: 22 0 0 0  and 24 0 0 0 
 # max = 29829
30853526		 # 	collision with: 13 0 0 0  and 27 0 0 0 
 # max = 29829
30854020		 # 	collision with: 9 0 0 0  and 9 2 0 0 
 # max = 29829
30854548		 # 	collision with: 20 4 7 0  and 5 0 0 1 
 # max = 29829
30854549		 # 	collision with: 12 24 1 0  and 30 0 0 1 
 # max = 29829
30857236		 # 	collision with: 3 0 0 0  and 29 0 0 0 
 # max = 29829
30859293		 # 	collision with: 2 1 0 0  and 8 1 0 0 
 # max = 29829
37.1055secs	29829 19943
