# prime 31
# degree 3
# input variables 2
# output variables 3
# reload computed balance functions from file balance-3211of5726-p31d3m2-debug.log
# p = 31
# n = 3
# smalldomain p^m 961
# domain p^n 29791
#	 p^2 = 961
#	 p^3 = 29791
#	 p^4 = 923521
#	 p^5 = 28629151
#	 p^6 = 887503681
#	 p^7 = 27512614111
#	 p^8 = 852891037441
#	 p^9 = 26439622160671
opening file : balance-3211of5726-p31d3m2-debug.log
reloading for step2...
64221708		 # 	collision with: 27 14 0  and 4 16 0 
 # max = 500
64222909		 # 	collision with: 13 0 0  and 19 0 0 
 # max = 500
64224188		 # 	collision with: 11 7 0  and 0 1 1 
 # max = 992
64224189		 # 	collision with: 24 10 0  and 12 1 1 
 # max = 1004
64225804		 # 	collision with: 12 1 0  and 27 1 0 
 # max = 1004
64225957		 # 	collision with: 0 0 0  and 28 0 0 
 # max = 1004
64226164		 # 	collision with: 25 0 0  and 28 0 0 
 # max = 1004
64229648		 # 	collision with: 12 0 0  and 27 0 0 
 # max = 1004
64229764		 # 	collision with: 8 1 0  and 10 1 0 
 # max = 1004
64232389		 # 	collision with: 10 1 0  and 17 1 0 
 # max = 1004
64232631		 # 	collision with: 7 0 0  and 23 0 0 
 # max = 1004
64232763		 # 	collision with: 4 0 0  and 15 0 0 
 # max = 1004
64233065		 # 	collision with: 5 1 0  and 19 1 0 
 # max = 1004
64237494		 # 	collision with: 13 3 0  and 21 3 0 
 # max = 1004
64238051		 # 	collision with: 5 4 0  and 29 4 0 
 # max = 1004
64238979		 # 	collision with: 4 0 0  and 22 0 0 
 # max = 1004
64239234		 # 	collision with: 0 0 0  and 20 0 0 
 # max = 1004
64239440		 # 	collision with: 16 4 0  and 0 0 1 
 # max = 1004
64239441		 # 	collision with: 0 25 0  and 15 1 1 
 # max = 1007
0.763372secs	1007 567
