# prime 31
# degree 3
# input variables 2
# output variables 3
# reload computed balance functions from file balance-471of5726-p31d3m2-debug.log
# p = 31
# n = 3
# smalldomain p^m 961
# domain p^n 29791
#	 p^2 = 961
#	 p^3 = 29791
#	 p^4 = 923521
#	 p^5 = 28629151
#	 p^6 = 887503681
#	 p^7 = 27512614111
#	 p^8 = 852891037441
#	 p^9 = 26439622160671
opening file : balance-471of5726-p31d3m2-debug.log
reloading for step2...
9420881		 # 	collision with: 21 0 0  and 30 0 0 
 # max = 30
9423380		 # 	collision with: 11 13 0  and 10 1 1 
 # max = 1002
9423381		 # 	collision with: 30 26 0  and 11 2 1 
 # max = 1034
9423408		 # 	collision with: 0 1 0  and 13 1 0 
 # max = 1034
9425470		 # 	collision with: 0 0 0  and 19 0 0 
 # max = 1034
9426794		 # 	collision with: 18 2 0  and 22 2 0 
 # max = 1034
9427440		 # 	collision with: 12 6 0  and 22 6 0 
 # max = 1034
9430432		 # 	collision with: 11 0 0  and 28 0 0 
 # max = 1034
9431348		 # 	collision with: 3 0 0  and 4 0 0 
 # max = 1034
9432075		 # 	collision with: 13 0 0  and 23 0 0 
 # max = 1034
9432893		 # 	collision with: 7 0 0  and 25 0 0 
 # max = 1034
9434912		 # 	collision with: 21 15 0  and 4 1 1 
 # max = 1034
9434913		 # 	collision with: 20 9 0  and 23 5 1 
 # max = 1139
9435380		 # 	collision with: 19 0 0  and 27 0 0 
 # max = 1139
9439288		 # 	collision with: 7 1 0  and 28 1 0 
 # max = 1139
1.29992secs	1139 524
