# prime 31
# degree 3
# input variables 2
# output variables 4
# reload computed balance functions from file balance-1943of5726-p31d3m2-debug.log
# p = 31
# n = 4
# smalldomain p^m 961
# domain p^n 923521
#	 p^2 = 961
#	 p^3 = 29791
#	 p^4 = 923521
#	 p^5 = 28629151
#	 p^6 = 887503681
#	 p^7 = 27512614111
#	 p^8 = 852891037441
#	 p^9 = 26439622160671
opening file : balance-1943of5726-p31d3m2-debug.log
reloading for step2...
38862501		 # 	collision with: 10 0 0 0  and 15 0 0 0 
 # max = 15
38864036		 # 	collision with: 4 0 0 0  and 9 0 0 0 
 # max = 15
38864700		 # 	collision with: 11 17 20 0  and 16 0 0 1 
 # max = 29807
38864701		 # 	collision with: 24 0 24 0  and 0 1 0 1 
 # max = 29822
38866275		 # 	collision with: 6 0 0 0  and 13 0 0 0 
 # max = 29822
38866666		 # 	collision with: 15 0 0 0  and 26 0 0 0 
 # max = 29822
38868544		 # 	collision with: 18 0 20 0  and 0 2 0 1 
 # max = 29853
38868545		 # 	collision with: 14 5 24 0  and 8 0 0 1 
 # max = 29853
38869347		 # 	collision with: 16 1 0 0  and 17 1 0 0 
 # max = 29853
38871171		 # 	collision with: 0 0 0 0  and 8 0 0 0 
 # max = 29853
38871976		 # 	collision with: 13 1 0 0  and 27 1 0 0 
 # max = 29853
38872110		 # 	collision with: 8 2 0 0  and 12 2 0 0 
 # max = 29853
38872388		 # 	collision with: 18 0 20 0  and 0 2 0 1 
 # max = 29853
38872389		 # 	collision with: 23 4 24 0  and 6 0 0 1 
 # max = 29853
38874312		 # 	collision with: 9 0 0 0  and 23 0 0 0 
 # max = 29853
38875884		 # 	collision with: 6 0 0 0  and 20 0 0 0 
 # max = 29853
38878385		 # 	collision with: 15 0 0 0  and 26 0 0 0 
 # max = 29853
29.3143secs	29853 19916
