# prime 31
# degree 3
# input variables 2
# output variables 3
# reload computed balance functions from file balance-3207of5726-p31d3m2-debug.log
# p = 31
# n = 3
# smalldomain p^m 961
# domain p^n 29791
#	 p^2 = 961
#	 p^3 = 29791
#	 p^4 = 923521
#	 p^5 = 28629151
#	 p^6 = 887503681
#	 p^7 = 27512614111
#	 p^8 = 852891037441
#	 p^9 = 26439622160671
opening file : balance-3207of5726-p31d3m2-debug.log
reloading for step2...
64140496		 # 	collision with: 9 1 0  and 17 1 0 
 # max = 48
64141951		 # 	collision with: 2 2 0  and 30 2 0 
 # max = 92
64143464		 # 	collision with: 26 27 0  and 18 4 1 
 # max = 1103
64143465		 # 	collision with: 19 13 0  and 3 0 1 
 # max = 1103
64144280		 # 	collision with: 9 1 0  and 24 1 0 
 # max = 1103
64144781		 # 	collision with: 5 0 0  and 5 2 0 
 # max = 1103
64146340		 # 	collision with: 17 0 0  and 27 0 0 
 # max = 1103
64147940		 # 	collision with: 2 1 0  and 4 1 0 
 # max = 1103
64148263		 # 	collision with: 6 1 0  and 24 1 0 
 # max = 1103
64149222		 # 	collision with: 5 0 0  and 9 0 0 
 # max = 1103
64151152		 # 	collision with: 6 10 0  and 4 0 1 
 # max = 1103
64151153		 # 	collision with: 6 13 0  and 21 0 1 
 # max = 1103
64151369		 # 	collision with: 24 0 0  and 27 0 0 
 # max = 1103
64151724		 # 	collision with: 15 0 0  and 21 0 0 
 # max = 1103
64152685		 # 	collision with: 5 4 0  and 12 4 0 
 # max = 1103
64155546		 # 	collision with: 14 0 0  and 20 0 0 
 # max = 1103
64157722		 # 	collision with: 13 1 0  and 28 1 0 
 # max = 1103
64159168		 # 	collision with: 0 0 0  and 10 0 0 
 # max = 1103
0.716731secs	1103 519
