# prime 31
# degree 3
# input variables 2
# output variables 4
# reload computed balance functions from file balance-2817of5726-p31d3m2-debug.log
# p = 31
# n = 4
# smalldomain p^m 961
# domain p^n 923521
#	 p^2 = 961
#	 p^3 = 29791
#	 p^4 = 923521
#	 p^5 = 28629151
#	 p^6 = 887503681
#	 p^7 = 27512614111
#	 p^8 = 852891037441
#	 p^9 = 26439622160671
opening file : balance-2817of5726-p31d3m2-debug.log
reloading for step2...
56342902		 # 	collision with: 8 0 0 0  and 22 0 0 0 
 # max = 22
56343400		 # 	collision with: 23 0 0 0  and 26 0 0 0 
 # max = 26
56344484		 # 	collision with: 10 29 11 0  and 9 0 0 1 
 # max = 29800
56344485		 # 	collision with: 23 9 29 0  and 2 0 0 1 
 # max = 29800
56344611		 # 	collision with: 2 0 0 0  and 25 0 0 0 
 # max = 29800
56345521		 # 	collision with: 5 1 0 0  and 4 2 0 0 
 # max = 29800
56345762		 # 	collision with: 0 0 0 0  and 19 0 0 0 
 # max = 29800
56345902		 # 	collision with: 19 0 0 0  and 28 0 0 0 
 # max = 29800
56347184		 # 	collision with: 3 0 0 0  and 7 0 0 0 
 # max = 29800
56349003		 # 	collision with: 9 0 0 0  and 27 0 0 0 
 # max = 29800
56349888		 # 	collision with: 5 0 0 0  and 28 0 0 0 
 # max = 29800
56350498		 # 	collision with: 5 2 0 0  and 11 2 0 0 
 # max = 29800
56350844		 # 	collision with: 6 0 0 0  and 20 0 0 0 
 # max = 29800
56351185		 # 	collision with: 14 3 0 0  and 20 3 0 0 
 # max = 29800
56352172		 # 	collision with: 0 23 11 0  and 2 3 0 1 
 # max = 29886
56352173		 # 	collision with: 9 11 29 0  and 23 0 0 1 
 # max = 29886
56353796		 # 	collision with: 1 4 0 0  and 1 5 0 0 
 # max = 29886
56354628		 # 	collision with: 9 1 0 0  and 16 1 0 0 
 # max = 29886
56357828		 # 	collision with: 17 0 0 0  and 29 0 0 0 
 # max = 29886
56357857		 # 	collision with: 21 0 0 0  and 25 0 0 0 
 # max = 29886
37.5001secs	29886 13333
