# prime 31
# degree 3
# input variables 2
# output variables 3
# reload computed balance functions from file balance-2905of5726-p31d3m2-debug.log
# p = 31
# n = 3
# smalldomain p^m 961
# domain p^n 29791
#	 p^2 = 961
#	 p^3 = 29791
#	 p^4 = 923521
#	 p^5 = 28629151
#	 p^6 = 887503681
#	 p^7 = 27512614111
#	 p^8 = 852891037441
#	 p^9 = 26439622160671
opening file : balance-2905of5726-p31d3m2-debug.log
reloading for step2...
58103393		 # 	collision with: 9 2 0  and 12 2 0 
 # max = 74
58103572		 # 	collision with: 14 0 0  and 20 0 0 
 # max = 74
58106760		 # 	collision with: 6 1 0  and 7 1 0 
 # max = 74
58107020		 # 	collision with: 7 10 0  and 0 1 1 
 # max = 992
58107021		 # 	collision with: 30 5 0  and 6 0 1 
 # max = 992
58107604		 # 	collision with: 18 0 0  and 23 0 0 
 # max = 992
58110420		 # 	collision with: 7 0 0  and 14 0 0 
 # max = 992
58110864		 # 	collision with: 2 19 0  and 13 0 1 
 # max = 992
58110865		 # 	collision with: 12 5 0  and 22 0 1 
 # max = 992
58111512		 # 	collision with: 13 0 0  and 26 0 0 
 # max = 992
58111725		 # 	collision with: 20 0 0  and 28 0 0 
 # max = 992
58114708		 # 	collision with: 4 27 0  and 16 1 1 
 # max = 1008
58114709		 # 	collision with: 14 5 0  and 6 0 1 
 # max = 1008
58117091		 # 	collision with: 6 4 0  and 7 4 0 
 # max = 1008
58117864		 # 	collision with: 14 1 0  and 15 1 0 
 # max = 1008
58118046		 # 	collision with: 7 4 0  and 23 4 0 
 # max = 1008
58119452		 # 	collision with: 3 2 0  and 21 2 0 
 # max = 1008
1.09925secs	1008 724
