# prime 31
# degree 3
# input variables 2
# output variables 3
# reload computed balance functions from file balance-3539of5726-p31d3m2-debug.log
# p = 31
# n = 3
# smalldomain p^m 961
# domain p^n 29791
#	 p^2 = 961
#	 p^3 = 29791
#	 p^4 = 923521
#	 p^5 = 28629151
#	 p^6 = 887503681
#	 p^7 = 27512614111
#	 p^8 = 852891037441
#	 p^9 = 26439622160671
opening file : balance-3539of5726-p31d3m2-debug.log
reloading for step2...
70780516		 # 	collision with: 11 0 0  and 14 0 0 
 # max = 14
70780732		 # 	collision with: 19 1 0  and 27 1 0 
 # max = 58
70781034		 # 	collision with: 25 4 0  and 30 4 0 
 # max = 154
70782920		 # 	collision with: 7 12 0  and 9 2 1 
 # max = 1032
70782921		 # 	collision with: 2 13 0  and 13 0 1 
 # max = 1032
70783071		 # 	collision with: 3 0 0  and 7 0 0 
 # max = 1032
70784332		 # 	collision with: 20 1 0  and 26 1 0 
 # max = 1032
70784360		 # 	collision with: 12 0 0  and 16 0 0 
 # max = 1032
70786079		 # 	collision with: 3 0 0  and 9 0 0 
 # max = 1032
70787387		 # 	collision with: 19 0 0  and 29 0 0 
 # max = 1032
70787461		 # 	collision with: 3 0 0  and 22 0 0 
 # max = 1032
70788268		 # 	collision with: 2 1 0  and 30 1 0 
 # max = 1032
70792300		 # 	collision with: 10 0 0  and 14 0 0 
 # max = 1032
70794328		 # 	collision with: 27 10 0  and 16 0 1 
 # max = 1032
70794329		 # 	collision with: 22 29 0  and 4 0 1 
 # max = 1032
70796208		 # 	collision with: 9 1 0  and 18 1 0 
 # max = 1032
70798961		 # 	collision with: 4 1 0  and 10 1 0 
 # max = 1032
70799220		 # 	collision with: 2 1 0  and 20 1 0 
 # max = 1032
70799402		 # 	collision with: 18 1 0  and 22 1 0 
 # max = 1032
0.692103secs	1032 509
