# prime 31
# degree 3
# input variables 2
# output variables 4
# reload computed balance functions from file balance-2618of5726-p31d3m2-debug.log
# p = 31
# n = 4
# smalldomain p^m 961
# domain p^n 923521
#	 p^2 = 961
#	 p^3 = 29791
#	 p^4 = 923521
#	 p^5 = 28629151
#	 p^6 = 887503681
#	 p^7 = 27512614111
#	 p^8 = 852891037441
#	 p^9 = 26439622160671
opening file : balance-2618of5726-p31d3m2-debug.log
reloading for step2...
52360239		 # 	collision with: 5 1 0 0  and 6 1 0 0 
 # max = 37
52362348		 # 	collision with: 28 30 9 0  and 10 0 0 1 
 # max = 29801
52362349		 # 	collision with: 17 29 28 0  and 13 0 0 1 
 # max = 29804
52366192		 # 	collision with: 21 20 9 0  and 2 0 0 1 
 # max = 29804
52366193		 # 	collision with: 5 2 28 0  and 18 0 0 1 
 # max = 29809
52366818		 # 	collision with: 7 0 0 0  and 28 0 0 0 
 # max = 29809
52370036		 # 	collision with: 18 15 9 0  and 20 0 0 1 
 # max = 29811
52370037		 # 	collision with: 17 26 28 0  and 9 2 0 1 
 # max = 29862
52370088		 # 	collision with: 0 1 0 0  and 18 1 0 0 
 # max = 29862
52371629		 # 	collision with: 7 2 0 0  and 8 2 0 0 
 # max = 29862
52373880		 # 	collision with: 26 12 9 0  and 2 0 0 1 
 # max = 29862
52373881		 # 	collision with: 27 6 28 0  and 29 4 0 1 
 # max = 29944
52374196		 # 	collision with: 15 0 0 0  and 29 0 0 0 
 # max = 29944
52374482		 # 	collision with: 13 6 0 0  and 16 6 0 0 
 # max = 29944
52377143		 # 	collision with: 13 0 0 0  and 27 0 0 0 
 # max = 29944
52377724		 # 	collision with: 21 21 9 0  and 0 1 0 1 
 # max = 29944
52377725		 # 	collision with: 12 21 28 0  and 0 3 0 1 
 # max = 29944
52378028		 # 	collision with: 8 1 0 0  and 18 1 0 0 
 # max = 29944
52378242		 # 	collision with: 5 2 0 0  and 7 2 0 0 
 # max = 29944
52378466		 # 	collision with: 7 1 0 0  and 9 1 0 0 
 # max = 29944
52378987		 # 	collision with: 7 1 0 0  and 28 1 0 0 
 # max = 29944
72.8201secs	29944 33220
