# prime 31
# degree 3
# input variables 2
# output variables 4
# reload computed balance functions from file balance-1236of5726-p31d3m2-debug.log
# p = 31
# n = 4
# smalldomain p^m 961
# domain p^n 923521
#	 p^2 = 961
#	 p^3 = 29791
#	 p^4 = 923521
#	 p^5 = 28629151
#	 p^6 = 887503681
#	 p^7 = 27512614111
#	 p^8 = 852891037441
#	 p^9 = 26439622160671
opening file : balance-1236of5726-p31d3m2-debug.log
reloading for step2...
24724608		 # 	collision with: 15 11 0 0  and 16 11 0 0 
 # max = 357
24725507		 # 	collision with: 2 2 0 0  and 30 2 0 0 
 # max = 357
24728452		 # 	collision with: 21 14 0 0  and 10 16 0 0 
 # max = 506
24733263		 # 	collision with: 17 3 0 0  and 21 3 0 0 
 # max = 506
24733269		 # 	collision with: 13 0 0 0  and 25 0 0 0 
 # max = 506
24737380		 # 	collision with: 18 2 18 0  and 9 0 0 1 
 # max = 29800
24737381		 # 	collision with: 19 25 24 0  and 17 1 0 1 
 # max = 29839
24738912		 # 	collision with: 18 4 0 0  and 20 4 0 0 
 # max = 29839
24739507		 # 	collision with: 1 2 0 0  and 15 2 0 0 
 # max = 29839
16.009secs	29839 6772
