# prime 31
# degree 3
# input variables 2
# output variables 4
# reload computed balance functions from file balance-2476of5726-p31d3m2-debug.log
# p = 31
# n = 4
# smalldomain p^m 961
# domain p^n 923521
#	 p^2 = 961
#	 p^3 = 29791
#	 p^4 = 923521
#	 p^5 = 28629151
#	 p^6 = 887503681
#	 p^7 = 27512614111
#	 p^8 = 852891037441
#	 p^9 = 26439622160671
opening file : balance-2476of5726-p31d3m2-debug.log
reloading for step2...
49521368		 # 	collision with: 9 2 0 0  and 10 2 0 0 
 # max = 72
49525994		 # 	collision with: 10 0 0 0  and 24 0 0 0 
 # max = 72
49526218		 # 	collision with: 5 2 0 0  and 9 2 0 0 
 # max = 72
49526666		 # 	collision with: 13 3 0 0  and 27 3 0 0 
 # max = 120
49528861		 # 	collision with: 3 2 0 0  and 17 2 0 0 
 # max = 120
49529308		 # 	collision with: 2 0 0 0  and 27 0 0 0 
 # max = 120
49531302		 # 	collision with: 4 2 0 0  and 12 2 0 0 
 # max = 120
49532076		 # 	collision with: 9 2 0 0  and 12 2 0 0 
 # max = 120
49532296		 # 	collision with: 1 27 14 0  and 6 0 0 1 
 # max = 29797
49532297		 # 	collision with: 5 11 9 0  and 11 0 0 1 
 # max = 29802
49537248		 # 	collision with: 11 7 0 0  and 19 7 0 0 
 # max = 29802
49539520		 # 	collision with: 6 1 0 0  and 13 2 0 0 
 # max = 29802
49539984		 # 	collision with: 20 19 14 0  and 5 2 0 1 
 # max = 29858
49539985		 # 	collision with: 20 22 9 0  and 26 0 0 1 
 # max = 29858
36.7438secs	29858 13347
