# prime 31
# degree 3
# input variables 2
# output variables 4
# reload computed balance functions from file balance-2941of5726-p31d3m2-debug.log
# p = 31
# n = 4
# smalldomain p^m 961
# domain p^n 923521
#	 p^2 = 961
#	 p^3 = 29791
#	 p^4 = 923521
#	 p^5 = 28629151
#	 p^6 = 887503681
#	 p^7 = 27512614111
#	 p^8 = 852891037441
#	 p^9 = 26439622160671
opening file : balance-2941of5726-p31d3m2-debug.log
reloading for step2...
58821199		 # 	collision with: 2 6 0 0  and 17 6 0 0 
 # max = 203
58821832		 # 	collision with: 11 0 0 0  and 13 0 0 0 
 # max = 203
58825375		 # 	collision with: 15 0 0 0  and 20 0 0 0 
 # max = 203
58825740		 # 	collision with: 2 2 0 0  and 7 2 0 0 
 # max = 203
58828516		 # 	collision with: 16 0 0 0  and 22 0 0 0 
 # max = 203
58828948		 # 	collision with: 1 17 26 0  and 8 0 0 1 
 # max = 29799
58828949		 # 	collision with: 3 15 15 0  and 24 2 0 1 
 # max = 29877
58829772		 # 	collision with: 9 2 0 0  and 17 2 0 0 
 # max = 29877
58832792		 # 	collision with: 22 23 26 0  and 1 1 0 1 
 # max = 29877
58832793		 # 	collision with: 25 21 15 0  and 1 0 0 1 
 # max = 29877
58833759		 # 	collision with: 15 2 0 0  and 26 2 0 0 
 # max = 29877
58837510		 # 	collision with: 8 0 0 0  and 11 0 0 0 
 # max = 29877
58839620		 # 	collision with: 14 0 0 0  and 21 0 0 0 
 # max = 29877
38.8099secs	29877 13313
