# prime 31
# degree 3
# input variables 2
# output variables 3
# reload computed balance functions from file balance-2721of5726-p31d3m2-debug.log
# p = 31
# n = 3
# smalldomain p^m 961
# domain p^n 29791
#	 p^2 = 961
#	 p^3 = 29791
#	 p^4 = 923521
#	 p^5 = 28629151
#	 p^6 = 887503681
#	 p^7 = 27512614111
#	 p^8 = 852891037441
#	 p^9 = 26439622160671
opening file : balance-2721of5726-p31d3m2-debug.log
reloading for step2...
54420180		 # 	collision with: 3 2 0  and 27 2 0 
 # max = 89
54420624		 # 	collision with: 19 3 0  and 2 1 1 
 # max = 994
54420625		 # 	collision with: 30 28 0  and 3 2 1 
 # max = 1026
54422811		 # 	collision with: 4 1 0  and 7 1 0 
 # max = 1026
54423823		 # 	collision with: 11 1 0  and 22 1 0 
 # max = 1026
54429464		 # 	collision with: 8 0 0  and 24 0 0 
 # max = 1026
54431203		 # 	collision with: 15 4 0  and 26 4 0 
 # max = 1026
54433496		 # 	collision with: 9 0 0  and 26 0 0 
 # max = 1026
54437404		 # 	collision with: 21 10 0  and 25 10 0 
 # max = 1026
54438649		 # 	collision with: 21 1 0  and 26 1 0 
 # max = 1026
54439049		 # 	collision with: 24 1 0  and 25 1 0 
 # max = 1026
0.411074secs	1026 316
