# prime 31
# degree 3
# input variables 2
# output variables 4
# reload computed balance functions from file balance-2850of5726-p31d3m2-debug.log
# p = 31
# n = 4
# smalldomain p^m 961
# domain p^n 923521
#	 p^2 = 961
#	 p^3 = 29791
#	 p^4 = 923521
#	 p^5 = 28629151
#	 p^6 = 887503681
#	 p^7 = 27512614111
#	 p^8 = 852891037441
#	 p^9 = 26439622160671
opening file : balance-2850of5726-p31d3m2-debug.log
reloading for step2...
57001884		 # 	collision with: 6 0 0 0  and 28 0 0 0 
 # max = 28
57004440		 # 	collision with: 13 1 0 0  and 26 1 0 0 
 # max = 57
57004908		 # 	collision with: 17 3 25 0  and 1 0 0 1 
 # max = 29792
57004909		 # 	collision with: 24 23 18 0  and 0 0 0 1 
 # max = 29792
57007143		 # 	collision with: 2 0 0 0  and 25 0 0 0 
 # max = 29792
57007853		 # 	collision with: 9 0 0 0  and 12 0 0 0 
 # max = 29792
57008621		 # 	collision with: 20 1 0 0  and 29 1 0 0 
 # max = 29792
57009328		 # 	collision with: 20 2 0 0  and 30 2 0 0 
 # max = 29792
57012380		 # 	collision with: 3 1 0 0  and 21 1 0 0 
 # max = 29792
57016358		 # 	collision with: 3 1 0 0  and 18 1 0 0 
 # max = 29792
57018514		 # 	collision with: 2 0 0 0  and 23 0 0 0 
 # max = 29792
57019514		 # 	collision with: 6 0 0 0  and 6 9 0 0 
 # max = 29792
18.588secs	29792 6696
