# prime 31
# degree 3
# input variables 2
# output variables 4
# reload computed balance functions from file balance-278of5726-p31d3m2-debug.log
# p = 31
# n = 4
# smalldomain p^m 961
# domain p^n 923521
#	 p^2 = 961
#	 p^3 = 29791
#	 p^4 = 923521
#	 p^5 = 28629151
#	 p^6 = 887503681
#	 p^7 = 27512614111
#	 p^8 = 852891037441
#	 p^9 = 26439622160671
opening file : balance-278of5726-p31d3m2-debug.log
reloading for step2...
5560408		 # 	collision with: 0 15 24 0  and 14 6 4 1 
 # max = 33835
5560409		 # 	collision with: 21 18 25 0  and 23 1 0 1 
 # max = 33835
5561720		 # 	collision with: 18 1 0 0  and 23 1 0 0 
 # max = 33835
5562960		 # 	collision with: 7 2 0 0  and 11 2 0 0 
 # max = 33835
5564965		 # 	collision with: 8 1 0 0  and 11 1 0 0 
 # max = 33835
5566573		 # 	collision with: 5 1 0 0  and 25 1 0 0 
 # max = 33835
5566868		 # 	collision with: 4 1 0 0  and 11 1 0 0 
 # max = 33835
5569909		 # 	collision with: 14 0 0 0  and 27 0 0 0 
 # max = 33835
5571538		 # 	collision with: 15 1 0 0  and 30 1 0 0 
 # max = 33835
5571940		 # 	collision with: 20 29 29 0  and 5 0 0 1 
 # max = 33835
5571941		 # 	collision with: 6 22 25 0  and 14 1 0 1 
 # max = 33835
5572824		 # 	collision with: 4 0 0 0  and 16 0 0 0 
 # max = 33835
5574808		 # 	collision with: 9 1 0 0  and 26 1 0 0 
 # max = 33835
5576608		 # 	collision with: 19 0 0 0  and 25 0 0 0 
 # max = 33835
5578840		 # 	collision with: 1 4 0 0  and 1 7 0 0 
 # max = 33835
5579628		 # 	collision with: 29 2 29 0  and 12 0 0 1 
 # max = 33835
5579629		 # 	collision with: 23 11 25 0  and 7 1 0 1 
 # max = 33835
38.257secs	33835 20401
