# prime 31
# degree 3
# input variables 2
# output variables 3
# reload computed balance functions from file balance-4835of5726-p31d3m2-debug.log
# p = 31
# n = 3
# smalldomain p^m 961
# domain p^n 29791
#	 p^2 = 961
#	 p^3 = 29791
#	 p^4 = 923521
#	 p^5 = 28629151
#	 p^6 = 887503681
#	 p^7 = 27512614111
#	 p^8 = 852891037441
#	 p^9 = 26439622160671
opening file : balance-4835of5726-p31d3m2-debug.log
reloading for step2...
96701529		 # 	collision with: 24 0 0  and 30 0 0 
 # max = 30
96701740		 # 	collision with: 10 1 0  and 23 1 0 
 # max = 54
96702888		 # 	collision with: 30 30 0  and 2 0 1 
 # max = 963
96702889		 # 	collision with: 2 21 0  and 14 1 1 
 # max = 1006
96703635		 # 	collision with: 26 0 0  and 30 0 0 
 # max = 1006
96705524		 # 	collision with: 6 0 0  and 10 0 0 
 # max = 1006
96706171		 # 	collision with: 21 1 0  and 23 1 0 
 # max = 1006
96706205		 # 	collision with: 8 0 0  and 24 0 0 
 # max = 1006
96706732		 # 	collision with: 17 27 0  and 22 1 1 
 # max = 1014
96706733		 # 	collision with: 26 18 0  and 3 0 1 
 # max = 1014
96709184		 # 	collision with: 22 0 0  and 24 3 0 
 # max = 1014
96710576		 # 	collision with: 14 30 0  and 1 0 1 
 # max = 1014
96710577		 # 	collision with: 25 18 0  and 5 0 1 
 # max = 1014
96712529		 # 	collision with: 15 1 0  and 29 1 0 
 # max = 1014
96712535		 # 	collision with: 19 1 0  and 29 1 0 
 # max = 1014
96713297		 # 	collision with: 23 0 0  and 24 0 0 
 # max = 1014
96713464		 # 	collision with: 21 0 0  and 30 0 0 
 # max = 1014
96714420		 # 	collision with: 27 30 0  and 1 0 1 
 # max = 1014
96714421		 # 	collision with: 24 3 0  and 18 1 1 
 # max = 1014
96715241		 # 	collision with: 26 0 0  and 30 0 0 
 # max = 1014
96716628		 # 	collision with: 15 1 0  and 24 1 0 
 # max = 1014
96718264		 # 	collision with: 27 30 0  and 8 0 1 
 # max = 1014
96718265		 # 	collision with: 15 18 0  and 3 0 1 
 # max = 1014
96719857		 # 	collision with: 8 0 0  and 20 0 0 
 # max = 1014
1.65298secs	1014 1153
