# prime 31
# degree 3
# input variables 2
# output variables 3
# reload computed balance functions from file balance-5096of5726-p31d3m2-debug.log
# p = 31
# n = 3
# smalldomain p^m 961
# domain p^n 29791
#	 p^2 = 961
#	 p^3 = 29791
#	 p^4 = 923521
#	 p^5 = 28629151
#	 p^6 = 887503681
#	 p^7 = 27512614111
#	 p^8 = 852891037441
#	 p^9 = 26439622160671
opening file : balance-5096of5726-p31d3m2-debug.log
reloading for step2...
101921178		 # 	collision with: 13 0 0  and 25 0 0 
 # max = 25
101921428		 # 	collision with: 22 2 0  and 14 1 1 
 # max = 1006
101921429		 # 	collision with: 1 24 0  and 6 0 1 
 # max = 1006
101922598		 # 	collision with: 25 1 0  and 4 6 0 
 # max = 1006
101929116		 # 	collision with: 6 10 1  and 0 2 2 
 # max = 1984
101929117		 # 	collision with: 27 24 0  and 10 0 1 
 # max = 1984
101930199		 # 	collision with: 7 2 0  and 17 2 0 
 # max = 1984
101930497		 # 	collision with: 19 1 0  and 25 1 0 
 # max = 1984
101939498		 # 	collision with: 14 1 0  and 25 1 0 
 # max = 1984
0.722333secs	1984 592
