# prime 31
# degree 3
# input variables 2
# output variables 3
# reload computed balance functions from file balance-2302of5726-p31d3m2-debug.log
# p = 31
# n = 3
# smalldomain p^m 961
# domain p^n 29791
#	 p^2 = 961
#	 p^3 = 29791
#	 p^4 = 923521
#	 p^5 = 28629151
#	 p^6 = 887503681
#	 p^7 = 27512614111
#	 p^8 = 852891037441
#	 p^9 = 26439622160671
opening file : balance-2302of5726-p31d3m2-debug.log
reloading for step2...
46041696		 # 	collision with: 18 26 0  and 12 1 1 
 # max = 1004
46041697		 # 	collision with: 18 4 0  and 10 1 1 
 # max = 1004
46042700		 # 	collision with: 14 1 0  and 14 5 0 
 # max = 1004
46043842		 # 	collision with: 0 0 0  and 9 0 0 
 # max = 1004
46044405		 # 	collision with: 6 0 0  and 14 0 0 
 # max = 1004
46044531		 # 	collision with: 9 1 0  and 23 1 0 
 # max = 1004
46045540		 # 	collision with: 0 15 0  and 7 1 1 
 # max = 1004
46045541		 # 	collision with: 23 1 0  and 3 0 1 
 # max = 1004
46046484		 # 	collision with: 16 1 0  and 25 1 0 
 # max = 1004
46049384		 # 	collision with: 27 4 0  and 10 1 1 
 # max = 1004
46049385		 # 	collision with: 21 1 0  and 5 0 1 
 # max = 1004
46050144		 # 	collision with: 11 1 0  and 15 1 0 
 # max = 1004
46051242		 # 	collision with: 1 1 0  and 14 1 0 
 # max = 1004
46052702		 # 	collision with: 7 0 0  and 28 0 0 
 # max = 1004
46053576		 # 	collision with: 3 0 0  and 21 0 0 
 # max = 1004
46053753		 # 	collision with: 5 1 0  and 30 1 0 
 # max = 1004
46053791		 # 	collision with: 8 0 0  and 16 0 0 
 # max = 1004
46053902		 # 	collision with: 5 3 0  and 18 3 0 
 # max = 1004
46055091		 # 	collision with: 20 1 0  and 22 1 0 
 # max = 1004
46057072		 # 	collision with: 5 23 0  and 7 0 1 
 # max = 1004
46057073		 # 	collision with: 8 1 0  and 14 0 1 
 # max = 1004
46057484		 # 	collision with: 6 6 0  and 7 6 0 
 # max = 1004
46058463		 # 	collision with: 3 2 0  and 29 2 0 
 # max = 1004
1.10996secs	1004 983
