# prime 31
# degree 3
# input variables 2
# output variables 3
# reload computed balance functions from file balance-636of5726-p31d3m2-debug.log
# p = 31
# n = 3
# smalldomain p^m 961
# domain p^n 29791
#	 p^2 = 961
#	 p^3 = 29791
#	 p^4 = 923521
#	 p^5 = 28629151
#	 p^6 = 887503681
#	 p^7 = 27512614111
#	 p^8 = 852891037441
#	 p^9 = 26439622160671
opening file : balance-636of5726-p31d3m2-debug.log
reloading for step2...
12720740		 # 	collision with: 14 0 0  and 21 0 0 
 # max = 21
12722028		 # 	collision with: 17 2 0  and 15 1 1 
 # max = 1007
12722029		 # 	collision with: 23 29 0  and 0 0 1 
 # max = 1007
12722664		 # 	collision with: 9 1 0  and 12 1 0 
 # max = 1007
12723447		 # 	collision with: 3 0 0  and 19 0 0 
 # max = 1007
12724371		 # 	collision with: 13 1 0  and 20 1 0 
 # max = 1007
12725034		 # 	collision with: 21 6 0  and 30 6 0 
 # max = 1007
12725872		 # 	collision with: 26 10 0  and 0 4 1 
 # max = 1085
12725873		 # 	collision with: 14 25 0  and 1 3 1 
 # max = 1085
12726448		 # 	collision with: 0 0 0  and 20 0 0 
 # max = 1085
12728680		 # 	collision with: 8 0 0  and 21 0 0 
 # max = 1085
12728817		 # 	collision with: 9 4 0  and 11 4 0 
 # max = 1085
12728823		 # 	collision with: 0 1 0  and 19 1 0 
 # max = 1085
12729716		 # 	collision with: 12 27 0  and 3 4 1 
 # max = 1088
12729717		 # 	collision with: 19 29 0  and 6 0 1 
 # max = 1088
12730297		 # 	collision with: 12 1 0  and 29 1 0 
 # max = 1088
12735125		 # 	collision with: 23 2 0  and 26 2 0 
 # max = 1088
12738539		 # 	collision with: 1 1 0  and 1 3 0 
 # max = 1088
2.01171secs	1088 775
