# prime 31
# degree 3
# input variables 2
# output variables 3
# reload computed balance functions from file balance-1879of5726-p31d3m2-debug.log
# p = 31
# n = 3
# smalldomain p^m 961
# domain p^n 29791
#	 p^2 = 961
#	 p^3 = 29791
#	 p^4 = 923521
#	 p^5 = 28629151
#	 p^6 = 887503681
#	 p^7 = 27512614111
#	 p^8 = 852891037441
#	 p^9 = 26439622160671
opening file : balance-1879of5726-p31d3m2-debug.log
reloading for step2...
37585531		 # 	collision with: 24 0 0  and 28 0 0 
 # max = 28
37586012		 # 	collision with: 10 2 0  and 26 0 1 
 # max = 987
37586013		 # 	collision with: 4 1 0  and 8 2 1 
 # max = 1031
37586316		 # 	collision with: 19 0 0  and 25 0 0 
 # max = 1031
37586632		 # 	collision with: 15 2 0  and 16 2 0 
 # max = 1031
37587060		 # 	collision with: 4 1 0  and 19 1 0 
 # max = 1031
37589397		 # 	collision with: 1 1 0  and 22 1 0 
 # max = 1031
37589856		 # 	collision with: 12 2 0  and 22 0 1 
 # max = 1031
37589857		 # 	collision with: 27 21 0  and 2 0 1 
 # max = 1031
37590348		 # 	collision with: 6 0 0  and 13 0 0 
 # max = 1031
37590458		 # 	collision with: 1 1 0  and 13 1 0 
 # max = 1031
37590844		 # 	collision with: 14 2 0  and 15 2 0 
 # max = 1031
37591298		 # 	collision with: 7 0 0  and 7 2 0 
 # max = 1031
37593700		 # 	collision with: 29 2 0  and 9 0 1 
 # max = 1031
37593701		 # 	collision with: 28 17 0  and 11 3 1 
 # max = 1065
37594256		 # 	collision with: 3 1 0  and 14 1 0 
 # max = 1065
37594504		 # 	collision with: 12 0 0  and 13 0 0 
 # max = 1065
37596215		 # 	collision with: 5 1 0  and 6 1 0 
 # max = 1065
37597544		 # 	collision with: 19 5 0  and 21 1 1 
 # max = 1065
37597545		 # 	collision with: 22 21 0  and 12 0 1 
 # max = 1065
37598327		 # 	collision with: 19 0 0  and 29 0 0 
 # max = 1065
37598352		 # 	collision with: 9 4 0  and 23 4 0 
 # max = 1065
1.25684secs	1065 965
