# prime 31
# degree 3
# input variables 2
# output variables 4
# reload computed balance functions from file balance-355of5726-p31d3m2-debug.log
# p = 31
# n = 4
# smalldomain p^m 961
# domain p^n 923521
#	 p^2 = 961
#	 p^3 = 29791
#	 p^4 = 923521
#	 p^5 = 28629151
#	 p^6 = 887503681
#	 p^7 = 27512614111
#	 p^8 = 852891037441
#	 p^9 = 26439622160671
opening file : balance-355of5726-p31d3m2-debug.log
reloading for step2...
7100278		 # 	collision with: 25 1 0 0  and 28 1 0 0 
 # max = 59
7102388		 # 	collision with: 2 1 0 0  and 30 1 0 0 
 # max = 61
7108339		 # 	collision with: 24 2 0 0  and 17 3 0 0 
 # max = 110
7109204		 # 	collision with: 25 0 0 0  and 28 0 0 0 
 # max = 110
7110328		 # 	collision with: 12 1 0 0  and 27 1 0 0 
 # max = 110
7111772		 # 	collision with: 20 5 10 0  and 0 0 0 1 
 # max = 29791
7111773		 # 	collision with: 10 28 30 0  and 13 0 0 1 
 # max = 29804
7112988		 # 	collision with: 9 2 0 0  and 20 2 0 0 
 # max = 29804
7114071		 # 	collision with: 8 3 0 0  and 26 3 0 0 
 # max = 29804
7114360		 # 	collision with: 15 0 0 0  and 27 0 0 0 
 # max = 29804
7114767		 # 	collision with: 12 0 0 0  and 22 0 0 0 
 # max = 29804
7115244		 # 	collision with: 15 10 0 0  and 16 10 0 0 
 # max = 29804
7115616		 # 	collision with: 5 10 10 0  and 4 0 0 1 
 # max = 29804
7115617		 # 	collision with: 30 27 30 0  and 6 2 0 1 
 # max = 29859
7118237		 # 	collision with: 10 0 0 0  and 30 0 0 0 
 # max = 29859
7118889		 # 	collision with: 4 0 0 0  and 14 0 0 0 
 # max = 29859
32.4557secs	29859 13353
