# prime 31
# degree 3
# input variables 2
# output variables 3
# reload computed balance functions from file balance-2745of5726-p31d3m2-debug.log
# p = 31
# n = 3
# smalldomain p^m 961
# domain p^n 29791
#	 p^2 = 961
#	 p^3 = 29791
#	 p^4 = 923521
#	 p^5 = 28629151
#	 p^6 = 887503681
#	 p^7 = 27512614111
#	 p^8 = 852891037441
#	 p^9 = 26439622160671
opening file : balance-2745of5726-p31d3m2-debug.log
reloading for step2...
54900628		 # 	collision with: 20 22 0  and 13 0 1 
 # max = 974
54900629		 # 	collision with: 2 3 0  and 7 0 1 
 # max = 974
54900981		 # 	collision with: 22 0 0  and 27 0 0 
 # max = 974
54901310		 # 	collision with: 2 1 0  and 11 1 0 
 # max = 974
54901708		 # 	collision with: 7 1 0  and 23 1 0 
 # max = 974
54903773		 # 	collision with: 23 4 0  and 25 4 0 
 # max = 974
54905246		 # 	collision with: 4 2 0  and 24 2 0 
 # max = 974
54906485		 # 	collision with: 13 1 0  and 19 1 0 
 # max = 974
54907823		 # 	collision with: 4 0 0  and 6 0 0 
 # max = 974
54909648		 # 	collision with: 17 3 0  and 24 3 0 
 # max = 974
54911296		 # 	collision with: 0 0 0  and 17 0 0 
 # max = 974
54912160		 # 	collision with: 28 7 0  and 21 3 1 
 # max = 1075
54912161		 # 	collision with: 29 3 0  and 21 0 1 
 # max = 1075
54915045		 # 	collision with: 4 0 0  and 7 0 0 
 # max = 1075
54915934		 # 	collision with: 9 1 0  and 16 1 0 
 # max = 1075
54916007		 # 	collision with: 25 5 0  and 26 5 0 
 # max = 1075
54916167		 # 	collision with: 0 3 0  and 7 3 0 
 # max = 1075
54918740		 # 	collision with: 2 0 0  and 25 0 0 
 # max = 1075
54918751		 # 	collision with: 10 1 0  and 16 1 0 
 # max = 1075
54919210		 # 	collision with: 17 2 0  and 29 2 0 
 # max = 1075
54919848		 # 	collision with: 7 22 0  and 6 0 1 
 # max = 1075
54919849		 # 	collision with: 1 3 0  and 19 0 1 
 # max = 1075
1.11027secs	1075 776
