# prime 31
# degree 3
# input variables 2
# output variables 3
# reload computed balance functions from file balance-2003of5726-p31d3m2-debug.log
# p = 31
# n = 3
# smalldomain p^m 961
# domain p^n 29791
#	 p^2 = 961
#	 p^3 = 29791
#	 p^4 = 923521
#	 p^5 = 28629151
#	 p^6 = 887503681
#	 p^7 = 27512614111
#	 p^8 = 852891037441
#	 p^9 = 26439622160671
opening file : balance-2003of5726-p31d3m2-debug.log
reloading for step2...
40060948		 # 	collision with: 12 1 0  and 18 1 0 
 # max = 49
40061405		 # 	collision with: 25 3 0  and 27 3 0 
 # max = 120
40062788		 # 	collision with: 4 29 0  and 2 0 1 
 # max = 963
40062789		 # 	collision with: 25 10 0  and 16 0 1 
 # max = 977
40064732		 # 	collision with: 10 0 0  and 11 0 0 
 # max = 977
40066655		 # 	collision with: 6 0 0  and 25 0 0 
 # max = 977
40068392		 # 	collision with: 17 1 0  and 30 1 0 
 # max = 977
40069663		 # 	collision with: 3 1 0  and 10 1 0 
 # max = 977
40070296		 # 	collision with: 21 0 0  and 23 0 0 
 # max = 977
40071189		 # 	collision with: 19 0 0  and 19 1 0 
 # max = 977
40071751		 # 	collision with: 7 1 0  and 26 1 0 
 # max = 977
40072176		 # 	collision with: 4 1 0  and 14 1 0 
 # max = 977
40074320		 # 	collision with: 30 13 0  and 21 2 1 
 # max = 1044
40074321		 # 	collision with: 23 10 0  and 7 0 1 
 # max = 1044
40079620		 # 	collision with: 25 0 0  and 29 0 0 
 # max = 1044
0.731184secs	1044 495
