# prime 31
# degree 3
# input variables 2
# output variables 4
# reload computed balance functions from file balance-1410of5726-p31d3m2-debug.log
# p = 31
# n = 4
# smalldomain p^m 961
# domain p^n 923521
#	 p^2 = 961
#	 p^3 = 29791
#	 p^4 = 923521
#	 p^5 = 28629151
#	 p^6 = 887503681
#	 p^7 = 27512614111
#	 p^8 = 852891037441
#	 p^9 = 26439622160671
opening file : balance-1410of5726-p31d3m2-debug.log
reloading for step2...
28200094		 # 	collision with: 5 1 0 0  and 22 1 0 0 
 # max = 53
28200683		 # 	collision with: 19 0 0 0  and 24 0 0 0 
 # max = 53
28201072		 # 	collision with: 0 29 2 0  and 8 0 0 1 
 # max = 29799
28201073		 # 	collision with: 3 17 7 0  and 19 0 0 1 
 # max = 29810
28205529		 # 	collision with: 5 1 0 0  and 5 2 0 0 
 # max = 29810
28206731		 # 	collision with: 3 0 0 0  and 24 0 0 0 
 # max = 29810
28208760		 # 	collision with: 4 15 2 0  and 0 1 0 1 
 # max = 29822
28208761		 # 	collision with: 21 18 7 0  and 1 2 0 1 
 # max = 29854
28209104		 # 	collision with: 17 0 0 0  and 20 0 0 0 
 # max = 29854
28212764		 # 	collision with: 5 4 0 0  and 9 4 0 0 
 # max = 29854
28214644		 # 	collision with: 18 1 0 0  and 21 1 0 0 
 # max = 29854
28215691		 # 	collision with: 9 1 0 0  and 24 1 0 0 
 # max = 29854
28218676		 # 	collision with: 19 0 0 0  and 20 0 0 0 
 # max = 29854
28218786		 # 	collision with: 4 1 0 0  and 6 1 0 0 
 # max = 29854
28218804		 # 	collision with: 4 14 0 0  and 4 16 0 0 
 # max = 29854
73.2159secs	29854 13363
