# prime 31
# degree 3
# input variables 2
# output variables 4
# reload computed balance functions from file balance-183of5726-p31d3m2-debug.log
# p = 31
# n = 4
# smalldomain p^m 961
# domain p^n 923521
#	 p^2 = 961
#	 p^3 = 29791
#	 p^4 = 923521
#	 p^5 = 28629151
#	 p^6 = 887503681
#	 p^7 = 27512614111
#	 p^8 = 852891037441
#	 p^9 = 26439622160671
opening file : balance-183of5726-p31d3m2-debug.log
reloading for step2...
3660832		 # 	collision with: 11 0 0 0  and 27 0 0 0 
 # max = 27
3663206		 # 	collision with: 12 0 0 0  and 29 0 0 0 
 # max = 29
3663453		 # 	collision with: 12 23 25 0  and 6 0 0 1 
 # max = 29797
3663455		 # 	collision with: 23 8 12 0  and 28 0 1 1 
 # max = 30780
3663456		 # 	collision with: 11 19 21 1  and 12 5 1 2 
 # max = 60710
3663457		 # 	collision with: 17 28 29 0  and 7 5 0 1 
 # max = 60710
3664231		 # 	collision with: 18 1 0 0  and 23 1 0 0 
 # max = 60710
3664492		 # 	collision with: 11 0 0 0  and 24 0 0 0 
 # max = 60710
3664634		 # 	collision with: 11 0 0 0  and 27 0 0 0 
 # max = 60710
3667297		 # 	collision with: 1 22 5 0  and 4 1 0 1 
 # max = 60710
3667299		 # 	collision with: 30 9 14 0  and 0 0 1 1 
 # max = 60710
3667300		 # 	collision with: 17 14 12 1  and 8 1 2 2 
 # max = 61543
3667301		 # 	collision with: 18 17 29 0  and 26 0 0 1 
 # max = 61543
3669819		 # 	collision with: 15 0 0 0  and 19 0 0 0 
 # max = 61543
3670388		 # 	collision with: 8 0 0 0  and 14 0 0 0 
 # max = 61543
3670681		 # 	collision with: 6 0 0 0  and 17 0 0 0 
 # max = 61543
3671936		 # 	collision with: 18 2 0 0  and 28 2 0 0 
 # max = 61543
3674123		 # 	collision with: 20 0 0 0  and 24 0 0 0 
 # max = 61543
3674296		 # 	collision with: 6 0 0 0  and 30 0 0 0 
 # max = 61543
3674985		 # 	collision with: 19 25 25 0  and 2 0 0 1 
 # max = 61543
3674987		 # 	collision with: 20 15 14 0  and 2 0 3 1 
 # max = 61543
3674988		 # 	collision with: 22 23 20 1  and 18 1 1 2 
 # max = 61543
3674989		 # 	collision with: 13 27 29 0  and 16 0 0 1 
 # max = 61543
3675487		 # 	collision with: 11 3 0 0  and 13 3 0 0 
 # max = 61543
3675720		 # 	collision with: 26 0 0 0  and 30 0 0 0 
 # max = 61543
3679380		 # 	collision with: 17 0 0 0  and 22 0 0 0 
 # max = 61543
164.285secs	61543 50728
