# prime 31
# degree 3
# input variables 2
# output variables 3
# reload computed balance functions from file balance-4679of5726-p31d3m2-debug.log
# p = 31
# n = 3
# smalldomain p^m 961
# domain p^n 29791
#	 p^2 = 961
#	 p^3 = 29791
#	 p^4 = 923521
#	 p^5 = 28629151
#	 p^6 = 887503681
#	 p^7 = 27512614111
#	 p^8 = 852891037441
#	 p^9 = 26439622160671
opening file : balance-4679of5726-p31d3m2-debug.log
reloading for step2...
93581031		 # 	collision with: 6 0 0  and 23 0 0 
 # max = 23
93581033		 # 	collision with: 8 1 0  and 28 1 0 
 # max = 59
93581938		 # 	collision with: 8 1 0  and 26 1 0 
 # max = 59
93582936		 # 	collision with: 20 0 0  and 22 0 0 
 # max = 59
93584316		 # 	collision with: 5 0 0  and 13 0 0 
 # max = 59
93588100		 # 	collision with: 4 0 0  and 4 2 0 
 # max = 66
93590651		 # 	collision with: 2 0 0  and 20 0 0 
 # max = 66
93590876		 # 	collision with: 2 1 0  and 22 1 0 
 # max = 66
93591114		 # 	collision with: 4 0 0  and 29 0 0 
 # max = 66
93591760		 # 	collision with: 14 3 0  and 19 3 0 
 # max = 112
93592472		 # 	collision with: 25 18 0  and 2 0 1 
 # max = 963
93592473		 # 	collision with: 5 12 0  and 15 0 1 
 # max = 976
93594908		 # 	collision with: 18 4 0  and 20 4 0 
 # max = 976
93596316		 # 	collision with: 13 18 0  and 9 0 1 
 # max = 976
93596317		 # 	collision with: 20 12 0  and 1 0 1 
 # max = 976
93599750		 # 	collision with: 22 0 0  and 26 0 0 
 # max = 976
0.677306secs	976 499
