# prime 31
# degree 3
# input variables 2
# output variables 3
# reload computed balance functions from file balance-3051of5726-p31d3m2-debug.log
# p = 31
# n = 3
# smalldomain p^m 961
# domain p^n 29791
#	 p^2 = 961
#	 p^3 = 29791
#	 p^4 = 923521
#	 p^5 = 28629151
#	 p^6 = 887503681
#	 p^7 = 27512614111
#	 p^8 = 852891037441
#	 p^9 = 26439622160671
opening file : balance-3051of5726-p31d3m2-debug.log
reloading for step2...
61020925		 # 	collision with: 23 1 0  and 25 1 0 
 # max = 56
61021806		 # 	collision with: 7 2 0  and 13 2 0 
 # max = 75
61023196		 # 	collision with: 4 1 0  and 11 1 0 
 # max = 75
61023752		 # 	collision with: 2 0 0  and 4 0 0 
 # max = 75
61026195		 # 	collision with: 20 0 0  and 24 0 0 
 # max = 75
61026856		 # 	collision with: 3 2 0  and 16 2 0 
 # max = 78
61027784		 # 	collision with: 13 2 0  and 22 2 0 
 # max = 84
61028311		 # 	collision with: 0 0 0  and 4 0 0 
 # max = 84
61028545		 # 	collision with: 5 4 0  and 15 4 0 
 # max = 139
61029204		 # 	collision with: 18 1 0  and 21 0 1 
 # max = 982
61029205		 # 	collision with: 7 5 0  and 25 0 1 
 # max = 986
61031919		 # 	collision with: 23 0 0  and 27 0 0 
 # max = 986
61033048		 # 	collision with: 19 1 0  and 5 0 1 
 # max = 986
61033049		 # 	collision with: 29 5 0  and 16 0 1 
 # max = 986
61034300		 # 	collision with: 3 4 0  and 11 4 0 
 # max = 986
61035724		 # 	collision with: 19 1 0  and 28 1 0 
 # max = 986
61036131		 # 	collision with: 3 1 0  and 25 1 0 
 # max = 986
61036892		 # 	collision with: 29 1 0  and 8 0 1 
 # max = 986
61036893		 # 	collision with: 10 5 0  and 25 0 1 
 # max = 986
61038084		 # 	collision with: 5 0 0  and 7 0 0 
 # max = 986
61038531		 # 	collision with: 13 0 0  and 19 0 0 
 # max = 986
61039632		 # 	collision with: 1 2 0  and 17 2 0 
 # max = 986
1.1469secs	986 750
