# prime 31
# degree 3
# input variables 2
# output variables 3
# reload computed balance functions from file balance-3148of5726-p31d3m2-debug.log
# p = 31
# n = 3
# smalldomain p^m 961
# domain p^n 29791
#	 p^2 = 961
#	 p^3 = 29791
#	 p^4 = 923521
#	 p^5 = 28629151
#	 p^6 = 887503681
#	 p^7 = 27512614111
#	 p^8 = 852891037441
#	 p^9 = 26439622160671
opening file : balance-3148of5726-p31d3m2-debug.log
reloading for step2...
62960752		 # 	collision with: 5 17 0  and 14 0 1 
 # max = 975
62960753		 # 	collision with: 17 28 0  and 25 4 1 
 # max = 1110
62961337		 # 	collision with: 26 0 0  and 28 0 0 
 # max = 1110
62966022		 # 	collision with: 8 1 0  and 19 1 0 
 # max = 1110
62966114		 # 	collision with: 20 0 0  and 22 0 0 
 # max = 1110
62966870		 # 	collision with: 16 1 0  and 16 2 0 
 # max = 1110
62968440		 # 	collision with: 0 29 0  and 12 1 1 
 # max = 1110
62968441		 # 	collision with: 0 0 0  and 1 1 1 
 # max = 1110
62968765		 # 	collision with: 21 1 0  and 27 1 0 
 # max = 1110
62972282		 # 	collision with: 4 0 0  and 25 0 0 
 # max = 1110
62979972		 # 	collision with: 1 17 0  and 13 0 1 
 # max = 1110
62979973		 # 	collision with: 29 2 0  and 20 3 1 
 # max = 1110
0.950236secs	1110 710
