# prime 31
# degree 3
# input variables 2
# output variables 3
# reload computed balance functions from file balance-782of5726-p31d3m2-debug.log
# p = 31
# n = 3
# smalldomain p^m 961
# domain p^n 29791
#	 p^2 = 961
#	 p^3 = 29791
#	 p^4 = 923521
#	 p^5 = 28629151
#	 p^6 = 887503681
#	 p^7 = 27512614111
#	 p^8 = 852891037441
#	 p^9 = 26439622160671
opening file : balance-782of5726-p31d3m2-debug.log
reloading for step2...
15640055		 # 	collision with: 9 0 0  and 14 0 0 
 # max = 14
15640422		 # 	collision with: 16 0 0  and 30 0 0 
 # max = 30
15640495		 # 	collision with: 10 0 0  and 23 0 0 
 # max = 30
15642824		 # 	collision with: 21 1 0  and 27 1 0 
 # max = 58
15644212		 # 	collision with: 5 15 0  and 13 1 1 
 # max = 1005
15644213		 # 	collision with: 16 23 0  and 17 0 1 
 # max = 1005
15645080		 # 	collision with: 15 13 0  and 16 13 0 
 # max = 1005
15645485		 # 	collision with: 15 1 0  and 27 1 0 
 # max = 1005
15646542		 # 	collision with: 6 2 0  and 7 2 0 
 # max = 1005
15648056		 # 	collision with: 18 24 0  and 19 1 1 
 # max = 1011
15648057		 # 	collision with: 0 23 0  and 11 0 1 
 # max = 1011
15649046		 # 	collision with: 15 0 0  and 21 0 0 
 # max = 1011
15649221		 # 	collision with: 3 0 0  and 10 0 0 
 # max = 1011
15649718		 # 	collision with: 6 0 0  and 22 0 0 
 # max = 1011
15650268		 # 	collision with: 9 1 0  and 12 1 0 
 # max = 1011
15651900		 # 	collision with: 17 2 0  and 15 1 1 
 # max = 1011
15651901		 # 	collision with: 29 23 0  and 27 0 1 
 # max = 1011
15652704		 # 	collision with: 14 0 0  and 21 0 0 
 # max = 1011
15653928		 # 	collision with: 4 3 0  and 22 3 0 
 # max = 1011
15654074		 # 	collision with: 17 0 0  and 27 0 0 
 # max = 1011
15654962		 # 	collision with: 3 0 0  and 30 0 0 
 # max = 1011
15656413		 # 	collision with: 1 3 0  and 3 3 0 
 # max = 1011
15656800		 # 	collision with: 0 1 0  and 0 2 0 
 # max = 1011
15659588		 # 	collision with: 21 20 0  and 13 1 1 
 # max = 1011
15659589		 # 	collision with: 25 23 0  and 24 0 1 
 # max = 1011
2.43586secs	1011 1007
