# prime 31
# degree 3
# input variables 2
# output variables 3
# reload computed balance functions from file balance-3368of5726-p31d3m2-debug.log
# p = 31
# n = 3
# smalldomain p^m 961
# domain p^n 29791
#	 p^2 = 961
#	 p^3 = 29791
#	 p^4 = 923521
#	 p^5 = 28629151
#	 p^6 = 887503681
#	 p^7 = 27512614111
#	 p^8 = 852891037441
#	 p^9 = 26439622160671
opening file : balance-3368of5726-p31d3m2-debug.log
reloading for step2...
67360401		 # 	collision with: 11 7 0  and 30 7 0 
 # max = 247
67361388		 # 	collision with: 29 7 0  and 20 0 1 
 # max = 981
67361389		 # 	collision with: 18 25 0  and 16 0 1 
 # max = 981
67361493		 # 	collision with: 14 3 0  and 19 3 0 
 # max = 981
67362012		 # 	collision with: 14 1 0  and 20 1 0 
 # max = 981
67362826		 # 	collision with: 6 0 0  and 15 0 0 
 # max = 981
67363525		 # 	collision with: 4 0 0  and 12 0 0 
 # max = 981
67363618		 # 	collision with: 12 0 0  and 25 0 0 
 # max = 981
67365232		 # 	collision with: 27 7 0  and 3 0 1 
 # max = 981
67365233		 # 	collision with: 28 25 0  and 3 0 1 
 # max = 981
67365796		 # 	collision with: 8 0 0  and 29 0 0 
 # max = 981
67369076		 # 	collision with: 20 7 0  and 17 0 1 
 # max = 981
67369077		 # 	collision with: 3 22 0  and 30 1 1 
 # max = 1022
67369842		 # 	collision with: 7 1 0  and 21 1 0 
 # max = 1022
67369950		 # 	collision with: 9 1 0  and 30 1 0 
 # max = 1022
67371839		 # 	collision with: 2 1 0  and 17 1 0 
 # max = 1022
67372148		 # 	collision with: 3 0 0  and 29 0 0 
 # max = 1022
67375889		 # 	collision with: 0 0 0  and 28 0 0 
 # max = 1022
67376056		 # 	collision with: 0 1 0  and 29 1 0 
 # max = 1022
67376590		 # 	collision with: 2 2 0  and 16 2 0 
 # max = 1022
67376764		 # 	collision with: 25 22 0  and 20 1 1 
 # max = 1022
67376765		 # 	collision with: 24 24 0  and 14 2 1 
 # max = 1037
67378094		 # 	collision with: 0 0 0  and 2 0 0 
 # max = 1037
67378142		 # 	collision with: 5 1 0  and 23 1 0 
 # max = 1037
67378415		 # 	collision with: 3 0 0  and 26 0 0 
 # max = 1037
67378785		 # 	collision with: 5 3 0  and 18 3 0 
 # max = 1037
1.30417secs	1037 997
