# prime 31
# degree 3
# input variables 2
# output variables 3
# reload computed balance functions from file balance-1462of5726-p31d3m2-debug.log
# p = 31
# n = 3
# smalldomain p^m 961
# domain p^n 29791
#	 p^2 = 961
#	 p^3 = 29791
#	 p^4 = 923521
#	 p^5 = 28629151
#	 p^6 = 887503681
#	 p^7 = 27512614111
#	 p^8 = 852891037441
#	 p^9 = 26439622160671
opening file : balance-1462of5726-p31d3m2-debug.log
reloading for step2...
29240097		 # 	collision with: 12 0 0  and 14 0 0 
 # max = 14
29249368		 # 	collision with: 18 8 0  and 8 0 1 
 # max = 969
29249369		 # 	collision with: 22 28 0  and 28 0 1 
 # max = 989
29249818		 # 	collision with: 5 2 0  and 16 2 0 
 # max = 989
29250644		 # 	collision with: 7 0 0  and 15 0 0 
 # max = 989
29251639		 # 	collision with: 22 1 0  and 27 1 0 
 # max = 989
29251778		 # 	collision with: 11 3 0  and 16 3 0 
 # max = 989
29253212		 # 	collision with: 6 8 0  and 18 0 1 
 # max = 989
29253213		 # 	collision with: 2 28 0  and 3 0 1 
 # max = 989
29257056		 # 	collision with: 29 8 0  and 0 0 1 
 # max = 989
29257057		 # 	collision with: 12 28 0  and 23 0 1 
 # max = 989
29257423		 # 	collision with: 20 0 0  and 25 0 0 
 # max = 989
29258785		 # 	collision with: 13 0 0  and 23 0 0 
 # max = 989
1.26856secs	989 685
