# prime 31
# degree 3
# input variables 2
# output variables 3
# reload computed balance functions from file balance-2819of5726-p31d3m2-debug.log
# p = 31
# n = 3
# smalldomain p^m 961
# domain p^n 29791
#	 p^2 = 961
#	 p^3 = 29791
#	 p^4 = 923521
#	 p^5 = 28629151
#	 p^6 = 887503681
#	 p^7 = 27512614111
#	 p^8 = 852891037441
#	 p^9 = 26439622160671
opening file : balance-2819of5726-p31d3m2-debug.log
reloading for step2...
56380560		 # 	collision with: 4 0 0  and 16 0 0 
 # max = 16
56381937		 # 	collision with: 17 0 0  and 24 0 0 
 # max = 24
56382800		 # 	collision with: 20 29 0  and 5 0 1 
 # max = 966
56382801		 # 	collision with: 8 6 0  and 2 0 1 
 # max = 966
56384302		 # 	collision with: 0 2 0  and 26 2 0 
 # max = 966
56384993		 # 	collision with: 13 0 0  and 23 0 0 
 # max = 966
56385492		 # 	collision with: 7 2 0  and 11 2 0 
 # max = 966
56388004		 # 	collision with: 20 1 0  and 23 1 0 
 # max = 966
56390488		 # 	collision with: 19 22 0  and 7 1 1 
 # max = 999
56390489		 # 	collision with: 12 6 0  and 16 0 1 
 # max = 999
56391664		 # 	collision with: 12 3 0  and 16 3 0 
 # max = 999
56392579		 # 	collision with: 15 1 0  and 16 1 0 
 # max = 999
56394113		 # 	collision with: 14 1 0  and 16 1 0 
 # max = 999
56394123		 # 	collision with: 5 0 0  and 7 0 0 
 # max = 999
56394332		 # 	collision with: 28 17 0  and 17 4 1 
 # max = 1102
56394333		 # 	collision with: 2 3 0  and 0 1 1 
 # max = 1102
56396718		 # 	collision with: 8 0 0  and 22 0 0 
 # max = 1102
56397340		 # 	collision with: 15 0 0  and 26 0 0 
 # max = 1102
56398926		 # 	collision with: 27 0 0  and 29 0 0 
 # max = 1102
1.08277secs	1102 729
