# prime 31
# degree 3
# input variables 2
# output variables 3
# reload computed balance functions from file balance-2225of5726-p31d3m2-debug.log
# p = 31
# n = 3
# smalldomain p^m 961
# domain p^n 29791
#	 p^2 = 961
#	 p^3 = 29791
#	 p^4 = 923521
#	 p^5 = 28629151
#	 p^6 = 887503681
#	 p^7 = 27512614111
#	 p^8 = 852891037441
#	 p^9 = 26439622160671
opening file : balance-2225of5726-p31d3m2-debug.log
reloading for step2...
44502600		 # 	collision with: 0 0 0  and 6 0 0 
 # max = 6
44506084		 # 	collision with: 13 1 0  and 29 1 0 
 # max = 60
44509483		 # 	collision with: 5 0 0  and 11 0 0 
 # max = 60
44509552		 # 	collision with: 17 12 0  and 1 0 1 
 # max = 962
44509553		 # 	collision with: 6 14 0  and 23 0 1 
 # max = 984
44509597		 # 	collision with: 13 2 0  and 21 2 0 
 # max = 984
44510044		 # 	collision with: 18 0 0  and 23 0 0 
 # max = 984
44513396		 # 	collision with: 23 12 0  and 3 0 1 
 # max = 984
44513397		 # 	collision with: 15 14 0  and 27 0 1 
 # max = 988
44514024		 # 	collision with: 3 2 0  and 12 2 0 
 # max = 988
44514143		 # 	collision with: 2 1 0  and 12 1 0 
 # max = 988
44518056		 # 	collision with: 8 1 0  and 22 1 0 
 # max = 988
44518479		 # 	collision with: 20 0 0  and 29 0 0 
 # max = 988
0.696077secs	988 475
