# prime 31
# degree 3
# input variables 2
# output variables 4
# reload computed balance functions from file balance-2718of5726-p31d3m2-debug.log
# p = 31
# n = 4
# smalldomain p^m 961
# domain p^n 923521
#	 p^2 = 961
#	 p^3 = 29791
#	 p^4 = 923521
#	 p^5 = 28629151
#	 p^6 = 887503681
#	 p^7 = 27512614111
#	 p^8 = 852891037441
#	 p^9 = 26439622160671
opening file : balance-2718of5726-p31d3m2-debug.log
reloading for step2...
54360628		 # 	collision with: 11 1 0 0  and 19 1 0 0 
 # max = 50
54360806		 # 	collision with: 4 1 0 0  and 28 1 0 0 
 # max = 59
54364412		 # 	collision with: 8 0 0 0  and 21 0 0 0 
 # max = 59
54365083		 # 	collision with: 4 3 0 0  and 7 3 0 0 
 # max = 100
54365215		 # 	collision with: 16 1 0 0  and 27 1 0 0 
 # max = 100
54368072		 # 	collision with: 14 0 0 0  and 21 0 0 0 
 # max = 100
54371856		 # 	collision with: 13 0 0 0  and 13 1 0 0 
 # max = 100
54377685		 # 	collision with: 25 1 0 0  and 29 1 0 0 
 # max = 100
54377916		 # 	collision with: 5 1 0 0  and 30 1 0 0 
 # max = 100
54378340		 # 	collision with: 26 2 26 0  and 13 0 0 1 
 # max = 29804
54378341		 # 	collision with: 17 4 12 0  and 12 1 0 1 
 # max = 29834
17.3682secs	29834 6679
