# prime 31
# degree 3
# input variables 2
# output variables 4
# reload computed balance functions from file balance-674of5726-p31d3m2-debug.log
# p = 31
# n = 4
# smalldomain p^m 961
# domain p^n 923521
#	 p^2 = 961
#	 p^3 = 29791
#	 p^4 = 923521
#	 p^5 = 28629151
#	 p^6 = 887503681
#	 p^7 = 27512614111
#	 p^8 = 852891037441
#	 p^9 = 26439622160671
opening file : balance-674of5726-p31d3m2-debug.log
reloading for step2...
13481520		 # 	collision with: 13 1 0 0  and 28 1 0 0 
 # max = 59
13483673		 # 	collision with: 7 0 0 0  and 25 0 0 0 
 # max = 59
13485180		 # 	collision with: 23 0 0 0  and 26 0 0 0 
 # max = 59
13485214		 # 	collision with: 26 1 0 0  and 29 1 0 0 
 # max = 60
13486116		 # 	collision with: 10 29 11 0  and 9 0 0 1 
 # max = 29800
13486117		 # 	collision with: 9 14 8 0  and 0 0 0 1 
 # max = 29800
13488517		 # 	collision with: 25 1 0 0  and 30 1 0 0 
 # max = 29800
13489960		 # 	collision with: 17 30 11 0  and 9 0 0 1 
 # max = 29800
13489961		 # 	collision with: 26 7 8 0  and 23 2 0 1 
 # max = 29876
13492101		 # 	collision with: 24 2 0 0  and 28 2 0 0 
 # max = 29876
13492624		 # 	collision with: 4 0 0 0  and 29 0 0 0 
 # max = 29876
13493262		 # 	collision with: 29 4 0 0  and 30 4 0 0 
 # max = 29876
13493804		 # 	collision with: 8 20 11 0  and 24 0 0 1 
 # max = 29876
13493805		 # 	collision with: 12 25 8 0  and 11 0 0 1 
 # max = 29876
13494392		 # 	collision with: 1 3 0 0  and 14 3 0 0 
 # max = 29876
13496042		 # 	collision with: 0 3 0 0  and 28 3 0 0 
 # max = 29876
13496109		 # 	collision with: 14 2 0 0  and 28 2 0 0 
 # max = 29876
13496406		 # 	collision with: 20 0 0 0  and 29 0 0 0 
 # max = 29876
13497251		 # 	collision with: 21 2 0 0  and 24 2 0 0 
 # max = 29876
13497648		 # 	collision with: 9 22 11 0  and 27 3 0 1 
 # max = 29911
13497649		 # 	collision with: 1 12 8 0  and 20 0 0 1 
 # max = 29911
13498300		 # 	collision with: 4 0 0 0  and 23 0 0 0 
 # max = 29911
13499066		 # 	collision with: 3 0 0 0  and 3 3 0 0 
 # max = 29911
13499097		 # 	collision with: 14 0 0 0  and 18 0 0 0 
 # max = 29911
46.9527secs	29911 26631
