# prime 31
# degree 3
# input variables 2
# output variables 3
# reload computed balance functions from file balance-4537of5726-p31d3m2-debug.log
# p = 31
# n = 3
# smalldomain p^m 961
# domain p^n 29791
#	 p^2 = 961
#	 p^3 = 29791
#	 p^4 = 923521
#	 p^5 = 28629151
#	 p^6 = 887503681
#	 p^7 = 27512614111
#	 p^8 = 852891037441
#	 p^9 = 26439622160671
opening file : balance-4537of5726-p31d3m2-debug.log
reloading for step2...
90740987		 # 	collision with: 8 0 0  and 19 1 0 
 # max = 50
90743200		 # 	collision with: 28 16 0  and 10 0 1 
 # max = 971
90743201		 # 	collision with: 26 7 0  and 29 0 1 
 # max = 990
90747044		 # 	collision with: 19 27 0  and 2 2 1 
 # max = 1025
90747045		 # 	collision with: 9 7 0  and 7 0 1 
 # max = 1025
90749764		 # 	collision with: 14 0 0  and 28 0 0 
 # max = 1025
90750096		 # 	collision with: 3 5 0  and 9 5 0 
 # max = 1025
90751253		 # 	collision with: 15 0 0  and 23 0 0 
 # max = 1025
90753317		 # 	collision with: 5 0 0  and 30 0 0 
 # max = 1025
90753457		 # 	collision with: 2 1 0  and 3 1 0 
 # max = 1025
90754732		 # 	collision with: 23 26 0  and 0 6 1 
 # max = 1147
90754733		 # 	collision with: 18 19 0  and 13 1 1 
 # max = 1147
90756761		 # 	collision with: 9 0 0  and 19 0 0 
 # max = 1147
90756840		 # 	collision with: 15 4 0  and 16 4 0 
 # max = 1147
90758576		 # 	collision with: 4 15 0  and 1 4 1 
 # max = 1147
90758577		 # 	collision with: 16 7 0  and 25 0 1 
 # max = 1147
90758829		 # 	collision with: 27 1 0  and 28 1 0 
 # max = 1147
1.22222secs	1147 969
