# prime 31
# degree 3
# input variables 2
# output variables 3
# reload computed balance functions from file balance-1323of5726-p31d3m2-debug.log
# p = 31
# n = 3
# smalldomain p^m 961
# domain p^n 29791
#	 p^2 = 961
#	 p^3 = 29791
#	 p^4 = 923521
#	 p^5 = 28629151
#	 p^6 = 887503681
#	 p^7 = 27512614111
#	 p^8 = 852891037441
#	 p^9 = 26439622160671
opening file : balance-1323of5726-p31d3m2-debug.log
reloading for step2...
26461034		 # 	collision with: 8 1 0  and 12 2 0 
 # max = 74
26461813		 # 	collision with: 21 0 0  and 23 0 0 
 # max = 74
26461970		 # 	collision with: 6 2 0  and 29 2 0 
 # max = 91
26462646		 # 	collision with: 13 0 0  and 16 0 0 
 # max = 91
26462995		 # 	collision with: 8 6 0  and 14 6 0 
 # max = 200
26464232		 # 	collision with: 4 1 0  and 8 1 0 
 # max = 200
26464804		 # 	collision with: 4 3 0  and 6 3 0 
 # max = 200
26465320		 # 	collision with: 16 20 0  and 8 0 1 
 # max = 969
26465321		 # 	collision with: 29 8 0  and 28 0 1 
 # max = 989
26466825		 # 	collision with: 8 0 0  and 20 0 0 
 # max = 989
26468016		 # 	collision with: 23 0 0  and 24 0 0 
 # max = 989
26469784		 # 	collision with: 8 14 0  and 23 16 0 
 # max = 989
26473008		 # 	collision with: 27 20 0  and 15 0 1 
 # max = 989
26473009		 # 	collision with: 11 8 0  and 5 0 1 
 # max = 989
26473526		 # 	collision with: 3 0 0  and 7 0 0 
 # max = 989
26474967		 # 	collision with: 11 3 0  and 15 3 0 
 # max = 989
26476652		 # 	collision with: 23 0 0  and 26 0 0 
 # max = 989
26479120		 # 	collision with: 7 0 0  and 22 0 0 
 # max = 989
0.804865secs	989 574
