# prime 31
# degree 3
# input variables 2
# output variables 3
# reload computed balance functions from file balance-3556of5726-p31d3m2-debug.log
# p = 31
# n = 3
# smalldomain p^m 961
# domain p^n 29791
#	 p^2 = 961
#	 p^3 = 29791
#	 p^4 = 923521
#	 p^5 = 28629151
#	 p^6 = 887503681
#	 p^7 = 27512614111
#	 p^8 = 852891037441
#	 p^9 = 26439622160671
opening file : balance-3556of5726-p31d3m2-debug.log
reloading for step2...
71120609		 # 	collision with: 13 1 0  and 28 1 0 
 # max = 59
71120820		 # 	collision with: 2 24 0  and 8 1 1 
 # max = 1000
71120821		 # 	collision with: 19 3 0  and 5 0 1 
 # max = 1000
71121211		 # 	collision with: 8 0 0  and 16 0 0 
 # max = 1000
71122150		 # 	collision with: 13 0 0  and 16 0 0 
 # max = 1000
71122934		 # 	collision with: 0 1 0  and 12 1 0 
 # max = 1000
71125720		 # 	collision with: 14 1 0  and 22 1 0 
 # max = 1000
71125843		 # 	collision with: 16 0 0  and 28 0 0 
 # max = 1000
71126692		 # 	collision with: 22 0 0  and 26 0 0 
 # max = 1000
71128508		 # 	collision with: 5 16 0  and 3 0 1 
 # max = 1000
71128509		 # 	collision with: 30 29 0  and 1 1 1 
 # max = 1000
71128525		 # 	collision with: 6 2 0  and 17 2 0 
 # max = 1000
71129297		 # 	collision with: 16 0 0  and 19 0 0 
 # max = 1000
71129382		 # 	collision with: 16 1 0  and 21 1 0 
 # max = 1000
71132039		 # 	collision with: 16 6 0  and 28 6 0 
 # max = 1000
71133660		 # 	collision with: 29 3 0  and 30 3 0 
 # max = 1000
71134136		 # 	collision with: 20 0 0  and 26 0 0 
 # max = 1000
71137568		 # 	collision with: 9 0 0  and 27 0 0 
 # max = 1000
71137707		 # 	collision with: 2 0 0  and 6 0 0 
 # max = 1000
71137920		 # 	collision with: 18 0 0  and 22 0 0 
 # max = 1000
0.704051secs	1000 525
