# prime 31
# degree 3
# input variables 2
# output variables 4
# reload computed balance functions from file balance-2073of5726-p31d3m2-debug.log
# p = 31
# n = 4
# smalldomain p^m 961
# domain p^n 923521
#	 p^2 = 961
#	 p^3 = 29791
#	 p^4 = 923521
#	 p^5 = 28629151
#	 p^6 = 887503681
#	 p^7 = 27512614111
#	 p^8 = 852891037441
#	 p^9 = 26439622160671
opening file : balance-2073of5726-p31d3m2-debug.log
reloading for step2...
41460640		 # 	collision with: 1 19 7 0  and 3 0 0 1 
 # max = 29794
41460641		 # 	collision with: 1 18 28 0  and 14 3 0 1 
 # max = 29898
41463460		 # 	collision with: 14 1 0 0  and 20 1 0 0 
 # max = 29898
41464484		 # 	collision with: 8 14 7 0  and 2 0 0 1 
 # max = 29898
41464485		 # 	collision with: 10 17 28 0  and 19 1 0 1 
 # max = 29898
41465633		 # 	collision with: 3 2 0 0  and 10 2 0 0 
 # max = 29898
41466928		 # 	collision with: 3 1 0 0  and 20 1 0 0 
 # max = 29898
41468010		 # 	collision with: 1 5 0 0  and 2 5 0 0 
 # max = 29898
41468328		 # 	collision with: 5 12 7 0  and 18 1 0 1 
 # max = 29898
41468329		 # 	collision with: 3 20 28 0  and 12 1 0 1 
 # max = 29898
41469241		 # 	collision with: 15 1 0 0  and 27 1 0 0 
 # max = 29898
41470720		 # 	collision with: 5 0 0 0  and 21 0 0 0 
 # max = 29898
41470772		 # 	collision with: 3 0 0 0  and 23 0 0 0 
 # max = 29898
41472577		 # 	collision with: 1 1 0 0  and 9 1 0 0 
 # max = 29898
41474504		 # 	collision with: 12 0 0 0  and 17 0 0 0 
 # max = 29898
41474680		 # 	collision with: 17 0 0 0  and 24 0 0 0 
 # max = 29898
41474811		 # 	collision with: 12 1 0 0  and 20 1 0 0 
 # max = 29898
41475611		 # 	collision with: 20 2 0 0  and 27 2 0 0 
 # max = 29898
41475892		 # 	collision with: 21 18 6 0  and 20 0 0 1 
 # max = 29898
41475893		 # 	collision with: 14 17 24 0  and 8 0 0 1 
 # max = 29898
41478093		 # 	collision with: 4 7 0 0  and 25 7 0 0 
 # max = 29898
41478099		 # 	collision with: 13 1 0 0  and 19 1 0 0 
 # max = 29898
41478164		 # 	collision with: 13 2 0 0  and 19 2 0 0 
 # max = 29898
41478712		 # 	collision with: 4 1 0 0  and 12 1 0 0 
 # max = 29898
57.2151secs	29898 26631
