# prime 31
# degree 3
# input variables 2
# output variables 3
# reload computed balance functions from file balance-2820of5726-p31d3m2-debug.log
# p = 31
# n = 3
# smalldomain p^m 961
# domain p^n 29791
#	 p^2 = 961
#	 p^3 = 29791
#	 p^4 = 923521
#	 p^5 = 28629151
#	 p^6 = 887503681
#	 p^7 = 27512614111
#	 p^8 = 852891037441
#	 p^9 = 26439622160671
opening file : balance-2820of5726-p31d3m2-debug.log
reloading for step2...
56402020		 # 	collision with: 4 29 0  and 2 0 1 
 # max = 963
56402021		 # 	collision with: 2 6 0  and 0 0 1 
 # max = 963
56402952		 # 	collision with: 10 0 0  and 11 0 0 
 # max = 963
56405280		 # 	collision with: 15 2 0  and 25 2 0 
 # max = 963
56405864		 # 	collision with: 2 23 0  and 5 0 2 
 # max = 1927
56405865		 # 	collision with: 4 15 0  and 18 1 1 
 # max = 1927
56410396		 # 	collision with: 0 2 0  and 21 2 0 
 # max = 1927
56411585		 # 	collision with: 21 0 0  and 26 0 0 
 # max = 1927
56413220		 # 	collision with: 21 0 0  and 23 0 0 
 # max = 1927
56414056		 # 	collision with: 4 1 0  and 14 1 0 
 # max = 1927
56415906		 # 	collision with: 4 3 0  and 9 3 0 
 # max = 1927
56417396		 # 	collision with: 22 19 0  and 11 1 1 
 # max = 1927
56417397		 # 	collision with: 7 6 0  and 27 0 1 
 # max = 1927
1.22044secs	1927 803
