# prime 31
# degree 3
# input variables 2
# output variables 4
# reload computed balance functions from file balance-884of5726-p31d3m2-debug.log
# p = 31
# n = 4
# smalldomain p^m 961
# domain p^n 923521
#	 p^2 = 961
#	 p^3 = 29791
#	 p^4 = 923521
#	 p^5 = 28629151
#	 p^6 = 887503681
#	 p^7 = 27512614111
#	 p^8 = 852891037441
#	 p^9 = 26439622160671
opening file : balance-884of5726-p31d3m2-debug.log
reloading for step2...
17680320		 # 	collision with: 8 0 0 0  and 24 0 0 0 
 # max = 24
17681549		 # 	collision with: 2 1 0 0  and 7 1 0 0 
 # max = 38
17683194		 # 	collision with: 14 1 0 0  and 15 1 0 0 
 # max = 46
17683268		 # 	collision with: 19 14 26 0  and 5 0 0 1 
 # max = 29796
17683269		 # 	collision with: 1 3 8 0  and 4 0 0 1 
 # max = 29796
17684352		 # 	collision with: 22 3 0 0  and 27 3 0 0 
 # max = 29796
17685208		 # 	collision with: 9 4 0 0  and 27 4 0 0 
 # max = 29796
17687112		 # 	collision with: 21 21 26 0  and 12 0 0 1 
 # max = 29803
17687113		 # 	collision with: 8 12 8 0  and 12 0 0 1 
 # max = 29803
17688109		 # 	collision with: 6 2 0 0  and 14 2 0 0 
 # max = 29803
17688868		 # 	collision with: 19 1 0 0  and 22 1 0 0 
 # max = 29803
17692292		 # 	collision with: 2 1 0 0  and 21 1 0 0 
 # max = 29803
17693455		 # 	collision with: 3 0 0 0  and 25 3 0 0 
 # max = 29803
17694482		 # 	collision with: 16 1 0 0  and 30 1 0 0 
 # max = 29803
17694575		 # 	collision with: 5 2 0 0  and 11 2 0 0 
 # max = 29803
17696312		 # 	collision with: 8 0 0 0  and 21 0 0 0 
 # max = 29803
17698346		 # 	collision with: 8 1 0 0  and 10 1 0 0 
 # max = 29803
17699483		 # 	collision with: 11 0 0 0  and 11 1 0 0 
 # max = 29803
28.9002secs	29803 13345
