# prime 31
# degree 3
# input variables 2
# output variables 3
# reload computed balance functions from file balance-5389of5726-p31d3m2-debug.log
# p = 31
# n = 3
# smalldomain p^m 961
# domain p^n 29791
#	 p^2 = 961
#	 p^3 = 29791
#	 p^4 = 923521
#	 p^5 = 28629151
#	 p^6 = 887503681
#	 p^7 = 27512614111
#	 p^8 = 852891037441
#	 p^9 = 26439622160671
opening file : balance-5389of5726-p31d3m2-debug.log
reloading for step2...
107780735		 # 	collision with: 20 0 0  and 29 0 0 
 # max = 29
107781296		 # 	collision with: 22 12 0  and 28 0 1 
 # max = 989
107781297		 # 	collision with: 9 9 0  and 20 1 1 
 # max = 1012
107783564		 # 	collision with: 7 1 0  and 9 1 0 
 # max = 1012
107785140		 # 	collision with: 30 12 0  and 6 0 1 
 # max = 1012
107785141		 # 	collision with: 29 3 0  and 27 1 1 
 # max = 1019
107787460		 # 	collision with: 4 0 0  and 25 0 0 
 # max = 1019
107788984		 # 	collision with: 6 12 0  and 3 0 1 
 # max = 1019
107788985		 # 	collision with: 1 28 0  and 7 1 1 
 # max = 1019
107789405		 # 	collision with: 22 2 0  and 24 2 0 
 # max = 1019
107791368		 # 	collision with: 11 1 0  and 21 1 0 
 # max = 1019
107792685		 # 	collision with: 7 0 0  and 11 0 0 
 # max = 1019
107792828		 # 	collision with: 2 3 0  and 4 1 1 
 # max = 1019
107792829		 # 	collision with: 12 22 0  and 29 1 1 
 # max = 1021
107794792		 # 	collision with: 18 0 0  and 23 0 0 
 # max = 1021
107796672		 # 	collision with: 23 12 0  and 3 0 1 
 # max = 1021
107796673		 # 	collision with: 9 16 0  and 1 1 1 
 # max = 1021
1.66797secs	1021 1132
