# prime 31
# degree 3
# input variables 2
# output variables 4
# reload computed balance functions from file balance-390of5726-p31d3m2-debug.log
# p = 31
# n = 4
# smalldomain p^m 961
# domain p^n 923521
#	 p^2 = 961
#	 p^3 = 29791
#	 p^4 = 923521
#	 p^5 = 28629151
#	 p^6 = 887503681
#	 p^7 = 27512614111
#	 p^8 = 852891037441
#	 p^9 = 26439622160671
opening file : balance-390of5726-p31d3m2-debug.log
reloading for step2...
7800672		 # 	collision with: 16 1 0 0  and 20 1 0 0 
 # max = 51
7801058		 # 	collision with: 15 0 0 0  and 28 0 0 0 
 # max = 51
7801064		 # 	collision with: 5 2 0 0  and 5 4 0 0 
 # max = 129
7802843		 # 	collision with: 13 3 0 0  and 16 3 0 0 
 # max = 129
7802948		 # 	collision with: 1 9 11 0  and 16 0 0 1 
 # max = 29807
7802949		 # 	collision with: 12 4 22 0  and 8 2 0 1 
 # max = 29861
7804580		 # 	collision with: 1 3 0 0  and 14 3 0 0 
 # max = 29861
7804724		 # 	collision with: 4 0 0 0  and 29 0 0 0 
 # max = 29861
7806792		 # 	collision with: 8 20 11 0  and 24 0 0 1 
 # max = 29861
7806793		 # 	collision with: 14 25 22 0  and 1 0 0 1 
 # max = 29861
7808508		 # 	collision with: 6 0 0 0  and 20 0 0 0 
 # max = 29861
7808612		 # 	collision with: 5 0 0 0  and 28 0 0 0 
 # max = 29861
7810636		 # 	collision with: 0 23 11 0  and 2 3 0 1 
 # max = 29886
7810637		 # 	collision with: 2 6 22 0  and 17 1 0 1 
 # max = 29886
7812168		 # 	collision with: 6 0 0 0  and 17 0 0 0 
 # max = 29886
7812520		 # 	collision with: 11 0 0 0  and 26 0 0 0 
 # max = 29886
7812530		 # 	collision with: 9 0 0 0  and 26 0 0 0 
 # max = 29886
7814480		 # 	collision with: 9 10 11 0  and 6 0 0 1 
 # max = 29886
7814481		 # 	collision with: 22 8 22 0  and 3 0 0 1 
 # max = 29886
7816552		 # 	collision with: 21 3 0 0  and 23 3 0 0 
 # max = 29886
7817523		 # 	collision with: 12 1 0 0  and 19 1 0 0 
 # max = 29886
7818897		 # 	collision with: 16 0 0 0  and 22 0 0 0 
 # max = 29886
7819612		 # 	collision with: 6 3 0 0  and 23 3 0 0 
 # max = 29886
63.4986secs	29886 26607
