# prime 31
# degree 3
# input variables 2
# output variables 3
# reload computed balance functions from file balance-1901of5726-p31d3m2-debug.log
# p = 31
# n = 3
# smalldomain p^m 961
# domain p^n 29791
#	 p^2 = 961
#	 p^3 = 29791
#	 p^4 = 923521
#	 p^5 = 28629151
#	 p^6 = 887503681
#	 p^7 = 27512614111
#	 p^8 = 852891037441
#	 p^9 = 26439622160671
opening file : balance-1901of5726-p31d3m2-debug.log
reloading for step2...
38022306		 # 	collision with: 3 4 0  and 14 4 0 
 # max = 138
38022348		 # 	collision with: 3 0 0  and 21 0 0 
 # max = 138
38027576		 # 	collision with: 6 8 0  and 26 0 1 
 # max = 987
38027577		 # 	collision with: 8 22 0  and 26 0 1 
 # max = 987
38030708		 # 	collision with: 7 0 0  and 10 0 0 
 # max = 987
38031420		 # 	collision with: 25 8 0  and 11 0 1 
 # max = 987
38031421		 # 	collision with: 16 22 0  and 28 0 1 
 # max = 989
38033319		 # 	collision with: 2 3 0  and 24 3 0 
 # max = 989
38035349		 # 	collision with: 2 1 0  and 14 1 0 
 # max = 989
38037626		 # 	collision with: 16 6 0  and 19 6 0 
 # max = 989
38038648		 # 	collision with: 4 4 0  and 16 4 0 
 # max = 989
0.813136secs	989 512
