# prime 31
# degree 3
# input variables 2
# output variables 3
# reload computed balance functions from file balance-4744of5726-p31d3m2-debug.log
# p = 31
# n = 3
# smalldomain p^m 961
# domain p^n 29791
#	 p^2 = 961
#	 p^3 = 29791
#	 p^4 = 923521
#	 p^5 = 28629151
#	 p^6 = 887503681
#	 p^7 = 27512614111
#	 p^8 = 852891037441
#	 p^9 = 26439622160671
opening file : balance-4744of5726-p31d3m2-debug.log
reloading for step2...
94880373		 # 	collision with: 15 1 0  and 24 1 0 
 # max = 55
94881862		 # 	collision with: 9 2 0  and 10 2 0 
 # max = 72
94882551		 # 	collision with: 11 2 0  and 29 2 0 
 # max = 91
94882692		 # 	collision with: 26 24 0  and 9 2 1 
 # max = 1032
94882693		 # 	collision with: 4 19 0  and 1 0 1 
 # max = 1032
94884951		 # 	collision with: 10 0 0  and 26 0 0 
 # max = 1032
94886396		 # 	collision with: 16 3 0  and 30 3 0 
 # max = 1032
94886536		 # 	collision with: 30 13 0  and 7 0 1 
 # max = 1032
94886537		 # 	collision with: 14 12 0  and 6 1 1 
 # max = 1032
94888320		 # 	collision with: 10 1 0  and 13 1 0 
 # max = 1032
94890056		 # 	collision with: 22 1 0  and 29 1 0 
 # max = 1032
94890662		 # 	collision with: 4 2 0  and 5 2 0 
 # max = 1032
94892352		 # 	collision with: 12 0 0  and 30 0 0 
 # max = 1032
94893281		 # 	collision with: 7 1 0  and 8 1 0 
 # max = 1032
94896260		 # 	collision with: 4 2 0  and 11 2 0 
 # max = 1032
94897713		 # 	collision with: 17 0 0  and 21 0 0 
 # max = 1032
0.677056secs	1032 517
