# prime 31
# degree 3
# input variables 2
# output variables 3
# reload computed balance functions from file balance-2738of5726-p31d3m2-debug.log
# p = 31
# n = 3
# smalldomain p^m 961
# domain p^n 29791
#	 p^2 = 961
#	 p^3 = 29791
#	 p^4 = 923521
#	 p^5 = 28629151
#	 p^6 = 887503681
#	 p^7 = 27512614111
#	 p^8 = 852891037441
#	 p^9 = 26439622160671
opening file : balance-2738of5726-p31d3m2-debug.log
reloading for step2...
54761630		 # 	collision with: 10 0 0  and 30 0 0 
 # max = 30
54762368		 # 	collision with: 25 8 0  and 3 0 1 
 # max = 964
54762369		 # 	collision with: 21 18 0  and 25 0 1 
 # max = 986
54762820		 # 	collision with: 16 0 0  and 17 0 0 
 # max = 986
54766078		 # 	collision with: 7 4 0  and 18 4 0 
 # max = 986
54766212		 # 	collision with: 25 8 0  and 11 0 1 
 # max = 986
54766213		 # 	collision with: 0 15 0  and 18 1 1 
 # max = 1010
54766669		 # 	collision with: 14 0 0  and 19 0 0 
 # max = 1010
54766728		 # 	collision with: 7 0 0  and 10 0 0 
 # max = 1010
54769924		 # 	collision with: 16 1 0  and 27 1 0 
 # max = 1010
54770760		 # 	collision with: 24 6 0  and 28 6 0 
 # max = 1010
54770834		 # 	collision with: 19 0 0  and 28 0 0 
 # max = 1010
54773900		 # 	collision with: 27 8 0  and 13 0 1 
 # max = 1010
54773901		 # 	collision with: 8 25 0  and 9 1 1 
 # max = 1010
54774255		 # 	collision with: 10 4 0  and 28 4 0 
 # max = 1010
54774668		 # 	collision with: 28 0 0  and 15 1 0 
 # max = 1010
54777321		 # 	collision with: 12 1 0  and 20 1 0 
 # max = 1010
54777368		 # 	collision with: 0 0 0  and 14 0 0 
 # max = 1010
54777744		 # 	collision with: 13 8 0  and 11 0 1 
 # max = 1010
54777745		 # 	collision with: 15 18 0  and 12 0 1 
 # max = 1010
54778700		 # 	collision with: 2 0 0  and 21 0 0 
 # max = 1010
1.33303secs	1010 961
