# prime 31
# degree 3
# input variables 2
# output variables 3
# reload computed balance functions from file balance-1846of5726-p31d3m2-debug.log
# p = 31
# n = 3
# smalldomain p^m 961
# domain p^n 29791
#	 p^2 = 961
#	 p^3 = 29791
#	 p^4 = 923521
#	 p^5 = 28629151
#	 p^6 = 887503681
#	 p^7 = 27512614111
#	 p^8 = 852891037441
#	 p^9 = 26439622160671
opening file : balance-1846of5726-p31d3m2-debug.log
reloading for step2...
36921376		 # 	collision with: 19 1 0  and 23 1 0 
 # max = 54
36921744		 # 	collision with: 4 27 0  and 7 1 1 
 # max = 999
36921745		 # 	collision with: 27 25 0  and 9 1 1 
 # max = 1001
36921941		 # 	collision with: 27 0 0  and 12 1 0 
 # max = 1001
36923770		 # 	collision with: 0 3 0  and 27 3 0 
 # max = 1001
36924283		 # 	collision with: 9 0 0  and 13 0 0 
 # max = 1001
36927920		 # 	collision with: 7 1 0  and 28 1 0 
 # max = 1001
36929432		 # 	collision with: 23 22 0  and 3 0 1 
 # max = 1001
36929433		 # 	collision with: 5 20 0  and 15 0 1 
 # max = 1001
36931828		 # 	collision with: 8 3 0  and 17 3 0 
 # max = 1001
36932090		 # 	collision with: 5 0 0  and 21 0 0 
 # max = 1001
36934125		 # 	collision with: 10 0 0  and 16 0 0 
 # max = 1001
36935860		 # 	collision with: 12 6 0  and 22 6 0 
 # max = 1001
36939691		 # 	collision with: 4 0 0  and 12 0 0 
 # max = 1001
36939693		 # 	collision with: 5 0 0  and 9 0 0 
 # max = 1001
0.68943secs	1001 511
