# prime 31
# degree 3
# input variables 2
# output variables 3
# reload computed balance functions from file balance-3688of5726-p31d3m2-debug.log
# p = 31
# n = 3
# smalldomain p^m 961
# domain p^n 29791
#	 p^2 = 961
#	 p^3 = 29791
#	 p^4 = 923521
#	 p^5 = 28629151
#	 p^6 = 887503681
#	 p^7 = 27512614111
#	 p^8 = 852891037441
#	 p^9 = 26439622160671
opening file : balance-3688of5726-p31d3m2-debug.log
reloading for step2...
73760372		 # 	collision with: 6 0 0  and 28 0 0 
 # max = 28
73764164		 # 	collision with: 6 2 0  and 14 2 0 
 # max = 76
73764216		 # 	collision with: 11 1 0  and 16 1 0 
 # max = 76
73769390		 # 	collision with: 3 3 0  and 14 3 0 
 # max = 107
73772156		 # 	collision with: 6 1 0  and 12 1 0 
 # max = 107
73773969		 # 	collision with: 7 1 0  and 24 1 0 
 # max = 107
73774172		 # 	collision with: 6 12 0  and 3 0 1 
 # max = 964
73774173		 # 	collision with: 17 10 0  and 12 0 1 
 # max = 973
73776064		 # 	collision with: 4 0 0  and 25 0 0 
 # max = 973
73776719		 # 	collision with: 8 0 0  and 19 0 0 
 # max = 973
73777041		 # 	collision with: 8 6 0  and 28 6 0 
 # max = 973
0.342197secs	973 283
