# prime 31
# degree 3
# input variables 2
# output variables 3
# reload computed balance functions from file balance-3835of5726-p31d3m2-debug.log
# p = 31
# n = 3
# smalldomain p^m 961
# domain p^n 29791
#	 p^2 = 961
#	 p^3 = 29791
#	 p^4 = 923521
#	 p^5 = 28629151
#	 p^6 = 887503681
#	 p^7 = 27512614111
#	 p^8 = 852891037441
#	 p^9 = 26439622160671
opening file : balance-3835of5726-p31d3m2-debug.log
reloading for step2...
76700340		 # 	collision with: 0 1 0  and 26 1 0 
 # max = 57
76701321		 # 	collision with: 23 1 0  and 29 1 0 
 # max = 60
76704168		 # 	collision with: 12 13 0  and 4 0 1 
 # max = 965
76704169		 # 	collision with: 0 5 0  and 22 0 1 
 # max = 983
76704509		 # 	collision with: 0 0 0  and 4 0 0 
 # max = 983
76704515		 # 	collision with: 7 0 0  and 9 0 0 
 # max = 983
76704758		 # 	collision with: 12 0 0  and 25 0 0 
 # max = 983
76708012		 # 	collision with: 8 13 0  and 9 0 1 
 # max = 983
76708013		 # 	collision with: 18 10 0  and 0 1 1 
 # max = 992
76710560		 # 	collision with: 5 10 0  and 17 10 0 
 # max = 992
76711507		 # 	collision with: 0 0 0  and 24 0 0 
 # max = 992
76712571		 # 	collision with: 2 0 0  and 30 0 0 
 # max = 992
76714220		 # 	collision with: 28 2 0  and 29 2 0 
 # max = 992
76714877		 # 	collision with: 25 0 0  and 27 0 0 
 # max = 992
76715019		 # 	collision with: 23 0 0  and 28 0 0 
 # max = 992
76715700		 # 	collision with: 27 13 0  and 18 0 1 
 # max = 992
76715701		 # 	collision with: 6 5 0  and 5 0 1 
 # max = 992
76718004		 # 	collision with: 9 0 0  and 19 0 0 
 # max = 992
76718957		 # 	collision with: 8 0 0  and 9 0 0 
 # max = 992
76719544		 # 	collision with: 30 13 0  and 7 0 1 
 # max = 992
76719545		 # 	collision with: 26 5 0  and 7 0 1 
 # max = 992
76719705		 # 	collision with: 3 0 0  and 5 0 0 
 # max = 992
76719821		 # 	collision with: 8 0 0  and 27 0 0 
 # max = 992
1.29379secs	992 948
