# prime 31
# degree 3
# input variables 2
# output variables 4
# reload computed balance functions from file balance-2638of5726-p31d3m2-debug.log
# p = 31
# n = 4
# smalldomain p^m 961
# domain p^n 923521
#	 p^2 = 961
#	 p^3 = 29791
#	 p^4 = 923521
#	 p^5 = 28629151
#	 p^6 = 887503681
#	 p^7 = 27512614111
#	 p^8 = 852891037441
#	 p^9 = 26439622160671
opening file : balance-2638of5726-p31d3m2-debug.log
reloading for step2...
52761036		 # 	collision with: 1 7 0 0  and 24 7 0 0 
 # max = 241
52762399		 # 	collision with: 4 1 0 0  and 18 1 0 0 
 # max = 241
52762945		 # 	collision with: 4 1 0 0  and 7 1 0 0 
 # max = 241
52762996		 # 	collision with: 2 0 0 0  and 22 0 0 0 
 # max = 241
52763294		 # 	collision with: 11 1 0 0  and 17 1 0 0 
 # max = 241
52763538		 # 	collision with: 0 2 0 0  and 4 2 0 0 
 # max = 241
52764050		 # 	collision with: 4 2 0 0  and 17 2 0 0 
 # max = 241
52764820		 # 	collision with: 17 0 0 0  and 24 0 0 0 
 # max = 241
52765596		 # 	collision with: 30 24 25 0  and 23 0 0 1 
 # max = 29814
52765597		 # 	collision with: 18 16 2 0  and 24 2 0 1 
 # max = 29877
52767028		 # 	collision with: 23 0 0 0  and 27 0 0 0 
 # max = 29877
52768295		 # 	collision with: 8 0 0 0  and 29 0 0 0 
 # max = 29877
52768480		 # 	collision with: 4 0 0 0  and 4 1 0 0 
 # max = 29877
52768738		 # 	collision with: 21 0 0 0  and 27 0 0 0 
 # max = 29877
52769440		 # 	collision with: 25 0 25 0  and 0 1 0 1 
 # max = 29877
52769441		 # 	collision with: 28 27 2 0  and 29 3 0 1 
 # max = 29913
52770385		 # 	collision with: 6 1 0 0  and 19 1 0 0 
 # max = 29913
52770936		 # 	collision with: 5 0 0 0  and 15 0 0 0 
 # max = 29913
52777128		 # 	collision with: 8 1 25 0  and 21 0 0 1 
 # max = 29913
52777129		 # 	collision with: 17 4 2 0  and 11 0 0 1 
 # max = 29913
52778876		 # 	collision with: 5 0 0 0  and 21 0 0 0 
 # max = 29913
52779708		 # 	collision with: 4 5 0 0  and 16 5 0 0 
 # max = 29913
56.9831secs	29913 19998
