# prime 31
# degree 3
# input variables 2
# output variables 3
# reload computed balance functions from file balance-1886of5726-p31d3m2-debug.log
# p = 31
# n = 3
# smalldomain p^m 961
# domain p^n 29791
#	 p^2 = 961
#	 p^3 = 29791
#	 p^4 = 923521
#	 p^5 = 28629151
#	 p^6 = 887503681
#	 p^7 = 27512614111
#	 p^8 = 852891037441
#	 p^9 = 26439622160671
opening file : balance-1886of5726-p31d3m2-debug.log
reloading for step2...
37721070		 # 	collision with: 0 0 0  and 29 0 0 
 # max = 29
37721112		 # 	collision with: 21 2 0  and 25 2 0 
 # max = 87
37721360		 # 	collision with: 3 2 0  and 7 2 0 
 # max = 87
37721903		 # 	collision with: 3 8 0  and 22 8 0 
 # max = 270
37724272		 # 	collision with: 27 20 0  and 5 1 1 
 # max = 997
37724273		 # 	collision with: 29 2 0  and 3 0 1 
 # max = 997
37724772		 # 	collision with: 16 1 0  and 17 1 0 
 # max = 997
37726378		 # 	collision with: 12 0 0  and 14 0 0 
 # max = 997
37728116		 # 	collision with: 30 12 0  and 6 0 1 
 # max = 997
37728117		 # 	collision with: 3 2 0  and 7 0 1 
 # max = 997
37728556		 # 	collision with: 7 1 0  and 9 1 0 
 # max = 997
37728866		 # 	collision with: 19 1 0  and 16 2 0 
 # max = 997
37729300		 # 	collision with: 6 1 0  and 12 1 0 
 # max = 997
37733208		 # 	collision with: 24 0 0  and 25 0 0 
 # max = 997
37735367		 # 	collision with: 8 2 0  and 20 2 0 
 # max = 997
37735804		 # 	collision with: 2 12 0  and 3 0 1 
 # max = 997
37735805		 # 	collision with: 21 2 0  and 13 0 1 
 # max = 997
37736000		 # 	collision with: 8 0 0  and 17 0 0 
 # max = 997
37737010		 # 	collision with: 5 0 0  and 22 0 0 
 # max = 997
37737240		 # 	collision with: 24 0 0  and 29 0 0 
 # max = 997
37737817		 # 	collision with: 8 4 0  and 30 4 0 
 # max = 997
37739648		 # 	collision with: 0 0 0  and 1 1 1 
 # max = 997
37739649		 # 	collision with: 1 2 0  and 2 0 1 
 # max = 997
1.44748secs	997 977
