# prime 31
# degree 3
# input variables 2
# output variables 3
# reload computed balance functions from file balance-3153of5726-p31d3m2-debug.log
# p = 31
# n = 3
# smalldomain p^m 961
# domain p^n 29791
#	 p^2 = 961
#	 p^3 = 29791
#	 p^4 = 923521
#	 p^5 = 28629151
#	 p^6 = 887503681
#	 p^7 = 27512614111
#	 p^8 = 852891037441
#	 p^9 = 26439622160671
opening file : balance-3153of5726-p31d3m2-debug.log
reloading for step2...
63060718		 # 	collision with: 17 5 0  and 29 5 0 
 # max = 184
63061676		 # 	collision with: 10 0 0  and 13 0 0 
 # max = 184
63064416		 # 	collision with: 16 24 0  and 10 0 1 
 # max = 971
63064417		 # 	collision with: 23 0 0  and 5 2 1 
 # max = 1028
63065069		 # 	collision with: 16 0 0  and 27 0 0 
 # max = 1028
63065336		 # 	collision with: 0 0 0  and 13 0 0 
 # max = 1028
63067120		 # 	collision with: 4 0 0  and 21 0 0 
 # max = 1028
63068260		 # 	collision with: 26 24 0  and 4 0 1 
 # max = 1028
63068261		 # 	collision with: 13 25 0  and 25 0 1 
 # max = 1028
63069120		 # 	collision with: 19 0 0  and 22 0 0 
 # max = 1028
63071028		 # 	collision with: 4 0 0  and 10 0 0 
 # max = 1028
63071179		 # 	collision with: 4 0 0  and 26 0 0 
 # max = 1028
63075060		 # 	collision with: 2 0 0  and 6 0 0 
 # max = 1028
63076517		 # 	collision with: 17 0 0  and 29 0 0 
 # max = 1028
63076564		 # 	collision with: 22 0 0  and 24 0 0 
 # max = 1028
63078968		 # 	collision with: 14 1 0  and 24 1 0 
 # max = 1028
63079009		 # 	collision with: 6 1 0  and 27 1 0 
 # max = 1028
63079792		 # 	collision with: 16 24 0  and 3 0 1 
 # max = 1028
63079793		 # 	collision with: 18 30 0  and 25 1 1 
 # max = 1028
0.84484secs	1028 713
