# prime 31
# degree 3
# input variables 2
# output variables 4
# reload computed balance functions from file balance-2403of5726-p31d3m2-debug.log
# p = 31
# n = 4
# smalldomain p^m 961
# domain p^n 923521
#	 p^2 = 961
#	 p^3 = 29791
#	 p^4 = 923521
#	 p^5 = 28629151
#	 p^6 = 887503681
#	 p^7 = 27512614111
#	 p^8 = 852891037441
#	 p^9 = 26439622160671
opening file : balance-2403of5726-p31d3m2-debug.log
reloading for step2...
48072455		 # 	collision with: 22 1 0 0  and 24 1 0 0 
 # max = 55
0.0136017secs	55 6
