# prime 31
# degree 3
# input variables 2
# output variables 3
# reload computed balance functions from file balance-1639of5726-p31d3m2-debug.log
# p = 31
# n = 3
# smalldomain p^m 961
# domain p^n 29791
#	 p^2 = 961
#	 p^3 = 29791
#	 p^4 = 923521
#	 p^5 = 28629151
#	 p^6 = 887503681
#	 p^7 = 27512614111
#	 p^8 = 852891037441
#	 p^9 = 26439622160671
opening file : balance-1639of5726-p31d3m2-debug.log
reloading for step2...
32781504		 # 	collision with: 15 3 0  and 28 3 0 
 # max = 121
32782103		 # 	collision with: 7 0 0  and 20 0 0 
 # max = 121
32782128		 # 	collision with: 23 5 0  and 16 1 1 
 # max = 1008
32782129		 # 	collision with: 30 13 0  and 8 0 1 
 # max = 1008
32782242		 # 	collision with: 12 1 0  and 28 1 0 
 # max = 1008
32785412		 # 	collision with: 25 0 0  and 30 0 0 
 # max = 1008
32787465		 # 	collision with: 9 2 0  and 26 2 0 
 # max = 1008
32788344		 # 	collision with: 12 1 0  and 18 1 0 
 # max = 1008
32789816		 # 	collision with: 0 14 0  and 14 12 1 
 # max = 1347
32789817		 # 	collision with: 16 4 0  and 8 1 1 
 # max = 1347
32791953		 # 	collision with: 0 0 0  and 13 0 0 
 # max = 1347
32792128		 # 	collision with: 18 1 0  and 23 1 0 
 # max = 1347
32792687		 # 	collision with: 20 5 0  and 21 5 0 
 # max = 1347
32792922		 # 	collision with: 17 0 0  and 27 0 0 
 # max = 1347
32793327		 # 	collision with: 4 0 0  and 30 0 0 
 # max = 1347
32793416		 # 	collision with: 9 1 0  and 26 1 0 
 # max = 1347
32795788		 # 	collision with: 19 0 0  and 25 0 0 
 # max = 1347
32795929		 # 	collision with: 12 3 0  and 26 3 0 
 # max = 1347
32796906		 # 	collision with: 7 1 0  and 13 1 0 
 # max = 1347
32797448		 # 	collision with: 1 1 0  and 18 1 0 
 # max = 1347
32799158		 # 	collision with: 25 1 0  and 28 1 0 
 # max = 1347
32799679		 # 	collision with: 4 0 0  and 15 0 0 
 # max = 1347
1.01609secs	1347 595
