# prime 31
# degree 3
# input variables 2
# output variables 3
# reload computed balance functions from file balance-5062of5726-p31d3m2-debug.log
# p = 31
# n = 3
# smalldomain p^m 961
# domain p^n 29791
#	 p^2 = 961
#	 p^3 = 29791
#	 p^4 = 923521
#	 p^5 = 28629151
#	 p^6 = 887503681
#	 p^7 = 27512614111
#	 p^8 = 852891037441
#	 p^9 = 26439622160671
opening file : balance-5062of5726-p31d3m2-debug.log
reloading for step2...
101240100		 # 	collision with: 4 0 0  and 19 0 0 
 # max = 19
101240581		 # 	collision with: 17 1 0  and 22 1 0 
 # max = 53
101240688		 # 	collision with: 26 0 0  and 27 0 0 
 # max = 53
101242458		 # 	collision with: 4 4 0  and 19 4 0 
 # max = 143
101244605		 # 	collision with: 10 0 0  and 12 0 0 
 # max = 143
101244611		 # 	collision with: 25 1 0  and 28 1 0 
 # max = 143
101246777		 # 	collision with: 4 5 0  and 8 5 0 
 # max = 163
101247544		 # 	collision with: 9 1 0  and 24 1 0 
 # max = 163
101249472		 # 	collision with: 26 27 0  and 18 4 1 
 # max = 1103
101249473		 # 	collision with: 25 5 0  and 19 0 1 
 # max = 1103
101251927		 # 	collision with: 12 0 0  and 22 0 0 
 # max = 1103
101252660		 # 	collision with: 2 1 0  and 30 1 0 
 # max = 1103
101254988		 # 	collision with: 2 1 0  and 20 1 0 
 # max = 1103
101256005		 # 	collision with: 3 1 0  and 10 1 0 
 # max = 1103
101256568		 # 	collision with: 3 4 0  and 22 4 0 
 # max = 1103
101257160		 # 	collision with: 16 10 0  and 9 0 1 
 # max = 1103
101257161		 # 	collision with: 20 5 0  and 21 0 1 
 # max = 1103
0.641522secs	1103 543
