# prime 31
# degree 3
# input variables 2
# output variables 3
# reload computed balance functions from file balance-3874of5726-p31d3m2-debug.log
# p = 31
# n = 3
# smalldomain p^m 961
# domain p^n 29791
#	 p^2 = 961
#	 p^3 = 29791
#	 p^4 = 923521
#	 p^5 = 28629151
#	 p^6 = 887503681
#	 p^7 = 27512614111
#	 p^8 = 852891037441
#	 p^9 = 26439622160671
opening file : balance-3874of5726-p31d3m2-debug.log
reloading for step2...
77480520		 # 	collision with: 13 1 0  and 28 1 0 
 # max = 59
77483632		 # 	collision with: 3 7 0  and 22 5 1 
 # max = 1138
77483633		 # 	collision with: 22 19 0  and 2 3 1 
 # max = 1138
77483829		 # 	collision with: 15 0 0  and 17 0 0 
 # max = 1138
77484180		 # 	collision with: 0 0 0  and 8 0 0 
 # max = 1138
77487476		 # 	collision with: 15 11 0  and 9 0 1 
 # max = 1138
77487477		 # 	collision with: 25 9 0  and 11 0 1 
 # max = 1138
77488251		 # 	collision with: 2 0 0  and 26 0 0 
 # max = 1138
77489872		 # 	collision with: 0 1 0  and 29 1 0 
 # max = 1138
77491070		 # 	collision with: 24 1 0  and 28 1 0 
 # max = 1138
77491320		 # 	collision with: 17 11 0  and 26 0 1 
 # max = 1138
77491321		 # 	collision with: 0 0 0  and 1 1 1 
 # max = 1138
77495164		 # 	collision with: 25 22 0  and 17 2 1 
 # max = 1138
77495165		 # 	collision with: 12 20 0  and 1 2 1 
 # max = 1138
77495663		 # 	collision with: 4 0 0  and 23 0 0 
 # max = 1138
77499068		 # 	collision with: 21 4 0  and 24 4 0 
 # max = 1138
1.25003secs	1138 953
