# prime 31
# degree 3
# input variables 2
# output variables 3
# reload computed balance functions from file balance-775of5726-p31d3m2-debug.log
# p = 31
# n = 3
# smalldomain p^m 961
# domain p^n 29791
#	 p^2 = 961
#	 p^3 = 29791
#	 p^4 = 923521
#	 p^5 = 28629151
#	 p^6 = 887503681
#	 p^7 = 27512614111
#	 p^8 = 852891037441
#	 p^9 = 26439622160671
opening file : balance-775of5726-p31d3m2-debug.log
reloading for step2...
15500873		 # 	collision with: 17 0 0  and 27 0 0 
 # max = 27
15502108		 # 	collision with: 25 22 0  and 17 2 1 
 # max = 1040
15502109		 # 	collision with: 28 1 0  and 0 0 1 
 # max = 1040
15502513		 # 	collision with: 7 2 0  and 29 2 0 
 # max = 1040
15503163		 # 	collision with: 22 1 0  and 27 1 0 
 # max = 1040
15503257		 # 	collision with: 9 0 0  and 11 0 0 
 # max = 1040
15505172		 # 	collision with: 6 0 0  and 17 0 0 
 # max = 1040
15505876		 # 	collision with: 11 0 0  and 26 0 0 
 # max = 1040
15505952		 # 	collision with: 4 11 0  and 5 0 1 
 # max = 1040
15505953		 # 	collision with: 29 1 0  and 0 0 1 
 # max = 1040
15506503		 # 	collision with: 9 0 0  and 21 0 0 
 # max = 1040
15508846		 # 	collision with: 7 1 0  and 11 1 0 
 # max = 1040
15509908		 # 	collision with: 0 1 0  and 22 1 0 
 # max = 1040
15511002		 # 	collision with: 6 2 0  and 17 2 0 
 # max = 1040
15513816		 # 	collision with: 21 3 0  and 23 3 0 
 # max = 1040
15514855		 # 	collision with: 22 0 0  and 26 0 0 
 # max = 1040
15516373		 # 	collision with: 6 4 0  and 14 4 0 
 # max = 1040
1.42839secs	1040 514
