# prime 31
# degree 3
# input variables 2
# output variables 4
# reload computed balance functions from file balance-1203of5726-p31d3m2-debug.log
# p = 31
# n = 4
# smalldomain p^m 961
# domain p^n 923521
#	 p^2 = 961
#	 p^3 = 29791
#	 p^4 = 923521
#	 p^5 = 28629151
#	 p^6 = 887503681
#	 p^7 = 27512614111
#	 p^8 = 852891037441
#	 p^9 = 26439622160671
opening file : balance-1203of5726-p31d3m2-debug.log
reloading for step2...
24061244		 # 	collision with: 8 2 0 0  and 21 2 0 0 
 # max = 83
24061746		 # 	collision with: 16 0 0 0  and 24 0 0 0 
 # max = 83
24065028		 # 	collision with: 17 4 0 0  and 20 4 0 0 
 # max = 144
24066135		 # 	collision with: 6 0 0 0  and 19 0 0 0 
 # max = 144
24067854		 # 	collision with: 12 1 0 0  and 14 1 0 0 
 # max = 144
24068688		 # 	collision with: 18 0 0 0  and 0 3 0 0 
 # max = 144
24072288		 # 	collision with: 6 2 0 0  and 14 2 0 0 
 # max = 144
24072324		 # 	collision with: 11 1 0 0  and 16 1 0 0 
 # max = 144
24075094		 # 	collision with: 3 1 0 0  and 8 1 0 0 
 # max = 144
24075871		 # 	collision with: 15 1 0 0  and 23 1 0 0 
 # max = 144
24076072		 # 	collision with: 7 0 0 0  and 13 0 0 0 
 # max = 144
24079732		 # 	collision with: 26 0 0 0  and 10 2 0 0 
 # max = 144
0.151758secs	144 78
