# prime 31
# degree 3
# input variables 2
# output variables 4
# reload computed balance functions from file balance-1675of5726-p31d3m2-debug.log
# p = 31
# n = 4
# smalldomain p^m 961
# domain p^n 923521
#	 p^2 = 961
#	 p^3 = 29791
#	 p^4 = 923521
#	 p^5 = 28629151
#	 p^6 = 887503681
#	 p^7 = 27512614111
#	 p^8 = 852891037441
#	 p^9 = 26439622160671
opening file : balance-1675of5726-p31d3m2-debug.log
reloading for step2...
33500334		 # 	collision with: 24 1 0 0  and 26 1 0 0 
 # max = 57
33501766		 # 	collision with: 10 3 0 0  and 20 3 0 0 
 # max = 113
33502536		 # 	collision with: 17 1 0 0  and 18 1 0 0 
 # max = 113
33503131		 # 	collision with: 12 0 0 0  and 25 0 0 0 
 # max = 113
33503262		 # 	collision with: 3 0 0 0  and 20 0 0 0 
 # max = 113
33503484		 # 	collision with: 20 0 0 0  and 30 0 0 0 
 # max = 113
33504601		 # 	collision with: 17 0 0 0  and 29 0 0 0 
 # max = 113
33507516		 # 	collision with: 14 1 0 0  and 26 1 0 0 
 # max = 113
33509481		 # 	collision with: 3 2 0 0  and 28 3 0 0 
 # max = 121
33509487		 # 	collision with: 11 1 0 0  and 18 1 0 0 
 # max = 121
33509980		 # 	collision with: 4 0 0 0  and 23 0 0 0 
 # max = 121
33510961		 # 	collision with: 4 4 0 0  and 8 4 0 0 
 # max = 132
33511744		 # 	collision with: 18 0 20 0  and 0 2 0 1 
 # max = 29853
33511745		 # 	collision with: 0 26 21 0  and 14 1 0 1 
 # max = 29853
33513640		 # 	collision with: 4 1 0 0  and 8 1 0 0 
 # max = 29853
33515456		 # 	collision with: 4 3 0 0  and 6 3 0 0 
 # max = 29853
33515588		 # 	collision with: 29 5 20 0  and 17 0 0 1 
 # max = 29853
33515589		 # 	collision with: 21 10 21 0  and 14 0 0 1 
 # max = 29853
33517424		 # 	collision with: 4 2 0 0  and 25 2 0 0 
 # max = 29853
33519364		 # 	collision with: 4 0 0 0  and 29 0 0 0 
 # max = 29853
32.9893secs	29853 13362
