# prime 31
# degree 3
# input variables 2
# output variables 3
# reload computed balance functions from file balance-1734of5726-p31d3m2-debug.log
# p = 31
# n = 3
# smalldomain p^m 961
# domain p^n 29791
#	 p^2 = 961
#	 p^3 = 29791
#	 p^4 = 923521
#	 p^5 = 28629151
#	 p^6 = 887503681
#	 p^7 = 27512614111
#	 p^8 = 852891037441
#	 p^9 = 26439622160671
opening file : balance-1734of5726-p31d3m2-debug.log
reloading for step2...
34681191		 # 	collision with: 20 0 0  and 29 0 0 
 # max = 29
34682016		 # 	collision with: 6 0 0  and 11 0 0 
 # max = 29
34685297		 # 	collision with: 10 0 0  and 22 0 0 
 # max = 29
34685511		 # 	collision with: 9 0 0  and 11 0 0 
 # max = 29
34685512		 # 	collision with: 12 2 0  and 15 2 0 
 # max = 77
34685924		 # 	collision with: 16 0 0  and 30 0 0 
 # max = 77
34686768		 # 	collision with: 1 19 0  and 6 1 1 
 # max = 998
34686769		 # 	collision with: 17 19 0  and 9 0 1 
 # max = 998
34687442		 # 	collision with: 5 0 0  and 21 0 0 
 # max = 998
34690612		 # 	collision with: 18 24 0  and 17 0 1 
 # max = 998
34690613		 # 	collision with: 27 4 0  and 1 2 1 
 # max = 1024
34694456		 # 	collision with: 28 14 0  and 5 1 1 
 # max = 1024
34694457		 # 	collision with: 27 19 0  and 24 0 1 
 # max = 1024
34696616		 # 	collision with: 10 0 0  and 13 0 0 
 # max = 1024
34697306		 # 	collision with: 11 1 0  and 16 1 0 
 # max = 1024
34698300		 # 	collision with: 16 24 0  and 10 0 1 
 # max = 1024
34698301		 # 	collision with: 7 19 0  and 12 0 1 
 # max = 1024
34699794		 # 	collision with: 19 1 0  and 23 1 0 
 # max = 1024
1.47661secs	1024 912
