# prime 31
# degree 3
# input variables 2
# output variables 4
# reload computed balance functions from file balance-729of5726-p31d3m2-debug.log
# p = 31
# n = 4
# smalldomain p^m 961
# domain p^n 923521
#	 p^2 = 961
#	 p^3 = 29791
#	 p^4 = 923521
#	 p^5 = 28629151
#	 p^6 = 887503681
#	 p^7 = 27512614111
#	 p^8 = 852891037441
#	 p^9 = 26439622160671
opening file : balance-729of5726-p31d3m2-debug.log
reloading for step2...
14580461		 # 	collision with: 7 1 0 0  and 23 1 0 0 
 # max = 54
14580540		 # 	collision with: 3 20 14 0  and 6 1 0 1 
 # max = 29828
14580541		 # 	collision with: 22 3 13 0  and 6 0 0 1 
 # max = 29828
14580702		 # 	collision with: 2 3 0 0  and 3 3 0 0 
 # max = 29828
14582672		 # 	collision with: 0 4 0 0  and 15 4 0 0 
 # max = 29828
14583894		 # 	collision with: 2 0 0 0  and 11 0 0 0 
 # max = 29828
14584118		 # 	collision with: 6 0 0 0  and 19 0 0 0 
 # max = 29828
14585584		 # 	collision with: 11 7 0 0  and 19 7 0 0 
 # max = 29828
14588228		 # 	collision with: 8 20 14 0  and 4 0 0 1 
 # max = 29828
14588229		 # 	collision with: 3 15 13 0  and 10 0 0 1 
 # max = 29828
14592072		 # 	collision with: 28 1 14 0  and 14 2 0 1 
 # max = 29867
14592073		 # 	collision with: 6 16 13 0  and 8 0 0 1 
 # max = 29867
14592447		 # 	collision with: 5 1 0 0  and 5 6 0 0 
 # max = 29867
14593070		 # 	collision with: 2 1 0 0  and 15 1 0 0 
 # max = 29867
14593524		 # 	collision with: 9 0 0 0  and 25 0 0 0 
 # max = 29867
14593900		 # 	collision with: 16 3 0 0  and 21 3 0 0 
 # max = 29867
14595916		 # 	collision with: 22 8 14 0  and 3 3 0 1 
 # max = 29887
14595917		 # 	collision with: 27 25 13 0  and 26 2 0 1 
 # max = 29887
14597007		 # 	collision with: 0 1 0 0  and 19 1 0 0 
 # max = 29887
14599639		 # 	collision with: 6 1 0 0  and 13 1 0 0 
 # max = 29887
14599760		 # 	collision with: 2 16 14 0  and 8 2 0 1 
 # max = 29887
14599761		 # 	collision with: 14 28 13 0  and 24 0 0 1 
 # max = 29887
55.4163secs	29887 33261
