# prime 31
# degree 3
# input variables 2
# output variables 3
# reload computed balance functions from file balance-320of5726-p31d3m2-debug.log
# p = 31
# n = 3
# smalldomain p^m 961
# domain p^n 29791
#	 p^2 = 961
#	 p^3 = 29791
#	 p^4 = 923521
#	 p^5 = 28629151
#	 p^6 = 887503681
#	 p^7 = 27512614111
#	 p^8 = 852891037441
#	 p^9 = 26439622160671
opening file : balance-320of5726-p31d3m2-debug.log
reloading for step2...
6400903		 # 	collision with: 0 5 0  and 9 5 0 
 # max = 164
6402396		 # 	collision with: 2 2 0  and 6 2 0 
 # max = 164
6404040		 # 	collision with: 15 1 0  and 26 1 0 
 # max = 164
6406180		 # 	collision with: 14 3 0  and 29 3 0 
 # max = 164
6407185		 # 	collision with: 10 1 0  and 11 1 0 
 # max = 164
6407207		 # 	collision with: 27 2 0  and 28 2 0 
 # max = 164
6409840		 # 	collision with: 1 2 0  and 10 2 0 
 # max = 164
6413624		 # 	collision with: 17 1 0  and 29 1 0 
 # max = 164
6413986		 # 	collision with: 10 0 0  and 10 1 0 
 # max = 164
6416076		 # 	collision with: 4 0 0  and 10 0 0 
 # max = 164
6416206		 # 	collision with: 0 3 0  and 12 3 0 
 # max = 164
6417284		 # 	collision with: 19 0 0  and 22 0 0 
 # max = 164
6417531		 # 	collision with: 26 1 0  and 28 1 0 
 # max = 164
6417737		 # 	collision with: 0 0 0  and 19 0 0 
 # max = 164
6418939		 # 	collision with: 2 0 0  and 16 0 0 
 # max = 164
6419984		 # 	collision with: 3 0 0  and 20 0 0 
 # max = 164
0.266773secs	164 107
