# prime 31
# degree 3
# input variables 2
# output variables 4
# reload computed balance functions from file balance-875of5726-p31d3m2-debug.log
# p = 31
# n = 4
# smalldomain p^m 961
# domain p^n 923521
#	 p^2 = 961
#	 p^3 = 29791
#	 p^4 = 923521
#	 p^5 = 28629151
#	 p^6 = 887503681
#	 p^7 = 27512614111
#	 p^8 = 852891037441
#	 p^9 = 26439622160671
opening file : balance-875of5726-p31d3m2-debug.log
reloading for step2...
17500531		 # 	collision with: 16 0 0 0  and 23 0 0 0 
 # max = 23
17500559		 # 	collision with: 9 1 0 0  and 14 1 0 0 
 # max = 45
17502463		 # 	collision with: 9 3 0 0  and 30 3 0 0 
 # max = 123
17502848		 # 	collision with: 19 27 3 0  and 23 2 0 1 
 # max = 29876
17502849		 # 	collision with: 20 22 20 0  and 9 0 0 1 
 # max = 29876
17505828		 # 	collision with: 2 1 0 0  and 17 1 0 0 
 # max = 29876
17506692		 # 	collision with: 8 8 3 0  and 19 2 0 1 
 # max = 29876
17506693		 # 	collision with: 26 27 20 0  and 21 1 0 1 
 # max = 29876
17508389		 # 	collision with: 16 0 0 0  and 30 0 0 0 
 # max = 29876
17508811		 # 	collision with: 23 4 0 0  and 28 4 0 0 
 # max = 29876
17509860		 # 	collision with: 9 4 0 0  and 16 4 0 0 
 # max = 29876
17510336		 # 	collision with: 6 1 0 0  and 13 1 0 0 
 # max = 29876
17510621		 # 	collision with: 13 2 0 0  and 30 2 0 0 
 # max = 29876
17511285		 # 	collision with: 5 0 0 0  and 12 0 0 0 
 # max = 29876
17514058		 # 	collision with: 6 0 0 0  and 13 0 0 0 
 # max = 29876
17514120		 # 	collision with: 3 0 0 0  and 25 0 0 0 
 # max = 29876
17514380		 # 	collision with: 7 29 3 0  and 2 1 0 1 
 # max = 29876
17514381		 # 	collision with: 1 19 20 0  and 16 0 0 1 
 # max = 29876
17516769		 # 	collision with: 15 0 0 0  and 23 0 0 0 
 # max = 29876
30.6342secs	29876 19976
