# prime 31
# degree 3
# input variables 2
# output variables 3
# reload computed balance functions from file balance-4453of5726-p31d3m2-debug.log
# p = 31
# n = 3
# smalldomain p^m 961
# domain p^n 29791
#	 p^2 = 961
#	 p^3 = 29791
#	 p^4 = 923521
#	 p^5 = 28629151
#	 p^6 = 887503681
#	 p^7 = 27512614111
#	 p^8 = 852891037441
#	 p^9 = 26439622160671
opening file : balance-4453of5726-p31d3m2-debug.log
reloading for step2...
89060844		 # 	collision with: 3 0 0  and 21 0 0 
 # max = 21
89061510		 # 	collision with: 14 3 0  and 19 3 0 
 # max = 112
89069894		 # 	collision with: 11 1 0  and 13 1 0 
 # max = 112
89070570		 # 	collision with: 16 1 0  and 27 1 0 
 # max = 112
89071592		 # 	collision with: 3 0 0  and 19 0 0 
 # max = 112
89072796		 # 	collision with: 9 8 0  and 2 0 1 
 # max = 963
89072797		 # 	collision with: 19 18 0  and 6 2 1 
 # max = 1029
89075063		 # 	collision with: 8 0 0  and 30 0 0 
 # max = 1029
89076640		 # 	collision with: 29 8 0  and 0 0 1 
 # max = 1029
89076641		 # 	collision with: 5 29 0  and 6 2 1 
 # max = 1029
89076910		 # 	collision with: 24 0 0  and 28 0 0 
 # max = 1029
89078989		 # 	collision with: 1 1 0  and 24 1 0 
 # max = 1029
0.762977secs	1029 483
