# prime 5
# degree 2
# input variables 3
# output variables 7
# p = 5
# n = 7
# smalldomain p^m 125
# domain p^n 78125
#	 p^2 = 25
#	 p^3 = 125
#	 p^4 = 625
#	 p^5 = 3125
#	 p^6 = 15625
#	 p^7 = 78125
#	 p^8 = 390625
#	 p^9 = 1953125
# dimension of the chunk  1200
# number of the chunk  72 of 260 blocks
# functions to test 1200
# startcode = 86400  :: endcode = 87600:: fdomain = 1200
86400
86402
86421
86423
86437
86439
86457
86459
86465
86481
86483
86485
86505
86507
86517
86519
86524
86532
86534
86544
86546
86548
86559
86567
86572
86576
86578
86588
86590
86596
86600
86602
86605
86607
86617
86619
86624
86626
86632
86644
86646
86650
86657
86665
86667
86672
86674
86678
86688
86690
86696
86698
86700
86702
86707
86717
86724
86726
86734
86744
86748
86750
86757
86759
86765
86767
86772
86774
86776
86778
86788
86790
86798
86800
86802
86805
86819
86826
86832
86834
86844
86846
86848
86850
86857
86859
86865
86867
86872
86874
86876
86890
86896
86898
86900
86902
86905
86907
86917
86919
86924
86926
86932
86934
86946
86948
86950
86957
86959
86965
86974
86976
86978
86988
86996
86998
87000
87001
87002
87003
87028
87029
87030
87031
87056
87057
87058
87059
87064
87065
87066
87067
87092
87093
87094
87095
87100
87101
87102
87103
87128
87129
87130
87131
87156
87157
87158
87159
87164
87165
87166
87167
87192
87193
87194
87195
87200
87201
87202
87203
87228
87229
87230
87231
87256
87257
87258
87259
87264
87265
87266
87267
87292
87293
87294
87295
87300
87301
87302
87303
87328
87329
87330
87331
87356
87357
87358
87359
87364
87365
87366
87367
87392
87393
87394
87395
87400
87401
87402
87403
87428
87429
87430
87431
87456
87457
87458
87459
87464
87465
87466
87467
87492
87493
87494
87495
87500
87501
87502
87503
87520
87521
87522
87523
87540
87541
87542
87543
87560
87561
87562
87563
87580
87581
87582
87583
# 14.9823secs	# 236 balance functions. Density 0.196667
