# prime 5
# degree 2
# input variables 3
# output variables 7
# p = 5
# n = 7
# smalldomain p^m 125
# domain p^n 78125
#	 p^2 = 25
#	 p^3 = 125
#	 p^4 = 625
#	 p^5 = 3125
#	 p^6 = 15625
#	 p^7 = 78125
#	 p^8 = 390625
#	 p^9 = 1953125
# dimension of the chunk  1200
# number of the chunk  170 of 260 blocks
# functions to test 1200
# startcode = 204000  :: endcode = 205200:: fdomain = 1200
204000
204001
204024
204025
204048
204049
204072
204073
204096
204097
204100
204101
204102
204124
204125
204148
204149
204172
204173
204196
204197
204200
204201
204202
204224
204225
204248
204249
204272
204273
204296
204297
204300
204301
204302
204324
204325
204348
204349
204372
204373
204396
204397
204400
204401
204402
204424
204425
204448
204449
204472
204473
204496
204497
204509
204513
204545
204547
204553
204555
204569
204571
204577
204579
204600
204602
204611
204613
204615
204645
204647
204653
204655
204669
204671
204677
204679
204700
204702
204709
204711
204713
204715
204753
204771
204777
204779
204800
204802
204809
204811
204813
204815
204845
204847
204855
204869
204900
204902
204909
204911
204915
204945
204947
204953
204955
204969
204971
204977
204979
205020
205022
205025
205027
205033
205036
205038
205040
205042
205052
205054
205060
205062
205068
205070
205080
205082
205084
205086
205089
205097
205099
205100
205102
205120
205122
205125
205127
205135
205136
205138
205152
205154
205160
205162
205170
205180
205182
205184
205189
205191
205199
# 15.5058secs	# 152 balance functions. Density 0.126667
