# prime 5
# degree 2
# input variables 3
# output variables 7
# p = 5
# n = 7
# smalldomain p^m 125
# domain p^n 78125
#	 p^2 = 25
#	 p^3 = 125
#	 p^4 = 625
#	 p^5 = 3125
#	 p^6 = 15625
#	 p^7 = 78125
#	 p^8 = 390625
#	 p^9 = 1953125
# dimension of the chunk  1200
# number of the chunk  154 of 260 blocks
# functions to test 1200
# startcode = 184800  :: endcode = 186000:: fdomain = 1200
184800
184802
184809
184811
184813
184833
184835
184891
184897
184899
184900
184902
184911
184913
184915
184925
184927
184933
184935
184989
184991
184997
184999
185020
185022
185028
185030
185040
185042
185045
185053
185055
185056
185058
185060
185062
185064
185066
185069
185071
185077
185080
185082
185092
185094
185100
185102
185128
185130
185140
185142
185147
185153
185156
185158
185160
185162
185164
185171
185177
185179
185180
185182
185194
185200
185202
185220
185222
185228
185245
185247
185253
185255
185256
185258
185260
185262
185266
185269
185271
185277
185279
185280
185282
185292
185294
185300
185302
185320
185322
185328
185330
185340
185342
185345
185347
185353
185355
185358
185364
185366
185369
185371
185377
185379
185380
185382
185392
185400
185402
185420
185422
185430
185440
185442
185445
185447
185455
185456
185460
185462
185464
185466
185469
185479
185492
185494
185505
185507
185517
185519
185533
185535
185537
185539
185585
185587
185589
185591
185600
185602
185605
185617
185619
185637
185639
185687
185689
185691
185700
185702
185705
185707
185719
185733
185735
185737
185785
185787
185789
185791
185800
185802
185807
185817
185819
185833
185835
185837
185839
185885
185889
185891
185900
185902
185905
185907
185917
185933
185935
185939
185985
185987
# 16.0067secs	# 183 balance functions. Density 0.1525
