# prime 5
# degree 2
# input variables 3
# output variables 4
# reload computed balance functions from file balance-13of261-p5d2m3-debug.log
# p = 5
# n = 4
# smalldomain p^m 125
# domain p^n 625
#	 p^2 = 25
#	 p^3 = 125
#	 p^4 = 625
#	 p^5 = 3125
#	 p^6 = 15625
#	 p^7 = 78125
#	 p^8 = 390625
#	 p^9 = 1953125
opening file : balance-13of261-p5d2m3-debug.log
reloading for step2...
15600		 # 	collision with: 2 0 2 0  and 0 1 0 1 
 # max = 130
15602		 # 	collision with: 0 0 0 0  and 4 3 1 0 
 # max = 130
15604		 # 	collision with: 2 4 0 0  and 3 4 0 0 
 # max = 130
15608		 # 	collision with: 0 2 0 0  and 2 2 0 0 
 # max = 130
15610		 # 	collision with: 3 3 1 0  and 2 1 2 0 
 # max = 130
15612		 # 	collision with: 0 3 0 0  and 1 3 0 0 
 # max = 130
15614		 # 	collision with: 3 0 0 0  and 2 2 1 0 
 # max = 130
15616		 # 	collision with: 1 1 0 0  and 2 1 0 0 
 # max = 130
15618		 # 	collision with: 4 0 1 0  and 4 2 1 0 
 # max = 130
15626		 # 	collision with: 2 2 0 0  and 3 0 1 0 
 # max = 130
15641		 # 	collision with: 0 0 0 0  and 4 0 0 0 
 # max = 130
15643		 # 	collision with: 4 1 0 0  and 4 3 0 0 
 # max = 130
15648		 # 	collision with: 0 2 0 0  and 2 2 0 0 
 # max = 130
15650		 # 	collision with: 4 4 0 0  and 1 4 1 0 
 # max = 130
15661		 # 	collision with: 0 0 0 0  and 4 0 0 0 
 # max = 130
15663		 # 	collision with: 4 1 0 0  and 4 3 0 0 
 # max = 130
15672		 # 	collision with: 0 3 0 0  and 1 3 0 0 
 # max = 130
15674		 # 	collision with: 4 4 0 0  and 2 3 1 0 
 # max = 130
15693		 # 	collision with: 0 0 0 0  and 4 0 0 0 
 # max = 130
15695		 # 	collision with: 2 3 0 0  and 0 0 1 0 
 # max = 130
15696		 # 	collision with: 1 1 0 0  and 2 1 0 0 
 # max = 130
15698		 # 	collision with: 1 0 1 0  and 3 0 1 0 
 # max = 130
15700		 # 	collision with: 1 0 1 0  and 0 1 0 1 
 # max = 130
15702		 # 	collision with: 4 0 1 0  and 2 3 2 0 
 # max = 130
15704		 # 	collision with: 0 3 0 0  and 1 3 0 0 
 # max = 130
15706		 # 	collision with: 2 0 0 0  and 0 1 1 0 
 # max = 130
15708		 # 	collision with: 2 4 0 0  and 3 4 0 0 
 # max = 130
15712		 # 	collision with: 1 1 0 0  and 2 1 0 0 
 # max = 130
15714		 # 	collision with: 4 0 1 0  and 4 1 1 0 
 # max = 130
15716		 # 	collision with: 0 2 0 0  and 2 2 0 0 
 # max = 130
15718		 # 	collision with: 1 4 0 0  and 4 1 1 0 
 # max = 130
15724		 # 	collision with: 0 3 0 0  and 1 3 0 0 
 # max = 130
15726		 # 	collision with: 2 0 0 0  and 0 1 1 0 
 # max = 130
15729		 # 	collision with: 0 1 0 0  and 2 2 0 0 
 # max = 130
15731		 # 	collision with: 3 3 1 0  and 2 1 2 0 
 # max = 130
15743		 # 	collision with: 2 3 0 0  and 3 2 1 0 
 # max = 130
15750		 # 	collision with: 3 1 0 0  and 2 0 1 0 
 # max = 130
15761		 # 	collision with: 1 1 0 0  and 2 1 0 0 
 # max = 130
15772		 # 	collision with: 1 1 0 0  and 2 1 0 0 
 # max = 130
15774		 # 	collision with: 1 1 0 0  and 1 1 1 0 
 # max = 130
15793		 # 	collision with: 3 1 0 0  and 0 2 0 0 
 # max = 130
15795		 # 	collision with: 1 0 1 0  and 3 0 1 0 
 # max = 130
15796		 # 	collision with: 0 2 0 0  and 2 2 0 0 
 # max = 130
15798		 # 	collision with: 1 1 1 0  and 2 1 1 0 
 # max = 130
15800		 # 	collision with: 0 1 1 0  and 1 0 0 1 
 # max = 130
15802		 # 	collision with: 1 1 0 0  and 0 4 2 0 
 # max = 130
15804		 # 	collision with: 0 2 0 0  and 2 2 0 0 
 # max = 130
15806		 # 	collision with: 1 2 0 0  and 3 1 1 0 
 # max = 130
15808		 # 	collision with: 1 1 0 0  and 2 1 0 0 
 # max = 130
15810		 # 	collision with: 4 2 1 0  and 4 3 1 0 
 # max = 130
15812		 # 	collision with: 2 4 0 0  and 3 4 0 0 
 # max = 130
15816		 # 	collision with: 0 3 0 0  and 1 3 0 0 
 # max = 130
15818		 # 	collision with: 2 3 0 0  and 4 1 1 0 
 # max = 130
15824		 # 	collision with: 0 2 0 0  and 2 2 0 0 
 # max = 130
15826		 # 	collision with: 1 4 0 0  and 4 0 1 0 
 # max = 130
15829		 # 	collision with: 0 3 0 0  and 1 3 0 0 
 # max = 130
15831		 # 	collision with: 2 3 0 0  and 4 1 1 0 
 # max = 130
15841		 # 	collision with: 0 2 0 0  and 2 2 0 0 
 # max = 130
15848		 # 	collision with: 1 1 0 0  and 2 1 0 0 
 # max = 130
15850		 # 	collision with: 4 2 1 0  and 4 3 1 0 
 # max = 130
15863		 # 	collision with: 0 0 0 0  and 4 4 1 0 
 # max = 130
15874		 # 	collision with: 4 4 0 0  and 4 0 1 0 
 # max = 130
15893		 # 	collision with: 4 0 0 0  and 2 2 0 0 
 # max = 130
15895		 # 	collision with: 4 0 0 0  and 4 2 0 0 
 # max = 130
15896		 # 	collision with: 0 3 0 0  and 1 3 0 0 
 # max = 130
15898		 # 	collision with: 0 2 1 0  and 2 2 1 0 
 # max = 130
15900		 # 	collision with: 0 2 1 0  and 2 0 0 1 
 # max = 130
15902		 # 	collision with: 2 3 1 0  and 3 2 2 0 
 # max = 130
15904		 # 	collision with: 1 1 0 0  and 2 1 0 0 
 # max = 130
15906		 # 	collision with: 4 1 1 0  and 4 3 1 0 
 # max = 130
15908		 # 	collision with: 0 3 0 0  and 1 3 0 0 
 # max = 130
15910		 # 	collision with: 0 1 0 0  and 1 2 1 0 
 # max = 130
15912		 # 	collision with: 0 2 0 0  and 2 2 0 0 
 # max = 130
15914		 # 	collision with: 2 2 1 0  and 3 0 2 0 
 # max = 130
15916		 # 	collision with: 2 4 0 0  and 3 4 0 0 
 # max = 130
15924		 # 	collision with: 1 1 0 0  and 2 1 0 0 
 # max = 130
15926		 # 	collision with: 2 3 0 0  and 4 0 1 0 
 # max = 130
15929		 # 	collision with: 4 0 0 0  and 0 1 0 0 
 # max = 130
15931		 # 	collision with: 4 0 0 0  and 4 1 0 0 
 # max = 130
15941		 # 	collision with: 4 0 0 0  and 0 1 0 0 
 # max = 130
15943		 # 	collision with: 2 3 0 0  and 4 1 2 0 
 # max = 130
15948		 # 	collision with: 0 3 0 0  and 1 3 0 0 
 # max = 130
15950		 # 	collision with: 0 0 0 0  and 2 3 1 0 
 # max = 130
15961		 # 	collision with: 4 0 0 0  and 0 1 0 0 
 # max = 130
15963		 # 	collision with: 1 4 0 0  and 4 0 1 0 
 # max = 130
15972		 # 	collision with: 0 2 0 0  and 2 2 0 0 
 # max = 130
15974		 # 	collision with: 3 2 1 0  and 4 1 2 0 
 # max = 130
15998		 # 	collision with: 4 3 0 0  and 0 0 1 0 
 # max = 130
16006		 # 	collision with: 4 2 0 0  and 4 3 0 0 
 # max = 130
16010		 # 	collision with: 4 1 0 0  and 4 2 0 0 
 # max = 130
16014		 # 	collision with: 4 0 0 0  and 4 1 0 0 
 # max = 130
16018		 # 	collision with: 4 1 0 0  and 4 3 0 0 
 # max = 130
16028		 # 	collision with: 0 0 0 0  and 2 0 0 0 
 # max = 130
16030		 # 	collision with: 4 1 0 0  and 4 2 0 0 
 # max = 130
16033		 # 	collision with: 1 2 0 0  and 3 3 0 0 
 # max = 130
16049		 # 	collision with: 0 2 0 0  and 1 2 0 0 
 # max = 130
16051		 # 	collision with: 1 4 0 0  and 0 1 1 0 
 # max = 130
16056		 # 	collision with: 0 0 0 0  and 2 0 0 0 
 # max = 130
16058		 # 	collision with: 4 1 0 0  and 4 3 0 0 
 # max = 130
16064		 # 	collision with: 0 0 0 0  and 2 0 0 0 
 # max = 130
16066		 # 	collision with: 4 2 0 0  and 4 3 0 0 
 # max = 130
16073		 # 	collision with: 1 2 0 0  and 3 3 0 0 
 # max = 130
16075		 # 	collision with: 0 4 0 0  and 3 2 2 0 
 # max = 130
16089		 # 	collision with: 0 2 0 0  and 1 2 0 0 
 # max = 130
16092		 # 	collision with: 0 0 0 0  and 2 0 0 0 
 # max = 130
16094		 # 	collision with: 4 0 0 0  and 4 1 0 0 
 # max = 130
16100		 # 	collision with: 3 0 3 0  and 0 1 0 1 
 # max = 130
16102		 # 	collision with: 2 2 0 0  and 1 4 1 0 
 # max = 130
16104		 # 	collision with: 2 4 0 0  and 3 4 0 0 
 # max = 130
16108		 # 	collision with: 0 2 0 0  and 1 2 0 0 
 # max = 130
16110		 # 	collision with: 4 3 0 0  and 3 0 1 0 
 # max = 130
16112		 # 	collision with: 1 3 0 0  and 2 3 0 0 
 # max = 130
16114		 # 	collision with: 2 0 0 0  and 0 0 2 0 
 # max = 130
16116		 # 	collision with: 1 1 0 0  and 3 1 0 0 
 # max = 130
16118		 # 	collision with: 3 3 0 0  and 2 1 1 0 
 # max = 130
16130		 # 	collision with: 4 3 0 0  and 4 0 1 0 
 # max = 130
16135		 # 	collision with: 2 3 1 0  and 0 4 2 0 
 # max = 130
16149		 # 	collision with: 4 1 0 0  and 0 3 0 0 
 # max = 130
16156		 # 	collision with: 1 1 0 0  and 3 1 0 0 
 # max = 130
16158		 # 	collision with: 4 0 1 0  and 4 1 1 0 
 # max = 130
16164		 # 	collision with: 2 4 0 0  and 3 4 0 0 
 # max = 130
16166		 # 	collision with: 0 0 0 0  and 1 1 1 0 
 # max = 130
16173		 # 	collision with: 4 1 0 0  and 3 3 0 0 
 # max = 130
16175		 # 	collision with: 0 0 0 0  and 2 0 2 0 
 # max = 130
16189		 # 	collision with: 4 1 0 0  and 0 3 0 0 
 # max = 130
16191		 # 	collision with: 2 1 0 0  and 2 1 1 0 
 # max = 130
16192		 # 	collision with: 1 3 0 0  and 2 3 0 0 
 # max = 130
16200		 # 	collision with: 2 3 3 0  and 3 1 0 1 
 # max = 133
16202		 # 	collision with: 2 2 1 0  and 0 1 2 0 
 # max = 133
16204		 # 	collision with: 1 3 0 0  and 2 3 0 0 
 # max = 133
16206		 # 	collision with: 4 2 0 0  and 2 2 1 0 
 # max = 133
16208		 # 	collision with: 2 4 0 0  and 3 4 0 0 
 # max = 133
16212		 # 	collision with: 1 1 0 0  and 3 1 0 0 
 # max = 133
16214		 # 	collision with: 1 4 0 0  and 4 1 1 0 
 # max = 133
16216		 # 	collision with: 0 2 0 0  and 1 2 0 0 
 # max = 133
16218		 # 	collision with: 1 4 0 0  and 4 0 1 0 
 # max = 133
16228		 # 	collision with: 2 4 0 0  and 3 4 0 0 
 # max = 133
16230		 # 	collision with: 3 1 0 0  and 3 1 1 0 
 # max = 133
16233		 # 	collision with: 4 1 0 0  and 1 2 0 0 
 # max = 133
16235		 # 	collision with: 4 1 0 0  and 3 0 1 0 
 # max = 133
16251		 # 	collision with: 4 1 0 0  and 4 2 0 0 
 # max = 133
16258		 # 	collision with: 2 2 0 0  and 0 1 1 0 
 # max = 133
16264		 # 	collision with: 1 3 0 0  and 2 3 0 0 
 # max = 133
16273		 # 	collision with: 4 1 0 0  and 1 2 0 0 
 # max = 133
16275		 # 	collision with: 2 1 0 0  and 1 0 1 0 
 # max = 133
16289		 # 	collision with: 4 1 0 0  and 0 2 0 0 
 # max = 133
16291		 # 	collision with: 4 1 0 0  and 4 2 0 0 
 # max = 133
16292		 # 	collision with: 1 1 0 0  and 3 1 0 0 
 # max = 133
16294		 # 	collision with: 4 0 1 0  and 0 1 1 0 
 # max = 133
16300		 # 	collision with: 1 3 3 0  and 1 0 0 1 
 # max = 133
16302		 # 	collision with: 0 4 0 0  and 2 3 1 0 
 # max = 133
16304		 # 	collision with: 0 2 0 0  and 1 2 0 0 
 # max = 133
16306		 # 	collision with: 2 0 0 0  and 1 1 2 0 
 # max = 133
16308		 # 	collision with: 1 1 0 0  and 3 1 0 0 
 # max = 133
16310		 # 	collision with: 4 2 1 0  and 4 3 1 0 
 # max = 133
16312		 # 	collision with: 2 4 0 0  and 3 4 0 0 
 # max = 133
16316		 # 	collision with: 1 3 0 0  and 2 3 0 0 
 # max = 133
16318		 # 	collision with: 3 4 0 0  and 0 2 1 0 
 # max = 133
16328		 # 	collision with: 1 1 0 0  and 3 1 0 0 
 # max = 133
16330		 # 	collision with: 4 1 0 0  and 3 0 1 0 
 # max = 133
16333		 # 	collision with: 0 0 0 0  and 2 0 0 0 
 # max = 133
16335		 # 	collision with: 0 0 0 0  and 3 1 1 0 
 # max = 133
16349		 # 	collision with: 0 0 0 0  and 2 0 0 0 
 # max = 133
16351		 # 	collision with: 4 2 1 0  and 4 3 1 0 
 # max = 133
16356		 # 	collision with: 1 3 0 0  and 2 3 0 0 
 # max = 133
16366		 # 	collision with: 4 2 0 0  and 4 2 1 0 
 # max = 133
16375		 # 	collision with: 3 2 0 0  and 1 3 1 0 
 # max = 133
16389		 # 	collision with: 0 0 0 0  and 2 0 0 0 
 # max = 133
16391		 # 	collision with: 4 4 0 0  and 3 0 1 0 
 # max = 133
16392		 # 	collision with: 2 4 0 0  and 3 4 0 0 
 # max = 133
16394		 # 	collision with: 3 1 0 0  and 0 0 1 0 
 # max = 133
16400		 # 	collision with: 0 1 4 0  and 3 0 0 1 
 # max = 133
16402		 # 	collision with: 2 2 0 0  and 3 0 1 0 
 # max = 133
16404		 # 	collision with: 1 1 0 0  and 3 1 0 0 
 # max = 133
16406		 # 	collision with: 4 0 1 0  and 4 2 1 0 
 # max = 133
16408		 # 	collision with: 1 3 0 0  and 2 3 0 0 
 # max = 133
16410		 # 	collision with: 0 0 0 0  and 2 0 2 0 
 # max = 133
16412		 # 	collision with: 0 2 0 0  and 1 2 0 0 
 # max = 133
16414		 # 	collision with: 0 0 0 0  and 2 0 2 0 
 # max = 133
16416		 # 	collision with: 2 4 0 0  and 3 4 0 0 
 # max = 133
16428		 # 	collision with: 1 3 0 0  and 2 3 0 0 
 # max = 133
16433		 # 	collision with: 2 0 0 0  and 4 1 0 0 
 # max = 133
16435		 # 	collision with: 4 0 0 0  and 4 1 0 0 
 # max = 133
16449		 # 	collision with: 1 1 0 0  and 3 1 0 0 
 # max = 133
16451		 # 	collision with: 2 0 0 0  and 0 0 2 0 
 # max = 133
16456		 # 	collision with: 2 4 0 0  and 3 4 0 0 
 # max = 133
16458		 # 	collision with: 2 3 0 0  and 1 3 1 0 
 # max = 133
16464		 # 	collision with: 1 1 0 0  and 3 1 0 0 
 # max = 133
16466		 # 	collision with: 4 0 1 0  and 4 2 1 0 
 # max = 133
16473		 # 	collision with: 2 0 0 0  and 4 1 0 0 
 # max = 133
16491		 # 	collision with: 0 0 1 0  and 2 0 1 0 
 # max = 133
16494		 # 	collision with: 4 2 0 0  and 3 0 1 0 
 # max = 133
16506		 # 	collision with: 4 2 0 0  and 4 3 0 0 
 # max = 133
16510		 # 	collision with: 4 0 0 0  and 4 2 0 0 
 # max = 133
16514		 # 	collision with: 4 1 0 0  and 4 3 0 0 
 # max = 133
16518		 # 	collision with: 4 0 0 0  and 4 1 0 0 
 # max = 133
16532		 # 	collision with: 0 0 0 0  and 3 0 0 0 
 # max = 133
16534		 # 	collision with: 4 1 0 0  and 4 3 0 0 
 # max = 133
16537		 # 	collision with: 0 1 0 0  and 1 1 0 0 
 # max = 133
16539		 # 	collision with: 4 2 0 0  and 4 1 1 0 
 # max = 133
16544		 # 	collision with: 0 0 0 0  and 3 0 0 0 
 # max = 133
16546		 # 	collision with: 4 2 0 0  and 4 3 0 0 
 # max = 133
16557		 # 	collision with: 0 1 0 0  and 1 1 0 0 
 # max = 133
16559		 # 	collision with: 3 3 0 0  and 4 0 1 0 
 # max = 133
16565		 # 	collision with: 0 3 0 0  and 2 3 0 0 
 # max = 133
16567		 # 	collision with: 4 2 0 0  and 4 3 0 0 
 # max = 133
16576		 # 	collision with: 0 0 0 0  and 3 0 0 0 
 # max = 133
16578		 # 	collision with: 4 0 0 0  and 4 1 0 0 
 # max = 133
16585		 # 	collision with: 0 3 0 0  and 2 3 0 0 
 # max = 133
16587		 # 	collision with: 4 2 0 0  and 4 3 0 0 
 # max = 133
16588		 # 	collision with: 0 0 0 0  and 3 0 0 0 
 # max = 133
16590		 # 	collision with: 4 0 0 0  and 4 2 0 0 
 # max = 133
16600		 # 	collision with: 2 1 2 0  and 3 0 0 1 
 # max = 133
16602		 # 	collision with: 2 0 1 0  and 1 0 2 0 
 # max = 133
16604		 # 	collision with: 2 4 0 0  and 3 4 0 0 
 # max = 133
16608		 # 	collision with: 1 2 0 0  and 3 2 0 0 
 # max = 133
16610		 # 	collision with: 2 0 1 0  and 1 0 2 0 
 # max = 133
16612		 # 	collision with: 0 3 0 0  and 2 3 0 0 
 # max = 133
16614		 # 	collision with: 2 0 1 0  and 1 0 2 0 
 # max = 133
16616		 # 	collision with: 0 1 0 0  and 1 1 0 0 
 # max = 133
16618		 # 	collision with: 2 4 0 0  and 1 1 1 0 
 # max = 133
16634		 # 	collision with: 4 4 0 0  and 4 0 1 0 
 # max = 133
16639		 # 	collision with: 4 4 0 0  and 1 4 1 0 
 # max = 133
16644		 # 	collision with: 2 4 0 0  and 3 4 0 0 
 # max = 133
16657		 # 	collision with: 1 1 0 0  and 0 3 0 0 
 # max = 133
16659		 # 	collision with: 4 0 0 0  and 4 1 1 0 
 # max = 133
16665		 # 	collision with: 1 1 0 0  and 2 3 0 0 
 # max = 133
16676		 # 	collision with: 0 1 0 0  and 1 1 0 0 
 # max = 133
16678		 # 	collision with: 4 1 1 0  and 4 3 1 0 
 # max = 133
16685		 # 	collision with: 1 1 0 0  and 2 3 0 0 
 # max = 133
16688		 # 	collision with: 1 2 0 0  and 3 2 0 0 
 # max = 133
16690		 # 	collision with: 1 0 1 0  and 2 0 1 0 
 # max = 133
16700		 # 	collision with: 2 4 2 0  and 0 1 0 1 
 # max = 133
16702		 # 	collision with: 3 0 0 0  and 1 3 1 0 
 # max = 133
16704		 # 	collision with: 0 3 0 0  and 2 3 0 0 
 # max = 133
16706		 # 	collision with: 4 3 1 0  and 2 1 2 0 
 # max = 133
16708		 # 	collision with: 2 4 0 0  and 3 4 0 0 
 # max = 133
16712		 # 	collision with: 0 1 0 0  and 1 1 0 0 
 # max = 133
16714		 # 	collision with: 4 2 0 0  and 2 1 1 0 
 # max = 133
16716		 # 	collision with: 1 2 0 0  and 3 2 0 0 
 # max = 133
16718		 # 	collision with: 4 0 0 0  and 2 1 1 0 
 # max = 133
16732		 # 	collision with: 0 1 0 0  and 1 1 0 0 
 # max = 133
16734		 # 	collision with: 4 0 1 0  and 4 2 1 0 
 # max = 133
16737		 # 	collision with: 0 0 0 0  and 3 0 0 0 
 # max = 133
16739		 # 	collision with: 4 1 1 0  and 4 3 1 0 
 # max = 133
16746		 # 	collision with: 4 1 0 0  and 4 1 1 0 
 # max = 133
16759		 # 	collision with: 2 3 0 0  and 3 2 1 0 
 # max = 133
16765		 # 	collision with: 0 0 0 0  and 3 0 0 0 
 # max = 133
16767		 # 	collision with: 4 4 0 0  and 4 0 1 0 
 # max = 133
16776		 # 	collision with: 1 2 0 0  and 3 2 0 0 
 # max = 133
16778		 # 	collision with: 4 0 2 0  and 4 2 2 0 
 # max = 133
16785		 # 	collision with: 0 0 0 0  and 3 0 0 0 
 # max = 133
16787		 # 	collision with: 2 4 1 0  and 3 4 1 0 
 # max = 133
16788		 # 	collision with: 2 4 0 0  and 3 4 0 0 
 # max = 133
1.00586secs	133 790
