# prime 5
# degree 2
# input variables 3
# output variables 7
# reload computed balance functions from file balance-129of261-p5d2m3-debug.log
# p = 5
# n = 7
# smalldomain p^m 125
# domain p^n 78125
#	 p^2 = 25
#	 p^3 = 125
#	 p^4 = 625
#	 p^5 = 3125
#	 p^6 = 15625
#	 p^7 = 78125
#	 p^8 = 390625
#	 p^9 = 1953125
opening file : balance-129of261-p5d2m3-debug.log
reloading for step2...
154800		 # 	collision with: 3 1 4 4 2 0 0  and 0 1 0 0 0 1 0 
 # max = 3130
154802		 # 	collision with: 1 1 0 1 2 0 0  and 2 0 1 0 0 1 0 
 # max = 3152
154824		 # 	collision with: 4 1 2 0 0 0 0  and 4 2 2 0 0 0 0 
 # max = 3152
154828		 # 	collision with: 2 3 1 0 0 0 0  and 3 3 1 0 0 0 0 
 # max = 3152
154830		 # 	collision with: 0 0 2 0 0 0 0  and 2 0 2 0 0 0 0 
 # max = 3152
154841		 # 	collision with: 1 3 0 0 0 0 0  and 1 4 0 0 0 0 0 
 # max = 3152
154843		 # 	collision with: 0 0 0 0 0 0 0  and 2 0 0 0 0 0 0 
 # max = 3152
154845		 # 	collision with: 3 0 1 0 0 0 0  and 3 1 1 0 0 0 0 
 # max = 3152
154847		 # 	collision with: 0 0 0 0 0 0 0  and 2 0 0 0 0 0 0 
 # max = 3152
154848		 # 	collision with: 3 0 1 0 0 0 0  and 2 2 1 0 0 0 0 
 # max = 3152
154850		 # 	collision with: 0 0 1 0 0 0 0  and 2 0 1 0 0 0 0 
 # max = 3152
154858		 # 	collision with: 0 0 1 0 0 0 0  and 2 0 1 0 0 0 0 
 # max = 3152
154861		 # 	collision with: 1 3 0 0 0 0 0  and 1 4 0 0 0 0 0 
 # max = 3152
154864		 # 	collision with: 4 1 2 0 0 0 0  and 4 2 2 0 0 0 0 
 # max = 3152
154866		 # 	collision with: 2 0 2 0 0 0 0  and 2 1 2 0 0 0 0 
 # max = 3152
154874		 # 	collision with: 0 0 4 0 0 0 0  and 2 0 4 0 0 0 0 
 # max = 3152
154877		 # 	collision with: 2 3 0 0 0 0 0  and 3 3 0 0 0 0 0 
 # max = 3152
154879		 # 	collision with: 0 0 0 0 0 0 0  and 2 0 0 0 0 0 0 
 # max = 3152
154892		 # 	collision with: 2 3 2 0 0 0 0  and 3 3 2 0 0 0 0 
 # max = 3152
154894		 # 	collision with: 0 0 3 0 0 0 0  and 2 0 3 0 0 0 0 
 # max = 3152
154896		 # 	collision with: 2 3 0 0 0 0 0  and 3 3 0 0 0 0 0 
 # max = 3152
154898		 # 	collision with: 0 0 3 0 0 0 0  and 2 0 3 0 0 0 0 
 # max = 3152
154900		 # 	collision with: 1 2 0 0 4 0 0  and 3 4 3 0 0 1 0 
 # max = 3223
154902		 # 	collision with: 2 3 0 4 4 0 0  and 3 3 1 0 0 1 0 
 # max = 3223
154924		 # 	collision with: 3 0 1 0 0 0 0  and 3 1 1 0 0 0 0 
 # max = 3223
154926		 # 	collision with: 0 0 1 0 0 0 0  and 2 0 1 0 0 0 0 
 # max = 3223
154930		 # 	collision with: 0 0 1 0 0 0 0  and 2 0 1 0 0 0 0 
 # max = 3223
154941		 # 	collision with: 1 3 0 0 0 0 0  and 4 0 1 0 0 0 0 
 # max = 3223
154943		 # 	collision with: 3 3 0 0 0 0 0  and 4 0 1 0 0 0 0 
 # max = 3223
154948		 # 	collision with: 2 3 0 0 0 0 0  and 3 3 0 0 0 0 0 
 # max = 3223
154950		 # 	collision with: 0 0 3 0 0 0 0  and 2 0 3 0 0 0 0 
 # max = 3223
154956		 # 	collision with: 2 3 2 0 0 0 0  and 3 3 2 0 0 0 0 
 # max = 3223
154958		 # 	collision with: 0 0 3 0 0 0 0  and 2 0 3 0 0 0 0 
 # max = 3223
154963		 # 	collision with: 3 3 0 0 0 0 0  and 3 0 1 0 0 0 0 
 # max = 3223
154964		 # 	collision with: 3 0 1 0 0 0 0  and 3 1 1 0 0 0 0 
 # max = 3223
154966		 # 	collision with: 1 1 1 0 0 0 0  and 1 3 1 0 0 0 0 
 # max = 3223
154972		 # 	collision with: 1 0 2 0 0 0 0  and 1 2 2 0 0 0 0 
 # max = 3223
154977		 # 	collision with: 3 0 0 0 0 0 0  and 3 1 1 0 0 0 0 
 # max = 3223
154979		 # 	collision with: 2 1 0 0 0 0 0  and 2 1 1 0 0 0 0 
 # max = 3223
154992		 # 	collision with: 1 0 2 0 0 0 0  and 1 2 2 0 0 0 0 
 # max = 3223
154994		 # 	collision with: 2 0 2 0 0 0 0  and 0 2 2 0 0 0 0 
 # max = 3223
154998		 # 	collision with: 0 0 4 0 0 0 0  and 2 0 4 0 0 0 0 
 # max = 3223
155020		 # 	collision with: 2 4 0 0 0 0 0  and 3 4 0 0 0 0 0 
 # max = 3223
155022		 # 	collision with: 0 4 0 0 0 0 0  and 2 4 0 0 0 0 0 
 # max = 3223
155024		 # 	collision with: 2 0 0 0 0 0 0  and 3 1 0 0 0 0 0 
 # max = 3223
155026		 # 	collision with: 4 0 0 0 0 0 0  and 3 2 0 0 0 0 0 
 # max = 3223
155040		 # 	collision with: 2 4 0 0 0 0 0  and 3 4 0 0 0 0 0 
 # max = 3223
155042		 # 	collision with: 0 4 0 0 0 0 0  and 2 4 0 0 0 0 0 
 # max = 3223
155048		 # 	collision with: 4 0 0 0 0 0 0  and 4 1 0 0 0 0 0 
 # max = 3223
155050		 # 	collision with: 4 1 0 0 0 0 0  and 4 2 0 0 0 0 0 
 # max = 3223
155053		 # 	collision with: 3 1 2 0 0 0 0  and 2 0 3 0 0 0 0 
 # max = 3223
155057		 # 	collision with: 4 0 1 0 0 0 0  and 4 1 1 0 0 0 0 
 # max = 3223
155059		 # 	collision with: 2 2 0 0 0 0 0  and 2 3 0 0 0 0 0 
 # max = 3223
155060		 # 	collision with: 2 4 0 0 0 0 0  and 3 4 0 0 0 0 0 
 # max = 3223
155062		 # 	collision with: 0 4 0 0 0 0 0  and 2 4 0 0 0 0 0 
 # max = 3223
155065		 # 	collision with: 1 1 1 0 0 0 0  and 1 3 1 0 0 0 0 
 # max = 3223
155067		 # 	collision with: 3 2 0 0 0 0 0  and 4 3 0 0 0 0 0 
 # max = 3223
155069		 # 	collision with: 3 2 2 0 0 0 0  and 3 0 3 0 0 0 0 
 # max = 3223
155072		 # 	collision with: 1 1 0 0 0 0 0  and 1 3 0 0 0 0 0 
 # max = 3223
155074		 # 	collision with: 3 2 0 0 0 0 0  and 4 3 0 0 0 0 0 
 # max = 3223
155080		 # 	collision with: 2 4 0 0 0 0 0  and 3 4 0 0 0 0 0 
 # max = 3223
155082		 # 	collision with: 0 4 0 0 0 0 0  and 2 4 0 0 0 0 0 
 # max = 3223
155096		 # 	collision with: 2 1 0 0 0 0 0  and 2 2 0 0 0 0 0 
 # max = 3223
155098		 # 	collision with: 2 2 0 0 0 0 0  and 2 3 0 0 0 0 0 
 # max = 3223
155100		 # 	collision with: 2 4 4 3 2 0 0  and 1 4 0 0 0 1 0 
 # max = 3223
155102		 # 	collision with: 4 0 1 4 2 0 0  and 0 1 0 0 0 1 0 
 # max = 3223
155124		 # 	collision with: 2 4 0 0 0 0 0  and 3 4 0 0 0 0 0 
 # max = 3223
155126		 # 	collision with: 0 4 0 0 0 0 0  and 2 4 0 0 0 0 0 
 # max = 3223
155140		 # 	collision with: 2 4 2 0 0 0 0  and 3 4 2 0 0 0 0 
 # max = 3223
155142		 # 	collision with: 0 4 2 0 0 0 0  and 2 4 2 0 0 0 0 
 # max = 3223
155148		 # 	collision with: 2 1 2 0 0 0 0  and 2 2 2 0 0 0 0 
 # max = 3223
155150		 # 	collision with: 2 2 2 0 0 0 0  and 2 3 2 0 0 0 0 
 # max = 3223
155155		 # 	collision with: 0 4 0 0 0 0 0  and 2 4 0 0 0 0 0 
 # max = 3223
155157		 # 	collision with: 3 1 0 0 0 0 0  and 2 3 0 0 0 0 0 
 # max = 3223
155160		 # 	collision with: 2 4 3 0 0 0 0  and 3 4 3 0 0 0 0 
 # max = 3223
155162		 # 	collision with: 0 4 3 0 0 0 0  and 2 4 3 0 0 0 0 
 # max = 3223
155167		 # 	collision with: 3 1 0 0 0 0 0  and 3 3 0 0 0 0 0 
 # max = 3223
155169		 # 	collision with: 3 0 1 0 0 0 0  and 3 2 1 0 0 0 0 
 # max = 3223
155171		 # 	collision with: 2 2 2 0 0 0 0  and 2 3 2 0 0 0 0 
 # max = 3223
155172		 # 	collision with: 4 0 3 0 0 0 0  and 4 1 3 0 0 0 0 
 # max = 3223
155180		 # 	collision with: 2 4 1 0 0 0 0  and 3 4 1 0 0 0 0 
 # max = 3223
155182		 # 	collision with: 0 4 1 0 0 0 0  and 2 4 1 0 0 0 0 
 # max = 3223
155198		 # 	collision with: 4 1 1 0 0 0 0  and 4 2 1 0 0 0 0 
 # max = 3223
155200		 # 	collision with: 0 4 4 0 1 0 0  and 3 3 0 0 0 1 0 
 # max = 3223
155202		 # 	collision with: 1 2 0 3 1 0 0  and 3 0 0 0 0 1 0 
 # max = 3223
155220		 # 	collision with: 2 4 3 0 0 0 0  and 3 4 3 0 0 0 0 
 # max = 3223
155222		 # 	collision with: 0 4 3 0 0 0 0  and 2 4 3 0 0 0 0 
 # max = 3223
155224		 # 	collision with: 2 1 3 0 0 0 0  and 2 2 3 0 0 0 0 
 # max = 3223
155248		 # 	collision with: 2 4 0 0 0 0 0  and 3 4 0 0 0 0 0 
 # max = 3223
155250		 # 	collision with: 0 4 0 0 0 0 0  and 2 4 0 0 0 0 0 
 # max = 3223
155253		 # 	collision with: 1 1 1 0 0 0 0  and 1 1 2 0 0 0 0 
 # max = 3223
155255		 # 	collision with: 2 2 1 0 0 0 0  and 2 3 1 0 0 0 0 
 # max = 3223
155257		 # 	collision with: 2 1 0 0 0 0 0  and 2 2 0 0 0 0 0 
 # max = 3223
155259		 # 	collision with: 0 4 0 0 0 0 0  and 2 4 0 0 0 0 0 
 # max = 3223
155260		 # 	collision with: 2 4 1 0 0 0 0  and 3 4 1 0 0 0 0 
 # max = 3223
155262		 # 	collision with: 0 4 1 0 0 0 0  and 2 4 1 0 0 0 0 
 # max = 3223
155265		 # 	collision with: 4 0 2 0 0 0 0  and 4 1 2 0 0 0 0 
 # max = 3223
155267		 # 	collision with: 4 3 1 0 0 0 0  and 4 3 2 0 0 0 0 
 # max = 3223
155269		 # 	collision with: 2 4 0 0 0 0 0  and 3 4 0 0 0 0 0 
 # max = 3223
155271		 # 	collision with: 4 1 0 0 0 0 0  and 4 2 0 0 0 0 0 
 # max = 3223
155274		 # 	collision with: 2 2 1 0 0 0 0  and 2 3 1 0 0 0 0 
 # max = 3223
155280		 # 	collision with: 2 4 2 0 0 0 0  and 3 4 2 0 0 0 0 
 # max = 3223
155282		 # 	collision with: 0 4 2 0 0 0 0  and 2 4 2 0 0 0 0 
 # max = 3223
155296		 # 	collision with: 1 1 2 0 0 0 0  and 1 3 2 0 0 0 0 
 # max = 3223
155298		 # 	collision with: 1 0 2 0 0 0 0  and 1 1 2 0 0 0 0 
 # max = 3223
155300		 # 	collision with: 3 4 1 3 4 0 0  and 0 1 0 0 0 1 0 
 # max = 3223
155302		 # 	collision with: 1 1 3 0 4 0 0  and 2 3 0 0 0 1 0 
 # max = 3223
155320		 # 	collision with: 2 4 2 0 0 0 0  and 3 4 2 0 0 0 0 
 # max = 3223
155322		 # 	collision with: 0 4 2 0 0 0 0  and 2 4 2 0 0 0 0 
 # max = 3223
155324		 # 	collision with: 4 0 2 0 0 0 0  and 4 1 2 0 0 0 0 
 # max = 3223
155326		 # 	collision with: 4 1 2 0 0 0 0  and 4 2 2 0 0 0 0 
 # max = 3223
155340		 # 	collision with: 2 4 1 0 0 0 0  and 3 4 1 0 0 0 0 
 # max = 3223
155342		 # 	collision with: 0 4 1 0 0 0 0  and 2 4 1 0 0 0 0 
 # max = 3223
155350		 # 	collision with: 4 0 1 0 0 0 0  and 3 2 1 0 0 0 0 
 # max = 3223
155353		 # 	collision with: 2 4 0 0 0 0 0  and 3 4 0 0 0 0 0 
 # max = 3223
155355		 # 	collision with: 4 1 0 0 0 0 0  and 4 1 2 0 0 0 0 
 # max = 3223
155357		 # 	collision with: 3 3 0 0 0 0 0  and 2 4 0 0 0 0 0 
 # max = 3223
155359		 # 	collision with: 4 1 1 0 0 0 0  and 4 2 1 0 0 0 0 
 # max = 3223
155365		 # 	collision with: 3 0 0 0 0 0 0  and 3 2 0 0 0 0 0 
 # max = 3223
155367		 # 	collision with: 4 0 0 0 0 0 0  and 3 2 0 0 0 0 0 
 # max = 3223
155369		 # 	collision with: 2 1 2 0 0 0 0  and 2 2 2 0 0 0 0 
 # max = 3223
155371		 # 	collision with: 2 4 0 0 0 0 0  and 0 4 2 0 0 0 0 
 # max = 3223
155372		 # 	collision with: 2 4 0 0 0 0 0  and 3 4 0 0 0 0 0 
 # max = 3223
155374		 # 	collision with: 0 4 0 0 0 0 0  and 2 4 0 0 0 0 0 
 # max = 3223
155380		 # 	collision with: 2 4 3 0 0 0 0  and 3 4 3 0 0 0 0 
 # max = 3223
155382		 # 	collision with: 0 4 3 0 0 0 0  and 2 4 3 0 0 0 0 
 # max = 3223
155396		 # 	collision with: 2 0 3 0 0 0 0  and 3 1 3 0 0 0 0 
 # max = 3223
155400		 # 	collision with: 1 2 0 4 3 0 0  and 2 0 0 0 0 1 0 
 # max = 3223
155402		 # 	collision with: 0 2 0 3 3 0 0  and 3 1 0 0 0 1 0 
 # max = 3223
155420		 # 	collision with: 2 4 1 0 0 0 0  and 3 4 1 0 0 0 0 
 # max = 3223
155422		 # 	collision with: 0 4 1 0 0 0 0  and 2 4 1 0 0 0 0 
 # max = 3223
155426		 # 	collision with: 1 0 1 0 0 0 0  and 1 1 1 0 0 0 0 
 # max = 3223
155440		 # 	collision with: 2 4 3 0 0 0 0  and 3 4 3 0 0 0 0 
 # max = 3223
155442		 # 	collision with: 0 4 3 0 0 0 0  and 2 4 3 0 0 0 0 
 # max = 3223
155448		 # 	collision with: 1 1 3 0 0 0 0  and 1 3 3 0 0 0 0 
 # max = 3223
155453		 # 	collision with: 2 0 0 0 0 0 0  and 3 1 0 0 0 0 0 
 # max = 3223
155455		 # 	collision with: 1 2 0 0 0 0 0  and 1 4 0 0 0 0 0 
 # max = 3223
155459		 # 	collision with: 0 3 0 0 0 0 0  and 2 1 1 0 0 0 0 
 # max = 3223
155460		 # 	collision with: 2 4 2 0 0 0 0  and 3 4 2 0 0 0 0 
 # max = 3223
155462		 # 	collision with: 0 4 2 0 0 0 0  and 2 4 2 0 0 0 0 
 # max = 3223
155465		 # 	collision with: 4 3 0 0 0 0 0  and 4 3 1 0 0 0 0 
 # max = 3223
155471		 # 	collision with: 3 4 0 0 0 0 0  and 3 0 1 0 0 0 0 
 # max = 3223
155472		 # 	collision with: 2 0 2 0 0 0 0  and 3 1 2 0 0 0 0 
 # max = 3223
155474		 # 	collision with: 4 0 2 0 0 0 0  and 3 2 2 0 0 0 0 
 # max = 3223
155496		 # 	collision with: 2 4 0 0 0 0 0  and 3 4 0 0 0 0 0 
 # max = 3223
155498		 # 	collision with: 0 4 0 0 0 0 0  and 2 4 0 0 0 0 0 
 # max = 3223
155528		 # 	collision with: 3 0 0 0 0 0 0  and 3 2 0 0 0 0 0 
 # max = 3223
155536		 # 	collision with: 2 0 0 0 0 0 0  and 3 1 0 0 0 0 0 
 # max = 3223
155538		 # 	collision with: 4 0 0 0 0 0 0  and 3 1 0 0 0 0 0 
 # max = 3223
155541		 # 	collision with: 2 4 0 0 0 0 0  and 3 4 0 0 0 0 0 
 # max = 3223
155543		 # 	collision with: 3 4 2 0 0 0 0  and 4 2 3 0 0 0 0 
 # max = 3223
155549		 # 	collision with: 2 4 1 0 0 0 0  and 3 4 1 0 0 0 0 
 # max = 3223
155551		 # 	collision with: 2 2 0 0 0 0 0  and 0 3 0 0 0 0 0 
 # max = 3223
155552		 # 	collision with: 4 0 0 0 0 0 0  and 4 1 0 0 0 0 0 
 # max = 3223
155554		 # 	collision with: 3 0 0 0 0 0 0  and 4 1 0 0 0 0 0 
 # max = 3223
155556		 # 	collision with: 2 0 0 0 0 0 0  and 3 1 0 0 0 0 0 
 # max = 3223
155561		 # 	collision with: 2 4 0 0 0 0 0  and 3 4 0 0 0 0 0 
 # max = 3223
155563		 # 	collision with: 0 3 1 0 0 0 0  and 2 3 1 0 0 0 0 
 # max = 3223
155564		 # 	collision with: 3 1 0 0 0 0 0  and 2 3 0 0 0 0 0 
 # max = 3223
155568		 # 	collision with: 3 0 0 0 0 0 0  and 3 2 0 0 0 0 0 
 # max = 3223
155570		 # 	collision with: 3 1 0 0 0 0 0  and 4 3 0 0 0 0 0 
 # max = 3223
155573		 # 	collision with: 3 0 1 0 0 0 0  and 3 2 1 0 0 0 0 
 # max = 3223
155575		 # 	collision with: 3 1 2 0 0 0 0  and 4 3 2 0 0 0 0 
 # max = 3223
155584		 # 	collision with: 3 1 0 0 0 0 0  and 2 3 0 0 0 0 0 
 # max = 3223
155586		 # 	collision with: 0 0 0 0 0 0 0  and 2 1 0 0 0 0 0 
 # max = 3223
155592		 # 	collision with: 4 0 0 0 0 0 0  and 4 1 0 0 0 0 0 
 # max = 3223
155600		 # 	collision with: 2 3 2 2 3 0 0  and 4 2 0 0 0 1 0 
 # max = 3223
155602		 # 	collision with: 3 0 3 3 3 0 0  and 2 1 2 0 0 1 0 
 # max = 3223
155628		 # 	collision with: 2 4 1 0 0 0 0  and 3 4 1 0 0 0 0 
 # max = 3223
155630		 # 	collision with: 4 0 2 0 0 0 0  and 3 1 2 0 0 0 0 
 # max = 3223
155636		 # 	collision with: 2 1 1 0 0 0 0  and 2 2 1 0 0 0 0 
 # max = 3223
155638		 # 	collision with: 4 0 1 0 0 0 0  and 3 1 1 0 0 0 0 
 # max = 3223
155641		 # 	collision with: 1 1 2 0 0 0 0  and 1 3 2 0 0 0 0 
 # max = 3223
155643		 # 	collision with: 3 1 0 0 0 0 0  and 4 3 0 0 0 0 0 
 # max = 3223
155649		 # 	collision with: 2 1 3 0 0 0 0  and 2 2 3 0 0 0 0 
 # max = 3223
155651		 # 	collision with: 2 2 2 0 0 0 0  and 2 3 2 0 0 0 0 
 # max = 3223
155652		 # 	collision with: 2 4 1 0 0 0 0  and 3 4 1 0 0 0 0 
 # max = 3223
155658		 # 	collision with: 0 3 1 0 0 0 0  and 2 3 1 0 0 0 0 
 # max = 3223
155661		 # 	collision with: 1 1 2 0 0 0 0  and 1 3 2 0 0 0 0 
 # max = 3223
155664		 # 	collision with: 2 4 0 0 0 0 0  and 3 4 0 0 0 0 0 
 # max = 3223
155666		 # 	collision with: 0 3 2 0 0 0 0  and 2 3 2 0 0 0 0 
 # max = 3223
155670		 # 	collision with: 0 3 1 0 0 0 0  and 2 3 1 0 0 0 0 
 # max = 3223
155673		 # 	collision with: 3 1 0 0 0 0 0  and 2 3 0 0 0 0 0 
 # max = 3223
155675		 # 	collision with: 3 1 0 0 0 0 0  and 3 3 0 0 0 0 0 
 # max = 3223
155684		 # 	collision with: 2 4 0 0 0 0 0  and 3 4 0 0 0 0 0 
 # max = 3223
155686		 # 	collision with: 0 3 4 0 0 0 0  and 2 3 4 0 0 0 0 
 # max = 3223
155692		 # 	collision with: 1 1 3 0 0 0 0  and 1 3 3 0 0 0 0 
 # max = 3223
155694		 # 	collision with: 0 3 0 0 0 0 0  and 2 3 0 0 0 0 0 
 # max = 3223
155700		 # 	collision with: 0 2 1 4 4 0 0  and 3 1 0 0 0 1 0 
 # max = 3223
155702		 # 	collision with: 0 1 2 2 4 0 0  and 1 0 2 0 0 1 0 
 # max = 3223
155728		 # 	collision with: 2 4 0 0 0 0 0  and 3 4 0 0 0 0 0 
 # max = 3223
155730		 # 	collision with: 0 3 2 0 0 0 0  and 2 3 2 0 0 0 0 
 # max = 3223
155738		 # 	collision with: 0 3 1 0 0 0 0  and 2 3 1 0 0 0 0 
 # max = 3223
155741		 # 	collision with: 2 1 0 0 0 0 0  and 2 2 0 0 0 0 0 
 # max = 3223
155743		 # 	collision with: 4 1 0 0 0 0 0  and 4 2 0 0 0 0 0 
 # max = 3223
155752		 # 	collision with: 3 0 1 0 0 0 0  and 3 2 1 0 0 0 0 
 # max = 3223
155754		 # 	collision with: 4 0 1 0 0 0 0  and 3 1 1 0 0 0 0 
 # max = 3223
155756		 # 	collision with: 2 4 1 0 0 0 0  and 3 4 1 0 0 0 0 
 # max = 3223
155758		 # 	collision with: 2 0 2 0 0 0 0  and 0 1 2 0 0 0 0 
 # max = 3223
155763		 # 	collision with: 4 1 0 0 0 0 0  and 4 2 0 0 0 0 0 
 # max = 3223
155764		 # 	collision with: 2 4 3 0 0 0 0  and 3 4 3 0 0 0 0 
 # max = 3223
155766		 # 	collision with: 0 3 0 0 0 0 0  and 2 3 0 0 0 0 0 
 # max = 3223
155768		 # 	collision with: 2 4 0 0 0 0 0  and 3 4 0 0 0 0 0 
 # max = 3223
155770		 # 	collision with: 0 3 4 0 0 0 0  and 2 3 4 0 0 0 0 
 # max = 3223
155773		 # 	collision with: 3 0 1 0 0 0 0  and 3 0 2 0 0 0 0 
 # max = 3223
155775		 # 	collision with: 2 2 1 0 0 0 0  and 2 3 1 0 0 0 0 
 # max = 3223
155784		 # 	collision with: 2 4 1 0 0 0 0  and 3 4 1 0 0 0 0 
 # max = 3223
155794		 # 	collision with: 2 2 1 0 0 0 0  and 0 3 1 0 0 0 0 
 # max = 3223
155800		 # 	collision with: 2 0 4 3 1 0 0  and 0 2 0 0 0 1 0 
 # max = 3223
155802		 # 	collision with: 1 0 1 0 1 0 0  and 2 0 2 0 0 1 0 
 # max = 3223
155830		 # 	collision with: 2 1 1 0 0 0 0  and 0 2 1 0 0 0 0 
 # max = 3223
155836		 # 	collision with: 2 4 1 0 0 0 0  and 3 4 1 0 0 0 0 
 # max = 3223
155843		 # 	collision with: 0 3 0 0 0 0 0  and 2 3 0 0 0 0 0 
 # max = 3223
155849		 # 	collision with: 3 0 0 0 0 0 0  and 3 2 0 0 0 0 0 
 # max = 3223
155851		 # 	collision with: 2 4 0 0 0 0 0  and 0 0 2 0 0 0 0 
 # max = 3223
155852		 # 	collision with: 2 4 0 0 0 0 0  and 3 4 0 0 0 0 0 
 # max = 3223
155854		 # 	collision with: 2 1 4 0 0 0 0  and 0 2 4 0 0 0 0 
 # max = 3223
155856		 # 	collision with: 2 0 3 0 0 0 0  and 3 1 3 0 0 0 0 
 # max = 3223
155858		 # 	collision with: 0 3 0 0 0 0 0  and 2 3 0 0 0 0 0 
 # max = 3223
155861		 # 	collision with: 1 0 1 0 0 0 0  and 4 2 1 0 0 0 0 
 # max = 3223
155863		 # 	collision with: 0 3 0 0 0 0 0  and 2 3 0 0 0 0 0 
 # max = 3223
155864		 # 	collision with: 2 4 1 0 0 0 0  and 3 4 1 0 0 0 0 
 # max = 3223
155866		 # 	collision with: 3 0 2 0 0 0 0  and 4 1 2 0 0 0 0 
 # max = 3223
155868		 # 	collision with: 1 1 1 0 0 0 0  and 1 3 1 0 0 0 0 
 # max = 3223
155870		 # 	collision with: 4 0 1 0 0 0 0  and 3 1 1 0 0 0 0 
 # max = 3223
155886		 # 	collision with: 0 3 1 0 0 0 0  and 2 3 1 0 0 0 0 
 # max = 3223
155892		 # 	collision with: 2 4 0 0 0 0 0  and 3 4 0 0 0 0 0 
 # max = 3223
155894		 # 	collision with: 0 3 2 0 0 0 0  and 2 3 2 0 0 0 0 
 # max = 3223
155900		 # 	collision with: 1 2 0 1 2 0 0  and 3 0 0 0 0 1 0 
 # max = 3223
155902		 # 	collision with: 0 0 0 1 2 0 0  and 3 0 1 1 0 1 0 
 # max = 3278
155928		 # 	collision with: 2 1 3 0 0 0 0  and 2 2 3 0 0 0 0 
 # max = 3278
155930		 # 	collision with: 0 3 0 0 0 0 0  and 2 3 0 0 0 0 0 
 # max = 3278
155936		 # 	collision with: 2 4 0 0 0 0 0  and 3 4 0 0 0 0 0 
 # max = 3278
155938		 # 	collision with: 2 0 4 0 0 0 0  and 0 1 4 0 0 0 0 
 # max = 3278
155941		 # 	collision with: 4 0 1 0 0 0 0  and 4 1 1 0 0 0 0 
 # max = 3278
155949		 # 	collision with: 3 1 0 0 0 0 0  and 3 1 1 0 0 0 0 
 # max = 3278
155951		 # 	collision with: 1 2 0 0 0 0 0  and 1 4 0 0 0 0 0 
 # max = 3278
155954		 # 	collision with: 0 3 1 0 0 0 0  and 2 3 1 0 0 0 0 
 # max = 3278
155956		 # 	collision with: 2 4 0 0 0 0 0  and 3 4 0 0 0 0 0 
 # max = 3278
155958		 # 	collision with: 0 3 2 0 0 0 0  and 2 3 2 0 0 0 0 
 # max = 3278
155961		 # 	collision with: 4 0 1 0 0 0 0  and 4 1 1 0 0 0 0 
 # max = 3278
155963		 # 	collision with: 0 0 0 0 0 0 0  and 2 1 0 0 0 0 0 
 # max = 3278
155966		 # 	collision with: 0 3 1 0 0 0 0  and 2 3 1 0 0 0 0 
 # max = 3278
155968		 # 	collision with: 2 4 1 0 0 0 0  and 3 4 1 0 0 0 0 
 # max = 3278
155973		 # 	collision with: 4 0 0 0 0 0 0  and 4 1 0 0 0 0 0 
 # max = 3278
155975		 # 	collision with: 0 3 0 0 0 0 0  and 2 3 0 0 0 0 0 
 # max = 3278
155984		 # 	collision with: 2 4 3 0 0 0 0  and 3 4 3 0 0 0 0 
 # max = 3278
155986		 # 	collision with: 4 0 1 0 0 0 0  and 3 1 1 0 0 0 0 
 # max = 3278
155992		 # 	collision with: 2 4 1 0 0 0 0  and 3 4 1 0 0 0 0 
 # max = 3278
155994		 # 	collision with: 1 0 2 0 0 0 0  and 1 1 2 0 0 0 0 
 # max = 3278
18.4248secs	3278 8107
