# prime 5
# degree 2
# input variables 3
# output variables 5
# reload computed balance functions from file balance-192of261-p5d2m3-debug.log
# p = 5
# n = 5
# smalldomain p^m 125
# domain p^n 3125
#	 p^2 = 25
#	 p^3 = 125
#	 p^4 = 625
#	 p^5 = 3125
#	 p^6 = 15625
#	 p^7 = 78125
#	 p^8 = 390625
#	 p^9 = 1953125
opening file : balance-192of261-p5d2m3-debug.log
reloading for step2...
230400		 # 	collision with: 3 2 3 0 0  and 1 1 1 1 0 
 # max = 156
230402		 # 	collision with: 1 1 0 0 0  and 3 0 3 1 0 
 # max = 203
230425		 # 	collision with: 2 1 0 0 0  and 3 1 0 0 0 
 # max = 203
230427		 # 	collision with: 2 2 0 0 0  and 2 2 1 0 0 
 # max = 203
230433		 # 	collision with: 4 3 0 0 0  and 1 1 1 0 0 
 # max = 203
230435		 # 	collision with: 1 1 0 0 0  and 2 1 0 0 0 
 # max = 203
230436		 # 	collision with: 2 1 2 0 0  and 3 1 2 0 0 
 # max = 203
230438		 # 	collision with: 1 1 2 0 0  and 2 1 2 0 0 
 # max = 203
230440		 # 	collision with: 2 1 3 0 0  and 3 1 3 0 0 
 # max = 203
230442		 # 	collision with: 1 1 3 0 0  and 2 1 3 0 0 
 # max = 203
230452		 # 	collision with: 1 0 2 0 0  and 1 1 2 0 0 
 # max = 203
230454		 # 	collision with: 3 0 2 0 0  and 0 2 2 0 0 
 # max = 203
230460		 # 	collision with: 2 1 2 0 0  and 3 1 2 0 0 
 # max = 203
230462		 # 	collision with: 1 1 2 0 0  and 2 1 2 0 0 
 # max = 203
230468		 # 	collision with: 2 1 3 0 0  and 3 1 3 0 0 
 # max = 203
230480		 # 	collision with: 2 1 4 0 0  and 3 1 4 0 0 
 # max = 203
230482		 # 	collision with: 1 1 4 0 0  and 2 1 4 0 0 
 # max = 203
230486		 # 	collision with: 1 1 0 0 0  and 2 1 0 0 0 
 # max = 203
230489		 # 	collision with: 1 2 0 0 0  and 1 4 0 0 0 
 # max = 203
230491		 # 	collision with: 1 1 0 0 0  and 1 1 1 0 0 
 # max = 203
230497		 # 	collision with: 3 2 0 0 0  and 2 1 1 0 0 
 # max = 203
230499		 # 	collision with: 3 0 0 0 0  and 3 1 0 0 0 
 # max = 203
230505		 # 	collision with: 1 3 1 0 0  and 3 1 1 1 0 
 # max = 203
230507		 # 	collision with: 1 2 0 0 0  and 2 2 0 0 0 
 # max = 203
230517		 # 	collision with: 1 0 1 0 0  and 1 1 1 0 0 
 # max = 203
230519		 # 	collision with: 4 0 2 0 0  and 4 2 2 0 0 
 # max = 203
230545		 # 	collision with: 1 1 1 0 0  and 4 3 1 0 0 
 # max = 203
230547		 # 	collision with: 1 2 0 0 0  and 2 2 0 0 0 
 # max = 203
230549		 # 	collision with: 1 0 2 0 0  and 1 1 2 0 0 
 # max = 203
230551		 # 	collision with: 0 1 1 0 0  and 3 2 1 0 0 
 # max = 203
230573		 # 	collision with: 1 4 2 0 0  and 1 2 3 0 0 
 # max = 203
230575		 # 	collision with: 1 2 2 0 0  and 2 2 2 0 0 
 # max = 203
230577		 # 	collision with: 1 0 1 0 0  and 1 1 1 0 0 
 # max = 203
230579		 # 	collision with: 4 0 2 0 0  and 4 2 2 0 0 
 # max = 203
230600		 # 	collision with: 4 0 2 0 0  and 3 3 3 1 0 
 # max = 218
230602		 # 	collision with: 3 0 4 0 0  and 2 4 0 1 0 
 # max = 218
230607		 # 	collision with: 4 0 3 0 0  and 3 1 1 1 0 
 # max = 218
230617		 # 	collision with: 2 1 0 0 0  and 3 1 0 0 0 
 # max = 218
230619		 # 	collision with: 1 2 1 0 0  and 2 3 1 0 0 
 # max = 218
230645		 # 	collision with: 2 1 1 0 0  and 3 2 1 0 0 
 # max = 218
230649		 # 	collision with: 4 1 0 0 0  and 4 3 0 0 0 
 # max = 218
230651		 # 	collision with: 1 2 1 0 0  and 2 2 1 0 0 
 # max = 218
230673		 # 	collision with: 1 1 0 0 0  and 4 3 0 0 0 
 # max = 218
230675		 # 	collision with: 1 2 0 0 0  and 2 2 0 0 0 
 # max = 218
230677		 # 	collision with: 2 1 0 0 0  and 3 1 0 0 0 
 # max = 218
230679		 # 	collision with: 1 2 1 0 0  and 2 2 1 0 0 
 # max = 218
230700		 # 	collision with: 0 2 2 0 0  and 1 3 0 1 0 
 # max = 218
230702		 # 	collision with: 4 0 4 0 0  and 3 0 2 1 0 
 # max = 218
230705		 # 	collision with: 1 4 4 0 0  and 0 0 0 1 0 
 # max = 218
230717		 # 	collision with: 4 1 1 0 0  and 4 3 1 0 0 
 # max = 218
230719		 # 	collision with: 0 1 0 0 0  and 3 2 0 0 0 
 # max = 218
230747		 # 	collision with: 2 0 2 0 0  and 1 1 2 0 0 
 # max = 218
230749		 # 	collision with: 1 2 1 0 0  and 1 2 2 0 0 
 # max = 218
230751		 # 	collision with: 2 2 1 0 0  and 1 2 2 0 0 
 # max = 218
230777		 # 	collision with: 4 1 1 0 0  and 4 3 1 0 0 
 # max = 218
230779		 # 	collision with: 0 1 0 0 0  and 3 2 0 0 0 
 # max = 218
230800		 # 	collision with: 0 2 3 0 0  and 3 2 0 1 0 
 # max = 218
230802		 # 	collision with: 0 3 3 0 0  and 4 1 0 1 0 
 # max = 218
230805		 # 	collision with: 2 2 1 0 0  and 1 4 0 1 0 
 # max = 218
230807		 # 	collision with: 1 1 1 0 0  and 0 0 0 1 0 
 # max = 218
230817		 # 	collision with: 3 1 1 0 0  and 3 2 1 0 0 
 # max = 218
230845		 # 	collision with: 1 0 1 0 0  and 4 1 1 0 0 
 # max = 218
230847		 # 	collision with: 1 2 1 0 0  and 2 2 1 0 0 
 # max = 218
230873		 # 	collision with: 3 0 0 0 0  and 3 0 2 0 0 
 # max = 218
230875		 # 	collision with: 1 2 1 0 0  and 2 2 1 0 0 
 # max = 218
230879		 # 	collision with: 1 2 2 0 0  and 2 2 2 0 0 
 # max = 218
230900		 # 	collision with: 2 0 3 0 0  and 1 4 2 1 0 
 # max = 218
230902		 # 	collision with: 1 3 2 0 0  and 0 3 1 1 0 
 # max = 218
230905		 # 	collision with: 2 1 0 0 0  and 3 1 0 0 0 
 # max = 218
230907		 # 	collision with: 1 4 1 0 0  and 1 0 1 1 0 
 # max = 218
230919		 # 	collision with: 1 2 0 0 0  and 2 2 0 0 0 
 # max = 218
230945		 # 	collision with: 2 1 0 0 0  and 3 1 0 0 0 
 # max = 218
230947		 # 	collision with: 2 1 0 0 0  and 2 1 1 0 0 
 # max = 218
230949		 # 	collision with: 3 1 0 0 0  and 3 2 1 0 0 
 # max = 218
230951		 # 	collision with: 3 0 0 0 0  and 3 1 0 0 0 
 # max = 218
230973		 # 	collision with: 2 1 1 0 0  and 3 1 1 0 0 
 # max = 218
230975		 # 	collision with: 2 0 0 0 0  and 1 1 0 0 0 
 # max = 218
230977		 # 	collision with: 2 0 1 0 0  and 2 2 1 0 0 
 # max = 218
231000		 # 	collision with: 2 1 0 0 0  and 3 1 0 0 0 
 # max = 218
231001		 # 	collision with: 2 1 0 0 0  and 3 1 0 0 0 
 # max = 218
231002		 # 	collision with: 3 0 0 0 0  and 3 1 0 0 0 
 # max = 218
231003		 # 	collision with: 2 2 0 0 0  and 1 3 0 0 0 
 # max = 218
231028		 # 	collision with: 3 1 0 0 0  and 3 2 0 0 0 
 # max = 218
231029		 # 	collision with: 2 1 1 0 0  and 3 2 1 0 0 
 # max = 218
231030		 # 	collision with: 1 1 0 0 0  and 2 2 0 0 0 
 # max = 218
231031		 # 	collision with: 1 3 1 0 0  and 2 3 1 0 0 
 # max = 218
231056		 # 	collision with: 2 0 0 0 0  and 2 2 0 0 0 
 # max = 218
231057		 # 	collision with: 2 1 3 0 0  and 3 1 3 0 0 
 # max = 218
231058		 # 	collision with: 1 1 0 0 0  and 1 3 0 0 0 
 # max = 218
231059		 # 	collision with: 1 3 0 0 0  and 2 3 0 0 0 
 # max = 218
231064		 # 	collision with: 4 1 0 0 0  and 4 3 0 0 0 
 # max = 218
231065		 # 	collision with: 2 2 2 0 0  and 2 0 3 0 0 
 # max = 218
231066		 # 	collision with: 2 2 0 0 0  and 2 3 0 0 0 
 # max = 218
231067		 # 	collision with: 2 2 0 0 0  and 2 3 0 0 0 
 # max = 218
231092		 # 	collision with: 1 1 0 0 0  and 4 3 0 0 0 
 # max = 218
231093		 # 	collision with: 2 0 1 0 0  and 2 2 1 0 0 
 # max = 218
231094		 # 	collision with: 2 2 0 0 0  and 1 3 0 0 0 
 # max = 218
231095		 # 	collision with: 1 3 2 0 0  and 2 3 2 0 0 
 # max = 218
231100		 # 	collision with: 4 4 2 0 0  and 2 2 2 1 0 
 # max = 218
231101		 # 	collision with: 1 1 0 0 0  and 4 3 0 0 0 
 # max = 218
231102		 # 	collision with: 3 3 0 0 0  and 1 4 0 1 0 
 # max = 218
231103		 # 	collision with: 1 1 1 0 0  and 2 3 1 0 0 
 # max = 218
231128		 # 	collision with: 2 1 2 0 0  and 3 1 2 0 0 
 # max = 218
231129		 # 	collision with: 2 1 2 0 0  and 3 1 2 0 0 
 # max = 218
231130		 # 	collision with: 3 0 2 0 0  and 3 1 2 0 0 
 # max = 218
231131		 # 	collision with: 1 3 0 0 0  and 2 3 0 0 0 
 # max = 218
231156		 # 	collision with: 2 1 0 0 0  and 3 1 0 0 0 
 # max = 218
231157		 # 	collision with: 2 1 0 0 0  and 3 1 0 0 0 
 # max = 218
231158		 # 	collision with: 4 0 1 0 0  and 4 2 1 0 0 
 # max = 218
231159		 # 	collision with: 1 1 0 0 0  and 1 3 0 0 0 
 # max = 218
231164		 # 	collision with: 2 1 1 0 0  and 3 1 1 0 0 
 # max = 218
231165		 # 	collision with: 4 1 0 0 0  and 4 3 0 0 0 
 # max = 218
231166		 # 	collision with: 1 3 2 0 0  and 2 3 2 0 0 
 # max = 218
231167		 # 	collision with: 1 3 1 0 0  and 2 3 1 0 0 
 # max = 218
231192		 # 	collision with: 2 1 3 0 0  and 3 2 3 0 0 
 # max = 218
231193		 # 	collision with: 1 0 1 0 0  and 1 1 1 0 0 
 # max = 218
231194		 # 	collision with: 1 3 0 0 0  and 2 3 0 0 0 
 # max = 218
231195		 # 	collision with: 1 4 1 0 0  and 1 0 3 0 0 
 # max = 218
231200		 # 	collision with: 0 1 4 0 0  and 1 3 4 1 0 
 # max = 241
231201		 # 	collision with: 3 4 1 0 0  and 2 0 2 0 0 
 # max = 241
231202		 # 	collision with: 4 0 1 0 0  and 0 2 1 1 0 
 # max = 241
231203		 # 	collision with: 1 3 0 0 0  and 2 3 0 0 0 
 # max = 241
231228		 # 	collision with: 2 1 1 0 0  and 3 1 1 0 0 
 # max = 241
231229		 # 	collision with: 3 1 0 0 0  and 3 2 0 0 0 
 # max = 241
231230		 # 	collision with: 1 3 2 0 0  and 2 3 2 0 0 
 # max = 241
231231		 # 	collision with: 1 1 0 0 0  and 2 2 0 0 0 
 # max = 241
231256		 # 	collision with: 2 1 2 0 0  and 3 1 2 0 0 
 # max = 241
231257		 # 	collision with: 2 1 2 0 0  and 3 1 2 0 0 
 # max = 241
231258		 # 	collision with: 2 2 2 0 0  and 2 3 2 0 0 
 # max = 241
231259		 # 	collision with: 2 2 2 0 0  and 2 3 2 0 0 
 # max = 241
231264		 # 	collision with: 2 0 3 0 0  and 2 2 3 0 0 
 # max = 241
231265		 # 	collision with: 2 1 0 0 0  and 3 2 0 0 0 
 # max = 241
231266		 # 	collision with: 1 3 0 0 0  and 2 3 0 0 0 
 # max = 241
231267		 # 	collision with: 1 1 1 0 0  and 1 1 2 0 0 
 # max = 241
231292		 # 	collision with: 2 1 0 0 0  and 3 1 0 0 0 
 # max = 241
231293		 # 	collision with: 2 1 0 0 0  and 3 1 0 0 0 
 # max = 241
231294		 # 	collision with: 1 3 1 0 0  and 2 3 1 0 0 
 # max = 241
231295		 # 	collision with: 4 2 1 0 0  and 4 2 2 0 0 
 # max = 241
231300		 # 	collision with: 4 2 2 0 0  and 0 3 2 1 0 
 # max = 241
231301		 # 	collision with: 4 3 0 0 0  and 1 1 2 0 0 
 # max = 241
231302		 # 	collision with: 0 1 3 1 0  and 4 2 0 2 0 
 # max = 264
231303		 # 	collision with: 2 3 0 0 0  and 1 1 2 0 0 
 # max = 264
231328		 # 	collision with: 2 1 0 0 0  and 3 1 0 0 0 
 # max = 264
231329		 # 	collision with: 2 1 0 0 0  and 3 1 0 0 0 
 # max = 264
231330		 # 	collision with: 1 1 1 0 0  and 1 3 1 0 0 
 # max = 264
231331		 # 	collision with: 4 0 0 0 0  and 4 2 0 0 0 
 # max = 264
231356		 # 	collision with: 1 0 3 0 0  and 1 1 3 0 0 
 # max = 264
231357		 # 	collision with: 2 0 0 0 0  and 2 2 0 0 0 
 # max = 264
231358		 # 	collision with: 1 3 0 0 0  and 2 3 0 0 0 
 # max = 264
231359		 # 	collision with: 1 3 1 0 0  and 2 3 1 0 0 
 # max = 264
231364		 # 	collision with: 1 0 2 0 0  and 1 1 2 0 0 
 # max = 264
231365		 # 	collision with: 4 1 0 0 0  and 1 0 2 0 0 
 # max = 264
231366		 # 	collision with: 1 1 2 0 0  and 2 2 2 0 0 
 # max = 264
231367		 # 	collision with: 3 0 1 0 0  and 3 1 1 0 0 
 # max = 264
231392		 # 	collision with: 2 1 1 0 0  and 3 1 1 0 0 
 # max = 264
231393		 # 	collision with: 2 1 1 0 0  and 3 1 1 0 0 
 # max = 264
231394		 # 	collision with: 1 3 2 0 0  and 2 3 2 0 0 
 # max = 264
231395		 # 	collision with: 1 3 0 0 0  and 2 3 0 0 0 
 # max = 264
231400		 # 	collision with: 2 1 0 0 0  and 1 4 0 1 0 
 # max = 264
231401		 # 	collision with: 1 2 0 0 0  and 1 4 0 0 0 
 # max = 264
231402		 # 	collision with: 1 0 2 0 0  and 0 3 2 1 0 
 # max = 264
231403		 # 	collision with: 3 0 0 0 0  and 3 1 0 0 0 
 # max = 264
231428		 # 	collision with: 1 0 3 0 0  and 4 1 3 0 0 
 # max = 264
231429		 # 	collision with: 2 2 0 0 0  and 3 4 0 0 0 
 # max = 264
231430		 # 	collision with: 1 3 0 0 0  and 2 3 0 0 0 
 # max = 264
231431		 # 	collision with: 2 2 0 0 0  and 1 1 1 0 0 
 # max = 264
231456		 # 	collision with: 2 1 1 0 0  and 3 1 1 0 0 
 # max = 264
231457		 # 	collision with: 2 1 1 0 0  and 3 1 1 0 0 
 # max = 264
231458		 # 	collision with: 1 3 2 0 0  and 2 3 2 0 0 
 # max = 264
231459		 # 	collision with: 3 0 0 0 0  and 3 0 1 0 0 
 # max = 264
231464		 # 	collision with: 2 1 0 0 0  and 3 1 0 0 0 
 # max = 264
231465		 # 	collision with: 2 1 0 0 0  and 3 1 0 0 0 
 # max = 264
231466		 # 	collision with: 3 0 1 0 0  and 3 1 1 0 0 
 # max = 264
231467		 # 	collision with: 1 3 0 0 0  and 2 3 0 0 0 
 # max = 264
231492		 # 	collision with: 2 1 2 0 0  and 3 1 2 0 0 
 # max = 264
231493		 # 	collision with: 3 0 0 0 0  and 3 0 1 0 0 
 # max = 264
231494		 # 	collision with: 1 3 3 0 0  and 2 3 3 0 0 
 # max = 264
231495		 # 	collision with: 4 0 0 0 0  and 4 0 1 0 0 
 # max = 264
231509		 # 	collision with: 3 1 1 0 0  and 3 2 1 0 0 
 # max = 264
231511		 # 	collision with: 0 2 0 0 0  and 3 3 0 0 0 
 # max = 264
231513		 # 	collision with: 1 0 3 0 0  and 1 1 3 0 0 
 # max = 264
231515		 # 	collision with: 1 4 0 0 0  and 2 4 0 0 0 
 # max = 264
231541		 # 	collision with: 2 1 0 0 0  and 3 1 0 0 0 
 # max = 264
231553		 # 	collision with: 2 1 1 0 0  and 3 1 1 0 0 
 # max = 264
231555		 # 	collision with: 1 4 0 0 0  and 2 4 0 0 0 
 # max = 264
231561		 # 	collision with: 2 1 0 0 0  and 3 1 0 0 0 
 # max = 264
231569		 # 	collision with: 2 1 1 0 0  and 3 1 1 0 0 
 # max = 264
231571		 # 	collision with: 0 2 0 0 0  and 3 3 0 0 0 
 # max = 264
2.0429secs	264 1119
