# prime 5
# degree 2
# input variables 3
# output variables 5
# reload computed balance functions from file balance-126of261-p5d2m3-debug.log
# p = 5
# n = 5
# smalldomain p^m 125
# domain p^n 3125
#	 p^2 = 25
#	 p^3 = 125
#	 p^4 = 625
#	 p^5 = 3125
#	 p^6 = 15625
#	 p^7 = 78125
#	 p^8 = 390625
#	 p^9 = 1953125
opening file : balance-126of261-p5d2m3-debug.log
reloading for step2...
151200		 # 	collision with: 4 4 4 1 0  and 0 0 0 0 1 
 # max = 625
151202		 # 	collision with: 0 2 2 0 0  and 1 4 0 1 0 
 # max = 625
151228		 # 	collision with: 2 0 4 0 0  and 3 2 4 0 0 
 # max = 625
151230		 # 	collision with: 0 0 4 0 0  and 2 1 4 0 0 
 # max = 625
151232		 # 	collision with: 1 2 1 0 0  and 1 3 1 0 0 
 # max = 625
151234		 # 	collision with: 3 0 1 0 0  and 3 2 1 0 0 
 # max = 625
151244		 # 	collision with: 4 1 3 0 0  and 1 3 3 0 0 
 # max = 625
151246		 # 	collision with: 2 1 3 0 0  and 0 2 3 0 0 
 # max = 625
151249		 # 	collision with: 2 1 1 0 0  and 2 1 2 0 0 
 # max = 625
151251		 # 	collision with: 0 0 1 0 0  and 2 1 1 0 0 
 # max = 625
151253		 # 	collision with: 1 2 1 0 0  and 1 3 1 0 0 
 # max = 625
151258		 # 	collision with: 1 0 2 0 0  and 1 2 2 0 0 
 # max = 625
151264		 # 	collision with: 3 0 3 0 0  and 2 1 3 0 0 
 # max = 625
151266		 # 	collision with: 4 0 3 0 0  and 4 2 3 0 0 
 # max = 625
151269		 # 	collision with: 3 0 1 0 0  and 2 1 2 0 0 
 # max = 625
151271		 # 	collision with: 1 1 1 0 0  and 1 1 2 0 0 
 # max = 625
151273		 # 	collision with: 1 2 1 0 0  and 1 3 1 0 0 
 # max = 625
151275		 # 	collision with: 3 0 2 0 0  and 3 2 2 0 0 
 # max = 625
151278		 # 	collision with: 1 0 2 0 0  and 1 2 2 0 0 
 # max = 625
151288		 # 	collision with: 3 0 4 0 0  and 2 1 4 0 0 
 # max = 625
151292		 # 	collision with: 1 2 1 0 0  and 1 3 1 0 0 
 # max = 625
151294		 # 	collision with: 2 1 1 0 0  and 0 2 1 0 0 
 # max = 625
151300		 # 	collision with: 3 2 3 0 0  and 0 1 0 1 0 
 # max = 625
151302		 # 	collision with: 3 0 3 0 0  and 1 2 0 1 0 
 # max = 625
151328		 # 	collision with: 4 2 1 0 0  and 4 3 1 0 0 
 # max = 625
151330		 # 	collision with: 2 0 1 0 0  and 2 2 1 0 0 
 # max = 625
151332		 # 	collision with: 1 2 4 0 0  and 1 3 4 0 0 
 # max = 625
151346		 # 	collision with: 0 0 2 0 0  and 2 1 2 0 0 
 # max = 625
151349		 # 	collision with: 4 2 1 0 0  and 4 3 1 0 0 
 # max = 625
151351		 # 	collision with: 2 0 0 0 0  and 2 2 0 0 0 
 # max = 625
151353		 # 	collision with: 4 1 0 0 0  and 1 2 2 0 0 
 # max = 625
151355		 # 	collision with: 3 0 0 0 0  and 3 2 0 0 0 
 # max = 625
151356		 # 	collision with: 2 0 3 0 0  and 3 2 3 0 0 
 # max = 625
151358		 # 	collision with: 0 0 3 0 0  and 2 1 3 0 0 
 # max = 625
151366		 # 	collision with: 4 0 2 0 0  and 4 2 2 0 0 
 # max = 625
151369		 # 	collision with: 4 2 1 0 0  and 4 3 1 0 0 
 # max = 625
151373		 # 	collision with: 4 4 0 0 0  and 1 3 2 0 0 
 # max = 625
151375		 # 	collision with: 3 0 0 0 0  and 3 2 0 0 0 
 # max = 625
151376		 # 	collision with: 3 0 3 0 0  and 2 1 3 0 0 
 # max = 625
151378		 # 	collision with: 1 0 3 0 0  and 1 2 3 0 0 
 # max = 625
151388		 # 	collision with: 4 2 1 0 0  and 4 3 1 0 0 
 # max = 625
151390		 # 	collision with: 2 1 1 0 0  and 0 2 1 0 0 
 # max = 625
151392		 # 	collision with: 4 1 4 0 0  and 1 2 4 0 0 
 # max = 625
151394		 # 	collision with: 3 0 4 0 0  and 3 2 4 0 0 
 # max = 625
151400		 # 	collision with: 1 2 1 0 0  and 2 0 0 1 0 
 # max = 625
151402		 # 	collision with: 2 1 3 0 0  and 4 2 2 1 0 
 # max = 625
151428		 # 	collision with: 4 2 3 0 0  and 4 3 3 0 0 
 # max = 625
151430		 # 	collision with: 2 1 3 0 0  and 0 2 3 0 0 
 # max = 625
151434		 # 	collision with: 2 1 2 0 0  and 0 2 2 0 0 
 # max = 625
151444		 # 	collision with: 3 0 1 0 0  and 2 1 1 0 0 
 # max = 625
151446		 # 	collision with: 4 0 1 0 0  and 4 2 1 0 0 
 # max = 625
151449		 # 	collision with: 4 1 1 0 0  and 1 3 1 0 0 
 # max = 625
151455		 # 	collision with: 1 2 0 0 0  and 1 2 1 0 0 
 # max = 625
151456		 # 	collision with: 3 0 4 0 0  and 2 1 4 0 0 
 # max = 625
151458		 # 	collision with: 1 0 4 0 0  and 1 2 4 0 0 
 # max = 625
151464		 # 	collision with: 4 1 1 0 0  and 1 2 1 0 0 
 # max = 625
151466		 # 	collision with: 0 0 1 0 0  and 2 1 1 0 0 
 # max = 625
151469		 # 	collision with: 1 3 0 0 0  and 1 3 1 0 0 
 # max = 625
151471		 # 	collision with: 0 0 0 0 0  and 2 1 0 0 0 
 # max = 625
151475		 # 	collision with: 4 2 0 0 0  and 4 2 1 0 0 
 # max = 625
151476		 # 	collision with: 2 2 4 0 0  and 2 3 4 0 0 
 # max = 625
151488		 # 	collision with: 2 0 3 0 0  and 3 2 3 0 0 
 # max = 625
151490		 # 	collision with: 0 0 3 0 0  and 2 1 3 0 0 
 # max = 625
151494		 # 	collision with: 3 0 2 0 0  and 3 2 2 0 0 
 # max = 625
151524		 # 	collision with: 3 2 0 0 0  and 3 3 0 0 0 
 # max = 625
151526		 # 	collision with: 2 0 0 0 0  and 2 2 0 0 0 
 # max = 625
151536		 # 	collision with: 2 0 0 0 0  and 3 2 0 0 0 
 # max = 625
151538		 # 	collision with: 3 0 0 0 0  and 3 2 0 0 0 
 # max = 625
151545		 # 	collision with: 3 2 0 0 0  and 3 3 0 0 0 
 # max = 625
151548		 # 	collision with: 4 2 0 0 0  and 4 3 0 0 0 
 # max = 625
151550		 # 	collision with: 1 3 0 0 0  and 1 4 0 0 0 
 # max = 625
151552		 # 	collision with: 4 1 0 0 0  and 1 2 0 0 0 
 # max = 625
151554		 # 	collision with: 4 0 0 0 0  and 4 2 0 0 0 
 # max = 625
151557		 # 	collision with: 2 2 0 0 0  and 2 3 0 0 0 
 # max = 625
151559		 # 	collision with: 3 0 2 0 0  and 3 2 2 0 0 
 # max = 625
151565		 # 	collision with: 3 2 0 0 0  and 3 3 0 0 0 
 # max = 625
151567		 # 	collision with: 2 0 3 0 0  and 2 2 3 0 0 
 # max = 625
151568		 # 	collision with: 4 2 0 0 0  and 4 3 0 0 0 
 # max = 625
151570		 # 	collision with: 1 3 0 0 0  and 1 4 0 0 0 
 # max = 625
151572		 # 	collision with: 4 1 0 0 0  and 1 2 0 0 0 
 # max = 625
151574		 # 	collision with: 4 0 0 0 0  and 4 2 0 0 0 
 # max = 625
151577		 # 	collision with: 2 2 0 0 0  and 2 3 0 0 0 
 # max = 625
151584		 # 	collision with: 3 2 0 0 0  and 3 3 0 0 0 
 # max = 625
151586		 # 	collision with: 2 0 0 0 0  and 2 2 0 0 0 
 # max = 625
151596		 # 	collision with: 2 0 0 0 0  and 3 2 0 0 0 
 # max = 625
151598		 # 	collision with: 3 0 0 0 0  and 3 2 0 0 0 
 # max = 625
151600		 # 	collision with: 3 2 0 0 0  and 4 0 0 1 0 
 # max = 625
151602		 # 	collision with: 3 1 0 0 0  and 0 3 0 1 0 
 # max = 625
151624		 # 	collision with: 3 2 4 0 0  and 3 3 4 0 0 
 # max = 625
151636		 # 	collision with: 2 2 1 0 0  and 2 3 1 0 0 
 # max = 625
151638		 # 	collision with: 4 0 1 0 0  and 3 1 1 0 0 
 # max = 625
151645		 # 	collision with: 4 1 1 0 0  and 1 2 1 0 0 
 # max = 625
151647		 # 	collision with: 4 1 0 0 0  and 3 3 0 0 0 
 # max = 625
151648		 # 	collision with: 4 2 2 0 0  and 4 3 2 0 0 
 # max = 625
151650		 # 	collision with: 1 0 2 0 0  and 1 2 2 0 0 
 # max = 625
151654		 # 	collision with: 4 0 3 0 0  and 4 2 3 0 0 
 # max = 625
151657		 # 	collision with: 2 2 1 0 0  and 2 3 1 0 0 
 # max = 625
151665		 # 	collision with: 4 1 1 0 0  and 4 1 3 0 0 
 # max = 625
151667		 # 	collision with: 4 1 0 0 0  and 3 3 0 0 0 
 # max = 625
151668		 # 	collision with: 2 0 2 0 0  and 3 2 2 0 0 
 # max = 625
151674		 # 	collision with: 4 0 3 0 0  and 4 2 3 0 0 
 # max = 625
151677		 # 	collision with: 2 2 1 0 0  and 2 3 1 0 0 
 # max = 625
151679		 # 	collision with: 4 1 0 0 0  and 3 3 0 0 0 
 # max = 625
151684		 # 	collision with: 3 0 4 0 0  and 2 1 4 0 0 
 # max = 625
151686		 # 	collision with: 2 0 4 0 0  and 2 2 4 0 0 
 # max = 625
151696		 # 	collision with: 2 0 1 0 0  and 3 2 1 0 0 
 # max = 625
151698		 # 	collision with: 3 0 1 0 0  and 3 2 1 0 0 
 # max = 625
151700		 # 	collision with: 4 1 3 1 0  and 0 2 0 2 0 
 # max = 625
151702		 # 	collision with: 1 4 0 0 0  and 4 0 0 1 0 
 # max = 625
151726		 # 	collision with: 2 0 3 0 0  and 2 2 3 0 0 
 # max = 625
151736		 # 	collision with: 2 2 2 0 0  and 2 3 2 0 0 
 # max = 625
151747		 # 	collision with: 3 1 0 0 0  and 4 2 0 0 0 
 # max = 625
151748		 # 	collision with: 4 2 4 0 0  and 4 3 4 0 0 
 # max = 625
151752		 # 	collision with: 1 2 1 0 0  and 1 3 1 0 0 
 # max = 625
151754		 # 	collision with: 4 0 1 0 0  and 3 1 1 0 0 
 # max = 625
151757		 # 	collision with: 2 1 1 0 0  and 2 1 2 0 0 
 # max = 625
151759		 # 	collision with: 3 1 0 0 0  and 4 2 0 0 0 
 # max = 625
151767		 # 	collision with: 3 1 0 0 0  and 4 2 0 0 0 
 # max = 625
151768		 # 	collision with: 3 0 4 0 0  and 2 1 4 0 0 
 # max = 625
151770		 # 	collision with: 1 0 4 0 0  and 1 2 4 0 0 
 # max = 625
151772		 # 	collision with: 4 1 1 0 0  and 1 2 1 0 0 
 # max = 625
151774		 # 	collision with: 4 0 1 0 0  and 4 2 1 0 0 
 # max = 625
151777		 # 	collision with: 3 1 1 0 0  and 3 1 2 0 0 
 # max = 625
151779		 # 	collision with: 3 1 0 0 0  and 4 2 0 0 0 
 # max = 625
151786		 # 	collision with: 2 0 3 0 0  and 2 2 3 0 0 
 # max = 625
151796		 # 	collision with: 2 0 2 0 0  and 3 2 2 0 0 
 # max = 625
151798		 # 	collision with: 3 0 2 0 0  and 3 2 2 0 0 
 # max = 625
151800		 # 	collision with: 3 4 0 0 0  and 0 0 0 1 0 
 # max = 625
151802		 # 	collision with: 4 0 2 0 0  and 2 2 0 2 0 
 # max = 625
151824		 # 	collision with: 3 2 2 0 0  and 3 3 2 0 0 
 # max = 625
151826		 # 	collision with: 2 0 2 0 0  and 2 2 2 0 0 
 # max = 625
151838		 # 	collision with: 3 0 3 0 0  and 3 2 3 0 0 
 # max = 625
151845		 # 	collision with: 2 0 0 0 0  and 3 2 0 0 0 
 # max = 625
151847		 # 	collision with: 2 0 0 0 0  and 2 2 0 0 0 
 # max = 625
151848		 # 	collision with: 4 2 1 0 0  and 4 3 1 0 0 
 # max = 625
151850		 # 	collision with: 1 0 1 0 0  and 1 2 1 0 0 
 # max = 625
151852		 # 	collision with: 3 0 4 0 0  and 2 1 4 0 0 
 # max = 625
151854		 # 	collision with: 4 0 4 0 0  and 4 2 4 0 0 
 # max = 625
151859		 # 	collision with: 3 0 0 0 0  and 3 2 0 0 0 
 # max = 625
151865		 # 	collision with: 2 0 0 0 0  and 3 2 0 0 0 
 # max = 625
151867		 # 	collision with: 2 0 0 0 0  and 2 2 0 0 0 
 # max = 625
151868		 # 	collision with: 4 2 1 0 0  and 4 3 1 0 0 
 # max = 625
151870		 # 	collision with: 4 0 1 0 0  and 3 1 1 0 0 
 # max = 625
151872		 # 	collision with: 4 1 4 0 0  and 1 2 4 0 0 
 # max = 625
151879		 # 	collision with: 3 0 0 0 0  and 3 2 0 0 0 
 # max = 625
151884		 # 	collision with: 3 2 2 0 0  and 3 3 2 0 0 
 # max = 625
151898		 # 	collision with: 3 0 3 0 0  and 3 2 3 0 0 
 # max = 625
151900		 # 	collision with: 1 3 0 0 0  and 3 0 0 1 0 
 # max = 625
151902		 # 	collision with: 2 1 0 0 0  and 3 4 0 1 0 
 # max = 625
151924		 # 	collision with: 3 2 1 0 0  and 3 3 1 0 0 
 # max = 625
151926		 # 	collision with: 2 0 1 0 0  and 2 2 1 0 0 
 # max = 625
151936		 # 	collision with: 3 0 4 0 0  and 2 1 4 0 0 
 # max = 625
151938		 # 	collision with: 3 0 4 0 0  and 3 2 4 0 0 
 # max = 625
151945		 # 	collision with: 2 1 0 0 0  and 3 0 1 0 0 
 # max = 625
151947		 # 	collision with: 3 3 0 0 0  and 3 4 1 0 0 
 # max = 625
151950		 # 	collision with: 1 0 3 0 0  and 1 2 3 0 0 
 # max = 625
151952		 # 	collision with: 1 2 2 0 0  and 1 3 2 0 0 
 # max = 625
151957		 # 	collision with: 4 0 0 0 0  and 4 0 1 0 0 
 # max = 625
151959		 # 	collision with: 3 1 0 0 0  and 4 0 1 0 0 
 # max = 625
151965		 # 	collision with: 3 2 1 0 0  and 3 3 1 0 0 
 # max = 625
151970		 # 	collision with: 1 0 3 0 0  and 1 2 3 0 0 
 # max = 625
151972		 # 	collision with: 4 1 2 0 0  and 1 2 2 0 0 
 # max = 625
151974		 # 	collision with: 4 0 2 0 0  and 4 2 2 0 0 
 # max = 625
151977		 # 	collision with: 2 0 0 0 0  and 3 2 1 0 0 
 # max = 625
151979		 # 	collision with: 4 0 0 0 0  and 4 0 1 0 0 
 # max = 625
151984		 # 	collision with: 4 1 1 0 0  and 1 2 1 0 0 
 # max = 625
151986		 # 	collision with: 4 0 1 0 0  and 3 1 1 0 0 
 # max = 625
151996		 # 	collision with: 2 0 4 0 0  and 3 2 4 0 0 
 # max = 625
152005		 # 	collision with: 3 2 0 0 0  and 3 3 0 0 0 
 # max = 625
152007		 # 	collision with: 0 3 0 0 0  and 2 3 0 0 0 
 # max = 625
152017		 # 	collision with: 2 2 0 0 0  and 2 3 0 0 0 
 # max = 625
152019		 # 	collision with: 0 2 0 0 0  and 2 2 0 0 0 
 # max = 625
152029		 # 	collision with: 4 2 0 0 0  and 4 3 0 0 0 
 # max = 625
152031		 # 	collision with: 0 4 0 0 0  and 2 4 0 0 0 
 # max = 625
152033		 # 	collision with: 1 2 0 0 0  and 1 3 0 0 0 
 # max = 625
152035		 # 	collision with: 0 1 0 0 0  and 2 1 0 0 0 
 # max = 625
152089		 # 	collision with: 4 2 0 0 0  and 4 3 0 0 0 
 # max = 625
152091		 # 	collision with: 0 4 0 0 0  and 2 4 0 0 0 
 # max = 625
152093		 # 	collision with: 1 2 0 0 0  and 1 3 0 0 0 
 # max = 625
152095		 # 	collision with: 0 1 0 0 0  and 2 1 0 0 0 
 # max = 625
152100		 # 	collision with: 2 2 2 0 0  and 1 4 1 1 0 
 # max = 625
152102		 # 	collision with: 3 3 1 0 0  and 2 1 0 1 0 
 # max = 625
152105		 # 	collision with: 4 1 1 0 0  and 1 2 3 0 0 
 # max = 625
152107		 # 	collision with: 0 2 0 0 0  and 2 2 0 0 0 
 # max = 625
152129		 # 	collision with: 4 2 2 0 0  and 4 3 2 0 0 
 # max = 625
152131		 # 	collision with: 0 1 0 0 0  and 2 1 0 0 0 
 # max = 625
152133		 # 	collision with: 4 1 0 0 0  and 1 3 0 0 0 
 # max = 625
152189		 # 	collision with: 4 2 2 0 0  and 4 3 2 0 0 
 # max = 625
152191		 # 	collision with: 0 1 0 0 0  and 2 1 0 0 0 
 # max = 625
152193		 # 	collision with: 4 1 0 0 0  and 1 3 0 0 0 
 # max = 625
152195		 # 	collision with: 0 4 0 0 0  and 2 4 0 0 0 
 # max = 625
152200		 # 	collision with: 4 3 4 0 0  and 0 0 1 1 0 
 # max = 625
152202		 # 	collision with: 2 3 3 0 0  and 1 0 0 1 0 
 # max = 625
152205		 # 	collision with: 2 1 1 0 0  and 3 0 2 0 0 
 # max = 625
152207		 # 	collision with: 0 1 0 0 0  and 2 1 0 0 0 
 # max = 625
152217		 # 	collision with: 4 1 0 0 0  and 1 2 0 0 0 
 # max = 625
152219		 # 	collision with: 0 4 0 0 0  and 2 4 0 0 0 
 # max = 625
152229		 # 	collision with: 1 3 1 0 0  and 4 1 2 0 0 
 # max = 625
152235		 # 	collision with: 0 2 0 0 0  and 2 2 0 0 0 
 # max = 625
152289		 # 	collision with: 1 3 1 0 0  and 1 3 2 0 0 
 # max = 625
152291		 # 	collision with: 0 3 0 0 0  and 2 3 0 0 0 
 # max = 625
152295		 # 	collision with: 0 2 0 0 0  and 2 2 0 0 0 
 # max = 625
152300		 # 	collision with: 0 3 2 0 0  and 1 4 0 1 0 
 # max = 625
152302		 # 	collision with: 1 0 2 0 0  and 2 4 0 1 0 
 # max = 625
152305		 # 	collision with: 3 0 1 0 0  and 2 1 1 0 0 
 # max = 625
152307		 # 	collision with: 0 0 0 0 0  and 2 0 0 0 0 
 # max = 625
152317		 # 	collision with: 1 2 0 0 0  and 4 4 2 0 0 
 # max = 625
152319		 # 	collision with: 0 0 0 0 0  and 2 0 0 0 0 
 # max = 625
152331		 # 	collision with: 0 0 0 0 0  and 2 0 0 0 0 
 # max = 625
152333		 # 	collision with: 4 1 3 0 0  and 1 2 3 0 0 
 # max = 625
152335		 # 	collision with: 0 0 0 0 0  and 2 0 0 0 0 
 # max = 625
152391		 # 	collision with: 0 0 0 0 0  and 2 0 0 0 0 
 # max = 625
152393		 # 	collision with: 4 0 0 0 0  and 4 0 2 0 0 
 # max = 625
2.80828secs	625 1423
