# prime 5
# degree 2
# input variables 3
# output variables 3
# reload computed balance functions from file balance-126of261-p5d2m3-debug.log
# p = 5
# n = 3
# smalldomain p^m 125
# domain p^n 125
#	 p^2 = 25
#	 p^3 = 125
#	 p^4 = 625
#	 p^5 = 3125
#	 p^6 = 15625
#	 p^7 = 78125
#	 p^8 = 390625
#	 p^9 = 1953125
opening file : balance-126of261-p5d2m3-debug.log
reloading for step2...
151200		 # 	collision with: 4 1 0  and 0 0 1 
 # max = 25
151202		 # 	collision with: 0 0 0  and 4 2 0 
 # max = 25
151228		 # 	collision with: 4 1 0  and 3 2 0 
 # max = 25
151230		 # 	collision with: 2 1 0  and 0 2 0 
 # max = 25
151232		 # 	collision with: 2 0 0  and 4 1 0 
 # max = 25
151234		 # 	collision with: 1 1 0  and 3 1 0 
 # max = 25
151244		 # 	collision with: 0 0 0  and 2 2 0 
 # max = 25
151246		 # 	collision with: 3 0 0  and 1 2 0 
 # max = 25
151249		 # 	collision with: 0 1 0  and 3 2 0 
 # max = 25
151251		 # 	collision with: 2 4 0  and 3 0 1 
 # max = 28
151253		 # 	collision with: 4 1 0  and 3 2 0 
 # max = 28
151258		 # 	collision with: 0 0 0  and 1 1 1 
 # max = 31
151264		 # 	collision with: 0 1 0  and 1 3 0 
 # max = 31
151266		 # 	collision with: 3 1 0  and 1 0 1 
 # max = 31
151269		 # 	collision with: 0 2 0  and 4 3 0 
 # max = 31
151271		 # 	collision with: 2 0 0  and 2 2 0 
 # max = 31
151273		 # 	collision with: 1 2 0  and 1 3 0 
 # max = 31
151275		 # 	collision with: 4 1 1  and 4 2 1 
 # max = 39
151278		 # 	collision with: 1 2 0  and 3 2 0 
 # max = 39
151288		 # 	collision with: 4 2 0  and 0 1 1 
 # max = 39
151292		 # 	collision with: 0 0 0  and 1 1 1 
 # max = 39
151294		 # 	collision with: 2 0 0  and 3 1 0 
 # max = 39
151300		 # 	collision with: 2 2 0  and 4 1 1 
 # max = 39
151302		 # 	collision with: 4 0 0  and 0 2 0 
 # max = 39
151328		 # 	collision with: 3 0 0  and 2 1 0 
 # max = 39
151330		 # 	collision with: 1 1 0  and 3 1 0 
 # max = 39
151332		 # 	collision with: 3 4 0  and 2 0 1 
 # max = 39
151346		 # 	collision with: 2 0 0  and 3 1 0 
 # max = 39
151349		 # 	collision with: 4 1 0  and 3 3 0 
 # max = 39
151351		 # 	collision with: 1 3 0  and 1 0 1 
 # max = 39
151353		 # 	collision with: 1 1 0  and 3 1 0 
 # max = 39
151355		 # 	collision with: 4 2 0  and 3 3 0 
 # max = 39
151356		 # 	collision with: 4 4 0  and 0 1 1 
 # max = 39
151358		 # 	collision with: 4 0 0  and 0 2 0 
 # max = 39
151366		 # 	collision with: 4 0 0  and 0 2 0 
 # max = 39
151369		 # 	collision with: 3 0 0  and 2 1 0 
 # max = 39
151373		 # 	collision with: 4 1 0  and 3 3 0 
 # max = 39
151375		 # 	collision with: 0 0 0  and 2 1 0 
 # max = 39
151376		 # 	collision with: 3 2 0  and 0 4 0 
 # max = 39
151378		 # 	collision with: 4 0 0  and 0 2 0 
 # max = 39
151388		 # 	collision with: 4 1 0  and 1 2 0 
 # max = 39
151390		 # 	collision with: 4 0 0  and 0 2 0 
 # max = 39
151392		 # 	collision with: 0 0 0  and 2 2 0 
 # max = 39
151394		 # 	collision with: 4 0 0  and 0 2 0 
 # max = 39
151400		 # 	collision with: 1 2 0  and 3 3 0 
 # max = 39
151402		 # 	collision with: 2 3 0  and 1 0 1 
 # max = 39
151428		 # 	collision with: 0 1 0  and 3 3 0 
 # max = 39
151430		 # 	collision with: 4 0 0  and 2 1 0 
 # max = 39
151434		 # 	collision with: 0 2 0  and 1 3 0 
 # max = 39
151444		 # 	collision with: 1 1 0  and 3 1 0 
 # max = 39
151446		 # 	collision with: 3 1 0  and 2 2 0 
 # max = 39
151449		 # 	collision with: 1 1 0  and 3 1 0 
 # max = 39
151455		 # 	collision with: 2 0 0  and 1 1 0 
 # max = 39
151456		 # 	collision with: 0 1 0  and 1 2 0 
 # max = 39
151458		 # 	collision with: 0 0 0  and 4 2 0 
 # max = 39
151464		 # 	collision with: 0 2 0  and 2 1 1 
 # max = 39
151466		 # 	collision with: 1 1 0  and 2 2 0 
 # max = 39
151469		 # 	collision with: 4 0 0  and 2 2 0 
 # max = 39
151471		 # 	collision with: 3 0 0  and 1 2 0 
 # max = 39
151475		 # 	collision with: 4 0 0  and 2 1 0 
 # max = 39
151476		 # 	collision with: 2 2 0  and 2 3 0 
 # max = 39
151488		 # 	collision with: 4 2 0  and 0 3 0 
 # max = 39
151490		 # 	collision with: 2 1 0  and 1 0 1 
 # max = 39
151494		 # 	collision with: 2 1 1  and 1 2 1 
 # max = 39
151524		 # 	collision with: 0 2 0  and 1 3 0 
 # max = 39
151526		 # 	collision with: 1 2 0  and 0 0 1 
 # max = 39
151536		 # 	collision with: 2 1 0  and 0 3 0 
 # max = 39
151538		 # 	collision with: 3 1 0  and 2 2 0 
 # max = 39
151545		 # 	collision with: 0 4 0  and 1 4 0 
 # max = 39
151548		 # 	collision with: 4 1 0  and 0 3 0 
 # max = 39
151550		 # 	collision with: 3 0 1  and 4 1 1 
 # max = 39
151552# 151552 is invertible !!!!!!!! 
151554# 151554 is invertible !!!!!!!! 
151557		 # 	collision with: 1 3 0  and 4 0 1 
 # max = 39
151559		 # 	collision with: 0 1 0  and 1 1 0 
 # max = 39
151565		 # 	collision with: 0 1 1  and 3 2 1 
 # max = 39
151567		 # 	collision with: 3 1 0  and 1 3 0 
 # max = 39
151568		 # 	collision with: 3 0 0  and 1 2 0 
 # max = 39
151570		 # 	collision with: 2 2 0  and 1 3 0 
 # max = 39
151572		 # 	collision with: 2 4 0  and 1 0 1 
 # max = 39
151574		 # 	collision with: 2 0 0  and 4 2 0 
 # max = 39
151577		 # 	collision with: 0 1 0  and 1 1 0 
 # max = 39
151584		 # 	collision with: 1 2 0  and 0 3 0 
 # max = 39
151586		 # 	collision with: 4 0 0  and 2 2 0 
 # max = 39
151596		 # 	collision with: 4 0 0  and 3 2 0 
 # max = 39
151598		 # 	collision with: 0 1 0  and 3 2 0 
 # max = 39
151600		 # 	collision with: 2 1 0  and 1 2 0 
 # max = 39
151602		 # 	collision with: 3 1 0  and 2 2 0 
 # max = 39
151624		 # 	collision with: 2 1 0  and 1 2 0 
 # max = 39
151636		 # 	collision with: 2 1 0  and 1 2 0 
 # max = 39
151638		 # 	collision with: 4 0 0  and 2 2 0 
 # max = 39
151645		 # 	collision with: 1 4 0  and 0 0 1 
 # max = 39
151647		 # 	collision with: 4 1 0  and 3 3 0 
 # max = 39
151648		 # 	collision with: 2 1 0  and 1 2 0 
 # max = 39
151650		 # 	collision with: 3 0 0  and 1 1 0 
 # max = 39
151654# 151654 is invertible !!!!!!!! 
151657		 # 	collision with: 4 1 0  and 1 2 0 
 # max = 39
151665		 # 	collision with: 3 2 0  and 3 3 0 
 # max = 39
151667		 # 	collision with: 0 0 0  and 1 2 0 
 # max = 39
151668		 # 	collision with: 2 1 0  and 1 2 0 
 # max = 39
151674		 # 	collision with: 1 3 0  and 0 0 1 
 # max = 39
151677		 # 	collision with: 4 1 0  and 0 2 0 
 # max = 39
151679		 # 	collision with: 4 1 0  and 3 3 0 
 # max = 39
151684		 # 	collision with: 2 1 0  and 1 2 0 
 # max = 39
151686		 # 	collision with: 2 2 0  and 1 3 0 
 # max = 39
151696		 # 	collision with: 2 1 0  and 1 2 0 
 # max = 39
151698		 # 	collision with: 2 0 0  and 4 2 0 
 # max = 39
151700		 # 	collision with: 1 2 0  and 0 3 0 
 # max = 39
151702		 # 	collision with: 1 1 0  and 3 2 0 
 # max = 39
151726		 # 	collision with: 1 1 0  and 3 2 0 
 # max = 39
151736		 # 	collision with: 3 0 0  and 1 2 0 
 # max = 39
151747		 # 	collision with: 2 0 0  and 3 1 0 
 # max = 39
151748		 # 	collision with: 0 2 0  and 1 3 0 
 # max = 39
151752# 151752 is invertible !!!!!!!! 
151754		 # 	collision with: 0 1 0  and 1 1 0 
 # max = 39
151757		 # 	collision with: 3 0 0  and 4 1 0 
 # max = 39
151759		 # 	collision with: 3 0 0  and 3 2 0 
 # max = 39
151767		 # 	collision with: 2 0 0  and 2 2 0 
 # max = 39
151768		 # 	collision with: 2 1 0  and 0 3 0 
 # max = 39
151770		 # 	collision with: 4 0 0  and 2 2 0 
 # max = 39
151772		 # 	collision with: 0 1 0  and 1 1 0 
 # max = 39
151774		 # 	collision with: 1 1 0  and 3 2 0 
 # max = 39
151777		 # 	collision with: 2 2 0  and 4 3 0 
 # max = 39
151779		 # 	collision with: 3 1 0  and 4 2 0 
 # max = 39
151786		 # 	collision with: 2 0 0  and 3 1 0 
 # max = 39
151796		 # 	collision with: 0 2 0  and 1 2 0 
 # max = 39
151798		 # 	collision with: 1 1 0  and 3 2 0 
 # max = 39
151800		 # 	collision with: 2 1 0  and 0 2 0 
 # max = 39
151802		 # 	collision with: 4 0 0  and 2 2 0 
 # max = 39
151824		 # 	collision with: 2 1 0  and 0 2 1 
 # max = 39
151826		 # 	collision with: 0 2 0  and 1 2 0 
 # max = 39
151838		 # 	collision with: 2 2 0  and 1 3 0 
 # max = 39
151845		 # 	collision with: 2 1 0  and 1 2 0 
 # max = 39
151847		 # 	collision with: 0 1 0  and 1 1 0 
 # max = 39
151848		 # 	collision with: 1 4 0  and 4 0 1 
 # max = 39
151850		 # 	collision with: 0 1 0  and 1 1 0 
 # max = 39
151852		 # 	collision with: 3 0 0  and 4 1 0 
 # max = 39
151854# 151854 is invertible !!!!!!!! 
151859		 # 	collision with: 2 1 0  and 0 1 1 
 # max = 39
151865		 # 	collision with: 0 1 0  and 1 1 0 
 # max = 39
151867		 # 	collision with: 0 1 0  and 3 2 0 
 # max = 39
151868		 # 	collision with: 0 1 0  and 1 1 0 
 # max = 39
151870		 # 	collision with: 3 1 0  and 2 2 0 
 # max = 39
151872		 # 	collision with: 3 2 0  and 1 0 1 
 # max = 39
151879		 # 	collision with: 0 4 0  and 1 4 0 
 # max = 39
151884		 # 	collision with: 4 1 0  and 0 2 0 
 # max = 39
151898		 # 	collision with: 3 0 0  and 3 2 0 
 # max = 39
151900		 # 	collision with: 2 1 0  and 0 3 0 
 # max = 39
151902		 # 	collision with: 3 1 0  and 1 3 0 
 # max = 39
151924		 # 	collision with: 0 0 0  and 3 1 0 
 # max = 39
151926		 # 	collision with: 2 2 0  and 0 3 0 
 # max = 39
151936		 # 	collision with: 1 2 0  and 0 3 0 
 # max = 39
151938		 # 	collision with: 3 1 0  and 1 3 0 
 # max = 39
151945		 # 	collision with: 3 2 0  and 3 3 0 
 # max = 39
151947		 # 	collision with: 2 0 0  and 2 2 0 
 # max = 39
151950		 # 	collision with: 2 0 0  and 4 2 0 
 # max = 39
151952# 151952 is invertible !!!!!!!! 
151957		 # 	collision with: 1 4 0  and 4 0 1 
 # max = 39
151959		 # 	collision with: 4 3 0  and 4 0 1 
 # max = 39
151965		 # 	collision with: 0 2 0  and 1 3 0 
 # max = 39
151970		 # 	collision with: 3 1 0  and 1 3 0 
 # max = 39
151972		 # 	collision with: 0 2 0  and 1 3 0 
 # max = 39
151974		 # 	collision with: 3 1 0  and 1 3 0 
 # max = 39
151977		 # 	collision with: 2 2 0  and 2 3 0 
 # max = 39
151979		 # 	collision with: 3 0 0  and 3 2 0 
 # max = 39
151984		 # 	collision with: 3 0 0  and 1 2 0 
 # max = 39
151986		 # 	collision with: 3 1 0  and 1 3 0 
 # max = 39
151996		 # 	collision with: 1 2 0  and 2 0 1 
 # max = 39
152005		 # 	collision with: 3 2 0  and 3 3 0 
 # max = 39
152007		 # 	collision with: 0 3 0  and 2 3 0 
 # max = 39
152017		 # 	collision with: 2 2 0  and 2 3 0 
 # max = 39
152019		 # 	collision with: 0 2 0  and 2 2 0 
 # max = 39
152029		 # 	collision with: 1 3 0  and 3 0 1 
 # max = 39
152031		 # 	collision with: 4 0 0  and 3 2 0 
 # max = 39
152033		 # 	collision with: 0 1 0  and 2 1 0 
 # max = 39
152035		 # 	collision with: 2 0 0  and 3 1 0 
 # max = 39
152089		 # 	collision with: 4 1 0  and 1 2 0 
 # max = 39
152091		 # 	collision with: 2 1 0  and 0 1 1 
 # max = 39
152093		 # 	collision with: 4 0 0  and 2 1 0 
 # max = 39
152095		 # 	collision with: 3 2 0  and 1 3 0 
 # max = 39
152100		 # 	collision with: 1 1 0  and 0 3 0 
 # max = 39
152102		 # 	collision with: 4 1 0  and 0 2 0 
 # max = 39
152105		 # 	collision with: 1 2 0  and 1 0 1 
 # max = 39
152107		 # 	collision with: 0 2 0  and 2 2 0 
 # max = 39
152129		 # 	collision with: 0 1 0  and 2 1 0 
 # max = 39
152131		 # 	collision with: 1 2 0  and 2 0 1 
 # max = 39
152133		 # 	collision with: 0 0 0  and 3 2 0 
 # max = 39
152189		 # 	collision with: 1 4 0  and 4 1 1 
 # max = 39
152191		 # 	collision with: 4 1 0  and 1 0 1 
 # max = 39
152193		 # 	collision with: 1 2 0  and 1 3 0 
 # max = 39
152195		 # 	collision with: 4 0 0  and 3 2 0 
 # max = 39
152200		 # 	collision with: 0 0 0  and 1 1 1 
 # max = 39
152202		 # 	collision with: 2 1 0  and 4 3 0 
 # max = 39
152205		 # 	collision with: 2 2 0  and 0 0 1 
 # max = 39
152207		 # 	collision with: 0 1 0  and 2 1 0 
 # max = 39
152217		 # 	collision with: 4 1 0  and 1 2 0 
 # max = 39
152219		 # 	collision with: 0 4 0  and 2 4 0 
 # max = 39
152229		 # 	collision with: 0 4 0  and 2 0 1 
 # max = 39
152235		 # 	collision with: 3 1 0  and 2 2 0 
 # max = 39
152289		 # 	collision with: 3 1 0  and 1 2 0 
 # max = 39
152291		 # 	collision with: 2 0 0  and 4 1 0 
 # max = 39
152295		 # 	collision with: 3 1 1  and 0 3 1 
 # max = 40
152300		 # 	collision with: 3 1 0  and 1 3 0 
 # max = 40
152302		 # 	collision with: 1 2 0  and 2 3 0 
 # max = 40
152305		 # 	collision with: 4 0 0  and 2 1 0 
 # max = 40
152307		 # 	collision with: 0 0 0  and 2 0 0 
 # max = 40
152317		 # 	collision with: 3 1 0  and 2 1 1 
 # max = 40
152319		 # 	collision with: 0 0 0  and 2 0 0 
 # max = 40
152331		 # 	collision with: 0 0 0  and 2 0 0 
 # max = 40
152333		 # 	collision with: 4 2 0  and 3 3 0 
 # max = 40
152335		 # 	collision with: 0 0 0  and 2 0 0 
 # max = 40
152391		 # 	collision with: 0 0 0  and 2 0 0 
 # max = 40
152393		 # 	collision with: 0 2 0  and 2 3 0 
 # max = 40
 we find invertible function - THM 9 is incorrect40 356
