# prime 5
# degree 2
# input variables 3
# output variables 5
# reload computed balance functions from file balance-153of261-p5d2m3-debug.log
# p = 5
# n = 5
# smalldomain p^m 125
# domain p^n 3125
#	 p^2 = 25
#	 p^3 = 125
#	 p^4 = 625
#	 p^5 = 3125
#	 p^6 = 15625
#	 p^7 = 78125
#	 p^8 = 390625
#	 p^9 = 1953125
opening file : balance-153of261-p5d2m3-debug.log
reloading for step2...
183600		 # 	collision with: 3 2 1 0 0  and 1 1 0 1 0 
 # max = 131
183602		 # 	collision with: 3 0 2 1 0  and 0 2 2 2 0 
 # max = 310
183605		 # 	collision with: 2 0 2 0 0  and 3 2 2 0 0 
 # max = 310
183607		 # 	collision with: 2 1 1 0 0  and 0 2 1 0 0 
 # max = 310
183617		 # 	collision with: 2 0 2 0 0  and 3 1 2 0 0 
 # max = 310
183621		 # 	collision with: 4 1 1 0 0  and 4 3 1 0 0 
 # max = 310
183639		 # 	collision with: 2 1 0 0 0  and 2 3 0 0 0 
 # max = 310
183683		 # 	collision with: 2 1 1 0 0  and 2 3 1 0 0 
 # max = 310
183685		 # 	collision with: 2 2 3 0 0  and 3 2 3 0 0 
 # max = 310
183687		 # 	collision with: 3 1 1 0 0  and 4 2 1 0 0 
 # max = 310
183700		 # 	collision with: 4 4 3 0 0  and 0 3 0 1 0 
 # max = 310
183702		 # 	collision with: 1 1 4 0 0  and 4 4 1 1 0 
 # max = 310
183705		 # 	collision with: 2 0 1 0 0  and 3 2 1 0 0 
 # max = 310
183707		 # 	collision with: 2 1 0 0 0  and 0 2 0 0 0 
 # max = 310
183719		 # 	collision with: 0 4 0 0 0  and 2 4 0 0 0 
 # max = 310
183721		 # 	collision with: 3 1 0 0 0  and 3 2 0 0 0 
 # max = 310
183723		 # 	collision with: 1 1 0 0 0  and 1 2 0 0 0 
 # max = 310
183737		 # 	collision with: 2 2 0 0 0  and 3 2 0 0 0 
 # max = 310
183781		 # 	collision with: 3 1 0 0 0  and 3 2 0 0 0 
 # max = 310
183783		 # 	collision with: 1 1 0 0 0  and 1 2 0 0 0 
 # max = 310
183785		 # 	collision with: 1 0 1 0 0  and 1 0 2 0 0 
 # max = 310
183787		 # 	collision with: 2 1 0 0 0  and 0 2 0 0 0 
 # max = 310
183800		 # 	collision with: 2 3 3 0 0  and 0 1 1 1 0 
 # max = 310
183802		 # 	collision with: 4 3 2 0 0  and 0 0 0 2 0 
 # max = 310
183807		 # 	collision with: 3 2 0 0 0  and 3 3 2 0 0 
 # max = 310
183817		 # 	collision with: 3 1 1 0 0  and 3 2 1 0 0 
 # max = 310
183819		 # 	collision with: 4 0 0 0 0  and 3 2 0 0 0 
 # max = 310
183821		 # 	collision with: 3 2 0 0 0  and 3 1 2 0 0 
 # max = 310
183823		 # 	collision with: 0 4 0 0 0  and 2 4 0 0 0 
 # max = 310
183837		 # 	collision with: 3 1 1 0 0  and 3 2 1 0 0 
 # max = 310
183839		 # 	collision with: 4 0 0 0 0  and 3 2 0 0 0 
 # max = 310
183881		 # 	collision with: 2 2 3 0 0  and 3 2 3 0 0 
 # max = 310
183883		 # 	collision with: 0 4 0 0 0  and 2 4 0 0 0 
 # max = 310
183885		 # 	collision with: 2 0 0 0 0  and 2 2 0 0 0 
 # max = 310
183900		 # 	collision with: 1 4 4 0 0  and 3 3 0 1 0 
 # max = 310
183902		 # 	collision with: 2 2 1 0 0  and 4 1 2 1 0 
 # max = 310
183905		 # 	collision with: 3 1 0 0 0  and 2 2 1 0 0 
 # max = 310
183917		 # 	collision with: 1 2 0 0 0  and 1 4 0 0 0 
 # max = 310
183919		 # 	collision with: 0 3 0 0 0  and 2 0 1 0 0 
 # max = 310
183923		 # 	collision with: 4 3 0 0 0  and 3 0 1 0 0 
 # max = 310
183937		 # 	collision with: 1 2 0 0 0  and 1 4 0 0 0 
 # max = 310
183939		 # 	collision with: 4 1 0 0 0  and 4 1 1 0 0 
 # max = 310
183981		 # 	collision with: 2 0 0 0 0  and 3 1 0 0 0 
 # max = 310
183987		 # 	collision with: 0 0 0 0 0  and 2 1 0 0 0 
 # max = 310
184000		 # 	collision with: 2 0 0 0 0  and 2 2 0 0 0 
 # max = 310
184001		 # 	collision with: 2 2 0 0 0  and 3 2 0 0 0 
 # max = 310
184002		 # 	collision with: 0 0 0 0 0  and 2 0 0 0 0 
 # max = 310
184003		 # 	collision with: 3 2 2 0 0  and 3 3 2 0 0 
 # max = 310
184028		 # 	collision with: 3 1 0 0 0  and 2 2 0 0 0 
 # max = 310
184029		 # 	collision with: 2 2 1 0 0  and 3 2 1 0 0 
 # max = 310
184030		 # 	collision with: 0 0 0 0 0  and 2 0 0 0 0 
 # max = 310
184031		 # 	collision with: 3 2 0 0 0  and 3 3 0 0 0 
 # max = 310
184056		 # 	collision with: 3 1 0 0 0  and 3 2 0 0 0 
 # max = 310
184057		 # 	collision with: 2 2 1 0 0  and 3 2 1 0 0 
 # max = 310
184058		 # 	collision with: 0 0 0 0 0  and 2 0 0 0 0 
 # max = 310
184059		 # 	collision with: 3 0 1 0 0  and 4 1 1 0 0 
 # max = 310
184064		 # 	collision with: 2 0 0 0 0  and 3 1 0 0 0 
 # max = 310
184065		 # 	collision with: 2 2 1 0 0  and 3 2 1 0 0 
 # max = 310
184066		 # 	collision with: 0 0 0 0 0  and 2 0 0 0 0 
 # max = 310
184067		 # 	collision with: 0 0 1 0 0  and 2 0 1 0 0 
 # max = 310
184092		 # 	collision with: 1 2 0 0 0  and 1 4 0 0 0 
 # max = 310
184093		 # 	collision with: 2 2 1 0 0  and 3 2 1 0 0 
 # max = 310
184094		 # 	collision with: 0 0 0 0 0  and 2 0 0 0 0 
 # max = 310
184095		 # 	collision with: 0 0 2 0 0  and 2 0 2 0 0 
 # max = 310
184100		 # 	collision with: 3 3 4 0 0  and 4 4 2 1 0 
 # max = 310
184101		 # 	collision with: 3 1 1 0 0  and 2 0 3 0 0 
 # max = 310
184102		 # 	collision with: 4 4 2 0 0  and 0 1 0 1 0 
 # max = 310
184103		 # 	collision with: 3 1 0 0 0  and 4 3 0 0 0 
 # max = 310
184128		 # 	collision with: 2 2 0 0 0  and 3 2 0 0 0 
 # max = 310
184129		 # 	collision with: 2 2 0 0 0  and 3 2 0 0 0 
 # max = 310
184130		 # 	collision with: 3 1 2 0 0  and 4 3 2 0 0 
 # max = 310
184131		 # 	collision with: 2 1 0 0 0  and 2 3 0 0 0 
 # max = 310
184156		 # 	collision with: 2 0 1 0 0  and 3 1 1 0 0 
 # max = 310
184157		 # 	collision with: 2 0 2 0 0  and 3 1 2 0 0 
 # max = 310
184158		 # 	collision with: 2 0 1 0 0  and 0 2 1 0 0 
 # max = 310
184159		 # 	collision with: 0 0 1 0 0  and 2 0 1 0 0 
 # max = 310
184164		 # 	collision with: 1 0 4 0 0  and 1 1 4 0 0 
 # max = 310
184165		 # 	collision with: 4 1 0 0 0  and 4 3 0 0 0 
 # max = 310
184166		 # 	collision with: 0 0 3 0 0  and 2 0 3 0 0 
 # max = 310
184167		 # 	collision with: 4 0 3 0 0  and 4 1 3 0 0 
 # max = 310
184192		 # 	collision with: 2 2 2 0 0  and 3 2 2 0 0 
 # max = 310
184193		 # 	collision with: 2 2 2 0 0  and 3 2 2 0 0 
 # max = 310
184194		 # 	collision with: 0 0 1 0 0  and 2 0 1 0 0 
 # max = 310
184195		 # 	collision with: 0 0 3 0 0  and 2 0 3 0 0 
 # max = 310
184200		 # 	collision with: 4 3 2 0 0  and 0 2 1 1 0 
 # max = 310
184201		 # 	collision with: 2 2 1 0 0  and 2 0 2 0 0 
 # max = 310
184202		 # 	collision with: 2 4 3 0 0  and 1 4 2 1 0 
 # max = 310
184203		 # 	collision with: 1 1 4 0 0  and 1 2 4 0 0 
 # max = 310
184228		 # 	collision with: 2 2 4 0 0  and 3 2 4 0 0 
 # max = 310
184229		 # 	collision with: 1 1 1 0 0  and 1 1 2 0 0 
 # max = 310
184230		 # 	collision with: 0 0 3 0 0  and 2 0 3 0 0 
 # max = 310
184231		 # 	collision with: 1 1 0 0 0  and 1 2 0 0 0 
 # max = 310
184256		 # 	collision with: 2 2 0 0 0  and 3 2 0 0 0 
 # max = 310
184257		 # 	collision with: 3 1 0 0 0  and 2 2 0 0 0 
 # max = 310
184258		 # 	collision with: 3 0 2 0 0  and 4 1 2 0 0 
 # max = 310
184259		 # 	collision with: 3 1 1 0 0  and 4 3 1 0 0 
 # max = 310
184264		 # 	collision with: 2 2 2 0 0  and 3 2 2 0 0 
 # max = 310
184265		 # 	collision with: 2 0 1 0 0  and 2 2 1 0 0 
 # max = 310
184266		 # 	collision with: 0 0 1 0 0  and 2 0 1 0 0 
 # max = 310
184267		 # 	collision with: 0 0 2 0 0  and 2 0 2 0 0 
 # max = 310
184292		 # 	collision with: 2 0 1 0 0  and 3 1 1 0 0 
 # max = 310
184293		 # 	collision with: 2 0 2 0 0  and 3 2 2 0 0 
 # max = 310
184294		 # 	collision with: 2 1 1 0 0  and 2 3 1 0 0 
 # max = 310
184295		 # 	collision with: 3 1 1 0 0  and 4 3 2 0 0 
 # max = 310
184300		 # 	collision with: 3 1 4 0 0  and 0 0 0 1 0 
 # max = 310
184301		 # 	collision with: 2 0 0 0 0  and 2 2 0 0 0 
 # max = 310
184302		 # 	collision with: 4 4 4 0 0  and 1 1 0 1 0 
 # max = 310
184303		 # 	collision with: 0 0 0 0 0  and 2 0 0 0 0 
 # max = 310
184328		 # 	collision with: 2 0 1 0 0  and 3 1 1 0 0 
 # max = 310
184329		 # 	collision with: 2 0 0 0 0  and 3 2 0 0 0 
 # max = 310
184330		 # 	collision with: 3 1 1 0 0  and 4 3 1 0 0 
 # max = 310
184331		 # 	collision with: 0 0 0 0 0  and 2 0 0 0 0 
 # max = 310
184356		 # 	collision with: 2 2 2 0 0  and 3 2 2 0 0 
 # max = 310
184357		 # 	collision with: 3 1 1 0 0  and 2 2 1 0 0 
 # max = 310
184358		 # 	collision with: 0 0 1 0 0  and 2 0 1 0 0 
 # max = 310
184359		 # 	collision with: 0 0 0 0 0  and 2 0 0 0 0 
 # max = 310
184364		 # 	collision with: 2 2 0 0 0  and 3 2 0 0 0 
 # max = 310
184365		 # 	collision with: 2 2 0 0 0  and 3 2 0 0 0 
 # max = 310
184366		 # 	collision with: 1 1 2 0 0  and 1 2 2 0 0 
 # max = 310
184367		 # 	collision with: 0 0 0 0 0  and 2 0 0 0 0 
 # max = 310
184392		 # 	collision with: 2 2 4 0 0  and 3 2 4 0 0 
 # max = 310
184393		 # 	collision with: 4 0 0 0 0  and 4 0 2 0 0 
 # max = 310
184394		 # 	collision with: 0 0 3 0 0  and 2 0 3 0 0 
 # max = 310
184395		 # 	collision with: 0 0 0 0 0  and 2 0 0 0 0 
 # max = 310
184400		 # 	collision with: 4 3 3 0 0  and 2 1 0 1 0 
 # max = 310
184401		 # 	collision with: 1 0 1 0 0  and 1 1 1 0 0 
 # max = 310
184402		 # 	collision with: 1 4 1 0 0  and 0 0 1 2 0 
 # max = 310
184403		 # 	collision with: 0 2 0 0 0  and 2 0 1 0 0 
 # max = 310
184428		 # 	collision with: 2 2 2 0 0  and 3 2 2 0 0 
 # max = 310
184429		 # 	collision with: 4 4 0 0 0  and 4 0 1 0 0 
 # max = 310
184430		 # 	collision with: 0 0 1 0 0  and 2 0 1 0 0 
 # max = 310
184431		 # 	collision with: 4 0 0 0 0  and 4 1 0 0 0 
 # max = 310
184456		 # 	collision with: 2 0 4 0 0  and 2 2 4 0 0 
 # max = 310
184457		 # 	collision with: 2 2 0 0 0  and 2 0 1 0 0 
 # max = 310
184458		 # 	collision with: 0 0 3 0 0  and 2 0 3 0 0 
 # max = 310
184459		 # 	collision with: 2 4 0 0 0  and 0 0 1 0 0 
 # max = 310
184464		 # 	collision with: 2 0 1 0 0  and 3 1 1 0 0 
 # max = 310
184465		 # 	collision with: 3 3 0 0 0  and 3 3 1 0 0 
 # max = 310
184466		 # 	collision with: 3 2 1 0 0  and 3 3 1 0 0 
 # max = 310
184467		 # 	collision with: 1 3 0 0 0  and 1 3 1 0 0 
 # max = 310
184492		 # 	collision with: 2 2 0 0 0  and 3 2 0 0 0 
 # max = 310
184493		 # 	collision with: 2 0 0 0 0  and 3 1 0 0 0 
 # max = 310
184494		 # 	collision with: 4 0 2 0 0  and 4 1 2 0 0 
 # max = 310
184495		 # 	collision with: 3 0 0 0 0  and 4 1 0 0 0 
 # max = 310
184509		 # 	collision with: 3 1 1 0 0  and 3 2 1 0 0 
 # max = 310
184511		 # 	collision with: 3 2 0 0 0  and 3 3 0 0 0 
 # max = 310
184513		 # 	collision with: 1 0 3 0 0  and 1 1 3 0 0 
 # max = 310
184515		 # 	collision with: 0 1 0 0 0  and 2 1 0 0 0 
 # max = 310
184525		 # 	collision with: 3 1 2 0 0  and 3 2 2 0 0 
 # max = 310
184527		 # 	collision with: 2 1 1 0 0  and 2 3 1 0 0 
 # max = 310
184533		 # 	collision with: 1 0 3 0 0  and 1 1 3 0 0 
 # max = 310
184589		 # 	collision with: 3 1 1 0 0  and 3 2 1 0 0 
 # max = 310
184597		 # 	collision with: 1 0 1 0 0  and 1 1 1 0 0 
 # max = 310
184599		 # 	collision with: 0 1 1 0 0  and 2 1 1 0 0 
 # max = 310
184600		 # 	collision with: 2 2 3 0 0  and 4 3 0 1 0 
 # max = 310
184602		 # 	collision with: 4 0 3 0 0  and 0 0 0 1 0 
 # max = 310
184609		 # 	collision with: 2 2 0 0 0  and 3 2 0 0 0 
 # max = 310
184611		 # 	collision with: 0 1 0 0 0  and 2 1 0 0 0 
 # max = 310
184615		 # 	collision with: 1 1 2 0 0  and 1 2 2 0 0 
 # max = 310
184625		 # 	collision with: 2 0 2 0 0  and 2 2 2 0 0 
 # max = 310
184627		 # 	collision with: 0 1 1 0 0  and 2 1 1 0 0 
 # max = 310
184633		 # 	collision with: 2 0 1 0 0  and 2 0 3 0 0 
 # max = 310
184635		 # 	collision with: 1 1 2 0 0  and 1 2 2 0 0 
 # max = 310
184689		 # 	collision with: 2 2 0 0 0  and 3 2 0 0 0 
 # max = 310
184691		 # 	collision with: 0 1 0 0 0  and 2 1 0 0 0 
 # max = 310
184697		 # 	collision with: 2 0 2 0 0  and 3 1 2 0 0 
 # max = 310
184699		 # 	collision with: 0 1 0 0 0  and 2 3 0 0 0 
 # max = 310
184700		 # 	collision with: 4 2 4 0 0  and 0 1 0 1 0 
 # max = 310
184702		 # 	collision with: 2 0 4 0 0  and 1 1 0 1 0 
 # max = 310
184709		 # 	collision with: 1 2 1 0 0  and 4 2 2 0 0 
 # max = 310
184713		 # 	collision with: 3 1 0 0 0  and 3 2 0 0 0 
 # max = 310
184715		 # 	collision with: 1 1 1 0 0  and 1 2 2 0 0 
 # max = 310
184725		 # 	collision with: 3 1 0 0 0  and 2 2 0 0 0 
 # max = 310
184727		 # 	collision with: 0 1 0 0 0  and 2 1 0 0 0 
 # max = 310
184735		 # 	collision with: 2 2 1 0 0  and 0 3 1 0 0 
 # max = 310
184789		 # 	collision with: 2 2 1 0 0  and 3 2 1 0 0 
 # max = 310
184791		 # 	collision with: 0 1 1 0 0  and 2 1 1 0 0 
 # max = 310
2.07769secs	310 1011
