# prime 5
# degree 2
# input variables 3
# output variables 7
# reload computed balance functions from file balance-150of261-p5d2m3-debug.log
# p = 5
# n = 7
# smalldomain p^m 125
# domain p^n 78125
#	 p^2 = 25
#	 p^3 = 125
#	 p^4 = 625
#	 p^5 = 3125
#	 p^6 = 15625
#	 p^7 = 78125
#	 p^8 = 390625
#	 p^9 = 1953125
opening file : balance-150of261-p5d2m3-debug.log
reloading for step2...
180020		 # 	collision with: 2 3 0 0 0 0 0  and 3 3 0 0 0 0 0 
 # max = 18
180022		 # 	collision with: 0 3 0 0 0 0 0  and 2 3 0 0 0 0 0 
 # max = 18
180024		 # 	collision with: 4 0 0 0 0 0 0  and 1 2 0 0 0 0 0 
 # max = 18
180026		 # 	collision with: 2 2 0 0 0 0 0  and 0 3 0 0 0 0 0 
 # max = 18
180040		 # 	collision with: 2 3 0 0 0 0 0  and 3 3 0 0 0 0 0 
 # max = 18
180042		 # 	collision with: 0 3 0 0 0 0 0  and 2 3 0 0 0 0 0 
 # max = 18
180048		 # 	collision with: 4 1 0 0 0 0 0  and 1 2 0 0 0 0 0 
 # max = 18
180050		 # 	collision with: 4 0 0 0 0 0 0  and 3 1 0 0 0 0 0 
 # max = 18
180053		 # 	collision with: 3 0 1 0 0 0 0  and 3 2 1 0 0 0 0 
 # max = 38
180055		 # 	collision with: 2 2 0 0 0 0 0  and 2 3 0 0 0 0 0 
 # max = 38
180057		 # 	collision with: 3 0 2 0 0 0 0  and 3 2 2 0 0 0 0 
 # max = 63
180060		 # 	collision with: 2 3 0 0 0 0 0  and 3 3 0 0 0 0 0 
 # max = 63
180062		 # 	collision with: 0 3 0 0 0 0 0  and 2 3 0 0 0 0 0 
 # max = 63
180065		 # 	collision with: 2 1 2 0 0 0 0  and 2 2 2 0 0 0 0 
 # max = 63
180069		 # 	collision with: 2 1 1 0 0 0 0  and 2 2 1 0 0 0 0 
 # max = 63
180071		 # 	collision with: 1 0 2 0 0 0 0  and 1 1 2 0 0 0 0 
 # max = 63
180072		 # 	collision with: 2 1 0 0 0 0 0  and 2 2 0 0 0 0 0 
 # max = 63
180074		 # 	collision with: 0 0 0 0 0 0 0  and 2 1 0 0 0 0 0 
 # max = 63
180080		 # 	collision with: 2 3 0 0 0 0 0  and 3 3 0 0 0 0 0 
 # max = 63
180082		 # 	collision with: 0 3 0 0 0 0 0  and 2 3 0 0 0 0 0 
 # max = 63
180096		 # 	collision with: 4 0 0 0 0 0 0  and 4 1 0 0 0 0 0 
 # max = 63
180098		 # 	collision with: 3 0 0 0 0 0 0  and 4 1 0 0 0 0 0 
 # max = 63
180100		 # 	collision with: 2 2 1 1 4 0 0  and 1 0 0 0 0 1 0 
 # max = 3126
180102		 # 	collision with: 4 0 1 2 4 0 0  and 0 4 1 0 0 1 0 
 # max = 3170
180120		 # 	collision with: 2 3 4 0 0 0 0  and 3 3 4 0 0 0 0 
 # max = 3170
180122		 # 	collision with: 0 3 4 0 0 0 0  and 2 3 4 0 0 0 0 
 # max = 3170
180124		 # 	collision with: 2 3 1 0 0 0 0  and 3 3 1 0 0 0 0 
 # max = 3170
180140		 # 	collision with: 2 3 2 0 0 0 0  and 3 3 2 0 0 0 0 
 # max = 3170
180142		 # 	collision with: 0 3 2 0 0 0 0  and 2 3 2 0 0 0 0 
 # max = 3170
180150		 # 	collision with: 1 0 2 0 0 0 0  and 1 1 2 0 0 0 0 
 # max = 3170
180153		 # 	collision with: 2 3 0 0 0 0 0  and 3 3 0 0 0 0 0 
 # max = 3170
180157		 # 	collision with: 1 1 0 0 0 0 0  and 4 3 0 0 0 0 0 
 # max = 3170
180159		 # 	collision with: 0 3 0 0 0 0 0  and 2 3 0 0 0 0 0 
 # max = 3170
180165		 # 	collision with: 1 1 0 0 0 0 0  and 1 3 0 0 0 0 0 
 # max = 3170
180167		 # 	collision with: 3 1 0 0 0 0 0  and 4 3 0 0 0 0 0 
 # max = 3170
180169		 # 	collision with: 2 3 1 0 0 0 0  and 3 3 1 0 0 0 0 
 # max = 3170
180171		 # 	collision with: 3 1 0 0 0 0 0  and 3 3 0 0 0 0 0 
 # max = 3170
180172		 # 	collision with: 2 3 0 0 0 0 0  and 3 3 0 0 0 0 0 
 # max = 3170
180174		 # 	collision with: 0 3 0 0 0 0 0  and 2 3 0 0 0 0 0 
 # max = 3170
180180		 # 	collision with: 2 3 1 0 0 0 0  and 3 3 1 0 0 0 0 
 # max = 3170
180182		 # 	collision with: 0 3 1 0 0 0 0  and 2 3 1 0 0 0 0 
 # max = 3170
180196		 # 	collision with: 4 0 1 0 0 0 0  and 1 2 1 0 0 0 0 
 # max = 3170
180198		 # 	collision with: 1 0 1 0 0 0 0  and 1 1 1 0 0 0 0 
 # max = 3170
180200		 # 	collision with: 0 2 3 2 2 0 0  and 3 3 0 0 0 1 0 
 # max = 3170
180202		 # 	collision with: 0 4 0 1 2 0 0  and 1 3 2 1 0 1 0 
 # max = 3316
180224		 # 	collision with: 2 3 0 0 0 0 0  and 3 3 0 0 0 0 0 
 # max = 3316
180226		 # 	collision with: 0 3 0 0 0 0 0  and 2 3 0 0 0 0 0 
 # max = 3316
180240		 # 	collision with: 2 3 4 0 0 0 0  and 3 3 4 0 0 0 0 
 # max = 3316
180242		 # 	collision with: 0 3 4 0 0 0 0  and 2 3 4 0 0 0 0 
 # max = 3316
180248		 # 	collision with: 2 3 1 0 0 0 0  and 3 3 1 0 0 0 0 
 # max = 3316
180255		 # 	collision with: 2 1 0 0 0 0 0  and 0 2 0 0 0 0 0 
 # max = 3316
180257		 # 	collision with: 4 1 0 0 0 0 0  and 1 2 0 0 0 0 0 
 # max = 3316
180259		 # 	collision with: 4 1 0 0 0 0 0  and 4 2 0 0 0 0 0 
 # max = 3316
180260		 # 	collision with: 2 3 1 0 0 0 0  and 3 3 1 0 0 0 0 
 # max = 3316
180262		 # 	collision with: 0 3 1 0 0 0 0  and 2 3 1 0 0 0 0 
 # max = 3316
180267		 # 	collision with: 0 3 1 0 0 0 0  and 2 3 1 0 0 0 0 
 # max = 3316
180269		 # 	collision with: 1 3 1 0 0 0 0  and 1 1 2 0 0 0 0 
 # max = 3316
180271		 # 	collision with: 0 3 0 0 0 0 0  and 2 3 0 0 0 0 0 
 # max = 3316
180272		 # 	collision with: 4 1 1 0 0 0 0  and 1 2 1 0 0 0 0 
 # max = 3316
180274		 # 	collision with: 4 0 1 0 0 0 0  and 3 1 1 0 0 0 0 
 # max = 3316
180280		 # 	collision with: 2 3 2 0 0 0 0  and 3 3 2 0 0 0 0 
 # max = 3316
180282		 # 	collision with: 0 3 2 0 0 0 0  and 2 3 2 0 0 0 0 
 # max = 3316
180298		 # 	collision with: 4 0 2 0 0 0 0  and 3 1 2 0 0 0 0 
 # max = 3316
180300		 # 	collision with: 2 0 4 0 3 0 0  and 0 2 0 0 0 1 0 
 # max = 3316
180302		 # 	collision with: 4 4 4 2 3 0 0  and 1 0 1 0 0 1 0 
 # max = 3316
180320		 # 	collision with: 2 3 2 0 0 0 0  and 3 3 2 0 0 0 0 
 # max = 3316
180322		 # 	collision with: 0 3 2 0 0 0 0  and 2 3 2 0 0 0 0 
 # max = 3316
180326		 # 	collision with: 0 0 2 0 0 0 0  and 2 1 2 0 0 0 0 
 # max = 3316
180340		 # 	collision with: 2 3 1 0 0 0 0  and 3 3 1 0 0 0 0 
 # max = 3316
180342		 # 	collision with: 0 3 1 0 0 0 0  and 2 3 1 0 0 0 0 
 # max = 3316
180348		 # 	collision with: 2 1 1 0 0 0 0  and 2 2 1 0 0 0 0 
 # max = 3316
180350		 # 	collision with: 0 0 1 0 0 0 0  and 2 1 1 0 0 0 0 
 # max = 3316
180353		 # 	collision with: 4 0 0 0 0 0 0  and 1 2 0 0 0 0 0 
 # max = 3316
180355		 # 	collision with: 3 1 1 0 0 0 0  and 3 3 1 0 0 0 0 
 # max = 3316
180359		 # 	collision with: 3 0 0 0 0 0 0  and 4 2 0 0 0 0 0 
 # max = 3316
180360		 # 	collision with: 2 3 4 0 0 0 0  and 3 3 4 0 0 0 0 
 # max = 3316
180362		 # 	collision with: 0 3 4 0 0 0 0  and 2 3 4 0 0 0 0 
 # max = 3316
180365		 # 	collision with: 4 0 1 0 0 0 0  and 4 1 1 0 0 0 0 
 # max = 3316
180367		 # 	collision with: 2 0 1 0 0 0 0  and 0 1 1 0 0 0 0 
 # max = 3316
180371		 # 	collision with: 2 2 1 0 0 0 0  and 2 3 1 0 0 0 0 
 # max = 3316
180372		 # 	collision with: 2 3 1 0 0 0 0  and 3 3 1 0 0 0 0 
 # max = 3316
180396		 # 	collision with: 2 3 0 0 0 0 0  and 3 3 0 0 0 0 0 
 # max = 3316
180398		 # 	collision with: 0 3 0 0 0 0 0  and 2 3 0 0 0 0 0 
 # max = 3316
180400		 # 	collision with: 4 3 4 2 1 0 0  and 3 3 0 0 0 1 0 
 # max = 3316
180402		 # 	collision with: 2 3 2 1 1 0 0  and 4 0 3 0 0 1 0 
 # max = 3316
180420		 # 	collision with: 2 3 1 0 0 0 0  and 3 3 1 0 0 0 0 
 # max = 3316
180422		 # 	collision with: 0 3 1 0 0 0 0  and 2 3 1 0 0 0 0 
 # max = 3316
180424		 # 	collision with: 4 0 1 0 0 0 0  and 4 1 1 0 0 0 0 
 # max = 3316
180426		 # 	collision with: 3 0 1 0 0 0 0  and 4 1 1 0 0 0 0 
 # max = 3316
180448		 # 	collision with: 2 3 0 0 0 0 0  and 3 3 0 0 0 0 0 
 # max = 3316
180450		 # 	collision with: 0 3 0 0 0 0 0  and 2 3 0 0 0 0 0 
 # max = 3316
180453		 # 	collision with: 2 2 0 0 0 0 0  and 2 2 1 0 0 0 0 
 # max = 3316
180455		 # 	collision with: 0 3 0 0 0 0 0  and 2 3 0 0 0 0 0 
 # max = 3316
180457		 # 	collision with: 4 0 0 0 0 0 0  and 4 1 0 0 0 0 0 
 # max = 3316
180459		 # 	collision with: 4 0 0 0 0 0 0  and 3 1 0 0 0 0 0 
 # max = 3316
180460		 # 	collision with: 2 3 2 0 0 0 0  and 3 3 2 0 0 0 0 
 # max = 3316
180462		 # 	collision with: 0 3 2 0 0 0 0  and 2 3 2 0 0 0 0 
 # max = 3316
180465		 # 	collision with: 2 1 0 0 0 0 0  and 2 1 1 0 0 0 0 
 # max = 3316
180467		 # 	collision with: 1 2 0 0 0 0 0  and 1 4 0 0 0 0 0 
 # max = 3316
180469		 # 	collision with: 2 3 0 0 0 0 0  and 3 3 0 0 0 0 0 
 # max = 3316
180474		 # 	collision with: 3 0 2 0 0 0 0  and 4 1 2 0 0 0 0 
 # max = 3316
180480		 # 	collision with: 2 3 4 0 0 0 0  and 3 3 4 0 0 0 0 
 # max = 3316
180482		 # 	collision with: 0 3 4 0 0 0 0  and 2 3 4 0 0 0 0 
 # max = 3316
180496		 # 	collision with: 2 3 1 0 0 0 0  and 3 3 1 0 0 0 0 
 # max = 3316
180528		 # 	collision with: 1 1 0 0 0 0 0  and 1 3 0 0 0 0 0 
 # max = 3316
180530		 # 	collision with: 0 0 0 0 0 0 0  and 2 2 0 0 0 0 0 
 # max = 3316
180536		 # 	collision with: 4 0 0 0 0 0 0  and 1 2 0 0 0 0 0 
 # max = 3316
180541		 # 	collision with: 2 3 0 0 0 0 0  and 3 3 0 0 0 0 0 
 # max = 3316
180543		 # 	collision with: 0 2 2 0 0 0 0  and 2 3 2 0 0 0 0 
 # max = 3316
180549		 # 	collision with: 2 3 2 0 0 0 0  and 3 3 2 0 0 0 0 
 # max = 3316
180551		 # 	collision with: 0 2 0 0 0 0 0  and 2 3 0 0 0 0 0 
 # max = 3316
180552		 # 	collision with: 3 0 0 0 0 0 0  and 3 2 0 0 0 0 0 
 # max = 3316
180556		 # 	collision with: 4 0 0 0 0 0 0  and 1 2 0 0 0 0 0 
 # max = 3316
180558		 # 	collision with: 4 1 0 0 0 0 0  and 3 2 0 0 0 0 0 
 # max = 3316
180561		 # 	collision with: 2 3 0 0 0 0 0  and 3 3 0 0 0 0 0 
 # max = 3316
180563		 # 	collision with: 0 2 1 0 0 0 0  and 2 2 1 0 0 0 0 
 # max = 3316
180564		 # 	collision with: 4 1 0 0 0 0 0  and 1 2 0 0 0 0 0 
 # max = 3316
180566		 # 	collision with: 0 2 0 0 0 0 0  and 2 3 0 0 0 0 0 
 # max = 3316
180568		 # 	collision with: 1 1 0 0 0 0 0  and 1 3 0 0 0 0 0 
 # max = 3316
180573		 # 	collision with: 1 1 2 0 0 0 0  and 1 3 2 0 0 0 0 
 # max = 3316
180575		 # 	collision with: 2 2 0 0 0 0 0  and 2 3 0 0 0 0 0 
 # max = 3316
180584		 # 	collision with: 4 1 0 0 0 0 0  and 1 2 0 0 0 0 0 
 # max = 3316
180592		 # 	collision with: 3 0 0 0 0 0 0  and 3 2 0 0 0 0 0 
 # max = 3316
180594		 # 	collision with: 2 2 0 0 0 0 0  and 2 3 0 0 0 0 0 
 # max = 3316
180600		 # 	collision with: 2 4 3 2 0 0 0  and 1 0 0 0 0 1 0 
 # max = 3316
180602		 # 	collision with: 4 0 1 3 0 0 0  and 2 0 2 0 0 1 0 
 # max = 3316
180630		 # 	collision with: 0 2 0 0 0 0 0  and 2 2 0 0 0 0 0 
 # max = 3316
180636		 # 	collision with: 4 1 1 0 0 0 0  and 1 2 1 0 0 0 0 
 # max = 3316
180638		 # 	collision with: 0 2 1 0 0 0 0  and 2 2 1 0 0 0 0 
 # max = 3316
180643		 # 	collision with: 0 2 1 0 0 0 0  and 2 2 1 0 0 0 0 
 # max = 3316
180649		 # 	collision with: 1 1 0 0 0 0 0  and 1 3 0 0 0 0 0 
 # max = 3316
180651		 # 	collision with: 2 1 1 0 0 0 0  and 2 1 3 0 0 0 0 
 # max = 3316
180652		 # 	collision with: 2 3 0 0 0 0 0  and 3 3 0 0 0 0 0 
 # max = 3316
180654		 # 	collision with: 0 0 3 0 0 0 0  and 2 2 3 0 0 0 0 
 # max = 3316
180656		 # 	collision with: 4 0 1 0 0 0 0  and 1 2 1 0 0 0 0 
 # max = 3316
180661		 # 	collision with: 1 1 1 0 0 0 0  and 1 3 1 0 0 0 0 
 # max = 3316
180663		 # 	collision with: 3 1 1 0 0 0 0  and 3 3 1 0 0 0 0 
 # max = 3316
180664		 # 	collision with: 2 3 2 0 0 0 0  and 3 3 2 0 0 0 0 
 # max = 3316
180666		 # 	collision with: 0 2 4 0 0 0 0  and 2 2 4 0 0 0 0 
 # max = 3316
180668		 # 	collision with: 2 3 1 0 0 0 0  and 3 3 1 0 0 0 0 
 # max = 3316
180670		 # 	collision with: 0 2 0 0 0 0 0  and 2 2 0 0 0 0 0 
 # max = 3316
180686		 # 	collision with: 0 2 3 0 0 0 0  and 2 2 3 0 0 0 0 
 # max = 3316
180692		 # 	collision with: 2 3 0 0 0 0 0  and 3 3 0 0 0 0 0 
 # max = 3316
180694		 # 	collision with: 0 2 2 0 0 0 0  and 2 2 2 0 0 0 0 
 # max = 3316
180700		 # 	collision with: 0 3 2 1 0 0 0  and 2 1 2 0 0 1 0 
 # max = 3316
180702		 # 	collision with: 1 1 4 4 0 0 0  and 3 1 0 0 0 1 0 
 # max = 3316
180728		 # 	collision with: 2 3 2 0 0 0 0  and 3 3 2 0 0 0 0 
 # max = 3316
180730		 # 	collision with: 1 0 4 0 0 0 0  and 1 1 4 0 0 0 0 
 # max = 3316
180736		 # 	collision with: 2 3 1 0 0 0 0  and 3 3 1 0 0 0 0 
 # max = 3316
180738		 # 	collision with: 0 2 0 0 0 0 0  and 2 2 0 0 0 0 0 
 # max = 3316
180741		 # 	collision with: 1 3 1 0 0 0 0  and 1 1 2 0 0 0 0 
 # max = 3316
180749		 # 	collision with: 4 0 1 0 0 0 0  and 4 1 1 0 0 0 0 
 # max = 3316
180751		 # 	collision with: 4 1 0 0 0 0 0  and 4 2 0 0 0 0 0 
 # max = 3316
180752		 # 	collision with: 4 0 1 0 0 0 0  and 1 2 1 0 0 0 0 
 # max = 3316
180754		 # 	collision with: 1 0 1 0 0 0 0  and 1 1 1 0 0 0 0 
 # max = 3316
180758		 # 	collision with: 0 2 0 0 0 0 0  and 2 2 0 0 0 0 0 
 # max = 3316
180761		 # 	collision with: 2 3 1 0 0 0 0  and 3 3 1 0 0 0 0 
 # max = 3316
180763		 # 	collision with: 0 2 2 0 0 0 0  and 2 2 2 0 0 0 0 
 # max = 3316
180764		 # 	collision with: 2 3 0 0 0 0 0  and 3 3 0 0 0 0 0 
 # max = 3316
180766		 # 	collision with: 0 2 2 0 0 0 0  and 2 2 2 0 0 0 0 
 # max = 3316
180770		 # 	collision with: 0 2 3 0 0 0 0  and 2 2 3 0 0 0 0 
 # max = 3316
180773		 # 	collision with: 4 1 0 0 0 0 0  and 1 2 0 0 0 0 0 
 # max = 3316
180775		 # 	collision with: 0 2 0 0 0 0 0  and 2 2 0 0 0 0 0 
 # max = 3316
180784		 # 	collision with: 2 3 0 0 0 0 0  and 3 3 0 0 0 0 0 
 # max = 3316
180786		 # 	collision with: 0 2 4 0 0 0 0  and 2 2 4 0 0 0 0 
 # max = 3316
180792		 # 	collision with: 4 1 1 0 0 0 0  and 1 2 1 0 0 0 0 
 # max = 3316
180800		 # 	collision with: 0 1 3 4 0 0 0  and 4 1 2 0 0 1 0 
 # max = 3316
180802		 # 	collision with: 1 1 0 1 0 0 0  and 2 2 0 0 0 1 0 
 # max = 3316
180828		 # 	collision with: 4 0 1 0 0 0 0  and 4 1 1 0 0 0 0 
 # max = 3316
180836		 # 	collision with: 2 3 0 0 0 0 0  and 3 3 0 0 0 0 0 
 # max = 3316
180838		 # 	collision with: 1 0 3 0 0 0 0  and 1 1 3 0 0 0 0 
 # max = 3316
180841		 # 	collision with: 2 3 1 0 0 0 0  and 3 3 1 0 0 0 0 
 # max = 3316
180843		 # 	collision with: 0 2 0 0 0 0 0  and 2 2 0 0 0 0 0 
 # max = 3316
180849		 # 	collision with: 1 2 0 0 0 0 0  and 1 2 2 0 0 0 0 
 # max = 3316
180851		 # 	collision with: 0 0 0 0 0 0 0  and 2 2 0 0 0 0 0 
 # max = 3316
180854		 # 	collision with: 0 2 3 0 0 0 0  and 2 2 3 0 0 0 0 
 # max = 3316
180856		 # 	collision with: 2 3 0 0 0 0 0  and 3 3 0 0 0 0 0 
 # max = 3316
180858		 # 	collision with: 0 2 2 0 0 0 0  and 2 2 2 0 0 0 0 
 # max = 3316
180861		 # 	collision with: 3 0 2 0 0 0 0  and 3 2 2 0 0 0 0 
 # max = 3316
180866		 # 	collision with: 0 2 0 0 0 0 0  and 2 2 0 0 0 0 0 
 # max = 3316
180868		 # 	collision with: 4 0 1 0 0 0 0  and 4 1 1 0 0 0 0 
 # max = 3316
180870		 # 	collision with: 0 2 1 0 0 0 0  and 2 2 1 0 0 0 0 
 # max = 3316
180873		 # 	collision with: 3 0 0 0 0 0 0  and 3 2 0 0 0 0 0 
 # max = 3316
180875		 # 	collision with: 3 3 0 0 0 0 0  and 3 3 2 0 0 0 0 
 # max = 3316
180884		 # 	collision with: 2 3 1 0 0 0 0  and 3 3 1 0 0 0 0 
 # max = 3316
180886		 # 	collision with: 0 2 0 0 0 0 0  and 2 2 0 0 0 0 0 
 # max = 3316
180892		 # 	collision with: 2 3 2 0 0 0 0  and 3 3 2 0 0 0 0 
 # max = 3316
180894		 # 	collision with: 0 2 4 0 0 0 0  and 2 2 4 0 0 0 0 
 # max = 3316
180900		 # 	collision with: 4 2 2 3 0 0 0  and 3 0 1 0 0 1 0 
 # max = 3316
180902		 # 	collision with: 0 3 3 2 0 0 0  and 3 0 1 0 0 1 0 
 # max = 3316
180928		 # 	collision with: 2 3 0 0 0 0 0  and 3 3 0 0 0 0 0 
 # max = 3316
180930		 # 	collision with: 0 2 2 0 0 0 0  and 2 2 2 0 0 0 0 
 # max = 3316
180938		 # 	collision with: 0 2 3 0 0 0 0  and 2 2 3 0 0 0 0 
 # max = 3316
180941		 # 	collision with: 4 0 0 0 0 0 0  and 4 1 0 0 0 0 0 
 # max = 3316
180943		 # 	collision with: 1 2 0 0 0 0 0  and 1 4 0 0 0 0 0 
 # max = 3316
180952		 # 	collision with: 2 3 1 0 0 0 0  and 3 3 1 0 0 0 0 
 # max = 3316
180954		 # 	collision with: 0 2 0 0 0 0 0  and 2 2 0 0 0 0 0 
 # max = 3316
180956		 # 	collision with: 2 3 2 0 0 0 0  and 3 3 2 0 0 0 0 
 # max = 3316
180958		 # 	collision with: 0 2 4 0 0 0 0  and 2 2 4 0 0 0 0 
 # max = 3316
180963		 # 	collision with: 1 2 0 0 0 0 0  and 1 4 0 0 0 0 0 
 # max = 3316
180964		 # 	collision with: 2 3 1 0 0 0 0  and 3 3 1 0 0 0 0 
 # max = 3316
180968		 # 	collision with: 2 3 0 0 0 0 0  and 3 3 0 0 0 0 0 
 # max = 3316
180970		 # 	collision with: 3 1 3 0 0 0 0  and 3 3 3 0 0 0 0 
 # max = 3316
180973		 # 	collision with: 2 1 1 0 0 0 0  and 2 2 1 0 0 0 0 
 # max = 3316
180975		 # 	collision with: 4 0 0 0 0 0 0  and 4 0 1 0 0 0 0 
 # max = 3316
180984		 # 	collision with: 1 1 1 0 0 0 0  and 4 3 1 0 0 0 0 
 # max = 3316
180986		 # 	collision with: 0 2 1 0 0 0 0  and 2 2 1 0 0 0 0 
 # max = 3316
180994		 # 	collision with: 0 2 0 0 0 0 0  and 2 2 0 0 0 0 0 
 # max = 3316
181005		 # 	collision with: 1 1 1 0 0 0 0  and 1 3 1 0 0 0 0 
 # max = 3316
181007		 # 	collision with: 3 4 2 0 0 0 0  and 3 0 3 0 0 0 0 
 # max = 3316
181017		 # 	collision with: 4 0 0 1 0 0 0  and 1 2 1 1 0 0 0 
 # max = 3316
181019		 # 	collision with: 4 2 0 1 0 0 0  and 3 3 1 1 0 0 0 
 # max = 3316
181021		 # 	collision with: 2 3 0 0 0 0 0  and 3 3 0 0 0 0 0 
 # max = 3316
181023		 # 	collision with: 0 1 3 0 0 0 0  and 2 1 3 0 0 0 0 
 # max = 3316
181025		 # 	collision with: 1 1 1 0 0 0 0  and 1 3 1 0 0 0 0 
 # max = 3316
181081		 # 	collision with: 2 3 0 0 0 0 0  and 3 3 0 0 0 0 0 
 # max = 3316
181083		 # 	collision with: 4 2 1 0 0 0 0  and 3 3 1 0 0 0 0 
 # max = 3316
181097		 # 	collision with: 2 3 2 0 0 0 0  and 3 3 2 0 0 0 0 
 # max = 3316
181100		 # 	collision with: 2 0 1 1 1 0 0  and 1 4 1 0 0 1 0 
 # max = 3316
181102		 # 	collision with: 3 4 4 2 1 0 0  and 0 2 2 0 0 1 0 
 # max = 3316
181105		 # 	collision with: 3 0 2 0 0 0 0  and 3 2 2 0 0 0 0 
 # max = 3316
181107		 # 	collision with: 3 1 0 0 0 0 0  and 3 3 0 0 0 0 0 
 # max = 3316
181117		 # 	collision with: 3 4 0 2 0 0 0  and 2 0 1 2 0 0 0 
 # max = 3316
181119		 # 	collision with: 0 3 2 1 0 0 0  and 2 0 3 1 0 0 0 
 # max = 3316
181123		 # 	collision with: 0 1 2 0 0 0 0  and 2 1 2 0 0 0 0 
 # max = 3316
181125		 # 	collision with: 2 3 1 0 0 0 0  and 3 3 1 0 0 0 0 
 # max = 3316
181127		 # 	collision with: 3 1 0 0 0 0 0  and 3 3 0 0 0 0 0 
 # max = 3316
181181		 # 	collision with: 2 3 1 0 0 0 0  and 3 3 1 0 0 0 0 
 # max = 3316
181183		 # 	collision with: 0 1 3 0 0 0 0  and 2 1 3 0 0 0 0 
 # max = 3316
181199		 # 	collision with: 0 1 2 0 0 0 0  and 2 1 2 0 0 0 0 
 # max = 3316
21.4768secs	3316 7350
