# prime 5
# degree 2
# input variables 3
# output variables 5
# reload computed balance functions from file balance-249of261-p5d2m3-debug.log
# p = 5
# n = 5
# smalldomain p^m 125
# domain p^n 3125
#	 p^2 = 25
#	 p^3 = 125
#	 p^4 = 625
#	 p^5 = 3125
#	 p^6 = 15625
#	 p^7 = 78125
#	 p^8 = 390625
#	 p^9 = 1953125
opening file : balance-249of261-p5d2m3-debug.log
reloading for step2...
298800		 # 	collision with: 4 1 1 0 0  and 2 0 1 1 0 
 # max = 152
298802		 # 	collision with: 4 1 2 0 0  and 0 0 2 1 0 
 # max = 175
298811		 # 	collision with: 4 0 0 0 0  and 4 2 0 0 0 
 # max = 175
298813		 # 	collision with: 4 0 2 0 0  and 4 1 2 0 0 
 # max = 175
298815		 # 	collision with: 3 1 3 0 0  and 3 2 3 0 0 
 # max = 175
298828		 # 	collision with: 2 3 1 0 0  and 3 3 1 0 0 
 # max = 175
298830		 # 	collision with: 1 0 1 0 0  and 0 1 1 0 0 
 # max = 175
298833		 # 	collision with: 1 1 1 0 0  and 4 3 1 0 0 
 # max = 175
298835		 # 	collision with: 0 0 1 0 0  and 1 0 1 0 0 
 # max = 175
298836		 # 	collision with: 2 3 0 0 0  and 3 3 0 0 0 
 # max = 175
298838		 # 	collision with: 0 0 2 0 0  and 1 0 2 0 0 
 # max = 175
298854		 # 	collision with: 0 0 1 0 0  and 1 0 1 0 0 
 # max = 175
298856		 # 	collision with: 2 3 0 0 0  and 3 3 0 0 0 
 # max = 175
298858		 # 	collision with: 0 0 1 0 0  and 1 0 1 0 0 
 # max = 175
298866		 # 	collision with: 3 1 2 0 0  and 3 2 2 0 0 
 # max = 175
298868		 # 	collision with: 1 1 1 0 0  and 4 3 1 0 0 
 # max = 175
298870		 # 	collision with: 2 0 1 0 0  and 4 2 1 0 0 
 # max = 175
298884		 # 	collision with: 2 3 1 0 0  and 3 3 1 0 0 
 # max = 175
298889		 # 	collision with: 4 1 0 0 0  and 4 0 2 0 0 
 # max = 175
298892		 # 	collision with: 2 3 2 0 0  and 3 3 2 0 0 
 # max = 175
298900		 # 	collision with: 0 3 0 0 0  and 2 2 0 1 0 
 # max = 175
298902		 # 	collision with: 2 1 1 0 0  and 3 0 1 1 0 
 # max = 175
298909		 # 	collision with: 2 3 0 0 0  and 3 3 0 0 0 
 # max = 175
298911		 # 	collision with: 2 0 0 0 0  and 4 0 0 0 0 
 # max = 175
298913		 # 	collision with: 4 1 1 0 0  and 1 2 1 0 0 
 # max = 175
298915		 # 	collision with: 2 0 0 0 0  and 4 0 0 0 0 
 # max = 175
298928		 # 	collision with: 2 3 0 0 0  and 3 3 0 0 0 
 # max = 175
298930		 # 	collision with: 0 0 1 0 0  and 1 0 1 0 0 
 # max = 175
298933		 # 	collision with: 1 1 0 0 0  and 1 3 1 0 0 
 # max = 175
298935		 # 	collision with: 2 0 0 0 0  and 4 0 0 0 0 
 # max = 175
298938		 # 	collision with: 0 0 1 0 0  and 1 0 1 0 0 
 # max = 175
298952		 # 	collision with: 2 3 1 0 0  and 3 3 1 0 0 
 # max = 175
298956		 # 	collision with: 2 3 2 0 0  and 3 3 2 0 0 
 # max = 175
298964		 # 	collision with: 4 1 1 0 0  and 1 2 1 0 0 
 # max = 175
298966		 # 	collision with: 4 0 1 0 0  and 4 2 1 0 0 
 # max = 175
298968		 # 	collision with: 2 3 0 0 0  and 3 3 0 0 0 
 # max = 175
298970		 # 	collision with: 0 0 2 0 0  and 1 0 2 0 0 
 # max = 175
298984		 # 	collision with: 4 0 1 0 0  and 1 2 1 0 0 
 # max = 175
298986		 # 	collision with: 4 0 1 0 0  and 4 2 1 0 0 
 # max = 175
298989		 # 	collision with: 2 3 0 0 0  and 3 3 0 0 0 
 # max = 175
298991		 # 	collision with: 2 0 0 0 0  and 4 0 0 0 0 
 # max = 175
298994		 # 	collision with: 2 1 2 0 0  and 2 3 2 0 0 
 # max = 175
299035		 # 	collision with: 0 1 1 0 0  and 1 1 1 0 0 
 # max = 175
299041		 # 	collision with: 2 3 0 0 0  and 3 3 0 0 0 
 # max = 175
299043		 # 	collision with: 2 2 0 0 0  and 4 3 0 0 0 
 # max = 175
299049		 # 	collision with: 2 1 1 0 0  and 2 2 1 0 0 
 # max = 175
299051		 # 	collision with: 1 2 0 0 0  and 1 3 0 0 0 
 # max = 175
299061		 # 	collision with: 2 3 0 0 0  and 3 3 0 0 0 
 # max = 175
299063		 # 	collision with: 2 2 0 0 0  and 4 3 0 0 0 
 # max = 175
299073		 # 	collision with: 2 3 2 0 0  and 3 3 2 0 0 
 # max = 175
299075		 # 	collision with: 4 0 1 0 0  and 4 2 1 0 0 
 # max = 175
299091		 # 	collision with: 1 2 0 0 0  and 1 3 0 0 0 
 # max = 175
299100		 # 	collision with: 0 0 1 0 0  and 1 2 0 1 0 
 # max = 175
299102		 # 	collision with: 3 0 1 0 0  and 2 1 0 1 0 
 # max = 175
299133		 # 	collision with: 2 3 0 0 0  and 3 3 0 0 0 
 # max = 175
299135		 # 	collision with: 0 1 0 0 0  and 1 1 0 0 0 
 # max = 175
299141		 # 	collision with: 1 1 0 0 0  and 1 3 0 0 0 
 # max = 175
299143		 # 	collision with: 2 1 0 0 0  and 2 3 0 0 0 
 # max = 175
299149		 # 	collision with: 1 1 0 0 0  and 4 3 0 0 0 
 # max = 175
299151		 # 	collision with: 4 1 0 0 0  and 2 3 0 0 0 
 # max = 175
299161		 # 	collision with: 1 1 0 0 0  and 1 3 0 0 0 
 # max = 175
299173		 # 	collision with: 2 3 0 0 0  and 3 3 0 0 0 
 # max = 175
299189		 # 	collision with: 1 1 0 0 0  and 4 3 0 0 0 
 # max = 175
299191		 # 	collision with: 4 1 0 0 0  and 2 3 0 0 0 
 # max = 175
299200		 # 	collision with: 2 2 0 0 0  and 1 2 2 1 0 
 # max = 186
299202		 # 	collision with: 0 0 4 0 0  and 4 0 1 1 0 
 # max = 186
299233		 # 	collision with: 4 1 0 0 0  and 1 2 0 0 0 
 # max = 186
299241		 # 	collision with: 1 3 1 0 0  and 1 1 2 0 0 
 # max = 186
299243		 # 	collision with: 0 1 1 0 0  and 1 1 1 0 0 
 # max = 186
299251		 # 	collision with: 0 1 0 0 0  and 1 1 0 0 0 
 # max = 186
299263		 # 	collision with: 2 3 1 0 0  and 2 1 2 0 0 
 # max = 186
299273		 # 	collision with: 4 1 0 0 0  and 1 2 0 0 0 
 # max = 186
299275		 # 	collision with: 1 2 1 0 0  and 1 3 1 0 0 
 # max = 186
299289		 # 	collision with: 1 1 2 0 0  and 1 3 2 0 0 
 # max = 186
299291		 # 	collision with: 0 1 0 0 0  and 1 1 0 0 0 
 # max = 186
299300		 # 	collision with: 4 4 3 0 0  and 3 3 1 1 0 
 # max = 186
299302		 # 	collision with: 2 1 0 0 0  and 1 0 3 1 0 
 # max = 201
299333		 # 	collision with: 4 0 0 0 0  and 1 2 0 0 0 
 # max = 201
299335		 # 	collision with: 2 1 1 0 0  and 2 3 1 0 0 
 # max = 201
299343		 # 	collision with: 1 3 0 0 0  and 1 2 2 0 0 
 # max = 201
299349		 # 	collision with: 3 0 0 0 0  and 3 2 0 0 0 
 # max = 201
299351		 # 	collision with: 2 2 1 0 0  and 4 3 1 0 0 
 # max = 201
299361		 # 	collision with: 3 4 0 0 0  and 2 0 2 0 0 
 # max = 201
299363		 # 	collision with: 2 4 0 0 0  and 2 0 2 0 0 
 # max = 201
299375		 # 	collision with: 0 1 1 0 0  and 1 1 1 0 0 
 # max = 201
299389		 # 	collision with: 3 0 0 0 0  and 3 2 0 0 0 
 # max = 201
299400		 # 	collision with: 0 3 1 0 0  and 3 2 2 1 0 
 # max = 201
299402		 # 	collision with: 3 0 1 0 0  and 1 0 2 1 0 
 # max = 201
299433		 # 	collision with: 4 1 1 0 0  and 1 2 1 0 0 
 # max = 201
299435		 # 	collision with: 3 3 0 0 0  and 3 0 1 0 0 
 # max = 201
299441		 # 	collision with: 1 3 0 0 0  and 1 1 1 0 0 
 # max = 201
299449		 # 	collision with: 2 3 0 0 0  and 3 3 0 0 0 
 # max = 201
299461		 # 	collision with: 3 3 0 0 0  and 2 0 1 0 0 
 # max = 201
299463		 # 	collision with: 0 1 0 0 0  and 1 1 0 0 0 
 # max = 201
299473		 # 	collision with: 4 3 0 0 0  and 1 3 1 0 0 
 # max = 201
299475		 # 	collision with: 3 1 1 0 0  and 3 2 1 0 0 
 # max = 201
299489		 # 	collision with: 2 3 0 0 0  and 3 3 0 0 0 
 # max = 201
299491		 # 	collision with: 4 4 0 0 0  and 2 2 1 0 0 
 # max = 201
299535		 # 	collision with: 0 2 3 0 0  and 1 2 3 0 0 
 # max = 201
299553		 # 	collision with: 4 0 1 0 0  and 1 2 1 0 0 
 # max = 201
299555		 # 	collision with: 2 0 3 0 0  and 4 1 3 0 0 
 # max = 201
299557		 # 	collision with: 3 3 2 0 0  and 2 0 3 0 0 
 # max = 201
299559		 # 	collision with: 4 0 2 0 0  and 4 2 2 0 0 
 # max = 201
299565		 # 	collision with: 2 1 2 0 0  and 2 2 2 0 0 
 # max = 201
299567		 # 	collision with: 2 1 1 0 0  and 2 3 1 0 0 
 # max = 201
299569		 # 	collision with: 2 1 2 0 0  and 2 1 3 0 0 
 # max = 201
299571		 # 	collision with: 0 2 0 0 0  and 1 2 0 0 0 
 # max = 201
299591		 # 	collision with: 0 2 0 0 0  and 1 2 0 0 0 
 # max = 201
299600		 # 	collision with: 0 2 2 0 0  and 4 0 0 1 0 
 # max = 201
299602		 # 	collision with: 0 1 2 0 0  and 3 3 0 1 0 
 # max = 201
299633		 # 	collision with: 2 3 0 0 0  and 3 3 0 0 0 
 # max = 201
299635		 # 	collision with: 2 1 0 0 0  and 2 3 0 0 0 
 # max = 201
299655		 # 	collision with: 2 1 0 0 0  and 2 3 0 0 0 
 # max = 201
299657		 # 	collision with: 1 1 0 0 0  and 4 3 0 0 0 
 # max = 201
299659		 # 	collision with: 0 2 0 0 0  and 1 2 0 0 0 
 # max = 201
299669		 # 	collision with: 2 3 1 0 0  and 3 3 1 0 0 
 # max = 201
299689		 # 	collision with: 2 3 2 0 0  and 3 3 2 0 0 
 # max = 201
299691		 # 	collision with: 0 2 1 0 0  and 1 2 1 0 0 
 # max = 201
299700		 # 	collision with: 2 0 1 0 0  and 1 4 0 1 0 
 # max = 201
299702		 # 	collision with: 1 3 1 0 0  and 4 4 0 1 0 
 # max = 201
299733		 # 	collision with: 3 0 1 0 0  and 3 0 2 0 0 
 # max = 201
299753		 # 	collision with: 4 0 1 0 0  and 4 0 2 0 0 
 # max = 201
299755		 # 	collision with: 1 2 1 0 0  and 1 3 1 0 0 
 # max = 201
299757		 # 	collision with: 4 0 1 0 0  and 4 0 2 0 0 
 # max = 201
299759		 # 	collision with: 1 0 1 0 0  and 1 0 2 0 0 
 # max = 201
299765		 # 	collision with: 2 3 0 0 0  and 3 3 0 0 0 
 # max = 201
299767		 # 	collision with: 0 2 0 0 0  and 1 2 0 0 0 
 # max = 201
299769		 # 	collision with: 4 1 0 0 0  and 1 2 0 0 0 
 # max = 201
299771		 # 	collision with: 0 2 1 0 0  and 1 2 1 0 0 
 # max = 201
299789		 # 	collision with: 4 1 0 0 0  and 1 2 0 0 0 
 # max = 201
299791		 # 	collision with: 3 0 1 0 0  and 3 0 2 0 0 
 # max = 201
299800		 # 	collision with: 1 2 4 0 0  and 3 1 0 1 0 
 # max = 201
299802		 # 	collision with: 4 2 4 0 0  and 1 4 0 1 0 
 # max = 201
299833		 # 	collision with: 3 0 0 0 0  and 3 2 0 0 0 
 # max = 201
299835		 # 	collision with: 0 2 0 0 0  and 1 2 0 0 0 
 # max = 201
299853		 # 	collision with: 3 0 0 0 0  and 3 2 0 0 0 
 # max = 201
299855		 # 	collision with: 0 2 0 0 0  and 1 2 0 0 0 
 # max = 201
299857		 # 	collision with: 2 3 0 0 0  and 3 3 0 0 0 
 # max = 201
299859		 # 	collision with: 4 0 0 0 0  and 2 2 0 0 0 
 # max = 201
299865		 # 	collision with: 4 0 0 0 0  and 1 2 0 0 0 
 # max = 201
299867		 # 	collision with: 4 0 0 0 0  and 4 2 0 0 0 
 # max = 201
299869		 # 	collision with: 4 0 0 0 0  and 1 2 2 0 0 
 # max = 201
299871		 # 	collision with: 0 2 1 0 0  and 1 3 1 0 0 
 # max = 201
299889		 # 	collision with: 1 2 0 0 0  and 1 2 2 0 0 
 # max = 201
299900		 # 	collision with: 1 1 0 0 0  and 0 0 2 1 0 
 # max = 201
299902		 # 	collision with: 4 1 3 0 0  and 3 1 0 1 0 
 # max = 201
299933		 # 	collision with: 3 4 0 0 0  and 2 0 1 0 0 
 # max = 201
299935		 # 	collision with: 2 2 0 0 0  and 4 0 1 0 0 
 # max = 201
299953		 # 	collision with: 3 2 0 0 0  and 3 0 1 0 0 
 # max = 201
299965		 # 	collision with: 3 2 0 0 0  and 3 0 1 0 0 
 # max = 201
299967		 # 	collision with: 0 2 1 0 0  and 1 2 1 0 0 
 # max = 201
299971		 # 	collision with: 2 0 0 0 0  and 4 1 0 0 0 
 # max = 201
299989		 # 	collision with: 4 0 0 0 0  and 4 1 0 0 0 
 # max = 201
299991		 # 	collision with: 2 0 0 0 0  and 4 1 0 0 0 
 # max = 201
1.57997secs	201 823
