# prime 5
# degree 2
# input variables 3
# output variables 7
# reload computed balance functions from file balance-116of261-p5d2m3-debug.log
# p = 5
# n = 7
# smalldomain p^m 125
# domain p^n 78125
#	 p^2 = 25
#	 p^3 = 125
#	 p^4 = 625
#	 p^5 = 3125
#	 p^6 = 15625
#	 p^7 = 78125
#	 p^8 = 390625
#	 p^9 = 1953125
opening file : balance-116of261-p5d2m3-debug.log
reloading for step2...
139200		 # 	collision with: 1 3 0 4 2 0 0  and 0 4 0 0 0 1 0 
 # max = 3145
139202		 # 	collision with: 1 3 4 2 2 0 0  and 3 2 1 0 0 1 0 
 # max = 3163
139224		 # 	collision with: 4 2 3 0 0 0 0  and 4 3 3 0 0 0 0 
 # max = 3163
139226		 # 	collision with: 3 0 3 0 0 0 0  and 3 2 3 0 0 0 0 
 # max = 3163
139236		 # 	collision with: 4 0 2 0 0 0 0  and 1 2 2 0 0 0 0 
 # max = 3163
139238		 # 	collision with: 2 0 2 0 0 0 0  and 2 2 2 0 0 0 0 
 # max = 3163
139245		 # 	collision with: 2 0 1 0 0 0 0  and 2 0 2 0 0 0 0 
 # max = 3163
139247		 # 	collision with: 3 0 1 0 0 0 0  and 3 2 1 0 0 0 0 
 # max = 3163
139250		 # 	collision with: 4 0 4 0 0 0 0  and 4 2 4 0 0 0 0 
 # max = 3163
139252		 # 	collision with: 3 2 1 0 0 0 0  and 3 3 1 0 0 0 0 
 # max = 3163
139254		 # 	collision with: 3 0 1 0 0 0 0  and 4 1 1 0 0 0 0 
 # max = 3163
139257		 # 	collision with: 4 4 1 0 0 0 0  and 1 0 2 0 0 0 0 
 # max = 3163
139265		 # 	collision with: 3 0 1 0 0 0 0  and 3 0 2 0 0 0 0 
 # max = 3163
139267		 # 	collision with: 3 0 1 0 0 0 0  and 3 2 1 0 0 0 0 
 # max = 3163
139270		 # 	collision with: 4 1 4 0 0 0 0  and 3 2 4 0 0 0 0 
 # max = 3163
139272		 # 	collision with: 4 0 1 0 0 0 0  and 1 2 1 0 0 0 0 
 # max = 3163
139274		 # 	collision with: 1 0 1 0 0 0 0  and 1 2 1 0 0 0 0 
 # max = 3163
139277		 # 	collision with: 3 0 1 0 0 0 0  and 3 0 2 0 0 0 0 
 # max = 3163
139279		 # 	collision with: 1 0 1 0 0 0 0  and 1 0 2 0 0 0 0 
 # max = 3163
139284		 # 	collision with: 1 0 3 0 0 0 0  and 4 1 3 0 0 0 0 
 # max = 3163
139296		 # 	collision with: 1 0 2 0 0 0 0  and 4 1 2 0 0 0 0 
 # max = 3163
139298		 # 	collision with: 3 0 2 0 0 0 0  and 4 1 2 0 0 0 0 
 # max = 3163
139300		 # 	collision with: 3 3 0 4 3 0 0  and 0 2 0 0 0 1 0 
 # max = 3163
139302		 # 	collision with: 1 4 0 1 3 0 0  and 0 0 0 0 0 1 0 
 # max = 3163
139324		 # 	collision with: 4 2 2 0 0 0 0  and 4 3 2 0 0 0 0 
 # max = 3163
139326		 # 	collision with: 3 0 2 0 0 0 0  and 3 2 2 0 0 0 0 
 # max = 3163
139336		 # 	collision with: 1 2 3 0 0 0 0  and 1 3 3 0 0 0 0 
 # max = 3163
139345		 # 	collision with: 4 1 0 0 0 0 0  and 1 0 2 0 0 0 0 
 # max = 3163
139347		 # 	collision with: 3 0 0 0 0 0 0  and 3 2 0 0 0 0 0 
 # max = 3163
139348		 # 	collision with: 2 2 1 0 0 0 0  and 2 3 1 0 0 0 0 
 # max = 3163
139350		 # 	collision with: 4 0 1 0 0 0 0  and 4 2 1 0 0 0 0 
 # max = 3163
139354		 # 	collision with: 1 0 4 0 0 0 0  and 1 2 4 0 0 0 0 
 # max = 3163
139357		 # 	collision with: 4 0 0 0 0 0 0  and 1 2 2 0 0 0 0 
 # max = 3163
139359		 # 	collision with: 2 0 0 0 0 0 0  and 2 2 0 0 0 0 0 
 # max = 3163
139365		 # 	collision with: 2 3 0 0 0 0 0  and 2 3 2 0 0 0 0 
 # max = 3163
139368		 # 	collision with: 1 0 1 0 0 0 0  and 4 1 1 0 0 0 0 
 # max = 3163
139370		 # 	collision with: 4 0 1 0 0 0 0  and 4 2 1 0 0 0 0 
 # max = 3163
139374		 # 	collision with: 1 0 4 0 0 0 0  and 1 2 4 0 0 0 0 
 # max = 3163
139377		 # 	collision with: 4 1 0 0 0 0 0  and 1 0 2 0 0 0 0 
 # max = 3163
139379		 # 	collision with: 2 0 0 0 0 0 0  and 2 2 0 0 0 0 0 
 # max = 3163
139384		 # 	collision with: 3 1 2 0 0 0 0  and 2 2 2 0 0 0 0 
 # max = 3163
139386		 # 	collision with: 3 0 2 0 0 0 0  and 3 2 2 0 0 0 0 
 # max = 3163
139396		 # 	collision with: 1 0 3 0 0 0 0  and 4 1 3 0 0 0 0 
 # max = 3163
139398		 # 	collision with: 3 0 3 0 0 0 0  and 4 1 3 0 0 0 0 
 # max = 3163
139400		 # 	collision with: 4 2 1 2 1 0 0  and 3 0 0 0 0 1 0 
 # max = 3163
139402		 # 	collision with: 2 1 3 1 1 0 0  and 4 2 1 0 0 1 0 
 # max = 3164
139424		 # 	collision with: 4 2 1 0 0 0 0  and 4 3 1 0 0 0 0 
 # max = 3164
139426		 # 	collision with: 3 0 1 0 0 0 0  and 3 2 1 0 0 0 0 
 # max = 3164
139438		 # 	collision with: 2 0 4 0 0 0 0  and 2 2 4 0 0 0 0 
 # max = 3164
139445		 # 	collision with: 2 2 0 0 0 0 0  and 3 4 0 0 0 0 0 
 # max = 3164
139448		 # 	collision with: 2 2 3 0 0 0 0  and 2 3 3 0 0 0 0 
 # max = 3164
139450		 # 	collision with: 4 0 3 0 0 0 0  and 4 2 3 0 0 0 0 
 # max = 3164
139452		 # 	collision with: 1 0 2 0 0 0 0  and 4 1 2 0 0 0 0 
 # max = 3164
139454		 # 	collision with: 1 0 2 0 0 0 0  and 1 2 2 0 0 0 0 
 # max = 3164
139459		 # 	collision with: 2 0 1 0 0 0 0  and 2 2 1 0 0 0 0 
 # max = 3164
139465		 # 	collision with: 2 2 0 0 0 0 0  and 3 4 0 0 0 0 0 
 # max = 3164
139467		 # 	collision with: 4 1 0 0 0 0 0  and 4 1 1 0 0 0 0 
 # max = 3164
139468		 # 	collision with: 2 2 3 0 0 0 0  and 2 3 3 0 0 0 0 
 # max = 3164
139472		 # 	collision with: 4 0 2 0 0 0 0  and 1 2 2 0 0 0 0 
 # max = 3164
139474		 # 	collision with: 1 0 2 0 0 0 0  and 1 2 2 0 0 0 0 
 # max = 3164
139479		 # 	collision with: 2 0 1 0 0 0 0  and 2 2 1 0 0 0 0 
 # max = 3164
139484		 # 	collision with: 4 2 1 0 0 0 0  and 4 3 1 0 0 0 0 
 # max = 3164
139486		 # 	collision with: 3 0 1 0 0 0 0  and 3 2 1 0 0 0 0 
 # max = 3164
139498		 # 	collision with: 3 0 4 0 0 0 0  and 4 1 4 0 0 0 0 
 # max = 3164
139505		 # 	collision with: 4 2 0 0 0 0 0  and 4 3 0 0 0 0 0 
 # max = 3164
139507		 # 	collision with: 1 0 3 0 0 0 0  and 1 2 3 0 0 0 0 
 # max = 3164
139517		 # 	collision with: 1 2 0 0 0 0 0  and 1 3 0 0 0 0 0 
 # max = 3164
139519		 # 	collision with: 4 0 2 0 0 0 0  and 4 2 2 0 0 0 0 
 # max = 3164
139529		 # 	collision with: 2 2 0 0 0 0 0  and 2 3 0 0 0 0 0 
 # max = 3164
139531		 # 	collision with: 3 2 0 0 0 0 0  and 4 3 0 0 0 0 0 
 # max = 3164
139533		 # 	collision with: 3 2 0 0 0 0 0  and 3 3 0 0 0 0 0 
 # max = 3164
139589		 # 	collision with: 2 2 0 0 0 0 0  and 2 3 0 0 0 0 0 
 # max = 3164
139593		 # 	collision with: 3 2 0 0 0 0 0  and 3 3 0 0 0 0 0 
 # max = 3164
139595		 # 	collision with: 2 0 1 0 0 0 0  and 2 2 1 0 0 0 0 
 # max = 3164
139600		 # 	collision with: 2 2 2 2 0 0 0  and 4 3 0 0 0 1 0 
 # max = 3164
139602		 # 	collision with: 3 0 2 3 0 0 0  and 2 4 1 0 0 1 0 
 # max = 3172
139605		 # 	collision with: 1 4 1 0 0 0 0  and 1 1 3 0 0 0 0 
 # max = 3172
139607		 # 	collision with: 1 0 2 0 0 0 0  and 1 2 2 0 0 0 0 
 # max = 3172
139617		 # 	collision with: 3 1 0 0 0 0 0  and 2 3 0 0 0 0 0 
 # max = 3172
139619		 # 	collision with: 2 1 0 0 0 0 0  and 0 3 0 0 0 0 0 
 # max = 3172
139629		 # 	collision with: 2 2 2 0 0 0 0  and 2 3 2 0 0 0 0 
 # max = 3172
139631		 # 	collision with: 3 0 1 0 0 0 0  and 3 2 1 0 0 0 0 
 # max = 3172
139635		 # 	collision with: 0 1 2 0 0 0 0  and 2 2 2 0 0 0 0 
 # max = 3172
139689		 # 	collision with: 2 2 2 0 0 0 0  and 2 3 2 0 0 0 0 
 # max = 3172
139691		 # 	collision with: 3 0 1 0 0 0 0  and 3 2 1 0 0 0 0 
 # max = 3172
139695		 # 	collision with: 4 1 1 0 0 0 0  and 4 1 3 0 0 0 0 
 # max = 3172
139700		 # 	collision with: 3 2 2 2 2 2 0  and 1 0 0 0 0 0 1 
 # max = 15626
139702		 # 	collision with: 1 0 1 4 0 0 0  and 3 3 0 0 0 1 0 
 # max = 15626
139717		 # 	collision with: 3 1 0 0 0 0 0  and 2 2 0 0 0 0 0 
 # max = 15626
139719		 # 	collision with: 2 1 1 0 0 0 0  and 0 3 2 0 0 0 0 
 # max = 15626
139729		 # 	collision with: 4 1 1 0 0 0 0  and 4 1 2 0 0 0 0 
 # max = 15626
139731		 # 	collision with: 2 0 1 0 0 0 0  and 0 1 1 0 0 0 0 
 # max = 15626
139733		 # 	collision with: 3 2 1 0 0 0 0  and 3 3 1 0 0 0 0 
 # max = 15626
139735		 # 	collision with: 2 0 2 0 0 0 0  and 2 2 2 0 0 0 0 
 # max = 15626
139789		 # 	collision with: 1 1 1 0 0 0 0  and 1 1 2 0 0 0 0 
 # max = 15626
139791		 # 	collision with: 2 1 1 0 0 0 0  and 2 1 2 0 0 0 0 
 # max = 15626
139793		 # 	collision with: 3 2 1 0 0 0 0  and 3 3 1 0 0 0 0 
 # max = 15626
139800		 # 	collision with: 3 2 0 4 0 0 0  and 0 1 1 0 0 1 0 
 # max = 15626
139802		 # 	collision with: 2 1 3 1 3 3 0  and 4 0 0 0 0 1 1 
 # max = 18754
139805		 # 	collision with: 4 4 0 0 0 0 0  and 1 0 2 0 0 0 0 
 # max = 18754
139807		 # 	collision with: 1 3 0 0 0 0 0  and 1 4 0 0 0 0 0 
 # max = 18754
139829		 # 	collision with: 2 2 1 0 0 0 0  and 2 3 1 0 0 0 0 
 # max = 18754
139833		 # 	collision with: 4 0 0 0 0 0 0  and 1 2 0 0 0 0 0 
 # max = 18754
139835		 # 	collision with: 2 0 0 0 0 0 0  and 2 2 0 0 0 0 0 
 # max = 18754
139889		 # 	collision with: 2 2 1 0 0 0 0  and 2 3 1 0 0 0 0 
 # max = 18754
139891		 # 	collision with: 3 0 0 0 0 0 0  and 3 2 0 0 0 0 0 
 # max = 18754
139893		 # 	collision with: 4 0 0 0 0 0 0  and 1 2 0 0 0 0 0 
 # max = 18754
139895		 # 	collision with: 2 0 0 0 0 0 0  and 2 2 0 0 0 0 0 
 # max = 18754
139900		 # 	collision with: 1 0 4 3 0 0 0  and 2 4 0 0 0 1 0 
 # max = 18754
139902		 # 	collision with: 2 4 3 2 0 0 0  and 3 0 0 0 0 1 0 
 # max = 18754
139905		 # 	collision with: 4 2 1 0 0 0 0  and 4 3 1 0 0 0 0 
 # max = 18754
139907		 # 	collision with: 0 1 0 0 0 0 0  and 2 0 1 0 0 0 0 
 # max = 18754
139917		 # 	collision with: 3 1 0 0 0 0 0  and 2 2 1 0 0 0 0 
 # max = 18754
139919		 # 	collision with: 0 1 0 0 0 0 0  and 2 0 1 0 0 0 0 
 # max = 18754
139931		 # 	collision with: 2 0 0 0 0 0 0  and 2 0 1 0 0 0 0 
 # max = 18754
139933		 # 	collision with: 3 0 0 0 0 0 0  and 3 0 1 0 0 0 0 
 # max = 18754
139935		 # 	collision with: 2 0 0 0 0 0 0  and 2 0 1 0 0 0 0 
 # max = 18754
139991		 # 	collision with: 3 0 0 0 0 0 0  and 3 0 1 0 0 0 0 
 # max = 18754
139993		 # 	collision with: 2 0 0 0 0 0 0  and 2 0 1 0 0 0 0 
 # max = 18754
139995		 # 	collision with: 3 0 0 0 0 0 0  and 3 0 1 0 0 0 0 
 # max = 18754
140020		 # 	collision with: 2 4 0 0 0 0 0  and 3 4 0 0 0 0 0 
 # max = 18754
140022		 # 	collision with: 0 4 0 0 0 0 0  and 2 4 0 0 0 0 0 
 # max = 18754
140032		 # 	collision with: 3 0 0 0 0 0 0  and 3 1 0 0 0 0 0 
 # max = 18754
140034		 # 	collision with: 4 0 0 0 0 0 0  and 3 1 0 0 0 0 0 
 # max = 18754
140040		 # 	collision with: 2 4 0 0 0 0 0  and 3 4 0 0 0 0 0 
 # max = 18754
140042		 # 	collision with: 0 4 0 0 0 0 0  and 2 4 0 0 0 0 0 
 # max = 18754
140044		 # 	collision with: 4 1 0 0 0 0 0  and 4 2 0 0 0 0 0 
 # max = 18754
140046		 # 	collision with: 4 2 0 0 0 0 0  and 4 3 0 0 0 0 0 
 # max = 18754
140049		 # 	collision with: 4 1 1 0 0 0 0  and 4 2 1 0 0 0 0 
 # max = 18754
140051		 # 	collision with: 0 4 0 0 0 0 0  and 2 4 0 0 0 0 0 
 # max = 18754
140057		 # 	collision with: 4 0 1 0 0 0 0  and 1 1 1 0 0 0 0 
 # max = 18754
140060		 # 	collision with: 2 4 0 0 0 0 0  and 3 4 0 0 0 0 0 
 # max = 18754
140062		 # 	collision with: 0 4 0 0 0 0 0  and 2 4 0 0 0 0 0 
 # max = 18754
140065		 # 	collision with: 2 4 2 0 0 0 0  and 3 4 2 0 0 0 0 
 # max = 18754
140073		 # 	collision with: 1 0 1 0 0 0 0  and 1 2 1 0 0 0 0 
 # max = 18754
140075		 # 	collision with: 2 2 0 0 0 0 0  and 0 3 0 0 0 0 0 
 # max = 18754
140076		 # 	collision with: 4 0 0 0 0 0 0  and 1 1 0 0 0 0 0 
 # max = 18754
140078		 # 	collision with: 2 2 0 0 0 0 0  and 0 3 0 0 0 0 0 
 # max = 18754
140080		 # 	collision with: 2 4 0 0 0 0 0  and 3 4 0 0 0 0 0 
 # max = 18754
140082		 # 	collision with: 0 4 0 0 0 0 0  and 2 4 0 0 0 0 0 
 # max = 18754
140088		 # 	collision with: 2 1 0 0 0 0 0  and 2 3 0 0 0 0 0 
 # max = 18754
140090		 # 	collision with: 2 0 0 0 0 0 0  and 2 1 0 0 0 0 0 
 # max = 18754
140100		 # 	collision with: 2 1 1 1 1 0 0  and 1 0 0 0 0 1 0 
 # max = 18754
140102		 # 	collision with: 4 2 3 2 1 0 0  and 2 1 0 0 0 1 0 
 # max = 18754
140132		 # 	collision with: 2 4 2 0 0 0 0  and 3 4 2 0 0 0 0 
 # max = 18754
140134		 # 	collision with: 0 4 2 0 0 0 0  and 2 4 2 0 0 0 0 
 # max = 18754
140140		 # 	collision with: 2 4 2 0 0 0 0  and 3 4 2 0 0 0 0 
 # max = 18754
140142		 # 	collision with: 0 4 2 0 0 0 0  and 2 4 2 0 0 0 0 
 # max = 18754
140144		 # 	collision with: 2 4 0 0 0 0 0  and 3 4 0 0 0 0 0 
 # max = 18754
140146		 # 	collision with: 0 4 0 0 0 0 0  and 2 4 0 0 0 0 0 
 # max = 18754
140149		 # 	collision with: 2 1 0 0 0 0 0  and 2 3 0 0 0 0 0 
 # max = 18754
140159		 # 	collision with: 1 1 0 0 0 0 0  and 1 3 0 0 0 0 0 
 # max = 18754
140160		 # 	collision with: 2 4 3 0 0 0 0  and 3 4 3 0 0 0 0 
 # max = 18754
140162		 # 	collision with: 0 4 3 0 0 0 0  and 2 4 3 0 0 0 0 
 # max = 18754
140165		 # 	collision with: 2 4 0 0 0 0 0  and 3 4 0 0 0 0 0 
 # max = 18754
140167		 # 	collision with: 3 1 1 0 0 0 0  and 3 2 1 0 0 0 0 
 # max = 18754
140175		 # 	collision with: 0 4 0 0 0 0 0  and 2 4 0 0 0 0 0 
 # max = 18754
140176		 # 	collision with: 2 1 1 0 0 0 0  and 2 3 1 0 0 0 0 
 # max = 18754
140180		 # 	collision with: 2 4 1 0 0 0 0  and 3 4 1 0 0 0 0 
 # max = 18754
140182		 # 	collision with: 0 4 1 0 0 0 0  and 2 4 1 0 0 0 0 
 # max = 18754
140190		 # 	collision with: 4 0 2 0 0 0 0  and 3 1 2 0 0 0 0 
 # max = 18754
140200		 # 	collision with: 0 3 3 2 3 0 0  and 3 1 1 0 0 1 0 
 # max = 18754
140202		 # 	collision with: 0 4 2 0 3 0 0  and 1 0 0 0 0 1 0 
 # max = 18754
140220		 # 	collision with: 2 4 3 0 0 0 0  and 3 4 3 0 0 0 0 
 # max = 18754
140222		 # 	collision with: 0 4 3 0 0 0 0  and 2 4 3 0 0 0 0 
 # max = 18754
140232		 # 	collision with: 1 0 1 0 0 0 0  and 1 2 1 0 0 0 0 
 # max = 18754
140244		 # 	collision with: 2 4 2 0 0 0 0  and 3 4 2 0 0 0 0 
 # max = 18754
140246		 # 	collision with: 0 4 2 0 0 0 0  and 2 4 2 0 0 0 0 
 # max = 18754
140249		 # 	collision with: 2 4 0 0 0 0 0  and 3 4 0 0 0 0 0 
 # max = 18754
140251		 # 	collision with: 3 2 1 0 0 0 0  and 3 2 2 0 0 0 0 
 # max = 18754
140257		 # 	collision with: 2 1 1 0 0 0 0  and 2 3 1 0 0 0 0 
 # max = 18754
140259		 # 	collision with: 0 4 0 0 0 0 0  and 2 4 0 0 0 0 0 
 # max = 18754
140260		 # 	collision with: 2 4 1 0 0 0 0  and 3 4 1 0 0 0 0 
 # max = 18754
140262		 # 	collision with: 0 4 1 0 0 0 0  and 2 4 1 0 0 0 0 
 # max = 18754
140265		 # 	collision with: 4 1 0 0 0 0 0  and 4 2 0 0 0 0 0 
 # max = 18754
140267		 # 	collision with: 2 0 2 0 0 0 0  and 2 1 2 0 0 0 0 
 # max = 18754
140273		 # 	collision with: 2 4 1 0 0 0 0  and 2 0 2 0 0 0 0 
 # max = 18754
140275		 # 	collision with: 3 1 0 0 0 0 0  and 3 2 0 0 0 0 0 
 # max = 18754
140278		 # 	collision with: 3 1 2 0 0 0 0  and 3 2 2 0 0 0 0 
 # max = 18754
140280		 # 	collision with: 2 4 2 0 0 0 0  and 3 4 2 0 0 0 0 
 # max = 18754
140282		 # 	collision with: 0 4 2 0 0 0 0  and 2 4 2 0 0 0 0 
 # max = 18754
140288		 # 	collision with: 2 4 0 0 0 0 0  and 3 4 0 0 0 0 0 
 # max = 18754
140290		 # 	collision with: 0 4 0 0 0 0 0  and 2 4 0 0 0 0 0 
 # max = 18754
140300		 # 	collision with: 0 1 4 0 2 0 0  and 1 4 0 0 0 1 0 
 # max = 18754
140302		 # 	collision with: 4 1 3 2 2 0 0  and 1 4 0 0 0 1 0 
 # max = 18754
140320		 # 	collision with: 2 4 2 0 0 0 0  and 3 4 2 0 0 0 0 
 # max = 18754
140322		 # 	collision with: 0 4 2 0 0 0 0  and 2 4 2 0 0 0 0 
 # max = 18754
140332		 # 	collision with: 2 4 0 0 0 0 0  and 3 4 0 0 0 0 0 
 # max = 18754
140334		 # 	collision with: 0 4 0 0 0 0 0  and 2 4 0 0 0 0 0 
 # max = 18754
140340		 # 	collision with: 2 4 1 0 0 0 0  and 3 4 1 0 0 0 0 
 # max = 18754
140342		 # 	collision with: 0 4 1 0 0 0 0  and 2 4 1 0 0 0 0 
 # max = 18754
140346		 # 	collision with: 2 0 2 0 0 0 0  and 2 1 2 0 0 0 0 
 # max = 18754
140349		 # 	collision with: 2 2 0 0 0 0 0  and 2 2 2 0 0 0 0 
 # max = 18754
140351		 # 	collision with: 2 2 1 0 0 0 0  and 0 3 1 0 0 0 0 
 # max = 18754
140357		 # 	collision with: 1 3 0 0 0 0 0  and 1 4 0 0 0 0 0 
 # max = 18754
140359		 # 	collision with: 2 1 0 0 0 0 0  and 2 1 2 0 0 0 0 
 # max = 18754
140365		 # 	collision with: 4 0 1 0 0 0 0  and 1 1 1 0 0 0 0 
 # max = 18754
140367		 # 	collision with: 3 4 0 0 0 0 0  and 4 1 2 0 0 0 0 
 # max = 18754
140373		 # 	collision with: 2 4 0 0 0 0 0  and 3 4 0 0 0 0 0 
 # max = 18754
140375		 # 	collision with: 4 0 0 0 0 0 0  and 3 2 0 0 0 0 0 
 # max = 18754
140376		 # 	collision with: 2 4 2 0 0 0 0  and 3 4 2 0 0 0 0 
 # max = 18754
140378		 # 	collision with: 0 4 2 0 0 0 0  and 2 4 2 0 0 0 0 
 # max = 18754
140380		 # 	collision with: 2 4 3 0 0 0 0  and 3 4 3 0 0 0 0 
 # max = 18754
140382		 # 	collision with: 0 4 3 0 0 0 0  and 2 4 3 0 0 0 0 
 # max = 18754
140388		 # 	collision with: 4 1 1 0 0 0 0  and 4 2 1 0 0 0 0 
 # max = 18754
33.1736secs	18754 11060
