# prime 7
# degree 2
# input variables 3
# output variables 7
# p = 7
# n = 7
# smalldomain p^m 343
# domain p^n 823543
#	 p^2 = 49
#	 p^3 = 343
#	 p^4 = 2401
#	 p^5 = 16807
#	 p^6 = 117649
#	 p^7 = 823543
#	 p^8 = 5764801
#	 p^9 = 40353607
# dimension of the chunk  10300
# number of the chunk  123 of 319 blocks
# functions to test 10300
# startcode = 1266900  :: endcode = 1277200:: fdomain = 10300
1266903
1266913
1266915
1266933
1266935
1266944
1266946
1266949
1266951
1266969
1266971
1266985
1266987
1267005
1267007
1267017
1267019
1267097
1267099
1267109
1267111
1267129
1267131
1267140
1267142
1267145
1267147
1267165
1267167
1267181
1267183
1267201
1267203
1267213
1267215
1267293
1267295
1267305
1267307
1267325
1267327
1267336
1267338
1267341
1267343
1267361
1267377
1267379
1267397
1267399
1267411
1267489
1267491
1267503
1267521
1267532
1267534
1267537
1267539
1267559
1267573
1267575
1267593
1267595
1267605
1267607
1267685
1267687
1267697
1267717
1267719
1267756
1267758
1267768
1267770
1267779
1267784
1267786
1267808
1267810
1267812
1267814
1267820
1267822
1267825
1267837
1267839
1267840
1267842
1267845
1267847
1267857
1267860
1267862
1267868
1267870
1267872
1267874
1267896
1267898
1267907
1267912
1267914
1267924
1267926
1267952
1267954
1267964
1267973
1267975
1267980
1267982
1268006
1268008
1268010
1268016
1268018
1268021
1268023
1268033
1268035
1268036
1268038
1268041
1268043
1268053
1268055
1268056
1268058
1268068
1268070
1268092
1268094
1268101
1268103
1268108
1268110
1268120
1268122
1268148
1268150
1268160
1268162
1268169
1268176
1268178
1268200
1268212
1268214
1268217
1268219
1268229
1268231
1268232
1268234
1268237
1268249
1268251
1268254
1268260
1268262
1268264
1268266
1268288
1268290
1268297
1268299
1268304
1268306
1268316
1268318
1268356
1268358
1268365
1268367
1268372
1268374
1268396
1268398
1268400
1268402
1268408
1268415
1268425
1268427
1268428
1268430
1268435
1268445
1268447
1268448
1268450
1268456
1268458
1268460
1268462
1268484
1268486
1268493
1268495
1268502
1268512
1268514
1268540
1268542
1268554
1268561
1268563
1268568
1268570
1268592
1268594
1268596
1268598
1268604
1268606
1268609
1268611
1268623
1268624
1268626
1268629
1268631
1268643
1268644
1268652
1268654
1268656
1268658
1268689
1268691
1268696
1268698
1268708
1268710
1268736
1268738
1268748
1268750
1268757
1268759
1268764
1268766
1268788
1268790
1268792
1268794
1268802
1268805
1268807
1268817
1268825
1268827
1268837
1268839
1268840
1268842
1268848
1268850
1268852
1268876
1268878
1268885
1268892
1268894
1268904
1268906
1268932
1268934
1268944
1268946
1268953
1268955
1268984
1268986
1268988
1268990
1268996
1268998
1269001
1269003
1269013
1269015
1269016
1269018
1269021
1269023
1269033
1269035
1269036
1269038
1269044
1269046
1269050
1269072
1269074
1269081
1269083
1269088
1269100
1269101
1269102
1269103
1269148
1269149
1269150
1269151
1269168
1269169
1269170
1269171
1269188
1269189
1269190
1269191
1269236
1269237
1269238
1269239
1269256
1269257
1269258
1269259
1269276
1269277
1269278
1269279
1269296
1269297
1269298
1269299
1269344
1269345
1269346
1269347
1269364
1269365
1269366
1269367
1269384
1269385
1269386
1269387
1269432
1269433
1269434
1269435
1269452
1269453
1269454
1269455
1269472
1269473
1269474
1269475
1269492
1269493
1269494
1269495
1269540
1269541
1269542
1269543
1269560
1269561
1269562
1269563
1269580
1269581
1269582
1269583
1269628
1269629
1269630
1269631
1269648
1269649
1269650
1269651
1269668
1269669
1269670
1269671
1269688
1269689
1269690
1269691
1269736
1269737
1269738
1269739
1269756
1269757
1269758
1269759
1269776
1269777
1269778
1269779
1269824
1269825
1269826
1269827
1269844
1269845
1269846
1269847
1269864
1269865
1269866
1269867
1269884
1269885
1269886
1269887
1269932
1269933
1269934
1269935
1269952
1269953
1269954
1269955
1269972
1269973
1269974
1269975
1270020
1270021
1270022
1270023
1270040
1270041
1270042
1270043
1270060
1270061
1270062
1270063
1270080
1270081
1270082
1270083
1270128
1270129
1270130
1270131
1270148
1270149
1270150
1270151
1270168
1270169
1270170
1270171
1270216
1270217
1270218
1270219
1270236
1270237
1270238
1270239
1270256
1270257
1270258
1270259
1270276
1270277
1270278
1270279
1270324
1270325
1270326
1270327
1270344
1270345
1270346
1270347
1270364
1270365
1270366
1270367
1270412
1270413
1270414
1270415
1270432
1270433
1270434
1270435
1270452
1270453
1270454
1270455
1270481
1270483
1270493
1270495
1270523
1270529
1270531
1270553
1270555
1270613
1270615
1270617
1270619
1270651
1270668
1270670
1270677
1270679
1270689
1270717
1270719
1270727
1270749
1270751
1270809
1270811
1270845
1270847
1270864
1270866
1270873
1270875
1270885
1270887
1270913
1270921
1270945
1270947
1271005
1271007
1271009
1271011
1271041
1271043
1271060
1271062
1271069
1271071
1271083
1271109
1271111
1271117
1271119
1271141
1271143
1271201
1271203
1271205
1271207
1271237
1271239
1271256
1271258
1271267
1271277
1271279
1271305
1271307
1271313
1271315
1271337
1271339
1271397
1271399
1271401
1271403
1271433
1271435
1271452
1271454
1271461
1271463
1271473
1271475
1271501
1271503
1271509
1271511
1271533
1271535
1271593
1271597
1271599
1271629
1271648
1271650
1271657
1271669
1271671
1271697
1271699
1271705
1271707
1271791
1271793
1271795
1271825
1271827
1271849
1271851
1271869
1271871
1271895
1271905
1271907
1271921
1271993
1272009
1272011
1272023
1272040
1272042
1272047
1272065
1272067
1272089
1272091
1272101
1272117
1272119
1272189
1272191
1272205
1272207
1272217
1272219
1272236
1272238
1272241
1272243
1272261
1272285
1272297
1272299
1272315
1272385
1272387
1272403
1272413
1272415
1272432
1272434
1272437
1272439
1272457
1272459
1272481
1272483
1272493
1272495
1272509
1272511
1272581
1272583
1272597
1272599
1272609
1272611
1272628
1272630
1272633
1272635
1272653
1272655
1272677
1272679
1272689
1272691
1272705
1272707
1272777
1272779
1272793
1272795
1272805
1272807
1272824
1272826
1272829
1272849
1272851
1272873
1272875
1272887
1272901
1272903
1272975
1272989
1272991
1273001
1273020
1273022
1273025
1273027
1273047
1273069
1273071
1273081
1273083
1273097
1273099
1273169
1273171
1273185
1273197
1273199
1273248
1273250
1273252
1273254
1273267
1273280
1273282
1273288
1273290
1273312
1273314
1273317
1273319
1273321
1273323
1273324
1273326
1273332
1273334
1273337
1273339
1273341
1273343
1273344
1273346
1273368
1273370
1273376
1273378
1273395
1273404
1273406
1273408
1273410
1273412
1273414
1273444
1273446
1273448
1273450
1273461
1273463
1273476
1273478
1273484
1273486
1273508
1273513
1273515
1273517
1273519
1273522
1273528
1273530
1273533
1273535
1273537
1273539
1273542
1273564
1273566
1273572
1273574
1273589
1273591
1273600
1273604
1273606
1273608
1273610
1273642
1273644
1273646
1273657
1273672
1273674
1273680
1273682
1273704
1273706
1273713
1273715
1273716
1273718
1273724
1273726
1273731
1273733
1273735
1273736
1273738
1273760
1273768
1273770
1273785
1273787
1273798
1273800
1273804
1273806
1273836
1273838
1273840
1273842
1273853
1273855
1273868
1273878
1273900
1273902
1273905
1273907
1273909
1273912
1273914
1273920
1273925
1273927
1273929
1273931
1273932
1273934
1273956
1273958
1273966
1273981
1273983
1273992
1273994
1273996
1273998
1274000
1274002
1274032
1274034
1274036
1274038
1274049
1274051
1274066
1274072
1274074
1274096
1274098
1274101
1274103
1274105
1274107
1274108
1274116
1274118
1274121
1274125
1274127
1274128
1274130
1274154
1274160
1274177
1274179
1274188
1274190
1274192
1274194
1274196
1274198
1274228
1274234
1274245
1274247
1274260
1274262
1274268
1274292
1274294
1274297
1274299
1274303
1274304
1274306
1274312
1274314
1274317
1274319
1274324
1274326
1274348
1274350
1274356
1274358
1274373
1274384
1274386
1274390
1274392
1274394
1274424
1274426
1274428
1274441
1274443
1274456
1274458
1274464
1274466
1274490
1274493
1274495
1274497
1274499
1274500
1274502
1274510
1274513
1274515
1274517
1274519
1274520
1274544
1274546
1274552
1274554
1274569
1274571
1274580
1274582
1274584
1274586
1274601
1274603
1274605
1274607
1274639
1274653
1274655
1274661
1274663
1274741
1274743
1274749
1274751
1274767
1274784
1274786
1274797
1274799
1274801
1274803
1274833
1274835
1274849
1274851
1274857
1274859
1274937
1274939
1274945
1274947
1274961
1274963
1274980
1274982
1274993
1274995
1274999
1275029
1275045
1275047
1275053
1275055
1275133
1275135
1275141
1275157
1275159
1275176
1275178
1275189
1275191
1275193
1275225
1275227
1275243
1275249
1275331
1275337
1275339
1275353
1275355
1275372
1275374
1275385
1275389
1275391
1275421
1275423
1275437
1275439
1275447
1275525
1275535
1275549
1275551
1275568
1275570
1275583
1275585
1275587
1275617
1275619
1275633
1275641
1275643
1275721
1275723
1275729
1275731
1275745
1275764
1275766
1275777
1275779
1275781
1275783
1275813
1275815
1275829
1275831
1275837
1275839
1275917
1275919
1275925
1275927
1275941
1275943
1276004
1276011
1276012
1276014
1276020
1276036
1276038
1276045
1276047
1276053
1276055
1276060
1276062
1276064
1276073
1276075
1276080
1276084
1276086
1276093
1276095
1276108
1276110
1276124
1276132
1276134
1276139
1276140
1276156
1276158
1276202
1276205
1276207
1276208
1276210
1276216
1276218
1276232
1276243
1276249
1276256
1276258
1276260
1276262
1276269
1276271
1276276
1276278
1276280
1276282
1276291
1276304
1276306
1276320
1276322
1276330
1276333
1276335
1276336
1276338
1276352
1276354
1276396
1276398
1276401
1276404
1276406
1276414
1276428
1276430
1276437
1276439
1276445
1276447
1276452
1276454
1276456
1276458
1276465
1276467
1276472
1276474
1276476
1276485
1276487
1276502
1276516
1276518
1276524
1276526
1276529
1276531
1276532
1276534
1276548
1276550
1276592
1276594
1276597
1276599
1276600
1276602
1276608
1276610
1276624
1276626
1276633
1276635
1276641
1276643
1276648
1276650
1276654
1276661
1276668
1276670
1276674
1276681
1276683
1276696
1276698
1276712
1276714
1276720
1276725
1276727
1276728
1276730
1276744
1276746
1276788
1276790
1276793
1276795
1276796
1276804
1276806
1276820
1276822
1276829
1276837
1276839
1276846
1276848
1276850
1276857
1276859
1276866
1276868
1276870
1276877
1276879
1276892
1276894
1276908
1276910
1276916
1276918
1276921
1276923
1276924
1276926
1276940
1276942
1276984
1276986
1276989
1276991
1276992
1276994
1277000
1277002
1277018
1277025
1277027
1277033
1277035
1277040
1277044
1277046
1277053
1277055
1277060
1277062
1277064
1277066
1277073
1277075
1277088
1277090
1277106
1277112
1277114
1277117
1277120
1277122
1277136
1277138
1277180
1277182
1277185
1277187
1277190
1277196
1277198
# 426.96secs	# 1252 balance functions. Density 0.121553
