# prime 7
# degree 2
# input variables 3
# output variables 7
# p = 7
# n = 7
# smalldomain p^m 343
# domain p^n 823543
#	 p^2 = 49
#	 p^3 = 343
#	 p^4 = 2401
#	 p^5 = 16807
#	 p^6 = 117649
#	 p^7 = 823543
#	 p^8 = 5764801
#	 p^9 = 40353607
# dimension of the chunk  10300
# number of the chunk  146 of 319 blocks
# functions to test 10300
# startcode = 1503800  :: endcode = 1514100:: fdomain = 10300
1503853
1503855
1503857
1503859
1503885
1503887
1503893
1503895
1503908
1503910
1503953
1503955
1503961
1503965
1503967
1503989
1503991
1504049
1504053
1504055
1504081
1504083
1504089
1504091
1504104
1504106
1504149
1504151
1504157
1504159
1504161
1504163
1504187
1504247
1504249
1504251
1504277
1504279
1504285
1504287
1504300
1504302
1504345
1504347
1504355
1504357
1504359
1504381
1504383
1504441
1504443
1504445
1504473
1504475
1504496
1504498
1504549
1504551
1504553
1504555
1504577
1504637
1504639
1504641
1504643
1504671
1504677
1504679
1504692
1504694
1504737
1504739
1504745
1504747
1504751
1504773
1504775
1504833
1504835
1504839
1504865
1504867
1504873
1504875
1504888
1504890
1504933
1504935
1504941
1504943
1504945
1504969
1504971
1505029
1505031
1505033
1505035
1505061
1505069
1505071
1505084
1505085
1505086
1505087
1505132
1505133
1505134
1505135
1505152
1505153
1505154
1505155
1505172
1505173
1505174
1505175
1505220
1505221
1505222
1505223
1505240
1505241
1505242
1505243
1505260
1505261
1505262
1505263
1505280
1505281
1505282
1505283
1505328
1505329
1505330
1505331
1505348
1505349
1505350
1505351
1505368
1505369
1505370
1505371
1505416
1505417
1505418
1505419
1505436
1505437
1505438
1505439
1505456
1505457
1505458
1505459
1505476
1505477
1505478
1505479
1505524
1505525
1505526
1505527
1505544
1505545
1505546
1505547
1505564
1505565
1505566
1505567
1505612
1505613
1505614
1505615
1505632
1505633
1505634
1505635
1505652
1505653
1505654
1505655
1505672
1505673
1505674
1505675
1505720
1505721
1505722
1505723
1505740
1505741
1505742
1505743
1505760
1505761
1505762
1505763
1505808
1505809
1505810
1505811
1505828
1505829
1505830
1505831
1505848
1505849
1505850
1505851
1505868
1505869
1505870
1505871
1505916
1505917
1505918
1505919
1505936
1505937
1505938
1505939
1505956
1505957
1505958
1505959
1506004
1506005
1506006
1506007
1506024
1506025
1506026
1506027
1506044
1506045
1506046
1506047
1506064
1506065
1506066
1506067
1506112
1506113
1506114
1506115
1506132
1506133
1506134
1506135
1506152
1506153
1506154
1506155
1506200
1506201
1506202
1506203
1506220
1506221
1506222
1506223
1506240
1506241
1506242
1506243
1506260
1506261
1506262
1506263
1506308
1506309
1506310
1506311
1506328
1506329
1506330
1506331
1506348
1506349
1506350
1506351
1506396
1506397
1506398
1506399
1506416
1506417
1506418
1506419
1506436
1506437
1506438
1506439
1506465
1506467
1506477
1506479
1506488
1506492
1506494
1506520
1506528
1506530
1506541
1506543
1506549
1506551
1506552
1506564
1506566
1506569
1506571
1506572
1506574
1506584
1506589
1506591
1506608
1506610
1506616
1506644
1506646
1506648
1506652
1506654
1506663
1506673
1506675
1506684
1506686
1506688
1506690
1506716
1506718
1506724
1506726
1506737
1506739
1506745
1506747
1506750
1506760
1506765
1506770
1506780
1506782
1506785
1506787
1506804
1506806
1506812
1506814
1506840
1506842
1506844
1506846
1506848
1506850
1506857
1506859
1506869
1506871
1506880
1506882
1506886
1506912
1506914
1506920
1506922
1506933
1506935
1506941
1506944
1506946
1506956
1506958
1506961
1506963
1506964
1506966
1506976
1506978
1506981
1506983
1507000
1507002
1507008
1507010
1507036
1507042
1507044
1507046
1507053
1507065
1507067
1507076
1507078
1507080
1507082
1507110
1507116
1507131
1507137
1507139
1507140
1507142
1507152
1507154
1507157
1507159
1507160
1507162
1507172
1507174
1507179
1507198
1507204
1507206
1507232
1507234
1507236
1507238
1507240
1507242
1507249
1507251
1507261
1507272
1507274
1507276
1507278
1507304
1507306
1507314
1507325
1507327
1507335
1507336
1507338
1507348
1507350
1507355
1507356
1507358
1507368
1507370
1507373
1507375
1507392
1507402
1507428
1507430
1507432
1507434
1507436
1507438
1507445
1507447
1507457
1507459
1507470
1507472
1507500
1507502
1507508
1507510
1507521
1507523
1507529
1507531
1507532
1507534
1507544
1507546
1507549
1507551
1507552
1507554
1507564
1507566
1507569
1507588
1507590
1507596
1507598
1507626
1507628
1507630
1507632
1507634
1507641
1507643
1507655
1507664
1507666
1507668
1507670
1507696
1507698
1507704
1507706
1507717
1507725
1507727
1507728
1507730
1507742
1507745
1507747
1507748
1507762
1507765
1507767
1507784
1507786
1507792
1507794
1507820
1507822
1507824
1507826
1507837
1507839
1507849
1507851
1507856
1507858
1507860
1507884
1507886
1507892
1507912
1507914
1507924
1507929
1507931
1507937
1507939
1507940
1507942
1507945
1507947
1507953
1507955
1507956
1507968
1507970
1507988
1507996
1507998
1508020
1508024
1508026
1508035
1508045
1508047
1508052
1508054
1508056
1508058
1508080
1508082
1508088
1508090
1508120
1508122
1508125
1508127
1508133
1508135
1508136
1508138
1508141
1508149
1508151
1508154
1508164
1508166
1508184
1508186
1508192
1508194
1508216
1508218
1508220
1508222
1508229
1508231
1508241
1508243
1508248
1508250
1508254
1508276
1508278
1508284
1508286
1508304
1508306
1508316
1508318
1508321
1508329
1508331
1508332
1508334
1508337
1508339
1508345
1508347
1508348
1508350
1508360
1508362
1508380
1508382
1508412
1508414
1508416
1508418
1508425
1508427
1508437
1508444
1508446
1508448
1508450
1508480
1508482
1508500
1508502
1508512
1508514
1508519
1508525
1508527
1508528
1508530
1508535
1508541
1508543
1508544
1508546
1508556
1508558
1508578
1508584
1508586
1508608
1508610
1508612
1508614
1508621
1508633
1508635
1508640
1508642
1508644
1508646
1508668
1508670
1508678
1508696
1508698
1508708
1508710
1508713
1508715
1508723
1508724
1508726
1508729
1508731
1508739
1508740
1508742
1508772
1508774
1508780
1508782
1508804
1508806
1508808
1508810
1508817
1508819
1508829
1508831
1508840
1508842
1508864
1508866
1508872
1508874
1508892
1508894
1508904
1508906
1508909
1508911
1508917
1508919
1508920
1508922
1508925
1508927
1508933
1508936
1508938
1508948
1508950
1508968
1508970
1508976
1508978
1509002
1509004
1509006
1509013
1509015
1509027
1509032
1509034
1509036
1509038
1509060
1509062
1509068
1509070
1509088
1509090
1509102
1509105
1509107
1509113
1509121
1509123
1509129
1509131
1509132
1509134
1509144
1509146
1509164
1509166
1509172
1509174
1509196
1509198
1509205
1509207
1509225
1509227
1509236
1509238
1509252
1509254
1509272
1509274
1509276
1509278
1509289
1509293
1509295
1509300
1509302
1509308
1509310
1509316
1509318
1509324
1509326
1509333
1509335
1509337
1509348
1509350
1509352
1509354
1509372
1509374
1509388
1509390
1509396
1509398
1509401
1509421
1509423
1509432
1509434
1509448
1509468
1509474
1509485
1509487
1509496
1509498
1509504
1509506
1509512
1509514
1509520
1509522
1509529
1509531
1509535
1509544
1509546
1509550
1509568
1509570
1509584
1509586
1509592
1509594
1509599
1509617
1509619
1509628
1509630
1509644
1509646
1509664
1509666
1509668
1509681
1509683
1509685
1509687
1509692
1509694
1509702
1509708
1509718
1509725
1509727
1509729
1509731
1509740
1509742
1509744
1509746
1509764
1509766
1509780
1509782
1509788
1509790
1509793
1509795
1509813
1509815
1509826
1509840
1509842
1509860
1509862
1509864
1509866
1509877
1509879
1509881
1509883
1509888
1509896
1509898
1509904
1509906
1509912
1509914
1509921
1509923
1509925
1509927
1509936
1509938
1509940
1509942
1509962
1509976
1509984
1509986
1509989
1509991
1510009
1510011
1510020
1510038
1510056
1510058
1510060
1510062
1510073
1510075
1510077
1510079
1510084
1510086
1510092
1510094
1510100
1510102
1510108
1510117
1510119
1510121
1510123
1510132
1510134
1510136
1510138
1510156
1510158
1510174
1510180
1510182
1510185
1510187
1510207
1510216
1510218
1510232
1510234
1510252
1510254
1510256
1510258
1510269
1510271
1510273
1510275
1510282
1510288
1510298
1510304
1510306
1510313
1510315
1510317
1510319
1510328
1510332
1510334
1510352
1510354
1510368
1510370
1510376
1510378
1510381
1510383
1510401
1510412
1510414
1510428
1510430
1510450
1510452
1510454
1510467
1510469
1510471
1510476
1510478
1510484
1510486
1510492
1510494
1510500
1510502
1510513
1510515
1510526
1510528
1510548
1510564
1510566
1510609
1510625
1510627
1510629
1510631
1510637
1510639
1510713
1510715
1510733
1510735
1510745
1510747
1510761
1510768
1510770
1510805
1510807
1510821
1510823
1510827
1510833
1510909
1510911
1510931
1510941
1510943
1510957
1510959
1510964
1510966
1511003
1511017
1511019
1511021
1511029
1511031
1511105
1511107
1511125
1511127
1511153
1511155
1511160
1511162
1511197
1511199
1511213
1511215
1511217
1511219
1511225
1511227
1511301
1511303
1511321
1511323
1511333
1511335
1511349
1511351
1511356
1511358
1511393
1511395
1511409
1511411
1511413
1511415
1511421
1511423
1511497
1511499
1511517
1511519
1511529
1511531
1511545
1511547
1511552
1511554
1511589
1511591
1511609
1511611
1511617
1511619
1511693
1511713
1511715
1511725
1511727
1511743
1511748
1511750
1511785
1511787
1511801
1511803
1511805
1511807
1511815
1511891
1511909
1511921
1511923
1511937
1511939
1511957
1511959
1511961
1511963
1511984
1511986
1511992
1511994
1512012
1512014
1512024
1512026
1512029
1512031
1512032
1512034
1512036
1512038
1512041
1512043
1512057
1512059
1512073
1512075
1512076
1512078
1512080
1512082
1512088
1512090
1512100
1512102
1512120
1512122
1512128
1512130
1512140
1512142
1512153
1512155
1512157
1512159
1512180
1512182
1512190
1512208
1512210
1512220
1512222
1512225
1512227
1512228
1512230
1512232
1512234
1512237
1512239
1512253
1512255
1512269
1512271
1512272
1512276
1512278
1512284
1512286
1512296
1512316
1512318
1512326
1512336
1512338
1512349
1512351
1512353
1512376
1512384
1512386
1512406
1512416
1512418
1512423
1512424
1512428
1512430
1512433
1512435
1512449
1512467
1512468
1512470
1512472
1512474
1512482
1512492
1512494
1512512
1512514
1512520
1512522
1512532
1512534
1512547
1512549
1512551
1512572
1512574
1512580
1512600
1512602
1512612
1512614
1512617
1512619
1512622
1512624
1512626
1512629
1512645
1512647
1512661
1512663
1512666
1512668
1512670
1512676
1512688
1512690
1512708
1512710
1512716
1512718
1512728
1512730
1512741
1512743
1512747
1512768
1512770
1512776
1512778
1512796
1512798
1512808
1512813
1512815
1512816
1512818
1512822
1512825
1512827
1512841
1512843
1512857
1512860
1512862
1512866
1512872
1512874
1512884
1512886
1512904
1512912
1512914
1512924
1512926
1512937
1512941
1512943
1512964
1512966
1512972
1512974
1512992
1512994
1513006
1513009
1513012
1513014
1513016
1513018
1513023
1513039
1513053
1513055
1513056
1513058
1513060
1513068
1513070
1513082
1513100
1513102
1513108
1513120
1513122
1513133
1513135
1513137
1513139
1513162
1513168
1513170
1513188
1513200
1513202
1513205
1513207
1513208
1513210
1513212
1513217
1513219
1513233
1513235
1513249
1513251
1513252
1513254
1513256
1513258
1513264
1513266
1513276
1513278
1513298
1513304
1513306
1513345
1513347
1513349
1513351
1513385
1513387
1513397
1513461
1513473
1513475
1513485
1513487
1513509
1513511
1513512
1513514
1513543
1513545
1513547
1513581
1513583
1513593
1513595
1513657
1513659
1513669
1513671
1513681
1513683
1513707
1513708
1513710
1513737
1513739
1513741
1513777
1513779
1513789
1513791
1513853
1513855
1513865
1513867
1513877
1513879
1513901
1513903
1513904
1513906
1513933
1513937
1513939
1513985
1513987
1514051
1514061
1514063
1514073
1514075
1514097
1514099
# 400.841secs	# 1377 balance functions. Density 0.133689
