# prime 7
# degree 2
# input variables 3
# output variables 3
# reload computed balance functions from file balance-264of320-p7d2m3-debug.log
# p = 7
# n = 3
# smalldomain p^m 343
# domain p^n 343
#	 p^2 = 49
#	 p^3 = 343
#	 p^4 = 2401
#	 p^5 = 16807
#	 p^6 = 117649
#	 p^7 = 823543
#	 p^8 = 5764801
#	 p^9 = 40353607
opening file : balance-264of320-p7d2m3-debug.log
reloading for step2...
2719216		 # 	collision with: 5 1 0  and 5 3 0 
 # max = 26
2719218		 # 	collision with: 5 0 0  and 5 1 0 
 # max = 26
2719220		 # 	collision with: 1 2 0  and 6 3 0 
 # max = 27
2719222		 # 	collision with: 2 3 0  and 5 5 0 
 # max = 40
2719224		 # 	collision with: 2 1 0  and 2 2 0 
 # max = 40
2719226		 # 	collision with: 2 0 0  and 4 1 0 
 # max = 40
2719260		 # 	collision with: 3 0 0  and 3 1 0 
 # max = 40
2719262		 # 	collision with: 1 1 0  and 5 2 0 
 # max = 40
2719276		 # 	collision with: 6 0 0  and 4 1 0 
 # max = 40
2719278		 # 	collision with: 2 1 0  and 0 2 0 
 # max = 40
2719285		 # 	collision with: 5 1 0  and 1 3 0 
 # max = 40
2719287		 # 	collision with: 4 0 0  and 0 1 0 
 # max = 40
2719289		 # 	collision with: 5 0 0  and 3 2 0 
 # max = 40
2719296		 # 	collision with: 0 0 0  and 2 2 0 
 # max = 40
2719298		 # 	collision with: 2 3 0  and 4 3 0 
 # max = 40
2719361		 # 	collision with: 6 0 0  and 6 2 0 
 # max = 40
2719363		 # 	collision with: 3 3 0  and 4 3 0 
 # max = 40
2719377		 # 	collision with: 1 2 0  and 1 3 0 
 # max = 40
2719379		 # 	collision with: 3 4 0  and 4 0 1 
 # max = 53
2719397		 # 	collision with: 1 2 0  and 2 2 0 
 # max = 53
2719399		 # 	collision with: 6 1 0  and 1 2 0 
 # max = 53
2719405		 # 	collision with: 4 6 0  and 5 0 1 
 # max = 54
2719407		 # 	collision with: 6 1 0  and 0 3 0 
 # max = 54
2719429		 # 	collision with: 2 0 0  and 5 1 0 
 # max = 54
2719431		 # 	collision with: 5 0 0  and 5 1 0 
 # max = 54
2719437		 # 	collision with: 2 6 0  and 3 6 0 
 # max = 54
2719439		 # 	collision with: 5 1 0  and 0 2 0 
 # max = 54
2719445		 # 	collision with: 6 0 0  and 3 1 0 
 # max = 54
2719447		 # 	collision with: 1 4 0  and 1 5 0 
 # max = 54
2719457		 # 	collision with: 6 1 0  and 3 3 0 
 # max = 54
2719459		 # 	collision with: 2 1 0  and 6 2 0 
 # max = 54
2719500		 # 	collision with: 2 1 0  and 1 2 0 
 # max = 54
2719502		 # 	collision with: 3 1 0  and 3 0 1 
 # max = 54
2719557		 # 	collision with: 4 3 0  and 3 0 1 
 # max = 54
2719559		 # 	collision with: 2 6 0  and 1 2 1 
 # max = 64
2719573		 # 	collision with: 1 1 0  and 2 3 0 
 # max = 64
2719575		 # 	collision with: 4 2 0  and 1 0 1 
 # max = 64
2719593		 # 	collision with: 4 1 0  and 1 2 0 
 # max = 64
2719595		 # 	collision with: 0 2 0  and 3 1 1 
 # max = 64
2719601		 # 	collision with: 4 2 0  and 0 3 0 
 # max = 64
2719603		 # 	collision with: 3 6 0  and 4 0 1 
 # max = 64
2719625		 # 	collision with: 1 2 0  and 6 3 0 
 # max = 64
2719627		 # 	collision with: 3 4 0  and 5 0 1 
 # max = 64
2719633		 # 	collision with: 3 0 0  and 3 1 0 
 # max = 64
2719635		 # 	collision with: 5 0 1  and 1 2 1 
 # max = 64
2719641		 # 	collision with: 2 1 0  and 4 1 0 
 # max = 64
2719643		 # 	collision with: 5 2 1  and 0 3 1 
 # max = 70
2719653		 # 	collision with: 2 1 0  and 2 2 0 
 # max = 70
2719655		 # 	collision with: 5 2 0  and 1 1 1 
 # max = 70
2719696		 # 	collision with: 6 0 0  and 3 1 0 
 # max = 70
2719698		 # 	collision with: 1 1 0  and 1 0 1 
 # max = 70
2719753		 # 	collision with: 4 1 0  and 6 3 0 
 # max = 70
2719755		 # 	collision with: 0 0 1  and 2 1 1 
 # max = 70
2719769		 # 	collision with: 4 1 0  and 6 3 0 
 # max = 70
2719789		 # 	collision with: 4 1 0  and 6 3 0 
 # max = 70
2719791		 # 	collision with: 5 5 0  and 6 1 1 
 # max = 70
2719799		 # 	collision with: 6 6 0  and 0 0 1 
 # max = 70
2719821		 # 	collision with: 4 1 0  and 6 3 0 
 # max = 70
2719823		 # 	collision with: 2 1 0  and 4 2 0 
 # max = 70
2719837		 # 	collision with: 4 1 0  and 6 3 0 
 # max = 70
2719839		 # 	collision with: 2 6 0  and 3 6 0 
 # max = 70
2719849		 # 	collision with: 4 1 0  and 6 3 0 
 # max = 70
2719851		 # 	collision with: 5 0 0  and 5 1 0 
 # max = 70
2719892		 # 	collision with: 1 1 0  and 2 3 0 
 # max = 70
2719894		 # 	collision with: 4 1 0  and 6 2 0 
 # max = 70
2719951		 # 	collision with: 6 1 0  and 1 2 0 
 # max = 70
2719965		 # 	collision with: 2 0 0  and 5 1 0 
 # max = 70
2719967		 # 	collision with: 4 0 0  and 3 2 0 
 # max = 70
2719985		 # 	collision with: 3 1 0  and 4 2 0 
 # max = 70
2719987		 # 	collision with: 0 5 0  and 1 5 0 
 # max = 70
2719993		 # 	collision with: 1 2 0  and 2 2 0 
 # max = 70
2719995		 # 	collision with: 1 1 0  and 3 2 0 
 # max = 70
2720017		 # 	collision with: 6 0 0  and 3 1 0 
 # max = 70
2720025		 # 	collision with: 1 1 0  and 2 3 0 
 # max = 70
2720027		 # 	collision with: 2 1 0  and 4 1 0 
 # max = 70
2720033		 # 	collision with: 6 0 0  and 6 2 0 
 # max = 70
2720047		 # 	collision with: 6 1 0  and 2 2 0 
 # max = 70
2720088		 # 	collision with: 4 1 0  and 2 2 0 
 # max = 70
2720090		 # 	collision with: 4 1 0  and 4 0 1 
 # max = 70
2720145		 # 	collision with: 1 2 0  and 1 0 1 
 # max = 70
2720163		 # 	collision with: 3 6 0  and 5 0 1 
 # max = 70
2720181		 # 	collision with: 2 1 0  and 6 3 0 
 # max = 70
2720183		 # 	collision with: 0 2 0  and 3 3 0 
 # max = 70
2720189		 # 	collision with: 4 2 0  and 0 4 0 
 # max = 70
2720213		 # 	collision with: 0 0 0  and 1 1 0 
 # max = 70
2720215		 # 	collision with: 4 0 0  and 3 2 0 
 # max = 70
2720221		 # 	collision with: 4 1 0  and 1 3 0 
 # max = 70
2720223		 # 	collision with: 6 4 0  and 0 0 1 
 # max = 70
2720231		 # 	collision with: 4 2 0  and 5 4 0 
 # max = 70
2720241		 # 	collision with: 5 3 0  and 3 4 0 
 # max = 70
2720243		 # 	collision with: 1 5 0  and 2 0 1 
 # max = 70
2720284		 # 	collision with: 4 1 0  and 1 2 0 
 # max = 70
2720286		 # 	collision with: 5 0 0  and 1 1 0 
 # max = 70
2720341		 # 	collision with: 2 1 0  and 1 2 0 
 # max = 70
2720343		 # 	collision with: 5 3 0  and 3 5 0 
 # max = 70
2720357		 # 	collision with: 2 1 0  and 1 2 0 
 # max = 70
2720359		 # 	collision with: 4 1 0  and 6 2 0 
 # max = 70
2720385		 # 	collision with: 2 1 0  and 1 2 0 
 # max = 70
2720387		 # 	collision with: 5 3 0  and 3 5 0 
 # max = 70
2720411		 # 	collision with: 2 1 0  and 4 1 0 
 # max = 70
2720417		 # 	collision with: 2 1 0  and 1 2 0 
 # max = 70
2720419		 # 	collision with: 6 3 0  and 4 4 0 
 # max = 70
2720425		 # 	collision with: 2 1 0  and 1 2 0 
 # max = 70
2720427		 # 	collision with: 5 1 0  and 0 2 0 
 # max = 70
2720437		 # 	collision with: 2 1 0  and 4 1 0 
 # max = 70
2720480		 # 	collision with: 4 1 0  and 1 3 0 
 # max = 70
2720482		 # 	collision with: 5 3 0  and 3 5 0 
 # max = 70
2720537		 # 	collision with: 2 1 1  and 4 1 1 
 # max = 70
2720539		 # 	collision with: 4 0 0  and 5 1 0 
 # max = 70
2720553		 # 	collision with: 3 1 1  and 6 2 1 
 # max = 70
2720555		 # 	collision with: 0 2 0  and 4 3 0 
 # max = 70
2720573		 # 	collision with: 2 3 0  and 3 4 0 
 # max = 70
2720575		 # 	collision with: 2 1 0  and 6 2 0 
 # max = 70
2720581		 # 	collision with: 1 2 0  and 1 3 0 
 # max = 70
2720583		 # 	collision with: 6 1 0  and 2 2 0 
 # max = 70
2720605		 # 	collision with: 6 2 0  and 0 3 0 
 # max = 70
2720607		 # 	collision with: 6 6 0  and 1 2 1 
 # max = 70
2720613		 # 	collision with: 3 2 0  and 2 4 0 
 # max = 70
2720615		 # 	collision with: 6 4 0  and 6 0 1 
 # max = 70
2720621		 # 	collision with: 3 1 0  and 3 0 1 
 # max = 70
2720623		 # 	collision with: 5 0 0  and 1 1 0 
 # max = 70
2720633		 # 	collision with: 5 5 0  and 3 0 1 
 # max = 70
2720635		 # 	collision with: 2 6 0  and 3 0 1 
 # max = 70
2720689		 # 	collision with: 2 1 0  and 3 2 0 
 # max = 70
2720691		 # 	collision with: 6 2 0  and 3 4 0 
 # max = 70
2720693		 # 	collision with: 4 1 0  and 0 2 0 
 # max = 70
2720695		 # 	collision with: 6 2 0  and 3 4 0 
 # max = 70
2720717		 # 	collision with: 6 2 0  and 2 3 0 
 # max = 70
2720719		 # 	collision with: 6 2 0  and 3 4 0 
 # max = 70
2720720		 # 	collision with: 2 1 0  and 0 2 1 
 # max = 70
2720722		 # 	collision with: 1 2 0  and 6 0 1 
 # max = 70
2720724		 # 	collision with: 0 1 0  and 1 2 0 
 # max = 70
2720729		 # 	collision with: 2 6 0  and 3 0 1 
 # max = 70
2720731		 # 	collision with: 4 1 0  and 4 2 0 
 # max = 70
2720736		 # 	collision with: 1 1 0  and 2 2 0 
 # max = 70
2720738		 # 	collision with: 0 1 0  and 4 1 1 
 # max = 70
2720744		 # 	collision with: 1 3 0  and 5 4 0 
 # max = 70
2720764		 # 	collision with: 6 3 0  and 5 4 0 
 # max = 70
2720780		 # 	collision with: 6 1 0  and 6 0 1 
 # max = 70
2720782		 # 	collision with: 1 2 0  and 2 3 0 
 # max = 70
2720796		 # 	collision with: 4 2 0  and 6 3 0 
 # max = 70
2720798		 # 	collision with: 3 2 0  and 0 1 1 
 # max = 70
2720812		 # 	collision with: 3 5 0  and 5 0 1 
 # max = 70
2720832		 # 	collision with: 2 6 0  and 1 1 1 
 # max = 70
2720840		 # 	collision with: 6 1 0  and 5 2 0 
 # max = 70
2720842		 # 	collision with: 4 0 0  and 2 2 0 
 # max = 70
2720849		 # 	collision with: 2 3 0  and 6 5 1 
 # max = 90
2720851		 # 	collision with: 3 2 0  and 4 3 0 
 # max = 90
2720852		 # 	collision with: 1 1 0  and 3 2 0 
 # max = 90
2720856		 # 	collision with: 4 2 0  and 1 3 0 
 # max = 90
2720858		 # 	collision with: 0 4 0  and 5 5 0 
 # max = 90
2720861		 # 	collision with: 1 1 0  and 2 1 0 
 # max = 90
2720863		 # 	collision with: 6 2 0  and 3 4 0 
 # max = 90
2720872		 # 	collision with: 0 3 0  and 2 4 0 
 # max = 90
2720874		 # 	collision with: 6 4 0  and 3 0 1 
 # max = 90
2720887		 # 	collision with: 6 2 0  and 6 4 0 
 # max = 90
2720889		 # 	collision with: 0 1 0  and 4 2 0 
 # max = 90
2720891		 # 	collision with: 4 2 0  and 2 3 0 
 # max = 90
2720913		 # 	collision with: 6 1 0  and 0 2 0 
 # max = 90
2720915		 # 	collision with: 0 5 0  and 3 1 1 
 # max = 90
2720918		 # 	collision with: 1 4 0  and 2 3 1 
 # max = 90
2720920		 # 	collision with: 0 4 0  and 2 4 0 
 # max = 90
2720922		 # 	collision with: 4 6 0  and 1 1 1 
 # max = 90
2720925		 # 	collision with: 1 2 0  and 1 3 0 
 # max = 90
2720927		 # 	collision with: 3 3 0  and 2 5 0 
 # max = 90
2720932		 # 	collision with: 4 2 0  and 1 3 0 
 # max = 90
2720934		 # 	collision with: 1 1 0  and 1 0 1 
 # max = 90
2720940		 # 	collision with: 1 6 0  and 6 0 1 
 # max = 90
2720942		 # 	collision with: 1 3 0  and 3 0 1 
 # max = 90
2720960		 # 	collision with: 6 1 0  and 5 2 0 
 # max = 90
2720962		 # 	collision with: 3 0 0  and 5 1 0 
 # max = 90
2720976		 # 	collision with: 2 1 0  and 2 2 0 
 # max = 90
2720978		 # 	collision with: 2 3 0  and 6 0 1 
 # max = 90
2720992		 # 	collision with: 6 1 0  and 0 2 0 
 # max = 90
2720994		 # 	collision with: 1 4 0  and 4 0 1 
 # max = 90
2721008		 # 	collision with: 3 1 0  and 4 2 0 
 # max = 90
2721010		 # 	collision with: 2 4 0  and 1 0 1 
 # max = 90
2721028		 # 	collision with: 5 1 0  and 1 1 1 
 # max = 90
2721030		 # 	collision with: 3 5 0  and 1 0 1 
 # max = 90
2721036		 # 	collision with: 3 0 0  and 1 2 0 
 # max = 90
2721045		 # 	collision with: 3 1 0  and 1 2 0 
 # max = 90
2721047		 # 	collision with: 0 4 0  and 2 4 0 
 # max = 90
2721050		 # 	collision with: 2 1 0  and 2 0 1 
 # max = 90
2721052		 # 	collision with: 3 6 0  and 3 0 1 
 # max = 90
2721054		 # 	collision with: 6 6 0  and 1 0 1 
 # max = 90
2721057		 # 	collision with: 0 1 0  and 1 2 0 
 # max = 90
2721068		 # 	collision with: 0 0 0  and 3 1 1 
 # max = 90
2721070		 # 	collision with: 2 5 0  and 0 2 1 
 # max = 90
2721081		 # 	collision with: 3 1 0  and 1 3 0 
 # max = 90
2721083		 # 	collision with: 1 5 0  and 3 5 0 
 # max = 90
2721085		 # 	collision with: 3 1 0  and 1 3 0 
 # max = 90
2721109		 # 	collision with: 3 1 0  and 1 3 0 
 # max = 90
2721111		 # 	collision with: 3 2 0  and 4 3 0 
 # max = 90
2721112		 # 	collision with: 2 5 0  and 3 0 1 
 # max = 90
2721114		 # 	collision with: 4 6 0  and 6 0 1 
 # max = 90
2721116		 # 	collision with: 6 2 0  and 5 0 1 
 # max = 90
2721118		 # 	collision with: 1 3 0  and 3 0 1 
 # max = 90
2721121		 # 	collision with: 3 1 0  and 1 3 0 
 # max = 90
2721123		 # 	collision with: 0 2 0  and 6 0 1 
 # max = 90
2721130		 # 	collision with: 2 1 0  and 0 0 1 
 # max = 90
2721136		 # 	collision with: 6 4 0  and 3 0 1 
 # max = 90
2721138		 # 	collision with: 6 2 0  and 6 4 0 
 # max = 90
2721156		 # 	collision with: 6 1 0  and 0 2 0 
 # max = 90
2721158		 # 	collision with: 0 1 0  and 6 2 0 
 # max = 90
2721172		 # 	collision with: 5 0 1  and 1 2 1 
 # max = 90
2721188		 # 	collision with: 2 6 0  and 1 2 1 
 # max = 90
2721190		 # 	collision with: 3 1 0  and 0 3 0 
 # max = 90
2721204		 # 	collision with: 1 4 0  and 4 0 1 
 # max = 90
2721206		 # 	collision with: 4 1 0  and 1 2 0 
 # max = 90
2721226		 # 	collision with: 5 2 0  and 6 3 0 
 # max = 90
2721232		 # 	collision with: 5 0 0  and 3 1 0 
 # max = 90
2721234		 # 	collision with: 0 3 0  and 6 4 0 
 # max = 90
2721241		 # 	collision with: 3 0 0  and 4 2 0 
 # max = 90
2721243		 # 	collision with: 2 3 0  and 2 4 0 
 # max = 90
2721244		 # 	collision with: 4 1 0  and 4 0 1 
 # max = 90
2721246		 # 	collision with: 2 2 0  and 4 3 0 
 # max = 90
2721248		 # 	collision with: 4 4 0  and 4 1 1 
 # max = 90
2721250		 # 	collision with: 0 4 0  and 2 4 0 
 # max = 90
2721253		 # 	collision with: 3 1 0  and 1 3 0 
 # max = 90
2721255		 # 	collision with: 2 2 0  and 3 3 0 
 # max = 90
2721264		 # 	collision with: 2 1 0  and 3 2 0 
 # max = 90
2721266		 # 	collision with: 4 2 0  and 2 4 0 
 # max = 90
2721277		 # 	collision with: 5 1 0  and 5 3 0 
 # max = 90
2721279		 # 	collision with: 0 2 0  and 1 3 0 
 # max = 90
2721281		 # 	collision with: 5 1 0  and 2 3 0 
 # max = 90
2721283		 # 	collision with: 5 6 0  and 1 0 1 
 # max = 90
2721307		 # 	collision with: 2 2 0  and 3 2 0 
 # max = 90
2721308		 # 	collision with: 5 0 0  and 1 2 0 
 # max = 90
2721312		 # 	collision with: 0 1 0  and 4 2 0 
 # max = 90
2721314		 # 	collision with: 0 0 0  and 4 2 0 
 # max = 90
2721317		 # 	collision with: 0 5 0  and 3 0 1 
 # max = 90
2721319		 # 	collision with: 5 1 0  and 5 1 1 
 # max = 90
2721324		 # 	collision with: 5 1 0  and 3 0 1 
 # max = 90
2721326		 # 	collision with: 4 2 0  and 2 3 0 
 # max = 90
2721332		 # 	collision with: 2 6 0  and 4 6 0 
 # max = 90
2721334		 # 	collision with: 4 2 0  and 2 4 0 
 # max = 90
2721352		 # 	collision with: 3 0 0  and 1 2 0 
 # max = 90
2721354		 # 	collision with: 4 2 0  and 2 4 0 
 # max = 90
2721370		 # 	collision with: 4 2 0  and 2 4 0 
 # max = 90
2721384		 # 	collision with: 4 4 0  and 6 0 1 
 # max = 90
2721386		 # 	collision with: 2 2 0  and 3 3 0 
 # max = 90
2721402		 # 	collision with: 1 2 0  and 2 3 0 
 # max = 90
2721420		 # 	collision with: 2 1 0  and 2 0 1 
 # max = 90
2721422		 # 	collision with: 1 1 0  and 2 1 0 
 # max = 90
2721428		 # 	collision with: 6 3 0  and 5 4 0 
 # max = 90
2721430		 # 	collision with: 4 2 0  and 2 4 0 
 # max = 90
2721440		 # 	collision with: 5 3 0  and 5 0 1 
 # max = 90
2721442		 # 	collision with: 3 2 0  and 3 3 0 
 # max = 90
2721444		 # 	collision with: 0 1 0  and 6 3 0 
 # max = 90
2721446		 # 	collision with: 4 2 0  and 2 4 0 
 # max = 90
2721449		 # 	collision with: 1 1 0  and 1 0 1 
 # max = 90
2721451		 # 	collision with: 4 1 0  and 1 2 0 
 # max = 90
2721460		 # 	collision with: 4 3 0  and 4 0 1 
 # max = 90
2721462		 # 	collision with: 4 0 0  and 3 2 0 
 # max = 90
2721473		 # 	collision with: 0 1 0  and 6 3 0 
 # max = 90
2721475		 # 	collision with: 4 2 0  and 2 4 0 
 # max = 90
2721477		 # 	collision with: 3 1 0  and 4 2 0 
 # max = 90
2721479		 # 	collision with: 1 2 0  and 0 4 0 
 # max = 90
2721501		 # 	collision with: 1 2 0  and 3 0 1 
 # max = 90
2721503		 # 	collision with: 3 1 0  and 6 2 0 
 # max = 90
2721504		 # 	collision with: 4 1 0  and 4 2 1 
 # max = 90
2721506		 # 	collision with: 3 0 0  and 5 1 0 
 # max = 90
2721508		 # 	collision with: 0 2 0  and 4 0 1 
 # max = 90
2721510		 # 	collision with: 2 2 0  and 3 2 0 
 # max = 90
2721520		 # 	collision with: 6 2 0  and 2 3 0 
 # max = 90
2721522		 # 	collision with: 3 3 0  and 4 3 0 
 # max = 90
2721528		 # 	collision with: 5 1 0  and 5 3 0 
 # max = 90
2721530		 # 	collision with: 1 2 0  and 5 3 0 
 # max = 90
2721550		 # 	collision with: 4 0 0  and 2 2 0 
 # max = 90
2721564		 # 	collision with: 1 2 0  and 5 4 0 
 # max = 90
2721566		 # 	collision with: 1 4 0  and 1 5 0 
 # max = 90
2721582		 # 	collision with: 0 4 0  and 3 2 1 
 # max = 90
2721596		 # 	collision with: 5 2 0  and 2 0 1 
 # max = 90
2721598		 # 	collision with: 3 1 0  and 3 0 1 
 # max = 90
2721616		 # 	collision with: 0 1 0  and 1 3 0 
 # max = 90
2721618		 # 	collision with: 2 0 0  and 2 2 1 
 # max = 90
2721624		 # 	collision with: 3 2 0  and 1 4 0 
 # max = 90
2721626		 # 	collision with: 0 2 0  and 6 3 0 
 # max = 90
2721633		 # 	collision with: 3 2 0  and 6 0 1 
 # max = 90
2721635		 # 	collision with: 4 2 0  and 2 4 0 
 # max = 90
2721636		 # 	collision with: 3 2 0  and 3 0 1 
 # max = 90
2721638		 # 	collision with: 1 5 0  and 2 0 1 
 # max = 90
2721640		 # 	collision with: 1 1 0  and 2 1 0 
 # max = 90
2721647		 # 	collision with: 4 2 0  and 2 4 0 
 # max = 90
2721656		 # 	collision with: 4 2 0  and 1 3 0 
 # max = 90
2721658		 # 	collision with: 6 1 0  and 1 2 0 
 # max = 90
2721669		 # 	collision with: 3 3 0  and 4 3 0 
 # max = 90
2721673		 # 	collision with: 0 1 0  and 3 2 1 
 # max = 90
2721675		 # 	collision with: 4 6 0  and 2 1 1 
 # max = 90
2721697		 # 	collision with: 5 1 0  and 5 3 0 
 # max = 90
2721699		 # 	collision with: 1 2 0  and 5 3 0 
 # max = 90
2721700		 # 	collision with: 0 4 0  and 2 4 0 
 # max = 90
2721702		 # 	collision with: 4 6 0  and 5 0 1 
 # max = 90
2721704		 # 	collision with: 2 1 0  and 2 2 0 
 # max = 90
2721706		 # 	collision with: 0 2 0  and 1 3 0 
 # max = 90
2721709		 # 	collision with: 0 2 0  and 5 0 1 
 # max = 90
2721711		 # 	collision with: 0 4 0  and 5 1 1 
 # max = 90
2721716		 # 	collision with: 3 1 0  and 6 3 0 
 # max = 90
2721718		 # 	collision with: 3 1 0  and 6 2 0 
 # max = 90
2721726		 # 	collision with: 3 3 0  and 4 3 0 
 # max = 90
2721744		 # 	collision with: 6 0 0  and 5 1 0 
 # max = 90
2721746		 # 	collision with: 0 2 0  and 6 3 0 
 # max = 90
2721760		 # 	collision with: 1 2 0  and 0 0 1 
 # max = 90
2721762		 # 	collision with: 2 3 0  and 0 4 0 
 # max = 90
2721776		 # 	collision with: 6 2 0  and 4 3 1 
 # max = 90
2721792		 # 	collision with: 3 3 0  and 3 0 1 
 # max = 90
2721794		 # 	collision with: 4 1 0  and 4 2 0 
 # max = 90
2721812		 # 	collision with: 1 1 0  and 2 2 0 
 # max = 90
2721814		 # 	collision with: 1 2 0  and 2 4 0 
 # max = 90
2721822		 # 	collision with: 4 1 0  and 2 3 0 
 # max = 90
2721829		 # 	collision with: 4 2 0  and 4 4 0 
 # max = 90
2721831		 # 	collision with: 0 4 0  and 5 5 0 
 # max = 90
2721832		 # 	collision with: 1 1 0  and 2 1 0 
 # max = 90
2721834		 # 	collision with: 3 4 0  and 2 0 1 
 # max = 90
2721836		 # 	collision with: 5 1 0  and 5 3 0 
 # max = 90
2721838		 # 	collision with: 2 1 1  and 3 1 1 
 # max = 90
2721841		 # 	collision with: 5 0 0  and 3 1 0 
 # max = 90
2721843		 # 	collision with: 2 1 1  and 1 2 1 
 # max = 90
2721852		 # 	collision with: 3 1 0  and 1 3 0 
 # max = 90
2721854		 # 	collision with: 3 2 0  and 4 3 0 
 # max = 90
2721865		 # 	collision with: 3 1 0  and 0 1 1 
 # max = 90
2721867		 # 	collision with: 1 6 0  and 6 0 1 
 # max = 90
2721871		 # 	collision with: 0 0 0  and 4 1 0 
 # max = 90
2721893		 # 	collision with: 0 1 0  and 1 3 0 
 # max = 90
2721896		 # 	collision with: 3 1 0  and 1 3 0 
 # max = 90
2721898		 # 	collision with: 2 2 0  and 3 2 0 
 # max = 90
2721902		 # 	collision with: 1 4 0  and 1 5 0 
 # max = 90
2721905		 # 	collision with: 5 1 0  and 2 3 0 
 # max = 90
2721907		 # 	collision with: 2 2 0  and 3 3 0 
 # max = 90
2721912		 # 	collision with: 1 1 0  and 3 2 0 
 # max = 90
2721920		 # 	collision with: 4 1 0  and 5 2 0 
 # max = 90
2721922		 # 	collision with: 5 3 0  and 0 4 0 
 # max = 90
2721940		 # 	collision with: 3 1 0  and 1 3 0 
 # max = 90
2721942		 # 	collision with: 0 0 0  and 6 1 0 
 # max = 90
2721956		 # 	collision with: 3 1 0  and 4 2 0 
 # max = 90
2721958		 # 	collision with: 5 6 0  and 0 1 1 
 # max = 90
2721972		 # 	collision with: 3 1 0  and 1 3 0 
 # max = 90
2721974		 # 	collision with: 2 3 0  and 5 5 0 
 # max = 90
2721988		 # 	collision with: 3 1 0  and 1 3 0 
 # max = 90
2721990		 # 	collision with: 1 3 0  and 3 0 1 
 # max = 90
2722008		 # 	collision with: 2 2 0  and 3 2 0 
 # max = 90
2722010		 # 	collision with: 6 4 0  and 6 0 1 
 # max = 90
2722016		 # 	collision with: 3 1 0  and 1 3 0 
 # max = 90
2722018		 # 	collision with: 0 1 0  and 6 2 0 
 # max = 90
2722025		 # 	collision with: 1 4 0  and 2 4 1 
 # max = 90
2722027		 # 	collision with: 5 2 1  and 6 3 1 
 # max = 90
2722028		 # 	collision with: 4 1 0  and 0 2 0 
 # max = 90
2722030		 # 	collision with: 0 4 0  and 2 4 0 
 # max = 90
2722034		 # 	collision with: 6 2 0  and 6 4 0 
 # max = 90
2722037		 # 	collision with: 1 2 0  and 5 4 0 
 # max = 90
2722039		 # 	collision with: 4 3 0  and 3 0 1 
 # max = 90
2722125		 # 	collision with: 5 1 0  and 5 3 0 
 # max = 90
2722129		 # 	collision with: 2 5 0  and 3 5 0 
 # max = 90
2722131		 # 	collision with: 4 0 0  and 5 2 0 
 # max = 90
2722137		 # 	collision with: 6 4 0  and 1 0 1 
 # max = 90
2722139		 # 	collision with: 4 0 0  and 3 2 0 
 # max = 90
2722153		 # 	collision with: 0 3 0  and 6 4 0 
 # max = 90
2722155		 # 	collision with: 0 1 0  and 2 1 0 
 # max = 90
2722169		 # 	collision with: 2 0 0  and 4 1 0 
 # max = 90
2722171		 # 	collision with: 0 3 0  and 5 4 0 
 # max = 90
2722185		 # 	collision with: 6 0 0  and 2 2 0 
 # max = 90
2722187		 # 	collision with: 5 2 0  and 5 0 1 
 # max = 90
2722193		 # 	collision with: 6 2 0  and 0 3 1 
 # max = 90
2722195		 # 	collision with: 4 2 0  and 1 3 0 
 # max = 90
2722197		 # 	collision with: 4 0 0  and 2 1 0 
 # max = 90
2722244		 # 	collision with: 1 4 0  and 1 0 1 
 # max = 90
2722246		 # 	collision with: 2 0 0  and 1 2 0 
 # max = 90
2722321		 # 	collision with: 2 0 0  and 4 1 0 
 # max = 90
2722323		 # 	collision with: 3 0 0  and 6 2 0 
 # max = 90
2722325		 # 	collision with: 3 3 0  and 1 4 0 
 # max = 90
2722327		 # 	collision with: 4 1 0  and 6 3 0 
 # max = 90
2722333		 # 	collision with: 3 2 0  and 0 4 0 
 # max = 90
2722335		 # 	collision with: 4 1 0  and 6 3 0 
 # max = 90
2722351		 # 	collision with: 4 1 0  and 6 3 0 
 # max = 90
2722365		 # 	collision with: 3 0 0  and 3 1 0 
 # max = 90
2722383		 # 	collision with: 0 2 0  and 1 2 0 
 # max = 90
2722389		 # 	collision with: 1 1 0  and 4 3 0 
 # max = 90
2722393		 # 	collision with: 2 3 0  and 3 0 1 
 # max = 90
2722395		 # 	collision with: 2 0 0  and 6 1 0 
 # max = 90
2722440		 # 	collision with: 4 2 0  and 2 4 0 
 # max = 90
2722442		 # 	collision with: 1 1 0  and 2 0 1 
 # max = 90
2722517		 # 	collision with: 6 1 0  and 4 2 0 
 # max = 90
2722519		 # 	collision with: 2 0 0  and 0 2 0 
 # max = 90
2722523		 # 	collision with: 5 0 0  and 4 1 0 
 # max = 90
2722529		 # 	collision with: 6 0 0  and 2 2 0 
 # max = 90
2722531		 # 	collision with: 2 0 0  and 0 2 0 
 # max = 90
2722545		 # 	collision with: 4 1 0  and 2 3 0 
 # max = 90
2722547		 # 	collision with: 2 0 0  and 0 2 0 
 # max = 90
2722561		 # 	collision with: 5 1 0  and 5 0 1 
 # max = 90
2722563		 # 	collision with: 2 0 0  and 0 2 0 
 # max = 90
2722577		 # 	collision with: 3 3 0  and 5 4 0 
 # max = 90
2722579		 # 	collision with: 2 0 0  and 0 2 0 
 # max = 90
2722585		 # 	collision with: 4 1 0  and 5 3 0 
 # max = 90
2722587		 # 	collision with: 2 0 0  and 0 2 0 
 # max = 90
2722591		 # 	collision with: 2 0 0  and 0 2 0 
 # max = 90
2722636		 # 	collision with: 2 0 0  and 4 1 0 
 # max = 90
2722638		 # 	collision with: 0 0 0  and 2 2 0 
 # max = 90
2722713		 # 	collision with: 2 0 0  and 5 1 0 
 # max = 90
2722715		 # 	collision with: 6 1 0  and 1 2 0 
 # max = 90
2722717		 # 	collision with: 0 0 0  and 6 1 0 
 # max = 90
2722719		 # 	collision with: 3 3 0  and 4 3 0 
 # max = 90
2722725		 # 	collision with: 4 2 0  and 2 4 0 
 # max = 90
2722741		 # 	collision with: 3 1 0  and 4 2 0 
 # max = 90
2722743		 # 	collision with: 2 1 0  and 0 3 0 
 # max = 90
2722757		 # 	collision with: 0 1 0  and 2 1 0 
 # max = 90
2722759		 # 	collision with: 1 3 0  and 2 0 1 
 # max = 90
2722773		 # 	collision with: 4 2 0  and 2 4 0 
 # max = 90
2722775		 # 	collision with: 0 1 0  and 4 1 1 
 # max = 90
2722781		 # 	collision with: 4 2 0  and 2 4 0 
 # max = 90
2722783		 # 	collision with: 4 6 0  and 5 0 1 
 # max = 90
2722785		 # 	collision with: 4 3 0  and 1 4 0 
 # max = 90
2722787		 # 	collision with: 0 0 0  and 1 1 1 
 # max = 90
2722832		 # 	collision with: 4 0 0  and 2 1 0 
 # max = 90
2722834		 # 	collision with: 2 0 0  and 0 2 0 
 # max = 90
2722909		 # 	collision with: 0 0 0  and 1 1 1 
 # max = 90
2722911		 # 	collision with: 4 1 0  and 4 0 1 
 # max = 90
2722913		 # 	collision with: 2 5 0  and 5 0 1 
 # max = 90
2722915		 # 	collision with: 4 3 0  and 1 0 1 
 # max = 90
2722921		 # 	collision with: 2 4 0  and 4 4 0 
 # max = 90
2722923		 # 	collision with: 0 1 0  and 2 1 0 
 # max = 90
2722937		 # 	collision with: 0 0 0  and 6 1 0 
 # max = 90
2722939		 # 	collision with: 2 2 0  and 0 4 0 
 # max = 90
2722953		 # 	collision with: 3 3 0  and 1 4 0 
 # max = 90
2722955		 # 	collision with: 6 1 0  and 1 2 0 
 # max = 90
2722969		 # 	collision with: 6 0 0  and 2 1 0 
 # max = 90
2722977		 # 	collision with: 1 2 0  and 1 3 0 
 # max = 90
2722979		 # 	collision with: 2 3 0  and 2 4 0 
 # max = 90
2722981		 # 	collision with: 3 6 0  and 2 0 1 
 # max = 90
2722983		 # 	collision with: 3 1 1  and 1 3 1 
 # max = 90
2723028		 # 	collision with: 6 5 0  and 4 0 1 
 # max = 90
2723030		 # 	collision with: 4 3 0  and 0 0 1 
 # max = 90
2723107		 # 	collision with: 6 1 1  and 0 2 1 
 # max = 90
2723109		 # 	collision with: 3 2 0  and 0 4 0 
 # max = 90
2723111		 # 	collision with: 0 3 0  and 5 4 0 
 # max = 90
2723117		 # 	collision with: 2 0 0  and 5 1 0 
 # max = 90
2723119		 # 	collision with: 1 5 0  and 0 0 1 
 # max = 90
2723133		 # 	collision with: 0 1 0  and 6 2 0 
 # max = 90
2723135		 # 	collision with: 5 0 0  and 4 1 0 
 # max = 90
2723149		 # 	collision with: 5 4 0  and 6 0 1 
 # max = 90
2723151		 # 	collision with: 6 2 0  and 6 4 0 
 # max = 90
2723165		 # 	collision with: 3 1 0  and 4 2 0 
 # max = 90
2723167		 # 	collision with: 5 0 0  and 4 2 0 
 # max = 90
2723175		 # 	collision with: 5 2 0  and 3 3 0 
 # max = 90
2723177		 # 	collision with: 3 0 0  and 3 1 0 
 # max = 90
2723179		 # 	collision with: 0 5 0  and 2 0 1 
 # max = 90
2723224		 # 	collision with: 1 3 0  and 2 4 1 
 # max = 90
2723226		 # 	collision with: 0 4 0  and 1 0 1 
 # max = 90
2723301		 # 	collision with: 6 1 0  and 6 0 1 
 # max = 90
2723303		 # 	collision with: 3 3 0  and 4 3 0 
 # max = 90
2723305		 # 	collision with: 4 0 0  and 6 2 0 
 # max = 90
2723315		 # 	collision with: 2 0 0  and 6 1 0 
 # max = 90
2723329		 # 	collision with: 0 2 0  and 6 3 0 
 # max = 90
2723347		 # 	collision with: 1 1 0  and 1 0 1 
 # max = 90
2723361		 # 	collision with: 0 1 0  and 2 1 0 
 # max = 90
2723363		 # 	collision with: 6 2 0  and 0 4 0 
 # max = 90
2723369		 # 	collision with: 4 3 0  and 5 4 0 
 # max = 90
2723371		 # 	collision with: 4 1 0  and 1 3 0 
 # max = 90
2723373		 # 	collision with: 1 6 0  and 1 0 1 
 # max = 90
2723375		 # 	collision with: 6 2 0  and 6 4 0 
 # max = 90
2723481		 # 	collision with: 2 6 0  and 1 0 1 
 # max = 90
2723483		 # 	collision with: 0 5 0  and 2 5 0 
 # max = 90
2723489		 # 	collision with: 1 2 0  and 1 3 0 
 # max = 90
2723491		 # 	collision with: 1 6 0  and 2 6 0 
 # max = 90
2723505		 # 	collision with: 3 3 0  and 2 4 0 
 # max = 90
2723529		 # 	collision with: 1 1 0  and 0 3 0 
 # max = 90
2723531		 # 	collision with: 6 1 0  and 1 2 0 
 # max = 90
2723533		 # 	collision with: 1 1 0  and 1 0 1 
 # max = 90
2723537		 # 	collision with: 2 0 0  and 5 1 0 
 # max = 90
2723539		 # 	collision with: 5 0 0  and 5 1 0 
 # max = 90
2723577		 # 	collision with: 4 1 0  and 4 0 1 
 # max = 90
2723579		 # 	collision with: 3 3 0  and 1 0 1 
 # max = 90
2723585		 # 	collision with: 0 3 0  and 4 5 0 
 # max = 90
2723587		 # 	collision with: 0 2 0  and 5 3 0 
 # max = 90
2723616		 # 	collision with: 5 2 0  and 1 3 0 
 # max = 90
2723618		 # 	collision with: 3 0 0  and 5 2 0 
 # max = 90
2723677		 # 	collision with: 2 2 0  and 4 4 0 
 # max = 90
2723679		 # 	collision with: 2 1 0  and 3 1 0 
 # max = 90
2723701		 # 	collision with: 0 0 0  and 5 2 0 
 # max = 90
2723703		 # 	collision with: 6 3 0  and 5 4 0 
 # max = 90
2723725		 # 	collision with: 6 0 0  and 6 2 0 
 # max = 90
2723727		 # 	collision with: 3 3 0  and 1 4 0 
 # max = 90
2723729		 # 	collision with: 3 3 0  and 6 4 0 
 # max = 90
2723731		 # 	collision with: 3 5 0  and 2 1 1 
 # max = 90
2723733		 # 	collision with: 0 5 0  and 5 0 1 
 # max = 90
2723735		 # 	collision with: 5 1 0  and 0 3 0 
 # max = 90
2723773		 # 	collision with: 2 4 0  and 4 0 1 
 # max = 90
2723775		 # 	collision with: 4 0 0  and 3 2 0 
 # max = 90
2723783		 # 	collision with: 3 3 0  and 4 1 1 
 # max = 90
2723812		 # 	collision with: 4 0 0  and 5 2 0 
 # max = 90
2723814		 # 	collision with: 5 5 0  and 5 0 1 
 # max = 90
2723873		 # 	collision with: 4 0 0  and 1 2 0 
 # max = 90
2723875		 # 	collision with: 0 4 0  and 1 4 0 
 # max = 90
2723881		 # 	collision with: 5 6 0  and 0 0 1 
 # max = 90
2723883		 # 	collision with: 2 2 0  and 4 2 0 
 # max = 90
2723897		 # 	collision with: 2 1 0  and 3 1 0 
 # max = 90
2723899		 # 	collision with: 3 0 0  and 1 2 0 
 # max = 90
2723921		 # 	collision with: 4 3 0  and 2 4 0 
 # max = 90
2723925		 # 	collision with: 1 4 0  and 4 0 1 
 # max = 90
2723927		 # 	collision with: 6 1 0  and 6 0 1 
 # max = 90
2723929		 # 	collision with: 4 1 0  and 0 3 0 
 # max = 90
2723931		 # 	collision with: 4 1 0  and 4 2 0 
 # max = 90
2723969		 # 	collision with: 2 0 0  and 5 1 0 
 # max = 90
2723971		 # 	collision with: 2 4 0  and 4 5 0 
 # max = 90
2723977		 # 	collision with: 3 1 0  and 3 0 1 
 # max = 90
2724008		 # 	collision with: 1 4 0  and 4 0 1 
 # max = 90
2724010		 # 	collision with: 3 2 0  and 0 4 0 
 # max = 90
2724069		 # 	collision with: 3 3 0  and 6 4 0 
 # max = 90
2724071		 # 	collision with: 0 0 0  and 4 0 0 
 # max = 90
2724077		 # 	collision with: 1 1 0  and 0 3 0 
 # max = 90
2724079		 # 	collision with: 0 0 0  and 4 0 0 
 # max = 90
2724093		 # 	collision with: 2 1 0  and 4 2 0 
 # max = 90
2724095		 # 	collision with: 0 0 0  and 4 0 0 
 # max = 90
2724119		 # 	collision with: 0 0 0  and 4 0 0 
 # max = 90
2724123		 # 	collision with: 0 0 0  and 4 0 0 
 # max = 90
2724125		 # 	collision with: 2 0 1  and 0 2 1 
 # max = 90
2724127		 # 	collision with: 0 0 0  and 4 0 0 
 # max = 90
2724165		 # 	collision with: 1 3 0  and 4 1 1 
 # max = 90
2724167		 # 	collision with: 0 0 0  and 4 0 0 
 # max = 90
2724173		 # 	collision with: 4 0 0  and 5 2 0 
 # max = 90
2724175		 # 	collision with: 0 0 0  and 4 0 0 
 # max = 90
2724204		 # 	collision with: 3 2 0  and 2 3 0 
 # max = 90
2724206		 # 	collision with: 2 3 0  and 6 4 0 
 # max = 90
2724265		 # 	collision with: 4 0 0  and 5 2 0 
 # max = 90
2724267		 # 	collision with: 3 3 0  and 4 3 0 
 # max = 90
2724273		 # 	collision with: 5 0 0  and 6 2 0 
 # max = 90
2724275		 # 	collision with: 0 5 0  and 2 5 0 
 # max = 90
2724291		 # 	collision with: 3 2 0  and 1 4 0 
 # max = 90
2724313		 # 	collision with: 4 3 0  and 6 4 0 
 # max = 90
2724315		 # 	collision with: 3 0 0  and 6 1 0 
 # max = 90
2724317		 # 	collision with: 5 1 0  and 5 3 0 
 # max = 90
2724319		 # 	collision with: 0 5 0  and 6 0 1 
 # max = 90
2724323		 # 	collision with: 6 1 0  and 1 2 0 
 # max = 90
2724361		 # 	collision with: 2 2 0  and 4 4 0 
 # max = 90
2724363		 # 	collision with: 5 3 0  and 6 4 0 
 # max = 90
2724369		 # 	collision with: 4 1 0  and 0 3 0 
 # max = 90
2724371		 # 	collision with: 0 3 0  and 4 4 0 
 # max = 90
2724400		 # 	collision with: 5 5 0  and 3 2 1 
 # max = 90
2724402		 # 	collision with: 6 2 0  and 2 1 1 
 # max = 90
2724461		 # 	collision with: 4 3 0  and 2 4 0 
 # max = 90
2724469		 # 	collision with: 1 2 0  and 6 3 0 
 # max = 90
2724471		 # 	collision with: 3 3 0  and 4 3 0 
 # max = 90
2724485		 # 	collision with: 3 1 0  and 2 2 0 
 # max = 90
2724487		 # 	collision with: 6 0 0  and 5 1 0 
 # max = 90
2724509		 # 	collision with: 2 1 0  and 2 1 1 
 # max = 90
2724511		 # 	collision with: 3 0 0  and 5 2 0 
 # max = 90
2724513		 # 	collision with: 5 4 0  and 4 0 1 
 # max = 90
2724515		 # 	collision with: 0 0 0  and 1 1 1 
 # max = 90
2724517		 # 	collision with: 2 0 0  and 3 2 0 
 # max = 90
2724557		 # 	collision with: 3 0 0  and 3 1 0 
 # max = 90
2724559		 # 	collision with: 2 1 0  and 0 2 1 
 # max = 90
2724565		 # 	collision with: 5 3 0  and 3 0 1 
 # max = 90
2724567		 # 	collision with: 1 2 0  and 2 0 1 
 # max = 90
2724596		 # 	collision with: 3 1 0  and 4 1 1 
 # max = 90
2724598		 # 	collision with: 1 1 0  and 4 2 0 
 # max = 90
2724659		 # 	collision with: 2 2 0  and 4 2 0 
 # max = 90
2724665		 # 	collision with: 3 2 0  and 2 3 0 
 # max = 90
2724667		 # 	collision with: 2 1 0  and 3 1 0 
 # max = 90
2724681		 # 	collision with: 3 2 0  and 2 3 0 
 # max = 90
2724683		 # 	collision with: 6 1 0  and 5 2 0 
 # max = 90
2724705		 # 	collision with: 3 2 0  and 2 3 0 
 # max = 90
2724707		 # 	collision with: 2 1 0  and 4 0 1 
 # max = 90
2724709		 # 	collision with: 3 2 0  and 2 3 0 
 # max = 90
2724711		 # 	collision with: 4 3 0  and 0 4 0 
 # max = 90
2724713		 # 	collision with: 3 2 0  and 2 3 0 
 # max = 90
2724715		 # 	collision with: 2 3 0  and 2 4 0 
 # max = 90
2724761		 # 	collision with: 3 2 0  and 2 3 0 
 # max = 90
2724763		 # 	collision with: 0 2 0  and 2 3 0 
 # max = 90
2724792		 # 	collision with: 3 3 0  and 4 3 0 
 # max = 90
2724793		 # 	collision with: 2 0 0  and 6 1 0 
 # max = 90
2724794		 # 	collision with: 1 1 0  and 3 1 0 
 # max = 90
2724795		 # 	collision with: 1 2 0  and 2 0 1 
 # max = 90
2724824		 # 	collision with: 1 3 0  and 3 4 0 
 # max = 90
2724825		 # 	collision with: 0 0 0  and 1 1 1 
 # max = 90
2724826		 # 	collision with: 4 2 0  and 4 0 1 
 # max = 90
2724827		 # 	collision with: 5 1 1  and 0 3 1 
 # max = 90
2724856		 # 	collision with: 6 3 0  and 3 4 0 
 # max = 90
2724857		 # 	collision with: 5 1 0  and 5 3 0 
 # max = 90
2724858		 # 	collision with: 3 3 0  and 6 4 0 
 # max = 90
2724859		 # 	collision with: 4 3 0  and 6 4 0 
 # max = 90
2724888		 # 	collision with: 6 1 0  and 5 3 0 
 # max = 90
2724889		 # 	collision with: 5 2 0  and 1 4 0 
 # max = 90
2724890		 # 	collision with: 6 2 0  and 3 3 0 
 # max = 90
2724891		 # 	collision with: 6 3 0  and 0 5 0 
 # max = 90
2724920		 # 	collision with: 5 2 0  and 4 0 1 
 # max = 90
2724921		 # 	collision with: 1 3 0  and 2 4 0 
 # max = 90
2724922		 # 	collision with: 0 3 0  and 5 2 1 
 # max = 90
2724923		 # 	collision with: 5 0 0  and 1 2 0 
 # max = 90
2724952		 # 	collision with: 4 0 0  and 5 1 0 
 # max = 90
2724953		 # 	collision with: 6 3 0  and 2 4 0 
 # max = 90
2724954		 # 	collision with: 2 3 0  and 3 4 0 
 # max = 90
2724955		 # 	collision with: 0 4 0  and 5 2 1 
 # max = 90
2724984		 # 	collision with: 2 6 0  and 3 0 1 
 # max = 90
2724985		 # 	collision with: 5 1 0  and 2 3 0 
 # max = 90
2724986		 # 	collision with: 5 0 0  and 1 2 0 
 # max = 90
2724987		 # 	collision with: 3 1 0  and 2 3 0 
 # max = 90
2724988		 # 	collision with: 2 0 0  and 6 1 0 
 # max = 90
2724989		 # 	collision with: 2 1 0  and 3 3 0 
 # max = 90
2724990		 # 	collision with: 1 2 0  and 4 0 1 
 # max = 90
2724991		 # 	collision with: 6 2 0  and 6 4 0 
 # max = 90
2725020		 # 	collision with: 6 0 0  and 6 2 0 
 # max = 90
2725021		 # 	collision with: 2 1 0  and 3 3 0 
 # max = 90
2725022		 # 	collision with: 4 0 0  and 3 2 0 
 # max = 90
2725023		 # 	collision with: 2 2 0  and 6 0 1 
 # max = 90
2725052		 # 	collision with: 4 0 0  and 5 1 0 
 # max = 90
2725053		 # 	collision with: 0 2 0  and 2 2 0 
 # max = 90
2725054		 # 	collision with: 3 3 0  and 4 3 0 
 # max = 90
2725055		 # 	collision with: 5 1 0  and 1 2 0 
 # max = 90
2725084		 # 	collision with: 5 4 0  and 3 1 1 
 # max = 90
2725085		 # 	collision with: 2 1 0  and 3 3 0 
 # max = 90
2725086		 # 	collision with: 1 4 0  and 4 0 1 
 # max = 90
2725087		 # 	collision with: 2 5 0  and 1 0 1 
 # max = 90
2725116		 # 	collision with: 1 5 0  and 2 5 0 
 # max = 90
2725117		 # 	collision with: 4 0 0  and 6 1 0 
 # max = 90
2725118		 # 	collision with: 5 1 0  and 3 0 1 
 # max = 90
2725119		 # 	collision with: 3 6 0  and 4 0 1 
 # max = 90
2725148		 # 	collision with: 0 0 0  and 3 2 0 
 # max = 90
2725149		 # 	collision with: 2 1 0  and 3 3 0 
 # max = 90
2725150		 # 	collision with: 0 2 0  and 1 4 0 
 # max = 90
2725151		 # 	collision with: 4 0 0  and 6 2 0 
 # max = 90
2725180		 # 	collision with: 5 2 0  and 4 4 0 
 # max = 90
2725181		 # 	collision with: 2 1 0  and 3 3 0 
 # max = 90
2725182		 # 	collision with: 5 2 0  and 0 3 0 
 # max = 90
2725183		 # 	collision with: 1 1 0  and 2 3 0 
 # max = 90
2725184		 # 	collision with: 0 5 0  and 3 1 1 
 # max = 90
2725185		 # 	collision with: 6 3 0  and 3 4 0 
 # max = 90
2725186		 # 	collision with: 2 3 0  and 3 4 0 
 # max = 90
2725187		 # 	collision with: 4 0 0  and 3 2 0 
 # max = 90
2725216		 # 	collision with: 2 0 0  and 5 1 0 
 # max = 90
2725217		 # 	collision with: 1 1 0  and 3 1 0 
 # max = 90
2725218		 # 	collision with: 1 5 0  and 2 5 0 
 # max = 90
2725219		 # 	collision with: 0 4 0  and 2 0 1 
 # max = 90
2725248		 # 	collision with: 2 3 0  and 5 1 1 
 # max = 90
2725249		 # 	collision with: 3 0 0  and 1 1 0 
 # max = 90
2725250		 # 	collision with: 1 4 0  and 5 0 1 
 # max = 90
2725251		 # 	collision with: 5 1 0  and 0 0 1 
 # max = 90
2725280		 # 	collision with: 3 0 0  and 4 2 0 
 # max = 90
2725281		 # 	collision with: 2 2 0  and 4 3 0 
 # max = 90
2725282		 # 	collision with: 1 1 0  and 3 1 1 
 # max = 90
2725283		 # 	collision with: 4 1 0  and 0 3 0 
 # max = 90
2725312		 # 	collision with: 3 1 0  and 5 0 1 
 # max = 90
2725313		 # 	collision with: 1 5 0  and 1 0 1 
 # max = 90
2725314		 # 	collision with: 3 2 0  and 3 3 0 
 # max = 90
2725315		 # 	collision with: 5 6 0  and 6 0 1 
 # max = 90
2725344		 # 	collision with: 1 2 0  and 1 3 0 
 # max = 90
2725345		 # 	collision with: 1 3 0  and 2 4 0 
 # max = 90
2725346		 # 	collision with: 3 1 0  and 2 3 0 
 # max = 90
2725347		 # 	collision with: 0 0 0  and 2 1 0 
 # max = 90
2725376		 # 	collision with: 4 0 0  and 5 1 0 
 # max = 90
2725377		 # 	collision with: 3 0 0  and 3 1 0 
 # max = 90
2725378		 # 	collision with: 0 6 0  and 1 0 1 
 # max = 90
2725379		 # 	collision with: 4 0 0  and 6 2 0 
 # max = 90
2725380		 # 	collision with: 0 4 0  and 6 0 1 
 # max = 90
2725381		 # 	collision with: 1 1 0  and 5 2 0 
 # max = 90
2725382		 # 	collision with: 0 1 0  and 5 2 0 
 # max = 90
2725383		 # 	collision with: 1 1 0  and 3 1 0 
 # max = 90
2725412		 # 	collision with: 5 1 0  and 2 3 0 
 # max = 90
2725413		 # 	collision with: 6 0 0  and 3 2 0 
 # max = 90
2725414		 # 	collision with: 2 3 0  and 3 4 0 
 # max = 90
2725415		 # 	collision with: 0 1 0  and 4 2 0 
 # max = 90
2725444		 # 	collision with: 0 2 0  and 2 2 0 
 # max = 90
2725445		 # 	collision with: 1 3 0  and 2 4 0 
 # max = 90
2725446		 # 	collision with: 3 2 0  and 2 0 1 
 # max = 90
2725447		 # 	collision with: 4 1 0  and 4 2 0 
 # max = 90
2725476		 # 	collision with: 4 0 0  and 5 1 0 
 # max = 90
2725477		 # 	collision with: 6 1 0  and 5 3 0 
 # max = 90
2725478		 # 	collision with: 6 1 0  and 1 2 0 
 # max = 90
2725479		 # 	collision with: 6 0 0  and 2 1 0 
 # max = 90
2725508		 # 	collision with: 6 3 0  and 5 1 1 
 # max = 90
2725509		 # 	collision with: 2 1 0  and 2 2 0 
 # max = 90
2725510		 # 	collision with: 6 3 0  and 0 5 0 
 # max = 90
2725511		 # 	collision with: 0 6 0  and 1 0 1 
 # max = 90
2725540		 # 	collision with: 1 1 0  and 5 2 0 
 # max = 90
2725541		 # 	collision with: 6 2 0  and 0 1 1 
 # max = 90
2725542		 # 	collision with: 5 0 0  and 5 1 0 
 # max = 90
2725543		 # 	collision with: 6 2 0  and 3 0 1 
 # max = 90
2725572		 # 	collision with: 3 0 0  and 3 1 0 
 # max = 90
2725573		 # 	collision with: 0 0 0  and 3 2 0 
 # max = 90
2725574		 # 	collision with: 1 2 0  and 2 0 1 
 # max = 90
2725575		 # 	collision with: 5 2 0  and 0 3 0 
 # max = 90
2725576		 # 	collision with: 4 0 0  and 5 1 0 
 # max = 90
2725577		 # 	collision with: 1 2 0  and 2 4 0 
 # max = 90
2725578		 # 	collision with: 2 1 0  and 5 1 1 
 # max = 90
2725579		 # 	collision with: 3 1 0  and 6 0 1 
 # max = 90
2725608		 # 	collision with: 3 1 0  and 5 2 0 
 # max = 90
2725609		 # 	collision with: 3 1 0  and 4 0 1 
 # max = 90
2725610		 # 	collision with: 5 4 0  and 6 2 1 
 # max = 90
2725611		 # 	collision with: 4 0 0  and 6 2 0 
 # max = 90
2725640		 # 	collision with: 3 1 0  and 5 2 0 
 # max = 90
2725641		 # 	collision with: 4 2 0  and 1 4 0 
 # max = 90
2725642		 # 	collision with: 2 0 0  and 6 2 0 
 # max = 90
2725643		 # 	collision with: 0 0 0  and 1 1 1 
 # max = 90
2725672		 # 	collision with: 3 1 0  and 5 2 0 
 # max = 90
2725673		 # 	collision with: 0 6 0  and 4 0 1 
 # max = 90
2725674		 # 	collision with: 6 0 0  and 2 1 0 
 # max = 90
2725675		 # 	collision with: 1 4 0  and 4 2 1 
 # max = 90
2725704		 # 	collision with: 3 1 0  and 5 2 0 
 # max = 90
2725705		 # 	collision with: 2 1 0  and 0 2 0 
 # max = 90
2725706		 # 	collision with: 1 6 0  and 1 0 1 
 # max = 90
2725707		 # 	collision with: 2 0 0  and 6 2 0 
 # max = 90
2725736		 # 	collision with: 3 1 0  and 5 2 0 
 # max = 90
2725737		 # 	collision with: 1 2 0  and 1 3 0 
 # max = 90
2725738		 # 	collision with: 0 2 0  and 2 2 0 
 # max = 90
2725739		 # 	collision with: 3 3 0  and 6 4 0 
 # max = 90
2725768		 # 	collision with: 2 1 0  and 0 2 0 
 # max = 90
2725769		 # 	collision with: 1 3 0  and 2 4 0 
 # max = 90
2725770		 # 	collision with: 2 0 0  and 3 2 0 
 # max = 90
2725771		 # 	collision with: 3 2 0  and 6 4 0 
 # max = 90
2725772		 # 	collision with: 3 0 0  and 1 1 0 
 # max = 90
2725773		 # 	collision with: 3 0 0  and 4 2 0 
 # max = 90
2725774		 # 	collision with: 5 1 0  and 1 2 0 
 # max = 90
2725775		 # 	collision with: 5 3 0  and 3 4 0 
 # max = 90
2725804		 # 	collision with: 6 0 0  and 3 2 0 
 # max = 90
2725805		 # 	collision with: 2 2 1  and 4 2 1 
 # max = 90
2725806		 # 	collision with: 2 3 0  and 2 4 0 
 # max = 90
2725807		 # 	collision with: 2 3 0  and 2 4 0 
 # max = 90
2725836		 # 	collision with: 6 3 0  and 2 4 0 
 # max = 90
2725837		 # 	collision with: 5 1 0  and 3 0 1 
 # max = 90
2725838		 # 	collision with: 0 1 0  and 4 2 0 
 # max = 90
2725839		 # 	collision with: 4 0 0  and 6 2 0 
 # max = 90
2725868		 # 	collision with: 1 6 0  and 4 0 1 
 # max = 90
2725869		 # 	collision with: 1 3 0  and 2 4 0 
 # max = 90
2725870		 # 	collision with: 2 3 0  and 3 4 0 
 # max = 90
2725871		 # 	collision with: 0 2 0  and 4 4 0 
 # max = 90
2725900		 # 	collision with: 4 0 0  and 5 1 0 
 # max = 90
2725901		 # 	collision with: 1 5 0  and 2 5 0 
 # max = 90
2725902		 # 	collision with: 0 0 0  and 2 1 0 
 # max = 90
2725903		 # 	collision with: 4 6 0  and 5 0 1 
 # max = 90
2725932		 # 	collision with: 0 6 0  and 1 6 0 
 # max = 90
2725933		 # 	collision with: 4 2 0  and 2 0 1 
 # max = 90
2725934		 # 	collision with: 3 2 0  and 6 4 0 
 # max = 90
2725935		 # 	collision with: 2 0 0  and 3 2 0 
 # max = 90
2725964		 # 	collision with: 1 6 0  and 2 0 1 
 # max = 90
2725965		 # 	collision with: 0 0 0  and 6 2 0 
 # max = 90
2725966		 # 	collision with: 1 1 0  and 2 0 1 
 # max = 90
2725967		 # 	collision with: 0 6 0  and 1 6 0 
 # max = 90
2725968		 # 	collision with: 6 1 0  and 1 0 1 
 # max = 90
2725969		 # 	collision with: 2 0 0  and 5 1 0 
 # max = 90
2725970		 # 	collision with: 1 1 0  and 2 3 0 
 # max = 90
2725971		 # 	collision with: 4 4 0  and 0 2 1 
 # max = 90
2726000		 # 	collision with: 1 1 0  and 3 1 0 
 # max = 90
2726001		 # 	collision with: 6 0 0  and 6 2 0 
 # max = 90
2726002		 # 	collision with: 4 2 0  and 1 1 1 
 # max = 90
2726003		 # 	collision with: 6 1 0  and 1 2 0 
 # max = 90
2726032		 # 	collision with: 0 6 0  and 2 0 1 
 # max = 90
2726033		 # 	collision with: 2 5 0  and 4 0 1 
 # max = 90
2726034		 # 	collision with: 4 1 0  and 4 2 0 
 # max = 90
2726035		 # 	collision with: 6 2 0  and 3 3 0 
 # max = 90
2726064		 # 	collision with: 5 2 0  and 1 4 0 
 # max = 90
2726065		 # 	collision with: 3 1 0  and 6 0 1 
 # max = 90
2726066		 # 	collision with: 4 1 0  and 0 3 0 
 # max = 90
2726067		 # 	collision with: 4 0 0  and 6 2 0 
 # max = 90
2726096		 # 	collision with: 2 1 0  and 2 2 0 
 # max = 90
2726097		 # 	collision with: 2 3 0  and 3 0 1 
 # max = 90
2726098		 # 	collision with: 2 3 0  and 3 4 0 
 # max = 90
2726099		 # 	collision with: 4 2 0  and 0 3 0 
 # max = 90
2726128		 # 	collision with: 0 0 0  and 6 2 0 
 # max = 90
2726129		 # 	collision with: 1 2 0  and 6 3 0 
 # max = 90
2726130		 # 	collision with: 4 3 0  and 6 4 0 
 # max = 90
2726131		 # 	collision with: 2 3 0  and 5 5 0 
 # max = 90
2726160		 # 	collision with: 1 2 0  and 2 4 0 
 # max = 90
2726161		 # 	collision with: 2 4 0  and 3 4 0 
 # max = 90
2726162		 # 	collision with: 4 2 0  and 0 3 0 
 # max = 90
2726163		 # 	collision with: 1 4 0  and 1 5 0 
 # max = 90
2726173		 # 	collision with: 3 2 0  and 1 3 0 
 # max = 90
2726175		 # 	collision with: 2 0 0  and 0 1 0 
 # max = 90
2726185		 # 	collision with: 4 2 0  and 6 4 0 
 # max = 90
2726187		 # 	collision with: 2 0 0  and 0 1 0 
 # max = 90
2726193		 # 	collision with: 1 2 0  and 6 3 0 
 # max = 90
2726195		 # 	collision with: 2 0 0  and 0 1 0 
 # max = 90
2726201		 # 	collision with: 5 1 0  and 4 0 1 
 # max = 90
2726204		 # 	collision with: 2 3 0  and 4 4 0 
 # max = 90
2726206		 # 	collision with: 1 2 0  and 3 3 0 
 # max = 90
2726216		 # 	collision with: 0 0 0  and 4 1 0 
 # max = 90
2726218		 # 	collision with: 6 0 0  and 4 1 0 
 # max = 90
2726240		 # 	collision with: 6 0 0  and 5 2 0 
 # max = 90
2726242		 # 	collision with: 1 2 0  and 3 3 0 
 # max = 90
2726244		 # 	collision with: 5 4 0  and 0 0 1 
 # max = 90
2726246		 # 	collision with: 1 2 0  and 3 3 0 
 # max = 90
2726256		 # 	collision with: 2 2 0  and 3 4 0 
 # max = 90
2726258		 # 	collision with: 1 2 0  and 3 3 0 
 # max = 90
2726264		 # 	collision with: 2 5 0  and 3 1 1 
 # max = 90
2726266		 # 	collision with: 1 2 0  and 3 3 0 
 # max = 90
2726288		 # 	collision with: 4 1 0  and 1 0 1 
 # max = 90
2726290		 # 	collision with: 2 1 0  and 3 2 0 
 # max = 90
2726296		 # 	collision with: 6 6 0  and 2 0 1 
 # max = 90
2726298		 # 	collision with: 1 2 0  and 3 3 0 
 # max = 90
2726308		 # 	collision with: 3 1 0  and 5 3 0 
 # max = 90
2726310		 # 	collision with: 0 0 0  and 3 1 0 
 # max = 90
2726312		 # 	collision with: 3 0 0  and 5 1 0 
 # max = 90
2726314		 # 	collision with: 1 2 0  and 3 3 0 
 # max = 90
2726333		 # 	collision with: 1 1 0  and 1 0 1 
 # max = 90
2726335		 # 	collision with: 2 0 0  and 0 1 0 
 # max = 90
2726336		 # 	collision with: 4 2 0  and 6 4 0 
 # max = 90
2726338		 # 	collision with: 1 2 0  and 3 3 0 
 # max = 90
2726348		 # 	collision with: 3 1 0  and 2 3 0 
 # max = 90
2726350		 # 	collision with: 1 2 0  and 3 3 0 
 # max = 90
2726353		 # 	collision with: 5 1 0  and 2 3 0 
 # max = 90
2726360		 # 	collision with: 3 3 0  and 4 1 1 
 # max = 90
2726362		 # 	collision with: 0 0 0  and 3 1 0 
 # max = 90
2726369		 # 	collision with: 2 0 0  and 0 2 0 
 # max = 90
2726371		 # 	collision with: 2 3 0  and 5 5 0 
 # max = 90
2726381		 # 	collision with: 2 0 0  and 0 2 0 
 # max = 90
2726383		 # 	collision with: 6 3 0  and 4 0 1 
 # max = 90
2726391		 # 	collision with: 5 0 0  and 3 1 0 
 # max = 90
2726397		 # 	collision with: 2 0 0  and 0 2 0 
 # max = 90
2726399		 # 	collision with: 5 0 0  and 5 1 0 
 # max = 90
2726400		 # 	collision with: 6 0 0  and 6 2 0 
 # max = 90
2726402		 # 	collision with: 3 2 0  and 5 4 0 
 # max = 90
2726412		 # 	collision with: 6 1 0  and 2 2 0 
 # max = 90
2726436		 # 	collision with: 4 3 0  and 3 0 1 
 # max = 90
2726438		 # 	collision with: 3 2 0  and 5 4 0 
 # max = 90
2726440		 # 	collision with: 0 1 0  and 1 1 0 
 # max = 90
2726442		 # 	collision with: 3 2 0  and 5 4 0 
 # max = 90
2726454		 # 	collision with: 4 0 0  and 1 2 0 
 # max = 90
2726460		 # 	collision with: 6 1 0  and 0 3 0 
 # max = 90
2726462		 # 	collision with: 3 2 0  and 5 4 0 
 # max = 90
2726486		 # 	collision with: 3 2 0  and 5 4 0 
 # max = 90
2726492		 # 	collision with: 3 1 0  and 4 2 0 
 # max = 90
2726504		 # 	collision with: 5 1 0  and 2 3 0 
 # max = 90
2726506		 # 	collision with: 3 2 0  and 5 4 0 
 # max = 90
2726508		 # 	collision with: 4 2 0  and 4 4 0 
 # max = 90
2726510		 # 	collision with: 3 2 0  and 5 4 0 
 # max = 90
2726529		 # 	collision with: 2 0 0  and 0 2 0 
 # max = 90
2726531		 # 	collision with: 0 0 0  and 1 1 1 
 # max = 90
2726532		 # 	collision with: 3 4 0  and 3 0 1 
 # max = 90
2726534		 # 	collision with: 0 0 0  and 5 1 0 
 # max = 90
2726544		 # 	collision with: 1 3 0  and 1 0 1 
 # max = 90
2726546		 # 	collision with: 5 0 0  and 3 1 0 
 # max = 90
2726551		 # 	collision with: 4 0 0  and 6 1 0 
 # max = 90
2726556		 # 	collision with: 3 1 0  and 2 3 0 
 # max = 90
2726558		 # 	collision with: 2 1 0  and 1 2 0 
 # max = 90
2726565		 # 	collision with: 1 2 0  and 6 3 0 
 # max = 90
2726567		 # 	collision with: 0 0 0  and 5 1 0 
 # max = 90
2726579		 # 	collision with: 6 1 0  and 1 2 0 
 # max = 90
2726585		 # 	collision with: 0 2 0  and 5 3 0 
 # max = 90
2726587		 # 	collision with: 2 3 0  and 5 5 0 
 # max = 90
2726593		 # 	collision with: 2 2 0  and 3 4 0 
 # max = 90
2726595		 # 	collision with: 3 2 0  and 4 3 0 
 # max = 90
2726596		 # 	collision with: 6 1 0  and 0 3 0 
 # max = 90
2726610		 # 	collision with: 2 1 0  and 1 2 0 
 # max = 90
2726632		 # 	collision with: 0 1 0  and 1 1 0 
 # max = 90
2726636		 # 	collision with: 4 2 0  and 2 0 1 
 # max = 90
2726638		 # 	collision with: 0 0 0  and 3 1 0 
 # max = 90
2726648		 # 	collision with: 2 2 0  and 0 4 0 
 # max = 90
2726650		 # 	collision with: 2 1 0  and 1 2 0 
 # max = 90
2726656		 # 	collision with: 5 1 0  and 2 3 0 
 # max = 90
2726658		 # 	collision with: 2 1 0  and 1 2 0 
 # max = 90
2726680		 # 	collision with: 0 0 0  and 1 1 1 
 # max = 90
2726682		 # 	collision with: 2 1 0  and 1 2 0 
 # max = 90
2726688		 # 	collision with: 1 3 0  and 3 0 1 
 # max = 90
2726690		 # 	collision with: 2 1 0  and 1 2 0 
 # max = 90
2726700		 # 	collision with: 4 6 0  and 3 0 1 
 # max = 90
2726702		 # 	collision with: 2 1 0  and 1 2 0 
 # max = 90
2726704		 # 	collision with: 2 3 0  and 6 4 0 
 # max = 90
2726706		 # 	collision with: 2 1 0  and 1 2 0 
 # max = 90
2726725		 # 	collision with: 0 0 0  and 1 1 1 
 # max = 90
2726727		 # 	collision with: 3 0 1  and 3 1 1 
 # max = 90
2726728		 # 	collision with: 3 2 0  and 1 3 0 
 # max = 90
2726730		 # 	collision with: 4 0 0  and 6 1 0 
 # max = 90
2726742		 # 	collision with: 2 1 0  and 1 2 0 
 # max = 90
2726745		 # 	collision with: 6 4 0  and 4 0 1 
 # max = 90
2726747		 # 	collision with: 5 1 0  and 5 0 1 
 # max = 90
2726752		 # 	collision with: 2 0 0  and 3 1 0 
 # max = 90
2726754		 # 	collision with: 4 6 0  and 0 0 1 
 # max = 90
2726761		 # 	collision with: 0 2 0  and 5 3 0 
 # max = 90
2726763		 # 	collision with: 6 0 0  and 4 1 0 
 # max = 90
2726773		 # 	collision with: 5 1 0  and 0 2 0 
 # max = 90
2726781		 # 	collision with: 3 2 0  and 1 3 0 
 # max = 90
2726789		 # 	collision with: 1 3 0  and 4 0 1 
 # max = 90
2726791		 # 	collision with: 4 0 0  and 6 1 0 
 # max = 90
2726792		 # 	collision with: 2 0 0  and 0 2 0 
 # max = 90
2726794		 # 	collision with: 4 1 0  and 4 2 0 
 # max = 90
2726804		 # 	collision with: 2 0 0  and 0 2 0 
 # max = 90
2726806		 # 	collision with: 1 6 0  and 5 0 1 
 # max = 90
2726828		 # 	collision with: 2 0 0  and 0 2 0 
 # max = 90
2726830		 # 	collision with: 6 0 1  and 3 1 1 
 # max = 90
2726834		 # 	collision with: 3 3 0  and 4 3 0 
 # max = 90
2726844		 # 	collision with: 2 0 0  and 0 2 0 
 # max = 90
2726846		 # 	collision with: 6 1 0  and 1 2 0 
 # max = 90
2726852		 # 	collision with: 2 0 0  and 0 2 0 
 # max = 90
2726876		 # 	collision with: 2 0 0  and 0 2 0 
 # max = 90
2726878		 # 	collision with: 3 2 0  and 4 3 0 
 # max = 90
2726884		 # 	collision with: 2 0 0  and 0 2 0 
 # max = 90
2726886		 # 	collision with: 0 0 0  and 3 1 0 
 # max = 90
2726896		 # 	collision with: 2 0 0  and 0 2 0 
 # max = 90
2726902		 # 	collision with: 5 0 0  and 5 1 0 
 # max = 90
2726921		 # 	collision with: 1 2 0  and 1 3 0 
 # max = 90
2726923		 # 	collision with: 1 6 0  and 6 0 1 
 # max = 90
2726924		 # 	collision with: 3 0 0  and 3 1 0 
 # max = 90
2726926		 # 	collision with: 4 1 0  and 0 2 0 
 # max = 90
2726936		 # 	collision with: 2 0 0  and 0 2 0 
 # max = 90
2726938		 # 	collision with: 1 5 0  and 5 0 1 
 # max = 90
2726941		 # 	collision with: 5 2 0  and 0 1 1 
 # max = 90
2726943		 # 	collision with: 0 5 0  and 3 0 1 
 # max = 90
2726948		 # 	collision with: 1 5 0  and 5 0 1 
 # max = 90
2726950		 # 	collision with: 4 6 0  and 1 1 1 
 # max = 90
2726957		 # 	collision with: 6 2 0  and 4 3 0 
 # max = 90
2726969		 # 	collision with: 6 2 0  and 4 3 0 
 # max = 90
2726971		 # 	collision with: 4 3 0  and 6 5 0 
 # max = 90
2726977		 # 	collision with: 6 2 0  and 4 3 0 
 # max = 90
2726979		 # 	collision with: 0 0 0  and 5 1 0 
 # max = 90
2726985		 # 	collision with: 6 2 0  and 4 3 0 
 # max = 90
2726987		 # 	collision with: 0 1 0  and 1 1 0 
 # max = 90
2726988		 # 	collision with: 3 1 0  and 2 3 0 
 # max = 90
2726990		 # 	collision with: 0 1 0  and 1 1 0 
 # max = 90
2727000		 # 	collision with: 5 2 0  and 3 3 0 
 # max = 90
2727002		 # 	collision with: 3 4 0  and 1 0 1 
 # max = 90
2727026		 # 	collision with: 1 1 0  and 0 3 0 
 # max = 90
2727028		 # 	collision with: 5 3 0  and 6 4 0 
 # max = 90
2727040		 # 	collision with: 5 2 0  and 4 3 0 
 # max = 90
2727042		 # 	collision with: 2 1 0  and 3 2 0 
 # max = 90
2727048		 # 	collision with: 0 6 0  and 2 6 0 
 # max = 90
2727050		 # 	collision with: 3 0 0  and 1 1 0 
 # max = 90
2727072		 # 	collision with: 6 0 0  and 6 2 0 
 # max = 90
2727080		 # 	collision with: 1 2 0  and 3 2 0 
 # max = 90
2727082		 # 	collision with: 0 0 0  and 5 1 0 
 # max = 90
2727094		 # 	collision with: 2 3 0  and 2 4 0 
 # max = 90
2727096		 # 	collision with: 0 2 0  and 6 4 0 
 # max = 90
2727098		 # 	collision with: 2 5 0  and 4 5 0 
 # max = 90
2727117		 # 	collision with: 6 2 0  and 4 3 0 
 # max = 90
2727120		 # 	collision with: 1 5 0  and 6 0 1 
 # max = 90
2727122		 # 	collision with: 6 1 0  and 3 3 0 
 # max = 90
2727132		 # 	collision with: 3 0 0  and 4 2 0 
 # max = 90
2727134		 # 	collision with: 0 0 0  and 3 1 0 
 # max = 90
2727137		 # 	collision with: 6 2 0  and 4 3 0 
 # max = 90
2727139		 # 	collision with: 1 2 0  and 4 3 0 
 # max = 90
2727144		 # 	collision with: 1 4 0  and 5 0 1 
 # max = 90
2727146		 # 	collision with: 4 5 0  and 0 0 1 
 # max = 90
2727155		 # 	collision with: 4 0 0  and 2 1 0 
 # max = 90
2727165		 # 	collision with: 3 1 0  and 2 3 0 
 # max = 90
2727167		 # 	collision with: 4 6 0  and 1 1 1 
 # max = 90
2727173		 # 	collision with: 2 2 0  and 0 3 0 
 # max = 90
2727175		 # 	collision with: 3 0 0  and 1 1 0 
 # max = 90
2727181		 # 	collision with: 2 5 0  and 4 5 0 
 # max = 90
2727183		 # 	collision with: 2 6 0  and 4 0 1 
 # max = 90
2727186		 # 	collision with: 0 0 0  and 3 1 0 
 # max = 90
2727196		 # 	collision with: 2 1 0  and 2 2 0 
 # max = 90
2727198		 # 	collision with: 3 2 0  and 6 1 1 
 # max = 90
2727220		 # 	collision with: 2 4 0  and 0 1 1 
 # max = 90
2727222		 # 	collision with: 5 4 0  and 5 1 1 
 # max = 90
2727224		 # 	collision with: 1 4 0  and 4 0 1 
 # max = 90
2727226		 # 	collision with: 3 0 0  and 1 1 0 
 # max = 90
2727236		 # 	collision with: 5 0 0  and 4 1 0 
 # max = 90
2727238		 # 	collision with: 2 2 0  and 1 3 0 
 # max = 90
2727244		 # 	collision with: 1 1 0  and 3 1 1 
 # max = 90
2727246		 # 	collision with: 1 4 0  and 2 4 0 
 # max = 90
2727268		 # 	collision with: 3 0 0  and 4 2 0 
 # max = 90
2727270		 # 	collision with: 4 0 0  and 2 1 0 
 # max = 90
2727276		 # 	collision with: 0 2 0  and 4 4 0 
 # max = 90
2727278		 # 	collision with: 0 6 0  and 2 6 0 
 # max = 90
2727288		 # 	collision with: 0 0 0  and 4 1 0 
 # max = 90
2727290		 # 	collision with: 3 1 0  and 3 0 1 
 # max = 90
2727292		 # 	collision with: 5 3 0  and 6 4 0 
 # max = 90
2727313		 # 	collision with: 2 0 0  and 3 1 0 
 # max = 90
2727315		 # 	collision with: 3 2 0  and 3 3 0 
 # max = 90
2727318		 # 	collision with: 4 0 0  and 1 2 0 
 # max = 90
2727328		 # 	collision with: 5 1 0  and 5 3 0 
 # max = 90
2727333		 # 	collision with: 2 3 0  and 6 4 0 
 # max = 90
2727335		 # 	collision with: 1 5 0  and 4 0 1 
 # max = 90
2727340		 # 	collision with: 5 1 0  and 0 2 0 
 # max = 90
2727342		 # 	collision with: 3 0 0  and 0 1 0 
 # max = 90
2727349		 # 	collision with: 4 2 0  and 2 3 0 
 # max = 90
2727351		 # 	collision with: 3 0 0  and 1 1 0 
 # max = 90
2727361		 # 	collision with: 3 3 0  and 4 3 0 
 # max = 90
2727363		 # 	collision with: 2 1 0  and 1 2 0 
 # max = 90
2727369		 # 	collision with: 5 2 0  and 3 3 0 
 # max = 90
2727371		 # 	collision with: 0 1 0  and 1 1 0 
 # max = 90
2727379		 # 	collision with: 2 1 0  and 1 2 0 
 # max = 90
2727380		 # 	collision with: 2 5 0  and 4 5 0 
 # max = 90
2727382		 # 	collision with: 3 0 0  and 0 1 0 
 # max = 90
2727392		 # 	collision with: 3 1 0  and 4 0 1 
 # max = 90
2727394		 # 	collision with: 3 0 0  and 0 1 0 
 # max = 90
2727416		 # 	collision with: 0 2 0  and 5 3 0 
 # max = 90
2727418		 # 	collision with: 3 0 0  and 0 1 0 
 # max = 90
2727420		 # 	collision with: 3 1 0  and 2 3 0 
 # max = 90
2727422		 # 	collision with: 3 0 0  and 0 1 0 
 # max = 90
2727432		 # 	collision with: 2 1 0  and 0 3 0 
 # max = 90
2727442		 # 	collision with: 3 0 0  and 0 1 0 
 # max = 90
2727464		 # 	collision with: 6 2 0  and 4 1 1 
 # max = 90
2727466		 # 	collision with: 3 0 0  and 0 1 0 
 # max = 90
2727474		 # 	collision with: 3 0 0  and 0 1 0 
 # max = 90
2727484		 # 	collision with: 3 0 0  and 3 1 0 
 # max = 90
2727486		 # 	collision with: 3 0 0  and 0 1 0 
 # max = 90
2727488		 # 	collision with: 1 4 0  and 2 4 0 
 # max = 90
2727490		 # 	collision with: 3 0 0  and 0 1 0 
 # max = 90
2727511		 # 	collision with: 2 1 0  and 1 2 0 
 # max = 90
2727512		 # 	collision with: 6 2 0  and 3 3 0 
 # max = 90
2727524		 # 	collision with: 2 5 0  and 1 0 1 
 # max = 90
2727526		 # 	collision with: 3 0 0  and 0 1 0 
 # max = 90
2727529		 # 	collision with: 6 1 0  and 6 0 1 
 # max = 90
2727531		 # 	collision with: 2 1 0  and 1 2 0 
 # max = 90
2727541		 # 	collision with: 3 2 0  and 1 4 0 
 # max = 90
2727543		 # 	collision with: 3 2 0  and 2 3 0 
 # max = 90
2727561		 # 	collision with: 4 1 0  and 0 2 0 
 # max = 90
2727563		 # 	collision with: 5 0 0  and 4 2 0 
 # max = 90
2727564		 # 	collision with: 0 4 0  and 2 4 0 
 # max = 90
2727566		 # 	collision with: 2 4 0  and 4 4 0 
 # max = 90
2727573		 # 	collision with: 0 0 0  and 6 2 0 
 # max = 90
2727575		 # 	collision with: 5 0 0  and 6 1 0 
 # max = 90
2727577		 # 	collision with: 0 4 0  and 2 4 0 
 # max = 90
2727579		 # 	collision with: 3 2 0  and 2 3 0 
 # max = 90
2727584		 # 	collision with: 3 2 0  and 1 4 0 
 # max = 90
2727592		 # 	collision with: 1 4 0  and 3 4 0 
 # max = 90
2727594		 # 	collision with: 0 4 0  and 1 4 0 
 # max = 90
2727604		 # 	collision with: 4 1 0  and 1 3 0 
 # max = 90
2727620		 # 	collision with: 2 4 0  and 4 4 0 
 # max = 90
2727622		 # 	collision with: 1 4 0  and 2 4 0 
 # max = 90
2727624		 # 	collision with: 6 0 0  and 2 1 0 
 # max = 90
2727648		 # 	collision with: 0 4 0  and 1 4 0 
 # max = 90
2727650		 # 	collision with: 2 4 0  and 3 4 0 
 # max = 90
2727672		 # 	collision with: 6 4 0  and 1 1 1 
 # max = 90
2727676		 # 	collision with: 1 4 0  and 2 4 0 
 # max = 90
2727678		 # 	collision with: 3 4 0  and 4 4 0 
 # max = 90
2727692		 # 	collision with: 6 1 0  and 0 3 0 
 # max = 90
2727704		 # 	collision with: 2 4 0  and 3 4 0 
 # max = 90
2727706		 # 	collision with: 0 4 0  and 2 4 0 
 # max = 90
2727712		 # 	collision with: 5 1 0  and 1 1 1 
 # max = 90
2727721		 # 	collision with: 2 4 0  and 3 4 0 
 # max = 90
2727723		 # 	collision with: 3 2 0  and 2 3 0 
 # max = 90
2727725		 # 	collision with: 0 2 0  and 1 3 0 
 # max = 90
2727727		 # 	collision with: 3 2 0  and 2 3 0 
 # max = 90
2727732		 # 	collision with: 0 3 0  and 2 4 0 
 # max = 90
2727734		 # 	collision with: 1 2 0  and 5 4 0 
 # max = 90
2727737		 # 	collision with: 3 1 0  and 2 2 0 
 # max = 90
2727739		 # 	collision with: 4 0 0  and 2 2 0 
 # max = 90
2727757		 # 	collision with: 5 1 0  and 4 3 0 
 # max = 90
2727759		 # 	collision with: 2 1 0  and 5 2 0 
 # max = 90
2727760		 # 	collision with: 3 2 0  and 0 4 0 
 # max = 90
2727762		 # 	collision with: 2 1 0  and 6 3 0 
 # max = 90
2727769		 # 	collision with: 5 1 0  and 4 3 0 
 # max = 90
2727771		 # 	collision with: 0 2 0  and 3 3 0 
 # max = 90
2727773		 # 	collision with: 5 1 0  and 4 3 0 
 # max = 90
2727775		 # 	collision with: 3 1 0  and 3 2 0 
 # max = 90
2727780		 # 	collision with: 5 2 0  and 4 3 0 
 # max = 90
2727782		 # 	collision with: 4 0 0  and 2 2 0 
 # max = 90
2727788		 # 	collision with: 3 0 0  and 5 1 0 
 # max = 90
2727790		 # 	collision with: 0 3 0  and 4 5 0 
 # max = 90
2727802		 # 	collision with: 3 1 0  and 3 2 0 
 # max = 90
2727816		 # 	collision with: 5 0 0  and 2 2 0 
 # max = 90
2727818		 # 	collision with: 0 1 0  and 2 2 0 
 # max = 90
2727820		 # 	collision with: 2 1 0  and 2 3 0 
 # max = 90
2727822		 # 	collision with: 2 0 0  and 2 1 0 
 # max = 90
2727844		 # 	collision with: 4 1 0  and 1 3 0 
 # max = 90
2727846		 # 	collision with: 5 3 0  and 0 4 0 
 # max = 90
2727868		 # 	collision with: 5 1 0  and 5 2 0 
 # max = 90
2727870		 # 	collision with: 5 3 0  and 5 4 0 
 # max = 90
2727888		 # 	collision with: 4 0 0  and 4 1 0 
 # max = 90
2727890		 # 	collision with: 4 2 0  and 4 3 0 
 # max = 90
2727900		 # 	collision with: 3 6 0  and 0 0 1 
 # max = 90
2727902		 # 	collision with: 4 5 0  and 0 1 1 
 # max = 90
2727908		 # 	collision with: 3 2 0  and 6 4 0 
 # max = 90
2727910		 # 	collision with: 1 2 0  and 5 3 0 
 # max = 90
2727917		 # 	collision with: 5 1 0  and 4 3 0 
 # max = 90
2727919		 # 	collision with: 2 3 0  and 6 2 1 
 # max = 90
2727921		 # 	collision with: 5 1 0  and 4 3 0 
 # max = 90
2727928		 # 	collision with: 0 0 0  and 1 1 0 
 # max = 90
2727930		 # 	collision with: 0 5 0  and 5 1 1 
 # max = 90
2727933		 # 	collision with: 0 3 0  and 6 4 0 
 # max = 90
2727935		 # 	collision with: 1 2 0  and 6 4 0 
 # max = 90
2727953		 # 	collision with: 2 2 0  and 5 3 0 
 # max = 90
2727956		 # 	collision with: 3 2 0  and 5 4 0 
 # max = 90
2727958		 # 	collision with: 1 2 0  and 3 4 0 
 # max = 90
2727967		 # 	collision with: 5 3 0  and 1 4 0 
 # max = 90
2727969		 # 	collision with: 0 3 0  and 4 4 0 
 # max = 90
2727971		 # 	collision with: 4 1 0  and 4 0 1 
 # max = 90
2727976		 # 	collision with: 2 0 0  and 3 2 0 
 # max = 90
2727978		 # 	collision with: 6 0 0  and 5 1 0 
 # max = 90
2727984		 # 	collision with: 3 2 0  and 5 4 0 
 # max = 90
2727986		 # 	collision with: 5 0 0  and 6 1 0 
 # max = 90
2727996		 # 	collision with: 1 4 0  and 3 4 0 
 # max = 90
2727998		 # 	collision with: 2 1 0  and 5 2 0 
 # max = 90
2728016		 # 	collision with: 3 2 0  and 5 4 0 
 # max = 90
2728018		 # 	collision with: 5 1 0  and 1 3 0 
 # max = 90
2728040		 # 	collision with: 3 2 0  and 5 4 0 
 # max = 90
2728042		 # 	collision with: 5 4 0  and 6 5 0 
 # max = 90
2728066		 # 	collision with: 1 5 0  and 5 0 1 
 # max = 90
2728068		 # 	collision with: 3 2 0  and 5 4 0 
 # max = 90
2728070		 # 	collision with: 5 2 0  and 6 3 0 
 # max = 90
2728084		 # 	collision with: 3 2 0  and 5 4 0 
 # max = 90
2728086		 # 	collision with: 4 1 0  and 5 3 0 
 # max = 90
2728096		 # 	collision with: 3 2 0  and 5 4 0 
 # max = 90
2728098		 # 	collision with: 5 3 0  and 6 4 0 
 # max = 90
2728104		 # 	collision with: 2 1 0  and 4 2 0 
 # max = 90
2728106		 # 	collision with: 1 3 0  and 3 0 1 
 # max = 90
2728115		 # 	collision with: 5 1 0  and 3 0 1 
 # max = 90
2728117		 # 	collision with: 3 2 0  and 6 4 0 
 # max = 90
2728119		 # 	collision with: 5 3 0  and 6 4 0 
 # max = 90
2728124		 # 	collision with: 4 1 0  and 0 2 0 
 # max = 90
2728126		 # 	collision with: 1 2 0  and 0 4 0 
 # max = 90
2728131		 # 	collision with: 1 1 0  and 0 2 0 
 # max = 90
2728149		 # 	collision with: 3 2 0  and 2 4 0 
 # max = 90
2728151		 # 	collision with: 0 2 0  and 3 3 0 
 # max = 90
2728161		 # 	collision with: 6 0 0  and 2 1 0 
 # max = 90
2728163		 # 	collision with: 5 0 0  and 4 2 0 
 # max = 90
2728165		 # 	collision with: 4 5 0  and 2 5 1 
 # max = 90
2728167		 # 	collision with: 2 4 0  and 4 4 0 
 # max = 90
2728172		 # 	collision with: 3 1 0  and 2 2 0 
 # max = 90
2728174		 # 	collision with: 4 1 0  and 1 2 0 
 # max = 90
2728180		 # 	collision with: 0 0 0  and 6 2 0 
 # max = 90
2728182		 # 	collision with: 3 1 0  and 2 3 0 
 # max = 90
2728192		 # 	collision with: 2 0 0  and 6 1 0 
 # max = 90
2728194		 # 	collision with: 5 3 0  and 6 4 0 
 # max = 90
2728208		 # 	collision with: 0 3 0  and 3 4 0 
 # max = 90
2728210		 # 	collision with: 5 3 0  and 1 4 0 
 # max = 90
2728212		 # 	collision with: 2 4 0  and 4 4 0 
 # max = 90
2728214		 # 	collision with: 5 0 0  and 6 1 0 
 # max = 90
2728236		 # 	collision with: 3 2 0  and 0 0 1 
 # max = 90
2728238		 # 	collision with: 6 6 0  and 0 0 1 
 # max = 90
2728260		 # 	collision with: 3 2 0  and 0 4 0 
 # max = 90
2728262		 # 	collision with: 5 1 0  and 1 3 0 
 # max = 90
2728264		 # 	collision with: 6 0 0  and 2 1 0 
 # max = 90
2728266		 # 	collision with: 5 0 0  and 4 2 0 
 # max = 90
2728280		 # 	collision with: 3 2 0  and 6 4 0 
 # max = 90
2728282		 # 	collision with: 1 2 0  and 3 4 0 
 # max = 90
2728292		 # 	collision with: 3 2 0  and 2 4 0 
 # max = 90
2728294		 # 	collision with: 0 2 0  and 3 3 0 
 # max = 90
2728302		 # 	collision with: 6 2 0  and 1 3 0 
 # max = 90
2728309		 # 	collision with: 4 0 0  and 4 1 0 
 # max = 90
2728313		 # 	collision with: 2 4 0  and 3 4 0 
 # max = 90
2728315		 # 	collision with: 4 1 0  and 5 3 0 
 # max = 90
2728320		 # 	collision with: 0 3 0  and 4 4 0 
 # max = 90
2728322		 # 	collision with: 0 0 0  and 1 2 0 
 # max = 90
2728325		 # 	collision with: 1 2 0  and 3 3 0 
 # max = 90
2728327		 # 	collision with: 5 3 0  and 4 4 0 
 # max = 90
2728347		 # 	collision with: 1 2 0  and 0 4 0 
 # max = 90
2728348		 # 	collision with: 3 4 0  and 4 0 1 
 # max = 90
2728350		 # 	collision with: 0 2 0  and 5 0 1 
 # max = 90
2728357		 # 	collision with: 4 1 0  and 0 2 0 
 # max = 90
2728359		 # 	collision with: 3 1 0  and 2 3 0 
 # max = 90
2728361		 # 	collision with: 1 2 0  and 3 3 0 
 # max = 90
2728370		 # 	collision with: 1 2 0  and 6 4 0 
 # max = 90
2728376		 # 	collision with: 3 2 0  and 4 4 0 
 # max = 90
2728378		 # 	collision with: 1 2 0  and 5 3 0 
 # max = 90
2728388		 # 	collision with: 3 1 0  and 2 2 1 
 # max = 90
2728390		 # 	collision with: 2 6 0  and 2 0 1 
 # max = 90
2728404		 # 	collision with: 2 0 0  and 6 1 0 
 # max = 90
2728406		 # 	collision with: 1 2 0  and 2 4 0 
 # max = 90
2728408		 # 	collision with: 4 5 0  and 3 0 1 
 # max = 90
2728410		 # 	collision with: 5 0 0  and 4 2 0 
 # max = 90
2728432		 # 	collision with: 6 1 0  and 0 3 0 
 # max = 90
2728434		 # 	collision with: 4 1 0  and 5 3 0 
 # max = 90
2728456		 # 	collision with: 0 4 0  and 1 4 0 
 # max = 90
2728458		 # 	collision with: 2 4 0  and 3 4 0 
 # max = 90
2728460		 # 	collision with: 2 0 0  and 3 2 0 
 # max = 90
2728462		 # 	collision with: 4 1 0  and 1 2 0 
 # max = 90
2728476		 # 	collision with: 5 0 0  and 2 2 0 
 # max = 90
2728478		 # 	collision with: 5 1 0  and 1 3 0 
 # max = 90
2728496		 # 	collision with: 3 2 0  and 4 1 1 
 # max = 90
2728498		 # 	collision with: 2 6 0  and 1 1 1 
 # max = 90
2728505		 # 	collision with: 1 2 0  and 3 3 0 
 # max = 90
2728507		 # 	collision with: 3 2 0  and 0 0 1 
 # max = 90
2728509		 # 	collision with: 1 2 0  and 3 3 0 
 # max = 90
2728511		 # 	collision with: 6 0 0  and 6 2 0 
 # max = 90
2728516		 # 	collision with: 5 3 0  and 3 5 0 
 # max = 90
2728518		 # 	collision with: 3 2 0  and 2 3 0 
 # max = 90
2728521		 # 	collision with: 5 2 0  and 4 3 0 
 # max = 90
2728541		 # 	collision with: 6 0 0  and 2 1 0 
 # max = 90
2728543		 # 	collision with: 5 3 0  and 1 4 0 
 # max = 90
2728544		 # 	collision with: 5 3 0  and 3 5 0 
 # max = 90
2728546		 # 	collision with: 3 2 0  and 2 3 0 
 # max = 90
2728553		 # 	collision with: 2 2 0  and 5 3 0 
 # max = 90
2728555		 # 	collision with: 1 2 0  and 0 4 0 
 # max = 90
2728559		 # 	collision with: 0 4 0  and 1 0 1 
 # max = 90
2728564		 # 	collision with: 5 3 0  and 3 5 0 
 # max = 90
2728566		 # 	collision with: 3 2 0  and 2 3 0 
 # max = 90
2728572		 # 	collision with: 5 3 0  and 3 5 0 
 # max = 90
2728574		 # 	collision with: 3 2 0  and 2 3 0 
 # max = 90
2728584		 # 	collision with: 5 3 0  and 3 5 0 
 # max = 90
2728586		 # 	collision with: 3 2 0  and 2 3 0 
 # max = 90
2728600		 # 	collision with: 5 3 0  and 3 5 0 
 # max = 90
2728602		 # 	collision with: 3 2 0  and 2 3 0 
 # max = 90
2728606		 # 	collision with: 3 2 0  and 2 3 0 
 # max = 90
2728652		 # 	collision with: 0 0 0  and 6 2 0 
 # max = 90
2728654		 # 	collision with: 0 0 0  and 4 1 0 
 # max = 90
2728656		 # 	collision with: 5 3 0  and 3 5 0 
 # max = 90
2728658		 # 	collision with: 3 2 0  and 2 3 0 
 # max = 90
2728672		 # 	collision with: 1 4 0  and 2 4 0 
 # max = 90
2728674		 # 	collision with: 3 2 0  and 2 3 0 
 # max = 90
2728684		 # 	collision with: 3 1 0  and 2 2 0 
 # max = 90
2728686		 # 	collision with: 6 0 0  and 5 1 0 
 # max = 90
2728692		 # 	collision with: 3 2 0  and 4 4 0 
 # max = 90
2728694		 # 	collision with: 5 1 0  and 1 3 0 
 # max = 90
2728701		 # 	collision with: 1 3 0  and 0 0 1 
 # max = 90
2728703		 # 	collision with: 6 2 0  and 1 3 0 
 # max = 90
2728707		 # 	collision with: 0 6 0  and 3 1 1 
 # max = 90
2728712		 # 	collision with: 3 2 0  and 6 4 0 
 # max = 90
2728714		 # 	collision with: 5 1 0  and 1 3 0 
 # max = 90
2728717		 # 	collision with: 0 1 0  and 1 2 0 
 # max = 90
2728719		 # 	collision with: 4 0 0  and 0 1 0 
 # max = 90
2728737		 # 	collision with: 0 0 0  and 6 2 0 
 # max = 90
2728739		 # 	collision with: 4 0 0  and 0 1 0 
 # max = 90
2728740		 # 	collision with: 4 2 0  and 2 3 0 
 # max = 90
2728742		 # 	collision with: 3 0 0  and 1 1 0 
 # max = 90
2728749		 # 	collision with: 0 3 0  and 3 4 0 
 # max = 90
2728753		 # 	collision with: 5 0 0  and 3 1 0 
 # max = 90
2728755		 # 	collision with: 4 0 0  and 0 1 0 
 # max = 90
2728760		 # 	collision with: 3 0 0  and 5 1 0 
 # max = 90
2728762		 # 	collision with: 6 1 0  and 4 3 0 
 # max = 90
2728780		 # 	collision with: 2 2 0  and 5 3 0 
 # max = 90
2728782		 # 	collision with: 5 3 0  and 0 4 0 
 # max = 90
2728796		 # 	collision with: 0 1 0  and 3 3 0 
 # max = 90
2728798		 # 	collision with: 2 2 0  and 0 3 0 
 # max = 90
2728800		 # 	collision with: 6 4 0  and 1 1 1 
 # max = 90
2728802		 # 	collision with: 5 5 0  and 3 1 1 
 # max = 90
2728824		 # 	collision with: 2 6 0  and 3 0 1 
 # max = 90
2728826		 # 	collision with: 0 6 0  and 1 0 1 
 # max = 90
2728848		 # 	collision with: 3 2 0  and 0 3 0 
 # max = 90
2728850		 # 	collision with: 5 5 0  and 1 0 1 
 # max = 90
2728852		 # 	collision with: 0 3 0  and 5 4 0 
 # max = 90
2728854		 # 	collision with: 5 3 0  and 3 4 0 
 # max = 90
2728870		 # 	collision with: 1 6 0  and 3 0 1 
 # max = 90
2728880		 # 	collision with: 5 0 0  and 3 1 0 
 # max = 90
2728882		 # 	collision with: 6 1 0  and 4 2 0 
 # max = 90
2728888		 # 	collision with: 2 4 0  and 3 4 0 
 # max = 90
2728890		 # 	collision with: 0 4 0  and 2 4 0 
 # max = 90
2728897		 # 	collision with: 0 3 0  and 1 4 0 
 # max = 90
2728899		 # 	collision with: 4 0 0  and 0 1 0 
 # max = 90
2728901		 # 	collision with: 2 0 0  and 6 1 0 
 # max = 90
2728903		 # 	collision with: 4 0 0  and 0 1 0 
 # max = 90
2728965		 # 	collision with: 4 1 0  and 6 2 0 
 # max = 90
2728967		 # 	collision with: 6 0 0  and 6 2 0 
 # max = 90
2728977		 # 	collision with: 1 3 0  and 2 0 1 
 # max = 90
2728979		 # 	collision with: 3 0 0  and 2 2 0 
 # max = 90
2729005		 # 	collision with: 4 0 0  and 6 2 0 
 # max = 90
2729013		 # 	collision with: 5 3 0  and 4 0 1 
 # max = 90
2729015		 # 	collision with: 6 6 0  and 2 0 1 
 # max = 90
2729029		 # 	collision with: 4 0 0  and 1 1 0 
 # max = 90
2729031		 # 	collision with: 2 6 0  and 4 0 1 
 # max = 90
2729037		 # 	collision with: 1 3 0  and 2 4 0 
 # max = 90
2729049		 # 	collision with: 3 1 0  and 1 2 0 
 # max = 90
2729051		 # 	collision with: 5 1 0  and 0 3 0 
 # max = 90
2729065		 # 	collision with: 5 1 0  and 5 2 0 
 # max = 90
2729067		 # 	collision with: 2 2 0  and 3 3 0 
 # max = 90
2729104		 # 	collision with: 2 1 0  and 1 2 0 
 # max = 90
2729106		 # 	collision with: 2 3 0  and 4 4 0 
 # max = 90
2729161		 # 	collision with: 4 1 0  and 5 3 0 
 # max = 90
2729163		 # 	collision with: 2 2 0  and 4 0 1 
 # max = 90
2729173		 # 	collision with: 5 3 0  and 2 0 1 
 # max = 90
2729201		 # 	collision with: 1 1 0  and 2 2 0 
 # max = 90
2729203		 # 	collision with: 3 1 0  and 3 0 1 
 # max = 90
2729209		 # 	collision with: 4 0 0  and 1 1 0 
 # max = 90
2729211		 # 	collision with: 4 2 0  and 1 0 1 
 # max = 90
2729225		 # 	collision with: 1 5 0  and 2 5 0 
 # max = 90
2729227		 # 	collision with: 4 4 0  and 4 1 1 
 # max = 90
2729233		 # 	collision with: 4 0 0  and 6 2 0 
 # max = 90
2729235		 # 	collision with: 0 6 0  and 3 1 1 
 # max = 90
2729245		 # 	collision with: 1 5 0  and 6 1 1 
 # max = 90
2729247		 # 	collision with: 0 4 0  and 3 1 1 
 # max = 90
2729261		 # 	collision with: 4 4 0  and 0 1 1 
 # max = 90
2729263		 # 	collision with: 3 4 0  and 5 0 1 
 # max = 90
2729300		 # 	collision with: 4 5 0  and 4 1 1 
 # max = 90
2729302		 # 	collision with: 2 3 0  and 3 4 0 
 # max = 90
2729357		 # 	collision with: 4 1 0  and 6 3 0 
 # max = 90
2729359		 # 	collision with: 2 1 0  and 3 1 0 
 # max = 90
2729369		 # 	collision with: 4 1 0  and 6 3 0 
 # max = 90
2729371		 # 	collision with: 0 1 0  and 4 2 0 
 # max = 90
2729397		 # 	collision with: 4 1 0  and 6 3 0 
 # max = 90
2729399		 # 	collision with: 4 1 0  and 4 0 1 
 # max = 90
2729421		 # 	collision with: 4 1 0  and 6 3 0 
 # max = 90
2729423		 # 	collision with: 0 2 0  and 1 2 0 
 # max = 90
2729431		 # 	collision with: 5 1 1  and 0 2 1 
 # max = 90
2729441		 # 	collision with: 4 1 0  and 6 3 0 
 # max = 90
2729457		 # 	collision with: 4 1 0  and 6 3 0 
 # max = 90
2729459		 # 	collision with: 0 0 0  and 1 1 1 
 # max = 90
2729496		 # 	collision with: 4 3 0  and 0 4 0 
 # max = 90
2729498		 # 	collision with: 6 3 0  and 2 4 0 
 # max = 90
5.30984secs	90 4215
