# prime 7
# degree 2
# input variables 3
# output variables 5
# reload computed balance functions from file balance-88of320-p7d2m3-debug.log
# p = 7
# n = 5
# smalldomain p^m 343
# domain p^n 16807
#	 p^2 = 49
#	 p^3 = 343
#	 p^4 = 2401
#	 p^5 = 16807
#	 p^6 = 117649
#	 p^7 = 823543
#	 p^8 = 5764801
#	 p^9 = 40353607
opening file : balance-88of320-p7d2m3-debug.log
reloading for step2...
906402		 # 	collision with: 2 1 0 0 0  and 4 1 0 0 0 
 # max = 11
906412		 # 	collision with: 1 0 4 0 0  and 6 2 4 0 0 
 # max = 216
906414		 # 	collision with: 4 0 4 0 0  and 2 1 4 0 0 
 # max = 216
906422		 # 	collision with: 4 0 3 0 0  and 4 1 3 0 0 
 # max = 216
906432		 # 	collision with: 3 5 1 0 0  and 4 5 1 0 0 
 # max = 216
906434		 # 	collision with: 2 1 5 0 0  and 4 1 5 0 0 
 # max = 256
906456		 # 	collision with: 3 2 1 0 0  and 3 3 1 0 0 
 # max = 256
906458		 # 	collision with: 2 1 0 0 0  and 4 1 0 0 0 
 # max = 256
906461		 # 	collision with: 6 2 1 0 0  and 1 4 1 0 0 
 # max = 256
906463		 # 	collision with: 2 1 0 0 0  and 4 1 0 0 0 
 # max = 256
906464		 # 	collision with: 2 2 2 0 0  and 5 3 2 0 0 
 # max = 256
906477		 # 	collision with: 2 2 1 0 0  and 2 2 2 0 0 
 # max = 256
906479		 # 	collision with: 4 0 2 0 0  and 2 1 2 0 0 
 # max = 256
906485		 # 	collision with: 1 3 1 0 0  and 1 1 2 0 0 
 # max = 256
906487		 # 	collision with: 6 6 1 0 0  and 0 2 2 0 0 
 # max = 256
906492		 # 	collision with: 3 5 1 0 0  and 4 5 1 0 0 
 # max = 256
906496		 # 	collision with: 1 0 4 0 0  and 6 1 4 0 0 
 # max = 256
906498		 # 	collision with: 2 1 3 0 0  and 4 1 3 0 0 
 # max = 256
906500		 # 	collision with: 4 1 3 0 0  and 2 1 0 1 0 
 # max = 352
906502		 # 	collision with: 0 4 3 0 0  and 1 1 0 1 0 
 # max = 352
906532		 # 	collision with: 1 1 2 0 0  and 1 3 2 0 0 
 # max = 352
906536		 # 	collision with: 4 0 1 0 0  and 4 2 1 0 0 
 # max = 352
906538		 # 	collision with: 2 1 0 0 0  and 4 1 0 0 0 
 # max = 352
906547		 # 	collision with: 1 1 0 0 0  and 1 1 2 0 0 
 # max = 352
906553		 # 	collision with: 3 5 0 0 0  and 4 5 0 0 0 
 # max = 352
906555		 # 	collision with: 1 1 1 0 0  and 1 2 1 0 0 
 # max = 352
906566		 # 	collision with: 2 1 0 0 0  and 4 1 0 0 0 
 # max = 352
906569		 # 	collision with: 4 6 0 0 0  and 4 6 2 0 0 
 # max = 352
906571		 # 	collision with: 2 1 0 0 0  and 4 1 0 0 0 
 # max = 352
906572		 # 	collision with: 2 0 4 0 0  and 2 1 4 0 0 
 # max = 352
906574		 # 	collision with: 1 1 4 0 0  and 1 2 4 0 0 
 # max = 352
906596		 # 	collision with: 1 0 3 0 0  and 6 1 3 0 0 
 # max = 352
906598		 # 	collision with: 2 1 2 0 0  and 4 1 2 0 0 
 # max = 352
906608		 # 	collision with: 3 5 0 0 0  and 4 5 0 0 0 
 # max = 352
906610		 # 	collision with: 2 1 1 0 0  and 4 1 1 0 0 
 # max = 352
906616		 # 	collision with: 3 5 1 0 0  and 4 5 1 0 0 
 # max = 352
906628		 # 	collision with: 2 0 4 0 0  and 2 1 4 0 0 
 # max = 352
906630		 # 	collision with: 2 1 3 0 0  and 4 1 3 0 0 
 # max = 352
906654		 # 	collision with: 2 3 3 0 0  and 2 4 3 0 0 
 # max = 352
906657		 # 	collision with: 6 1 0 0 0  and 6 1 2 0 0 
 # max = 352
906659		 # 	collision with: 3 1 0 0 0  and 3 1 2 0 0 
 # max = 352
906660		 # 	collision with: 3 5 1 0 0  and 4 5 1 0 0 
 # max = 352
906662		 # 	collision with: 2 1 5 0 0  and 4 1 5 0 0 
 # max = 352
906681		 # 	collision with: 6 1 0 0 0  and 1 0 2 0 0 
 # max = 352
906683		 # 	collision with: 2 1 0 0 0  and 4 1 0 0 0 
 # max = 352
906688		 # 	collision with: 3 5 2 0 0  and 4 5 2 0 0 
 # max = 352
906690		 # 	collision with: 2 1 3 0 0  and 4 1 3 0 0 
 # max = 352
906692		 # 	collision with: 3 5 0 0 0  and 4 5 0 0 0 
 # max = 352
906694		 # 	collision with: 2 1 4 0 0  and 4 1 4 0 0 
 # max = 352
906696		 # 	collision with: 1 0 6 0 0  and 3 5 0 1 0 
 # max = 381
906698		 # 	collision with: 3 4 6 0 0  and 2 3 0 1 0 
 # max = 381
906730		 # 	collision with: 2 1 0 0 0  and 4 1 0 0 0 
 # max = 381
906732		 # 	collision with: 1 1 4 0 0  and 1 3 4 0 0 
 # max = 381
906734		 # 	collision with: 4 0 4 0 0  and 4 1 4 0 0 
 # max = 381
906741		 # 	collision with: 3 4 0 0 0  and 3 1 1 0 0 
 # max = 381
906749		 # 	collision with: 3 1 0 0 0  and 3 1 1 0 0 
 # max = 381
906751		 # 	collision with: 2 1 0 0 0  and 2 1 1 0 0 
 # max = 381
906760		 # 	collision with: 1 1 4 0 0  and 1 3 4 0 0 
 # max = 381
906762		 # 	collision with: 2 1 3 0 0  and 4 1 3 0 0 
 # max = 381
906765		 # 	collision with: 2 0 0 0 0  and 2 1 0 0 0 
 # max = 381
906767		 # 	collision with: 3 2 0 0 0  and 3 2 1 0 0 
 # max = 381
906768		 # 	collision with: 3 5 1 0 0  and 4 5 1 0 0 
 # max = 381
906792		 # 	collision with: 3 5 0 0 0  and 4 5 0 0 0 
 # max = 381
906794		 # 	collision with: 2 1 4 0 0  and 4 1 4 0 0 
 # max = 381
906804		 # 	collision with: 3 5 2 0 0  and 4 5 2 0 0 
 # max = 381
906806		 # 	collision with: 2 1 3 0 0  and 4 1 3 0 0 
 # max = 381
906812		 # 	collision with: 6 1 1 0 0  and 6 2 1 0 0 
 # max = 381
906814		 # 	collision with: 2 1 0 0 0  and 4 1 0 0 0 
 # max = 381
906824		 # 	collision with: 6 1 2 0 0  and 6 2 2 0 0 
 # max = 381
906848		 # 	collision with: 3 5 0 0 0  and 4 5 0 0 0 
 # max = 381
906850		 # 	collision with: 2 1 1 0 0  and 4 1 1 0 0 
 # max = 381
906853		 # 	collision with: 1 1 1 0 0  and 1 3 1 0 0 
 # max = 381
906856		 # 	collision with: 1 0 3 0 0  and 6 2 3 0 0 
 # max = 381
906858		 # 	collision with: 2 1 2 0 0  and 4 1 2 0 0 
 # max = 381
906869		 # 	collision with: 5 6 0 0 0  and 5 6 1 0 0 
 # max = 381
906871		 # 	collision with: 4 0 0 0 0  and 2 1 0 0 0 
 # max = 381
906877		 # 	collision with: 2 0 0 0 0  and 2 1 0 0 0 
 # max = 381
906879		 # 	collision with: 2 1 1 0 0  and 4 1 1 0 0 
 # max = 381
906886		 # 	collision with: 4 0 3 0 0  and 2 1 3 0 0 
 # max = 381
906888		 # 	collision with: 3 5 1 0 0  and 4 5 1 0 0 
 # max = 381
906890		 # 	collision with: 2 1 5 0 0  and 4 1 5 0 0 
 # max = 381
906921		 # 	collision with: 3 5 0 0 0  and 4 5 0 0 0 
 # max = 381
906923		 # 	collision with: 0 3 0 0 0  and 6 4 0 0 0 
 # max = 381
906933		 # 	collision with: 5 1 1 0 0  and 2 3 1 0 0 
 # max = 381
906935		 # 	collision with: 5 0 2 0 0  and 1 1 2 0 0 
 # max = 381
906936		 # 	collision with: 4 0 0 0 0  and 4 2 0 0 0 
 # max = 381
906938		 # 	collision with: 2 3 0 0 0  and 2 4 0 0 0 
 # max = 381
906944		 # 	collision with: 2 0 0 0 0  and 2 1 0 0 0 
 # max = 381
906952		 # 	collision with: 6 1 0 0 0  and 6 2 0 0 0 
 # max = 381
906954		 # 	collision with: 2 1 0 0 0  and 4 2 0 0 0 
 # max = 381
906963		 # 	collision with: 2 6 2 0 0  and 4 6 2 0 0 
 # max = 381
906968		 # 	collision with: 5 2 0 0 0  and 5 4 0 0 0 
 # max = 381
906992		 # 	collision with: 4 0 0 0 0  and 4 2 0 0 0 
 # max = 381
906996		 # 	collision with: 5 2 0 0 0  and 5 4 0 0 0 
 # max = 381
906998		 # 	collision with: 5 0 0 0 0  and 1 1 0 0 0 
 # max = 381
907012		 # 	collision with: 2 3 0 0 0  and 5 5 0 0 0 
 # max = 381
907014		 # 	collision with: 5 0 0 0 0  and 1 2 0 0 0 
 # max = 381
907016		 # 	collision with: 1 1 0 0 0  and 1 3 0 0 0 
 # max = 381
907040		 # 	collision with: 2 3 0 0 0  and 5 5 0 0 0 
 # max = 381
907051		 # 	collision with: 2 3 0 0 0  and 2 4 0 0 0 
 # max = 381
907056		 # 	collision with: 2 0 0 0 0  and 2 1 0 0 0 
 # max = 381
907058		 # 	collision with: 1 1 0 0 0  and 1 2 0 0 0 
 # max = 381
907061		 # 	collision with: 3 5 0 0 0  and 4 5 0 0 0 
 # max = 381
907063		 # 	collision with: 0 3 0 0 0  and 6 4 0 0 0 
 # max = 381
907064		 # 	collision with: 6 1 0 0 0  and 6 2 0 0 0 
 # max = 381
907072		 # 	collision with: 1 1 0 0 0  and 1 3 0 0 0 
 # max = 381
907074		 # 	collision with: 4 0 0 0 0  and 4 1 0 0 0 
 # max = 381
907077		 # 	collision with: 6 1 1 0 0  and 6 2 1 0 0 
 # max = 381
907079		 # 	collision with: 2 3 0 0 0  and 2 4 0 0 0 
 # max = 381
907088		 # 	collision with: 1 5 2 0 0  and 0 0 0 1 0 
 # max = 381
907090		 # 	collision with: 2 5 3 0 0  and 3 1 1 1 0 
 # max = 402
907119		 # 	collision with: 2 6 0 0 0  and 4 6 0 0 0 
 # max = 402
907129		 # 	collision with: 2 6 2 0 0  and 2 2 4 0 0 
 # max = 402
907131		 # 	collision with: 2 2 0 0 0  and 4 4 0 0 0 
 # max = 402
907132		 # 	collision with: 3 5 0 0 0  and 4 5 0 0 0 
 # max = 402
907140		 # 	collision with: 1 0 1 0 0  and 6 2 1 0 0 
 # max = 402
907142		 # 	collision with: 2 3 1 0 0  and 2 4 1 0 0 
 # max = 402
907148		 # 	collision with: 3 5 4 0 0  and 4 5 4 0 0 
 # max = 402
907150		 # 	collision with: 2 6 0 0 0  and 4 6 0 0 0 
 # max = 402
907157		 # 	collision with: 1 0 4 0 0  and 6 1 4 0 0 
 # max = 402
907166		 # 	collision with: 2 6 2 0 0  and 4 6 2 0 0 
 # max = 402
907188		 # 	collision with: 3 5 0 0 0  and 4 5 0 0 0 
 # max = 402
907190		 # 	collision with: 2 6 1 0 0  and 4 6 1 0 0 
 # max = 402
907192		 # 	collision with: 3 5 3 0 0  and 4 5 3 0 0 
 # max = 402
907194		 # 	collision with: 2 3 4 0 0  and 2 4 4 0 0 
 # max = 402
907208		 # 	collision with: 2 2 3 0 0  and 5 3 3 0 0 
 # max = 402
907210		 # 	collision with: 2 6 2 0 0  and 4 6 2 0 0 
 # max = 402
907212		 # 	collision with: 2 0 2 0 0  and 2 1 2 0 0 
 # max = 402
907214		 # 	collision with: 5 2 2 0 0  and 5 3 2 0 0 
 # max = 402
907236		 # 	collision with: 3 5 2 0 0  and 4 5 2 0 0 
 # max = 402
907238		 # 	collision with: 2 6 3 0 0  and 4 6 3 0 0 
 # max = 402
907245		 # 	collision with: 3 5 0 0 0  and 4 5 0 0 0 
 # max = 402
907247		 # 	collision with: 5 1 2 0 0  and 5 1 4 0 0 
 # max = 402
907254		 # 	collision with: 2 3 1 0 0  and 2 4 1 0 0 
 # max = 402
907257		 # 	collision with: 3 5 1 0 0  and 4 5 1 0 0 
 # max = 402
907259		 # 	collision with: 2 6 0 0 0  and 4 6 0 0 0 
 # max = 402
907260		 # 	collision with: 3 2 6 0 0  and 3 3 6 0 0 
 # max = 402
907262		 # 	collision with: 2 6 0 0 0  and 4 6 0 0 0 
 # max = 402
907268		 # 	collision with: 2 0 2 0 0  and 2 1 2 0 0 
 # max = 402
907270		 # 	collision with: 5 2 2 0 0  and 5 3 2 0 0 
 # max = 402
907275		 # 	collision with: 5 0 1 0 0  and 1 2 1 0 0 
 # max = 402
907284		 # 	collision with: 4 0 1 0 0  and 0 4 0 1 0 
 # max = 402
907286		 # 	collision with: 1 5 1 0 0  and 6 5 0 1 0 
 # max = 402
907313		 # 	collision with: 3 2 0 0 0  and 3 3 0 0 0 
 # max = 402
907315		 # 	collision with: 5 2 0 0 0  and 5 3 0 0 0 
 # max = 402
907325		 # 	collision with: 2 0 2 0 0  and 2 0 3 0 0 
 # max = 402
907327		 # 	collision with: 5 0 1 0 0  and 1 2 1 0 0 
 # max = 402
907328		 # 	collision with: 3 2 3 0 0  and 3 3 3 0 0 
 # max = 402
907330		 # 	collision with: 2 6 2 0 0  and 4 6 2 0 0 
 # max = 402
907336		 # 	collision with: 4 0 2 0 0  and 4 2 2 0 0 
 # max = 402
907338		 # 	collision with: 3 1 2 0 0  and 3 3 2 0 0 
 # max = 402
907344		 # 	collision with: 3 5 0 0 0  and 4 5 0 0 0 
 # max = 402
907353		 # 	collision with: 3 5 2 0 0  and 4 5 2 0 0 
 # max = 402
907355		 # 	collision with: 2 6 1 0 0  and 4 6 1 0 0 
 # max = 402
907360		 # 	collision with: 4 0 1 0 0  and 4 2 1 0 0 
 # max = 402
907362		 # 	collision with: 2 1 1 0 0  and 4 2 1 0 0 
 # max = 402
907384		 # 	collision with: 3 5 2 0 0  and 4 5 2 0 0 
 # max = 402
907386		 # 	collision with: 1 1 3 0 0  and 1 2 3 0 0 
 # max = 402
907390		 # 	collision with: 5 2 1 0 0  and 5 3 1 0 0 
 # max = 402
907404		 # 	collision with: 3 5 4 0 0  and 4 5 4 0 0 
 # max = 402
907406		 # 	collision with: 2 6 0 0 0  and 4 6 0 0 0 
 # max = 402
907410		 # 	collision with: 2 6 2 0 0  and 4 6 2 0 0 
 # max = 402
907432		 # 	collision with: 3 5 6 0 0  and 4 5 6 0 0 
 # max = 402
907434		 # 	collision with: 2 6 0 0 0  and 4 6 0 0 0 
 # max = 402
907441		 # 	collision with: 1 1 2 0 0  and 1 3 2 0 0 
 # max = 402
907443		 # 	collision with: 4 0 1 0 0  and 4 1 1 0 0 
 # max = 402
907448		 # 	collision with: 4 0 2 0 0  and 4 2 2 0 0 
 # max = 402
907450		 # 	collision with: 5 0 2 0 0  and 1 2 2 0 0 
 # max = 402
907453		 # 	collision with: 3 2 0 0 0  and 3 3 0 0 0 
 # max = 402
907455		 # 	collision with: 5 2 0 0 0  and 5 3 0 0 0 
 # max = 402
907456		 # 	collision with: 3 5 0 0 0  and 4 5 0 0 0 
 # max = 402
907458		 # 	collision with: 2 6 1 0 0  and 4 6 1 0 0 
 # max = 402
907464		 # 	collision with: 3 5 3 0 0  and 4 5 3 0 0 
 # max = 402
907466		 # 	collision with: 6 0 4 0 0  and 6 2 4 0 0 
 # max = 402
907469		 # 	collision with: 3 5 1 0 0  and 4 5 1 0 0 
 # max = 402
907480		 # 	collision with: 5 5 3 0 0  and 6 1 0 1 0 
 # max = 402
907482		 # 	collision with: 5 0 3 0 0  and 2 5 0 1 0 
 # max = 402
907509		 # 	collision with: 1 1 1 0 0  and 1 3 1 0 0 
 # max = 402
907521		 # 	collision with: 1 1 0 0 0  and 1 3 0 0 0 
 # max = 402
907523		 # 	collision with: 2 6 1 0 0  and 4 6 1 0 0 
 # max = 402
907526		 # 	collision with: 5 0 1 0 0  and 1 1 1 0 0 
 # max = 402
907532		 # 	collision with: 3 5 2 0 0  and 4 5 2 0 0 
 # max = 402
907534		 # 	collision with: 5 0 3 0 0  and 1 1 3 0 0 
 # max = 402
907540		 # 	collision with: 3 5 3 0 0  and 4 5 3 0 0 
 # max = 402
907542		 # 	collision with: 1 1 4 0 0  and 1 2 4 0 0 
 # max = 402
907549		 # 	collision with: 1 1 0 0 0  and 1 3 0 0 0 
 # max = 402
907551		 # 	collision with: 5 2 2 0 0  and 5 3 2 0 0 
 # max = 402
907556		 # 	collision with: 3 5 0 0 0  and 4 5 0 0 0 
 # max = 402
907558		 # 	collision with: 2 6 1 0 0  and 4 6 1 0 0 
 # max = 402
907580		 # 	collision with: 6 1 1 0 0  and 6 2 1 0 0 
 # max = 402
907582		 # 	collision with: 4 0 1 0 0  and 4 1 1 0 0 
 # max = 402
907584		 # 	collision with: 3 5 0 0 0  and 4 5 0 0 0 
 # max = 402
907600		 # 	collision with: 3 5 2 0 0  and 4 5 2 0 0 
 # max = 402
907602		 # 	collision with: 0 3 2 0 0  and 6 4 2 0 0 
 # max = 402
907604		 # 	collision with: 4 0 6 0 0  and 4 2 6 0 0 
 # max = 402
907606		 # 	collision with: 2 6 0 0 0  and 4 6 0 0 0 
 # max = 402
907628		 # 	collision with: 6 2 2 0 0  and 1 4 2 0 0 
 # max = 402
907630		 # 	collision with: 5 0 2 0 0  and 1 1 2 0 0 
 # max = 402
907637		 # 	collision with: 3 5 1 0 0  and 4 5 1 0 0 
 # max = 402
907639		 # 	collision with: 0 3 1 0 0  and 6 4 1 0 0 
 # max = 402
907644		 # 	collision with: 5 2 3 0 0  and 5 4 3 0 0 
 # max = 402
907646		 # 	collision with: 2 6 2 0 0  and 4 6 2 0 0 
 # max = 402
907649		 # 	collision with: 1 1 1 0 0  and 1 3 1 0 0 
 # max = 402
907651		 # 	collision with: 3 1 1 0 0  and 3 3 1 0 0 
 # max = 402
907654		 # 	collision with: 2 6 2 0 0  and 4 6 2 0 0 
 # max = 402
907660		 # 	collision with: 3 5 4 0 0  and 4 5 4 0 0 
 # max = 402
907662		 # 	collision with: 2 6 0 0 0  and 4 6 0 0 0 
 # max = 402
907665		 # 	collision with: 3 5 2 0 0  and 4 5 2 0 0 
 # max = 402
907667		 # 	collision with: 2 2 3 0 0  and 4 4 3 0 0 
 # max = 402
907676		 # 	collision with: 2 4 4 0 0  and 0 6 0 1 0 
 # max = 402
907678		 # 	collision with: 2 2 5 0 0  and 1 2 1 1 0 
 # max = 407
907705		 # 	collision with: 6 1 2 0 0  and 6 2 2 0 0 
 # max = 407
907707		 # 	collision with: 2 1 0 0 0  and 4 2 0 0 0 
 # max = 407
907717		 # 	collision with: 5 2 1 0 0  and 5 2 2 0 0 
 # max = 407
907719		 # 	collision with: 2 6 0 0 0  and 4 6 0 0 0 
 # max = 407
907720		 # 	collision with: 3 5 4 0 0  and 4 5 4 0 0 
 # max = 407
907722		 # 	collision with: 2 6 0 0 0  and 4 6 0 0 0 
 # max = 407
907730		 # 	collision with: 2 6 2 0 0  and 4 6 2 0 0 
 # max = 407
907736		 # 	collision with: 1 1 3 0 0  and 1 3 3 0 0 
 # max = 407
907738		 # 	collision with: 2 6 2 0 0  and 4 6 2 0 0 
 # max = 407
907745		 # 	collision with: 3 5 1 0 0  and 4 5 1 0 0 
 # max = 407
907747		 # 	collision with: 2 6 0 0 0  and 4 6 0 0 0 
 # max = 407
907752		 # 	collision with: 3 2 2 0 0  and 3 3 2 0 0 
 # max = 407
907754		 # 	collision with: 4 0 2 0 0  and 4 1 2 0 0 
 # max = 407
907776		 # 	collision with: 2 0 6 0 0  and 2 1 6 0 0 
 # max = 407
907778		 # 	collision with: 2 6 0 0 0  and 4 6 0 0 0 
 # max = 407
907780		 # 	collision with: 3 2 2 0 0  and 3 3 2 0 0 
 # max = 407
907782		 # 	collision with: 4 0 2 0 0  and 4 1 2 0 0 
 # max = 407
907796		 # 	collision with: 3 5 0 0 0  and 4 5 0 0 0 
 # max = 407
907800		 # 	collision with: 1 0 1 0 0  and 6 1 1 0 0 
 # max = 407
907802		 # 	collision with: 1 1 1 0 0  and 1 2 1 0 0 
 # max = 407
907824		 # 	collision with: 3 5 0 0 0  and 4 5 0 0 0 
 # max = 407
907826		 # 	collision with: 2 6 1 0 0  and 4 6 1 0 0 
 # max = 407
907833		 # 	collision with: 1 0 2 0 0  and 6 2 2 0 0 
 # max = 407
907835		 # 	collision with: 6 0 2 0 0  and 6 2 2 0 0 
 # max = 407
907840		 # 	collision with: 3 5 3 0 0  and 4 5 3 0 0 
 # max = 407
907842		 # 	collision with: 5 2 4 0 0  and 5 3 4 0 0 
 # max = 407
907845		 # 	collision with: 6 1 2 0 0  and 6 2 2 0 0 
 # max = 407
907848		 # 	collision with: 3 5 2 0 0  and 4 5 2 0 0 
 # max = 407
907850		 # 	collision with: 5 2 3 0 0  and 5 3 3 0 0 
 # max = 407
907858		 # 	collision with: 1 1 1 0 0  and 1 2 1 0 0 
 # max = 407
907861		 # 	collision with: 6 2 1 0 0  and 1 4 1 0 0 
 # max = 407
907863		 # 	collision with: 5 0 1 0 0  and 1 1 2 0 0 
 # max = 407
907872		 # 	collision with: 0 6 6 0 0  and 4 1 0 1 0 
 # max = 407
907874		 # 	collision with: 3 1 6 0 0  and 0 0 0 1 0 
 # max = 407
907901		 # 	collision with: 4 4 0 0 0  and 3 5 0 0 0 
 # max = 407
907903		 # 	collision with: 6 3 0 0 0  and 0 0 2 0 0 
 # max = 407
907913		 # 	collision with: 6 2 1 0 0  and 1 4 1 0 0 
 # max = 407
907916		 # 	collision with: 3 5 3 0 0  and 4 5 3 0 0 
 # max = 407
907918		 # 	collision with: 3 1 4 0 0  and 3 3 4 0 0 
 # max = 407
907924		 # 	collision with: 3 5 0 0 0  and 4 5 0 0 0 
 # max = 407
907926		 # 	collision with: 2 6 1 0 0  and 4 6 1 0 0 
 # max = 407
907932		 # 	collision with: 6 2 2 0 0  and 1 4 2 0 0 
 # max = 407
907934		 # 	collision with: 2 3 2 0 0  and 2 4 2 0 0 
 # max = 407
907941		 # 	collision with: 5 2 1 0 0  and 5 4 1 0 0 
 # max = 407
907943		 # 	collision with: 5 0 0 0 0  and 1 2 0 0 0 
 # max = 407
907948		 # 	collision with: 6 1 6 0 0  and 6 2 6 0 0 
 # max = 407
907950		 # 	collision with: 2 6 0 0 0  and 4 6 0 0 0 
 # max = 407
907974		 # 	collision with: 2 6 2 0 0  and 4 6 2 0 0 
 # max = 407
907976		 # 	collision with: 3 5 4 0 0  and 4 5 4 0 0 
 # max = 407
907978		 # 	collision with: 2 6 0 0 0  and 4 6 0 0 0 
 # max = 407
907994		 # 	collision with: 2 6 1 0 0  and 4 6 1 0 0 
 # max = 407
907996		 # 	collision with: 3 5 2 0 0  and 4 5 2 0 0 
 # max = 407
907998		 # 	collision with: 2 3 3 0 0  and 2 4 3 0 0 
 # max = 407
908020		 # 	collision with: 5 1 1 0 0  and 2 3 1 0 0 
 # max = 407
908022		 # 	collision with: 2 2 1 0 0  and 4 4 1 0 0 
 # max = 407
908029		 # 	collision with: 4 0 0 0 0  and 4 2 0 0 0 
 # max = 407
908031		 # 	collision with: 2 6 0 0 0  and 4 6 0 0 0 
 # max = 407
908036		 # 	collision with: 3 5 0 0 0  and 4 5 0 0 0 
 # max = 407
908041		 # 	collision with: 4 4 0 0 0  and 3 5 0 0 0 
 # max = 407
908043		 # 	collision with: 6 3 0 0 0  and 0 0 2 0 0 
 # max = 407
908044		 # 	collision with: 1 0 2 0 0  and 6 2 2 0 0 
 # max = 407
908046		 # 	collision with: 2 3 2 0 0  and 2 4 2 0 0 
 # max = 407
908052		 # 	collision with: 6 1 3 0 0  and 6 2 3 0 0 
 # max = 407
908054		 # 	collision with: 2 6 2 0 0  and 4 6 2 0 0 
 # max = 407
908057		 # 	collision with: 4 0 0 0 0  and 4 2 0 0 0 
 # max = 407
908059		 # 	collision with: 2 6 0 0 0  and 4 6 0 0 0 
 # max = 407
908068		 # 	collision with: 6 6 6 0 0  and 4 1 1 1 0 
 # max = 407
908070		 # 	collision with: 3 3 5 0 0  and 2 5 0 1 0 
 # max = 407
908097		 # 	collision with: 3 6 0 0 0  and 4 0 1 0 0 
 # max = 407
908099		 # 	collision with: 2 6 2 0 0  and 4 6 2 0 0 
 # max = 407
908111		 # 	collision with: 4 0 0 0 0  and 4 1 0 0 0 
 # max = 407
908112		 # 	collision with: 1 1 2 0 0  and 1 3 2 0 0 
 # max = 407
908114		 # 	collision with: 6 0 2 0 0  and 6 2 2 0 0 
 # max = 407
908120		 # 	collision with: 1 1 6 0 0  and 1 3 6 0 0 
 # max = 407
908122		 # 	collision with: 2 6 0 0 0  and 4 6 0 0 0 
 # max = 407
908130		 # 	collision with: 5 0 1 0 0  and 1 2 1 0 0 
 # max = 407
908137		 # 	collision with: 3 5 0 0 0  and 4 5 0 0 0 
 # max = 407
908139		 # 	collision with: 4 0 0 0 0  and 4 1 0 0 0 
 # max = 407
908144		 # 	collision with: 3 5 2 0 0  and 4 5 2 0 0 
 # max = 407
908146		 # 	collision with: 3 1 3 0 0  and 3 3 3 0 0 
 # max = 407
908168		 # 	collision with: 1 1 2 0 0  and 1 3 2 0 0 
 # max = 407
908170		 # 	collision with: 6 0 2 0 0  and 6 2 2 0 0 
 # max = 407
908172		 # 	collision with: 2 0 3 0 0  and 2 1 3 0 0 
 # max = 407
908174		 # 	collision with: 2 6 2 0 0  and 4 6 2 0 0 
 # max = 407
908188		 # 	collision with: 3 5 3 0 0  and 4 5 3 0 0 
 # max = 407
908190		 # 	collision with: 2 2 4 0 0  and 4 4 4 0 0 
 # max = 407
908192		 # 	collision with: 3 5 0 0 0  and 4 5 0 0 0 
 # max = 407
908194		 # 	collision with: 2 6 1 0 0  and 4 6 1 0 0 
 # max = 407
908218		 # 	collision with: 2 6 2 0 0  and 4 6 2 0 0 
 # max = 407
908225		 # 	collision with: 2 3 0 0 0  and 5 5 0 0 0 
 # max = 407
908232		 # 	collision with: 3 5 4 0 0  and 4 5 4 0 0 
 # max = 407
908234		 # 	collision with: 2 6 0 0 0  and 4 6 0 0 0 
 # max = 407
908239		 # 	collision with: 1 2 0 0 0  and 5 0 1 0 0 
 # max = 407
908240		 # 	collision with: 2 0 1 0 0  and 2 1 1 0 0 
 # max = 407
908242		 # 	collision with: 5 0 1 0 0  and 1 1 1 0 0 
 # max = 407
908248		 # 	collision with: 3 5 0 0 0  and 4 5 0 0 0 
 # max = 407
908253		 # 	collision with: 2 3 0 0 0  and 5 5 0 0 0 
 # max = 407
908255		 # 	collision with: 5 0 0 0 0  and 1 1 0 0 0 
 # max = 407
908264		 # 	collision with: 4 0 0 0 0  and 4 2 0 0 0 
 # max = 407
908265		 # 	collision with: 3 5 0 0 0  and 4 5 0 0 0 
 # max = 407
908266		 # 	collision with: 4 0 0 0 0  and 2 2 0 0 0 
 # max = 407
908267		 # 	collision with: 2 3 1 0 0  and 4 4 1 0 0 
 # max = 407
908312		 # 	collision with: 5 1 0 0 0  and 2 3 0 0 0 
 # max = 407
908313		 # 	collision with: 3 5 3 0 0  and 4 5 3 0 0 
 # max = 407
908314		 # 	collision with: 2 3 0 0 0  and 4 4 0 0 0 
 # max = 407
908315		 # 	collision with: 2 4 2 0 0  and 4 4 2 0 0 
 # max = 407
908332		 # 	collision with: 3 2 0 0 0  and 3 3 0 0 0 
 # max = 407
908333		 # 	collision with: 1 1 1 0 0  and 1 3 1 0 0 
 # max = 407
908334		 # 	collision with: 1 1 0 0 0  and 1 2 0 0 0 
 # max = 407
908335		 # 	collision with: 4 0 2 0 0  and 4 1 2 0 0 
 # max = 407
908352		 # 	collision with: 5 2 0 0 0  and 5 4 0 0 0 
 # max = 407
908353		 # 	collision with: 3 2 2 0 0  and 3 3 2 0 0 
 # max = 407
908354		 # 	collision with: 4 0 0 0 0  and 4 1 0 0 0 
 # max = 407
908355		 # 	collision with: 2 3 0 0 0  and 4 4 0 0 0 
 # max = 407
908400		 # 	collision with: 1 1 0 0 0  and 1 3 0 0 0 
 # max = 407
908401		 # 	collision with: 6 1 3 0 0  and 6 2 3 0 0 
 # max = 407
908402		 # 	collision with: 5 2 0 0 0  and 5 3 0 0 0 
 # max = 407
908403		 # 	collision with: 6 0 2 0 0  and 6 2 2 0 0 
 # max = 407
908420		 # 	collision with: 6 1 0 0 0  and 6 2 0 0 0 
 # max = 407
908421		 # 	collision with: 5 2 2 0 0  and 5 4 2 0 0 
 # max = 407
908422		 # 	collision with: 2 3 0 0 0  and 2 4 0 0 0 
 # max = 407
908423		 # 	collision with: 2 3 0 0 0  and 2 4 0 0 0 
 # max = 407
908440		 # 	collision with: 2 0 0 0 0  and 2 1 0 0 0 
 # max = 407
908441		 # 	collision with: 3 2 1 0 0  and 3 3 1 0 0 
 # max = 407
908442		 # 	collision with: 3 1 0 0 0  and 3 3 0 0 0 
 # max = 407
908443		 # 	collision with: 2 4 0 0 0  and 4 4 0 0 0 
 # max = 407
908460		 # 	collision with: 1 3 3 0 0  and 0 0 0 1 0 
 # max = 407
908461		 # 	collision with: 5 2 4 0 0  and 5 4 4 0 0 
 # max = 407
908462		 # 	collision with: 2 6 3 0 0  and 3 2 0 1 0 
 # max = 407
908463		 # 	collision with: 2 4 0 0 0  and 4 4 0 0 0 
 # max = 407
908508		 # 	collision with: 3 5 2 0 0  and 4 5 2 0 0 
 # max = 407
908509		 # 	collision with: 3 5 2 0 0  and 4 5 2 0 0 
 # max = 407
908510		 # 	collision with: 2 4 0 0 0  and 4 4 0 0 0 
 # max = 407
908511		 # 	collision with: 2 4 1 0 0  and 4 4 1 0 0 
 # max = 407
908528		 # 	collision with: 6 1 2 0 0  and 6 2 2 0 0 
 # max = 407
908529		 # 	collision with: 2 0 4 0 0  and 2 1 4 0 0 
 # max = 407
908530		 # 	collision with: 4 0 2 0 0  and 4 1 2 0 0 
 # max = 407
908531		 # 	collision with: 2 4 1 0 0  and 4 4 1 0 0 
 # max = 407
908548		 # 	collision with: 3 5 5 0 0  and 4 5 5 0 0 
 # max = 407
908549		 # 	collision with: 5 2 0 0 0  and 5 4 0 0 0 
 # max = 407
908550		 # 	collision with: 2 4 3 0 0  and 4 4 3 0 0 
 # max = 407
908551		 # 	collision with: 0 2 0 0 0  and 6 4 0 0 0 
 # max = 407
908596		 # 	collision with: 6 2 1 0 0  and 1 4 1 0 0 
 # max = 407
908597		 # 	collision with: 6 2 0 0 0  and 1 4 0 0 0 
 # max = 407
908598		 # 	collision with: 2 3 1 0 0  and 2 4 1 0 0 
 # max = 407
908599		 # 	collision with: 2 3 1 0 0  and 2 4 1 0 0 
 # max = 407
908616		 # 	collision with: 3 5 0 0 0  and 4 5 0 0 0 
 # max = 407
908617		 # 	collision with: 3 5 0 0 0  and 4 5 0 0 0 
 # max = 407
908618		 # 	collision with: 3 1 5 0 0  and 3 3 5 0 0 
 # max = 407
908619		 # 	collision with: 2 4 1 0 0  and 4 4 1 0 0 
 # max = 407
908636		 # 	collision with: 1 0 3 0 0  and 6 1 3 0 0 
 # max = 407
908637		 # 	collision with: 4 0 2 0 0  and 4 2 2 0 0 
 # max = 407
908638		 # 	collision with: 2 4 2 0 0  and 4 4 2 0 0 
 # max = 407
908639		 # 	collision with: 2 4 1 0 0  and 4 4 1 0 0 
 # max = 407
908656		 # 	collision with: 4 0 2 0 0  and 0 2 4 1 0 
 # max = 553
908657		 # 	collision with: 2 2 1 0 0  and 5 3 1 0 0 
 # max = 553
908658		 # 	collision with: 0 3 5 0 0  and 3 4 0 1 0 
 # max = 553
908659		 # 	collision with: 5 6 2 0 0  and 1 3 3 0 0 
 # max = 553
908704		 # 	collision with: 3 5 1 0 0  and 4 5 1 0 0 
 # max = 553
908705		 # 	collision with: 3 5 1 0 0  and 4 5 1 0 0 
 # max = 553
908706		 # 	collision with: 6 2 1 0 0  and 0 3 1 0 0 
 # max = 553
908707		 # 	collision with: 2 4 0 0 0  and 4 4 0 0 0 
 # max = 553
908724		 # 	collision with: 3 5 2 0 0  and 4 5 2 0 0 
 # max = 553
908725		 # 	collision with: 3 2 0 0 0  and 3 3 0 0 0 
 # max = 553
908726		 # 	collision with: 2 4 0 0 0  and 4 4 0 0 0 
 # max = 553
908727		 # 	collision with: 6 0 1 0 0  and 6 2 1 0 0 
 # max = 553
908744		 # 	collision with: 3 5 0 0 0  and 4 5 0 0 0 
 # max = 553
908745		 # 	collision with: 3 5 0 0 0  and 4 5 0 0 0 
 # max = 553
908746		 # 	collision with: 4 0 5 0 0  and 2 2 5 0 0 
 # max = 553
908747		 # 	collision with: 3 1 1 0 0  and 3 3 1 0 0 
 # max = 553
908792		 # 	collision with: 2 0 2 0 0  and 2 1 2 0 0 
 # max = 553
908793		 # 	collision with: 2 2 0 0 0  and 5 3 0 0 0 
 # max = 553
908794		 # 	collision with: 6 0 2 0 0  and 6 2 2 0 0 
 # max = 553
908795		 # 	collision with: 5 2 0 0 0  and 5 3 0 0 0 
 # max = 553
908812		 # 	collision with: 1 1 3 0 0  and 1 3 3 0 0 
 # max = 553
908813		 # 	collision with: 2 0 1 0 0  and 2 1 1 0 0 
 # max = 553
908814		 # 	collision with: 2 4 2 0 0  and 4 4 2 0 0 
 # max = 553
908815		 # 	collision with: 6 2 0 0 0  and 0 3 0 0 0 
 # max = 553
908832		 # 	collision with: 3 5 5 0 0  and 4 5 5 0 0 
 # max = 553
908833		 # 	collision with: 1 0 2 0 0  and 6 1 2 0 0 
 # max = 553
908834		 # 	collision with: 2 4 3 0 0  and 4 4 3 0 0 
 # max = 553
908835		 # 	collision with: 4 1 1 0 0  and 2 2 1 0 0 
 # max = 553
908852		 # 	collision with: 5 3 1 0 0  and 6 6 0 1 0 
 # max = 553
908853		 # 	collision with: 5 1 0 0 0  and 2 3 0 0 0 
 # max = 553
908854		 # 	collision with: 5 0 1 0 0  and 2 5 0 1 0 
 # max = 553
908855		 # 	collision with: 3 1 2 0 0  and 3 3 2 0 0 
 # max = 553
908900		 # 	collision with: 3 5 0 0 0  and 4 5 0 0 0 
 # max = 553
908901		 # 	collision with: 3 5 0 0 0  and 4 5 0 0 0 
 # max = 553
908902		 # 	collision with: 2 4 5 0 0  and 4 4 5 0 0 
 # max = 553
908903		 # 	collision with: 5 4 1 0 0  and 1 4 3 0 0 
 # max = 553
908920		 # 	collision with: 3 5 5 0 0  and 4 5 5 0 0 
 # max = 553
908921		 # 	collision with: 1 0 1 0 0  and 6 1 1 0 0 
 # max = 553
908922		 # 	collision with: 2 4 3 0 0  and 4 4 3 0 0 
 # max = 553
908923		 # 	collision with: 2 4 0 0 0  and 4 4 0 0 0 
 # max = 553
908940		 # 	collision with: 3 5 2 0 0  and 4 5 2 0 0 
 # max = 553
908941		 # 	collision with: 3 5 2 0 0  and 4 5 2 0 0 
 # max = 553
908942		 # 	collision with: 2 4 0 0 0  and 4 4 0 0 0 
 # max = 553
908943		 # 	collision with: 4 0 2 0 0  and 2 2 2 0 0 
 # max = 553
908988		 # 	collision with: 6 1 3 0 0  and 6 2 3 0 0 
 # max = 553
908989		 # 	collision with: 1 1 0 0 0  and 1 3 0 0 0 
 # max = 553
908990		 # 	collision with: 2 4 2 0 0  and 4 4 2 0 0 
 # max = 553
908991		 # 	collision with: 5 1 1 0 0  and 5 1 3 0 0 
 # max = 553
909008		 # 	collision with: 2 0 1 0 0  and 2 1 1 0 0 
 # max = 553
909009		 # 	collision with: 3 5 1 0 0  and 4 5 1 0 0 
 # max = 553
909010		 # 	collision with: 5 2 1 0 0  and 5 3 1 0 0 
 # max = 553
909011		 # 	collision with: 2 3 1 0 0  and 4 4 1 0 0 
 # max = 553
909028		 # 	collision with: 4 0 2 0 0  and 4 2 2 0 0 
 # max = 553
909029		 # 	collision with: 3 3 1 0 0  and 3 2 3 0 0 
 # max = 553
909030		 # 	collision with: 5 2 2 0 0  and 5 3 2 0 0 
 # max = 553
909031		 # 	collision with: 3 1 0 0 0  and 3 3 0 0 0 
 # max = 553
909048		 # 	collision with: 1 2 6 0 0  and 2 3 0 1 0 
 # max = 553
909049		 # 	collision with: 6 1 1 0 0  and 6 2 1 0 0 
 # max = 553
909050		 # 	collision with: 2 2 0 0 0  and 5 0 1 1 0 
 # max = 553
909051		 # 	collision with: 1 1 1 0 0  and 1 2 1 0 0 
 # max = 553
909096		 # 	collision with: 2 2 2 0 0  and 5 3 2 0 0 
 # max = 553
909097		 # 	collision with: 5 2 1 0 0  and 5 2 2 0 0 
 # max = 553
909098		 # 	collision with: 2 4 4 0 0  and 4 4 4 0 0 
 # max = 553
909099		 # 	collision with: 4 2 1 0 0  and 4 2 2 0 0 
 # max = 553
909116		 # 	collision with: 1 1 1 0 0  and 1 3 1 0 0 
 # max = 553
909117		 # 	collision with: 3 5 1 0 0  and 4 5 1 0 0 
 # max = 553
909118		 # 	collision with: 6 0 1 0 0  and 6 2 1 0 0 
 # max = 553
909119		 # 	collision with: 1 1 0 0 0  and 1 2 0 0 0 
 # max = 553
909136		 # 	collision with: 2 0 3 0 0  and 2 1 3 0 0 
 # max = 553
909137		 # 	collision with: 4 0 1 0 0  and 4 2 1 0 0 
 # max = 553
909138		 # 	collision with: 2 4 2 0 0  and 4 4 2 0 0 
 # max = 553
909139		 # 	collision with: 2 4 0 0 0  and 4 4 0 0 0 
 # max = 553
909184		 # 	collision with: 3 5 2 0 0  and 4 5 2 0 0 
 # max = 553
909185		 # 	collision with: 2 1 1 0 0  and 2 0 2 0 0 
 # max = 553
909186		 # 	collision with: 2 4 0 0 0  and 4 4 0 0 0 
 # max = 553
909187		 # 	collision with: 0 3 1 0 0  and 6 0 2 0 0 
 # max = 553
909204		 # 	collision with: 3 5 5 0 0  and 4 5 5 0 0 
 # max = 553
909205		 # 	collision with: 6 1 0 0 0  and 6 2 0 0 0 
 # max = 553
909206		 # 	collision with: 2 4 3 0 0  and 4 4 3 0 0 
 # max = 553
909207		 # 	collision with: 0 2 1 0 0  and 6 4 1 0 0 
 # max = 553
909224		 # 	collision with: 3 5 0 0 0  and 4 5 0 0 0 
 # max = 553
909225		 # 	collision with: 3 5 0 0 0  and 4 5 0 0 0 
 # max = 553
909226		 # 	collision with: 1 1 5 0 0  and 1 2 5 0 0 
 # max = 553
909227		 # 	collision with: 4 0 1 0 0  and 4 1 1 0 0 
 # max = 553
909244		 # 	collision with: 4 6 3 0 0  and 2 0 1 1 0 
 # max = 553
909245		 # 	collision with: 4 0 0 0 0  and 4 2 0 0 0 
 # max = 553
909246		 # 	collision with: 0 6 3 0 0  and 5 4 1 1 0 
 # max = 553
909247		 # 	collision with: 6 0 0 0 0  and 6 2 0 0 0 
 # max = 553
909292		 # 	collision with: 3 5 5 0 0  and 4 5 5 0 0 
 # max = 553
909293		 # 	collision with: 4 2 0 0 0  and 4 0 2 0 0 
 # max = 553
909294		 # 	collision with: 2 4 3 0 0  and 4 4 3 0 0 
 # max = 553
909295		 # 	collision with: 4 0 0 0 0  and 4 0 2 0 0 
 # max = 553
909312		 # 	collision with: 4 0 3 0 0  and 4 2 3 0 0 
 # max = 553
909313		 # 	collision with: 6 2 1 0 0  and 1 4 1 0 0 
 # max = 553
909314		 # 	collision with: 2 4 2 0 0  and 4 4 2 0 0 
 # max = 553
909315		 # 	collision with: 2 0 0 0 0  and 2 0 2 0 0 
 # max = 553
909332		 # 	collision with: 1 0 2 0 0  and 6 1 2 0 0 
 # max = 553
909333		 # 	collision with: 4 0 0 0 0  and 4 0 2 0 0 
 # max = 553
909334		 # 	collision with: 2 3 2 0 0  and 2 4 2 0 0 
 # max = 553
909335		 # 	collision with: 6 0 0 0 0  and 6 0 2 0 0 
 # max = 553
909380		 # 	collision with: 3 5 0 0 0  and 4 5 0 0 0 
 # max = 553
909381		 # 	collision with: 3 5 0 0 0  and 4 5 0 0 0 
 # max = 553
909382		 # 	collision with: 4 0 5 0 0  and 4 1 5 0 0 
 # max = 553
909383		 # 	collision with: 2 4 0 0 0  and 4 4 0 0 0 
 # max = 553
909400		 # 	collision with: 3 5 2 0 0  and 4 5 2 0 0 
 # max = 553
909401		 # 	collision with: 6 2 0 0 0  and 6 1 2 0 0 
 # max = 553
909402		 # 	collision with: 2 4 0 0 0  and 4 4 0 0 0 
 # max = 553
909403		 # 	collision with: 5 2 1 0 0  and 5 3 1 0 0 
 # max = 553
909420		 # 	collision with: 3 2 1 0 0  and 3 3 1 0 0 
 # max = 553
909421		 # 	collision with: 4 4 0 0 0  and 3 5 0 0 0 
 # max = 553
909422		 # 	collision with: 4 0 1 0 0  and 4 1 1 0 0 
 # max = 553
909423		 # 	collision with: 4 0 0 0 0  and 2 2 0 0 0 
 # max = 553
909440		 # 	collision with: 0 1 4 0 0  and 1 5 0 1 0 
 # max = 553
909441		 # 	collision with: 2 6 0 0 0  and 5 3 1 0 0 
 # max = 553
909442		 # 	collision with: 2 3 4 0 0  and 0 1 0 1 0 
 # max = 553
909443		 # 	collision with: 6 2 0 0 0  and 0 3 1 0 0 
 # max = 553
909488		 # 	collision with: 6 2 3 0 0  and 1 4 3 0 0 
 # max = 553
909489		 # 	collision with: 2 3 0 0 0  and 5 5 0 0 0 
 # max = 553
909490		 # 	collision with: 2 4 2 0 0  and 4 4 2 0 0 
 # max = 553
909491		 # 	collision with: 4 5 0 0 0  and 4 5 1 0 0 
 # max = 553
909508		 # 	collision with: 3 5 0 0 0  and 4 5 0 0 0 
 # max = 553
909509		 # 	collision with: 3 5 0 0 0  and 4 5 0 0 0 
 # max = 553
909510		 # 	collision with: 6 2 5 0 0  and 0 3 5 0 0 
 # max = 553
909511		 # 	collision with: 6 2 1 0 0  and 0 3 1 0 0 
 # max = 553
909528		 # 	collision with: 4 0 1 0 0  and 4 2 1 0 0 
 # max = 553
909529		 # 	collision with: 6 1 0 0 0  and 6 2 1 0 0 
 # max = 553
909530		 # 	collision with: 3 1 1 0 0  and 3 3 1 0 0 
 # max = 553
909531		 # 	collision with: 4 0 0 0 0  and 4 1 0 0 0 
 # max = 553
909576		 # 	collision with: 3 5 5 0 0  and 4 5 5 0 0 
 # max = 553
909577		 # 	collision with: 1 3 0 0 0  and 1 3 1 0 0 
 # max = 553
909578		 # 	collision with: 2 4 3 0 0  and 4 4 3 0 0 
 # max = 553
909579		 # 	collision with: 2 6 0 0 0  and 2 1 1 0 0 
 # max = 553
909596		 # 	collision with: 1 0 2 0 0  and 6 2 2 0 0 
 # max = 553
909597		 # 	collision with: 2 1 0 0 0  and 2 1 1 0 0 
 # max = 553
909598		 # 	collision with: 1 1 2 0 0  and 1 2 2 0 0 
 # max = 553
909599		 # 	collision with: 2 4 0 0 0  and 4 4 0 0 0 
 # max = 553
909616		 # 	collision with: 3 5 2 0 0  and 4 5 2 0 0 
 # max = 553
909617		 # 	collision with: 2 0 0 0 0  and 2 1 0 0 0 
 # max = 553
909618		 # 	collision with: 2 4 0 0 0  and 4 4 0 0 0 
 # max = 553
909619		 # 	collision with: 1 4 0 0 0  and 5 1 1 0 0 
 # max = 553
909645		 # 	collision with: 2 2 1 0 0  and 5 3 1 0 0 
 # max = 553
909647		 # 	collision with: 1 2 1 0 0  and 5 3 1 0 0 
 # max = 553
909657		 # 	collision with: 1 0 1 0 0  and 6 2 1 0 0 
 # max = 553
909659		 # 	collision with: 6 0 1 0 0  and 6 2 1 0 0 
 # max = 553
909707		 # 	collision with: 2 2 1 0 0  and 4 2 1 0 0 
 # max = 553
909737		 # 	collision with: 5 2 3 0 0  and 5 2 4 0 0 
 # max = 553
909739		 # 	collision with: 2 2 0 0 0  and 4 2 0 0 0 
 # max = 553
909741		 # 	collision with: 3 5 1 0 0  and 4 5 1 0 0 
 # max = 553
909757		 # 	collision with: 3 5 1 0 0  and 4 5 1 0 0 
 # max = 553
909761		 # 	collision with: 5 1 1 0 0  and 2 3 1 0 0 
 # max = 553
909763		 # 	collision with: 1 1 1 0 0  and 5 3 1 0 0 
 # max = 553
909795		 # 	collision with: 2 2 0 0 0  and 4 2 0 0 0 
 # max = 553
909832		 # 	collision with: 4 2 4 0 0  and 6 0 0 1 0 
 # max = 553
909834		 # 	collision with: 6 0 6 0 0  and 4 1 2 1 0 
 # max = 553
909841		 # 	collision with: 3 6 2 0 0  and 4 2 4 0 0 
 # max = 553
909855		 # 	collision with: 1 2 3 0 0  and 5 3 3 0 0 
 # max = 553
909901		 # 	collision with: 6 1 1 0 0  and 6 2 1 0 0 
 # max = 553
909933		 # 	collision with: 6 2 0 0 0  and 1 4 0 0 0 
 # max = 553
909935		 # 	collision with: 2 2 2 0 0  and 4 2 2 0 0 
 # max = 553
909937		 # 	collision with: 3 5 3 0 0  and 4 5 3 0 0 
 # max = 553
909939		 # 	collision with: 4 5 2 0 0  and 2 1 4 0 0 
 # max = 553
909953		 # 	collision with: 3 2 4 0 0  and 3 3 4 0 0 
 # max = 553
909955		 # 	collision with: 3 1 1 0 0  and 3 3 1 0 0 
 # max = 553
909957		 # 	collision with: 6 1 1 0 0  and 6 2 1 0 0 
 # max = 553
909959		 # 	collision with: 2 2 2 0 0  and 4 2 2 0 0 
 # max = 553
909989		 # 	collision with: 6 2 0 0 0  and 1 4 0 0 0 
 # max = 553
909991		 # 	collision with: 2 2 4 0 0  and 4 2 4 0 0 
 # max = 553
910028		 # 	collision with: 5 1 3 0 0  and 3 4 1 1 0 
 # max = 553
910030		 # 	collision with: 0 6 2 0 0  and 3 0 0 1 0 
 # max = 553
910037		 # 	collision with: 2 0 2 0 0  and 2 1 2 0 0 
 # max = 553
910039		 # 	collision with: 4 6 2 0 0  and 2 2 3 0 0 
 # max = 553
910049		 # 	collision with: 4 0 2 0 0  and 4 2 2 0 0 
 # max = 553
910051		 # 	collision with: 5 2 0 0 0  and 5 3 0 0 0 
 # max = 553
910097		 # 	collision with: 2 2 0 0 0  and 5 3 0 0 0 
 # max = 553
910099		 # 	collision with: 2 2 0 0 0  and 4 2 0 0 0 
 # max = 553
910131		 # 	collision with: 5 1 2 0 0  and 1 3 2 0 0 
 # max = 553
910133		 # 	collision with: 4 0 2 0 0  and 4 2 2 0 0 
 # max = 553
910135		 # 	collision with: 5 2 0 0 0  and 5 3 0 0 0 
 # max = 553
910151		 # 	collision with: 1 0 2 0 0  and 5 1 2 0 0 
 # max = 553
910153		 # 	collision with: 2 2 0 0 0  and 5 3 0 0 0 
 # max = 553
910155		 # 	collision with: 2 2 0 0 0  and 4 2 0 0 0 
 # max = 553
910185		 # 	collision with: 4 1 2 0 0  and 4 1 3 0 0 
 # max = 553
910187		 # 	collision with: 2 2 1 0 0  and 4 2 1 0 0 
 # max = 553
910224		 # 	collision with: 2 0 1 0 0  and 1 0 2 1 0 
 # max = 553
910226		 # 	collision with: 3 1 6 0 0  and 1 0 0 1 0 
 # max = 553
910233		 # 	collision with: 1 1 0 0 0  and 1 3 0 0 0 
 # max = 553
910235		 # 	collision with: 6 1 0 0 0  and 0 3 0 0 0 
 # max = 553
910245		 # 	collision with: 3 5 0 0 0  and 4 5 0 0 0 
 # max = 553
910247		 # 	collision with: 0 1 0 0 0  and 6 3 0 0 0 
 # max = 553
910293		 # 	collision with: 2 2 2 0 0  and 5 3 2 0 0 
 # max = 553
910295		 # 	collision with: 3 1 0 0 0  and 3 3 0 0 0 
 # max = 553
910325		 # 	collision with: 1 1 1 0 0  and 1 3 3 0 0 
 # max = 553
910329		 # 	collision with: 3 5 0 0 0  and 4 5 0 0 0 
 # max = 553
910331		 # 	collision with: 0 1 0 0 0  and 6 3 0 0 0 
 # max = 553
910345		 # 	collision with: 1 1 0 0 0  and 1 3 0 0 0 
 # max = 553
910347		 # 	collision with: 6 1 0 0 0  and 0 3 0 0 0 
 # max = 553
910349		 # 	collision with: 1 0 3 0 0  and 6 2 3 0 0 
 # max = 553
910351		 # 	collision with: 3 1 0 0 0  and 3 3 0 0 0 
 # max = 553
910381		 # 	collision with: 3 5 1 0 0  and 4 5 1 0 0 
 # max = 553
910383		 # 	collision with: 4 1 0 0 0  and 2 3 0 0 0 
 # max = 553
910420		 # 	collision with: 6 4 1 0 0  and 2 3 0 1 0 
 # max = 553
910422		 # 	collision with: 5 4 2 0 0  and 3 1 1 1 0 
 # max = 553
910429		 # 	collision with: 3 5 0 0 0  and 4 5 0 0 0 
 # max = 553
910431		 # 	collision with: 2 2 0 0 0  and 4 2 0 0 0 
 # max = 553
910441		 # 	collision with: 3 2 1 0 0  and 3 3 1 0 0 
 # max = 553
910443		 # 	collision with: 5 3 1 0 0  and 1 1 2 0 0 
 # max = 553
910489		 # 	collision with: 3 5 1 0 0  and 4 5 1 0 0 
 # max = 553
910491		 # 	collision with: 5 0 1 0 0  and 5 0 2 0 0 
 # max = 553
910521		 # 	collision with: 5 6 1 0 0  and 5 0 2 0 0 
 # max = 553
910523		 # 	collision with: 2 2 1 0 0  and 4 2 1 0 0 
 # max = 553
910525		 # 	collision with: 3 2 1 0 0  and 3 3 1 0 0 
 # max = 553
910527		 # 	collision with: 1 0 1 0 0  and 1 0 2 0 0 
 # max = 553
910541		 # 	collision with: 3 5 0 0 0  and 4 5 0 0 0 
 # max = 553
910543		 # 	collision with: 2 2 0 0 0  and 4 2 0 0 0 
 # max = 553
910545		 # 	collision with: 1 0 1 0 0  and 1 0 2 0 0 
 # max = 553
910577		 # 	collision with: 5 0 1 0 0  and 5 0 2 0 0 
 # max = 553
910579		 # 	collision with: 2 0 1 0 0  and 2 0 2 0 0 
 # max = 553
910616		 # 	collision with: 0 6 1 0 0  and 3 2 3 1 0 
 # max = 553
910618		 # 	collision with: 0 5 5 0 0  and 5 2 0 1 0 
 # max = 553
910625		 # 	collision with: 4 3 0 0 0  and 4 6 2 0 0 
 # max = 553
910627		 # 	collision with: 6 0 0 0 0  and 6 2 0 0 0 
 # max = 553
910637		 # 	collision with: 6 1 4 0 0  and 6 2 4 0 0 
 # max = 553
910639		 # 	collision with: 2 2 0 0 0  and 4 2 0 0 0 
 # max = 553
910685		 # 	collision with: 4 0 0 0 0  and 4 2 0 0 0 
 # max = 553
910687		 # 	collision with: 2 2 2 0 0  and 4 2 2 0 0 
 # max = 553
910717		 # 	collision with: 4 4 0 0 0  and 3 5 0 0 0 
 # max = 553
910719		 # 	collision with: 1 0 2 0 0  and 5 1 2 0 0 
 # max = 553
910723		 # 	collision with: 2 2 0 0 0  and 4 2 0 0 0 
 # max = 553
910737		 # 	collision with: 2 2 2 0 0  and 5 3 2 0 0 
 # max = 553
910739		 # 	collision with: 6 0 0 0 0  and 6 2 0 0 0 
 # max = 553
910743		 # 	collision with: 2 2 1 0 0  and 4 2 1 0 0 
 # max = 553
910773		 # 	collision with: 4 4 0 0 0  and 3 5 0 0 0 
 # max = 553
910775		 # 	collision with: 6 3 0 0 0  and 6 3 2 0 0 
 # max = 553
910812		 # 	collision with: 0 4 3 0 0  and 6 5 0 1 0 
 # max = 553
910814		 # 	collision with: 2 4 6 0 0  and 0 2 3 1 0 
 # max = 553
910823		 # 	collision with: 4 3 0 0 0  and 2 1 1 0 0 
 # max = 553
910833		 # 	collision with: 2 0 0 0 0  and 2 1 0 0 0 
 # max = 553
910881		 # 	collision with: 3 5 0 0 0  and 4 5 0 0 0 
 # max = 553
910883		 # 	collision with: 1 1 0 0 0  and 1 1 1 0 0 
 # max = 553
910913		 # 	collision with: 6 1 0 0 0  and 6 2 1 0 0 
 # max = 553
910915		 # 	collision with: 6 1 1 0 0  and 0 3 1 0 0 
 # max = 553
910917		 # 	collision with: 2 0 0 0 0  and 2 1 0 0 0 
 # max = 553
910919		 # 	collision with: 6 3 0 0 0  and 0 5 0 0 0 
 # max = 553
910933		 # 	collision with: 2 5 0 0 0  and 5 1 1 0 0 
 # max = 553
910935		 # 	collision with: 5 3 0 0 0  and 1 1 1 0 0 
 # max = 553
910937		 # 	collision with: 3 5 0 0 0  and 4 5 0 0 0 
 # max = 553
910939		 # 	collision with: 4 1 0 0 0  and 4 1 1 0 0 
 # max = 553
910969		 # 	collision with: 4 0 0 0 0  and 4 2 1 0 0 
 # max = 553
911013		 # 	collision with: 1 3 3 0 0  and 1 1 4 0 0 
 # max = 553
911015		 # 	collision with: 4 2 2 0 0  and 2 3 2 0 0 
 # max = 553
911033		 # 	collision with: 2 5 3 0 0  and 5 1 4 0 0 
 # max = 553
911035		 # 	collision with: 5 0 0 1 0  and 1 3 1 1 0 
 # max = 553
911079		 # 	collision with: 3 1 1 0 0  and 3 3 1 0 0 
 # max = 553
911105		 # 	collision with: 3 5 2 0 0  and 4 5 2 0 0 
 # max = 553
911107		 # 	collision with: 3 1 1 0 0  and 3 3 1 0 0 
 # max = 553
911117		 # 	collision with: 2 5 3 0 0  and 5 1 4 0 0 
 # max = 553
911119		 # 	collision with: 3 6 3 0 0  and 3 6 4 0 0 
 # max = 553
911125		 # 	collision with: 2 2 2 0 0  and 5 3 2 0 0 
 # max = 553
911127		 # 	collision with: 4 2 1 0 0  and 2 4 1 0 0 
 # max = 553
911137		 # 	collision with: 3 5 2 0 0  and 4 5 2 0 0 
 # max = 553
911139		 # 	collision with: 2 3 0 0 0  and 2 4 0 0 0 
 # max = 553
911167		 # 	collision with: 2 3 0 0 0  and 2 4 0 0 0 
 # max = 553
911204		 # 	collision with: 4 4 5 0 0  and 1 1 0 1 0 
 # max = 553
911206		 # 	collision with: 0 6 6 0 0  and 4 3 1 1 0 
 # max = 553
911209		 # 	collision with: 3 2 1 0 0  and 3 3 1 0 0 
 # max = 553
911211		 # 	collision with: 2 0 0 0 0  and 4 0 0 0 0 
 # max = 553
911229		 # 	collision with: 1 4 2 0 0  and 6 1 4 0 0 
 # max = 553
911231		 # 	collision with: 2 0 0 0 0  and 4 0 0 0 0 
 # max = 553
911273		 # 	collision with: 1 1 3 0 0  and 1 3 3 0 0 
 # max = 553
911301		 # 	collision with: 1 1 3 0 0  and 1 3 3 0 0 
 # max = 553
911303		 # 	collision with: 2 0 0 0 0  and 4 0 0 0 0 
 # max = 553
911313		 # 	collision with: 5 0 2 0 0  and 5 0 4 0 0 
 # max = 553
911321		 # 	collision with: 3 2 1 0 0  and 3 3 1 0 0 
 # max = 553
911323		 # 	collision with: 2 0 0 0 0  and 4 0 0 0 0 
 # max = 553
911333		 # 	collision with: 3 5 0 0 0  and 4 5 0 0 0 
 # max = 553
911335		 # 	collision with: 2 0 0 0 0  and 4 0 0 0 0 
 # max = 553
911361		 # 	collision with: 3 5 0 0 0  and 4 5 0 0 0 
 # max = 553
911363		 # 	collision with: 2 0 0 0 0  and 4 0 0 0 0 
 # max = 553
911400		 # 	collision with: 2 1 0 0 0  and 4 0 1 1 0 
 # max = 553
911402		 # 	collision with: 0 3 6 0 0  and 3 2 0 1 0 
 # max = 553
911405		 # 	collision with: 3 5 0 0 0  and 4 5 0 0 0 
 # max = 553
911427		 # 	collision with: 5 0 2 0 0  and 1 3 3 0 0 
 # max = 553
911469		 # 	collision with: 1 0 1 0 0  and 6 2 1 0 0 
 # max = 553
911471		 # 	collision with: 4 2 0 0 0  and 2 3 0 0 0 
 # max = 553
911497		 # 	collision with: 5 2 2 0 0  and 5 4 2 0 0 
 # max = 553
911509		 # 	collision with: 3 5 1 0 0  and 4 5 1 0 0 
 # max = 553
911511		 # 	collision with: 2 0 2 0 0  and 4 0 2 0 0 
 # max = 553
911517		 # 	collision with: 3 5 0 0 0  and 4 5 0 0 0 
 # max = 553
911519		 # 	collision with: 1 6 2 0 0  and 1 6 3 0 0 
 # max = 553
911529		 # 	collision with: 6 2 2 0 0  and 1 4 3 0 0 
 # max = 553
911531		 # 	collision with: 5 2 0 0 0  and 5 3 0 0 0 
 # max = 553
911557		 # 	collision with: 2 2 2 0 0  and 5 3 3 0 0 
 # max = 553
911559		 # 	collision with: 5 2 0 0 0  and 5 3 0 0 0 
 # max = 553
911596		 # 	collision with: 5 0 4 0 0  and 1 0 0 1 0 
 # max = 553
911598		 # 	collision with: 1 6 4 0 0  and 2 1 0 1 0 
 # max = 553
911601		 # 	collision with: 4 0 2 0 0  and 4 2 2 0 0 
 # max = 553
911603		 # 	collision with: 1 1 1 0 0  and 1 2 1 0 0 
 # max = 553
911621		 # 	collision with: 6 6 5 0 0  and 5 4 0 1 0 
 # max = 553
911623		 # 	collision with: 4 6 1 0 0  and 2 3 3 0 0 
 # max = 553
911665		 # 	collision with: 2 0 1 0 0  and 2 1 1 0 0 
 # max = 553
911667		 # 	collision with: 2 0 1 0 0  and 4 1 1 0 0 
 # max = 553
911695		 # 	collision with: 6 4 1 0 0  and 6 4 3 0 0 
 # max = 553
911705		 # 	collision with: 5 3 1 0 0  and 2 2 3 0 0 
 # max = 553
911707		 # 	collision with: 1 2 1 0 0  and 1 2 3 0 0 
 # max = 553
911715		 # 	collision with: 1 1 1 0 0  and 1 2 1 0 0 
 # max = 553
911725		 # 	collision with: 2 3 1 0 0  and 2 3 3 0 0 
 # max = 553
911727		 # 	collision with: 3 1 0 0 0  and 3 3 0 0 0 
 # max = 553
911753		 # 	collision with: 3 5 1 0 0  and 4 5 1 0 0 
 # max = 553
911755		 # 	collision with: 3 1 0 0 0  and 3 3 0 0 0 
 # max = 553
911792		 # 	collision with: 6 3 3 0 0  and 2 5 0 1 0 
 # max = 553
911794		 # 	collision with: 4 2 3 0 0  and 1 2 0 1 0 
 # max = 553
911797		 # 	collision with: 2 3 1 0 0  and 5 1 2 0 0 
 # max = 553
911799		 # 	collision with: 6 1 0 0 0  and 0 2 0 0 0 
 # max = 553
911817		 # 	collision with: 0 2 1 0 0  and 4 3 0 1 0 
 # max = 553
911819		 # 	collision with: 0 3 2 0 0  and 1 0 0 1 0 
 # max = 553
911861		 # 	collision with: 6 1 0 0 0  and 6 2 0 0 0 
 # max = 553
911863		 # 	collision with: 2 0 2 0 0  and 4 0 2 0 0 
 # max = 553
911889		 # 	collision with: 6 1 0 0 0  and 6 2 0 0 0 
 # max = 553
911891		 # 	collision with: 3 6 1 0 0  and 3 5 2 0 0 
 # max = 553
911903		 # 	collision with: 6 1 1 0 0  and 0 2 2 0 0 
 # max = 553
911909		 # 	collision with: 1 0 2 0 0  and 6 1 2 0 0 
 # max = 553
911911		 # 	collision with: 6 1 0 0 0  and 0 2 0 0 0 
 # max = 553
911923		 # 	collision with: 1 1 0 0 0  and 1 2 0 0 0 
 # max = 553
911949		 # 	collision with: 3 1 1 0 0  and 3 1 2 0 0 
 # max = 553
911951		 # 	collision with: 1 1 0 0 0  and 1 2 0 0 0 
 # max = 553
911988		 # 	collision with: 3 6 4 0 0  and 2 1 3 1 0 
 # max = 553
911990		 # 	collision with: 3 5 1 0 0  and 6 0 0 1 0 
 # max = 553
911995		 # 	collision with: 3 4 0 0 0  and 3 0 2 0 0 
 # max = 553
912013		 # 	collision with: 4 0 0 0 0  and 4 2 0 0 0 
 # max = 553
912057		 # 	collision with: 1 1 0 0 0  and 1 1 2 0 0 
 # max = 553
912059		 # 	collision with: 4 1 0 0 0  and 4 1 2 0 0 
 # max = 553
912085		 # 	collision with: 3 5 0 0 0  and 3 0 2 0 0 
 # max = 553
912087		 # 	collision with: 2 0 1 0 0  and 4 0 1 0 0 
 # max = 553
912097		 # 	collision with: 4 0 0 0 0  and 4 2 0 0 0 
 # max = 553
912099		 # 	collision with: 2 0 1 0 0  and 4 0 1 0 0 
 # max = 553
912105		 # 	collision with: 3 5 1 0 0  and 4 5 1 0 0 
 # max = 553
912107		 # 	collision with: 2 0 1 0 0  and 4 1 1 0 0 
 # max = 553
912117		 # 	collision with: 4 4 0 0 0  and 3 0 2 0 0 
 # max = 553
912145		 # 	collision with: 4 5 0 0 0  and 3 0 2 0 0 
 # max = 553
912147		 # 	collision with: 6 0 0 0 0  and 6 2 0 0 0 
 # max = 553
912184		 # 	collision with: 6 1 2 0 0  and 3 1 0 1 0 
 # max = 553
912186		 # 	collision with: 3 0 2 0 0  and 2 1 0 1 0 
 # max = 553
912189		 # 	collision with: 2 0 0 0 0  and 2 1 0 0 0 
 # max = 553
912191		 # 	collision with: 4 6 0 0 0  and 4 2 1 0 0 
 # max = 553
912209		 # 	collision with: 3 5 0 0 0  and 4 4 1 0 0 
 # max = 553
912211		 # 	collision with: 6 2 4 0 0  and 0 0 0 1 0 
 # max = 553
912253		 # 	collision with: 3 5 0 0 0  and 4 5 0 0 0 
 # max = 553
912255		 # 	collision with: 2 0 1 0 0  and 4 0 1 0 0 
 # max = 553
912281		 # 	collision with: 3 5 0 0 0  and 4 5 0 0 0 
 # max = 553
912283		 # 	collision with: 2 3 0 0 0  and 4 2 1 0 0 
 # max = 553
912293		 # 	collision with: 1 4 0 0 0  and 1 0 1 0 0 
 # max = 553
912295		 # 	collision with: 6 5 0 0 0  and 6 5 1 0 0 
 # max = 553
912301		 # 	collision with: 2 0 0 0 0  and 2 1 0 0 0 
 # max = 553
912313		 # 	collision with: 3 2 0 0 0  and 3 3 1 0 0 
 # max = 553
912315		 # 	collision with: 4 0 0 0 0  and 4 1 0 0 0 
 # max = 553
912341		 # 	collision with: 6 2 0 0 0  and 6 1 1 0 0 
 # max = 553
912408		 # 	collision with: 3 2 0 0 0  and 4 2 0 0 0 
 # max = 553
912410		 # 	collision with: 2 2 0 0 0  and 4 2 0 0 0 
 # max = 553
912424		 # 	collision with: 2 2 0 0 0  and 2 4 0 0 0 
 # max = 553
912426		 # 	collision with: 2 2 0 0 0  and 2 3 0 0 0 
 # max = 553
912429		 # 	collision with: 2 2 3 0 0  and 2 4 3 0 0 
 # max = 553
912431		 # 	collision with: 1 0 1 0 0  and 5 2 1 0 0 
 # max = 553
912433		 # 	collision with: 3 2 2 0 0  and 4 2 2 0 0 
 # max = 553
912435		 # 	collision with: 3 0 1 0 0  and 3 1 1 0 0 
 # max = 553
912436		 # 	collision with: 3 2 0 0 0  and 4 2 0 0 0 
 # max = 553
912438		 # 	collision with: 2 2 0 0 0  and 4 2 0 0 0 
 # max = 553
912440		 # 	collision with: 1 1 0 0 0  and 1 2 0 0 0 
 # max = 553
912442		 # 	collision with: 6 1 0 0 0  and 0 2 0 0 0 
 # max = 553
912455		 # 	collision with: 2 2 0 0 0  and 4 2 0 0 0 
 # max = 553
912464		 # 	collision with: 3 2 0 0 0  and 4 2 0 0 0 
 # max = 553
912466		 # 	collision with: 2 2 0 0 0  and 4 2 0 0 0 
 # max = 553
912484		 # 	collision with: 4 0 0 0 0  and 3 1 0 0 0 
 # max = 553
912486		 # 	collision with: 3 0 0 0 0  and 3 1 0 0 0 
 # max = 553
912492		 # 	collision with: 3 2 0 0 0  and 4 2 0 0 0 
 # max = 553
912494		 # 	collision with: 2 2 0 0 0  and 4 2 0 0 0 
 # max = 553
912500		 # 	collision with: 3 0 0 0 0  and 4 2 0 0 0 
 # max = 553
912502		 # 	collision with: 4 1 0 0 0  and 4 3 0 0 0 
 # max = 553
912520		 # 	collision with: 3 2 0 0 0  and 4 2 0 0 0 
 # max = 553
912522		 # 	collision with: 2 2 0 0 0  and 4 2 0 0 0 
 # max = 553
912535		 # 	collision with: 5 3 0 0 0  and 5 4 0 0 0 
 # max = 553
912544		 # 	collision with: 3 2 0 0 0  and 4 3 0 0 0 
 # max = 553
912546		 # 	collision with: 6 1 0 0 0  and 6 2 0 0 0 
 # max = 553
912548		 # 	collision with: 3 2 0 0 0  and 4 2 0 0 0 
 # max = 553
912550		 # 	collision with: 2 2 0 0 0  and 4 2 0 0 0 
 # max = 553
912553		 # 	collision with: 5 2 1 0 0  and 2 4 1 0 0 
 # max = 553
912555		 # 	collision with: 2 2 1 0 0  and 4 2 1 0 0 
 # max = 553
912557		 # 	collision with: 3 2 1 0 0  and 4 3 1 0 0 
 # max = 553
912559		 # 	collision with: 2 2 1 0 0  and 2 3 1 0 0 
 # max = 553
912560		 # 	collision with: 5 0 0 0 0  and 5 1 0 0 0 
 # max = 553
912562		 # 	collision with: 4 2 0 0 0  and 2 3 0 0 0 
 # max = 553
912576		 # 	collision with: 4 0 1 0 0  and 1 6 2 1 0 
 # max = 553
912578		 # 	collision with: 2 3 6 0 0  and 3 2 0 1 0 
 # max = 553
912604		 # 	collision with: 3 2 6 0 0  and 4 2 6 0 0 
 # max = 553
912606		 # 	collision with: 2 2 6 0 0  and 4 2 6 0 0 
 # max = 553
912620		 # 	collision with: 3 2 5 0 0  and 4 2 5 0 0 
 # max = 553
912622		 # 	collision with: 2 2 5 0 0  and 4 2 5 0 0 
 # max = 553
912625		 # 	collision with: 5 0 1 0 0  and 5 1 1 0 0 
 # max = 553
912627		 # 	collision with: 6 1 2 0 0  and 0 2 2 0 0 
 # max = 553
912629		 # 	collision with: 3 2 1 0 0  and 4 2 1 0 0 
 # max = 553
912631		 # 	collision with: 2 2 2 0 0  and 4 2 2 0 0 
 # max = 553
912632		 # 	collision with: 3 2 3 0 0  and 4 2 3 0 0 
 # max = 553
912634		 # 	collision with: 2 2 3 0 0  and 4 2 3 0 0 
 # max = 553
912636		 # 	collision with: 3 2 2 0 0  and 4 2 2 0 0 
 # max = 553
912638		 # 	collision with: 2 2 2 0 0  and 4 2 2 0 0 
 # max = 553
912649		 # 	collision with: 2 2 0 0 0  and 2 4 0 0 0 
 # max = 553
912680		 # 	collision with: 3 2 1 0 0  and 4 2 1 0 0 
 # max = 553
912682		 # 	collision with: 2 2 1 0 0  and 4 2 1 0 0 
 # max = 553
912688		 # 	collision with: 3 2 5 0 0  and 4 2 5 0 0 
 # max = 553
912690		 # 	collision with: 2 2 5 0 0  and 4 2 5 0 0 
 # max = 553
912698		 # 	collision with: 5 3 3 0 0  and 5 4 3 0 0 
 # max = 553
912716		 # 	collision with: 3 2 4 0 0  and 4 2 4 0 0 
 # max = 553
912718		 # 	collision with: 2 2 4 0 0  and 4 2 4 0 0 
 # max = 553
912729		 # 	collision with: 3 2 0 0 0  and 4 2 0 0 0 
 # max = 553
912731		 # 	collision with: 6 1 1 0 0  and 6 2 1 0 0 
 # max = 553
912740		 # 	collision with: 3 0 1 0 0  and 3 2 1 0 0 
 # max = 553
912744		 # 	collision with: 3 2 1 0 0  and 4 2 1 0 0 
 # max = 553
912746		 # 	collision with: 2 2 1 0 0  and 4 2 1 0 0 
 # max = 553
912749		 # 	collision with: 5 2 0 0 0  and 2 4 0 0 0 
 # max = 553
912751		 # 	collision with: 6 2 0 0 0  and 0 4 0 0 0 
 # max = 553
912753		 # 	collision with: 2 5 2 0 0  and 2 1 4 0 0 
 # max = 553
912756		 # 	collision with: 3 2 0 0 0  and 4 2 0 0 0 
 # max = 553
912758		 # 	collision with: 2 2 0 0 0  and 4 2 0 0 0 
 # max = 553
912772		 # 	collision with: 5 2 3 0 0  and 3 0 0 1 0 
 # max = 553
912774		 # 	collision with: 1 2 4 0 0  and 6 1 1 1 0 
 # max = 553
912800		 # 	collision with: 3 2 5 0 0  and 4 2 5 0 0 
 # max = 553
912802		 # 	collision with: 2 2 5 0 0  and 4 2 5 0 0 
 # max = 553
912818		 # 	collision with: 6 1 3 0 0  and 6 2 3 0 0 
 # max = 553
912821		 # 	collision with: 3 2 2 0 0  and 4 2 2 0 0 
 # max = 553
912823		 # 	collision with: 5 3 1 0 0  and 5 4 1 0 0 
 # max = 553
912825		 # 	collision with: 3 2 0 0 0  and 4 2 0 0 0 
 # max = 553
912828		 # 	collision with: 3 2 6 0 0  and 4 2 6 0 0 
 # max = 553
912830		 # 	collision with: 2 2 6 0 0  and 4 2 6 0 0 
 # max = 553
912832		 # 	collision with: 3 2 5 0 0  and 4 2 5 0 0 
 # max = 553
912834		 # 	collision with: 2 2 5 0 0  and 4 2 5 0 0 
 # max = 553
912845		 # 	collision with: 3 2 2 0 0  and 4 2 2 0 0 
 # max = 553
912847		 # 	collision with: 2 2 0 0 0  and 2 3 0 0 0 
 # max = 553
912856		 # 	collision with: 3 2 4 0 0  and 4 2 4 0 0 
 # max = 553
912858		 # 	collision with: 2 2 4 0 0  and 4 2 4 0 0 
 # max = 553
912876		 # 	collision with: 5 0 1 0 0  and 5 1 1 0 0 
 # max = 553
912884		 # 	collision with: 3 2 3 0 0  and 4 2 3 0 0 
 # max = 553
912886		 # 	collision with: 2 2 3 0 0  and 4 2 3 0 0 
 # max = 553
912892		 # 	collision with: 3 2 2 0 0  and 4 2 2 0 0 
 # max = 553
912894		 # 	collision with: 2 2 2 0 0  and 4 2 2 0 0 
 # max = 553
912912		 # 	collision with: 3 2 1 0 0  and 4 2 1 0 0 
 # max = 553
912914		 # 	collision with: 2 2 1 0 0  and 4 2 1 0 0 
 # max = 553
912925		 # 	collision with: 5 2 2 0 0  and 2 4 2 0 0 
 # max = 553
912927		 # 	collision with: 2 2 0 0 0  and 4 2 0 0 0 
 # max = 553
912936		 # 	collision with: 3 2 0 0 0  and 4 2 0 0 0 
 # max = 553
912938		 # 	collision with: 2 2 0 0 0  and 4 2 0 0 0 
 # max = 553
912945		 # 	collision with: 3 2 0 0 0  and 4 3 0 0 0 
 # max = 553
912947		 # 	collision with: 4 1 1 0 0  and 4 3 1 0 0 
 # max = 553
912949		 # 	collision with: 4 2 0 0 0  and 4 3 0 0 0 
 # max = 553
912951		 # 	collision with: 4 2 0 0 0  and 2 3 0 0 0 
 # max = 553
912952		 # 	collision with: 3 2 1 0 0  and 4 2 1 0 0 
 # max = 553
912954		 # 	collision with: 2 2 1 0 0  and 4 2 1 0 0 
 # max = 553
912968		 # 	collision with: 5 2 3 0 0  and 6 2 1 1 0 
 # max = 553
912970		 # 	collision with: 3 4 3 0 0  and 1 6 1 1 0 
 # max = 553
912996		 # 	collision with: 3 2 4 0 0  and 4 2 4 0 0 
 # max = 553
912998		 # 	collision with: 2 2 4 0 0  and 4 2 4 0 0 
 # max = 553
913012		 # 	collision with: 1 1 1 0 0  and 1 2 1 0 0 
 # max = 553
913019		 # 	collision with: 2 2 2 0 0  and 4 2 2 0 0 
 # max = 553
913021		 # 	collision with: 6 1 0 0 0  and 6 3 0 0 0 
 # max = 553
913023		 # 	collision with: 2 2 0 0 0  and 4 2 0 0 0 
 # max = 553
913028		 # 	collision with: 3 2 1 0 0  and 4 2 1 0 0 
 # max = 553
913030		 # 	collision with: 2 2 1 0 0  and 4 2 1 0 0 
 # max = 553
913041		 # 	collision with: 1 2 1 0 0  and 1 2 3 0 0 
 # max = 553
913043		 # 	collision with: 2 2 2 0 0  and 4 2 2 0 0 
 # max = 553
913052		 # 	collision with: 3 2 6 0 0  and 4 2 6 0 0 
 # max = 553
913054		 # 	collision with: 2 2 6 0 0  and 4 2 6 0 0 
 # max = 553
913072		 # 	collision with: 3 2 5 0 0  and 4 2 5 0 0 
 # max = 553
913074		 # 	collision with: 6 1 5 0 0  and 0 2 5 0 0 
 # max = 553
913080		 # 	collision with: 3 2 1 0 0  and 4 2 1 0 0 
 # max = 553
913082		 # 	collision with: 2 2 1 0 0  and 4 2 1 0 0 
 # max = 553
913088		 # 	collision with: 3 2 0 0 0  and 4 2 0 0 0 
 # max = 553
913090		 # 	collision with: 2 2 0 0 0  and 4 2 0 0 0 
 # max = 553
913108		 # 	collision with: 3 2 5 0 0  and 4 2 5 0 0 
 # max = 553
913110		 # 	collision with: 2 2 5 0 0  and 4 2 5 0 0 
 # max = 553
913121		 # 	collision with: 3 2 1 0 0  and 4 2 1 0 0 
 # max = 553
913123		 # 	collision with: 1 0 3 0 0  and 1 2 3 0 0 
 # max = 553
913134		 # 	collision with: 6 1 3 0 0  and 0 2 3 0 0 
 # max = 553
913136		 # 	collision with: 3 2 3 0 0  and 4 2 3 0 0 
 # max = 553
913138		 # 	collision with: 2 2 3 0 0  and 4 2 3 0 0 
 # max = 553
913143		 # 	collision with: 1 2 1 0 0  and 1 0 3 0 0 
 # max = 553
913145		 # 	collision with: 3 2 0 0 0  and 4 2 0 0 0 
 # max = 553
913147		 # 	collision with: 4 1 0 0 0  and 4 3 0 0 0 
 # max = 553
913148		 # 	collision with: 3 2 2 0 0  and 4 2 2 0 0 
 # max = 553
913150		 # 	collision with: 2 2 2 0 0  and 4 2 2 0 0 
 # max = 553
913164		 # 	collision with: 1 2 5 0 0  and 2 4 0 1 0 
 # max = 553
913166		 # 	collision with: 2 3 6 0 0  and 5 2 1 1 0 
 # max = 553
913192		 # 	collision with: 3 2 3 0 0  and 4 2 3 0 0 
 # max = 553
913194		 # 	collision with: 2 2 3 0 0  and 4 2 3 0 0 
 # max = 553
913208		 # 	collision with: 3 2 2 0 0  and 4 2 2 0 0 
 # max = 553
913210		 # 	collision with: 2 2 2 0 0  and 4 2 2 0 0 
 # max = 553
913213		 # 	collision with: 3 2 0 0 0  and 4 2 0 0 0 
 # max = 553
913215		 # 	collision with: 6 1 0 0 0  and 0 2 0 0 0 
 # max = 553
913219		 # 	collision with: 6 1 0 0 0  and 6 2 0 0 0 
 # max = 553
913220		 # 	collision with: 3 2 5 0 0  and 4 2 5 0 0 
 # max = 553
913222		 # 	collision with: 2 2 5 0 0  and 4 2 5 0 0 
 # max = 553
913226		 # 	collision with: 3 0 3 0 0  and 3 1 3 0 0 
 # max = 553
913237		 # 	collision with: 1 1 0 0 0  and 6 2 0 0 0 
 # max = 553
913239		 # 	collision with: 1 2 1 0 0  and 1 2 2 0 0 
 # max = 553
913248		 # 	collision with: 3 2 1 0 0  and 4 2 1 0 0 
 # max = 553
913250		 # 	collision with: 2 2 1 0 0  and 4 2 1 0 0 
 # max = 553
913268		 # 	collision with: 3 2 0 0 0  and 4 2 0 0 0 
 # max = 553
913270		 # 	collision with: 2 2 0 0 0  and 4 2 0 0 0 
 # max = 553
913276		 # 	collision with: 3 2 6 0 0  and 4 2 6 0 0 
 # max = 553
913278		 # 	collision with: 2 2 6 0 0  and 4 2 6 0 0 
 # max = 553
913284		 # 	collision with: 1 1 5 0 0  and 1 2 5 0 0 
 # max = 553
913286		 # 	collision with: 1 0 5 0 0  and 1 2 5 0 0 
 # max = 553
913317		 # 	collision with: 2 4 1 0 0  and 5 2 2 0 0 
 # max = 553
913319		 # 	collision with: 2 2 1 0 0  and 4 2 1 0 0 
 # max = 553
913328		 # 	collision with: 3 2 1 0 0  and 4 2 1 0 0 
 # max = 553
913330		 # 	collision with: 2 2 1 0 0  and 4 2 1 0 0 
 # max = 553
913332		 # 	collision with: 3 2 4 0 0  and 4 2 4 0 0 
 # max = 553
913334		 # 	collision with: 2 2 4 0 0  and 4 2 4 0 0 
 # max = 553
913337		 # 	collision with: 1 1 0 0 0  and 1 2 0 0 0 
 # max = 553
913339		 # 	collision with: 1 1 1 0 0  and 1 1 2 0 0 
 # max = 553
913343		 # 	collision with: 2 2 0 0 0  and 4 2 0 0 0 
 # max = 553
913344		 # 	collision with: 6 1 1 0 0  and 6 3 1 0 0 
 # max = 553
913360		 # 	collision with: 0 0 4 0 0  and 3 6 0 1 0 
 # max = 553
913362		 # 	collision with: 6 2 5 0 0  and 1 0 1 1 0 
 # max = 553
913404		 # 	collision with: 3 2 1 0 0  and 4 2 1 0 0 
 # max = 553
913406		 # 	collision with: 2 2 1 0 0  and 4 2 1 0 0 
 # max = 553
913409		 # 	collision with: 3 0 0 0 0  and 3 2 0 0 0 
 # max = 553
913411		 # 	collision with: 2 2 0 0 0  and 4 2 0 0 0 
 # max = 553
913413		 # 	collision with: 5 3 0 0 0  and 5 5 2 0 0 
 # max = 553
913415		 # 	collision with: 6 1 1 0 0  and 0 2 1 0 0 
 # max = 553
913416		 # 	collision with: 3 2 1 0 0  and 4 2 1 0 0 
 # max = 553
913418		 # 	collision with: 2 2 1 0 0  and 4 2 1 0 0 
 # max = 553
913420		 # 	collision with: 3 2 0 0 0  and 4 2 0 0 0 
 # max = 553
913422		 # 	collision with: 2 2 0 0 0  and 4 2 0 0 0 
 # max = 553
913433		 # 	collision with: 3 0 0 0 0  and 4 2 0 0 0 
 # max = 553
913435		 # 	collision with: 2 2 1 0 0  and 4 2 1 0 0 
 # max = 553
913444		 # 	collision with: 3 2 3 0 0  and 4 2 3 0 0 
 # max = 553
913446		 # 	collision with: 2 2 3 0 0  and 4 2 3 0 0 
 # max = 553
913464		 # 	collision with: 3 2 2 0 0  and 4 2 2 0 0 
 # max = 553
913466		 # 	collision with: 2 2 2 0 0  and 4 2 2 0 0 
 # max = 553
913472		 # 	collision with: 3 2 4 0 0  and 4 2 4 0 0 
 # max = 553
913474		 # 	collision with: 2 2 4 0 0  and 4 2 4 0 0 
 # max = 553
913480		 # 	collision with: 4 0 1 0 0  and 3 1 1 0 0 
 # max = 553
913500		 # 	collision with: 3 2 6 0 0  and 4 2 6 0 0 
 # max = 553
913502		 # 	collision with: 2 2 6 0 0  and 4 2 6 0 0 
 # max = 553
913513		 # 	collision with: 5 6 0 0 0  and 2 2 2 0 0 
 # max = 553
913515		 # 	collision with: 6 2 1 0 0  and 0 4 1 0 0 
 # max = 553
913524		 # 	collision with: 4 0 5 0 0  and 3 1 5 0 0 
 # max = 553
913526		 # 	collision with: 2 2 5 0 0  and 4 2 5 0 0 
 # max = 553
913528		 # 	collision with: 3 2 5 0 0  and 4 2 5 0 0 
 # max = 553
913530		 # 	collision with: 2 2 5 0 0  and 4 2 5 0 0 
 # max = 553
913533		 # 	collision with: 3 2 0 0 0  and 4 2 0 0 0 
 # max = 553
913537		 # 	collision with: 3 2 2 0 0  and 4 2 2 0 0 
 # max = 553
913539		 # 	collision with: 2 2 1 0 0  and 4 2 1 0 0 
 # max = 553
913542		 # 	collision with: 1 0 3 0 0  and 1 2 3 0 0 
 # max = 553
913556		 # 	collision with: 0 2 4 0 0  and 6 2 3 1 0 
 # max = 553
913558		 # 	collision with: 3 6 1 0 0  and 2 2 0 1 0 
 # max = 553
913584		 # 	collision with: 3 2 1 0 0  and 4 2 1 0 0 
 # max = 553
913586		 # 	collision with: 2 2 1 0 0  and 4 2 1 0 0 
 # max = 553
913600		 # 	collision with: 3 2 0 0 0  and 4 2 0 0 0 
 # max = 553
913602		 # 	collision with: 2 2 0 0 0  and 4 2 0 0 0 
 # max = 553
913605		 # 	collision with: 1 3 0 0 0  and 1 3 1 0 0 
 # max = 553
913609		 # 	collision with: 6 5 0 0 0  and 1 0 1 0 0 
 # max = 553
913611		 # 	collision with: 1 6 0 0 0  and 1 3 1 0 0 
 # max = 553
913612		 # 	collision with: 3 2 4 0 0  and 4 2 4 0 0 
 # max = 553
913614		 # 	collision with: 2 2 4 0 0  and 4 2 4 0 0 
 # max = 553
913616		 # 	collision with: 4 2 1 0 0  and 4 3 1 0 0 
 # max = 553
913629		 # 	collision with: 3 2 0 0 0  and 4 2 0 0 0 
 # max = 553
913631		 # 	collision with: 2 2 0 0 0  and 2 2 1 0 0 
 # max = 553
913640		 # 	collision with: 3 2 5 0 0  and 4 2 5 0 0 
 # max = 553
913642		 # 	collision with: 2 2 5 0 0  and 4 2 5 0 0 
 # max = 553
913662		 # 	collision with: 2 2 3 0 0  and 2 3 3 0 0 
 # max = 553
913676		 # 	collision with: 3 2 1 0 0  and 4 2 1 0 0 
 # max = 553
913678		 # 	collision with: 2 2 1 0 0  and 4 2 1 0 0 
 # max = 553
913696		 # 	collision with: 3 2 3 0 0  and 4 2 3 0 0 
 # max = 553
913698		 # 	collision with: 2 2 3 0 0  and 4 2 3 0 0 
 # max = 553
913709		 # 	collision with: 5 0 0 0 0  and 5 1 0 0 0 
 # max = 553
913720		 # 	collision with: 3 2 2 0 0  and 4 2 2 0 0 
 # max = 553
913722		 # 	collision with: 2 2 2 0 0  and 4 2 2 0 0 
 # max = 553
913724		 # 	collision with: 3 2 6 0 0  and 4 2 6 0 0 
 # max = 553
913726		 # 	collision with: 2 2 6 0 0  and 4 2 6 0 0 
 # max = 553
913729		 # 	collision with: 1 3 0 0 0  and 1 0 1 0 0 
 # max = 553
913731		 # 	collision with: 2 2 0 0 0  and 4 2 0 0 0 
 # max = 553
913733		 # 	collision with: 2 4 0 0 0  and 5 2 1 0 0 
 # max = 553
913735		 # 	collision with: 1 3 0 0 0  and 5 0 1 0 0 
 # max = 553
913736		 # 	collision with: 3 0 5 0 0  and 3 2 5 0 0 
 # max = 553
913738		 # 	collision with: 3 0 5 0 0  and 3 1 5 0 0 
 # max = 553
913765		 # 	collision with: 4 2 3 0 0  and 4 3 3 0 0 
 # max = 553
913767		 # 	collision with: 5 3 0 0 0  and 5 4 0 0 0 
 # max = 553
913769		 # 	collision with: 2 2 2 0 0  and 2 4 2 0 0 
 # max = 553
913771		 # 	collision with: 2 1 3 0 0  and 4 0 4 0 0 
 # max = 553
913827		 # 	collision with: 0 2 2 0 0  and 6 4 2 0 0 
 # max = 553
913837		 # 	collision with: 3 2 0 0 0  and 4 2 0 0 0 
 # max = 553
913839		 # 	collision with: 5 3 2 0 0  and 5 4 2 0 0 
 # max = 553
913857		 # 	collision with: 3 3 3 0 0  and 3 3 4 0 0 
 # max = 553
913859		 # 	collision with: 2 4 3 0 0  and 4 4 3 0 0 
 # max = 553
913865		 # 	collision with: 3 2 0 0 0  and 4 2 0 0 0 
 # max = 553
913867		 # 	collision with: 5 3 2 0 0  and 1 4 2 0 0 
 # max = 553
913873		 # 	collision with: 6 5 3 0 0  and 1 0 4 0 0 
 # max = 553
913875		 # 	collision with: 2 4 0 0 0  and 4 4 0 0 0 
 # max = 553
913907		 # 	collision with: 5 3 0 0 0  and 5 4 0 0 0 
 # max = 553
913948		 # 	collision with: 4 2 0 0 0  and 6 1 0 1 0 
 # max = 553
913950		 # 	collision with: 0 3 1 0 0  and 4 4 1 1 0 
 # max = 553
913961		 # 	collision with: 3 2 0 0 0  and 4 2 0 0 0 
 # max = 553
913963		 # 	collision with: 0 1 3 0 0  and 6 3 3 0 0 
 # max = 553
913965		 # 	collision with: 4 2 2 0 0  and 4 3 2 0 0 
 # max = 553
913967		 # 	collision with: 2 0 3 0 0  and 4 1 3 0 0 
 # max = 553
914021		 # 	collision with: 4 2 2 0 0  and 4 3 2 0 0 
 # max = 553
914033		 # 	collision with: 5 2 0 0 0  and 2 4 0 0 0 
 # max = 553
914035		 # 	collision with: 2 4 0 0 0  and 4 4 0 0 0 
 # max = 553
914063		 # 	collision with: 2 4 0 0 0  and 4 4 0 0 0 
 # max = 553
914069		 # 	collision with: 6 6 2 0 0  and 1 0 4 0 0 
 # max = 553
914071		 # 	collision with: 5 3 3 0 0  and 5 4 3 0 0 
 # max = 553
914101		 # 	collision with: 3 2 0 0 0  and 4 2 0 0 0 
 # max = 553
914103		 # 	collision with: 0 0 4 0 0  and 6 1 4 0 0 
 # max = 553
914144		 # 	collision with: 4 4 3 0 0  and 0 1 3 1 0 
 # max = 553
914146		 # 	collision with: 1 2 1 0 0  and 0 6 1 1 0 
 # max = 553
914157		 # 	collision with: 3 0 1 0 0  and 3 2 1 0 0 
 # max = 553
914159		 # 	collision with: 5 2 0 0 0  and 1 3 0 0 0 
 # max = 553
914161		 # 	collision with: 4 0 1 0 0  and 3 1 1 0 0 
 # max = 553
914217		 # 	collision with: 3 2 2 0 0  and 4 2 2 0 0 
 # max = 553
914219		 # 	collision with: 5 2 0 0 0  and 1 3 0 0 0 
 # max = 553
914229		 # 	collision with: 4 5 2 0 0  and 3 1 3 0 0 
 # max = 553
914249		 # 	collision with: 2 5 2 0 0  and 2 1 3 0 0 
 # max = 553
914251		 # 	collision with: 5 2 0 0 0  and 1 3 0 0 0 
 # max = 553
914257		 # 	collision with: 3 2 1 0 0  and 4 3 1 0 0 
 # max = 553
914259		 # 	collision with: 5 2 0 0 0  and 1 3 0 0 0 
 # max = 553
914265		 # 	collision with: 3 2 2 0 0  and 4 2 2 0 0 
 # max = 553
914267		 # 	collision with: 5 2 0 0 0  and 1 3 0 0 0 
 # max = 553
914297		 # 	collision with: 3 0 1 0 0  and 3 2 1 0 0 
 # max = 553
914299		 # 	collision with: 5 2 0 0 0  and 1 3 0 0 0 
 # max = 553
914340		 # 	collision with: 5 0 1 0 0  and 6 3 1 1 0 
 # max = 553
914342		 # 	collision with: 1 6 0 0 0  and 2 3 0 1 0 
 # max = 553
914353		 # 	collision with: 6 1 0 0 0  and 6 3 0 0 0 
 # max = 553
914355		 # 	collision with: 2 4 0 0 0  and 4 4 0 0 0 
 # max = 553
914359		 # 	collision with: 5 3 1 0 0  and 1 4 1 0 0 
 # max = 553
914413		 # 	collision with: 1 1 2 0 0  and 1 2 2 0 0 
 # max = 553
914415		 # 	collision with: 5 6 1 0 0  and 5 1 3 0 0 
 # max = 553
914425		 # 	collision with: 6 1 1 0 0  and 6 3 1 0 0 
 # max = 553
914427		 # 	collision with: 4 1 1 0 0  and 4 3 1 0 0 
 # max = 553
914445		 # 	collision with: 4 0 2 0 0  and 3 1 2 0 0 
 # max = 553
914447		 # 	collision with: 0 2 1 0 0  and 6 4 1 0 0 
 # max = 553
914453		 # 	collision with: 3 2 1 0 0  and 4 2 1 0 0 
 # max = 553
914455		 # 	collision with: 4 1 1 0 0  and 4 3 1 0 0 
 # max = 553
914461		 # 	collision with: 3 2 0 0 0  and 4 2 0 0 0 
 # max = 553
914463		 # 	collision with: 1 0 1 0 0  and 1 2 1 0 0 
 # max = 553
914493		 # 	collision with: 6 1 0 0 0  and 6 3 0 0 0 
 # max = 553
914495		 # 	collision with: 2 4 0 0 0  and 4 4 0 0 0 
 # max = 553
914536		 # 	collision with: 2 1 1 0 0  and 0 5 1 1 0 
 # max = 553
914538		 # 	collision with: 5 0 2 0 0  and 3 1 2 1 0 
 # max = 553
914551		 # 	collision with: 5 3 1 0 0  and 1 4 1 0 0 
 # max = 553
914553		 # 	collision with: 5 1 1 0 0  and 5 0 2 0 0 
 # max = 553
914555		 # 	collision with: 6 1 1 0 0  and 0 0 2 0 0 
 # max = 553
914609		 # 	collision with: 3 2 1 0 0  and 4 2 1 0 0 
 # max = 553
914611		 # 	collision with: 2 4 1 0 0  and 4 4 1 0 0 
 # max = 553
914621		 # 	collision with: 3 2 1 0 0  and 4 2 1 0 0 
 # max = 553
914623		 # 	collision with: 6 3 1 0 0  and 0 1 2 0 0 
 # max = 553
914641		 # 	collision with: 1 1 0 0 0  and 1 2 0 0 0 
 # max = 553
914643		 # 	collision with: 2 1 1 0 0  and 2 1 2 0 0 
 # max = 553
914649		 # 	collision with: 4 3 1 0 0  and 3 2 2 0 0 
 # max = 553
914651		 # 	collision with: 2 4 1 0 0  and 4 4 1 0 0 
 # max = 553
914657		 # 	collision with: 5 0 1 0 0  and 5 1 1 0 0 
 # max = 553
914659		 # 	collision with: 6 1 0 0 0  and 6 2 0 0 0 
 # max = 553
914689		 # 	collision with: 6 4 1 0 0  and 6 4 2 0 0 
 # max = 553
914691		 # 	collision with: 4 3 1 0 0  and 2 0 2 0 0 
 # max = 553
914732		 # 	collision with: 4 1 2 0 0  and 2 2 2 1 0 
 # max = 553
914734		 # 	collision with: 6 6 0 0 0  and 5 0 0 1 0 
 # max = 553
914745		 # 	collision with: 1 2 0 0 0  and 1 1 2 0 0 
 # max = 553
914749		 # 	collision with: 5 0 2 0 0  and 5 1 2 0 0 
 # max = 553
914751		 # 	collision with: 0 0 2 0 0  and 6 1 2 0 0 
 # max = 553
914805		 # 	collision with: 5 0 2 0 0  and 5 1 2 0 0 
 # max = 553
914807		 # 	collision with: 4 0 2 0 0  and 2 1 2 0 0 
 # max = 553
914817		 # 	collision with: 3 0 0 0 0  and 4 2 0 0 0 
 # max = 553
914819		 # 	collision with: 2 4 1 0 0  and 4 4 1 0 0 
 # max = 553
914837		 # 	collision with: 3 2 2 0 0  and 4 2 2 0 0 
 # max = 553
914839		 # 	collision with: 2 2 0 0 0  and 2 3 2 0 0 
 # max = 553
914845		 # 	collision with: 3 0 0 0 0  and 4 2 0 0 0 
 # max = 553
914853		 # 	collision with: 3 0 0 0 0  and 3 2 0 0 0 
 # max = 553
914855		 # 	collision with: 5 6 0 0 0  and 1 2 2 0 0 
 # max = 553
914885		 # 	collision with: 5 0 0 0 0  and 5 1 2 0 0 
 # max = 553
914887		 # 	collision with: 2 4 1 0 0  and 4 4 1 0 0 
 # max = 553
914928		 # 	collision with: 0 3 0 0 0  and 6 4 0 1 0 
 # max = 553
914930		 # 	collision with: 3 5 0 0 0  and 4 0 0 1 0 
 # max = 553
914941		 # 	collision with: 5 1 0 0 0  and 5 0 1 0 0 
 # max = 553
914943		 # 	collision with: 6 3 0 0 0  and 0 5 0 0 0 
 # max = 553
914945		 # 	collision with: 3 2 0 0 0  and 4 2 0 0 0 
 # max = 553
914947		 # 	collision with: 2 4 0 0 0  and 4 4 0 0 0 
 # max = 553
915001		 # 	collision with: 3 2 0 0 0  and 4 2 0 0 0 
 # max = 553
915003		 # 	collision with: 2 4 0 0 0  and 4 4 0 0 0 
 # max = 553
915015		 # 	collision with: 3 0 0 0 0  and 3 1 0 0 0 
 # max = 553
915033		 # 	collision with: 2 0 0 0 0  and 2 0 1 0 0 
 # max = 553
915035		 # 	collision with: 4 0 0 0 0  and 2 1 0 0 0 
 # max = 553
915041		 # 	collision with: 5 0 0 0 0  and 5 1 0 0 0 
 # max = 553
915043		 # 	collision with: 3 0 0 0 0  and 3 1 0 0 0 
 # max = 553
915081		 # 	collision with: 4 0 0 0 0  and 4 0 1 0 0 
 # max = 553
915157		 # 	collision with: 4 2 2 0 0  and 4 3 2 0 0 
 # max = 553
915159		 # 	collision with: 2 3 0 0 0  and 4 4 0 0 0 
 # max = 553
915165		 # 	collision with: 3 2 1 0 0  and 4 2 1 0 0 
 # max = 553
915167		 # 	collision with: 5 3 0 0 0  and 5 4 0 0 0 
 # max = 553
915172		 # 	collision with: 2 2 0 0 0  and 2 4 0 0 0 
 # max = 553
915174		 # 	collision with: 6 1 0 0 0  and 6 2 0 0 0 
 # max = 553
915176		 # 	collision with: 3 0 0 0 0  and 3 2 0 0 0 
 # max = 553
915192		 # 	collision with: 4 2 0 0 0  and 4 3 0 0 0 
 # max = 553
915194		 # 	collision with: 5 3 0 0 0  and 5 4 0 0 0 
 # max = 553
915199		 # 	collision with: 1 1 1 0 0  and 5 2 1 0 0 
 # max = 553
915200		 # 	collision with: 2 2 0 0 0  and 2 4 0 0 0 
 # max = 553
915212		 # 	collision with: 3 0 0 0 0  and 4 2 0 0 0 
 # max = 553
915214		 # 	collision with: 1 1 0 0 0  and 5 2 0 0 0 
 # max = 553
915224		 # 	collision with: 5 0 0 0 0  and 5 1 0 0 0 
 # max = 553
915248		 # 	collision with: 4 2 0 0 0  and 4 3 0 0 0 
 # max = 553
915260		 # 	collision with: 3 0 0 0 0  and 3 2 0 0 0 
 # max = 553
915262		 # 	collision with: 2 2 0 0 0  and 2 3 0 0 0 
 # max = 553
915272		 # 	collision with: 4 0 0 0 0  and 3 1 0 0 0 
 # max = 553
915279		 # 	collision with: 5 3 0 0 0  and 5 4 0 0 0 
 # max = 553
915280		 # 	collision with: 5 0 0 0 0  and 5 1 0 0 0 
 # max = 553
915282		 # 	collision with: 2 2 0 0 0  and 4 4 0 0 0 
 # max = 553
915296		 # 	collision with: 3 0 0 0 0  and 4 2 0 0 0 
 # max = 553
915300		 # 	collision with: 4 0 0 0 0  and 3 1 0 0 0 
 # max = 553
915302		 # 	collision with: 3 0 0 0 0  and 3 1 0 0 0 
 # max = 553
915309		 # 	collision with: 3 2 1 0 0  and 4 2 1 0 0 
 # max = 553
915311		 # 	collision with: 2 6 2 0 0  and 4 6 2 0 0 
 # max = 553
915317		 # 	collision with: 5 0 1 0 0  and 5 1 1 0 0 
 # max = 553
915319		 # 	collision with: 2 6 0 0 0  and 4 6 0 0 0 
 # max = 553
915320		 # 	collision with: 3 0 3 0 0  and 1 0 2 1 0 
 # max = 553
915322		 # 	collision with: 6 4 1 0 0  and 2 3 0 1 0 
 # max = 553
915353		 # 	collision with: 3 2 1 0 0  and 4 3 1 0 0 
 # max = 553
915355		 # 	collision with: 2 6 1 0 0  and 4 6 1 0 0 
 # max = 553
915361		 # 	collision with: 3 2 0 0 0  and 4 2 0 0 0 
 # max = 553
915363		 # 	collision with: 2 6 3 0 0  and 4 6 3 0 0 
 # max = 553
915368		 # 	collision with: 3 2 3 0 0  and 4 2 3 0 0 
 # max = 553
915374		 # 	collision with: 4 1 1 0 0  and 4 3 1 0 0 
 # max = 553
915388		 # 	collision with: 3 2 0 0 0  and 4 2 0 0 0 
 # max = 553
915390		 # 	collision with: 2 6 1 0 0  and 4 6 1 0 0 
 # max = 553
915393		 # 	collision with: 3 0 1 0 0  and 4 2 1 0 0 
 # max = 553
915396		 # 	collision with: 5 0 4 0 0  and 5 1 4 0 0 
 # max = 553
915398		 # 	collision with: 2 6 2 0 0  and 4 6 2 0 0 
 # max = 553
915408		 # 	collision with: 3 2 6 0 0  and 4 2 6 0 0 
 # max = 553
915410		 # 	collision with: 2 6 0 0 0  and 4 6 0 0 0 
 # max = 553
915420		 # 	collision with: 3 2 4 0 0  and 4 2 4 0 0 
 # max = 553
915422		 # 	collision with: 2 6 1 0 0  and 4 6 1 0 0 
 # max = 553
915444		 # 	collision with: 3 2 0 0 0  and 4 2 0 0 0 
 # max = 553
915446		 # 	collision with: 1 0 2 0 0  and 1 2 2 0 0 
 # max = 553
915456		 # 	collision with: 5 0 1 0 0  and 5 1 1 0 0 
 # max = 553
915458		 # 	collision with: 4 0 1 0 0  and 2 2 1 0 0 
 # max = 553
915468		 # 	collision with: 3 0 3 0 0  and 3 2 3 0 0 
 # max = 553
915470		 # 	collision with: 2 3 3 0 0  and 4 4 3 0 0 
 # max = 553
915473		 # 	collision with: 3 2 0 0 0  and 4 2 0 0 0 
 # max = 553
915475		 # 	collision with: 1 1 1 0 0  and 5 2 1 0 0 
 # max = 553
915476		 # 	collision with: 3 2 1 0 0  and 4 2 1 0 0 
 # max = 553
915478		 # 	collision with: 2 6 2 0 0  and 4 6 2 0 0 
 # max = 553
915492		 # 	collision with: 3 2 3 0 0  and 4 2 3 0 0 
 # max = 553
915494		 # 	collision with: 2 6 0 0 0  and 4 6 0 0 0 
 # max = 553
915498		 # 	collision with: 4 0 3 0 0  and 2 2 3 0 0 
 # max = 553
915505		 # 	collision with: 3 2 2 0 0  and 4 2 2 0 0 
 # max = 553
915507		 # 	collision with: 2 2 0 0 0  and 4 4 0 0 0 
 # max = 553
915513		 # 	collision with: 5 2 0 0 0  and 2 4 0 0 0 
 # max = 553
915515		 # 	collision with: 2 6 1 0 0  and 4 6 1 0 0 
 # max = 553
915516		 # 	collision with: 5 4 4 0 0  and 3 0 0 1 0 
 # max = 553
915518		 # 	collision with: 6 2 4 0 0  and 3 1 0 1 0 
 # max = 553
915549		 # 	collision with: 1 1 2 0 0  and 1 2 2 0 0 
 # max = 553
915551		 # 	collision with: 2 6 0 0 0  and 4 6 0 0 0 
 # max = 553
915559		 # 	collision with: 2 6 2 0 0  and 4 6 2 0 0 
 # max = 553
915564		 # 	collision with: 1 1 1 0 0  and 1 2 1 0 0 
 # max = 553
915566		 # 	collision with: 4 0 1 0 0  and 2 2 1 0 0 
 # max = 553
915568		 # 	collision with: 3 2 0 0 0  and 4 2 0 0 0 
 # max = 553
915570		 # 	collision with: 6 1 2 0 0  and 6 2 2 0 0 
 # max = 553
915584		 # 	collision with: 3 2 3 0 0  and 4 2 3 0 0 
 # max = 553
915589		 # 	collision with: 3 2 0 0 0  and 4 3 0 0 0 
 # max = 553
915591		 # 	collision with: 5 3 2 0 0  and 5 3 3 0 0 
 # max = 553
915594		 # 	collision with: 1 1 1 0 0  and 5 2 1 0 0 
 # max = 553
915604		 # 	collision with: 3 2 1 0 0  and 4 2 1 0 0 
 # max = 553
915606		 # 	collision with: 2 6 2 0 0  and 4 6 2 0 0 
 # max = 553
915616		 # 	collision with: 4 0 3 0 0  and 3 1 3 0 0 
 # max = 553
915618		 # 	collision with: 5 1 3 0 0  and 1 3 3 0 0 
 # max = 553
915640		 # 	collision with: 3 0 4 0 0  and 3 2 4 0 0 
 # max = 553
915642		 # 	collision with: 2 6 2 0 0  and 4 6 2 0 0 
 # max = 553
915652		 # 	collision with: 3 2 0 0 0  and 4 2 0 0 0 
 # max = 553
915654		 # 	collision with: 2 6 1 0 0  and 4 6 1 0 0 
 # max = 553
915664		 # 	collision with: 3 2 3 0 0  and 4 2 3 0 0 
 # max = 553
915666		 # 	collision with: 2 6 0 0 0  and 4 6 0 0 0 
 # max = 553
915669		 # 	collision with: 4 2 0 0 0  and 4 3 0 0 0 
 # max = 553
915671		 # 	collision with: 4 0 1 0 0  and 2 2 1 0 0 
 # max = 553
915674		 # 	collision with: 4 1 3 0 0  and 4 3 3 0 0 
 # max = 553
915688		 # 	collision with: 3 2 4 0 0  and 4 2 4 0 0 
 # max = 553
915690		 # 	collision with: 2 6 1 0 0  and 4 6 1 0 0 
 # max = 553
915692		 # 	collision with: 4 0 6 0 0  and 3 1 6 0 0 
 # max = 553
915694		 # 	collision with: 2 6 0 0 0  and 4 6 0 0 0 
 # max = 553
915701		 # 	collision with: 3 2 0 0 0  and 4 3 0 0 0 
 # max = 553
915703		 # 	collision with: 4 3 2 0 0  and 4 3 3 0 0 
 # max = 553
915712		 # 	collision with: 2 1 6 0 0  and 1 0 1 1 0 
 # max = 553
915714		 # 	collision with: 3 2 5 0 0  and 5 0 0 1 0 
 # max = 553
915745		 # 	collision with: 3 0 2 0 0  and 3 2 2 0 0 
 # max = 553
915747		 # 	collision with: 2 0 1 0 0  and 2 0 3 0 0 
 # max = 553
915753		 # 	collision with: 3 0 1 0 0  and 3 0 3 0 0 
 # max = 553
915760		 # 	collision with: 3 2 1 0 0  and 4 2 1 0 0 
 # max = 553
915762		 # 	collision with: 2 6 2 0 0  and 4 6 2 0 0 
 # max = 553
915764		 # 	collision with: 3 0 3 0 0  and 4 2 3 0 0 
 # max = 553
915766		 # 	collision with: 1 0 3 0 0  and 1 2 3 0 0 
 # max = 553
915780		 # 	collision with: 3 2 6 0 0  and 4 2 6 0 0 
 # max = 553
915782		 # 	collision with: 2 6 0 0 0  and 4 6 0 0 0 
 # max = 553
915785		 # 	collision with: 5 0 1 0 0  and 5 0 3 0 0 
 # max = 553
915787		 # 	collision with: 2 6 1 0 0  and 4 6 1 0 0 
 # max = 553
915788		 # 	collision with: 3 2 4 0 0  and 4 2 4 0 0 
 # max = 553
915790		 # 	collision with: 2 6 1 0 0  and 4 6 1 0 0 
 # max = 553
915800		 # 	collision with: 3 2 3 0 0  and 4 2 3 0 0 
 # max = 553
915814		 # 	collision with: 2 2 1 0 0  and 2 3 1 0 0 
 # max = 553
915836		 # 	collision with: 3 2 3 0 0  and 4 2 3 0 0 
 # max = 553
915838		 # 	collision with: 2 6 0 0 0  and 4 6 0 0 0 
 # max = 553
915850		 # 	collision with: 1 0 3 0 0  and 1 2 3 0 0 
 # max = 553
915860		 # 	collision with: 3 2 0 0 0  and 4 2 0 0 0 
 # max = 553
915862		 # 	collision with: 2 2 2 0 0  and 2 3 2 0 0 
 # max = 553
915865		 # 	collision with: 3 2 1 0 0  and 4 2 1 0 0 
 # max = 553
915867		 # 	collision with: 5 1 0 0 0  and 1 3 0 0 0 
 # max = 553
915868		 # 	collision with: 6 1 1 0 0  and 6 3 1 0 0 
 # max = 553
915870		 # 	collision with: 4 0 1 0 0  and 2 2 1 0 0 
 # max = 553
915884		 # 	collision with: 4 0 4 0 0  and 3 1 4 0 0 
 # max = 553
915886		 # 	collision with: 2 6 2 0 0  and 4 6 2 0 0 
 # max = 553
915888		 # 	collision with: 3 2 0 0 0  and 4 2 0 0 0 
 # max = 553
915890		 # 	collision with: 2 6 1 0 0  and 4 6 1 0 0 
 # max = 553
915897		 # 	collision with: 4 0 1 0 0  and 4 0 3 0 0 
 # max = 553
915899		 # 	collision with: 1 1 2 0 0  and 5 2 2 0 0 
 # max = 553
915905		 # 	collision with: 3 2 1 0 0  and 4 2 1 0 0 
 # max = 553
915907		 # 	collision with: 2 5 1 0 0  and 2 0 3 0 0 
 # max = 553
915908		 # 	collision with: 1 2 3 0 0  and 2 6 1 1 0 
 # max = 553
915910		 # 	collision with: 5 2 2 0 0  and 3 3 0 1 0 
 # max = 553
915941		 # 	collision with: 3 2 1 0 0  and 4 2 1 0 0 
 # max = 553
915943		 # 	collision with: 2 2 1 0 0  and 2 2 2 0 0 
 # max = 553
915949		 # 	collision with: 1 1 1 0 0  and 6 2 2 0 0 
 # max = 553
915951		 # 	collision with: 2 6 0 0 0  and 4 6 0 0 0 
 # max = 553
915956		 # 	collision with: 3 2 0 0 0  and 4 2 0 0 0 
 # max = 553
915958		 # 	collision with: 2 6 1 0 0  and 4 6 1 0 0 
 # max = 553
915960		 # 	collision with: 4 2 4 0 0  and 4 3 4 0 0 
 # max = 553
915962		 # 	collision with: 2 6 2 0 0  and 4 6 2 0 0 
 # max = 553
915976		 # 	collision with: 2 2 1 0 0  and 2 4 1 0 0 
 # max = 553
915978		 # 	collision with: 3 0 1 0 0  and 3 1 1 0 0 
 # max = 553
915981		 # 	collision with: 3 2 1 0 0  and 4 2 1 0 0 
 # max = 553
915983		 # 	collision with: 4 4 1 0 0  and 4 4 2 0 0 
 # max = 553
915984		 # 	collision with: 3 2 0 0 0  and 4 2 0 0 0 
 # max = 553
915986		 # 	collision with: 4 1 2 0 0  and 4 3 2 0 0 
 # max = 553
915998		 # 	collision with: 2 2 3 0 0  and 4 4 3 0 0 
 # max = 553
916008		 # 	collision with: 3 2 3 0 0  and 4 2 3 0 0 
 # max = 553
916010		 # 	collision with: 2 6 0 0 0  and 4 6 0 0 0 
 # max = 553
916034		 # 	collision with: 3 0 1 0 0  and 3 1 1 0 0 
 # max = 553
916044		 # 	collision with: 3 2 3 0 0  and 4 2 3 0 0 
 # max = 553
916056		 # 	collision with: 3 2 4 0 0  and 4 2 4 0 0 
 # max = 553
916058		 # 	collision with: 2 6 1 0 0  and 4 6 1 0 0 
 # max = 553
916061		 # 	collision with: 6 3 1 0 0  and 6 1 2 0 0 
 # max = 553
916063		 # 	collision with: 2 6 0 0 0  and 4 6 0 0 0 
 # max = 553
916064		 # 	collision with: 3 2 6 0 0  and 4 2 6 0 0 
 # max = 553
916066		 # 	collision with: 2 6 0 0 0  and 4 6 0 0 0 
 # max = 553
916080		 # 	collision with: 3 2 3 0 0  and 4 3 3 0 0 
 # max = 553
916082		 # 	collision with: 2 6 3 0 0  and 4 6 3 0 0 
 # max = 553
916084		 # 	collision with: 3 2 1 0 0  and 4 2 1 0 0 
 # max = 553
916086		 # 	collision with: 2 6 2 0 0  and 4 6 2 0 0 
 # max = 553
916093		 # 	collision with: 3 0 2 0 0  and 4 2 2 0 0 
 # max = 553
916101		 # 	collision with: 1 1 0 0 0  and 6 2 0 0 0 
 # max = 553
916103		 # 	collision with: 4 1 1 0 0  and 4 3 1 0 0 
 # max = 553
916104		 # 	collision with: 0 4 3 0 0  and 3 4 0 1 0 
 # max = 553
916106		 # 	collision with: 6 4 3 0 0  and 1 1 0 1 0 
 # max = 553
916145		 # 	collision with: 3 0 0 0 0  and 4 2 0 0 0 
 # max = 553
916147		 # 	collision with: 1 6 0 0 0  and 1 6 2 0 0 
 # max = 553
916152		 # 	collision with: 3 0 6 0 0  and 3 2 6 0 0 
 # max = 553
916154		 # 	collision with: 2 6 0 0 0  and 4 6 0 0 0 
 # max = 553
916156		 # 	collision with: 3 2 4 0 0  and 4 2 4 0 0 
 # max = 553
916158		 # 	collision with: 2 6 1 0 0  and 4 6 1 0 0 
 # max = 553
916174		 # 	collision with: 6 1 3 0 0  and 6 2 3 0 0 
 # max = 553
916177		 # 	collision with: 4 1 0 0 0  and 4 1 2 0 0 
 # max = 553
916179		 # 	collision with: 4 0 0 0 0  and 2 2 0 0 0 
 # max = 553
916180		 # 	collision with: 3 2 3 0 0  and 4 2 3 0 0 
 # max = 553
916182		 # 	collision with: 2 6 0 0 0  and 4 6 0 0 0 
 # max = 553
916192		 # 	collision with: 3 2 0 0 0  and 4 2 0 0 0 
 # max = 553
916194		 # 	collision with: 2 6 1 0 0  and 4 6 1 0 0 
 # max = 553
916204		 # 	collision with: 2 2 4 0 0  and 2 4 4 0 0 
 # max = 553
916206		 # 	collision with: 2 6 2 0 0  and 4 6 2 0 0 
 # max = 553
916228		 # 	collision with: 5 0 3 0 0  and 5 1 3 0 0 
 # max = 553
916230		 # 	collision with: 1 1 3 0 0  and 5 2 3 0 0 
 # max = 553
916240		 # 	collision with: 3 2 1 0 0  and 4 2 1 0 0 
 # max = 553
916242		 # 	collision with: 2 6 2 0 0  and 4 6 2 0 0 
 # max = 553
916254		 # 	collision with: 6 1 1 0 0  and 6 2 1 0 0 
 # max = 553
916257		 # 	collision with: 3 0 0 0 0  and 4 2 0 0 0 
 # max = 553
916259		 # 	collision with: 2 2 1 0 0  and 4 4 1 0 0 
 # max = 553
916260		 # 	collision with: 3 2 3 0 0  and 4 2 3 0 0 
 # max = 553
916276		 # 	collision with: 3 2 0 0 0  and 4 2 0 0 0 
 # max = 553
916278		 # 	collision with: 2 2 2 0 0  and 4 4 2 0 0 
 # max = 553
916280		 # 	collision with: 4 0 1 0 0  and 3 1 1 0 0 
 # max = 553
916282		 # 	collision with: 4 0 1 0 0  and 2 2 1 0 0 
 # max = 553
916291		 # 	collision with: 4 0 0 0 0  and 2 2 0 0 0 
 # max = 553
916297		 # 	collision with: 3 0 0 0 0  and 3 2 0 0 0 
 # max = 553
916299		 # 	collision with: 4 3 0 0 0  and 4 1 2 0 0 
 # max = 553
916300		 # 	collision with: 6 3 6 0 0  and 3 1 0 1 0 
 # max = 553
916302		 # 	collision with: 4 0 6 0 0  and 0 6 0 1 0 
 # max = 553
916333		 # 	collision with: 1 2 0 0 0  and 1 1 1 0 0 
 # max = 553
916335		 # 	collision with: 1 6 0 0 0  and 5 1 1 0 0 
 # max = 553
916341		 # 	collision with: 4 2 0 0 0  and 3 2 1 0 0 
 # max = 553
916343		 # 	collision with: 4 2 0 0 0  and 4 2 1 0 0 
 # max = 553
916350		 # 	collision with: 3 0 3 0 0  and 3 1 3 0 0 
 # max = 553
916352		 # 	collision with: 3 2 3 0 0  and 4 2 3 0 0 
 # max = 553
916354		 # 	collision with: 2 6 0 0 0  and 4 6 0 0 0 
 # max = 553
916368		 # 	collision with: 3 2 1 0 0  and 4 2 1 0 0 
 # max = 553
916370		 # 	collision with: 2 6 2 0 0  and 4 6 2 0 0 
 # max = 553
916373		 # 	collision with: 4 0 0 0 0  and 3 1 0 0 0 
 # max = 553
916375		 # 	collision with: 5 1 1 0 0  and 1 3 1 0 0 
 # max = 553
916376		 # 	collision with: 3 2 3 0 0  and 4 3 3 0 0 
 # max = 553
916378		 # 	collision with: 3 0 3 0 0  and 3 1 3 0 0 
 # max = 553
916388		 # 	collision with: 3 2 1 0 0  and 4 3 1 0 0 
 # max = 553
916390		 # 	collision with: 4 0 1 0 0  and 2 2 1 0 0 
 # max = 553
916400		 # 	collision with: 3 2 0 0 0  and 4 2 0 0 0 
 # max = 553
916402		 # 	collision with: 3 0 2 0 0  and 3 1 2 0 0 
 # max = 553
916424		 # 	collision with: 3 2 4 0 0  and 4 2 4 0 0 
 # max = 553
916426		 # 	collision with: 2 6 1 0 0  and 4 6 1 0 0 
 # max = 553
916436		 # 	collision with: 1 1 6 0 0  and 1 2 6 0 0 
 # max = 553
916438		 # 	collision with: 2 6 0 0 0  and 4 6 0 0 0 
 # max = 553
916448		 # 	collision with: 3 2 4 0 0  and 4 3 4 0 0 
 # max = 553
916450		 # 	collision with: 2 6 2 0 0  and 4 6 2 0 0 
 # max = 553
916453		 # 	collision with: 1 2 0 0 0  and 1 2 1 0 0 
 # max = 553
916456		 # 	collision with: 3 2 0 0 0  and 4 2 0 0 0 
 # max = 553
916458		 # 	collision with: 2 6 1 0 0  and 4 6 1 0 0 
 # max = 553
916474		 # 	collision with: 5 1 1 0 0  and 1 3 1 0 0 
 # max = 553
916476		 # 	collision with: 3 2 3 0 0  and 4 2 3 0 0 
 # max = 553
916485		 # 	collision with: 4 0 0 0 0  and 3 1 0 0 0 
 # max = 553
916487		 # 	collision with: 1 5 0 0 0  and 1 5 1 0 0 
 # max = 553
916493		 # 	collision with: 5 1 0 0 0  and 5 1 1 0 0 
 # max = 553
916495		 # 	collision with: 6 1 0 0 0  and 6 1 1 0 0 
 # max = 553
916525		 # 	collision with: 3 2 0 0 0  and 4 2 0 0 0 
 # max = 553
916527		 # 	collision with: 2 1 1 0 0  and 4 1 1 0 0 
 # max = 553
916528		 # 	collision with: 5 0 0 0 0  and 5 1 0 0 0 
 # max = 553
916530		 # 	collision with: 6 1 0 0 0  and 6 2 0 0 0 
 # max = 553
916536		 # 	collision with: 3 0 0 0 0  and 3 2 0 0 0 
 # max = 553
916538		 # 	collision with: 5 3 0 0 0  and 5 4 0 0 0 
 # max = 553
916541		 # 	collision with: 4 2 3 0 0  and 3 2 4 0 0 
 # max = 553
916560		 # 	collision with: 2 2 0 0 0  and 2 4 0 0 0 
 # max = 553
916562		 # 	collision with: 2 1 0 0 0  and 4 3 0 0 0 
 # max = 553
916571		 # 	collision with: 2 1 2 0 0  and 4 1 2 0 0 
 # max = 553
916576		 # 	collision with: 1 1 0 0 0  and 1 2 0 0 0 
 # max = 553
916578		 # 	collision with: 4 1 0 0 0  and 4 3 0 0 0 
 # max = 553
916588		 # 	collision with: 2 2 0 0 0  and 2 4 0 0 0 
 # max = 553
916590		 # 	collision with: 2 1 0 0 0  and 4 3 0 0 0 
 # max = 553
916592		 # 	collision with: 3 0 0 0 0  and 3 2 0 0 0 
 # max = 553
916594		 # 	collision with: 5 3 0 0 0  and 5 4 0 0 0 
 # max = 553
916624		 # 	collision with: 4 0 0 0 0  and 3 1 0 0 0 
 # max = 553
916626		 # 	collision with: 3 0 0 0 0  and 3 1 0 0 0 
 # max = 553
916628		 # 	collision with: 1 1 0 0 0  and 6 2 0 0 0 
 # max = 553
916630		 # 	collision with: 4 3 0 0 0  and 2 4 0 0 0 
 # max = 553
916640		 # 	collision with: 5 0 0 0 0  and 5 1 0 0 0 
 # max = 553
916642		 # 	collision with: 6 1 0 0 0  and 6 2 0 0 0 
 # max = 553
916651		 # 	collision with: 5 3 0 0 0  and 5 4 0 0 0 
 # max = 553
916656		 # 	collision with: 1 1 0 0 0  and 6 2 0 0 0 
 # max = 553
916658		 # 	collision with: 4 3 0 0 0  and 2 4 0 0 0 
 # max = 553
916665		 # 	collision with: 3 2 0 0 0  and 4 2 0 0 0 
 # max = 553
916667		 # 	collision with: 4 3 1 0 0  and 2 4 1 0 0 
 # max = 553
916677		 # 	collision with: 4 0 2 0 0  and 3 1 2 0 0 
 # max = 553
916680		 # 	collision with: 4 0 0 0 0  and 3 1 0 0 0 
 # max = 553
916682		 # 	collision with: 3 0 0 0 0  and 3 1 0 0 0 
 # max = 553
916688		 # 	collision with: 1 1 0 0 0  and 1 2 0 0 0 
 # max = 553
916690		 # 	collision with: 4 1 0 0 0  and 4 3 0 0 0 
 # max = 553
916692		 # 	collision with: 6 0 2 0 0  and 0 2 0 1 0 
 # max = 553
916694		 # 	collision with: 6 2 3 0 0  and 4 4 1 1 0 
 # max = 553
36.861secs	553 17098
