# prime 7
# degree 2
# input variables 3
# output variables 4
# reload computed balance functions from file balance-242of320-p7d2m3-debug.log
# p = 7
# n = 4
# smalldomain p^m 343
# domain p^n 2401
#	 p^2 = 49
#	 p^3 = 343
#	 p^4 = 2401
#	 p^5 = 16807
#	 p^6 = 117649
#	 p^7 = 823543
#	 p^8 = 5764801
#	 p^9 = 40353607
opening file : balance-242of320-p7d2m3-debug.log
reloading for step2...
2492609		 # 	collision with: 5 0 0 0  and 2 2 0 0 
 # max = 16
2492611		 # 	collision with: 1 1 0 0  and 3 1 0 0 
 # max = 16
2492623		 # 	collision with: 1 5 0 0  and 3 5 0 0 
 # max = 38
2492641		 # 	collision with: 5 6 0 0  and 5 1 1 0 
 # max = 61
2492643		 # 	collision with: 1 2 0 0  and 3 2 0 0 
 # max = 61
2492651		 # 	collision with: 1 5 0 0  and 3 5 0 0 
 # max = 61
2492669		 # 	collision with: 5 6 0 0  and 0 2 1 0 
 # max = 63
2492671		 # 	collision with: 1 2 0 0  and 3 2 0 0 
 # max = 63
2492681		 # 	collision with: 6 3 1 0  and 6 4 1 0 
 # max = 83
2492683		 # 	collision with: 1 6 0 0  and 3 6 0 0 
 # max = 83
2492693		 # 	collision with: 5 0 0 0  and 2 2 0 0 
 # max = 83
2492695		 # 	collision with: 1 1 0 0  and 3 1 0 0 
 # max = 83
2492728		 # 	collision with: 2 3 0 0  and 0 1 1 0 
 # max = 83
2492730		 # 	collision with: 0 1 0 0  and 2 6 1 0 
 # max = 93
2492793		 # 	collision with: 0 0 1 0  and 5 2 2 0 
 # max = 117
2492805		 # 	collision with: 4 3 1 0  and 1 1 2 0 
 # max = 117
2492807		 # 	collision with: 1 5 0 0  and 3 5 0 0 
 # max = 117
2492817		 # 	collision with: 0 5 0 0  and 5 1 1 0 
 # max = 117
2492837		 # 	collision with: 3 0 0 0  and 4 1 0 0 
 # max = 117
2492839		 # 	collision with: 1 3 0 0  and 3 3 0 0 
 # max = 117
2492845		 # 	collision with: 0 1 0 0  and 2 3 1 0 
 # max = 117
2492847		 # 	collision with: 1 4 0 0  and 3 4 0 0 
 # max = 117
2492865		 # 	collision with: 3 0 0 0  and 4 1 0 0 
 # max = 117
2492867		 # 	collision with: 1 3 0 0  and 3 3 0 0 
 # max = 117
2492877		 # 	collision with: 3 1 0 0  and 1 1 1 0 
 # max = 117
2492879		 # 	collision with: 1 2 0 0  and 3 2 0 0 
 # max = 117
2492889		 # 	collision with: 3 2 0 0  and 5 4 1 0 
 # max = 117
2492891		 # 	collision with: 1 5 0 0  and 3 5 0 0 
 # max = 117
2492937		 # 	collision with: 4 3 0 0  and 4 4 0 0 
 # max = 117
2492939		 # 	collision with: 3 3 0 0  and 1 4 0 0 
 # max = 117
2492941		 # 	collision with: 3 3 0 0  and 3 4 0 0 
 # max = 117
2492943		 # 	collision with: 6 6 0 0  and 0 1 2 0 
 # max = 117
2492961		 # 	collision with: 6 3 0 0  and 6 4 0 0 
 # max = 117
2492963		 # 	collision with: 2 3 0 0  and 1 1 1 0 
 # max = 117
2492964		 # 	collision with: 3 1 0 0  and 4 3 0 0 
 # max = 117
2492966		 # 	collision with: 1 1 0 0  and 1 3 0 0 
 # max = 117
2492968		 # 	collision with: 3 3 0 0  and 3 4 0 0 
 # max = 117
2492970		 # 	collision with: 3 0 0 0  and 1 2 0 0 
 # max = 117
2492973		 # 	collision with: 1 3 0 0  and 1 4 0 0 
 # max = 117
2492975		 # 	collision with: 6 3 0 0  and 0 2 2 0 
 # max = 117
2492984		 # 	collision with: 5 3 0 0  and 5 4 0 0 
 # max = 117
2492986		 # 	collision with: 3 1 0 0  and 3 3 0 0 
 # max = 117
2493004		 # 	collision with: 2 3 0 0  and 2 4 0 0 
 # max = 117
2493006		 # 	collision with: 4 1 0 0  and 4 3 0 0 
 # max = 117
2493016		 # 	collision with: 3 0 0 0  and 4 1 0 0 
 # max = 117
2493018		 # 	collision with: 5 1 0 0  and 5 3 0 0 
 # max = 117
2493028		 # 	collision with: 1 3 0 0  and 1 4 0 0 
 # max = 117
2493030		 # 	collision with: 2 1 0 0  and 2 3 0 0 
 # max = 117
2493044		 # 	collision with: 3 0 0 0  and 4 1 0 0 
 # max = 117
2493046		 # 	collision with: 5 1 0 0  and 5 3 0 0 
 # max = 117
2493056		 # 	collision with: 1 3 0 0  and 1 4 0 0 
 # max = 117
2493058		 # 	collision with: 2 1 0 0  and 2 3 0 0 
 # max = 117
2493068		 # 	collision with: 5 3 0 0  and 5 4 0 0 
 # max = 117
2493070		 # 	collision with: 3 1 0 0  and 3 3 0 0 
 # max = 117
2493088		 # 	collision with: 2 3 0 0  and 2 4 0 0 
 # max = 117
2493090		 # 	collision with: 4 1 0 0  and 4 3 0 0 
 # max = 117
2493101		 # 	collision with: 6 3 0 0  and 6 4 0 0 
 # max = 117
2493103		 # 	collision with: 1 3 0 0  and 1 1 1 0 
 # max = 117
2493104		 # 	collision with: 3 1 0 0  and 4 3 0 0 
 # max = 117
2493106		 # 	collision with: 1 1 0 0  and 1 3 0 0 
 # max = 117
2493108		 # 	collision with: 3 3 0 0  and 3 4 0 0 
 # max = 117
2493110		 # 	collision with: 3 0 0 0  and 1 2 0 0 
 # max = 117
2493113		 # 	collision with: 1 3 0 0  and 1 4 0 0 
 # max = 117
2493115		 # 	collision with: 4 0 0 0  and 5 5 1 0 
 # max = 117
2493120		 # 	collision with: 0 1 0 0  and 2 2 1 0 
 # max = 117
2493122		 # 	collision with: 1 3 0 0  and 5 4 2 0 
 # max = 131
2493133		 # 	collision with: 0 1 0 0  and 1 5 1 0 
 # max = 131
2493135		 # 	collision with: 3 4 0 0  and 0 0 2 0 
 # max = 131
2493157		 # 	collision with: 0 1 1 0  and 4 3 1 0 
 # max = 131
2493159		 # 	collision with: 6 1 0 0  and 3 2 1 0 
 # max = 131
2493160		 # 	collision with: 0 5 0 0  and 3 5 1 0 
 # max = 131
2493162		 # 	collision with: 6 2 0 0  and 2 6 1 0 
 # max = 131
2493166		 # 	collision with: 5 4 0 0  and 2 1 1 0 
 # max = 131
2493169		 # 	collision with: 3 2 0 0  and 2 0 1 0 
 # max = 131
2493180		 # 	collision with: 3 4 0 0  and 5 6 1 0 
 # max = 131
2493182		 # 	collision with: 4 1 1 0  and 6 3 2 0 
 # max = 131
2493200		 # 	collision with: 2 3 1 0  and 2 4 1 0 
 # max = 131
2493212		 # 	collision with: 2 5 0 0  and 2 2 1 0 
 # max = 131
2493214		 # 	collision with: 1 5 0 0  and 4 2 1 0 
 # max = 131
2493224		 # 	collision with: 2 0 1 0  and 1 0 2 0 
 # max = 131
2493226		 # 	collision with: 3 3 1 0  and 0 1 2 0 
 # max = 131
2493240		 # 	collision with: 3 0 1 0  and 0 0 2 0 
 # max = 131
2493242		 # 	collision with: 6 5 0 0  and 5 2 1 0 
 # max = 131
2493252		 # 	collision with: 3 0 1 0  and 0 0 2 0 
 # max = 131
2493254		 # 	collision with: 5 2 0 0  and 1 4 1 0 
 # max = 131
2493264		 # 	collision with: 6 6 0 0  and 3 0 1 0 
 # max = 131
2493266		 # 	collision with: 1 1 1 0  and 2 1 1 0 
 # max = 131
2493284		 # 	collision with: 4 6 0 0  and 4 1 1 0 
 # max = 131
2493286		 # 	collision with: 3 1 1 0  and 0 3 1 0 
 # max = 131
2493297		 # 	collision with: 1 2 1 0  and 2 2 1 0 
 # max = 131
2493299		 # 	collision with: 2 4 0 0  and 2 0 1 0 
 # max = 131
2493300		 # 	collision with: 1 0 1 0  and 2 0 1 0 
 # max = 131
2493306		 # 	collision with: 4 5 0 0  and 2 4 1 0 
 # max = 131
2493309		 # 	collision with: 1 5 1 0  and 2 5 1 0 
 # max = 131
2493311		 # 	collision with: 1 2 0 0  and 3 4 0 0 
 # max = 131
2493316		 # 	collision with: 3 4 0 0  and 5 1 2 0 
 # max = 131
2493318		 # 	collision with: 1 3 0 0  and 5 0 1 0 
 # max = 131
2493329		 # 	collision with: 3 2 1 0  and 1 0 2 0 
 # max = 131
2493331		 # 	collision with: 3 0 1 0  and 1 2 1 0 
 # max = 131
2493333		 # 	collision with: 5 3 0 0  and 4 2 1 0 
 # max = 131
2493335		 # 	collision with: 1 0 1 0  and 2 0 2 0 
 # max = 131
2493353		 # 	collision with: 0 4 0 0  and 5 6 1 0 
 # max = 131
2493356		 # 	collision with: 4 0 0 0  and 2 3 1 0 
 # max = 131
2493358		 # 	collision with: 3 0 1 0  and 0 0 2 0 
 # max = 131
2493360		 # 	collision with: 5 4 0 0  and 6 5 1 0 
 # max = 131
2493362		 # 	collision with: 3 0 1 0  and 0 0 2 0 
 # max = 131
2493365		 # 	collision with: 1 2 0 0  and 6 3 0 0 
 # max = 131
2493367		 # 	collision with: 3 4 0 0  and 2 2 1 0 
 # max = 131
2493378		 # 	collision with: 0 3 0 0  and 2 0 1 0 
 # max = 131
2493396		 # 	collision with: 4 2 2 0  and 5 3 2 0 
 # max = 131
2493398		 # 	collision with: 0 3 0 0  and 2 0 1 0 
 # max = 131
2493408		 # 	collision with: 4 6 0 0  and 6 1 2 0 
 # max = 131
2493410		 # 	collision with: 0 5 0 0  and 5 1 1 0 
 # max = 131
2493420		 # 	collision with: 4 3 0 0  and 1 2 1 0 
 # max = 131
2493422		 # 	collision with: 2 1 1 0  and 2 3 1 0 
 # max = 131
2493436		 # 	collision with: 4 4 0 0  and 6 4 1 0 
 # max = 131
2493438		 # 	collision with: 2 0 1 0  and 1 0 2 0 
 # max = 131
2493448		 # 	collision with: 4 2 1 0  and 5 3 1 0 
 # max = 131
2493462		 # 	collision with: 1 0 1 0  and 2 0 1 0 
 # max = 131
2493480		 # 	collision with: 6 5 0 0  and 5 4 1 0 
 # max = 131
2493493		 # 	collision with: 1 5 1 0  and 2 5 1 0 
 # max = 131
2493495		 # 	collision with: 0 2 0 0  and 4 3 0 0 
 # max = 131
2493496		 # 	collision with: 1 2 1 0  and 2 2 1 0 
 # max = 131
2493498		 # 	collision with: 0 3 0 0  and 1 0 1 0 
 # max = 131
2493500		 # 	collision with: 1 5 1 0  and 2 5 1 0 
 # max = 131
2493502		 # 	collision with: 0 3 0 0  and 1 0 1 0 
 # max = 131
2493505		 # 	collision with: 1 2 0 0  and 6 3 0 0 
 # max = 131
2493507		 # 	collision with: 3 2 0 0  and 4 3 1 0 
 # max = 131
2493512		 # 	collision with: 0 1 6 0  and 6 0 0 1 
 # max = 349
2493514		 # 	collision with: 4 0 0 0  and 5 5 1 0 
 # max = 349
2493525		 # 	collision with: 3 0 1 0  and 4 1 1 0 
 # max = 349
2493527		 # 	collision with: 1 1 0 0  and 1 3 0 0 
 # max = 349
2493529		 # 	collision with: 3 3 1 0  and 3 4 1 0 
 # max = 349
2493531		 # 	collision with: 6 1 0 0  and 6 3 0 0 
 # max = 349
2493549		 # 	collision with: 1 4 0 0  and 2 4 1 0 
 # max = 349
2493551		 # 	collision with: 5 1 0 0  and 5 3 0 0 
 # max = 349
2493552		 # 	collision with: 0 1 0 0  and 6 3 1 0 
 # max = 349
2493554		 # 	collision with: 1 6 0 0  and 6 2 1 0 
 # max = 349
2493556		 # 	collision with: 3 2 0 0  and 0 2 1 0 
 # max = 349
2493558		 # 	collision with: 3 2 0 0  and 6 1 1 0 
 # max = 349
2493563		 # 	collision with: 2 1 0 0  and 2 3 0 0 
 # max = 349
2493572		 # 	collision with: 3 1 0 0  and 0 1 1 0 
 # max = 349
2493574		 # 	collision with: 5 1 1 0  and 3 5 2 0 
 # max = 349
2493592		 # 	collision with: 3 6 0 0  and 0 6 1 0 
 # max = 349
2493594		 # 	collision with: 5 2 0 0  and 1 0 1 0 
 # max = 349
2493604		 # 	collision with: 3 4 0 0  and 0 4 1 0 
 # max = 349
2493606		 # 	collision with: 6 6 0 0  and 3 1 1 0 
 # max = 349
2493618		 # 	collision with: 1 0 1 0  and 2 0 2 0 
 # max = 349
2493632		 # 	collision with: 6 0 0 0  and 1 3 1 0 
 # max = 349
2493646		 # 	collision with: 0 6 0 0  and 3 5 1 0 
 # max = 349
2493656		 # 	collision with: 3 1 0 0  and 0 1 1 0 
 # max = 349
2493658		 # 	collision with: 1 6 1 0  and 2 6 1 0 
 # max = 349
2493676		 # 	collision with: 1 4 0 0  and 2 3 1 0 
 # max = 349
2493678		 # 	collision with: 1 1 1 0  and 2 1 1 0 
 # max = 349
2493689		 # 	collision with: 1 1 1 0  and 2 1 1 0 
 # max = 349
2493691		 # 	collision with: 5 1 0 0  and 5 3 0 0 
 # max = 349
2493692		 # 	collision with: 1 4 1 0  and 2 4 1 0 
 # max = 349
2493694		 # 	collision with: 1 6 0 0  and 4 2 1 0 
 # max = 349
2493696		 # 	collision with: 3 2 0 0  and 0 2 1 0 
 # max = 349
2493703		 # 	collision with: 2 1 0 0  and 2 3 0 0 
 # max = 349
2493708		 # 	collision with: 0 6 0 0  and 3 1 1 0 
 # max = 349
2493710		 # 	collision with: 6 6 0 0  and 0 1 1 0 
 # max = 349
2493721		 # 	collision with: 4 3 1 0  and 4 4 1 0 
 # max = 349
2493723		 # 	collision with: 1 5 0 0  and 2 5 1 0 
 # max = 349
2493725		 # 	collision with: 4 2 0 0  and 6 2 1 0 
 # max = 349
2493727		 # 	collision with: 1 2 0 0  and 2 2 1 0 
 # max = 349
2493747		 # 	collision with: 1 0 1 0  and 0 1 1 0 
 # max = 349
2493748		 # 	collision with: 4 3 1 0  and 4 4 1 0 
 # max = 349
2493752		 # 	collision with: 1 5 1 0  and 3 1 2 0 
 # max = 349
2493754		 # 	collision with: 1 4 0 0  and 3 3 1 0 
 # max = 349
2493757		 # 	collision with: 5 0 0 0  and 2 2 1 0 
 # max = 349
2493759		 # 	collision with: 0 3 0 0  and 5 2 1 0 
 # max = 349
2493768		 # 	collision with: 4 4 1 0  and 0 1 2 0 
 # max = 349
2493770		 # 	collision with: 5 6 0 0  and 5 5 1 0 
 # max = 349
2493788		 # 	collision with: 5 4 0 0  and 4 5 2 0 
 # max = 349
2493790		 # 	collision with: 5 3 1 0  and 5 1 2 0 
 # max = 349
2493802		 # 	collision with: 1 2 0 0  and 1 2 2 0 
 # max = 349
2493812		 # 	collision with: 6 3 0 0  and 4 3 1 0 
 # max = 349
2493830		 # 	collision with: 5 5 0 0  and 6 0 1 0 
 # max = 349
2493840		 # 	collision with: 2 1 0 0  and 1 6 1 0 
 # max = 349
2493842		 # 	collision with: 6 5 0 0  and 2 0 2 0 
 # max = 349
2493852		 # 	collision with: 5 3 3 0  and 5 4 3 0 
 # max = 349
2493854		 # 	collision with: 1 5 1 0  and 2 5 1 0 
 # max = 349
2493872		 # 	collision with: 0 4 0 0  and 5 1 1 0 
 # max = 349
2493874		 # 	collision with: 1 2 1 0  and 2 2 1 0 
 # max = 349
2493887		 # 	collision with: 6 2 0 0  and 2 5 1 0 
 # max = 349
2493888		 # 	collision with: 2 3 1 0  and 1 4 1 0 
 # max = 349
2493890		 # 	collision with: 1 1 1 0  and 1 3 1 0 
 # max = 349
2493892		 # 	collision with: 1 1 1 0  and 2 1 1 0 
 # max = 349
2493894		 # 	collision with: 5 1 0 0  and 0 5 1 0 
 # max = 349
2493897		 # 	collision with: 1 3 1 0  and 2 3 1 0 
 # max = 349
2493899		 # 	collision with: 1 6 2 0  and 2 6 2 0 
 # max = 349
2493904		 # 	collision with: 4 2 0 0  and 6 5 1 0 
 # max = 349
2493906		 # 	collision with: 5 0 0 0  and 1 3 1 0 
 # max = 349
2493917		 # 	collision with: 1 5 0 0  and 2 5 1 0 
 # max = 349
2493919		 # 	collision with: 0 1 0 0  and 2 0 1 0 
 # max = 349
2493921		 # 	collision with: 5 0 0 0  and 2 2 0 0 
 # max = 349
2493923		 # 	collision with: 0 1 0 0  and 2 0 1 0 
 # max = 349
2493941		 # 	collision with: 1 2 0 0  and 3 1 1 0 
 # max = 349
2493943		 # 	collision with: 3 4 0 0  and 0 4 1 0 
 # max = 349
2493944		 # 	collision with: 2 5 0 0  and 2 5 1 0 
 # max = 349
2493946		 # 	collision with: 2 4 0 0  and 2 0 2 0 
 # max = 349
2493948		 # 	collision with: 6 3 0 0  and 0 1 1 0 
 # max = 349
2493950		 # 	collision with: 0 3 0 0  and 3 1 1 0 
 # max = 349
2493953		 # 	collision with: 6 1 0 0  and 3 0 1 0 
 # max = 349
2493955		 # 	collision with: 3 3 0 0  and 0 3 1 0 
 # max = 349
2493964		 # 	collision with: 1 1 0 0  and 1 1 1 0 
 # max = 349
2493986		 # 	collision with: 4 4 0 0  and 6 0 1 0 
 # max = 349
2493996		 # 	collision with: 6 4 0 0  and 5 0 1 0 
 # max = 349
2494008		 # 	collision with: 3 3 0 0  and 3 3 1 0 
 # max = 349
2494010		 # 	collision with: 6 5 1 0  and 3 1 2 0 
 # max = 349
2494024		 # 	collision with: 4 4 0 0  and 4 4 1 0 
 # max = 349
2494026		 # 	collision with: 5 0 1 0  and 1 1 1 0 
 # max = 349
2494036		 # 	collision with: 2 4 0 0  and 6 0 1 0 
 # max = 349
2494038		 # 	collision with: 1 4 0 0  and 2 0 2 0 
 # max = 349
2494048		 # 	collision with: 6 1 0 0  and 6 1 1 0 
 # max = 349
2494050		 # 	collision with: 6 1 0 0  and 4 1 1 0 
 # max = 349
2494070		 # 	collision with: 1 3 1 0  and 2 3 1 0 
 # max = 349
2494081		 # 	collision with: 1 0 1 0  and 2 0 1 0 
 # max = 349
2494083		 # 	collision with: 3 4 0 0  and 0 4 1 0 
 # max = 349
2494084		 # 	collision with: 1 1 1 0  and 2 1 1 0 
 # max = 349
2494086		 # 	collision with: 5 2 0 0  and 2 4 1 0 
 # max = 349
2494088		 # 	collision with: 6 3 0 0  and 0 1 1 0 
 # max = 349
2494090		 # 	collision with: 5 1 0 0  and 5 3 1 0 
 # max = 349
2494093		 # 	collision with: 1 0 1 0  and 2 0 1 0 
 # max = 349
2494100		 # 	collision with: 2 2 0 0  and 0 1 1 0 
 # max = 349
2494102		 # 	collision with: 6 6 5 0  and 0 0 0 1 
 # max = 349
2494117		 # 	collision with: 3 0 0 0  and 4 1 0 0 
 # max = 349
2494119		 # 	collision with: 6 1 1 0  and 6 3 1 0 
 # max = 349
2494137		 # 	collision with: 1 3 0 0  and 6 0 2 0 
 # max = 349
2494139		 # 	collision with: 0 3 0 0  and 1 0 1 0 
 # max = 349
2494142		 # 	collision with: 1 5 0 0  and 1 5 1 0 
 # max = 349
2494144		 # 	collision with: 5 6 0 0  and 0 3 1 0 
 # max = 349
2494149		 # 	collision with: 1 2 0 0  and 6 4 2 0 
 # max = 349
2494151		 # 	collision with: 0 3 0 0  and 1 0 1 0 
 # max = 349
2494160		 # 	collision with: 2 1 0 0  and 1 1 1 0 
 # max = 349
2494162		 # 	collision with: 4 1 0 0  and 4 1 1 0 
 # max = 349
2494180		 # 	collision with: 2 6 0 0  and 1 6 1 0 
 # max = 349
2494182		 # 	collision with: 1 1 0 0  and 5 0 1 0 
 # max = 349
2494192		 # 	collision with: 1 1 2 0  and 2 1 2 0 
 # max = 349
2494194		 # 	collision with: 5 4 0 0  and 5 4 1 0 
 # max = 349
2494204		 # 	collision with: 5 6 0 0  and 0 4 1 0 
 # max = 349
2494206		 # 	collision with: 5 3 0 0  and 5 3 1 0 
 # max = 349
2494220		 # 	collision with: 2 3 0 0  and 2 4 2 0 
 # max = 349
2494222		 # 	collision with: 2 4 0 0  and 2 4 1 0 
 # max = 349
2494232		 # 	collision with: 5 0 0 0  and 2 2 1 0 
 # max = 349
2494234		 # 	collision with: 2 3 0 0  and 2 3 1 0 
 # max = 349
2494244		 # 	collision with: 5 3 1 0  and 5 4 1 0 
 # max = 349
2494264		 # 	collision with: 2 2 0 0  and 6 4 1 0 
 # max = 349
2494266		 # 	collision with: 1 4 1 0  and 2 4 1 0 
 # max = 349
2494277		 # 	collision with: 1 3 1 0  and 2 3 1 0 
 # max = 349
2494282		 # 	collision with: 6 5 0 0  and 6 5 1 0 
 # max = 349
2494284		 # 	collision with: 5 6 0 0  and 0 3 1 0 
 # max = 349
2494286		 # 	collision with: 6 2 0 0  and 6 2 1 0 
 # max = 349
2494289		 # 	collision with: 1 4 1 0  and 2 4 1 0 
 # max = 349
2494291		 # 	collision with: 1 3 0 0  and 2 3 1 0 
 # max = 349
2494365		 # 	collision with: 4 3 0 0  and 4 4 0 0 
 # max = 349
2494367		 # 	collision with: 2 1 1 0  and 2 3 1 0 
 # max = 349
2494369		 # 	collision with: 3 3 0 0  and 3 4 0 0 
 # max = 349
2494371		 # 	collision with: 3 2 0 0  and 2 4 1 0 
 # max = 349
2494389		 # 	collision with: 6 3 0 0  and 6 4 0 0 
 # max = 349
2494401		 # 	collision with: 1 3 0 0  and 1 4 0 0 
 # max = 349
2494403		 # 	collision with: 1 6 0 0  and 4 4 1 0 
 # max = 349
2494417		 # 	collision with: 6 3 0 0  and 6 4 0 0 
 # max = 349
2494419		 # 	collision with: 1 3 1 0  and 1 1 2 0 
 # max = 349
2494429		 # 	collision with: 1 3 0 0  and 1 4 0 0 
 # max = 349
2494449		 # 	collision with: 4 3 0 0  and 4 4 0 0 
 # max = 349
2494451		 # 	collision with: 2 1 1 0  and 2 3 1 0 
 # max = 349
2494453		 # 	collision with: 3 3 0 0  and 3 4 0 0 
 # max = 349
2494455		 # 	collision with: 2 2 0 0  and 0 6 1 0 
 # max = 349
2494492		 # 	collision with: 5 4 1 0  and 1 1 2 0 
 # max = 349
2494494		 # 	collision with: 0 0 0 0  and 1 0 1 0 
 # max = 349
2494561		 # 	collision with: 0 1 1 0  and 1 1 1 0 
 # max = 349
2494563		 # 	collision with: 4 6 0 0  and 3 3 1 0 
 # max = 349
2494565		 # 	collision with: 0 6 1 0  and 1 6 1 0 
 # max = 349
2494585		 # 	collision with: 0 1 1 0  and 5 3 1 0 
 # max = 349
2494587		 # 	collision with: 0 6 0 0  and 4 0 1 0 
 # max = 349
2494599		 # 	collision with: 0 6 0 0  and 4 0 1 0 
 # max = 349
2494613		 # 	collision with: 4 6 0 0  and 3 0 1 0 
 # max = 349
2494615		 # 	collision with: 3 1 1 0  and 3 3 1 0 
 # max = 349
2494627		 # 	collision with: 5 0 0 0  and 2 1 1 0 
 # max = 349
2494645		 # 	collision with: 6 3 0 0  and 1 2 1 0 
 # max = 349
2494647		 # 	collision with: 2 3 0 0  and 6 1 1 0 
 # max = 349
2494649		 # 	collision with: 5 4 0 0  and 5 4 2 0 
 # max = 349
2494651		 # 	collision with: 0 1 3 0  and 1 1 3 0 
 # max = 349
2494688		 # 	collision with: 0 0 0 0  and 1 0 1 0 
 # max = 349
2494690		 # 	collision with: 2 0 1 0  and 3 2 2 0 
 # max = 349
2494759		 # 	collision with: 5 1 0 0  and 4 6 1 0 
 # max = 349
2494761		 # 	collision with: 5 5 0 0  and 2 1 1 0 
 # max = 349
2494763		 # 	collision with: 5 6 0 0  and 1 3 1 0 
 # max = 349
2494781		 # 	collision with: 2 1 1 0  and 3 2 1 0 
 # max = 349
2494783		 # 	collision with: 1 1 0 0  and 1 1 2 0 
 # max = 349
2494793		 # 	collision with: 1 3 1 0  and 1 4 1 0 
 # max = 349
2494809		 # 	collision with: 6 1 1 0  and 3 2 1 0 
 # max = 349
2494811		 # 	collision with: 6 1 0 0  and 6 1 2 0 
 # max = 349
2494821		 # 	collision with: 4 5 0 0  and 2 0 1 0 
 # max = 349
2494823		 # 	collision with: 1 2 0 0  and 5 1 1 0 
 # max = 349
2494843		 # 	collision with: 0 0 0 0  and 1 0 1 0 
 # max = 349
2494845		 # 	collision with: 6 5 0 0  and 4 1 1 0 
 # max = 349
2494884		 # 	collision with: 5 4 1 0  and 3 3 2 0 
 # max = 349
2494886		 # 	collision with: 0 2 1 0  and 5 1 2 0 
 # max = 349
2494953		 # 	collision with: 0 5 1 0  and 1 5 1 0 
 # max = 349
2494955		 # 	collision with: 2 1 0 0  and 2 3 0 0 
 # max = 349
2494957		 # 	collision with: 0 2 1 0  and 1 2 1 0 
 # max = 349
2494959		 # 	collision with: 5 1 0 0  and 5 3 0 0 
 # max = 349
2494977		 # 	collision with: 3 0 1 0  and 2 2 1 0 
 # max = 349
2494979		 # 	collision with: 3 1 0 0  and 3 3 0 0 
 # max = 349
2494989		 # 	collision with: 2 5 1 0  and 6 5 2 0 
 # max = 349
2494991		 # 	collision with: 4 1 0 0  and 4 3 0 0 
 # max = 349
2495005		 # 	collision with: 3 6 0 0  and 4 3 2 0 
 # max = 349
2495007		 # 	collision with: 3 1 0 0  and 3 3 0 0 
 # max = 349
2495017		 # 	collision with: 5 4 0 0  and 1 6 1 0 
 # max = 349
2495019		 # 	collision with: 4 1 0 0  and 4 3 0 0 
 # max = 349
2495037		 # 	collision with: 0 0 0 0  and 1 0 1 0 
 # max = 349
2495039		 # 	collision with: 2 1 0 0  and 2 3 0 0 
 # max = 349
2495041		 # 	collision with: 0 0 0 0  and 1 0 1 0 
 # max = 349
2495043		 # 	collision with: 5 1 0 0  and 5 3 0 0 
 # max = 349
2495080		 # 	collision with: 2 4 0 0  and 1 5 2 0 
 # max = 349
2495082		 # 	collision with: 4 1 0 0  and 3 2 2 0 
 # max = 349
2495149		 # 	collision with: 0 0 1 0  and 1 0 1 0 
 # max = 349
2495151		 # 	collision with: 5 0 1 0  and 6 1 2 0 
 # max = 349
2495153		 # 	collision with: 0 0 1 0  and 1 0 1 0 
 # max = 349
2495155		 # 	collision with: 5 4 1 0  and 6 3 2 0 
 # max = 349
2495173		 # 	collision with: 3 0 0 0  and 3 0 1 0 
 # max = 349
2495175		 # 	collision with: 0 0 0 0  and 1 0 1 0 
 # max = 349
2495185		 # 	collision with: 3 0 0 0  and 3 0 1 0 
 # max = 349
2495187		 # 	collision with: 0 0 0 0  and 1 0 1 0 
 # max = 349
2495201		 # 	collision with: 0 0 0 0  and 1 0 1 0 
 # max = 349
2495203		 # 	collision with: 0 2 0 0  and 3 1 2 0 
 # max = 349
2495213		 # 	collision with: 0 0 0 0  and 1 0 1 0 
 # max = 349
2495215		 # 	collision with: 0 3 2 0  and 1 3 2 0 
 # max = 349
2495233		 # 	collision with: 6 0 0 0  and 6 0 1 0 
 # max = 349
2495235		 # 	collision with: 5 0 1 0  and 6 1 2 0 
 # max = 349
2495237		 # 	collision with: 6 0 0 0  and 6 0 1 0 
 # max = 349
2495239		 # 	collision with: 3 1 0 0  and 5 3 1 0 
 # max = 349
2495276		 # 	collision with: 1 1 0 0  and 0 1 1 0 
 # max = 349
2495278		 # 	collision with: 6 3 0 0  and 2 1 2 0 
 # max = 349
2495345		 # 	collision with: 5 0 0 0  and 2 2 0 0 
 # max = 349
2495351		 # 	collision with: 0 0 0 0  and 1 0 1 0 
 # max = 349
2495369		 # 	collision with: 0 0 0 0  and 1 0 1 0 
 # max = 349
2495371		 # 	collision with: 6 0 0 0  and 5 2 0 0 
 # max = 349
2495381		 # 	collision with: 0 0 0 0  and 1 0 1 0 
 # max = 349
2495383		 # 	collision with: 5 0 0 0  and 5 0 1 0 
 # max = 349
2495397		 # 	collision with: 6 3 1 0  and 6 4 1 0 
 # max = 349
2495409		 # 	collision with: 5 5 1 0  and 5 5 2 0 
 # max = 349
2495411		 # 	collision with: 2 0 0 0  and 2 0 1 0 
 # max = 349
2495429		 # 	collision with: 5 0 0 0  and 2 2 0 0 
 # max = 349
2495431		 # 	collision with: 3 0 0 0  and 3 0 1 0 
 # max = 349
2495435		 # 	collision with: 3 0 0 0  and 3 0 1 0 
 # max = 349
2495472		 # 	collision with: 6 0 0 0  and 0 3 2 0 
 # max = 349
2495474		 # 	collision with: 1 1 0 0  and 0 1 1 0 
 # max = 349
2495541		 # 	collision with: 0 0 0 0  and 1 0 1 0 
 # max = 349
2495543		 # 	collision with: 5 0 0 0  and 6 1 0 0 
 # max = 349
2495545		 # 	collision with: 0 0 0 0  and 1 0 1 0 
 # max = 349
2495547		 # 	collision with: 5 1 1 0  and 5 3 1 0 
 # max = 349
2495567		 # 	collision with: 3 2 1 0  and 6 4 1 0 
 # max = 349
2495577		 # 	collision with: 6 5 1 0  and 3 0 2 0 
 # max = 349
2495579		 # 	collision with: 4 5 1 0  and 4 5 2 0 
 # max = 349
2495595		 # 	collision with: 5 1 0 0  and 3 1 2 0 
 # max = 349
2495605		 # 	collision with: 6 5 1 0  and 3 0 2 0 
 # max = 349
2495607		 # 	collision with: 4 1 0 0  and 6 0 1 0 
 # max = 349
2495625		 # 	collision with: 5 1 1 0  and 1 0 2 0 
 # max = 349
2495629		 # 	collision with: 1 1 1 0  and 5 3 1 0 
 # max = 349
2495631		 # 	collision with: 5 1 1 0  and 5 3 1 0 
 # max = 349
2495729		 # 	collision with: 5 3 0 0  and 5 4 0 0 
 # max = 349
2495731		 # 	collision with: 3 6 0 0  and 2 2 2 0 
 # max = 349
2495749		 # 	collision with: 2 3 0 0  and 2 4 0 0 
 # max = 349
2495751		 # 	collision with: 2 3 1 0  and 4 0 2 0 
 # max = 349
2495765		 # 	collision with: 4 3 0 0  and 4 4 0 0 
 # max = 349
2495767		 # 	collision with: 0 3 1 0  and 2 3 1 0 
 # max = 349
2495769		 # 	collision with: 3 3 0 0  and 3 4 0 0 
 # max = 349
2495771		 # 	collision with: 0 4 1 0  and 2 4 1 0 
 # max = 349
2495793		 # 	collision with: 4 3 0 0  and 4 4 0 0 
 # max = 349
2495795		 # 	collision with: 3 1 1 0  and 3 3 1 0 
 # max = 349
2495797		 # 	collision with: 3 3 0 0  and 3 4 0 0 
 # max = 349
2495799		 # 	collision with: 0 0 0 0  and 2 0 2 0 
 # max = 349
2495813		 # 	collision with: 5 3 0 0  and 5 4 0 0 
 # max = 349
2495815		 # 	collision with: 5 1 1 0  and 4 1 2 0 
 # max = 349
2495833		 # 	collision with: 2 3 0 0  and 2 4 0 0 
 # max = 349
2495835		 # 	collision with: 1 5 1 0  and 3 2 2 0 
 # max = 349
2495864		 # 	collision with: 0 1 6 0  and 6 0 0 1 
 # max = 349
2495866		 # 	collision with: 2 1 0 0  and 4 0 1 0 
 # max = 349
2495925		 # 	collision with: 6 5 0 0  and 6 2 1 0 
 # max = 349
2495927		 # 	collision with: 5 5 0 0  and 6 3 1 0 
 # max = 349
2495947		 # 	collision with: 0 1 0 0  and 2 1 1 0 
 # max = 349
2495961		 # 	collision with: 1 2 0 0  and 6 4 0 0 
 # max = 349
2495963		 # 	collision with: 0 4 0 0  and 4 2 1 0 
 # max = 349
2495965		 # 	collision with: 3 0 0 0  and 4 1 1 0 
 # max = 349
2495967		 # 	collision with: 0 2 1 0  and 2 2 1 0 
 # max = 349
2495989		 # 	collision with: 1 2 0 0  and 6 4 0 0 
 # max = 349
2495991		 # 	collision with: 1 1 1 0  and 5 2 1 0 
 # max = 349
2495993		 # 	collision with: 0 0 1 0  and 2 0 1 0 
 # max = 349
2495995		 # 	collision with: 3 6 0 0  and 1 0 2 0 
 # max = 349
2496009		 # 	collision with: 2 0 0 0  and 0 0 2 0 
 # max = 349
2496011		 # 	collision with: 3 5 0 0  and 2 2 1 0 
 # max = 349
2496031		 # 	collision with: 2 0 0 0  and 1 1 2 0 
 # max = 349
2496060		 # 	collision with: 0 0 0 0  and 6 3 1 0 
 # max = 349
2496062		 # 	collision with: 2 2 0 0  and 3 5 1 0 
 # max = 349
2496121		 # 	collision with: 0 6 2 0  and 2 6 2 0 
 # max = 349
2496141		 # 	collision with: 4 6 0 0  and 1 3 1 0 
 # max = 349
2496143		 # 	collision with: 5 0 0 0  and 4 4 1 0 
 # max = 349
2496157		 # 	collision with: 4 5 0 0  and 0 1 1 0 
 # max = 349
2496159		 # 	collision with: 6 2 0 0  and 5 3 0 0 
 # max = 349
2496161		 # 	collision with: 3 3 1 0  and 0 0 2 0 
 # max = 349
2496163		 # 	collision with: 0 0 1 0  and 2 0 1 0 
 # max = 349
2496185		 # 	collision with: 4 5 0 0  and 0 1 1 0 
 # max = 349
2496187		 # 	collision with: 6 2 0 0  and 5 3 0 0 
 # max = 349
2496189		 # 	collision with: 0 5 1 0  and 2 5 1 0 
 # max = 349
2496205		 # 	collision with: 2 0 0 0  and 3 3 2 0 
 # max = 349
2496207		 # 	collision with: 0 2 0 0  and 1 0 1 0 
 # max = 349
2496225		 # 	collision with: 4 2 0 0  and 0 6 1 0 
 # max = 349
2496227		 # 	collision with: 0 2 0 0  and 1 0 1 0 
 # max = 349
2496256		 # 	collision with: 4 0 0 0  and 0 2 1 0 
 # max = 349
2496258		 # 	collision with: 0 0 0 0  and 5 2 1 0 
 # max = 349
2496317		 # 	collision with: 4 0 0 0  and 2 2 2 0 
 # max = 349
2496319		 # 	collision with: 2 1 0 0  and 2 3 0 0 
 # max = 349
2496337		 # 	collision with: 6 2 1 0  and 2 3 1 0 
 # max = 349
2496339		 # 	collision with: 5 1 0 0  and 5 3 0 0 
 # max = 349
2496353		 # 	collision with: 2 4 0 0  and 6 5 1 0 
 # max = 349
2496355		 # 	collision with: 3 1 0 0  and 3 3 0 0 
 # max = 349
2496359		 # 	collision with: 4 1 0 0  and 4 3 0 0 
 # max = 349
2496381		 # 	collision with: 0 4 1 0  and 2 4 1 0 
 # max = 349
2496387		 # 	collision with: 4 1 0 0  and 4 3 0 0 
 # max = 349
2496401		 # 	collision with: 5 6 0 0  and 4 6 1 0 
 # max = 349
2496421		 # 	collision with: 5 1 0 0  and 4 1 1 0 
 # max = 349
2496423		 # 	collision with: 5 1 0 0  and 5 3 0 0 
 # max = 349
2496452		 # 	collision with: 0 2 0 0  and 4 0 1 0 
 # max = 349
2496454		 # 	collision with: 5 2 0 0  and 0 0 1 0 
 # max = 349
2496513		 # 	collision with: 1 6 0 0  and 1 6 1 0 
 # max = 349
2496515		 # 	collision with: 5 1 0 0  and 6 2 0 0 
 # max = 349
2496533		 # 	collision with: 1 1 0 0  and 1 1 1 0 
 # max = 349
2496551		 # 	collision with: 5 1 0 0  and 6 2 0 0 
 # max = 349
2496553		 # 	collision with: 4 0 0 0  and 2 2 1 0 
 # max = 349
2496579		 # 	collision with: 5 1 0 0  and 6 2 0 0 
 # max = 349
2496581		 # 	collision with: 0 1 1 0  and 2 1 1 0 
 # max = 349
2496583		 # 	collision with: 5 1 0 0  and 6 2 0 0 
 # max = 349
2496597		 # 	collision with: 6 6 0 0  and 6 6 1 0 
 # max = 349
2496599		 # 	collision with: 5 1 0 0  and 6 2 0 0 
 # max = 349
2496617		 # 	collision with: 6 1 0 0  and 6 1 1 0 
 # max = 349
2496619		 # 	collision with: 5 1 0 0  and 6 2 0 0 
 # max = 349
2496648		 # 	collision with: 3 5 0 0  and 6 2 1 0 
 # max = 349
2496650		 # 	collision with: 1 3 0 0  and 2 0 1 0 
 # max = 349
2496709		 # 	collision with: 2 2 0 0  and 0 5 1 0 
 # max = 349
2496711		 # 	collision with: 5 4 0 0  and 2 1 1 0 
 # max = 349
2496729		 # 	collision with: 2 1 0 0  and 0 1 1 0 
 # max = 349
2496731		 # 	collision with: 0 0 0 0  and 4 2 0 0 
 # max = 349
2496745		 # 	collision with: 2 2 0 0  and 0 2 1 0 
 # max = 349
2496749		 # 	collision with: 2 5 0 0  and 0 5 1 0 
 # max = 349
2496751		 # 	collision with: 0 5 0 0  and 6 0 1 0 
 # max = 349
2496773		 # 	collision with: 0 1 1 0  and 2 1 1 0 
 # max = 349
2496775		 # 	collision with: 2 2 0 0  and 2 2 1 0 
 # max = 349
2496777		 # 	collision with: 2 5 0 0  and 0 5 1 0 
 # max = 349
2496779		 # 	collision with: 5 2 1 0  and 1 3 1 0 
 # max = 349
2496793		 # 	collision with: 2 2 0 0  and 0 5 1 0 
 # max = 349
2496795		 # 	collision with: 1 6 0 0  and 3 2 1 0 
 # max = 349
2496813		 # 	collision with: 2 1 0 0  and 0 1 1 0 
 # max = 349
2496844		 # 	collision with: 6 0 0 0  and 5 1 1 0 
 # max = 349
2496846		 # 	collision with: 5 6 5 0  and 3 0 1 1 
 # max = 395
2496907		 # 	collision with: 6 1 1 0  and 6 1 2 0 
 # max = 395
2496925		 # 	collision with: 0 0 1 0  and 1 2 1 0 
 # max = 395
2496927		 # 	collision with: 6 6 1 0  and 6 6 2 0 
 # max = 395
2496941		 # 	collision with: 6 2 0 0  and 3 2 1 0 
 # max = 395
2496943		 # 	collision with: 0 1 1 0  and 2 1 1 0 
 # max = 395
2496945		 # 	collision with: 6 5 0 0  and 3 5 1 0 
 # max = 395
2496947		 # 	collision with: 0 1 1 0  and 2 3 1 0 
 # max = 395
2496969		 # 	collision with: 0 3 1 0  and 2 3 1 0 
 # max = 395
2496971		 # 	collision with: 3 0 1 0  and 3 4 2 0 
 # max = 395
2496973		 # 	collision with: 1 4 0 0  and 4 1 1 0 
 # max = 395
2496975		 # 	collision with: 4 1 1 0  and 4 3 1 0 
 # max = 395
2496991		 # 	collision with: 1 3 1 0  and 2 4 1 0 
 # max = 395
2497009		 # 	collision with: 0 0 0 0  and 2 0 2 0 
 # max = 395
2497011		 # 	collision with: 0 1 0 0  and 5 0 2 0 
 # max = 395
2497049		 # 	collision with: 0 3 0 0  and 4 1 2 0 
 # max = 395
2497051		 # 	collision with: 1 3 0 0  and 3 4 0 0 
 # max = 395
2497061		 # 	collision with: 6 1 3 0  and 1 0 4 0 
 # max = 395
2497063		 # 	collision with: 6 1 2 0  and 5 3 2 0 
 # max = 395
2497068		 # 	collision with: 3 5 0 0  and 4 5 0 0 
 # max = 395
2497070		 # 	collision with: 1 5 0 0  and 3 5 0 0 
 # max = 395
2497080		 # 	collision with: 4 0 0 0  and 4 2 0 0 
 # max = 395
2497082		 # 	collision with: 4 2 0 0  and 4 4 0 0 
 # max = 395
2497085		 # 	collision with: 6 3 0 0  and 6 3 1 0 
 # max = 395
2497087		 # 	collision with: 6 2 0 0  and 0 6 2 0 
 # max = 395
2497093		 # 	collision with: 1 5 1 0  and 3 5 1 0 
 # max = 395
2497096		 # 	collision with: 3 5 0 0  and 4 5 0 0 
 # max = 395
2497098		 # 	collision with: 1 5 0 0  and 3 5 0 0 
 # max = 395
2497120		 # 	collision with: 2 0 0 0  and 2 1 0 0 
 # max = 395
2497122		 # 	collision with: 2 2 0 0  and 2 3 0 0 
 # max = 395
2497124		 # 	collision with: 3 5 0 0  and 4 5 0 0 
 # max = 395
2497126		 # 	collision with: 1 5 0 0  and 3 5 0 0 
 # max = 395
2497132		 # 	collision with: 6 1 0 0  and 6 2 0 0 
 # max = 395
2497134		 # 	collision with: 5 0 0 0  and 6 1 0 0 
 # max = 395
2497152		 # 	collision with: 3 5 0 0  and 4 5 0 0 
 # max = 395
2497154		 # 	collision with: 1 5 0 0  and 3 5 0 0 
 # max = 395
2497172		 # 	collision with: 1 1 0 0  and 1 3 0 0 
 # max = 395
2497174		 # 	collision with: 6 1 0 0  and 5 3 0 0 
 # max = 395
2497180		 # 	collision with: 3 5 0 0  and 4 5 0 0 
 # max = 395
2497182		 # 	collision with: 1 5 0 0  and 3 5 0 0 
 # max = 395
2497184		 # 	collision with: 5 2 0 0  and 5 4 0 0 
 # max = 395
2497186		 # 	collision with: 5 1 0 0  and 5 2 0 0 
 # max = 395
2497208		 # 	collision with: 3 5 0 0  and 4 5 0 0 
 # max = 395
2497210		 # 	collision with: 1 5 0 0  and 3 5 0 0 
 # max = 395
2497213		 # 	collision with: 1 5 1 0  and 2 5 1 0 
 # max = 395
2497221		 # 	collision with: 0 0 1 0  and 3 4 2 0 
 # max = 395
2497223		 # 	collision with: 6 4 0 0  and 4 0 1 0 
 # max = 395
2497224		 # 	collision with: 3 2 0 0  and 3 3 0 0 
 # max = 395
2497226		 # 	collision with: 3 0 0 0  and 3 2 0 0 
 # max = 395
2497236		 # 	collision with: 0 5 1 0  and 2 3 2 0 
 # max = 395
2497238		 # 	collision with: 0 5 1 0  and 1 3 2 0 
 # max = 395
2497245		 # 	collision with: 5 6 0 0  and 0 3 2 0 
 # max = 395
2497247		 # 	collision with: 1 3 0 0  and 0 5 2 0 
 # max = 395
2497257		 # 	collision with: 0 2 1 0  and 3 0 2 0 
 # max = 395
2497259		 # 	collision with: 2 0 0 0  and 3 4 1 0 
 # max = 395
2497264		 # 	collision with: 0 2 0 0  and 3 0 1 0 
 # max = 395
2497266		 # 	collision with: 6 2 0 0  and 2 0 1 0 
 # max = 395
2497276		 # 	collision with: 0 2 0 0  and 3 0 1 0 
 # max = 395
2497281		 # 	collision with: 3 5 0 0  and 4 5 0 0 
 # max = 395
2497283		 # 	collision with: 3 2 0 0  and 1 4 0 0 
 # max = 395
2497291		 # 	collision with: 1 5 0 0  and 3 5 0 0 
 # max = 395
2497292		 # 	collision with: 4 6 0 0  and 6 2 2 0 
 # max = 395
2497294		 # 	collision with: 1 4 0 0  and 3 0 2 0 
 # max = 395
2497316		 # 	collision with: 3 2 1 0  and 3 3 1 0 
 # max = 395
2497318		 # 	collision with: 3 2 0 0  and 3 0 1 0 
 # max = 395
2497320		 # 	collision with: 5 5 0 0  and 2 3 1 0 
 # max = 395
2497322		 # 	collision with: 3 1 0 0  and 4 6 1 0 
 # max = 395
2497330		 # 	collision with: 0 5 1 0  and 2 5 1 0 
 # max = 395
2497368		 # 	collision with: 4 4 0 0  and 1 5 1 0 
 # max = 395
2497370		 # 	collision with: 6 0 0 0  and 1 2 1 0 
 # max = 395
2497376		 # 	collision with: 4 2 0 0  and 4 0 1 0 
 # max = 395
2497378		 # 	collision with: 4 5 0 0  and 4 1 2 0 
 # max = 395
2497380		 # 	collision with: 3 5 0 0  and 2 5 1 0 
 # max = 395
2497382		 # 	collision with: 0 5 0 0  and 6 5 1 0 
 # max = 395
2497404		 # 	collision with: 1 5 1 0  and 2 5 1 0 
 # max = 395
2497406		 # 	collision with: 6 6 0 0  and 4 4 1 0 
 # max = 395
2497409		 # 	collision with: 5 2 0 0  and 5 4 0 0 
 # max = 395
2497411		 # 	collision with: 0 5 0 0  and 6 5 1 0 
 # max = 395
2497419		 # 	collision with: 4 2 0 0  and 4 4 0 0 
 # max = 395
2497420		 # 	collision with: 3 5 0 0  and 4 5 0 0 
 # max = 395
2497422		 # 	collision with: 1 5 0 0  and 3 5 0 0 
 # max = 395
2497432		 # 	collision with: 0 3 0 0  and 1 2 1 0 
 # max = 395
2497434		 # 	collision with: 2 2 2 0  and 1 1 3 0 
 # max = 395
2497443		 # 	collision with: 4 1 0 0  and 1 5 2 0 
 # max = 395
2497453		 # 	collision with: 2 2 0 0  and 5 3 0 0 
 # max = 395
2497455		 # 	collision with: 4 4 0 0  and 6 6 1 0 
 # max = 395
2497472		 # 	collision with: 5 4 0 0  and 5 4 1 0 
 # max = 395
2497474		 # 	collision with: 0 2 1 0  and 3 1 2 0 
 # max = 395
2497477		 # 	collision with: 3 2 0 0  and 3 3 0 0 
 # max = 395
2497479		 # 	collision with: 1 0 1 0  and 1 1 1 0 
 # max = 395
2497485		 # 	collision with: 0 5 1 0  and 3 0 2 0 
 # max = 395
2497487		 # 	collision with: 2 2 0 0  and 2 3 0 0 
 # max = 395
2497488		 # 	collision with: 1 6 0 0  and 2 5 1 0 
 # max = 395
2497490		 # 	collision with: 0 6 0 0  and 3 5 1 0 
 # max = 395
2497512		 # 	collision with: 4 0 2 0  and 4 2 2 0 
 # max = 395
2497516		 # 	collision with: 3 5 0 0  and 4 4 1 0 
 # max = 395
2497518		 # 	collision with: 4 5 1 0  and 3 4 2 0 
 # max = 395
2497524		 # 	collision with: 4 6 0 0  and 4 6 2 0 
 # max = 395
2497526		 # 	collision with: 4 2 0 0  and 4 4 1 0 
 # max = 395
2497544		 # 	collision with: 6 1 1 0  and 1 0 2 0 
 # max = 395
2497546		 # 	collision with: 3 2 0 0  and 3 0 2 0 
 # max = 395
2497564		 # 	collision with: 5 2 1 0  and 5 4 1 0 
 # max = 395
2497566		 # 	collision with: 2 0 1 0  and 4 1 1 0 
 # max = 395
2497572		 # 	collision with: 5 1 0 0  and 3 0 1 0 
 # max = 395
2497574		 # 	collision with: 2 1 0 0  and 6 0 1 0 
 # max = 395
2497576		 # 	collision with: 3 5 0 0  and 4 5 0 0 
 # max = 395
2497578		 # 	collision with: 1 5 0 0  and 3 5 0 0 
 # max = 395
2497600		 # 	collision with: 4 1 0 0  and 5 0 1 0 
 # max = 395
2497602		 # 	collision with: 2 2 0 0  and 1 0 2 0 
 # max = 395
2497605		 # 	collision with: 3 5 0 0  and 4 5 0 0 
 # max = 395
2497607		 # 	collision with: 2 5 0 0  and 1 5 1 0 
 # max = 395
2497613		 # 	collision with: 4 1 0 0  and 0 4 1 0 
 # max = 395
2497615		 # 	collision with: 1 5 0 0  and 3 5 0 0 
 # max = 395
2497618		 # 	collision with: 2 3 0 0  and 2 3 1 0 
 # max = 395
2497628		 # 	collision with: 4 6 4 0  and 3 0 0 1 
 # max = 395
2497630		 # 	collision with: 4 4 0 0  and 6 1 1 0 
 # max = 395
2497637		 # 	collision with: 4 5 0 0  and 2 3 1 0 
 # max = 395
2497639		 # 	collision with: 6 2 0 0  and 4 5 1 0 
 # max = 395
2497649		 # 	collision with: 1 1 0 0  and 1 3 0 0 
 # max = 395
2497656		 # 	collision with: 4 0 1 0  and 1 1 3 0 
 # max = 395
2497658		 # 	collision with: 3 2 0 0  and 0 3 2 0 
 # max = 395
2497668		 # 	collision with: 3 6 0 0  and 4 0 2 0 
 # max = 395
2497670		 # 	collision with: 4 4 0 0  and 4 4 1 0 
 # max = 395
2497673		 # 	collision with: 1 5 1 0  and 3 5 1 0 
 # max = 395
2497681		 # 	collision with: 3 6 0 0  and 1 1 1 0 
 # max = 395
2497683		 # 	collision with: 3 5 0 0  and 3 4 1 0 
 # max = 395
2497684		 # 	collision with: 0 5 2 0  and 2 5 2 0 
 # max = 395
2497686		 # 	collision with: 0 3 1 0  and 3 0 2 0 
 # max = 395
2497710		 # 	collision with: 2 1 0 0  and 2 4 1 0 
 # max = 395
2497712		 # 	collision with: 4 0 0 0  and 1 1 2 0 
 # max = 395
2497714		 # 	collision with: 3 2 0 0  and 0 3 2 0 
 # max = 395
2497720		 # 	collision with: 6 2 2 0  and 4 3 2 0 
 # max = 395
2497740		 # 	collision with: 0 5 1 0  and 2 5 1 0 
 # max = 395
2497742		 # 	collision with: 0 3 0 0  and 3 0 1 0 
 # max = 395
2497760		 # 	collision with: 3 5 0 0  and 4 5 0 0 
 # max = 395
2497762		 # 	collision with: 1 5 0 0  and 3 5 0 0 
 # max = 395
2497772		 # 	collision with: 1 2 0 0  and 4 1 1 0 
 # max = 395
2497774		 # 	collision with: 5 6 0 0  and 5 4 1 0 
 # max = 395
2497796		 # 	collision with: 0 2 0 0  and 1 6 1 0 
 # max = 395
2497798		 # 	collision with: 3 4 0 0  and 4 1 1 0 
 # max = 395
2497801		 # 	collision with: 3 5 0 0  and 4 5 1 0 
 # max = 395
2497803		 # 	collision with: 4 5 0 0  and 3 5 1 0 
 # max = 395
2497809		 # 	collision with: 4 3 0 0  and 4 6 1 0 
 # max = 395
2497811		 # 	collision with: 4 1 0 0  and 2 0 2 0 
 # max = 395
2497812		 # 	collision with: 0 0 1 0  and 3 1 1 0 
 # max = 395
2497814		 # 	collision with: 2 3 0 0  and 1 0 1 0 
 # max = 395
2497824		 # 	collision with: 0 2 0 0  and 3 5 1 0 
 # max = 395
2497826		 # 	collision with: 2 4 0 0  and 6 0 1 0 
 # max = 395
2497833		 # 	collision with: 6 1 0 0  and 6 2 0 0 
 # max = 395
2497845		 # 	collision with: 2 2 1 0  and 5 3 1 0 
 # max = 395
2497847		 # 	collision with: 5 4 0 0  and 1 0 2 0 
 # max = 395
2497852		 # 	collision with: 1 1 0 0  and 2 4 1 0 
 # max = 395
2497854		 # 	collision with: 6 2 0 0  and 0 5 1 0 
 # max = 395
2497864		 # 	collision with: 6 1 1 0  and 6 2 1 0 
 # max = 395
2497866		 # 	collision with: 5 4 0 0  and 1 0 1 0 
 # max = 395
2497869		 # 	collision with: 1 6 0 0  and 0 5 1 0 
 # max = 395
2497871		 # 	collision with: 1 5 0 0  and 3 5 0 0 
 # max = 395
2497877		 # 	collision with: 1 5 0 0  and 1 6 2 0 
 # max = 395
2497879		 # 	collision with: 0 1 0 0  and 3 2 1 0 
 # max = 395
2497904		 # 	collision with: 2 6 0 0  and 5 3 2 0 
 # max = 395
2497906		 # 	collision with: 6 1 0 0  and 5 0 2 0 
 # max = 395
2497908		 # 	collision with: 1 4 0 0  and 1 0 1 0 
 # max = 395
2497910		 # 	collision with: 6 2 0 0  and 0 5 1 0 
 # max = 395
2497916		 # 	collision with: 3 5 0 0  and 4 5 0 0 
 # max = 395
2497918		 # 	collision with: 1 5 0 0  and 3 5 0 0 
 # max = 395
2497936		 # 	collision with: 1 6 0 0  and 5 5 2 0 
 # max = 395
2497938		 # 	collision with: 6 2 0 0  and 0 5 1 0 
 # max = 395
2497956		 # 	collision with: 2 0 2 0  and 2 1 2 0 
 # max = 395
2497964		 # 	collision with: 0 4 0 0  and 5 0 1 0 
 # max = 395
2497966		 # 	collision with: 6 2 0 0  and 0 5 1 0 
 # max = 395
2497970		 # 	collision with: 2 3 0 0  and 2 2 1 0 
 # max = 395
2497992		 # 	collision with: 0 5 1 0  and 5 1 2 0 
 # max = 395
2497994		 # 	collision with: 6 2 0 0  and 0 5 1 0 
 # max = 395
2497997		 # 	collision with: 4 0 1 0  and 4 2 1 0 
 # max = 395
2497999		 # 	collision with: 5 1 0 0  and 5 2 0 0 
 # max = 395
2498005		 # 	collision with: 1 5 1 0  and 2 5 1 0 
 # max = 395
2498008		 # 	collision with: 4 3 1 0  and 4 3 2 0 
 # max = 395
2498010		 # 	collision with: 3 5 1 0  and 6 2 2 0 
 # max = 395
2498020		 # 	collision with: 4 0 0 0  and 1 1 1 0 
 # max = 395
2498022		 # 	collision with: 6 2 0 0  and 1 3 1 0 
 # max = 395
2498029		 # 	collision with: 5 1 0 0  and 0 5 1 0 
 # max = 395
2498031		 # 	collision with: 1 3 0 0  and 4 1 1 0 
 # max = 395
2498043		 # 	collision with: 6 1 1 0  and 5 3 1 0 
 # max = 395
2498048		 # 	collision with: 1 1 0 0  and 4 2 1 0 
 # max = 395
2498050		 # 	collision with: 4 0 0 0  and 3 1 1 0 
 # max = 395
2498062		 # 	collision with: 0 5 1 0  and 1 5 1 0 
 # max = 395
2498065		 # 	collision with: 4 4 0 0  and 3 5 0 0 
 # max = 395
2498067		 # 	collision with: 3 0 0 0  and 3 2 0 0 
 # max = 395
2498073		 # 	collision with: 3 5 0 0  and 4 5 0 0 
 # max = 395
2498075		 # 	collision with: 2 5 2 0  and 3 5 2 0 
 # max = 395
2498076		 # 	collision with: 0 5 1 0  and 1 5 1 0 
 # max = 395
2498078		 # 	collision with: 2 5 1 0  and 3 5 1 0 
 # max = 395
2498100		 # 	collision with: 3 5 0 0  and 4 5 0 0 
 # max = 395
2498102		 # 	collision with: 1 5 0 0  and 3 5 0 0 
 # max = 395
2498104		 # 	collision with: 6 3 0 0  and 5 4 1 0 
 # max = 395
2498106		 # 	collision with: 4 5 1 0  and 0 6 2 0 
 # max = 395
2498112		 # 	collision with: 2 0 1 0  and 2 1 1 0 
 # max = 395
2498114		 # 	collision with: 5 0 1 0  and 4 2 1 0 
 # max = 395
2498132		 # 	collision with: 3 6 0 0  and 4 0 1 0 
 # max = 395
2498134		 # 	collision with: 4 6 1 0  and 4 0 2 0 
 # max = 395
2498152		 # 	collision with: 4 2 2 0  and 4 0 3 0 
 # max = 395
2498154		 # 	collision with: 4 1 0 0  and 4 1 2 0 
 # max = 395
2498160		 # 	collision with: 1 3 1 0  and 2 4 2 0 
 # max = 395
2498162		 # 	collision with: 6 3 0 0  and 6 4 1 0 
 # max = 395
2498164		 # 	collision with: 0 0 0 0  and 2 2 1 0 
 # max = 395
2498193		 # 	collision with: 4 4 0 0  and 2 3 1 0 
 # max = 395
2498195		 # 	collision with: 1 5 0 0  and 3 5 0 0 
 # max = 395
2498201		 # 	collision with: 4 0 0 0  and 4 2 0 0 
 # max = 395
2498203		 # 	collision with: 6 2 0 0  and 1 3 1 0 
 # max = 395
2498204		 # 	collision with: 5 4 0 0  and 5 2 1 0 
 # max = 395
2498206		 # 	collision with: 5 4 0 0  and 2 2 1 0 
 # max = 395
2498216		 # 	collision with: 6 6 0 0  and 2 1 1 0 
 # max = 395
2498218		 # 	collision with: 6 4 0 0  and 3 1 2 0 
 # max = 395
2498225		 # 	collision with: 2 2 0 0  and 2 6 1 0 
 # max = 395
2498227		 # 	collision with: 0 2 0 0  and 4 0 1 0 
 # max = 395
2498237		 # 	collision with: 3 6 0 0  and 4 0 1 0 
 # max = 395
2498239		 # 	collision with: 5 0 0 0  and 6 1 0 0 
 # max = 395
2498244		 # 	collision with: 4 6 0 0  and 6 1 1 0 
 # max = 395
2498246		 # 	collision with: 0 5 1 0  and 1 5 1 0 
 # max = 395
2498256		 # 	collision with: 3 5 0 0  and 4 5 0 0 
 # max = 395
2498258		 # 	collision with: 1 5 0 0  and 3 5 0 0 
 # max = 395
2498263		 # 	collision with: 6 5 0 0  and 4 1 1 0 
 # max = 395
2498269		 # 	collision with: 2 0 0 0  and 2 1 0 0 
 # max = 395
2498271		 # 	collision with: 3 0 1 0  and 3 2 1 0 
 # max = 395
2498272		 # 	collision with: 6 4 0 0  and 2 1 2 0 
 # max = 395
2498274		 # 	collision with: 5 1 0 0  and 3 3 1 0 
 # max = 395
2498296		 # 	collision with: 2 4 0 0  and 1 3 1 0 
 # max = 395
2498298		 # 	collision with: 5 5 0 0  and 2 0 1 0 
 # max = 395
2498308		 # 	collision with: 5 4 0 0  and 0 1 1 0 
 # max = 395
2498310		 # 	collision with: 4 1 0 0  and 3 4 1 0 
 # max = 395
2498328		 # 	collision with: 1 5 2 0  and 3 5 2 0 
 # max = 395
2498330		 # 	collision with: 0 5 2 0  and 1 5 2 0 
 # max = 395
2498350		 # 	collision with: 2 5 1 0  and 4 5 1 0 
 # max = 395
2498356		 # 	collision with: 3 3 0 0  and 2 0 2 0 
 # max = 395
2498358		 # 	collision with: 1 3 0 0  and 3 5 1 0 
 # max = 395
2498360		 # 	collision with: 6 0 1 0  and 0 1 1 0 
 # max = 395
2498362		 # 	collision with: 1 0 1 0  and 2 2 1 0 
 # max = 395
2498384		 # 	collision with: 2 0 0 0  and 3 2 1 0 
 # max = 395
2498386		 # 	collision with: 5 6 0 0  and 1 1 1 0 
 # max = 395
2498391		 # 	collision with: 4 5 0 0  and 0 5 1 0 
 # max = 395
2498397		 # 	collision with: 3 5 0 0  and 4 5 0 0 
 # max = 395
2498399		 # 	collision with: 6 2 1 0  and 1 3 1 0 
 # max = 395
2498400		 # 	collision with: 2 5 0 0  and 3 0 1 0 
 # max = 395
2498417		 # 	collision with: 5 2 1 0  and 5 4 1 0 
 # max = 395
2498419		 # 	collision with: 4 2 1 0  and 6 2 2 0 
 # max = 395
2498437		 # 	collision with: 5 1 0 0  and 1 4 1 0 
 # max = 395
2498439		 # 	collision with: 0 1 0 0  and 3 4 1 0 
 # max = 395
2498445		 # 	collision with: 5 2 1 0  and 5 4 1 0 
 # max = 395
2498447		 # 	collision with: 6 3 0 0  and 2 4 1 0 
 # max = 395
2498449		 # 	collision with: 1 1 1 0  and 3 1 1 0 
 # max = 395
2498451		 # 	collision with: 6 3 0 0  and 6 4 0 0 
 # max = 395
2498456		 # 	collision with: 5 2 0 0  and 5 4 0 0 
 # max = 395
2498458		 # 	collision with: 6 1 0 0  and 5 2 0 0 
 # max = 395
2498464		 # 	collision with: 4 0 0 0  and 4 2 0 0 
 # max = 395
2498466		 # 	collision with: 5 1 0 0  and 5 2 0 0 
 # max = 395
2498472		 # 	collision with: 1 1 0 0  and 1 3 0 0 
 # max = 395
2498474		 # 	collision with: 3 0 0 0  and 3 2 0 0 
 # max = 395
2498488		 # 	collision with: 6 1 0 0  and 6 2 0 0 
 # max = 395
2498490		 # 	collision with: 4 2 0 0  and 4 4 0 0 
 # max = 395
2498512		 # 	collision with: 5 2 0 0  and 5 4 0 0 
 # max = 395
2498514		 # 	collision with: 6 1 0 0  and 5 2 0 0 
 # max = 395
2498516		 # 	collision with: 6 1 0 0  and 6 2 0 0 
 # max = 395
2498518		 # 	collision with: 4 2 0 0  and 4 4 0 0 
 # max = 395
2498532		 # 	collision with: 2 0 0 0  and 2 1 0 0 
 # max = 395
2498534		 # 	collision with: 6 3 0 0  and 6 4 0 0 
 # max = 395
2498536		 # 	collision with: 2 3 0 0  and 5 5 0 0 
 # max = 395
2498538		 # 	collision with: 4 1 0 0  and 0 3 0 0 
 # max = 395
2498560		 # 	collision with: 2 0 0 0  and 2 1 0 0 
 # max = 395
2498562		 # 	collision with: 6 3 0 0  and 6 4 0 0 
 # max = 395
2498576		 # 	collision with: 4 0 0 0  and 4 2 0 0 
 # max = 395
2498578		 # 	collision with: 5 1 0 0  and 5 2 0 0 
 # max = 395
2498584		 # 	collision with: 1 1 0 0  and 1 3 0 0 
 # max = 395
2498586		 # 	collision with: 3 0 0 0  and 3 2 0 0 
 # max = 395
2498592		 # 	collision with: 2 3 0 0  and 5 5 0 0 
 # max = 395
2498594		 # 	collision with: 4 1 0 0  and 0 3 0 0 
 # max = 395
2498601		 # 	collision with: 6 2 0 0  and 2 5 1 0 
 # max = 395
2498603		 # 	collision with: 2 6 0 0  and 1 0 2 0 
 # max = 395
2498605		 # 	collision with: 1 2 1 0  and 2 2 1 0 
 # max = 395
2498607		 # 	collision with: 3 3 0 0  and 6 3 1 0 
 # max = 395
2498608		 # 	collision with: 6 3 0 0  and 3 2 2 0 
 # max = 395
2498610		 # 	collision with: 2 5 0 0  and 0 2 1 0 
 # max = 395
2498613		 # 	collision with: 0 2 1 0  and 3 2 2 0 
 # max = 395
2498633		 # 	collision with: 6 0 0 0  and 3 2 1 0 
 # max = 395
2498635		 # 	collision with: 3 0 2 0  and 0 2 3 0 
 # max = 395
2498641		 # 	collision with: 1 1 1 0  and 3 1 1 0 
 # max = 395
2498645		 # 	collision with: 6 5 1 0  and 0 0 2 0 
 # max = 395
2498647		 # 	collision with: 1 1 0 0  and 3 1 0 0 
 # max = 395
2498652		 # 	collision with: 3 5 0 0  and 4 5 0 0 
 # max = 395
2498654		 # 	collision with: 4 5 0 0  and 2 2 2 0 
 # max = 395
2498660		 # 	collision with: 6 3 0 0  and 6 0 1 0 
 # max = 395
2498662		 # 	collision with: 1 1 0 0  and 3 1 0 0 
 # max = 395
2498668		 # 	collision with: 0 4 1 0  and 1 4 1 0 
 # max = 395
2498686		 # 	collision with: 6 3 0 0  and 2 4 2 0 
 # max = 395
2498708		 # 	collision with: 3 5 0 0  and 4 5 0 0 
 # max = 395
2498710		 # 	collision with: 1 4 0 0  and 5 3 1 0 
 # max = 395
2498712		 # 	collision with: 3 4 1 0  and 1 3 2 0 
 # max = 395
2498714		 # 	collision with: 3 5 0 0  and 4 5 1 0 
 # max = 395
2498728		 # 	collision with: 5 4 0 0  and 5 2 2 0 
 # max = 395
2498730		 # 	collision with: 2 3 0 0  and 6 0 1 0 
 # max = 395
2498732		 # 	collision with: 0 3 1 0  and 2 3 1 0 
 # max = 395
2498734		 # 	collision with: 0 4 2 0  and 1 4 2 0 
 # max = 395
2498756		 # 	collision with: 4 4 0 0  and 4 5 1 0 
 # max = 395
2498758		 # 	collision with: 4 2 0 0  and 4 2 1 0 
 # max = 395
2498774		 # 	collision with: 1 1 0 0  and 3 1 0 0 
 # max = 395
2498780		 # 	collision with: 2 2 1 0  and 1 2 2 0 
 # max = 395
2498788		 # 	collision with: 6 1 0 0  and 2 3 1 0 
 # max = 395
2498790		 # 	collision with: 4 3 0 0  and 5 0 1 0 
 # max = 395
2498797		 # 	collision with: 2 0 1 0  and 2 1 1 0 
 # max = 395
2498799		 # 	collision with: 4 2 0 0  and 4 4 0 0 
 # max = 395
2498801		 # 	collision with: 2 6 0 0  and 1 2 1 0 
 # max = 395
2498803		 # 	collision with: 2 3 0 0  and 2 3 1 0 
 # max = 395
2498804		 # 	collision with: 4 5 0 0  and 2 1 2 0 
 # max = 395
2498806		 # 	collision with: 2 2 0 0  and 3 4 1 0 
 # max = 395
2498809		 # 	collision with: 3 5 0 0  and 4 5 0 0 
 # max = 395
2498811		 # 	collision with: 1 1 0 0  and 3 1 0 0 
 # max = 395
2498829		 # 	collision with: 5 3 0 0  and 4 3 1 0 
 # max = 395
2498831		 # 	collision with: 4 1 0 0  and 5 6 1 0 
 # max = 395
2498837		 # 	collision with: 3 5 0 0  and 4 5 0 0 
 # max = 395
2498839		 # 	collision with: 1 1 0 0  and 3 1 0 0 
 # max = 395
2498848		 # 	collision with: 4 5 0 0  and 2 0 1 0 
 # max = 395
2498850		 # 	collision with: 5 6 0 0  and 3 5 1 0 
 # max = 395
2498856		 # 	collision with: 6 5 1 0  and 5 0 2 0 
 # max = 395
2498858		 # 	collision with: 5 3 0 0  and 5 3 1 0 
 # max = 395
2498864		 # 	collision with: 3 5 0 0  and 4 5 0 0 
 # max = 395
2498866		 # 	collision with: 0 2 0 0  and 2 5 1 0 
 # max = 395
2498880		 # 	collision with: 2 0 1 0  and 2 1 1 0 
 # max = 395
2498882		 # 	collision with: 1 1 0 0  and 3 1 0 0 
 # max = 395
2498904		 # 	collision with: 4 2 0 0  and 6 1 2 0 
 # max = 395
2498906		 # 	collision with: 4 4 0 0  and 4 2 1 0 
 # max = 395
2498910		 # 	collision with: 1 1 0 0  and 3 1 0 0 
 # max = 395
2498924		 # 	collision with: 4 0 0 0  and 6 1 1 0 
 # max = 395
2498930		 # 	collision with: 4 2 1 0  and 1 5 2 0 
 # max = 395
2498952		 # 	collision with: 1 5 0 0  and 5 0 1 0 
 # max = 395
2498968		 # 	collision with: 1 1 2 0  and 1 3 2 0 
 # max = 395
2498970		 # 	collision with: 1 3 0 0  and 1 3 1 0 
 # max = 395
2498976		 # 	collision with: 3 5 0 0  and 4 5 0 0 
 # max = 395
2498978		 # 	collision with: 4 2 0 0  and 1 5 1 0 
 # max = 395
2498984		 # 	collision with: 2 5 0 0  and 1 0 1 0 
 # max = 395
2498986		 # 	collision with: 4 5 0 0  and 6 0 1 0 
 # max = 395
2498993		 # 	collision with: 1 2 1 0  and 2 2 1 0 
 # max = 395
2498995		 # 	collision with: 3 1 0 0  and 4 0 1 0 
 # max = 395
2498999		 # 	collision with: 1 1 0 0  and 4 0 1 0 
 # max = 395
2499000		 # 	collision with: 2 1 1 0  and 4 4 2 0 
 # max = 395
2499002		 # 	collision with: 0 1 0 0  and 6 0 1 0 
 # max = 395
2499005		 # 	collision with: 1 1 0 0  and 1 3 0 0 
 # max = 395
2499007		 # 	collision with: 2 4 0 0  and 6 4 1 0 
 # max = 395
2499027		 # 	collision with: 5 3 0 0  and 4 3 1 0 
 # max = 395
2499033		 # 	collision with: 1 1 0 0  and 1 3 0 0 
 # max = 395
2499035		 # 	collision with: 6 2 0 0  and 1 3 1 0 
 # max = 395
2499037		 # 	collision with: 4 2 0 0  and 1 0 1 0 
 # max = 395
2499039		 # 	collision with: 5 1 0 0  and 0 5 1 0 
 # max = 395
2499046		 # 	collision with: 1 1 0 0  and 3 1 0 0 
 # max = 395
2499052		 # 	collision with: 0 4 0 0  and 5 1 1 0 
 # max = 395
2499054		 # 	collision with: 0 4 1 0  and 1 4 1 0 
 # max = 395
2499060		 # 	collision with: 2 4 0 0  and 6 4 1 0 
 # max = 395
2499062		 # 	collision with: 5 6 0 0  and 1 2 1 0 
 # max = 395
2499076		 # 	collision with: 3 5 0 0  and 4 5 0 0 
 # max = 395
2499078		 # 	collision with: 6 2 0 0  and 1 3 1 0 
 # max = 395
2499100		 # 	collision with: 4 0 1 0  and 4 2 1 0 
 # max = 395
2499102		 # 	collision with: 1 1 0 0  and 3 1 0 0 
 # max = 395
2499104		 # 	collision with: 3 5 0 0  and 4 5 0 0 
 # max = 395
2499106		 # 	collision with: 0 3 1 0  and 2 3 1 0 
 # max = 395
2499120		 # 	collision with: 6 1 0 0  and 1 0 1 0 
 # max = 395
2499122		 # 	collision with: 3 4 0 0  and 5 6 1 0 
 # max = 395
2499124		 # 	collision with: 2 5 0 0  and 4 0 2 0 
 # max = 395
2499148		 # 	collision with: 3 2 0 0  and 0 2 1 0 
 # max = 395
2499150		 # 	collision with: 1 0 2 0  and 1 1 2 0 
 # max = 395
2499164		 # 	collision with: 5 1 0 0  and 1 0 1 0 
 # max = 395
2499166		 # 	collision with: 5 6 0 0  and 5 4 1 0 
 # max = 395
2499174		 # 	collision with: 1 1 0 0  and 4 0 1 0 
 # max = 395
2499180		 # 	collision with: 6 2 1 0  and 1 0 2 0 
 # max = 395
2499189		 # 	collision with: 3 5 0 0  and 4 5 0 0 
 # max = 395
2499191		 # 	collision with: 4 5 0 0  and 4 5 1 0 
 # max = 395
2499193		 # 	collision with: 0 2 1 0  and 3 3 1 0 
 # max = 395
2499195		 # 	collision with: 6 2 1 0  and 1 3 1 0 
 # max = 395
2499196		 # 	collision with: 4 2 0 0  and 2 3 1 0 
 # max = 395
2499198		 # 	collision with: 6 0 0 0  and 0 1 1 0 
 # max = 395
2499203		 # 	collision with: 5 6 0 0  and 3 4 1 0 
 # max = 395
2499221		 # 	collision with: 6 4 0 0  and 0 1 2 0 
 # max = 395
2499223		 # 	collision with: 1 1 0 0  and 3 1 0 0 
 # max = 395
2499229		 # 	collision with: 1 4 0 0  and 0 4 1 0 
 # max = 395
2499231		 # 	collision with: 3 5 0 0  and 1 2 2 0 
 # max = 395
2499233		 # 	collision with: 3 5 0 0  and 4 5 0 0 
 # max = 395
2499235		 # 	collision with: 0 5 0 0  and 5 1 1 0 
 # max = 395
2499240		 # 	collision with: 6 5 1 0  and 0 0 2 0 
 # max = 395
2499250		 # 	collision with: 5 1 0 0  and 0 5 1 0 
 # max = 395
2499256		 # 	collision with: 5 6 0 0  and 5 0 1 0 
 # max = 395
2499258		 # 	collision with: 5 2 0 0  and 5 1 1 0 
 # max = 395
2499272		 # 	collision with: 3 6 1 0  and 5 1 2 0 
 # max = 395
2499274		 # 	collision with: 5 5 0 0  and 5 5 1 0 
 # max = 395
2499296		 # 	collision with: 2 0 1 0  and 3 0 1 0 
 # max = 395
2499300		 # 	collision with: 2 0 1 0  and 3 0 1 0 
 # max = 395
2499302		 # 	collision with: 1 5 0 0  and 1 5 1 0 
 # max = 395
2499316		 # 	collision with: 3 5 0 0  and 4 5 0 0 
 # max = 395
2499318		 # 	collision with: 4 6 0 0  and 1 0 1 0 
 # max = 395
2499320		 # 	collision with: 2 6 0 0  and 1 2 1 0 
 # max = 395
2499322		 # 	collision with: 1 1 0 0  and 3 1 0 0 
 # max = 395
2499344		 # 	collision with: 3 5 0 0  and 4 5 0 0 
 # max = 395
2499346		 # 	collision with: 6 0 0 0  and 0 3 1 0 
 # max = 395
2499360		 # 	collision with: 5 1 0 0  and 2 5 1 0 
 # max = 395
2499362		 # 	collision with: 1 2 1 0  and 2 2 1 0 
 # max = 395
2499368		 # 	collision with: 0 3 1 0  and 1 4 2 0 
 # max = 395
2499370		 # 	collision with: 4 6 0 0  and 4 0 1 0 
 # max = 395
2499378		 # 	collision with: 1 1 0 0  and 3 1 0 0 
 # max = 395
2499385		 # 	collision with: 6 1 0 0  and 6 2 0 0 
 # max = 395
2499387		 # 	collision with: 5 5 0 0  and 2 0 1 0 
 # max = 395
2499389		 # 	collision with: 1 3 0 0  and 3 1 1 0 
 # max = 395
2499391		 # 	collision with: 1 1 0 0  and 3 1 0 0 
 # max = 395
2499392		 # 	collision with: 6 3 1 0  and 0 2 2 0 
 # max = 395
2499394		 # 	collision with: 3 2 0 0  and 2 0 1 0 
 # max = 395
2499397		 # 	collision with: 1 0 1 0  and 6 1 1 0 
 # max = 395
2499399		 # 	collision with: 3 0 0 0  and 3 2 0 0 
 # max = 395
2499417		 # 	collision with: 4 0 0 0  and 4 2 0 0 
 # max = 395
2499419		 # 	collision with: 6 1 1 0  and 5 2 1 0 
 # max = 395
2499427		 # 	collision with: 3 0 0 0  and 3 2 0 0 
 # max = 395
2499429		 # 	collision with: 6 2 2 0  and 2 3 2 0 
 # max = 395
2499431		 # 	collision with: 3 2 0 0  and 0 2 1 0 
 # max = 395
2499436		 # 	collision with: 2 4 1 0  and 2 4 2 0 
 # max = 395
2499438		 # 	collision with: 4 5 0 0  and 3 4 1 0 
 # max = 395
2499444		 # 	collision with: 3 5 0 0  and 4 5 0 0 
 # max = 395
2499446		 # 	collision with: 2 2 0 0  and 6 0 1 0 
 # max = 395
2499452		 # 	collision with: 6 6 0 0  and 0 1 1 0 
 # max = 395
2499454		 # 	collision with: 2 0 1 0  and 3 0 1 0 
 # max = 395
2499468		 # 	collision with: 3 2 0 0  and 0 2 2 0 
 # max = 395
2499494		 # 	collision with: 3 0 0 0  and 3 2 1 0 
 # max = 395
2499496		 # 	collision with: 0 4 0 0  and 6 1 1 0 
 # max = 395
2499514		 # 	collision with: 1 1 0 0  and 3 1 0 0 
 # max = 395
2499516		 # 	collision with: 3 1 0 0  and 5 2 1 0 
 # max = 395
2499518		 # 	collision with: 4 6 0 0  and 4 6 1 0 
 # max = 395
2499540		 # 	collision with: 3 2 1 0  and 3 3 1 0 
 # max = 395
2499542		 # 	collision with: 1 1 0 0  and 3 1 0 0 
 # max = 395
2499556		 # 	collision with: 3 5 0 0  and 4 5 0 0 
 # max = 395
2499558		 # 	collision with: 5 0 2 0  and 0 0 3 0 
 # max = 395
2499564		 # 	collision with: 6 6 0 0  and 0 1 1 0 
 # max = 395
2499566		 # 	collision with: 6 4 0 0  and 2 4 1 0 
 # max = 395
2499572		 # 	collision with: 5 5 0 0  and 5 1 1 0 
 # max = 395
2499574		 # 	collision with: 6 0 0 0  and 5 4 1 0 
 # max = 395
2499585		 # 	collision with: 4 0 0 0  and 4 2 0 0 
 # max = 395
2499587		 # 	collision with: 5 4 0 0  and 1 2 1 0 
 # max = 395
2499588		 # 	collision with: 5 1 0 0  and 0 4 1 0 
 # max = 395
2499590		 # 	collision with: 1 2 0 0  and 4 5 1 0 
 # max = 395
2499593		 # 	collision with: 6 0 0 0  and 3 2 2 0 
 # max = 395
2499595		 # 	collision with: 6 1 0 0  and 5 2 1 0 
 # max = 395
2499613		 # 	collision with: 6 2 0 0  and 6 1 1 0 
 # max = 395
2499621		 # 	collision with: 3 0 1 0  and 4 5 2 0 
 # max = 395
2499623		 # 	collision with: 4 1 0 0  and 1 2 1 0 
 # max = 395
2499625		 # 	collision with: 2 0 0 0  and 2 1 0 0 
 # max = 395
2499627		 # 	collision with: 6 2 0 0  and 4 2 1 0 
 # max = 395
2499632		 # 	collision with: 1 1 0 0  and 1 1 1 0 
 # max = 395
2499634		 # 	collision with: 1 6 0 0  and 1 2 2 0 
 # max = 395
2499640		 # 	collision with: 1 4 0 0  and 1 0 1 0 
 # max = 395
2499650		 # 	collision with: 1 1 0 0  and 3 1 0 0 
 # max = 395
2499664		 # 	collision with: 4 6 0 0  and 4 3 1 0 
 # max = 395
2499666		 # 	collision with: 2 2 0 0  and 1 2 2 0 
 # max = 395
2499688		 # 	collision with: 5 1 0 0  and 5 1 1 0 
 # max = 395
2499690		 # 	collision with: 3 5 0 0  and 2 2 1 0 
 # max = 395
2499692		 # 	collision with: 1 1 3 0  and 1 3 3 0 
 # max = 395
2499694		 # 	collision with: 4 0 0 0  and 3 1 1 0 
 # max = 395
2499708		 # 	collision with: 0 2 0 0  and 3 2 1 0 
 # max = 395
2499710		 # 	collision with: 3 4 0 0  and 6 0 1 0 
 # max = 395
2499712		 # 	collision with: 3 5 0 0  and 4 5 0 0 
 # max = 395
2499714		 # 	collision with: 2 6 1 0  and 4 6 1 0 
 # max = 395
2499738		 # 	collision with: 4 1 1 0  and 0 1 2 0 
 # max = 395
2499752		 # 	collision with: 5 5 0 0  and 0 4 1 0 
 # max = 395
2499760		 # 	collision with: 4 4 0 0  and 2 0 1 0 
 # max = 395
2499762		 # 	collision with: 1 1 0 0  and 3 1 0 0 
 # max = 395
2499768		 # 	collision with: 3 5 0 0  and 4 5 0 0 
 # max = 395
2499770		 # 	collision with: 4 6 1 0  and 1 0 2 0 
 # max = 395
2499777		 # 	collision with: 2 3 0 0  and 5 5 0 0 
 # max = 395
2499779		 # 	collision with: 1 1 0 0  and 2 6 1 0 
 # max = 395
2499781		 # 	collision with: 4 0 1 0  and 6 2 1 0 
 # max = 395
2499845		 # 	collision with: 1 2 0 0  and 4 0 1 0 
 # max = 395
2499847		 # 	collision with: 6 3 0 0  and 5 4 0 0 
 # max = 395
2499861		 # 	collision with: 4 4 1 0  and 3 0 2 0 
 # max = 395
2499863		 # 	collision with: 3 2 0 0  and 3 2 1 0 
 # max = 395
2499869		 # 	collision with: 3 5 0 0  and 4 5 0 0 
 # max = 395
2499871		 # 	collision with: 3 1 0 0  and 5 5 1 0 
 # max = 395
2499877		 # 	collision with: 5 5 0 0  and 2 5 1 0 
 # max = 395
2499879		 # 	collision with: 6 3 0 0  and 6 4 0 0 
 # max = 395
2499897		 # 	collision with: 3 5 0 0  and 4 5 0 0 
 # max = 395
2499899		 # 	collision with: 0 3 0 0  and 6 2 2 0 
 # max = 395
2499917		 # 	collision with: 2 5 1 0  and 6 0 2 0 
 # max = 395
2499919		 # 	collision with: 5 2 0 0  and 5 2 1 0 
 # max = 395
2499933		 # 	collision with: 1 6 0 0  and 1 5 2 0 
 # max = 395
2499935		 # 	collision with: 6 3 0 0  and 6 4 0 0 
 # max = 395
2499949		 # 	collision with: 4 2 0 0  and 4 0 1 0 
 # max = 395
2499951		 # 	collision with: 1 4 0 0  and 3 4 0 0 
 # max = 395
2499980		 # 	collision with: 1 0 1 0  and 3 1 3 0 
 # max = 395
2499982		 # 	collision with: 2 4 1 0  and 0 3 2 0 
 # max = 395
2500041		 # 	collision with: 0 3 1 0  and 1 3 1 0 
 # max = 395
2500043		 # 	collision with: 4 2 0 0  and 0 4 0 0 
 # max = 395
2500057		 # 	collision with: 4 3 1 0  and 0 2 2 0 
 # max = 395
2500059		 # 	collision with: 2 0 1 0  and 3 1 1 0 
 # max = 395
2500065		 # 	collision with: 5 2 0 0  and 5 4 0 0 
 # max = 395
2500067		 # 	collision with: 4 2 0 0  and 4 4 0 0 
 # max = 395
2500073		 # 	collision with: 6 2 0 0  and 1 4 0 0 
 # max = 395
2500075		 # 	collision with: 3 0 2 0  and 3 2 2 0 
 # max = 395
2500093		 # 	collision with: 5 2 0 0  and 5 4 0 0 
 # max = 395
2500095		 # 	collision with: 4 2 0 0  and 4 4 0 0 
 # max = 395
2500113		 # 	collision with: 3 4 1 0  and 5 6 2 0 
 # max = 395
2500115		 # 	collision with: 3 3 0 0  and 1 0 2 0 
 # max = 395
2500129		 # 	collision with: 6 2 0 0  and 1 4 0 0 
 # max = 395
2500131		 # 	collision with: 2 1 0 0  and 6 5 1 0 
 # max = 395
2500145		 # 	collision with: 1 3 0 0  and 1 1 1 0 
 # max = 395
2500147		 # 	collision with: 1 3 1 0  and 2 4 1 0 
 # max = 395
2500176		 # 	collision with: 0 6 0 0  and 4 0 2 0 
 # max = 395
2500178		 # 	collision with: 3 1 0 0  and 6 6 1 0 
 # max = 395
2500237		 # 	collision with: 3 5 0 0  and 4 5 0 0 
 # max = 395
2500239		 # 	collision with: 2 2 0 0  and 2 3 0 0 
 # max = 395
2500253		 # 	collision with: 4 2 0 0  and 1 2 1 0 
 # max = 395
2500263		 # 	collision with: 0 1 1 0  and 2 1 1 0 
 # max = 395
2500269		 # 	collision with: 2 2 1 0  and 3 2 1 0 
 # max = 395
2500271		 # 	collision with: 1 4 0 0  and 3 4 0 0 
 # max = 395
2500289		 # 	collision with: 4 0 0 0  and 0 1 1 0 
 # max = 395
2500311		 # 	collision with: 0 6 0 0  and 3 3 1 0 
 # max = 395
2500325		 # 	collision with: 6 1 1 0  and 6 2 1 0 
 # max = 395
2500327		 # 	collision with: 1 4 0 0  and 3 4 0 0 
 # max = 395
2500341		 # 	collision with: 2 2 0 0  and 5 3 0 0 
 # max = 395
2500343		 # 	collision with: 0 4 0 0  and 1 2 1 0 
 # max = 395
2500372		 # 	collision with: 2 1 0 0  and 4 2 1 0 
 # max = 395
2500374		 # 	collision with: 0 6 0 0  and 5 0 1 0 
 # max = 395
2500433		 # 	collision with: 5 3 0 0  and 3 3 1 0 
 # max = 395
2500435		 # 	collision with: 1 1 0 0  and 3 3 0 0 
 # max = 395
2500451		 # 	collision with: 4 2 1 0  and 4 4 1 0 
 # max = 395
2500457		 # 	collision with: 0 6 0 0  and 2 0 2 0 
 # max = 395
2500459		 # 	collision with: 1 4 0 0  and 3 4 0 0 
 # max = 395
2500465		 # 	collision with: 2 6 0 0  and 6 5 1 0 
 # max = 395
2500467		 # 	collision with: 6 3 0 0  and 2 2 1 0 
 # max = 395
2500485		 # 	collision with: 1 3 0 0  and 3 0 1 0 
 # max = 395
2500487		 # 	collision with: 1 4 0 0  and 3 4 0 0 
 # max = 395
2500505		 # 	collision with: 3 5 0 0  and 4 5 0 0 
 # max = 395
2500521		 # 	collision with: 2 1 0 0  and 2 0 1 0 
 # max = 395
2500523		 # 	collision with: 6 3 0 0  and 3 2 1 0 
 # max = 395
2500568		 # 	collision with: 4 2 1 0  and 2 0 2 0 
 # max = 395
2500570		 # 	collision with: 2 0 0 0  and 6 6 1 0 
 # max = 395
2500645		 # 	collision with: 0 2 0 0  and 5 2 1 0 
 # max = 395
2500647		 # 	collision with: 1 4 0 0  and 3 4 0 0 
 # max = 395
2500653		 # 	collision with: 6 0 0 0  and 5 5 1 0 
 # max = 395
2500655		 # 	collision with: 0 6 0 0  and 1 0 1 0 
 # max = 395
2500661		 # 	collision with: 3 5 0 0  and 4 5 0 0 
 # max = 395
2500681		 # 	collision with: 0 4 1 0  and 4 5 2 0 
 # max = 395
2500683		 # 	collision with: 2 0 1 0  and 4 0 1 0 
 # max = 395
2500701		 # 	collision with: 0 3 0 0  and 1 1 1 0 
 # max = 395
2500703		 # 	collision with: 1 4 0 0  and 3 4 0 0 
 # max = 395
2500719		 # 	collision with: 1 0 1 0  and 1 1 1 0 
 # max = 395
2500733		 # 	collision with: 6 6 0 0  and 6 4 1 0 
 # max = 395
2500735		 # 	collision with: 0 1 0 0  and 1 5 2 0 
 # max = 395
2500764		 # 	collision with: 6 3 1 0  and 0 0 2 0 
 # max = 395
2500766		 # 	collision with: 5 2 0 0  and 3 4 1 0 
 # max = 395
2500825		 # 	collision with: 4 4 0 0  and 3 5 0 0 
 # max = 395
2500827		 # 	collision with: 0 0 0 0  and 4 2 0 0 
 # max = 395
2500841		 # 	collision with: 6 6 0 0  and 4 3 2 0 
 # max = 395
2500843		 # 	collision with: 3 0 0 0  and 3 2 0 0 
 # max = 395
2500849		 # 	collision with: 4 0 1 0  and 4 2 1 0 
 # max = 395
2500859		 # 	collision with: 0 2 1 0  and 5 1 2 0 
 # max = 395
2500879		 # 	collision with: 3 0 1 0  and 3 2 1 0 
 # max = 395
2500897		 # 	collision with: 3 0 1 0  and 4 4 2 0 
 # max = 395
2500899		 # 	collision with: 3 0 0 0  and 3 2 0 0 
 # max = 395
2500913		 # 	collision with: 4 0 0 0  and 4 2 0 0 
 # max = 395
2500929		 # 	collision with: 3 5 0 0  and 4 5 0 0 
 # max = 395
2500931		 # 	collision with: 1 4 0 0  and 3 4 1 0 
 # max = 395
2500960		 # 	collision with: 1 5 0 0  and 2 2 1 0 
 # max = 395
2500962		 # 	collision with: 5 4 0 0  and 3 2 2 0 
 # max = 395
2501021		 # 	collision with: 3 4 0 0  and 6 1 1 0 
 # max = 395
2501023		 # 	collision with: 1 4 0 0  and 3 4 0 0 
 # max = 395
2501037		 # 	collision with: 2 0 0 0  and 2 1 0 0 
 # max = 395
2501039		 # 	collision with: 3 6 1 0  and 1 1 2 0 
 # max = 395
2501045		 # 	collision with: 6 5 0 0  and 2 2 1 0 
 # max = 395
2501047		 # 	collision with: 2 2 0 0  and 6 4 1 0 
 # max = 395
2501053		 # 	collision with: 0 2 1 0  and 5 4 1 0 
 # max = 395
2501055		 # 	collision with: 1 3 1 0  and 0 1 2 0 
 # max = 395
2501073		 # 	collision with: 1 0 2 0  and 3 1 2 0 
 # max = 395
2501075		 # 	collision with: 5 3 0 0  and 3 6 1 0 
 # max = 395
2501093		 # 	collision with: 2 0 0 0  and 2 1 0 0 
 # max = 395
2501095		 # 	collision with: 6 6 2 0  and 6 1 3 0 
 # max = 395
2501109		 # 	collision with: 3 2 0 0  and 5 3 1 0 
 # max = 395
2501111		 # 	collision with: 5 3 0 0  and 1 1 1 0 
 # max = 395
2501125		 # 	collision with: 2 3 0 0  and 5 5 0 0 
 # max = 395
2501127		 # 	collision with: 4 4 0 0  and 0 4 1 0 
 # max = 395
2501169		 # 	collision with: 4 5 0 0  and 2 2 2 0 
 # max = 395
2501171		 # 	collision with: 5 4 0 0  and 0 0 2 0 
 # max = 395
2501173		 # 	collision with: 2 6 1 0  and 3 0 2 0 
 # max = 395
2501175		 # 	collision with: 2 1 0 0  and 4 5 1 0 
 # max = 395
2501185		 # 	collision with: 3 5 0 0  and 4 5 0 0 
 # max = 395
2501187		 # 	collision with: 6 5 0 0  and 0 4 2 0 
 # max = 395
2501188		 # 	collision with: 2 0 0 0  and 2 1 0 0 
 # max = 395
2501190		 # 	collision with: 0 0 0 0  and 4 0 0 0 
 # max = 395
2501192		 # 	collision with: 2 5 0 0  and 1 1 1 0 
 # max = 395
2501197		 # 	collision with: 6 1 0 0  and 6 2 1 0 
 # max = 395
2501199		 # 	collision with: 5 6 0 0  and 6 2 1 0 
 # max = 395
2501220		 # 	collision with: 3 0 0 0  and 6 1 1 0 
 # max = 395
2501222		 # 	collision with: 0 0 0 0  and 4 0 0 0 
 # max = 395
2501228		 # 	collision with: 6 1 0 0  and 6 2 0 0 
 # max = 395
2501252		 # 	collision with: 5 2 0 0  and 5 4 0 0 
 # max = 395
2501254		 # 	collision with: 0 0 0 0  and 4 0 0 0 
 # max = 395
2501264		 # 	collision with: 3 2 0 0  and 3 3 0 0 
 # max = 395
2501272		 # 	collision with: 2 0 0 0  and 2 1 0 0 
 # max = 395
2501284		 # 	collision with: 6 1 0 0  and 6 2 0 0 
 # max = 395
2501286		 # 	collision with: 0 0 0 0  and 4 0 0 0 
 # max = 395
2501308		 # 	collision with: 5 2 0 0  and 5 4 0 0 
 # max = 395
2501316		 # 	collision with: 4 0 0 0  and 4 2 0 0 
 # max = 395
2501318		 # 	collision with: 0 0 0 0  and 4 0 0 0 
 # max = 395
2501325		 # 	collision with: 3 5 0 0  and 4 5 0 0 
 # max = 395
2501327		 # 	collision with: 4 0 0 0  and 2 3 1 0 
 # max = 395
2501341		 # 	collision with: 1 3 1 0  and 2 3 1 0 
 # max = 395
2501343		 # 	collision with: 6 2 0 0  and 3 1 2 0 
 # max = 395
2501344		 # 	collision with: 4 0 0 0  and 4 2 0 0 
 # max = 395
2501348		 # 	collision with: 3 2 0 0  and 3 3 0 0 
 # max = 395
2501350		 # 	collision with: 0 0 0 0  and 4 0 0 0 
 # max = 395
2501352		 # 	collision with: 2 6 0 0  and 6 1 1 0 
 # max = 395
2501354		 # 	collision with: 0 0 1 0  and 1 3 2 0 
 # max = 395
2501365		 # 	collision with: 5 2 0 0  and 5 4 0 0 
 # max = 395
2501367		 # 	collision with: 5 6 1 0  and 4 0 2 0 
 # max = 395
2501371		 # 	collision with: 3 0 1 0  and 3 2 1 0 
 # max = 395
2501381		 # 	collision with: 6 2 0 0  and 1 4 0 0 
 # max = 395
2501383		 # 	collision with: 6 2 0 0  and 5 4 0 0 
 # max = 395
2501384		 # 	collision with: 0 4 0 0  and 3 3 1 0 
 # max = 395
2501386		 # 	collision with: 5 5 0 0  and 2 0 1 0 
 # max = 395
2501390		 # 	collision with: 5 6 1 0  and 4 0 2 0 
 # max = 395
2501393		 # 	collision with: 5 2 0 0  and 5 4 0 0 
 # max = 395
2501395		 # 	collision with: 1 3 0 0  and 4 0 1 0 
 # max = 395
2501416		 # 	collision with: 0 2 1 0  and 1 2 1 0 
 # max = 395
2501418		 # 	collision with: 2 1 2 0  and 4 1 2 0 
 # max = 395
2501424		 # 	collision with: 3 5 0 0  and 4 5 0 0 
 # max = 395
2501426		 # 	collision with: 6 2 0 0  and 4 0 2 0 
 # max = 395
2501448		 # 	collision with: 2 3 0 0  and 2 3 1 0 
 # max = 395
2501450		 # 	collision with: 3 4 0 0  and 4 5 1 0 
 # max = 395
2501460		 # 	collision with: 1 1 1 0  and 1 3 1 0 
 # max = 395
2501462		 # 	collision with: 2 5 0 0  and 2 0 1 0 
 # max = 395
2501468		 # 	collision with: 3 0 1 0  and 0 1 2 0 
 # max = 395
2501470		 # 	collision with: 5 2 0 0  and 5 2 1 0 
 # max = 395
2501480		 # 	collision with: 3 5 0 0  and 4 5 0 0 
 # max = 395
2501482		 # 	collision with: 5 6 1 0  and 5 6 2 0 
 # max = 395
2501504		 # 	collision with: 4 3 0 0  and 4 3 1 0 
 # max = 395
2501506		 # 	collision with: 2 4 0 0  and 3 5 1 0 
 # max = 395
2501512		 # 	collision with: 0 3 0 0  and 3 2 2 0 
 # max = 395
2501521		 # 	collision with: 6 2 0 0  and 1 4 0 0 
 # max = 395
2501537		 # 	collision with: 3 5 0 0  and 4 5 0 0 
 # max = 395
2501539		 # 	collision with: 3 0 1 0  and 3 2 1 0 
 # max = 395
2501540		 # 	collision with: 0 1 0 0  and 4 4 1 0 
 # max = 395
2501542		 # 	collision with: 1 3 0 0  and 6 2 1 0 
 # max = 395
2501546		 # 	collision with: 5 5 0 0  and 4 2 1 0 
 # max = 395
2501548		 # 	collision with: 6 6 0 0  and 4 0 1 0 
 # max = 395
2501550		 # 	collision with: 2 4 0 0  and 3 5 1 0 
 # max = 395
2501561		 # 	collision with: 2 2 0 0  and 5 3 0 0 
 # max = 395
2501563		 # 	collision with: 0 2 0 0  and 1 2 2 0 
 # max = 395
2501565		 # 	collision with: 2 0 1 0  and 2 1 1 0 
 # max = 395
2501577		 # 	collision with: 1 0 1 0  and 3 0 1 0 
 # max = 395
2501579		 # 	collision with: 2 2 0 0  and 5 6 2 0 
 # max = 395
2501580		 # 	collision with: 3 5 0 0  and 4 5 0 0 
 # max = 395
2501582		 # 	collision with: 3 1 0 0  and 4 6 1 0 
 # max = 395
2501584		 # 	collision with: 4 1 0 0  and 2 1 1 0 
 # max = 395
2501586		 # 	collision with: 0 2 1 0  and 1 2 1 0 
 # max = 395
2501589		 # 	collision with: 2 2 0 0  and 5 3 0 0 
 # max = 395
2501591		 # 	collision with: 3 0 1 0  and 5 2 1 0 
 # max = 395
2501612		 # 	collision with: 6 4 2 0  and 4 0 3 0 
 # max = 395
2501614		 # 	collision with: 4 2 0 0  and 2 5 1 0 
 # max = 395
2501622		 # 	collision with: 3 0 1 0  and 1 1 2 0 
 # max = 395
2501644		 # 	collision with: 0 4 0 0  and 3 2 1 0 
 # max = 395
2501656		 # 	collision with: 1 1 0 0  and 5 1 2 0 
 # max = 395
2501658		 # 	collision with: 5 4 1 0  and 3 1 2 0 
 # max = 395
2501664		 # 	collision with: 3 5 0 0  and 4 5 0 0 
 # max = 395
2501666		 # 	collision with: 2 1 1 0  and 4 1 1 0 
 # max = 395
2501676		 # 	collision with: 0 1 0 0  and 5 3 1 0 
 # max = 395
2501678		 # 	collision with: 3 3 0 0  and 3 6 1 0 
 # max = 395
2501700		 # 	collision with: 1 1 1 0  and 1 1 2 0 
 # max = 395
2501702		 # 	collision with: 1 3 0 0  and 1 3 1 0 
 # max = 395
2501710		 # 	collision with: 0 0 1 0  and 3 1 1 0 
 # max = 395
2501717		 # 	collision with: 0 6 0 0  and 2 2 1 0 
 # max = 395
2501719		 # 	collision with: 3 6 2 0  and 6 1 3 0 
 # max = 395
2501733		 # 	collision with: 2 0 1 0  and 2 1 1 0 
 # max = 395
2501735		 # 	collision with: 3 4 0 0  and 3 4 1 0 
 # max = 395
2501736		 # 	collision with: 4 6 0 0  and 5 0 1 0 
 # max = 395
2501738		 # 	collision with: 2 2 1 0  and 2 3 1 0 
 # max = 395
2501740		 # 	collision with: 2 2 0 0  and 2 6 1 0 
 # max = 395
2501742		 # 	collision with: 0 3 0 0  and 6 1 1 0 
 # max = 395
2501744		 # 	collision with: 2 0 1 0  and 4 1 2 0 
 # max = 395
2501746		 # 	collision with: 5 6 0 0  and 2 2 1 0 
 # max = 395
2501757		 # 	collision with: 4 6 0 0  and 5 0 1 0 
 # max = 395
2501759		 # 	collision with: 0 0 0 0  and 4 0 0 0 
 # max = 395
2501761		 # 	collision with: 4 4 0 0  and 5 3 1 0 
 # max = 395
2501763		 # 	collision with: 0 0 0 0  and 4 0 0 0 
 # max = 395
2501773		 # 	collision with: 1 1 0 0  and 1 3 0 0 
 # max = 395
2501775		 # 	collision with: 0 0 0 0  and 4 0 0 0 
 # max = 395
2501776		 # 	collision with: 4 5 0 0  and 0 6 1 0 
 # max = 395
2501780		 # 	collision with: 0 1 0 0  and 6 1 1 0 
 # max = 395
2501782		 # 	collision with: 0 0 0 0  and 4 6 1 0 
 # max = 395
2501787		 # 	collision with: 0 0 0 0  and 4 0 0 0 
 # max = 395
2501808		 # 	collision with: 6 5 1 0  and 2 1 2 0 
 # max = 395
2501810		 # 	collision with: 4 0 2 0  and 2 2 2 0 
 # max = 395
2501816		 # 	collision with: 2 0 1 0  and 2 1 1 0 
 # max = 395
2501818		 # 	collision with: 5 0 1 0  and 0 2 1 0 
 # max = 395
2501840		 # 	collision with: 3 1 0 0  and 0 2 1 0 
 # max = 395
2501842		 # 	collision with: 3 6 0 0  and 0 1 2 0 
 # max = 395
2501854		 # 	collision with: 0 6 1 0  and 2 6 1 0 
 # max = 395
2501860		 # 	collision with: 1 1 0 0  and 1 3 1 0 
 # max = 395
2501862		 # 	collision with: 3 1 0 0  and 1 3 1 0 
 # max = 395
2501874		 # 	collision with: 3 0 1 0  and 3 2 1 0 
 # max = 395
2501896		 # 	collision with: 3 1 0 0  and 0 2 1 0 
 # max = 395
2501898		 # 	collision with: 0 0 0 0  and 1 5 1 0 
 # max = 395
2501904		 # 	collision with: 3 5 0 0  and 4 5 0 0 
 # max = 395
2501906		 # 	collision with: 4 4 0 0  and 2 0 1 0 
 # max = 395
2501915		 # 	collision with: 0 0 0 0  and 4 0 0 0 
 # max = 395
2501929		 # 	collision with: 4 4 1 0  and 0 1 2 0 
 # max = 395
2501932		 # 	collision with: 3 5 0 0  and 4 5 0 0 
 # max = 395
2501934		 # 	collision with: 0 0 2 0  and 3 1 3 0 
 # max = 395
2501936		 # 	collision with: 3 5 0 0  and 3 5 1 0 
 # max = 395
2501938		 # 	collision with: 3 1 0 0  and 4 6 1 0 
 # max = 395
2501940		 # 	collision with: 4 5 0 0  and 2 2 1 0 
 # max = 395
2501942		 # 	collision with: 4 0 0 0  and 1 3 2 0 
 # max = 395
2501953		 # 	collision with: 1 0 1 0  and 6 2 2 0 
 # max = 395
2501955		 # 	collision with: 1 1 0 0  and 3 2 0 0 
 # max = 395
2501957		 # 	collision with: 6 1 0 0  and 6 2 0 0 
 # max = 395
2501959		 # 	collision with: 2 2 3 0  and 2 3 3 0 
 # max = 395
2501971		 # 	collision with: 5 1 1 0  and 3 2 1 0 
 # max = 395
2501972		 # 	collision with: 3 3 1 0  and 3 3 2 0 
 # max = 395
2501974		 # 	collision with: 2 3 0 0  and 4 0 1 0 
 # max = 395
2501976		 # 	collision with: 3 5 0 0  and 4 5 0 0 
 # max = 395
2501978		 # 	collision with: 0 1 0 0  and 6 1 1 0 
 # max = 395
2501981		 # 	collision with: 4 2 1 0  and 0 0 2 0 
 # max = 395
2502004		 # 	collision with: 3 5 0 0  and 4 5 0 0 
 # max = 395
2502006		 # 	collision with: 2 4 1 0  and 3 4 1 0 
 # max = 395
2502012		 # 	collision with: 0 2 1 0  and 1 2 1 0 
 # max = 395
2502014		 # 	collision with: 5 3 0 0  and 5 0 1 0 
 # max = 395
2502038		 # 	collision with: 6 3 1 0  and 6 4 1 0 
 # max = 395
2502048		 # 	collision with: 1 1 0 0  and 1 1 2 0 
 # max = 395
2502050		 # 	collision with: 1 5 0 0  and 1 5 1 0 
 # max = 395
2502058		 # 	collision with: 5 3 0 0  and 6 0 1 0 
 # max = 395
2502068		 # 	collision with: 5 5 0 0  and 1 1 1 0 
 # max = 395
2502070		 # 	collision with: 6 0 0 0  and 0 2 1 0 
 # max = 395
2502092		 # 	collision with: 4 0 1 0  and 4 2 1 0 
 # max = 395
2502094		 # 	collision with: 0 0 1 0  and 3 1 1 0 
 # max = 395
2502100		 # 	collision with: 2 1 1 0  and 4 1 1 0 
 # max = 395
2502102		 # 	collision with: 2 2 1 0  and 2 2 2 0 
 # max = 395
2502109		 # 	collision with: 6 1 0 0  and 3 0 1 0 
 # max = 395
2502111		 # 	collision with: 5 6 1 0  and 4 0 2 0 
 # max = 395
2502127		 # 	collision with: 6 5 0 0  and 2 3 1 0 
 # max = 395
2502128		 # 	collision with: 4 6 0 0  and 4 6 1 0 
 # max = 395
2502130		 # 	collision with: 0 1 0 0  and 3 3 1 0 
 # max = 395
2502132		 # 	collision with: 4 3 0 0  and 6 0 1 0 
 # max = 395
2502136		 # 	collision with: 6 2 0 0  and 0 1 1 0 
 # max = 395
2502138		 # 	collision with: 5 0 0 0  and 1 6 1 0 
 # max = 395
2502149		 # 	collision with: 4 4 0 0  and 3 5 0 0 
 # max = 395
2502153		 # 	collision with: 6 5 0 0  and 2 1 1 0 
 # max = 395
2502155		 # 	collision with: 3 5 0 0  and 4 1 1 0 
 # max = 395
2502165		 # 	collision with: 4 1 0 0  and 6 5 1 0 
 # max = 395
2502167		 # 	collision with: 0 2 1 0  and 1 2 1 0 
 # max = 395
2502168		 # 	collision with: 2 1 0 0  and 2 0 1 0 
 # max = 395
2502170		 # 	collision with: 2 2 0 0  and 6 2 1 0 
 # max = 395
2502172		 # 	collision with: 6 1 1 0  and 5 3 1 0 
 # max = 395
2502174		 # 	collision with: 3 0 1 0  and 5 1 1 0 
 # max = 395
2502177		 # 	collision with: 4 4 0 0  and 3 5 0 0 
 # max = 395
2502179		 # 	collision with: 3 3 0 0  and 0 3 1 0 
 # max = 395
2502202		 # 	collision with: 3 1 1 0  and 2 2 1 0 
 # max = 395
2502208		 # 	collision with: 0 1 0 0  and 3 0 1 0 
 # max = 395
2502210		 # 	collision with: 1 5 0 0  and 1 3 1 0 
 # max = 395
2502232		 # 	collision with: 3 4 0 0  and 3 1 1 0 
 # max = 395
2502234		 # 	collision with: 4 3 1 0  and 0 5 2 0 
 # max = 395
2502244		 # 	collision with: 3 5 0 0  and 4 5 0 0 
 # max = 395
2502246		 # 	collision with: 1 1 0 0  and 3 0 1 0 
 # max = 395
2502252		 # 	collision with: 1 2 0 0  and 0 2 1 0 
 # max = 395
2502254		 # 	collision with: 4 6 0 0  and 2 3 1 0 
 # max = 395
2502264		 # 	collision with: 3 5 0 0  and 5 3 1 0 
 # max = 395
2502290		 # 	collision with: 4 6 2 0  and 0 0 3 0 
 # max = 395
2502296		 # 	collision with: 6 0 0 0  and 6 3 1 0 
 # max = 395
2502298		 # 	collision with: 6 6 0 0  and 6 6 1 0 
 # max = 395
2502305		 # 	collision with: 1 3 1 0  and 2 3 1 0 
 # max = 395
2502307		 # 	collision with: 4 6 0 0  and 0 4 2 0 
 # max = 395
2502321		 # 	collision with: 4 4 0 0  and 1 4 1 0 
 # max = 395
2502323		 # 	collision with: 5 4 0 0  and 2 3 2 0 
 # max = 395
2502324		 # 	collision with: 0 6 0 0  and 3 0 2 0 
 # max = 395
2502326		 # 	collision with: 5 0 0 0  and 5 3 1 0 
 # max = 395
2502328		 # 	collision with: 3 5 0 0  and 4 5 0 0 
 # max = 395
2502330		 # 	collision with: 2 0 0 0  and 4 4 1 0 
 # max = 395
2502332		 # 	collision with: 3 5 0 0  and 1 0 2 0 
 # max = 395
2502334		 # 	collision with: 1 4 0 0  and 4 2 1 0 
 # max = 395
2502347		 # 	collision with: 1 5 0 0  and 1 3 1 0 
 # max = 395
2502349		 # 	collision with: 2 6 0 0  and 5 3 1 0 
 # max = 395
2502351		 # 	collision with: 1 2 0 0  and 6 0 2 0 
 # max = 395
2502361		 # 	collision with: 2 3 0 0  and 5 5 0 0 
 # max = 395
2502366		 # 	collision with: 1 0 1 0  and 1 1 1 0 
 # max = 395
2502368		 # 	collision with: 1 0 1 0  and 3 0 1 0 
 # max = 395
2502370		 # 	collision with: 1 5 0 0  and 0 4 1 0 
 # max = 395
2502373		 # 	collision with: 3 5 0 0  and 4 5 0 0 
 # max = 395
2502375		 # 	collision with: 0 2 1 0  and 1 2 1 0 
 # max = 395
2502396		 # 	collision with: 4 1 0 0  and 4 1 1 0 
 # max = 395
2502404		 # 	collision with: 4 2 0 0  and 4 0 1 0 
 # max = 395
2502406		 # 	collision with: 5 2 0 0  and 3 0 1 0 
 # max = 395
2502428		 # 	collision with: 3 5 0 0  and 4 5 0 0 
 # max = 395
2502430		 # 	collision with: 0 3 0 0  and 3 3 1 0 
 # max = 395
2502440		 # 	collision with: 2 5 0 0  and 5 5 1 0 
 # max = 395
2502442		 # 	collision with: 5 5 1 0  and 2 0 2 0 
 # max = 395
2502448		 # 	collision with: 2 2 0 0  and 0 1 1 0 
 # max = 395
2502450		 # 	collision with: 2 2 0 0  and 4 0 1 0 
 # max = 395
2502460		 # 	collision with: 1 0 2 0  and 3 0 2 0 
 # max = 395
2502462		 # 	collision with: 2 1 1 0  and 4 1 1 0 
 # max = 395
2502484		 # 	collision with: 3 5 0 0  and 4 5 0 0 
 # max = 395
2502486		 # 	collision with: 2 2 1 0  and 4 0 2 0 
 # max = 395
2502492		 # 	collision with: 2 2 0 0  and 4 5 2 0 
 # max = 395
2502494		 # 	collision with: 1 5 0 0  and 3 1 1 0 
 # max = 395
2502501		 # 	collision with: 2 3 0 0  and 5 5 0 0 
 # max = 395
2502503		 # 	collision with: 1 0 2 0  and 1 1 2 0 
 # max = 395
2502517		 # 	collision with: 2 2 0 0  and 3 0 2 0 
 # max = 395
2502519		 # 	collision with: 1 5 0 0  and 2 2 2 0 
 # max = 395
2502522		 # 	collision with: 5 1 1 0  and 3 0 2 0 
 # max = 395
2502524		 # 	collision with: 6 0 0 0  and 4 6 1 0 
 # max = 395
2502526		 # 	collision with: 6 3 0 0  and 6 4 1 0 
 # max = 395
2502585		 # 	collision with: 3 5 0 0  and 4 5 0 0 
 # max = 395
2502587		 # 	collision with: 2 6 1 0  and 3 6 1 0 
 # max = 395
2502609		 # 	collision with: 1 2 0 0  and 4 4 1 0 
 # max = 395
2502625		 # 	collision with: 5 3 0 0  and 2 2 1 0 
 # max = 395
2502627		 # 	collision with: 2 3 0 0  and 2 2 1 0 
 # max = 395
2502637		 # 	collision with: 5 6 0 0  and 3 2 1 0 
 # max = 395
2502639		 # 	collision with: 4 0 1 0  and 5 1 1 0 
 # max = 395
2502645		 # 	collision with: 5 1 0 0  and 5 5 1 0 
 # max = 395
2502647		 # 	collision with: 1 3 0 0  and 3 3 0 0 
 # max = 395
2502657		 # 	collision with: 2 5 0 0  and 5 1 1 0 
 # max = 395
2502659		 # 	collision with: 5 3 0 0  and 6 4 0 0 
 # max = 395
2502669		 # 	collision with: 3 5 0 0  and 4 5 0 0 
 # max = 395
2502671		 # 	collision with: 4 1 0 0  and 6 4 1 0 
 # max = 395
2502673		 # 	collision with: 6 6 0 0  and 3 1 1 0 
 # max = 395
2502724		 # 	collision with: 2 6 0 0  and 6 0 1 0 
 # max = 395
2502726		 # 	collision with: 2 3 0 0  and 4 4 1 0 
 # max = 395
2502781		 # 	collision with: 2 2 0 0  and 4 0 1 0 
 # max = 395
2502783		 # 	collision with: 5 2 1 0  and 5 2 2 0 
 # max = 395
2502805		 # 	collision with: 5 2 0 0  and 5 4 0 0 
 # max = 395
2502807		 # 	collision with: 0 0 0 0  and 2 1 1 0 
 # max = 395
2502821		 # 	collision with: 3 2 0 0  and 1 3 1 0 
 # max = 395
2502823		 # 	collision with: 1 3 0 0  and 3 3 0 0 
 # max = 395
2502835		 # 	collision with: 1 0 2 0  and 1 1 2 0 
 # max = 395
2502841		 # 	collision with: 2 2 0 0  and 4 0 2 0 
 # max = 395
2502843		 # 	collision with: 3 3 0 0  and 3 6 1 0 
 # max = 395
2502865		 # 	collision with: 5 4 0 0  and 3 0 1 0 
 # max = 395
2502869		 # 	collision with: 5 2 0 0  and 3 0 1 0 
 # max = 395
2502871		 # 	collision with: 2 1 0 0  and 6 1 1 0 
 # max = 395
13.355secs	395 9832
