# prime 7
# degree 2
# input variables 3
# output variables 5
# reload computed balance functions from file balance-210of320-p7d2m3-debug.log
# p = 7
# n = 5
# smalldomain p^m 343
# domain p^n 16807
#	 p^2 = 49
#	 p^3 = 343
#	 p^4 = 2401
#	 p^5 = 16807
#	 p^6 = 117649
#	 p^7 = 823543
#	 p^8 = 5764801
#	 p^9 = 40353607
opening file : balance-210of320-p7d2m3-debug.log
reloading for step2...
2163029		 # 	collision with: 5 1 0 0 0  and 2 3 0 0 0 
 # max = 23
2163031		 # 	collision with: 2 5 1 0 0  and 3 5 1 0 0 
 # max = 87
2163056		 # 	collision with: 4 1 3 0 0  and 1 0 0 1 0 
 # max = 344
2163058		 # 	collision with: 5 6 4 0 0  and 6 6 1 1 0 
 # max = 440
2163069		 # 	collision with: 4 2 1 0 0  and 3 1 2 0 0 
 # max = 440
2163071		 # 	collision with: 2 5 1 0 0  and 3 1 2 0 0 
 # max = 440
2163073		 # 	collision with: 3 0 4 0 0  and 3 1 4 0 0 
 # max = 440
2163075		 # 	collision with: 1 2 1 0 0  and 4 4 1 0 0 
 # max = 440
2163085		 # 	collision with: 2 1 0 0 0  and 2 2 0 0 0 
 # max = 440
2163087		 # 	collision with: 1 1 0 0 0  and 1 2 0 0 0 
 # max = 440
2163153		 # 	collision with: 3 0 1 0 0  and 3 0 2 0 0 
 # max = 440
2163155		 # 	collision with: 5 0 1 0 0  and 5 0 2 0 0 
 # max = 440
2163185		 # 	collision with: 4 0 1 0 0  and 4 0 2 0 0 
 # max = 440
2163227		 # 	collision with: 1 1 0 0 0  and 1 2 0 0 0 
 # max = 440
2163245		 # 	collision with: 1 2 1 0 0  and 6 3 1 0 0 
 # max = 440
2163247		 # 	collision with: 6 0 1 0 0  and 6 0 2 0 0 
 # max = 440
2163252		 # 	collision with: 0 3 2 0 0  and 5 2 1 1 0 
 # max = 440
2163254		 # 	collision with: 6 2 3 0 0  and 4 1 2 1 0 
 # max = 452
2163267		 # 	collision with: 5 0 0 0 0  and 5 2 0 0 0 
 # max = 452
2163269		 # 	collision with: 3 0 0 0 0  and 4 2 0 0 0 
 # max = 452
2163281		 # 	collision with: 6 0 1 0 0  and 6 2 1 0 0 
 # max = 452
2163289		 # 	collision with: 2 1 0 0 0  and 2 2 2 0 0 
 # max = 452
2163291		 # 	collision with: 4 0 0 0 0  and 1 2 0 0 0 
 # max = 452
2163349		 # 	collision with: 3 3 0 0 0  and 4 3 0 0 0 
 # max = 452
2163351		 # 	collision with: 5 0 0 0 0  and 5 2 0 0 0 
 # max = 452
2163381		 # 	collision with: 3 0 0 0 0  and 4 2 0 0 0 
 # max = 452
2163383		 # 	collision with: 6 2 0 0 0  and 6 2 2 0 0 
 # max = 452
2163421		 # 	collision with: 6 0 1 0 0  and 6 2 1 0 0 
 # max = 452
2163423		 # 	collision with: 5 0 1 0 0  and 5 2 1 0 0 
 # max = 452
2163441		 # 	collision with: 5 3 0 0 0  and 2 3 2 0 0 
 # max = 452
2163443		 # 	collision with: 2 5 0 0 0  and 3 5 0 0 0 
 # max = 452
2163448		 # 	collision with: 4 1 2 0 0  and 2 0 0 1 0 
 # max = 452
2163450		 # 	collision with: 2 4 2 0 0  and 4 4 0 1 0 
 # max = 452
2163461		 # 	collision with: 3 0 0 0 0  and 3 1 0 0 0 
 # max = 452
2163463		 # 	collision with: 3 3 0 0 0  and 2 2 1 0 0 
 # max = 452
2163465		 # 	collision with: 4 4 0 0 0  and 3 0 1 0 0 
 # max = 452
2163467		 # 	collision with: 4 4 0 0 0  and 4 0 1 0 0 
 # max = 452
2163477		 # 	collision with: 1 4 0 0 0  and 1 1 1 0 0 
 # max = 452
2163479		 # 	collision with: 4 0 0 0 0  and 1 1 0 0 0 
 # max = 452
2163485		 # 	collision with: 4 4 0 0 0  and 3 0 1 0 0 
 # max = 452
2163487		 # 	collision with: 2 5 0 0 0  and 3 5 0 0 0 
 # max = 452
2163545		 # 	collision with: 3 0 0 0 0  and 3 1 0 0 0 
 # max = 452
2163547		 # 	collision with: 4 4 0 0 0  and 4 0 1 0 0 
 # max = 452
2163577		 # 	collision with: 5 4 0 0 0  and 5 4 1 0 0 
 # max = 452
2163579		 # 	collision with: 3 4 0 0 0  and 3 4 1 0 0 
 # max = 452
2163617		 # 	collision with: 2 0 1 0 0  and 5 1 1 0 0 
 # max = 452
2163619		 # 	collision with: 4 0 0 0 0  and 1 1 0 0 0 
 # max = 452
2163637		 # 	collision with: 3 3 0 0 0  and 4 3 0 0 0 
 # max = 452
2163639		 # 	collision with: 5 4 0 0 0  and 0 0 1 0 0 
 # max = 452
2163684		 # 	collision with: 2 0 0 0 0  and 5 1 0 0 0 
 # max = 452
2163686		 # 	collision with: 2 0 0 0 0  and 3 0 0 0 0 
 # max = 452
2163696		 # 	collision with: 5 1 0 0 0  and 5 3 0 0 0 
 # max = 452
2163698		 # 	collision with: 2 0 0 0 0  and 3 0 0 0 0 
 # max = 452
2163705		 # 	collision with: 4 2 1 0 0  and 4 4 1 0 0 
 # max = 452
2163707		 # 	collision with: 0 3 0 0 0  and 5 4 0 0 0 
 # max = 452
2163713		 # 	collision with: 5 1 1 0 0  and 5 3 1 0 0 
 # max = 452
2163715		 # 	collision with: 4 3 0 0 0  and 1 4 0 0 0 
 # max = 452
2163720		 # 	collision with: 3 0 0 0 0  and 3 1 0 0 0 
 # max = 452
2163722		 # 	collision with: 2 0 0 0 0  and 3 0 0 0 0 
 # max = 452
2163724		 # 	collision with: 5 1 0 0 0  and 5 3 0 0 0 
 # max = 452
2163726		 # 	collision with: 2 0 0 0 0  and 3 0 0 0 0 
 # max = 452
2163736		 # 	collision with: 2 1 0 0 0  and 2 2 0 0 0 
 # max = 452
2163738		 # 	collision with: 2 0 0 0 0  and 3 0 0 0 0 
 # max = 452
2163743		 # 	collision with: 4 3 0 0 0  and 1 4 0 0 0 
 # max = 452
2163744		 # 	collision with: 5 1 0 0 0  and 2 3 0 0 0 
 # max = 452
2163746		 # 	collision with: 2 0 0 0 0  and 3 0 0 0 0 
 # max = 452
2163768		 # 	collision with: 2 0 0 0 0  and 5 1 0 0 0 
 # max = 452
2163770		 # 	collision with: 2 0 0 0 0  and 3 0 0 0 0 
 # max = 452
2163775		 # 	collision with: 6 3 0 0 0  and 6 4 0 0 0 
 # max = 452
2163776		 # 	collision with: 3 0 0 0 0  and 3 1 0 0 0 
 # max = 452
2163778		 # 	collision with: 2 0 0 0 0  and 3 0 0 0 0 
 # max = 452
2163788		 # 	collision with: 6 0 0 0 0  and 6 2 0 0 0 
 # max = 452
2163790		 # 	collision with: 2 0 0 0 0  and 3 0 0 0 0 
 # max = 452
2163792		 # 	collision with: 2 1 0 0 0  and 2 2 0 0 0 
 # max = 452
2163794		 # 	collision with: 2 0 0 0 0  and 3 0 0 0 0 
 # max = 452
2163801		 # 	collision with: 6 0 3 0 0  and 6 2 3 0 0 
 # max = 452
2163803		 # 	collision with: 6 3 0 0 0  and 6 4 0 0 0 
 # max = 452
2163809		 # 	collision with: 3 3 2 0 0  and 4 3 2 0 0 
 # max = 452
2163811		 # 	collision with: 3 3 0 0 0  and 2 4 0 0 0 
 # max = 452
2163816		 # 	collision with: 6 0 0 0 0  and 6 2 0 0 0 
 # max = 452
2163818		 # 	collision with: 2 0 0 0 0  and 3 0 0 0 0 
 # max = 452
2163828		 # 	collision with: 5 1 0 0 0  and 2 3 0 0 0 
 # max = 452
2163830		 # 	collision with: 2 0 0 0 0  and 3 0 0 0 0 
 # max = 452
2163840		 # 	collision with: 5 4 6 0 0  and 4 5 0 1 0 
 # max = 452
2163842		 # 	collision with: 4 5 6 0 0  and 2 5 0 1 0 
 # max = 452
2163880		 # 	collision with: 6 0 2 0 0  and 6 2 2 0 0 
 # max = 452
2163882		 # 	collision with: 2 0 2 0 0  and 2 1 2 0 0 
 # max = 452
2163892		 # 	collision with: 1 2 1 0 0  and 1 3 1 0 0 
 # max = 452
2163894		 # 	collision with: 0 1 1 0 0  and 5 3 1 0 0 
 # max = 452
2163909		 # 	collision with: 4 2 0 0 0  and 4 4 0 0 0 
 # max = 452
2163911		 # 	collision with: 1 1 1 0 0  and 1 2 1 0 0 
 # max = 452
2163916		 # 	collision with: 6 0 4 0 0  and 6 2 4 0 0 
 # max = 452
2163918		 # 	collision with: 2 0 3 0 0  and 3 0 3 0 0 
 # max = 452
2163920		 # 	collision with: 1 2 1 0 0  and 1 3 1 0 0 
 # max = 452
2163922		 # 	collision with: 3 1 1 0 0  and 2 2 1 0 0 
 # max = 452
2163934		 # 	collision with: 2 0 2 0 0  and 3 0 2 0 0 
 # max = 452
2163937		 # 	collision with: 4 2 0 0 0  and 4 4 0 0 0 
 # max = 452
2163939		 # 	collision with: 1 1 1 0 0  and 1 2 1 0 0 
 # max = 452
2163940		 # 	collision with: 3 3 5 0 0  and 4 3 5 0 0 
 # max = 452
2163942		 # 	collision with: 2 0 2 0 0  and 3 0 2 0 0 
 # max = 452
2163966		 # 	collision with: 2 0 2 0 0  and 2 1 2 0 0 
 # max = 452
2163969		 # 	collision with: 3 3 2 0 0  and 4 3 2 0 0 
 # max = 452
2163971		 # 	collision with: 3 2 0 0 0  and 3 4 0 0 0 
 # max = 452
2163972		 # 	collision with: 3 3 3 0 0  and 4 3 3 0 0 
 # max = 452
2163974		 # 	collision with: 3 3 4 0 0  and 2 4 4 0 0 
 # max = 452
2163984		 # 	collision with: 3 3 2 0 0  and 4 3 2 0 0 
 # max = 452
2163988		 # 	collision with: 3 3 0 0 0  and 4 3 0 0 0 
 # max = 452
2163990		 # 	collision with: 5 0 3 0 0  and 5 2 3 0 0 
 # max = 452
2163999		 # 	collision with: 3 2 0 0 0  and 3 4 0 0 0 
 # max = 452
2164005		 # 	collision with: 6 2 2 0 0  and 6 2 4 0 0 
 # max = 452
2164007		 # 	collision with: 0 2 0 0 0  and 5 4 0 0 0 
 # max = 452
2164012		 # 	collision with: 3 3 4 0 0  and 4 3 4 0 0 
 # max = 452
2164024		 # 	collision with: 1 2 5 0 0  and 6 3 5 0 0 
 # max = 452
2164026		 # 	collision with: 2 0 1 0 0  and 3 0 1 0 0 
 # max = 452
2164036		 # 	collision with: 2 3 3 0 0  and 0 2 0 1 0 
 # max = 452
2164038		 # 	collision with: 4 0 4 0 0  and 6 4 1 1 0 
 # max = 452
2164076		 # 	collision with: 3 3 3 0 0  and 4 3 3 0 0 
 # max = 452
2164078		 # 	collision with: 0 0 4 0 0  and 5 2 4 0 0 
 # max = 452
2164090		 # 	collision with: 3 1 2 0 0  and 2 2 2 0 0 
 # max = 452
2164097		 # 	collision with: 3 3 1 0 0  and 4 3 1 0 0 
 # max = 452
2164099		 # 	collision with: 2 0 0 0 0  and 3 0 0 0 0 
 # max = 452
2164105		 # 	collision with: 4 0 2 0 0  and 4 0 3 0 0 
 # max = 452
2164107		 # 	collision with: 2 0 0 0 0  and 3 0 0 0 0 
 # max = 452
2164112		 # 	collision with: 2 1 1 0 0  and 2 2 1 0 0 
 # max = 452
2164114		 # 	collision with: 0 2 1 0 0  and 5 4 1 0 0 
 # max = 452
2164116		 # 	collision with: 2 0 2 0 0  and 5 1 2 0 0 
 # max = 452
2164118		 # 	collision with: 3 0 2 0 0  and 2 1 2 0 0 
 # max = 452
2164128		 # 	collision with: 3 3 2 0 0  and 4 3 2 0 0 
 # max = 452
2164133		 # 	collision with: 3 3 1 0 0  and 4 3 1 0 0 
 # max = 452
2164135		 # 	collision with: 2 0 0 0 0  and 3 0 0 0 0 
 # max = 452
2164136		 # 	collision with: 3 3 0 0 0  and 4 3 0 0 0 
 # max = 452
2164138		 # 	collision with: 2 3 3 0 0  and 3 4 3 0 0 
 # max = 452
2164160		 # 	collision with: 1 2 4 0 0  and 1 3 4 0 0 
 # max = 452
2164162		 # 	collision with: 2 0 3 0 0  and 3 0 3 0 0 
 # max = 452
2164165		 # 	collision with: 3 3 0 0 0  and 4 3 0 0 0 
 # max = 452
2164167		 # 	collision with: 2 0 0 0 0  and 3 0 0 0 0 
 # max = 452
2164168		 # 	collision with: 2 1 1 0 0  and 2 2 1 0 0 
 # max = 452
2164170		 # 	collision with: 0 0 1 0 0  and 5 2 1 0 0 
 # max = 452
2164180		 # 	collision with: 3 0 5 0 0  and 3 1 5 0 0 
 # max = 452
2164182		 # 	collision with: 2 0 1 0 0  and 3 0 1 0 0 
 # max = 452
2164184		 # 	collision with: 3 3 4 0 0  and 4 3 4 0 0 
 # max = 452
2164193		 # 	collision with: 3 3 0 0 0  and 4 3 0 0 0 
 # max = 452
2164195		 # 	collision with: 2 0 0 0 0  and 3 0 0 0 0 
 # max = 452
2164201		 # 	collision with: 3 0 2 0 0  and 3 0 3 0 0 
 # max = 452
2164203		 # 	collision with: 2 0 0 0 0  and 3 0 0 0 0 
 # max = 452
2164208		 # 	collision with: 3 0 5 0 0  and 3 1 5 0 0 
 # max = 452
2164210		 # 	collision with: 2 0 2 0 0  and 3 0 2 0 0 
 # max = 452
2164222		 # 	collision with: 2 0 2 0 0  and 3 0 2 0 0 
 # max = 452
2164232		 # 	collision with: 0 2 2 0 0  and 1 6 0 1 0 
 # max = 452
2164234		 # 	collision with: 0 6 5 0 0  and 3 5 3 1 0 
 # max = 528
2164272		 # 	collision with: 3 3 2 0 0  and 4 3 2 0 0 
 # max = 528
2164284		 # 	collision with: 3 3 0 0 0  and 4 3 0 0 0 
 # max = 528
2164286		 # 	collision with: 2 0 3 0 0  and 2 1 3 0 0 
 # max = 528
2164293		 # 	collision with: 3 1 1 0 0  and 4 2 1 0 0 
 # max = 528
2164295		 # 	collision with: 2 0 3 0 0  and 3 0 3 0 0 
 # max = 528
2164301		 # 	collision with: 3 3 1 0 0  and 4 3 1 0 0 
 # max = 528
2164308		 # 	collision with: 5 1 5 0 0  and 2 3 5 0 0 
 # max = 528
2164310		 # 	collision with: 2 0 2 0 0  and 3 0 2 0 0 
 # max = 528
2164314		 # 	collision with: 2 0 2 0 0  and 3 0 2 0 0 
 # max = 528
2164324		 # 	collision with: 3 0 2 0 0  and 3 1 2 0 0 
 # max = 528
2164326		 # 	collision with: 1 1 2 0 0  and 1 2 2 0 0 
 # max = 528
2164329		 # 	collision with: 3 3 1 0 0  and 3 3 3 0 0 
 # max = 528
2164332		 # 	collision with: 3 0 1 0 0  and 4 2 1 0 0 
 # max = 528
2164334		 # 	collision with: 2 3 1 0 0  and 3 4 1 0 0 
 # max = 528
2164356		 # 	collision with: 3 3 4 0 0  and 4 3 4 0 0 
 # max = 528
2164361		 # 	collision with: 6 3 1 0 0  and 1 2 3 0 0 
 # max = 528
2164363		 # 	collision with: 4 1 0 0 0  and 4 3 0 0 0 
 # max = 528
2164364		 # 	collision with: 2 0 5 0 0  and 5 1 5 0 0 
 # max = 528
2164366		 # 	collision with: 2 0 1 0 0  and 3 0 1 0 0 
 # max = 528
2164376		 # 	collision with: 3 3 3 0 0  and 4 3 3 0 0 
 # max = 528
2164378		 # 	collision with: 0 2 4 0 0  and 5 4 4 0 0 
 # max = 528
2164382		 # 	collision with: 1 1 2 0 0  and 1 2 2 0 0 
 # max = 528
2164389		 # 	collision with: 5 1 1 0 0  and 5 3 3 0 0 
 # max = 528
2164391		 # 	collision with: 4 1 0 0 0  and 4 3 0 0 0 
 # max = 528
2164397		 # 	collision with: 5 1 0 0 0  and 2 3 0 0 0 
 # max = 528
2164399		 # 	collision with: 0 1 0 0 0  and 5 3 0 0 0 
 # max = 528
2164404		 # 	collision with: 5 1 4 0 0  and 5 3 4 0 0 
 # max = 528
2164406		 # 	collision with: 2 0 3 0 0  and 3 0 3 0 0 
 # max = 528
2164416		 # 	collision with: 3 3 1 0 0  and 4 3 1 0 0 
 # max = 528
2164418		 # 	collision with: 1 3 1 0 0  and 4 4 1 0 0 
 # max = 528
2164428		 # 	collision with: 4 6 5 0 0  and 1 5 0 1 0 
 # max = 528
2164430		 # 	collision with: 0 0 2 0 0  and 6 2 4 1 0 
 # max = 559
2164468		 # 	collision with: 5 1 1 0 0  and 2 3 1 0 0 
 # max = 559
2164470		 # 	collision with: 1 1 1 0 0  and 1 2 1 0 0 
 # max = 559
2164480		 # 	collision with: 3 0 4 0 0  and 3 1 4 0 0 
 # max = 559
2164482		 # 	collision with: 2 0 3 0 0  and 3 0 3 0 0 
 # max = 559
2164489		 # 	collision with: 3 3 0 0 0  and 4 3 0 0 0 
 # max = 559
2164491		 # 	collision with: 5 0 1 0 0  and 5 2 1 0 0 
 # max = 559
2164497		 # 	collision with: 3 0 1 0 0  and 3 1 2 0 0 
 # max = 559
2164499		 # 	collision with: 1 3 1 0 0  and 4 4 1 0 0 
 # max = 559
2164506		 # 	collision with: 5 0 2 0 0  and 5 2 2 0 0 
 # max = 559
2164508		 # 	collision with: 3 3 3 0 0  and 4 3 3 0 0 
 # max = 559
2164510		 # 	collision with: 5 0 4 0 0  and 5 2 4 0 0 
 # max = 559
2164520		 # 	collision with: 1 2 5 0 0  and 1 3 5 0 0 
 # max = 559
2164522		 # 	collision with: 2 0 1 0 0  and 3 0 1 0 0 
 # max = 559
2164525		 # 	collision with: 1 6 1 0 0  and 1 6 2 0 0 
 # max = 559
2164527		 # 	collision with: 2 3 1 0 0  and 3 4 1 0 0 
 # max = 559
2164528		 # 	collision with: 3 3 4 0 0  and 4 3 4 0 0 
 # max = 559
2164552		 # 	collision with: 5 1 1 0 0  and 5 3 1 0 0 
 # max = 559
2164554		 # 	collision with: 1 1 1 0 0  and 1 2 1 0 0 
 # max = 559
2164557		 # 	collision with: 2 1 1 0 0  and 2 1 2 0 0 
 # max = 559
2164560		 # 	collision with: 3 1 2 0 0  and 4 2 2 0 0 
 # max = 559
2164562		 # 	collision with: 5 0 2 0 0  and 5 2 2 0 0 
 # max = 559
2164574		 # 	collision with: 2 0 2 0 0  and 3 0 2 0 0 
 # max = 559
2164576		 # 	collision with: 1 2 5 0 0  and 1 3 5 0 0 
 # max = 559
2164578		 # 	collision with: 2 0 2 0 0  and 3 0 2 0 0 
 # max = 559
2164585		 # 	collision with: 3 3 1 0 0  and 4 3 1 0 0 
 # max = 559
2164593		 # 	collision with: 3 1 1 0 0  and 4 2 2 0 0 
 # max = 559
2164595		 # 	collision with: 3 1 0 0 0  and 2 2 0 0 0 
 # max = 559
2164600		 # 	collision with: 3 3 0 0 0  and 4 3 0 0 0 
 # max = 559
2164602		 # 	collision with: 1 1 3 0 0  and 1 2 3 0 0 
 # max = 559
2164612		 # 	collision with: 3 3 2 0 0  and 4 3 2 0 0 
 # max = 559
2164624		 # 	collision with: 0 5 6 0 0  and 2 3 2 1 0 
 # max = 559
2164626		 # 	collision with: 1 1 4 0 0  and 0 4 0 1 0 
 # max = 559
2164666		 # 	collision with: 2 0 2 0 0  and 3 0 2 0 0 
 # max = 559
2164676		 # 	collision with: 3 0 5 0 0  and 4 2 5 0 0 
 # max = 559
2164678		 # 	collision with: 2 0 2 0 0  and 3 0 2 0 0 
 # max = 559
2164685		 # 	collision with: 6 0 0 0 0  and 6 2 0 0 0 
 # max = 559
2164687		 # 	collision with: 2 0 2 0 0  and 3 0 2 0 0 
 # max = 559
2164693		 # 	collision with: 3 3 0 0 0  and 4 3 0 0 0 
 # max = 559
2164695		 # 	collision with: 0 2 1 0 0  and 5 4 1 0 0 
 # max = 559
2164700		 # 	collision with: 3 3 4 0 0  and 4 3 4 0 0 
 # max = 559
2164704		 # 	collision with: 6 0 5 0 0  and 6 2 5 0 0 
 # max = 559
2164706		 # 	collision with: 2 0 1 0 0  and 3 0 1 0 0 
 # max = 559
2164716		 # 	collision with: 3 0 1 0 0  and 4 2 1 0 0 
 # max = 559
2164718		 # 	collision with: 3 2 1 0 0  and 2 3 1 0 0 
 # max = 559
2164721		 # 	collision with: 3 3 0 0 0  and 4 3 0 0 0 
 # max = 559
2164723		 # 	collision with: 2 2 0 0 0  and 3 1 2 0 0 
 # max = 559
2164724		 # 	collision with: 3 3 6 0 0  and 4 3 6 0 0 
 # max = 559
2164726		 # 	collision with: 2 0 3 0 0  and 3 0 3 0 0 
 # max = 559
2164748		 # 	collision with: 3 3 0 0 0  and 4 3 0 0 0 
 # max = 559
2164750		 # 	collision with: 3 2 3 0 0  and 2 3 3 0 0 
 # max = 559
2164753		 # 	collision with: 3 3 1 0 0  and 4 3 1 0 0 
 # max = 559
2164755		 # 	collision with: 5 0 0 0 0  and 5 2 0 0 0 
 # max = 559
2164756		 # 	collision with: 3 3 2 0 0  and 4 3 2 0 0 
 # max = 559
2164768		 # 	collision with: 2 1 2 0 0  and 2 2 2 0 0 
 # max = 559
2164770		 # 	collision with: 0 0 2 0 0  and 5 2 2 0 0 
 # max = 559
2164772		 # 	collision with: 6 0 1 0 0  and 6 2 1 0 0 
 # max = 559
2164774		 # 	collision with: 4 1 1 0 0  and 4 3 1 0 0 
 # max = 559
2164781		 # 	collision with: 3 5 0 0 0  and 3 5 2 0 0 
 # max = 559
2164783		 # 	collision with: 5 0 0 0 0  and 5 2 0 0 0 
 # max = 559
2164789		 # 	collision with: 3 3 1 0 0  and 4 3 1 0 0 
 # max = 559
2164791		 # 	collision with: 0 0 0 0 0  and 5 2 0 0 0 
 # max = 559
2164798		 # 	collision with: 3 0 2 0 0  and 2 1 2 0 0 
 # max = 559
2164808		 # 	collision with: 3 3 3 0 0  and 4 3 3 0 0 
 # max = 559
2164810		 # 	collision with: 1 3 4 0 0  and 4 4 4 0 0 
 # max = 559
2164820		 # 	collision with: 3 1 2 0 0  and 2 3 1 1 0 
 # max = 559
2164822		 # 	collision with: 2 3 1 0 0  and 1 2 0 1 0 
 # max = 559
2164860		 # 	collision with: 2 1 5 0 0  and 2 2 5 0 0 
 # max = 559
2164862		 # 	collision with: 2 0 1 0 0  and 3 0 1 0 0 
 # max = 559
2164872		 # 	collision with: 3 3 4 0 0  and 4 3 4 0 0 
 # max = 559
2164881		 # 	collision with: 2 3 0 0 0  and 2 0 1 0 0 
 # max = 559
2164883		 # 	collision with: 0 5 0 0 0  and 5 0 1 0 0 
 # max = 559
2164891		 # 	collision with: 1 3 0 0 0  and 4 0 1 0 0 
 # max = 559
2164896		 # 	collision with: 3 3 0 0 0  and 4 3 0 0 0 
 # max = 559
2164898		 # 	collision with: 3 0 3 0 0  and 2 1 3 0 0 
 # max = 559
2164900		 # 	collision with: 3 3 2 0 0  and 4 3 2 0 0 
 # max = 559
2164912		 # 	collision with: 3 3 3 0 0  and 4 3 3 0 0 
 # max = 559
2164914		 # 	collision with: 2 0 4 0 0  and 2 1 4 0 0 
 # max = 559
2164917		 # 	collision with: 2 5 0 0 0  and 5 0 1 0 0 
 # max = 559
2164919		 # 	collision with: 2 0 1 0 0  and 3 0 1 0 0 
 # max = 559
2164922		 # 	collision with: 2 3 2 0 0  and 3 4 2 0 0 
 # max = 559
2164944		 # 	collision with: 2 1 5 0 0  and 2 2 5 0 0 
 # max = 559
2164946		 # 	collision with: 2 0 2 0 0  and 3 0 2 0 0 
 # max = 559
2164949		 # 	collision with: 2 3 0 0 0  and 2 0 1 0 0 
 # max = 559
2164951		 # 	collision with: 2 0 0 0 0  and 2 1 0 0 0 
 # max = 559
2164954		 # 	collision with: 2 0 2 0 0  and 3 0 2 0 0 
 # max = 559
2164964		 # 	collision with: 3 3 1 0 0  and 4 3 1 0 0 
 # max = 559
2164966		 # 	collision with: 5 0 1 0 0  and 5 2 1 0 0 
 # max = 559
2164968		 # 	collision with: 2 0 4 0 0  and 5 1 4 0 0 
 # max = 559
2164970		 # 	collision with: 2 0 3 0 0  and 3 0 3 0 0 
 # max = 559
2164977		 # 	collision with: 2 5 0 0 0  and 5 0 1 0 0 
 # max = 559
2164979		 # 	collision with: 2 0 0 0 0  and 2 1 0 0 0 
 # max = 559
2164992		 # 	collision with: 3 1 1 0 0  and 4 2 1 0 0 
 # max = 559
2164994		 # 	collision with: 3 1 1 0 0  and 2 2 1 0 0 
 # max = 559
2165004		 # 	collision with: 3 0 2 0 0  and 4 2 2 0 0 
 # max = 559
2165006		 # 	collision with: 1 3 2 0 0  and 4 4 2 0 0 
 # max = 559
2165060		 # 	collision with: 2 1 0 0 0  and 2 2 0 0 0 
 # max = 559
2165064		 # 	collision with: 4 2 0 0 0  and 4 4 0 0 0 
 # max = 559
2165066		 # 	collision with: 5 0 0 0 0  and 5 2 0 0 0 
 # max = 559
2165073		 # 	collision with: 3 3 0 0 0  and 4 3 0 0 0 
 # max = 559
2165075		 # 	collision with: 2 2 1 0 0  and 3 2 1 0 0 
 # max = 559
2165076		 # 	collision with: 3 0 0 0 0  and 4 2 0 0 0 
 # max = 559
2165084		 # 	collision with: 3 1 0 0 0  and 4 2 0 0 0 
 # max = 559
2165086		 # 	collision with: 4 1 0 0 0  and 4 3 0 0 0 
 # max = 559
2165089		 # 	collision with: 3 3 1 0 0  and 4 3 1 0 0 
 # max = 559
2165091		 # 	collision with: 6 3 0 0 0  and 6 4 0 0 0 
 # max = 559
2165104		 # 	collision with: 3 0 0 0 0  and 4 2 0 0 0 
 # max = 559
2165106		 # 	collision with: 1 1 0 0 0  and 1 2 0 0 0 
 # max = 559
2165115		 # 	collision with: 2 2 1 0 0  and 3 2 1 0 0 
 # max = 559
2165120		 # 	collision with: 4 2 0 0 0  and 4 4 0 0 0 
 # max = 559
2165136		 # 	collision with: 1 2 0 0 0  and 1 3 0 0 0 
 # max = 559
2165147		 # 	collision with: 6 3 0 0 0  and 6 4 0 0 0 
 # max = 559
2165152		 # 	collision with: 2 3 0 0 0  and 2 0 1 0 0 
 # max = 559
2165154		 # 	collision with: 4 0 0 0 0  and 4 0 1 0 0 
 # max = 559
2165157		 # 	collision with: 3 3 0 0 0  and 4 3 0 0 0 
 # max = 559
2165159		 # 	collision with: 6 3 3 0 0  and 6 4 3 0 0 
 # max = 559
2165169		 # 	collision with: 3 3 1 0 0  and 4 3 1 0 0 
 # max = 559
2165171		 # 	collision with: 2 2 2 0 0  and 3 2 2 0 0 
 # max = 559
2165172		 # 	collision with: 2 1 0 0 0  and 2 2 0 0 0 
 # max = 559
2165174		 # 	collision with: 5 2 0 0 0  and 0 3 0 0 0 
 # max = 559
2165180		 # 	collision with: 2 0 0 0 0  and 2 0 1 0 0 
 # max = 559
2165192		 # 	collision with: 1 2 0 0 0  and 1 3 0 0 0 
 # max = 559
2165194		 # 	collision with: 3 2 0 0 0  and 3 4 0 0 0 
 # max = 559
2165196		 # 	collision with: 3 1 0 0 0  and 4 2 0 0 0 
 # max = 559
2165212		 # 	collision with: 4 0 0 0 0  and 0 3 0 1 0 
 # max = 559
2165214		 # 	collision with: 1 3 1 0 0  and 3 4 1 1 0 
 # max = 559
2165258		 # 	collision with: 5 0 5 0 0  and 0 2 5 0 0 
 # max = 559
2165260		 # 	collision with: 1 2 4 0 0  and 1 3 4 0 0 
 # max = 559
2165262		 # 	collision with: 2 2 3 0 0  and 3 2 3 0 0 
 # max = 559
2165269		 # 	collision with: 3 3 3 0 0  and 4 3 3 0 0 
 # max = 559
2165271		 # 	collision with: 2 1 2 0 0  and 2 0 4 0 0 
 # max = 559
2165272		 # 	collision with: 3 3 5 0 0  and 4 3 5 0 0 
 # max = 559
2165274		 # 	collision with: 2 2 2 0 0  and 3 2 2 0 0 
 # max = 559
2165280		 # 	collision with: 2 1 2 0 0  and 2 2 2 0 0 
 # max = 559
2165282		 # 	collision with: 2 2 0 0 0  and 3 2 0 0 0 
 # max = 559
2165285		 # 	collision with: 6 0 1 0 0  and 6 2 1 0 0 
 # max = 559
2165287		 # 	collision with: 2 2 0 0 0  and 3 2 0 0 0 
 # max = 559
2165300		 # 	collision with: 3 3 1 0 0  and 4 3 1 0 0 
 # max = 559
2165302		 # 	collision with: 5 0 6 0 0  and 0 2 6 0 0 
 # max = 559
2165309		 # 	collision with: 5 3 2 0 0  and 5 1 4 0 0 
 # max = 559
2165311		 # 	collision with: 2 2 3 0 0  and 3 2 3 0 0 
 # max = 559
2165316		 # 	collision with: 1 2 4 0 0  and 1 3 4 0 0 
 # max = 559
2165318		 # 	collision with: 2 2 1 0 0  and 3 2 1 0 0 
 # max = 559
2165332		 # 	collision with: 3 3 0 0 0  and 4 3 0 0 0 
 # max = 559
2165334		 # 	collision with: 2 0 3 0 0  and 2 1 3 0 0 
 # max = 559
2165341		 # 	collision with: 6 0 1 0 0  and 6 2 1 0 0 
 # max = 559
2165343		 # 	collision with: 2 2 0 0 0  and 3 2 0 0 0 
 # max = 559
2165348		 # 	collision with: 3 1 1 0 0  and 4 2 1 0 0 
 # max = 559
2165353		 # 	collision with: 2 0 2 0 0  and 2 3 4 0 0 
 # max = 559
2165355		 # 	collision with: 2 2 3 0 0  and 3 2 3 0 0 
 # max = 559
2165365		 # 	collision with: 3 1 1 0 0  and 4 2 1 0 0 
 # max = 559
2165368		 # 	collision with: 3 3 3 0 0  and 4 3 3 0 0 
 # max = 559
2165370		 # 	collision with: 2 2 1 0 0  and 3 2 1 0 0 
 # max = 559
2165376		 # 	collision with: 2 0 1 0 0  and 5 1 1 0 0 
 # max = 559
2165378		 # 	collision with: 5 2 1 0 0  and 0 3 1 0 0 
 # max = 559
2165390		 # 	collision with: 2 0 3 0 0  and 2 1 3 0 0 
 # max = 559
2165392		 # 	collision with: 2 0 2 0 0  and 5 1 2 0 0 
 # max = 559
2165394		 # 	collision with: 2 2 0 0 0  and 3 2 0 0 0 
 # max = 559
2165408		 # 	collision with: 6 2 0 0 0  and 2 0 0 1 0 
 # max = 559
2165410		 # 	collision with: 1 3 0 0 0  and 6 4 0 1 0 
 # max = 559
2165452		 # 	collision with: 3 3 0 0 0  and 4 3 0 0 0 
 # max = 559
2165454		 # 	collision with: 4 1 3 0 0  and 4 3 3 0 0 
 # max = 559
2165456		 # 	collision with: 2 0 1 0 0  and 5 1 1 0 0 
 # max = 559
2165465		 # 	collision with: 1 2 2 0 0  and 1 3 2 0 0 
 # max = 559
2165467		 # 	collision with: 2 2 0 0 0  and 3 2 0 0 0 
 # max = 559
2165470		 # 	collision with: 2 0 5 0 0  and 2 1 5 0 0 
 # max = 559
2165476		 # 	collision with: 2 0 4 0 0  and 5 1 4 0 0 
 # max = 559
2165478		 # 	collision with: 2 2 3 0 0  and 3 2 3 0 0 
 # max = 559
2165481		 # 	collision with: 3 3 0 0 0  and 4 3 0 0 0 
 # max = 559
2165483		 # 	collision with: 5 2 0 0 0  and 0 3 0 0 0 
 # max = 559
2165496		 # 	collision with: 3 3 3 0 0  and 4 3 3 0 0 
 # max = 559
2165498		 # 	collision with: 2 2 1 0 0  and 3 2 1 0 0 
 # max = 559
2165505		 # 	collision with: 1 2 0 0 0  and 6 3 0 0 0 
 # max = 559
2165507		 # 	collision with: 5 0 1 0 0  and 0 2 1 0 0 
 # max = 559
2165512		 # 	collision with: 5 1 1 0 0  and 5 3 1 0 0 
 # max = 559
2165514		 # 	collision with: 2 2 1 0 0  and 3 4 1 0 0 
 # max = 559
2165528		 # 	collision with: 3 3 5 0 0  and 4 3 5 0 0 
 # max = 559
2165530		 # 	collision with: 2 2 2 0 0  and 3 2 2 0 0 
 # max = 559
2165537		 # 	collision with: 3 3 0 0 0  and 4 3 0 0 0 
 # max = 559
2165539		 # 	collision with: 5 2 0 0 0  and 0 3 0 0 0 
 # max = 559
2165544		 # 	collision with: 3 3 2 0 0  and 4 3 2 0 0 
 # max = 559
2165546		 # 	collision with: 2 2 0 0 0  and 3 2 0 0 0 
 # max = 559
2165549		 # 	collision with: 3 3 1 0 0  and 4 3 1 0 0 
 # max = 559
2165561		 # 	collision with: 1 2 0 0 0  and 6 3 0 0 0 
 # max = 559
2165563		 # 	collision with: 1 3 2 0 0  and 1 0 3 0 0 
 # max = 559
2165566		 # 	collision with: 4 1 3 0 0  and 4 3 3 0 0 
 # max = 559
2165572		 # 	collision with: 3 0 2 0 0  and 4 2 2 0 0 
 # max = 559
2165574		 # 	collision with: 2 2 0 0 0  and 3 2 0 0 0 
 # max = 559
2165584		 # 	collision with: 3 3 1 0 0  and 4 3 1 0 0 
 # max = 559
2165586		 # 	collision with: 1 1 6 0 0  and 1 2 6 0 0 
 # max = 559
2165588		 # 	collision with: 5 1 4 0 0  and 2 3 4 0 0 
 # max = 559
2165590		 # 	collision with: 2 2 1 0 0  and 3 2 1 0 0 
 # max = 559
2165604		 # 	collision with: 1 4 2 0 0  and 3 2 2 1 0 
 # max = 559
2165606		 # 	collision with: 0 1 0 0 0  and 2 4 0 1 0 
 # max = 559
2165648		 # 	collision with: 6 0 1 0 0  and 6 2 1 0 0 
 # max = 559
2165650		 # 	collision with: 3 2 1 0 0  and 3 4 1 0 0 
 # max = 559
2165652		 # 	collision with: 3 3 3 0 0  and 4 3 3 0 0 
 # max = 559
2165654		 # 	collision with: 2 2 1 0 0  and 3 2 1 0 0 
 # max = 559
2165661		 # 	collision with: 3 3 2 0 0  and 4 3 2 0 0 
 # max = 559
2165663		 # 	collision with: 2 2 3 0 0  and 3 2 3 0 0 
 # max = 559
2165664		 # 	collision with: 3 0 4 0 0  and 3 1 4 0 0 
 # max = 559
2165666		 # 	collision with: 2 2 1 0 0  and 3 2 1 0 0 
 # max = 559
2165672		 # 	collision with: 3 3 1 0 0  and 4 3 1 0 0 
 # max = 559
2165674		 # 	collision with: 2 2 6 0 0  and 3 2 6 0 0 
 # max = 559
2165679		 # 	collision with: 4 3 1 0 0  and 4 3 3 0 0 
 # max = 559
2165692		 # 	collision with: 3 0 4 0 0  and 3 1 4 0 0 
 # max = 559
2165694		 # 	collision with: 2 2 3 0 0  and 3 2 3 0 0 
 # max = 559
2165701		 # 	collision with: 3 3 3 0 0  and 4 3 3 0 0 
 # max = 559
2165710		 # 	collision with: 2 2 5 0 0  and 3 2 5 0 0 
 # max = 559
2165724		 # 	collision with: 5 1 2 0 0  and 5 3 2 0 0 
 # max = 559
2165726		 # 	collision with: 2 2 0 0 0  and 3 2 0 0 0 
 # max = 559
2165733		 # 	collision with: 6 3 1 0 0  and 1 3 3 0 0 
 # max = 559
2165735		 # 	collision with: 1 1 2 0 0  and 4 2 2 0 0 
 # max = 559
2165742		 # 	collision with: 5 0 3 0 0  and 0 2 3 0 0 
 # max = 559
2165747		 # 	collision with: 2 2 4 0 0  and 3 2 4 0 0 
 # max = 559
2165757		 # 	collision with: 3 4 1 0 0  and 3 4 3 0 0 
 # max = 559
2165759		 # 	collision with: 2 2 0 0 0  and 3 2 0 0 0 
 # max = 559
2165760		 # 	collision with: 3 1 1 0 0  and 4 2 1 0 0 
 # max = 559
2165768		 # 	collision with: 3 3 0 0 0  and 4 3 0 0 0 
 # max = 559
2165770		 # 	collision with: 1 1 3 0 0  and 4 2 3 0 0 
 # max = 559
2165780		 # 	collision with: 5 1 2 0 0  and 2 3 2 0 0 
 # max = 559
2165782		 # 	collision with: 2 2 0 0 0  and 3 2 0 0 0 
 # max = 559
2165784		 # 	collision with: 3 3 5 0 0  and 4 3 5 0 0 
 # max = 559
2165786		 # 	collision with: 2 2 2 0 0  and 3 2 2 0 0 
 # max = 559
2165800		 # 	collision with: 3 2 0 0 0  and 1 1 0 1 0 
 # max = 559
2165802		 # 	collision with: 3 4 0 0 0  and 5 1 0 1 0 
 # max = 559
2165844		 # 	collision with: 3 3 5 0 0  and 4 3 5 0 0 
 # max = 559
2165846		 # 	collision with: 2 2 2 0 0  and 3 2 2 0 0 
 # max = 559
2165848		 # 	collision with: 3 0 2 0 0  and 4 2 2 0 0 
 # max = 559
2165850		 # 	collision with: 2 2 0 0 0  and 3 2 0 0 0 
 # max = 559
2165859		 # 	collision with: 1 1 1 0 0  and 1 2 1 0 0 
 # max = 559
2165860		 # 	collision with: 3 3 0 0 0  and 4 3 0 0 0 
 # max = 559
2165862		 # 	collision with: 3 2 3 0 0  and 3 4 3 0 0 
 # max = 559
2165868		 # 	collision with: 3 1 1 0 0  and 4 2 1 0 0 
 # max = 559
2165873		 # 	collision with: 2 1 0 0 0  and 2 2 0 0 0 
 # max = 559
2165875		 # 	collision with: 3 2 1 0 0  and 3 4 1 0 0 
 # max = 559
2165890		 # 	collision with: 3 2 3 0 0  and 3 4 3 0 0 
 # max = 559
2165897		 # 	collision with: 6 5 1 0 0  and 6 5 2 0 0 
 # max = 559
2165899		 # 	collision with: 2 2 2 0 0  and 3 2 2 0 0 
 # max = 559
2165904		 # 	collision with: 6 0 2 0 0  and 6 2 2 0 0 
 # max = 559
2165906		 # 	collision with: 2 2 0 0 0  and 3 2 0 0 0 
 # max = 559
2165922		 # 	collision with: 2 2 5 0 0  and 3 2 5 0 0 
 # max = 559
2165929		 # 	collision with: 2 1 0 0 0  and 2 2 0 0 0 
 # max = 559
2165936		 # 	collision with: 5 1 4 0 0  and 2 3 4 0 0 
 # max = 559
2165938		 # 	collision with: 2 2 3 0 0  and 3 2 3 0 0 
 # max = 559
2165941		 # 	collision with: 2 1 1 0 0  and 2 2 1 0 0 
 # max = 559
2165943		 # 	collision with: 1 1 1 0 0  and 1 2 1 0 0 
 # max = 559
2165955		 # 	collision with: 2 5 1 0 0  and 2 5 2 0 0 
 # max = 559
2165956		 # 	collision with: 3 3 1 0 0  and 4 3 1 0 0 
 # max = 559
2165958		 # 	collision with: 2 0 6 0 0  and 2 1 6 0 0 
 # max = 559
2165964		 # 	collision with: 3 3 4 0 0  and 4 3 4 0 0 
 # max = 559
2165966		 # 	collision with: 2 2 1 0 0  and 3 2 1 0 0 
 # max = 559
2165976		 # 	collision with: 3 3 3 0 0  and 4 3 3 0 0 
 # max = 559
2165978		 # 	collision with: 2 2 1 0 0  and 3 2 1 0 0 
 # max = 559
2165980		 # 	collision with: 3 0 1 0 0  and 4 2 1 0 0 
 # max = 559
2165982		 # 	collision with: 2 0 1 0 0  and 2 1 1 0 0 
 # max = 559
2165996		 # 	collision with: 5 0 0 0 0  and 1 2 0 1 0 
 # max = 559
2165998		 # 	collision with: 6 6 3 0 0  and 4 3 3 1 0 
 # max = 559
2166040		 # 	collision with: 3 3 4 0 0  and 4 3 4 0 0 
 # max = 559
2166042		 # 	collision with: 2 2 1 0 0  and 3 2 1 0 0 
 # max = 559
2166044		 # 	collision with: 3 3 1 0 0  and 4 3 1 0 0 
 # max = 559
2166046		 # 	collision with: 2 2 6 0 0  and 3 2 6 0 0 
 # max = 559
2166053		 # 	collision with: 3 3 1 0 0  and 4 3 1 0 0 
 # max = 559
2166056		 # 	collision with: 4 2 2 0 0  and 4 4 2 0 0 
 # max = 559
2166058		 # 	collision with: 2 2 0 0 0  and 3 2 0 0 0 
 # max = 559
2166066		 # 	collision with: 1 1 3 0 0  and 4 2 3 0 0 
 # max = 559
2166069		 # 	collision with: 1 2 1 0 0  and 6 3 1 0 0 
 # max = 559
2166071		 # 	collision with: 2 1 0 0 0  and 2 1 2 0 0 
 # max = 559
2166084		 # 	collision with: 3 3 2 0 0  and 4 3 2 0 0 
 # max = 559
2166086		 # 	collision with: 2 2 0 0 0  and 3 2 0 0 0 
 # max = 559
2166093		 # 	collision with: 3 0 0 0 0  and 4 2 0 0 0 
 # max = 559
2166095		 # 	collision with: 1 1 2 0 0  and 4 2 2 0 0 
 # max = 559
2166100		 # 	collision with: 3 3 5 0 0  and 4 3 5 0 0 
 # max = 559
2166102		 # 	collision with: 2 2 2 0 0  and 3 2 2 0 0 
 # max = 559
2166116		 # 	collision with: 3 0 1 0 0  and 3 1 1 0 0 
 # max = 559
2166118		 # 	collision with: 0 0 1 0 0  and 5 1 1 0 0 
 # max = 559
2166125		 # 	collision with: 3 3 1 0 0  and 4 3 1 0 0 
 # max = 559
2166127		 # 	collision with: 1 1 0 0 0  and 1 1 2 0 0 
 # max = 559
2166132		 # 	collision with: 3 3 3 0 0  and 4 3 3 0 0 
 # max = 559
2166134		 # 	collision with: 2 2 1 0 0  and 3 2 1 0 0 
 # max = 559
2166137		 # 	collision with: 5 1 0 0 0  and 2 0 2 0 0 
 # max = 559
2166139		 # 	collision with: 1 1 0 0 0  and 4 2 2 0 0 
 # max = 559
2166149		 # 	collision with: 3 0 0 0 0  and 4 2 0 0 0 
 # max = 559
2166151		 # 	collision with: 2 2 1 0 0  and 3 2 1 0 0 
 # max = 559
2166152		 # 	collision with: 4 2 4 0 0  and 4 4 4 0 0 
 # max = 559
2166154		 # 	collision with: 2 2 3 0 0  and 3 2 3 0 0 
 # max = 559
2166162		 # 	collision with: 2 2 5 0 0  and 3 2 5 0 0 
 # max = 559
2166172		 # 	collision with: 3 0 1 0 0  and 3 1 1 0 0 
 # max = 559
2166176		 # 	collision with: 3 3 0 0 0  and 4 3 0 0 0 
 # max = 559
2166178		 # 	collision with: 0 0 3 0 0  and 5 1 3 0 0 
 # max = 559
2166192		 # 	collision with: 3 2 2 0 0  and 2 1 2 1 0 
 # max = 559
2166194		 # 	collision with: 6 0 3 0 0  and 2 1 3 1 0 
 # max = 559
2166236		 # 	collision with: 3 0 2 0 0  and 3 1 2 0 0 
 # max = 559
2166238		 # 	collision with: 2 2 0 0 0  and 3 2 0 0 0 
 # max = 559
2166242		 # 	collision with: 1 1 3 0 0  and 1 2 3 0 0 
 # max = 559
2166249		 # 	collision with: 3 0 0 0 0  and 3 1 0 0 0 
 # max = 559
2166251		 # 	collision with: 2 0 0 0 0  and 2 1 0 0 0 
 # max = 559
2166252		 # 	collision with: 1 2 1 0 0  and 1 3 1 0 0 
 # max = 559
2166254		 # 	collision with: 4 1 1 0 0  and 4 3 1 0 0 
 # max = 559
2166260		 # 	collision with: 3 3 3 0 0  and 4 3 3 0 0 
 # max = 559
2166262		 # 	collision with: 2 2 1 0 0  and 3 2 1 0 0 
 # max = 559
2166265		 # 	collision with: 5 0 0 0 0  and 5 0 1 0 0 
 # max = 559
2166280		 # 	collision with: 3 1 1 0 0  and 4 2 1 0 0 
 # max = 559
2166289		 # 	collision with: 5 5 0 0 0  and 5 6 1 0 0 
 # max = 559
2166291		 # 	collision with: 0 0 0 0 0  and 5 1 0 0 0 
 # max = 559
2166296		 # 	collision with: 3 3 0 0 0  and 4 3 0 0 0 
 # max = 559
2166298		 # 	collision with: 5 0 3 0 0  and 0 2 3 0 0 
 # max = 559
2166312		 # 	collision with: 2 1 4 0 0  and 2 2 4 0 0 
 # max = 559
2166314		 # 	collision with: 2 2 1 0 0  and 3 2 1 0 0 
 # max = 559
2166321		 # 	collision with: 6 0 0 0 0  and 6 0 1 0 0 
 # max = 559
2166323		 # 	collision with: 5 1 0 0 0  and 0 0 1 0 0 
 # max = 559
2166328		 # 	collision with: 3 3 1 0 0  and 4 3 1 0 0 
 # max = 559
2166330		 # 	collision with: 2 2 6 0 0  and 3 2 6 0 0 
 # max = 559
2166333		 # 	collision with: 3 0 0 0 0  and 3 1 0 0 0 
 # max = 559
2166335		 # 	collision with: 2 0 0 0 0  and 2 1 0 0 0 
 # max = 559
2166345		 # 	collision with: 2 0 0 0 0  and 2 0 1 0 0 
 # max = 559
2166347		 # 	collision with: 0 0 0 0 0  and 5 1 0 0 0 
 # max = 559
2166348		 # 	collision with: 3 0 2 0 0  and 3 1 2 0 0 
 # max = 559
2166350		 # 	collision with: 2 2 0 0 0  and 3 2 0 0 0 
 # max = 559
2166356		 # 	collision with: 3 3 5 0 0  and 4 3 5 0 0 
 # max = 559
2166358		 # 	collision with: 2 2 2 0 0  and 3 2 2 0 0 
 # max = 559
2166368		 # 	collision with: 2 1 4 0 0  and 2 2 4 0 0 
 # max = 559
2166370		 # 	collision with: 2 2 3 0 0  and 3 2 3 0 0 
 # max = 559
2166374		 # 	collision with: 1 1 5 0 0  and 1 2 5 0 0 
 # max = 559
2166388		 # 	collision with: 3 3 0 0 0  and 4 3 0 0 0 
 # max = 559
2166389		 # 	collision with: 3 3 0 0 0  and 4 3 0 0 0 
 # max = 559
2166390		 # 	collision with: 3 2 0 0 0  and 2 4 0 0 0 
 # max = 559
2166391		 # 	collision with: 6 3 3 0 0  and 6 4 3 0 0 
 # max = 559
2166420		 # 	collision with: 3 1 0 0 0  and 4 2 0 0 0 
 # max = 559
2166421		 # 	collision with: 5 1 3 0 0  and 5 3 3 0 0 
 # max = 559
2166422		 # 	collision with: 5 1 0 0 0  and 0 3 0 0 0 
 # max = 559
2166423		 # 	collision with: 4 2 2 0 0  and 1 3 2 0 0 
 # max = 559
2166452		 # 	collision with: 3 0 0 0 0  and 3 1 0 0 0 
 # max = 559
2166453		 # 	collision with: 4 5 3 0 0  and 4 1 4 0 0 
 # max = 559
2166454		 # 	collision with: 4 2 0 0 0  and 1 3 0 0 0 
 # max = 559
2166455		 # 	collision with: 3 5 3 0 0  and 3 1 4 0 0 
 # max = 559
2166484		 # 	collision with: 5 1 0 0 0  and 5 3 0 0 0 
 # max = 559
2166485		 # 	collision with: 2 1 3 0 0  and 2 1 4 0 0 
 # max = 559
2166486		 # 	collision with: 2 0 0 0 0  and 2 1 0 0 0 
 # max = 559
2166487		 # 	collision with: 4 1 3 0 0  and 4 1 4 0 0 
 # max = 559
2166516		 # 	collision with: 2 0 0 0 0  and 5 1 0 0 0 
 # max = 559
2166517		 # 	collision with: 3 3 4 0 0  and 4 3 4 0 0 
 # max = 559
2166518		 # 	collision with: 6 3 0 0 0  and 6 4 0 0 0 
 # max = 559
2166519		 # 	collision with: 2 4 0 0 0  and 3 4 0 0 0 
 # max = 559
2166548		 # 	collision with: 6 0 0 0 0  and 6 2 0 0 0 
 # max = 559
2166549		 # 	collision with: 1 2 3 0 0  and 1 2 4 0 0 
 # max = 559
2166550		 # 	collision with: 1 1 0 0 0  and 1 2 0 0 0 
 # max = 559
2166551		 # 	collision with: 5 1 2 0 0  and 0 3 2 0 0 
 # max = 559
2166580		 # 	collision with: 2 1 0 0 0  and 2 2 0 0 0 
 # max = 559
2166581		 # 	collision with: 5 4 3 0 0  and 5 0 4 0 0 
 # max = 559
2166582		 # 	collision with: 5 1 0 0 0  and 0 2 0 0 0 
 # max = 559
2166583		 # 	collision with: 2 0 1 0 0  and 2 1 1 0 0 
 # max = 559
2166584		 # 	collision with: 5 3 1 0 0  and 4 0 0 1 0 
 # max = 559
2166585		 # 	collision with: 4 2 0 0 0  and 4 4 0 0 0 
 # max = 559
2166586		 # 	collision with: 4 4 1 0 0  and 2 0 0 1 0 
 # max = 559
2166587		 # 	collision with: 3 2 0 0 0  and 3 4 0 0 0 
 # max = 559
2166616		 # 	collision with: 3 3 3 0 0  and 4 3 3 0 0 
 # max = 559
2166617		 # 	collision with: 2 1 3 0 0  and 2 2 3 0 0 
 # max = 559
2166618		 # 	collision with: 2 4 2 0 0  and 3 4 2 0 0 
 # max = 559
2166619		 # 	collision with: 3 0 2 0 0  and 3 0 4 0 0 
 # max = 559
2166648		 # 	collision with: 3 3 0 0 0  and 4 3 0 0 0 
 # max = 559
2166649		 # 	collision with: 3 3 0 0 0  and 4 3 0 0 0 
 # max = 559
2166650		 # 	collision with: 1 1 3 0 0  and 1 2 3 0 0 
 # max = 559
2166651		 # 	collision with: 2 4 0 0 0  and 3 4 0 0 0 
 # max = 559
2166680		 # 	collision with: 4 2 2 0 0  and 4 4 2 0 0 
 # max = 559
2166681		 # 	collision with: 6 0 2 0 0  and 6 0 4 0 0 
 # max = 559
2166682		 # 	collision with: 1 1 2 0 0  and 1 2 2 0 0 
 # max = 559
2166683		 # 	collision with: 3 2 0 0 0  and 2 4 0 0 0 
 # max = 559
2166712		 # 	collision with: 3 3 2 0 0  and 4 3 2 0 0 
 # max = 559
2166713		 # 	collision with: 3 0 1 0 0  and 4 2 1 0 0 
 # max = 559
2166714		 # 	collision with: 2 4 1 0 0  and 3 4 1 0 0 
 # max = 559
2166715		 # 	collision with: 6 0 2 0 0  and 6 0 4 0 0 
 # max = 559
2166744		 # 	collision with: 3 3 1 0 0  and 4 3 1 0 0 
 # max = 559
2166745		 # 	collision with: 3 3 1 0 0  and 4 3 1 0 0 
 # max = 559
2166746		 # 	collision with: 2 4 0 0 0  and 3 4 0 0 0 
 # max = 559
2166747		 # 	collision with: 2 0 2 0 0  and 2 0 4 0 0 
 # max = 559
2166776		 # 	collision with: 6 0 1 0 0  and 6 2 1 0 0 
 # max = 559
2166777		 # 	collision with: 3 0 2 0 0  and 3 1 2 0 0 
 # max = 559
2166778		 # 	collision with: 2 0 1 0 0  and 2 1 1 0 0 
 # max = 559
2166779		 # 	collision with: 2 4 2 0 0  and 3 4 2 0 0 
 # max = 559
2166780		 # 	collision with: 1 5 6 0 0  and 5 4 2 1 0 
 # max = 559
2166781		 # 	collision with: 1 2 1 0 0  and 6 3 1 0 0 
 # max = 559
2166782		 # 	collision with: 1 1 4 0 0  and 6 0 0 1 0 
 # max = 559
2166783		 # 	collision with: 2 4 0 0 0  and 3 4 0 0 0 
 # max = 559
2166812		 # 	collision with: 3 3 2 0 0  and 4 3 2 0 0 
 # max = 559
2166813		 # 	collision with: 3 3 2 0 0  and 4 3 2 0 0 
 # max = 559
2166814		 # 	collision with: 2 4 1 0 0  and 3 4 1 0 0 
 # max = 559
2166815		 # 	collision with: 6 5 2 0 0  and 6 2 3 0 0 
 # max = 559
2166844		 # 	collision with: 3 3 3 0 0  and 4 3 3 0 0 
 # max = 559
2166845		 # 	collision with: 2 1 1 0 0  and 2 2 1 0 0 
 # max = 559
2166846		 # 	collision with: 2 4 2 0 0  and 3 4 2 0 0 
 # max = 559
2166847		 # 	collision with: 4 2 0 0 0  and 1 3 0 0 0 
 # max = 559
2166876		 # 	collision with: 3 3 1 0 0  and 4 3 1 0 0 
 # max = 559
2166877		 # 	collision with: 3 3 1 0 0  and 4 3 1 0 0 
 # max = 559
2166878		 # 	collision with: 2 4 0 0 0  and 3 4 0 0 0 
 # max = 559
2166879		 # 	collision with: 5 0 1 0 0  and 5 2 1 0 0 
 # max = 559
2166908		 # 	collision with: 3 3 0 0 0  and 4 3 0 0 0 
 # max = 559
2166909		 # 	collision with: 1 2 0 0 0  and 1 3 0 0 0 
 # max = 559
2166910		 # 	collision with: 5 0 3 0 0  and 5 2 3 0 0 
 # max = 559
2166911		 # 	collision with: 5 1 2 0 0  and 5 1 3 0 0 
 # max = 559
2166940		 # 	collision with: 3 1 1 0 0  and 4 2 1 0 0 
 # max = 559
2166941		 # 	collision with: 5 1 3 0 0  and 2 3 3 0 0 
 # max = 559
2166942		 # 	collision with: 4 2 1 0 0  and 1 3 1 0 0 
 # max = 559
2166943		 # 	collision with: 6 3 1 0 0  and 6 4 1 0 0 
 # max = 559
2166972		 # 	collision with: 3 0 2 0 0  and 3 1 2 0 0 
 # max = 559
2166973		 # 	collision with: 2 3 2 0 0  and 2 3 3 0 0 
 # max = 559
2166974		 # 	collision with: 5 1 2 0 0  and 0 3 2 0 0 
 # max = 559
2166975		 # 	collision with: 6 3 2 0 0  and 6 4 2 0 0 
 # max = 559
2166976		 # 	collision with: 6 1 5 0 0  and 4 0 0 1 0 
 # max = 559
2166977		 # 	collision with: 5 1 1 0 0  and 5 3 1 0 0 
 # max = 559
2166978		 # 	collision with: 6 1 5 0 0  and 0 2 0 1 0 
 # max = 559
2166979		 # 	collision with: 5 1 0 0 0  and 0 3 0 0 0 
 # max = 559
2167008		 # 	collision with: 3 3 1 0 0  and 4 3 1 0 0 
 # max = 559
2167009		 # 	collision with: 3 3 1 0 0  and 4 3 1 0 0 
 # max = 559
2167010		 # 	collision with: 2 4 0 0 0  and 3 4 0 0 0 
 # max = 559
2167011		 # 	collision with: 2 4 2 0 0  and 3 4 2 0 0 
 # max = 559
2167040		 # 	collision with: 3 1 2 0 0  and 4 2 2 0 0 
 # max = 559
2167041		 # 	collision with: 4 5 1 0 0  and 4 1 3 0 0 
 # max = 559
2167042		 # 	collision with: 2 0 2 0 0  and 2 1 2 0 0 
 # max = 559
2167043		 # 	collision with: 4 1 0 0 0  and 4 3 0 0 0 
 # max = 559
2167072		 # 	collision with: 3 3 3 0 0  and 4 3 3 0 0 
 # max = 559
2167073		 # 	collision with: 5 1 0 0 0  and 5 3 0 0 0 
 # max = 559
2167074		 # 	collision with: 2 4 2 0 0  and 3 4 2 0 0 
 # max = 559
2167075		 # 	collision with: 1 0 3 0 0  and 4 2 3 0 0 
 # max = 559
2167104		 # 	collision with: 3 0 1 0 0  and 3 1 1 0 0 
 # max = 559
2167105		 # 	collision with: 5 1 0 0 0  and 2 3 0 0 0 
 # max = 559
2167106		 # 	collision with: 1 1 1 0 0  and 1 2 1 0 0 
 # max = 559
2167107		 # 	collision with: 2 4 1 0 0  and 3 4 1 0 0 
 # max = 559
2167136		 # 	collision with: 3 3 2 0 0  and 4 3 2 0 0 
 # max = 559
2167137		 # 	collision with: 4 2 1 0 0  and 4 4 1 0 0 
 # max = 559
2167138		 # 	collision with: 2 4 1 0 0  and 3 4 1 0 0 
 # max = 559
2167139		 # 	collision with: 2 4 0 0 0  and 3 4 0 0 0 
 # max = 559
2167168		 # 	collision with: 3 3 0 0 0  and 4 3 0 0 0 
 # max = 559
2167169		 # 	collision with: 3 3 0 0 0  and 4 3 0 0 0 
 # max = 559
2167170		 # 	collision with: 3 2 3 0 0  and 3 4 3 0 0 
 # max = 559
2167171		 # 	collision with: 2 6 1 0 0  and 2 6 3 0 0 
 # max = 559
2167172		 # 	collision with: 6 0 3 0 0  and 0 0 1 1 0 
 # max = 559
2167173		 # 	collision with: 3 1 1 0 0  and 4 2 1 0 0 
 # max = 559
2167174		 # 	collision with: 2 6 2 0 0  and 0 2 0 1 0 
 # max = 559
2167175		 # 	collision with: 5 1 1 0 0  and 0 2 1 0 0 
 # max = 559
2167204		 # 	collision with: 3 3 0 0 0  and 4 3 0 0 0 
 # max = 559
2167205		 # 	collision with: 3 3 0 0 0  and 4 3 0 0 0 
 # max = 559
2167206		 # 	collision with: 5 1 3 0 0  and 0 2 3 0 0 
 # max = 559
2167207		 # 	collision with: 2 4 1 0 0  and 3 4 1 0 0 
 # max = 559
2167236		 # 	collision with: 3 3 2 0 0  and 4 3 2 0 0 
 # max = 559
2167237		 # 	collision with: 3 3 2 0 0  and 4 3 2 0 0 
 # max = 559
2167238		 # 	collision with: 2 4 1 0 0  and 3 4 1 0 0 
 # max = 559
2167239		 # 	collision with: 5 1 1 0 0  and 0 3 2 0 0 
 # max = 559
2167268		 # 	collision with: 1 2 1 0 0  and 1 3 1 0 0 
 # max = 559
2167269		 # 	collision with: 3 1 0 0 0  and 4 2 0 0 0 
 # max = 559
2167270		 # 	collision with: 5 0 1 0 0  and 5 2 1 0 0 
 # max = 559
2167271		 # 	collision with: 2 4 0 0 0  and 3 4 0 0 0 
 # max = 559
2167300		 # 	collision with: 3 3 3 0 0  and 4 3 3 0 0 
 # max = 559
2167301		 # 	collision with: 4 3 1 0 0  and 3 3 2 0 0 
 # max = 559
2167302		 # 	collision with: 2 4 2 0 0  and 3 4 2 0 0 
 # max = 559
2167303		 # 	collision with: 5 1 0 0 0  and 0 2 0 0 0 
 # max = 559
2167332		 # 	collision with: 2 0 2 0 0  and 5 1 2 0 0 
 # max = 559
2167333		 # 	collision with: 3 1 1 0 0  and 3 1 2 0 0 
 # max = 559
2167334		 # 	collision with: 5 1 2 0 0  and 0 2 2 0 0 
 # max = 559
2167335		 # 	collision with: 1 1 0 0 0  and 1 2 0 0 0 
 # max = 559
2167364		 # 	collision with: 3 3 1 0 0  and 4 3 1 0 0 
 # max = 559
2167365		 # 	collision with: 2 1 0 0 0  and 2 2 0 0 0 
 # max = 559
2167366		 # 	collision with: 2 4 0 0 0  and 3 4 0 0 0 
 # max = 559
2167367		 # 	collision with: 5 1 1 0 0  and 0 3 1 0 0 
 # max = 559
2167368		 # 	collision with: 2 3 4 0 0  and 6 1 1 1 0 
 # max = 559
2167369		 # 	collision with: 6 0 2 0 0  and 6 2 2 0 0 
 # max = 559
2167370		 # 	collision with: 4 1 3 0 0  and 5 4 0 1 0 
 # max = 559
2167371		 # 	collision with: 1 0 1 0 0  and 4 2 1 0 0 
 # max = 559
2167400		 # 	collision with: 1 2 2 0 0  and 6 3 2 0 0 
 # max = 559
2167401		 # 	collision with: 4 6 0 0 0  and 4 0 2 0 0 
 # max = 559
2167402		 # 	collision with: 4 2 2 0 0  and 1 3 2 0 0 
 # max = 559
2167403		 # 	collision with: 2 4 0 0 0  and 3 4 0 0 0 
 # max = 559
2167432		 # 	collision with: 2 1 1 0 0  and 2 2 1 0 0 
 # max = 559
2167433		 # 	collision with: 6 1 0 0 0  and 6 1 2 0 0 
 # max = 559
2167434		 # 	collision with: 5 1 1 0 0  and 0 2 1 0 0 
 # max = 559
2167435		 # 	collision with: 0 4 0 0 0  and 5 5 0 0 0 
 # max = 559
2167464		 # 	collision with: 3 3 0 0 0  and 4 3 0 0 0 
 # max = 559
2167465		 # 	collision with: 3 3 0 0 0  and 4 3 0 0 0 
 # max = 559
2167466		 # 	collision with: 4 1 3 0 0  and 4 3 3 0 0 
 # max = 559
2167467		 # 	collision with: 5 5 0 0 0  and 0 1 2 0 0 
 # max = 559
2167496		 # 	collision with: 3 3 1 0 0  and 4 3 1 0 0 
 # max = 559
2167497		 # 	collision with: 3 3 1 0 0  and 4 3 1 0 0 
 # max = 559
2167498		 # 	collision with: 2 4 0 0 0  and 3 4 0 0 0 
 # max = 559
2167499		 # 	collision with: 1 6 0 0 0  and 4 0 2 0 0 
 # max = 559
2167528		 # 	collision with: 3 3 3 0 0  and 4 3 3 0 0 
 # max = 559
2167529		 # 	collision with: 6 0 0 0 0  and 6 2 0 0 0 
 # max = 559
2167530		 # 	collision with: 2 4 2 0 0  and 3 4 2 0 0 
 # max = 559
2167531		 # 	collision with: 2 4 1 0 0  and 3 4 1 0 0 
 # max = 559
2167560		 # 	collision with: 3 3 2 0 0  and 4 3 2 0 0 
 # max = 559
2167561		 # 	collision with: 3 0 0 0 0  and 4 2 0 0 0 
 # max = 559
2167562		 # 	collision with: 2 4 1 0 0  and 3 4 1 0 0 
 # max = 559
2167563		 # 	collision with: 5 0 0 0 0  and 5 2 0 0 0 
 # max = 559
2167564		 # 	collision with: 4 6 6 0 0  and 5 3 0 1 0 
 # max = 559
2167565		 # 	collision with: 2 5 0 0 0  and 5 4 1 0 0 
 # max = 559
2167566		 # 	collision with: 3 0 6 0 0  and 1 5 0 1 0 
 # max = 559
2167567		 # 	collision with: 5 1 0 0 0  and 0 3 1 0 0 
 # max = 559
2167596		 # 	collision with: 2 0 1 0 0  and 5 1 1 0 0 
 # max = 559
2167597		 # 	collision with: 4 6 0 0 0  and 4 6 1 0 0 
 # max = 559
2167598		 # 	collision with: 2 4 4 0 0  and 3 4 4 0 0 
 # max = 559
2167599		 # 	collision with: 3 6 0 0 0  and 3 6 1 0 0 
 # max = 559
2167628		 # 	collision with: 3 3 1 0 0  and 4 3 1 0 0 
 # max = 559
2167629		 # 	collision with: 3 0 0 0 0  and 3 1 0 0 0 
 # max = 559
2167630		 # 	collision with: 2 4 0 0 0  and 3 4 0 0 0 
 # max = 559
2167631		 # 	collision with: 5 1 0 0 0  and 0 2 1 0 0 
 # max = 559
2167660		 # 	collision with: 3 3 2 0 0  and 4 3 2 0 0 
 # max = 559
2167661		 # 	collision with: 5 2 0 0 0  and 5 2 1 0 0 
 # max = 559
2167662		 # 	collision with: 2 4 1 0 0  and 3 4 1 0 0 
 # max = 559
2167663		 # 	collision with: 2 0 0 0 0  and 2 1 0 0 0 
 # max = 559
2167692		 # 	collision with: 5 1 2 0 0  and 5 3 2 0 0 
 # max = 559
2167693		 # 	collision with: 3 5 0 0 0  and 3 5 1 0 0 
 # max = 559
2167694		 # 	collision with: 3 2 2 0 0  and 3 4 2 0 0 
 # max = 559
2167695		 # 	collision with: 1 5 0 0 0  and 1 5 1 0 0 
 # max = 559
2167724		 # 	collision with: 3 3 0 0 0  and 4 3 0 0 0 
 # max = 559
2167725		 # 	collision with: 3 3 0 0 0  and 4 3 0 0 0 
 # max = 559
2167726		 # 	collision with: 2 0 3 0 0  and 2 1 3 0 0 
 # max = 559
2167727		 # 	collision with: 1 4 0 0 0  and 1 4 1 0 0 
 # max = 559
2167756		 # 	collision with: 3 3 3 0 0  and 4 3 3 0 0 
 # max = 559
2167757		 # 	collision with: 2 0 0 0 0  and 5 1 0 0 0 
 # max = 559
2167758		 # 	collision with: 2 4 2 0 0  and 3 4 2 0 0 
 # max = 559
2167759		 # 	collision with: 2 4 0 0 0  and 3 4 0 0 0 
 # max = 559
2167769		 # 	collision with: 6 6 3 0 0  and 6 3 4 0 0 
 # max = 559
2167771		 # 	collision with: 1 5 3 0 0  and 4 1 4 0 0 
 # max = 559
2167781		 # 	collision with: 3 0 1 0 0  and 4 2 1 0 0 
 # max = 559
2167783		 # 	collision with: 2 6 0 0 0  and 3 6 0 0 0 
 # max = 559
2167805		 # 	collision with: 2 1 1 0 0  and 2 2 1 0 0 
 # max = 559
2167807		 # 	collision with: 6 3 0 0 0  and 6 4 0 0 0 
 # max = 559
2167809		 # 	collision with: 3 0 4 0 0  and 3 1 4 0 0 
 # max = 559
2167859		 # 	collision with: 4 1 3 0 0  and 4 1 4 0 0 
 # max = 559
2167891		 # 	collision with: 6 3 0 0 0  and 6 4 0 0 0 
 # max = 559
2167937		 # 	collision with: 4 3 3 0 0  and 3 5 4 0 0 
 # max = 559
2167941		 # 	collision with: 5 1 1 0 0  and 2 3 1 0 0 
 # max = 559
2167943		 # 	collision with: 2 6 2 0 0  and 3 6 2 0 0 
 # max = 559
2167956		 # 	collision with: 2 6 2 0 0  and 3 2 0 1 0 
 # max = 559
2167958		 # 	collision with: 1 2 4 0 0  and 3 0 2 1 0 
 # max = 559
2167965		 # 	collision with: 3 3 0 0 0  and 4 3 0 0 0 
 # max = 559
2167967		 # 	collision with: 2 1 1 0 0  and 3 3 1 0 0 
 # max = 559
2167977		 # 	collision with: 2 0 2 0 0  and 2 3 4 0 0 
 # max = 559
2167979		 # 	collision with: 3 2 0 0 0  and 3 4 0 0 0 
 # max = 559
2168001		 # 	collision with: 3 3 1 0 0  and 4 3 1 0 0 
 # max = 559
2168003		 # 	collision with: 5 0 1 0 0  and 5 2 1 0 0 
 # max = 559
2168007		 # 	collision with: 3 2 0 0 0  and 3 4 0 0 0 
 # max = 559
2168053		 # 	collision with: 5 1 3 0 0  and 5 3 3 0 0 
 # max = 559
2168055		 # 	collision with: 5 0 4 0 0  and 0 1 4 0 0 
 # max = 559
2168085		 # 	collision with: 1 2 2 0 0  and 1 3 2 0 0 
 # max = 559
2168087		 # 	collision with: 5 0 1 0 0  and 5 2 1 0 0 
 # max = 559
2168133		 # 	collision with: 3 3 0 0 0  and 4 3 0 0 0 
 # max = 559
2168135		 # 	collision with: 0 1 2 0 0  and 5 2 4 0 0 
 # max = 559
2168139		 # 	collision with: 2 6 3 0 0  and 3 6 3 0 0 
 # max = 559
2168152		 # 	collision with: 1 5 1 0 0  and 2 4 0 1 0 
 # max = 559
2168154		 # 	collision with: 0 2 1 0 0  and 1 4 0 1 0 
 # max = 559
2168161		 # 	collision with: 1 3 2 0 0  and 6 3 3 0 0 
 # max = 559
2168163		 # 	collision with: 3 0 2 0 0  and 2 2 3 0 0 
 # max = 559
2168173		 # 	collision with: 1 2 0 0 0  and 6 3 0 0 0 
 # max = 559
2168175		 # 	collision with: 6 3 1 0 0  and 6 4 1 0 0 
 # max = 559
2168197		 # 	collision with: 3 3 0 0 0  and 4 3 0 0 0 
 # max = 559
2168201		 # 	collision with: 1 2 0 0 0  and 6 3 0 0 0 
 # max = 559
2168203		 # 	collision with: 6 3 1 0 0  and 6 4 1 0 0 
 # max = 559
2168249		 # 	collision with: 3 3 1 0 0  and 4 3 1 0 0 
 # max = 559
2168251		 # 	collision with: 2 6 1 0 0  and 3 6 1 0 0 
 # max = 559
2168281		 # 	collision with: 3 3 0 0 0  and 4 3 0 0 0 
 # max = 559
2168283		 # 	collision with: 2 6 1 0 0  and 3 6 1 0 0 
 # max = 559
2168329		 # 	collision with: 3 3 1 0 0  and 4 3 1 0 0 
 # max = 559
2168331		 # 	collision with: 0 1 1 0 0  and 5 2 1 0 0 
 # max = 559
2168333		 # 	collision with: 1 2 2 0 0  and 1 2 3 0 0 
 # max = 559
2168335		 # 	collision with: 2 2 2 0 0  and 2 2 3 0 0 
 # max = 559
2168348		 # 	collision with: 6 2 3 0 0  and 3 1 0 1 0 
 # max = 559
2168350		 # 	collision with: 0 3 3 0 0  and 3 4 0 1 0 
 # max = 559
2168357		 # 	collision with: 3 0 1 0 0  and 4 2 1 0 0 
 # max = 559
2168371		 # 	collision with: 2 1 0 0 0  and 3 3 0 0 0 
 # max = 559
2168393		 # 	collision with: 4 1 1 0 0  and 4 1 3 0 0 
 # max = 559
2168395		 # 	collision with: 2 1 0 0 0  and 3 3 0 0 0 
 # max = 559
2168397		 # 	collision with: 5 1 0 0 0  and 5 3 0 0 0 
 # max = 559
2168399		 # 	collision with: 2 1 0 0 0  and 3 3 0 0 0 
 # max = 559
2168445		 # 	collision with: 5 1 0 0 0  and 2 3 0 0 0 
 # max = 559
2168477		 # 	collision with: 1 1 1 0 0  and 1 1 3 0 0 
 # max = 559
2168479		 # 	collision with: 2 1 0 0 0  and 3 3 0 0 0 
 # max = 559
2168525		 # 	collision with: 3 3 2 0 0  and 4 3 2 0 0 
 # max = 559
2168527		 # 	collision with: 2 1 0 0 0  and 3 3 0 0 0 
 # max = 559
2168529		 # 	collision with: 5 1 0 0 0  and 2 3 0 0 0 
 # max = 559
2168531		 # 	collision with: 2 1 0 0 0  and 3 3 0 0 0 
 # max = 559
2168544		 # 	collision with: 6 2 4 0 0  and 0 4 0 1 0 
 # max = 559
2168546		 # 	collision with: 2 3 0 0 0  and 0 6 3 1 0 
 # max = 559
2168555		 # 	collision with: 1 1 0 0 0  and 1 2 0 0 0 
 # max = 559
2168565		 # 	collision with: 1 2 1 0 0  and 1 3 1 0 0 
 # max = 559
2168589		 # 	collision with: 2 3 1 0 0  and 2 0 2 0 0 
 # max = 559
2168591		 # 	collision with: 3 3 1 0 0  and 2 0 2 0 0 
 # max = 559
2168593		 # 	collision with: 1 2 1 0 0  and 1 3 1 0 0 
 # max = 559
2168595		 # 	collision with: 2 6 1 0 0  and 2 6 2 0 0 
 # max = 559
2168641		 # 	collision with: 2 3 1 0 0  and 2 3 2 0 0 
 # max = 559
2168643		 # 	collision with: 3 3 1 0 0  and 2 1 2 0 0 
 # max = 559
2168673		 # 	collision with: 3 4 1 0 0  and 3 4 2 0 0 
 # max = 559
2168721		 # 	collision with: 4 4 1 0 0  and 3 0 2 0 0 
 # max = 559
2168723		 # 	collision with: 1 1 0 0 0  and 1 2 0 0 0 
 # max = 559
2168725		 # 	collision with: 1 3 1 0 0  and 1 3 2 0 0 
 # max = 559
2168727		 # 	collision with: 3 6 1 0 0  and 2 2 2 0 0 
 # max = 559
2168740		 # 	collision with: 0 1 6 0 0  and 5 6 0 1 0 
 # max = 559
2168742		 # 	collision with: 6 0 6 0 0  and 1 2 0 1 0 
 # max = 559
2168749		 # 	collision with: 3 0 0 0 0  and 4 2 0 0 0 
 # max = 559
2168751		 # 	collision with: 6 3 0 0 0  and 6 4 2 0 0 
 # max = 559
2168761		 # 	collision with: 2 1 0 0 0  and 2 2 2 0 0 
 # max = 559
2168763		 # 	collision with: 5 2 2 0 0  and 0 4 2 0 0 
 # max = 559
2168785		 # 	collision with: 6 0 0 0 0  and 6 0 2 0 0 
 # max = 559
2168787		 # 	collision with: 2 6 1 0 0  and 3 6 1 0 0 
 # max = 559
2168789		 # 	collision with: 3 3 1 0 0  and 4 3 1 0 0 
 # max = 559
2168791		 # 	collision with: 2 2 0 0 0  and 3 0 2 0 0 
 # max = 559
2168837		 # 	collision with: 3 3 0 0 0  and 4 3 0 0 0 
 # max = 559
2168839		 # 	collision with: 2 6 0 0 0  and 3 6 0 0 0 
 # max = 559
2168869		 # 	collision with: 3 3 1 0 0  and 4 3 1 0 0 
 # max = 559
2168871		 # 	collision with: 3 0 0 0 0  and 3 0 2 0 0 
 # max = 559
2168917		 # 	collision with: 3 0 0 0 0  and 4 2 0 0 0 
 # max = 559
2168919		 # 	collision with: 2 6 1 0 0  and 3 6 1 0 0 
 # max = 559
2168921		 # 	collision with: 3 3 0 0 0  and 4 3 0 0 0 
 # max = 559
2168936		 # 	collision with: 3 4 5 0 0  and 5 3 0 1 0 
 # max = 559
2168938		 # 	collision with: 2 1 5 0 0  and 4 1 0 1 0 
 # max = 559
2168945		 # 	collision with: 2 0 0 0 0  and 5 3 1 0 0 
 # max = 559
2168947		 # 	collision with: 2 2 0 0 0  and 2 6 1 0 0 
 # max = 559
2168957		 # 	collision with: 3 3 0 0 0  and 4 3 0 0 0 
 # max = 559
2168959		 # 	collision with: 5 4 0 0 0  and 5 5 1 0 0 
 # max = 559
2168983		 # 	collision with: 2 6 0 0 0  and 3 6 0 0 0 
 # max = 559
2168985		 # 	collision with: 3 3 0 0 0  and 4 3 0 0 0 
 # max = 559
2168987		 # 	collision with: 2 6 0 0 0  and 3 0 1 0 0 
 # max = 559
2169033		 # 	collision with: 2 0 0 0 0  and 5 1 0 0 0 
 # max = 559
2169035		 # 	collision with: 4 4 0 0 0  and 4 4 1 0 0 
 # max = 559
2169065		 # 	collision with: 3 0 0 0 0  and 3 1 0 0 0 
 # max = 559
2169067		 # 	collision with: 2 6 0 0 0  and 3 6 0 0 0 
 # max = 559
2169115		 # 	collision with: 3 6 0 0 0  and 3 0 1 0 0 
 # max = 559
2169117		 # 	collision with: 2 0 0 0 0  and 5 1 0 0 0 
 # max = 559
2169119		 # 	collision with: 2 4 0 0 0  and 2 4 1 0 0 
 # max = 559
2169137		 # 	collision with: 5 1 3 0 0  and 2 3 3 0 0 
 # max = 559
2169139		 # 	collision with: 4 2 1 0 0  and 1 4 1 0 0 
 # max = 559
2169157		 # 	collision with: 3 0 2 0 0  and 4 2 2 0 0 
 # max = 559
2169159		 # 	collision with: 5 6 3 0 0  and 0 0 4 0 0 
 # max = 559
2169173		 # 	collision with: 3 0 2 0 0  and 3 1 2 0 0 
 # max = 559
2169175		 # 	collision with: 2 0 2 0 0  and 3 1 2 0 0 
 # max = 559
2169185		 # 	collision with: 3 3 3 0 0  and 4 3 3 0 0 
 # max = 559
2169187		 # 	collision with: 2 0 1 0 0  and 3 1 1 0 0 
 # max = 559
2169231		 # 	collision with: 2 1 2 0 0  and 3 1 2 0 0 
 # max = 559
2169263		 # 	collision with: 6 3 0 0 0  and 6 4 0 0 0 
 # max = 559
2169305		 # 	collision with: 1 2 2 0 0  and 6 3 2 0 0 
 # max = 559
2169307		 # 	collision with: 4 1 3 0 0  and 4 3 3 0 0 
 # max = 559
2169317		 # 	collision with: 3 1 1 0 0  and 4 2 1 0 0 
 # max = 559
2169319		 # 	collision with: 6 3 0 0 0  and 6 4 0 0 0 
 # max = 559
2169328		 # 	collision with: 2 2 3 0 0  and 3 1 0 1 0 
 # max = 559
2169330		 # 	collision with: 3 6 3 0 0  and 6 4 0 1 0 
 # max = 559
2169335		 # 	collision with: 2 1 0 0 0  and 3 1 0 0 0 
 # max = 559
2169353		 # 	collision with: 1 1 2 0 0  and 1 4 4 0 0 
 # max = 559
2169369		 # 	collision with: 1 3 2 0 0  and 1 3 4 0 0 
 # max = 559
2169371		 # 	collision with: 3 2 0 0 0  and 3 4 0 0 0 
 # max = 559
2169381		 # 	collision with: 3 3 2 0 0  and 4 3 2 0 0 
 # max = 559
2169383		 # 	collision with: 2 1 2 0 0  and 3 1 2 0 0 
 # max = 559
2169425		 # 	collision with: 3 1 1 0 0  and 4 2 1 0 0 
 # max = 559
2169427		 # 	collision with: 3 2 0 0 0  and 3 4 0 0 0 
 # max = 559
2169457		 # 	collision with: 4 2 0 0 0  and 4 4 0 0 0 
 # max = 559
2169459		 # 	collision with: 2 1 1 0 0  and 3 1 1 0 0 
 # max = 559
2169501		 # 	collision with: 5 1 2 0 0  and 5 3 2 0 0 
 # max = 559
2169503		 # 	collision with: 2 1 0 0 0  and 3 1 0 0 0 
 # max = 559
2169513		 # 	collision with: 4 2 0 0 0  and 4 4 0 0 0 
 # max = 559
2169524		 # 	collision with: 5 6 6 0 0  and 0 3 1 1 0 
 # max = 559
2169526		 # 	collision with: 5 1 0 0 0  and 1 6 2 1 0 
 # max = 559
2169529		 # 	collision with: 1 2 0 0 0  and 1 3 0 0 0 
 # max = 559
2169531		 # 	collision with: 3 1 2 0 0  and 2 1 3 0 0 
 # max = 559
2169549		 # 	collision with: 1 2 0 0 0  and 6 3 0 0 0 
 # max = 559
2169551		 # 	collision with: 6 3 2 0 0  and 6 4 2 0 0 
 # max = 559
2169567		 # 	collision with: 1 1 3 0 0  and 1 2 3 0 0 
 # max = 559
2169577		 # 	collision with: 1 2 0 0 0  and 6 3 0 0 0 
 # max = 559
2169579		 # 	collision with: 2 1 1 0 0  and 3 1 1 0 0 
 # max = 559
2169621		 # 	collision with: 3 0 1 0 0  and 4 2 1 0 0 
 # max = 559
2169623		 # 	collision with: 1 1 3 0 0  and 1 2 3 0 0 
 # max = 559
2169653		 # 	collision with: 3 3 0 0 0  and 4 3 0 0 0 
 # max = 559
2169655		 # 	collision with: 3 2 2 0 0  and 3 2 3 0 0 
 # max = 559
2169699		 # 	collision with: 2 1 1 0 0  and 3 1 1 0 0 
 # max = 559
2169709		 # 	collision with: 3 3 0 0 0  and 4 3 0 0 0 
 # max = 559
2169711		 # 	collision with: 1 1 2 0 0  and 4 3 2 0 0 
 # max = 559
2169720		 # 	collision with: 0 5 1 0 0  and 6 0 0 1 0 
 # max = 559
2169722		 # 	collision with: 5 5 1 0 0  and 3 2 0 1 0 
 # max = 559
2169725		 # 	collision with: 3 1 1 0 0  and 4 4 3 0 0 
 # max = 559
2169727		 # 	collision with: 1 1 0 0 0  and 4 3 0 0 0 
 # max = 559
2169745		 # 	collision with: 3 3 0 0 0  and 4 3 0 0 0 
 # max = 559
2169747		 # 	collision with: 2 1 0 0 0  and 3 1 0 0 0 
 # max = 559
2169761		 # 	collision with: 3 3 2 0 0  and 4 3 2 0 0 
 # max = 559
2169763		 # 	collision with: 2 1 1 0 0  and 2 0 3 0 0 
 # max = 559
2169773		 # 	collision with: 3 3 0 0 0  and 4 3 0 0 0 
 # max = 559
2169817		 # 	collision with: 5 1 1 0 0  and 2 0 3 0 0 
 # max = 559
2169849		 # 	collision with: 3 0 1 0 0  and 3 0 3 0 0 
 # max = 559
2169851		 # 	collision with: 1 1 2 0 0  and 1 2 2 0 0 
 # max = 559
2169893		 # 	collision with: 2 0 1 0 0  and 2 0 3 0 0 
 # max = 559
2169895		 # 	collision with: 1 1 0 0 0  and 4 3 0 0 0 
 # max = 559
2169905		 # 	collision with: 3 3 1 0 0  and 4 3 1 0 0 
 # max = 559
2169907		 # 	collision with: 1 1 2 0 0  and 1 2 2 0 0 
 # max = 559
2169916		 # 	collision with: 4 0 6 0 0  and 6 3 0 1 0 
 # max = 559
2169918		 # 	collision with: 2 5 6 0 0  and 5 6 0 1 0 
 # max = 559
2169921		 # 	collision with: 3 3 0 0 0  and 4 3 0 0 0 
 # max = 559
2169923		 # 	collision with: 4 1 0 0 0  and 1 2 0 0 0 
 # max = 559
2169941		 # 	collision with: 3 1 0 0 0  and 4 2 0 0 0 
 # max = 559
2169943		 # 	collision with: 1 1 0 0 0  and 1 2 0 0 0 
 # max = 559
2169957		 # 	collision with: 2 1 0 0 0  and 2 2 0 0 0 
 # max = 559
2169959		 # 	collision with: 2 1 2 0 0  and 3 1 2 0 0 
 # max = 559
2169969		 # 	collision with: 3 1 0 0 0  and 4 2 0 0 0 
 # max = 559
2169971		 # 	collision with: 1 1 0 0 0  and 1 2 0 0 0 
 # max = 559
2170013		 # 	collision with: 2 1 0 0 0  and 2 2 0 0 0 
 # max = 559
2170015		 # 	collision with: 2 2 1 0 0  and 2 2 2 0 0 
 # max = 559
2170045		 # 	collision with: 6 0 2 0 0  and 6 2 2 0 0 
 # max = 559
2170089		 # 	collision with: 3 3 0 0 0  and 4 3 0 0 0 
 # max = 559
2170101		 # 	collision with: 3 0 2 0 0  and 4 2 2 0 0 
 # max = 559
2170103		 # 	collision with: 4 2 1 0 0  and 1 4 1 0 0 
 # max = 559
2170112		 # 	collision with: 0 1 2 0 0  and 5 1 0 1 0 
 # max = 559
2170114		 # 	collision with: 1 4 2 0 0  and 0 1 0 1 0 
 # max = 559
2170117		 # 	collision with: 3 0 1 0 0  and 3 1 1 0 0 
 # max = 559
2170119		 # 	collision with: 5 0 0 0 0  and 5 2 0 0 0 
 # max = 559
2170137		 # 	collision with: 2 1 1 0 0  and 2 2 1 0 0 
 # max = 559
2170139		 # 	collision with: 2 0 6 0 0  and 2 1 6 0 0 
 # max = 559
2170153		 # 	collision with: 3 3 0 0 0  and 4 3 0 0 0 
 # max = 559
2170155		 # 	collision with: 2 1 1 0 0  and 3 1 1 0 0 
 # max = 559
2170167		 # 	collision with: 3 5 0 0 0  and 2 1 2 0 0 
 # max = 559
2170209		 # 	collision with: 3 3 0 0 0  and 4 3 0 0 0 
 # max = 559
2170211		 # 	collision with: 5 4 0 0 0  and 5 4 2 0 0 
 # max = 559
2170241		 # 	collision with: 3 3 1 0 0  and 4 3 1 0 0 
 # max = 559
2170243		 # 	collision with: 2 1 0 0 0  and 3 1 0 0 0 
 # max = 559
2170285		 # 	collision with: 3 0 1 0 0  and 3 1 1 0 0 
 # max = 559
2170287		 # 	collision with: 5 0 0 0 0  and 5 2 0 0 0 
 # max = 559
2170299		 # 	collision with: 2 1 0 0 0  and 3 1 0 0 0 
 # max = 559
2170308		 # 	collision with: 4 1 4 0 0  and 5 5 0 1 0 
 # max = 559
2170310		 # 	collision with: 6 6 4 0 0  and 3 4 0 1 0 
 # max = 559
2170313		 # 	collision with: 6 0 6 0 0  and 6 2 6 0 0 
 # max = 559
2170335		 # 	collision with: 0 5 0 0 0  and 5 3 1 0 0 
 # max = 559
2170349		 # 	collision with: 4 6 0 0 0  and 4 6 1 0 0 
 # max = 559
2170361		 # 	collision with: 3 0 0 0 0  and 3 1 0 0 0 
 # max = 559
2170363		 # 	collision with: 1 2 0 0 0  and 1 1 1 0 0 
 # max = 559
2170405		 # 	collision with: 2 3 0 0 0  and 5 1 1 0 0 
 # max = 559
2170407		 # 	collision with: 2 1 0 0 0  and 3 1 0 0 0 
 # max = 559
2170437		 # 	collision with: 4 1 0 0 0  and 4 1 1 0 0 
 # max = 559
2170439		 # 	collision with: 4 1 0 0 0  and 1 1 1 0 0 
 # max = 559
2170481		 # 	collision with: 2 1 0 0 0  and 2 2 1 0 0 
 # max = 559
2170483		 # 	collision with: 4 1 0 0 0  and 1 2 1 0 0 
 # max = 559
2170493		 # 	collision with: 5 1 0 0 0  and 5 1 1 0 0 
 # max = 559
2170495		 # 	collision with: 2 1 1 0 0  and 3 1 1 0 0 
 # max = 559
2170532		 # 	collision with: 3 5 0 0 0  and 4 5 0 0 0 
 # max = 559
2170534		 # 	collision with: 2 5 0 0 0  and 3 5 0 0 0 
 # max = 559
2170548		 # 	collision with: 6 1 0 0 0  and 6 3 0 0 0 
 # max = 559
2170560		 # 	collision with: 3 5 0 0 0  and 4 5 0 0 0 
 # max = 559
2170562		 # 	collision with: 2 5 0 0 0  and 3 5 0 0 0 
 # max = 559
2170564		 # 	collision with: 3 0 0 0 0  and 3 2 0 0 0 
 # max = 559
2170573		 # 	collision with: 3 5 3 0 0  and 4 5 3 0 0 
 # max = 559
2170575		 # 	collision with: 2 1 3 0 0  and 2 1 4 0 0 
 # max = 559
2170581		 # 	collision with: 3 0 1 0 0  and 3 2 1 0 0 
 # max = 559
2170583		 # 	collision with: 5 2 3 0 0  and 5 4 3 0 0 
 # max = 559
2170588		 # 	collision with: 3 5 0 0 0  and 4 5 0 0 0 
 # max = 559
2170590		 # 	collision with: 2 5 0 0 0  and 3 5 0 0 0 
 # max = 559
2170608		 # 	collision with: 2 2 0 0 0  and 2 4 0 0 0 
 # max = 559
2170615		 # 	collision with: 2 5 0 0 0  and 3 5 0 0 0 
 # max = 559
2170616		 # 	collision with: 3 5 0 0 0  and 4 5 0 0 0 
 # max = 559
2170618		 # 	collision with: 2 5 0 0 0  and 3 5 0 0 0 
 # max = 559
2170623		 # 	collision with: 3 3 0 0 0  and 3 4 0 0 0 
 # max = 559
2170624		 # 	collision with: 5 0 0 0 0  and 5 1 0 0 0 
 # max = 559
2170644		 # 	collision with: 3 5 0 0 0  and 4 5 0 0 0 
 # max = 559
2170646		 # 	collision with: 2 5 0 0 0  and 3 5 0 0 0 
 # max = 559
2170653		 # 	collision with: 4 2 1 0 0  and 4 3 1 0 0 
 # max = 559
2170655		 # 	collision with: 5 3 3 0 0  and 0 1 4 0 0 
 # max = 559
2170661		 # 	collision with: 1 2 2 0 0  and 6 4 2 0 0 
 # max = 559
2170663		 # 	collision with: 2 2 2 0 0  and 3 4 2 0 0 
 # max = 559
2170668		 # 	collision with: 4 2 0 0 0  and 4 3 0 0 0 
 # max = 559
2170672		 # 	collision with: 3 5 0 0 0  and 4 5 0 0 0 
 # max = 559
2170674		 # 	collision with: 2 5 0 0 0  and 3 5 0 0 0 
 # max = 559
2170684		 # 	collision with: 6 0 0 0 0  and 1 1 0 0 0 
 # max = 559
2170700		 # 	collision with: 5 4 5 0 0  and 3 0 1 1 0 
 # max = 559
2170702		 # 	collision with: 2 5 6 0 0  and 6 5 2 1 0 
 # max = 559
2170728		 # 	collision with: 3 5 6 0 0  and 4 5 6 0 0 
 # max = 559
2170730		 # 	collision with: 2 5 6 0 0  and 3 5 6 0 0 
 # max = 559
2170744		 # 	collision with: 3 5 0 0 0  and 4 5 0 0 0 
 # max = 559
2170746		 # 	collision with: 2 5 0 0 0  and 3 5 0 0 0 
 # max = 559
2170756		 # 	collision with: 3 5 3 0 0  and 4 5 3 0 0 
 # max = 559
2170758		 # 	collision with: 2 5 3 0 0  and 3 5 3 0 0 
 # max = 559
2170760		 # 	collision with: 3 5 4 0 0  and 4 5 4 0 0 
 # max = 559
2170762		 # 	collision with: 2 5 4 0 0  and 3 5 4 0 0 
 # max = 559
2170771		 # 	collision with: 2 5 0 0 0  and 3 5 0 0 0 
 # max = 559
2170777		 # 	collision with: 2 2 0 0 0  and 2 4 0 0 0 
 # max = 559
2170779		 # 	collision with: 4 1 2 0 0  and 4 2 2 0 0 
 # max = 559
2170784		 # 	collision with: 3 5 2 0 0  and 4 5 2 0 0 
 # max = 559
2170786		 # 	collision with: 2 5 2 0 0  and 3 5 2 0 0 
 # max = 559
2170806		 # 	collision with: 2 5 3 0 0  and 3 5 3 0 0 
 # max = 559
2170809		 # 	collision with: 6 0 2 0 0  and 1 1 2 0 0 
 # max = 559
2170811		 # 	collision with: 1 0 2 0 0  and 1 1 2 0 0 
 # max = 559
2170817		 # 	collision with: 1 2 0 0 0  and 6 4 0 0 0 
 # max = 559
2170819		 # 	collision with: 2 2 1 0 0  and 3 3 1 0 0 
 # max = 559
2170820		 # 	collision with: 2 2 3 0 0  and 2 4 3 0 0 
 # max = 559
2170822		 # 	collision with: 2 1 3 0 0  and 2 3 3 0 0 
 # max = 559
2170840		 # 	collision with: 3 5 4 0 0  and 4 5 4 0 0 
 # max = 559
2170842		 # 	collision with: 2 5 4 0 0  and 3 5 4 0 0 
 # max = 559
2170851		 # 	collision with: 5 2 0 0 0  and 5 4 0 0 0 
 # max = 559
2170857		 # 	collision with: 3 5 0 0 0  and 4 5 0 0 0 
 # max = 559
2170864		 # 	collision with: 6 1 1 0 0  and 6 3 1 0 0 
 # max = 559
2170866		 # 	collision with: 6 0 1 0 0  and 6 2 1 0 0 
 # max = 559
2170868		 # 	collision with: 3 5 1 0 0  and 4 5 1 0 0 
 # max = 559
2170870		 # 	collision with: 2 5 1 0 0  and 3 5 1 0 0 
 # max = 559
2170880		 # 	collision with: 2 2 2 0 0  and 2 4 2 0 0 
 # max = 559
2170882		 # 	collision with: 2 1 2 0 0  and 2 3 2 0 0 
 # max = 559
2170896		 # 	collision with: 2 4 2 0 0  and 0 6 0 1 0 
 # max = 559
2170898		 # 	collision with: 0 1 2 0 0  and 1 6 0 1 0 
 # max = 559
2170940		 # 	collision with: 1 1 3 0 0  and 1 2 3 0 0 
 # max = 559
2170942		 # 	collision with: 1 0 3 0 0  and 1 1 3 0 0 
 # max = 559
2170952		 # 	collision with: 3 5 6 0 0  and 4 5 6 0 0 
 # max = 559
2170954		 # 	collision with: 2 5 6 0 0  and 3 5 6 0 0 
 # max = 559
2170956		 # 	collision with: 3 5 0 0 0  and 4 5 0 0 0 
 # max = 559
2170958		 # 	collision with: 2 5 0 0 0  and 3 5 0 0 0 
 # max = 559
2170965		 # 	collision with: 5 2 0 0 0  and 2 3 0 0 0 
 # max = 559
2170967		 # 	collision with: 6 1 2 0 0  and 6 1 3 0 0 
 # max = 559
2170973		 # 	collision with: 2 2 2 0 0  and 2 2 3 0 0 
 # max = 559
2170975		 # 	collision with: 3 3 1 0 0  and 3 4 1 0 0 
 # max = 559
2170980		 # 	collision with: 3 5 4 0 0  and 4 5 4 0 0 
 # max = 559
2170982		 # 	collision with: 2 5 4 0 0  and 3 5 4 0 0 
 # max = 559
2171000		 # 	collision with: 6 0 1 0 0  and 1 1 1 0 0 
 # max = 559
2171002		 # 	collision with: 0 0 1 0 0  and 5 1 1 0 0 
 # max = 559
2171005		 # 	collision with: 4 2 0 0 0  and 4 3 0 0 0 
 # max = 559
2171007		 # 	collision with: 2 2 1 0 0  and 3 4 1 0 0 
 # max = 559
2171008		 # 	collision with: 3 5 3 0 0  and 4 5 3 0 0 
 # max = 559
2171010		 # 	collision with: 2 5 3 0 0  and 3 5 3 0 0 
 # max = 559
2171013		 # 	collision with: 3 5 0 0 0  and 4 5 0 0 0 
 # max = 559
2171015		 # 	collision with: 0 5 2 0 0  and 5 1 3 0 0 
 # max = 559
2171016		 # 	collision with: 3 5 4 0 0  and 4 5 4 0 0 
 # max = 559
2171018		 # 	collision with: 2 5 4 0 0  and 3 5 4 0 0 
 # max = 559
2171036		 # 	collision with: 3 5 1 0 0  and 4 5 1 0 0 
 # max = 559
2171038		 # 	collision with: 2 5 1 0 0  and 3 5 1 0 0 
 # max = 559
2171045		 # 	collision with: 5 2 2 0 0  and 2 3 3 0 0 
 # max = 559
2171053		 # 	collision with: 1 1 2 0 0  and 6 0 3 0 0 
 # max = 559
2171055		 # 	collision with: 0 1 2 0 0  and 5 3 2 0 0 
 # max = 559
2171060		 # 	collision with: 1 1 2 0 0  and 1 2 2 0 0 
 # max = 559
2171062		 # 	collision with: 1 0 2 0 0  and 1 1 2 0 0 
 # max = 559
2171064		 # 	collision with: 3 5 2 0 0  and 4 5 2 0 0 
 # max = 559
2171066		 # 	collision with: 2 5 2 0 0  and 3 5 2 0 0 
 # max = 559
2171078		 # 	collision with: 2 5 3 0 0  and 3 5 3 0 0 
 # max = 559
2171092		 # 	collision with: 6 2 0 0 0  and 3 1 1 1 0 
 # max = 559
2171094		 # 	collision with: 5 0 6 0 0  and 3 4 0 1 0 
 # max = 559
2171120		 # 	collision with: 3 5 4 0 0  and 4 5 4 0 0 
 # max = 559
2171122		 # 	collision with: 2 5 4 0 0  and 3 5 4 0 0 
 # max = 559
2171136		 # 	collision with: 6 0 1 0 0  and 1 2 1 0 0 
 # max = 559
2171138		 # 	collision with: 2 1 1 0 0  and 2 3 1 0 0 
 # max = 559
2171148		 # 	collision with: 3 5 2 0 0  and 4 5 2 0 0 
 # max = 559
2171150		 # 	collision with: 2 5 2 0 0  and 3 5 2 0 0 
 # max = 559
2171154		 # 	collision with: 2 5 3 0 0  and 3 5 3 0 0 
 # max = 559
2171161		 # 	collision with: 2 1 0 0 0  and 5 3 0 0 0 
 # max = 559
2171163		 # 	collision with: 2 2 2 0 0  and 3 3 2 0 0 
 # max = 559
2171169		 # 	collision with: 3 5 0 0 0  and 4 5 0 0 0 
 # max = 559
2171171		 # 	collision with: 2 1 0 0 0  and 2 3 0 0 0 
 # max = 559
2171176		 # 	collision with: 3 5 6 0 0  and 4 5 6 0 0 
 # max = 559
2171178		 # 	collision with: 2 5 6 0 0  and 3 5 6 0 0 
 # max = 559
2171196		 # 	collision with: 3 5 0 0 0  and 4 5 0 0 0 
 # max = 559
2171198		 # 	collision with: 2 5 0 0 0  and 3 5 0 0 0 
 # max = 559
2171201		 # 	collision with: 2 1 1 0 0  and 5 3 3 0 0 
 # max = 559
2171204		 # 	collision with: 3 5 1 0 0  and 4 5 1 0 0 
 # max = 559
2171206		 # 	collision with: 2 5 1 0 0  and 3 5 1 0 0 
 # max = 559
2171209		 # 	collision with: 1 1 1 0 0  and 1 2 1 0 0 
 # max = 559
2171211		 # 	collision with: 0 1 0 0 0  and 5 3 0 0 0 
 # max = 559
2171212		 # 	collision with: 6 0 2 0 0  and 1 2 2 0 0 
 # max = 559
2171214		 # 	collision with: 5 3 2 0 0  and 0 4 2 0 0 
 # max = 559
2171241		 # 	collision with: 6 5 1 0 0  and 1 5 3 0 0 
 # max = 559
2171243		 # 	collision with: 5 3 2 0 0  and 0 4 2 0 0 
 # max = 559
2171249		 # 	collision with: 6 1 0 0 0  and 6 3 0 0 0 
 # max = 559
2171251		 # 	collision with: 2 5 0 0 0  and 3 5 0 0 0 
 # max = 559
2171256		 # 	collision with: 3 0 3 0 0  and 3 2 3 0 0 
 # max = 559
2171258		 # 	collision with: 3 3 3 0 0  and 3 4 3 0 0 
 # max = 559
2171260		 # 	collision with: 3 5 3 0 0  and 4 5 3 0 0 
 # max = 559
2171262		 # 	collision with: 2 5 3 0 0  and 3 5 3 0 0 
 # max = 559
2171272		 # 	collision with: 3 5 4 0 0  and 4 5 4 0 0 
 # max = 559
2171274		 # 	collision with: 2 5 4 0 0  and 3 5 4 0 0 
 # max = 559
2171288		 # 	collision with: 3 6 2 0 0  and 1 2 1 1 0 
 # max = 559
2171290		 # 	collision with: 0 0 3 0 0  and 6 4 2 1 0 
 # max = 559
2171316		 # 	collision with: 3 5 3 0 0  and 4 5 3 0 0 
 # max = 559
2171318		 # 	collision with: 2 5 3 0 0  and 3 5 3 0 0 
 # max = 559
2171332		 # 	collision with: 3 5 4 0 0  and 4 5 4 0 0 
 # max = 559
2171334		 # 	collision with: 2 5 4 0 0  and 3 5 4 0 0 
 # max = 559
2171348		 # 	collision with: 6 0 3 0 0  and 1 2 3 0 0 
 # max = 559
2171350		 # 	collision with: 4 1 3 0 0  and 4 2 3 0 0 
 # max = 559
2171357		 # 	collision with: 1 1 0 0 0  and 1 2 0 0 0 
 # max = 559
2171359		 # 	collision with: 5 5 1 0 0  and 0 0 2 0 0 
 # max = 559
2171365		 # 	collision with: 6 2 1 0 0  and 6 2 2 0 0 
 # max = 559
2171367		 # 	collision with: 2 2 1 0 0  and 3 3 1 0 0 
 # max = 559
2171372		 # 	collision with: 3 5 1 0 0  and 4 5 1 0 0 
 # max = 559
2171374		 # 	collision with: 2 5 1 0 0  and 3 5 1 0 0 
 # max = 559
2171392		 # 	collision with: 5 2 2 0 0  and 2 3 2 0 0 
 # max = 559
2171394		 # 	collision with: 4 1 2 0 0  and 4 2 2 0 0 
 # max = 559
2171397		 # 	collision with: 6 1 1 0 0  and 6 3 1 0 0 
 # max = 559
2171399		 # 	collision with: 4 1 0 0 0  and 4 2 0 0 0 
 # max = 559
2171400		 # 	collision with: 3 5 6 0 0  and 4 5 6 0 0 
 # max = 559
2171402		 # 	collision with: 2 5 6 0 0  and 3 5 6 0 0 
 # max = 559
2171405		 # 	collision with: 6 3 1 0 0  and 6 3 2 0 0 
 # max = 559
2171408		 # 	collision with: 3 5 0 0 0  and 4 5 0 0 0 
 # max = 559
2171410		 # 	collision with: 2 5 0 0 0  and 3 5 0 0 0 
 # max = 559
2171428		 # 	collision with: 3 5 2 0 0  and 4 5 2 0 0 
 # max = 559
2171430		 # 	collision with: 2 5 2 0 0  and 3 5 2 0 0 
 # max = 559
2171437		 # 	collision with: 3 5 0 0 0  and 4 5 0 0 0 
 # max = 559
2171439		 # 	collision with: 1 5 1 0 0  and 1 5 2 0 0 
 # max = 559
2171445		 # 	collision with: 2 2 1 0 0  and 2 4 1 0 0 
 # max = 559
2171447		 # 	collision with: 4 0 1 0 0  and 4 3 2 0 0 
 # max = 559
2171454		 # 	collision with: 2 5 3 0 0  and 3 5 3 0 0 
 # max = 559
2171456		 # 	collision with: 3 5 4 0 0  and 4 5 4 0 0 
 # max = 559
2171458		 # 	collision with: 2 5 4 0 0  and 3 5 4 0 0 
 # max = 559
2171468		 # 	collision with: 5 0 1 0 0  and 5 1 1 0 0 
 # max = 559
2171470		 # 	collision with: 5 2 1 0 0  and 5 4 1 0 0 
 # max = 559
2171484		 # 	collision with: 5 5 6 0 0  and 1 5 1 1 0 
 # max = 559
2171486		 # 	collision with: 1 0 5 0 0  and 0 3 0 1 0 
 # max = 559
2171512		 # 	collision with: 3 5 2 0 0  and 4 5 2 0 0 
 # max = 559
2171514		 # 	collision with: 2 5 2 0 0  and 3 5 2 0 0 
 # max = 559
2171530		 # 	collision with: 2 5 3 0 0  and 3 5 3 0 0 
 # max = 559
2171540		 # 	collision with: 3 5 1 0 0  and 4 5 1 0 0 
 # max = 559
2171542		 # 	collision with: 2 5 1 0 0  and 3 5 1 0 0 
 # max = 559
2171544		 # 	collision with: 2 1 2 0 0  and 5 3 2 0 0 
 # max = 559
2171546		 # 	collision with: 6 0 2 0 0  and 6 2 2 0 0 
 # max = 559
2171553		 # 	collision with: 3 5 0 0 0  and 4 0 2 0 0 
 # max = 559
2171555		 # 	collision with: 5 2 1 0 0  and 5 4 1 0 0 
 # max = 559
2171561		 # 	collision with: 6 0 0 0 0  and 1 2 0 0 0 
 # max = 559
2171568		 # 	collision with: 3 5 3 0 0  and 4 5 3 0 0 
 # max = 559
2171570		 # 	collision with: 2 5 3 0 0  and 3 5 3 0 0 
 # max = 559
2171588		 # 	collision with: 3 5 4 0 0  and 4 5 4 0 0 
 # max = 559
2171590		 # 	collision with: 2 5 4 0 0  and 3 5 4 0 0 
 # max = 559
2171593		 # 	collision with: 3 5 0 0 0  and 4 5 0 0 0 
 # max = 559
2171595		 # 	collision with: 6 4 0 0 0  and 6 4 2 0 0 
 # max = 559
2171596		 # 	collision with: 3 5 4 0 0  and 4 5 4 0 0 
 # max = 559
2171598		 # 	collision with: 2 5 4 0 0  and 3 5 4 0 0 
 # max = 559
2171601		 # 	collision with: 3 0 0 0 0  and 3 2 0 0 0 
 # max = 559
2171603		 # 	collision with: 1 0 1 0 0  and 1 1 1 0 0 
 # max = 559
2171604		 # 	collision with: 4 2 1 0 0  and 4 3 1 0 0 
 # max = 559
2171606		 # 	collision with: 4 1 1 0 0  and 4 2 1 0 0 
 # max = 559
2171624		 # 	collision with: 3 5 6 0 0  and 4 5 6 0 0 
 # max = 559
2171626		 # 	collision with: 2 5 6 0 0  and 3 5 6 0 0 
 # max = 559
2171633		 # 	collision with: 3 4 0 0 0  and 4 0 2 0 0 
 # max = 559
2171635		 # 	collision with: 6 5 0 0 0  and 6 5 2 0 0 
 # max = 559
2171641		 # 	collision with: 6 0 2 0 0  and 1 1 2 0 0 
 # max = 559
2171643		 # 	collision with: 6 0 0 0 0  and 6 2 0 0 0 
 # max = 559
2171648		 # 	collision with: 3 5 0 0 0  and 4 5 0 0 0 
 # max = 559
2171650		 # 	collision with: 2 5 0 0 0  and 3 5 0 0 0 
 # max = 559
2171664		 # 	collision with: 6 1 3 0 0  and 6 3 3 0 0 
 # max = 559
2171666		 # 	collision with: 0 0 3 0 0  and 5 1 3 0 0 
 # max = 559
2171680		 # 	collision with: 3 4 4 0 0  and 2 5 1 1 0 
 # max = 559
2171682		 # 	collision with: 3 5 3 0 0  and 4 5 0 1 0 
 # max = 559
2171708		 # 	collision with: 3 5 1 0 0  and 4 5 1 0 0 
 # max = 559
2171710		 # 	collision with: 2 5 1 0 0  and 3 5 1 0 0 
 # max = 559
2171724		 # 	collision with: 6 0 2 0 0  and 1 1 2 0 0 
 # max = 559
2171726		 # 	collision with: 2 2 2 0 0  and 3 4 2 0 0 
 # max = 559
2171736		 # 	collision with: 3 5 4 0 0  and 4 5 4 0 0 
 # max = 559
2171738		 # 	collision with: 2 5 4 0 0  and 3 5 4 0 0 
 # max = 559
2171740		 # 	collision with: 1 1 1 0 0  and 1 2 1 0 0 
 # max = 559
2171742		 # 	collision with: 1 0 1 0 0  and 1 1 1 0 0 
 # max = 559
2171749		 # 	collision with: 3 5 0 0 0  and 4 5 0 0 0 
 # max = 559
2171759		 # 	collision with: 0 0 0 0 0  and 5 1 0 0 0 
 # max = 559
2171784		 # 	collision with: 5 0 3 0 0  and 5 1 3 0 0 
 # max = 559
2171786		 # 	collision with: 5 3 3 0 0  and 0 4 3 0 0 
 # max = 559
2171789		 # 	collision with: 6 0 1 0 0  and 1 2 1 0 0 
 # max = 559
2171791		 # 	collision with: 6 0 1 0 0  and 6 2 1 0 0 
 # max = 559
2171792		 # 	collision with: 3 5 2 0 0  and 4 5 2 0 0 
 # max = 559
2171794		 # 	collision with: 2 5 2 0 0  and 3 5 2 0 0 
 # max = 559
2171797		 # 	collision with: 1 3 0 0 0  and 1 3 1 0 0 
 # max = 559
2171799		 # 	collision with: 4 4 0 0 0  and 1 1 1 0 0 
 # max = 559
2171802		 # 	collision with: 2 5 3 0 0  and 3 5 3 0 0 
 # max = 559
2171820		 # 	collision with: 3 5 3 0 0  and 4 5 3 0 0 
 # max = 559
2171822		 # 	collision with: 2 5 3 0 0  and 3 5 3 0 0 
 # max = 559
2171829		 # 	collision with: 5 0 0 0 0  and 5 1 0 0 0 
 # max = 559
2171831		 # 	collision with: 2 5 0 0 0  and 3 5 0 0 0 
 # max = 559
2171839		 # 	collision with: 4 1 0 0 0  and 4 2 1 0 0 
 # max = 559
2171844		 # 	collision with: 3 5 4 0 0  and 4 5 4 0 0 
 # max = 559
2171846		 # 	collision with: 2 5 4 0 0  and 3 5 4 0 0 
 # max = 559
2171848		 # 	collision with: 3 5 6 0 0  and 4 5 6 0 0 
 # max = 559
2171850		 # 	collision with: 2 5 6 0 0  and 3 5 6 0 0 
 # max = 559
2171860		 # 	collision with: 3 5 0 0 0  and 4 5 0 0 0 
 # max = 559
2171862		 # 	collision with: 2 5 0 0 0  and 3 5 0 0 0 
 # max = 559
2171924		 # 	collision with: 3 0 0 0 0  and 3 2 0 0 0 
 # max = 559
2171926		 # 	collision with: 5 2 0 0 0  and 5 4 0 0 0 
 # max = 559
2171928		 # 	collision with: 5 0 0 0 0  and 5 1 0 0 0 
 # max = 559
2171930		 # 	collision with: 6 0 0 0 0  and 6 2 0 0 0 
 # max = 559
2171941		 # 	collision with: 3 5 2 0 0  and 4 5 2 0 0 
 # max = 559
2171943		 # 	collision with: 2 6 2 0 0  and 3 6 2 0 0 
 # max = 559
2171944		 # 	collision with: 4 2 0 0 0  and 4 3 0 0 0 
 # max = 559
2171946		 # 	collision with: 2 1 0 0 0  and 2 3 0 0 0 
 # max = 559
2171952		 # 	collision with: 3 0 0 0 0  and 3 2 0 0 0 
 # max = 559
2171954		 # 	collision with: 5 2 0 0 0  and 5 4 0 0 0 
 # max = 559
2171957		 # 	collision with: 3 0 2 0 0  and 3 2 2 0 0 
 # max = 559
2171964		 # 	collision with: 6 0 0 0 0  and 1 2 0 0 0 
 # max = 559
2171966		 # 	collision with: 3 0 0 0 0  and 2 1 0 0 0 
 # max = 559
2171976		 # 	collision with: 5 2 0 0 0  and 2 3 0 0 0 
 # max = 559
2171978		 # 	collision with: 4 3 0 0 0  and 1 4 0 0 0 
 # max = 559
2171987		 # 	collision with: 6 0 3 0 0  and 6 2 4 0 0 
 # max = 559
2171995		 # 	collision with: 3 3 0 0 0  and 3 4 0 0 0 
 # max = 559
2172000		 # 	collision with: 4 2 0 0 0  and 4 3 0 0 0 
 # max = 559
2172002		 # 	collision with: 2 1 0 0 0  and 2 3 0 0 0 
 # max = 559
2172012		 # 	collision with: 5 0 0 0 0  and 5 1 0 0 0 
 # max = 559
2172014		 # 	collision with: 6 0 0 0 0  and 6 2 0 0 0 
 # max = 559
2172021		 # 	collision with: 2 2 1 0 0  and 2 4 1 0 0 
 # max = 559
2172024		 # 	collision with: 6 0 0 0 0  and 1 1 0 0 0 
 # max = 559
2172026		 # 	collision with: 1 3 0 0 0  and 1 5 0 0 0 
 # max = 559
2172032		 # 	collision with: 5 2 0 0 0  and 2 3 0 0 0 
 # max = 559
2172034		 # 	collision with: 4 3 0 0 0  and 1 4 0 0 0 
 # max = 559
2172037		 # 	collision with: 2 1 2 0 0  and 5 3 2 0 0 
 # max = 559
2172039		 # 	collision with: 2 6 0 0 0  and 3 6 0 0 0 
 # max = 559
2172048		 # 	collision with: 6 0 0 0 0  and 1 2 0 0 0 
 # max = 559
2172050		 # 	collision with: 3 0 0 0 0  and 2 1 0 0 0 
 # max = 559
2172052		 # 	collision with: 6 0 0 0 0  and 1 1 0 0 0 
 # max = 559
2172054		 # 	collision with: 1 3 0 0 0  and 1 5 0 0 0 
 # max = 559
2172072		 # 	collision with: 4 0 0 0 0  and 0 1 2 1 0 
 # max = 559
2172074		 # 	collision with: 2 3 5 0 0  and 6 1 0 1 0 
 # max = 559
2172122		 # 	collision with: 5 1 4 0 0  and 0 2 4 0 0 
 # max = 559
2172124		 # 	collision with: 4 2 1 0 0  and 4 3 1 0 0 
 # max = 559
2172126		 # 	collision with: 5 2 1 0 0  and 5 4 1 0 0 
 # max = 559
2172137		 # 	collision with: 2 2 0 0 0  and 2 4 0 0 0 
 # max = 559
2172139		 # 	collision with: 2 1 1 0 0  and 2 3 1 0 0 
 # max = 559
2172140		 # 	collision with: 1 1 2 0 0  and 1 2 2 0 0 
 # max = 559
2172142		 # 	collision with: 2 6 1 0 0  and 3 6 1 0 0 
 # max = 559
2172148		 # 	collision with: 3 5 1 0 0  and 4 5 1 0 0 
 # max = 559
2172153		 # 	collision with: 3 5 2 0 0  and 4 5 2 0 0 
 # max = 559
2172155		 # 	collision with: 2 6 0 0 0  and 3 6 0 0 0 
 # max = 559
2172160		 # 	collision with: 3 5 5 0 0  and 4 5 5 0 0 
 # max = 559
2172172		 # 	collision with: 3 5 0 0 0  and 4 5 0 0 0 
 # max = 559
2172174		 # 	collision with: 2 6 1 0 0  and 3 6 1 0 0 
 # max = 559
2172181		 # 	collision with: 6 0 3 0 0  and 1 2 3 0 0 
 # max = 559
2172183		 # 	collision with: 2 6 0 0 0  and 3 6 0 0 0 
 # max = 559
2172189		 # 	collision with: 3 5 2 0 0  and 4 5 2 0 0 
 # max = 559
2172191		 # 	collision with: 2 1 2 0 0  and 2 3 2 0 0 
 # max = 559
2172196		 # 	collision with: 1 1 2 0 0  and 1 2 2 0 0 
 # max = 559
2172198		 # 	collision with: 5 1 2 0 0  and 0 2 2 0 0 
 # max = 559
2172208		 # 	collision with: 5 2 1 0 0  and 2 3 1 0 0 
 # max = 559
2172210		 # 	collision with: 3 0 1 0 0  and 2 1 1 0 0 
 # max = 559
2172217		 # 	collision with: 2 1 2 0 0  and 5 3 2 0 0 
 # max = 559
2172219		 # 	collision with: 2 1 2 0 0  and 2 3 2 0 0 
 # max = 559
2172220		 # 	collision with: 3 5 2 0 0  and 4 5 2 0 0 
 # max = 559
2172222		 # 	collision with: 5 1 3 0 0  and 0 2 3 0 0 
 # max = 559
2172228		 # 	collision with: 3 5 0 0 0  and 4 5 0 0 0 
 # max = 559
2172230		 # 	collision with: 2 6 2 0 0  and 3 6 2 0 0 
 # max = 559
2172233		 # 	collision with: 4 2 3 0 0  and 4 3 3 0 0 
 # max = 559
2172235		 # 	collision with: 5 2 0 0 0  and 5 4 0 0 0 
 # max = 559
2172246		 # 	collision with: 2 6 0 0 0  and 3 6 0 0 0 
 # max = 559
2172248		 # 	collision with: 5 0 3 0 0  and 5 1 3 0 0 
 # max = 559
2172250		 # 	collision with: 4 1 3 0 0  and 4 2 3 0 0 
 # max = 559
2172268		 # 	collision with: 6 3 6 0 0  and 5 3 0 1 0 
 # max = 559
2172270		 # 	collision with: 0 2 0 0 0  and 4 3 1 1 0 
 # max = 559
2172316		 # 	collision with: 1 1 1 0 0  and 1 2 1 0 0 
 # max = 559
2172318		 # 	collision with: 3 0 1 0 0  and 2 1 1 0 0 
 # max = 559
2172320		 # 	collision with: 3 0 2 0 0  and 3 2 2 0 0 
 # max = 559
2172322		 # 	collision with: 4 1 2 0 0  and 4 2 2 0 0 
 # max = 559
2172333		 # 	collision with: 3 5 1 0 0  and 4 5 1 0 0 
 # max = 559
2172335		 # 	collision with: 2 6 1 0 0  and 3 6 1 0 0 
 # max = 559
2172338		 # 	collision with: 4 3 4 0 0  and 1 4 4 0 0 
 # max = 559
2172344		 # 	collision with: 1 1 1 0 0  and 1 2 1 0 0 
 # max = 559
2172346		 # 	collision with: 3 3 1 0 0  and 3 4 1 0 0 
 # max = 559
2172349		 # 	collision with: 5 2 0 0 0  and 2 3 0 0 0 
 # max = 559
2172351		 # 	collision with: 5 2 1 0 0  and 5 4 1 0 0 
 # max = 559
2172356		 # 	collision with: 3 5 0 0 0  and 4 5 0 0 0 
 # max = 559
2172358		 # 	collision with: 2 6 2 0 0  and 3 6 2 0 0 
 # max = 559
2172368		 # 	collision with: 3 5 2 0 0  and 4 5 2 0 0 
 # max = 559
2172370		 # 	collision with: 2 6 3 0 0  and 3 6 3 0 0 
 # max = 559
2172377		 # 	collision with: 5 2 0 0 0  and 2 3 0 0 0 
 # max = 559
2172379		 # 	collision with: 5 2 1 0 0  and 5 4 1 0 0 
 # max = 559
2172385		 # 	collision with: 3 5 0 0 0  and 4 5 0 0 0 
 # max = 559
2172387		 # 	collision with: 2 6 2 0 0  and 3 6 2 0 0 
 # max = 559
2172392		 # 	collision with: 3 5 1 0 0  and 4 5 1 0 0 
 # max = 559
2172404		 # 	collision with: 6 0 2 0 0  and 1 1 2 0 0 
 # max = 559
2172406		 # 	collision with: 2 6 1 0 0  and 3 6 1 0 0 
 # max = 559
2172413		 # 	collision with: 3 5 0 0 0  and 4 5 0 0 0 
 # max = 559
2172415		 # 	collision with: 5 5 2 0 0  and 5 5 3 0 0 
 # max = 559
2172418		 # 	collision with: 2 6 0 0 0  and 3 6 0 0 0 
 # max = 559
2172424		 # 	collision with: 6 0 3 0 0  and 1 1 3 0 0 
 # max = 559
2172426		 # 	collision with: 5 1 3 0 0  and 0 3 3 0 0 
 # max = 559
2172429		 # 	collision with: 4 1 2 0 0  and 4 1 3 0 0 
 # max = 559
2172431		 # 	collision with: 4 3 1 0 0  and 1 4 1 0 0 
 # max = 559
2172440		 # 	collision with: 3 5 0 0 0  and 4 5 0 0 0 
 # max = 559
2172442		 # 	collision with: 2 6 1 0 0  and 3 6 1 0 0 
 # max = 559
2172444		 # 	collision with: 3 5 5 0 0  and 4 5 5 0 0 
 # max = 559
2172464		 # 	collision with: 6 0 4 0 0  and 4 0 0 1 0 
 # max = 559
2172466		 # 	collision with: 6 6 5 0 0  and 5 3 1 1 0 
 # max = 559
2172512		 # 	collision with: 3 5 0 0 0  and 4 5 0 0 0 
 # max = 559
2172514		 # 	collision with: 2 6 2 0 0  and 3 6 2 0 0 
 # max = 559
2172516		 # 	collision with: 3 5 2 0 0  and 4 5 2 0 0 
 # max = 559
2172518		 # 	collision with: 4 3 3 0 0  and 1 4 3 0 0 
 # max = 559
2172529		 # 	collision with: 3 0 1 0 0  and 3 2 1 0 0 
 # max = 559
2172531		 # 	collision with: 3 3 2 0 0  and 3 4 2 0 0 
 # max = 559
2172532		 # 	collision with: 3 5 5 0 0  and 4 5 5 0 0 
 # max = 559
2172540		 # 	collision with: 3 5 0 0 0  and 4 5 0 0 0 
 # max = 559
2172542		 # 	collision with: 2 6 1 0 0  and 3 6 1 0 0 
 # max = 559
2172547		 # 	collision with: 1 1 1 0 0  and 1 1 3 0 0 
 # max = 559
2172554		 # 	collision with: 1 0 4 0 0  and 1 1 4 0 0 
 # max = 559
2172564		 # 	collision with: 3 5 4 0 0  and 4 5 4 0 0 
 # max = 559
2172566		 # 	collision with: 1 2 1 0 0  and 4 4 1 0 0 
 # max = 559
2172573		 # 	collision with: 4 2 1 0 0  and 4 3 1 0 0 
 # max = 559
2172581		 # 	collision with: 6 1 0 0 0  and 6 3 0 0 0 
 # max = 559
2172583		 # 	collision with: 2 6 0 0 0  and 3 6 0 0 0 
 # max = 559
2172590		 # 	collision with: 2 6 0 0 0  and 3 6 0 0 0 
 # max = 559
2172600		 # 	collision with: 2 2 3 0 0  and 2 4 3 0 0 
 # max = 559
2172602		 # 	collision with: 5 1 3 0 0  and 0 3 3 0 0 
 # max = 559
2172609		 # 	collision with: 6 1 0 0 0  and 6 3 0 0 0 
 # max = 559
2172611		 # 	collision with: 2 6 0 0 0  and 3 6 0 0 0 
 # max = 559
2172612		 # 	collision with: 4 2 2 0 0  and 4 3 2 0 0 
 # max = 559
2172614		 # 	collision with: 3 0 2 0 0  and 2 1 2 0 0 
 # max = 559
2172620		 # 	collision with: 3 5 1 0 0  and 4 5 1 0 0 
 # max = 559
2172622		 # 	collision with: 3 0 1 0 0  and 2 1 1 0 0 
 # max = 559
2172636		 # 	collision with: 3 5 1 0 0  and 4 5 1 0 0 
 # max = 559
2172640		 # 	collision with: 4 2 2 0 0  and 4 3 2 0 0 
 # max = 559
2172642		 # 	collision with: 2 6 1 0 0  and 3 6 1 0 0 
 # max = 559
2172660		 # 	collision with: 6 0 3 0 0  and 0 6 0 1 0 
 # max = 559
2172662		 # 	collision with: 2 4 3 0 0  and 0 1 0 1 0 
 # max = 559
2172708		 # 	collision with: 6 0 2 0 0  and 1 2 2 0 0 
 # max = 559
2172710		 # 	collision with: 2 6 1 0 0  and 3 6 1 0 0 
 # max = 559
2172712		 # 	collision with: 3 5 1 0 0  and 4 5 1 0 0 
 # max = 559
2172728		 # 	collision with: 2 1 1 0 0  and 5 3 1 0 0 
 # max = 559
2172730		 # 	collision with: 3 0 1 0 0  and 2 1 1 0 0 
 # max = 559
2172736		 # 	collision with: 6 1 2 0 0  and 6 3 2 0 0 
 # max = 559
2172738		 # 	collision with: 1 0 2 0 0  and 1 1 2 0 0 
 # max = 559
2172741		 # 	collision with: 1 0 1 0 0  and 1 0 2 0 0 
 # max = 559
2172743		 # 	collision with: 4 0 1 0 0  and 4 0 2 0 0 
 # max = 559
2172748		 # 	collision with: 1 1 3 0 0  and 1 2 3 0 0 
 # max = 559
2172750		 # 	collision with: 3 0 3 0 0  and 2 1 3 0 0 
 # max = 559
2172762		 # 	collision with: 2 6 0 0 0  and 3 6 0 0 0 
 # max = 559
2172769		 # 	collision with: 2 1 1 0 0  and 5 3 1 0 0 
 # max = 559
2172771		 # 	collision with: 5 1 1 0 0  and 0 3 1 0 0 
 # max = 559
2172777		 # 	collision with: 4 0 1 0 0  and 4 0 2 0 0 
 # max = 559
2172784		 # 	collision with: 6 1 1 0 0  and 6 3 1 0 0 
 # max = 559
2172786		 # 	collision with: 4 1 1 0 0  and 4 2 1 0 0 
 # max = 559
2172798		 # 	collision with: 5 1 4 0 0  and 0 3 4 0 0 
 # max = 559
2172807		 # 	collision with: 6 0 1 0 0  and 6 2 1 0 0 
 # max = 559
2172808		 # 	collision with: 3 5 0 0 0  and 4 5 0 0 0 
 # max = 559
2172810		 # 	collision with: 2 6 1 0 0  and 3 6 1 0 0 
 # max = 559
2172816		 # 	collision with: 3 5 5 0 0  and 4 5 5 0 0 
 # max = 559
2172821		 # 	collision with: 6 0 1 0 0  and 6 0 2 0 0 
 # max = 559
2172823		 # 	collision with: 5 1 0 0 0  and 0 2 0 0 0 
 # max = 559
2172832		 # 	collision with: 3 5 2 0 0  and 4 5 2 0 0 
 # max = 559
2172834		 # 	collision with: 1 2 3 0 0  and 4 4 3 0 0 
 # max = 559
2172836		 # 	collision with: 3 5 0 0 0  and 4 5 0 0 0 
 # max = 559
2172838		 # 	collision with: 2 6 2 0 0  and 3 6 2 0 0 
 # max = 559
2172856		 # 	collision with: 5 5 1 0 0  and 6 1 0 1 0 
 # max = 559
2172858		 # 	collision with: 1 1 3 0 0  and 0 1 2 1 0 
 # max = 559
2172904		 # 	collision with: 3 5 5 0 0  and 4 5 5 0 0 
 # max = 559
2172908		 # 	collision with: 3 5 0 0 0  and 4 5 0 0 0 
 # max = 559
2172910		 # 	collision with: 2 6 1 0 0  and 3 6 1 0 0 
 # max = 559
2172921		 # 	collision with: 2 5 0 0 0  and 2 1 2 0 0 
 # max = 559
2172923		 # 	collision with: 5 1 0 0 0  and 0 3 2 0 0 
 # max = 559
2172924		 # 	collision with: 3 0 3 0 0  and 3 2 3 0 0 
 # max = 559
2172926		 # 	collision with: 1 0 3 0 0  and 1 1 3 0 0 
 # max = 559
2172934		 # 	collision with: 2 6 0 0 0  and 3 6 0 0 0 
 # max = 559
2172937		 # 	collision with: 3 5 0 0 0  and 4 5 0 0 0 
 # max = 559
2172939		 # 	collision with: 6 0 0 0 0  and 6 2 0 0 0 
 # max = 559
2172944		 # 	collision with: 5 0 2 0 0  and 5 1 2 0 0 
 # max = 559
2172946		 # 	collision with: 2 6 1 0 0  and 3 6 1 0 0 
 # max = 559
2172956		 # 	collision with: 3 5 1 0 0  and 4 5 1 0 0 
 # max = 559
2172965		 # 	collision with: 3 5 0 0 0  and 4 5 0 0 0 
 # max = 559
2172967		 # 	collision with: 6 0 0 0 0  and 6 2 0 0 0 
 # max = 559
2172973		 # 	collision with: 3 5 1 0 0  and 4 5 1 0 0 
 # max = 559
2172975		 # 	collision with: 6 1 0 0 0  and 6 1 2 0 0 
 # max = 559
2172980		 # 	collision with: 3 5 2 0 0  and 4 5 2 0 0 
 # max = 559
2172982		 # 	collision with: 1 0 3 0 0  and 1 1 3 0 0 
 # max = 559
2172992		 # 	collision with: 3 5 0 0 0  and 4 5 0 0 0 
 # max = 559
2172994		 # 	collision with: 2 6 2 0 0  and 3 6 2 0 0 
 # max = 559
2173001		 # 	collision with: 6 0 1 0 0  and 1 1 1 0 0 
 # max = 559
2173003		 # 	collision with: 2 6 1 0 0  and 3 6 1 0 0 
 # max = 559
2173004		 # 	collision with: 3 0 1 0 0  and 3 2 1 0 0 
 # max = 559
2173006		 # 	collision with: 2 1 1 0 0  and 2 3 1 0 0 
 # max = 559
2173014		 # 	collision with: 2 6 4 0 0  and 3 6 4 0 0 
 # max = 559
2173017		 # 	collision with: 3 0 0 0 0  and 3 2 0 0 0 
 # max = 559
2173019		 # 	collision with: 4 2 0 0 0  and 4 1 2 0 0 
 # max = 559
2173028		 # 	collision with: 5 0 2 0 0  and 5 1 2 0 0 
 # max = 559
2173030		 # 	collision with: 2 1 2 0 0  and 2 3 2 0 0 
 # max = 559
2173032		 # 	collision with: 6 0 1 0 0  and 1 2 1 0 0 
 # max = 559
2173034		 # 	collision with: 3 0 1 0 0  and 2 1 1 0 0 
 # max = 559
2173052		 # 	collision with: 0 2 2 0 0  and 4 1 0 1 0 
 # max = 559
2173054		 # 	collision with: 2 2 2 0 0  and 4 2 0 1 0 
 # max = 559
2173100		 # 	collision with: 4 2 3 0 0  and 4 3 3 0 0 
 # max = 559
2173102		 # 	collision with: 6 0 3 0 0  and 6 2 3 0 0 
 # max = 559
2173106		 # 	collision with: 2 6 0 0 0  and 3 6 0 0 0 
 # max = 559
2173117		 # 	collision with: 4 1 0 0 0  and 4 1 1 0 0 
 # max = 559
2173119		 # 	collision with: 1 3 0 0 0  and 1 5 0 0 0 
 # max = 559
2173120		 # 	collision with: 3 5 0 0 0  and 4 5 0 0 0 
 # max = 559
2173122		 # 	collision with: 2 6 2 0 0  and 3 6 2 0 0 
 # max = 559
2173128		 # 	collision with: 3 5 2 0 0  and 4 5 2 0 0 
 # max = 559
2173130		 # 	collision with: 6 0 3 0 0  and 6 2 3 0 0 
 # max = 559
2173133		 # 	collision with: 5 0 0 0 0  and 5 1 0 0 0 
 # max = 559
2173135		 # 	collision with: 4 4 0 0 0  and 1 2 1 0 0 
 # max = 559
2173140		 # 	collision with: 2 2 1 0 0  and 2 4 1 0 0 
 # max = 559
2173142		 # 	collision with: 3 0 1 0 0  and 2 1 1 0 0 
 # max = 559
2173152		 # 	collision with: 2 1 2 0 0  and 5 3 2 0 0 
 # max = 559
2173154		 # 	collision with: 5 1 2 0 0  and 0 3 2 0 0 
 # max = 559
2173161		 # 	collision with: 5 0 0 0 0  and 5 1 0 0 0 
 # max = 559
2173163		 # 	collision with: 5 4 0 0 0  and 5 2 1 0 0 
 # max = 559
2173169		 # 	collision with: 6 4 0 0 0  and 6 0 1 0 0 
 # max = 559
2173171		 # 	collision with: 3 2 0 0 0  and 3 2 1 0 0 
 # max = 559
2173176		 # 	collision with: 3 5 0 0 0  and 4 5 0 0 0 
 # max = 559
2173178		 # 	collision with: 2 6 1 0 0  and 3 6 1 0 0 
 # max = 559
2173188		 # 	collision with: 3 5 5 0 0  and 4 5 5 0 0 
 # max = 559
2173197		 # 	collision with: 3 4 0 0 0  and 4 0 1 0 0 
 # max = 559
2173199		 # 	collision with: 2 5 0 0 0  and 3 1 1 0 0 
 # max = 559
2173200		 # 	collision with: 3 5 1 0 0  and 4 5 1 0 0 
 # max = 559
2173208		 # 	collision with: 1 2 2 0 0  and 6 4 2 0 0 
 # max = 559
2173210		 # 	collision with: 2 6 1 0 0  and 3 6 1 0 0 
 # max = 559
2173213		 # 	collision with: 1 1 1 0 0  and 1 2 1 0 0 
 # max = 559
2173215		 # 	collision with: 3 4 0 0 0  and 3 3 1 0 0 
 # max = 559
2173224		 # 	collision with: 6 0 1 0 0  and 1 2 1 0 0 
 # max = 559
2173226		 # 	collision with: 5 1 1 0 0  and 0 2 1 0 0 
 # max = 559
2173230		 # 	collision with: 1 2 4 0 0  and 4 4 4 0 0 
 # max = 559
2173248		 # 	collision with: 5 2 0 0 0  and 2 3 0 0 0 
 # max = 559
2173249		 # 	collision with: 3 5 0 0 0  and 4 5 0 0 0 
 # max = 559
2173250		 # 	collision with: 2 0 0 0 0  and 3 0 0 0 0 
 # max = 559
2173251		 # 	collision with: 4 1 3 0 0  and 4 2 4 0 0 
 # max = 559
2173284		 # 	collision with: 3 0 0 0 0  and 3 2 0 0 0 
 # max = 559
2173285		 # 	collision with: 5 6 3 0 0  and 2 3 4 0 0 
 # max = 559
2173286		 # 	collision with: 2 0 0 0 0  and 3 0 0 0 0 
 # max = 559
2173287		 # 	collision with: 2 0 2 0 0  and 3 0 2 0 0 
 # max = 559
32.402secs	559 17986
