# prime 7
# degree 2
# input variables 3
# output variables 5
# reload computed balance functions from file balance-130of320-p7d2m3-debug.log
# p = 7
# n = 5
# smalldomain p^m 343
# domain p^n 16807
#	 p^2 = 49
#	 p^3 = 343
#	 p^4 = 2401
#	 p^5 = 16807
#	 p^6 = 117649
#	 p^7 = 823543
#	 p^8 = 5764801
#	 p^9 = 40353607
opening file : balance-130of320-p7d2m3-debug.log
reloading for step2...
1339017		 # 	collision with: 2 0 0 0 0  and 2 1 0 0 0 
 # max = 9
1339019		 # 	collision with: 3 0 0 0 0  and 3 1 0 0 0 
 # max = 10
1339021		 # 	collision with: 3 5 2 0 0  and 4 5 2 0 0 
 # max = 137
1339023		 # 	collision with: 5 0 0 0 0  and 5 0 1 0 0 
 # max = 137
1339053		 # 	collision with: 2 3 0 0 0  and 5 5 0 0 0 
 # max = 137
1339055		 # 	collision with: 3 0 0 0 0  and 3 0 1 0 0 
 # max = 137
1339077		 # 	collision with: 3 2 2 0 0  and 3 3 2 0 0 
 # max = 137
1339097		 # 	collision with: 6 1 3 0 0  and 1 4 4 0 0 
 # max = 225
1339123		 # 	collision with: 5 0 1 0 0  and 5 2 1 0 0 
 # max = 225
1339133		 # 	collision with: 3 5 1 0 0  and 4 5 1 0 0 
 # max = 225
1339135		 # 	collision with: 6 2 1 0 0  and 6 4 1 0 0 
 # max = 225
1339149		 # 	collision with: 2 0 4 0 0  and 2 1 4 0 0 
 # max = 225
1339151		 # 	collision with: 5 0 1 0 0  and 5 2 1 0 0 
 # max = 225
1339221		 # 	collision with: 2 2 1 0 0  and 5 3 1 0 0 
 # max = 225
1339223		 # 	collision with: 1 3 0 0 0  and 1 4 0 0 0 
 # max = 225
1339237		 # 	collision with: 3 5 1 0 0  and 4 5 1 0 0 
 # max = 225
1339239		 # 	collision with: 0 0 1 0 0  and 3 1 1 0 0 
 # max = 225
1339251		 # 	collision with: 1 3 0 0 0  and 1 4 0 0 0 
 # max = 225
1339268		 # 	collision with: 6 4 1 0 0  and 2 3 0 1 0 
 # max = 366
1339270		 # 	collision with: 4 3 1 0 0  and 3 1 0 1 0 
 # max = 366
1339273		 # 	collision with: 5 2 0 0 0  and 5 4 0 0 0 
 # max = 366
1339275		 # 	collision with: 0 2 0 0 0  and 3 4 0 0 0 
 # max = 366
1339293		 # 	collision with: 6 2 0 0 0  and 1 4 0 0 0 
 # max = 366
1339295		 # 	collision with: 1 6 2 0 0  and 1 1 4 0 0 
 # max = 366
1339317		 # 	collision with: 6 1 2 0 0  and 6 2 2 0 0 
 # max = 366
1339319		 # 	collision with: 1 0 3 0 0  and 2 0 3 0 0 
 # max = 366
1339331		 # 	collision with: 0 2 0 0 0  and 3 4 0 0 0 
 # max = 366
1339345		 # 	collision with: 3 5 1 0 0  and 4 5 1 0 0 
 # max = 366
1339347		 # 	collision with: 6 6 2 0 0  and 4 0 4 0 0 
 # max = 366
1339419		 # 	collision with: 6 2 0 0 0  and 6 4 0 0 0 
 # max = 366
1339433		 # 	collision with: 6 2 0 0 0  and 1 4 0 0 0 
 # max = 366
1339435		 # 	collision with: 1 0 2 0 0  and 2 0 2 0 0 
 # max = 366
1339445		 # 	collision with: 2 0 2 0 0  and 2 1 4 0 0 
 # max = 366
1339447		 # 	collision with: 6 2 0 0 0  and 6 4 0 0 0 
 # max = 366
1339464		 # 	collision with: 4 2 4 0 0  and 6 0 0 1 0 
 # max = 366
1339466		 # 	collision with: 4 4 4 0 0  and 5 5 0 1 0 
 # max = 383
1339469		 # 	collision with: 3 5 0 0 0  and 4 5 0 0 0 
 # max = 383
1339471		 # 	collision with: 3 1 1 0 0  and 0 3 1 0 0 
 # max = 383
1339489		 # 	collision with: 6 2 1 0 0  and 1 4 1 0 0 
 # max = 383
1339491		 # 	collision with: 1 2 0 0 0  and 2 3 0 0 0 
 # max = 383
1339513		 # 	collision with: 3 2 0 0 0  and 3 3 0 0 0 
 # max = 383
1339525		 # 	collision with: 3 5 0 0 0  and 4 5 0 0 0 
 # max = 383
1339527		 # 	collision with: 1 0 1 0 0  and 2 0 1 0 0 
 # max = 383
1339541		 # 	collision with: 3 2 0 0 0  and 3 3 0 0 0 
 # max = 383
1339543		 # 	collision with: 1 0 1 0 0  and 2 0 1 0 0 
 # max = 383
1339613		 # 	collision with: 3 4 2 0 0  and 3 4 3 0 0 
 # max = 383
1339615		 # 	collision with: 4 2 0 0 0  and 4 3 0 0 0 
 # max = 383
1339629		 # 	collision with: 3 5 2 0 0  and 4 5 2 0 0 
 # max = 383
1339631		 # 	collision with: 1 2 0 0 0  and 2 3 0 0 0 
 # max = 383
1339641		 # 	collision with: 6 4 2 0 0  and 6 4 3 0 0 
 # max = 383
1339643		 # 	collision with: 4 2 0 0 0  and 4 3 0 0 0 
 # max = 383
1339660		 # 	collision with: 0 6 1 0 0  and 3 2 3 1 0 
 # max = 507
1339662		 # 	collision with: 2 6 6 0 0  and 3 2 1 1 0 
 # max = 507
1339667		 # 	collision with: 2 1 1 0 0  and 1 2 1 0 0 
 # max = 507
1339685		 # 	collision with: 6 2 2 0 0  and 1 4 2 0 0 
 # max = 507
1339687		 # 	collision with: 1 2 1 0 0  and 2 3 1 0 0 
 # max = 507
1339709		 # 	collision with: 3 5 0 0 0  and 4 5 0 0 0 
 # max = 507
1339711		 # 	collision with: 1 0 1 0 0  and 2 0 1 0 0 
 # max = 507
1339721		 # 	collision with: 2 0 3 0 0  and 2 1 3 0 0 
 # max = 507
1339723		 # 	collision with: 5 0 2 0 0  and 5 2 2 0 0 
 # max = 507
1339737		 # 	collision with: 3 5 0 0 0  and 4 5 0 0 0 
 # max = 507
1339739		 # 	collision with: 3 0 2 0 0  and 3 1 2 0 0 
 # max = 507
1339809		 # 	collision with: 1 0 1 0 0  and 6 2 1 0 0 
 # max = 507
1339825		 # 	collision with: 5 4 1 0 0  and 5 2 3 0 0 
 # max = 507
1339837		 # 	collision with: 6 2 1 0 0  and 6 2 3 0 0 
 # max = 507
1339839		 # 	collision with: 2 1 0 0 0  and 2 3 0 0 0 
 # max = 507
1339856		 # 	collision with: 5 1 3 0 0  and 3 4 1 1 0 
 # max = 507
1339858		 # 	collision with: 3 1 3 0 0  and 2 2 1 1 0 
 # max = 507
1339861		 # 	collision with: 4 0 1 0 0  and 4 2 1 0 0 
 # max = 507
1339863		 # 	collision with: 0 0 0 0 0  and 3 0 0 0 0 
 # max = 507
1339883		 # 	collision with: 0 0 0 0 0  and 3 0 0 0 0 
 # max = 507
1339905		 # 	collision with: 1 0 1 0 0  and 1 0 2 0 0 
 # max = 507
1339907		 # 	collision with: 0 0 0 0 0  and 3 0 0 0 0 
 # max = 507
1339917		 # 	collision with: 4 0 1 0 0  and 4 2 1 0 0 
 # max = 507
1339933		 # 	collision with: 4 5 1 0 0  and 3 0 2 0 0 
 # max = 507
1340005		 # 	collision with: 3 5 0 0 0  and 4 5 0 0 0 
 # max = 507
1340007		 # 	collision with: 0 0 0 0 0  and 3 0 0 0 0 
 # max = 507
1340021		 # 	collision with: 1 4 1 0 0  and 1 0 2 0 0 
 # max = 507
1340023		 # 	collision with: 0 0 0 0 0  and 3 0 0 0 0 
 # max = 507
1340033		 # 	collision with: 3 5 0 0 0  and 4 5 0 0 0 
 # max = 507
1340035		 # 	collision with: 0 0 0 0 0  and 3 0 0 0 0 
 # max = 507
1340052		 # 	collision with: 0 4 3 0 0  and 6 5 0 1 0 
 # max = 507
1340054		 # 	collision with: 6 5 3 0 0  and 2 3 0 1 0 
 # max = 507
1340057		 # 	collision with: 6 2 3 0 0  and 1 4 3 0 0 
 # max = 507
1340059		 # 	collision with: 1 2 4 0 0  and 2 3 4 0 0 
 # max = 507
1340077		 # 	collision with: 4 0 0 0 0  and 4 2 0 0 0 
 # max = 507
1340079		 # 	collision with: 4 5 0 0 0  and 4 0 2 0 0 
 # max = 507
1340101		 # 	collision with: 1 1 1 0 0  and 1 3 1 0 0 
 # max = 507
1340103		 # 	collision with: 4 5 0 0 0  and 4 0 2 0 0 
 # max = 507
1340113		 # 	collision with: 4 5 0 0 0  and 3 0 2 0 0 
 # max = 507
1340115		 # 	collision with: 2 4 0 0 0  and 1 0 2 0 0 
 # max = 507
1340129		 # 	collision with: 1 1 1 0 0  and 1 3 1 0 0 
 # max = 507
1340131		 # 	collision with: 2 2 0 0 0  and 2 2 2 0 0 
 # max = 507
1340201		 # 	collision with: 3 5 0 0 0  and 3 5 2 0 0 
 # max = 507
1340203		 # 	collision with: 5 0 0 0 0  and 5 2 0 0 0 
 # max = 507
1340217		 # 	collision with: 4 0 0 0 0  and 4 2 0 0 0 
 # max = 507
1340219		 # 	collision with: 2 1 1 0 0  and 1 2 1 0 0 
 # max = 507
1340229		 # 	collision with: 3 5 1 0 0  and 4 5 1 0 0 
 # max = 507
1340248		 # 	collision with: 2 0 1 0 0  and 1 0 2 1 0 
 # max = 507
1340250		 # 	collision with: 5 4 6 0 0  and 3 2 0 1 0 
 # max = 507
1340253		 # 	collision with: 5 4 0 0 0  and 5 2 1 0 0 
 # max = 507
1340255		 # 	collision with: 1 6 0 0 0  and 1 1 1 0 0 
 # max = 507
1340273		 # 	collision with: 2 0 0 0 0  and 2 1 1 0 0 
 # max = 507
1340275		 # 	collision with: 3 0 0 0 0  and 3 1 1 0 0 
 # max = 507
1340297		 # 	collision with: 1 3 0 0 0  and 1 1 1 0 0 
 # max = 507
1340299		 # 	collision with: 1 5 0 0 0  and 1 2 1 0 0 
 # max = 507
1340309		 # 	collision with: 6 2 0 0 0  and 6 1 1 0 0 
 # max = 507
1340311		 # 	collision with: 3 4 0 0 0  and 0 2 1 0 0 
 # max = 507
1340327		 # 	collision with: 4 4 0 0 0  and 4 4 1 0 0 
 # max = 507
1340397		 # 	collision with: 6 1 0 0 0  and 6 2 1 0 0 
 # max = 507
1340399		 # 	collision with: 3 0 0 0 0  and 3 1 0 0 0 
 # max = 507
1340415		 # 	collision with: 1 0 1 0 0  and 2 0 1 0 0 
 # max = 507
1340425		 # 	collision with: 6 3 0 0 0  and 6 3 1 0 0 
 # max = 507
1340427		 # 	collision with: 3 0 0 0 0  and 3 1 0 0 0 
 # max = 507
1340476		 # 	collision with: 3 2 0 0 0  and 3 3 0 0 0 
 # max = 507
1340478		 # 	collision with: 4 2 0 0 0  and 6 3 0 0 0 
 # max = 507
1340480		 # 	collision with: 4 0 0 0 0  and 4 2 0 0 0 
 # max = 507
1340482		 # 	collision with: 1 3 0 0 0  and 1 4 0 0 0 
 # max = 507
1340495		 # 	collision with: 1 3 3 0 0  and 2 3 3 0 0 
 # max = 507
1340508		 # 	collision with: 4 0 0 0 0  and 4 2 0 0 0 
 # max = 507
1340510		 # 	collision with: 1 3 0 0 0  and 1 4 0 0 0 
 # max = 507
1340516		 # 	collision with: 5 2 0 0 0  and 5 4 0 0 0 
 # max = 507
1340518		 # 	collision with: 3 0 0 0 0  and 3 1 0 0 0 
 # max = 507
1340540		 # 	collision with: 6 1 0 0 0  and 6 2 0 0 0 
 # max = 507
1340542		 # 	collision with: 6 0 0 0 0  and 4 1 0 0 0 
 # max = 507
1340545		 # 	collision with: 6 4 3 0 0  and 6 4 4 0 0 
 # max = 507
1340547		 # 	collision with: 1 3 2 0 0  and 2 3 2 0 0 
 # max = 507
1340549		 # 	collision with: 3 5 1 0 0  and 4 5 1 0 0 
 # max = 507
1340551		 # 	collision with: 1 3 1 0 0  and 2 3 1 0 0 
 # max = 507
1340552		 # 	collision with: 2 0 0 0 0  and 2 1 0 0 0 
 # max = 507
1340554		 # 	collision with: 1 1 0 0 0  and 2 2 0 0 0 
 # max = 507
1340560		 # 	collision with: 3 2 0 0 0  and 3 3 0 0 0 
 # max = 507
1340562		 # 	collision with: 4 2 0 0 0  and 6 3 0 0 0 
 # max = 507
1340565		 # 	collision with: 3 5 1 0 0  and 4 5 1 0 0 
 # max = 507
1340567		 # 	collision with: 1 3 0 0 0  and 1 4 0 0 0 
 # max = 507
1340569		 # 	collision with: 2 2 3 0 0  and 5 3 3 0 0 
 # max = 507
1340571		 # 	collision with: 1 3 4 0 0  and 2 3 4 0 0 
 # max = 507
1340572		 # 	collision with: 5 2 0 0 0  and 5 4 0 0 0 
 # max = 507
1340574		 # 	collision with: 3 0 0 0 0  and 3 1 0 0 0 
 # max = 507
1340596		 # 	collision with: 6 1 0 0 0  and 6 2 0 0 0 
 # max = 507
1340598		 # 	collision with: 6 0 0 0 0  and 4 1 0 0 0 
 # max = 507
1340604		 # 	collision with: 4 1 0 0 0  and 4 1 1 0 0 
 # max = 507
1340606		 # 	collision with: 1 1 0 0 0  and 1 1 1 0 0 
 # max = 507
1340623		 # 	collision with: 1 3 0 0 0  and 1 4 0 0 0 
 # max = 507
1340632		 # 	collision with: 1 1 0 0 0  and 1 1 1 0 0 
 # max = 507
1340634		 # 	collision with: 1 6 0 0 0  and 1 1 1 0 0 
 # max = 507
1340636		 # 	collision with: 2 0 0 0 0  and 2 1 0 0 0 
 # max = 507
1340638		 # 	collision with: 1 1 0 0 0  and 2 2 0 0 0 
 # max = 507
1340640		 # 	collision with: 6 5 4 0 0  and 2 0 2 1 0 
 # max = 507
1340642		 # 	collision with: 4 5 3 0 0  and 0 3 1 1 0 
 # max = 507
1340672		 # 	collision with: 3 5 1 0 0  and 4 5 1 0 0 
 # max = 507
1340674		 # 	collision with: 1 3 3 0 0  and 2 3 3 0 0 
 # max = 507
1340678		 # 	collision with: 1 3 0 0 0  and 2 3 0 0 0 
 # max = 507
1340689		 # 	collision with: 3 5 2 0 0  and 4 5 2 0 0 
 # max = 507
1340691		 # 	collision with: 1 3 2 0 0  and 2 3 2 0 0 
 # max = 507
1340704		 # 	collision with: 3 2 3 0 0  and 3 3 3 0 0 
 # max = 507
1340706		 # 	collision with: 1 3 0 0 0  and 2 3 0 0 0 
 # max = 507
1340712		 # 	collision with: 3 5 0 0 0  and 4 5 0 0 0 
 # max = 507
1340714		 # 	collision with: 1 3 4 0 0  and 2 3 4 0 0 
 # max = 507
1340736		 # 	collision with: 2 2 2 0 0  and 5 3 2 0 0 
 # max = 507
1340738		 # 	collision with: 4 2 2 0 0  and 4 3 2 0 0 
 # max = 507
1340741		 # 	collision with: 6 2 0 0 0  and 1 4 0 0 0 
 # max = 507
1340743		 # 	collision with: 1 3 4 0 0  and 2 3 4 0 0 
 # max = 507
1340747		 # 	collision with: 6 0 1 0 0  and 4 1 1 0 0 
 # max = 507
1340748		 # 	collision with: 3 2 1 0 0  and 3 3 1 0 0 
 # max = 507
1340750		 # 	collision with: 5 0 1 0 0  and 5 2 1 0 0 
 # max = 507
1340756		 # 	collision with: 3 5 2 0 0  and 4 5 2 0 0 
 # max = 507
1340761		 # 	collision with: 1 0 2 0 0  and 6 2 2 0 0 
 # max = 507
1340768		 # 	collision with: 3 5 0 0 0  and 4 5 0 0 0 
 # max = 507
1340792		 # 	collision with: 3 5 1 0 0  and 4 5 1 0 0 
 # max = 507
1340794		 # 	collision with: 1 1 2 0 0  and 2 2 2 0 0 
 # max = 507
1340800		 # 	collision with: 1 0 4 0 0  and 6 1 4 0 0 
 # max = 507
1340802		 # 	collision with: 1 3 1 0 0  and 2 3 1 0 0 
 # max = 507
1340817		 # 	collision with: 5 1 1 0 0  and 2 3 1 0 0 
 # max = 507
1340819		 # 	collision with: 5 0 2 0 0  and 5 2 2 0 0 
 # max = 507
1340828		 # 	collision with: 1 0 4 0 0  and 6 2 4 0 0 
 # max = 507
1340830		 # 	collision with: 1 3 2 0 0  and 2 3 2 0 0 
 # max = 507
1340834		 # 	collision with: 5 0 1 0 0  and 5 2 1 0 0 
 # max = 507
1340836		 # 	collision with: 1 0 2 0 0  and 0 1 1 1 0 
 # max = 507
1340838		 # 	collision with: 6 6 1 0 0  and 5 2 0 1 0 
 # max = 507
1340868		 # 	collision with: 3 5 0 0 0  and 4 5 0 0 0 
 # max = 507
1340872		 # 	collision with: 3 5 2 0 0  and 4 5 2 0 0 
 # max = 507
1340885		 # 	collision with: 3 5 1 0 0  and 4 5 1 0 0 
 # max = 507
1340900		 # 	collision with: 3 5 1 0 0  and 4 5 1 0 0 
 # max = 507
1340902		 # 	collision with: 1 3 3 0 0  and 2 3 3 0 0 
 # max = 507
1340910		 # 	collision with: 1 3 0 0 0  and 2 3 0 0 0 
 # max = 507
1340932		 # 	collision with: 4 0 4 0 0  and 4 2 4 0 0 
 # max = 507
1340934		 # 	collision with: 1 3 1 0 0  and 2 3 1 0 0 
 # max = 507
1340937		 # 	collision with: 3 5 2 0 0  and 4 5 2 0 0 
 # max = 507
1340939		 # 	collision with: 4 1 2 0 0  and 6 0 3 0 0 
 # max = 507
1340941		 # 	collision with: 2 2 2 0 0  and 2 2 3 0 0 
 # max = 507
1340943		 # 	collision with: 2 3 1 0 0  and 1 4 1 0 0 
 # max = 507
1340944		 # 	collision with: 3 5 1 0 0  and 4 5 1 0 0 
 # max = 507
1340946		 # 	collision with: 6 2 2 0 0  and 6 4 2 0 0 
 # max = 507
1340952		 # 	collision with: 3 5 0 0 0  and 4 5 0 0 0 
 # max = 507
1340954		 # 	collision with: 1 3 4 0 0  and 2 3 4 0 0 
 # max = 507
1340957		 # 	collision with: 6 1 1 0 0  and 6 2 1 0 0 
 # max = 507
1340959		 # 	collision with: 2 3 2 0 0  and 2 1 3 0 0 
 # max = 507
1340961		 # 	collision with: 3 5 1 0 0  and 4 5 1 0 0 
 # max = 507
1340963		 # 	collision with: 1 3 0 0 0  and 2 3 0 0 0 
 # max = 507
1340964		 # 	collision with: 2 0 3 0 0  and 2 1 3 0 0 
 # max = 507
1340966		 # 	collision with: 1 3 0 0 0  and 2 3 0 0 0 
 # max = 507
1340988		 # 	collision with: 1 0 4 0 0  and 6 1 4 0 0 
 # max = 507
1340990		 # 	collision with: 1 3 2 0 0  and 2 3 2 0 0 
 # max = 507
1340998		 # 	collision with: 6 0 1 0 0  and 4 1 1 0 0 
 # max = 507
1341013		 # 	collision with: 6 1 1 0 0  and 6 2 1 0 0 
 # max = 507
1341015		 # 	collision with: 4 2 2 0 0  and 4 3 3 0 0 
 # max = 507
1341024		 # 	collision with: 5 1 1 0 0  and 2 3 1 0 0 
 # max = 507
1341026		 # 	collision with: 2 3 1 0 0  and 1 4 1 0 0 
 # max = 507
1341028		 # 	collision with: 4 0 2 0 0  and 4 2 2 0 0 
 # max = 507
1341030		 # 	collision with: 6 2 2 0 0  and 6 4 2 0 0 
 # max = 507
1341032		 # 	collision with: 4 1 3 0 0  and 2 1 0 1 0 
 # max = 507
1341034		 # 	collision with: 2 3 3 0 0  and 0 5 0 1 0 
 # max = 507
1341064		 # 	collision with: 2 0 4 0 0  and 2 1 4 0 0 
 # max = 507
1341066		 # 	collision with: 1 3 1 0 0  and 2 3 1 0 0 
 # max = 507
1341068		 # 	collision with: 3 5 1 0 0  and 4 5 1 0 0 
 # max = 507
1341070		 # 	collision with: 5 0 2 0 0  and 5 2 2 0 0 
 # max = 507
1341081		 # 	collision with: 3 5 0 0 0  and 4 5 0 0 0 
 # max = 507
1341083		 # 	collision with: 1 3 0 0 0  and 2 3 0 0 0 
 # max = 507
1341096		 # 	collision with: 1 1 2 0 0  and 1 3 2 0 0 
 # max = 507
1341098		 # 	collision with: 1 1 2 0 0  and 2 2 2 0 0 
 # max = 507
1341104		 # 	collision with: 4 0 1 0 0  and 4 2 1 0 0 
 # max = 507
1341106		 # 	collision with: 6 0 1 0 0  and 4 1 1 0 0 
 # max = 507
1341128		 # 	collision with: 3 5 1 0 0  and 4 5 1 0 0 
 # max = 507
1341130		 # 	collision with: 1 3 3 0 0  and 2 3 3 0 0 
 # max = 507
1341133		 # 	collision with: 2 0 1 0 0  and 2 0 3 0 0 
 # max = 507
1341135		 # 	collision with: 1 3 1 0 0  and 2 3 1 0 0 
 # max = 507
1341137		 # 	collision with: 3 5 0 0 0  and 4 5 0 0 0 
 # max = 507
1341139		 # 	collision with: 1 3 0 0 0  and 2 3 0 0 0 
 # max = 507
1341142		 # 	collision with: 1 3 0 0 0  and 2 3 0 0 0 
 # max = 507
1341148		 # 	collision with: 2 0 4 0 0  and 2 1 4 0 0 
 # max = 507
1341150		 # 	collision with: 1 3 2 0 0  and 2 3 2 0 0 
 # max = 507
1341153		 # 	collision with: 5 1 0 0 0  and 2 3 0 0 0 
 # max = 507
1341155		 # 	collision with: 3 0 1 0 0  and 3 0 3 0 0 
 # max = 507
1341157		 # 	collision with: 2 0 1 0 0  and 2 1 1 0 0 
 # max = 507
1341159		 # 	collision with: 6 0 1 0 0  and 4 1 1 0 0 
 # max = 507
1341162		 # 	collision with: 1 1 1 0 0  and 2 2 1 0 0 
 # max = 507
1341184		 # 	collision with: 3 5 2 0 0  and 4 5 2 0 0 
 # max = 507
1341192		 # 	collision with: 3 5 0 0 0  and 4 5 0 0 0 
 # max = 507
1341209		 # 	collision with: 5 1 0 0 0  and 2 3 0 0 0 
 # max = 507
1341211		 # 	collision with: 2 0 1 0 0  and 2 0 3 0 0 
 # max = 507
1341220		 # 	collision with: 3 5 0 0 0  and 4 5 0 0 0 
 # max = 507
1341222		 # 	collision with: 1 3 4 0 0  and 2 3 4 0 0 
 # max = 507
1341224		 # 	collision with: 1 0 3 0 0  and 6 1 3 0 0 
 # max = 507
1341226		 # 	collision with: 1 3 0 0 0  and 2 3 0 0 0 
 # max = 507
1341228		 # 	collision with: 3 5 4 0 0  and 0 1 0 1 0 
 # max = 507
1341230		 # 	collision with: 3 2 4 0 0  and 2 3 0 1 0 
 # max = 507
1341260		 # 	collision with: 4 0 3 0 0  and 4 2 3 0 0 
 # max = 507
1341262		 # 	collision with: 1 3 0 0 0  and 2 3 0 0 0 
 # max = 507
1341264		 # 	collision with: 3 5 0 0 0  and 4 5 0 0 0 
 # max = 507
1341266		 # 	collision with: 1 3 4 0 0  and 2 3 4 0 0 
 # max = 507
1341277		 # 	collision with: 6 1 1 0 0  and 1 0 2 0 0 
 # max = 507
1341279		 # 	collision with: 1 5 1 0 0  and 1 2 2 0 0 
 # max = 507
1341292		 # 	collision with: 3 5 0 0 0  and 4 5 0 0 0 
 # max = 507
1341300		 # 	collision with: 3 5 2 0 0  and 4 5 2 0 0 
 # max = 507
1341326		 # 	collision with: 1 3 1 0 0  and 1 4 1 0 0 
 # max = 507
1341329		 # 	collision with: 3 1 1 0 0  and 3 1 2 0 0 
 # max = 507
1341331		 # 	collision with: 5 1 1 0 0  and 5 1 2 0 0 
 # max = 507
1341333		 # 	collision with: 1 4 1 0 0  and 1 0 2 0 0 
 # max = 507
1341335		 # 	collision with: 3 1 1 0 0  and 3 0 2 0 0 
 # max = 507
1341336		 # 	collision with: 6 1 4 0 0  and 6 2 4 0 0 
 # max = 507
1341338		 # 	collision with: 1 3 2 0 0  and 2 3 2 0 0 
 # max = 507
1341346		 # 	collision with: 1 3 0 0 0  and 2 3 0 0 0 
 # max = 507
1341349		 # 	collision with: 3 5 0 0 0  and 4 5 0 0 0 
 # max = 507
1341351		 # 	collision with: 3 0 1 0 0  and 3 1 1 0 0 
 # max = 507
1341353		 # 	collision with: 6 1 0 0 0  and 6 2 0 0 0 
 # max = 507
1341355		 # 	collision with: 1 3 1 0 0  and 1 4 1 0 0 
 # max = 507
1341356		 # 	collision with: 3 5 1 0 0  and 4 5 1 0 0 
 # max = 507
1341358		 # 	collision with: 1 3 3 0 0  and 2 3 3 0 0 
 # max = 507
1341380		 # 	collision with: 2 0 1 0 0  and 2 1 1 0 0 
 # max = 507
1341382		 # 	collision with: 1 3 1 0 0  and 1 4 1 0 0 
 # max = 507
1341388		 # 	collision with: 6 2 2 0 0  and 1 4 2 0 0 
 # max = 507
1341390		 # 	collision with: 2 3 2 0 0  and 1 4 2 0 0 
 # max = 507
1341405		 # 	collision with: 3 5 0 0 0  and 4 5 0 0 0 
 # max = 507
1341407		 # 	collision with: 3 0 1 0 0  and 3 1 1 0 0 
 # max = 507
1341416		 # 	collision with: 3 5 1 0 0  and 4 5 1 0 0 
 # max = 507
1341418		 # 	collision with: 4 2 2 0 0  and 6 3 2 0 0 
 # max = 507
1341420		 # 	collision with: 6 1 4 0 0  and 6 2 4 0 0 
 # max = 507
1341422		 # 	collision with: 1 3 1 0 0  and 2 3 1 0 0 
 # max = 507
1341424		 # 	collision with: 1 0 6 0 0  and 3 5 0 1 0 
 # max = 507
1341426		 # 	collision with: 5 2 2 0 0  and 4 4 3 1 0 
 # max = 522
1341456		 # 	collision with: 6 1 2 0 0  and 6 2 2 0 0 
 # max = 522
1341458		 # 	collision with: 2 1 2 0 0  and 2 3 2 0 0 
 # max = 522
1341460		 # 	collision with: 6 1 1 0 0  and 6 2 1 0 0 
 # max = 522
1341462		 # 	collision with: 3 0 1 0 0  and 3 1 1 0 0 
 # max = 522
1341473		 # 	collision with: 6 3 0 0 0  and 6 3 2 0 0 
 # max = 522
1341475		 # 	collision with: 5 3 0 0 0  and 5 3 2 0 0 
 # max = 522
1341490		 # 	collision with: 3 0 1 0 0  and 3 1 1 0 0 
 # max = 522
1341496		 # 	collision with: 1 1 4 0 0  and 1 3 4 0 0 
 # max = 522
1341498		 # 	collision with: 1 3 2 0 0  and 2 3 2 0 0 
 # max = 522
1341520		 # 	collision with: 1 0 3 0 0  and 6 2 3 0 0 
 # max = 522
1341522		 # 	collision with: 1 3 0 0 0  and 2 3 0 0 0 
 # max = 522
1341525		 # 	collision with: 3 5 1 0 0  and 4 5 1 0 0 
 # max = 522
1341527		 # 	collision with: 6 2 0 0 0  and 6 2 2 0 0 
 # max = 522
1341529		 # 	collision with: 5 1 1 0 0  and 2 3 1 0 0 
 # max = 522
1341531		 # 	collision with: 0 3 0 0 0  and 3 3 2 0 0 
 # max = 522
1341532		 # 	collision with: 3 5 0 0 0  and 4 5 0 0 0 
 # max = 522
1341534		 # 	collision with: 1 3 4 0 0  and 2 3 4 0 0 
 # max = 522
1341540		 # 	collision with: 3 5 1 0 0  and 4 5 1 0 0 
 # max = 522
1341542		 # 	collision with: 2 1 2 0 0  and 2 3 2 0 0 
 # max = 522
1341545		 # 	collision with: 4 0 0 0 0  and 4 2 0 0 0 
 # max = 522
1341547		 # 	collision with: 1 3 0 0 0  and 2 3 0 0 0 
 # max = 522
1341549		 # 	collision with: 2 5 0 0 0  and 2 5 2 0 0 
 # max = 522
1341551		 # 	collision with: 5 0 0 0 0  and 5 2 0 0 0 
 # max = 522
1341552		 # 	collision with: 1 1 4 0 0  and 1 3 4 0 0 
 # max = 522
1341554		 # 	collision with: 1 3 1 0 0  and 2 3 1 0 0 
 # max = 522
1341578		 # 	collision with: 1 3 0 0 0  and 2 3 0 0 0 
 # max = 522
1341584		 # 	collision with: 3 5 1 0 0  and 4 5 1 0 0 
 # max = 522
1341586		 # 	collision with: 1 3 3 0 0  and 2 3 3 0 0 
 # max = 522
1341601		 # 	collision with: 4 0 0 0 0  and 4 2 0 0 0 
 # max = 522
1341612		 # 	collision with: 3 5 2 0 0  and 4 5 2 0 0 
 # max = 522
1341616		 # 	collision with: 3 5 0 0 0  and 4 5 0 0 0 
 # max = 522
1341620		 # 	collision with: 2 5 5 0 0  and 1 1 0 1 0 
 # max = 522
1341622		 # 	collision with: 5 2 5 0 0  and 3 6 0 1 0 
 # max = 522
1341654		 # 	collision with: 4 2 1 0 0  and 4 3 1 0 0 
 # max = 522
1341656		 # 	collision with: 5 2 4 0 0  and 5 4 4 0 0 
 # max = 522
1341658		 # 	collision with: 1 3 2 0 0  and 2 3 2 0 0 
 # max = 522
1341669		 # 	collision with: 3 6 0 0 0  and 4 0 1 0 0 
 # max = 522
1341671		 # 	collision with: 5 1 0 0 0  and 5 1 1 0 0 
 # max = 522
1341684		 # 	collision with: 1 0 4 0 0  and 6 2 4 0 0 
 # max = 522
1341686		 # 	collision with: 1 3 1 0 0  and 2 3 1 0 0 
 # max = 522
1341692		 # 	collision with: 3 5 1 0 0  and 4 5 1 0 0 
 # max = 522
1341694		 # 	collision with: 1 3 2 0 0  and 1 4 2 0 0 
 # max = 522
1341716		 # 	collision with: 3 5 0 0 0  and 4 5 0 0 0 
 # max = 522
1341725		 # 	collision with: 2 1 0 0 0  and 2 1 1 0 0 
 # max = 522
1341728		 # 	collision with: 3 5 2 0 0  and 4 5 2 0 0 
 # max = 522
1341736		 # 	collision with: 1 1 1 0 0  and 1 3 1 0 0 
 # max = 522
1341738		 # 	collision with: 4 2 1 0 0  and 4 3 1 0 0 
 # max = 522
1341743		 # 	collision with: 6 6 0 0 0  and 6 6 1 0 0 
 # max = 522
1341745		 # 	collision with: 3 5 0 0 0  and 4 5 0 0 0 
 # max = 522
1341747		 # 	collision with: 2 4 0 0 0  and 2 4 1 0 0 
 # max = 522
1341748		 # 	collision with: 1 0 2 0 0  and 6 2 2 0 0 
 # max = 522
1341750		 # 	collision with: 2 1 2 0 0  and 1 3 2 0 0 
 # max = 522
1341772		 # 	collision with: 3 5 0 0 0  and 4 5 0 0 0 
 # max = 522
1341774		 # 	collision with: 1 3 4 0 0  and 2 3 4 0 0 
 # max = 522
1341780		 # 	collision with: 2 2 3 0 0  and 5 3 3 0 0 
 # max = 522
1341782		 # 	collision with: 1 3 0 0 0  and 2 3 0 0 0 
 # max = 522
1341797		 # 	collision with: 3 6 0 0 0  and 3 6 1 0 0 
 # max = 522
1341799		 # 	collision with: 1 3 1 0 0  and 2 3 1 0 0 
 # max = 522
1341810		 # 	collision with: 1 3 0 0 0  and 2 3 0 0 0 
 # max = 522
1341812		 # 	collision with: 3 5 1 0 0  and 4 5 1 0 0 
 # max = 522
1341814		 # 	collision with: 1 3 3 0 0  and 2 3 3 0 0 
 # max = 522
1341829		 # 	collision with: 2 0 2 0 0  and 2 1 2 0 0 
 # max = 522
1341833		 # 	collision with: 4 0 3 0 0  and 4 2 3 0 0 
 # max = 522
1341867		 # 	collision with: 1 6 2 0 0  and 2 6 2 0 0 
 # max = 522
1341881		 # 	collision with: 3 2 1 0 0  and 3 3 1 0 0 
 # max = 522
1341883		 # 	collision with: 1 3 0 0 0  and 1 4 0 0 0 
 # max = 522
1341889		 # 	collision with: 6 2 2 0 0  and 1 4 2 0 0 
 # max = 522
1341891		 # 	collision with: 3 2 2 0 0  and 0 4 2 0 0 
 # max = 522
1341969		 # 	collision with: 2 0 2 0 0  and 2 1 2 0 0 
 # max = 522
1341971		 # 	collision with: 1 6 0 0 0  and 2 6 0 0 0 
 # max = 522
1341977		 # 	collision with: 1 1 2 0 0  and 1 3 2 0 0 
 # max = 522
1341979		 # 	collision with: 3 0 4 0 0  and 3 1 4 0 0 
 # max = 522
1341995		 # 	collision with: 1 3 0 0 0  and 1 4 0 0 0 
 # max = 522
1342012		 # 	collision with: 6 3 3 0 0  and 2 5 0 1 0 
 # max = 522
1342014		 # 	collision with: 4 6 3 0 0  and 0 0 0 1 0 
 # max = 522
1342027		 # 	collision with: 2 1 3 0 0  and 2 3 3 0 0 
 # max = 522
1342029		 # 	collision with: 3 5 0 0 0  and 4 5 0 0 0 
 # max = 522
1342031		 # 	collision with: 1 6 0 0 0  and 2 6 0 0 0 
 # max = 522
1342061		 # 	collision with: 1 0 1 0 0  and 6 1 1 0 0 
 # max = 522
1342063		 # 	collision with: 3 2 0 0 0  and 0 4 0 0 0 
 # max = 522
1342077		 # 	collision with: 6 2 0 0 0  and 1 4 0 0 0 
 # max = 522
1342079		 # 	collision with: 2 1 1 0 0  and 2 3 1 0 0 
 # max = 522
1342085		 # 	collision with: 3 5 0 0 0  and 4 5 0 0 0 
 # max = 522
1342087		 # 	collision with: 1 6 0 0 0  and 2 6 0 0 0 
 # max = 522
1342165		 # 	collision with: 3 5 1 0 0  and 4 5 1 0 0 
 # max = 522
1342167		 # 	collision with: 6 1 1 0 0  and 4 2 1 0 0 
 # max = 522
1342173		 # 	collision with: 3 2 3 0 0  and 3 3 3 0 0 
 # max = 522
1342175		 # 	collision with: 3 2 0 0 0  and 0 4 0 0 0 
 # max = 522
1342189		 # 	collision with: 6 2 0 0 0  and 1 4 0 0 0 
 # max = 522
1342191		 # 	collision with: 2 1 1 0 0  and 2 3 1 0 0 
 # max = 522
1342208		 # 	collision with: 4 4 5 0 0  and 1 1 0 1 0 
 # max = 522
1342210		 # 	collision with: 6 2 0 0 0  and 5 4 2 1 0 
 # max = 522
1342221		 # 	collision with: 3 5 2 0 0  and 3 0 3 0 0 
 # max = 522
1342223		 # 	collision with: 4 2 0 0 0  and 4 3 0 0 0 
 # max = 522
1342225		 # 	collision with: 3 2 0 0 0  and 3 3 0 0 0 
 # max = 522
1342227		 # 	collision with: 3 0 1 0 0  and 3 1 1 0 0 
 # max = 522
1342257		 # 	collision with: 2 2 0 0 0  and 5 3 0 0 0 
 # max = 522
1342275		 # 	collision with: 1 0 2 0 0  and 2 1 2 0 0 
 # max = 522
1342281		 # 	collision with: 3 2 0 0 0  and 3 3 0 0 0 
 # max = 522
1342283		 # 	collision with: 3 0 1 0 0  and 3 1 1 0 0 
 # max = 522
1342363		 # 	collision with: 4 2 0 0 0  and 4 3 0 0 0 
 # max = 522
1342369		 # 	collision with: 2 2 0 0 0  and 5 3 0 0 0 
 # max = 522
1342371		 # 	collision with: 1 6 0 0 0  and 2 6 0 0 0 
 # max = 522
1342385		 # 	collision with: 1 1 2 0 0  and 1 3 3 0 0 
 # max = 522
1342387		 # 	collision with: 3 0 2 0 0  and 3 1 2 0 0 
 # max = 522
1342404		 # 	collision with: 3 6 4 0 0  and 2 1 3 1 0 
 # max = 522
1342406		 # 	collision with: 1 4 1 0 0  and 3 4 0 1 0 
 # max = 522
1342417		 # 	collision with: 1 1 0 0 0  and 1 3 0 0 0 
 # max = 522
1342419		 # 	collision with: 6 1 0 0 0  and 4 3 0 0 0 
 # max = 522
1342421		 # 	collision with: 6 1 2 0 0  and 6 2 2 0 0 
 # max = 522
1342423		 # 	collision with: 0 3 1 0 0  and 3 4 1 0 0 
 # max = 522
1342453		 # 	collision with: 3 5 0 0 0  and 4 5 0 0 0 
 # max = 522
1342455		 # 	collision with: 2 1 0 0 0  and 2 3 0 0 0 
 # max = 522
1342469		 # 	collision with: 1 0 1 0 0  and 6 2 1 0 0 
 # max = 522
1342471		 # 	collision with: 3 4 1 0 0  and 0 0 3 0 0 
 # max = 522
1342477		 # 	collision with: 6 1 2 0 0  and 6 2 2 0 0 
 # max = 522
1342479		 # 	collision with: 6 2 3 0 0  and 6 4 3 0 0 
 # max = 522
1342557		 # 	collision with: 1 1 0 0 0  and 1 3 0 0 0 
 # max = 522
1342565		 # 	collision with: 3 5 0 0 0  and 4 5 0 0 0 
 # max = 522
1342581		 # 	collision with: 2 2 3 0 0  and 5 3 3 0 0 
 # max = 522
1342583		 # 	collision with: 2 4 1 0 0  and 2 0 3 0 0 
 # max = 522
1342600		 # 	collision with: 2 1 0 0 0  and 4 0 1 1 0 
 # max = 522
1342602		 # 	collision with: 0 2 6 0 0  and 2 3 0 1 0 
 # max = 522
1342613		 # 	collision with: 5 3 1 0 0  and 2 2 2 0 0 
 # max = 522
1342615		 # 	collision with: 1 3 1 0 0  and 1 4 1 0 0 
 # max = 522
1342617		 # 	collision with: 2 3 1 0 0  and 5 1 2 0 0 
 # max = 522
1342619		 # 	collision with: 6 1 0 0 0  and 4 2 0 0 0 
 # max = 522
1342649		 # 	collision with: 5 6 1 0 0  and 5 0 2 0 0 
 # max = 522
1342651		 # 	collision with: 4 2 1 0 0  and 4 3 1 0 0 
 # max = 522
1342665		 # 	collision with: 3 5 0 0 0  and 4 5 0 0 0 
 # max = 522
1342673		 # 	collision with: 6 2 1 0 0  and 1 0 2 0 0 
 # max = 522
1342753		 # 	collision with: 1 4 1 0 0  and 6 2 2 0 0 
 # max = 522
1342755		 # 	collision with: 1 3 1 0 0  and 1 4 1 0 0 
 # max = 522
1342761		 # 	collision with: 3 6 1 0 0  and 4 0 2 0 0 
 # max = 522
1342763		 # 	collision with: 4 2 1 0 0  and 4 3 1 0 0 
 # max = 522
1342777		 # 	collision with: 3 5 0 0 0  and 4 5 0 0 0 
 # max = 522
1342779		 # 	collision with: 4 5 1 0 0  and 4 0 2 0 0 
 # max = 522
1342796		 # 	collision with: 6 1 2 0 0  and 3 1 0 1 0 
 # max = 522
1342798		 # 	collision with: 6 2 2 0 0  and 2 6 0 1 0 
 # max = 522
1342809		 # 	collision with: 4 4 0 0 0  and 3 5 0 0 0 
 # max = 522
1342811		 # 	collision with: 3 0 5 0 0  and 3 1 5 0 0 
 # max = 522
1342813		 # 	collision with: 5 5 0 0 0  and 2 5 2 0 0 
 # max = 522
1342815		 # 	collision with: 5 0 0 0 0  and 5 2 0 0 0 
 # max = 522
1342845		 # 	collision with: 4 0 0 0 0  and 4 2 0 0 0 
 # max = 522
1342847		 # 	collision with: 6 4 0 0 0  and 6 2 2 0 0 
 # max = 522
1342861		 # 	collision with: 3 6 0 0 0  and 4 2 2 0 0 
 # max = 522
1342863		 # 	collision with: 0 6 0 0 0  and 3 2 2 0 0 
 # max = 522
1342871		 # 	collision with: 5 0 0 0 0  and 5 2 0 0 0 
 # max = 522
1342949		 # 	collision with: 4 4 0 0 0  and 3 5 0 0 0 
 # max = 522
1342951		 # 	collision with: 5 2 0 0 0  and 5 2 2 0 0 
 # max = 522
1342959		 # 	collision with: 1 5 0 0 0  and 1 2 2 0 0 
 # max = 522
1342973		 # 	collision with: 3 5 1 0 0  and 4 5 1 0 0 
 # max = 522
1342992		 # 	collision with: 5 0 4 0 0  and 1 0 0 1 0 
 # max = 522
1342994		 # 	collision with: 5 0 4 0 0  and 0 1 0 1 0 
 # max = 522
1343005		 # 	collision with: 3 5 0 0 0  and 4 5 0 0 0 
 # max = 522
1343007		 # 	collision with: 6 5 0 0 0  and 6 1 1 0 0 
 # max = 522
1343011		 # 	collision with: 6 1 0 0 0  and 4 3 1 0 0 
 # max = 522
1343041		 # 	collision with: 2 3 0 0 0  and 5 5 0 0 0 
 # max = 522
1343043		 # 	collision with: 0 0 0 0 0  and 3 4 1 0 0 
 # max = 522
1343057		 # 	collision with: 2 0 0 0 0  and 2 1 0 0 0 
 # max = 522
1343059		 # 	collision with: 1 6 0 0 0  and 2 6 0 0 0 
 # max = 522
1343065		 # 	collision with: 3 1 0 0 0  and 3 1 1 0 0 
 # max = 522
1343067		 # 	collision with: 6 1 0 0 0  and 6 1 1 0 0 
 # max = 522
1343145		 # 	collision with: 3 5 0 0 0  and 4 5 0 0 0 
 # max = 522
1343147		 # 	collision with: 3 6 0 0 0  and 0 6 1 0 0 
 # max = 522
1343153		 # 	collision with: 2 3 0 0 0  and 5 5 0 0 0 
 # max = 522
1343155		 # 	collision with: 3 3 0 0 0  and 3 5 1 0 0 
 # max = 522
1343169		 # 	collision with: 2 0 0 0 0  and 2 1 0 0 0 
 # max = 522
1343171		 # 	collision with: 1 6 0 0 0  and 2 6 0 0 0 
 # max = 522
1343232		 # 	collision with: 2 3 0 0 0  and 5 5 0 0 0 
 # max = 522
1343234		 # 	collision with: 6 2 0 0 0  and 4 3 0 0 0 
 # max = 522
1343239		 # 	collision with: 1 2 1 0 0  and 2 2 1 0 0 
 # max = 522
1343240		 # 	collision with: 1 1 0 0 0  and 1 3 0 0 0 
 # max = 522
1343242		 # 	collision with: 6 2 0 0 0  and 4 3 0 0 0 
 # max = 522
1343248		 # 	collision with: 4 0 0 0 0  and 4 2 0 0 0 
 # max = 522
1343250		 # 	collision with: 3 0 0 0 0  and 3 1 0 0 0 
 # max = 522
1343264		 # 	collision with: 2 0 0 0 0  and 2 1 0 0 0 
 # max = 522
1343266		 # 	collision with: 5 0 0 0 0  and 5 2 0 0 0 
 # max = 522
1343273		 # 	collision with: 3 5 0 0 0  and 4 5 0 0 0 
 # max = 522
1343275		 # 	collision with: 4 3 2 0 0  and 6 4 2 0 0 
 # max = 522
1343281		 # 	collision with: 5 1 3 0 0  and 5 1 4 0 0 
 # max = 522
1343283		 # 	collision with: 1 2 0 0 0  and 2 2 0 0 0 
 # max = 522
1343288		 # 	collision with: 2 3 0 0 0  and 5 5 0 0 0 
 # max = 522
1343290		 # 	collision with: 6 2 0 0 0  and 4 3 0 0 0 
 # max = 522
1343292		 # 	collision with: 2 0 0 0 0  and 2 1 0 0 0 
 # max = 522
1343294		 # 	collision with: 5 0 0 0 0  and 5 2 0 0 0 
 # max = 522
1343301		 # 	collision with: 3 5 0 0 0  and 4 5 0 0 0 
 # max = 522
1343303		 # 	collision with: 1 2 1 0 0  and 2 2 1 0 0 
 # max = 522
1343308		 # 	collision with: 6 1 0 0 0  and 6 2 0 0 0 
 # max = 522
1343310		 # 	collision with: 0 1 0 0 0  and 3 2 0 0 0 
 # max = 522
1343312		 # 	collision with: 5 2 0 0 0  and 5 4 0 0 0 
 # max = 522
1343314		 # 	collision with: 2 0 0 0 0  and 1 1 0 0 0 
 # max = 522
1343321		 # 	collision with: 1 0 1 0 0  and 6 2 1 0 0 
 # max = 522
1343323		 # 	collision with: 1 2 2 0 0  and 2 2 2 0 0 
 # max = 522
1343336		 # 	collision with: 6 1 0 0 0  and 6 2 0 0 0 
 # max = 522
1343338		 # 	collision with: 0 1 0 0 0  and 3 2 0 0 0 
 # max = 522
1343352		 # 	collision with: 1 1 0 0 0  and 1 3 0 0 0 
 # max = 522
1343354		 # 	collision with: 6 2 0 0 0  and 4 3 0 0 0 
 # max = 522
1343360		 # 	collision with: 4 0 0 0 0  and 4 2 0 0 0 
 # max = 522
1343362		 # 	collision with: 3 0 0 0 0  and 3 1 0 0 0 
 # max = 522
1343367		 # 	collision with: 1 2 0 0 0  and 2 2 0 0 0 
 # max = 522
1343368		 # 	collision with: 5 2 0 0 0  and 5 4 0 0 0 
 # max = 522
1343370		 # 	collision with: 2 0 0 0 0  and 1 1 0 0 0 
 # max = 522
1343384		 # 	collision with: 2 4 4 0 0  and 0 6 0 1 0 
 # max = 522
1343386		 # 	collision with: 3 4 6 0 0  and 5 5 2 1 0 
 # max = 522
1343428		 # 	collision with: 3 5 0 0 0  and 4 5 0 0 0 
 # max = 522
1343430		 # 	collision with: 1 2 5 0 0  and 2 2 5 0 0 
 # max = 522
1343433		 # 	collision with: 3 5 2 0 0  and 4 5 2 0 0 
 # max = 522
1343435		 # 	collision with: 1 2 0 0 0  and 2 2 0 0 0 
 # max = 522
1343436		 # 	collision with: 1 0 1 0 0  and 6 1 1 0 0 
 # max = 522
1343438		 # 	collision with: 2 0 1 0 0  and 1 1 1 0 0 
 # max = 522
1343444		 # 	collision with: 3 5 4 0 0  and 4 5 4 0 0 
 # max = 522
1343446		 # 	collision with: 1 2 2 0 0  and 2 2 2 0 0 
 # max = 522
1343462		 # 	collision with: 2 1 4 0 0  and 2 3 4 0 0 
 # max = 522
1343469		 # 	collision with: 6 2 0 0 0  and 1 4 0 0 0 
 # max = 522
1343471		 # 	collision with: 1 2 1 0 0  and 2 2 1 0 0 
 # max = 522
1343477		 # 	collision with: 3 5 1 0 0  and 4 5 1 0 0 
 # max = 522
1343479		 # 	collision with: 1 2 2 0 0  and 2 2 2 0 0 
 # max = 522
1343484		 # 	collision with: 3 5 0 0 0  and 4 5 0 0 0 
 # max = 522
1343486		 # 	collision with: 1 2 4 0 0  and 2 2 4 0 0 
 # max = 522
1343488		 # 	collision with: 3 5 3 0 0  and 4 5 3 0 0 
 # max = 522
1343490		 # 	collision with: 1 2 1 0 0  and 2 2 1 0 0 
 # max = 522
1343497		 # 	collision with: 6 2 0 0 0  and 1 4 0 0 0 
 # max = 522
1343504		 # 	collision with: 1 1 3 0 0  and 1 3 3 0 0 
 # max = 522
1343508		 # 	collision with: 3 2 2 0 0  and 3 3 2 0 0 
 # max = 522
1343517		 # 	collision with: 2 2 3 0 0  and 5 3 3 0 0 
 # max = 522
1343532		 # 	collision with: 3 5 2 0 0  and 4 5 2 0 0 
 # max = 522
1343534		 # 	collision with: 3 0 3 0 0  and 3 1 3 0 0 
 # max = 522
1343550		 # 	collision with: 3 0 1 0 0  and 3 1 1 0 0 
 # max = 522
1343556		 # 	collision with: 2 0 6 0 0  and 2 1 6 0 0 
 # max = 522
1343558		 # 	collision with: 1 2 3 0 0  and 2 2 3 0 0 
 # max = 522
1343561		 # 	collision with: 1 0 2 0 0  and 6 2 2 0 0 
 # max = 522
1343563		 # 	collision with: 1 2 1 0 0  and 2 2 1 0 0 
 # max = 522
1343564		 # 	collision with: 3 2 2 0 0  and 3 3 2 0 0 
 # max = 522
1343566		 # 	collision with: 1 2 0 0 0  and 2 2 0 0 0 
 # max = 522
1343580		 # 	collision with: 1 5 2 0 0  and 0 0 0 1 0 
 # max = 522
1343582		 # 	collision with: 4 6 2 0 0  and 5 4 0 1 0 
 # max = 522
1343624		 # 	collision with: 2 2 3 0 0  and 5 3 3 0 0 
 # max = 522
1343629		 # 	collision with: 3 5 1 0 0  and 4 5 1 0 0 
 # max = 522
1343632		 # 	collision with: 2 0 2 0 0  and 2 1 2 0 0 
 # max = 522
1343640		 # 	collision with: 3 5 0 0 0  and 4 5 0 0 0 
 # max = 522
1343642		 # 	collision with: 1 2 5 0 0  and 2 2 5 0 0 
 # max = 522
1343656		 # 	collision with: 1 0 1 0 0  and 6 2 1 0 0 
 # max = 522
1343658		 # 	collision with: 1 2 1 0 0  and 2 2 1 0 0 
 # max = 522
1343665		 # 	collision with: 3 2 0 0 0  and 3 3 0 0 0 
 # max = 522
1343667		 # 	collision with: 4 2 0 0 0  and 4 3 0 0 0 
 # max = 522
1343673		 # 	collision with: 2 2 0 0 0  and 5 3 0 0 0 
 # max = 522
1343675		 # 	collision with: 2 0 2 0 0  and 1 1 2 0 0 
 # max = 522
1343680		 # 	collision with: 3 5 2 0 0  and 4 5 2 0 0 
 # max = 522
1343682		 # 	collision with: 0 1 3 0 0  and 3 2 3 0 0 
 # max = 522
1343686		 # 	collision with: 6 2 1 0 0  and 6 4 1 0 0 
 # max = 522
1343693		 # 	collision with: 3 2 0 0 0  and 3 3 0 0 0 
 # max = 522
1343695		 # 	collision with: 4 2 0 0 0  and 4 3 0 0 0 
 # max = 522
1343700		 # 	collision with: 3 5 4 0 0  and 4 5 4 0 0 
 # max = 522
1343702		 # 	collision with: 1 2 2 0 0  and 2 2 2 0 0 
 # max = 522
1343706		 # 	collision with: 0 1 4 0 0  and 3 2 4 0 0 
 # max = 522
1343713		 # 	collision with: 4 0 2 0 0  and 4 2 2 0 0 
 # max = 522
1343715		 # 	collision with: 5 2 2 0 0  and 5 0 3 0 0 
 # max = 522
1343728		 # 	collision with: 3 2 6 0 0  and 3 3 6 0 0 
 # max = 522
1343730		 # 	collision with: 1 2 3 0 0  and 2 2 3 0 0 
 # max = 522
1343744		 # 	collision with: 2 0 2 0 0  and 2 1 2 0 0 
 # max = 522
1343746		 # 	collision with: 1 2 0 0 0  and 2 2 0 0 0 
 # max = 522
1343752		 # 	collision with: 3 5 0 0 0  and 4 5 0 0 0 
 # max = 522
1343754		 # 	collision with: 1 2 4 0 0  and 2 2 4 0 0 
 # max = 522
1343757		 # 	collision with: 2 2 0 0 0  and 5 3 0 0 0 
 # max = 522
1343759		 # 	collision with: 1 2 2 0 0  and 2 2 2 0 0 
 # max = 522
1343760		 # 	collision with: 3 5 3 0 0  and 4 5 3 0 0 
 # max = 522
1343762		 # 	collision with: 1 2 1 0 0  and 2 2 1 0 0 
 # max = 522
1343776		 # 	collision with: 0 6 6 0 0  and 4 1 0 1 0 
 # max = 522
1343778		 # 	collision with: 5 6 0 0 0  and 2 4 1 1 0 
 # max = 522
1343822		 # 	collision with: 1 2 3 0 0  and 2 2 3 0 0 
 # max = 522
1343825		 # 	collision with: 3 5 0 0 0  and 4 5 0 0 0 
 # max = 522
1343827		 # 	collision with: 6 2 1 0 0  and 6 4 1 0 0 
 # max = 522
1343828		 # 	collision with: 3 5 2 0 0  and 4 5 2 0 0 
 # max = 522
1343830		 # 	collision with: 4 2 3 0 0  and 4 3 3 0 0 
 # max = 522
1343836		 # 	collision with: 3 5 3 0 0  and 4 5 3 0 0 
 # max = 522
1343838		 # 	collision with: 1 2 1 0 0  and 2 2 1 0 0 
 # max = 522
1343852		 # 	collision with: 3 5 0 0 0  and 4 5 0 0 0 
 # max = 522
1343854		 # 	collision with: 1 2 4 0 0  and 2 2 4 0 0 
 # max = 522
1343863		 # 	collision with: 2 1 1 0 0  and 2 3 1 0 0 
 # max = 522
1343869		 # 	collision with: 3 3 1 0 0  and 3 3 3 0 0 
 # max = 522
1343871		 # 	collision with: 5 3 1 0 0  and 5 3 3 0 0 
 # max = 522
1343876		 # 	collision with: 5 1 1 0 0  and 2 3 1 0 0 
 # max = 522
1343878		 # 	collision with: 1 2 1 0 0  and 2 2 1 0 0 
 # max = 522
1343880		 # 	collision with: 3 5 0 0 0  and 4 5 0 0 0 
 # max = 522
1343882		 # 	collision with: 2 0 5 0 0  and 1 1 5 0 0 
 # max = 522
1343889		 # 	collision with: 5 1 0 0 0  and 2 3 0 0 0 
 # max = 522
1343891		 # 	collision with: 2 1 1 0 0  and 2 3 1 0 0 
 # max = 522
1343896		 # 	collision with: 6 2 2 0 0  and 1 4 2 0 0 
 # max = 522
1343898		 # 	collision with: 1 2 0 0 0  and 2 2 0 0 0 
 # max = 522
1343900		 # 	collision with: 6 1 6 0 0  and 6 2 6 0 0 
 # max = 522
1343902		 # 	collision with: 1 2 3 0 0  and 2 2 3 0 0 
 # max = 522
1343911		 # 	collision with: 6 2 1 0 0  and 6 4 1 0 0 
 # max = 522
1343924		 # 	collision with: 1 0 2 0 0  and 6 2 2 0 0 
 # max = 522
1343940		 # 	collision with: 6 1 3 0 0  and 6 2 3 0 0 
 # max = 522
1343950		 # 	collision with: 4 2 4 0 0  and 4 3 4 0 0 
 # max = 522
1343953		 # 	collision with: 4 6 1 0 0  and 4 3 3 0 0 
 # max = 522
1343955		 # 	collision with: 4 3 2 0 0  and 6 4 2 0 0 
 # max = 522
1343956		 # 	collision with: 3 5 4 0 0  and 4 5 4 0 0 
 # max = 522
1343958		 # 	collision with: 1 2 2 0 0  and 2 2 2 0 0 
 # max = 522
1343972		 # 	collision with: 4 0 1 0 0  and 0 4 0 1 0 
 # max = 522
1343974		 # 	collision with: 3 1 2 0 0  and 1 1 1 1 0 
 # max = 522
1344016		 # 	collision with: 3 5 4 0 0  and 4 5 4 0 0 
 # max = 522
1344018		 # 	collision with: 1 2 2 0 0  and 2 2 2 0 0 
 # max = 522
1344021		 # 	collision with: 3 2 1 0 0  and 3 3 1 0 0 
 # max = 522
1344023		 # 	collision with: 1 1 1 0 0  and 1 1 2 0 0 
 # max = 522
1344026		 # 	collision with: 1 3 4 0 0  and 1 4 4 0 0 
 # max = 522
1344032		 # 	collision with: 3 2 3 0 0  and 3 3 3 0 0 
 # max = 522
1344048		 # 	collision with: 4 0 2 0 0  and 4 2 2 0 0 
 # max = 522
1344057		 # 	collision with: 3 5 1 0 0  and 4 5 1 0 0 
 # max = 522
1344059		 # 	collision with: 1 2 0 0 0  and 2 2 0 0 0 
 # max = 522
1344067		 # 	collision with: 0 1 0 0 0  and 3 2 0 0 0 
 # max = 522
1344072		 # 	collision with: 3 5 6 0 0  and 4 5 6 0 0 
 # max = 522
1344074		 # 	collision with: 1 2 3 0 0  and 2 2 3 0 0 
 # max = 522
1344076		 # 	collision with: 4 0 2 0 0  and 4 2 2 0 0 
 # max = 522
1344078		 # 	collision with: 1 2 0 0 0  and 2 2 0 0 0 
 # max = 522
1344087		 # 	collision with: 1 2 0 0 0  and 2 2 0 0 0 
 # max = 522
1344092		 # 	collision with: 3 5 0 0 0  and 4 5 0 0 0 
 # max = 522
1344094		 # 	collision with: 1 2 5 0 0  and 2 2 5 0 0 
 # max = 522
1344096		 # 	collision with: 4 0 1 0 0  and 4 2 1 0 0 
 # max = 522
1344098		 # 	collision with: 1 2 1 0 0  and 2 2 1 0 0 
 # max = 522
1344105		 # 	collision with: 3 2 1 0 0  and 3 3 1 0 0 
 # max = 522
1344107		 # 	collision with: 1 2 1 0 0  and 2 2 1 0 0 
 # max = 522
1344120		 # 	collision with: 3 5 0 0 0  and 4 5 0 0 0 
 # max = 522
1344122		 # 	collision with: 1 2 4 0 0  and 2 2 4 0 0 
 # max = 522
1344136		 # 	collision with: 3 5 3 0 0  and 4 5 3 0 0 
 # max = 522
1344138		 # 	collision with: 1 2 1 0 0  and 2 2 1 0 0 
 # max = 522
1344144		 # 	collision with: 3 5 2 0 0  and 4 5 2 0 0 
 # max = 522
1344146		 # 	collision with: 2 1 3 0 0  and 2 3 3 0 0 
 # max = 522
1344149		 # 	collision with: 6 1 0 0 0  and 6 2 0 0 0 
 # max = 522
1344151		 # 	collision with: 0 1 0 0 0  and 3 2 0 0 0 
 # max = 522
1344154		 # 	collision with: 0 1 1 0 0  and 3 2 1 0 0 
 # max = 522
1344168		 # 	collision with: 6 6 6 0 0  and 4 1 1 1 0 
 # max = 522
1344170		 # 	collision with: 6 2 6 0 0  and 1 1 1 1 0 
 # max = 522
1344212		 # 	collision with: 3 5 3 0 0  and 4 5 3 0 0 
 # max = 522
1344214		 # 	collision with: 1 2 1 0 0  and 2 2 1 0 0 
 # max = 522
1344217		 # 	collision with: 4 4 0 0 0  and 3 5 0 0 0 
 # max = 522
1344219		 # 	collision with: 5 0 0 0 0  and 5 2 0 0 0 
 # max = 522
1344220		 # 	collision with: 3 5 0 0 0  and 4 5 0 0 0 
 # max = 522
1344222		 # 	collision with: 1 2 4 0 0  and 2 2 4 0 0 
 # max = 522
1344228		 # 	collision with: 1 1 2 0 0  and 1 3 2 0 0 
 # max = 522
1344230		 # 	collision with: 1 2 0 0 0  and 2 2 0 0 0 
 # max = 522
1344244		 # 	collision with: 1 1 6 0 0  and 1 3 6 0 0 
 # max = 522
1344246		 # 	collision with: 1 2 3 0 0  and 2 2 3 0 0 
 # max = 522
1344253		 # 	collision with: 6 1 0 0 0  and 6 2 2 0 0 
 # max = 522
1344255		 # 	collision with: 1 2 2 0 0  and 2 2 2 0 0 
 # max = 522
1344261		 # 	collision with: 4 2 0 0 0  and 4 2 2 0 0 
 # max = 522
1344263		 # 	collision with: 2 2 0 0 0  and 1 2 2 0 0 
 # max = 522
1344270		 # 	collision with: 1 2 5 0 0  and 2 2 5 0 0 
 # max = 522
1344272		 # 	collision with: 3 5 4 0 0  and 4 5 4 0 0 
 # max = 522
1344274		 # 	collision with: 1 2 2 0 0  and 2 2 2 0 0 
 # max = 522
1344281		 # 	collision with: 1 0 1 0 0  and 6 2 1 0 0 
 # max = 522
1344283		 # 	collision with: 0 1 0 0 0  and 3 2 2 0 0 
 # max = 522
1344290		 # 	collision with: 4 2 1 0 0  and 4 3 1 0 0 
 # max = 522
1344292		 # 	collision with: 3 5 2 0 0  and 4 5 2 0 0 
 # max = 522
1344294		 # 	collision with: 6 2 3 0 0  and 6 4 3 0 0 
 # max = 522
1344301		 # 	collision with: 4 4 0 0 0  and 3 5 0 0 0 
 # max = 522
1344303		 # 	collision with: 5 0 0 0 0  and 5 2 0 0 0 
 # max = 522
1344316		 # 	collision with: 2 0 1 0 0  and 2 1 1 0 0 
 # max = 522
1344318		 # 	collision with: 1 2 1 0 0  and 2 2 1 0 0 
 # max = 522
1344332		 # 	collision with: 3 5 0 0 0  and 4 5 0 0 0 
 # max = 522
1344334		 # 	collision with: 1 2 5 0 0  and 2 2 5 0 0 
 # max = 522
1344340		 # 	collision with: 1 1 2 0 0  and 1 3 2 0 0 
 # max = 522
1344345		 # 	collision with: 3 5 1 0 0  and 4 5 1 0 0 
 # max = 522
1344348		 # 	collision with: 2 0 3 0 0  and 2 1 3 0 0 
 # max = 522
1344364		 # 	collision with: 5 5 3 0 0  and 6 1 0 1 0 
 # max = 522
1344366		 # 	collision with: 3 5 4 0 0  and 4 0 1 1 0 
 # max = 522
1344408		 # 	collision with: 3 5 2 0 0  and 4 5 2 0 0 
 # max = 522
1344410		 # 	collision with: 1 2 0 0 0  and 2 2 0 0 0 
 # max = 522
1344413		 # 	collision with: 2 0 0 0 0  and 2 1 0 0 0 
 # max = 522
1344415		 # 	collision with: 2 0 0 0 0  and 1 1 0 0 0 
 # max = 522
1344416		 # 	collision with: 4 0 6 0 0  and 4 2 6 0 0 
 # max = 522
1344418		 # 	collision with: 1 2 3 0 0  and 2 2 3 0 0 
 # max = 522
1344426		 # 	collision with: 5 0 1 0 0  and 5 2 1 0 0 
 # max = 522
1344440		 # 	collision with: 3 5 2 0 0  and 4 5 2 0 0 
 # max = 522
1344442		 # 	collision with: 1 3 3 0 0  and 1 4 3 0 0 
 # max = 522
1344449		 # 	collision with: 1 5 0 0 0  and 1 6 1 0 0 
 # max = 522
1344457		 # 	collision with: 2 5 0 0 0  and 5 1 1 0 0 
 # max = 522
1344464		 # 	collision with: 6 2 2 0 0  and 1 4 2 0 0 
 # max = 522
1344468		 # 	collision with: 5 2 3 0 0  and 5 4 3 0 0 
 # max = 522
1344477		 # 	collision with: 4 3 0 0 0  and 4 6 1 0 0 
 # max = 522
1344479		 # 	collision with: 6 2 0 0 0  and 6 4 1 0 0 
 # max = 522
1344484		 # 	collision with: 3 5 3 0 0  and 4 5 3 0 0 
 # max = 522
1344486		 # 	collision with: 1 2 1 0 0  and 2 2 1 0 0 
 # max = 522
1344488		 # 	collision with: 3 5 0 0 0  and 4 5 0 0 0 
 # max = 522
1344490		 # 	collision with: 1 2 4 0 0  and 2 2 4 0 0 
 # max = 522
1344497		 # 	collision with: 2 0 0 0 0  and 2 1 0 0 0 
 # max = 522
1344499		 # 	collision with: 2 0 0 0 0  and 1 1 0 0 0 
 # max = 522
1344514		 # 	collision with: 6 2 4 0 0  and 4 3 4 0 0 
 # max = 522
1344528		 # 	collision with: 3 5 4 0 0  and 4 5 4 0 0 
 # max = 522
1344530		 # 	collision with: 1 2 2 0 0  and 2 2 2 0 0 
 # max = 522
1344536		 # 	collision with: 6 1 1 0 0  and 6 2 1 0 0 
 # max = 522
1344538		 # 	collision with: 1 2 1 0 0  and 2 2 1 0 0 
 # max = 522
1344541		 # 	collision with: 6 5 0 0 0  and 1 5 1 0 0 
 # max = 522
1344543		 # 	collision with: 5 5 0 0 0  and 5 5 1 0 0 
 # max = 522
1344544		 # 	collision with: 3 5 0 0 0  and 4 5 0 0 0 
 # max = 522
1344546		 # 	collision with: 1 2 5 0 0  and 2 2 5 0 0 
 # max = 522
1344560		 # 	collision with: 2 2 1 5 0  and 1 0 0 0 1 
 # max = 2402
1344561		 # 	collision with: 2 3 0 0 0  and 0 1 1 1 0 
 # max = 2402
1344562		 # 	collision with: 5 4 1 4 0  and 0 1 0 0 1 
 # max = 2408
1344563		 # 	collision with: 4 4 0 0 0  and 3 0 1 1 0 
 # max = 2408
1344588		 # 	collision with: 6 1 1 0 0  and 1 3 1 0 0 
 # max = 2408
1344589		 # 	collision with: 0 2 0 1 0  and 3 4 0 1 0 
 # max = 2408
1344590		 # 	collision with: 1 3 1 0 0  and 2 4 1 0 0 
 # max = 2408
1344591		 # 	collision with: 0 0 3 0 0  and 3 1 4 0 0 
 # max = 2408
1344616		 # 	collision with: 3 0 1 0 0  and 4 2 1 0 0 
 # max = 2408
1344617		 # 	collision with: 3 0 1 0 0  and 3 0 3 1 0 
 # max = 2408
1344618		 # 	collision with: 3 2 1 0 0  and 0 3 1 0 0 
 # max = 2408
1344619		 # 	collision with: 3 1 3 0 0  and 0 3 4 0 0 
 # max = 2408
1344644		 # 	collision with: 2 2 1 0 0  and 5 4 1 0 0 
 # max = 2408
1344645		 # 	collision with: 5 6 0 0 0  and 0 4 1 1 0 
 # max = 2408
1344646		 # 	collision with: 0 0 1 0 0  and 3 2 1 0 0 
 # max = 2408
1344647		 # 	collision with: 1 3 4 0 0  and 2 4 4 0 0 
 # max = 2408
1344672		 # 	collision with: 6 0 1 0 0  and 1 1 1 0 0 
 # max = 2408
1344673		 # 	collision with: 3 1 2 1 0  and 2 2 2 1 0 
 # max = 2408
1344674		 # 	collision with: 3 1 1 0 0  and 0 3 1 0 0 
 # max = 2408
1344675		 # 	collision with: 1 3 3 0 0  and 2 4 3 0 0 
 # max = 2408
1344700		 # 	collision with: 2 2 1 0 0  and 5 3 1 0 0 
 # max = 2408
1344701		 # 	collision with: 4 3 0 0 0  and 4 4 1 1 0 
 # max = 2408
1344702		 # 	collision with: 0 0 1 0 0  and 3 1 1 0 0 
 # max = 2408
1344703		 # 	collision with: 1 3 1 0 0  and 2 4 1 0 0 
 # max = 2408
1344728		 # 	collision with: 4 1 1 0 0  and 3 2 1 0 0 
 # max = 2408
1344729		 # 	collision with: 1 0 0 1 0  and 3 1 0 1 0 
 # max = 2408
1344730		 # 	collision with: 6 2 1 0 0  and 4 4 1 0 0 
 # max = 2408
1344731		 # 	collision with: 1 3 2 0 0  and 2 4 2 0 0 
 # max = 2408
1344756		 # 	collision with: 1 2 6 0 0  and 2 1 0 1 0 
 # max = 2408
1344757		 # 	collision with: 6 2 2 0 0  and 0 1 0 1 0 
 # max = 2408
1344758		 # 	collision with: 4 0 6 0 0  and 3 5 0 1 0 
 # max = 2408
1344759		 # 	collision with: 6 6 4 0 0  and 5 0 0 1 0 
 # max = 2408
1344784		 # 	collision with: 3 1 6 0 0  and 1 0 0 1 0 
 # max = 2408
1344785		 # 	collision with: 2 2 2 0 0  and 5 4 2 0 0 
 # max = 2408
1344786		 # 	collision with: 6 0 6 0 0  and 0 6 0 1 0 
 # max = 2408
1344787		 # 	collision with: 6 2 2 0 0  and 4 4 2 0 0 
 # max = 2408
1344812		 # 	collision with: 5 0 6 0 0  and 6 2 0 1 0 
 # max = 2408
1344813		 # 	collision with: 2 2 1 0 0  and 5 4 1 0 0 
 # max = 2408
1344814		 # 	collision with: 1 2 6 0 0  and 5 0 0 1 0 
 # max = 2408
1344815		 # 	collision with: 6 2 1 0 0  and 4 4 1 0 0 
 # max = 2408
1344840		 # 	collision with: 2 4 6 0 0  and 0 6 0 1 0 
 # max = 2408
1344841		 # 	collision with: 2 2 3 0 0  and 5 4 3 0 0 
 # max = 2408
1344842		 # 	collision with: 0 2 0 0 0  and 4 0 1 1 0 
 # max = 2408
1344843		 # 	collision with: 6 2 3 0 0  and 4 4 3 0 0 
 # max = 2408
1344868		 # 	collision with: 2 3 1 0 0  and 0 6 2 1 0 
 # max = 2408
1344869		 # 	collision with: 6 0 2 0 0  and 1 1 4 0 0 
 # max = 2408
1344870		 # 	collision with: 4 2 6 0 0  and 1 0 0 1 0 
 # max = 2408
1344871		 # 	collision with: 6 3 2 0 0  and 6 0 4 0 0 
 # max = 2408
1344896		 # 	collision with: 2 1 6 0 0  and 0 0 0 1 0 
 # max = 2408
1344897		 # 	collision with: 2 6 2 0 0  and 2 1 4 0 0 
 # max = 2408
1344898		 # 	collision with: 3 6 1 0 0  and 2 3 2 1 0 
 # max = 2408
1344899		 # 	collision with: 2 3 2 0 0  and 2 0 4 0 0 
 # max = 2408
1344924		 # 	collision with: 5 1 6 0 0  and 0 3 0 1 0 
 # max = 2408
1344925		 # 	collision with: 2 3 2 0 0  and 5 0 4 0 0 
 # max = 2408
1344926		 # 	collision with: 2 2 6 0 0  and 6 3 0 1 0 
 # max = 2408
1344927		 # 	collision with: 4 3 2 0 0  and 4 0 4 0 0 
 # max = 2408
1344952		 # 	collision with: 1 1 3 0 0  and 0 2 0 1 0 
 # max = 2408
1344953		 # 	collision with: 3 2 6 0 0  and 2 0 0 1 0 
 # max = 2408
1344954		 # 	collision with: 2 4 3 0 0  and 4 1 0 1 0 
 # max = 2408
1344955		 # 	collision with: 1 6 5 0 0  and 0 0 2 1 0 
 # max = 2408
1344980		 # 	collision with: 2 5 5 0 0  and 5 4 2 1 0 
 # max = 2408
1344981		 # 	collision with: 1 6 2 0 0  and 6 0 3 0 0 
 # max = 2408
1344982		 # 	collision with: 0 5 4 0 0  and 2 6 1 1 0 
 # max = 2408
1344983		 # 	collision with: 3 5 2 0 0  and 0 2 3 0 0 
 # max = 2408
1345008		 # 	collision with: 0 0 3 0 0  and 4 4 0 1 0 
 # max = 2408
1345009		 # 	collision with: 4 5 2 0 0  and 4 2 3 0 0 
 # max = 2408
1345010		 # 	collision with: 3 6 3 0 0  and 1 5 0 1 0 
 # max = 2408
1345011		 # 	collision with: 3 2 2 0 0  and 0 3 2 0 0 
 # max = 2408
1345036		 # 	collision with: 1 5 3 0 0  and 2 1 0 1 0 
 # max = 2408
1345037		 # 	collision with: 2 2 1 0 0  and 5 3 1 0 0 
 # max = 2408
1345038		 # 	collision with: 4 2 3 0 0  and 4 1 0 1 0 
 # max = 2408
1345039		 # 	collision with: 2 0 2 0 0  and 2 3 3 0 0 
 # max = 2408
1345064		 # 	collision with: 4 6 4 0 0  and 2 0 1 1 0 
 # max = 2408
1345065		 # 	collision with: 2 5 2 0 0  and 2 2 3 0 0 
 # max = 2408
1345066		 # 	collision with: 5 5 3 0 0  and 6 3 0 1 0 
 # max = 2408
1345067		 # 	collision with: 3 2 1 0 0  and 0 3 1 0 0 
 # max = 2408
1345092		 # 	collision with: 1 6 3 0 0  and 1 1 0 1 0 
 # max = 2408
1345093		 # 	collision with: 2 2 2 0 0  and 5 3 2 0 0 
 # max = 2408
1345094		 # 	collision with: 0 2 0 1 0  and 4 3 0 1 0 
 # max = 2408
1345095		 # 	collision with: 2 6 2 0 0  and 1 0 3 0 0 
 # max = 2408
1345120		 # 	collision with: 6 0 3 0 0  and 0 2 0 1 0 
 # max = 2408
1345121		 # 	collision with: 6 5 2 0 0  and 6 2 3 0 0 
 # max = 2408
1345122		 # 	collision with: 1 1 4 0 0  and 5 3 1 1 0 
 # max = 2408
1345123		 # 	collision with: 3 2 3 0 0  and 0 3 3 0 0 
 # max = 2408
1345148		 # 	collision with: 0 2 2 0 0  and 3 3 0 1 0 
 # max = 2408
1345149		 # 	collision with: 3 3 2 0 0  and 0 2 3 1 0 
 # max = 2408
1345150		 # 	collision with: 1 6 2 0 0  and 3 2 0 1 0 
 # max = 2408
1345151		 # 	collision with: 2 0 2 0 0  and 5 2 1 1 0 
 # max = 2408
1345176		 # 	collision with: 3 5 2 0 0  and 4 1 0 1 0 
 # max = 2408
1345177		 # 	collision with: 6 6 1 0 0  and 1 4 3 0 0 
 # max = 2408
1345178		 # 	collision with: 3 6 2 0 0  and 1 5 0 1 0 
 # max = 2408
1345179		 # 	collision with: 4 6 1 0 0  and 4 4 3 0 0 
 # max = 2408
1345204		 # 	collision with: 0 0 2 0 0  and 1 2 0 1 0 
 # max = 2408
1345205		 # 	collision with: 4 5 1 0 0  and 3 0 3 0 0 
 # max = 2408
1345206		 # 	collision with: 2 1 5 0 0  and 2 1 3 1 0 
 # max = 2408
1345207		 # 	collision with: 2 6 1 0 0  and 2 4 3 0 0 
 # max = 2408
1345232		 # 	collision with: 1 6 2 0 0  and 6 0 0 1 0 
 # max = 2408
1345233		 # 	collision with: 6 2 1 0 0  and 6 5 3 0 0 
 # max = 2408
1345234		 # 	collision with: 1 0 3 0 0  and 0 5 1 1 0 
 # max = 2408
1345235		 # 	collision with: 2 6 1 0 0  and 1 0 3 0 0 
 # max = 2408
1345260		 # 	collision with: 6 6 2 0 0  and 4 0 0 1 0 
 # max = 2408
1345261		 # 	collision with: 1 6 1 0 0  and 6 0 3 0 0 
 # max = 2408
1345262		 # 	collision with: 5 4 2 0 0  and 4 0 0 1 0 
 # max = 2408
1345263		 # 	collision with: 1 5 1 0 0  and 2 0 3 0 0 
 # max = 2408
1345288		 # 	collision with: 5 1 2 0 0  and 5 6 0 1 0 
 # max = 2408
1345289		 # 	collision with: 6 1 1 0 0  and 1 3 1 0 0 
 # max = 2408
1345290		 # 	collision with: 5 6 5 0 0  and 5 6 3 1 0 
 # max = 2408
1345291		 # 	collision with: 3 1 1 0 0  and 0 3 1 0 0 
 # max = 2408
1345316		 # 	collision with: 3 5 3 0 0  and 3 2 1 1 0 
 # max = 2408
1345317		 # 	collision with: 6 1 2 0 0  and 1 3 2 0 0 
 # max = 2408
1345318		 # 	collision with: 1 4 2 0 0  and 0 0 0 1 0 
 # max = 2408
1345319		 # 	collision with: 3 1 2 0 0  and 0 3 2 0 0 
 # max = 2408
1345344		 # 	collision with: 6 6 3 0 0  and 5 5 0 2 0 
 # max = 2408
1345345		 # 	collision with: 0 5 4 0 0  and 1 1 1 1 0 
 # max = 2408
1345346		 # 	collision with: 0 5 5 0 0  and 1 3 0 1 0 
 # max = 2408
1345347		 # 	collision with: 6 6 4 0 0  and 1 2 1 1 0 
 # max = 2408
1345372		 # 	collision with: 4 6 5 0 0  and 3 2 0 1 0 
 # max = 2408
1345373		 # 	collision with: 3 6 1 0 0  and 3 1 2 0 0 
 # max = 2408
1345374		 # 	collision with: 6 3 5 0 0  and 5 5 0 1 0 
 # max = 2408
1345375		 # 	collision with: 4 5 1 0 0  and 6 6 2 0 0 
 # max = 2408
1345400		 # 	collision with: 3 3 5 0 0  and 0 2 0 1 0 
 # max = 2408
1345401		 # 	collision with: 4 1 1 0 0  and 3 2 1 0 0 
 # max = 2408
1345402		 # 	collision with: 2 5 5 0 0  and 6 2 0 1 0 
 # max = 2408
1345403		 # 	collision with: 4 6 1 0 0  and 6 1 2 0 0 
 # max = 2408
1345428		 # 	collision with: 6 0 5 0 0  and 1 1 0 1 0 
 # max = 2408
1345429		 # 	collision with: 1 6 1 0 0  and 1 1 2 0 0 
 # max = 2408
1345430		 # 	collision with: 5 2 5 0 0  and 2 0 0 1 0 
 # max = 2408
1345431		 # 	collision with: 4 6 1 0 0  and 6 2 2 0 0 
 # max = 2408
1345456		 # 	collision with: 3 1 5 0 0  and 5 4 0 1 0 
 # max = 2408
1345457		 # 	collision with: 6 6 1 0 0  and 6 1 2 0 0 
 # max = 2408
1345458		 # 	collision with: 3 3 5 0 0  and 4 4 0 1 0 
 # max = 2408
1345459		 # 	collision with: 4 4 1 0 0  and 6 1 2 0 0 
 # max = 2408
1345484		 # 	collision with: 4 2 5 0 0  and 0 4 0 1 0 
 # max = 2408
1345485		 # 	collision with: 2 6 1 0 0  and 2 1 2 0 0 
 # max = 2408
1345486		 # 	collision with: 2 4 5 0 0  and 2 4 0 1 0 
 # max = 2408
1345487		 # 	collision with: 4 4 1 0 0  and 6 2 2 0 0 
 # max = 2408
1345512		 # 	collision with: 4 1 5 0 0  and 4 6 0 1 0 
 # max = 2408
1345513		 # 	collision with: 4 6 1 0 0  and 4 1 2 0 0 
 # max = 2408
1345514		 # 	collision with: 6 2 5 0 0  and 3 0 0 1 0 
 # max = 2408
1345515		 # 	collision with: 4 5 1 0 0  and 6 4 2 0 0 
 # max = 2408
1345540		 # 	collision with: 0 6 5 0 0  and 6 2 1 1 0 
 # max = 2408
1345541		 # 	collision with: 5 6 1 1 0  and 0 3 0 2 0 
 # max = 2408
1345542		 # 	collision with: 2 5 1 0 0  and 3 0 0 2 0 
 # max = 2408
1345543		 # 	collision with: 6 5 1 1 0  and 3 2 0 2 0 
 # max = 2408
1345568		 # 	collision with: 2 1 5 0 0  and 2 1 1 1 0 
 # max = 2408
1345569		 # 	collision with: 2 5 0 0 0  and 5 3 2 0 0 
 # max = 2408
1345570		 # 	collision with: 2 1 6 0 0  and 2 2 2 1 0 
 # max = 2408
1345571		 # 	collision with: 0 0 2 0 0  and 3 2 2 0 0 
 # max = 2408
1345596		 # 	collision with: 5 2 0 1 0  and 1 3 0 1 0 
 # max = 2408
1345597		 # 	collision with: 3 0 2 0 0  and 4 2 2 0 0 
 # max = 2408
1345598		 # 	collision with: 3 0 0 1 0  and 6 1 0 1 0 
 # max = 2408
1345599		 # 	collision with: 0 0 1 0 0  and 3 2 1 0 0 
 # max = 2408
1345624		 # 	collision with: 3 4 4 0 0  and 6 0 0 1 0 
 # max = 2408
1345625		 # 	collision with: 2 4 0 0 0  and 2 3 2 0 0 
 # max = 2408
1345626		 # 	collision with: 0 5 5 0 0  and 2 4 1 1 0 
 # max = 2408
1345627		 # 	collision with: 1 4 0 0 0  and 1 6 2 0 0 
 # max = 2408
1345652		 # 	collision with: 3 3 5 0 0  and 1 1 1 1 0 
 # max = 2408
1345653		 # 	collision with: 3 0 1 0 0  and 4 2 1 0 0 
 # max = 2408
1345654		 # 	collision with: 2 2 4 0 0  and 5 5 0 1 0 
 # max = 2408
1345655		 # 	collision with: 6 4 0 0 0  and 6 6 2 0 0 
 # max = 2408
1345680		 # 	collision with: 6 4 4 0 0  and 2 0 0 1 0 
 # max = 2408
1345681		 # 	collision with: 4 4 0 0 0  and 4 3 2 0 0 
 # max = 2408
1345682		 # 	collision with: 5 1 5 0 0  and 3 4 1 1 0 
 # max = 2408
1345683		 # 	collision with: 2 4 0 0 0  and 2 6 2 0 0 
 # max = 2408
1345708		 # 	collision with: 2 5 4 0 0  and 5 3 0 1 0 
 # max = 2408
1345709		 # 	collision with: 1 4 0 0 0  and 1 3 2 0 0 
 # max = 2408
1345710		 # 	collision with: 5 6 4 0 0  and 5 4 0 1 0 
 # max = 2408
1345711		 # 	collision with: 4 4 0 0 0  and 4 6 2 0 0 
 # max = 2408
1345736		 # 	collision with: 0 1 1 0 0  and 2 4 0 1 0 
 # max = 2408
1345737		 # 	collision with: 3 0 3 0 0  and 4 2 0 1 0 
 # max = 2408
1345738		 # 	collision with: 3 1 2 0 0  and 6 5 1 1 0 
 # max = 2408
1345739		 # 	collision with: 1 5 3 0 0  and 2 0 0 1 0 
 # max = 2408
1345764		 # 	collision with: 6 4 1 0 0  and 2 0 0 1 0 
 # max = 2408
1345765		 # 	collision with: 2 3 0 0 0  and 5 0 1 0 0 
 # max = 2408
1345766		 # 	collision with: 2 3 1 0 0  and 5 2 0 1 0 
 # max = 2408
1345767		 # 	collision with: 1 3 0 0 0  and 1 0 1 0 0 
 # max = 2408
1345792		 # 	collision with: 4 3 2 0 0  and 2 1 1 1 0 
 # max = 2408
1345793		 # 	collision with: 4 5 0 0 0  and 3 0 1 0 0 
 # max = 2408
1345794		 # 	collision with: 4 0 1 0 0  and 4 3 0 1 0 
 # max = 2408
1345795		 # 	collision with: 1 5 0 0 0  and 2 0 1 0 0 
 # max = 2408
1345820		 # 	collision with: 2 4 1 0 0  and 5 0 0 1 0 
 # max = 2408
1345821		 # 	collision with: 6 4 0 0 0  and 6 3 1 0 0 
 # max = 2408
1345822		 # 	collision with: 5 5 1 0 0  and 0 6 0 1 0 
 # max = 2408
1345823		 # 	collision with: 5 3 0 0 0  and 5 0 1 0 0 
 # max = 2408
1345848		 # 	collision with: 2 5 1 0 0  and 2 2 0 1 0 
 # max = 2408
1345849		 # 	collision with: 3 5 0 0 0  and 4 1 1 0 0 
 # max = 2408
1345850		 # 	collision with: 5 2 2 0 0  and 1 5 1 1 0 
 # max = 2408
1345851		 # 	collision with: 2 3 0 0 0  and 2 0 1 0 0 
 # max = 2408
1345876		 # 	collision with: 3 0 2 0 0  and 5 1 1 1 0 
 # max = 2408
1345877		 # 	collision with: 6 0 1 0 0  and 1 1 1 0 0 
 # max = 2408
1345878		 # 	collision with: 0 5 3 0 0  and 1 3 2 1 0 
 # max = 2408
1345879		 # 	collision with: 3 3 0 0 0  and 3 0 1 0 0 
 # max = 2408
1345904		 # 	collision with: 0 2 1 0 0  and 1 6 0 1 0 
 # max = 2408
1345905		 # 	collision with: 1 3 0 0 0  and 6 1 1 0 0 
 # max = 2408
1345906		 # 	collision with: 1 0 1 0 0  and 4 2 0 1 0 
 # max = 2408
1345907		 # 	collision with: 6 3 0 0 0  and 6 0 1 0 0 
 # max = 2408
1345941		 # 	collision with: 4 3 0 0 0  and 4 4 0 0 0 
 # max = 2408
1345943		 # 	collision with: 6 1 2 0 0  and 6 2 2 0 0 
 # max = 2408
1345953		 # 	collision with: 3 3 0 0 0  and 3 4 0 0 0 
 # max = 2408
1345955		 # 	collision with: 2 4 3 0 0  and 1 1 4 0 0 
 # max = 2408
1345963		 # 	collision with: 0 3 2 0 0  and 3 4 2 0 0 
 # max = 2408
1346001		 # 	collision with: 5 3 0 0 0  and 5 4 0 0 0 
 # max = 2408
1346003		 # 	collision with: 6 1 1 0 0  and 4 3 1 0 0 
 # max = 2408
1346005		 # 	collision with: 2 3 0 0 0  and 2 4 0 0 0 
 # max = 2408
1346007		 # 	collision with: 0 3 0 0 0  and 3 4 0 0 0 
 # max = 2408
1346085		 # 	collision with: 5 3 0 0 0  and 5 4 0 0 0 
 # max = 2408
1346087		 # 	collision with: 2 6 3 0 0  and 1 2 4 0 0 
 # max = 2408
1346089		 # 	collision with: 2 3 0 0 0  and 2 4 0 0 0 
 # max = 2408
1346091		 # 	collision with: 0 3 0 0 0  and 3 4 0 0 0 
 # max = 2408
1346103		 # 	collision with: 4 6 3 0 0  and 4 4 4 0 0 
 # max = 2408
1346128		 # 	collision with: 5 2 0 0 0  and 0 0 0 1 0 
 # max = 2408
1346130		 # 	collision with: 6 4 4 5 0  and 5 1 0 0 1 
 # max = 2413
1346137		 # 	collision with: 4 3 3 0 0  and 4 4 3 0 0 
 # max = 2413
1346139		 # 	collision with: 0 3 3 0 0  and 3 4 3 0 0 
 # max = 2413
1346157		 # 	collision with: 4 5 2 0 0  and 4 2 4 0 0 
 # max = 2413
1346159		 # 	collision with: 1 2 0 0 0  and 2 4 0 0 0 
 # max = 2413
1346197		 # 	collision with: 5 3 2 0 0  and 5 4 2 0 0 
 # max = 2413
1346199		 # 	collision with: 4 1 1 0 0  and 4 2 1 0 0 
 # max = 2413
1346201		 # 	collision with: 2 2 0 0 0  and 5 4 0 0 0 
 # max = 2413
1346203		 # 	collision with: 6 5 2 0 0  and 4 1 4 0 0 
 # max = 2413
1346281		 # 	collision with: 5 3 2 0 0  and 5 4 2 0 0 
 # max = 2413
1346283		 # 	collision with: 4 1 1 0 0  and 4 2 1 0 0 
 # max = 2413
1346285		 # 	collision with: 2 2 0 0 0  and 5 4 0 0 0 
 # max = 2413
1346297		 # 	collision with: 2 2 2 0 0  and 5 4 2 0 0 
 # max = 2413
1346299		 # 	collision with: 1 2 0 0 0  and 2 4 0 0 0 
 # max = 2413
1346324		 # 	collision with: 3 6 0 0 0  and 1 5 0 1 0 
 # max = 2413
1346326		 # 	collision with: 6 0 0 0 0  and 5 2 0 1 0 
 # max = 2413
1346333		 # 	collision with: 2 2 2 0 0  and 5 3 3 0 0 
 # max = 2413
1346335		 # 	collision with: 6 1 1 0 0  and 6 2 1 0 0 
 # max = 2413
1346345		 # 	collision with: 3 3 1 0 0  and 3 4 1 0 0 
 # max = 2413
1346347		 # 	collision with: 3 4 2 0 0  and 0 3 3 0 0 
 # max = 2413
1346353		 # 	collision with: 2 1 2 0 0  and 2 6 3 0 0 
 # max = 2413
1346395		 # 	collision with: 5 1 2 0 0  and 5 1 3 0 0 
 # max = 2413
1346397		 # 	collision with: 2 6 2 0 0  and 2 1 3 0 0 
 # max = 2413
1346479		 # 	collision with: 2 1 2 0 0  and 2 1 3 0 0 
 # max = 2413
1346481		 # 	collision with: 1 6 2 0 0  and 1 1 3 0 0 
 # max = 2413
1346483		 # 	collision with: 6 1 2 0 0  and 4 3 2 0 0 
 # max = 2413
1346493		 # 	collision with: 2 2 1 0 0  and 5 3 1 0 0 
 # max = 2413
1346495		 # 	collision with: 6 2 3 0 0  and 4 3 3 0 0 
 # max = 2413
1346520		 # 	collision with: 2 2 1 5 0  and 1 0 0 0 1 
 # max = 2413
1346522		 # 	collision with: 2 5 0 0 0  and 0 4 0 1 0 
 # max = 2413
1346529		 # 	collision with: 3 0 1 0 0  and 4 2 1 0 0 
 # max = 2413
1346531		 # 	collision with: 4 0 1 0 0  and 6 2 3 0 0 
 # max = 2413
1346541		 # 	collision with: 2 4 1 0 0  and 2 3 3 0 0 
 # max = 2413
1346543		 # 	collision with: 4 0 2 0 0  and 6 1 2 0 0 
 # max = 2413
1346549		 # 	collision with: 6 1 1 0 0  and 1 3 1 0 0 
 # max = 2413
1346551		 # 	collision with: 6 2 1 0 0  and 6 1 3 0 0 
 # max = 2413
1346589		 # 	collision with: 1 5 1 0 0  and 1 2 3 0 0 
 # max = 2413
1346591		 # 	collision with: 1 3 1 0 0  and 1 0 3 0 0 
 # max = 2413
1346593		 # 	collision with: 6 1 0 0 0  and 1 3 0 0 0 
 # max = 2413
1346595		 # 	collision with: 3 1 2 0 0  and 3 2 2 0 0 
 # max = 2413
1346673		 # 	collision with: 4 5 1 0 0  and 3 0 3 0 0 
 # max = 2413
1346675		 # 	collision with: 6 2 2 0 0  and 4 3 2 0 0 
 # max = 2413
1346677		 # 	collision with: 6 1 0 0 0  and 1 3 0 0 0 
 # max = 2413
1346679		 # 	collision with: 3 1 2 0 0  and 3 2 2 0 0 
 # max = 2413
1346689		 # 	collision with: 4 1 1 0 0  and 3 5 3 0 0 
 # max = 2413
1346691		 # 	collision with: 1 2 1 0 0  and 1 1 3 0 0 
 # max = 2413
1346716		 # 	collision with: 2 0 0 0 0  and 4 3 0 1 0 
 # max = 2413
1346718		 # 	collision with: 3 2 0 0 0  and 2 3 0 1 0 
 # max = 2413
1346725		 # 	collision with: 6 1 1 0 0  and 1 3 2 0 0 
 # max = 2413
1346727		 # 	collision with: 6 1 0 0 0  and 6 2 0 0 0 
 # max = 2413
1346737		 # 	collision with: 3 3 2 0 0  and 3 4 2 0 0 
 # max = 2413
1346739		 # 	collision with: 1 1 0 0 0  and 1 2 0 0 0 
 # max = 2413
1346745		 # 	collision with: 4 2 1 0 0  and 4 5 2 0 0 
 # max = 2413
1346747		 # 	collision with: 4 1 1 0 0  and 6 5 2 0 0 
 # max = 2413
1346785		 # 	collision with: 5 3 1 0 0  and 5 4 1 0 0 
 # max = 2413
1346787		 # 	collision with: 4 1 0 0 0  and 4 2 0 0 0 
 # max = 2413
1346789		 # 	collision with: 3 5 1 0 0  and 3 2 2 0 0 
 # max = 2413
1346791		 # 	collision with: 3 1 0 0 0  and 3 2 0 0 0 
 # max = 2413
1346869		 # 	collision with: 5 3 1 0 0  and 5 4 1 0 0 
 # max = 2413
1346871		 # 	collision with: 4 1 0 0 0  and 4 2 0 0 0 
 # max = 2413
1346873		 # 	collision with: 1 1 1 0 0  and 6 0 2 0 0 
 # max = 2413
1346875		 # 	collision with: 3 1 0 0 0  and 3 2 0 0 0 
 # max = 2413
1346885		 # 	collision with: 4 1 2 0 0  and 3 2 2 0 0 
 # max = 2413
1346887		 # 	collision with: 4 3 1 0 0  and 6 1 2 0 0 
 # max = 2413
1346912		 # 	collision with: 0 6 0 0 0  and 6 0 0 1 0 
 # max = 2413
1346914		 # 	collision with: 6 4 0 0 0  and 1 2 0 1 0 
 # max = 2413
1346921		 # 	collision with: 4 3 1 0 0  and 4 4 1 0 0 
 # max = 2413
1346923		 # 	collision with: 4 0 0 0 0  and 6 2 0 0 0 
 # max = 2413
1346933		 # 	collision with: 4 5 0 0 0  and 4 2 2 0 0 
 # max = 2413
1346935		 # 	collision with: 5 0 0 0 0  and 5 3 2 0 0 
 # max = 2413
1346941		 # 	collision with: 3 0 0 0 0  and 4 2 0 0 0 
 # max = 2413
1346943		 # 	collision with: 4 6 0 0 0  and 4 4 2 0 0 
 # max = 2413
1346981		 # 	collision with: 3 2 0 0 0  and 4 1 2 0 0 
 # max = 2413
1346983		 # 	collision with: 6 2 0 0 0  and 6 1 2 0 0 
 # max = 2413
1346987		 # 	collision with: 1 5 0 0 0  and 1 5 2 0 0 
 # max = 2413
1347065		 # 	collision with: 2 2 0 0 0  and 2 2 2 0 0 
 # max = 2413
1347071		 # 	collision with: 1 4 0 0 0  and 2 5 2 0 0 
 # max = 2413
1347081		 # 	collision with: 3 0 0 0 0  and 4 2 0 0 0 
 # max = 2413
1347108		 # 	collision with: 2 1 0 0 0  and 1 3 0 1 0 
 # max = 2413
1347110		 # 	collision with: 5 4 0 0 0  and 0 0 0 1 0 
 # max = 2413
1347129		 # 	collision with: 2 2 2 0 0  and 5 3 2 0 0 
 # max = 2413
1347131		 # 	collision with: 1 1 1 0 0  and 1 2 1 0 0 
 # max = 2413
1347137		 # 	collision with: 5 0 0 0 0  and 5 0 1 0 0 
 # max = 2413
1347139		 # 	collision with: 4 0 0 0 0  and 4 0 1 0 0 
 # max = 2413
1347177		 # 	collision with: 6 0 0 0 0  and 6 0 1 0 0 
 # max = 2413
1347181		 # 	collision with: 6 0 0 0 0  and 6 0 1 0 0 
 # max = 2413
1347183		 # 	collision with: 4 0 0 0 0  and 6 1 0 0 0 
 # max = 2413
1347261		 # 	collision with: 2 2 1 0 0  and 5 3 1 0 0 
 # max = 2413
1347263		 # 	collision with: 5 0 0 0 0  and 5 0 1 0 0 
 # max = 2413
1347265		 # 	collision with: 2 3 2 0 0  and 2 4 2 0 0 
 # max = 2413
1347267		 # 	collision with: 4 0 0 0 0  and 6 1 0 0 0 
 # max = 2413
1347277		 # 	collision with: 2 0 0 0 0  and 2 0 1 0 0 
 # max = 2413
1347279		 # 	collision with: 3 0 0 0 0  and 3 0 1 0 0 
 # max = 2413
1347309		 # 	collision with: 1 3 0 0 0  and 1 4 0 0 0 
 # max = 2413
1347311		 # 	collision with: 1 1 3 0 0  and 1 2 4 0 0 
 # max = 2413
1347329		 # 	collision with: 6 3 0 0 0  and 6 4 0 0 0 
 # max = 2413
1347331		 # 	collision with: 5 1 3 0 0  and 5 2 3 0 0 
 # max = 2413
1347335		 # 	collision with: 2 6 3 0 0  and 2 4 4 0 0 
 # max = 2413
1347369		 # 	collision with: 4 3 0 0 0  and 4 4 0 0 0 
 # max = 2413
1347381		 # 	collision with: 3 3 0 0 0  and 3 4 0 0 0 
 # max = 2413
1347383		 # 	collision with: 4 1 2 0 0  and 6 3 2 0 0 
 # max = 2413
1347453		 # 	collision with: 4 3 0 0 0  and 4 4 0 0 0 
 # max = 2413
1347455		 # 	collision with: 3 3 0 0 0  and 0 4 0 0 0 
 # max = 2413
1347465		 # 	collision with: 3 3 0 0 0  and 3 4 0 0 0 
 # max = 2413
1347475		 # 	collision with: 3 3 1 0 0  and 0 4 1 0 0 
 # max = 2413
1347500		 # 	collision with: 1 3 2 0 0  and 5 6 1 1 0 
 # max = 2413
1347502		 # 	collision with: 6 4 1 0 0  and 3 2 0 1 0 
 # max = 2413
1347505		 # 	collision with: 6 0 2 0 0  and 1 1 4 0 0 
 # max = 2413
1347507		 # 	collision with: 2 1 3 0 0  and 2 2 3 0 0 
 # max = 2413
1347525		 # 	collision with: 6 3 1 0 0  and 6 4 1 0 0 
 # max = 2413
1347527		 # 	collision with: 5 1 4 0 0  and 5 2 4 0 0 
 # max = 2413
1347529		 # 	collision with: 2 2 1 0 0  and 5 4 1 0 0 
 # max = 2413
1347531		 # 	collision with: 6 0 2 0 0  and 4 2 4 0 0 
 # max = 2413
1347565		 # 	collision with: 6 1 1 0 0  and 1 3 1 0 0 
 # max = 2413
1347567		 # 	collision with: 3 3 3 0 0  and 0 4 3 0 0 
 # max = 2413
1347577		 # 	collision with: 2 2 0 0 0  and 5 4 0 0 0 
 # max = 2413
1347649		 # 	collision with: 4 3 3 0 0  and 4 4 3 0 0 
 # max = 2413
1347651		 # 	collision with: 3 5 2 0 0  and 0 0 4 0 0 
 # max = 2413
1347661		 # 	collision with: 2 2 0 0 0  and 5 4 0 0 0 
 # max = 2413
1347663		 # 	collision with: 6 1 2 0 0  and 6 2 2 0 0 
 # max = 2413
1347669		 # 	collision with: 3 0 2 0 0  and 4 2 4 0 0 
 # max = 2413
1347671		 # 	collision with: 2 2 3 0 0  and 1 4 3 0 0 
 # max = 2413
1347696		 # 	collision with: 3 4 4 0 0  and 1 3 0 1 0 
 # max = 2413
1347698		 # 	collision with: 6 4 4 0 0  and 5 6 0 1 0 
 # max = 2413
1347701		 # 	collision with: 6 1 2 0 0  and 6 6 3 0 0 
 # max = 2413
1347703		 # 	collision with: 2 1 2 0 0  and 2 2 2 0 0 
 # max = 2413
1347725		 # 	collision with: 2 2 2 0 0  and 5 3 2 0 0 
 # max = 2413
1347761		 # 	collision with: 2 6 2 0 0  and 2 6 3 0 0 
 # max = 2413
1347763		 # 	collision with: 1 1 1 0 0  and 1 2 1 0 0 
 # max = 2413
1347773		 # 	collision with: 2 2 0 0 0  and 5 3 0 0 0 
 # max = 2413
1347775		 # 	collision with: 6 0 2 0 0  and 4 2 2 0 0 
 # max = 2413
1347845		 # 	collision with: 2 2 3 0 0  and 5 4 3 0 0 
 # max = 2413
1347847		 # 	collision with: 1 1 1 0 0  and 1 2 1 0 0 
 # max = 2413
1347857		 # 	collision with: 2 2 0 0 0  and 5 3 0 0 0 
 # max = 2413
1347859		 # 	collision with: 2 1 2 0 0  and 2 1 3 0 0 
 # max = 2413
1347865		 # 	collision with: 5 4 2 0 0  and 2 2 3 0 0 
 # max = 2413
1347867		 # 	collision with: 2 1 2 0 0  and 2 2 3 0 0 
 # max = 2413
1347892		 # 	collision with: 3 6 5 0 0  and 2 4 0 1 0 
 # max = 2413
1347894		 # 	collision with: 1 0 5 0 0  and 3 0 0 1 0 
 # max = 2413
1347897		 # 	collision with: 2 2 1 0 0  and 5 4 3 0 0 
 # max = 2413
1347899		 # 	collision with: 2 1 1 0 0  and 2 2 1 0 0 
 # max = 2413
1347917		 # 	collision with: 2 2 1 0 0  and 5 3 1 0 0 
 # max = 2413
1347919		 # 	collision with: 1 2 1 0 0  and 1 1 3 0 0 
 # max = 2413
1347921		 # 	collision with: 6 0 1 0 0  and 6 0 3 0 0 
 # max = 2413
1347923		 # 	collision with: 4 1 1 0 0  and 6 3 1 0 0 
 # max = 2413
1347959		 # 	collision with: 3 3 2 0 0  and 0 4 2 0 0 
 # max = 2413
1347969		 # 	collision with: 3 0 1 0 0  and 3 0 3 0 0 
 # max = 2413
1347971		 # 	collision with: 2 2 1 0 0  and 1 4 1 0 0 
 # max = 2413
1348043		 # 	collision with: 6 0 1 0 0  and 4 2 1 0 0 
 # max = 2413
1348053		 # 	collision with: 2 2 1 0 0  and 5 4 1 0 0 
 # max = 2413
1348055		 # 	collision with: 1 0 1 0 0  and 1 0 3 0 0 
 # max = 2413
1348061		 # 	collision with: 1 0 1 0 0  and 1 0 3 0 0 
 # max = 2413
1348063		 # 	collision with: 2 0 1 0 0  and 2 0 3 0 0 
 # max = 2413
1348088		 # 	collision with: 2 6 2 0 0  and 3 0 0 1 0 
 # max = 2413
1348090		 # 	collision with: 2 3 2 0 0  and 5 2 0 1 0 
 # max = 2413
1348093		 # 	collision with: 6 6 1 0 0  and 1 4 2 0 0 
 # max = 2413
1348095		 # 	collision with: 2 1 0 0 0  and 2 2 0 0 0 
 # max = 2413
1348113		 # 	collision with: 3 1 1 0 0  and 3 6 2 0 0 
 # max = 2413
1348115		 # 	collision with: 5 1 0 0 0  and 5 2 0 0 0 
 # max = 2413
1348117		 # 	collision with: 4 1 1 0 0  and 3 2 1 0 0 
 # max = 2413
1348119		 # 	collision with: 4 1 1 0 0  and 6 0 2 0 0 
 # max = 2413
1348153		 # 	collision with: 4 1 1 0 0  and 4 1 2 0 0 
 # max = 2413
1348155		 # 	collision with: 1 1 0 0 0  and 1 2 0 0 0 
 # max = 2413
1348167		 # 	collision with: 6 1 0 0 0  and 6 2 0 0 0 
 # max = 2413
1348237		 # 	collision with: 6 0 1 0 0  and 1 1 1 0 0 
 # max = 2413
1348239		 # 	collision with: 1 1 0 0 0  and 1 2 0 0 0 
 # max = 2413
1348251		 # 	collision with: 6 1 0 0 0  and 6 2 0 0 0 
 # max = 2413
1348257		 # 	collision with: 1 1 1 0 0  and 6 0 2 0 0 
 # max = 2413
1348259		 # 	collision with: 4 2 1 0 0  and 6 0 2 0 0 
 # max = 2413
1348284		 # 	collision with: 6 6 3 0 0  and 3 3 0 1 0 
 # max = 2413
1348286		 # 	collision with: 5 4 5 2 0  and 6 1 0 0 1 
 # max = 2414
1348309		 # 	collision with: 3 6 0 0 0  and 3 1 2 0 0 
 # max = 2414
1348311		 # 	collision with: 5 1 1 0 0  and 5 2 1 0 0 
 # max = 2414
1348313		 # 	collision with: 4 1 0 0 0  and 3 2 2 0 0 
 # max = 2414
1348315		 # 	collision with: 3 1 0 0 0  and 3 2 2 0 0 
 # max = 2414
1348349		 # 	collision with: 4 3 1 0 0  and 4 4 1 0 0 
 # max = 2414
1348351		 # 	collision with: 3 3 1 0 0  and 0 4 1 0 0 
 # max = 2414
1348361		 # 	collision with: 3 5 0 0 0  and 4 1 2 0 0 
 # max = 2414
1348363		 # 	collision with: 1 5 0 0 0  and 1 5 2 0 0 
 # max = 2414
1348433		 # 	collision with: 4 3 1 0 0  and 4 4 1 0 0 
 # max = 2414
1348435		 # 	collision with: 4 1 0 0 0  and 6 0 2 0 0 
 # max = 2414
1348445		 # 	collision with: 2 2 2 0 0  and 5 4 2 0 0 
 # max = 2414
1348447		 # 	collision with: 4 5 0 0 0  and 6 1 2 0 0 
 # max = 2414
1348453		 # 	collision with: 2 2 0 0 0  and 5 4 2 0 0 
 # max = 2414
1348480		 # 	collision with: 2 2 1 5 0  and 1 0 0 0 1 
 # max = 2414
1348482		 # 	collision with: 0 5 0 0 0  and 6 2 1 1 0 
 # max = 2414
1348485		 # 	collision with: 6 0 0 0 0  and 1 1 0 0 0 
 # max = 2414
1348487		 # 	collision with: 5 2 0 0 0  and 5 1 1 0 0 
 # max = 2414
1348505		 # 	collision with: 6 0 0 0 0  and 1 1 1 0 0 
 # max = 2414
1348507		 # 	collision with: 6 0 0 0 0  and 4 1 0 0 0 
 # max = 2414
1348509		 # 	collision with: 6 3 0 0 0  and 6 4 1 0 0 
 # max = 2414
1348511		 # 	collision with: 3 0 0 0 0  and 3 3 1 0 0 
 # max = 2414
1348545		 # 	collision with: 6 3 0 0 0  and 6 3 1 0 0 
 # max = 2414
1348547		 # 	collision with: 5 1 0 0 0  and 5 2 1 0 0 
 # max = 2414
1348557		 # 	collision with: 2 5 0 0 0  and 2 2 1 0 0 
 # max = 2414
1348559		 # 	collision with: 6 3 0 0 0  and 4 1 1 0 0 
 # max = 2414
1348629		 # 	collision with: 1 3 0 0 0  and 1 3 1 0 0 
 # max = 2414
1348641		 # 	collision with: 1 3 0 0 0  and 6 1 1 0 0 
 # max = 2414
1348643		 # 	collision with: 4 5 0 0 0  and 6 1 1 0 0 
 # max = 2414
1348649		 # 	collision with: 1 3 0 0 0  and 1 4 1 0 0 
 # max = 2414
1348651		 # 	collision with: 4 0 0 0 0  and 4 3 1 0 0 
 # max = 2414
1348707		 # 	collision with: 2 3 3 0 0  and 1 4 3 0 0 
 # max = 2414
1348716		 # 	collision with: 4 1 0 0 0  and 3 2 0 0 0 
 # max = 2414
1348718		 # 	collision with: 2 1 0 0 0  and 2 2 0 0 0 
 # max = 2414
1348720		 # 	collision with: 3 0 0 0 0  and 4 2 0 0 0 
 # max = 2414
1348722		 # 	collision with: 5 1 0 0 0  and 5 2 0 0 0 
 # max = 2414
1348736		 # 	collision with: 1 3 0 0 0  and 1 4 0 0 0 
 # max = 2414
1348738		 # 	collision with: 6 1 0 0 0  and 6 2 0 0 0 
 # max = 2414
1348756		 # 	collision with: 6 3 0 0 0  and 6 4 0 0 0 
 # max = 2414
1348758		 # 	collision with: 1 1 0 0 0  and 1 2 0 0 0 
 # max = 2414
1348768		 # 	collision with: 4 3 0 0 0  and 4 4 0 0 0 
 # max = 2414
1348770		 # 	collision with: 3 1 0 0 0  and 3 2 0 0 0 
 # max = 2414
1348773		 # 	collision with: 5 3 0 0 0  and 5 4 0 0 0 
 # max = 2414
1348775		 # 	collision with: 0 2 3 0 0  and 3 3 3 0 0 
 # max = 2414
1348777		 # 	collision with: 2 3 0 0 0  and 2 4 0 0 0 
 # max = 2414
1348779		 # 	collision with: 5 1 1 0 0  and 5 2 1 0 0 
 # max = 2414
1348780		 # 	collision with: 6 0 0 0 0  and 1 1 0 0 0 
 # max = 2414
1348782		 # 	collision with: 4 1 0 0 0  and 4 2 0 0 0 
 # max = 2414
1348796		 # 	collision with: 4 3 0 0 0  and 4 4 0 0 0 
 # max = 2414
1348798		 # 	collision with: 3 1 0 0 0  and 3 2 0 0 0 
 # max = 2414
1348801		 # 	collision with: 5 3 0 0 0  and 5 4 0 0 0 
 # max = 2414
1348803		 # 	collision with: 0 1 1 0 0  and 3 3 1 0 0 
 # max = 2414
1348805		 # 	collision with: 2 3 0 0 0  and 2 4 0 0 0 
 # max = 2414
1348807		 # 	collision with: 5 1 1 0 0  and 5 2 1 0 0 
 # max = 2414
1348808		 # 	collision with: 6 0 0 0 0  and 1 1 0 0 0 
 # max = 2414
1348810		 # 	collision with: 4 1 0 0 0  and 4 2 0 0 0 
 # max = 2414
1348820		 # 	collision with: 1 3 0 0 0  and 1 4 0 0 0 
 # max = 2414
1348822		 # 	collision with: 6 1 0 0 0  and 6 2 0 0 0 
 # max = 2414
1348840		 # 	collision with: 6 3 0 0 0  and 6 4 0 0 0 
 # max = 2414
1348842		 # 	collision with: 1 1 0 0 0  and 1 2 0 0 0 
 # max = 2414
1348847		 # 	collision with: 2 3 4 0 0  and 1 4 4 0 0 
 # max = 2414
1348856		 # 	collision with: 4 1 0 0 0  and 3 2 0 0 0 
 # max = 2414
1348858		 # 	collision with: 2 1 0 0 0  and 2 2 0 0 0 
 # max = 2414
1348860		 # 	collision with: 3 0 0 0 0  and 4 2 0 0 0 
 # max = 2414
1348862		 # 	collision with: 5 1 0 0 0  and 5 2 0 0 0 
 # max = 2414
1348872		 # 	collision with: 5 3 2 0 0  and 0 4 0 1 0 
 # max = 2414
1348874		 # 	collision with: 4 4 3 0 0  and 0 2 1 1 0 
 # max = 2414
1348901		 # 	collision with: 2 2 4 0 0  and 5 4 4 0 0 
 # max = 2414
1348903		 # 	collision with: 4 2 0 0 0  and 6 4 0 0 0 
 # max = 2414
1348912		 # 	collision with: 2 2 2 0 0  and 5 3 2 0 0 
 # max = 2414
1348914		 # 	collision with: 3 0 2 0 0  and 0 1 2 0 0 
 # max = 2414
1348916		 # 	collision with: 2 3 5 0 0  and 2 4 5 0 0 
 # max = 2414
1348918		 # 	collision with: 5 1 5 0 0  and 5 2 5 0 0 
 # max = 2414
1348934		 # 	collision with: 6 1 6 0 0  and 6 2 6 0 0 
 # max = 2414
1348952		 # 	collision with: 6 0 1 0 0  and 1 1 1 0 0 
 # max = 2414
1348954		 # 	collision with: 3 0 1 0 0  and 0 1 1 0 0 
 # max = 2414
1348964		 # 	collision with: 4 3 3 0 0  and 4 4 3 0 0 
 # max = 2414
1348969		 # 	collision with: 5 3 2 0 0  and 5 4 2 0 0 
 # max = 2414
1348971		 # 	collision with: 2 1 1 0 0  and 2 2 1 0 0 
 # max = 2414
1348973		 # 	collision with: 3 1 2 0 0  and 3 1 4 0 0 
 # max = 2414
1348975		 # 	collision with: 5 1 2 0 0  and 5 1 4 0 0 
 # max = 2414
1348976		 # 	collision with: 3 0 4 0 0  and 4 2 4 0 0 
 # max = 2414
1348978		 # 	collision with: 4 1 4 0 0  and 4 2 4 0 0 
 # max = 2414
1348992		 # 	collision with: 6 1 3 0 0  and 1 3 3 0 0 
 # max = 2414
1348994		 # 	collision with: 3 1 3 0 0  and 3 2 3 0 0 
 # max = 2414
1348997		 # 	collision with: 5 3 2 0 0  and 5 4 2 0 0 
 # max = 2414
1348999		 # 	collision with: 2 1 1 0 0  and 2 2 1 0 0 
 # max = 2414
1349001		 # 	collision with: 4 1 2 0 0  and 4 1 4 0 0 
 # max = 2414
1349003		 # 	collision with: 3 0 1 0 0  and 0 2 1 0 0 
 # max = 2414
1349004		 # 	collision with: 3 3 4 0 0  and 3 4 4 0 0 
 # max = 2414
1349006		 # 	collision with: 3 0 4 0 0  and 0 1 4 0 0 
 # max = 2414
1349018		 # 	collision with: 3 0 6 0 0  and 0 1 6 0 0 
 # max = 2414
1349036		 # 	collision with: 4 1 1 0 0  and 3 2 1 0 0 
 # max = 2414
1349038		 # 	collision with: 1 1 1 0 0  and 1 2 1 0 0 
 # max = 2414
1349041		 # 	collision with: 2 2 3 0 0  and 5 4 3 0 0 
 # max = 2414
1349043		 # 	collision with: 4 2 0 0 0  and 6 4 0 0 0 
 # max = 2414
1349052		 # 	collision with: 5 3 2 0 0  and 5 4 2 0 0 
 # max = 2414
1349056		 # 	collision with: 2 3 5 0 0  and 2 4 5 0 0 
 # max = 2414
1349058		 # 	collision with: 3 0 5 0 0  and 0 1 5 0 0 
 # max = 2414
1349068		 # 	collision with: 2 2 1 5 0  and 1 0 0 0 1 
 # max = 2414
1349070		 # 	collision with: 1 1 1 0 0  and 6 4 0 1 0 
 # max = 2414
1349097		 # 	collision with: 4 0 2 0 0  and 4 0 3 0 0 
 # max = 2414
1349108		 # 	collision with: 5 3 4 0 0  and 5 4 4 0 0 
 # max = 2414
1349110		 # 	collision with: 2 1 4 0 0  and 2 2 4 0 0 
 # max = 2414
1349112		 # 	collision with: 2 3 3 0 0  and 2 4 3 0 0 
 # max = 2414
1349114		 # 	collision with: 5 1 3 0 0  and 5 2 3 0 0 
 # max = 2414
1349128		 # 	collision with: 1 3 5 0 0  and 1 4 5 0 0 
 # max = 2414
1349130		 # 	collision with: 6 1 5 0 0  and 6 2 5 0 0 
 # max = 2414
1349148		 # 	collision with: 4 1 2 0 0  and 3 2 2 0 0 
 # max = 2414
1349150		 # 	collision with: 1 1 2 0 0  and 1 2 2 0 0 
 # max = 2414
1349162		 # 	collision with: 3 1 6 0 0  and 3 2 6 0 0 
 # max = 2414
1349165		 # 	collision with: 6 0 2 0 0  and 6 0 3 0 0 
 # max = 2414
1349169		 # 	collision with: 6 0 2 0 0  and 6 0 3 0 0 
 # max = 2414
1349171		 # 	collision with: 0 1 2 0 0  and 3 3 2 0 0 
 # max = 2414
1349172		 # 	collision with: 2 2 1 0 0  and 5 3 1 0 0 
 # max = 2414
1349174		 # 	collision with: 4 1 1 0 0  and 4 2 1 0 0 
 # max = 2414
1349190		 # 	collision with: 3 1 6 0 0  and 3 2 6 0 0 
 # max = 2414
1349193		 # 	collision with: 2 2 2 0 0  and 5 4 2 0 0 
 # max = 2414
1349195		 # 	collision with: 0 2 0 0 0  and 3 3 0 0 0 
 # max = 2414
1349197		 # 	collision with: 1 0 2 0 0  and 1 0 3 0 0 
 # max = 2414
1349199		 # 	collision with: 1 4 2 0 0  and 2 0 3 0 0 
 # max = 2414
1349200		 # 	collision with: 3 0 1 0 0  and 4 2 1 0 0 
 # max = 2414
1349202		 # 	collision with: 4 1 1 0 0  and 4 2 1 0 0 
 # max = 2414
1349212		 # 	collision with: 1 3 5 0 0  and 1 4 5 0 0 
 # max = 2414
1349214		 # 	collision with: 6 1 5 0 0  and 6 2 5 0 0 
 # max = 2414
1349232		 # 	collision with: 3 0 2 0 0  and 4 2 2 0 0 
 # max = 2414
1349237		 # 	collision with: 2 2 2 0 0  and 5 3 2 0 0 
 # max = 2414
1349239		 # 	collision with: 2 5 2 0 0  and 1 0 3 0 0 
 # max = 2414
1349248		 # 	collision with: 5 3 4 0 0  and 5 4 4 0 0 
 # max = 2414
1349250		 # 	collision with: 2 1 4 0 0  and 2 2 4 0 0 
 # max = 2414
1349252		 # 	collision with: 2 3 3 0 0  and 2 4 3 0 0 
 # max = 2414
1349264		 # 	collision with: 0 3 3 0 0  and 4 1 0 1 0 
 # max = 2414
1349266		 # 	collision with: 5 6 4 0 0  and 1 5 1 1 0 
 # max = 2414
1349293		 # 	collision with: 6 1 0 0 0  and 1 3 0 0 0 
 # max = 2414
1349295		 # 	collision with: 1 1 1 0 0  and 1 2 3 0 0 
 # max = 2414
39.5547secs	2414 20616
