# prime 7
# degree 2
# input variables 3
# output variables 4
# reload computed balance functions from file balance-226of320-p7d2m3-debug.log
# p = 7
# n = 4
# smalldomain p^m 343
# domain p^n 2401
#	 p^2 = 49
#	 p^3 = 343
#	 p^4 = 2401
#	 p^5 = 16807
#	 p^6 = 117649
#	 p^7 = 823543
#	 p^8 = 5764801
#	 p^9 = 40353607
opening file : balance-226of320-p7d2m3-debug.log
reloading for step2...
2327801		 # 	collision with: 3 2 0 0  and 4 2 0 0 
 # max = 18
2327803		 # 	collision with: 2 0 0 0  and 3 6 1 0 
 # max = 94
2327817		 # 	collision with: 1 2 2 0  and 1 4 2 0 
 # max = 127
2327865		 # 	collision with: 6 1 2 0  and 5 2 2 0 
 # max = 127
2327867		 # 	collision with: 5 4 0 0  and 2 5 1 0 
 # max = 127
2327889		 # 	collision with: 6 3 0 0  and 6 3 2 0 
 # max = 127
2327891		 # 	collision with: 0 4 0 0  and 5 2 1 0 
 # max = 127
2327892		 # 	collision with: 0 2 0 0  and 2 6 1 0 
 # max = 127
2327894		 # 	collision with: 4 1 0 0  and 0 5 1 0 
 # max = 127
2327901		 # 	collision with: 0 4 0 0  and 3 0 1 0 
 # max = 127
2327903		 # 	collision with: 5 1 0 0  and 0 5 2 0 
 # max = 133
2327913		 # 	collision with: 5 0 0 0  and 5 2 0 0 
 # max = 133
2327921		 # 	collision with: 5 0 1 0  and 5 2 1 0 
 # max = 133
2327923		 # 	collision with: 3 0 1 0  and 3 2 1 0 
 # max = 133
2327997		 # 	collision with: 5 0 0 0  and 5 2 0 0 
 # max = 133
2327999		 # 	collision with: 5 1 0 0  and 1 5 1 0 
 # max = 133
2328013		 # 	collision with: 0 4 0 0  and 1 0 1 0 
 # max = 133
2328015		 # 	collision with: 5 6 1 0  and 5 1 2 0 
 # max = 133
2328063		 # 	collision with: 0 0 0 0  and 4 1 1 0 
 # max = 133
2328085		 # 	collision with: 5 1 1 0  and 4 2 1 0 
 # max = 133
2328087		 # 	collision with: 3 0 0 0  and 3 2 0 0 
 # max = 133
2328088		 # 	collision with: 4 2 1 0  and 2 0 2 0 
 # max = 133
2328090		 # 	collision with: 4 1 0 0  and 0 0 2 0 
 # max = 133
2328099		 # 	collision with: 3 3 0 0  and 2 3 1 0 
 # max = 133
2328109		 # 	collision with: 1 5 0 0  and 1 1 1 0 
 # max = 133
2328111		 # 	collision with: 4 0 0 0  and 4 1 0 0 
 # max = 133
2328117		 # 	collision with: 5 5 0 0  and 0 0 2 0 
 # max = 133
2328119		 # 	collision with: 0 0 0 0  and 5 1 0 0 
 # max = 133
2328121		 # 	collision with: 6 0 0 0  and 6 1 0 0 
 # max = 133
2328123		 # 	collision with: 2 3 0 0  and 3 3 0 0 
 # max = 133
2328193		 # 	collision with: 0 5 0 0  and 1 1 1 0 
 # max = 133
2328195		 # 	collision with: 4 0 0 0  and 4 1 0 0 
 # max = 133
2328209		 # 	collision with: 2 6 1 0  and 4 6 1 0 
 # max = 133
2328211		 # 	collision with: 1 0 1 0  and 3 0 1 0 
 # max = 133
2328257		 # 	collision with: 0 1 1 0  and 2 1 1 0 
 # max = 133
2328259		 # 	collision with: 0 0 0 0  and 5 1 0 0 
 # max = 133
2328281		 # 	collision with: 2 0 0 0  and 5 1 0 0 
 # max = 133
2328283		 # 	collision with: 5 6 0 0  and 0 5 1 0 
 # max = 133
2328289		 # 	collision with: 4 1 0 0  and 0 4 1 0 
 # max = 133
2328291		 # 	collision with: 2 0 0 0  and 6 3 1 0 
 # max = 133
2328309		 # 	collision with: 6 0 1 0  and 6 1 1 0 
 # max = 133
2328311		 # 	collision with: 1 4 0 0  and 2 1 1 0 
 # max = 133
2328321		 # 	collision with: 3 1 0 0  and 5 6 1 0 
 # max = 133
2328337		 # 	collision with: 6 0 1 0  and 6 1 1 0 
 # max = 133
2328339		 # 	collision with: 5 2 0 0  and 2 2 1 0 
 # max = 133
2328391		 # 	collision with: 2 1 1 0  and 4 1 1 0 
 # max = 133
2328407		 # 	collision with: 6 3 0 0  and 3 0 1 0 
 # max = 133
2328457		 # 	collision with: 4 1 0 0  and 0 4 1 0 
 # max = 133
2328459		 # 	collision with: 1 3 0 0  and 6 0 1 0 
 # max = 133
2328473		 # 	collision with: 1 1 0 0  and 1 1 1 0 
 # max = 133
2328480		 # 	collision with: 2 4 0 0  and 3 2 1 0 
 # max = 133
2328482		 # 	collision with: 4 2 0 0  and 2 0 1 0 
 # max = 133
2328485		 # 	collision with: 6 2 0 0  and 1 4 0 0 
 # max = 133
2328487		 # 	collision with: 1 1 0 0  and 6 0 1 0 
 # max = 133
2328505		 # 	collision with: 1 1 0 0  and 2 0 1 0 
 # max = 133
2328507		 # 	collision with: 2 3 0 0  and 4 6 2 0 
 # max = 144
2328517		 # 	collision with: 0 5 0 0  and 1 0 1 0 
 # max = 144
2328519		 # 	collision with: 2 3 0 0  and 4 2 1 0 
 # max = 144
2328533		 # 	collision with: 0 5 0 0  and 1 0 1 0 
 # max = 144
2328535		 # 	collision with: 1 5 1 0  and 2 5 1 0 
 # max = 144
2328585		 # 	collision with: 2 3 1 0  and 5 2 2 0 
 # max = 144
2328587		 # 	collision with: 4 1 0 0  and 4 1 1 0 
 # max = 144
2328601		 # 	collision with: 5 3 0 0  and 6 2 1 0 
 # max = 144
2328603		 # 	collision with: 1 6 1 0  and 3 6 1 0 
 # max = 144
2328653		 # 	collision with: 6 2 0 0  and 1 4 0 0 
 # max = 144
2328655		 # 	collision with: 2 6 0 0  and 6 1 2 0 
 # max = 144
2328669		 # 	collision with: 5 1 0 0  and 2 0 1 0 
 # max = 144
2328671		 # 	collision with: 2 1 0 0  and 2 1 1 0 
 # max = 144
2328676		 # 	collision with: 6 4 1 0  and 2 0 2 0 
 # max = 144
2328678		 # 	collision with: 4 5 1 0  and 6 1 2 0 
 # max = 144
2328681		 # 	collision with: 1 6 0 0  and 4 3 1 0 
 # max = 144
2328683		 # 	collision with: 2 0 0 0  and 3 0 0 0 
 # max = 144
2328703		 # 	collision with: 2 0 0 0  and 3 0 0 0 
 # max = 144
2328713		 # 	collision with: 5 2 0 0  and 2 3 0 0 
 # max = 144
2328715		 # 	collision with: 2 0 0 0  and 3 0 0 0 
 # max = 144
2328729		 # 	collision with: 3 2 0 0  and 4 2 0 0 
 # max = 144
2328781		 # 	collision with: 6 6 0 0  and 6 2 1 0 
 # max = 144
2328783		 # 	collision with: 2 0 0 0  and 3 0 0 0 
 # max = 144
2328797		 # 	collision with: 5 2 0 0  and 2 3 0 0 
 # max = 144
2328799		 # 	collision with: 2 0 0 0  and 3 0 0 0 
 # max = 144
2328849		 # 	collision with: 0 4 1 0  and 2 4 1 0 
 # max = 144
2328851		 # 	collision with: 2 0 0 0  and 3 0 0 0 
 # max = 144
2328865		 # 	collision with: 0 3 1 0  and 2 4 1 0 
 # max = 144
2328867		 # 	collision with: 2 0 0 0  and 3 0 0 0 
 # max = 144
2328872		 # 	collision with: 1 4 0 0  and 3 1 1 0 
 # max = 144
2328874		 # 	collision with: 5 5 0 0  and 2 2 1 0 
 # max = 144
2328877		 # 	collision with: 3 1 0 0  and 3 3 0 0 
 # max = 144
2328879		 # 	collision with: 2 1 1 0  and 2 2 1 0 
 # max = 144
2328897		 # 	collision with: 4 1 1 0  and 2 1 2 0 
 # max = 144
2328909		 # 	collision with: 3 2 0 0  and 4 2 0 0 
 # max = 144
2328911		 # 	collision with: 5 1 0 0  and 0 3 0 0 
 # max = 144
2328927		 # 	collision with: 6 6 0 0  and 1 1 1 0 
 # max = 144
2328977		 # 	collision with: 5 6 1 0  and 5 3 2 0 
 # max = 144
2328993		 # 	collision with: 3 2 0 0  and 4 2 0 0 
 # max = 144
2328995		 # 	collision with: 5 1 0 0  and 0 3 0 0 
 # max = 144
2329045		 # 	collision with: 3 1 0 0  and 3 3 0 0 
 # max = 144
2329047		 # 	collision with: 2 1 1 0  and 2 2 1 0 
 # max = 144
2329063		 # 	collision with: 6 2 1 0  and 3 4 2 0 
 # max = 144
2329068		 # 	collision with: 1 6 0 0  and 0 2 1 0 
 # max = 144
2329070		 # 	collision with: 5 1 1 0  and 6 6 2 0 
 # max = 146
2329073		 # 	collision with: 5 0 1 0  and 5 2 1 0 
 # max = 146
2329093		 # 	collision with: 5 5 0 0  and 6 0 2 0 
 # max = 146
2329095		 # 	collision with: 4 1 0 0  and 5 2 1 0 
 # max = 146
2329107		 # 	collision with: 4 0 1 0  and 4 1 1 0 
 # max = 146
2329121		 # 	collision with: 2 2 0 0  and 2 2 1 0 
 # max = 146
2329123		 # 	collision with: 2 1 0 0  and 2 2 1 0 
 # max = 146
2329173		 # 	collision with: 4 1 0 0  and 3 2 0 0 
 # max = 146
2329175		 # 	collision with: 1 2 0 0  and 6 4 1 0 
 # max = 146
2329189		 # 	collision with: 2 0 1 0  and 6 4 2 0 
 # max = 146
2329243		 # 	collision with: 5 1 0 0  and 0 2 0 0 
 # max = 146
2329257		 # 	collision with: 4 1 0 0  and 3 2 0 0 
 # max = 146
2329259		 # 	collision with: 6 2 1 0  and 5 0 2 0 
 # max = 146
2329264		 # 	collision with: 5 2 0 0  and 6 3 1 0 
 # max = 146
2329266		 # 	collision with: 6 0 0 0  and 1 1 1 0 
 # max = 146
2329271		 # 	collision with: 6 4 0 0  and 3 5 1 0 
 # max = 146
2329289		 # 	collision with: 5 0 0 0  and 5 2 0 0 
 # max = 146
2329291		 # 	collision with: 2 0 0 0  and 3 2 0 0 
 # max = 146
2329301		 # 	collision with: 6 1 1 0  and 6 0 2 0 
 # max = 146
2329303		 # 	collision with: 0 3 2 0  and 1 3 2 0 
 # max = 146
2329317		 # 	collision with: 5 0 0 0  and 5 2 0 0 
 # max = 146
2329319		 # 	collision with: 2 0 0 0  and 3 2 0 0 
 # max = 146
2329369		 # 	collision with: 6 3 0 0  and 5 0 2 0 
 # max = 146
2329371		 # 	collision with: 5 2 0 0  and 5 5 1 0 
 # max = 146
2329385		 # 	collision with: 2 1 0 0  and 4 2 1 0 
 # max = 146
2329387		 # 	collision with: 0 2 1 0  and 1 1 2 0 
 # max = 146
2329437		 # 	collision with: 3 2 0 0  and 4 2 0 0 
 # max = 146
2329453		 # 	collision with: 3 4 1 0  and 1 5 3 0 
 # max = 183
2329455		 # 	collision with: 3 2 1 0  and 4 2 1 0 
 # max = 183
2329460		 # 	collision with: 0 5 0 0  and 4 0 1 0 
 # max = 183
2329462		 # 	collision with: 2 0 0 0  and 4 2 1 0 
 # max = 183
2329465		 # 	collision with: 1 1 1 0  and 2 0 2 0 
 # max = 183
2329467		 # 	collision with: 6 6 0 0  and 6 0 1 0 
 # max = 183
2329485		 # 	collision with: 5 2 0 0  and 2 2 1 0 
 # max = 183
2329487		 # 	collision with: 4 6 0 0  and 4 2 1 0 
 # max = 183
2329497		 # 	collision with: 6 0 0 0  and 6 1 0 0 
 # max = 183
2329499		 # 	collision with: 1 1 2 0  and 1 3 2 0 
 # max = 183
2329513		 # 	collision with: 1 4 0 0  and 3 3 1 0 
 # max = 183
2329515		 # 	collision with: 2 1 2 0  and 2 2 2 0 
 # max = 183
2329565		 # 	collision with: 4 6 0 0  and 6 0 1 0 
 # max = 183
2329567		 # 	collision with: 5 6 0 0  and 0 3 1 0 
 # max = 183
2329581		 # 	collision with: 6 0 0 0  and 6 1 0 0 
 # max = 183
2329583		 # 	collision with: 4 6 0 0  and 2 0 1 0 
 # max = 183
2329633		 # 	collision with: 5 1 1 0  and 3 0 2 0 
 # max = 183
2329635		 # 	collision with: 3 2 1 0  and 4 2 1 0 
 # max = 183
2329649		 # 	collision with: 0 0 0 0  and 2 2 1 0 
 # max = 183
2329651		 # 	collision with: 2 2 0 0  and 1 0 1 0 
 # max = 183
2329696		 # 	collision with: 6 0 0 0  and 6 1 0 0 
 # max = 183
2329698		 # 	collision with: 5 0 0 0  and 0 2 0 0 
 # max = 183
2329704		 # 	collision with: 2 0 0 0  and 5 1 0 0 
 # max = 183
2329706		 # 	collision with: 5 0 0 0  and 0 2 0 0 
 # max = 183
2329724		 # 	collision with: 6 0 0 0  and 6 1 0 0 
 # max = 183
2329726		 # 	collision with: 5 0 0 0  and 0 2 0 0 
 # max = 183
2329729		 # 	collision with: 3 1 0 0  and 3 1 1 0 
 # max = 183
2329731		 # 	collision with: 2 4 0 0  and 3 4 0 0 
 # max = 183
2329733		 # 	collision with: 4 3 0 0  and 0 1 1 0 
 # max = 183
2329735		 # 	collision with: 2 0 0 0  and 0 0 2 0 
 # max = 183
2329736		 # 	collision with: 4 1 0 0  and 4 2 0 0 
 # max = 183
2329738		 # 	collision with: 5 0 0 0  and 0 2 0 0 
 # max = 183
2329744		 # 	collision with: 2 2 0 0  and 2 3 0 0 
 # max = 183
2329746		 # 	collision with: 4 0 0 0  and 4 1 0 0 
 # max = 183
2329748		 # 	collision with: 3 1 0 0  and 3 3 0 0 
 # max = 183
2329750		 # 	collision with: 5 0 0 0  and 0 2 0 0 
 # max = 183
2329763		 # 	collision with: 2 0 0 0  and 0 0 2 0 
 # max = 183
2329779		 # 	collision with: 5 3 0 0  and 0 4 0 0 
 # max = 183
2329788		 # 	collision with: 2 0 0 0  and 5 1 0 0 
 # max = 183
2329790		 # 	collision with: 5 0 0 0  and 0 2 0 0 
 # max = 183
2329792		 # 	collision with: 4 1 0 0  and 4 2 0 0 
 # max = 183
2329794		 # 	collision with: 5 0 0 0  and 0 2 0 0 
 # max = 183
2329800		 # 	collision with: 2 2 0 0  and 2 3 0 0 
 # max = 183
2329802		 # 	collision with: 4 0 0 0  and 4 1 0 0 
 # max = 183
2329805		 # 	collision with: 5 6 2 0  and 1 3 3 0 
 # max = 183
2329807		 # 	collision with: 5 3 0 0  and 0 4 0 0 
 # max = 183
2329809		 # 	collision with: 3 1 1 0  and 3 3 1 0 
 # max = 183
2329811		 # 	collision with: 5 3 0 0  and 5 4 0 0 
 # max = 183
2329812		 # 	collision with: 6 2 0 0  and 1 4 0 0 
 # max = 183
2329814		 # 	collision with: 5 0 0 0  and 0 2 0 0 
 # max = 183
2329832		 # 	collision with: 3 1 0 0  and 3 3 0 0 
 # max = 183
2329834		 # 	collision with: 5 0 0 0  and 0 2 0 0 
 # max = 183
2329840		 # 	collision with: 6 2 0 0  and 1 4 0 0 
 # max = 183
2329842		 # 	collision with: 5 0 0 0  and 0 2 0 0 
 # max = 183
2329852		 # 	collision with: 2 0 0 0  and 0 0 2 0 
 # max = 183
2329854		 # 	collision with: 4 2 1 0  and 6 0 3 0 
 # max = 183
2329892		 # 	collision with: 3 2 0 0  and 4 2 0 0 
 # max = 183
2329894		 # 	collision with: 6 4 0 0  and 6 2 1 0 
 # max = 183
2329902		 # 	collision with: 2 4 0 0  and 3 4 0 0 
 # max = 183
2329920		 # 	collision with: 3 2 0 0  and 4 2 0 0 
 # max = 183
2329922		 # 	collision with: 2 2 0 0  and 5 5 1 0 
 # max = 183
2329925		 # 	collision with: 1 2 0 0  and 4 6 1 0 
 # max = 183
2329927		 # 	collision with: 6 1 0 0  and 6 1 1 0 
 # max = 183
2329929		 # 	collision with: 1 2 0 0  and 1 4 0 0 
 # max = 183
2329932		 # 	collision with: 4 3 0 0  and 0 1 1 0 
 # max = 183
2329934		 # 	collision with: 6 2 1 0  and 6 4 1 0 
 # max = 183
2329940		 # 	collision with: 2 0 0 0  and 0 0 2 0 
 # max = 183
2329942		 # 	collision with: 2 3 0 0  and 2 0 1 0 
 # max = 183
2329944		 # 	collision with: 5 4 0 0  and 6 5 1 0 
 # max = 183
2329946		 # 	collision with: 3 1 2 0  and 1 2 3 0 
 # max = 183
2329957		 # 	collision with: 1 2 0 0  and 1 4 0 0 
 # max = 183
2329959		 # 	collision with: 1 3 0 0  and 4 2 1 0 
 # max = 183
2329973		 # 	collision with: 1 6 0 0  and 1 0 2 0 
 # max = 183
2329975		 # 	collision with: 2 4 0 0  and 3 4 0 0 
 # max = 183
2329984		 # 	collision with: 3 3 0 0  and 0 0 1 0 
 # max = 183
2329986		 # 	collision with: 2 4 0 0  and 3 4 0 0 
 # max = 183
2329988		 # 	collision with: 2 3 0 0  and 5 0 1 0 
 # max = 183
2329990		 # 	collision with: 4 2 1 0  and 0 4 1 0 
 # max = 183
2329996		 # 	collision with: 4 3 0 0  and 4 0 1 0 
 # max = 183
2330001		 # 	collision with: 0 0 0 0  and 2 0 2 0 
 # max = 183
2330003		 # 	collision with: 2 4 0 0  and 3 4 0 0 
 # max = 183
2330005		 # 	collision with: 3 2 0 0  and 4 2 0 0 
 # max = 183
2330007		 # 	collision with: 2 1 1 0  and 2 2 1 0 
 # max = 183
2330008		 # 	collision with: 4 1 0 0  and 4 1 1 0 
 # max = 183
2330010		 # 	collision with: 6 6 0 0  and 5 3 2 0 
 # max = 183
2330028		 # 	collision with: 0 0 1 0  and 2 0 1 0 
 # max = 183
2330038		 # 	collision with: 1 2 0 0  and 6 4 1 0 
 # max = 183
2330048		 # 	collision with: 6 3 0 0  and 5 5 1 0 
 # max = 183
2330050		 # 	collision with: 0 1 0 0  and 1 3 1 0 
 # max = 183
2330088		 # 	collision with: 5 1 1 0  and 5 1 2 0 
 # max = 183
2330090		 # 	collision with: 2 4 0 0  and 3 4 0 0 
 # max = 183
2330096		 # 	collision with: 3 0 1 0  and 2 1 1 0 
 # max = 183
2330098		 # 	collision with: 2 5 0 0  and 6 0 1 0 
 # max = 183
2330118		 # 	collision with: 2 4 0 0  and 3 4 0 0 
 # max = 183
2330121		 # 	collision with: 5 1 0 0  and 2 0 1 0 
 # max = 183
2330123		 # 	collision with: 2 1 0 0  and 6 1 1 0 
 # max = 183
2330125		 # 	collision with: 5 2 0 0  and 2 3 0 0 
 # max = 183
2330127		 # 	collision with: 5 3 1 0  and 5 4 1 0 
 # max = 183
2330128		 # 	collision with: 3 2 0 0  and 4 2 0 0 
 # max = 183
2330130		 # 	collision with: 1 2 0 0  and 3 1 1 0 
 # max = 183
2330136		 # 	collision with: 2 5 0 0  and 0 0 1 0 
 # max = 183
2330138		 # 	collision with: 1 1 0 0  and 4 2 1 0 
 # max = 183
2330140		 # 	collision with: 0 1 1 0  and 1 1 1 0 
 # max = 183
2330153		 # 	collision with: 5 2 0 0  and 2 3 0 0 
 # max = 183
2330155		 # 	collision with: 5 3 1 0  and 5 4 1 0 
 # max = 183
2330169		 # 	collision with: 6 2 0 0  and 1 2 1 0 
 # max = 183
2330171		 # 	collision with: 1 3 0 0  and 1 1 1 0 
 # max = 183
2330180		 # 	collision with: 4 1 1 0  and 4 2 1 0 
 # max = 183
2330182		 # 	collision with: 2 5 0 0  and 3 0 1 0 
 # max = 183
2330184		 # 	collision with: 3 2 0 0  and 4 2 0 0 
 # max = 183
2330186		 # 	collision with: 2 0 0 0  and 0 0 2 0 
 # max = 183
2330194		 # 	collision with: 0 0 1 0  and 2 0 1 0 
 # max = 183
2330197		 # 	collision with: 5 4 0 0  and 6 3 1 0 
 # max = 183
2330199		 # 	collision with: 4 6 1 0  and 3 0 2 0 
 # max = 183
2330201		 # 	collision with: 2 0 1 0  and 5 1 3 0 
 # max = 183
2330203		 # 	collision with: 0 4 0 0  and 4 2 1 0 
 # max = 183
2330204		 # 	collision with: 1 5 1 0  and 4 0 3 0 
 # max = 183
2330224		 # 	collision with: 4 1 1 0  and 1 0 2 0 
 # max = 183
2330226		 # 	collision with: 2 0 0 0  and 0 0 2 0 
 # max = 183
2330232		 # 	collision with: 2 5 0 0  and 2 0 1 0 
 # max = 183
2330234		 # 	collision with: 2 1 0 0  and 2 1 1 0 
 # max = 183
2330244		 # 	collision with: 0 4 0 0  and 6 3 1 0 
 # max = 183
2330246		 # 	collision with: 6 1 0 0  and 2 1 2 0 
 # max = 183
2330284		 # 	collision with: 4 3 0 0  and 1 1 1 0 
 # max = 183
2330292		 # 	collision with: 3 6 0 0  and 1 1 1 0 
 # max = 183
2330294		 # 	collision with: 4 1 0 0  and 4 0 1 0 
 # max = 183
2330312		 # 	collision with: 1 6 1 0  and 4 2 2 0 
 # max = 183
2330314		 # 	collision with: 2 1 1 0  and 2 1 2 0 
 # max = 183
2330321		 # 	collision with: 6 4 1 0  and 2 2 2 0 
 # max = 183
2330323		 # 	collision with: 2 4 0 0  and 3 4 0 0 
 # max = 183
2330324		 # 	collision with: 2 5 2 0  and 0 0 3 0 
 # max = 183
2330326		 # 	collision with: 2 3 0 0  and 2 3 1 0 
 # max = 183
2330334		 # 	collision with: 2 4 0 0  and 3 4 0 0 
 # max = 183
2330336		 # 	collision with: 3 2 0 0  and 4 2 0 0 
 # max = 183
2330338		 # 	collision with: 2 2 0 0  and 5 2 1 0 
 # max = 183
2330349		 # 	collision with: 2 2 1 0  and 6 4 1 0 
 # max = 183
2330365		 # 	collision with: 3 2 0 0  and 4 2 0 0 
 # max = 183
2330367		 # 	collision with: 1 5 1 0  and 3 5 1 0 
 # max = 183
2330378		 # 	collision with: 6 0 0 0  and 0 4 1 0 
 # max = 183
2330380		 # 	collision with: 2 2 1 0  and 5 0 2 0 
 # max = 183
2330388		 # 	collision with: 3 6 0 0  and 2 2 1 0 
 # max = 183
2330390		 # 	collision with: 2 4 0 0  and 3 4 0 0 
 # max = 183
2330395		 # 	collision with: 6 6 2 0  and 1 1 3 0 
 # max = 183
2330397		 # 	collision with: 6 6 0 0  and 4 6 1 0 
 # max = 183
2330399		 # 	collision with: 2 3 2 0  and 4 3 2 0 
 # max = 183
2330400		 # 	collision with: 2 1 0 0  and 6 0 1 0 
 # max = 183
2330402		 # 	collision with: 6 1 0 0  and 2 2 1 0 
 # max = 183
2330420		 # 	collision with: 3 2 0 0  and 4 2 0 0 
 # max = 183
2330422		 # 	collision with: 0 1 0 0  and 6 0 1 0 
 # max = 183
2330428		 # 	collision with: 0 1 1 0  and 2 2 1 0 
 # max = 183
2330430		 # 	collision with: 0 1 0 0  and 6 0 1 0 
 # max = 183
2330440		 # 	collision with: 4 1 1 0  and 1 0 2 0 
 # max = 183
2330442		 # 	collision with: 3 0 0 0  and 0 1 1 0 
 # max = 183
2330480		 # 	collision with: 2 0 1 0  and 3 1 1 0 
 # max = 183
2330482		 # 	collision with: 2 1 1 0  and 2 2 1 0 
 # max = 183
2330488		 # 	collision with: 3 2 0 0  and 4 2 0 0 
 # max = 183
2330490		 # 	collision with: 3 5 0 0  and 3 5 1 0 
 # max = 183
2330508		 # 	collision with: 1 6 0 0  and 3 2 1 0 
 # max = 183
2330510		 # 	collision with: 2 1 1 0  and 2 2 1 0 
 # max = 183
2330513		 # 	collision with: 4 3 0 0  and 4 0 2 0 
 # max = 183
2330515		 # 	collision with: 1 1 0 0  and 0 1 1 0 
 # max = 183
2330519		 # 	collision with: 2 1 0 0  and 2 2 0 0 
 # max = 183
2330520		 # 	collision with: 1 6 1 0  and 2 6 1 0 
 # max = 183
2330522		 # 	collision with: 2 4 0 0  and 3 4 0 0 
 # max = 183
2330528		 # 	collision with: 2 6 1 0  and 4 2 2 0 
 # max = 183
2330534		 # 	collision with: 2 5 0 0  and 0 4 1 0 
 # max = 183
2330545		 # 	collision with: 3 2 0 0  and 4 2 0 0 
 # max = 183
2330547		 # 	collision with: 2 1 0 0  and 2 2 0 0 
 # max = 183
2330561		 # 	collision with: 4 2 0 0  and 4 2 1 0 
 # max = 183
2330572		 # 	collision with: 3 2 0 0  and 4 2 0 0 
 # max = 183
2330574		 # 	collision with: 6 5 0 0  and 6 5 1 0 
 # max = 183
2330578		 # 	collision with: 2 4 0 0  and 3 4 0 0 
 # max = 183
2330584		 # 	collision with: 1 5 1 0  and 3 5 1 0 
 # max = 183
2330586		 # 	collision with: 2 0 0 0  and 0 5 1 0 
 # max = 183
2330589		 # 	collision with: 6 2 0 0  and 6 2 1 0 
 # max = 183
2330591		 # 	collision with: 4 5 0 0  and 2 0 1 0 
 # max = 183
2330596		 # 	collision with: 1 1 0 0  and 0 1 1 0 
 # max = 183
2330598		 # 	collision with: 2 4 0 0  and 2 6 1 0 
 # max = 183
2330616		 # 	collision with: 2 3 0 0  and 3 5 1 0 
 # max = 183
2330618		 # 	collision with: 3 2 1 0  and 4 2 1 0 
 # max = 183
2330624		 # 	collision with: 3 6 0 0  and 5 0 1 0 
 # max = 183
2330636		 # 	collision with: 0 5 0 0  and 5 3 1 0 
 # max = 183
2330638		 # 	collision with: 4 6 0 0  and 0 4 1 0 
 # max = 183
2330676		 # 	collision with: 4 0 0 0  and 6 4 1 0 
 # max = 183
2330678		 # 	collision with: 4 2 0 0  and 3 0 1 0 
 # max = 183
2330684		 # 	collision with: 2 4 0 0  and 2 1 1 0 
 # max = 183
2330686		 # 	collision with: 4 6 0 0  and 3 2 1 0 
 # max = 183
2330704		 # 	collision with: 5 1 0 0  and 3 3 2 0 
 # max = 183
2330709		 # 	collision with: 4 2 0 0  and 1 0 2 0 
 # max = 183
2330711		 # 	collision with: 5 1 0 0  and 6 4 1 0 
 # max = 183
2330713		 # 	collision with: 3 2 0 0  and 4 1 1 0 
 # max = 183
2330715		 # 	collision with: 0 0 0 0  and 2 3 1 0 
 # max = 183
2330718		 # 	collision with: 5 3 1 0  and 2 5 2 0 
 # max = 183
2330724		 # 	collision with: 3 2 0 0  and 4 2 0 0 
 # max = 183
2330726		 # 	collision with: 2 1 2 0  and 2 2 2 0 
 # max = 183
2330728		 # 	collision with: 6 0 1 0  and 2 1 1 0 
 # max = 183
2330730		 # 	collision with: 1 1 1 0  and 1 3 1 0 
 # max = 183
2330741		 # 	collision with: 0 1 1 0  and 1 1 1 0 
 # max = 183
2330743		 # 	collision with: 0 6 0 0  and 1 4 1 0 
 # max = 183
2330757		 # 	collision with: 5 0 0 0  and 2 2 0 0 
 # max = 183
2330759		 # 	collision with: 2 2 0 0  and 2 2 1 0 
 # max = 183
2330768		 # 	collision with: 0 0 0 0  and 2 0 2 0 
 # max = 183
2330772		 # 	collision with: 4 1 1 0  and 1 0 2 0 
 # max = 183
2330774		 # 	collision with: 0 1 1 0  and 6 0 2 0 
 # max = 183
2330780		 # 	collision with: 3 2 0 0  and 4 2 0 0 
 # max = 183
2330782		 # 	collision with: 2 1 2 0  and 2 2 2 0 
 # max = 183
2330785		 # 	collision with: 5 0 0 0  and 2 2 0 0 
 # max = 183
2330787		 # 	collision with: 3 2 0 0  and 3 2 1 0 
 # max = 183
2330789		 # 	collision with: 4 3 0 0  and 3 6 1 0 
 # max = 183
2330791		 # 	collision with: 4 0 2 0  and 0 3 3 0 
 # max = 183
2330794		 # 	collision with: 2 4 0 0  and 3 4 0 0 
 # max = 183
2330812		 # 	collision with: 4 2 0 0  and 1 0 1 0 
 # max = 183
2330814		 # 	collision with: 5 2 0 0  and 2 1 1 0 
 # max = 183
2330820		 # 	collision with: 5 6 0 0  and 5 3 1 0 
 # max = 183
2330822		 # 	collision with: 2 4 0 0  and 3 4 0 0 
 # max = 183
2330832		 # 	collision with: 0 0 0 0  and 2 0 2 0 
 # max = 183
2330834		 # 	collision with: 6 4 1 0  and 3 1 2 0 
 # max = 183
2330874		 # 	collision with: 2 5 0 0  and 5 3 1 0 
 # max = 183
2330880		 # 	collision with: 1 2 0 0  and 1 4 1 0 
 # max = 183
2330900		 # 	collision with: 4 2 0 0  and 4 1 1 0 
 # max = 183
2330902		 # 	collision with: 0 4 0 0  and 6 0 1 0 
 # max = 183
2330905		 # 	collision with: 3 2 0 0  and 4 2 0 0 
 # max = 183
2330907		 # 	collision with: 0 0 0 0  and 2 0 2 0 
 # max = 183
2330909		 # 	collision with: 4 1 1 0  and 4 2 1 0 
 # max = 183
2330911		 # 	collision with: 0 1 1 0  and 1 1 1 0 
 # max = 183
2330912		 # 	collision with: 6 4 0 0  and 5 0 1 0 
 # max = 183
2330920		 # 	collision with: 2 4 0 0  and 3 0 1 0 
 # max = 183
2330922		 # 	collision with: 3 0 1 0  and 3 2 1 0 
 # max = 183
2330924		 # 	collision with: 3 6 1 0  and 4 3 2 0 
 # max = 183
2330926		 # 	collision with: 2 4 0 0  and 3 4 0 0 
 # max = 183
2330937		 # 	collision with: 4 1 1 0  and 4 2 1 0 
 # max = 183
2330939		 # 	collision with: 0 1 0 0  and 6 6 1 0 
 # max = 183
2330953		 # 	collision with: 2 0 0 0  and 0 0 2 0 
 # max = 183
2330955		 # 	collision with: 6 6 2 0  and 3 0 3 0 
 # max = 183
2330964		 # 	collision with: 2 5 1 0  and 3 1 2 0 
 # max = 183
2330966		 # 	collision with: 1 2 0 0  and 6 4 1 0 
 # max = 183
2330968		 # 	collision with: 2 6 0 0  and 4 1 1 0 
 # max = 183
2330970		 # 	collision with: 1 3 0 0  and 5 3 1 0 
 # max = 183
2330976		 # 	collision with: 1 2 1 0  and 1 4 1 0 
 # max = 183
2330978		 # 	collision with: 5 0 1 0  and 4 1 1 0 
 # max = 183
2330981		 # 	collision with: 2 6 0 0  and 3 2 1 0 
 # max = 183
2330985		 # 	collision with: 6 0 0 0  and 6 1 0 0 
 # max = 183
2330987		 # 	collision with: 1 5 0 0  and 3 4 1 0 
 # max = 183
2330988		 # 	collision with: 3 2 0 0  and 4 2 0 0 
 # max = 183
2330990		 # 	collision with: 2 5 0 0  and 3 2 1 0 
 # max = 183
2331010		 # 	collision with: 2 4 0 0  and 3 4 0 0 
 # max = 183
2331016		 # 	collision with: 3 2 0 0  and 4 2 0 0 
 # max = 183
2331018		 # 	collision with: 5 1 0 0  and 3 1 1 0 
 # max = 183
2331041		 # 	collision with: 2 2 0 0  and 4 4 1 0 
 # max = 183
2331043		 # 	collision with: 5 3 0 0  and 5 4 0 0 
 # max = 183
2331045		 # 	collision with: 6 2 2 0  and 1 4 2 0 
 # max = 183
2331047		 # 	collision with: 2 3 0 0  and 3 4 0 0 
 # max = 183
2331069		 # 	collision with: 6 1 0 0  and 6 1 1 0 
 # max = 183
2331071		 # 	collision with: 5 3 0 0  and 5 4 0 0 
 # max = 183
2331077		 # 	collision with: 4 0 0 0  and 5 3 1 0 
 # max = 183
2331079		 # 	collision with: 0 2 0 0  and 2 0 1 0 
 # max = 183
2331135		 # 	collision with: 3 5 0 0  and 2 0 1 0 
 # max = 183
2331151		 # 	collision with: 2 1 0 0  and 3 1 0 0 
 # max = 183
2331205		 # 	collision with: 0 3 1 0  and 2 3 1 0 
 # max = 183
2331207		 # 	collision with: 2 1 0 0  and 3 1 0 0 
 # max = 183
2331213		 # 	collision with: 4 5 0 0  and 2 0 1 0 
 # max = 183
2331215		 # 	collision with: 2 3 0 0  and 3 4 0 0 
 # max = 183
2331224		 # 	collision with: 4 5 0 0  and 0 1 1 0 
 # max = 183
2331226		 # 	collision with: 1 4 0 0  and 2 0 1 0 
 # max = 183
2331237		 # 	collision with: 3 2 0 0  and 4 2 0 0 
 # max = 183
2331239		 # 	collision with: 4 5 0 0  and 6 2 1 0 
 # max = 183
2331241		 # 	collision with: 6 2 0 0  and 1 4 0 0 
 # max = 183
2331267		 # 	collision with: 5 1 0 0  and 5 1 1 0 
 # max = 183
2331273		 # 	collision with: 4 1 2 0  and 4 2 2 0 
 # max = 183
2331275		 # 	collision with: 4 0 1 0  and 4 1 1 0 
 # max = 183
2331329		 # 	collision with: 3 2 0 0  and 4 2 1 0 
 # max = 183
2331331		 # 	collision with: 4 0 1 0  and 4 1 1 0 
 # max = 183
2331345		 # 	collision with: 2 6 0 0  and 6 2 1 0 
 # max = 183
2331347		 # 	collision with: 2 1 0 0  and 1 5 1 0 
 # max = 183
2331403		 # 	collision with: 1 0 1 0  and 2 0 2 0 
 # max = 183
2331409		 # 	collision with: 6 2 0 0  and 1 4 0 0 
 # max = 183
2331420		 # 	collision with: 6 1 0 0  and 5 6 1 0 
 # max = 183
2331422		 # 	collision with: 4 1 0 0  and 6 6 1 0 
 # max = 183
2331433		 # 	collision with: 5 0 1 0  and 5 2 1 0 
 # max = 183
2331435		 # 	collision with: 6 1 1 0  and 4 2 2 0 
 # max = 183
2331437		 # 	collision with: 2 0 1 0  and 1 0 2 0 
 # max = 183
2331439		 # 	collision with: 0 6 0 0  and 2 2 1 0 
 # max = 183
2331461		 # 	collision with: 4 1 0 0  and 1 1 1 0 
 # max = 183
2331463		 # 	collision with: 1 0 1 0  and 2 0 2 0 
 # max = 183
2331469		 # 	collision with: 3 2 0 0  and 4 2 1 0 
 # max = 183
2331471		 # 	collision with: 5 3 1 0  and 5 4 1 0 
 # max = 183
2331525		 # 	collision with: 2 0 1 0  and 1 0 2 0 
 # max = 183
2331527		 # 	collision with: 5 3 1 0  and 5 4 1 0 
 # max = 183
2331541		 # 	collision with: 2 2 0 0  and 2 3 0 0 
 # max = 183
2331543		 # 	collision with: 4 0 1 0  and 4 1 2 0 
 # max = 183
2331597		 # 	collision with: 2 2 0 0  and 2 3 0 0 
 # max = 183
2331599		 # 	collision with: 4 3 0 0  and 5 4 1 0 
 # max = 183
2331605		 # 	collision with: 3 0 1 0  and 0 0 2 0 
 # max = 183
2331607		 # 	collision with: 6 0 1 0  and 1 1 1 0 
 # max = 183
2331616		 # 	collision with: 1 1 0 0  and 4 2 1 0 
 # max = 183
2331618		 # 	collision with: 0 4 2 0  and 3 3 3 0 
 # max = 183
2331629		 # 	collision with: 3 1 0 0  and 3 3 0 0 
 # max = 183
2331631		 # 	collision with: 3 2 0 0  and 0 5 1 0 
 # max = 183
2331635		 # 	collision with: 2 3 1 0  and 3 4 1 0 
 # max = 183
2331657		 # 	collision with: 3 1 0 0  and 3 3 0 0 
 # max = 183
2331659		 # 	collision with: 1 0 1 0  and 2 0 1 0 
 # max = 183
2331665		 # 	collision with: 2 1 1 0  and 3 1 1 0 
 # max = 183
2331721		 # 	collision with: 1 2 0 0  and 1 4 1 0 
 # max = 183
2331737		 # 	collision with: 3 2 0 0  and 4 2 0 0 
 # max = 183
2331739		 # 	collision with: 1 1 0 0  and 1 3 0 0 
 # max = 183
2331793		 # 	collision with: 3 2 0 0  and 4 2 0 0 
 # max = 183
2331795		 # 	collision with: 1 1 0 0  and 1 3 0 0 
 # max = 183
2331801		 # 	collision with: 6 5 0 0  and 2 1 1 0 
 # max = 183
2331803		 # 	collision with: 2 0 1 0  and 1 0 2 0 
 # max = 183
2331812		 # 	collision with: 3 2 0 0  and 1 1 1 0 
 # max = 183
2331814		 # 	collision with: 5 3 0 0  and 6 2 1 0 
 # max = 183
2331827		 # 	collision with: 4 6 0 0  and 0 0 1 0 
 # max = 183
2331829		 # 	collision with: 6 2 1 0  and 1 4 1 0 
 # max = 183
2331831		 # 	collision with: 1 6 0 0  and 0 6 1 0 
 # max = 183
2331853		 # 	collision with: 5 2 1 0  and 0 3 2 0 
 # max = 183
2331855		 # 	collision with: 4 6 0 0  and 0 0 1 0 
 # max = 183
2331861		 # 	collision with: 3 2 0 0  and 4 2 0 0 
 # max = 183
2331863		 # 	collision with: 2 1 0 0  and 3 1 0 0 
 # max = 183
2331917		 # 	collision with: 3 2 0 0  and 4 2 0 0 
 # max = 183
2331919		 # 	collision with: 2 1 0 0  and 3 1 0 0 
 # max = 183
2331933		 # 	collision with: 4 1 0 0  and 3 2 0 0 
 # max = 183
2331989		 # 	collision with: 4 1 0 0  and 3 2 0 0 
 # max = 183
2331997		 # 	collision with: 5 5 0 0  and 4 2 1 0 
 # max = 183
2331999		 # 	collision with: 5 5 0 0  and 5 2 1 0 
 # max = 183
2332008		 # 	collision with: 2 0 1 0  and 1 0 2 0 
 # max = 183
2332010		 # 	collision with: 5 1 0 0  and 3 3 2 0 
 # max = 183
2332021		 # 	collision with: 4 1 0 0  and 5 5 1 0 
 # max = 183
2332023		 # 	collision with: 1 0 1 0  and 2 0 2 0 
 # max = 183
2332025		 # 	collision with: 0 0 0 0  and 3 4 1 0 
 # max = 183
2332027		 # 	collision with: 2 1 0 0  and 3 1 0 0 
 # max = 183
2332049		 # 	collision with: 2 1 1 0  and 3 1 1 0 
 # max = 183
2332051		 # 	collision with: 4 3 0 0  and 1 2 1 0 
 # max = 183
2332057		 # 	collision with: 6 4 0 0  and 1 1 1 0 
 # max = 183
2332059		 # 	collision with: 1 5 0 0  and 2 1 1 0 
 # max = 183
2332113		 # 	collision with: 2 4 0 0  and 3 1 1 0 
 # max = 183
2332115		 # 	collision with: 4 2 0 0  and 3 2 1 0 
 # max = 183
2332129		 # 	collision with: 2 1 0 0  and 2 4 1 0 
 # max = 183
2332131		 # 	collision with: 1 4 1 0  and 3 4 1 0 
 # max = 183
2332185		 # 	collision with: 2 3 1 0  and 0 4 1 0 
 # max = 183
2332187		 # 	collision with: 0 5 0 0  and 3 2 1 0 
 # max = 183
2332193		 # 	collision with: 2 2 1 0  and 0 3 1 0 
 # max = 183
2332195		 # 	collision with: 2 1 0 0  and 3 1 0 0 
 # max = 183
2332204		 # 	collision with: 2 1 0 0  and 6 5 2 0 
 # max = 183
2332206		 # 	collision with: 2 0 0 0  and 1 4 1 0 
 # max = 183
2332217		 # 	collision with: 1 0 1 0  and 2 0 2 0 
 # max = 183
2332221		 # 	collision with: 2 0 0 0  and 5 1 0 0 
 # max = 183
2332223		 # 	collision with: 2 1 0 0  and 2 2 1 0 
 # max = 183
2332245		 # 	collision with: 3 5 1 0  and 6 0 2 0 
 # max = 183
2332255		 # 	collision with: 2 1 1 0  and 2 2 1 0 
 # max = 183
2332309		 # 	collision with: 5 1 0 0  and 0 1 2 0 
 # max = 183
2332311		 # 	collision with: 2 1 1 0  and 2 2 1 0 
 # max = 183
2332325		 # 	collision with: 1 2 1 0  and 1 4 1 0 
 # max = 183
2332327		 # 	collision with: 3 2 0 0  and 6 5 2 0 
 # max = 183
2332381		 # 	collision with: 1 2 1 0  and 1 4 1 0 
 # max = 183
2332383		 # 	collision with: 1 6 0 0  and 1 5 2 0 
 # max = 183
2332391		 # 	collision with: 2 6 0 0  and 6 6 1 0 
 # max = 183
2332436		 # 	collision with: 4 1 0 0  and 3 2 0 0 
 # max = 183
2332438		 # 	collision with: 2 1 0 0  and 2 2 0 0 
 # max = 183
2332452		 # 	collision with: 2 0 0 0  and 5 1 0 0 
 # max = 183
2332457		 # 	collision with: 3 2 0 0  and 4 2 0 0 
 # max = 183
2332459		 # 	collision with: 1 3 0 0  and 4 4 0 0 
 # max = 183
2332465		 # 	collision with: 3 1 0 0  and 0 1 1 0 
 # max = 183
2332467		 # 	collision with: 3 2 1 0  and 4 2 2 0 
 # max = 183
2332472		 # 	collision with: 3 1 0 0  and 3 3 0 0 
 # max = 183
2332474		 # 	collision with: 4 0 0 0  and 4 1 0 0 
 # max = 183
2332476		 # 	collision with: 6 0 0 0  and 6 1 0 0 
 # max = 183
2332500		 # 	collision with: 3 1 0 0  and 3 3 0 0 
 # max = 183
2332507		 # 	collision with: 2 6 0 0  and 2 6 1 0 
 # max = 183
2332508		 # 	collision with: 2 0 0 0  and 5 1 0 0 
 # max = 183
2332510		 # 	collision with: 1 3 0 0  and 4 4 0 0 
 # max = 183
2332516		 # 	collision with: 4 1 0 0  and 4 2 0 0 
 # max = 183
2332518		 # 	collision with: 3 0 0 0  and 3 2 0 0 
 # max = 183
2332523		 # 	collision with: 1 3 1 0  and 3 3 1 0 
 # max = 183
2332524		 # 	collision with: 2 2 0 0  and 2 3 0 0 
 # max = 183
2332541		 # 	collision with: 3 2 0 0  and 4 2 0 0 
 # max = 183
2332543		 # 	collision with: 1 3 0 0  and 4 4 0 0 
 # max = 183
2332548		 # 	collision with: 4 1 0 0  and 3 2 0 0 
 # max = 183
2332552		 # 	collision with: 2 2 0 0  and 2 3 0 0 
 # max = 183
2332554		 # 	collision with: 5 3 0 0  and 5 4 0 0 
 # max = 183
2332561		 # 	collision with: 3 6 1 0  and 4 0 2 0 
 # max = 183
2332563		 # 	collision with: 2 2 0 0  and 1 1 1 0 
 # max = 183
2332572		 # 	collision with: 4 1 0 0  and 4 2 0 0 
 # max = 183
2332588		 # 	collision with: 6 0 0 0  and 6 1 0 0 
 # max = 183
2332590		 # 	collision with: 1 1 0 0  and 1 3 0 0 
 # max = 183
2332596		 # 	collision with: 2 6 0 0  and 3 1 1 0 
 # max = 183
2332598		 # 	collision with: 0 1 0 0  and 1 0 2 0 
 # max = 183
2332632		 # 	collision with: 6 1 0 0  and 6 1 1 0 
 # max = 183
2332634		 # 	collision with: 6 1 0 0  and 4 1 1 0 
 # max = 183
2332648		 # 	collision with: 5 1 1 0  and 0 3 1 0 
 # max = 183
2332650		 # 	collision with: 4 0 1 0  and 6 1 1 0 
 # max = 183
2332653		 # 	collision with: 1 2 0 0  and 1 4 0 0 
 # max = 183
2332655		 # 	collision with: 6 2 0 0  and 6 4 0 0 
 # max = 183
2332661		 # 	collision with: 6 2 0 0  and 1 4 0 0 
 # max = 183
2332663		 # 	collision with: 6 1 0 0  and 6 1 1 0 
 # max = 183
2332668		 # 	collision with: 3 3 0 0  and 0 1 1 0 
 # max = 183
2332670		 # 	collision with: 2 5 0 0  and 3 5 0 0 
 # max = 183
2332674		 # 	collision with: 3 6 0 0  and 3 6 1 0 
 # max = 183
2332696		 # 	collision with: 2 5 0 0  and 2 0 1 0 
 # max = 183
2332698		 # 	collision with: 2 5 0 0  and 3 5 0 0 
 # max = 183
2332701		 # 	collision with: 1 5 1 0  and 1 5 2 0 
 # max = 183
2332703		 # 	collision with: 2 0 1 0  and 4 1 1 0 
 # max = 183
2332704		 # 	collision with: 2 5 0 0  and 6 2 1 0 
 # max = 183
2332706		 # 	collision with: 1 1 1 0  and 5 2 1 0 
 # max = 183
2332712		 # 	collision with: 0 5 0 0  and 3 0 1 0 
 # max = 183
2332717		 # 	collision with: 6 2 0 0  and 1 4 0 0 
 # max = 183
2332719		 # 	collision with: 2 1 0 0  and 1 1 1 0 
 # max = 183
2332720		 # 	collision with: 3 2 0 0  and 4 2 0 0 
 # max = 183
2332722		 # 	collision with: 1 3 1 0  and 3 3 1 0 
 # max = 183
2332737		 # 	collision with: 1 2 0 0  and 1 4 0 0 
 # max = 183
2332744		 # 	collision with: 4 1 0 0  and 4 1 1 0 
 # max = 183
2332746		 # 	collision with: 4 2 0 0  and 5 6 1 0 
 # max = 183
2332750		 # 	collision with: 4 6 0 0  and 4 2 1 0 
 # max = 183
2332757		 # 	collision with: 6 0 0 0  and 3 2 1 0 
 # max = 183
2332759		 # 	collision with: 1 3 0 0  and 1 1 1 0 
 # max = 183
2332768		 # 	collision with: 3 6 0 0  and 0 4 1 0 
 # max = 183
2332770		 # 	collision with: 5 1 0 0  and 3 0 2 0 
 # max = 183
2332784		 # 	collision with: 0 0 1 0  and 6 1 2 0 
 # max = 183
2332786		 # 	collision with: 1 6 0 0  and 1 6 1 0 
 # max = 183
2332792		 # 	collision with: 6 5 0 0  and 5 6 1 0 
 # max = 183
2332794		 # 	collision with: 5 1 0 0  and 4 2 1 0 
 # max = 183
2332828		 # 	collision with: 6 6 0 0  and 0 3 2 0 
 # max = 183
2332844		 # 	collision with: 3 2 0 0  and 4 2 0 0 
 # max = 183
2332846		 # 	collision with: 3 6 0 0  and 6 0 1 0 
 # max = 183
2332849		 # 	collision with: 1 1 1 0  and 2 1 1 0 
 # max = 183
2332851		 # 	collision with: 2 5 0 0  and 3 5 0 0 
 # max = 183
2332859		 # 	collision with: 4 0 2 0  and 4 1 2 0 
 # max = 183
2332864		 # 	collision with: 6 1 1 0  and 6 1 2 0 
 # max = 183
2332866		 # 	collision with: 1 1 0 0  and 3 3 1 0 
 # max = 183
2332868		 # 	collision with: 3 6 0 0  and 2 0 1 0 
 # max = 183
2332870		 # 	collision with: 3 0 1 0  and 5 1 1 0 
 # max = 183
2332892		 # 	collision with: 0 4 1 0  and 1 4 1 0 
 # max = 183
2332894		 # 	collision with: 2 6 0 0  and 0 6 2 0 
 # max = 183
2332897		 # 	collision with: 1 5 0 0  and 2 4 1 0 
 # max = 183
2332899		 # 	collision with: 3 5 0 0  and 5 3 1 0 
 # max = 183
2332902		 # 	collision with: 1 3 0 0  and 2 1 1 0 
 # max = 183
2332908		 # 	collision with: 2 0 0 0  and 0 3 1 0 
 # max = 183
2332910		 # 	collision with: 2 5 0 0  and 3 5 0 0 
 # max = 183
2332913		 # 	collision with: 2 5 1 0  and 4 0 2 0 
 # max = 183
2332915		 # 	collision with: 1 4 0 0  and 3 1 1 0 
 # max = 183
2332918		 # 	collision with: 2 2 0 0  and 3 3 2 0 
 # max = 183
2332935		 # 	collision with: 2 5 0 0  and 3 5 0 0 
 # max = 183
2332940		 # 	collision with: 6 6 0 0  and 0 3 2 0 
 # max = 183
2332942		 # 	collision with: 1 1 0 0  and 1 1 1 0 
 # max = 183
2332944		 # 	collision with: 3 5 0 0  and 5 1 1 0 
 # max = 183
2332946		 # 	collision with: 1 4 0 0  and 5 0 2 0 
 # max = 183
2332953		 # 	collision with: 4 2 0 0  and 0 0 2 0 
 # max = 183
2332964		 # 	collision with: 2 0 0 0  and 0 3 1 0 
 # max = 183
2332966		 # 	collision with: 2 5 0 0  and 3 5 0 0 
 # max = 183
2332980		 # 	collision with: 4 0 1 0  and 5 1 1 0 
 # max = 183
2332982		 # 	collision with: 3 6 0 0  and 2 1 1 0 
 # max = 183
2332988		 # 	collision with: 3 6 0 0  and 5 1 2 0 
 # max = 183
2332990		 # 	collision with: 5 5 0 0  and 2 1 1 0 
 # max = 183
2333026		 # 	collision with: 4 0 2 0  and 4 1 2 0 
 # max = 183
2333040		 # 	collision with: 0 6 0 0  and 3 3 1 0 
 # max = 183
2333042		 # 	collision with: 4 0 0 0  and 4 1 1 0 
 # max = 183
2333045		 # 	collision with: 1 5 0 0  and 1 1 2 0 
 # max = 183
2333047		 # 	collision with: 1 1 2 0  and 3 3 2 0 
 # max = 183
2333053		 # 	collision with: 3 2 0 0  and 4 2 0 0 
 # max = 183
2333055		 # 	collision with: 3 6 0 0  and 0 0 1 0 
 # max = 183
2333060		 # 	collision with: 5 0 1 0  and 5 2 1 0 
 # max = 183
2333062		 # 	collision with: 3 4 0 0  and 6 3 1 0 
 # max = 183
2333064		 # 	collision with: 5 0 0 0  and 2 2 1 0 
 # max = 183
2333066		 # 	collision with: 2 5 0 0  and 3 5 0 0 
 # max = 183
2333088		 # 	collision with: 5 0 1 0  and 5 2 1 0 
 # max = 183
2333090		 # 	collision with: 6 2 1 0  and 6 4 1 0 
 # max = 183
2333093		 # 	collision with: 4 0 2 0  and 5 1 2 0 
 # max = 183
2333096		 # 	collision with: 6 5 0 0  and 6 5 1 0 
 # max = 183
2333098		 # 	collision with: 0 5 1 0  and 6 0 2 0 
 # max = 183
2333104		 # 	collision with: 2 0 1 0  and 4 0 1 0 
 # max = 183
2333106		 # 	collision with: 1 3 0 0  and 1 1 1 0 
 # max = 183
2333109		 # 	collision with: 3 2 0 0  and 4 2 0 0 
 # max = 183
2333111		 # 	collision with: 3 6 0 0  and 0 0 1 0 
 # max = 183
2333112		 # 	collision with: 2 0 1 0  and 4 0 1 0 
 # max = 183
2333114		 # 	collision with: 1 3 0 0  and 1 3 1 0 
 # max = 183
2333129		 # 	collision with: 0 4 2 0  and 1 4 2 0 
 # max = 183
2333131		 # 	collision with: 3 3 0 0  and 5 2 2 0 
 # max = 183
2333136		 # 	collision with: 3 2 0 0  and 4 2 0 0 
 # max = 183
2333138		 # 	collision with: 5 2 1 0  and 1 1 2 0 
 # max = 183
2333140		 # 	collision with: 4 0 0 0  and 2 5 1 0 
 # max = 183
2333149		 # 	collision with: 6 6 0 0  and 4 0 1 0 
 # max = 183
2333151		 # 	collision with: 1 1 0 0  and 1 3 0 0 
 # max = 183
2333162		 # 	collision with: 1 4 0 0  and 5 0 1 0 
 # max = 183
2333176		 # 	collision with: 2 0 3 0  and 4 0 3 0 
 # max = 183
2333178		 # 	collision with: 2 5 0 0  and 3 5 0 0 
 # max = 183
2333184		 # 	collision with: 3 5 0 0  and 1 2 1 0 
 # max = 183
2333186		 # 	collision with: 2 1 0 0  and 6 6 2 0 
 # max = 183
2333220		 # 	collision with: 4 3 0 0  and 2 0 1 0 
 # max = 183
2333222		 # 	collision with: 2 5 0 0  and 3 5 0 0 
 # max = 183
2333238		 # 	collision with: 3 3 0 0  and 0 0 1 0 
 # max = 183
2333241		 # 	collision with: 1 2 0 0  and 2 0 1 0 
 # max = 183
2333243		 # 	collision with: 2 1 1 0  and 2 2 1 0 
 # max = 183
2333249		 # 	collision with: 1 1 0 0  and 2 1 1 0 
 # max = 183
2333251		 # 	collision with: 2 1 0 0  and 2 2 0 0 
 # max = 183
2333256		 # 	collision with: 2 3 0 0  and 5 0 1 0 
 # max = 183
2333260		 # 	collision with: 3 2 0 0  and 4 2 0 0 
 # max = 183
2333262		 # 	collision with: 5 5 1 0  and 6 0 2 0 
 # max = 183
2333284		 # 	collision with: 1 4 0 0  and 0 4 1 0 
 # max = 183
2333286		 # 	collision with: 2 0 1 0  and 4 0 1 0 
 # max = 183
2333289		 # 	collision with: 3 2 0 0  and 4 2 0 0 
 # max = 183
2333291		 # 	collision with: 5 1 1 0  and 3 0 2 0 
 # max = 183
2333292		 # 	collision with: 4 2 0 0  and 0 0 2 0 
 # max = 183
2333294		 # 	collision with: 3 3 0 0  and 0 0 1 0 
 # max = 183
2333300		 # 	collision with: 5 0 1 0  and 2 3 2 0 
 # max = 183
2333302		 # 	collision with: 2 3 0 0  and 4 0 1 0 
 # max = 183
2333305		 # 	collision with: 2 0 1 0  and 4 0 1 0 
 # max = 183
2333308		 # 	collision with: 0 3 0 0  and 4 3 1 0 
 # max = 183
2333310		 # 	collision with: 4 0 1 0  and 4 1 1 0 
 # max = 183
2333325		 # 	collision with: 4 1 1 0  and 4 2 1 0 
 # max = 183
2333327		 # 	collision with: 2 1 1 0  and 2 2 1 0 
 # max = 183
2333332		 # 	collision with: 6 2 0 0  and 0 4 1 0 
 # max = 183
2333334		 # 	collision with: 2 5 0 0  and 3 5 0 0 
 # max = 183
2333336		 # 	collision with: 1 2 1 0  and 1 4 1 0 
 # max = 183
2333338		 # 	collision with: 4 0 1 0  and 4 1 1 0 
 # max = 183
2333345		 # 	collision with: 3 2 0 0  and 4 2 0 0 
 # max = 183
2333347		 # 	collision with: 6 1 0 0  and 6 5 1 0 
 # max = 183
2333356		 # 	collision with: 4 3 0 0  and 4 0 1 0 
 # max = 183
2333358		 # 	collision with: 0 4 1 0  and 1 4 2 0 
 # max = 183
2333374		 # 	collision with: 5 5 1 0  and 6 0 2 0 
 # max = 183
2333380		 # 	collision with: 5 1 1 0  and 6 6 2 0 
 # max = 183
2333382		 # 	collision with: 6 2 0 0  and 0 6 2 0 
 # max = 183
2333416		 # 	collision with: 4 1 0 0  and 6 0 1 0 
 # max = 183
2333418		 # 	collision with: 1 1 0 0  and 0 0 1 0 
 # max = 183
2333432		 # 	collision with: 2 0 0 0  and 1 2 2 0 
 # max = 183
2333434		 # 	collision with: 2 5 0 0  and 3 5 0 0 
 # max = 183
2333439		 # 	collision with: 5 6 1 0  and 3 0 2 0 
 # max = 183
2333445		 # 	collision with: 5 0 0 0  and 5 2 0 0 
 # max = 183
2333452		 # 	collision with: 1 6 0 0  and 2 2 1 0 
 # max = 183
2333454		 # 	collision with: 1 4 0 0  and 0 4 1 0 
 # max = 183
2333456		 # 	collision with: 6 4 0 0  and 1 5 2 0 
 # max = 183
2333458		 # 	collision with: 1 5 0 0  and 0 2 1 0 
 # max = 183
2333482		 # 	collision with: 1 4 0 0  and 0 4 1 0 
 # max = 183
2333485		 # 	collision with: 3 1 1 0  and 3 3 1 0 
 # max = 183
2333487		 # 	collision with: 2 5 0 0  and 3 5 0 0 
 # max = 183
2333488		 # 	collision with: 6 2 1 0  and 1 4 2 0 
 # max = 183
2333490		 # 	collision with: 2 5 0 0  and 3 5 0 0 
 # max = 183
2333498		 # 	collision with: 2 1 0 0  and 6 0 1 0 
 # max = 183
2333501		 # 	collision with: 5 0 0 0  and 5 2 0 0 
 # max = 183
2333503		 # 	collision with: 5 5 0 0  and 0 5 2 0 
 # max = 183
2333504		 # 	collision with: 6 0 0 0  and 3 2 1 0 
 # max = 183
2333506		 # 	collision with: 3 1 0 0  and 5 0 1 0 
 # max = 183
2333521		 # 	collision with: 5 0 0 0  and 2 2 0 0 
 # max = 183
2333523		 # 	collision with: 2 0 2 0  and 4 0 2 0 
 # max = 183
2333528		 # 	collision with: 6 0 1 0  and 6 1 1 0 
 # max = 183
2333530		 # 	collision with: 1 1 0 0  and 0 0 1 0 
 # max = 183
2333532		 # 	collision with: 6 1 0 0  and 6 1 2 0 
 # max = 183
2333534		 # 	collision with: 0 6 1 0  and 2 6 1 0 
 # max = 183
2333543		 # 	collision with: 2 5 0 0  and 3 5 0 0 
 # max = 183
2333552		 # 	collision with: 3 2 0 0  and 4 2 0 0 
 # max = 183
2333554		 # 	collision with: 0 0 2 0  and 2 1 2 0 
 # max = 183
2333568		 # 	collision with: 5 1 0 0  and 4 0 1 0 
 # max = 183
2333576		 # 	collision with: 0 2 0 0  and 3 0 1 0 
 # max = 183
2333578		 # 	collision with: 3 3 0 0  and 1 1 1 0 
 # max = 183
2333612		 # 	collision with: 1 2 0 0  and 4 0 1 0 
 # max = 183
2333614		 # 	collision with: 1 3 1 0  and 0 0 2 0 
 # max = 183
2333628		 # 	collision with: 6 2 0 0  and 4 0 1 0 
 # max = 183
2333630		 # 	collision with: 2 1 1 0  and 5 5 3 0 
 # max = 187
2333633		 # 	collision with: 6 6 1 0  and 0 3 2 0 
 # max = 187
2333641		 # 	collision with: 6 0 1 0  and 6 1 2 0 
 # max = 187
2333643		 # 	collision with: 2 5 0 0  and 3 5 0 0 
 # max = 187
2333650		 # 	collision with: 2 1 1 0  and 1 1 2 0 
 # max = 187
2333652		 # 	collision with: 2 0 1 0  and 6 2 2 0 
 # max = 187
2333654		 # 	collision with: 5 2 0 0  and 6 0 1 0 
 # max = 187
2333676		 # 	collision with: 3 2 0 0  and 4 2 0 0 
 # max = 187
2333678		 # 	collision with: 2 1 1 0  and 1 1 2 0 
 # max = 187
2333681		 # 	collision with: 6 0 0 0  and 6 1 0 0 
 # max = 187
2333683		 # 	collision with: 1 1 1 0  and 5 2 1 0 
 # max = 187
2333684		 # 	collision with: 5 2 0 0  and 5 0 1 0 
 # max = 187
2333692		 # 	collision with: 2 2 1 0  and 2 3 1 0 
 # max = 187
2333694		 # 	collision with: 2 2 0 0  and 2 2 1 0 
 # max = 187
2333697		 # 	collision with: 6 2 1 0  and 0 4 1 0 
 # max = 187
2333699		 # 	collision with: 2 5 0 0  and 3 5 0 0 
 # max = 187
2333700		 # 	collision with: 2 1 0 0  and 2 4 1 0 
 # max = 187
2333702		 # 	collision with: 2 5 0 0  and 3 5 0 0 
 # max = 187
2333717		 # 	collision with: 0 4 0 0  and 4 0 1 0 
 # max = 187
2333719		 # 	collision with: 0 0 1 0  and 2 1 1 0 
 # max = 187
2333726		 # 	collision with: 3 2 0 0  and 3 0 1 0 
 # max = 187
2333728		 # 	collision with: 6 6 0 0  and 2 5 1 0 
 # max = 187
2333730		 # 	collision with: 2 5 0 0  and 3 5 0 0 
 # max = 187
2333737		 # 	collision with: 6 0 0 0  and 6 1 0 0 
 # max = 187
2333739		 # 	collision with: 4 4 0 0  and 6 0 1 0 
 # max = 187
2333748		 # 	collision with: 6 0 1 0  and 3 2 1 0 
 # max = 187
2333750		 # 	collision with: 6 2 0 0  and 1 2 1 0 
 # max = 187
2333764		 # 	collision with: 0 6 1 0  and 2 6 1 0 
 # max = 187
2333766		 # 	collision with: 5 1 0 0  and 4 2 1 0 
 # max = 187
2333800		 # 	collision with: 3 3 0 0  and 4 3 0 0 
 # max = 187
2333802		 # 	collision with: 2 3 0 0  and 3 3 0 0 
 # max = 187
2333812		 # 	collision with: 2 0 0 0  and 5 2 0 0 
 # max = 187
2333814		 # 	collision with: 0 0 0 0  and 5 2 0 0 
 # max = 187
2333828		 # 	collision with: 3 3 0 0  and 4 3 0 0 
 # max = 187
2333830		 # 	collision with: 2 3 0 0  and 3 3 0 0 
 # max = 187
2333837		 # 	collision with: 3 4 0 0  and 3 1 1 0 
 # max = 187
2333839		 # 	collision with: 4 3 0 0  and 4 4 0 0 
 # max = 187
2333845		 # 	collision with: 3 5 0 0  and 0 1 1 0 
 # max = 187
2333852		 # 	collision with: 6 1 0 0  and 6 2 0 0 
 # max = 187
2333854		 # 	collision with: 6 0 0 0  and 6 1 0 0 
 # max = 187
2333856		 # 	collision with: 3 3 0 0  and 4 3 0 0 
 # max = 187
2333858		 # 	collision with: 2 3 0 0  and 3 3 0 0 
 # max = 187
2333863		 # 	collision with: 3 6 0 0  and 2 1 1 0 
 # max = 187
2333864		 # 	collision with: 4 0 0 0  and 4 2 0 0 
 # max = 187
2333866		 # 	collision with: 4 3 0 0  and 4 4 0 0 
 # max = 187
2333884		 # 	collision with: 3 3 0 0  and 4 3 0 0 
 # max = 187
2333886		 # 	collision with: 2 3 0 0  and 3 3 0 0 
 # max = 187
2333904		 # 	collision with: 3 2 0 0  and 3 3 0 0 
 # max = 187
2333906		 # 	collision with: 3 1 0 0  and 3 2 0 0 
 # max = 187
2333911		 # 	collision with: 3 2 0 0  and 3 1 2 0 
 # max = 187
2333912		 # 	collision with: 3 3 0 0  and 4 3 0 0 
 # max = 187
2333914		 # 	collision with: 2 3 0 0  and 3 3 0 0 
 # max = 187
2333916		 # 	collision with: 6 0 0 0  and 1 1 0 0 
 # max = 187
2333918		 # 	collision with: 5 1 0 0  and 0 3 0 0 
 # max = 187
2333925		 # 	collision with: 1 1 1 0  and 1 3 1 0 
 # max = 187
2333933		 # 	collision with: 3 0 1 0  and 1 2 1 0 
 # max = 187
2333935		 # 	collision with: 2 3 0 0  and 1 3 1 0 
 # max = 187
2333940		 # 	collision with: 3 3 0 0  and 4 3 0 0 
 # max = 187
2333942		 # 	collision with: 2 3 0 0  and 3 3 0 0 
 # max = 187
2333956		 # 	collision with: 2 0 0 0  and 2 1 0 0 
 # max = 187
2333958		 # 	collision with: 5 1 0 0  and 0 2 0 0 
 # max = 187
2333968		 # 	collision with: 3 6 0 0  and 0 0 1 0 
 # max = 187
2333970		 # 	collision with: 4 0 1 0  and 3 1 2 0 
 # max = 187
2333996		 # 	collision with: 3 6 0 0  and 0 0 1 0 
 # max = 187
2333998		 # 	collision with: 0 2 0 0  and 1 3 1 0 
 # max = 187
2334008		 # 	collision with: 6 5 0 0  and 6 5 1 0 
 # max = 187
2334010		 # 	collision with: 0 2 2 0  and 1 3 2 0 
 # max = 187
2334033		 # 	collision with: 3 3 0 0  and 4 3 0 0 
 # max = 187
2334035		 # 	collision with: 5 1 1 0  and 5 3 1 0 
 # max = 187
2334041		 # 	collision with: 4 3 0 0  and 1 1 1 0 
 # max = 187
2334043		 # 	collision with: 2 2 0 0  and 2 4 0 0 
 # max = 187
2334048		 # 	collision with: 1 0 1 0  and 2 2 1 0 
 # max = 187
2334050		 # 	collision with: 0 3 1 0  and 1 3 1 0 
 # max = 187
2334052		 # 	collision with: 3 6 0 0  and 0 0 1 0 
 # max = 187
2334054		 # 	collision with: 5 1 1 0  and 0 2 2 0 
 # max = 187
2334057		 # 	collision with: 4 1 0 0  and 4 1 1 0 
 # max = 187
2334059		 # 	collision with: 1 4 0 0  and 4 0 1 0 
 # max = 187
2334060		 # 	collision with: 3 3 0 0  and 4 3 0 0 
 # max = 187
2334080		 # 	collision with: 3 6 0 0  and 0 0 1 0 
 # max = 187
2334082		 # 	collision with: 0 2 0 0  and 6 3 1 0 
 # max = 187
2334100		 # 	collision with: 4 6 0 0  and 6 0 1 0 
 # max = 187
2334102		 # 	collision with: 5 5 0 0  and 6 1 1 0 
 # max = 187
2334105		 # 	collision with: 2 0 2 0  and 2 1 2 0 
 # max = 187
2334107		 # 	collision with: 4 3 1 0  and 4 4 1 0 
 # max = 187
2334108		 # 	collision with: 3 6 0 0  and 0 0 1 0 
 # max = 187
2334110		 # 	collision with: 3 6 0 0  and 1 0 1 0 
 # max = 187
2334114		 # 	collision with: 4 5 0 0  and 2 0 2 0 
 # max = 187
2334121		 # 	collision with: 5 2 0 0  and 5 4 0 0 
 # max = 187
2334123		 # 	collision with: 1 5 0 0  and 1 5 1 0 
 # max = 187
2334129		 # 	collision with: 1 4 0 0  and 1 0 1 0 
 # max = 187
2334131		 # 	collision with: 2 3 0 0  and 3 3 0 0 
 # max = 187
2334136		 # 	collision with: 3 6 0 0  and 0 0 1 0 
 # max = 187
2334138		 # 	collision with: 3 3 1 0  and 4 3 1 0 
 # max = 187
2334152		 # 	collision with: 3 3 0 0  and 2 5 1 0 
 # max = 187
2334154		 # 	collision with: 1 2 0 0  and 1 2 1 0 
 # max = 187
2334164		 # 	collision with: 6 4 4 0  and 6 0 0 1 
 # max = 349
2334166		 # 	collision with: 5 4 3 0  and 0 0 0 1 
 # max = 349
2334192		 # 	collision with: 2 6 1 0  and 1 0 3 0 
 # max = 349
2334194		 # 	collision with: 6 5 1 0  and 0 2 2 0 
 # max = 349
2334204		 # 	collision with: 5 5 1 0  and 5 5 2 0 
 # max = 349
2334206		 # 	collision with: 5 5 0 0  and 5 5 1 0 
 # max = 349
2334220		 # 	collision with: 5 5 1 0  and 4 2 2 0 
 # max = 349
2334222		 # 	collision with: 1 5 0 0  and 3 2 1 0 
 # max = 349
2334229		 # 	collision with: 2 4 0 0  and 2 4 1 0 
 # max = 349
2334231		 # 	collision with: 6 0 2 0  and 6 1 2 0 
 # max = 349
2334239		 # 	collision with: 6 6 0 0  and 1 1 1 0 
 # max = 349
2334244		 # 	collision with: 5 0 0 0  and 3 1 1 0 
 # max = 349
2334246		 # 	collision with: 1 3 0 0  and 3 0 1 0 
 # max = 349
2334248		 # 	collision with: 4 6 1 0  and 5 3 2 0 
 # max = 349
2334250		 # 	collision with: 6 6 1 0  and 5 0 3 0 
 # max = 349
2334253		 # 	collision with: 3 2 0 0  and 4 3 0 0 
 # max = 349
2334255		 # 	collision with: 0 2 0 0  and 5 3 0 0 
 # max = 349
2334258		 # 	collision with: 6 1 0 0  and 5 6 1 0 
 # max = 349
2334296		 # 	collision with: 5 3 0 0  and 6 0 1 0 
 # max = 349
2334298		 # 	collision with: 2 3 0 0  and 1 3 1 0 
 # max = 349
2334301		 # 	collision with: 4 2 1 0  and 4 0 2 0 
 # max = 349
2334303		 # 	collision with: 1 3 1 0  and 3 3 1 0 
 # max = 349
2334304		 # 	collision with: 5 5 0 0  and 4 2 1 0 
 # max = 349
2334306		 # 	collision with: 1 6 0 0  and 1 3 1 0 
 # max = 349
2334308		 # 	collision with: 1 1 0 0  and 1 1 1 0 
 # max = 349
2334310		 # 	collision with: 4 4 0 0  and 1 3 1 0 
 # max = 349
2334317		 # 	collision with: 3 5 0 0  and 2 4 1 0 
 # max = 349
2334319		 # 	collision with: 1 0 1 0  and 1 2 1 0 
 # max = 349
2334327		 # 	collision with: 0 1 0 0  and 4 2 1 0 
 # max = 349
2334332		 # 	collision with: 0 1 0 0  and 3 5 1 0 
 # max = 349
2334334		 # 	collision with: 0 3 2 0  and 2 3 2 0 
 # max = 349
2334348		 # 	collision with: 3 3 0 0  and 4 3 0 0 
 # max = 349
2334360		 # 	collision with: 0 3 0 0  and 1 1 1 0 
 # max = 349
2334362		 # 	collision with: 6 4 0 0  and 5 2 1 0 
 # max = 349
2334388		 # 	collision with: 0 4 0 0  and 3 2 1 0 
 # max = 349
2334390		 # 	collision with: 2 1 1 0  and 3 6 2 0 
 # max = 349
2334402		 # 	collision with: 0 3 2 0  and 1 3 2 0 
 # max = 349
2334416		 # 	collision with: 2 1 0 0  and 1 6 1 0 
 # max = 349
2334418		 # 	collision with: 2 4 0 0  and 2 2 1 0 
 # max = 349
2334425		 # 	collision with: 1 3 1 0  and 2 3 1 0 
 # max = 349
2334427		 # 	collision with: 2 3 0 0  and 3 3 0 0 
 # max = 349
2334433		 # 	collision with: 3 3 1 0  and 0 4 1 0 
 # max = 349
2334435		 # 	collision with: 1 2 0 0  and 1 2 2 0 
 # max = 349
2334440		 # 	collision with: 3 3 0 0  and 4 3 0 0 
 # max = 349
2334444		 # 	collision with: 0 2 1 0  and 5 0 2 0 
 # max = 349
2334446		 # 	collision with: 3 4 0 0  and 1 2 1 0 
 # max = 349
2334449		 # 	collision with: 1 1 0 0  and 1 3 0 0 
 # max = 349
2334452		 # 	collision with: 6 0 0 0  and 6 3 1 0 
 # max = 349
2334454		 # 	collision with: 6 0 2 0  and 6 1 2 0 
 # max = 349
2334472		 # 	collision with: 6 3 0 0  and 1 1 1 0 
 # max = 349
2334474		 # 	collision with: 1 4 0 0  and 3 2 1 0 
 # max = 349
2334492		 # 	collision with: 2 3 0 0  and 3 3 1 0 
 # max = 349
2334494		 # 	collision with: 4 3 0 0  and 3 3 1 0 
 # max = 349
2334497		 # 	collision with: 3 3 0 0  and 4 3 0 0 
 # max = 349
2334499		 # 	collision with: 1 5 0 0  and 4 0 2 0 
 # max = 349
2334500		 # 	collision with: 2 5 0 0  and 6 3 1 0 
 # max = 349
2334502		 # 	collision with: 0 4 0 0  and 4 2 1 0 
 # max = 349
2334504		 # 	collision with: 2 0 0 0  and 5 2 1 0 
 # max = 349
2334506		 # 	collision with: 5 1 0 0  and 5 1 1 0 
 # max = 349
2334513		 # 	collision with: 1 3 1 0  and 3 3 1 0 
 # max = 349
2334515		 # 	collision with: 5 1 0 0  and 5 3 0 0 
 # max = 349
2334521		 # 	collision with: 1 1 0 0  and 6 3 0 0 
 # max = 349
2334544		 # 	collision with: 5 1 1 0  and 4 2 1 0 
 # max = 349
2334546		 # 	collision with: 4 0 1 0  and 3 1 1 0 
 # max = 349
2334556		 # 	collision with: 5 5 0 0  and 4 2 2 0 
 # max = 349
2334558		 # 	collision with: 5 5 0 0  and 6 0 1 0 
 # max = 349
2334596		 # 	collision with: 1 1 1 0  and 1 3 1 0 
 # max = 349
2334598		 # 	collision with: 3 0 1 0  and 0 2 1 0 
 # max = 349
2334612		 # 	collision with: 2 0 0 0  and 5 4 2 0 
 # max = 349
2334614		 # 	collision with: 2 6 0 0  and 0 1 1 0 
 # max = 349
2334621		 # 	collision with: 1 2 0 0  and 3 0 2 0 
 # max = 349
2334629		 # 	collision with: 1 3 1 0  and 2 3 1 0 
 # max = 349
2334631		 # 	collision with: 2 3 0 0  and 3 3 0 0 
 # max = 349
2334636		 # 	collision with: 6 3 0 0  and 3 2 1 0 
 # max = 349
2334638		 # 	collision with: 2 3 0 0  and 0 2 1 0 
 # max = 349
2334640		 # 	collision with: 0 3 1 0  and 1 3 1 0 
 # max = 349
2334642		 # 	collision with: 6 5 0 0  and 3 0 1 0 
 # max = 349
2334645		 # 	collision with: 3 3 0 0  and 4 3 0 0 
 # max = 349
2334647		 # 	collision with: 2 0 1 0  and 4 2 1 0 
 # max = 349
2334648		 # 	collision with: 3 2 0 0  and 0 3 2 0 
 # max = 349
2334650		 # 	collision with: 1 4 0 0  and 1 4 1 0 
 # max = 349
2334668		 # 	collision with: 6 4 0 0  and 6 6 1 0 
 # max = 349
2334670		 # 	collision with: 2 6 0 0  and 0 1 1 0 
 # max = 349
2334688		 # 	collision with: 1 3 0 0  and 0 3 1 0 
 # max = 349
2334690		 # 	collision with: 6 6 0 0  and 6 2 1 0 
 # max = 349
2334693		 # 	collision with: 6 1 0 0  and 6 2 0 0 
 # max = 349
2334696		 # 	collision with: 1 1 0 0  and 4 3 1 0 
 # max = 349
2334698		 # 	collision with: 2 6 0 0  and 0 1 1 0 
 # max = 349
2334700		 # 	collision with: 3 3 0 0  and 4 3 0 0 
 # max = 349
2334709		 # 	collision with: 2 1 0 0  and 5 2 0 0 
 # max = 349
2334711		 # 	collision with: 2 3 1 0  and 0 2 2 0 
 # max = 349
2334717		 # 	collision with: 1 3 1 0  and 3 3 1 0 
 # max = 349
2334719		 # 	collision with: 3 1 0 0  and 3 2 0 0 
 # max = 349
2334724		 # 	collision with: 3 4 0 0  and 5 6 1 0 
 # max = 349
2334726		 # 	collision with: 2 6 0 0  and 0 1 1 0 
 # max = 349
2334742		 # 	collision with: 4 0 0 0  and 3 1 1 0 
 # max = 349
2334752		 # 	collision with: 0 4 0 0  and 6 3 2 0 
 # max = 349
2334754		 # 	collision with: 1 6 0 0  and 0 2 1 0 
 # max = 349
2334780		 # 	collision with: 4 4 1 0  and 0 0 2 0 
 # max = 349
2334782		 # 	collision with: 3 4 0 0  and 1 0 1 0 
 # max = 349
2334792		 # 	collision with: 3 3 0 0  and 4 3 0 0 
 # max = 349
2334808		 # 	collision with: 6 0 0 0  and 1 3 1 0 
 # max = 349
2334810		 # 	collision with: 1 6 0 0  and 0 2 1 0 
 # max = 349
2334819		 # 	collision with: 0 3 1 0  and 1 3 1 0 
 # max = 349
2334825		 # 	collision with: 6 0 0 0  and 5 3 1 0 
 # max = 349
2334827		 # 	collision with: 5 1 0 0  and 6 5 1 0 
 # max = 349
2334832		 # 	collision with: 1 4 0 0  and 1 0 1 0 
 # max = 349
2334834		 # 	collision with: 1 4 0 0  and 1 5 2 0 
 # max = 349
2334841		 # 	collision with: 5 4 0 0  and 5 2 1 0 
 # max = 349
2334843		 # 	collision with: 1 4 0 0  and 1 5 0 0 
 # max = 349
2334844		 # 	collision with: 6 4 0 0  and 4 2 1 0 
 # max = 349
2334846		 # 	collision with: 4 4 0 0  and 0 2 1 0 
 # max = 349
2334864		 # 	collision with: 0 1 0 0  and 3 0 2 0 
 # max = 349
2334866		 # 	collision with: 1 6 0 0  and 0 2 1 0 
 # max = 349
2334886		 # 	collision with: 1 3 0 0  and 0 3 1 0 
 # max = 349
2334889		 # 	collision with: 2 6 0 0  and 2 6 1 0 
 # max = 349
2334891		 # 	collision with: 2 3 0 0  and 3 3 0 0 
 # max = 349
2334892		 # 	collision with: 0 6 0 0  and 1 2 1 0 
 # max = 349
2334894		 # 	collision with: 1 6 0 0  and 0 2 1 0 
 # max = 349
2334896		 # 	collision with: 5 2 2 0  and 5 4 2 0 
 # max = 349
2334898		 # 	collision with: 6 3 0 0  and 6 5 1 0 
 # max = 349
2334907		 # 	collision with: 0 3 1 0  and 2 3 1 0 
 # max = 349
2334913		 # 	collision with: 2 0 0 0  and 5 2 0 0 
 # max = 349
2334915		 # 	collision with: 0 0 0 0  and 5 2 0 0 
 # max = 349
2334920		 # 	collision with: 5 1 1 0  and 6 4 2 0 
 # max = 349
2334922		 # 	collision with: 1 6 0 0  and 0 2 1 0 
 # max = 349
2334936		 # 	collision with: 4 3 0 0  and 1 1 1 0 
 # max = 349
2334938		 # 	collision with: 5 5 0 0  and 5 6 1 0 
 # max = 349
2334948		 # 	collision with: 0 2 0 0  and 3 1 1 0 
 # max = 349
2334950		 # 	collision with: 2 1 0 0  and 1 0 1 0 
 # max = 349
2334976		 # 	collision with: 2 3 1 0  and 3 3 1 0 
 # max = 349
2334978		 # 	collision with: 1 3 1 0  and 2 3 1 0 
 # max = 349
2334988		 # 	collision with: 4 1 1 0  and 2 2 2 0 
 # max = 349
2334990		 # 	collision with: 1 3 0 0  and 1 6 1 0 
 # max = 349
2335004		 # 	collision with: 1 2 0 0  and 3 0 2 0 
 # max = 349
2335006		 # 	collision with: 0 6 0 0  and 1 4 2 0 
 # max = 349
2335013		 # 	collision with: 2 3 0 0  and 6 0 1 0 
 # max = 349
2335015		 # 	collision with: 0 4 1 0  and 2 0 2 0 
 # max = 349
2335021		 # 	collision with: 2 0 0 0  and 2 1 0 0 
 # max = 349
2335023		 # 	collision with: 0 3 1 0  and 1 3 1 0 
 # max = 349
2335030		 # 	collision with: 4 5 0 0  and 0 1 2 0 
 # max = 349
2335032		 # 	collision with: 2 5 0 0  and 4 3 2 0 
 # max = 349
2335034		 # 	collision with: 0 2 0 0  and 5 1 1 0 
 # max = 349
2335037		 # 	collision with: 5 2 2 0  and 5 4 2 0 
 # max = 349
2335039		 # 	collision with: 2 3 0 0  and 3 3 0 0 
 # max = 349
2335040		 # 	collision with: 5 5 1 0  and 4 2 2 0 
 # max = 349
2335042		 # 	collision with: 1 2 0 0  and 3 6 1 0 
 # max = 349
2335060		 # 	collision with: 5 2 0 0  and 2 1 1 0 
 # max = 349
2335062		 # 	collision with: 2 4 0 0  and 2 2 2 0 
 # max = 349
2335080		 # 	collision with: 3 3 0 0  and 4 3 0 0 
 # max = 349
2335085		 # 	collision with: 3 5 0 0  and 1 2 1 0 
 # max = 349
2335087		 # 	collision with: 6 0 0 0  and 6 1 0 0 
 # max = 349
2335092		 # 	collision with: 3 2 1 0  and 1 3 1 0 
 # max = 349
2335094		 # 	collision with: 3 1 1 0  and 3 2 1 0 
 # max = 349
2335101		 # 	collision with: 6 0 0 0  and 1 1 0 0 
 # max = 349
2335103		 # 	collision with: 5 1 0 0  and 0 2 1 0 
 # max = 349
2335109		 # 	collision with: 3 3 0 0  and 4 3 0 0 
 # max = 349
2335111		 # 	collision with: 1 3 0 0  and 3 0 1 0 
 # max = 349
2335116		 # 	collision with: 2 0 0 0  and 1 6 1 0 
 # max = 349
2335118		 # 	collision with: 6 1 0 0  and 6 0 1 0 
 # max = 349
2335132		 # 	collision with: 5 4 0 0  and 1 6 1 0 
 # max = 349
2335134		 # 	collision with: 5 0 0 0  and 3 5 1 0 
 # max = 349
2335176		 # 	collision with: 3 2 0 0  and 3 3 0 0 
 # max = 349
2335178		 # 	collision with: 2 2 0 0  and 2 4 0 0 
 # max = 349
2335180		 # 	collision with: 6 1 0 0  and 6 2 0 0 
 # max = 349
2335182		 # 	collision with: 3 2 0 0  and 2 4 0 0 
 # max = 349
2335205		 # 	collision with: 0 0 0 0  and 1 0 1 0 
 # max = 349
2335207		 # 	collision with: 2 2 0 0  and 3 2 0 0 
 # max = 349
2335208		 # 	collision with: 6 1 0 0  and 6 2 0 0 
 # max = 349
2335210		 # 	collision with: 3 2 0 0  and 2 4 0 0 
 # max = 349
2335216		 # 	collision with: 2 0 0 0  and 5 2 0 0 
 # max = 349
2335218		 # 	collision with: 3 1 0 0  and 3 2 0 0 
 # max = 349
2335221		 # 	collision with: 0 0 0 0  and 1 0 1 0 
 # max = 349
2335223		 # 	collision with: 2 4 0 0  and 0 4 2 0 
 # max = 349
2335235		 # 	collision with: 2 2 0 0  and 3 2 0 0 
 # max = 349
2335240		 # 	collision with: 0 0 0 0  and 1 0 1 0 
 # max = 349
2335242		 # 	collision with: 6 1 0 0  and 2 0 1 0 
 # max = 349
2335252		 # 	collision with: 5 2 0 0  and 5 4 0 0 
 # max = 349
2335254		 # 	collision with: 5 2 0 0  and 0 3 0 0 
 # max = 349
2335260		 # 	collision with: 3 2 0 0  and 3 3 0 0 
 # max = 349
2335262		 # 	collision with: 2 2 0 0  and 2 4 0 0 
 # max = 349
2335272		 # 	collision with: 2 0 0 0  and 5 2 0 0 
 # max = 349
2335274		 # 	collision with: 3 1 0 0  and 3 2 0 0 
 # max = 349
2335283		 # 	collision with: 1 2 1 0  and 1 0 2 0 
 # max = 349
2335293		 # 	collision with: 0 0 0 0  and 6 5 1 0 
 # max = 349
2335295		 # 	collision with: 4 3 0 0  and 4 4 0 0 
 # max = 349
2335296		 # 	collision with: 4 3 0 0  and 2 2 2 0 
 # max = 349
2335298		 # 	collision with: 2 6 2 0  and 4 6 2 0 
 # max = 349
2335304		 # 	collision with: 4 0 0 0  and 4 2 0 0 
 # max = 349
2335306		 # 	collision with: 3 1 0 0  and 2 2 0 0 
 # max = 349
2335309		 # 	collision with: 3 3 0 0  and 4 6 1 0 
 # max = 349
2335311		 # 	collision with: 4 0 2 0  and 2 2 2 0 
 # max = 349
2335332		 # 	collision with: 4 0 0 0  and 4 2 0 0 
 # max = 349
2335334		 # 	collision with: 3 1 0 0  and 2 2 0 0 
 # max = 349
2335336		 # 	collision with: 5 2 0 0  and 5 4 0 0 
 # max = 349
2335338		 # 	collision with: 5 2 0 0  and 0 3 0 0 
 # max = 349
2335340		 # 	collision with: 1 3 0 0  and 2 1 2 0 
 # max = 349
2335342		 # 	collision with: 3 4 0 0  and 6 4 1 0 
 # max = 349
2335372		 # 	collision with: 6 2 0 0  and 6 1 1 0 
 # max = 349
2335374		 # 	collision with: 0 0 0 0  and 1 0 1 0 
 # max = 349
2335376		 # 	collision with: 3 3 0 0  and 4 3 0 0 
 # max = 349
2335378		 # 	collision with: 0 0 0 0  and 1 0 1 0 
 # max = 349
2335401		 # 	collision with: 1 1 1 0  and 2 1 1 0 
 # max = 349
2335403		 # 	collision with: 2 2 0 0  and 2 4 0 0 
 # max = 349
2335404		 # 	collision with: 3 3 0 0  and 4 3 0 0 
 # max = 349
2335406		 # 	collision with: 6 3 1 0  and 4 0 2 0 
 # max = 349
2335412		 # 	collision with: 0 0 0 0  and 1 0 1 0 
 # max = 349
2335414		 # 	collision with: 2 4 0 0  and 5 5 1 0 
 # max = 349
2335429		 # 	collision with: 1 1 0 0  and 6 0 2 0 
 # max = 349
2335431		 # 	collision with: 2 2 0 0  and 2 4 0 0 
 # max = 349
2335438		 # 	collision with: 2 2 0 0  and 3 2 0 0 
 # max = 349
2335448		 # 	collision with: 4 0 0 0  and 1 2 1 0 
 # max = 349
2335450		 # 	collision with: 4 0 1 0  and 2 2 1 0 
 # max = 349
2335458		 # 	collision with: 5 5 0 0  and 5 6 1 0 
 # max = 349
2335468		 # 	collision with: 5 3 0 0  and 1 2 1 0 
 # max = 349
2335470		 # 	collision with: 6 3 0 0  and 3 2 1 0 
 # max = 349
2335477		 # 	collision with: 5 2 0 0  and 5 4 0 0 
 # max = 349
2335479		 # 	collision with: 4 3 1 0  and 4 4 1 0 
 # max = 349
2335489		 # 	collision with: 3 3 0 0  and 4 3 0 0 
 # max = 349
2335491		 # 	collision with: 3 1 1 0  and 6 3 1 0 
 # max = 349
2335492		 # 	collision with: 3 4 0 0  and 0 1 1 0 
 # max = 349
2335494		 # 	collision with: 2 2 0 0  and 3 2 0 0 
 # max = 349
2335500		 # 	collision with: 0 1 0 0  and 6 6 1 0 
 # max = 349
2335507		 # 	collision with: 4 3 1 0  and 4 4 1 0 
 # max = 349
2335528		 # 	collision with: 0 4 1 0  and 6 2 2 0 
 # max = 349
2335532		 # 	collision with: 1 1 1 0  and 1 3 1 0 
 # max = 349
2335534		 # 	collision with: 4 3 1 0  and 4 4 1 0 
 # max = 349
2335536		 # 	collision with: 1 6 0 0  and 5 6 1 0 
 # max = 349
2335538		 # 	collision with: 0 0 0 0  and 1 0 1 0 
 # max = 349
2335568		 # 	collision with: 0 0 0 0  and 1 0 1 0 
 # max = 349
2335570		 # 	collision with: 4 1 0 0  and 2 0 2 0 
 # max = 349
2335574		 # 	collision with: 5 3 1 0  and 3 4 2 0 
 # max = 349
2335597		 # 	collision with: 3 2 0 0  and 3 3 0 0 
 # max = 349
2335599		 # 	collision with: 0 4 1 0  and 3 1 2 0 
 # max = 349
2335600		 # 	collision with: 6 2 0 0  and 6 1 1 0 
 # max = 349
2335602		 # 	collision with: 1 4 0 0  and 5 2 1 0 
 # max = 349
2335608		 # 	collision with: 3 3 0 0  and 4 3 0 0 
 # max = 349
2335610		 # 	collision with: 1 3 0 0  and 3 1 1 0 
 # max = 349
2335613		 # 	collision with: 5 2 0 0  and 2 1 1 0 
 # max = 349
2335615		 # 	collision with: 5 3 1 0  and 3 4 1 0 
 # max = 349
2335625		 # 	collision with: 3 2 0 0  and 3 3 0 0 
 # max = 349
2335627		 # 	collision with: 1 1 2 0  and 6 2 2 0 
 # max = 349
2335632		 # 	collision with: 5 2 0 0  and 0 5 1 0 
 # max = 349
2335644		 # 	collision with: 2 1 0 0  and 0 2 1 0 
 # max = 349
2335646		 # 	collision with: 2 2 0 0  and 3 2 0 0 
 # max = 349
2335652		 # 	collision with: 4 3 0 0  and 3 2 1 0 
 # max = 349
2335654		 # 	collision with: 3 2 0 0  and 1 6 1 0 
 # max = 349
2335664		 # 	collision with: 3 3 0 0  and 4 3 0 0 
 # max = 349
2335666		 # 	collision with: 5 5 0 0  and 2 4 1 0 
 # max = 349
2335673		 # 	collision with: 3 2 0 0  and 4 3 0 0 
 # max = 349
2335675		 # 	collision with: 5 2 0 0  and 0 3 0 0 
 # max = 349
2335685		 # 	collision with: 1 5 1 0  and 3 5 1 0 
 # max = 349
2335687		 # 	collision with: 5 5 0 0  and 4 0 1 0 
 # max = 349
2335688		 # 	collision with: 2 5 0 0  and 4 2 1 0 
 # max = 349
2335696		 # 	collision with: 6 0 0 0  and 1 3 1 0 
 # max = 349
2335698		 # 	collision with: 6 0 1 0  and 6 1 1 0 
 # max = 349
2335701		 # 	collision with: 3 2 0 0  and 4 3 0 0 
 # max = 349
2335703		 # 	collision with: 5 2 0 0  and 0 3 0 0 
 # max = 349
2335724		 # 	collision with: 0 4 1 0  and 2 4 1 0 
 # max = 349
2335726		 # 	collision with: 6 0 1 0  and 6 1 1 0 
 # max = 349
2335730		 # 	collision with: 2 2 0 0  and 3 2 0 0 
 # max = 349
2335732		 # 	collision with: 0 0 0 0  and 1 0 1 0 
 # max = 349
2335734		 # 	collision with: 0 4 1 0  and 3 1 2 0 
 # max = 349
2335764		 # 	collision with: 4 6 0 0  and 4 6 2 0 
 # max = 349
2335768		 # 	collision with: 2 0 2 0  and 1 1 2 0 
 # max = 349
2335770		 # 	collision with: 2 2 0 0  and 3 2 0 0 
 # max = 349
2335793		 # 	collision with: 5 0 0 0  and 5 0 1 0 
 # max = 349
2335798		 # 	collision with: 2 2 0 0  and 3 2 0 0 
 # max = 349
2335804		 # 	collision with: 2 0 0 0  and 2 1 1 0 
 # max = 349
2335806		 # 	collision with: 2 0 1 0  and 6 1 1 0 
 # max = 349
2335809		 # 	collision with: 5 0 0 0  and 5 0 1 0 
 # max = 349
2335811		 # 	collision with: 5 1 0 0  and 5 3 0 0 
 # max = 349
2335821		 # 	collision with: 0 0 1 0  and 1 0 1 0 
 # max = 349
2335828		 # 	collision with: 6 2 0 0  and 6 1 1 0 
 # max = 349
2335830		 # 	collision with: 6 3 0 0  and 6 5 1 0 
 # max = 349
2335840		 # 	collision with: 3 3 0 0  and 4 3 0 0 
 # max = 349
2335842		 # 	collision with: 3 1 0 0  and 5 5 1 0 
 # max = 349
2335848		 # 	collision with: 6 3 0 0  and 5 4 1 0 
 # max = 349
2335860		 # 	collision with: 3 2 1 0  and 3 3 1 0 
 # max = 349
2335862		 # 	collision with: 5 1 1 0  and 5 3 1 0 
 # max = 349
2335869		 # 	collision with: 3 3 0 0  and 4 3 0 0 
 # max = 349
2335871		 # 	collision with: 2 4 0 0  and 4 0 1 0 
 # max = 349
2335881		 # 	collision with: 2 0 0 0  and 2 0 1 0 
 # max = 349
2335883		 # 	collision with: 0 0 0 0  and 1 0 1 0 
 # max = 349
2335886		 # 	collision with: 0 6 0 0  and 1 1 2 0 
 # max = 349
2335892		 # 	collision with: 2 1 0 0  and 6 3 1 0 
 # max = 349
2335894		 # 	collision with: 0 4 1 0  and 2 4 1 0 
 # max = 349
2335897		 # 	collision with: 3 3 0 0  and 4 3 0 0 
 # max = 349
2335899		 # 	collision with: 0 0 0 0  and 1 0 1 0 
 # max = 349
2335920		 # 	collision with: 3 1 1 0  and 3 1 2 0 
 # max = 349
2335922		 # 	collision with: 0 0 0 0  and 1 0 1 0 
 # max = 349
2335924		 # 	collision with: 3 3 0 0  and 4 3 0 0 
 # max = 349
2335926		 # 	collision with: 0 0 0 0  and 1 0 1 0 
 # max = 349
2335928		 # 	collision with: 3 5 0 0  and 1 5 1 0 
 # max = 349
2335930		 # 	collision with: 1 6 0 0  and 2 2 2 0 
 # max = 349
2335960		 # 	collision with: 3 3 0 0  and 4 3 0 0 
 # max = 349
2335962		 # 	collision with: 2 2 0 0  and 3 1 2 0 
 # max = 349
2335964		 # 	collision with: 3 0 0 0  and 3 0 1 0 
 # max = 349
2335966		 # 	collision with: 1 1 1 0  and 2 1 1 0 
 # max = 349
2335989		 # 	collision with: 3 3 0 0  and 4 3 0 0 
 # max = 349
2335991		 # 	collision with: 0 0 1 0  and 1 0 1 0 
 # max = 349
2335992		 # 	collision with: 5 0 0 0  and 5 0 1 0 
 # max = 349
2335994		 # 	collision with: 5 5 0 0  and 3 1 1 0 
 # max = 349
2336002		 # 	collision with: 3 2 0 0  and 0 1 1 0 
 # max = 349
2336005		 # 	collision with: 1 1 1 0  and 2 1 1 0 
 # max = 349
2336007		 # 	collision with: 0 0 1 0  and 1 0 1 0 
 # max = 349
2336017		 # 	collision with: 3 3 0 0  and 4 3 0 0 
 # max = 349
2336019		 # 	collision with: 3 0 0 0  and 3 0 1 0 
 # max = 349
2336024		 # 	collision with: 0 0 1 0  and 1 0 1 0 
 # max = 349
2336026		 # 	collision with: 5 0 0 0  and 4 3 1 0 
 # max = 349
2336036		 # 	collision with: 0 0 1 0  and 1 0 1 0 
 # max = 349
2336044		 # 	collision with: 3 3 0 0  and 4 3 0 0 
 # max = 349
2336046		 # 	collision with: 3 4 1 0  and 5 3 2 0 
 # max = 349
2336056		 # 	collision with: 6 0 0 0  and 6 0 1 0 
 # max = 349
2336058		 # 	collision with: 3 2 0 0  and 0 1 1 0 
 # max = 349
2336065		 # 	collision with: 1 1 1 0  and 1 3 1 0 
 # max = 349
2336077		 # 	collision with: 6 1 0 0  and 6 2 0 0 
 # max = 349
2336079		 # 	collision with: 6 0 0 0  and 6 0 1 0 
 # max = 349
2336080		 # 	collision with: 2 0 0 0  and 2 0 1 0 
 # max = 349
2336082		 # 	collision with: 0 0 0 0  and 1 0 1 0 
 # max = 349
2336090		 # 	collision with: 2 2 0 0  and 3 2 0 0 
 # max = 349
2336093		 # 	collision with: 0 0 0 0  and 1 0 1 0 
 # max = 349
2336116		 # 	collision with: 0 0 0 0  and 1 0 1 0 
 # max = 349
2336118		 # 	collision with: 2 2 0 0  and 3 2 0 0 
 # max = 349
2336120		 # 	collision with: 0 0 0 0  and 1 0 1 0 
 # max = 349
2336124		 # 	collision with: 5 6 0 0  and 1 6 1 0 
 # max = 349
2336126		 # 	collision with: 6 1 0 0  and 4 1 1 0 
 # max = 349
2336158		 # 	collision with: 2 2 0 0  and 3 2 0 0 
 # max = 349
2336160		 # 	collision with: 4 0 1 0  and 4 2 1 0 
 # max = 349
2336162		 # 	collision with: 2 0 0 0  and 2 0 1 0 
 # max = 349
2336185		 # 	collision with: 2 0 1 0  and 2 1 1 0 
 # max = 349
2336187		 # 	collision with: 4 2 2 0  and 1 0 3 0 
 # max = 349
2336188		 # 	collision with: 2 0 1 0  and 1 1 1 0 
 # max = 349
2336190		 # 	collision with: 0 0 1 0  and 1 0 1 0 
 # max = 349
2336196		 # 	collision with: 2 0 1 0  and 5 2 2 0 
 # max = 349
2336201		 # 	collision with: 4 0 0 0  and 4 2 0 0 
 # max = 349
2336203		 # 	collision with: 5 6 0 0  and 2 2 1 0 
 # max = 349
2336213		 # 	collision with: 2 0 1 0  and 2 1 1 0 
 # max = 349
2336215		 # 	collision with: 0 0 0 0  and 1 0 1 0 
 # max = 349
2336220		 # 	collision with: 3 3 0 0  and 4 3 0 0 
 # max = 349
2336222		 # 	collision with: 3 0 0 0  and 3 0 1 0 
 # max = 349
2336232		 # 	collision with: 4 1 0 0  and 6 1 2 0 
 # max = 349
2336234		 # 	collision with: 3 0 0 0  and 3 0 1 0 
 # max = 349
2336240		 # 	collision with: 3 6 0 0  and 4 5 1 0 
 # max = 349
2336242		 # 	collision with: 2 2 0 0  and 3 2 0 0 
 # max = 349
2336252		 # 	collision with: 1 1 0 0  and 3 6 1 0 
 # max = 349
2336261		 # 	collision with: 2 0 0 0  and 5 2 0 0 
 # max = 349
2336263		 # 	collision with: 1 4 0 0  and 1 5 0 0 
 # max = 349
2336273		 # 	collision with: 4 3 0 0  and 2 2 2 0 
 # max = 349
2336275		 # 	collision with: 2 2 0 0  and 3 2 0 0 
 # max = 349
2336276		 # 	collision with: 3 3 0 0  and 4 3 0 0 
 # max = 349
2336278		 # 	collision with: 6 0 0 0  and 6 0 1 0 
 # max = 349
2336284		 # 	collision with: 0 0 0 0  and 1 0 1 0 
 # max = 349
2336286		 # 	collision with: 6 0 0 0  and 6 0 1 0 
 # max = 349
2336289		 # 	collision with: 2 0 0 0  and 5 2 0 0 
 # max = 349
2336291		 # 	collision with: 1 4 0 0  and 1 5 0 0 
 # max = 349
2336314		 # 	collision with: 5 0 0 0  and 5 0 1 0 
 # max = 349
2336316		 # 	collision with: 2 3 0 0  and 4 2 1 0 
 # max = 349
2336318		 # 	collision with: 5 0 0 0  and 5 0 1 0 
 # max = 349
2336320		 # 	collision with: 5 5 0 0  and 1 0 2 0 
 # max = 349
2336322		 # 	collision with: 6 4 0 0  and 3 4 1 0 
 # max = 349
2336352		 # 	collision with: 2 0 1 0  and 2 1 1 0 
 # max = 349
2336354		 # 	collision with: 1 0 1 0  and 1 2 1 0 
 # max = 349
2336356		 # 	collision with: 5 4 0 0  and 6 3 1 0 
 # max = 349
2336383		 # 	collision with: 0 0 0 0  and 1 0 1 0 
 # max = 349
2336384		 # 	collision with: 1 3 0 0  and 5 4 1 0 
 # max = 349
2336392		 # 	collision with: 1 4 0 0  and 5 1 1 0 
 # max = 349
2336394		 # 	collision with: 2 2 0 0  and 3 2 0 0 
 # max = 349
2336397		 # 	collision with: 3 3 0 0  and 4 3 0 0 
 # max = 349
2336399		 # 	collision with: 2 2 0 0  and 3 2 0 0 
 # max = 349
2336409		 # 	collision with: 0 0 0 0  and 1 0 1 0 
 # max = 349
2336411		 # 	collision with: 2 6 1 0  and 4 6 1 0 
 # max = 349
2336416		 # 	collision with: 5 5 0 0  and 5 1 1 0 
 # max = 349
2336418		 # 	collision with: 0 0 0 0  and 1 0 1 0 
 # max = 349
2336430		 # 	collision with: 0 0 0 0  and 1 0 1 0 
 # max = 349
2336436		 # 	collision with: 0 0 0 0  and 1 0 1 0 
 # max = 349
2336438		 # 	collision with: 4 0 1 0  and 0 1 1 0 
 # max = 349
2336450		 # 	collision with: 2 2 0 0  and 3 2 0 0 
 # max = 349
2336457		 # 	collision with: 4 5 0 0  and 1 1 1 0 
 # max = 349
2336459		 # 	collision with: 4 1 0 0  and 2 0 1 0 
 # max = 349
2336472		 # 	collision with: 5 1 1 0  and 0 0 2 0 
 # max = 349
2336474		 # 	collision with: 3 1 0 0  and 6 3 1 0 
 # max = 349
2336480		 # 	collision with: 3 3 0 0  and 4 3 0 0 
 # max = 349
2336482		 # 	collision with: 3 4 0 0  and 3 6 1 0 
 # max = 349
2336485		 # 	collision with: 2 1 0 0  and 1 1 2 0 
 # max = 349
2336487		 # 	collision with: 1 1 0 0  and 2 1 2 0 
 # max = 349
2336508		 # 	collision with: 3 3 0 0  and 4 3 0 0 
 # max = 349
2336510		 # 	collision with: 4 5 0 0  and 0 0 2 0 
 # max = 349
2336512		 # 	collision with: 6 2 0 0  and 6 1 1 0 
 # max = 349
2336514		 # 	collision with: 0 4 0 0  and 3 2 1 0 
 # max = 349
2336516		 # 	collision with: 1 1 0 0  and 1 3 0 0 
 # max = 349
2336517		 # 	collision with: 3 3 0 0  and 4 3 0 0 
 # max = 349
2336518		 # 	collision with: 2 1 0 0  and 3 1 0 0 
 # max = 349
2336519		 # 	collision with: 5 3 1 0  and 0 4 1 0 
 # max = 349
2336564		 # 	collision with: 2 0 0 0  and 5 2 0 0 
 # max = 349
2336565		 # 	collision with: 4 0 1 0  and 4 2 1 0 
 # max = 349
2336566		 # 	collision with: 2 2 0 0  and 2 4 0 0 
 # max = 349
2336567		 # 	collision with: 6 3 0 0  and 6 5 1 0 
 # max = 349
2336584		 # 	collision with: 2 0 0 0  and 2 1 0 0 
 # max = 349
2336585		 # 	collision with: 3 1 0 0  and 3 4 1 0 
 # max = 349
2336586		 # 	collision with: 3 1 0 0  and 3 2 0 0 
 # max = 349
2336587		 # 	collision with: 3 2 0 0  and 3 2 1 0 
 # max = 349
2336604		 # 	collision with: 4 0 0 0  and 4 2 0 0 
 # max = 349
2336605		 # 	collision with: 2 1 0 0  and 2 0 1 0 
 # max = 349
2336606		 # 	collision with: 6 0 0 0  and 6 1 0 0 
 # max = 349
2336607		 # 	collision with: 4 2 1 0  and 2 4 1 0 
 # max = 349
2336652		 # 	collision with: 6 0 0 0  and 1 1 0 0 
 # max = 349
2336653		 # 	collision with: 5 0 1 0  and 1 1 1 0 
 # max = 349
2336654		 # 	collision with: 5 3 0 0  and 0 4 0 0 
 # max = 349
2336655		 # 	collision with: 6 0 1 0  and 6 1 1 0 
 # max = 349
2336672		 # 	collision with: 3 2 0 0  and 3 3 0 0 
 # max = 349
2336673		 # 	collision with: 4 5 0 0  and 4 5 1 0 
 # max = 349
2336674		 # 	collision with: 2 1 0 0  and 3 2 0 0 
 # max = 349
2336675		 # 	collision with: 4 5 0 0  and 5 5 1 0 
 # max = 349
2336692		 # 	collision with: 2 1 0 0  and 5 2 0 0 
 # max = 349
2336693		 # 	collision with: 4 5 0 0  and 0 1 1 0 
 # max = 349
2336694		 # 	collision with: 4 3 0 0  and 4 4 0 0 
 # max = 349
2336695		 # 	collision with: 2 1 0 0  and 3 1 0 0 
 # max = 349
2336712		 # 	collision with: 2 4 0 0  and 3 3 1 0 
 # max = 349
2336713		 # 	collision with: 1 6 0 0  and 2 2 1 0 
 # max = 349
2336714		 # 	collision with: 5 2 0 0  and 4 3 2 0 
 # max = 349
2336715		 # 	collision with: 2 2 2 0  and 2 4 2 0 
 # max = 349
2336760		 # 	collision with: 2 1 1 0  and 3 1 1 0 
 # max = 349
2336761		 # 	collision with: 2 0 1 0  and 3 1 1 0 
 # max = 349
2336762		 # 	collision with: 5 3 0 0  and 1 5 1 0 
 # max = 349
2336763		 # 	collision with: 2 2 0 0  and 2 4 0 0 
 # max = 349
2336780		 # 	collision with: 1 6 1 0  and 2 6 1 0 
 # max = 349
2336781		 # 	collision with: 6 1 1 0  and 6 2 1 0 
 # max = 349
2336782		 # 	collision with: 3 2 0 0  and 3 2 1 0 
 # max = 349
2336783		 # 	collision with: 1 2 0 0  and 5 2 1 0 
 # max = 349
2336800		 # 	collision with: 2 1 0 0  and 2 0 1 0 
 # max = 349
2336801		 # 	collision with: 0 5 2 0  and 2 5 2 0 
 # max = 349
2336802		 # 	collision with: 3 1 0 0  and 4 0 1 0 
 # max = 349
2336803		 # 	collision with: 2 1 0 0  and 3 1 0 0 
 # max = 349
2336848		 # 	collision with: 6 1 1 0  and 0 2 1 0 
 # max = 349
2336849		 # 	collision with: 3 1 0 0  and 3 1 1 0 
 # max = 349
2336850		 # 	collision with: 2 1 0 0  and 3 1 0 0 
 # max = 349
2336851		 # 	collision with: 3 3 0 0  and 1 2 1 0 
 # max = 349
2336868		 # 	collision with: 3 0 0 0  and 0 4 1 0 
 # max = 349
2336869		 # 	collision with: 6 0 0 0  and 1 1 1 0 
 # max = 349
2336870		 # 	collision with: 6 4 0 0  and 5 6 2 0 
 # max = 349
2336871		 # 	collision with: 5 0 0 0  and 6 1 1 0 
 # max = 349
2336888		 # 	collision with: 3 3 0 0  and 4 3 0 0 
 # max = 349
2336889		 # 	collision with: 3 3 0 0  and 4 3 0 0 
 # max = 349
2336890		 # 	collision with: 6 1 0 0  and 5 0 1 0 
 # max = 349
2336891		 # 	collision with: 4 1 1 0  and 4 1 2 0 
 # max = 349
2336908		 # 	collision with: 6 1 0 0  and 0 5 2 0 
 # max = 349
2336909		 # 	collision with: 3 2 1 0  and 3 3 1 0 
 # max = 349
2336910		 # 	collision with: 2 3 1 0  and 5 3 3 0 
 # max = 349
2336911		 # 	collision with: 2 1 0 0  and 3 1 0 0 
 # max = 349
2336956		 # 	collision with: 0 4 0 0  and 1 0 1 0 
 # max = 349
2336957		 # 	collision with: 0 3 0 0  and 3 0 1 0 
 # max = 349
2336958		 # 	collision with: 2 1 0 0  and 3 1 0 0 
 # max = 349
2336959		 # 	collision with: 2 5 1 0  and 2 1 2 0 
 # max = 349
2336976		 # 	collision with: 4 1 1 0  and 6 0 2 0 
 # max = 349
2336977		 # 	collision with: 0 3 0 0  and 3 5 2 0 
 # max = 349
2336978		 # 	collision with: 4 5 0 0  and 5 6 1 0 
 # max = 349
2336979		 # 	collision with: 3 0 1 0  and 5 2 1 0 
 # max = 349
2336996		 # 	collision with: 1 4 1 0  and 3 0 2 0 
 # max = 349
2336997		 # 	collision with: 1 2 0 0  and 2 0 1 0 
 # max = 349
2336998		 # 	collision with: 2 2 1 0  and 4 2 1 0 
 # max = 349
2336999		 # 	collision with: 3 3 0 0  and 1 0 1 0 
 # max = 349
2337044		 # 	collision with: 3 1 0 0  and 3 1 1 0 
 # max = 349
2337045		 # 	collision with: 6 3 0 0  and 5 0 1 0 
 # max = 349
2337046		 # 	collision with: 2 3 0 0  and 1 5 1 0 
 # max = 349
2337047		 # 	collision with: 1 1 0 0  and 1 1 1 0 
 # max = 349
2337064		 # 	collision with: 3 3 0 0  and 4 3 0 0 
 # max = 349
2337065		 # 	collision with: 3 2 0 0  and 3 3 0 0 
 # max = 349
2337066		 # 	collision with: 4 3 0 0  and 1 2 1 0 
 # max = 349
2337067		 # 	collision with: 1 2 0 0  and 4 3 0 0 
 # max = 349
2337084		 # 	collision with: 0 4 0 0  and 3 0 1 0 
 # max = 349
2337085		 # 	collision with: 4 1 1 0  and 6 0 2 0 
 # max = 349
2337086		 # 	collision with: 3 3 1 0  and 4 3 1 0 
 # max = 349
2337087		 # 	collision with: 3 3 1 0  and 4 3 1 0 
 # max = 349
2337104		 # 	collision with: 0 3 0 0  and 6 5 1 0 
 # max = 349
2337105		 # 	collision with: 1 1 0 0  and 1 3 0 0 
 # max = 349
2337106		 # 	collision with: 6 4 0 0  and 5 6 1 0 
 # max = 349
2337107		 # 	collision with: 5 1 0 0  and 5 3 0 0 
 # max = 349
2337152		 # 	collision with: 4 4 0 0  and 4 4 1 0 
 # max = 349
2337153		 # 	collision with: 2 1 1 0  and 3 1 1 0 
 # max = 349
2337154		 # 	collision with: 4 2 0 0  and 4 5 1 0 
 # max = 349
2337155		 # 	collision with: 3 2 0 0  and 3 1 1 0 
 # max = 349
2337172		 # 	collision with: 5 2 0 0  and 2 0 2 0 
 # max = 349
2337173		 # 	collision with: 0 4 1 0  and 1 0 2 0 
 # max = 349
2337174		 # 	collision with: 3 5 0 0  and 2 0 1 0 
 # max = 349
2337175		 # 	collision with: 4 0 0 0  and 2 5 1 0 
 # max = 349
2337192		 # 	collision with: 1 6 0 0  and 2 6 1 0 
 # max = 349
2337193		 # 	collision with: 6 5 0 0  and 0 4 1 0 
 # max = 349
2337194		 # 	collision with: 3 3 0 0  and 5 2 1 0 
 # max = 349
2337195		 # 	collision with: 2 2 1 0  and 4 2 1 0 
 # max = 349
2337240		 # 	collision with: 3 3 0 0  and 4 3 0 0 
 # max = 349
2337241		 # 	collision with: 3 3 0 0  and 4 3 0 0 
 # max = 349
2337242		 # 	collision with: 1 0 1 0  and 3 0 1 0 
 # max = 349
2337243		 # 	collision with: 2 1 0 0  and 3 1 0 0 
 # max = 349
2337260		 # 	collision with: 2 0 1 0  and 2 1 1 0 
 # max = 349
2337261		 # 	collision with: 6 1 1 0  and 0 5 2 0 
 # max = 349
2337262		 # 	collision with: 2 1 0 0  and 3 1 0 0 
 # max = 349
2337263		 # 	collision with: 3 3 0 0  and 5 2 2 0 
 # max = 349
2337280		 # 	collision with: 4 3 0 0  and 3 3 1 0 
 # max = 349
2337281		 # 	collision with: 1 1 0 0  and 6 3 0 0 
 # max = 349
2337282		 # 	collision with: 3 0 0 0  and 4 4 1 0 
 # max = 349
2337283		 # 	collision with: 0 1 0 0  and 5 3 0 0 
 # max = 349
2337300		 # 	collision with: 6 5 0 0  and 0 3 1 0 
 # max = 349
2337301		 # 	collision with: 1 3 1 0  and 5 0 3 0 
 # max = 349
2337302		 # 	collision with: 0 2 1 0  and 6 6 2 0 
 # max = 349
2337303		 # 	collision with: 2 1 0 0  and 3 2 0 0 
 # max = 349
2337348		 # 	collision with: 3 3 0 0  and 3 2 1 0 
 # max = 349
2337349		 # 	collision with: 6 1 0 0  and 6 2 0 0 
 # max = 349
2337350		 # 	collision with: 3 4 0 0  and 3 4 1 0 
 # max = 349
2337351		 # 	collision with: 2 1 0 0  and 3 1 0 0 
 # max = 349
2337368		 # 	collision with: 1 2 0 0  and 3 1 1 0 
 # max = 349
2337369		 # 	collision with: 5 0 1 0  and 1 1 3 0 
 # max = 349
2337370		 # 	collision with: 2 1 0 0  and 3 1 0 0 
 # max = 349
2337371		 # 	collision with: 3 1 0 0  and 3 2 0 0 
 # max = 349
2337388		 # 	collision with: 3 3 0 0  and 4 3 0 0 
 # max = 349
2337389		 # 	collision with: 3 3 0 0  and 4 3 0 0 
 # max = 349
2337390		 # 	collision with: 1 2 0 0  and 1 0 1 0 
 # max = 349
2337391		 # 	collision with: 1 1 0 0  and 0 3 2 0 
 # max = 349
2337436		 # 	collision with: 6 6 1 0  and 6 4 3 0 
 # max = 349
2337437		 # 	collision with: 3 2 0 0  and 4 3 1 0 
 # max = 349
2337438		 # 	collision with: 3 2 0 0  and 0 0 1 0 
 # max = 349
2337439		 # 	collision with: 5 1 1 0  and 5 3 1 0 
 # max = 349
2337456		 # 	collision with: 3 0 0 0  and 0 3 2 0 
 # max = 349
2337457		 # 	collision with: 2 1 0 0  and 5 2 0 0 
 # max = 349
2337458		 # 	collision with: 3 6 2 0  and 6 0 3 0 
 # max = 349
2337459		 # 	collision with: 6 0 0 0  and 3 4 1 0 
 # max = 349
2337476		 # 	collision with: 4 2 0 0  and 4 2 2 0 
 # max = 349
2337477		 # 	collision with: 5 3 0 0  and 5 3 1 0 
 # max = 349
2337478		 # 	collision with: 1 2 0 0  and 3 0 1 0 
 # max = 349
2337479		 # 	collision with: 0 0 0 0  and 2 5 1 0 
 # max = 349
2337496		 # 	collision with: 0 1 0 0  and 5 5 1 0 
 # max = 349
2337497		 # 	collision with: 2 0 0 0  and 5 2 0 0 
 # max = 349
2337498		 # 	collision with: 4 3 1 0  and 5 2 2 0 
 # max = 349
2337499		 # 	collision with: 0 6 2 0  and 3 4 3 0 
 # max = 349
2337544		 # 	collision with: 5 0 0 0  and 1 1 2 0 
 # max = 349
2337545		 # 	collision with: 4 1 1 0  and 1 3 1 0 
 # max = 349
2337546		 # 	collision with: 4 0 0 0  and 3 2 1 0 
 # max = 349
2337547		 # 	collision with: 0 4 2 0  and 1 4 2 0 
 # max = 349
2337564		 # 	collision with: 3 3 0 0  and 4 3 0 0 
 # max = 349
2337565		 # 	collision with: 3 3 0 0  and 4 3 0 0 
 # max = 349
2337566		 # 	collision with: 3 5 1 0  and 2 0 2 0 
 # max = 349
2337567		 # 	collision with: 0 1 0 0  and 2 3 1 0 
 # max = 349
2337584		 # 	collision with: 5 2 1 0  and 3 1 2 0 
 # max = 349
2337585		 # 	collision with: 4 0 0 0  and 4 2 0 0 
 # max = 349
2337586		 # 	collision with: 1 1 0 0  and 0 3 1 0 
 # max = 349
2337587		 # 	collision with: 4 4 0 0  and 3 0 1 0 
 # max = 349
2337632		 # 	collision with: 2 2 1 0  and 4 2 1 0 
 # max = 349
2337633		 # 	collision with: 0 4 0 0  and 1 0 1 0 
 # max = 349
2337634		 # 	collision with: 0 2 1 0  and 4 1 2 0 
 # max = 349
2337635		 # 	collision with: 3 1 1 0  and 3 2 1 0 
 # max = 349
2337652		 # 	collision with: 6 3 0 0  and 5 0 1 0 
 # max = 349
2337653		 # 	collision with: 1 0 1 0  and 3 0 1 0 
 # max = 349
2337654		 # 	collision with: 1 3 0 0  and 2 0 1 0 
 # max = 349
2337655		 # 	collision with: 2 1 0 0  and 3 1 0 0 
 # max = 349
2337672		 # 	collision with: 1 1 1 0  and 1 3 1 0 
 # max = 349
2337673		 # 	collision with: 1 0 2 0  and 3 0 2 0 
 # max = 349
2337674		 # 	collision with: 2 1 0 0  and 3 1 0 0 
 # max = 349
2337675		 # 	collision with: 6 3 0 0  and 6 3 1 0 
 # max = 349
2337692		 # 	collision with: 4 6 1 0  and 2 4 2 0 
 # max = 349
2337693		 # 	collision with: 1 1 0 0  and 6 3 1 0 
 # max = 349
2337694		 # 	collision with: 6 2 0 0  and 1 1 2 0 
 # max = 349
2337695		 # 	collision with: 3 0 0 0  and 3 3 1 0 
 # max = 349
2337740		 # 	collision with: 3 3 0 0  and 4 3 0 0 
 # max = 349
2337741		 # 	collision with: 3 3 0 0  and 4 3 0 0 
 # max = 349
2337742		 # 	collision with: 4 6 0 0  and 1 1 2 0 
 # max = 349
2337743		 # 	collision with: 4 1 1 0  and 6 2 1 0 
 # max = 349
2337760		 # 	collision with: 4 3 1 0  and 4 3 2 0 
 # max = 349
2337761		 # 	collision with: 2 0 0 0  and 2 1 0 0 
 # max = 349
2337762		 # 	collision with: 4 1 0 0  and 4 6 1 0 
 # max = 349
2337763		 # 	collision with: 2 1 0 0  and 3 1 0 0 
 # max = 349
2337780		 # 	collision with: 5 6 0 0  and 5 0 1 0 
 # max = 349
2337781		 # 	collision with: 6 0 0 0  and 1 1 0 0 
 # max = 349
2337782		 # 	collision with: 2 1 0 0  and 3 1 0 0 
 # max = 349
2337783		 # 	collision with: 6 0 0 0  and 6 1 0 0 
 # max = 349
2337828		 # 	collision with: 2 4 0 0  and 4 6 1 0 
 # max = 349
2337829		 # 	collision with: 2 2 1 0  and 4 2 1 0 
 # max = 349
2337830		 # 	collision with: 4 0 0 0  and 3 2 2 0 
 # max = 349
2337831		 # 	collision with: 1 0 1 0  and 3 0 1 0 
 # max = 349
2337848		 # 	collision with: 3 1 0 0  and 3 1 2 0 
 # max = 349
2337849		 # 	collision with: 5 5 0 0  and 3 6 1 0 
 # max = 349
2337850		 # 	collision with: 6 0 2 0  and 6 1 2 0 
 # max = 349
2337851		 # 	collision with: 1 4 1 0  and 5 3 2 0 
 # max = 349
2337868		 # 	collision with: 6 4 0 0  and 6 6 2 0 
 # max = 349
2337869		 # 	collision with: 0 0 0 0  and 2 2 1 0 
 # max = 349
2337870		 # 	collision with: 6 3 0 0  and 6 3 1 0 
 # max = 349
2337871		 # 	collision with: 3 5 0 0  and 6 3 1 0 
 # max = 349
2337897		 # 	collision with: 0 2 1 0  and 1 0 2 0 
 # max = 349
2337899		 # 	collision with: 4 3 0 0  and 4 4 0 0 
 # max = 349
2337909		 # 	collision with: 2 0 1 0  and 5 2 1 0 
 # max = 349
2337911		 # 	collision with: 4 3 0 0  and 2 0 1 0 
 # max = 349
2337921		 # 	collision with: 6 5 0 0  and 6 5 1 0 
 # max = 349
2337923		 # 	collision with: 0 0 0 0  and 1 3 1 0 
 # max = 349
2337925		 # 	collision with: 2 1 0 0  and 5 2 2 0 
 # max = 349
2337927		 # 	collision with: 4 3 0 0  and 4 4 0 0 
 # max = 349
2337979		 # 	collision with: 2 5 1 0  and 4 5 1 0 
 # max = 349
2338027		 # 	collision with: 0 3 0 0  and 6 1 1 0 
 # max = 349
2338077		 # 	collision with: 3 5 1 0  and 3 0 2 0 
 # max = 349
2338079		 # 	collision with: 3 3 1 0  and 4 3 1 0 
 # max = 349
2338081		 # 	collision with: 3 1 0 0  and 0 3 1 0 
 # max = 349
2338083		 # 	collision with: 6 4 0 0  and 2 0 1 0 
 # max = 349
2338084		 # 	collision with: 6 1 1 0  and 2 0 3 0 
 # max = 349
2338086		 # 	collision with: 4 6 0 0  and 2 4 1 0 
 # max = 349
2338093		 # 	collision with: 3 3 0 0  and 4 3 0 0 
 # max = 349
14.0227secs	349 9832
