# prime 7
# degree 2
# input variables 3
# output variables 4
# reload computed balance functions from file balance-170of320-p7d2m3-debug.log
# p = 7
# n = 4
# smalldomain p^m 343
# domain p^n 2401
#	 p^2 = 49
#	 p^3 = 343
#	 p^4 = 2401
#	 p^5 = 16807
#	 p^6 = 117649
#	 p^7 = 823543
#	 p^8 = 5764801
#	 p^9 = 40353607
opening file : balance-170of320-p7d2m3-debug.log
reloading for step2...
1751004		 # 	collision with: 2 0 0 0  and 3 4 1 0 
 # max = 80
1751006		 # 	collision with: 2 0 1 0  and 2 2 1 0 
 # max = 80
1751020		 # 	collision with: 1 1 0 0  and 5 2 1 0 
 # max = 80
1751022		 # 	collision with: 1 1 0 0  and 2 2 1 0 
 # max = 80
1751024		 # 	collision with: 3 1 0 0  and 4 2 2 0 
 # max = 116
1751026		 # 	collision with: 4 4 0 0  and 4 5 1 0 
 # max = 116
1751044		 # 	collision with: 6 3 0 0  and 1 1 1 0 
 # max = 116
1751046		 # 	collision with: 0 4 1 0  and 4 2 3 0 
 # max = 165
1751058		 # 	collision with: 1 4 0 0  and 4 0 2 0 
 # max = 165
1751064		 # 	collision with: 6 4 0 0  and 3 2 2 0 
 # max = 165
1751066		 # 	collision with: 3 6 1 0  and 2 4 2 0 
 # max = 165
1751069		 # 	collision with: 5 0 1 0  and 0 5 2 0 
 # max = 165
1751071		 # 	collision with: 0 0 0 0  and 1 0 1 0 
 # max = 165
1751089		 # 	collision with: 3 2 0 0  and 5 2 2 0 
 # max = 165
1751091		 # 	collision with: 0 0 0 0  and 1 0 1 0 
 # max = 165
1751100		 # 	collision with: 3 2 0 0  and 1 1 1 0 
 # max = 165
1751102		 # 	collision with: 0 0 0 0  and 1 0 1 0 
 # max = 165
1751112		 # 	collision with: 3 0 0 0  and 1 2 1 0 
 # max = 165
1751114		 # 	collision with: 0 0 0 0  and 1 0 1 0 
 # max = 165
1751134		 # 	collision with: 3 1 0 0  and 0 6 1 0 
 # max = 165
1751136		 # 	collision with: 0 0 0 0  and 1 0 1 0 
 # max = 165
1751138		 # 	collision with: 1 2 0 0  and 0 0 2 0 
 # max = 165
1751152		 # 	collision with: 6 3 0 0  and 3 2 1 0 
 # max = 165
1751154		 # 	collision with: 0 2 1 0  and 1 2 1 0 
 # max = 165
1751163		 # 	collision with: 6 0 0 0  and 2 2 1 0 
 # max = 165
1751165		 # 	collision with: 5 2 0 0  and 2 3 0 0 
 # max = 165
1751172		 # 	collision with: 5 4 1 0  and 6 0 2 0 
 # max = 165
1751174		 # 	collision with: 0 5 1 0  and 1 5 1 0 
 # max = 165
1751180		 # 	collision with: 0 1 1 0  and 1 1 1 0 
 # max = 165
1751182		 # 	collision with: 5 3 0 0  and 1 2 1 0 
 # max = 165
1751191		 # 	collision with: 4 0 1 0  and 4 2 1 0 
 # max = 165
1751193		 # 	collision with: 5 2 0 0  and 2 3 0 0 
 # max = 165
1751195		 # 	collision with: 4 1 1 0  and 0 2 2 0 
 # max = 165
1751200		 # 	collision with: 0 6 1 0  and 1 6 1 0 
 # max = 165
1751202		 # 	collision with: 5 4 0 0  and 2 1 1 0 
 # max = 165
1751218		 # 	collision with: 3 1 0 0  and 0 6 1 0 
 # max = 165
1751220		 # 	collision with: 0 3 0 0  and 4 1 1 0 
 # max = 165
1751222		 # 	collision with: 1 2 0 0  and 0 0 2 0 
 # max = 165
1751240		 # 	collision with: 3 2 1 0  and 2 3 2 0 
 # max = 165
1751242		 # 	collision with: 2 4 0 0  and 3 3 2 0 
 # max = 165
1751252		 # 	collision with: 3 2 1 0  and 2 3 1 0 
 # max = 165
1751260		 # 	collision with: 1 1 0 0  and 0 1 1 0 
 # max = 165
1751262		 # 	collision with: 0 0 0 0  and 1 0 1 0 
 # max = 165
1751285		 # 	collision with: 0 0 0 0  and 1 0 1 0 
 # max = 165
1751287		 # 	collision with: 4 2 0 0  and 0 4 2 0 
 # max = 165
1751296		 # 	collision with: 0 0 0 0  and 1 0 1 0 
 # max = 165
1751298		 # 	collision with: 6 0 2 0  and 6 2 2 0 
 # max = 165
1751308		 # 	collision with: 0 0 0 0  and 1 0 1 0 
 # max = 165
1751310		 # 	collision with: 1 2 0 0  and 5 6 1 0 
 # max = 165
1751328		 # 	collision with: 2 0 0 0  and 2 0 1 0 
 # max = 165
1751330		 # 	collision with: 0 4 0 0  and 4 2 1 0 
 # max = 165
1751332		 # 	collision with: 2 0 0 0  and 2 0 1 0 
 # max = 165
1751350		 # 	collision with: 0 1 1 0  and 1 1 1 0 
 # max = 165
1751357		 # 	collision with: 5 6 0 0  and 4 2 2 0 
 # max = 165
1751359		 # 	collision with: 0 0 1 0  and 1 0 1 0 
 # max = 165
1751361		 # 	collision with: 4 3 1 0  and 4 4 1 0 
 # max = 165
1751363		 # 	collision with: 0 0 1 0  and 1 0 1 0 
 # max = 165
1751368		 # 	collision with: 6 0 0 0  and 6 0 1 0 
 # max = 165
1751370		 # 	collision with: 0 3 0 0  and 3 1 1 0 
 # max = 165
1751378		 # 	collision with: 1 3 1 0  and 1 3 2 0 
 # max = 165
1751385		 # 	collision with: 0 2 1 0  and 1 2 1 0 
 # max = 165
1751387		 # 	collision with: 6 0 0 0  and 6 0 1 0 
 # max = 165
1751389		 # 	collision with: 4 3 1 0  and 4 4 1 0 
 # max = 165
1751391		 # 	collision with: 6 0 0 0  and 6 0 1 0 
 # max = 165
1751396		 # 	collision with: 0 0 1 0  and 1 0 1 0 
 # max = 165
1751398		 # 	collision with: 1 5 0 0  and 1 4 1 0 
 # max = 165
1751412		 # 	collision with: 5 0 0 0  and 5 0 1 0 
 # max = 165
1751414		 # 	collision with: 4 6 0 0  and 3 0 2 0 
 # max = 165
1751416		 # 	collision with: 5 0 0 0  and 5 0 1 0 
 # max = 165
1751418		 # 	collision with: 4 1 1 0  and 1 2 1 0 
 # max = 165
1751436		 # 	collision with: 3 0 0 0  and 3 0 1 0 
 # max = 165
1751438		 # 	collision with: 6 4 0 0  and 4 1 1 0 
 # max = 165
1751448		 # 	collision with: 3 0 0 0  and 3 0 1 0 
 # max = 165
1751450		 # 	collision with: 5 3 1 0  and 4 1 2 0 
 # max = 165
1751456		 # 	collision with: 0 0 0 0  and 1 0 1 0 
 # max = 165
1751458		 # 	collision with: 1 1 0 0  and 0 1 1 0 
 # max = 165
1751461		 # 	collision with: 6 3 0 0  and 5 2 1 0 
 # max = 165
1751463		 # 	collision with: 5 0 1 0  and 5 2 1 0 
 # max = 165
1751492		 # 	collision with: 3 2 1 0  and 1 1 2 0 
 # max = 165
1751494		 # 	collision with: 3 0 0 0  and 3 0 1 0 
 # max = 165
1751504		 # 	collision with: 0 6 0 0  and 5 5 1 0 
 # max = 165
1751506		 # 	collision with: 3 0 0 0  and 3 0 1 0 
 # max = 165
1751524		 # 	collision with: 3 3 1 0  and 3 4 1 0 
 # max = 165
1751526		 # 	collision with: 5 0 0 0  and 5 0 1 0 
 # max = 165
1751528		 # 	collision with: 0 5 2 0  and 1 5 2 0 
 # max = 165
1751530		 # 	collision with: 5 0 0 0  and 5 0 1 0 
 # max = 165
1751544		 # 	collision with: 1 1 0 0  and 5 5 1 0 
 # max = 165
1751546		 # 	collision with: 0 0 1 0  and 1 0 1 0 
 # max = 165
1751553		 # 	collision with: 5 3 0 0  and 6 0 1 0 
 # max = 165
1751555		 # 	collision with: 0 1 0 0  and 2 2 0 0 
 # max = 165
1751557		 # 	collision with: 3 1 0 0  and 4 2 0 0 
 # max = 165
1751559		 # 	collision with: 0 5 1 0  and 1 5 1 0 
 # max = 165
1751566		 # 	collision with: 0 0 1 0  and 1 0 1 0 
 # max = 165
1751572		 # 	collision with: 5 6 0 0  and 4 2 1 0 
 # max = 165
1751574		 # 	collision with: 6 0 0 0  and 6 0 1 0 
 # max = 165
1751581		 # 	collision with: 3 6 0 0  and 4 2 1 0 
 # max = 165
1751583		 # 	collision with: 0 1 0 0  and 2 2 0 0 
 # max = 165
1751585		 # 	collision with: 3 1 0 0  and 4 2 0 0 
 # max = 165
1751587		 # 	collision with: 3 0 2 0  and 3 2 2 0 
 # max = 165
1751594		 # 	collision with: 6 0 0 0  and 6 0 1 0 
 # max = 165
1751608		 # 	collision with: 0 1 1 0  and 3 2 1 0 
 # max = 165
1751612		 # 	collision with: 6 3 2 0  and 4 0 3 0 
 # max = 165
1751614		 # 	collision with: 2 0 0 0  and 2 0 1 0 
 # max = 165
1751632		 # 	collision with: 4 1 0 0  and 1 3 1 0 
 # max = 165
1751634		 # 	collision with: 0 0 0 0  and 1 0 1 0 
 # max = 165
1751644		 # 	collision with: 3 6 0 0  and 4 5 1 0 
 # max = 165
1751646		 # 	collision with: 0 0 0 0  and 1 0 1 0 
 # max = 165
1751652		 # 	collision with: 2 4 1 0  and 0 6 2 0 
 # max = 165
1751654		 # 	collision with: 0 6 1 0  and 3 1 2 0 
 # max = 165
1751657		 # 	collision with: 6 5 0 0  and 6 2 2 0 
 # max = 165
1751659		 # 	collision with: 5 0 0 0  and 5 2 0 0 
 # max = 165
1751677		 # 	collision with: 4 0 0 0  and 3 2 0 0 
 # max = 165
1751679		 # 	collision with: 2 0 0 0  and 2 2 0 0 
 # max = 165
1751688		 # 	collision with: 1 3 1 0  and 1 4 1 0 
 # max = 165
1751700		 # 	collision with: 2 3 1 0  and 2 3 3 0 
 # max = 170
1751702		 # 	collision with: 2 5 1 0  and 2 4 2 0 
 # max = 170
1751720		 # 	collision with: 5 1 0 0  and 4 5 1 0 
 # max = 170
1751722		 # 	collision with: 1 3 0 0  and 5 1 1 0 
 # max = 170
1751726		 # 	collision with: 1 2 1 0  and 1 0 2 0 
 # max = 170
1751740		 # 	collision with: 2 3 0 0  and 0 6 1 0 
 # max = 170
1751742		 # 	collision with: 0 6 1 0  and 1 6 1 0 
 # max = 170
1751749		 # 	collision with: 4 1 0 0  and 0 4 1 0 
 # max = 170
1751751		 # 	collision with: 4 0 0 0  and 4 2 0 0 
 # max = 170
1751755		 # 	collision with: 3 0 0 0  and 3 2 0 0 
 # max = 170
1751760		 # 	collision with: 3 4 0 0  and 3 3 2 0 
 # max = 170
1751762		 # 	collision with: 0 1 1 0  and 1 1 1 0 
 # max = 170
1751768		 # 	collision with: 0 5 1 0  and 1 5 1 0 
 # max = 170
1751770		 # 	collision with: 0 0 2 0  and 4 1 2 0 
 # max = 170
1751777		 # 	collision with: 1 1 0 0  and 5 2 1 0 
 # max = 170
1751783		 # 	collision with: 3 0 0 0  and 3 2 0 0 
 # max = 170
1751788		 # 	collision with: 0 2 1 0  and 1 2 1 0 
 # max = 170
1751790		 # 	collision with: 0 4 2 0  and 4 2 3 0 
 # max = 170
1751804		 # 	collision with: 6 2 0 0  and 4 3 1 0 
 # max = 170
1751806		 # 	collision with: 0 0 0 0  and 1 0 1 0 
 # max = 170
1751810		 # 	collision with: 0 0 0 0  and 1 0 1 0 
 # max = 170
1751828		 # 	collision with: 0 0 0 0  and 1 0 1 0 
 # max = 170
1751830		 # 	collision with: 6 0 1 0  and 6 2 1 0 
 # max = 170
1751840		 # 	collision with: 0 0 0 0  and 1 0 1 0 
 # max = 170
1751842		 # 	collision with: 1 2 0 0  and 4 1 1 0 
 # max = 170
1751848		 # 	collision with: 4 6 1 0  and 0 3 2 0 
 # max = 170
1751850		 # 	collision with: 1 1 3 0  and 3 0 1 1 
 # max = 395
1751853		 # 	collision with: 2 3 1 0  and 2 4 1 0 
 # max = 395
1751855		 # 	collision with: 4 6 0 0  and 4 3 1 0 
 # max = 395
1751873		 # 	collision with: 6 1 0 0  and 1 0 1 0 
 # max = 395
1751875		 # 	collision with: 2 0 1 0  and 2 2 1 0 
 # max = 395
1751886		 # 	collision with: 4 3 1 0  and 3 2 2 0 
 # max = 395
1751896		 # 	collision with: 3 2 0 0  and 2 3 1 0 
 # max = 395
1751898		 # 	collision with: 1 3 0 0  and 3 1 1 0 
 # max = 395
1751916		 # 	collision with: 4 1 0 0  and 0 3 1 0 
 # max = 395
1751918		 # 	collision with: 5 5 0 0  and 2 1 1 0 
 # max = 395
1751920		 # 	collision with: 0 1 2 0  and 1 1 2 0 
 # max = 395
1751922		 # 	collision with: 5 6 1 0  and 0 0 2 0 
 # max = 395
1751936		 # 	collision with: 4 0 0 0  and 0 1 1 0 
 # max = 395
1751938		 # 	collision with: 6 0 1 0  and 2 2 1 0 
 # max = 395
1751945		 # 	collision with: 3 5 0 0  and 1 6 1 0 
 # max = 395
1751949		 # 	collision with: 4 6 1 0  and 4 1 2 0 
 # max = 395
1751951		 # 	collision with: 0 0 0 0  and 1 0 1 0 
 # max = 395
1751956		 # 	collision with: 2 4 0 0  and 5 2 1 0 
 # max = 395
1751958		 # 	collision with: 0 2 1 0  and 1 2 1 0 
 # max = 395
1751964		 # 	collision with: 4 0 0 0  and 0 1 1 0 
 # max = 395
1751973		 # 	collision with: 0 0 0 0  and 1 0 1 0 
 # max = 395
1751975		 # 	collision with: 0 1 1 0  and 1 1 2 0 
 # max = 395
1751977		 # 	collision with: 0 0 0 0  and 1 0 1 0 
 # max = 395
1751979		 # 	collision with: 2 1 0 0  and 3 4 1 0 
 # max = 395
1751984		 # 	collision with: 0 3 1 0  and 1 3 1 0 
 # max = 395
1751986		 # 	collision with: 0 0 0 0  and 1 0 1 0 
 # max = 395
1752000		 # 	collision with: 0 0 0 0  and 1 0 1 0 
 # max = 395
1752002		 # 	collision with: 5 6 0 0  and 6 4 1 0 
 # max = 395
1752004		 # 	collision with: 0 0 0 0  and 1 0 1 0 
 # max = 395
1752006		 # 	collision with: 3 4 0 0  and 2 1 1 0 
 # max = 395
1752026		 # 	collision with: 6 5 0 0  and 1 2 1 0 
 # max = 395
1752036		 # 	collision with: 6 1 0 0  and 6 1 2 0 
 # max = 395
1752038		 # 	collision with: 1 3 0 0  and 5 1 1 0 
 # max = 395
1752081		 # 	collision with: 1 3 0 0  and 1 4 0 0 
 # max = 395
1752083		 # 	collision with: 3 3 0 0  and 5 2 1 0 
 # max = 395
1752093		 # 	collision with: 6 3 0 0  and 6 4 0 0 
 # max = 395
1752095		 # 	collision with: 3 6 0 0  and 5 0 1 0 
 # max = 395
1752105		 # 	collision with: 2 3 0 0  and 2 4 0 0 
 # max = 395
1752125		 # 	collision with: 5 3 0 0  and 5 4 0 0 
 # max = 395
1752127		 # 	collision with: 2 3 0 0  and 0 4 0 0 
 # max = 395
1752189		 # 	collision with: 2 3 0 0  and 2 4 0 0 
 # max = 395
1752191		 # 	collision with: 3 0 1 0  and 0 0 2 0 
 # max = 395
1752209		 # 	collision with: 5 3 0 0  and 5 4 0 0 
 # max = 395
1752221		 # 	collision with: 1 3 0 0  and 1 4 0 0 
 # max = 395
1752223		 # 	collision with: 2 1 0 0  and 4 0 1 0 
 # max = 395
1752233		 # 	collision with: 6 3 0 0  and 6 4 0 0 
 # max = 395
1752235		 # 	collision with: 2 0 1 0  and 2 2 1 0 
 # max = 395
1752240		 # 	collision with: 4 1 0 0  and 2 0 1 0 
 # max = 395
1752242		 # 	collision with: 5 0 0 0  and 3 6 1 0 
 # max = 395
1752277		 # 	collision with: 4 3 0 0  and 1 1 1 0 
 # max = 395
1752279		 # 	collision with: 3 3 0 0  and 4 1 1 0 
 # max = 395
1752289		 # 	collision with: 6 4 1 0  and 1 1 2 0 
 # max = 395
1752291		 # 	collision with: 2 6 0 0  and 1 3 1 0 
 # max = 395
1752301		 # 	collision with: 1 4 1 0  and 1 4 3 0 
 # max = 395
1752303		 # 	collision with: 2 4 0 0  and 2 5 2 0 
 # max = 395
1752321		 # 	collision with: 1 3 0 0  and 5 2 1 0 
 # max = 395
1752323		 # 	collision with: 6 1 0 0  and 0 6 1 0 
 # max = 395
1752385		 # 	collision with: 1 5 1 0  and 2 5 1 0 
 # max = 395
1752387		 # 	collision with: 1 1 0 0  and 4 2 1 0 
 # max = 395
1752405		 # 	collision with: 1 2 1 0  and 2 2 1 0 
 # max = 395
1752407		 # 	collision with: 6 1 0 0  and 0 6 1 0 
 # max = 395
1752417		 # 	collision with: 2 2 0 0  and 2 5 1 0 
 # max = 395
1752419		 # 	collision with: 3 4 0 0  and 0 5 1 0 
 # max = 395
1752429		 # 	collision with: 3 6 0 0  and 6 5 1 0 
 # max = 395
1752431		 # 	collision with: 6 0 2 0  and 4 2 3 0 
 # max = 395
1752436		 # 	collision with: 0 0 0 0  and 2 3 1 0 
 # max = 395
1752438		 # 	collision with: 1 5 0 0  and 3 1 1 0 
 # max = 395
1752473		 # 	collision with: 5 2 0 0  and 3 0 1 0 
 # max = 395
1752475		 # 	collision with: 3 2 0 0  and 6 3 0 0 
 # max = 395
1752485		 # 	collision with: 4 4 0 0  and 4 4 1 0 
 # max = 395
1752499		 # 	collision with: 1 6 0 0  and 3 5 1 0 
 # max = 395
1752517		 # 	collision with: 2 1 0 0  and 2 1 1 0 
 # max = 395
1752519		 # 	collision with: 6 0 0 0  and 5 4 1 0 
 # max = 395
1752583		 # 	collision with: 4 2 0 0  and 5 4 1 0 
 # max = 395
1752601		 # 	collision with: 5 1 0 0  and 5 1 1 0 
 # max = 395
1752603		 # 	collision with: 5 4 0 0  and 5 5 1 0 
 # max = 395
1752613		 # 	collision with: 3 3 0 0  and 3 3 1 0 
 # max = 395
1752615		 # 	collision with: 3 2 0 0  and 6 3 0 0 
 # max = 395
1752625		 # 	collision with: 5 3 0 0  and 1 0 1 0 
 # max = 395
1752627		 # 	collision with: 4 2 0 0  and 4 0 2 0 
 # max = 395
1752632		 # 	collision with: 6 0 0 0  and 0 2 1 0 
 # max = 395
1752634		 # 	collision with: 0 4 0 0  and 1 6 1 0 
 # max = 395
1752669		 # 	collision with: 1 3 2 0  and 1 4 2 0 
 # max = 395
1752683		 # 	collision with: 3 4 0 0  and 3 4 1 0 
 # max = 395
1752693		 # 	collision with: 1 0 1 0  and 2 0 2 0 
 # max = 395
1752695		 # 	collision with: 2 1 1 0  and 4 2 1 0 
 # max = 395
1752713		 # 	collision with: 4 3 0 0  and 2 1 1 0 
 # max = 395
1752777		 # 	collision with: 1 3 1 0  and 2 3 1 0 
 # max = 395
1752779		 # 	collision with: 0 1 0 0  and 2 5 1 0 
 # max = 395
1752797		 # 	collision with: 1 4 1 0  and 2 4 1 0 
 # max = 395
1752799		 # 	collision with: 2 1 0 0  and 2 1 1 0 
 # max = 395
1752809		 # 	collision with: 4 4 0 0  and 1 1 1 0 
 # max = 395
1752811		 # 	collision with: 5 0 1 0  and 5 2 1 0 
 # max = 395
1752823		 # 	collision with: 5 2 0 0  and 4 1 1 0 
 # max = 395
1752828		 # 	collision with: 6 0 0 0  and 3 5 1 0 
 # max = 395
1752830		 # 	collision with: 1 2 0 0  and 2 0 1 0 
 # max = 395
1752867		 # 	collision with: 4 3 1 0  and 0 2 2 0 
 # max = 395
1752877		 # 	collision with: 2 6 0 0  and 2 1 1 0 
 # max = 395
1752879		 # 	collision with: 1 5 0 0  and 5 3 2 0 
 # max = 395
1752889		 # 	collision with: 2 5 0 0  and 1 2 2 0 
 # max = 395
1752891		 # 	collision with: 3 0 1 0  and 3 2 1 0 
 # max = 395
1752909		 # 	collision with: 6 2 0 0  and 3 1 1 0 
 # max = 395
1752911		 # 	collision with: 4 1 0 0  and 5 2 0 0 
 # max = 395
1752973		 # 	collision with: 1 2 1 0  and 2 2 1 0 
 # max = 395
1752993		 # 	collision with: 5 6 0 0  and 3 2 1 0 
 # max = 395
1752995		 # 	collision with: 4 1 0 0  and 5 2 0 0 
 # max = 395
1753007		 # 	collision with: 1 0 1 0  and 2 0 2 0 
 # max = 395
1753017		 # 	collision with: 6 2 0 0  and 6 2 2 0 
 # max = 395
1753024		 # 	collision with: 2 3 0 0  and 0 0 1 0 
 # max = 395
1753026		 # 	collision with: 0 6 0 0  and 3 3 1 0 
 # max = 395
1753061		 # 	collision with: 1 3 1 0  and 1 4 1 0 
 # max = 395
1753063		 # 	collision with: 5 0 0 0  and 5 2 0 0 
 # max = 395
1753073		 # 	collision with: 5 4 1 0  and 2 0 2 0 
 # max = 395
1753075		 # 	collision with: 2 0 0 0  and 2 2 0 0 
 # max = 395
1753085		 # 	collision with: 5 2 1 0  and 1 3 2 0 
 # max = 395
1753087		 # 	collision with: 3 0 0 0  and 3 2 0 0 
 # max = 395
1753107		 # 	collision with: 4 0 0 0  and 4 2 0 0 
 # max = 395
1753169		 # 	collision with: 1 1 1 0  and 2 1 1 0 
 # max = 395
1753171		 # 	collision with: 3 0 0 0  and 3 2 0 0 
 # max = 395
1753191		 # 	collision with: 4 0 0 0  and 4 2 0 0 
 # max = 395
1753201		 # 	collision with: 1 3 1 0  and 1 4 1 0 
 # max = 395
1753213		 # 	collision with: 1 0 1 0  and 2 0 2 0 
 # max = 395
1753215		 # 	collision with: 2 0 0 0  and 2 2 0 0 
 # max = 395
1753220		 # 	collision with: 6 0 0 0  and 5 1 2 0 
 # max = 395
1753222		 # 	collision with: 0 2 0 0  and 6 3 2 0 
 # max = 395
1753257		 # 	collision with: 0 0 0 0  and 2 4 1 0 
 # max = 395
1753259		 # 	collision with: 6 0 1 0  and 5 4 2 0 
 # max = 395
1753269		 # 	collision with: 0 3 0 0  and 2 2 1 0 
 # max = 395
1753271		 # 	collision with: 2 5 0 0  and 0 1 1 0 
 # max = 395
1753281		 # 	collision with: 2 3 1 0  and 2 4 1 0 
 # max = 395
1753283		 # 	collision with: 1 1 2 0  and 2 1 2 0 
 # max = 395
1753301		 # 	collision with: 5 6 0 0  and 3 5 1 0 
 # max = 395
1753303		 # 	collision with: 4 0 1 0  and 4 2 1 0 
 # max = 395
1753365		 # 	collision with: 1 0 1 0  and 2 0 1 0 
 # max = 395
1753367		 # 	collision with: 4 0 0 0  and 4 2 2 0 
 # max = 395
1753385		 # 	collision with: 1 0 1 0  and 2 0 1 0 
 # max = 395
1753387		 # 	collision with: 6 0 0 0  and 1 1 1 0 
 # max = 395
1753397		 # 	collision with: 2 0 1 0  and 1 0 2 0 
 # max = 395
1753399		 # 	collision with: 4 3 0 0  and 6 3 1 0 
 # max = 395
1753409		 # 	collision with: 0 5 0 0  and 5 1 1 0 
 # max = 395
1753411		 # 	collision with: 2 5 0 0  and 0 1 1 0 
 # max = 395
1753429		 # 	collision with: 3 3 0 0  and 3 4 0 0 
 # max = 395
1753431		 # 	collision with: 4 2 1 0  and 0 0 2 0 
 # max = 395
1753433		 # 	collision with: 4 3 0 0  and 4 4 0 0 
 # max = 395
1753435		 # 	collision with: 2 0 3 0  and 2 2 3 0 
 # max = 395
1753448		 # 	collision with: 5 2 0 0  and 2 3 0 0 
 # max = 395
1753450		 # 	collision with: 1 4 0 0  and 1 5 0 0 
 # max = 395
1753468		 # 	collision with: 5 3 0 0  and 5 4 0 0 
 # max = 395
1753470		 # 	collision with: 6 0 0 0  and 6 2 0 0 
 # max = 395
1753480		 # 	collision with: 1 3 0 0  and 1 4 0 0 
 # max = 395
1753482		 # 	collision with: 4 0 0 0  and 4 2 0 0 
 # max = 395
1753492		 # 	collision with: 4 0 0 0  and 3 2 0 0 
 # max = 395
1753494		 # 	collision with: 3 0 0 0  and 3 2 0 0 
 # max = 395
1753509		 # 	collision with: 1 3 0 0  and 1 4 0 0 
 # max = 395
1753512		 # 	collision with: 3 3 0 0  and 3 4 0 0 
 # max = 395
1753514		 # 	collision with: 5 0 0 0  and 5 2 0 0 
 # max = 395
1753516		 # 	collision with: 4 3 0 0  and 4 4 0 0 
 # max = 395
1753518		 # 	collision with: 6 0 0 0  and 3 1 0 0 
 # max = 395
1753521		 # 	collision with: 6 3 0 0  and 6 4 0 0 
 # max = 395
1753523		 # 	collision with: 3 0 1 0  and 3 2 1 0 
 # max = 395
1753537		 # 	collision with: 1 3 0 0  and 1 4 0 0 
 # max = 395
1753539		 # 	collision with: 4 3 0 0  and 5 5 1 0 
 # max = 395
1753540		 # 	collision with: 3 3 0 0  and 3 4 0 0 
 # max = 395
1753542		 # 	collision with: 5 0 0 0  and 5 2 0 0 
 # max = 395
1753544		 # 	collision with: 4 3 0 0  and 4 4 0 0 
 # max = 395
1753546		 # 	collision with: 6 0 0 0  and 3 1 0 0 
 # max = 395
1753549		 # 	collision with: 6 3 0 0  and 6 4 0 0 
 # max = 395
1753564		 # 	collision with: 1 3 0 0  and 1 4 0 0 
 # max = 395
1753566		 # 	collision with: 4 0 0 0  and 4 2 0 0 
 # max = 395
1753576		 # 	collision with: 4 0 0 0  and 3 2 0 0 
 # max = 395
1753578		 # 	collision with: 3 0 0 0  and 3 2 0 0 
 # max = 395
1753588		 # 	collision with: 5 2 0 0  and 2 3 0 0 
 # max = 395
1753590		 # 	collision with: 1 4 0 0  and 1 5 0 0 
 # max = 395
1753608		 # 	collision with: 5 3 0 0  and 5 4 0 0 
 # max = 395
1753610		 # 	collision with: 6 0 0 0  and 6 2 0 0 
 # max = 395
1753612		 # 	collision with: 4 5 0 0  and 5 3 1 0 
 # max = 395
1753614		 # 	collision with: 5 2 0 0  and 6 0 1 0 
 # max = 395
1753629		 # 	collision with: 0 1 0 0  and 2 2 1 0 
 # max = 395
1753631		 # 	collision with: 2 0 1 0  and 2 2 1 0 
 # max = 395
1753644		 # 	collision with: 1 4 2 0  and 3 4 2 0 
 # max = 395
1753646		 # 	collision with: 6 2 0 0  and 6 0 1 0 
 # max = 395
1753664		 # 	collision with: 5 3 1 0  and 5 4 1 0 
 # max = 395
1753676		 # 	collision with: 1 2 1 0  and 3 2 1 0 
 # max = 395
1753688		 # 	collision with: 3 1 0 0  and 1 1 1 0 
 # max = 395
1753690		 # 	collision with: 6 5 0 0  and 3 0 2 0 
 # max = 395
1753705		 # 	collision with: 4 3 1 0  and 0 4 2 0 
 # max = 395
1753707		 # 	collision with: 6 4 0 0  and 0 3 1 0 
 # max = 395
1753710		 # 	collision with: 2 2 0 0  and 2 0 1 0 
 # max = 395
1753712		 # 	collision with: 3 0 0 0  and 6 1 2 0 
 # max = 395
1753714		 # 	collision with: 2 1 0 0  and 6 4 1 0 
 # max = 395
1753717		 # 	collision with: 3 1 0 0  and 2 0 1 0 
 # max = 395
1753733		 # 	collision with: 1 5 0 0  and 4 0 1 0 
 # max = 395
1753735		 # 	collision with: 6 2 0 0  and 3 1 1 0 
 # max = 395
1753738		 # 	collision with: 2 6 1 0  and 0 0 2 0 
 # max = 395
1753740		 # 	collision with: 5 6 2 0  and 5 6 3 0 
 # max = 395
1753742		 # 	collision with: 5 2 0 0  and 5 0 1 0 
 # max = 395
1753745		 # 	collision with: 6 0 0 0  and 4 4 1 0 
 # max = 395
1753747		 # 	collision with: 1 3 2 0  and 3 3 2 0 
 # max = 395
1753760		 # 	collision with: 3 2 0 0  and 4 0 1 0 
 # max = 395
1753762		 # 	collision with: 3 3 0 0  and 0 1 2 0 
 # max = 395
1753772		 # 	collision with: 4 5 0 0  and 6 4 1 0 
 # max = 395
1753774		 # 	collision with: 4 2 0 0  and 4 0 1 0 
 # max = 395
1753784		 # 	collision with: 1 3 2 0  and 1 3 3 0 
 # max = 395
1753786		 # 	collision with: 1 3 1 0  and 4 1 2 0 
 # max = 395
1753804		 # 	collision with: 2 1 1 0  and 3 3 1 0 
 # max = 395
1753806		 # 	collision with: 1 2 0 0  and 1 0 1 0 
 # max = 395
1753808		 # 	collision with: 5 1 0 0  and 1 0 1 0 
 # max = 395
1753810		 # 	collision with: 3 6 1 0  and 0 1 2 0 
 # max = 395
1753821		 # 	collision with: 5 2 0 0  and 2 3 0 0 
 # max = 395
1753823		 # 	collision with: 4 3 0 0  and 2 1 1 0 
 # max = 395
1753825		 # 	collision with: 1 0 1 0  and 5 1 2 0 
 # max = 395
1753827		 # 	collision with: 5 2 0 0  and 6 2 2 0 
 # max = 395
1753840		 # 	collision with: 3 6 0 0  and 1 1 1 0 
 # max = 395
1753842		 # 	collision with: 2 0 0 0  and 1 4 1 0 
 # max = 395
1753862		 # 	collision with: 1 3 1 0  and 3 3 1 0 
 # max = 395
1753872		 # 	collision with: 1 5 1 0  and 3 5 1 0 
 # max = 395
1753874		 # 	collision with: 3 1 0 0  and 6 0 1 0 
 # max = 395
1753884		 # 	collision with: 1 2 1 0  and 3 2 1 0 
 # max = 395
1753901		 # 	collision with: 6 6 0 0  and 6 6 1 0 
 # max = 395
1753903		 # 	collision with: 5 0 0 0  and 1 1 1 0 
 # max = 395
1753904		 # 	collision with: 6 1 0 0  and 3 0 1 0 
 # max = 395
1753906		 # 	collision with: 3 4 0 0  and 1 4 1 0 
 # max = 395
1753908		 # 	collision with: 3 1 0 0  and 2 0 1 0 
 # max = 395
1753910		 # 	collision with: 3 3 0 0  and 1 3 1 0 
 # max = 395
1753913		 # 	collision with: 6 1 0 0  and 6 1 1 0 
 # max = 395
1753915		 # 	collision with: 0 2 0 0  and 2 3 0 0 
 # max = 395
1753929		 # 	collision with: 1 5 0 0  and 1 2 1 0 
 # max = 395
1753931		 # 	collision with: 1 5 0 0  and 2 2 1 0 
 # max = 395
1753932		 # 	collision with: 3 4 1 0  and 3 3 2 0 
 # max = 395
1753934		 # 	collision with: 6 0 0 0  and 3 1 1 0 
 # max = 395
1753936		 # 	collision with: 4 0 0 0  and 3 2 1 0 
 # max = 395
1753941		 # 	collision with: 1 1 0 0  and 1 1 1 0 
 # max = 395
1753943		 # 	collision with: 0 2 0 0  and 2 3 0 0 
 # max = 395
1753956		 # 	collision with: 5 6 0 0  and 3 0 2 0 
 # max = 395
1753958		 # 	collision with: 3 0 0 0  and 0 3 1 0 
 # max = 395
1753968		 # 	collision with: 2 0 1 0  and 1 1 1 0 
 # max = 395
1753970		 # 	collision with: 3 0 1 0  and 3 2 1 0 
 # max = 395
1753980		 # 	collision with: 5 5 0 0  and 2 3 2 0 
 # max = 395
1753982		 # 	collision with: 4 3 1 0  and 6 5 2 0 
 # max = 395
1754002		 # 	collision with: 0 5 0 0  and 5 1 1 0 
 # max = 395
1754004		 # 	collision with: 4 3 0 0  and 6 0 1 0 
 # max = 395
1754006		 # 	collision with: 5 1 0 0  and 0 5 1 0 
 # max = 395
1754017		 # 	collision with: 1 0 1 0  and 6 1 1 0 
 # max = 395
1754019		 # 	collision with: 0 3 1 0  and 2 1 3 0 
 # max = 395
1754021		 # 	collision with: 4 3 1 0  and 4 4 1 0 
 # max = 395
1754023		 # 	collision with: 1 2 0 0  and 2 1 1 0 
 # max = 395
1754036		 # 	collision with: 4 5 0 0  and 4 5 1 0 
 # max = 395
1754038		 # 	collision with: 1 3 1 0  and 3 3 1 0 
 # max = 395
1754056		 # 	collision with: 4 3 0 0  and 5 0 1 0 
 # max = 395
1754058		 # 	collision with: 4 2 0 0  and 0 2 1 0 
 # max = 395
1754070		 # 	collision with: 3 5 0 0  and 1 4 1 0 
 # max = 395
1754080		 # 	collision with: 2 1 0 0  and 2 1 1 0 
 # max = 395
1754082		 # 	collision with: 2 3 0 0  and 4 0 1 0 
 # max = 395
1754099		 # 	collision with: 2 1 0 0  and 0 3 0 0 
 # max = 395
1754100		 # 	collision with: 6 4 0 0  and 6 4 1 0 
 # max = 395
1754102		 # 	collision with: 6 0 0 0  and 6 2 1 0 
 # max = 395
1754104		 # 	collision with: 6 3 0 0  and 0 2 1 0 
 # max = 395
1754109		 # 	collision with: 5 3 0 0  and 3 1 1 0 
 # max = 395
1754111		 # 	collision with: 1 1 0 0  and 1 1 1 0 
 # max = 395
1754127		 # 	collision with: 2 1 0 0  and 0 3 0 0 
 # max = 395
1754128		 # 	collision with: 1 4 0 0  and 1 4 1 0 
 # max = 395
1754130		 # 	collision with: 4 4 0 0  and 0 4 1 0 
 # max = 395
1754132		 # 	collision with: 6 3 0 0  and 0 2 1 0 
 # max = 395
1754134		 # 	collision with: 2 0 1 0  and 2 2 1 0 
 # max = 395
1754137		 # 	collision with: 4 2 0 0  and 5 4 2 0 
 # max = 395
1754139		 # 	collision with: 6 1 0 0  and 6 1 1 0 
 # max = 395
1754154		 # 	collision with: 4 6 0 0  and 0 6 1 0 
 # max = 395
1754164		 # 	collision with: 5 1 0 0  and 5 1 1 0 
 # max = 395
1754166		 # 	collision with: 4 1 0 0  and 0 1 1 0 
 # max = 395
1754176		 # 	collision with: 3 5 0 0  and 3 5 1 0 
 # max = 395
1754178		 # 	collision with: 4 5 0 0  and 0 5 1 0 
 # max = 395
1754196		 # 	collision with: 3 2 0 0  and 3 2 1 0 
 # max = 395
1754200		 # 	collision with: 1 6 0 0  and 4 2 1 0 
 # max = 395
1754202		 # 	collision with: 2 1 0 0  and 5 4 1 0 
 # max = 395
1754213		 # 	collision with: 3 3 1 0  and 3 4 1 0 
 # max = 395
1754215		 # 	collision with: 2 4 0 0  and 6 3 1 0 
 # max = 395
1754217		 # 	collision with: 6 6 0 0  and 5 1 1 0 
 # max = 395
1754219		 # 	collision with: 2 0 2 0  and 2 2 2 0 
 # max = 395
1754232		 # 	collision with: 0 4 0 0  and 5 0 1 0 
 # max = 395
1754252		 # 	collision with: 0 4 0 0  and 5 0 1 0 
 # max = 395
1754254		 # 	collision with: 3 2 0 0  and 3 2 1 0 
 # max = 395
1754264		 # 	collision with: 1 4 1 0  and 3 4 1 0 
 # max = 395
1754266		 # 	collision with: 5 6 0 0  and 5 6 1 0 
 # max = 395
1754278		 # 	collision with: 5 1 0 0  and 5 1 1 0 
 # max = 395
1754293		 # 	collision with: 5 4 0 0  and 0 2 1 0 
 # max = 395
1754295		 # 	collision with: 4 3 0 0  and 2 1 2 0 
 # max = 395
1754296		 # 	collision with: 1 1 1 0  and 5 3 1 0 
 # max = 395
1754298		 # 	collision with: 5 0 1 0  and 5 2 1 0 
 # max = 395
1754300		 # 	collision with: 4 1 1 0  and 0 1 2 0 
 # max = 395
1754302		 # 	collision with: 1 6 0 0  and 0 1 1 0 
 # max = 395
1754307		 # 	collision with: 1 2 0 0  and 2 1 1 0 
 # max = 395
1754321		 # 	collision with: 5 4 0 0  and 0 2 1 0 
 # max = 395
1754323		 # 	collision with: 5 4 0 0  and 4 6 1 0 
 # max = 395
1754324		 # 	collision with: 6 4 0 0  and 2 0 1 0 
 # max = 395
1754328		 # 	collision with: 1 6 0 0  and 3 1 2 0 
 # max = 395
1754330		 # 	collision with: 1 6 0 0  and 0 1 1 0 
 # max = 395
1754335		 # 	collision with: 1 1 2 0  and 3 1 2 0 
 # max = 395
1754348		 # 	collision with: 4 4 0 0  and 5 0 1 0 
 # max = 395
1754350		 # 	collision with: 2 6 0 0  and 2 6 1 0 
 # max = 395
1754362		 # 	collision with: 2 1 0 0  and 2 1 1 0 
 # max = 395
1754372		 # 	collision with: 1 2 1 0  and 4 0 2 0 
 # max = 395
1754374		 # 	collision with: 3 4 0 0  and 2 0 1 0 
 # max = 395
1754392		 # 	collision with: 4 2 0 0  and 4 5 2 0 
 # max = 395
1754394		 # 	collision with: 4 2 0 0  and 4 2 1 0 
 # max = 395
1754396		 # 	collision with: 2 5 0 0  and 0 6 1 0 
 # max = 395
1754398		 # 	collision with: 3 4 0 0  and 1 5 1 0 
 # max = 395
1754409		 # 	collision with: 5 4 0 0  and 4 2 1 0 
 # max = 395
1754411		 # 	collision with: 5 0 0 0  and 5 2 0 0 
 # max = 395
1754413		 # 	collision with: 1 3 0 0  and 1 4 2 0 
 # max = 395
1754415		 # 	collision with: 2 0 0 0  and 2 2 0 0 
 # max = 395
1754430		 # 	collision with: 4 6 0 0  and 3 0 1 0 
 # max = 395
1754448		 # 	collision with: 1 0 2 0  and 3 0 2 0 
 # max = 395
1754450		 # 	collision with: 1 6 1 0  and 3 6 1 0 
 # max = 395
1754460		 # 	collision with: 6 6 0 0  and 1 0 1 0 
 # max = 395
1754462		 # 	collision with: 4 0 1 0  and 4 2 1 0 
 # max = 395
1754472		 # 	collision with: 1 0 1 0  and 3 0 1 0 
 # max = 395
1754474		 # 	collision with: 6 3 1 0  and 5 6 2 0 
 # max = 395
1754489		 # 	collision with: 1 3 1 0  and 1 4 1 0 
 # max = 395
1754491		 # 	collision with: 4 0 0 0  and 4 2 0 0 
 # max = 395
1754492		 # 	collision with: 5 5 0 0  and 6 2 1 0 
 # max = 395
1754496		 # 	collision with: 3 3 1 0  and 3 4 2 0 
 # max = 395
1754498		 # 	collision with: 2 1 2 0  and 0 3 3 0 
 # max = 395
1754501		 # 	collision with: 1 1 1 0  and 5 3 1 0 
 # max = 395
1754503		 # 	collision with: 3 0 0 0  and 3 2 0 0 
 # max = 395
1754517		 # 	collision with: 3 6 0 0  and 1 1 1 0 
 # max = 395
1754519		 # 	collision with: 4 0 0 0  and 4 2 0 0 
 # max = 395
1754520		 # 	collision with: 1 1 0 0  and 2 0 2 0 
 # max = 395
1754522		 # 	collision with: 1 5 2 0  and 3 5 2 0 
 # max = 395
1754524		 # 	collision with: 3 0 1 0  and 1 0 3 0 
 # max = 395
1754526		 # 	collision with: 4 1 1 0  and 0 1 2 0 
 # max = 395
1754529		 # 	collision with: 3 1 0 0  and 1 1 1 0 
 # max = 395
1754531		 # 	collision with: 3 0 0 0  and 3 2 0 0 
 # max = 395
1754544		 # 	collision with: 1 3 1 0  and 1 4 1 0 
 # max = 395
1754556		 # 	collision with: 3 4 0 0  and 2 6 1 0 
 # max = 395
1754558		 # 	collision with: 1 0 1 0  and 5 4 2 0 
 # max = 395
1754570		 # 	collision with: 5 0 0 0  and 5 2 1 0 
 # max = 395
1754588		 # 	collision with: 2 0 0 0  and 5 3 1 0 
 # max = 395
1754590		 # 	collision with: 5 4 0 0  and 2 1 1 0 
 # max = 395
1754592		 # 	collision with: 3 5 0 0  and 0 0 1 0 
 # max = 395
1754594		 # 	collision with: 4 1 0 0  and 1 3 1 0 
 # max = 395
1754605		 # 	collision with: 3 2 0 0  and 4 0 1 0 
 # max = 395
1754607		 # 	collision with: 1 2 0 0  and 1 0 1 0 
 # max = 395
1754624		 # 	collision with: 4 5 0 0  and 0 2 1 0 
 # max = 395
1754626		 # 	collision with: 1 0 1 0  and 3 0 1 0 
 # max = 395
1754644		 # 	collision with: 4 5 0 0  and 2 0 1 0 
 # max = 395
1754646		 # 	collision with: 1 0 1 0  and 3 0 1 0 
 # max = 395
1754656		 # 	collision with: 1 3 1 0  and 3 3 1 0 
 # max = 395
1754658		 # 	collision with: 1 6 1 0  and 0 1 2 0 
 # max = 395
1754668		 # 	collision with: 1 4 1 0  and 3 4 1 0 
 # max = 395
1754670		 # 	collision with: 4 0 0 0  and 2 3 1 0 
 # max = 395
1754685		 # 	collision with: 3 1 0 0  and 5 3 1 0 
 # max = 395
1754687		 # 	collision with: 2 6 0 0  and 0 0 1 0 
 # max = 395
1754688		 # 	collision with: 3 1 0 0  and 0 2 1 0 
 # max = 395
1754690		 # 	collision with: 5 4 1 0  and 2 1 2 0 
 # max = 395
1754694		 # 	collision with: 5 5 0 0  and 3 0 1 0 
 # max = 395
1754697		 # 	collision with: 4 4 0 0  and 6 0 2 0 
 # max = 395
1754699		 # 	collision with: 6 0 0 0  and 3 1 0 0 
 # max = 395
1754713		 # 	collision with: 3 6 0 0  and 2 0 1 0 
 # max = 395
1754716		 # 	collision with: 3 1 0 0  and 0 2 1 0 
 # max = 395
1754718		 # 	collision with: 1 5 1 0  and 2 0 2 0 
 # max = 395
1754722		 # 	collision with: 0 6 0 0  and 1 2 1 0 
 # max = 395
1754725		 # 	collision with: 2 6 1 0  and 1 3 2 0 
 # max = 395
1754727		 # 	collision with: 6 0 0 0  and 3 1 0 0 
 # max = 395
1754740		 # 	collision with: 3 4 0 0  and 3 4 2 0 
 # max = 395
1754742		 # 	collision with: 3 5 0 0  and 2 0 1 0 
 # max = 395
1754752		 # 	collision with: 3 6 0 0  and 0 5 1 0 
 # max = 395
1754764		 # 	collision with: 4 5 0 0  and 0 2 1 0 
 # max = 395
1754784		 # 	collision with: 3 0 0 0  and 5 1 1 0 
 # max = 395
1754786		 # 	collision with: 1 5 0 0  and 2 0 1 0 
 # max = 395
1754829		 # 	collision with: 3 3 0 0  and 3 4 0 0 
 # max = 395
1754831		 # 	collision with: 3 6 0 0  and 5 5 1 0 
 # max = 395
1754833		 # 	collision with: 4 3 0 0  and 4 4 0 0 
 # max = 395
1754835		 # 	collision with: 5 3 0 0  and 4 4 0 0 
 # max = 395
1754853		 # 	collision with: 1 3 0 0  and 1 4 0 0 
 # max = 395
1754855		 # 	collision with: 2 3 1 0  and 4 3 1 0 
 # max = 395
1754865		 # 	collision with: 6 3 0 0  and 6 4 0 0 
 # max = 395
1754867		 # 	collision with: 4 0 1 0  and 4 2 1 0 
 # max = 395
1754937		 # 	collision with: 1 3 0 0  and 1 4 0 0 
 # max = 395
1754939		 # 	collision with: 4 4 0 0  and 1 6 1 0 
 # max = 395
1754949		 # 	collision with: 6 3 0 0  and 6 4 0 0 
 # max = 395
1754951		 # 	collision with: 4 0 1 0  and 4 2 1 0 
 # max = 395
1754969		 # 	collision with: 3 3 0 0  and 3 4 0 0 
 # max = 395
1754971		 # 	collision with: 2 1 0 0  and 3 3 2 0 
 # max = 395
1754973		 # 	collision with: 4 3 0 0  and 4 4 0 0 
 # max = 395
1754975		 # 	collision with: 5 3 0 0  and 4 4 0 0 
 # max = 395
1754984		 # 	collision with: 4 5 0 0  and 2 2 1 0 
 # max = 395
1754986		 # 	collision with: 5 0 0 0  and 6 4 1 0 
 # max = 395
1755025		 # 	collision with: 4 0 0 0  and 1 4 1 0 
 # max = 395
1755027		 # 	collision with: 4 0 0 0  and 6 6 1 0 
 # max = 395
1755029		 # 	collision with: 5 2 0 0  and 4 3 1 0 
 # max = 395
1755051		 # 	collision with: 2 6 1 0  and 4 6 1 0 
 # max = 395
1755061		 # 	collision with: 4 6 0 0  and 0 2 2 0 
 # max = 395
1755063		 # 	collision with: 2 1 1 0  and 4 1 1 0 
 # max = 395
1755135		 # 	collision with: 1 6 0 0  and 1 3 1 0 
 # max = 395
1755145		 # 	collision with: 3 1 0 0  and 6 0 2 0 
 # max = 395
1755165		 # 	collision with: 3 3 2 0  and 3 4 2 0 
 # max = 395
1755167		 # 	collision with: 1 3 2 0  and 4 4 2 0 
 # max = 395
1755169		 # 	collision with: 4 5 0 0  and 0 0 2 0 
 # max = 395
1755171		 # 	collision with: 5 0 1 0  and 5 2 1 0 
 # max = 395
1755180		 # 	collision with: 2 3 0 0  and 1 5 1 0 
 # max = 395
1755182		 # 	collision with: 1 2 0 0  and 6 4 1 0 
 # max = 395
1755221		 # 	collision with: 5 4 0 0  and 3 2 1 0 
 # max = 395
1755223		 # 	collision with: 5 1 0 0  and 0 0 1 0 
 # max = 395
1755227		 # 	collision with: 2 1 2 0  and 4 1 2 0 
 # max = 395
1755245		 # 	collision with: 6 2 0 0  and 4 1 1 0 
 # max = 395
1755247		 # 	collision with: 2 2 0 0  and 0 3 0 0 
 # max = 395
1755257		 # 	collision with: 6 5 0 0  and 0 2 1 0 
 # max = 395
1755259		 # 	collision with: 6 4 0 0  and 1 0 1 0 
 # max = 395
1755329		 # 	collision with: 5 2 0 0  and 5 2 1 0 
 # max = 395
1755331		 # 	collision with: 2 2 0 0  and 0 3 0 0 
 # max = 395
1755341		 # 	collision with: 6 5 0 0  and 0 2 1 0 
 # max = 395
1755343		 # 	collision with: 5 0 0 0  and 0 5 1 0 
 # max = 395
1755361		 # 	collision with: 2 4 0 0  and 1 2 1 0 
 # max = 395
1755363		 # 	collision with: 5 1 0 0  and 0 0 1 0 
 # max = 395
1755367		 # 	collision with: 6 6 1 0  and 6 6 3 0 
 # max = 395
1755376		 # 	collision with: 4 4 1 0  and 1 2 2 0 
 # max = 395
1755378		 # 	collision with: 5 1 0 0  and 0 0 1 0 
 # max = 395
1755417		 # 	collision with: 6 6 0 0  and 0 1 2 0 
 # max = 395
1755419		 # 	collision with: 6 2 0 0  and 1 1 1 0 
 # max = 395
1755421		 # 	collision with: 1 1 0 0  and 6 3 0 0 
 # max = 395
1755423		 # 	collision with: 0 1 0 0  and 2 3 0 0 
 # max = 395
1755441		 # 	collision with: 2 2 0 0  and 6 0 1 0 
 # max = 395
1755443		 # 	collision with: 3 0 1 0  and 3 2 1 0 
 # max = 395
1755453		 # 	collision with: 3 2 1 0  and 1 4 1 0 
 # max = 395
1755455		 # 	collision with: 2 2 1 0  and 4 2 1 0 
 # max = 395
1755525		 # 	collision with: 6 1 1 0  and 5 0 2 0 
 # max = 395
1755537		 # 	collision with: 6 4 1 0  and 1 1 2 0 
 # max = 395
1755539		 # 	collision with: 2 5 0 0  and 2 5 1 0 
 # max = 395
1755557		 # 	collision with: 6 6 0 0  and 0 1 2 0 
 # max = 395
1755559		 # 	collision with: 6 2 0 0  and 5 1 1 0 
 # max = 395
1755561		 # 	collision with: 1 1 0 0  and 6 3 0 0 
 # max = 395
1755572		 # 	collision with: 0 6 0 0  and 1 0 1 0 
 # max = 395
1755574		 # 	collision with: 1 4 4 0  and 4 0 0 1 
 # max = 395
1755613		 # 	collision with: 2 5 0 0  and 0 0 1 0 
 # max = 395
1755617		 # 	collision with: 3 2 0 0  and 5 3 2 0 
 # max = 395
1755619		 # 	collision with: 4 3 1 0  and 6 1 2 0 
 # max = 395
1755637		 # 	collision with: 4 5 0 0  and 6 0 1 0 
 # max = 395
1755639		 # 	collision with: 2 1 1 0  and 4 1 1 0 
 # max = 395
1755649		 # 	collision with: 3 1 0 0  and 4 2 0 0 
 # max = 395
1755721		 # 	collision with: 2 1 0 0  and 0 2 1 0 
 # max = 395
1755723		 # 	collision with: 5 4 1 0  and 1 4 2 0 
 # max = 395
1755733		 # 	collision with: 3 1 0 0  and 4 2 0 0 
 # max = 395
1755735		 # 	collision with: 0 6 0 0  and 4 2 1 0 
 # max = 395
1755753		 # 	collision with: 2 5 0 0  and 0 0 1 0 
 # max = 395
1755755		 # 	collision with: 5 4 0 0  and 2 1 1 0 
 # max = 395
1755757		 # 	collision with: 4 0 1 0  and 5 4 2 0 
 # max = 395
1755759		 # 	collision with: 4 5 0 0  and 5 6 1 0 
 # max = 395
1755768		 # 	collision with: 6 0 0 0  and 2 5 1 0 
 # max = 395
1755770		 # 	collision with: 6 4 0 0  and 1 2 1 0 
 # max = 395
1755811		 # 	collision with: 2 0 0 0  and 2 2 0 0 
 # max = 395
1755813		 # 	collision with: 4 0 0 0  and 3 2 0 0 
 # max = 395
1755815		 # 	collision with: 5 0 0 0  and 5 2 0 0 
 # max = 395
1755833		 # 	collision with: 0 6 0 0  and 5 0 1 0 
 # max = 395
1755835		 # 	collision with: 3 0 0 0  and 3 2 0 0 
 # max = 395
1755845		 # 	collision with: 0 6 0 0  and 5 0 1 0 
 # max = 395
1755847		 # 	collision with: 4 0 0 0  and 4 2 0 0 
 # max = 395
1755917		 # 	collision with: 0 6 0 0  and 1 0 1 0 
 # max = 395
1755919		 # 	collision with: 3 0 0 0  and 3 2 0 0 
 # max = 395
1755929		 # 	collision with: 0 6 0 0  and 1 0 1 0 
 # max = 395
1755931		 # 	collision with: 4 0 0 0  and 4 2 0 0 
 # max = 395
1755951		 # 	collision with: 2 0 0 0  and 2 2 0 0 
 # max = 395
1755953		 # 	collision with: 4 0 0 0  and 3 2 0 0 
 # max = 395
1755955		 # 	collision with: 5 0 0 0  and 5 2 0 0 
 # max = 395
1755964		 # 	collision with: 5 6 2 0  and 0 0 0 1 
 # max = 395
1755966		 # 	collision with: 3 0 0 0  and 4 3 1 0 
 # max = 395
1756005		 # 	collision with: 6 3 0 0  and 5 1 1 0 
 # max = 395
1756007		 # 	collision with: 2 5 0 0  and 4 4 1 0 
 # max = 395
1756009		 # 	collision with: 6 1 1 0  and 3 3 1 0 
 # max = 395
1756011		 # 	collision with: 6 1 0 0  and 2 3 1 0 
 # max = 395
1756029		 # 	collision with: 3 2 1 0  and 1 4 1 0 
 # max = 395
1756043		 # 	collision with: 2 0 1 0  and 4 0 1 0 
 # max = 395
1756113		 # 	collision with: 2 6 0 0  and 6 2 1 0 
 # max = 395
1756115		 # 	collision with: 4 6 0 0  and 3 2 1 0 
 # max = 395
1756127		 # 	collision with: 3 0 1 0  and 4 3 2 0 
 # max = 395
1756145		 # 	collision with: 2 0 1 0  and 1 4 2 0 
 # max = 395
1756149		 # 	collision with: 2 2 1 0  and 2 2 2 0 
 # max = 395
1756151		 # 	collision with: 1 3 2 0  and 4 4 2 0 
 # max = 395
1756193		 # 	collision with: 2 3 0 0  and 2 4 0 0 
 # max = 395
1756213		 # 	collision with: 5 3 0 0  and 5 4 0 0 
 # max = 395
1756215		 # 	collision with: 4 6 1 0  and 2 0 2 0 
 # max = 395
1756229		 # 	collision with: 3 3 0 0  and 3 4 0 0 
 # max = 395
1756231		 # 	collision with: 3 2 0 0  and 3 0 1 0 
 # max = 395
1756233		 # 	collision with: 4 3 0 0  and 4 4 0 0 
 # max = 395
1756235		 # 	collision with: 5 1 1 0  and 1 2 1 0 
 # max = 395
1756313		 # 	collision with: 3 3 0 0  and 3 4 0 0 
 # max = 395
1756315		 # 	collision with: 4 6 0 0  and 4 3 1 0 
 # max = 395
1756317		 # 	collision with: 4 3 0 0  and 4 4 0 0 
 # max = 395
1756319		 # 	collision with: 4 2 0 0  and 4 0 1 0 
 # max = 395
1756333		 # 	collision with: 2 3 0 0  and 2 4 0 0 
 # max = 395
1756335		 # 	collision with: 2 3 1 0  and 1 1 2 0 
 # max = 395
1756353		 # 	collision with: 5 3 0 0  and 5 4 0 0 
 # max = 395
1756356		 # 	collision with: 0 1 0 0  and 4 4 1 0 
 # max = 395
1756358		 # 	collision with: 4 2 0 0  and 6 5 1 0 
 # max = 395
1756391		 # 	collision with: 2 6 0 0  and 1 1 1 0 
 # max = 395
1756409		 # 	collision with: 5 3 1 0  and 5 4 1 0 
 # max = 395
1756411		 # 	collision with: 4 2 0 0  and 6 4 1 0 
 # max = 395
1756425		 # 	collision with: 6 4 0 0  and 5 0 2 0 
 # max = 395
1756429		 # 	collision with: 4 1 0 0  and 1 1 2 0 
 # max = 395
1756431		 # 	collision with: 1 0 1 0  and 1 2 1 0 
 # max = 395
1756509		 # 	collision with: 2 1 1 0  and 1 2 1 0 
 # max = 395
1756511		 # 	collision with: 2 1 1 0  and 3 1 1 0 
 # max = 395
1756513		 # 	collision with: 0 3 0 0  and 6 5 1 0 
 # max = 395
1756515		 # 	collision with: 5 0 1 0  and 0 2 1 0 
 # max = 395
1756531		 # 	collision with: 2 3 2 0  and 3 3 2 0 
 # max = 395
1756549		 # 	collision with: 2 4 0 0  and 3 3 1 0 
 # max = 395
1756551		 # 	collision with: 3 3 1 0  and 1 1 2 0 
 # max = 395
1756552		 # 	collision with: 5 4 0 0  and 6 2 1 0 
 # max = 395
1756554		 # 	collision with: 1 3 1 0  and 3 2 2 0 
 # max = 395
1756585		 # 	collision with: 2 2 0 0  and 6 1 1 0 
 # max = 395
1756587		 # 	collision with: 1 2 0 0  and 5 1 1 0 
 # max = 395
1756605		 # 	collision with: 0 2 1 0  and 2 4 1 0 
 # max = 395
1756607		 # 	collision with: 1 1 1 0  and 6 0 2 0 
 # max = 395
1756621		 # 	collision with: 2 1 0 0  and 2 1 1 0 
 # max = 395
1756623		 # 	collision with: 6 2 0 0  and 3 3 0 0 
 # max = 395
1756625		 # 	collision with: 2 6 0 0  and 2 6 1 0 
 # max = 395
1756705		 # 	collision with: 5 1 0 0  and 5 1 1 0 
 # max = 395
1756707		 # 	collision with: 6 2 0 0  and 3 3 0 0 
 # max = 395
1756709		 # 	collision with: 2 4 0 0  and 5 5 1 0 
 # max = 395
1756711		 # 	collision with: 2 1 0 0  and 6 3 1 0 
 # max = 395
1756725		 # 	collision with: 2 1 1 0  and 3 1 1 0 
 # max = 395
1756745		 # 	collision with: 0 4 0 0  and 6 2 1 0 
 # max = 395
1756747		 # 	collision with: 0 1 1 0  and 1 0 2 0 
 # max = 395
1756748		 # 	collision with: 5 6 2 0  and 0 0 0 1 
 # max = 395
1756750		 # 	collision with: 5 3 0 0  and 2 4 1 0 
 # max = 395
1756781		 # 	collision with: 0 1 0 0  and 4 3 1 0 
 # max = 395
1756783		 # 	collision with: 0 1 1 0  and 4 2 1 0 
 # max = 395
1756801		 # 	collision with: 1 1 0 0  and 6 3 0 0 
 # max = 395
1756803		 # 	collision with: 6 0 0 0  and 1 1 1 0 
 # max = 395
1756819		 # 	collision with: 5 1 0 0  and 1 0 1 0 
 # max = 395
1756821		 # 	collision with: 5 6 0 0  and 5 1 1 0 
 # max = 395
1756823		 # 	collision with: 3 1 0 0  and 6 3 0 0 
 # max = 395
1756903		 # 	collision with: 2 1 0 0  and 2 1 1 0 
 # max = 395
1756905		 # 	collision with: 4 3 1 0  and 4 4 1 0 
 # max = 395
1756907		 # 	collision with: 3 1 0 0  and 6 3 0 0 
 # max = 395
1756921		 # 	collision with: 2 0 1 0  and 3 0 1 0 
 # max = 395
1756923		 # 	collision with: 5 1 0 0  and 4 0 1 0 
 # max = 395
1756941		 # 	collision with: 1 1 0 0  and 6 3 0 0 
 # max = 395
1756943		 # 	collision with: 2 3 0 0  and 6 0 1 0 
 # max = 395
1756944		 # 	collision with: 1 5 1 0  and 3 1 2 0 
 # max = 395
1756946		 # 	collision with: 0 5 0 0  and 5 4 1 0 
 # max = 395
1756977		 # 	collision with: 1 4 0 0  and 1 4 2 0 
 # max = 395
1756979		 # 	collision with: 5 5 0 0  and 3 1 1 0 
 # max = 395
1756997		 # 	collision with: 1 3 0 0  and 1 3 2 0 
 # max = 395
1756999		 # 	collision with: 5 1 0 0  and 4 2 0 0 
 # max = 395
1757013		 # 	collision with: 3 1 0 0  and 4 2 0 0 
 # max = 395
1757015		 # 	collision with: 6 2 0 0  and 4 1 1 0 
 # max = 395
1757019		 # 	collision with: 6 5 0 0  and 4 2 1 0 
 # max = 395
1757097		 # 	collision with: 3 1 0 0  and 4 2 0 0 
 # max = 395
1757099		 # 	collision with: 2 0 1 0  and 3 0 1 0 
 # max = 395
1757103		 # 	collision with: 2 0 1 0  and 3 0 1 0 
 # max = 395
1757117		 # 	collision with: 2 4 0 0  and 5 2 1 0 
 # max = 395
1757119		 # 	collision with: 4 0 1 0  and 4 2 1 0 
 # max = 395
1757137		 # 	collision with: 2 1 1 0  and 3 1 1 0 
 # max = 395
1757139		 # 	collision with: 5 1 0 0  and 4 2 0 0 
 # max = 395
1757140		 # 	collision with: 1 6 1 0  and 5 0 2 0 
 # max = 395
1757142		 # 	collision with: 6 5 0 0  and 1 0 1 0 
 # max = 395
1757173		 # 	collision with: 4 0 0 0  and 3 2 0 0 
 # max = 395
1757175		 # 	collision with: 4 0 0 0  and 4 2 0 0 
 # max = 395
1757193		 # 	collision with: 0 6 0 0  and 4 3 2 0 
 # max = 395
1757209		 # 	collision with: 4 3 0 0  and 4 4 1 0 
 # max = 395
1757211		 # 	collision with: 6 0 0 0  and 6 2 0 0 
 # max = 395
1757213		 # 	collision with: 3 5 0 0  and 2 2 2 0 
 # max = 395
1757215		 # 	collision with: 1 4 0 0  and 1 5 0 0 
 # max = 395
1757293		 # 	collision with: 4 6 1 0  and 4 1 2 0 
 # max = 395
1757297		 # 	collision with: 4 1 0 0  and 5 0 2 0 
 # max = 395
1757299		 # 	collision with: 1 4 0 0  and 1 5 0 0 
 # max = 395
1757313		 # 	collision with: 4 0 0 0  and 3 2 0 0 
 # max = 395
1757315		 # 	collision with: 4 0 0 0  and 4 2 0 0 
 # max = 395
1757333		 # 	collision with: 2 2 1 0  and 3 2 1 0 
 # max = 395
1757335		 # 	collision with: 3 0 0 0  and 3 2 0 0 
 # max = 395
1757336		 # 	collision with: 4 4 0 0  and 0 1 1 0 
 # max = 395
1757338		 # 	collision with: 0 4 6 0  and 1 0 0 1 
 # max = 395
1757369		 # 	collision with: 1 3 0 0  and 4 3 1 0 
 # max = 395
1757371		 # 	collision with: 3 3 0 0  and 6 0 2 0 
 # max = 395
1757391		 # 	collision with: 4 0 0 0  and 5 1 0 0 
 # max = 395
1757405		 # 	collision with: 4 4 0 0  and 5 1 2 0 
 # max = 395
1757407		 # 	collision with: 2 3 0 0  and 6 0 2 0 
 # max = 395
1757409		 # 	collision with: 0 1 1 0  and 4 3 1 0 
 # max = 395
1757411		 # 	collision with: 4 3 0 0  and 2 0 2 0 
 # max = 395
1757489		 # 	collision with: 5 4 0 0  and 6 2 1 0 
 # max = 395
1757491		 # 	collision with: 6 0 0 0  and 1 1 1 0 
 # max = 395
1757493		 # 	collision with: 1 3 1 0  and 1 3 2 0 
 # max = 395
1757509		 # 	collision with: 2 3 1 0  and 2 4 1 0 
 # max = 395
1757511		 # 	collision with: 5 5 0 0  and 6 3 1 0 
 # max = 395
1757531		 # 	collision with: 4 0 0 0  and 5 1 0 0 
 # max = 395
1757545		 # 	collision with: 1 2 3 0  and 6 3 3 0 
 # max = 395
1757547		 # 	collision with: 3 1 1 0  and 6 3 1 0 
 # max = 395
1757549		 # 	collision with: 3 2 1 0  and 1 0 2 0 
 # max = 395
1757551		 # 	collision with: 5 3 0 0  and 3 6 1 0 
 # max = 395
1757560		 # 	collision with: 3 2 0 0  and 4 2 0 0 
 # max = 395
1757562		 # 	collision with: 0 2 0 0  and 2 2 0 0 
 # max = 395
1757580		 # 	collision with: 5 1 0 0  and 2 2 0 0 
 # max = 395
1757588		 # 	collision with: 3 2 0 0  and 4 2 0 0 
 # max = 395
1757590		 # 	collision with: 0 2 0 0  and 2 2 0 0 
 # max = 395
1757600		 # 	collision with: 3 2 0 0  and 3 4 0 0 
 # max = 395
1757616		 # 	collision with: 3 2 0 0  and 4 2 0 0 
 # max = 395
1757618		 # 	collision with: 0 2 0 0  and 2 2 0 0 
 # max = 395
1757620		 # 	collision with: 2 1 0 0  and 2 3 0 0 
 # max = 395
1757625		 # 	collision with: 1 4 1 0  and 2 1 2 0 
 # max = 395
1757627		 # 	collision with: 0 5 0 0  and 2 6 1 0 
 # max = 395
1757641		 # 	collision with: 2 2 1 0  and 4 2 1 0 
 # max = 395
1757643		 # 	collision with: 0 2 0 0  and 2 2 0 0 
 # max = 395
1757644		 # 	collision with: 3 2 0 0  and 4 2 0 0 
 # max = 395
1757646		 # 	collision with: 0 2 0 0  and 2 2 0 0 
 # max = 395
1757649		 # 	collision with: 0 2 1 0  and 1 2 1 0 
 # max = 395
1757651		 # 	collision with: 6 2 0 0  and 1 2 1 0 
 # max = 395
1757665		 # 	collision with: 1 0 1 0  and 0 2 1 0 
 # max = 395
1757667		 # 	collision with: 6 3 0 0  and 6 4 0 0 
 # max = 395
1757668		 # 	collision with: 5 1 0 0  and 5 2 0 0 
 # max = 395
1757672		 # 	collision with: 3 2 0 0  and 4 2 0 0 
 # max = 395
1757674		 # 	collision with: 0 2 0 0  and 2 2 0 0 
 # max = 395
1757688		 # 	collision with: 4 0 0 0  and 4 1 0 0 
 # max = 395
1757700		 # 	collision with: 3 2 0 0  and 4 2 0 0 
 # max = 395
1757702		 # 	collision with: 0 2 0 0  and 2 2 0 0 
 # max = 395
1757708		 # 	collision with: 6 0 0 0  and 1 1 0 0 
 # max = 395
1757728		 # 	collision with: 3 6 1 0  and 2 1 2 0 
 # max = 395
1757730		 # 	collision with: 4 5 1 0  and 3 0 2 0 
 # max = 395
1757743		 # 	collision with: 3 1 3 0  and 6 3 3 0 
 # max = 395
1757745		 # 	collision with: 2 1 0 0  and 3 6 2 0 
 # max = 395
1757747		 # 	collision with: 3 4 0 0  and 2 5 1 0 
 # max = 395
1757756		 # 	collision with: 1 1 0 0  and 3 3 1 0 
 # max = 395
1757758		 # 	collision with: 6 6 0 0  and 6 1 1 0 
 # max = 395
1757776		 # 	collision with: 1 5 0 0  and 3 0 1 0 
 # max = 395
1757778		 # 	collision with: 2 4 1 0  and 0 0 3 0 
 # max = 395
1757784		 # 	collision with: 3 4 0 0  and 5 1 2 0 
 # max = 395
1757786		 # 	collision with: 6 6 0 0  and 3 3 2 0 
 # max = 395
1757796		 # 	collision with: 3 2 0 0  and 4 2 0 0 
 # max = 395
1757798		 # 	collision with: 0 2 0 0  and 2 2 0 0 
 # max = 395
1757816		 # 	collision with: 5 2 0 0  and 4 2 1 0 
 # max = 395
1757818		 # 	collision with: 3 2 0 0  and 4 2 1 0 
 # max = 395
1757821		 # 	collision with: 2 2 1 0  and 4 2 1 0 
 # max = 395
1757823		 # 	collision with: 0 2 0 0  and 2 2 0 0 
 # max = 395
1757837		 # 	collision with: 3 0 2 0  and 2 1 2 0 
 # max = 395
1757839		 # 	collision with: 6 5 0 0  and 0 2 1 0 
 # max = 395
1757840		 # 	collision with: 0 4 0 0  and 6 6 1 0 
 # max = 395
1757842		 # 	collision with: 5 5 1 0  and 5 0 2 0 
 # max = 395
1757845		 # 	collision with: 4 2 0 0  and 3 2 1 0 
 # max = 395
1757847		 # 	collision with: 2 2 0 0  and 2 4 0 0 
 # max = 395
1757861		 # 	collision with: 3 6 0 0  and 3 6 1 0 
 # max = 395
1757866		 # 	collision with: 2 0 1 0  and 1 1 1 0 
 # max = 395
1757868		 # 	collision with: 5 2 1 0  and 3 4 2 0 
 # max = 395
1757870		 # 	collision with: 4 3 0 0  and 1 5 1 0 
 # max = 395
1757884		 # 	collision with: 1 2 1 0  and 2 2 1 0 
 # max = 395
1757886		 # 	collision with: 2 2 1 0  and 3 2 1 0 
 # max = 395
1757896		 # 	collision with: 2 2 1 0  and 3 2 1 0 
 # max = 395
1757898		 # 	collision with: 3 2 1 0  and 4 2 1 0 
 # max = 395
1757904		 # 	collision with: 0 3 0 0  and 4 0 2 0 
 # max = 395
1757906		 # 	collision with: 2 2 0 0  and 3 6 1 0 
 # max = 395
1757924		 # 	collision with: 5 3 0 0  and 6 4 1 0 
 # max = 395
1757926		 # 	collision with: 6 1 6 0  and 2 0 0 1 
 # max = 395
1757937		 # 	collision with: 1 2 0 0  and 6 3 0 0 
 # max = 395
1757939		 # 	collision with: 4 1 0 0  and 3 6 2 0 
 # max = 395
1757941		 # 	collision with: 6 0 1 0  and 1 1 1 0 
 # max = 395
1757943		 # 	collision with: 1 5 0 0  and 5 1 2 0 
 # max = 395
1757952		 # 	collision with: 2 4 0 0  and 4 5 1 0 
 # max = 395
1757954		 # 	collision with: 4 1 0 0  and 6 2 1 0 
 # max = 395
1757974		 # 	collision with: 3 0 1 0  and 3 1 1 0 
 # max = 395
1757980		 # 	collision with: 0 0 0 0  and 3 1 1 0 
 # max = 395
1757982		 # 	collision with: 6 4 1 0  and 4 5 2 0 
 # max = 395
1757992		 # 	collision with: 6 3 0 0  and 6 3 2 0 
 # max = 395
1757994		 # 	collision with: 6 0 0 0  and 0 6 1 0 
 # max = 395
1758008		 # 	collision with: 4 0 0 0  and 4 1 1 0 
 # max = 395
1758010		 # 	collision with: 3 2 0 0  and 2 4 2 0 
 # max = 395
1758012		 # 	collision with: 3 2 0 0  and 2 2 1 0 
 # max = 395
1758014		 # 	collision with: 0 2 1 0  and 1 2 1 0 
 # max = 395
1758017		 # 	collision with: 6 2 0 0  and 0 5 1 0 
 # max = 395
1758019		 # 	collision with: 4 1 0 0  and 0 2 1 0 
 # max = 395
1758033		 # 	collision with: 3 2 0 0  and 4 2 0 0 
 # max = 395
1758036		 # 	collision with: 5 3 1 0  and 6 4 2 0 
 # max = 395
1758038		 # 	collision with: 6 5 0 0  and 3 6 1 0 
 # max = 395
1758041		 # 	collision with: 1 2 0 0  and 0 2 1 0 
 # max = 395
1758043		 # 	collision with: 5 3 0 0  and 0 2 1 0 
 # max = 395
1758057		 # 	collision with: 6 2 0 0  and 6 3 0 0 
 # max = 395
1758059		 # 	collision with: 0 2 0 0  and 2 2 0 0 
 # max = 395
1758060		 # 	collision with: 3 2 0 0  and 4 2 0 0 
 # max = 395
1758062		 # 	collision with: 0 2 0 0  and 2 2 0 0 
 # max = 395
1758064		 # 	collision with: 1 2 1 0  and 2 2 1 0 
 # max = 395
1758066		 # 	collision with: 1 6 0 0  and 4 0 1 0 
 # max = 395
1758080		 # 	collision with: 0 3 0 0  and 6 6 1 0 
 # max = 395
1758082		 # 	collision with: 4 1 0 0  and 6 2 2 0 
 # max = 395
1758100		 # 	collision with: 3 5 1 0  and 1 6 2 0 
 # max = 395
1758102		 # 	collision with: 2 4 0 0  and 3 2 2 0 
 # max = 395
1758120		 # 	collision with: 3 4 1 0  and 1 0 2 0 
 # max = 395
1758122		 # 	collision with: 5 5 1 0  and 0 1 2 0 
 # max = 395
1758133		 # 	collision with: 6 6 0 0  and 4 0 1 0 
 # max = 395
1758135		 # 	collision with: 3 1 0 0  and 6 3 0 0 
 # max = 395
1758137		 # 	collision with: 1 5 0 0  and 3 0 1 0 
 # max = 395
1758148		 # 	collision with: 4 6 0 0  and 5 2 1 0 
 # max = 395
1758150		 # 	collision with: 5 1 0 0  and 4 0 2 0 
 # max = 395
1758168		 # 	collision with: 0 2 1 0  and 2 2 1 0 
 # max = 395
1758170		 # 	collision with: 1 2 1 0  and 3 2 1 0 
 # max = 395
1758188		 # 	collision with: 1 2 0 0  and 4 6 1 0 
 # max = 395
1758190		 # 	collision with: 2 3 0 0  and 2 3 2 0 
 # max = 395
1758204		 # 	collision with: 0 4 0 0  and 4 0 1 0 
 # max = 395
1758206		 # 	collision with: 3 0 0 0  and 6 3 1 0 
 # max = 395
1758208		 # 	collision with: 0 4 0 0  and 4 0 1 0 
 # max = 395
1758210		 # 	collision with: 4 2 0 0  and 0 2 1 0 
 # max = 395
1758213		 # 	collision with: 3 2 0 0  and 4 2 0 0 
 # max = 395
1758215		 # 	collision with: 1 1 0 0  and 1 3 0 0 
 # max = 395
1758231		 # 	collision with: 0 1 0 0  and 2 3 0 0 
 # max = 395
1758232		 # 	collision with: 0 2 1 0  and 1 2 1 0 
 # max = 395
1758234		 # 	collision with: 1 2 1 0  and 2 2 1 0 
 # max = 395
1758237		 # 	collision with: 2 1 0 0  and 2 3 0 0 
 # max = 395
1758239		 # 	collision with: 0 2 0 0  and 2 2 0 0 
 # max = 395
1758255		 # 	collision with: 4 1 0 0  and 5 3 0 0 
 # max = 395
1758256		 # 	collision with: 6 3 0 0  and 0 2 1 0 
 # max = 395
1758258		 # 	collision with: 1 1 0 0  and 2 6 1 0 
 # max = 395
1758260		 # 	collision with: 2 1 1 0  and 3 0 3 0 
 # max = 395
1758262		 # 	collision with: 0 2 0 0  and 4 1 2 0 
 # max = 395
1758278		 # 	collision with: 2 2 1 0  and 2 4 1 0 
 # max = 395
1758288		 # 	collision with: 4 6 0 0  and 3 2 1 0 
 # max = 395
1758290		 # 	collision with: 6 4 0 0  and 3 0 1 0 
 # max = 395
1758296		 # 	collision with: 3 2 0 0  and 4 2 0 0 
 # max = 395
1758298		 # 	collision with: 0 2 0 0  and 2 2 0 0 
 # max = 395
1758316		 # 	collision with: 0 5 0 0  and 6 2 1 0 
 # max = 395
1758318		 # 	collision with: 1 3 0 0  and 2 0 1 0 
 # max = 395
1758329		 # 	collision with: 6 1 0 0  and 5 0 1 0 
 # max = 395
1758333		 # 	collision with: 1 5 0 0  and 2 3 1 0 
 # max = 395
1758335		 # 	collision with: 0 2 0 0  and 2 2 0 0 
 # max = 395
1758344		 # 	collision with: 0 2 0 0  and 4 6 1 0 
 # max = 395
1758346		 # 	collision with: 6 5 0 0  and 1 2 1 0 
 # max = 395
1758364		 # 	collision with: 3 2 0 0  and 4 2 0 0 
 # max = 395
1758366		 # 	collision with: 0 2 0 0  and 2 2 0 0 
 # max = 395
1758372		 # 	collision with: 2 6 0 0  and 5 0 2 0 
 # max = 395
1758374		 # 	collision with: 5 4 0 0  and 5 1 1 0 
 # max = 395
1758386		 # 	collision with: 0 0 1 0  and 6 2 1 0 
 # max = 395
1758400		 # 	collision with: 2 2 1 0  and 4 2 1 0 
 # max = 395
1758402		 # 	collision with: 0 2 1 0  and 1 2 1 0 
 # max = 395
1758404		 # 	collision with: 6 2 0 0  and 5 2 1 0 
 # max = 395
1758406		 # 	collision with: 1 2 0 0  and 0 2 1 0 
 # max = 395
1758411		 # 	collision with: 3 1 0 0  and 3 1 1 0 
 # max = 395
1758425		 # 	collision with: 5 1 0 0  and 5 2 0 0 
 # max = 395
1758427		 # 	collision with: 4 1 2 0  and 0 0 4 0 
 # max = 395
1758428		 # 	collision with: 0 6 1 0  and 4 3 2 0 
 # max = 395
1758430		 # 	collision with: 3 1 0 0  and 4 5 1 0 
 # max = 395
1758435		 # 	collision with: 5 2 0 0  and 4 2 1 0 
 # max = 395
1758449		 # 	collision with: 3 2 0 0  and 4 2 0 0 
 # max = 395
1758451		 # 	collision with: 1 2 1 0  and 2 2 1 0 
 # max = 395
1758452		 # 	collision with: 3 0 1 0  and 2 1 2 0 
 # max = 395
1758454		 # 	collision with: 2 2 3 0  and 3 2 3 0 
 # max = 395
1758472		 # 	collision with: 2 0 0 0  and 4 5 2 0 
 # max = 395
1758474		 # 	collision with: 1 2 0 0  and 5 3 1 0 
 # max = 395
1758484		 # 	collision with: 4 2 1 0  and 4 6 2 0 
 # max = 395
1758486		 # 	collision with: 0 3 0 0  and 6 0 1 0 
 # max = 395
1758492		 # 	collision with: 4 1 0 0  and 4 1 1 0 
 # max = 395
1758494		 # 	collision with: 0 3 0 0  and 6 0 1 0 
 # max = 395
1758512		 # 	collision with: 6 1 0 0  and 5 0 1 0 
 # max = 395
1758514		 # 	collision with: 3 5 0 0  and 1 4 1 0 
 # max = 395
1758525		 # 	collision with: 5 6 0 0  and 3 3 1 0 
 # max = 395
1758527		 # 	collision with: 2 5 0 0  and 2 1 2 0 
 # max = 395
1758529		 # 	collision with: 5 3 0 0  and 5 0 2 0 
 # max = 395
1758531		 # 	collision with: 4 3 0 0  and 4 0 2 0 
 # max = 395
1758560		 # 	collision with: 2 0 0 0  and 2 4 2 0 
 # max = 395
1758562		 # 	collision with: 0 2 0 0  and 2 4 1 0 
 # max = 395
1758568		 # 	collision with: 4 2 0 0  and 5 1 1 0 
 # max = 395
1758570		 # 	collision with: 2 2 1 0  and 4 2 1 0 
 # max = 395
1758580		 # 	collision with: 0 6 0 0  and 2 4 1 0 
 # max = 395
1758582		 # 	collision with: 1 6 0 0  and 5 4 1 0 
 # max = 395
1758596		 # 	collision with: 2 1 2 0  and 3 0 3 0 
 # max = 395
1758598		 # 	collision with: 5 2 0 0  and 0 0 2 0 
 # max = 395
1758600		 # 	collision with: 3 2 0 0  and 4 2 0 0 
 # max = 395
1758602		 # 	collision with: 0 2 0 0  and 2 2 0 0 
 # max = 395
1758605		 # 	collision with: 1 4 0 0  and 1 5 0 0 
 # max = 395
1758607		 # 	collision with: 1 2 1 0  and 3 6 2 0 
 # max = 395
1758621		 # 	collision with: 6 6 0 0  and 4 1 1 0 
 # max = 395
1758623		 # 	collision with: 0 2 1 0  and 1 2 1 0 
 # max = 395
1758624		 # 	collision with: 4 1 0 0  and 4 0 1 0 
 # max = 395
1758626		 # 	collision with: 5 5 0 0  and 4 4 1 0 
 # max = 395
1758629		 # 	collision with: 3 2 0 0  and 4 2 0 0 
 # max = 395
1758645		 # 	collision with: 5 3 0 0  and 2 5 1 0 
 # max = 395
1758647		 # 	collision with: 0 3 0 0  and 2 5 1 0 
 # max = 395
1758648		 # 	collision with: 0 2 1 0  and 1 2 1 0 
 # max = 395
1758650		 # 	collision with: 1 2 1 0  and 2 2 1 0 
 # max = 395
1758652		 # 	collision with: 0 2 0 0  and 5 1 1 0 
 # max = 395
1758654		 # 	collision with: 3 6 0 0  and 6 5 1 0 
 # max = 395
1758668		 # 	collision with: 1 1 0 0  and 6 0 1 0 
 # max = 395
1758670		 # 	collision with: 2 0 0 0  and 1 1 1 0 
 # max = 395
1758680		 # 	collision with: 3 5 1 0  and 4 4 2 0 
 # max = 395
1758682		 # 	collision with: 5 2 0 0  and 0 0 2 0 
 # max = 395
1758690		 # 	collision with: 5 1 0 0  and 5 1 1 0 
 # max = 395
1758708		 # 	collision with: 5 1 0 0  and 4 6 1 0 
 # max = 395
1758710		 # 	collision with: 3 6 0 0  and 1 2 2 0 
 # max = 395
1758721		 # 	collision with: 4 5 0 0  and 4 3 1 0 
 # max = 395
1758723		 # 	collision with: 3 0 0 0  and 3 1 0 0 
 # max = 395
1758727		 # 	collision with: 0 4 0 0  and 2 0 1 0 
 # max = 395
1758736		 # 	collision with: 0 2 1 0  and 2 2 1 0 
 # max = 395
1758738		 # 	collision with: 1 2 1 0  and 3 2 1 0 
 # max = 395
1758756		 # 	collision with: 4 5 0 0  and 0 1 1 0 
 # max = 395
1758758		 # 	collision with: 1 4 0 0  and 3 3 1 0 
 # max = 395
1758764		 # 	collision with: 3 4 1 0  and 6 2 2 0 
 # max = 395
1758766		 # 	collision with: 5 2 1 0  and 0 0 2 0 
 # max = 395
1758776		 # 	collision with: 1 2 1 0  and 3 2 1 0 
 # max = 395
1758778		 # 	collision with: 2 2 1 0  and 4 2 1 0 
 # max = 395
1758792		 # 	collision with: 5 2 0 0  and 1 0 1 0 
 # max = 395
1758794		 # 	collision with: 5 0 0 0  and 5 5 1 0 
 # max = 395
1758798		 # 	collision with: 6 0 1 0  and 2 1 1 0 
 # max = 395
1758801		 # 	collision with: 2 2 2 0  and 3 2 2 0 
 # max = 395
1758817		 # 	collision with: 3 0 1 0  and 2 1 3 0 
 # max = 395
1758819		 # 	collision with: 0 6 1 0  and 2 1 2 0 
 # max = 395
1758825		 # 	collision with: 3 2 0 0  and 2 2 1 0 
 # max = 395
1758827		 # 	collision with: 2 2 0 0  and 0 2 1 0 
 # max = 395
1758841		 # 	collision with: 0 2 1 0  and 1 2 1 0 
 # max = 395
1758843		 # 	collision with: 1 2 2 0  and 3 2 2 0 
 # max = 395
1758844		 # 	collision with: 4 6 0 0  and 1 2 1 0 
 # max = 395
1758846		 # 	collision with: 1 4 0 0  and 6 1 1 0 
 # max = 395
1758848		 # 	collision with: 3 4 1 0  and 3 2 2 0 
 # max = 395
1758850		 # 	collision with: 3 6 0 0  and 3 2 2 0 
 # max = 395
1758864		 # 	collision with: 3 2 0 0  and 4 2 0 0 
 # max = 395
1758866		 # 	collision with: 0 2 0 0  and 2 2 0 0 
 # max = 395
1758876		 # 	collision with: 0 5 0 0  and 5 1 2 0 
 # max = 395
1758878		 # 	collision with: 3 3 0 0  and 6 1 1 0 
 # max = 395
1758884		 # 	collision with: 2 0 0 0  and 0 6 2 0 
 # max = 395
1758886		 # 	collision with: 3 3 0 0  and 6 6 1 0 
 # max = 395
1758941		 # 	collision with: 6 4 0 0  and 6 1 1 0 
 # max = 395
1758943		 # 	collision with: 4 4 0 0  and 2 1 1 0 
 # max = 395
1758945		 # 	collision with: 4 1 1 0  and 5 3 1 0 
 # max = 395
1758961		 # 	collision with: 3 2 0 0  and 4 2 0 0 
 # max = 395
1758963		 # 	collision with: 0 1 0 0  and 1 3 1 0 
 # max = 395
1758973		 # 	collision with: 3 5 0 0  and 1 5 1 0 
 # max = 395
1758975		 # 	collision with: 6 4 0 0  and 3 2 1 0 
 # max = 395
1759045		 # 	collision with: 3 2 0 0  and 4 2 0 0 
 # max = 395
1759047		 # 	collision with: 2 1 1 0  and 1 0 2 0 
 # max = 395
1759061		 # 	collision with: 2 3 2 0  and 4 3 2 0 
 # max = 395
1759063		 # 	collision with: 1 3 0 0  and 1 1 2 0 
 # max = 395
1759089		 # 	collision with: 5 1 2 0  and 3 1 3 0 
 # max = 395
1759093		 # 	collision with: 2 1 2 0  and 2 3 2 0 
 # max = 395
1759095		 # 	collision with: 6 3 0 0  and 6 4 0 0 
 # max = 395
1759100		 # 	collision with: 0 0 0 0  and 2 0 2 0 
 # max = 395
1759102		 # 	collision with: 6 3 0 0  and 0 3 2 0 
 # max = 395
1759137		 # 	collision with: 5 1 0 0  and 5 2 1 0 
 # max = 395
1759139		 # 	collision with: 5 0 2 0  and 1 2 2 0 
 # max = 395
1759141		 # 	collision with: 3 2 0 0  and 4 2 0 0 
 # max = 395
1759143		 # 	collision with: 4 1 1 0  and 4 2 1 0 
 # max = 395
1759159		 # 	collision with: 0 0 0 0  and 2 0 2 0 
 # max = 395
1759169		 # 	collision with: 3 2 0 0  and 4 2 0 0 
 # max = 395
1759241		 # 	collision with: 4 2 0 0  and 3 4 0 0 
 # max = 395
1759243		 # 	collision with: 1 2 0 0  and 4 0 1 0 
 # max = 395
1759259		 # 	collision with: 1 5 0 0  and 1 6 1 0 
 # max = 395
1759285		 # 	collision with: 2 4 1 0  and 3 4 1 0 
 # max = 395
1759287		 # 	collision with: 2 2 0 0  and 5 2 1 0 
 # max = 395
1759289		 # 	collision with: 0 0 0 0  and 2 0 2 0 
 # max = 395
1759291		 # 	collision with: 2 2 0 0  and 2 4 0 0 
 # max = 395
1759296		 # 	collision with: 0 3 1 0  and 5 6 2 0 
 # max = 395
1759298		 # 	collision with: 3 2 0 0  and 0 6 1 0 
 # max = 395
1759333		 # 	collision with: 2 3 1 0  and 2 3 2 0 
 # max = 395
1759335		 # 	collision with: 5 1 0 0  and 0 4 1 0 
 # max = 395
1759339		 # 	collision with: 2 2 1 0  and 2 2 2 0 
 # max = 395
1759353		 # 	collision with: 3 2 1 0  and 0 0 2 0 
 # max = 395
1759365		 # 	collision with: 6 2 0 0  and 6 3 0 0 
 # max = 395
1759367		 # 	collision with: 5 5 0 0  and 6 5 1 0 
 # max = 395
1759437		 # 	collision with: 5 3 1 0  and 4 0 2 0 
 # max = 395
1759439		 # 	collision with: 0 0 0 0  and 2 0 2 0 
 # max = 395
1759453		 # 	collision with: 1 2 0 0  and 6 3 0 0 
 # max = 395
1759455		 # 	collision with: 3 2 0 0  and 6 3 0 0 
 # max = 395
1759481		 # 	collision with: 1 2 0 0  and 6 3 0 0 
 # max = 395
1759483		 # 	collision with: 3 2 0 0  and 6 3 0 0 
 # max = 395
1759492		 # 	collision with: 6 4 0 0  and 0 2 1 0 
 # max = 395
1759494		 # 	collision with: 5 3 0 0  and 0 1 1 0 
 # max = 395
1759529		 # 	collision with: 3 2 0 0  and 4 2 0 0 
 # max = 395
1759531		 # 	collision with: 0 0 0 0  and 2 0 2 0 
 # max = 395
1759533		 # 	collision with: 0 6 0 0  and 5 5 1 0 
 # max = 395
1759535		 # 	collision with: 6 0 1 0  and 5 1 1 0 
 # max = 395
1759549		 # 	collision with: 3 1 1 0  and 2 2 2 0 
 # max = 395
1759551		 # 	collision with: 5 3 0 0  and 0 1 2 0 
 # max = 395
1759561		 # 	collision with: 2 5 0 0  and 5 3 1 0 
 # max = 395
1759563		 # 	collision with: 6 2 1 0  and 2 3 2 0 
 # max = 395
1759633		 # 	collision with: 5 1 0 0  and 1 5 1 0 
 # max = 395
1759635		 # 	collision with: 2 1 0 0  and 2 5 1 0 
 # max = 395
1759649		 # 	collision with: 5 2 0 0  and 1 5 1 0 
 # max = 395
1759651		 # 	collision with: 0 2 0 0  and 3 5 2 0 
 # max = 395
1759677		 # 	collision with: 6 1 1 0  and 4 3 2 0 
 # max = 395
1759679		 # 	collision with: 5 3 1 0  and 2 4 1 0 
 # max = 395
1759681		 # 	collision with: 3 5 0 0  and 1 4 1 0 
 # max = 395
1759683		 # 	collision with: 1 1 0 0  and 1 3 0 0 
 # max = 395
1759688		 # 	collision with: 4 1 1 0  and 5 0 3 0 
 # max = 395
1759690		 # 	collision with: 1 5 0 0  and 2 0 1 0 
 # max = 395
1759725		 # 	collision with: 0 0 1 0  and 2 0 1 0 
 # max = 395
1759727		 # 	collision with: 0 1 0 0  and 2 2 0 0 
 # max = 395
1759729		 # 	collision with: 5 1 0 0  and 2 2 0 0 
 # max = 395
1759731		 # 	collision with: 0 0 0 0  and 2 6 1 0 
 # max = 395
1759745		 # 	collision with: 2 6 0 0  and 4 1 1 0 
 # max = 395
1759747		 # 	collision with: 3 4 0 0  and 2 2 1 0 
 # max = 395
1759757		 # 	collision with: 5 1 0 0  and 2 2 0 0 
 # max = 395
1759759		 # 	collision with: 2 3 1 0  and 4 3 1 0 
 # max = 395
1759829		 # 	collision with: 2 4 0 0  and 3 2 1 0 
 # max = 395
1759831		 # 	collision with: 2 4 1 0  and 3 4 1 0 
 # max = 395
1759845		 # 	collision with: 5 1 0 0  and 5 2 0 0 
 # max = 395
1759847		 # 	collision with: 2 2 1 0  and 3 4 1 0 
 # max = 395
1759873		 # 	collision with: 5 1 0 0  and 5 2 0 0 
 # max = 395
1759875		 # 	collision with: 5 2 1 0  and 2 4 1 0 
 # max = 395
1759877		 # 	collision with: 3 2 0 0  and 4 2 0 0 
 # max = 395
1759879		 # 	collision with: 4 1 0 0  and 4 2 0 0 
 # max = 395
1759884		 # 	collision with: 1 3 0 0  and 2 6 1 0 
 # max = 395
1759886		 # 	collision with: 3 3 0 0  and 1 6 1 0 
 # max = 395
1759925		 # 	collision with: 3 2 1 0  and 3 4 1 0 
 # max = 395
1759927		 # 	collision with: 0 0 0 0  and 2 0 0 0 
 # max = 395
1759941		 # 	collision with: 1 4 0 0  and 1 5 0 0 
 # max = 395
1759943		 # 	collision with: 0 0 0 0  and 2 0 0 0 
 # max = 395
1759953		 # 	collision with: 4 1 0 0  and 4 0 1 0 
 # max = 395
1759955		 # 	collision with: 0 0 0 0  and 2 0 0 0 
 # max = 395
1760025		 # 	collision with: 1 4 0 0  and 1 5 0 0 
 # max = 395
1760041		 # 	collision with: 4 2 0 0  and 3 2 1 0 
 # max = 395
1760043		 # 	collision with: 0 0 0 0  and 2 0 0 0 
 # max = 395
1760071		 # 	collision with: 0 0 0 0  and 2 0 0 0 
 # max = 395
1760073		 # 	collision with: 4 1 0 0  and 5 0 1 0 
 # max = 395
1760075		 # 	collision with: 0 0 0 0  and 2 0 0 0 
 # max = 395
1760080		 # 	collision with: 2 0 0 0  and 0 0 2 0 
 # max = 395
1760082		 # 	collision with: 3 4 0 0  and 5 3 1 0 
 # max = 395
1760117		 # 	collision with: 4 0 0 0  and 4 1 0 0 
 # max = 395
1760119		 # 	collision with: 1 5 1 0  and 3 5 1 0 
 # max = 395
1760121		 # 	collision with: 6 0 0 0  and 1 1 0 0 
 # max = 395
1760123		 # 	collision with: 3 3 0 0  and 2 0 1 0 
 # max = 395
1760137		 # 	collision with: 4 0 1 0  and 4 1 1 0 
 # max = 395
1760139		 # 	collision with: 3 0 1 0  and 3 1 1 0 
 # max = 395
1760151		 # 	collision with: 2 3 0 0  and 6 5 1 0 
 # max = 395
1760223		 # 	collision with: 3 0 1 0  and 3 1 1 0 
 # max = 395
1760237		 # 	collision with: 3 2 0 0  and 4 2 0 0 
 # max = 395
1760265		 # 	collision with: 3 2 0 0  and 4 2 0 0 
 # max = 395
1760267		 # 	collision with: 1 1 1 0  and 1 3 1 0 
 # max = 395
1760269		 # 	collision with: 6 5 0 0  and 3 0 1 0 
 # max = 395
1760271		 # 	collision with: 3 0 0 0  and 3 1 0 0 
 # max = 395
1760305		 # 	collision with: 3 2 0 0  and 4 2 0 0 
 # max = 395
1760307		 # 	collision with: 6 6 0 0  and 6 1 1 0 
 # max = 395
1760325		 # 	collision with: 5 6 0 0  and 1 4 1 0 
 # max = 395
1760327		 # 	collision with: 6 3 0 0  and 6 4 0 0 
 # max = 395
1760337		 # 	collision with: 1 1 1 0  and 3 1 1 0 
 # max = 395
1760339		 # 	collision with: 0 5 0 0  and 2 5 0 0 
 # max = 395
1760341		 # 	collision with: 1 6 0 0  and 2 3 1 0 
 # max = 395
1760437		 # 	collision with: 6 2 0 0  and 1 0 2 0 
 # max = 395
1760441		 # 	collision with: 5 4 1 0  and 1 5 2 0 
 # max = 395
1760443		 # 	collision with: 4 2 0 0  and 6 0 2 0 
 # max = 395
1760445		 # 	collision with: 3 2 0 0  and 4 2 0 0 
 # max = 395
1760447		 # 	collision with: 1 2 0 0  and 6 2 1 0 
 # max = 395
1760453		 # 	collision with: 1 6 0 0  and 1 3 1 0 
 # max = 395
1760455		 # 	collision with: 0 1 0 0  and 3 2 1 0 
 # max = 395
1760472		 # 	collision with: 4 4 1 0  and 2 0 2 0 
 # max = 395
1760474		 # 	collision with: 5 5 1 0  and 3 1 2 0 
 # max = 395
1760503		 # 	collision with: 6 6 0 0  and 0 0 1 0 
 # max = 395
1760521		 # 	collision with: 4 0 1 0  and 4 1 1 0 
 # max = 395
1760523		 # 	collision with: 0 5 0 0  and 2 5 0 0 
 # max = 395
1760533		 # 	collision with: 0 0 0 0  and 1 0 1 0 
 # max = 395
1760535		 # 	collision with: 5 2 1 0  and 5 3 1 0 
 # max = 395
1760537		 # 	collision with: 0 0 0 0  and 1 0 1 0 
 # max = 395
1760539		 # 	collision with: 2 2 0 0  and 2 4 0 0 
 # max = 395
1760633		 # 	collision with: 4 0 1 0  and 4 1 1 0 
 # max = 395
1760635		 # 	collision with: 0 5 0 0  and 2 5 0 0 
 # max = 395
1760637		 # 	collision with: 3 2 0 0  and 3 4 0 0 
 # max = 395
1760639		 # 	collision with: 6 3 1 0  and 6 4 1 0 
 # max = 395
1760641		 # 	collision with: 5 2 0 0  and 2 2 1 0 
 # max = 395
1760643		 # 	collision with: 6 6 0 0  and 0 0 1 0 
 # max = 395
1760651		 # 	collision with: 2 2 0 0  and 2 4 0 0 
 # max = 395
1760668		 # 	collision with: 0 3 0 0  and 6 1 2 0 
 # max = 395
1760670		 # 	collision with: 0 5 0 0  and 4 3 2 0 
 # max = 395
1760697		 # 	collision with: 0 0 0 0  and 1 0 1 0 
 # max = 395
1760699		 # 	collision with: 1 1 1 0  and 3 1 1 0 
 # max = 395
1760717		 # 	collision with: 1 2 0 0  and 6 3 0 0 
 # max = 395
1760729		 # 	collision with: 6 2 0 0  and 6 3 0 0 
 # max = 395
1760731		 # 	collision with: 6 2 0 0  and 3 3 0 0 
 # max = 395
1760733		 # 	collision with: 2 0 0 0  and 2 0 1 0 
 # max = 395
1760735		 # 	collision with: 0 5 0 0  and 2 5 0 0 
 # max = 395
1760829		 # 	collision with: 1 2 0 0  and 6 3 0 0 
 # max = 395
1760831		 # 	collision with: 4 2 0 0  and 0 1 1 0 
 # max = 395
1760833		 # 	collision with: 3 2 0 0  and 4 2 0 0 
 # max = 395
1760835		 # 	collision with: 5 5 0 0  and 5 0 1 0 
 # max = 395
1760837		 # 	collision with: 5 5 0 0  and 1 0 1 0 
 # max = 395
1760839		 # 	collision with: 6 2 0 0  and 3 3 1 0 
 # max = 395
1760845		 # 	collision with: 3 0 0 0  and 3 0 1 0 
 # max = 395
1760847		 # 	collision with: 0 5 0 0  and 2 5 0 0 
 # max = 395
1760864		 # 	collision with: 4 6 0 0  and 1 6 1 0 
 # max = 395
1760866		 # 	collision with: 0 0 0 0  and 1 0 1 0 
 # max = 395
1760893		 # 	collision with: 3 1 0 0  and 3 1 1 0 
 # max = 395
1760913		 # 	collision with: 0 5 0 0  and 5 3 1 0 
 # max = 395
1760915		 # 	collision with: 3 0 0 0  and 3 0 1 0 
 # max = 395
1760929		 # 	collision with: 3 2 0 0  and 4 2 0 0 
 # max = 395
1760931		 # 	collision with: 5 0 0 0  and 5 0 1 0 
 # max = 395
1761027		 # 	collision with: 2 0 0 0  and 2 0 1 0 
 # max = 395
1761029		 # 	collision with: 3 4 1 0  and 3 4 2 0 
 # max = 395
1761031		 # 	collision with: 0 5 0 0  and 2 5 0 0 
 # max = 395
1761033		 # 	collision with: 4 1 0 0  and 4 1 1 0 
 # max = 395
1761035		 # 	collision with: 0 0 0 0  and 1 0 1 0 
 # max = 395
1761041		 # 	collision with: 3 2 0 0  and 4 2 0 0 
 # max = 395
1761043		 # 	collision with: 0 0 0 0  and 1 0 1 0 
 # max = 395
1761060		 # 	collision with: 0 0 0 0  and 1 0 1 0 
 # max = 395
1761062		 # 	collision with: 0 1 0 0  and 4 1 1 0 
 # max = 395
1761089		 # 	collision with: 2 2 0 0  and 2 2 1 0 
 # max = 395
1761091		 # 	collision with: 2 1 0 0  and 2 1 1 0 
 # max = 395
1761109		 # 	collision with: 3 2 0 0  and 4 2 0 0 
 # max = 395
1761111		 # 	collision with: 1 1 1 0  and 3 1 1 0 
 # max = 395
1761121		 # 	collision with: 5 3 0 0  and 0 2 1 0 
 # max = 395
1761123		 # 	collision with: 0 1 1 0  and 3 2 2 0 
 # max = 395
1761127		 # 	collision with: 3 0 1 0  and 3 1 1 0 
 # max = 395
1761221		 # 	collision with: 3 2 0 0  and 4 2 0 0 
 # max = 395
1761223		 # 	collision with: 0 0 0 0  and 1 0 1 0 
 # max = 395
1761229		 # 	collision with: 0 0 0 0  and 1 0 1 0 
 # max = 395
1761237		 # 	collision with: 5 1 0 0  and 5 2 0 0 
 # max = 395
1761239		 # 	collision with: 4 3 0 0  and 2 1 1 0 
 # max = 395
1761256		 # 	collision with: 6 5 1 0  and 2 0 2 0 
 # max = 395
1761258		 # 	collision with: 4 3 0 0  and 2 5 2 0 
 # max = 395
1761285		 # 	collision with: 1 2 0 0  and 1 0 1 0 
 # max = 395
1761287		 # 	collision with: 0 5 0 0  and 2 5 0 0 
 # max = 395
13.8447secs	395 8847
