# prime 7
# degree 2
# input variables 3
# output variables 3
# reload computed balance functions from file balance-260of320-p7d2m3-debug.log
# p = 7
# n = 3
# smalldomain p^m 343
# domain p^n 343
#	 p^2 = 49
#	 p^3 = 343
#	 p^4 = 2401
#	 p^5 = 16807
#	 p^6 = 117649
#	 p^7 = 823543
#	 p^8 = 5764801
#	 p^9 = 40353607
opening file : balance-260of320-p7d2m3-debug.log
reloading for step2...
2678016		 # 	collision with: 5 0 0  and 0 1 0 
 # max = 7
2678018		 # 	collision with: 6 0 0  and 3 1 0 
 # max = 10
2678028		 # 	collision with: 5 0 0  and 0 1 0 
 # max = 10
2678030		 # 	collision with: 2 3 0  and 1 4 0 
 # max = 29
2678036		 # 	collision with: 5 0 0  and 0 1 0 
 # max = 29
2678038		 # 	collision with: 6 4 0  and 1 1 1 
 # max = 57
2678040		 # 	collision with: 5 0 0  and 0 1 0 
 # max = 57
2678042		 # 	collision with: 0 2 0  and 4 3 0 
 # max = 57
2678080		 # 	collision with: 5 0 0  and 0 1 0 
 # max = 57
2678084		 # 	collision with: 5 0 0  and 0 1 0 
 # max = 57
2678092		 # 	collision with: 5 0 0  and 0 1 0 
 # max = 57
2678094		 # 	collision with: 5 2 0  and 0 4 0 
 # max = 57
2678104		 # 	collision with: 5 0 0  and 0 1 0 
 # max = 57
2678106		 # 	collision with: 3 0 0  and 3 1 0 
 # max = 57
2678117		 # 	collision with: 1 1 0  and 2 2 0 
 # max = 57
2678119		 # 	collision with: 4 1 0  and 3 3 0 
 # max = 57
2678126		 # 	collision with: 5 1 0  and 0 2 0 
 # max = 57
2678132		 # 	collision with: 5 0 0  and 0 1 0 
 # max = 57
2678134		 # 	collision with: 1 5 0  and 5 0 1 
 # max = 57
2678141		 # 	collision with: 3 1 0  and 3 3 0 
 # max = 57
2678143		 # 	collision with: 3 4 0  and 2 0 1 
 # max = 57
2678213		 # 	collision with: 4 1 0  and 3 2 0 
 # max = 57
2678215		 # 	collision with: 0 1 0  and 3 2 0 
 # max = 57
2678225		 # 	collision with: 2 6 0  and 4 6 0 
 # max = 57
2678227		 # 	collision with: 3 0 0  and 3 1 0 
 # max = 57
2678245		 # 	collision with: 3 1 0  and 5 0 1 
 # max = 57
2678247		 # 	collision with: 0 5 0  and 1 5 0 
 # max = 57
2678253		 # 	collision with: 0 1 0  and 1 2 0 
 # max = 57
2678255		 # 	collision with: 6 2 0  and 0 4 0 
 # max = 57
2678261		 # 	collision with: 0 1 0  and 6 2 0 
 # max = 57
2678263		 # 	collision with: 6 1 0  and 4 3 0 
 # max = 57
2678269		 # 	collision with: 2 1 0  and 6 2 0 
 # max = 57
2678271		 # 	collision with: 2 1 0  and 3 0 1 
 # max = 57
2678289		 # 	collision with: 6 0 0  and 3 1 0 
 # max = 57
2678291		 # 	collision with: 4 6 0  and 4 0 1 
 # max = 57
2678301		 # 	collision with: 3 3 0  and 5 1 1 
 # max = 61
2678303		 # 	collision with: 4 2 0  and 0 3 0 
 # max = 61
2678340		 # 	collision with: 2 1 0  and 1 2 0 
 # max = 61
2678342		 # 	collision with: 4 0 0  and 1 1 0 
 # max = 61
2678409		 # 	collision with: 6 0 0  and 6 1 0 
 # max = 61
2678411		 # 	collision with: 1 1 0  and 6 3 0 
 # max = 61
2678423		 # 	collision with: 2 0 0  and 2 2 0 
 # max = 61
2678441		 # 	collision with: 2 2 0  and 0 0 1 
 # max = 61
2678449		 # 	collision with: 0 2 0  and 6 4 0 
 # max = 61
2678457		 # 	collision with: 6 1 0  and 5 2 0 
 # max = 61
2678459		 # 	collision with: 5 1 0  and 3 3 0 
 # max = 61
2678465		 # 	collision with: 2 0 0  and 4 2 0 
 # max = 61
2678467		 # 	collision with: 6 1 0  and 1 3 0 
 # max = 61
2678485		 # 	collision with: 5 0 0  and 5 2 0 
 # max = 61
2678487		 # 	collision with: 5 3 0  and 1 0 1 
 # max = 61
2678499		 # 	collision with: 6 4 0  and 5 0 1 
 # max = 61
2678536		 # 	collision with: 2 4 0  and 3 0 1 
 # max = 61
2678538		 # 	collision with: 1 3 0  and 6 4 0 
 # max = 61
2678605		 # 	collision with: 6 0 0  and 3 1 0 
 # max = 61
2678607		 # 	collision with: 0 1 0  and 4 2 0 
 # max = 61
2678617		 # 	collision with: 4 3 0  and 5 4 0 
 # max = 61
2678619		 # 	collision with: 1 1 0  and 1 2 0 
 # max = 61
2678637		 # 	collision with: 5 3 0  and 0 4 0 
 # max = 61
2678639		 # 	collision with: 1 4 0  and 2 4 0 
 # max = 61
2678645		 # 	collision with: 1 2 0  and 2 0 1 
 # max = 61
2678647		 # 	collision with: 3 2 0  and 4 2 0 
 # max = 61
2678653		 # 	collision with: 5 1 0  and 4 2 0 
 # max = 61
2678655		 # 	collision with: 4 1 0  and 2 3 0 
 # max = 61
2678661		 # 	collision with: 0 1 0  and 2 1 0 
 # max = 61
2678663		 # 	collision with: 2 1 0  and 4 2 0 
 # max = 61
2678681		 # 	collision with: 2 0 0  and 5 1 0 
 # max = 61
2678683		 # 	collision with: 0 0 0  and 1 1 0 
 # max = 61
2678693		 # 	collision with: 5 0 0  and 2 2 0 
 # max = 61
2678695		 # 	collision with: 4 0 0  and 1 1 0 
 # max = 61
2678732		 # 	collision with: 5 2 0  and 3 3 0 
 # max = 61
2678734		 # 	collision with: 1 2 0  and 0 4 0 
 # max = 61
2678801		 # 	collision with: 0 1 0  and 6 2 0 
 # max = 61
2678813		 # 	collision with: 2 0 0  and 5 1 0 
 # max = 61
2678833		 # 	collision with: 2 2 0  and 2 3 0 
 # max = 61
2678835		 # 	collision with: 0 0 0  and 4 0 0 
 # max = 61
2678843		 # 	collision with: 0 0 0  and 4 0 0 
 # max = 61
2678849		 # 	collision with: 4 1 0  and 3 2 0 
 # max = 61
2678851		 # 	collision with: 0 0 0  and 4 0 0 
 # max = 61
2678859		 # 	collision with: 0 0 0  and 4 0 0 
 # max = 61
2678877		 # 	collision with: 0 1 0  and 1 2 0 
 # max = 61
2678879		 # 	collision with: 0 0 0  and 4 0 0 
 # max = 61
2678889		 # 	collision with: 2 1 0  and 5 0 1 
 # max = 61
2678891		 # 	collision with: 0 0 0  and 4 0 0 
 # max = 61
2678928		 # 	collision with: 4 6 0  and 5 0 1 
 # max = 61
2678930		 # 	collision with: 5 3 0  and 6 0 1 
 # max = 61
2678997		 # 	collision with: 1 1 0  and 0 2 0 
 # max = 61
2678999		 # 	collision with: 4 1 0  and 2 3 0 
 # max = 61
2679009		 # 	collision with: 2 0 0  and 3 2 0 
 # max = 61
2679011		 # 	collision with: 6 2 0  and 6 3 0 
 # max = 61
2679031		 # 	collision with: 2 3 0  and 3 3 0 
 # max = 61
2679037		 # 	collision with: 2 0 0  and 2 2 1 
 # max = 65
2679039		 # 	collision with: 0 0 0  and 1 1 0 
 # max = 65
2679047		 # 	collision with: 2 1 0  and 3 2 0 
 # max = 65
2679053		 # 	collision with: 0 3 0  and 3 0 1 
 # max = 65
2679055		 # 	collision with: 3 1 0  and 4 0 1 
 # max = 65
2679073		 # 	collision with: 5 3 0  and 0 4 0 
 # max = 65
2679085		 # 	collision with: 2 0 0  and 4 2 0 
 # max = 65
2679124		 # 	collision with: 2 0 0  and 4 2 0 
 # max = 65
2679126		 # 	collision with: 4 0 0  and 6 2 0 
 # max = 65
2679193		 # 	collision with: 2 1 0  and 1 2 0 
 # max = 65
2679195		 # 	collision with: 4 0 0  and 6 2 0 
 # max = 65
2679205		 # 	collision with: 2 1 0  and 1 2 0 
 # max = 65
2679207		 # 	collision with: 4 0 0  and 1 1 0 
 # max = 65
2679225		 # 	collision with: 2 1 0  and 1 2 0 
 # max = 65
2679227		 # 	collision with: 3 2 0  and 0 3 0 
 # max = 65
2679233		 # 	collision with: 2 1 0  and 1 2 0 
 # max = 65
2679235		 # 	collision with: 2 3 0  and 3 3 0 
 # max = 65
2679241		 # 	collision with: 2 1 0  and 1 2 0 
 # max = 65
2679243		 # 	collision with: 1 1 0  and 6 3 0 
 # max = 65
2679249		 # 	collision with: 2 1 0  and 1 2 0 
 # max = 65
2679251		 # 	collision with: 3 0 0  and 6 1 0 
 # max = 65
2679269		 # 	collision with: 2 1 0  and 1 2 0 
 # max = 65
2679271		 # 	collision with: 4 1 0  and 3 3 0 
 # max = 65
2679281		 # 	collision with: 2 1 0  and 1 2 0 
 # max = 65
2679283		 # 	collision with: 4 5 0  and 0 0 1 
 # max = 65
2679320		 # 	collision with: 1 3 0  and 5 4 0 
 # max = 65
2679322		 # 	collision with: 2 6 0  and 0 1 1 
 # max = 65
2679391		 # 	collision with: 6 1 0  and 4 3 0 
 # max = 65
2679401		 # 	collision with: 6 1 0  and 2 3 0 
 # max = 65
2679403		 # 	collision with: 4 3 0  and 4 4 0 
 # max = 65
2679421		 # 	collision with: 6 1 0  and 2 3 0 
 # max = 65
2679423		 # 	collision with: 4 0 0  and 1 2 0 
 # max = 65
2679429		 # 	collision with: 6 1 0  and 2 3 0 
 # max = 65
2679431		 # 	collision with: 0 1 0  and 2 1 0 
 # max = 65
2679437		 # 	collision with: 1 1 0  and 0 2 0 
 # max = 65
2679445		 # 	collision with: 6 1 0  and 2 3 0 
 # max = 65
2679467		 # 	collision with: 0 1 0  and 4 2 0 
 # max = 65
2679477		 # 	collision with: 6 1 0  and 2 2 0 
 # max = 65
2679479		 # 	collision with: 6 1 0  and 1 3 0 
 # max = 65
2679525		 # 	collision with: 2 1 0  and 1 3 0 
 # max = 65
2679527		 # 	collision with: 3 2 0  and 2 4 0 
 # max = 65
2679537		 # 	collision with: 0 1 0  and 2 3 0 
 # max = 65
2679539		 # 	collision with: 2 1 1  and 1 2 1 
 # max = 65
2679544		 # 	collision with: 0 4 0  and 2 4 0 
 # max = 65
2679546		 # 	collision with: 2 4 0  and 4 4 0 
 # max = 65
2679549		 # 	collision with: 6 3 0  and 3 0 1 
 # max = 65
2679551		 # 	collision with: 3 2 0  and 0 4 0 
 # max = 65
2679557		 # 	collision with: 0 4 0  and 2 4 0 
 # max = 65
2679559		 # 	collision with: 3 1 0  and 5 0 1 
 # max = 65
2679560		 # 	collision with: 1 2 0  and 5 3 0 
 # max = 65
2679572		 # 	collision with: 1 4 0  and 3 4 0 
 # max = 65
2679574		 # 	collision with: 0 4 0  and 1 4 0 
 # max = 65
2679576		 # 	collision with: 2 2 0  and 0 3 0 
 # max = 65
2679600		 # 	collision with: 2 4 0  and 4 4 0 
 # max = 65
2679602		 # 	collision with: 1 4 0  and 2 4 0 
 # max = 65
2679620		 # 	collision with: 5 1 0  and 0 2 0 
 # max = 65
2679628		 # 	collision with: 0 4 0  and 1 4 0 
 # max = 65
2679630		 # 	collision with: 2 4 0  and 3 4 0 
 # max = 65
2679636		 # 	collision with: 0 0 0  and 1 1 1 
 # max = 65
2679656		 # 	collision with: 1 4 0  and 2 4 0 
 # max = 65
2679658		 # 	collision with: 3 4 0  and 4 4 0 
 # max = 65
2679680		 # 	collision with: 6 1 0  and 5 2 0 
 # max = 65
2679684		 # 	collision with: 2 4 0  and 3 4 0 
 # max = 65
2679686		 # 	collision with: 0 4 0  and 2 4 0 
 # max = 65
2679696		 # 	collision with: 1 1 0  and 3 1 1 
 # max = 65
2679701		 # 	collision with: 2 4 0  and 3 4 0 
 # max = 65
2679703		 # 	collision with: 0 0 0  and 5 1 0 
 # max = 65
2679709		 # 	collision with: 0 1 0  and 3 2 0 
 # max = 65
2679711		 # 	collision with: 3 1 0  and 2 3 0 
 # max = 65
2679712		 # 	collision with: 6 2 0  and 0 3 1 
 # max = 70
2679714		 # 	collision with: 5 1 0  and 0 1 1 
 # max = 70
2679721		 # 	collision with: 0 1 0  and 3 2 0 
 # max = 70
2679723		 # 	collision with: 1 2 0  and 4 3 0 
 # max = 70
2679733		 # 	collision with: 2 2 0  and 2 4 0 
 # max = 70
2679735		 # 	collision with: 3 3 0  and 0 0 1 
 # max = 70
2679740		 # 	collision with: 0 0 0  and 3 1 0 
 # max = 70
2679742		 # 	collision with: 3 1 0  and 2 3 0 
 # max = 70
2679745		 # 	collision with: 0 4 0  and 2 4 0 
 # max = 70
2679747		 # 	collision with: 2 1 0  and 0 2 1 
 # max = 70
2679753		 # 	collision with: 0 0 0  and 1 1 1 
 # max = 70
2679755		 # 	collision with: 1 1 0  and 1 0 1 
 # max = 70
2679756		 # 	collision with: 6 1 0  and 6 3 0 
 # max = 70
2679758		 # 	collision with: 6 0 0  and 6 1 0 
 # max = 70
2679768		 # 	collision with: 0 3 0  and 3 4 0 
 # max = 70
2679770		 # 	collision with: 1 3 0  and 4 4 0 
 # max = 70
2679774		 # 	collision with: 3 2 0  and 3 4 0 
 # max = 70
2679796		 # 	collision with: 2 0 0  and 1 2 0 
 # max = 70
2679798		 # 	collision with: 3 3 0  and 2 5 0 
 # max = 70
2679816		 # 	collision with: 2 2 0  and 2 4 0 
 # max = 70
2679818		 # 	collision with: 3 1 0  and 0 2 0 
 # max = 70
2679824		 # 	collision with: 0 1 0  and 3 2 0 
 # max = 70
2679826		 # 	collision with: 1 2 0  and 4 3 0 
 # max = 70
2679832		 # 	collision with: 5 0 0  and 5 1 0 
 # max = 70
2679834		 # 	collision with: 5 2 0  and 5 3 0 
 # max = 70
2679876		 # 	collision with: 4 2 0  and 4 3 0 
 # max = 70
2679878		 # 	collision with: 4 0 0  and 4 2 0 
 # max = 70
2679880		 # 	collision with: 2 1 0  and 1 3 0 
 # max = 70
2679882		 # 	collision with: 3 0 0  and 2 2 0 
 # max = 70
2679892		 # 	collision with: 1 1 0  and 1 2 0 
 # max = 70
2679894		 # 	collision with: 1 3 0  and 1 4 0 
 # max = 70
2679897		 # 	collision with: 3 3 0  and 5 1 1 
 # max = 70
2679905		 # 	collision with: 0 2 0  and 3 3 0 
 # max = 70
2679907		 # 	collision with: 3 2 0  and 2 4 0 
 # max = 70
2679908		 # 	collision with: 6 0 0  and 4 1 0 
 # max = 70
2679910		 # 	collision with: 1 3 0  and 6 4 0 
 # max = 70
2679917		 # 	collision with: 2 0 0  and 1 2 0 
 # max = 70
2679929		 # 	collision with: 2 6 0  and 0 1 1 
 # max = 70
2679931		 # 	collision with: 2 0 0  and 0 2 0 
 # max = 70
2679936		 # 	collision with: 0 3 0  and 5 4 0 
 # max = 70
2679938		 # 	collision with: 1 3 0  and 6 4 0 
 # max = 70
2679941		 # 	collision with: 3 0 0  and 3 2 0 
 # max = 70
2679943		 # 	collision with: 2 0 0  and 0 2 0 
 # max = 70
2679951		 # 	collision with: 2 0 0  and 0 2 0 
 # max = 70
2679952		 # 	collision with: 6 2 0  and 1 3 0 
 # max = 70
2679954		 # 	collision with: 3 1 0  and 0 2 0 
 # max = 70
2679964		 # 	collision with: 4 1 0  and 0 3 0 
 # max = 70
2679966		 # 	collision with: 1 3 0  and 6 4 0 
 # max = 70
2679968		 # 	collision with: 3 3 0  and 1 1 1 
 # max = 70
2679970		 # 	collision with: 1 3 0  and 6 4 0 
 # max = 70
2680012		 # 	collision with: 0 1 0  and 2 3 0 
 # max = 70
2680014		 # 	collision with: 1 3 0  and 6 4 0 
 # max = 70
2680020		 # 	collision with: 6 0 0  and 2 2 0 
 # max = 70
2680022		 # 	collision with: 1 3 0  and 6 4 0 
 # max = 70
2680030		 # 	collision with: 1 3 0  and 6 4 0 
 # max = 70
2680048		 # 	collision with: 2 2 0  and 5 4 0 
 # max = 70
2680050		 # 	collision with: 1 3 0  and 6 4 0 
 # max = 70
2680072		 # 	collision with: 5 1 0  and 3 3 0 
 # max = 70
2680074		 # 	collision with: 3 0 0  and 2 1 0 
 # max = 70
2680076		 # 	collision with: 2 2 0  and 0 3 0 
 # max = 70
2680078		 # 	collision with: 1 3 0  and 6 4 0 
 # max = 70
2680088		 # 	collision with: 2 4 0  and 3 4 0 
 # max = 70
2680090		 # 	collision with: 0 4 0  and 2 4 0 
 # max = 70
2680093		 # 	collision with: 6 1 0  and 6 3 0 
 # max = 70
2680095		 # 	collision with: 2 0 0  and 0 2 0 
 # max = 70
2680103		 # 	collision with: 2 0 0  and 0 2 0 
 # max = 70
2680104		 # 	collision with: 5 0 0  and 0 2 0 
 # max = 70
2680106		 # 	collision with: 4 1 0  and 5 2 0 
 # max = 70
2680113		 # 	collision with: 0 0 0  and 3 1 0 
 # max = 70
2680115		 # 	collision with: 1 1 0  and 4 2 0 
 # max = 70
2680127		 # 	collision with: 1 1 0  and 4 2 0 
 # max = 70
2680137		 # 	collision with: 0 0 0  and 1 1 1 
 # max = 70
2680139		 # 	collision with: 1 1 0  and 4 2 0 
 # max = 70
2680145		 # 	collision with: 1 1 0  and 1 2 0 
 # max = 70
2680147		 # 	collision with: 1 1 0  and 4 2 0 
 # max = 70
2680148		 # 	collision with: 5 0 0  and 0 2 0 
 # max = 70
2680150		 # 	collision with: 3 2 0  and 1 3 0 
 # max = 70
2680160		 # 	collision with: 5 0 0  and 0 2 0 
 # max = 70
2680162		 # 	collision with: 2 0 0  and 3 1 0 
 # max = 70
2680164		 # 	collision with: 5 0 0  and 0 2 0 
 # max = 70
2680166		 # 	collision with: 0 4 0  and 1 4 0 
 # max = 70
2680188		 # 	collision with: 5 0 0  and 0 2 0 
 # max = 70
2680190		 # 	collision with: 6 0 0  and 1 2 0 
 # max = 70
2680208		 # 	collision with: 5 0 0  and 0 2 0 
 # max = 70
2680210		 # 	collision with: 3 3 0  and 3 0 1 
 # max = 70
2680216		 # 	collision with: 5 0 0  and 0 2 0 
 # max = 70
2680218		 # 	collision with: 6 2 0  and 0 3 0 
 # max = 70
2680224		 # 	collision with: 5 0 0  and 0 2 0 
 # max = 70
2680226		 # 	collision with: 1 0 1  and 2 1 1 
 # max = 70
2680244		 # 	collision with: 5 0 0  and 0 2 0 
 # max = 70
2680246		 # 	collision with: 2 1 0  and 4 0 1 
 # max = 70
2680268		 # 	collision with: 2 0 0  and 1 1 0 
 # max = 70
2680270		 # 	collision with: 4 2 0  and 3 3 0 
 # max = 70
2680272		 # 	collision with: 5 0 0  and 0 2 0 
 # max = 70
2680274		 # 	collision with: 1 3 0  and 2 4 0 
 # max = 70
2680286		 # 	collision with: 3 1 0  and 0 2 0 
 # max = 70
2680289		 # 	collision with: 0 1 0  and 2 3 0 
 # max = 70
2680291		 # 	collision with: 5 1 0  and 3 2 0 
 # max = 70
2680297		 # 	collision with: 2 0 0  and 1 2 0 
 # max = 70
2680300		 # 	collision with: 3 2 0  and 2 3 0 
 # max = 70
2680302		 # 	collision with: 2 0 0  and 0 2 0 
 # max = 70
2680311		 # 	collision with: 3 0 0  and 2 2 0 
 # max = 70
2680321		 # 	collision with: 4 2 0  and 1 0 1 
 # max = 70
2680323		 # 	collision with: 2 1 0  and 2 2 0 
 # max = 70
2680328		 # 	collision with: 3 2 0  and 2 3 0 
 # max = 70
2680330		 # 	collision with: 2 0 0  and 0 2 0 
 # max = 70
2680333		 # 	collision with: 6 6 0  and 6 0 1 
 # max = 70
2680341		 # 	collision with: 6 0 1  and 6 1 1 
 # max = 70
2680343		 # 	collision with: 6 5 0  and 6 0 1 
 # max = 70
2680346		 # 	collision with: 2 0 0  and 0 2 0 
 # max = 70
2680356		 # 	collision with: 3 2 0  and 2 3 0 
 # max = 70
2680358		 # 	collision with: 2 0 0  and 0 2 0 
 # max = 70
2680360		 # 	collision with: 3 2 0  and 2 3 0 
 # max = 70
2680362		 # 	collision with: 2 0 0  and 0 2 0 
 # max = 70
2680384		 # 	collision with: 3 2 0  and 2 3 0 
 # max = 70
2680386		 # 	collision with: 2 0 0  and 0 2 0 
 # max = 70
2680404		 # 	collision with: 4 1 0  and 0 3 0 
 # max = 70
2680406		 # 	collision with: 2 0 0  and 0 2 0 
 # max = 70
2680412		 # 	collision with: 2 0 0  and 1 1 0 
 # max = 70
2680414		 # 	collision with: 3 0 0  and 2 1 0 
 # max = 70
2680420		 # 	collision with: 3 2 0  and 2 3 0 
 # max = 70
2680422		 # 	collision with: 2 0 0  and 3 1 0 
 # max = 70
2680440		 # 	collision with: 3 2 0  and 2 3 0 
 # max = 70
2680442		 # 	collision with: 2 0 0  and 0 2 0 
 # max = 70
2680464		 # 	collision with: 3 2 0  and 2 3 0 
 # max = 70
2680466		 # 	collision with: 2 0 0  and 0 2 0 
 # max = 70
2680480		 # 	collision with: 3 2 0  and 2 3 0 
 # max = 70
2680482		 # 	collision with: 2 0 0  and 0 2 0 
 # max = 70
2680485		 # 	collision with: 3 5 0  and 5 0 1 
 # max = 70
2680487		 # 	collision with: 3 2 0  and 6 4 0 
 # max = 70
2680493		 # 	collision with: 2 1 0  and 1 3 0 
 # max = 70
2680495		 # 	collision with: 1 2 0  and 4 3 0 
 # max = 70
2680496		 # 	collision with: 4 0 0  and 6 1 0 
 # max = 70
2680498		 # 	collision with: 6 1 0  and 1 2 0 
 # max = 70
2680505		 # 	collision with: 2 2 0  and 1 4 0 
 # max = 70
2680507		 # 	collision with: 3 3 0  and 2 5 0 
 # max = 70
2680517		 # 	collision with: 2 2 0  and 1 4 0 
 # max = 70
2680524		 # 	collision with: 0 0 0  and 4 2 0 
 # max = 70
2680526		 # 	collision with: 1 3 0  and 3 4 0 
 # max = 70
2680531		 # 	collision with: 3 2 0  and 3 4 0 
 # max = 70
2680537		 # 	collision with: 2 2 0  and 1 4 0 
 # max = 70
2680539		 # 	collision with: 1 3 0  and 3 4 0 
 # max = 70
2680540		 # 	collision with: 0 4 0  and 2 4 0 
 # max = 70
2680542		 # 	collision with: 0 0 0  and 5 1 0 
 # max = 70
2680552		 # 	collision with: 2 2 0  and 6 4 0 
 # max = 70
2680554		 # 	collision with: 2 4 0  and 4 5 0 
 # max = 70
2680556		 # 	collision with: 0 3 0  and 1 0 1 
 # max = 70
2680558		 # 	collision with: 3 1 0  and 0 2 0 
 # max = 70
2680580		 # 	collision with: 0 3 0  and 2 4 0 
 # max = 70
2680582		 # 	collision with: 3 2 0  and 0 4 0 
 # max = 70
2680602		 # 	collision with: 6 5 0  and 5 1 1 
 # max = 70
2680616		 # 	collision with: 3 3 0  and 4 1 1 
 # max = 70
2680618		 # 	collision with: 1 2 0  and 2 0 1 
 # max = 70
2680636		 # 	collision with: 3 3 0  and 4 1 1 
 # max = 70
2680638		 # 	collision with: 1 1 0  and 1 0 1 
 # max = 70
2680660		 # 	collision with: 4 4 0  and 3 5 0 
 # max = 70
2680662		 # 	collision with: 3 2 0  and 1 4 0 
 # max = 70
2680664		 # 	collision with: 6 2 0  and 1 3 0 
 # max = 70
2680666		 # 	collision with: 0 2 0  and 2 3 0 
 # max = 70
2680676		 # 	collision with: 6 0 0  and 2 2 0 
 # max = 70
2680678		 # 	collision with: 2 1 0  and 0 0 1 
 # max = 70
2680683		 # 	collision with: 6 0 0  and 6 1 0 
 # max = 70
2680689		 # 	collision with: 2 2 0  and 1 4 0 
 # max = 70
2680691		 # 	collision with: 1 3 0  and 4 4 0 
 # max = 70
2680692		 # 	collision with: 1 2 0  and 5 3 0 
 # max = 70
2680694		 # 	collision with: 3 1 0  and 0 2 0 
 # max = 70
2680701		 # 	collision with: 5 0 0  and 5 1 0 
 # max = 70
2680703		 # 	collision with: 1 3 0  and 4 4 0 
 # max = 70
2680713		 # 	collision with: 3 2 0  and 2 3 0 
 # max = 70
2680715		 # 	collision with: 0 0 0  and 1 1 1 
 # max = 70
2680720		 # 	collision with: 3 1 0  and 4 3 0 
 # max = 70
2680722		 # 	collision with: 1 3 0  and 5 4 0 
 # max = 70
2680725		 # 	collision with: 3 2 0  and 2 3 0 
 # max = 70
2680727		 # 	collision with: 4 0 0  and 1 1 0 
 # max = 70
2680733		 # 	collision with: 3 2 0  and 2 3 0 
 # max = 70
2680736		 # 	collision with: 0 3 0  and 3 4 0 
 # max = 70
2680738		 # 	collision with: 3 2 0  and 6 4 0 
 # max = 70
2680752		 # 	collision with: 0 1 0  and 3 2 0 
 # max = 70
2680754		 # 	collision with: 1 1 0  and 3 3 0 
 # max = 70
2680776		 # 	collision with: 2 1 0  and 6 2 0 
 # max = 70
2680778		 # 	collision with: 4 1 0  and 5 3 0 
 # max = 70
2680796		 # 	collision with: 3 1 0  and 4 2 0 
 # max = 70
2680798		 # 	collision with: 2 1 0  and 6 3 0 
 # max = 70
2680804		 # 	collision with: 5 5 0  and 0 1 1 
 # max = 70
2680806		 # 	collision with: 1 1 0  and 6 0 1 
 # max = 70
2680812		 # 	collision with: 0 0 0  and 3 1 0 
 # max = 70
2680814		 # 	collision with: 2 4 0  and 3 4 0 
 # max = 70
2680832		 # 	collision with: 2 2 0  and 3 4 0 
 # max = 70
2680834		 # 	collision with: 3 2 0  and 4 4 0 
 # max = 70
2680858		 # 	collision with: 0 1 0  and 6 2 0 
 # max = 70
2680860		 # 	collision with: 0 3 0  and 4 4 0 
 # max = 70
2680862		 # 	collision with: 5 0 0  and 6 2 0 
 # max = 70
2680872		 # 	collision with: 0 0 0  and 4 2 0 
 # max = 70
2680874		 # 	collision with: 1 4 0  and 4 1 1 
 # max = 70
2680877		 # 	collision with: 3 2 0  and 2 3 0 
 # max = 70
2680879		 # 	collision with: 3 2 0  and 1 3 0 
 # max = 70
2680885		 # 	collision with: 0 0 0  and 3 1 0 
 # max = 70
2680887		 # 	collision with: 3 0 0  and 2 2 0 
 # max = 70
2680893		 # 	collision with: 0 1 0  and 5 3 0 
 # max = 70
2680895		 # 	collision with: 6 0 0  and 4 2 0 
 # max = 70
2680913		 # 	collision with: 5 1 0  and 6 3 0 
 # max = 70
2680915		 # 	collision with: 0 5 0  and 2 0 1 
 # max = 70
2680920		 # 	collision with: 6 1 0  and 6 0 1 
 # max = 70
2680922		 # 	collision with: 4 3 0  and 1 1 1 
 # max = 70
2680928		 # 	collision with: 4 1 0  and 5 3 0 
 # max = 70
2680930		 # 	collision with: 1 5 0  and 5 0 1 
 # max = 70
2680937		 # 	collision with: 1 4 0  and 4 0 1 
 # max = 70
2680939		 # 	collision with: 6 0 0  and 6 1 0 
 # max = 70
2680941		 # 	collision with: 1 1 0  and 2 3 0 
 # max = 70
2680952		 # 	collision with: 4 1 0  and 1 3 0 
 # max = 70
2680954		 # 	collision with: 0 2 0  and 1 4 0 
 # max = 70
2680968		 # 	collision with: 4 1 0  and 1 2 1 
 # max = 70
2680970		 # 	collision with: 4 0 0  and 5 1 0 
 # max = 70
2680980		 # 	collision with: 1 5 0  and 5 0 1 
 # max = 70
2680982		 # 	collision with: 3 2 0  and 6 0 1 
 # max = 70
2680984		 # 	collision with: 5 3 0  and 4 4 0 
 # max = 70
2680986		 # 	collision with: 5 1 0  and 3 3 0 
 # max = 70
2681016		 # 	collision with: 3 3 0  and 2 5 0 
 # max = 70
2681018		 # 	collision with: 6 1 0  and 3 3 0 
 # max = 70
2681020		 # 	collision with: 3 6 0  and 3 0 1 
 # max = 70
2681022		 # 	collision with: 4 0 0  and 6 1 0 
 # max = 70
2681032		 # 	collision with: 4 2 0  and 2 3 0 
 # max = 70
2681034		 # 	collision with: 5 2 0  and 1 4 0 
 # max = 70
2681048		 # 	collision with: 6 1 0  and 0 3 0 
 # max = 70
2681050		 # 	collision with: 4 1 0  and 5 1 1 
 # max = 70
2681061		 # 	collision with: 5 1 0  and 0 3 0 
 # max = 70
2681065		 # 	collision with: 0 3 0  and 2 0 1 
 # max = 70
2681067		 # 	collision with: 5 3 0  and 0 0 1 
 # max = 70
2681072		 # 	collision with: 2 0 0  and 4 1 0 
 # max = 70
2681074		 # 	collision with: 2 3 0  and 0 1 1 
 # max = 70
2681080		 # 	collision with: 5 3 0  and 3 4 0 
 # max = 70
2681082		 # 	collision with: 3 0 0  and 6 2 0 
 # max = 70
2681084		 # 	collision with: 4 1 0  and 4 0 1 
 # max = 70
2681086		 # 	collision with: 2 2 0  and 3 4 0 
 # max = 70
2681091		 # 	collision with: 5 1 0  and 4 2 0 
 # max = 70
2681109		 # 	collision with: 2 2 0  and 5 4 0 
 # max = 70
2681111		 # 	collision with: 3 2 0  and 3 4 0 
 # max = 70
2681116		 # 	collision with: 6 1 0  and 6 3 0 
 # max = 70
2681126		 # 	collision with: 2 2 0  and 3 2 0 
 # max = 70
2681133		 # 	collision with: 1 2 0  and 4 3 0 
 # max = 70
2681135		 # 	collision with: 0 2 0  and 6 4 0 
 # max = 70
2681137		 # 	collision with: 5 0 0  and 5 1 0 
 # max = 70
2681139		 # 	collision with: 3 6 0  and 6 0 1 
 # max = 70
2681148		 # 	collision with: 6 1 0  and 6 0 1 
 # max = 70
2681150		 # 	collision with: 3 3 0  and 5 4 0 
 # max = 70
2681164		 # 	collision with: 1 5 0  and 5 0 1 
 # max = 70
2681166		 # 	collision with: 3 2 0  and 3 4 0 
 # max = 70
2681176		 # 	collision with: 3 1 0  and 2 3 0 
 # max = 70
2681178		 # 	collision with: 0 0 0  and 6 2 0 
 # max = 70
2681180		 # 	collision with: 0 1 0  and 6 2 0 
 # max = 70
2681182		 # 	collision with: 3 3 0  and 2 4 0 
 # max = 70
2681212		 # 	collision with: 3 1 0  and 4 2 0 
 # max = 70
2681214		 # 	collision with: 2 2 0  and 4 4 0 
 # max = 70
2681216		 # 	collision with: 4 1 0  and 6 2 0 
 # max = 70
2681228		 # 	collision with: 0 0 0  and 3 2 0 
 # max = 70
2681230		 # 	collision with: 6 1 0  and 4 2 0 
 # max = 70
2681244		 # 	collision with: 1 1 0  and 2 3 0 
 # max = 70
2681246		 # 	collision with: 3 4 0  and 4 4 0 
 # max = 70
2681257		 # 	collision with: 6 3 0  and 0 4 0 
 # max = 70
2681259		 # 	collision with: 5 3 0  and 1 4 0 
 # max = 70
2681261		 # 	collision with: 6 5 0  and 3 0 1 
 # max = 70
2681263		 # 	collision with: 4 5 0  and 1 0 1 
 # max = 70
2681268		 # 	collision with: 0 5 0  and 1 5 0 
 # max = 70
2681270		 # 	collision with: 6 1 0  and 1 2 0 
 # max = 70
2681278		 # 	collision with: 5 0 0  and 3 1 0 
 # max = 70
2681280		 # 	collision with: 3 1 0  and 2 3 0 
 # max = 70
2681282		 # 	collision with: 1 3 0  and 6 4 0 
 # max = 70
2681285		 # 	collision with: 6 2 0  and 4 4 0 
 # max = 70
2681287		 # 	collision with: 1 1 0  and 3 1 0 
 # max = 70
2681305		 # 	collision with: 1 3 0  and 3 4 0 
 # max = 70
2681307		 # 	collision with: 1 2 0  and 3 3 0 
 # max = 70
2681312		 # 	collision with: 3 1 0  and 4 2 0 
 # max = 70
2681314		 # 	collision with: 6 1 0  and 1 2 0 
 # max = 70
2681320		 # 	collision with: 0 0 0  and 2 2 0 
 # max = 70
2681329		 # 	collision with: 3 0 0  and 3 2 0 
 # max = 70
2681331		 # 	collision with: 1 2 0  and 3 3 0 
 # max = 70
2681333		 # 	collision with: 0 1 0  and 4 1 1 
 # max = 70
2681335		 # 	collision with: 1 2 0  and 3 3 0 
 # max = 70
2681344		 # 	collision with: 1 1 0  and 1 0 1 
 # max = 70
2681362		 # 	collision with: 1 3 0  and 6 4 0 
 # max = 70
2681372		 # 	collision with: 0 6 0  and 2 6 0 
 # max = 70
2681374		 # 	collision with: 4 0 0  and 4 2 0 
 # max = 70
2681376		 # 	collision with: 4 1 0  and 6 2 0 
 # max = 70
2681378		 # 	collision with: 5 0 0  and 1 1 0 
 # max = 70
2681408		 # 	collision with: 2 3 0  and 4 3 0 
 # max = 70
2681410		 # 	collision with: 4 2 0  and 5 4 0 
 # max = 70
2681412		 # 	collision with: 3 0 0  and 3 2 0 
 # max = 70
2681414		 # 	collision with: 0 0 0  and 6 2 0 
 # max = 70
2681424		 # 	collision with: 2 2 0  and 5 4 0 
 # max = 70
2681426		 # 	collision with: 1 3 0  and 6 4 0 
 # max = 70
2681442		 # 	collision with: 2 2 0  and 4 4 0 
 # max = 70
2681453		 # 	collision with: 3 1 0  and 4 2 0 
 # max = 70
2681455		 # 	collision with: 1 2 0  and 3 3 0 
 # max = 70
2681457		 # 	collision with: 6 3 0  and 1 0 1 
 # max = 70
2681459		 # 	collision with: 4 0 0  and 4 2 0 
 # max = 70
2681464		 # 	collision with: 0 0 0  and 1 1 1 
 # max = 70
2681466		 # 	collision with: 2 3 0  and 4 3 0 
 # max = 70
2681472		 # 	collision with: 4 2 0  and 2 3 0 
 # max = 70
2681474		 # 	collision with: 1 3 0  and 6 4 0 
 # max = 70
2681476		 # 	collision with: 6 6 0  and 1 0 1 
 # max = 70
2681478		 # 	collision with: 4 2 0  and 2 4 0 
 # max = 70
2681481		 # 	collision with: 3 1 0  and 4 3 0 
 # max = 70
2681483		 # 	collision with: 4 2 0  and 3 3 0 
 # max = 70
2681501		 # 	collision with: 3 2 0  and 5 4 0 
 # max = 70
2681508		 # 	collision with: 1 1 0  and 1 0 1 
 # max = 70
2681510		 # 	collision with: 4 2 0  and 2 4 0 
 # max = 70
2681516		 # 	collision with: 0 1 0  and 1 3 0 
 # max = 70
2681518		 # 	collision with: 4 2 0  and 2 4 0 
 # max = 70
2681529		 # 	collision with: 3 2 0  and 5 4 0 
 # max = 70
2681531		 # 	collision with: 1 4 0  and 1 0 1 
 # max = 70
2681540		 # 	collision with: 2 2 0  and 2 4 0 
 # max = 70
2681542		 # 	collision with: 4 2 0  and 2 4 0 
 # max = 70
2681556		 # 	collision with: 1 5 0  and 2 0 1 
 # max = 70
2681558		 # 	collision with: 4 2 0  and 2 4 0 
 # max = 70
2681570		 # 	collision with: 4 2 0  and 2 4 0 
 # max = 70
2681572		 # 	collision with: 3 0 0  and 2 2 0 
 # max = 70
2681606		 # 	collision with: 4 2 0  and 2 4 0 
 # max = 70
2681608		 # 	collision with: 3 1 0  and 2 3 0 
 # max = 70
2681610		 # 	collision with: 4 2 0  and 2 4 0 
 # max = 70
2681620		 # 	collision with: 3 1 0  and 1 2 0 
 # max = 70
2681636		 # 	collision with: 3 1 0  and 4 2 0 
 # max = 70
2681638		 # 	collision with: 4 2 0  and 2 4 0 
 # max = 70
2681651		 # 	collision with: 2 1 0  and 0 1 1 
 # max = 70
2681653		 # 	collision with: 0 0 0  and 3 2 0 
 # max = 70
2681655		 # 	collision with: 0 3 0  and 2 0 1 
 # max = 70
2681660		 # 	collision with: 1 2 0  and 2 3 0 
 # max = 70
2681662		 # 	collision with: 4 2 0  and 2 4 0 
 # max = 70
2681668		 # 	collision with: 1 1 0  and 4 3 0 
 # max = 70
2681670		 # 	collision with: 2 3 0  and 4 3 0 
 # max = 70
2681672		 # 	collision with: 2 0 0  and 6 2 0 
 # max = 70
2681674		 # 	collision with: 4 0 0  and 1 2 0 
 # max = 70
2681677		 # 	collision with: 5 3 0  and 3 5 0 
 # max = 70
2681697		 # 	collision with: 3 4 0  and 4 4 0 
 # max = 70
2681699		 # 	collision with: 1 1 0  and 3 1 0 
 # max = 70
2681704		 # 	collision with: 4 1 0  and 4 0 1 
 # max = 70
2681706		 # 	collision with: 4 4 0  and 2 1 1 
 # max = 70
2681712		 # 	collision with: 1 1 0  and 3 1 0 
 # max = 70
2681714		 # 	collision with: 4 1 0  and 4 0 1 
 # max = 70
2681721		 # 	collision with: 0 0 0  and 3 2 0 
 # max = 70
2681723		 # 	collision with: 4 2 0  and 2 4 0 
 # max = 70
2681727		 # 	collision with: 2 2 0  and 3 2 0 
 # max = 70
2681736		 # 	collision with: 3 1 0  and 4 2 0 
 # max = 70
2681738		 # 	collision with: 4 1 1  and 4 2 1 
 # max = 70
2681752		 # 	collision with: 5 0 0  and 5 1 0 
 # max = 70
2681764		 # 	collision with: 5 0 0  and 6 1 0 
 # max = 70
2681766		 # 	collision with: 0 5 0  and 1 5 0 
 # max = 70
2681770		 # 	collision with: 6 0 0  and 4 2 0 
 # max = 70
2681800		 # 	collision with: 6 4 0  and 0 0 1 
 # max = 70
2681806		 # 	collision with: 6 0 0  and 6 1 0 
 # max = 70
2681816		 # 	collision with: 5 3 0  and 3 4 0 
 # max = 70
2681818		 # 	collision with: 5 0 0  and 3 1 0 
 # max = 70
2681832		 # 	collision with: 2 2 0  and 3 2 0 
 # max = 70
2681834		 # 	collision with: 2 1 1  and 4 1 1 
 # max = 70
2681845		 # 	collision with: 0 0 0  and 2 2 0 
 # max = 70
2681847		 # 	collision with: 4 2 0  and 2 4 0 
 # max = 70
2681856		 # 	collision with: 0 4 0  and 2 0 1 
 # max = 70
2681858		 # 	collision with: 0 0 0  and 6 2 0 
 # max = 70
2681864		 # 	collision with: 3 1 0  and 1 2 0 
 # max = 70
2681866		 # 	collision with: 0 2 0  and 5 3 0 
 # max = 70
2681868		 # 	collision with: 2 1 0  and 3 3 0 
 # max = 70
2681870		 # 	collision with: 0 0 0  and 6 2 0 
 # max = 70
2681873		 # 	collision with: 4 4 0  and 3 5 0 
 # max = 70
2681875		 # 	collision with: 3 3 0  and 2 4 0 
 # max = 70
2681893		 # 	collision with: 3 1 0  and 2 0 1 
 # max = 70
2681895		 # 	collision with: 6 1 0  and 6 0 1 
 # max = 70
2681900		 # 	collision with: 2 1 0  and 3 3 0 
 # max = 70
2681902		 # 	collision with: 2 2 0  and 3 2 0 
 # max = 70
2681908		 # 	collision with: 2 1 0  and 3 3 0 
 # max = 70
2681910		 # 	collision with: 6 0 0  and 1 2 0 
 # max = 70
2681917		 # 	collision with: 1 1 0  and 3 1 0 
 # max = 70
2681919		 # 	collision with: 2 2 0  and 3 4 0 
 # max = 70
2681921		 # 	collision with: 5 6 0  and 4 0 1 
 # max = 70
2681923		 # 	collision with: 3 2 0  and 3 4 0 
 # max = 70
2681934		 # 	collision with: 5 4 0  and 3 0 1 
 # max = 70
2681948		 # 	collision with: 2 1 0  and 3 3 0 
 # max = 70
2681950		 # 	collision with: 2 1 0  and 1 0 1 
 # max = 70
2681960		 # 	collision with: 2 1 0  and 3 3 0 
 # max = 70
2681962		 # 	collision with: 6 1 0  and 3 3 0 
 # max = 70
2681964		 # 	collision with: 2 1 0  and 3 3 0 
 # max = 70
2681966		 # 	collision with: 4 2 0  and 3 3 0 
 # max = 70
2681996		 # 	collision with: 2 1 0  and 3 3 0 
 # max = 70
2681998		 # 	collision with: 2 3 0  and 0 0 1 
 # max = 70
2682000		 # 	collision with: 2 1 0  and 3 3 0 
 # max = 70
2682002		 # 	collision with: 6 2 0  and 0 4 0 
 # max = 70
2682014		 # 	collision with: 0 2 0  and 5 3 0 
 # max = 70
2682028		 # 	collision with: 2 1 0  and 3 3 0 
 # max = 70
2682041		 # 	collision with: 1 2 0  and 2 3 0 
 # max = 70
2682043		 # 	collision with: 2 3 0  and 4 3 0 
 # max = 70
2682045		 # 	collision with: 1 3 0  and 3 0 1 
 # max = 70
2682047		 # 	collision with: 6 3 0  and 1 0 1 
 # max = 70
2682052		 # 	collision with: 2 1 0  and 3 3 0 
 # max = 70
2682060		 # 	collision with: 5 0 0  and 5 1 0 
 # max = 70
2682062		 # 	collision with: 4 1 0  and 0 3 0 
 # max = 70
2682064		 # 	collision with: 2 0 0  and 0 1 0 
 # max = 70
2682066		 # 	collision with: 1 2 0  and 2 0 1 
 # max = 70
2682069		 # 	collision with: 0 1 0  and 6 2 0 
 # max = 70
2682071		 # 	collision with: 6 0 0  and 5 1 0 
 # max = 70
2682091		 # 	collision with: 2 1 0  and 3 2 0 
 # max = 70
2682098		 # 	collision with: 5 4 0  and 2 1 1 
 # max = 70
2682104		 # 	collision with: 2 0 0  and 0 1 0 
 # max = 70
2682106		 # 	collision with: 0 0 0  and 6 2 0 
 # max = 70
2682113		 # 	collision with: 3 6 0  and 2 0 1 
 # max = 70
2682115		 # 	collision with: 2 2 0  and 3 2 0 
 # max = 70
2682117		 # 	collision with: 5 3 0  and 3 4 0 
 # max = 70
2682119		 # 	collision with: 0 1 0  and 6 3 0 
 # max = 70
2682128		 # 	collision with: 2 0 0  and 0 1 0 
 # max = 70
2682130		 # 	collision with: 4 0 0  and 4 2 0 
 # max = 70
2682144		 # 	collision with: 2 0 0  and 0 1 0 
 # max = 70
2682146		 # 	collision with: 2 1 0  and 2 0 1 
 # max = 70
2682156		 # 	collision with: 2 0 0  and 0 1 0 
 # max = 70
2682160		 # 	collision with: 2 0 0  and 0 1 0 
 # max = 70
2682162		 # 	collision with: 6 0 0  and 5 1 0 
 # max = 70
2682192		 # 	collision with: 2 0 0  and 0 1 0 
 # max = 70
2682194		 # 	collision with: 2 6 0  and 3 0 1 
 # max = 70
2682196		 # 	collision with: 2 0 0  and 0 1 0 
 # max = 70
2682198		 # 	collision with: 0 3 0  and 5 0 1 
 # max = 70
2682208		 # 	collision with: 2 0 0  and 0 1 0 
 # max = 70
2682210		 # 	collision with: 3 0 0  and 6 2 0 
 # max = 70
2682224		 # 	collision with: 2 0 0  and 0 1 0 
 # max = 70
2682226		 # 	collision with: 2 3 0  and 5 3 1 
 # max = 75
2682237		 # 	collision with: 5 0 0  and 6 1 0 
 # max = 75
2682239		 # 	collision with: 6 1 0  and 5 2 1 
 # max = 75
2682241		 # 	collision with: 1 5 0  and 5 0 1 
 # max = 75
2682243		 # 	collision with: 6 5 0  and 3 0 1 
 # max = 75
2682250		 # 	collision with: 0 2 0  and 1 4 0 
 # max = 75
2682256		 # 	collision with: 2 0 0  and 0 1 0 
 # max = 75
2682325		 # 	collision with: 5 3 0  and 1 0 1 
 # max = 75
2682341		 # 	collision with: 1 3 0  and 2 3 0 
 # max = 75
2682343		 # 	collision with: 4 3 0  and 6 5 0 
 # max = 75
2682345		 # 	collision with: 6 3 0  and 5 4 0 
 # max = 75
2682347		 # 	collision with: 4 2 0  and 3 3 0 
 # max = 75
2682365		 # 	collision with: 6 1 0  and 4 2 0 
 # max = 75
2682367		 # 	collision with: 0 1 0  and 2 1 0 
 # max = 75
2682373		 # 	collision with: 4 2 0  and 4 3 0 
 # max = 75
2682375		 # 	collision with: 6 2 0  and 2 4 0 
 # max = 75
2682381		 # 	collision with: 3 0 0  and 3 2 0 
 # max = 75
2682383		 # 	collision with: 0 1 0  and 4 2 0 
 # max = 75
2682405		 # 	collision with: 0 6 0  and 1 6 0 
 # max = 75
2682407		 # 	collision with: 3 2 0  and 4 4 0 
 # max = 75
2682421		 # 	collision with: 3 1 0  and 4 2 0 
 # max = 75
2682456		 # 	collision with: 4 2 0  and 1 2 1 
 # max = 75
2682458		 # 	collision with: 5 1 0  and 5 0 1 
 # max = 75
2682523		 # 	collision with: 6 1 0  and 6 0 1 
 # max = 75
2682537		 # 	collision with: 1 6 0  and 2 3 1 
 # max = 75
2682539		 # 	collision with: 6 0 0  and 6 1 0 
 # max = 75
2682541		 # 	collision with: 4 3 0  and 5 4 0 
 # max = 75
2682543		 # 	collision with: 5 2 0  and 5 3 0 
 # max = 75
2682561		 # 	collision with: 6 6 0  and 5 1 1 
 # max = 75
2682563		 # 	collision with: 6 0 0  and 1 2 0 
 # max = 75
2682569		 # 	collision with: 2 2 0  and 4 3 0 
 # max = 75
2682577		 # 	collision with: 3 1 0  and 0 1 1 
 # max = 75
2682579		 # 	collision with: 3 5 0  and 5 0 1 
 # max = 75
2682617		 # 	collision with: 6 1 0  and 6 3 0 
 # max = 75
2682619		 # 	collision with: 3 4 0  and 4 4 0 
 # max = 75
2682652		 # 	collision with: 4 2 0  and 2 4 0 
 # max = 75
2682654		 # 	collision with: 3 1 0  and 5 2 0 
 # max = 75
2682717		 # 	collision with: 2 5 0  and 1 2 1 
 # max = 75
2682719		 # 	collision with: 1 3 0  and 6 4 0 
 # max = 75
2682733		 # 	collision with: 4 3 0  and 5 4 0 
 # max = 75
2682735		 # 	collision with: 0 1 0  and 2 2 0 
 # max = 75
2682737		 # 	collision with: 6 1 0  and 4 3 0 
 # max = 75
2682739		 # 	collision with: 4 1 0  and 0 2 0 
 # max = 75
2682757		 # 	collision with: 2 2 0  and 4 3 0 
 # max = 75
2682759		 # 	collision with: 1 3 0  and 6 4 0 
 # max = 75
2682765		 # 	collision with: 1 1 0  and 5 2 0 
 # max = 75
2682767		 # 	collision with: 1 3 0  and 6 4 0 
 # max = 75
2682773		 # 	collision with: 6 5 0  and 6 1 1 
 # max = 75
2682775		 # 	collision with: 0 2 0  and 2 4 0 
 # max = 75
2682797		 # 	collision with: 0 4 0  and 1 0 1 
 # max = 75
2682799		 # 	collision with: 4 1 0  and 6 2 0 
 # max = 75
2682813		 # 	collision with: 4 6 0  and 2 0 1 
 # max = 75
2682815		 # 	collision with: 4 0 0  and 2 1 0 
 # max = 75
2682848		 # 	collision with: 1 1 1  and 5 2 1 
 # max = 75
2682850		 # 	collision with: 3 2 0  and 4 4 0 
 # max = 75
2682913		 # 	collision with: 4 2 0  and 2 4 0 
 # max = 75
2682915		 # 	collision with: 2 3 0  and 6 4 0 
 # max = 75
2682929		 # 	collision with: 1 1 0  and 0 3 0 
 # max = 75
2682931		 # 	collision with: 2 2 0  and 4 2 0 
 # max = 75
2682935		 # 	collision with: 2 1 0  and 0 3 0 
 # max = 75
2682953		 # 	collision with: 4 2 0  and 2 4 0 
 # max = 75
2682961		 # 	collision with: 4 2 0  and 2 4 0 
 # max = 75
2682963		 # 	collision with: 0 1 0  and 3 3 0 
 # max = 75
2682971		 # 	collision with: 2 1 0  and 2 2 0 
 # max = 75
2682993		 # 	collision with: 6 1 0  and 4 2 0 
 # max = 75
2682995		 # 	collision with: 3 4 0  and 4 4 0 
 # max = 75
2683009		 # 	collision with: 5 0 0  and 4 1 0 
 # max = 75
2683011		 # 	collision with: 6 3 0  and 0 4 0 
 # max = 75
2683044		 # 	collision with: 1 3 0  and 2 0 1 
 # max = 75
2683046		 # 	collision with: 2 1 0  and 2 0 1 
 # max = 75
2683109		 # 	collision with: 4 0 0  and 5 4 1 
 # max = 82
2683111		 # 	collision with: 2 2 0  and 4 2 0 
 # max = 82
2683125		 # 	collision with: 2 2 0  and 2 4 0 
 # max = 82
2683127		 # 	collision with: 1 3 1  and 2 4 1 
 # max = 82
2683129		 # 	collision with: 5 0 0  and 4 1 0 
 # max = 82
2683131		 # 	collision with: 0 2 0  and 5 4 0 
 # max = 82
2683151		 # 	collision with: 0 0 0  and 3 1 1 
 # max = 82
2683159		 # 	collision with: 4 0 0  and 2 1 0 
 # max = 82
2683165		 # 	collision with: 6 1 0  and 2 2 0 
 # max = 82
2683189		 # 	collision with: 0 0 0  and 4 1 0 
 # max = 82
2683191		 # 	collision with: 6 1 0  and 1 0 1 
 # max = 82
2683205		 # 	collision with: 0 6 0  and 1 6 0 
 # max = 82
2683207		 # 	collision with: 0 1 0  and 2 2 0 
 # max = 82
2683240		 # 	collision with: 2 0 0  and 3 2 0 
 # max = 82
2683242		 # 	collision with: 1 1 0  and 1 0 1 
 # max = 82
2683305		 # 	collision with: 1 3 0  and 2 3 0 
 # max = 82
2683307		 # 	collision with: 4 1 0  and 6 2 0 
 # max = 82
2683321		 # 	collision with: 4 3 0  and 2 4 0 
 # max = 82
2683323		 # 	collision with: 5 3 0  and 3 5 0 
 # max = 82
2683325		 # 	collision with: 0 0 0  and 4 1 0 
 # max = 82
2683327		 # 	collision with: 0 1 0  and 2 1 0 
 # max = 82
2683345		 # 	collision with: 2 4 0  and 2 0 1 
 # max = 82
2683347		 # 	collision with: 5 3 0  and 3 5 0 
 # max = 82
2683353		 # 	collision with: 0 1 0  and 2 1 0 
 # max = 82
2683355		 # 	collision with: 1 1 0  and 3 2 0 
 # max = 82
2683361		 # 	collision with: 4 5 0  and 5 1 1 
 # max = 82
2683363		 # 	collision with: 1 3 0  and 2 3 0 
 # max = 82
2683385		 # 	collision with: 2 6 0  and 0 1 1 
 # max = 82
2683387		 # 	collision with: 5 3 0  and 3 5 0 
 # max = 82
2683401		 # 	collision with: 6 2 0  and 1 3 0 
 # max = 82
2683403		 # 	collision with: 4 0 0  and 2 2 0 
 # max = 82
2683436		 # 	collision with: 6 1 0  and 2 2 0 
 # max = 82
2683438		 # 	collision with: 6 0 0  and 1 2 0 
 # max = 82
2683501		 # 	collision with: 3 0 0  and 3 2 0 
 # max = 82
2683503		 # 	collision with: 2 1 0  and 2 0 1 
 # max = 82
2683521		 # 	collision with: 1 2 0  and 0 3 0 
 # max = 82
2683541		 # 	collision with: 1 1 0  and 3 3 0 
 # max = 82
2683543		 # 	collision with: 5 0 0  and 0 2 1 
 # max = 82
2683549		 # 	collision with: 0 2 0  and 1 3 0 
 # max = 82
2683551		 # 	collision with: 6 1 0  and 5 3 0 
 # max = 82
2683557		 # 	collision with: 4 3 0  and 2 4 0 
 # max = 82
2683559		 # 	collision with: 4 2 0  and 0 3 0 
 # max = 82
2683581		 # 	collision with: 4 2 0  and 6 3 0 
 # max = 82
2683583		 # 	collision with: 2 5 0  and 3 2 1 
 # max = 82
2683599		 # 	collision with: 4 0 0  and 4 2 0 
 # max = 82
2683645		 # 	collision with: 5 0 0  and 1 1 0 
 # max = 82
2683647		 # 	collision with: 4 1 0  and 1 3 0 
 # max = 82
2683649		 # 	collision with: 4 0 1  and 5 1 1 
 # max = 82
2683651		 # 	collision with: 0 0 0  and 3 1 0 
 # max = 82
2683661		 # 	collision with: 0 0 0  and 6 2 0 
 # max = 82
2683663		 # 	collision with: 6 0 0  and 6 1 0 
 # max = 82
2683677		 # 	collision with: 5 0 0  and 3 2 0 
 # max = 82
2683679		 # 	collision with: 3 2 0  and 0 3 0 
 # max = 82
2683680		 # 	collision with: 2 2 0  and 6 1 1 
 # max = 82
2683682		 # 	collision with: 2 1 0  and 0 2 1 
 # max = 82
2683684		 # 	collision with: 3 1 0  and 0 1 1 
 # max = 82
2683686		 # 	collision with: 3 2 0  and 1 0 1 
 # max = 82
2683700		 # 	collision with: 0 5 0  and 3 0 1 
 # max = 82
2683702		 # 	collision with: 2 1 0  and 1 3 0 
 # max = 82
2683708		 # 	collision with: 0 1 0  and 3 3 0 
 # max = 82
2683710		 # 	collision with: 3 6 0  and 5 1 1 
 # max = 82
2683720		 # 	collision with: 5 1 0  and 3 2 0 
 # max = 82
2683722		 # 	collision with: 4 6 0  and 1 1 1 
 # max = 82
2683732		 # 	collision with: 0 2 0  and 6 4 0 
 # max = 82
2683734		 # 	collision with: 1 2 0  and 2 3 0 
 # max = 82
2683756		 # 	collision with: 0 2 0  and 1 4 0 
 # max = 82
2683758		 # 	collision with: 6 1 0  and 0 3 0 
 # max = 82
2683768		 # 	collision with: 5 0 0  and 3 2 0 
 # max = 82
2683770		 # 	collision with: 1 2 0  and 0 3 0 
 # max = 82
2683780		 # 	collision with: 3 1 0  and 5 3 0 
 # max = 82
2683782		 # 	collision with: 3 1 0  and 0 0 1 
 # max = 82
2683788		 # 	collision with: 4 6 0  and 0 1 1 
 # max = 82
2683790		 # 	collision with: 2 3 0  and 3 4 0 
 # max = 82
2683801		 # 	collision with: 2 3 0  and 0 4 0 
 # max = 82
2683803		 # 	collision with: 0 1 0  and 1 2 0 
 # max = 82
2683804		 # 	collision with: 4 5 0  and 2 0 1 
 # max = 82
2683806		 # 	collision with: 3 1 0  and 3 0 1 
 # max = 82
2683808		 # 	collision with: 3 1 0  and 0 2 0 
 # max = 82
2683810		 # 	collision with: 3 2 0  and 0 3 0 
 # max = 82
2683813		 # 	collision with: 2 0 0  and 4 2 0 
 # max = 82
2683815		 # 	collision with: 3 2 0  and 2 3 0 
 # max = 82
2683828		 # 	collision with: 5 3 0  and 1 4 0 
 # max = 82
2683830		 # 	collision with: 0 1 0  and 1 2 0 
 # max = 82
2683841		 # 	collision with: 6 0 0  and 3 1 0 
 # max = 82
2683843		 # 	collision with: 1 2 0  and 3 4 0 
 # max = 82
2683845		 # 	collision with: 2 0 0  and 0 2 0 
 # max = 82
2683857		 # 	collision with: 5 0 0  and 5 1 0 
 # max = 82
2683875		 # 	collision with: 6 0 0  and 3 2 0 
 # max = 82
2683876		 # 	collision with: 4 2 0  and 1 4 0 
 # max = 82
2683878		 # 	collision with: 2 6 0  and 1 1 1 
 # max = 82
2683880		 # 	collision with: 2 0 0  and 4 2 0 
 # max = 82
2683882		 # 	collision with: 5 1 0  and 4 0 1 
 # max = 82
2683896		 # 	collision with: 5 1 0  and 3 2 0 
 # max = 82
2683904		 # 	collision with: 4 5 0  and 4 0 1 
 # max = 82
2683906		 # 	collision with: 2 1 0  and 2 0 1 
 # max = 82
2683918		 # 	collision with: 6 4 0  and 1 1 1 
 # max = 82
2683928		 # 	collision with: 1 1 0  and 3 2 0 
 # max = 82
2683930		 # 	collision with: 2 1 0  and 2 2 0 
 # max = 82
2683954		 # 	collision with: 6 0 0  and 3 2 0 
 # max = 82
2683964		 # 	collision with: 4 0 0  and 2 2 0 
 # max = 82
2683966		 # 	collision with: 2 1 0  and 4 1 0 
 # max = 82
2683976		 # 	collision with: 2 3 0  and 1 0 1 
 # max = 82
2683978		 # 	collision with: 2 4 0  and 0 1 1 
 # max = 82
2683984		 # 	collision with: 4 2 0  and 4 3 0 
 # max = 82
2683986		 # 	collision with: 1 1 0  and 1 0 1 
 # max = 82
2683999		 # 	collision with: 2 1 0  and 1 3 0 
 # max = 82
2684000		 # 	collision with: 1 1 0  and 1 2 0 
 # max = 82
2684004		 # 	collision with: 0 3 0  and 2 3 0 
 # max = 82
2684006		 # 	collision with: 6 1 0  and 1 2 0 
 # max = 82
2684009		 # 	collision with: 2 0 0  and 0 2 0 
 # max = 82
2684011		 # 	collision with: 1 3 0  and 1 4 0 
 # max = 82
2684024		 # 	collision with: 3 4 0  and 1 0 1 
 # max = 82
2684026		 # 	collision with: 1 3 0  and 6 4 0 
 # max = 82
2684037		 # 	collision with: 3 4 0  and 4 4 0 
 # max = 82
2684039		 # 	collision with: 1 3 0  and 6 4 0 
 # max = 82
2684043		 # 	collision with: 1 2 0  and 3 2 0 
 # max = 82
2684053		 # 	collision with: 2 1 0  and 2 0 1 
 # max = 82
2684055		 # 	collision with: 1 3 0  and 6 4 0 
 # max = 82
2684069		 # 	collision with: 6 0 0  and 4 2 0 
 # max = 82
2684072		 # 	collision with: 5 1 0  and 3 2 0 
 # max = 82
2684074		 # 	collision with: 0 1 0  and 3 2 0 
 # max = 82
2684078		 # 	collision with: 6 1 0  and 1 2 0 
 # max = 82
2684092		 # 	collision with: 5 1 0  and 1 1 1 
 # max = 82
2684094		 # 	collision with: 1 3 0  and 6 4 0 
 # max = 82
2684100		 # 	collision with: 4 1 0  and 4 0 1 
 # max = 82
2684102		 # 	collision with: 0 0 0  and 3 1 0 
 # max = 82
2684112		 # 	collision with: 2 1 0  and 3 0 1 
 # max = 82
2684114		 # 	collision with: 4 0 0  and 4 2 0 
 # max = 82
2684124		 # 	collision with: 3 0 0  and 1 1 0 
 # max = 82
2684126		 # 	collision with: 1 3 0  and 6 4 0 
 # max = 82
2684148		 # 	collision with: 6 1 0  and 3 3 0 
 # max = 82
2684150		 # 	collision with: 1 3 0  and 6 4 0 
 # max = 82
2684160		 # 	collision with: 3 0 0  and 1 2 0 
 # max = 82
2684172		 # 	collision with: 3 1 0  and 6 0 1 
 # max = 82
2684180		 # 	collision with: 2 0 0  and 3 1 0 
 # max = 82
2684182		 # 	collision with: 4 2 0  and 6 3 0 
 # max = 82
2684193		 # 	collision with: 4 4 0  and 2 0 1 
 # max = 82
2684195		 # 	collision with: 0 3 0  and 4 4 0 
 # max = 82
2684196		 # 	collision with: 5 0 0  and 1 1 0 
 # max = 82
2684198		 # 	collision with: 0 3 0  and 4 4 0 
 # max = 82
2684202		 # 	collision with: 1 3 0  and 6 4 0 
 # max = 82
2684205		 # 	collision with: 5 1 0  and 1 2 0 
 # max = 82
2684207		 # 	collision with: 3 2 0  and 0 3 0 
 # max = 82
2684220		 # 	collision with: 2 0 0  and 0 2 0 
 # max = 82
2684222		 # 	collision with: 5 3 0  and 2 0 1 
 # max = 82
2684233		 # 	collision with: 5 0 1  and 5 1 1 
 # max = 82
2684235		 # 	collision with: 1 3 0  and 3 0 1 
 # max = 82
2684237		 # 	collision with: 3 0 0  and 5 1 0 
 # max = 82
2684239		 # 	collision with: 2 2 0  and 6 4 0 
 # max = 82
2684249		 # 	collision with: 3 0 0  and 1 1 0 
 # max = 82
2684251		 # 	collision with: 2 0 0  and 3 2 0 
 # max = 82
2684265		 # 	collision with: 3 0 0  and 1 2 0 
 # max = 82
2684267		 # 	collision with: 1 2 0  and 0 3 0 
 # max = 82
2684268		 # 	collision with: 2 0 0  and 0 2 0 
 # max = 82
2684270		 # 	collision with: 0 0 0  and 1 1 1 
 # max = 82
2684272		 # 	collision with: 2 0 0  and 0 2 0 
 # max = 82
2684274		 # 	collision with: 0 3 0  and 2 3 0 
 # max = 82
2684290		 # 	collision with: 1 6 0  and 2 6 0 
 # max = 82
2684296		 # 	collision with: 2 0 0  and 0 2 0 
 # max = 82
2684298		 # 	collision with: 0 1 0  and 3 1 1 
 # max = 82
2684308		 # 	collision with: 2 0 0  and 0 2 0 
 # max = 82
2684310		 # 	collision with: 6 0 0  and 1 2 0 
 # max = 82
2684320		 # 	collision with: 2 0 0  and 0 2 0 
 # max = 82
2684322		 # 	collision with: 3 2 0  and 0 3 0 
 # max = 82
2684344		 # 	collision with: 2 0 0  and 0 2 0 
 # max = 82
2684356		 # 	collision with: 2 0 0  and 0 2 0 
 # max = 82
2684358		 # 	collision with: 5 2 0  and 4 3 0 
 # max = 82
2684370		 # 	collision with: 2 0 0  and 1 2 0 
 # max = 82
2684376		 # 	collision with: 2 1 0  and 4 1 0 
 # max = 82
2684378		 # 	collision with: 1 6 0  and 6 0 1 
 # max = 82
2684389		 # 	collision with: 5 4 0  and 3 0 1 
 # max = 82
2684391		 # 	collision with: 5 5 0  and 1 0 1 
 # max = 82
2684392		 # 	collision with: 2 0 0  and 0 2 0 
 # max = 82
2684394		 # 	collision with: 1 2 0  and 2 2 1 
 # max = 82
2684396		 # 	collision with: 2 0 0  and 0 2 0 
 # max = 82
2684401		 # 	collision with: 0 3 0  and 2 3 0 
 # max = 82
2684403		 # 	collision with: 2 1 0  and 4 0 1 
 # max = 82
2684416		 # 	collision with: 0 2 0  and 4 3 0 
 # max = 82
2684418		 # 	collision with: 0 0 0  and 4 1 1 
 # max = 82
2684429		 # 	collision with: 4 2 0  and 3 1 1 
 # max = 82
2684431		 # 	collision with: 1 2 0  and 3 2 0 
 # max = 82
2684433		 # 	collision with: 1 5 0  and 5 0 1 
 # max = 82
2684435		 # 	collision with: 2 1 0  and 2 2 0 
 # max = 82
2684445		 # 	collision with: 1 6 0  and 2 6 0 
 # max = 82
2684447		 # 	collision with: 0 0 0  and 3 1 0 
 # max = 82
2684461		 # 	collision with: 0 0 0  and 5 2 0 
 # max = 82
2684463		 # 	collision with: 5 2 0  and 4 3 0 
 # max = 82
2684464		 # 	collision with: 4 4 0  and 3 0 1 
 # max = 82
2684468		 # 	collision with: 5 1 0  and 1 2 0 
 # max = 82
2684470		 # 	collision with: 5 5 0  and 0 0 1 
 # max = 82
2684484		 # 	collision with: 6 2 0  and 1 3 0 
 # max = 82
2684486		 # 	collision with: 1 2 0  and 2 3 0 
 # max = 82
2684494		 # 	collision with: 0 1 0  and 2 3 0 
 # max = 82
2684504		 # 	collision with: 1 1 0  and 1 2 0 
 # max = 82
2684506		 # 	collision with: 6 0 0  and 3 2 0 
 # max = 82
2684516		 # 	collision with: 5 1 0  and 2 0 1 
 # max = 82
2684540		 # 	collision with: 0 2 0  and 5 3 0 
 # max = 82
2684542		 # 	collision with: 2 1 0  and 4 1 0 
 # max = 82
2684552		 # 	collision with: 4 4 0  and 3 5 0 
 # max = 82
2684554		 # 	collision with: 2 0 0  and 1 2 0 
 # max = 82
2684564		 # 	collision with: 1 4 0  and 4 0 1 
 # max = 82
2684566		 # 	collision with: 1 2 0  and 4 0 1 
 # max = 82
2684574		 # 	collision with: 2 1 0  and 2 2 0 
 # max = 82
2684585		 # 	collision with: 5 0 0  and 5 1 0 
 # max = 82
2684587		 # 	collision with: 6 4 0  and 0 1 1 
 # max = 82
2684588		 # 	collision with: 0 3 0  and 2 3 0 
 # max = 82
2684590		 # 	collision with: 4 0 0  and 4 2 0 
 # max = 82
2684592		 # 	collision with: 5 1 0  and 3 2 0 
 # max = 82
2684594		 # 	collision with: 2 5 0  and 3 5 0 
 # max = 82
2684597		 # 	collision with: 3 1 0  and 4 3 0 
 # max = 82
2684599		 # 	collision with: 1 4 0  and 5 0 1 
 # max = 82
2684612		 # 	collision with: 4 3 0  and 6 4 0 
 # max = 82
2684614		 # 	collision with: 3 2 0  and 2 3 0 
 # max = 82
2684627		 # 	collision with: 5 6 0  and 0 0 1 
 # max = 82
2684629		 # 	collision with: 3 4 0  and 4 4 0 
 # max = 82
2684631		 # 	collision with: 1 2 0  and 2 0 1 
 # max = 82
2684641		 # 	collision with: 6 0 0  and 3 1 0 
 # max = 82
2684643		 # 	collision with: 0 3 0  and 2 3 0 
 # max = 82
2684657		 # 	collision with: 4 0 0  and 2 2 0 
 # max = 82
2684659		 # 	collision with: 2 2 0  and 1 3 0 
 # max = 82
2684662		 # 	collision with: 6 1 0  and 0 3 0 
 # max = 82
2684664		 # 	collision with: 2 3 0  and 0 4 0 
 # max = 82
2684666		 # 	collision with: 2 0 0  and 6 1 0 
 # max = 82
2684680		 # 	collision with: 5 1 0  and 3 0 1 
 # max = 82
2684682		 # 	collision with: 4 1 0  and 1 3 0 
 # max = 82
2684688		 # 	collision with: 6 3 0  and 0 0 1 
 # max = 82
2684700		 # 	collision with: 6 1 0  and 3 0 1 
 # max = 82
2684712		 # 	collision with: 3 1 0  and 0 2 0 
 # max = 82
2684714		 # 	collision with: 3 2 0  and 2 3 0 
 # max = 82
2684736		 # 	collision with: 2 0 0  and 3 1 0 
 # max = 82
2684738		 # 	collision with: 3 2 0  and 2 3 0 
 # max = 82
2684748		 # 	collision with: 0 0 0  and 5 2 0 
 # max = 82
2684750		 # 	collision with: 3 2 0  and 2 3 0 
 # max = 82
2684760		 # 	collision with: 2 1 0  and 4 1 0 
 # max = 82
2684762		 # 	collision with: 3 2 0  and 2 3 0 
 # max = 82
2684768		 # 	collision with: 5 1 0  and 3 2 0 
 # max = 82
2684770		 # 	collision with: 3 2 0  and 2 3 0 
 # max = 82
2684781		 # 	collision with: 0 3 0  and 2 3 0 
 # max = 82
2684783		 # 	collision with: 6 0 0  and 6 1 0 
 # max = 82
2684786		 # 	collision with: 2 1 0  and 1 3 0 
 # max = 82
2684788		 # 	collision with: 3 1 0  and 4 2 0 
 # max = 82
2684790		 # 	collision with: 3 2 0  and 2 3 0 
 # max = 82
2684793		 # 	collision with: 3 3 0  and 4 1 1 
 # max = 82
2684808		 # 	collision with: 4 2 0  and 6 4 0 
 # max = 82
2684810		 # 	collision with: 1 3 0  and 3 0 1 
 # max = 82
2684821		 # 	collision with: 6 5 0  and 1 0 1 
 # max = 82
2684825		 # 	collision with: 0 0 0  and 6 2 0 
 # max = 82
2684827		 # 	collision with: 6 1 0  and 0 1 1 
 # max = 82
2684839		 # 	collision with: 2 3 0  and 1 1 1 
 # max = 82
2684853		 # 	collision with: 4 2 0  and 6 4 0 
 # max = 82
2684855		 # 	collision with: 6 2 0  and 5 3 0 
 # max = 82
2684856		 # 	collision with: 0 2 0  and 1 4 0 
 # max = 82
2684858		 # 	collision with: 0 3 0  and 2 3 0 
 # max = 82
2684860		 # 	collision with: 6 0 0  and 3 1 0 
 # max = 82
2684876		 # 	collision with: 5 0 0  and 1 1 0 
 # max = 82
2684878		 # 	collision with: 2 0 0  and 6 1 0 
 # max = 82
2684884		 # 	collision with: 1 2 0  and 3 0 1 
 # max = 82
2684886		 # 	collision with: 3 1 0  and 0 1 1 
 # max = 82
2684896		 # 	collision with: 1 5 0  and 5 0 1 
 # max = 82
2684898		 # 	collision with: 0 0 0  and 3 1 0 
 # max = 82
2684910		 # 	collision with: 2 3 0  and 4 4 0 
 # max = 82
2684932		 # 	collision with: 2 2 0  and 2 4 0 
 # max = 82
2684934		 # 	collision with: 2 3 0  and 3 4 0 
 # max = 82
2684946		 # 	collision with: 2 2 0  and 1 3 0 
 # max = 82
2684956		 # 	collision with: 5 0 0  and 1 2 0 
 # max = 82
2684958		 # 	collision with: 3 2 0  and 3 4 0 
 # max = 82
2684964		 # 	collision with: 2 4 0  and 4 5 0 
 # max = 82
2684977		 # 	collision with: 5 1 0  and 5 0 1 
 # max = 82
2684980		 # 	collision with: 2 0 1  and 3 1 1 
 # max = 82
2684982		 # 	collision with: 3 4 0  and 3 2 1 
 # max = 82
2684984		 # 	collision with: 6 1 0  and 6 3 0 
 # max = 82
2684986		 # 	collision with: 0 1 0  and 2 3 0 
 # max = 82
2684991		 # 	collision with: 5 1 0  and 5 0 1 
 # max = 82
2685061		 # 	collision with: 4 2 0  and 0 1 1 
 # max = 82
2685063		 # 	collision with: 1 3 0  and 2 0 1 
 # max = 82
2685065		 # 	collision with: 1 2 0  and 5 4 0 
 # max = 82
2685067		 # 	collision with: 0 2 0  and 3 4 0 
 # max = 82
2685093		 # 	collision with: 3 1 0  and 4 3 0 
 # max = 82
2685105		 # 	collision with: 2 3 0  and 1 4 0 
 # max = 82
2685107		 # 	collision with: 6 1 0  and 1 2 0 
 # max = 82
2685129		 # 	collision with: 3 0 0  and 3 2 0 
 # max = 82
2685131		 # 	collision with: 3 0 0  and 5 2 0 
 # max = 82
2685141		 # 	collision with: 6 1 0  and 6 3 0 
 # max = 82
2685145		 # 	collision with: 5 0 0  and 6 2 0 
 # max = 82
2685147		 # 	collision with: 3 2 0  and 3 4 0 
 # max = 82
2685169		 # 	collision with: 4 2 0  and 1 0 1 
 # max = 82
2685171		 # 	collision with: 1 4 0  and 5 0 1 
 # max = 82
2685200		 # 	collision with: 5 0 1  and 4 2 1 
 # max = 82
2685202		 # 	collision with: 3 2 0  and 0 0 1 
 # max = 82
2685257		 # 	collision with: 5 5 0  and 5 0 1 
 # max = 82
2685259		 # 	collision with: 0 0 0  and 2 1 0 
 # max = 82
2685261		 # 	collision with: 4 2 0  and 4 3 0 
 # max = 82
2685289		 # 	collision with: 5 1 0  and 5 0 1 
 # max = 82
2685291		 # 	collision with: 6 0 0  and 1 2 0 
 # max = 82
2685301		 # 	collision with: 4 2 0  and 1 3 0 
 # max = 82
2685303		 # 	collision with: 6 3 0  and 5 4 0 
 # max = 82
2685325		 # 	collision with: 3 0 0  and 6 1 0 
 # max = 82
2685327		 # 	collision with: 1 1 0  and 0 3 0 
 # max = 82
2685337		 # 	collision with: 3 2 0  and 6 3 0 
 # max = 82
2685339		 # 	collision with: 1 2 0  and 0 4 0 
 # max = 82
2685341		 # 	collision with: 1 2 0  and 5 4 0 
 # max = 82
2685343		 # 	collision with: 6 3 0  and 0 0 1 
 # max = 82
2685365		 # 	collision with: 6 1 0  and 6 3 0 
 # max = 82
2685367		 # 	collision with: 2 1 0  and 2 2 0 
 # max = 82
2685396		 # 	collision with: 5 1 0  and 3 0 1 
 # max = 82
2685398		 # 	collision with: 5 0 0  and 0 2 0 
 # max = 82
2685453		 # 	collision with: 3 1 0  and 1 3 0 
 # max = 82
2685455		 # 	collision with: 6 0 0  and 1 2 0 
 # max = 82
2685457		 # 	collision with: 0 1 0  and 1 2 0 
 # max = 82
2685459		 # 	collision with: 1 3 0  and 6 4 0 
 # max = 82
2685485		 # 	collision with: 1 2 0  and 2 2 0 
 # max = 82
2685487		 # 	collision with: 6 0 0  and 6 1 0 
 # max = 82
2685521		 # 	collision with: 3 0 0  and 2 1 0 
 # max = 82
2685523		 # 	collision with: 1 3 0  and 6 4 0 
 # max = 82
2685535		 # 	collision with: 1 3 0  and 6 4 0 
 # max = 82
2685537		 # 	collision with: 1 1 0  and 2 2 0 
 # max = 82
2685561		 # 	collision with: 3 0 0  and 6 1 0 
 # max = 82
2685563		 # 	collision with: 0 0 0  and 2 1 0 
 # max = 82
2685592		 # 	collision with: 6 3 0  and 4 0 1 
 # max = 82
2685594		 # 	collision with: 6 4 0  and 2 5 0 
 # max = 82
2685649		 # 	collision with: 5 0 0  and 3 1 0 
 # max = 82
2685651		 # 	collision with: 3 2 0  and 5 1 1 
 # max = 82
2685655		 # 	collision with: 3 0 0  and 5 2 0 
 # max = 82
2685681		 # 	collision with: 2 1 1  and 2 3 1 
 # max = 82
2685683		 # 	collision with: 1 1 0  and 1 0 1 
 # max = 82
2685693		 # 	collision with: 1 2 0  and 2 2 0 
 # max = 82
2685695		 # 	collision with: 6 0 0  and 2 1 0 
 # max = 82
2685717		 # 	collision with: 4 1 1  and 5 2 1 
 # max = 82
2685719		 # 	collision with: 1 3 0  and 1 4 0 
 # max = 82
2685729		 # 	collision with: 5 3 0  and 0 4 0 
 # max = 82
2685731		 # 	collision with: 2 1 0  and 2 2 0 
 # max = 82
2685735		 # 	collision with: 6 1 0  and 2 2 0 
 # max = 82
2685757		 # 	collision with: 1 2 0  and 2 4 0 
 # max = 82
2685759		 # 	collision with: 0 0 0  and 1 1 1 
 # max = 82
2685788		 # 	collision with: 5 0 0  and 6 2 0 
 # max = 82
2685790		 # 	collision with: 0 0 0  and 1 2 0 
 # max = 82
2685847		 # 	collision with: 1 1 0  and 1 0 1 
 # max = 82
2685849		 # 	collision with: 5 4 0  and 0 0 1 
 # max = 82
2685851		 # 	collision with: 3 0 0  and 1 1 0 
 # max = 82
2685877		 # 	collision with: 4 1 0  and 5 2 0 
 # max = 82
2685879		 # 	collision with: 4 6 0  and 6 0 1 
 # max = 82
2685889		 # 	collision with: 3 0 0  and 2 1 0 
 # max = 82
2685891		 # 	collision with: 2 3 0  and 3 3 0 
 # max = 82
2685913		 # 	collision with: 5 0 0  and 3 1 0 
 # max = 82
2685915		 # 	collision with: 6 3 0  and 1 0 1 
 # max = 82
2685925		 # 	collision with: 3 3 0  and 1 4 0 
 # max = 82
2685927		 # 	collision with: 6 1 0  and 1 2 0 
 # max = 82
2685929		 # 	collision with: 6 5 0  and 5 1 1 
 # max = 82
2685931		 # 	collision with: 4 4 0  and 2 0 1 
 # max = 82
2685955		 # 	collision with: 3 4 0  and 4 4 0 
 # max = 82
2685984		 # 	collision with: 6 1 0  and 0 2 0 
 # max = 82
2685986		 # 	collision with: 5 5 0  and 2 3 1 
 # max = 82
2686041		 # 	collision with: 6 4 0  and 1 0 1 
 # max = 82
2686045		 # 	collision with: 0 1 0  and 1 1 0 
 # max = 82
2686047		 # 	collision with: 6 0 0  and 2 1 0 
 # max = 82
2686075		 # 	collision with: 2 2 0  and 3 1 1 
 # max = 82
2686085		 # 	collision with: 5 0 0  and 5 1 0 
 # max = 82
2686087		 # 	collision with: 0 0 0  and 6 1 0 
 # max = 82
2686121		 # 	collision with: 1 1 0  and 2 2 0 
 # max = 82
2686123		 # 	collision with: 0 0 0  and 1 2 0 
 # max = 82
2686125		 # 	collision with: 2 2 0  and 2 4 0 
 # max = 82
2686127		 # 	collision with: 5 1 0  and 2 0 1 
 # max = 82
2686149		 # 	collision with: 2 5 0  and 0 0 1 
 # max = 82
2686151		 # 	collision with: 1 1 0  and 0 3 0 
 # max = 82
2686180		 # 	collision with: 3 1 0  and 1 3 0 
 # max = 82
2686182		 # 	collision with: 3 0 0  and 2 1 1 
 # max = 82
2686237		 # 	collision with: 0 1 0  and 1 1 0 
 # max = 82
2686239		 # 	collision with: 2 1 0  and 1 2 0 
 # max = 82
2686241		 # 	collision with: 5 0 0  and 1 3 1 
 # max = 82
2686243		 # 	collision with: 2 1 0  and 1 2 0 
 # max = 82
2686269		 # 	collision with: 3 3 0  and 1 4 0 
 # max = 82
2686271		 # 	collision with: 2 1 0  and 1 2 0 
 # max = 82
2686281		 # 	collision with: 0 2 0  and 6 3 0 
 # max = 82
2686283		 # 	collision with: 2 1 0  and 1 2 0 
 # max = 82
2686305		 # 	collision with: 5 0 0  and 6 2 0 
 # max = 82
2686307		 # 	collision with: 0 0 0  and 6 1 0 
 # max = 82
2686317		 # 	collision with: 2 3 0  and 6 4 0 
 # max = 82
2686319		 # 	collision with: 2 1 0  and 1 2 0 
 # max = 82
2686321		 # 	collision with: 2 1 0  and 0 2 0 
 # max = 82
2686323		 # 	collision with: 2 1 0  and 1 2 0 
 # max = 82
2686345		 # 	collision with: 0 1 0  and 2 2 0 
 # max = 82
2686445		 # 	collision with: 4 2 0  and 0 4 0 
 # max = 82
2686447		 # 	collision with: 4 6 0  and 6 0 1 
 # max = 82
2686453		 # 	collision with: 5 2 0  and 0 0 1 
 # max = 82
2686455		 # 	collision with: 4 3 0  and 2 4 0 
 # max = 82
2686469		 # 	collision with: 2 1 0  and 3 1 0 
 # max = 82
2686471		 # 	collision with: 6 5 0  and 6 1 1 
 # max = 82
2686473		 # 	collision with: 6 4 0  and 6 1 1 
 # max = 82
2686475		 # 	collision with: 6 1 0  and 1 2 0 
 # max = 82
2686505		 # 	collision with: 2 2 0  and 2 4 0 
 # max = 82
2686507		 # 	collision with: 0 1 0  and 4 3 0 
 # max = 82
2686509		 # 	collision with: 2 2 0  and 1 3 0 
 # max = 82
2686511		 # 	collision with: 5 3 0  and 4 4 0 
 # max = 82
2686525		 # 	collision with: 6 2 0  and 2 4 0 
 # max = 82
2686527		 # 	collision with: 6 3 0  and 3 4 0 
 # max = 82
2686533		 # 	collision with: 1 1 0  and 0 2 0 
 # max = 82
2686535		 # 	collision with: 3 0 0  and 1 2 0 
 # max = 82
2686572		 # 	collision with: 2 2 0  and 1 3 0 
 # max = 82
2686574		 # 	collision with: 4 2 0  and 3 3 0 
 # max = 82
2686641		 # 	collision with: 3 1 0  and 4 2 0 
 # max = 82
2686643		 # 	collision with: 0 0 0  and 1 1 1 
 # max = 82
2686649		 # 	collision with: 4 1 0  and 0 2 0 
 # max = 82
2686651		 # 	collision with: 3 2 0  and 6 3 0 
 # max = 82
2686667		 # 	collision with: 5 2 0  and 4 4 0 
 # max = 82
2686669		 # 	collision with: 5 1 0  and 3 0 1 
 # max = 82
2686671		 # 	collision with: 3 3 0  and 1 4 0 
 # max = 82
2686703		 # 	collision with: 1 2 0  and 4 1 1 
 # max = 82
2686705		 # 	collision with: 6 0 0  and 3 2 0 
 # max = 82
2686707		 # 	collision with: 3 0 0  and 1 2 0 
 # max = 82
2686721		 # 	collision with: 0 2 0  and 2 0 1 
 # max = 82
2686723		 # 	collision with: 4 2 0  and 1 4 0 
 # max = 82
2686729		 # 	collision with: 2 2 0  and 1 3 0 
 # max = 82
2686731		 # 	collision with: 4 1 0  and 2 3 0 
 # max = 82
2686768		 # 	collision with: 0 0 0  and 6 1 0 
 # max = 82
2686770		 # 	collision with: 2 0 0  and 1 1 0 
 # max = 82
2686839		 # 	collision with: 4 2 0  and 1 4 0 
 # max = 82
2686845		 # 	collision with: 6 3 0  and 5 1 1 
 # max = 82
2686861		 # 	collision with: 2 6 0  and 2 0 1 
 # max = 82
2686863		 # 	collision with: 6 0 0  and 6 1 0 
 # max = 82
2686865		 # 	collision with: 4 0 0  and 5 1 0 
 # max = 82
2686867		 # 	collision with: 1 3 0  and 6 4 0 
 # max = 82
2686897		 # 	collision with: 4 1 0  and 0 2 0 
 # max = 82
2686899		 # 	collision with: 1 3 0  and 6 4 0 
 # max = 82
2686901		 # 	collision with: 4 2 0  and 0 3 0 
 # max = 82
2686919		 # 	collision with: 0 0 0  and 1 1 0 
 # max = 82
2686925		 # 	collision with: 3 3 0  and 2 4 0 
 # max = 82
2686927		 # 	collision with: 5 2 0  and 3 4 0 
 # max = 82
2686964		 # 	collision with: 4 1 0  and 0 2 0 
 # max = 82
2686966		 # 	collision with: 4 1 0  and 2 3 0 
 # max = 82
2687033		 # 	collision with: 5 1 0  and 5 1 1 
 # max = 82
2687035		 # 	collision with: 3 0 0  and 6 1 0 
 # max = 82
2687041		 # 	collision with: 1 3 0  and 2 4 0 
 # max = 82
2687043		 # 	collision with: 3 3 0  and 1 4 0 
 # max = 82
2687057		 # 	collision with: 2 1 0  and 4 2 0 
 # max = 82
2687059		 # 	collision with: 3 2 0  and 4 4 0 
 # max = 82
2687061		 # 	collision with: 1 1 1  and 2 3 1 
 # max = 82
2687063		 # 	collision with: 6 3 0  and 4 4 0 
 # max = 82
2687093		 # 	collision with: 3 3 0  and 3 1 1 
 # max = 82
2687097		 # 	collision with: 2 1 0  and 0 3 0 
 # max = 82
2687099		 # 	collision with: 0 2 0  and 1 2 0 
 # max = 82
2687113		 # 	collision with: 3 0 0  and 5 2 0 
 # max = 82
2687115		 # 	collision with: 1 5 0  and 2 0 1 
 # max = 82
2687121		 # 	collision with: 4 4 0  and 3 5 0 
 # max = 82
2687160		 # 	collision with: 3 3 0  and 2 4 0 
 # max = 82
2687162		 # 	collision with: 2 1 0  and 6 2 0 
 # max = 82
2687229		 # 	collision with: 2 6 0  and 4 6 0 
 # max = 82
2687237		 # 	collision with: 5 4 0  and 4 0 1 
 # max = 82
2687239		 # 	collision with: 2 1 0  and 3 1 0 
 # max = 82
2687253		 # 	collision with: 5 2 0  and 4 1 1 
 # max = 82
2687255		 # 	collision with: 5 1 0  and 6 2 1 
 # max = 82
2687257		 # 	collision with: 6 0 0  and 3 2 0 
 # max = 82
2687289		 # 	collision with: 4 0 0  and 5 1 0 
 # max = 82
2687291		 # 	collision with: 2 1 0  and 1 0 1 
 # max = 82
2687293		 # 	collision with: 3 2 0  and 1 4 0 
 # max = 82
2687295		 # 	collision with: 2 0 0  and 1 1 0 
 # max = 82
2687309		 # 	collision with: 1 3 0  and 3 3 0 
 # max = 82
2687311		 # 	collision with: 6 0 0  and 6 1 0 
 # max = 82
2687317		 # 	collision with: 2 1 0  and 0 3 0 
 # max = 82
2687319		 # 	collision with: 3 1 0  and 2 2 0 
 # max = 82
2687356		 # 	collision with: 1 1 0  and 0 2 0 
 # max = 82
2687358		 # 	collision with: 3 1 0  and 2 2 0 
 # max = 82
2687425		 # 	collision with: 6 0 0  and 5 2 0 
 # max = 82
2687427		 # 	collision with: 1 3 0  and 1 4 0 
 # max = 82
2687435		 # 	collision with: 0 3 0  and 5 4 0 
 # max = 82
2687449		 # 	collision with: 5 2 0  and 6 4 0 
 # max = 82
2687453		 # 	collision with: 5 2 0  and 6 4 0 
 # max = 82
2687455		 # 	collision with: 2 3 0  and 0 4 0 
 # max = 82
2687485		 # 	collision with: 6 2 0  and 2 4 0 
 # max = 82
2687487		 # 	collision with: 0 2 0  and 1 2 0 
 # max = 82
2687489		 # 	collision with: 0 0 0  and 6 1 0 
 # max = 82
2687491		 # 	collision with: 3 1 0  and 2 2 0 
 # max = 82
2687505		 # 	collision with: 6 2 0  and 1 3 0 
 # max = 82
2687515		 # 	collision with: 4 2 0  and 3 3 0 
 # max = 82
2687552		 # 	collision with: 5 0 0  and 0 1 0 
 # max = 82
2687554		 # 	collision with: 5 2 0  and 3 4 0 
 # max = 82
2687621		 # 	collision with: 6 2 0  and 1 3 0 
 # max = 82
2687623		 # 	collision with: 2 1 0  and 3 1 0 
 # max = 82
2687629		 # 	collision with: 2 6 0  and 4 6 0 
 # max = 82
2687631		 # 	collision with: 2 3 0  and 0 4 0 
 # max = 82
2687645		 # 	collision with: 0 2 0  and 3 4 0 
 # max = 82
2687647		 # 	collision with: 0 1 0  and 4 3 0 
 # max = 82
2687651		 # 	collision with: 2 1 0  and 6 2 0 
 # max = 82
2687681		 # 	collision with: 0 0 0  and 1 1 1 
 # max = 82
2687683		 # 	collision with: 1 1 0  and 2 3 0 
 # max = 82
2687687		 # 	collision with: 4 2 0  and 3 3 0 
 # max = 82
2687701		 # 	collision with: 1 1 0  and 1 2 0 
 # max = 82
2687703		 # 	collision with: 3 4 0  and 4 4 0 
 # max = 82
2687709		 # 	collision with: 0 0 0  and 6 1 0 
 # max = 82
2687711		 # 	collision with: 5 3 0  and 4 4 0 
 # max = 82
2687748		 # 	collision with: 3 1 0  and 4 3 0 
 # max = 82
2687749		 # 	collision with: 0 0 0  and 2 1 0 
 # max = 82
2687750		 # 	collision with: 0 0 0  and 4 0 0 
 # max = 82
2687751		 # 	collision with: 1 2 0  and 2 1 1 
 # max = 82
2687784		 # 	collision with: 3 0 0  and 6 2 0 
 # max = 82
2687785		 # 	collision with: 2 2 0  and 5 4 0 
 # max = 82
2687786		 # 	collision with: 0 0 0  and 4 0 0 
 # max = 82
2687787		 # 	collision with: 2 1 0  and 0 2 0 
 # max = 82
2687820		 # 	collision with: 0 0 0  and 1 1 0 
 # max = 82
2687821		 # 	collision with: 5 1 0  and 3 0 1 
 # max = 82
2687822		 # 	collision with: 0 0 0  and 4 0 0 
 # max = 82
2687823		 # 	collision with: 0 3 0  and 1 4 0 
 # max = 82
2687856		 # 	collision with: 1 3 0  and 0 4 0 
 # max = 82
2687857		 # 	collision with: 6 1 0  and 0 0 1 
 # max = 82
2687858		 # 	collision with: 0 0 0  and 4 0 0 
 # max = 82
2687859		 # 	collision with: 3 0 0  and 5 1 0 
 # max = 82
2687864		 # 	collision with: 6 6 0  and 2 1 1 
 # max = 82
2687865		 # 	collision with: 2 2 0  and 2 4 0 
 # max = 82
2687866		 # 	collision with: 0 0 0  and 4 0 0 
 # max = 82
2687867		 # 	collision with: 3 3 0  and 0 4 0 
 # max = 82
2687900		 # 	collision with: 3 3 0  and 2 1 1 
 # max = 82
2687901		 # 	collision with: 3 2 0  and 0 3 0 
 # max = 82
2687902		 # 	collision with: 0 0 0  and 4 0 0 
 # max = 82
2687903		 # 	collision with: 3 2 0  and 3 4 0 
 # max = 82
2687936		 # 	collision with: 4 0 0  and 1 2 0 
 # max = 82
2687937		 # 	collision with: 5 2 0  and 4 3 0 
 # max = 82
2687938		 # 	collision with: 0 0 0  and 4 0 0 
 # max = 82
2687939		 # 	collision with: 5 0 0  and 4 1 0 
 # max = 82
2687944		 # 	collision with: 2 1 0  and 1 2 0 
 # max = 82
2687945		 # 	collision with: 0 1 0  and 4 2 0 
 # max = 82
2687946		 # 	collision with: 2 2 0  and 0 0 1 
 # max = 82
2687947		 # 	collision with: 3 0 0  and 5 1 0 
 # max = 82
2687980		 # 	collision with: 2 1 0  and 1 2 0 
 # max = 82
2687981		 # 	collision with: 4 0 0  and 2 1 0 
 # max = 82
2687982		 # 	collision with: 3 1 0  and 1 4 1 
 # max = 82
2687983		 # 	collision with: 5 2 0  and 3 3 0 
 # max = 82
2688016		 # 	collision with: 2 1 0  and 1 2 0 
 # max = 82
2688017		 # 	collision with: 6 4 0  and 0 0 1 
 # max = 82
2688018		 # 	collision with: 2 1 0  and 4 3 0 
 # max = 82
2688019		 # 	collision with: 5 1 0  and 5 0 1 
 # max = 82
2688052		 # 	collision with: 2 1 0  and 1 2 0 
 # max = 82
2688053		 # 	collision with: 0 0 0  and 2 1 0 
 # max = 82
2688054		 # 	collision with: 3 0 0  and 5 1 0 
 # max = 82
2688055		 # 	collision with: 0 2 0  and 4 3 0 
 # max = 82
2688060		 # 	collision with: 2 1 0  and 1 2 0 
 # max = 82
2688061		 # 	collision with: 4 4 0  and 3 0 1 
 # max = 82
2688062		 # 	collision with: 6 1 0  and 6 0 1 
 # max = 82
2688063		 # 	collision with: 5 2 0  and 6 2 1 
 # max = 82
2688096		 # 	collision with: 4 0 0  and 2 1 0 
 # max = 82
2688097		 # 	collision with: 2 3 0  and 3 4 0 
 # max = 82
2688098		 # 	collision with: 0 2 0  and 2 2 0 
 # max = 82
2688099		 # 	collision with: 1 1 0  and 2 1 0 
 # max = 82
2688132		 # 	collision with: 2 1 0  and 1 2 0 
 # max = 82
2688133		 # 	collision with: 0 2 0  and 5 4 0 
 # max = 82
2688134		 # 	collision with: 6 0 0  and 4 1 0 
 # max = 82
2688135		 # 	collision with: 0 0 0  and 5 2 0 
 # max = 82
2688140		 # 	collision with: 6 3 0  and 4 4 0 
 # max = 82
2688141		 # 	collision with: 3 0 0  and 2 1 1 
 # max = 82
2688142		 # 	collision with: 3 0 0  and 5 1 0 
 # max = 82
2688143		 # 	collision with: 1 3 0  and 6 4 0 
 # max = 82
2688176		 # 	collision with: 1 3 0  and 2 0 1 
 # max = 82
2688177		 # 	collision with: 0 1 0  and 5 2 0 
 # max = 82
2688178		 # 	collision with: 1 3 0  and 6 4 0 
 # max = 82
2688179		 # 	collision with: 1 3 0  and 6 4 0 
 # max = 82
2688212		 # 	collision with: 1 3 0  and 3 0 1 
 # max = 82
2688213		 # 	collision with: 4 0 0  and 1 1 0 
 # max = 82
2688214		 # 	collision with: 1 3 0  and 6 4 0 
 # max = 82
2688215		 # 	collision with: 4 1 0  and 1 2 0 
 # max = 82
2688248		 # 	collision with: 0 2 0  and 5 4 0 
 # max = 82
2688249		 # 	collision with: 0 3 0  and 1 3 0 
 # max = 82
2688250		 # 	collision with: 1 1 0  and 0 2 0 
 # max = 82
2688251		 # 	collision with: 1 3 0  and 6 4 0 
 # max = 82
2688256		 # 	collision with: 4 0 0  and 1 2 0 
 # max = 82
2688257		 # 	collision with: 6 3 0  and 3 3 1 
 # max = 82
2688258		 # 	collision with: 4 1 0  and 1 2 0 
 # max = 82
2688259		 # 	collision with: 3 0 0  and 5 1 0 
 # max = 82
2688292		 # 	collision with: 6 2 0  and 0 3 0 
 # max = 82
2688293		 # 	collision with: 0 5 0  and 2 0 1 
 # max = 82
2688294		 # 	collision with: 1 3 0  and 1 4 0 
 # max = 82
2688295		 # 	collision with: 1 3 0  and 1 4 0 
 # max = 82
4.34068secs	82 3870
