# prime 7
# degree 2
# input variables 3
# output variables 3
# reload computed balance functions from file balance-202of320-p7d2m3-debug.log
# p = 7
# n = 3
# smalldomain p^m 343
# domain p^n 343
#	 p^2 = 49
#	 p^3 = 343
#	 p^4 = 2401
#	 p^5 = 16807
#	 p^6 = 117649
#	 p^7 = 823543
#	 p^8 = 5764801
#	 p^9 = 40353607
opening file : balance-202of320-p7d2m3-debug.log
reloading for step2...
2080616		 # 	collision with: 2 1 0  and 2 3 0 
 # max = 23
2080617		 # 	collision with: 4 5 0  and 3 0 1 
 # max = 52
2080618		 # 	collision with: 2 5 0  and 4 5 0 
 # max = 52
2080619		 # 	collision with: 6 1 0  and 1 2 0 
 # max = 52
2080640		 # 	collision with: 1 2 0  and 3 3 0 
 # max = 52
2080641		 # 	collision with: 5 2 0  and 0 1 1 
 # max = 56
2080642		 # 	collision with: 5 0 0  and 4 2 0 
 # max = 56
2080643		 # 	collision with: 0 1 0  and 3 2 0 
 # max = 56
2080664		 # 	collision with: 1 2 0  and 3 3 0 
 # max = 56
2080665		 # 	collision with: 3 2 0  and 3 4 0 
 # max = 56
2080666		 # 	collision with: 3 4 0  and 0 5 0 
 # max = 56
2080667		 # 	collision with: 0 3 0  and 2 3 0 
 # max = 56
2080688		 # 	collision with: 1 2 0  and 3 3 0 
 # max = 56
2080689		 # 	collision with: 1 6 0  and 6 0 1 
 # max = 56
2080690		 # 	collision with: 6 0 0  and 5 1 1 
 # max = 61
2080691		 # 	collision with: 2 0 0  and 5 2 0 
 # max = 61
2080712		 # 	collision with: 3 0 0  and 6 1 0 
 # max = 61
2080713		 # 	collision with: 2 3 0  and 0 4 0 
 # max = 61
2080714		 # 	collision with: 3 1 0  and 3 3 0 
 # max = 61
2080715		 # 	collision with: 4 4 0  and 6 0 1 
 # max = 61
2080736		 # 	collision with: 4 2 0  and 1 0 1 
 # max = 61
2080737		 # 	collision with: 5 1 0  and 5 2 0 
 # max = 61
2080738		 # 	collision with: 2 3 0  and 5 4 0 
 # max = 61
2080739		 # 	collision with: 6 1 0  and 6 2 0 
 # max = 61
2080788		 # 	collision with: 1 1 0  and 1 0 1 
 # max = 61
2080789		 # 	collision with: 0 0 0  and 1 1 1 
 # max = 61
2080790		 # 	collision with: 1 4 0  and 3 4 0 
 # max = 61
2080791		 # 	collision with: 4 2 0  and 0 4 0 
 # max = 61
2080812		 # 	collision with: 0 1 0  and 2 2 0 
 # max = 61
2080813		 # 	collision with: 5 1 0  and 1 3 0 
 # max = 61
2080814		 # 	collision with: 2 3 0  and 5 4 0 
 # max = 61
2080815		 # 	collision with: 1 3 0  and 3 4 0 
 # max = 61
2080836		 # 	collision with: 1 4 0  and 1 5 0 
 # max = 61
2080837		 # 	collision with: 0 1 0  and 2 2 0 
 # max = 61
2080838		 # 	collision with: 2 3 0  and 5 4 0 
 # max = 61
2080839		 # 	collision with: 2 3 0  and 5 4 0 
 # max = 61
2080860		 # 	collision with: 5 5 0  and 5 0 1 
 # max = 61
2080861		 # 	collision with: 1 2 0  and 2 4 0 
 # max = 61
2080862		 # 	collision with: 2 3 0  and 5 4 0 
 # max = 61
2080863		 # 	collision with: 2 3 0  and 5 4 0 
 # max = 61
2080884		 # 	collision with: 6 2 0  and 2 4 0 
 # max = 61
2080885		 # 	collision with: 5 1 0  and 3 0 1 
 # max = 61
2080886		 # 	collision with: 6 1 0  and 1 2 0 
 # max = 61
2080887		 # 	collision with: 2 3 0  and 5 4 0 
 # max = 61
2080908		 # 	collision with: 2 2 0  and 0 0 1 
 # max = 61
2080909		 # 	collision with: 3 1 0  and 5 0 1 
 # max = 61
2080910		 # 	collision with: 5 1 0  and 3 2 0 
 # max = 61
2080911		 # 	collision with: 2 3 0  and 5 4 0 
 # max = 61
2080932		 # 	collision with: 6 6 0  and 0 0 1 
 # max = 61
2080933		 # 	collision with: 4 4 0  and 4 1 1 
 # max = 61
2080934		 # 	collision with: 1 2 0  and 5 3 0 
 # max = 61
2080935		 # 	collision with: 5 3 0  and 6 0 1 
 # max = 61
2080984		 # 	collision with: 3 1 0  and 2 3 0 
 # max = 61
2080985		 # 	collision with: 6 0 0  and 4 1 0 
 # max = 61
2080986		 # 	collision with: 4 1 0  and 4 0 1 
 # max = 61
2080987		 # 	collision with: 0 1 0  and 4 2 0 
 # max = 61
2081008		 # 	collision with: 6 0 0  and 1 1 0 
 # max = 61
2081009		 # 	collision with: 6 4 0  and 3 0 1 
 # max = 61
2081010		 # 	collision with: 1 3 0  and 1 4 0 
 # max = 61
2081011		 # 	collision with: 5 1 0  and 3 2 0 
 # max = 61
2081032		 # 	collision with: 1 4 0  and 3 4 0 
 # max = 61
2081033		 # 	collision with: 1 4 0  and 4 0 1 
 # max = 61
2081034		 # 	collision with: 1 2 0  and 4 3 0 
 # max = 61
2081035		 # 	collision with: 6 1 0  and 5 3 0 
 # max = 61
2081056		 # 	collision with: 0 3 0  and 4 4 0 
 # max = 61
2081057		 # 	collision with: 2 6 0  and 6 0 1 
 # max = 61
2081058		 # 	collision with: 0 3 0  and 2 3 0 
 # max = 61
2081059		 # 	collision with: 2 3 0  and 1 2 1 
 # max = 64
2081080		 # 	collision with: 5 1 0  and 3 0 1 
 # max = 64
2081081		 # 	collision with: 2 5 0  and 4 5 0 
 # max = 64
2081082		 # 	collision with: 4 0 0  and 2 1 0 
 # max = 64
2081083		 # 	collision with: 3 5 0  and 6 0 1 
 # max = 64
2081104		 # 	collision with: 5 1 0  and 1 3 0 
 # max = 64
2081105		 # 	collision with: 2 0 0  and 1 2 0 
 # max = 64
2081106		 # 	collision with: 4 3 0  and 5 0 1 
 # max = 64
2081107		 # 	collision with: 3 1 0  and 3 0 1 
 # max = 64
2081128		 # 	collision with: 2 0 0  and 1 2 0 
 # max = 64
2081129		 # 	collision with: 0 3 0  and 4 4 0 
 # max = 64
2081130		 # 	collision with: 4 2 0  and 0 4 0 
 # max = 64
2081131		 # 	collision with: 5 0 0  and 0 1 0 
 # max = 64
2081180		 # 	collision with: 6 2 0  and 3 3 0 
 # max = 64
2081181		 # 	collision with: 4 2 0  and 3 4 0 
 # max = 64
2081182		 # 	collision with: 4 1 0  and 2 0 1 
 # max = 64
2081183		 # 	collision with: 5 0 0  and 0 1 0 
 # max = 64
2081204		 # 	collision with: 0 3 0  and 2 3 0 
 # max = 64
2081205		 # 	collision with: 2 1 0  and 2 3 0 
 # max = 64
2081206		 # 	collision with: 3 6 0  and 0 0 1 
 # max = 64
2081207		 # 	collision with: 5 0 0  and 0 1 0 
 # max = 64
2081228		 # 	collision with: 3 3 0  and 4 1 1 
 # max = 64
2081229		 # 	collision with: 5 1 0  and 5 0 1 
 # max = 64
2081230		 # 	collision with: 0 1 0  and 3 2 0 
 # max = 64
2081231		 # 	collision with: 5 0 0  and 0 1 0 
 # max = 64
2081252		 # 	collision with: 5 3 0  and 5 0 1 
 # max = 64
2081253		 # 	collision with: 3 1 0  and 0 3 0 
 # max = 64
2081254		 # 	collision with: 0 4 0  and 6 0 1 
 # max = 64
2081255		 # 	collision with: 5 0 0  and 0 1 0 
 # max = 64
2081276		 # 	collision with: 4 4 0  and 0 1 1 
 # max = 64
2081277		 # 	collision with: 1 2 0  and 6 3 0 
 # max = 64
2081278		 # 	collision with: 2 0 0  and 3 2 1 
 # max = 66
2081279		 # 	collision with: 5 0 0  and 0 1 0 
 # max = 66
2081300		 # 	collision with: 6 2 0  and 6 3 0 
 # max = 66
2081301		 # 	collision with: 5 6 0  and 1 0 1 
 # max = 66
2081302		 # 	collision with: 3 2 0  and 0 4 0 
 # max = 66
2081303		 # 	collision with: 5 0 0  and 0 1 0 
 # max = 66
2081333		 # 	collision with: 2 4 0  and 1 2 1 
 # max = 66
2081335		 # 	collision with: 5 2 0  and 1 0 1 
 # max = 66
2081345		 # 	collision with: 2 2 0  and 6 4 0 
 # max = 66
2081347		 # 	collision with: 5 3 0  and 0 4 0 
 # max = 66
2081361		 # 	collision with: 2 4 0  and 4 4 0 
 # max = 66
2081363		 # 	collision with: 3 1 0  and 3 3 0 
 # max = 66
2081365		 # 	collision with: 5 2 0  and 0 3 0 
 # max = 66
2081427		 # 	collision with: 5 4 0  and 6 5 0 
 # max = 66
2081451		 # 	collision with: 1 1 0  and 3 1 0 
 # max = 66
2081509		 # 	collision with: 2 2 0  and 0 3 0 
 # max = 66
2081513		 # 	collision with: 2 6 0  and 3 6 0 
 # max = 66
2081515		 # 	collision with: 3 2 0  and 2 0 1 
 # max = 66
2081520		 # 	collision with: 2 2 0  and 3 3 0 
 # max = 66
2081522		 # 	collision with: 0 0 0  and 4 2 0 
 # max = 66
2081529		 # 	collision with: 3 2 0  and 2 3 0 
 # max = 66
2081531		 # 	collision with: 6 3 0  and 3 0 1 
 # max = 66
2081541		 # 	collision with: 3 2 0  and 2 3 0 
 # max = 66
2081543		 # 	collision with: 4 2 0  and 1 0 1 
 # max = 66
2081557		 # 	collision with: 3 2 0  and 2 3 0 
 # max = 66
2081559		 # 	collision with: 3 0 0  and 6 1 0 
 # max = 66
2081561		 # 	collision with: 2 1 0  and 3 2 0 
 # max = 66
2081563		 # 	collision with: 6 1 0  and 6 0 1 
 # max = 66
2081621		 # 	collision with: 2 0 0  and 1 1 0 
 # max = 66
2081623		 # 	collision with: 6 3 0  and 0 1 1 
 # max = 66
2081645		 # 	collision with: 3 2 0  and 2 3 0 
 # max = 66
2081647		 # 	collision with: 6 1 0  and 6 2 0 
 # max = 66
2081705		 # 	collision with: 3 2 0  and 2 3 0 
 # max = 66
2081707		 # 	collision with: 1 3 0  and 5 4 0 
 # max = 66
2081709		 # 	collision with: 3 2 0  and 2 3 0 
 # max = 66
2081711		 # 	collision with: 1 3 0  and 1 4 0 
 # max = 66
2081716		 # 	collision with: 0 6 0  and 3 0 1 
 # max = 66
2081718		 # 	collision with: 4 2 0  and 0 1 1 
 # max = 66
2081727		 # 	collision with: 4 1 0  and 5 3 0 
 # max = 66
2081737		 # 	collision with: 5 2 0  and 0 4 0 
 # max = 66
2081739		 # 	collision with: 3 5 0  and 1 0 1 
 # max = 66
2081753		 # 	collision with: 2 3 0  and 3 4 0 
 # max = 66
2081757		 # 	collision with: 2 1 0  and 2 0 1 
 # max = 66
2081759		 # 	collision with: 5 3 0  and 6 4 0 
 # max = 66
2081817		 # 	collision with: 6 3 0  and 1 0 1 
 # max = 66
2081819		 # 	collision with: 6 0 0  and 2 2 0 
 # max = 66
2081841		 # 	collision with: 6 0 0  and 1 1 0 
 # max = 66
2081843		 # 	collision with: 4 0 0  and 3 1 0 
 # max = 66
2081901		 # 	collision with: 6 1 0  and 0 3 0 
 # max = 66
2081903		 # 	collision with: 0 4 0  and 5 5 0 
 # max = 66
2081905		 # 	collision with: 5 1 0  and 5 2 0 
 # max = 66
2081907		 # 	collision with: 2 4 0  and 4 4 0 
 # max = 66
2081912		 # 	collision with: 6 2 0  and 4 3 0 
 # max = 66
2081914		 # 	collision with: 0 0 0  and 1 1 1 
 # max = 66
2081921		 # 	collision with: 3 2 0  and 4 2 0 
 # max = 66
2081933		 # 	collision with: 5 2 0  and 3 3 0 
 # max = 66
2081935		 # 	collision with: 5 1 0  and 1 0 1 
 # max = 66
2081951		 # 	collision with: 3 0 0  and 6 2 0 
 # max = 66
2081953		 # 	collision with: 2 4 0  and 4 4 0 
 # max = 66
2081955		 # 	collision with: 0 3 0  and 6 0 1 
 # max = 66
2082013		 # 	collision with: 1 2 0  and 4 3 0 
 # max = 66
2082037		 # 	collision with: 6 1 0  and 0 3 0 
 # max = 66
2082039		 # 	collision with: 5 2 0  and 4 3 0 
 # max = 66
2082099		 # 	collision with: 0 0 0  and 4 2 0 
 # max = 66
2082101		 # 	collision with: 1 4 0  and 2 1 1 
 # max = 66
2082103		 # 	collision with: 6 0 0  and 2 2 0 
 # max = 66
2082108		 # 	collision with: 3 3 0  and 6 4 0 
 # max = 66
2082110		 # 	collision with: 5 1 0  and 6 2 0 
 # max = 66
2082117		 # 	collision with: 2 2 0  and 0 3 0 
 # max = 66
2082119		 # 	collision with: 2 3 0  and 5 4 0 
 # max = 66
2082129		 # 	collision with: 5 1 0  and 2 2 0 
 # max = 66
2082145		 # 	collision with: 1 4 0  and 1 5 0 
 # max = 66
2082147		 # 	collision with: 2 3 0  and 5 4 0 
 # max = 66
2082151		 # 	collision with: 2 3 0  and 5 4 0 
 # max = 66
2082209		 # 	collision with: 2 3 0  and 3 4 0 
 # max = 66
2082211		 # 	collision with: 2 3 0  and 5 4 0 
 # max = 66
2082233		 # 	collision with: 6 1 0  and 5 2 0 
 # max = 66
2082293		 # 	collision with: 5 2 0  and 0 4 0 
 # max = 66
2082295		 # 	collision with: 2 3 0  and 5 4 0 
 # max = 66
2082299		 # 	collision with: 4 1 0  and 5 3 0 
 # max = 66
2082304		 # 	collision with: 4 6 0  and 1 0 1 
 # max = 66
2082306		 # 	collision with: 6 2 0  and 3 1 1 
 # max = 66
2082313		 # 	collision with: 2 1 0  and 3 2 0 
 # max = 66
2082315		 # 	collision with: 3 1 0  and 0 3 0 
 # max = 66
2082327		 # 	collision with: 4 2 0  and 2 4 0 
 # max = 66
2082341		 # 	collision with: 5 1 0  and 2 2 0 
 # max = 66
2082343		 # 	collision with: 4 0 0  and 1 1 0 
 # max = 66
2082345		 # 	collision with: 2 6 0  and 1 0 1 
 # max = 66
2082347		 # 	collision with: 5 0 0  and 1 2 0 
 # max = 66
2082405		 # 	collision with: 2 2 0  and 6 4 0 
 # max = 66
2082407		 # 	collision with: 4 0 0  and 3 1 0 
 # max = 66
2082429		 # 	collision with: 0 3 0  and 6 4 0 
 # max = 66
2082431		 # 	collision with: 4 2 0  and 2 4 0 
 # max = 66
2082489		 # 	collision with: 1 3 0  and 3 4 0 
 # max = 66
2082491		 # 	collision with: 4 2 0  and 2 4 0 
 # max = 66
2082493		 # 	collision with: 3 3 0  and 6 4 0 
 # max = 66
2082500		 # 	collision with: 3 2 0  and 2 3 0 
 # max = 66
2082502		 # 	collision with: 4 0 0  and 0 2 0 
 # max = 66
2082509		 # 	collision with: 6 0 0  and 1 1 0 
 # max = 66
2082511		 # 	collision with: 1 5 0  and 1 0 1 
 # max = 66
2082521		 # 	collision with: 6 1 0  and 2 2 0 
 # max = 66
2082523		 # 	collision with: 4 0 0  and 1 1 0 
 # max = 66
2082537		 # 	collision with: 0 2 0  and 5 3 0 
 # max = 66
2082539		 # 	collision with: 6 1 0  and 1 2 0 
 # max = 66
2082541		 # 	collision with: 4 2 0  and 3 4 0 
 # max = 66
2082543		 # 	collision with: 1 2 0  and 2 0 1 
 # max = 66
2082601		 # 	collision with: 1 3 0  and 2 3 0 
 # max = 66
2082603		 # 	collision with: 3 2 0  and 4 2 0 
 # max = 66
2082625		 # 	collision with: 5 1 0  and 3 3 0 
 # max = 66
2082627		 # 	collision with: 1 1 0  and 0 2 0 
 # max = 66
2082685		 # 	collision with: 2 6 0  and 3 6 0 
 # max = 66
2082687		 # 	collision with: 2 4 0  and 4 4 0 
 # max = 66
2082689		 # 	collision with: 4 2 0  and 2 3 0 
 # max = 66
2082691		 # 	collision with: 2 5 0  and 0 0 1 
 # max = 66
2082701		 # 	collision with: 0 2 0  and 2 3 0 
 # max = 66
2082703		 # 	collision with: 0 0 0  and 1 1 1 
 # max = 66
2082721		 # 	collision with: 1 2 0  and 2 1 1 
 # max = 66
2082723		 # 	collision with: 5 3 0  and 3 0 1 
 # max = 66
2082729		 # 	collision with: 6 3 0  and 5 4 0 
 # max = 66
2082731		 # 	collision with: 0 0 0  and 5 2 0 
 # max = 66
2082741		 # 	collision with: 5 1 0  and 2 1 1 
 # max = 66
2082743		 # 	collision with: 0 2 0  and 3 4 0 
 # max = 66
2082799		 # 	collision with: 3 2 0  and 5 3 0 
 # max = 66
2082823		 # 	collision with: 1 6 0  and 4 0 1 
 # max = 66
2082877		 # 	collision with: 3 5 0  and 1 0 1 
 # max = 66
2082879		 # 	collision with: 1 6 0  and 2 6 0 
 # max = 66
2082889		 # 	collision with: 6 0 0  and 1 1 0 
 # max = 66
2082891		 # 	collision with: 5 1 0  and 2 0 1 
 # max = 66
2082892		 # 	collision with: 5 0 0  and 4 1 0 
 # max = 66
2082894		 # 	collision with: 4 0 0  and 3 1 0 
 # max = 66
2082897		 # 	collision with: 6 1 0  and 0 2 0 
 # max = 66
2082899		 # 	collision with: 4 2 0  and 4 4 0 
 # max = 66
2082917		 # 	collision with: 3 2 0  and 3 4 0 
 # max = 66
2082927		 # 	collision with: 5 3 0  and 4 4 0 
 # max = 66
2082937		 # 	collision with: 6 3 0  and 0 4 0 
 # max = 66
2082939		 # 	collision with: 5 0 0  and 5 1 0 
 # max = 66
2082993		 # 	collision with: 0 3 0  and 5 4 0 
 # max = 66
2082995		 # 	collision with: 2 3 0  and 0 4 0 
 # max = 66
2083017		 # 	collision with: 5 1 0  and 2 2 0 
 # max = 66
2083019		 # 	collision with: 1 2 0  and 6 0 1 
 # max = 66
2083075		 # 	collision with: 3 2 0  and 5 3 0 
 # max = 66
2083085		 # 	collision with: 4 1 0  and 1 3 0 
 # max = 66
2083088		 # 	collision with: 6 3 0  and 5 4 0 
 # max = 66
2083090		 # 	collision with: 5 3 0  and 4 4 0 
 # max = 66
2083093		 # 	collision with: 1 2 0  and 5 4 0 
 # max = 66
2083095		 # 	collision with: 0 4 0  and 2 0 1 
 # max = 66
2083113		 # 	collision with: 3 2 0  and 4 2 0 
 # max = 66
2083115		 # 	collision with: 6 1 0  and 1 2 0 
 # max = 66
2083121		 # 	collision with: 3 1 0  and 2 2 0 
 # max = 66
2083123		 # 	collision with: 2 1 0  and 6 2 0 
 # max = 66
2083133		 # 	collision with: 3 0 0  and 1 1 0 
 # max = 66
2083135		 # 	collision with: 0 3 0  and 2 4 0 
 # max = 66
2083189		 # 	collision with: 0 1 0  and 1 1 0 
 # max = 66
2083191		 # 	collision with: 2 3 0  and 3 0 1 
 # max = 66
2083213		 # 	collision with: 4 6 0  and 4 0 1 
 # max = 66
2083215		 # 	collision with: 6 3 0  and 3 4 0 
 # max = 66
2083269		 # 	collision with: 5 1 0  and 5 2 0 
 # max = 66
2083271		 # 	collision with: 5 5 0  and 2 0 1 
 # max = 66
2083281		 # 	collision with: 4 3 0  and 6 4 0 
 # max = 66
2083283		 # 	collision with: 4 0 0  and 5 1 0 
 # max = 66
2083284		 # 	collision with: 4 2 0  and 2 4 0 
 # max = 66
2083286		 # 	collision with: 3 2 0  and 1 4 0 
 # max = 66
2083289		 # 	collision with: 3 1 0  and 5 2 0 
 # max = 66
2083291		 # 	collision with: 2 1 0  and 1 2 0 
 # max = 66
2083311		 # 	collision with: 2 1 0  and 1 2 0 
 # max = 66
2083317		 # 	collision with: 5 0 0  and 4 1 0 
 # max = 66
2083319		 # 	collision with: 2 1 0  and 1 2 0 
 # max = 66
2083329		 # 	collision with: 3 1 0  and 5 2 0 
 # max = 66
2083385		 # 	collision with: 3 1 0  and 5 2 0 
 # max = 66
2083409		 # 	collision with: 3 1 0  and 5 2 0 
 # max = 66
2083411		 # 	collision with: 2 1 0  and 1 2 0 
 # max = 66
2083465		 # 	collision with: 3 1 0  and 5 2 0 
 # max = 66
2083467		 # 	collision with: 4 0 0  and 3 1 0 
 # max = 66
2083477		 # 	collision with: 3 1 0  and 5 2 0 
 # max = 66
2083479		 # 	collision with: 2 1 0  and 1 2 0 
 # max = 66
2083480		 # 	collision with: 3 0 0  and 1 1 0 
 # max = 66
2083482		 # 	collision with: 1 1 0  and 2 3 0 
 # max = 66
2083487		 # 	collision with: 2 3 0  and 5 4 0 
 # max = 66
2083505		 # 	collision with: 4 2 0  and 2 4 0 
 # max = 66
2083507		 # 	collision with: 6 1 0  and 6 2 0 
 # max = 66
2083513		 # 	collision with: 4 2 0  and 2 4 0 
 # max = 66
2083515		 # 	collision with: 4 0 0  and 3 1 0 
 # max = 66
2083525		 # 	collision with: 1 2 0  and 0 4 0 
 # max = 66
2083527		 # 	collision with: 0 0 0  and 4 1 0 
 # max = 66
2083581		 # 	collision with: 4 2 0  and 2 4 0 
 # max = 66
2083583		 # 	collision with: 0 0 0  and 2 2 0 
 # max = 66
2083605		 # 	collision with: 4 2 0  and 2 4 0 
 # max = 66
2083661		 # 	collision with: 5 0 0  and 4 1 0 
 # max = 66
2083673		 # 	collision with: 2 3 0  and 4 3 0 
 # max = 66
2083675		 # 	collision with: 2 3 0  and 5 4 0 
 # max = 66
2083676		 # 	collision with: 0 2 0  and 2 3 0 
 # max = 66
2083678		 # 	collision with: 5 1 0  and 3 3 0 
 # max = 66
2083681		 # 	collision with: 3 2 0  and 4 2 0 
 # max = 66
2083683		 # 	collision with: 2 4 0  and 3 4 0 
 # max = 66
2083701		 # 	collision with: 5 2 0  and 4 4 0 
 # max = 66
2083703		 # 	collision with: 2 1 0  and 5 3 1 
 # max = 75
2083709		 # 	collision with: 6 1 0  and 4 3 0 
 # max = 75
2083711		 # 	collision with: 2 3 0  and 4 3 0 
 # max = 75
2083721		 # 	collision with: 1 1 0  and 1 0 1 
 # max = 75
2083723		 # 	collision with: 0 3 0  and 5 0 1 
 # max = 75
2083777		 # 	collision with: 6 1 0  and 0 2 0 
 # max = 75
2083779		 # 	collision with: 5 0 0  and 5 1 0 
 # max = 75
2083801		 # 	collision with: 5 1 0  and 5 2 0 
 # max = 75
2083803		 # 	collision with: 3 1 0  and 3 3 0 
 # max = 75
2083857		 # 	collision with: 2 0 0  and 3 2 0 
 # max = 75
2083859		 # 	collision with: 0 0 0  and 4 1 0 
 # max = 75
2083869		 # 	collision with: 0 0 0  and 4 2 0 
 # max = 75
2083871		 # 	collision with: 5 0 0  and 3 1 0 
 # max = 75
2083872		 # 	collision with: 3 1 0  and 2 2 0 
 # max = 75
2083874		 # 	collision with: 2 1 0  and 1 2 0 
 # max = 75
2083877		 # 	collision with: 6 0 0  and 1 1 0 
 # max = 75
2083897		 # 	collision with: 6 2 0  and 0 3 0 
 # max = 75
2083899		 # 	collision with: 0 2 0  and 2 4 0 
 # max = 75
2083905		 # 	collision with: 2 2 0  and 4 4 0 
 # max = 75
2083919		 # 	collision with: 0 4 0  and 1 0 1 
 # max = 75
2083973		 # 	collision with: 1 2 1  and 3 2 1 
 # max = 75
2083975		 # 	collision with: 3 2 0  and 4 2 0 
 # max = 75
2083997		 # 	collision with: 4 6 0  and 0 0 1 
 # max = 75
2083999		 # 	collision with: 0 3 0  and 2 4 0 
 # max = 75
2084053		 # 	collision with: 2 3 0  and 4 3 0 
 # max = 75
2084055		 # 	collision with: 3 1 0  and 3 3 0 
 # max = 75
2084067		 # 	collision with: 1 1 0  and 2 3 0 
 # max = 75
2084068		 # 	collision with: 0 6 0  and 6 0 1 
 # max = 75
2084069		 # 	collision with: 0 2 0  and 5 3 0 
 # max = 75
2084070		 # 	collision with: 5 4 0  and 2 0 1 
 # max = 75
2084071		 # 	collision with: 4 4 0  and 3 0 1 
 # max = 75
2084096		 # 	collision with: 1 6 0  and 0 0 1 
 # max = 75
2084097		 # 	collision with: 6 0 0  and 3 2 0 
 # max = 75
2084098		 # 	collision with: 2 2 0  and 1 0 1 
 # max = 75
2084099		 # 	collision with: 5 0 0  and 1 1 0 
 # max = 75
2084124		 # 	collision with: 2 2 0  and 3 1 1 
 # max = 75
2084125		 # 	collision with: 6 1 0  and 0 0 1 
 # max = 75
2084126		 # 	collision with: 2 6 0  and 3 0 1 
 # max = 75
2084127		 # 	collision with: 3 3 0  and 4 1 1 
 # max = 75
2084152		 # 	collision with: 4 0 0  and 6 2 1 
 # max = 75
2084153		 # 	collision with: 5 0 0  and 6 1 0 
 # max = 75
2084154		 # 	collision with: 0 5 0  and 6 2 1 
 # max = 75
2084155		 # 	collision with: 6 1 0  and 4 3 0 
 # max = 75
2084180		 # 	collision with: 2 1 0  and 0 2 1 
 # max = 75
2084181		 # 	collision with: 5 1 0  and 1 2 0 
 # max = 75
2084182		 # 	collision with: 3 4 0  and 0 0 1 
 # max = 75
2084183		 # 	collision with: 3 1 0  and 6 1 1 
 # max = 75
2084208		 # 	collision with: 5 4 0  and 3 0 1 
 # max = 75
2084209		 # 	collision with: 1 3 0  and 1 0 1 
 # max = 75
2084210		 # 	collision with: 3 2 0  and 1 1 1 
 # max = 75
2084211		 # 	collision with: 5 5 0  and 0 0 1 
 # max = 75
2084236		 # 	collision with: 2 1 0  and 1 0 1 
 # max = 75
2084237		 # 	collision with: 2 3 0  and 2 0 1 
 # max = 75
2084238		 # 	collision with: 4 3 0  and 3 0 1 
 # max = 75
2084239		 # 	collision with: 0 0 0  and 1 2 0 
 # max = 75
2084264		 # 	collision with: 1 1 0  and 2 3 0 
 # max = 75
2084265		 # 	collision with: 4 3 0  and 6 5 0 
 # max = 75
2084266		 # 	collision with: 0 0 0  and 1 2 0 
 # max = 75
2084267		 # 	collision with: 3 0 0  and 4 2 0 
 # max = 75
2084292		 # 	collision with: 4 1 0  and 5 3 0 
 # max = 75
2084293		 # 	collision with: 2 2 0  and 2 0 1 
 # max = 75
2084294		 # 	collision with: 4 0 0  and 5 2 0 
 # max = 75
2084295		 # 	collision with: 4 2 0  and 6 4 0 
 # max = 75
2084320		 # 	collision with: 6 1 0  and 0 3 0 
 # max = 75
2084321		 # 	collision with: 3 1 0  and 4 3 0 
 # max = 75
2084322		 # 	collision with: 2 0 0  and 3 2 0 
 # max = 75
2084323		 # 	collision with: 1 5 0  and 5 0 1 
 # max = 75
2084348		 # 	collision with: 3 1 0  and 4 0 1 
 # max = 75
2084349		 # 	collision with: 3 2 0  and 1 3 0 
 # max = 75
2084350		 # 	collision with: 3 1 0  and 2 0 1 
 # max = 75
2084351		 # 	collision with: 2 1 0  and 0 3 0 
 # max = 75
2084376		 # 	collision with: 5 1 0  and 6 3 0 
 # max = 75
2084377		 # 	collision with: 2 0 0  and 6 2 0 
 # max = 75
2084378		 # 	collision with: 3 0 0  and 4 2 0 
 # max = 75
2084379		 # 	collision with: 0 0 0  and 1 1 1 
 # max = 75
2084404		 # 	collision with: 0 1 0  and 1 3 0 
 # max = 75
2084405		 # 	collision with: 6 2 0  and 6 0 1 
 # max = 75
2084406		 # 	collision with: 3 4 0  and 0 5 0 
 # max = 75
2084407		 # 	collision with: 3 1 0  and 1 2 0 
 # max = 75
2084432		 # 	collision with: 3 1 0  and 4 3 0 
 # max = 75
2084433		 # 	collision with: 6 4 0  and 1 0 1 
 # max = 75
2084434		 # 	collision with: 5 0 0  and 6 2 0 
 # max = 75
2084435		 # 	collision with: 3 3 0  and 5 4 0 
 # max = 75
2084460		 # 	collision with: 4 0 0  and 1 2 0 
 # max = 75
2084461		 # 	collision with: 5 4 0  and 2 0 1 
 # max = 75
2084462		 # 	collision with: 4 3 0  and 6 4 0 
 # max = 75
2084463		 # 	collision with: 6 1 0  and 4 2 0 
 # max = 75
2084488		 # 	collision with: 6 0 0  and 3 2 0 
 # max = 75
2084489		 # 	collision with: 4 1 0  and 0 2 0 
 # max = 75
2084490		 # 	collision with: 0 3 0  and 2 4 0 
 # max = 75
2084491		 # 	collision with: 0 2 0  and 2 4 0 
 # max = 75
2084516		 # 	collision with: 0 0 0  and 4 2 0 
 # max = 75
2084517		 # 	collision with: 4 0 0  and 5 1 0 
 # max = 75
2084518		 # 	collision with: 5 3 0  and 0 4 0 
 # max = 75
2084519		 # 	collision with: 2 1 0  and 0 2 1 
 # max = 75
2084544		 # 	collision with: 2 0 0  and 6 2 0 
 # max = 75
2084545		 # 	collision with: 5 2 0  and 3 4 0 
 # max = 75
2084546		 # 	collision with: 1 3 0  and 3 4 0 
 # max = 75
2084547		 # 	collision with: 5 1 0  and 3 3 0 
 # max = 75
2084572		 # 	collision with: 2 4 0  and 4 5 0 
 # max = 75
2084573		 # 	collision with: 5 1 0  and 3 0 1 
 # max = 75
2084574		 # 	collision with: 3 3 0  and 5 4 0 
 # max = 75
2084575		 # 	collision with: 5 0 1  and 1 2 1 
 # max = 75
2084600		 # 	collision with: 1 3 0  and 3 0 1 
 # max = 75
2084601		 # 	collision with: 5 0 0  and 2 2 0 
 # max = 75
2084602		 # 	collision with: 0 4 0  and 1 0 1 
 # max = 75
2084603		 # 	collision with: 3 5 0  and 1 1 1 
 # max = 75
2084628		 # 	collision with: 5 0 0  and 2 2 0 
 # max = 75
2084629		 # 	collision with: 6 1 0  and 0 3 0 
 # max = 75
2084630		 # 	collision with: 2 3 0  and 4 4 0 
 # max = 75
2084631		 # 	collision with: 1 0 1  and 2 1 1 
 # max = 75
2084656		 # 	collision with: 4 2 0  and 2 4 0 
 # max = 75
2084657		 # 	collision with: 0 1 0  and 3 2 0 
 # max = 75
2084658		 # 	collision with: 3 1 0  and 1 3 0 
 # max = 75
2084659		 # 	collision with: 3 2 0  and 5 4 0 
 # max = 75
2084684		 # 	collision with: 2 2 0  and 0 4 0 
 # max = 75
2084685		 # 	collision with: 6 3 0  and 5 0 1 
 # max = 75
2084686		 # 	collision with: 2 1 0  and 0 3 0 
 # max = 75
2084687		 # 	collision with: 2 1 0  and 0 2 0 
 # max = 75
2084712		 # 	collision with: 4 2 0  and 2 4 0 
 # max = 75
2084713		 # 	collision with: 2 4 0  and 4 5 0 
 # max = 75
2084714		 # 	collision with: 3 1 0  and 1 3 0 
 # max = 75
2084715		 # 	collision with: 0 0 0  and 3 1 0 
 # max = 75
2084740		 # 	collision with: 4 2 0  and 2 4 0 
 # max = 75
2084741		 # 	collision with: 1 2 0  and 6 4 0 
 # max = 75
2084742		 # 	collision with: 3 1 0  and 1 3 0 
 # max = 75
2084743		 # 	collision with: 2 0 0  and 3 2 0 
 # max = 75
2084768		 # 	collision with: 4 2 0  and 2 4 0 
 # max = 75
2084769		 # 	collision with: 5 1 0  and 5 0 1 
 # max = 75
2084770		 # 	collision with: 3 1 0  and 1 3 0 
 # max = 75
2084771		 # 	collision with: 3 2 0  and 5 4 0 
 # max = 75
2084796		 # 	collision with: 4 2 0  and 2 4 0 
 # max = 75
2084797		 # 	collision with: 2 2 0  and 0 3 0 
 # max = 75
2084798		 # 	collision with: 3 1 0  and 1 3 0 
 # max = 75
2084799		 # 	collision with: 3 2 0  and 5 4 0 
 # max = 75
2084824		 # 	collision with: 4 2 0  and 2 4 0 
 # max = 75
2084825		 # 	collision with: 0 0 0  and 1 1 0 
 # max = 75
2084826		 # 	collision with: 3 1 0  and 1 3 0 
 # max = 75
2084827		 # 	collision with: 3 2 0  and 5 4 0 
 # max = 75
2084852		 # 	collision with: 6 0 0  and 0 1 0 
 # max = 75
2084853		 # 	collision with: 4 2 0  and 2 4 0 
 # max = 75
2084854		 # 	collision with: 1 2 0  and 3 4 0 
 # max = 75
2084855		 # 	collision with: 6 2 0  and 1 0 1 
 # max = 75
2084880		 # 	collision with: 6 0 0  and 0 1 0 
 # max = 75
2084881		 # 	collision with: 5 2 0  and 3 3 0 
 # max = 75
2084882		 # 	collision with: 2 2 0  and 4 4 0 
 # max = 75
2084883		 # 	collision with: 6 2 0  and 1 4 0 
 # max = 75
2084908		 # 	collision with: 6 0 0  and 0 1 0 
 # max = 75
2084909		 # 	collision with: 3 1 0  and 6 2 0 
 # max = 75
2084910		 # 	collision with: 0 2 0  and 2 4 0 
 # max = 75
2084911		 # 	collision with: 1 2 0  and 3 0 1 
 # max = 75
2084936		 # 	collision with: 6 0 0  and 0 1 0 
 # max = 75
2084937		 # 	collision with: 4 0 0  and 1 2 0 
 # max = 75
2084938		 # 	collision with: 6 2 0  and 1 4 0 
 # max = 75
2084939		 # 	collision with: 5 1 0  and 3 2 0 
 # max = 75
2084964		 # 	collision with: 6 0 0  and 0 1 0 
 # max = 75
2084965		 # 	collision with: 3 0 0  and 4 1 0 
 # max = 75
2084966		 # 	collision with: 4 2 0  and 6 4 0 
 # max = 75
2084967		 # 	collision with: 3 0 0  and 6 1 0 
 # max = 75
2084992		 # 	collision with: 6 0 0  and 0 1 0 
 # max = 75
2084993		 # 	collision with: 4 2 0  and 2 4 0 
 # max = 75
2084994		 # 	collision with: 5 2 0  and 0 4 0 
 # max = 75
2084995		 # 	collision with: 4 5 0  and 0 0 1 
 # max = 75
2085020		 # 	collision with: 6 0 0  and 0 1 0 
 # max = 75
2085021		 # 	collision with: 4 2 0  and 2 4 0 
 # max = 75
2085022		 # 	collision with: 3 3 0  and 3 0 1 
 # max = 75
2085023		 # 	collision with: 2 1 0  and 2 0 1 
 # max = 75
2085048		 # 	collision with: 0 2 0  and 5 3 0 
 # max = 75
2085049		 # 	collision with: 5 2 0  and 0 1 1 
 # max = 75
2085050		 # 	collision with: 6 1 0  and 4 2 0 
 # max = 75
2085051		 # 	collision with: 6 0 0  and 2 1 0 
 # max = 75
2085076		 # 	collision with: 1 2 0  and 6 3 0 
 # max = 75
2085077		 # 	collision with: 1 1 0  and 2 3 0 
 # max = 75
2085078		 # 	collision with: 1 1 0  and 6 2 0 
 # max = 75
2085079		 # 	collision with: 2 2 0  and 4 4 0 
 # max = 75
2085104		 # 	collision with: 3 1 0  and 5 0 1 
 # max = 75
2085105		 # 	collision with: 1 2 0  and 6 3 0 
 # max = 75
2085106		 # 	collision with: 6 1 0  and 6 0 1 
 # max = 75
2085107		 # 	collision with: 1 1 0  and 6 2 0 
 # max = 75
2085132		 # 	collision with: 4 2 0  and 2 3 0 
 # max = 75
2085133		 # 	collision with: 6 1 0  and 2 2 0 
 # max = 75
2085134		 # 	collision with: 0 1 0  and 5 2 0 
 # max = 75
2085135		 # 	collision with: 0 1 0  and 5 3 0 
 # max = 75
2085160		 # 	collision with: 5 2 0  and 3 3 0 
 # max = 75
2085161		 # 	collision with: 1 2 0  and 2 0 1 
 # max = 75
2085162		 # 	collision with: 2 1 0  and 0 2 0 
 # max = 75
2085163		 # 	collision with: 4 1 0  and 6 0 1 
 # max = 75
2085188		 # 	collision with: 3 2 0  and 1 3 0 
 # max = 75
2085189		 # 	collision with: 2 5 0  and 3 0 1 
 # max = 75
2085190		 # 	collision with: 5 1 0  and 3 2 0 
 # max = 75
2085191		 # 	collision with: 1 3 0  and 3 4 0 
 # max = 75
2085216		 # 	collision with: 2 2 0  and 0 3 0 
 # max = 75
2085217		 # 	collision with: 0 0 0  and 4 2 0 
 # max = 75
2085218		 # 	collision with: 3 1 0  and 1 2 0 
 # max = 75
2085219		 # 	collision with: 4 2 1  and 2 4 1 
 # max = 79
2085244		 # 	collision with: 0 1 0  and 3 2 0 
 # max = 79
2085245		 # 	collision with: 4 1 0  and 5 3 0 
 # max = 79
2085246		 # 	collision with: 6 0 0  and 2 1 0 
 # max = 79
2085247		 # 	collision with: 3 1 0  and 1 3 0 
 # max = 79
2085272		 # 	collision with: 2 1 0  and 5 2 0 
 # max = 79
2085273		 # 	collision with: 5 2 0  and 1 0 1 
 # max = 79
2085274		 # 	collision with: 2 0 0  and 5 1 0 
 # max = 79
2085275		 # 	collision with: 4 0 0  and 5 2 0 
 # max = 79
2085300		 # 	collision with: 6 1 0  and 2 2 0 
 # max = 79
2085301		 # 	collision with: 2 6 0  and 1 0 1 
 # max = 79
2085302		 # 	collision with: 3 3 0  and 2 5 0 
 # max = 79
2085303		 # 	collision with: 3 1 0  and 1 3 0 
 # max = 79
2085328		 # 	collision with: 4 1 0  and 0 2 0 
 # max = 79
2085329		 # 	collision with: 3 2 0  and 1 4 0 
 # max = 79
2085330		 # 	collision with: 5 0 0  and 1 1 0 
 # max = 79
2085331		 # 	collision with: 3 1 0  and 1 3 0 
 # max = 79
2085356		 # 	collision with: 4 6 0  and 1 0 1 
 # max = 79
2085357		 # 	collision with: 4 3 0  and 4 1 1 
 # max = 79
2085358		 # 	collision with: 6 2 0  and 3 0 1 
 # max = 79
2085359		 # 	collision with: 3 1 0  and 1 3 0 
 # max = 79
2085384		 # 	collision with: 5 1 0  and 1 2 0 
 # max = 79
2085385		 # 	collision with: 2 0 0  and 3 1 0 
 # max = 79
2085386		 # 	collision with: 3 0 0  and 6 1 0 
 # max = 79
2085387		 # 	collision with: 2 0 0  and 5 1 0 
 # max = 79
2085412		 # 	collision with: 3 1 0  and 6 2 0 
 # max = 79
2085413		 # 	collision with: 4 2 0  and 2 3 0 
 # max = 79
2085414		 # 	collision with: 0 0 0  and 3 1 0 
 # max = 79
2085415		 # 	collision with: 3 1 0  and 1 3 0 
 # max = 79
2085449		 # 	collision with: 2 3 0  and 2 4 0 
 # max = 79
2085451		 # 	collision with: 1 2 0  and 3 2 1 
 # max = 79
2085461		 # 	collision with: 2 2 0  and 1 3 0 
 # max = 79
2085463		 # 	collision with: 3 3 0  and 2 4 0 
 # max = 79
2085481		 # 	collision with: 1 2 0  and 6 3 0 
 # max = 79
2085483		 # 	collision with: 2 2 0  and 2 3 0 
 # max = 79
2085485		 # 	collision with: 6 3 0  and 5 4 0 
 # max = 79
2085527		 # 	collision with: 5 3 0  and 1 4 0 
 # max = 79
2085555		 # 	collision with: 1 2 0  and 2 4 0 
 # max = 79
2085621		 # 	collision with: 2 6 0  and 3 0 1 
 # max = 79
2085625		 # 	collision with: 4 0 0  and 2 1 0 
 # max = 79
2085627		 # 	collision with: 5 2 0  and 5 3 0 
 # max = 79
2085636		 # 	collision with: 5 5 0  and 3 2 1 
 # max = 79
2085638		 # 	collision with: 5 2 0  and 1 4 0 
 # max = 79
2085645		 # 	collision with: 0 2 0  and 2 0 1 
 # max = 79
2085647		 # 	collision with: 1 6 0  and 2 1 1 
 # max = 79
2085657		 # 	collision with: 4 0 0  and 5 2 0 
 # max = 79
2085659		 # 	collision with: 5 0 0  and 4 1 0 
 # max = 79
2085679		 # 	collision with: 0 0 0  and 2 2 0 
 # max = 79
2085681		 # 	collision with: 2 2 0  and 1 3 0 
 # max = 79
2085683		 # 	collision with: 3 3 0  and 2 4 0 
 # max = 79
2085721		 # 	collision with: 2 2 0  and 2 0 1 
 # max = 79
2085723		 # 	collision with: 3 4 0  and 0 0 1 
 # max = 79
2085749		 # 	collision with: 1 5 0  and 3 0 1 
 # max = 79
2085751		 # 	collision with: 5 2 0  and 0 0 1 
 # max = 79
2085819		 # 	collision with: 1 3 0  and 3 3 0 
 # max = 79
2085821		 # 	collision with: 1 3 0  and 1 4 0 
 # max = 79
2085823		 # 	collision with: 2 1 0  and 3 2 0 
 # max = 79
2085832		 # 	collision with: 4 0 0  and 6 2 0 
 # max = 79
2085834		 # 	collision with: 4 6 0  and 2 1 1 
 # max = 79
2085841		 # 	collision with: 5 4 0  and 3 0 1 
 # max = 79
2085843		 # 	collision with: 1 1 0  and 5 2 0 
 # max = 79
2085853		 # 	collision with: 1 2 0  and 6 3 0 
 # max = 79
2085855		 # 	collision with: 4 0 0  and 2 2 0 
 # max = 79
2085873		 # 	collision with: 1 5 0  and 3 5 0 
 # max = 79
2085877		 # 	collision with: 5 1 0  and 4 2 0 
 # max = 79
2085879		 # 	collision with: 6 2 0  and 5 3 0 
 # max = 79
2085917		 # 	collision with: 1 1 0  and 4 3 0 
 # max = 79
2085919		 # 	collision with: 1 6 0  and 3 0 1 
 # max = 79
2085945		 # 	collision with: 4 0 0  and 5 2 0 
 # max = 79
2085947		 # 	collision with: 5 2 0  and 6 3 0 
 # max = 79
2086013		 # 	collision with: 2 2 0  and 3 4 0 
 # max = 79
2086015		 # 	collision with: 3 1 0  and 5 0 1 
 # max = 79
2086017		 # 	collision with: 1 2 0  and 3 2 0 
 # max = 79
2086019		 # 	collision with: 0 4 0  and 5 5 0 
 # max = 79
2086028		 # 	collision with: 6 1 0  and 4 2 0 
 # max = 79
2086030		 # 	collision with: 6 0 0  and 0 1 0 
 # max = 79
2086049		 # 	collision with: 5 3 0  and 3 5 0 
 # max = 79
2086051		 # 	collision with: 2 1 0  and 1 2 0 
 # max = 79
2086069		 # 	collision with: 5 3 0  and 3 5 0 
 # max = 79
2086071		 # 	collision with: 2 1 0  and 1 2 0 
 # max = 79
2086073		 # 	collision with: 5 3 0  and 3 5 0 
 # max = 79
2086075		 # 	collision with: 2 1 0  and 1 2 0 
 # max = 79
2086113		 # 	collision with: 1 4 0  and 3 4 0 
 # max = 79
2086141		 # 	collision with: 0 0 0  and 2 1 0 
 # max = 79
2086143		 # 	collision with: 1 1 0  and 3 1 0 
 # max = 79
2086209		 # 	collision with: 5 3 0  and 3 5 0 
 # max = 79
2086211		 # 	collision with: 2 1 0  and 1 2 0 
 # max = 79
2086213		 # 	collision with: 5 3 0  and 3 5 0 
 # max = 79
2086215		 # 	collision with: 2 1 0  and 1 2 0 
 # max = 79
2086224		 # 	collision with: 5 3 0  and 3 5 0 
 # max = 79
2086226		 # 	collision with: 3 1 0  and 5 2 0 
 # max = 79
2086233		 # 	collision with: 3 2 0  and 5 4 0 
 # max = 79
2086235		 # 	collision with: 6 2 0  and 3 4 0 
 # max = 79
2086265		 # 	collision with: 3 2 0  and 5 4 0 
 # max = 79
2086267		 # 	collision with: 6 2 0  and 3 4 0 
 # max = 79
2086269		 # 	collision with: 3 2 0  and 5 4 0 
 # max = 79
2086271		 # 	collision with: 5 0 0  and 4 1 0 
 # max = 79
2086309		 # 	collision with: 3 2 0  and 5 4 0 
 # max = 79
2086311		 # 	collision with: 6 2 0  and 3 4 0 
 # max = 79
2086337		 # 	collision with: 3 2 0  and 5 4 0 
 # max = 79
2086405		 # 	collision with: 1 2 0  and 3 2 0 
 # max = 79
2086407		 # 	collision with: 2 2 0  and 2 3 0 
 # max = 79
2086409		 # 	collision with: 3 2 0  and 5 4 0 
 # max = 79
2086411		 # 	collision with: 6 2 0  and 3 4 0 
 # max = 79
2086420		 # 	collision with: 0 0 0  and 2 1 0 
 # max = 79
2086422		 # 	collision with: 1 2 0  and 2 0 1 
 # max = 79
2086429		 # 	collision with: 4 0 0  and 2 1 0 
 # max = 79
2086431		 # 	collision with: 0 4 0  and 5 5 0 
 # max = 79
2086441		 # 	collision with: 5 1 0  and 4 2 0 
 # max = 79
2086443		 # 	collision with: 6 2 0  and 5 3 0 
 # max = 79
2086461		 # 	collision with: 1 2 0  and 5 3 0 
 # max = 79
2086463		 # 	collision with: 1 4 0  and 3 4 0 
 # max = 79
2086465		 # 	collision with: 4 1 0  and 2 3 0 
 # max = 79
2086467		 # 	collision with: 5 2 0  and 6 3 0 
 # max = 79
2086505		 # 	collision with: 4 6 0  and 5 0 1 
 # max = 79
2086507		 # 	collision with: 6 2 0  and 1 4 0 
 # max = 79
2086533		 # 	collision with: 6 0 0  and 2 2 0 
 # max = 79
2086535		 # 	collision with: 3 1 0  and 6 3 0 
 # max = 79
2086601		 # 	collision with: 1 6 0  and 6 0 1 
 # max = 79
2086603		 # 	collision with: 2 1 0  and 2 0 1 
 # max = 79
2086605		 # 	collision with: 2 1 0  and 6 2 0 
 # max = 79
2086616		 # 	collision with: 0 6 0  and 6 0 1 
 # max = 79
2086618		 # 	collision with: 2 1 0  and 1 2 0 
 # max = 79
2086625		 # 	collision with: 3 2 0  and 6 3 0 
 # max = 79
2086627		 # 	collision with: 2 1 0  and 1 3 0 
 # max = 79
2086637		 # 	collision with: 4 1 0  and 2 3 0 
 # max = 79
2086639		 # 	collision with: 1 1 0  and 6 2 0 
 # max = 79
2086657		 # 	collision with: 3 2 0  and 5 3 0 
 # max = 79
2086659		 # 	collision with: 0 2 0  and 4 3 0 
 # max = 79
2086663		 # 	collision with: 1 1 0  and 6 3 0 
 # max = 79
2086701		 # 	collision with: 2 6 0  and 4 0 1 
 # max = 79
2086703		 # 	collision with: 6 0 0  and 4 1 0 
 # max = 79
2086729		 # 	collision with: 0 1 0  and 2 1 1 
 # max = 79
2086731		 # 	collision with: 1 1 1  and 3 1 1 
 # max = 79
2086797		 # 	collision with: 6 3 0  and 6 4 0 
 # max = 79
2086799		 # 	collision with: 4 2 0  and 0 3 0 
 # max = 79
2086803		 # 	collision with: 2 0 0  and 6 1 0 
 # max = 79
2086817		 # 	collision with: 4 3 0  and 4 4 0 
 # max = 79
2086819		 # 	collision with: 2 3 0  and 3 4 0 
 # max = 79
2086837		 # 	collision with: 3 3 0  and 3 4 0 
 # max = 79
2086839		 # 	collision with: 6 1 0  and 0 2 0 
 # max = 79
2086849		 # 	collision with: 0 6 0  and 2 6 0 
 # max = 79
2086851		 # 	collision with: 0 2 0  and 3 4 0 
 # max = 79
2086861		 # 	collision with: 3 1 0  and 5 3 0 
 # max = 79
2086863		 # 	collision with: 1 1 0  and 3 2 0 
 # max = 79
2086899		 # 	collision with: 5 1 0  and 3 0 1 
 # max = 79
2086927		 # 	collision with: 1 3 0  and 6 1 1 
 # max = 79
2086989		 # 	collision with: 4 3 0  and 5 4 0 
 # max = 79
2086991		 # 	collision with: 3 1 0  and 0 3 0 
 # max = 79
2087001		 # 	collision with: 0 1 0  and 2 1 0 
 # max = 79
2087003		 # 	collision with: 5 0 0  and 1 2 0 
 # max = 79
2087008		 # 	collision with: 6 1 0  and 5 3 0 
 # max = 79
2087010		 # 	collision with: 2 3 0  and 6 4 0 
 # max = 79
2087013		 # 	collision with: 3 2 0  and 2 3 0 
 # max = 79
2087015		 # 	collision with: 2 3 0  and 2 0 1 
 # max = 79
2087045		 # 	collision with: 3 2 0  and 2 3 0 
 # max = 79
2087047		 # 	collision with: 2 3 0  and 3 4 0 
 # max = 79
2087057		 # 	collision with: 3 2 0  and 2 3 0 
 # max = 79
2087059		 # 	collision with: 0 5 0  and 2 5 0 
 # max = 79
2087093		 # 	collision with: 3 2 0  and 2 3 0 
 # max = 79
2087095		 # 	collision with: 1 1 0  and 6 2 0 
 # max = 79
2087121		 # 	collision with: 3 2 0  and 2 3 0 
 # max = 79
2087123		 # 	collision with: 2 2 0  and 0 3 0 
 # max = 79
2087185		 # 	collision with: 3 2 0  and 2 3 0 
 # max = 79
2087187		 # 	collision with: 0 2 0  and 2 2 0 
 # max = 79
2087197		 # 	collision with: 3 2 0  and 2 3 0 
 # max = 79
2087204		 # 	collision with: 5 6 0  and 0 1 1 
 # max = 79
2087206		 # 	collision with: 0 2 0  and 6 4 0 
 # max = 79
2087209		 # 	collision with: 6 2 0  and 2 4 0 
 # max = 79
2087211		 # 	collision with: 1 2 0  and 1 3 0 
 # max = 79
2087229		 # 	collision with: 1 2 0  and 6 3 0 
 # max = 79
2087231		 # 	collision with: 6 2 0  and 6 3 0 
 # max = 79
2087241		 # 	collision with: 4 0 0  and 1 1 0 
 # max = 79
2087243		 # 	collision with: 0 5 0  and 2 5 0 
 # max = 79
2087255		 # 	collision with: 3 0 0  and 5 2 0 
 # max = 79
2087289		 # 	collision with: 3 1 0  and 5 3 0 
 # max = 79
2087291		 # 	collision with: 4 0 0  and 1 2 0 
 # max = 79
2087317		 # 	collision with: 4 3 0  and 5 4 0 
 # max = 79
2087319		 # 	collision with: 0 2 0  and 2 3 0 
 # max = 79
2087381		 # 	collision with: 2 3 0  and 2 4 0 
 # max = 79
2087383		 # 	collision with: 4 3 0  and 6 5 0 
 # max = 79
2087395		 # 	collision with: 0 2 0  and 2 2 0 
 # max = 79
2087400		 # 	collision with: 3 1 0  and 5 3 0 
 # max = 79
2087402		 # 	collision with: 6 2 0  and 2 0 1 
 # max = 79
2087405		 # 	collision with: 5 1 0  and 3 0 1 
 # max = 79
2087407		 # 	collision with: 6 3 0  and 3 2 1 
 # max = 79
2087425		 # 	collision with: 0 4 0  and 5 0 1 
 # max = 79
2087427		 # 	collision with: 2 5 0  and 3 0 1 
 # max = 79
2087437		 # 	collision with: 1 1 0  and 2 2 0 
 # max = 79
2087439		 # 	collision with: 5 4 0  and 6 1 1 
 # max = 79
2087449		 # 	collision with: 0 6 0  and 2 6 0 
 # max = 79
2087485		 # 	collision with: 1 2 0  and 6 3 0 
 # max = 79
2087513		 # 	collision with: 6 2 0  and 2 4 0 
 # max = 79
2087515		 # 	collision with: 0 1 0  and 3 1 1 
 # max = 79
2087577		 # 	collision with: 0 1 0  and 2 1 0 
 # max = 79
2087579		 # 	collision with: 2 2 0  and 3 2 1 
 # max = 79
2087589		 # 	collision with: 3 0 0  and 4 1 0 
 # max = 79
2087591		 # 	collision with: 4 5 0  and 6 1 1 
 # max = 79
2087596		 # 	collision with: 4 0 0  and 1 1 0 
 # max = 79
2087598		 # 	collision with: 6 4 0  and 0 0 1 
 # max = 79
2087601		 # 	collision with: 6 1 0  and 6 0 1 
 # max = 79
2087603		 # 	collision with: 5 3 0  and 3 5 0 
 # max = 79
2087621		 # 	collision with: 1 1 0  and 1 0 1 
 # max = 79
2087623		 # 	collision with: 5 3 0  and 3 5 0 
 # max = 79
2087633		 # 	collision with: 2 0 1  and 0 2 1 
 # max = 79
2087635		 # 	collision with: 5 3 0  and 3 5 0 
 # max = 79
2087645		 # 	collision with: 5 1 0  and 2 1 1 
 # max = 79
2087647		 # 	collision with: 5 3 0  and 3 5 0 
 # max = 79
2087681		 # 	collision with: 4 0 1  and 5 1 1 
 # max = 79
2087683		 # 	collision with: 5 3 0  and 3 5 0 
 # max = 79
2087709		 # 	collision with: 6 3 0  and 4 0 1 
 # max = 79
2087773		 # 	collision with: 1 6 0  and 6 0 1 
 # max = 79
2087785		 # 	collision with: 5 2 0  and 1 1 1 
 # max = 79
2087787		 # 	collision with: 5 3 0  and 3 5 0 
 # max = 79
2087792		 # 	collision with: 0 6 0  and 6 0 1 
 # max = 79
2087794		 # 	collision with: 5 3 0  and 3 5 0 
 # max = 79
2087797		 # 	collision with: 3 2 0  and 0 4 0 
 # max = 79
2087799		 # 	collision with: 4 0 0  and 1 2 0 
 # max = 79
2087817		 # 	collision with: 4 1 0  and 1 3 0 
 # max = 79
2087819		 # 	collision with: 0 2 0  and 2 3 0 
 # max = 79
2087831		 # 	collision with: 4 2 0  and 4 3 0 
 # max = 79
2087841		 # 	collision with: 5 1 0  and 3 0 1 
 # max = 79
2087843		 # 	collision with: 1 1 1  and 2 1 1 
 # max = 79
2087877		 # 	collision with: 0 2 0  and 2 2 0 
 # max = 79
2087879		 # 	collision with: 0 4 0  and 2 4 0 
 # max = 79
2087905		 # 	collision with: 0 5 0  and 2 5 0 
 # max = 79
2087907		 # 	collision with: 0 3 0  and 2 3 0 
 # max = 79
2087971		 # 	collision with: 0 0 0  and 4 1 0 
 # max = 79
2087981		 # 	collision with: 5 3 0  and 5 4 0 
 # max = 79
2087983		 # 	collision with: 3 2 0  and 3 3 0 
 # max = 79
2087988		 # 	collision with: 3 2 0  and 2 3 0 
 # max = 79
2087990		 # 	collision with: 6 2 0  and 1 4 0 
 # max = 79
2088013		 # 	collision with: 3 0 0  and 4 1 0 
 # max = 79
2088015		 # 	collision with: 1 1 0  and 6 2 0 
 # max = 79
2088025		 # 	collision with: 0 1 0  and 5 2 0 
 # max = 79
2088037		 # 	collision with: 2 1 0  and 4 2 0 
 # max = 79
2088039		 # 	collision with: 3 2 0  and 3 3 0 
 # max = 79
2088073		 # 	collision with: 3 1 0  and 2 3 1 
 # max = 79
2088075		 # 	collision with: 3 0 0  and 5 2 0 
 # max = 79
2088101		 # 	collision with: 4 0 0  and 1 1 0 
 # max = 79
2088103		 # 	collision with: 4 3 0  and 6 5 0 
 # max = 79
2088165		 # 	collision with: 0 3 0  and 2 4 0 
 # max = 79
2088167		 # 	collision with: 4 2 0  and 4 3 0 
 # max = 79
2088177		 # 	collision with: 6 0 0  and 4 1 0 
 # max = 79
2088179		 # 	collision with: 5 1 0  and 3 0 1 
 # max = 79
2088216		 # 	collision with: 0 6 0  and 3 0 1 
 # max = 79
2088218		 # 	collision with: 5 4 0  and 5 0 1 
 # max = 79
2088236		 # 	collision with: 0 3 0  and 6 4 0 
 # max = 79
2088238		 # 	collision with: 0 2 0  and 6 3 0 
 # max = 79
2088248		 # 	collision with: 1 2 0  and 2 0 1 
 # max = 79
2088250		 # 	collision with: 1 1 0  and 0 3 0 
 # max = 79
2088253		 # 	collision with: 4 3 0  and 2 4 0 
 # max = 79
2088257		 # 	collision with: 2 2 0  and 4 2 0 
 # max = 79
2088259		 # 	collision with: 2 0 0  and 0 2 0 
 # max = 79
2088260		 # 	collision with: 3 0 0  and 1 2 0 
 # max = 79
2088262		 # 	collision with: 1 1 0  and 0 2 0 
 # max = 79
2088271		 # 	collision with: 2 0 0  and 0 2 0 
 # max = 79
2088280		 # 	collision with: 0 4 0  and 5 5 0 
 # max = 79
2088282		 # 	collision with: 5 3 0  and 2 0 1 
 # max = 79
2088284		 # 	collision with: 3 0 0  and 2 1 0 
 # max = 79
2088286		 # 	collision with: 1 1 0  and 6 3 0 
 # max = 79
2088299		 # 	collision with: 2 0 0  and 0 2 0 
 # max = 79
2088308		 # 	collision with: 5 3 0  and 0 0 1 
 # max = 79
2088310		 # 	collision with: 1 3 0  and 3 0 1 
 # max = 79
2088312		 # 	collision with: 5 6 0  and 1 0 1 
 # max = 79
2088314		 # 	collision with: 1 1 0  and 6 2 0 
 # max = 79
2088332		 # 	collision with: 1 2 0  and 0 3 0 
 # max = 79
2088334		 # 	collision with: 6 3 0  and 5 4 0 
 # max = 79
2088337		 # 	collision with: 2 5 0  and 4 5 0 
 # max = 79
2088339		 # 	collision with: 2 0 0  and 0 2 0 
 # max = 79
2088341		 # 	collision with: 5 1 0  and 3 2 0 
 # max = 79
2088344		 # 	collision with: 2 1 1  and 1 2 1 
 # max = 79
2088346		 # 	collision with: 6 2 0  and 0 3 0 
 # max = 79
2088356		 # 	collision with: 2 1 0  and 0 3 0 
 # max = 79
2088358		 # 	collision with: 2 0 0  and 1 1 0 
 # max = 79
2088376		 # 	collision with: 6 2 0  and 3 3 0 
 # max = 79
2088378		 # 	collision with: 2 4 0  and 2 0 1 
 # max = 79
2088380		 # 	collision with: 2 1 0  and 0 3 0 
 # max = 79
2088382		 # 	collision with: 1 1 0  and 6 3 0 
 # max = 79
2088412		 # 	collision with: 6 3 0  and 0 4 0 
 # max = 79
2088414		 # 	collision with: 6 2 0  and 0 3 0 
 # max = 79
2088432		 # 	collision with: 3 0 0  and 1 2 0 
 # max = 79
2088434		 # 	collision with: 6 3 0  and 5 4 0 
 # max = 79
2088446		 # 	collision with: 3 4 0  and 4 0 1 
 # max = 79
2088449		 # 	collision with: 2 0 0  and 0 1 0 
 # max = 79
2088451		 # 	collision with: 3 2 0  and 6 4 0 
 # max = 79
2088453		 # 	collision with: 2 0 0  and 0 1 0 
 # max = 79
2088455		 # 	collision with: 3 0 0  and 2 2 0 
 # max = 79
2088456		 # 	collision with: 1 2 0  and 0 3 0 
 # max = 79
2088465		 # 	collision with: 2 0 0  and 0 1 0 
 # max = 79
2088467		 # 	collision with: 2 1 0  and 4 1 0 
 # max = 79
2088476		 # 	collision with: 2 0 0  and 6 1 0 
 # max = 79
2088480		 # 	collision with: 0 3 0  and 6 4 0 
 # max = 79
2088482		 # 	collision with: 1 1 0  and 0 2 0 
 # max = 79
2088493		 # 	collision with: 2 0 0  and 0 1 0 
 # max = 79
2088495		 # 	collision with: 2 6 0  and 4 6 0 
 # max = 79
2088504		 # 	collision with: 1 5 0  and 5 0 1 
 # max = 79
2088506		 # 	collision with: 3 5 0  and 0 0 1 
 # max = 79
2088508		 # 	collision with: 0 0 0  and 2 1 1 
 # max = 79
2088510		 # 	collision with: 2 0 0  and 6 2 0 
 # max = 79
2088530		 # 	collision with: 2 0 0  and 1 1 0 
 # max = 79
2088533		 # 	collision with: 2 0 0  and 0 1 0 
 # max = 79
2088535		 # 	collision with: 0 0 0  and 1 1 1 
 # max = 79
2088537		 # 	collision with: 2 0 0  and 0 1 0 
 # max = 79
2088539		 # 	collision with: 5 0 0  and 3 1 0 
 # max = 79
2088540		 # 	collision with: 0 2 0  and 3 4 0 
 # max = 79
2088542		 # 	collision with: 0 4 0  and 1 0 1 
 # max = 79
2088552		 # 	collision with: 3 0 0  and 2 1 0 
 # max = 79
2088554		 # 	collision with: 0 2 0  and 6 3 0 
 # max = 79
2088572		 # 	collision with: 2 1 0  and 5 2 0 
 # max = 79
2088574		 # 	collision with: 3 0 1  and 6 1 1 
 # max = 79
2088576		 # 	collision with: 3 0 0  and 1 2 0 
 # max = 79
2088578		 # 	collision with: 2 0 0  and 0 2 0 
 # max = 79
2088608		 # 	collision with: 1 1 0  and 4 0 1 
 # max = 79
2088610		 # 	collision with: 2 0 0  and 0 2 0 
 # max = 79
2088628		 # 	collision with: 2 1 0  and 0 3 0 
 # max = 79
2088630		 # 	collision with: 2 0 0  and 0 2 0 
 # max = 79
2088640		 # 	collision with: 0 2 0  and 3 3 0 
 # max = 79
2088642		 # 	collision with: 2 0 0  and 0 2 0 
 # max = 79
2088645		 # 	collision with: 2 1 0  and 1 2 0 
 # max = 79
2088647		 # 	collision with: 0 3 0  and 5 4 0 
 # max = 79
2088651		 # 	collision with: 2 5 0  and 4 5 0 
 # max = 79
2088652		 # 	collision with: 3 0 0  and 2 1 0 
 # max = 79
2088654		 # 	collision with: 2 0 0  and 0 2 0 
 # max = 79
2088661		 # 	collision with: 2 1 0  and 1 2 0 
 # max = 79
2088663		 # 	collision with: 4 0 0  and 6 2 0 
 # max = 79
2088672		 # 	collision with: 6 3 0  and 0 4 0 
 # max = 79
2088674		 # 	collision with: 2 0 0  and 0 2 0 
 # max = 79
2088678		 # 	collision with: 2 0 0  and 0 2 0 
 # max = 79
2088689		 # 	collision with: 2 1 0  and 1 2 0 
 # max = 79
2088691		 # 	collision with: 2 4 0  and 1 0 1 
 # max = 79
2088700		 # 	collision with: 3 3 0  and 5 0 1 
 # max = 79
2088706		 # 	collision with: 2 0 0  and 0 2 0 
 # max = 79
2088724		 # 	collision with: 0 3 0  and 6 4 0 
 # max = 79
2088726		 # 	collision with: 2 0 0  and 0 2 0 
 # max = 79
2088729		 # 	collision with: 2 1 0  and 1 2 0 
 # max = 79
2088731		 # 	collision with: 2 2 0  and 4 2 0 
 # max = 79
2088735		 # 	collision with: 3 2 0  and 6 4 0 
 # max = 79
2088736		 # 	collision with: 3 1 0  and 4 3 0 
 # max = 79
2088738		 # 	collision with: 2 0 0  and 0 2 0 
 # max = 79
2088748		 # 	collision with: 1 2 0  and 0 3 0 
 # max = 79
2088750		 # 	collision with: 2 0 0  and 0 2 0 
 # max = 79
2088768		 # 	collision with: 5 1 0  and 3 2 0 
 # max = 79
2088772		 # 	collision with: 0 3 0  and 6 4 0 
 # max = 79
2088774		 # 	collision with: 5 0 0  and 3 1 0 
 # max = 79
2088804		 # 	collision with: 4 3 0  and 2 4 0 
 # max = 79
2088806		 # 	collision with: 2 6 0  and 5 0 1 
 # max = 79
2088826		 # 	collision with: 1 1 0  and 0 3 0 
 # max = 79
2088836		 # 	collision with: 2 2 0  and 4 2 0 
 # max = 79
2088841		 # 	collision with: 5 1 0  and 3 2 0 
 # max = 79
2088843		 # 	collision with: 5 0 0  and 3 1 0 
 # max = 79
2088845		 # 	collision with: 1 6 0  and 3 0 1 
 # max = 79
2088847		 # 	collision with: 0 0 0  and 1 1 1 
 # max = 79
2088848		 # 	collision with: 2 1 0  and 0 3 0 
 # max = 79
2088850		 # 	collision with: 5 1 0  and 0 2 0 
 # max = 79
2088857		 # 	collision with: 3 1 0  and 3 0 1 
 # max = 79
2088868		 # 	collision with: 5 3 0  and 1 4 0 
 # max = 79
2088870		 # 	collision with: 3 6 0  and 5 1 1 
 # max = 79
2088872		 # 	collision with: 1 2 0  and 0 3 0 
 # max = 79
2088874		 # 	collision with: 2 0 0  and 1 1 0 
 # max = 79
2088885		 # 	collision with: 2 3 0  and 4 4 0 
 # max = 79
2088887		 # 	collision with: 5 1 0  and 0 2 0 
 # max = 79
2088896		 # 	collision with: 3 5 0  and 0 0 1 
 # max = 79
2088898		 # 	collision with: 4 0 0  and 1 1 0 
 # max = 79
2088900		 # 	collision with: 2 1 0  and 4 1 0 
 # max = 79
2088902		 # 	collision with: 4 3 0  and 5 0 1 
 # max = 79
2088920		 # 	collision with: 3 0 0  and 2 1 0 
 # max = 79
2088922		 # 	collision with: 1 1 0  and 0 2 0 
 # max = 79
2088925		 # 	collision with: 6 3 0  and 0 4 0 
 # max = 79
2088929		 # 	collision with: 4 1 0  and 0 3 0 
 # max = 79
2088931		 # 	collision with: 0 1 0  and 3 3 0 
 # max = 79
2088932		 # 	collision with: 6 3 0  and 0 4 0 
 # max = 79
2088934		 # 	collision with: 3 4 0  and 5 0 1 
 # max = 79
2088944		 # 	collision with: 3 0 0  and 1 2 0 
 # max = 79
2088966		 # 	collision with: 3 5 0  and 1 0 1 
 # max = 79
2088968		 # 	collision with: 4 0 0  and 6 1 0 
 # max = 79
2088970		 # 	collision with: 0 2 0  and 6 3 0 
 # max = 79
2089002		 # 	collision with: 3 2 0  and 3 3 0 
 # max = 79
2089020		 # 	collision with: 3 0 0  and 2 1 0 
 # max = 79
2089032		 # 	collision with: 5 1 1  and 2 3 1 
 # max = 79
2089034		 # 	collision with: 2 2 0  and 4 3 0 
 # max = 79
2089037		 # 	collision with: 4 1 0  and 0 3 0 
 # max = 79
2089039		 # 	collision with: 4 0 0  and 0 2 0 
 # max = 79
2089041		 # 	collision with: 0 0 0  and 1 1 1 
 # max = 79
2089044		 # 	collision with: 2 2 0  and 4 2 0 
 # max = 79
2089046		 # 	collision with: 2 0 0  and 1 1 0 
 # max = 79
2089053		 # 	collision with: 6 6 0  and 1 1 1 
 # max = 79
2089055		 # 	collision with: 4 0 0  and 0 2 0 
 # max = 79
2089064		 # 	collision with: 0 4 1  and 2 0 2 
 # max = 100
2089066		 # 	collision with: 2 1 0  and 4 1 0 
 # max = 100
2089068		 # 	collision with: 2 1 0  and 5 2 0 
 # max = 100
2089070		 # 	collision with: 6 3 0  and 5 4 0 
 # max = 100
2089081		 # 	collision with: 6 5 0  and 2 0 1 
 # max = 100
2089092		 # 	collision with: 2 1 0  and 4 1 0 
 # max = 100
2089094		 # 	collision with: 6 5 0  and 3 0 1 
 # max = 100
2089096		 # 	collision with: 5 2 0  and 1 1 1 
 # max = 100
2089098		 # 	collision with: 6 2 0  and 6 3 0 
 # max = 100
2089116		 # 	collision with: 3 0 0  and 1 2 0 
 # max = 100
2089118		 # 	collision with: 1 1 0  and 6 3 0 
 # max = 100
2089121		 # 	collision with: 4 1 0  and 1 2 0 
 # max = 100
2089123		 # 	collision with: 4 0 0  and 0 2 0 
 # max = 100
2089125		 # 	collision with: 0 4 0  and 5 5 0 
 # max = 100
2089127		 # 	collision with: 4 0 0  and 0 2 0 
 # max = 100
2089128		 # 	collision with: 3 1 0  and 5 2 1 
 # max = 100
2089142		 # 	collision with: 1 1 0  and 0 2 0 
 # max = 100
2089160		 # 	collision with: 4 3 0  and 5 0 1 
 # max = 100
2089162		 # 	collision with: 4 2 0  and 4 3 0 
 # max = 100
2089164		 # 	collision with: 2 1 0  and 1 2 0 
 # max = 100
2089166		 # 	collision with: 1 1 0  and 0 2 0 
 # max = 100
2089196		 # 	collision with: 2 1 0  and 1 2 0 
 # max = 100
2089216		 # 	collision with: 2 1 0  and 1 2 0 
 # max = 100
2089218		 # 	collision with: 2 0 0  and 1 1 0 
 # max = 100
2089228		 # 	collision with: 2 1 0  and 1 2 0 
 # max = 100
2089230		 # 	collision with: 4 0 0  and 1 1 0 
 # max = 100
2089235		 # 	collision with: 1 1 0  and 6 2 0 
 # max = 100
2089237		 # 	collision with: 3 0 0  and 5 2 0 
 # max = 100
2089239		 # 	collision with: 1 1 0  and 5 0 1 
 # max = 100
2089240		 # 	collision with: 2 1 0  and 1 2 0 
 # max = 100
2089242		 # 	collision with: 1 1 0  and 6 3 0 
 # max = 100
2089249		 # 	collision with: 4 4 0  and 5 1 1 
 # max = 100
2089251		 # 	collision with: 2 0 0  and 6 2 0 
 # max = 100
2089262		 # 	collision with: 3 3 0  and 6 4 0 
 # max = 100
2089264		 # 	collision with: 2 1 0  and 1 2 0 
 # max = 100
2089277		 # 	collision with: 5 1 0  and 4 0 1 
 # max = 100
2089279		 # 	collision with: 3 3 0  and 0 4 0 
 # max = 100
2089290		 # 	collision with: 0 5 0  and 4 0 1 
 # max = 100
2089292		 # 	collision with: 2 1 0  and 1 2 0 
 # max = 100
2089294		 # 	collision with: 0 2 0  and 3 0 1 
 # max = 100
2089312		 # 	collision with: 2 1 0  and 1 2 0 
 # max = 100
2089314		 # 	collision with: 0 2 0  and 6 3 0 
 # max = 100
2089319		 # 	collision with: 5 1 0  and 0 3 0 
 # max = 100
2089321		 # 	collision with: 4 3 0  and 2 4 0 
 # max = 100
2089323		 # 	collision with: 0 3 0  and 5 4 0 
 # max = 100
2089324		 # 	collision with: 2 1 0  and 1 2 0 
 # max = 100
2089326		 # 	collision with: 2 6 0  and 3 0 1 
 # max = 100
2089336		 # 	collision with: 2 1 0  and 1 2 0 
 # max = 100
2089338		 # 	collision with: 6 3 0  and 5 4 0 
 # max = 100
2089356		 # 	collision with: 2 1 0  and 1 2 0 
 # max = 100
2089358		 # 	collision with: 6 2 0  and 0 3 0 
 # max = 100
2089360		 # 	collision with: 3 0 0  and 2 1 0 
 # max = 100
2089362		 # 	collision with: 2 0 0  and 1 1 0 
 # max = 100
2089392		 # 	collision with: 3 4 0  and 0 5 0 
 # max = 100
2089394		 # 	collision with: 5 1 0  and 6 3 0 
 # max = 100
2089412		 # 	collision with: 1 2 0  and 0 3 0 
 # max = 100
2089414		 # 	collision with: 1 1 0  and 0 2 0 
 # max = 100
2089424		 # 	collision with: 4 6 0  and 5 0 1 
 # max = 100
2089426		 # 	collision with: 6 2 0  and 0 3 0 
 # max = 100
2089429		 # 	collision with: 0 2 0  and 3 4 0 
 # max = 100
2089431		 # 	collision with: 0 1 0  and 3 3 0 
 # max = 100
2089433		 # 	collision with: 3 4 0  and 1 1 1 
 # max = 100
2089435		 # 	collision with: 3 1 0  and 3 0 1 
 # max = 100
2089438		 # 	collision with: 6 3 0  and 5 4 0 
 # max = 100
2089445		 # 	collision with: 5 0 0  and 2 2 0 
 # max = 100
2089447		 # 	collision with: 3 0 0  and 2 2 0 
 # max = 100
2089456		 # 	collision with: 0 5 0  and 2 1 1 
 # max = 100
2089458		 # 	collision with: 2 5 0  and 6 1 1 
 # max = 100
2089460		 # 	collision with: 3 0 0  and 1 2 0 
 # max = 100
2089462		 # 	collision with: 0 2 0  and 6 3 0 
 # max = 100
2089473		 # 	collision with: 0 0 0  and 1 1 1 
 # max = 100
2089475		 # 	collision with: 4 0 0  and 2 4 1 
 # max = 100
2089484		 # 	collision with: 6 3 0  and 1 0 1 
 # max = 100
2089486		 # 	collision with: 2 3 0  and 4 0 1 
 # max = 100
2089488		 # 	collision with: 1 2 0  and 6 3 0 
 # max = 100
2089508		 # 	collision with: 2 1 0  and 0 3 0 
 # max = 100
2089513		 # 	collision with: 4 3 0  and 2 3 1 
 # max = 100
2089515		 # 	collision with: 0 3 0  and 4 5 0 
 # max = 100
2089517		 # 	collision with: 1 2 0  and 6 3 0 
 # max = 100
2089519		 # 	collision with: 4 2 0  and 2 3 0 
 # max = 100
2089522		 # 	collision with: 4 1 0  and 2 1 1 
 # max = 100
2089532		 # 	collision with: 0 3 0  and 6 4 0 
 # max = 100
2089534		 # 	collision with: 1 1 0  and 6 3 0 
 # max = 100
2089552		 # 	collision with: 1 5 0  and 2 0 1 
 # max = 100
2089554		 # 	collision with: 3 2 0  and 6 4 0 
 # max = 100
2089569		 # 	collision with: 6 3 0  and 6 4 0 
 # max = 100
2089571		 # 	collision with: 1 1 0  and 2 3 0 
 # max = 100
2089573		 # 	collision with: 5 0 0  and 4 1 0 
 # max = 100
2089575		 # 	collision with: 0 1 0  and 2 2 0 
 # max = 100
2089589		 # 	collision with: 5 1 0  and 3 0 1 
 # max = 100
2089591		 # 	collision with: 0 3 0  and 4 4 0 
 # max = 100
2089609		 # 	collision with: 1 2 0  and 6 3 0 
 # max = 100
2089611		 # 	collision with: 2 2 0  and 2 3 0 
 # max = 100
2089643		 # 	collision with: 4 1 0  and 3 0 1 
 # max = 100
2089671		 # 	collision with: 2 3 0  and 1 4 0 
 # max = 100
2089729		 # 	collision with: 0 1 0  and 3 3 0 
 # max = 100
2089731		 # 	collision with: 5 2 0  and 5 3 0 
 # max = 100
2089749		 # 	collision with: 0 3 0  and 1 4 0 
 # max = 100
2089751		 # 	collision with: 4 0 0  and 6 1 0 
 # max = 100
2089752		 # 	collision with: 1 1 0  and 5 3 0 
 # max = 100
2089754		 # 	collision with: 5 0 0  and 4 2 0 
 # max = 100
2089765		 # 	collision with: 3 0 0  and 2 2 0 
 # max = 100
2089767		 # 	collision with: 6 1 0  and 4 0 1 
 # max = 100
2089769		 # 	collision with: 1 2 0  and 6 4 0 
 # max = 100
2089771		 # 	collision with: 0 1 0  and 6 2 0 
 # max = 100
2089785		 # 	collision with: 0 2 0  and 2 3 0 
 # max = 100
2089787		 # 	collision with: 0 2 0  and 1 3 0 
 # max = 100
2089805		 # 	collision with: 2 3 0  and 6 4 0 
 # max = 100
2089807		 # 	collision with: 0 2 0  and 1 2 0 
 # max = 100
2089837		 # 	collision with: 3 3 0  and 5 4 0 
 # max = 100
2089839		 # 	collision with: 4 0 0  and 2 1 0 
 # max = 100
2089865		 # 	collision with: 6 0 0  and 4 2 0 
 # max = 100
2089867		 # 	collision with: 1 2 0  and 0 3 0 
 # max = 100
2089925		 # 	collision with: 4 2 0  and 1 3 0 
 # max = 100
2089927		 # 	collision with: 0 5 0  and 1 5 0 
 # max = 100
2089945		 # 	collision with: 4 2 0  and 0 4 0 
 # max = 100
2089947		 # 	collision with: 3 4 0  and 1 0 1 
 # max = 100
2089948		 # 	collision with: 3 0 0  and 6 2 0 
 # max = 100
2089950		 # 	collision with: 1 6 0  and 6 0 1 
 # max = 100
2089965		 # 	collision with: 2 0 0  and 4 2 0 
 # max = 100
2089967		 # 	collision with: 6 0 0  and 5 1 0 
 # max = 100
2089981		 # 	collision with: 3 1 0  and 4 3 0 
 # max = 100
2089983		 # 	collision with: 4 2 0  and 0 0 1 
 # max = 100
2090001		 # 	collision with: 0 3 0  and 1 3 0 
 # max = 100
2090003		 # 	collision with: 1 1 0  and 6 2 0 
 # max = 100
2090033		 # 	collision with: 6 4 0  and 4 1 1 
 # max = 100
2090035		 # 	collision with: 4 2 0  and 6 3 1 
 # max = 100
2090061		 # 	collision with: 1 2 0  and 2 3 0 
 # max = 100
2090063		 # 	collision with: 0 1 0  and 6 2 0 
 # max = 100
2090121		 # 	collision with: 0 4 0  and 1 4 0 
 # max = 100
2090141		 # 	collision with: 4 2 0  and 0 3 0 
 # max = 100
2090143		 # 	collision with: 2 4 0  and 1 1 1 
 # max = 100
2090144		 # 	collision with: 0 6 0  and 6 0 1 
 # max = 100
2090146		 # 	collision with: 0 1 0  and 2 2 0 
 # max = 100
2090157		 # 	collision with: 6 1 0  and 4 1 1 
 # max = 100
2090159		 # 	collision with: 6 3 0  and 0 4 0 
 # max = 100
2090161		 # 	collision with: 6 0 0  and 4 2 0 
 # max = 100
2090163		 # 	collision with: 2 2 0  and 0 4 0 
 # max = 100
2090179		 # 	collision with: 5 3 0  and 4 0 1 
 # max = 100
2090197		 # 	collision with: 0 2 0  and 2 4 0 
 # max = 100
2090199		 # 	collision with: 0 1 0  and 2 2 0 
 # max = 100
2090229		 # 	collision with: 0 1 0  and 3 3 0 
 # max = 100
2090257		 # 	collision with: 0 2 0  and 6 3 0 
 # max = 100
2090259		 # 	collision with: 6 0 0  and 5 1 0 
 # max = 100
2090319		 # 	collision with: 0 2 0  and 4 4 0 
 # max = 100
2090337		 # 	collision with: 0 4 0  and 1 4 0 
 # max = 100
2090340		 # 	collision with: 0 6 0  and 5 0 2 
 # max = 103
2090342		 # 	collision with: 1 1 0  and 2 3 0 
 # max = 103
2090353		 # 	collision with: 1 2 0  and 2 3 0 
 # max = 103
2090355		 # 	collision with: 1 5 0  and 5 1 1 
 # max = 103
2090357		 # 	collision with: 1 3 0  and 0 4 0 
 # max = 103
2090359		 # 	collision with: 1 1 0  and 6 3 0 
 # max = 103
2090373		 # 	collision with: 0 5 0  and 3 1 1 
 # max = 103
2090395		 # 	collision with: 6 2 0  and 1 4 0 
 # max = 103
2090425		 # 	collision with: 2 0 0  and 4 2 0 
 # max = 103
2090427		 # 	collision with: 4 0 0  and 6 1 0 
 # max = 103
2090453		 # 	collision with: 6 1 0  and 5 2 0 
 # max = 103
2090513		 # 	collision with: 4 3 0  and 4 4 0 
 # max = 103
2090515		 # 	collision with: 0 1 0  and 2 3 0 
 # max = 103
2090535		 # 	collision with: 2 2 0  and 2 3 0 
 # max = 103
2090536		 # 	collision with: 0 2 0  and 6 4 0 
 # max = 103
2090538		 # 	collision with: 3 5 0  and 0 0 2 
 # max = 103
2090549		 # 	collision with: 3 2 0  and 5 2 1 
 # max = 103
2090551		 # 	collision with: 0 0 0  and 1 1 1 
 # max = 103
2090569		 # 	collision with: 5 2 0  and 1 1 1 
 # max = 103
2090571		 # 	collision with: 6 4 0  and 0 0 1 
 # max = 103
2090589		 # 	collision with: 4 2 0  and 1 4 0 
 # max = 103
2090621		 # 	collision with: 3 1 0  and 2 0 1 
 # max = 103
2090623		 # 	collision with: 0 0 0  and 1 1 1 
 # max = 103
2090649		 # 	collision with: 5 0 0  and 4 1 0 
 # max = 103
2090651		 # 	collision with: 3 2 0  and 5 3 0 
 # max = 103
2090709		 # 	collision with: 0 3 0  and 4 5 0 
 # max = 103
2090711		 # 	collision with: 3 0 0  and 4 2 0 
 # max = 103
2090729		 # 	collision with: 1 2 0  and 2 4 0 
 # max = 103
2090731		 # 	collision with: 4 5 0  and 0 0 1 
 # max = 103
2090732		 # 	collision with: 5 0 0  and 6 2 0 
 # max = 103
2090734		 # 	collision with: 4 1 0  and 0 3 0 
 # max = 103
2090745		 # 	collision with: 6 1 0  and 6 0 1 
 # max = 103
2090747		 # 	collision with: 4 1 0  and 4 0 1 
 # max = 103
2090749		 # 	collision with: 6 1 0  and 5 2 0 
 # max = 103
2090751		 # 	collision with: 2 3 0  and 1 4 0 
 # max = 103
2090765		 # 	collision with: 0 3 0  and 1 4 0 
 # max = 103
2090767		 # 	collision with: 3 1 0  and 5 0 1 
 # max = 103
2090785		 # 	collision with: 3 0 0  and 2 2 0 
 # max = 103
2090787		 # 	collision with: 4 1 0  and 0 2 0 
 # max = 103
2090817		 # 	collision with: 0 1 0  and 1 1 0 
 # max = 103
2090819		 # 	collision with: 0 3 0  and 1 3 0 
 # max = 103
2090845		 # 	collision with: 1 2 0  and 6 4 0 
 # max = 103
2090847		 # 	collision with: 3 0 0  and 4 2 0 
 # max = 103
3.54432secs	103 3598
