# prime 7
# degree 2
# input variables 3
# output variables 7
# reload computed balance functions from file balance-178of320-p7d2m3-debug.log
# p = 7
# n = 7
# smalldomain p^m 343
# domain p^n 823543
#	 p^2 = 49
#	 p^3 = 343
#	 p^4 = 2401
#	 p^5 = 16807
#	 p^6 = 117649
#	 p^7 = 823543
#	 p^8 = 5764801
#	 p^9 = 40353607
opening file : balance-178of320-p7d2m3-debug.log
reloading for step2...
1833419		 # 	collision with: 0 3 0 0 0 0 0  and 2 3 0 0 0 0 0 
 # max = 23
1833429		 # 	collision with: 5 2 0 0 0 0 0  and 2 3 0 0 0 0 0 
 # max = 23
1833431		 # 	collision with: 5 2 0 0 0 0 0  and 5 3 0 0 0 0 0 
 # max = 26
1833457		 # 	collision with: 5 2 0 0 0 0 0  and 2 3 0 0 0 0 0 
 # max = 26
1833459		 # 	collision with: 5 2 0 0 0 0 0  and 5 3 0 0 0 0 0 
 # max = 26
1833465		 # 	collision with: 6 1 2 0 0 0 0  and 1 1 3 0 0 0 0 
 # max = 155
1833467		 # 	collision with: 2 1 2 0 0 0 0  and 2 1 3 0 0 0 0 
 # max = 156
1833529		 # 	collision with: 6 2 0 0 0 0 0  and 6 3 0 0 0 0 0 
 # max = 156
1833537		 # 	collision with: 5 2 2 0 0 0 0  and 5 1 3 0 0 0 0 
 # max = 159
1833567		 # 	collision with: 5 4 2 0 0 0 0  and 5 1 3 0 0 0 0 
 # max = 159
1833577		 # 	collision with: 3 1 1 0 0 0 0  and 4 1 1 0 0 0 0 
 # max = 159
1833579		 # 	collision with: 0 3 1 0 0 0 0  and 2 3 1 0 0 0 0 
 # max = 159
1833580		 # 	collision with: 4 6 5 3 4 0 0  and 1 3 0 0 0 1 0 
 # max = 16829
1833582		 # 	collision with: 0 5 3 1 4 0 0  and 1 1 0 0 0 1 0 
 # max = 16829
1833613		 # 	collision with: 1 0 2 0 0 0 0  and 1 2 2 0 0 0 0 
 # max = 16829
1833615		 # 	collision with: 3 5 1 0 0 0 0  and 3 5 3 0 0 0 0 
 # max = 16829
1833625		 # 	collision with: 3 1 0 0 0 0 0  and 4 1 0 0 0 0 0 
 # max = 16829
1833627		 # 	collision with: 4 1 2 0 0 0 0  and 4 2 2 0 0 0 0 
 # max = 16829
1833653		 # 	collision with: 3 1 0 0 0 0 0  and 4 1 0 0 0 0 0 
 # max = 16829
1833655		 # 	collision with: 2 1 2 0 0 0 0  and 0 2 2 0 0 0 0 
 # max = 16829
1833661		 # 	collision with: 2 1 0 0 0 0 0  and 2 3 0 0 0 0 0 
 # max = 16829
1833663		 # 	collision with: 5 2 1 0 0 0 0  and 4 3 1 0 0 0 0 
 # max = 16829
1833725		 # 	collision with: 3 1 2 0 0 0 0  and 4 1 2 0 0 0 0 
 # max = 16829
1833727		 # 	collision with: 2 6 1 0 0 0 0  and 2 0 3 0 0 0 0 
 # max = 16829
1833733		 # 	collision with: 4 0 1 0 0 0 0  and 3 1 1 0 0 0 0 
 # max = 16829
1833735		 # 	collision with: 0 3 0 0 0 0 0  and 2 3 0 0 0 0 0 
 # max = 16829
1833761		 # 	collision with: 6 2 2 0 0 0 0  and 6 3 2 0 0 0 0 
 # max = 16829
1833763		 # 	collision with: 0 3 0 0 0 0 0  and 2 3 0 0 0 0 0 
 # max = 16829
1833773		 # 	collision with: 2 1 0 0 0 0 0  and 2 3 0 0 0 0 0 
 # max = 16829
1833775		 # 	collision with: 0 3 2 0 0 0 0  and 2 3 2 0 0 0 0 
 # max = 16829
1833776		 # 	collision with: 1 3 2 2 3 0 0  and 4 2 0 0 0 1 0 
 # max = 16829
1833778		 # 	collision with: 0 2 6 4 3 0 0  and 5 4 1 0 0 1 0 
 # max = 16889
1833809		 # 	collision with: 1 6 1 0 0 0 0  and 6 0 2 0 0 0 0 
 # max = 16889
1833811		 # 	collision with: 4 1 0 0 0 0 0  and 4 2 0 0 0 0 0 
 # max = 16889
1833821		 # 	collision with: 4 1 1 0 0 0 0  and 4 1 2 0 0 0 0 
 # max = 16889
1833823		 # 	collision with: 3 1 1 0 0 0 0  and 3 1 2 0 0 0 0 
 # max = 16889
1833849		 # 	collision with: 2 2 1 0 0 0 0  and 5 4 1 0 0 0 0 
 # max = 16889
1833851		 # 	collision with: 2 5 1 0 0 0 0  and 2 1 2 0 0 0 0 
 # max = 16889
1833857		 # 	collision with: 2 1 0 0 0 0 0  and 5 2 0 0 0 0 0 
 # max = 16889
1833859		 # 	collision with: 2 1 0 0 0 0 0  and 0 2 0 0 0 0 0 
 # max = 16889
1833921		 # 	collision with: 3 6 1 0 0 0 0  and 3 0 2 0 0 0 0 
 # max = 16889
1833923		 # 	collision with: 4 1 0 0 0 0 0  and 4 2 0 0 0 0 0 
 # max = 16889
1833929		 # 	collision with: 3 1 0 0 0 0 0  and 4 1 0 0 0 0 0 
 # max = 16889
1833931		 # 	collision with: 1 1 2 0 0 0 0  and 1 3 2 0 0 0 0 
 # max = 16889
1833957		 # 	collision with: 3 1 0 0 0 0 0  and 4 1 0 0 0 0 0 
 # max = 16889
1833959		 # 	collision with: 0 3 1 0 0 0 0  and 2 3 1 0 0 0 0 
 # max = 16889
1833969		 # 	collision with: 2 1 0 0 0 0 0  and 5 2 0 0 0 0 0 
 # max = 16889
1833971		 # 	collision with: 2 1 0 0 0 0 0  and 0 2 0 0 0 0 0 
 # max = 16889
1833972		 # 	collision with: 1 5 1 1 1 0 0  and 2 4 0 0 0 1 0 
 # max = 16889
1833974		 # 	collision with: 6 2 4 4 1 0 0  and 1 0 3 0 0 1 0 
 # max = 16955
1834005		 # 	collision with: 3 1 1 0 0 0 0  and 4 1 1 0 0 0 0 
 # max = 16955
1834007		 # 	collision with: 2 3 0 0 0 0 0  and 0 3 2 0 0 0 0 
 # max = 16955
1834019		 # 	collision with: 5 3 0 0 0 0 0  and 5 2 2 0 0 0 0 
 # max = 16955
1834045		 # 	collision with: 5 2 1 0 0 0 0  and 2 3 1 0 0 0 0 
 # max = 16955
1834053		 # 	collision with: 1 5 0 0 0 0 0  and 1 4 2 0 0 0 0 
 # max = 16955
1834117		 # 	collision with: 1 3 0 0 0 0 0  and 1 3 2 0 0 0 0 
 # max = 16955
1834119		 # 	collision with: 2 3 0 0 0 0 0  and 0 3 2 0 0 0 0 
 # max = 16955
1834125		 # 	collision with: 1 4 0 0 0 0 0  and 1 5 0 0 0 0 0 
 # max = 16955
1834127		 # 	collision with: 0 3 1 0 0 0 0  and 2 3 1 0 0 0 0 
 # max = 16955
1834153		 # 	collision with: 1 4 0 0 0 0 0  and 1 5 0 0 0 0 0 
 # max = 16955
1834155		 # 	collision with: 2 2 1 0 0 0 0  and 2 4 1 0 0 0 0 
 # max = 16955
1834167		 # 	collision with: 4 1 1 0 0 0 0  and 4 2 1 0 0 0 0 
 # max = 16955
1834168		 # 	collision with: 5 2 0 5 2 0 0  and 3 2 1 0 0 1 0 
 # max = 16955
1834170		 # 	collision with: 6 5 2 4 2 0 0  and 5 0 0 0 0 1 0 
 # max = 16955
1834201		 # 	collision with: 3 1 0 0 0 0 0  and 4 1 0 0 0 0 0 
 # max = 16955
1834213		 # 	collision with: 4 0 0 0 0 0 0  and 4 1 0 0 0 0 0 
 # max = 16955
1834243		 # 	collision with: 6 6 0 0 0 0 0  and 6 1 1 0 0 0 0 
 # max = 16955
1834249		 # 	collision with: 2 4 0 0 0 0 0  and 2 0 1 0 0 0 0 
 # max = 16955
1834251		 # 	collision with: 2 4 0 0 0 0 0  and 2 2 1 0 0 0 0 
 # max = 16955
1834315		 # 	collision with: 2 5 0 0 0 0 0  and 2 1 1 0 0 0 0 
 # max = 16955
1834321		 # 	collision with: 3 1 1 0 0 0 0  and 4 1 1 0 0 0 0 
 # max = 16955
1834323		 # 	collision with: 3 0 0 0 0 0 0  and 3 1 0 0 0 0 0 
 # max = 16955
1834349		 # 	collision with: 6 3 0 0 0 0 0  and 6 3 1 0 0 0 0 
 # max = 16955
1834351		 # 	collision with: 3 0 0 0 0 0 0  and 3 1 0 0 0 0 0 
 # max = 16955
1834361		 # 	collision with: 1 5 0 0 0 0 0  and 1 5 1 0 0 0 0 
 # max = 16955
1834363		 # 	collision with: 4 0 1 0 0 0 0  and 5 2 1 0 0 0 0 
 # max = 16955
1834369		 # 	collision with: 5 2 1 0 0 0 0  and 2 4 1 0 0 0 0 
 # max = 16955
1834371		 # 	collision with: 6 1 3 0 0 0 0  and 3 3 3 0 0 0 0 
 # max = 16955
1834389		 # 	collision with: 2 5 3 0 0 0 0  and 2 3 4 0 0 0 0 
 # max = 16955
1834391		 # 	collision with: 3 0 2 0 0 0 0  and 6 2 2 0 0 0 0 
 # max = 16955
1834392		 # 	collision with: 3 4 0 0 0 0 0  and 4 4 0 0 0 0 0 
 # max = 16955
1834394		 # 	collision with: 0 4 0 0 0 0 0  and 2 4 0 0 0 0 0 
 # max = 16955
1834404		 # 	collision with: 5 2 0 0 0 0 0  and 5 4 0 0 0 0 0 
 # max = 16955
1834406		 # 	collision with: 5 0 0 0 0 0 0  and 5 1 0 0 0 0 0 
 # max = 16955
1834420		 # 	collision with: 3 4 0 0 0 0 0  and 4 4 0 0 0 0 0 
 # max = 16955
1834422		 # 	collision with: 0 4 0 0 0 0 0  and 2 4 0 0 0 0 0 
 # max = 16955
1834444		 # 	collision with: 6 1 0 0 0 0 0  and 6 2 0 0 0 0 0 
 # max = 16955
1834446		 # 	collision with: 4 1 0 0 0 0 0  and 5 2 0 0 0 0 0 
 # max = 16955
1834448		 # 	collision with: 3 4 0 0 0 0 0  and 4 4 0 0 0 0 0 
 # max = 16955
1834450		 # 	collision with: 0 4 0 0 0 0 0  and 2 4 0 0 0 0 0 
 # max = 16955
1834456		 # 	collision with: 4 0 0 0 0 0 0  and 4 2 0 0 0 0 0 
 # max = 16955
1834458		 # 	collision with: 4 1 0 0 0 0 0  and 4 3 0 0 0 0 0 
 # max = 16955
1834465		 # 	collision with: 4 0 3 0 0 0 0  and 4 2 3 0 0 0 0 
 # max = 16955
1834467		 # 	collision with: 0 4 1 0 0 0 0  and 2 4 1 0 0 0 0 
 # max = 16955
1834469		 # 	collision with: 4 0 1 0 0 0 0  and 4 2 1 0 0 0 0 
 # max = 16955
1834471		 # 	collision with: 3 3 0 0 0 0 0  and 3 4 0 0 0 0 0 
 # max = 16955
1834476		 # 	collision with: 3 4 0 0 0 0 0  and 4 4 0 0 0 0 0 
 # max = 16955
1834478		 # 	collision with: 0 4 0 0 0 0 0  and 2 4 0 0 0 0 0 
 # max = 16955
1834485		 # 	collision with: 3 2 1 0 0 0 0  and 3 3 1 0 0 0 0 
 # max = 16955
1834487		 # 	collision with: 3 3 0 0 0 0 0  and 6 4 0 0 0 0 0 
 # max = 16955
1834489		 # 	collision with: 3 2 3 0 0 0 0  and 3 3 3 0 0 0 0 
 # max = 16955
1834491		 # 	collision with: 0 4 0 0 0 0 0  and 2 4 0 0 0 0 0 
 # max = 16955
1834496		 # 	collision with: 3 2 0 0 0 0 0  and 3 3 0 0 0 0 0 
 # max = 16955
1834498		 # 	collision with: 3 3 0 0 0 0 0  and 3 4 0 0 0 0 0 
 # max = 16955
1834504		 # 	collision with: 3 4 0 0 0 0 0  and 4 4 0 0 0 0 0 
 # max = 16955
1834506		 # 	collision with: 0 4 0 0 0 0 0  and 2 4 0 0 0 0 0 
 # max = 16955
1834508		 # 	collision with: 6 0 0 0 0 0 0  and 1 2 0 0 0 0 0 
 # max = 16955
1834510		 # 	collision with: 1 2 0 0 0 0 0  and 1 4 0 0 0 0 0 
 # max = 16955
1834532		 # 	collision with: 3 4 0 0 0 0 0  and 4 4 0 0 0 0 0 
 # max = 16955
1834534		 # 	collision with: 0 4 0 0 0 0 0  and 2 4 0 0 0 0 0 
 # max = 16955
1834548		 # 	collision with: 2 0 0 0 0 0 0  and 2 1 0 0 0 0 0 
 # max = 16955
1834550		 # 	collision with: 2 1 0 0 0 0 0  and 2 2 0 0 0 0 0 
 # max = 16955
1834560		 # 	collision with: 3 4 3 2 6 0 0  and 5 4 0 0 0 1 0 
 # max = 16955
1834562		 # 	collision with: 4 3 0 3 6 0 0  and 6 5 0 0 0 1 0 
 # max = 16955
1834565		 # 	collision with: 5 2 0 0 0 0 0  and 2 4 0 0 0 0 0 
 # max = 16955
1834567		 # 	collision with: 1 2 0 0 0 0 0  and 1 4 0 0 0 0 0 
 # max = 16955
1834585		 # 	collision with: 1 4 2 0 0 0 0  and 1 0 4 0 0 0 0 
 # max = 16955
1834587		 # 	collision with: 3 0 3 0 0 0 0  and 6 2 3 0 0 0 0 
 # max = 16955
1834588		 # 	collision with: 3 4 6 0 0 0 0  and 4 4 6 0 0 0 0 
 # max = 16955
1834590		 # 	collision with: 0 4 6 0 0 0 0  and 2 4 6 0 0 0 0 
 # max = 16955
1834600		 # 	collision with: 3 4 1 0 0 0 0  and 4 4 1 0 0 0 0 
 # max = 16955
1834602		 # 	collision with: 0 4 1 0 0 0 0  and 2 4 1 0 0 0 0 
 # max = 16955
1834616		 # 	collision with: 3 4 3 0 0 0 0  and 4 4 3 0 0 0 0 
 # max = 16955
1834618		 # 	collision with: 0 4 3 0 0 0 0  and 2 4 3 0 0 0 0 
 # max = 16955
1834642		 # 	collision with: 1 2 1 0 0 0 0  and 1 4 1 0 0 0 0 
 # max = 16955
1834644		 # 	collision with: 3 4 2 0 0 0 0  and 4 4 2 0 0 0 0 
 # max = 16955
1834646		 # 	collision with: 0 4 2 0 0 0 0  and 2 4 2 0 0 0 0 
 # max = 16955
1834652		 # 	collision with: 1 1 3 0 0 0 0  and 1 3 3 0 0 0 0 
 # max = 16955
1834654		 # 	collision with: 6 1 3 0 0 0 0  and 3 3 3 0 0 0 0 
 # max = 16955
1834663		 # 	collision with: 0 4 3 0 0 0 0  and 2 4 3 0 0 0 0 
 # max = 16955
1834665		 # 	collision with: 3 4 0 0 0 0 0  and 4 4 0 0 0 0 0 
 # max = 16955
1834667		 # 	collision with: 4 1 2 0 0 0 0  and 5 2 2 0 0 0 0 
 # max = 16955
1834672		 # 	collision with: 3 4 5 0 0 0 0  and 4 4 5 0 0 0 0 
 # max = 16955
1834674		 # 	collision with: 0 4 5 0 0 0 0  and 2 4 5 0 0 0 0 
 # max = 16955
1834683		 # 	collision with: 3 0 2 0 0 0 0  and 6 2 2 0 0 0 0 
 # max = 16955
1834685		 # 	collision with: 5 2 0 0 0 0 0  and 5 4 0 0 0 0 0 
 # max = 16955
1834687		 # 	collision with: 2 1 1 0 0 0 0  and 2 2 1 0 0 0 0 
 # max = 16955
1834692		 # 	collision with: 3 4 0 0 0 0 0  and 4 4 0 0 0 0 0 
 # max = 16955
1834704		 # 	collision with: 3 2 6 0 0 0 0  and 3 3 6 0 0 0 0 
 # max = 16955
1834706		 # 	collision with: 0 4 6 0 0 0 0  and 2 4 6 0 0 0 0 
 # max = 16955
1834728		 # 	collision with: 3 4 1 0 0 0 0  and 4 4 1 0 0 0 0 
 # max = 16955
1834730		 # 	collision with: 0 4 1 0 0 0 0  and 2 4 1 0 0 0 0 
 # max = 16955
1834744		 # 	collision with: 3 4 3 0 0 0 0  and 4 4 3 0 0 0 0 
 # max = 16955
1834746		 # 	collision with: 0 4 3 0 0 0 0  and 2 4 3 0 0 0 0 
 # max = 16955
1834756		 # 	collision with: 2 3 1 3 3 0 0  and 6 2 1 0 0 1 0 
 # max = 16955
1834758		 # 	collision with: 1 3 3 1 3 0 0  and 3 1 0 1 0 1 0 
 # max = 17160
1834761		 # 	collision with: 3 2 2 0 0 0 0  and 4 1 3 0 0 0 0 
 # max = 17160
1834783		 # 	collision with: 5 2 0 0 0 0 0  and 4 3 0 0 0 0 0 
 # max = 17160
1834784		 # 	collision with: 3 4 5 0 0 0 0  and 4 4 5 0 0 0 0 
 # max = 17160
1834786		 # 	collision with: 0 4 5 0 0 0 0  and 2 4 5 0 0 0 0 
 # max = 17160
1834796		 # 	collision with: 3 4 0 0 0 0 0  and 4 4 0 0 0 0 0 
 # max = 17160
1834812		 # 	collision with: 3 4 6 0 0 0 0  and 4 4 6 0 0 0 0 
 # max = 17160
1834814		 # 	collision with: 0 4 6 0 0 0 0  and 2 4 6 0 0 0 0 
 # max = 17160
1834836		 # 	collision with: 3 4 1 0 0 0 0  and 4 4 1 0 0 0 0 
 # max = 17160
1834838		 # 	collision with: 0 4 1 0 0 0 0  and 2 4 1 0 0 0 0 
 # max = 17160
1834848		 # 	collision with: 5 2 6 0 0 0 0  and 2 4 6 0 0 0 0 
 # max = 17160
1834850		 # 	collision with: 5 0 6 0 0 0 0  and 5 1 6 0 0 0 0 
 # max = 17160
1834857		 # 	collision with: 3 4 1 0 0 0 0  and 4 4 1 0 0 0 0 
 # max = 17160
1834859		 # 	collision with: 5 0 1 0 0 0 0  and 5 1 1 0 0 0 0 
 # max = 17160
1834861		 # 	collision with: 3 2 0 0 0 0 0  and 3 3 0 0 0 0 0 
 # max = 17160
1834863		 # 	collision with: 3 6 2 0 0 0 0  and 3 1 3 0 0 0 0 
 # max = 17160
1834868		 # 	collision with: 3 4 3 0 0 0 0  and 4 4 3 0 0 0 0 
 # max = 17160
1834870		 # 	collision with: 0 4 3 0 0 0 0  and 2 4 3 0 0 0 0 
 # max = 17160
1834877		 # 	collision with: 3 4 1 0 0 0 0  and 4 4 1 0 0 0 0 
 # max = 17160
1834881		 # 	collision with: 3 4 0 0 0 0 0  and 4 4 0 0 0 0 0 
 # max = 17160
1834883		 # 	collision with: 4 4 2 0 0 0 0  and 4 0 3 0 0 0 0 
 # max = 17160
1834890		 # 	collision with: 4 1 1 0 0 0 0  and 4 3 1 0 0 0 0 
 # max = 17160
1834896		 # 	collision with: 3 4 1 0 0 0 0  and 4 4 1 0 0 0 0 
 # max = 17160
1834898		 # 	collision with: 0 4 1 0 0 0 0  and 2 4 1 0 0 0 0 
 # max = 17160
1834900		 # 	collision with: 3 4 3 0 0 0 0  and 4 4 3 0 0 0 0 
 # max = 17160
1834902		 # 	collision with: 0 4 3 0 0 0 0  and 2 4 3 0 0 0 0 
 # max = 17160
1834924		 # 	collision with: 3 4 2 0 0 0 0  and 4 4 2 0 0 0 0 
 # max = 17160
1834926		 # 	collision with: 0 4 2 0 0 0 0  and 2 4 2 0 0 0 0 
 # max = 17160
1834940		 # 	collision with: 4 1 3 0 0 0 0  and 3 2 3 0 0 0 0 
 # max = 17160
1834942		 # 	collision with: 4 1 3 0 0 0 0  and 5 2 3 0 0 0 0 
 # max = 17160
1834952		 # 	collision with: 6 4 0 4 2 0 0  and 0 4 1 0 0 1 0 
 # max = 17160
1834954		 # 	collision with: 2 1 5 2 2 0 0  and 1 6 0 0 0 1 0 
 # max = 17160
1834957		 # 	collision with: 1 1 0 0 0 0 0  and 1 3 0 0 0 0 0 
 # max = 17160
1834959		 # 	collision with: 6 1 0 0 0 0 0  and 3 3 0 0 0 0 0 
 # max = 17160
1834977		 # 	collision with: 1 2 1 0 0 0 0  and 6 3 1 0 0 0 0 
 # max = 17160
1834979		 # 	collision with: 2 0 1 0 0 0 0  and 2 3 3 0 0 0 0 
 # max = 17160
1834992		 # 	collision with: 1 1 6 0 0 0 0  and 1 3 6 0 0 0 0 
 # max = 17160
1834994		 # 	collision with: 1 2 6 0 0 0 0  and 1 4 6 0 0 0 0 
 # max = 17160
1835008		 # 	collision with: 3 4 2 0 0 0 0  and 4 4 2 0 0 0 0 
 # max = 17160
1835010		 # 	collision with: 0 4 2 0 0 0 0  and 2 4 2 0 0 0 0 
 # max = 17160
1835032		 # 	collision with: 5 2 3 0 0 0 0  and 5 4 3 0 0 0 0 
 # max = 17160
1835034		 # 	collision with: 5 0 3 0 0 0 0  and 5 1 3 0 0 0 0 
 # max = 17160
1835036		 # 	collision with: 3 4 6 0 0 0 0  and 4 4 6 0 0 0 0 
 # max = 17160
1835038		 # 	collision with: 0 4 6 0 0 0 0  and 2 4 6 0 0 0 0 
 # max = 17160
1835044		 # 	collision with: 3 4 1 0 0 0 0  and 4 4 1 0 0 0 0 
 # max = 17160
1835046		 # 	collision with: 0 4 1 0 0 0 0  and 2 4 1 0 0 0 0 
 # max = 17160
1835053		 # 	collision with: 2 0 1 0 0 0 0  and 2 1 3 0 0 0 0 
 # max = 17160
1835057		 # 	collision with: 6 1 3 0 0 0 0  and 6 2 3 0 0 0 0 
 # max = 17160
1835059		 # 	collision with: 0 4 1 0 0 0 0  and 2 4 1 0 0 0 0 
 # max = 17160
1835064		 # 	collision with: 3 4 1 0 0 0 0  and 4 4 1 0 0 0 0 
 # max = 17160
1835066		 # 	collision with: 0 4 1 0 0 0 0  and 2 4 1 0 0 0 0 
 # max = 17160
1835073		 # 	collision with: 4 5 1 0 0 0 0  and 3 1 3 0 0 0 0 
 # max = 17160
1835075		 # 	collision with: 4 1 0 0 0 0 0  and 4 3 0 0 0 0 0 
 # max = 17160
1835077		 # 	collision with: 2 0 1 0 0 0 0  and 2 1 1 0 0 0 0 
 # max = 17160
1835079		 # 	collision with: 0 4 1 0 0 0 0  and 2 4 1 0 0 0 0 
 # max = 17160
1835084		 # 	collision with: 3 4 3 0 0 0 0  and 4 4 3 0 0 0 0 
 # max = 17160
1835086		 # 	collision with: 0 4 3 0 0 0 0  and 2 4 3 0 0 0 0 
 # max = 17160
1835092		 # 	collision with: 3 4 5 0 0 0 0  and 4 4 5 0 0 0 0 
 # max = 17160
1835094		 # 	collision with: 0 4 5 0 0 0 0  and 2 4 5 0 0 0 0 
 # max = 17160
1835096		 # 	collision with: 3 4 0 0 0 0 0  and 4 4 0 0 0 0 0 
 # max = 17160
1835120		 # 	collision with: 3 4 3 0 0 0 0  and 4 4 3 0 0 0 0 
 # max = 17160
1835122		 # 	collision with: 0 4 3 0 0 0 0  and 2 4 3 0 0 0 0 
 # max = 17160
1835138		 # 	collision with: 5 0 1 0 0 0 0  and 5 1 1 0 0 0 0 
 # max = 17160
1835148		 # 	collision with: 6 4 3 2 5 0 0  and 3 4 0 0 0 1 0 
 # max = 17160
1835150		 # 	collision with: 2 2 0 4 5 0 0  and 5 3 1 0 0 1 0 
 # max = 17160
1835153		 # 	collision with: 6 4 1 0 0 0 0  and 6 6 2 0 0 0 0 
 # max = 17160
1835155		 # 	collision with: 2 4 1 0 0 0 0  and 2 6 2 0 0 0 0 
 # max = 17160
1835173		 # 	collision with: 4 1 0 0 0 0 0  and 3 2 0 0 0 0 0 
 # max = 17160
1835175		 # 	collision with: 1 4 1 0 0 0 0  and 1 2 2 0 0 0 0 
 # max = 17160
1835176		 # 	collision with: 3 4 3 0 0 0 0  and 4 4 3 0 0 0 0 
 # max = 17160
1835178		 # 	collision with: 0 4 3 0 0 0 0  and 2 4 3 0 0 0 0 
 # max = 17160
1835190		 # 	collision with: 2 1 1 0 0 0 0  and 2 2 1 0 0 0 0 
 # max = 17160
1835204		 # 	collision with: 3 4 5 0 0 0 0  and 4 4 5 0 0 0 0 
 # max = 17160
1835206		 # 	collision with: 0 4 5 0 0 0 0  and 2 4 5 0 0 0 0 
 # max = 17160
1835228		 # 	collision with: 3 4 0 0 0 0 0  and 4 4 0 0 0 0 0 
 # max = 17160
1835232		 # 	collision with: 3 4 1 0 0 0 0  and 4 4 1 0 0 0 0 
 # max = 17160
1835234		 # 	collision with: 0 4 1 0 0 0 0  and 2 4 1 0 0 0 0 
 # max = 17160
1835240		 # 	collision with: 3 4 3 0 0 0 0  and 4 4 3 0 0 0 0 
 # max = 17160
1835242		 # 	collision with: 0 4 3 0 0 0 0  and 2 4 3 0 0 0 0 
 # max = 17160
1835249		 # 	collision with: 5 2 1 0 0 0 0  and 5 4 1 0 0 0 0 
 # max = 17160
1835251		 # 	collision with: 2 1 0 0 0 0 0  and 2 2 0 0 0 0 0 
 # max = 17160
1835253		 # 	collision with: 2 0 1 0 0 0 0  and 2 1 2 0 0 0 0 
 # max = 17160
1835255		 # 	collision with: 4 1 0 0 0 0 0  and 5 2 0 0 0 0 0 
 # max = 17160
1835260		 # 	collision with: 3 4 6 0 0 0 0  and 4 4 6 0 0 0 0 
 # max = 17160
1835262		 # 	collision with: 0 4 6 0 0 0 0  and 2 4 6 0 0 0 0 
 # max = 17160
1835269		 # 	collision with: 3 5 1 0 0 0 0  and 3 0 2 0 0 0 0 
 # max = 17160
1835271		 # 	collision with: 0 4 0 0 0 0 0  and 2 4 0 0 0 0 0 
 # max = 17160
1835273		 # 	collision with: 4 5 1 0 0 0 0  and 4 5 2 0 0 0 0 
 # max = 17160
1835280		 # 	collision with: 3 4 1 0 0 0 0  and 4 4 1 0 0 0 0 
 # max = 17160
1835282		 # 	collision with: 0 4 1 0 0 0 0  and 2 4 1 0 0 0 0 
 # max = 17160
1835288		 # 	collision with: 3 4 2 0 0 0 0  and 4 4 2 0 0 0 0 
 # max = 17160
1835290		 # 	collision with: 0 4 2 0 0 0 0  and 2 4 2 0 0 0 0 
 # max = 17160
1835292		 # 	collision with: 2 0 3 0 0 0 0  and 2 1 3 0 0 0 0 
 # max = 17160
1835294		 # 	collision with: 2 1 3 0 0 0 0  and 2 2 3 0 0 0 0 
 # max = 17160
1835332		 # 	collision with: 4 1 6 0 0 0 0  and 3 2 6 0 0 0 0 
 # max = 17160
1835334		 # 	collision with: 5 2 6 0 0 0 0  and 4 3 6 0 0 0 0 
 # max = 17160
1835344		 # 	collision with: 6 2 3 0 4 0 0  and 5 0 0 0 0 1 0 
 # max = 17160
1835346		 # 	collision with: 3 6 5 3 4 0 0  and 1 3 0 0 0 1 0 
 # max = 17160
1835351		 # 	collision with: 4 0 0 0 0 0 0  and 4 4 2 0 0 0 0 
 # max = 17160
1835369		 # 	collision with: 2 4 0 0 0 0 0  and 5 2 2 0 0 0 0 
 # max = 17160
1835372		 # 	collision with: 3 4 2 0 0 0 0  and 4 4 2 0 0 0 0 
 # max = 17160
1835374		 # 	collision with: 0 4 2 0 0 0 0  and 2 4 2 0 0 0 0 
 # max = 17160
1835384		 # 	collision with: 3 2 3 0 0 0 0  and 3 3 3 0 0 0 0 
 # max = 17160
1835386		 # 	collision with: 3 0 3 0 0 0 0  and 6 2 3 0 0 0 0 
 # max = 17160
1835400		 # 	collision with: 3 4 1 0 0 0 0  and 4 4 1 0 0 0 0 
 # max = 17160
1835402		 # 	collision with: 0 4 1 0 0 0 0  and 2 4 1 0 0 0 0 
 # max = 17160
1835424		 # 	collision with: 3 4 3 0 0 0 0  and 4 4 3 0 0 0 0 
 # max = 17160
1835426		 # 	collision with: 0 4 3 0 0 0 0  and 2 4 3 0 0 0 0 
 # max = 17160
1835428		 # 	collision with: 3 4 3 0 0 0 0  and 4 4 3 0 0 0 0 
 # max = 17160
1835430		 # 	collision with: 0 4 3 0 0 0 0  and 2 4 3 0 0 0 0 
 # max = 17160
1835438		 # 	collision with: 4 1 1 0 0 0 0  and 5 2 1 0 0 0 0 
 # max = 17160
1835445		 # 	collision with: 3 4 0 0 0 0 0  and 4 4 0 0 0 0 0 
 # max = 17160
1835447		 # 	collision with: 1 2 0 0 0 0 0  and 1 2 2 0 0 0 0 
 # max = 17160
1835449		 # 	collision with: 3 4 1 0 0 0 0  and 4 4 1 0 0 0 0 
 # max = 17160
1835465		 # 	collision with: 4 0 0 0 0 0 0  and 4 2 0 0 0 0 0 
 # max = 17160
1835467		 # 	collision with: 3 3 1 0 0 0 0  and 3 4 1 0 0 0 0 
 # max = 17160
1835469		 # 	collision with: 6 0 0 0 0 0 0  and 1 2 0 0 0 0 0 
 # max = 17160
1835471		 # 	collision with: 4 3 0 0 0 0 0  and 4 1 2 0 0 0 0 
 # max = 17160
1835476		 # 	collision with: 2 0 6 0 0 0 0  and 2 1 6 0 0 0 0 
 # max = 17160
1835478		 # 	collision with: 2 1 6 0 0 0 0  and 2 2 6 0 0 0 0 
 # max = 17160
1835484		 # 	collision with: 3 4 6 0 0 0 0  and 4 4 6 0 0 0 0 
 # max = 17160
1835486		 # 	collision with: 0 4 6 0 0 0 0  and 2 4 6 0 0 0 0 
 # max = 17160
1835488		 # 	collision with: 3 4 1 0 0 0 0  and 4 4 1 0 0 0 0 
 # max = 17160
1835490		 # 	collision with: 0 4 1 0 0 0 0  and 2 4 1 0 0 0 0 
 # max = 17160
1835512		 # 	collision with: 3 4 5 0 0 0 0  and 4 4 5 0 0 0 0 
 # max = 17160
1835514		 # 	collision with: 0 4 5 0 0 0 0  and 2 4 5 0 0 0 0 
 # max = 17160
1835528		 # 	collision with: 3 4 0 0 0 0 0  and 4 4 0 0 0 0 0 
 # max = 17160
1835540		 # 	collision with: 4 6 6 3 1 0 0  and 0 5 0 0 0 1 0 
 # max = 17160
1835542		 # 	collision with: 6 5 6 2 1 0 0  and 4 1 0 0 0 1 0 
 # max = 17160
1835545		 # 	collision with: 3 5 0 0 0 0 0  and 3 0 1 0 0 0 0 
 # max = 17160
1835547		 # 	collision with: 6 3 0 0 0 0 0  and 3 0 1 0 0 0 0 
 # max = 17160
1835565		 # 	collision with: 3 0 0 0 0 0 0  and 3 5 1 0 0 0 0 
 # max = 17160
1835567		 # 	collision with: 3 0 1 0 0 0 0  and 6 2 1 0 0 0 0 
 # max = 17160
1835568		 # 	collision with: 3 4 1 0 0 0 0  and 4 4 1 0 0 0 0 
 # max = 17160
1835570		 # 	collision with: 0 4 1 0 0 0 0  and 2 4 1 0 0 0 0 
 # max = 17160
1835580		 # 	collision with: 3 4 3 0 0 0 0  and 4 4 3 0 0 0 0 
 # max = 17160
1835582		 # 	collision with: 0 4 3 0 0 0 0  and 2 4 3 0 0 0 0 
 # max = 17160
1835620		 # 	collision with: 6 0 6 0 0 0 0  and 1 2 6 0 0 0 0 
 # max = 17160
1835622		 # 	collision with: 6 1 6 0 0 0 0  and 3 3 6 0 0 0 0 
 # max = 17160
1835624		 # 	collision with: 3 4 5 0 0 0 0  and 4 4 5 0 0 0 0 
 # max = 17160
1835626		 # 	collision with: 0 4 5 0 0 0 0  and 2 4 5 0 0 0 0 
 # max = 17160
1835632		 # 	collision with: 3 4 0 0 0 0 0  and 4 4 0 0 0 0 0 
 # max = 17160
1835641		 # 	collision with: 2 0 0 0 0 0 0  and 2 1 0 0 0 0 0 
 # max = 17160
1835643		 # 	collision with: 2 2 0 0 0 0 0  and 2 2 1 0 0 0 0 
 # max = 17160
1835647		 # 	collision with: 0 4 0 0 0 0 0  and 2 4 0 0 0 0 0 
 # max = 17160
1835652		 # 	collision with: 3 4 2 0 0 0 0  and 4 4 2 0 0 0 0 
 # max = 17160
1835654		 # 	collision with: 0 4 2 0 0 0 0  and 2 4 2 0 0 0 0 
 # max = 17160
1835661		 # 	collision with: 3 4 0 0 0 0 0  and 4 4 0 0 0 0 0 
 # max = 17160
1835663		 # 	collision with: 4 4 0 0 0 0 0  and 4 4 1 0 0 0 0 
 # max = 17160
1835667		 # 	collision with: 5 0 0 0 0 0 0  and 5 1 0 0 0 0 0 
 # max = 17160
1835672		 # 	collision with: 6 0 3 0 0 0 0  and 1 2 3 0 0 0 0 
 # max = 17160
1835674		 # 	collision with: 6 2 3 0 0 0 0  and 6 3 3 0 0 0 0 
 # max = 17160
1835680		 # 	collision with: 3 4 3 0 0 0 0  and 4 4 3 0 0 0 0 
 # max = 17160
1835682		 # 	collision with: 0 4 3 0 0 0 0  and 2 4 3 0 0 0 0 
 # max = 17160
1835686		 # 	collision with: 6 1 1 0 0 0 0  and 3 3 1 0 0 0 0 
 # max = 17160
1835708		 # 	collision with: 3 4 6 0 0 0 0  and 4 4 6 0 0 0 0 
 # max = 17160
1835710		 # 	collision with: 0 4 6 0 0 0 0  and 2 4 6 0 0 0 0 
 # max = 17160
1835724		 # 	collision with: 3 4 1 0 0 0 0  and 4 4 1 0 0 0 0 
 # max = 17160
1835726		 # 	collision with: 0 4 1 0 0 0 0  and 2 4 1 0 0 0 0 
 # max = 17160
1835765		 # 	collision with: 3 4 0 0 0 0 0  and 4 4 0 0 0 0 0 
 # max = 17160
1835767		 # 	collision with: 6 3 0 0 0 0 0  and 3 4 0 0 0 0 0 
 # max = 17160
1835777		 # 	collision with: 3 4 2 0 0 0 0  and 4 4 2 0 0 0 0 
 # max = 17160
1835779		 # 	collision with: 0 3 3 0 0 0 0  and 2 3 3 0 0 0 0 
 # max = 17160
1835801		 # 	collision with: 3 4 3 0 0 0 0  and 4 4 3 0 0 0 0 
 # max = 17160
1835803		 # 	collision with: 0 3 3 0 0 0 0  and 2 3 3 0 0 0 0 
 # max = 17160
1835809		 # 	collision with: 6 1 1 0 0 0 0  and 6 2 1 0 0 0 0 
 # max = 17160
1835811		 # 	collision with: 0 3 0 0 0 0 0  and 2 3 0 0 0 0 0 
 # max = 17160
1835889		 # 	collision with: 1 2 3 0 0 0 0  and 6 3 3 0 0 0 0 
 # max = 17160
1835891		 # 	collision with: 0 3 2 0 0 0 0  and 2 3 2 0 0 0 0 
 # max = 17160
1835897		 # 	collision with: 3 4 3 0 0 0 0  and 4 4 3 0 0 0 0 
 # max = 17160
1835899		 # 	collision with: 3 3 0 0 0 0 0  and 3 4 0 0 0 0 0 
 # max = 17160
1835905		 # 	collision with: 3 4 0 0 0 0 0  and 4 4 0 0 0 0 0 
 # max = 17160
1835907		 # 	collision with: 6 3 0 0 0 0 0  and 3 4 0 0 0 0 0 
 # max = 17160
1835921		 # 	collision with: 6 1 1 0 0 0 0  and 6 2 1 0 0 0 0 
 # max = 17160
1835923		 # 	collision with: 0 3 0 0 0 0 0  and 2 3 0 0 0 0 0 
 # max = 17160
1835932		 # 	collision with: 3 5 1 3 0 0 0  and 2 3 0 0 0 1 0 
 # max = 17160
1835934		 # 	collision with: 1 1 2 4 0 0 0  and 5 1 0 0 0 1 0 
 # max = 17160
1835961		 # 	collision with: 5 2 0 0 0 0 0  and 2 4 0 0 0 0 0 
 # max = 17160
1835963		 # 	collision with: 5 2 0 0 0 0 0  and 4 4 0 0 0 0 0 
 # max = 17160
1835973		 # 	collision with: 3 4 1 0 0 0 0  and 4 4 1 0 0 0 0 
 # max = 17160
1835997		 # 	collision with: 1 1 1 0 0 0 0  and 1 3 1 0 0 0 0 
 # max = 17160
1835999		 # 	collision with: 1 2 0 0 0 0 0  and 1 4 0 0 0 0 0 
 # max = 17160
1836007		 # 	collision with: 3 2 0 0 0 0 0  and 6 4 0 0 0 0 0 
 # max = 17160
1836085		 # 	collision with: 3 4 3 0 0 0 0  and 4 4 3 0 0 0 0 
 # max = 17160
1836087		 # 	collision with: 4 2 0 0 0 0 0  and 5 4 0 0 0 0 0 
 # max = 17160
1836101		 # 	collision with: 5 2 0 0 0 0 0  and 2 4 0 0 0 0 0 
 # max = 17160
1836103		 # 	collision with: 5 2 0 0 0 0 0  and 4 4 0 0 0 0 0 
 # max = 17160
1836117		 # 	collision with: 6 0 1 0 0 0 0  and 1 2 1 0 0 0 0 
 # max = 17160
1836119		 # 	collision with: 3 2 0 0 0 0 0  and 6 4 0 0 0 0 0 
 # max = 17160
1836128		 # 	collision with: 2 4 4 5 0 0 0  and 6 1 0 0 0 1 0 
 # max = 17160
1836130		 # 	collision with: 6 5 5 3 0 0 0  and 2 0 1 1 0 1 0 
 # max = 17201
1836159		 # 	collision with: 6 0 2 0 0 0 0  and 3 1 3 0 0 0 0 
 # max = 17201
1836169		 # 	collision with: 3 4 0 0 0 0 0  and 4 4 0 0 0 0 0 
 # max = 17201
1836171		 # 	collision with: 0 3 1 0 0 0 0  and 2 3 1 0 0 0 0 
 # max = 17201
1836193		 # 	collision with: 3 4 2 0 0 0 0  and 4 4 2 0 0 0 0 
 # max = 17201
1836195		 # 	collision with: 6 2 0 0 0 0 0  and 3 3 0 0 0 0 0 
 # max = 17201
1836201		 # 	collision with: 4 1 2 0 0 0 0  and 3 3 2 0 0 0 0 
 # max = 17201
1836203		 # 	collision with: 6 2 0 0 0 0 0  and 6 3 0 0 0 0 0 
 # max = 17201
1836281		 # 	collision with: 3 4 0 0 0 0 0  and 4 4 0 0 0 0 0 
 # max = 17201
1836283		 # 	collision with: 0 2 2 0 0 0 0  and 2 4 2 0 0 0 0 
 # max = 17201
1836289		 # 	collision with: 6 2 2 0 0 0 0  and 6 2 3 0 0 0 0 
 # max = 17201
1836291		 # 	collision with: 6 3 1 0 0 0 0  and 3 4 1 0 0 0 0 
 # max = 17201
1836297		 # 	collision with: 1 2 0 0 0 0 0  and 6 3 0 0 0 0 0 
 # max = 17201
1836299		 # 	collision with: 4 5 2 0 0 0 0  and 5 1 3 0 0 0 0 
 # max = 17201
1836315		 # 	collision with: 6 2 0 0 0 0 0  and 6 3 0 0 0 0 0 
 # max = 17201
1836324		 # 	collision with: 4 1 0 1 0 0 0  and 1 2 0 0 0 1 0 
 # max = 17201
1836326		 # 	collision with: 5 3 4 6 0 0 0  and 0 5 0 0 0 1 0 
 # max = 17201
1836353		 # 	collision with: 1 1 2 0 0 0 0  and 1 3 2 0 0 0 0 
 # max = 17201
1836355		 # 	collision with: 0 3 2 0 0 0 0  and 2 3 2 0 0 0 0 
 # max = 17201
1836365		 # 	collision with: 2 5 1 0 0 0 0  and 5 0 3 0 0 0 0 
 # max = 17201
1836367		 # 	collision with: 0 3 0 0 0 0 0  and 2 3 0 0 0 0 0 
 # max = 17201
1836389		 # 	collision with: 6 0 1 0 0 0 0  and 1 2 3 0 0 0 0 
 # max = 17201
1836391		 # 	collision with: 3 1 1 0 0 0 0  and 6 0 3 0 0 0 0 
 # max = 17201
1836397		 # 	collision with: 1 1 0 0 0 0 0  and 1 3 0 0 0 0 0 
 # max = 17201
1836399		 # 	collision with: 2 1 2 0 0 0 0  and 2 2 2 0 0 0 0 
 # max = 17201
1836477		 # 	collision with: 3 5 1 0 0 0 0  and 3 0 3 0 0 0 0 
 # max = 17201
1836485		 # 	collision with: 4 1 0 0 0 0 0  and 3 3 0 0 0 0 0 
 # max = 17201
1836487		 # 	collision with: 4 2 1 0 0 0 0  and 5 4 1 0 0 0 0 
 # max = 17201
1836493		 # 	collision with: 1 1 2 0 0 0 0  and 1 3 2 0 0 0 0 
 # max = 17201
1836509		 # 	collision with: 1 1 0 0 0 0 0  and 1 3 0 0 0 0 0 
 # max = 17201
1836511		 # 	collision with: 6 3 1 0 0 0 0  and 3 4 1 0 0 0 0 
 # max = 17201
1836520		 # 	collision with: 1 1 3 6 0 0 0  and 4 0 0 0 0 1 0 
 # max = 17201
1836522		 # 	collision with: 0 4 0 1 0 0 0  and 5 5 0 0 0 1 0 
 # max = 17201
1836549		 # 	collision with: 4 1 2 0 0 0 0  and 3 2 2 0 0 0 0 
 # max = 17201
1836561		 # 	collision with: 4 4 1 0 0 0 0  and 4 4 2 0 0 0 0 
 # max = 17201
1836563		 # 	collision with: 0 3 1 0 0 0 0  and 2 0 2 0 0 0 0 
 # max = 17201
1836585		 # 	collision with: 6 1 0 0 0 0 0  and 6 2 0 0 0 0 0 
 # max = 17201
1836587		 # 	collision with: 0 3 1 0 0 0 0  and 2 3 1 0 0 0 0 
 # max = 17201
1836593		 # 	collision with: 4 0 2 0 0 0 0  and 4 2 2 0 0 0 0 
 # max = 17201
1836673		 # 	collision with: 3 4 1 0 0 0 0  and 4 4 1 0 0 0 0 
 # max = 17201
1836675		 # 	collision with: 2 4 1 0 0 0 0  and 0 0 2 0 0 0 0 
 # max = 17201
1836681		 # 	collision with: 3 2 1 0 0 0 0  and 3 3 1 0 0 0 0 
 # max = 17201
1836683		 # 	collision with: 0 3 0 0 0 0 0  and 2 3 0 0 0 0 0 
 # max = 17201
1836689		 # 	collision with: 1 3 1 0 0 0 0  and 1 1 2 0 0 0 0 
 # max = 17201
1836691		 # 	collision with: 5 3 1 0 0 0 0  and 4 1 2 0 0 0 0 
 # max = 17201
1836705		 # 	collision with: 3 5 1 0 0 0 0  and 3 0 2 0 0 0 0 
 # max = 17201
1836707		 # 	collision with: 0 2 1 0 0 0 0  and 2 4 1 0 0 0 0 
 # max = 17201
1836716		 # 	collision with: 6 0 3 2 0 0 0  and 2 0 2 0 0 1 0 
 # max = 17201
1836718		 # 	collision with: 2 3 3 5 0 0 0  and 3 1 0 0 0 1 0 
 # max = 17201
1836745		 # 	collision with: 3 4 2 0 0 0 0  and 4 4 2 0 0 0 0 
 # max = 17201
1836747		 # 	collision with: 0 3 0 0 0 0 0  and 2 3 0 0 0 0 0 
 # max = 17201
1836759		 # 	collision with: 2 2 1 0 0 0 0  and 0 4 1 0 0 0 0 
 # max = 17201
1836781		 # 	collision with: 1 3 0 0 0 0 0  and 1 3 2 0 0 0 0 
 # max = 17201
1836783		 # 	collision with: 3 3 1 0 0 0 0  and 3 4 1 0 0 0 0 
 # max = 17201
1836789		 # 	collision with: 3 4 0 0 0 0 0  and 4 4 0 0 0 0 0 
 # max = 17201
1836791		 # 	collision with: 4 0 0 0 0 0 0  and 5 2 0 0 0 0 0 
 # max = 17201
1836869		 # 	collision with: 2 0 0 0 0 0 0  and 2 1 2 0 0 0 0 
 # max = 17201
1836871		 # 	collision with: 0 3 1 0 0 0 0  and 2 3 1 0 0 0 0 
 # max = 17201
1836877		 # 	collision with: 4 0 0 0 0 0 0  and 4 2 0 0 0 0 0 
 # max = 17201
1836879		 # 	collision with: 4 1 1 0 0 0 0  and 5 3 1 0 0 0 0 
 # max = 17201
1836887		 # 	collision with: 0 3 0 0 0 0 0  and 2 3 0 0 0 0 0 
 # max = 17201
1836901		 # 	collision with: 3 4 0 0 0 0 0  and 4 4 0 0 0 0 0 
 # max = 17201
1836903		 # 	collision with: 4 0 0 0 0 0 0  and 5 2 0 0 0 0 0 
 # max = 17201
1836912		 # 	collision with: 2 3 5 4 0 0 0  and 3 0 0 0 0 1 0 
 # max = 17201
1836914		 # 	collision with: 6 2 6 3 0 0 0  and 4 4 0 0 0 1 0 
 # max = 17201
1836941		 # 	collision with: 2 0 0 0 0 0 0  and 2 1 0 0 0 0 0 
 # max = 17201
1836943		 # 	collision with: 5 0 0 0 0 0 0  and 5 1 0 0 0 0 0 
 # max = 17201
1836953		 # 	collision with: 4 0 0 0 0 0 0  and 4 0 1 0 0 0 0 
 # max = 17201
1836955		 # 	collision with: 3 0 0 0 0 0 0  and 3 0 1 0 0 0 0 
 # max = 17201
1836985		 # 	collision with: 2 0 0 0 0 0 0  and 2 0 1 0 0 0 0 
 # max = 17201
1836987		 # 	collision with: 5 0 0 0 0 0 0  and 5 0 1 0 0 0 0 
 # max = 17201
1837067		 # 	collision with: 2 0 0 0 0 0 0  and 2 0 1 0 0 0 0 
 # max = 17201
1837073		 # 	collision with: 5 0 0 0 0 0 0  and 5 0 1 0 0 0 0 
 # max = 17201
1837075		 # 	collision with: 2 0 0 0 0 0 0  and 2 0 1 0 0 0 0 
 # max = 17201
1837081		 # 	collision with: 2 0 0 0 0 0 0  and 2 1 0 0 0 0 0 
 # max = 17201
1837083		 # 	collision with: 5 0 0 0 0 0 0  and 5 1 0 0 0 0 0 
 # max = 17201
1837097		 # 	collision with: 2 1 0 0 0 0 0  and 2 0 1 0 0 0 0 
 # max = 17201
1837121		 # 	collision with: 1 2 3 0 0 0 0  and 6 3 3 0 0 0 0 
 # max = 17201
1837123		 # 	collision with: 5 3 0 0 0 0 0  and 4 4 0 0 0 0 0 
 # max = 17201
1837125		 # 	collision with: 5 2 2 0 0 0 0  and 5 4 2 0 0 0 0 
 # max = 17201
1837127		 # 	collision with: 3 2 3 0 0 0 0  and 6 2 4 0 0 0 0 
 # max = 17201
1837152		 # 	collision with: 6 0 0 0 0 0 0  and 1 2 0 0 0 0 0 
 # max = 17201
1837154		 # 	collision with: 5 0 0 0 0 0 0  and 5 1 0 0 0 0 0 
 # max = 17201
1837160		 # 	collision with: 1 2 0 0 0 0 0  and 6 3 0 0 0 0 0 
 # max = 17201
1837168		 # 	collision with: 4 1 0 0 0 0 0  and 3 2 0 0 0 0 0 
 # max = 17201
1837170		 # 	collision with: 2 1 0 0 0 0 0  and 2 2 0 0 0 0 0 
 # max = 17201
1837184		 # 	collision with: 6 1 0 0 0 0 0  and 6 2 0 0 0 0 0 
 # max = 17201
1837205		 # 	collision with: 3 4 3 0 0 0 0  and 4 4 3 0 0 0 0 
 # max = 17201
1837207		 # 	collision with: 5 3 0 0 0 0 0  and 4 4 0 0 0 0 0 
 # max = 17201
1837208		 # 	collision with: 6 0 0 0 0 0 0  and 1 2 0 0 0 0 0 
 # max = 17201
1837212		 # 	collision with: 6 1 0 0 0 0 0  and 6 2 0 0 0 0 0 
 # max = 17201
1837214		 # 	collision with: 3 3 0 0 0 0 0  and 3 4 0 0 0 0 0 
 # max = 17201
1837217		 # 	collision with: 4 1 3 0 0 0 0  and 3 2 3 0 0 0 0 
 # max = 17201
1837219		 # 	collision with: 0 2 0 0 0 0 0  and 2 2 0 0 0 0 0 
 # max = 17201
1837225		 # 	collision with: 1 1 3 0 0 0 0  and 1 3 3 0 0 0 0 
 # max = 17201
1837227		 # 	collision with: 1 2 1 0 0 0 0  and 1 4 1 0 0 0 0 
 # max = 17201
1837228		 # 	collision with: 5 2 0 0 0 0 0  and 5 4 0 0 0 0 0 
 # max = 17201
1837230		 # 	collision with: 0 0 0 0 0 0 0  and 2 2 0 0 0 0 0 
 # max = 17201
1837232		 # 	collision with: 2 0 0 0 0 0 0  and 2 1 0 0 0 0 0 
 # max = 17201
1837237		 # 	collision with: 5 2 2 0 0 0 0  and 5 4 2 0 0 0 0 
 # max = 17201
1837239		 # 	collision with: 0 2 1 0 0 0 0  and 2 2 1 0 0 0 0 
 # max = 17201
1837256		 # 	collision with: 5 2 0 0 0 0 0  and 5 4 0 0 0 0 0 
 # max = 17201
1837272		 # 	collision with: 1 2 0 0 0 0 0  and 6 3 0 0 0 0 0 
 # max = 17201
1837274		 # 	collision with: 2 1 0 0 0 0 0  and 0 2 0 0 0 0 0 
 # max = 17201
1837280		 # 	collision with: 4 1 0 0 0 0 0  and 3 2 0 0 0 0 0 
 # max = 17201
1837288		 # 	collision with: 2 0 0 0 0 0 0  and 2 1 0 0 0 0 0 
 # max = 17201
1837290		 # 	collision with: 0 0 0 0 0 0 0  and 2 1 0 0 0 0 0 
 # max = 17201
1837304		 # 	collision with: 4 0 2 2 1 0 0  and 5 4 1 0 0 1 0 
 # max = 17201
1837306		 # 	collision with: 1 5 3 3 1 0 0  and 5 5 0 0 0 1 0 
 # max = 17201
1837317		 # 	collision with: 3 2 5 0 0 0 0  and 3 3 5 0 0 0 0 
 # max = 17201
1837319		 # 	collision with: 1 2 0 0 0 0 0  and 1 4 0 0 0 0 0 
 # max = 17201
1837321		 # 	collision with: 4 0 1 0 0 0 0  and 4 2 1 0 0 0 0 
 # max = 17201
1837323		 # 	collision with: 3 2 2 0 0 0 0  and 6 3 2 0 0 0 0 
 # max = 17201
1837350		 # 	collision with: 0 2 5 0 0 0 0  and 2 2 5 0 0 0 0 
 # max = 17201
1837356		 # 	collision with: 3 4 3 0 0 0 0  and 4 4 3 0 0 0 0 
 # max = 17201
1837358		 # 	collision with: 0 2 1 0 0 0 0  and 2 2 1 0 0 0 0 
 # max = 17201
1837364		 # 	collision with: 3 4 1 0 0 0 0  and 4 4 1 0 0 0 0 
 # max = 17201
1837366		 # 	collision with: 0 2 2 0 0 0 0  and 2 2 2 0 0 0 0 
 # max = 17201
1837380		 # 	collision with: 3 4 0 0 0 0 0  and 4 4 0 0 0 0 0 
 # max = 17201
1837382		 # 	collision with: 4 1 4 0 0 0 0  and 4 3 4 0 0 0 0 
 # max = 17201
1837401		 # 	collision with: 5 1 2 0 0 0 0  and 5 1 4 0 0 0 0 
 # max = 17201
1837403		 # 	collision with: 1 2 0 0 0 0 0  and 1 4 0 0 0 0 0 
 # max = 17201
1837404		 # 	collision with: 4 1 5 0 0 0 0  and 3 2 5 0 0 0 0 
 # max = 17201
1837406		 # 	collision with: 0 2 4 0 0 0 0  and 2 2 4 0 0 0 0 
 # max = 17201
1837408		 # 	collision with: 3 4 0 0 0 0 0  and 4 4 0 0 0 0 0 
 # max = 17201
1837413		 # 	collision with: 5 2 0 0 0 0 0  and 2 4 0 0 0 0 0 
 # max = 17201
1837415		 # 	collision with: 0 0 2 0 0 0 0  and 2 1 2 0 0 0 0 
 # max = 17201
1837421		 # 	collision with: 3 2 1 0 0 0 0  and 3 3 1 0 0 0 0 
 # max = 17201
1837423		 # 	collision with: 2 1 3 0 0 0 0  and 0 2 3 0 0 0 0 
 # max = 17201
1837424		 # 	collision with: 3 2 3 0 0 0 0  and 3 3 3 0 0 0 0 
 # max = 17201
1837426		 # 	collision with: 4 1 3 0 0 0 0  and 4 3 3 0 0 0 0 
 # max = 17201
1837428		 # 	collision with: 1 1 2 0 0 0 0  and 1 3 2 0 0 0 0 
 # max = 17201
1837430		 # 	collision with: 0 2 0 0 0 0 0  and 2 2 0 0 0 0 0 
 # max = 17201
1837433		 # 	collision with: 6 0 1 0 0 0 0  and 1 2 1 0 0 0 0 
 # max = 17201
1837452		 # 	collision with: 3 4 1 0 0 0 0  and 4 4 1 0 0 0 0 
 # max = 17201
1837454		 # 	collision with: 4 1 3 0 0 0 0  and 4 3 3 0 0 0 0 
 # max = 17201
1837468		 # 	collision with: 4 1 1 0 0 0 0  and 3 3 1 0 0 0 0 
 # max = 17201
1837470		 # 	collision with: 0 2 3 0 0 0 0  and 2 2 3 0 0 0 0 
 # max = 17201
1837478		 # 	collision with: 0 2 3 0 0 0 0  and 2 2 3 0 0 0 0 
 # max = 17201
1837484		 # 	collision with: 1 1 2 0 0 0 0  and 1 3 2 0 0 0 0 
 # max = 17201
1837486		 # 	collision with: 0 2 0 0 0 0 0  and 2 2 0 0 0 0 0 
 # max = 17201
1837500		 # 	collision with: 5 3 0 5 4 0 0  and 6 2 0 0 0 1 0 
 # max = 17201
1837502		 # 	collision with: 1 5 6 2 4 0 0  and 3 4 1 0 0 1 0 
 # max = 17201
1837513		 # 	collision with: 3 4 0 0 0 0 0  and 4 4 0 0 0 0 0 
 # max = 17201
1837515		 # 	collision with: 3 6 2 0 0 0 0  and 3 1 3 0 0 0 0 
 # max = 17201
1837517		 # 	collision with: 3 2 0 0 0 0 0  and 3 3 0 0 0 0 0 
 # max = 17201
1837519		 # 	collision with: 4 2 2 0 0 0 0  and 5 6 3 0 0 0 0 
 # max = 17201
1837544		 # 	collision with: 4 1 3 0 0 0 0  and 3 2 3 0 0 0 0 
 # max = 17201
1837546		 # 	collision with: 2 1 3 0 0 0 0  and 0 2 3 0 0 0 0 
 # max = 17201
1837552		 # 	collision with: 3 4 2 0 0 0 0  and 4 4 2 0 0 0 0 
 # max = 17201
1837554		 # 	collision with: 0 2 0 0 0 0 0  and 2 2 0 0 0 0 0 
 # max = 17201
1837562		 # 	collision with: 0 2 5 0 0 0 0  and 2 2 5 0 0 0 0 
 # max = 17201
1837576		 # 	collision with: 6 0 1 0 0 0 0  and 1 2 1 0 0 0 0 
 # max = 17201
1837578		 # 	collision with: 0 0 1 0 0 0 0  and 2 1 1 0 0 0 0 
 # max = 17201
1837597		 # 	collision with: 3 4 0 0 0 0 0  and 4 4 0 0 0 0 0 
 # max = 17201
1837599		 # 	collision with: 2 1 3 0 0 0 0  and 0 2 3 0 0 0 0 
 # max = 17201
1837600		 # 	collision with: 3 4 1 0 0 0 0  and 4 4 1 0 0 0 0 
 # max = 17201
1837602		 # 	collision with: 0 0 3 0 0 0 0  and 2 2 3 0 0 0 0 
 # max = 17201
1837604		 # 	collision with: 1 1 1 0 0 0 0  and 1 3 1 0 0 0 0 
 # max = 17201
1837606		 # 	collision with: 5 0 1 0 0 0 0  and 5 1 1 0 0 0 0 
 # max = 17201
1837617		 # 	collision with: 1 2 0 0 0 0 0  and 6 3 0 0 0 0 0 
 # max = 17201
1837619		 # 	collision with: 0 2 2 0 0 0 0  and 2 2 2 0 0 0 0 
 # max = 17201
1837620		 # 	collision with: 3 4 1 0 0 0 0  and 4 4 1 0 0 0 0 
 # max = 17201
1837622		 # 	collision with: 0 2 2 0 0 0 0  and 2 2 2 0 0 0 0 
 # max = 17201
1837624		 # 	collision with: 3 4 0 0 0 0 0  and 4 4 0 0 0 0 0 
 # max = 17201
1837626		 # 	collision with: 0 0 4 0 0 0 0  and 2 2 4 0 0 0 0 
 # max = 17201
1837631		 # 	collision with: 0 2 2 0 0 0 0  and 2 1 3 0 0 0 0 
 # max = 17201
1837650		 # 	collision with: 0 2 3 0 0 0 0  and 2 2 3 0 0 0 0 
 # max = 17201
1837664		 # 	collision with: 3 4 6 0 0 0 0  and 4 4 6 0 0 0 0 
 # max = 17201
1837666		 # 	collision with: 0 2 0 0 0 0 0  and 2 2 0 0 0 0 0 
 # max = 17201
1837672		 # 	collision with: 6 1 5 0 0 0 0  and 6 2 5 0 0 0 0 
 # max = 17201
1837674		 # 	collision with: 0 2 4 0 0 0 0  and 2 2 4 0 0 0 0 
 # max = 17201
1837680		 # 	collision with: 3 4 0 0 0 0 0  and 4 4 0 0 0 0 0 
 # max = 17201
1837696		 # 	collision with: 6 3 3 0 5 0 0  and 0 1 0 0 0 1 0 
 # max = 17201
1837698		 # 	collision with: 5 5 1 5 5 0 0  and 0 0 1 0 0 1 0 
 # max = 17201
1837709		 # 	collision with: 5 5 1 0 0 0 0  and 5 1 3 0 0 0 0 
 # max = 17201
1837715		 # 	collision with: 5 3 1 0 0 0 0  and 4 4 1 0 0 0 0 
 # max = 17201
1837740		 # 	collision with: 4 0 1 0 0 0 0  and 4 2 1 0 0 0 0 
 # max = 17201
1837742		 # 	collision with: 6 2 1 0 0 0 0  and 6 3 1 0 0 0 0 
 # max = 17201
1837748		 # 	collision with: 3 4 1 0 0 0 0  and 4 4 1 0 0 0 0 
 # max = 17201
1837750		 # 	collision with: 3 2 3 0 0 0 0  and 6 3 3 0 0 0 0 
 # max = 17201
1837756		 # 	collision with: 3 4 0 0 0 0 0  and 4 4 0 0 0 0 0 
 # max = 17201
1837772		 # 	collision with: 2 0 5 0 0 0 0  and 2 1 5 0 0 0 0 
 # max = 17201
1837774		 # 	collision with: 0 2 4 0 0 0 0  and 2 2 4 0 0 0 0 
 # max = 17201
1837793		 # 	collision with: 3 4 2 0 0 0 0  and 4 4 2 0 0 0 0 
 # max = 17201
1837795		 # 	collision with: 0 2 1 0 0 0 0  and 2 2 1 0 0 0 0 
 # max = 17201
1837796		 # 	collision with: 4 0 1 0 0 0 0  and 4 2 1 0 0 0 0 
 # max = 17201
1837798		 # 	collision with: 0 2 1 0 0 0 0  and 2 2 1 0 0 0 0 
 # max = 17201
1837802		 # 	collision with: 0 2 5 0 0 0 0  and 2 2 5 0 0 0 0 
 # max = 17201
1837805		 # 	collision with: 3 0 1 0 0 0 0  and 3 0 3 0 0 0 0 
 # max = 17201
1837807		 # 	collision with: 1 2 2 0 0 0 0  and 1 4 2 0 0 0 0 
 # max = 17201
1837813		 # 	collision with: 3 4 0 0 0 0 0  and 4 4 0 0 0 0 0 
 # max = 17201
1837815		 # 	collision with: 0 2 0 0 0 0 0  and 2 2 0 0 0 0 0 
 # max = 17201
1837816		 # 	collision with: 6 1 2 0 0 0 0  and 6 2 2 0 0 0 0 
 # max = 17201
1837818		 # 	collision with: 0 2 0 0 0 0 0  and 2 2 0 0 0 0 0 
 # max = 17201
1837822		 # 	collision with: 0 2 3 0 0 0 0  and 2 2 3 0 0 0 0 
 # max = 17201
1837825		 # 	collision with: 4 0 1 0 0 0 0  and 4 0 3 0 0 0 0 
 # max = 17201
1837827		 # 	collision with: 0 2 2 0 0 0 0  and 2 2 2 0 0 0 0 
 # max = 17201
1837844		 # 	collision with: 4 1 2 0 0 0 0  and 3 2 2 0 0 0 0 
 # max = 17201
1837846		 # 	collision with: 0 2 0 0 0 0 0  and 2 2 0 0 0 0 0 
 # max = 17201
1837860		 # 	collision with: 3 4 3 0 0 0 0  and 4 4 3 0 0 0 0 
 # max = 17201
1837862		 # 	collision with: 5 3 3 0 0 0 0  and 4 4 3 0 0 0 0 
 # max = 17201
1837868		 # 	collision with: 3 4 0 0 0 0 0  and 4 4 0 0 0 0 0 
 # max = 17201
1837870		 # 	collision with: 5 0 4 0 0 0 0  and 5 1 4 0 0 0 0 
 # max = 17201
1837876		 # 	collision with: 3 4 1 0 0 0 0  and 4 4 1 0 0 0 0 
 # max = 17201
1837878		 # 	collision with: 0 2 2 0 0 0 0  and 2 2 2 0 0 0 0 
 # max = 17201
1837892		 # 	collision with: 6 3 1 1 2 0 0  and 3 1 0 0 0 1 0 
 # max = 17201
1837894		 # 	collision with: 1 0 2 3 2 0 0  and 2 5 0 0 0 1 0 
 # max = 17201
1837907		 # 	collision with: 5 6 1 0 0 0 0  and 4 2 2 0 0 0 0 
 # max = 17201
1837909		 # 	collision with: 6 3 1 0 0 0 0  and 6 0 2 0 0 0 0 
 # max = 17201
1837936		 # 	collision with: 3 4 1 0 0 0 0  and 4 4 1 0 0 0 0 
 # max = 17201
1837938		 # 	collision with: 0 2 2 0 0 0 0  and 2 2 2 0 0 0 0 
 # max = 17201
1837944		 # 	collision with: 3 4 0 0 0 0 0  and 4 4 0 0 0 0 0 
 # max = 17201
1837946		 # 	collision with: 0 2 5 0 0 0 0  and 2 2 5 0 0 0 0 
 # max = 17201
1837952		 # 	collision with: 1 1 3 0 0 0 0  and 1 3 3 0 0 0 0 
 # max = 17201
1837954		 # 	collision with: 0 0 3 0 0 0 0  and 2 2 3 0 0 0 0 
 # max = 17201
1837968		 # 	collision with: 3 2 2 0 0 0 0  and 3 3 2 0 0 0 0 
 # max = 17201
1837970		 # 	collision with: 0 2 0 0 0 0 0  and 2 2 0 0 0 0 0 
 # max = 17201
1837989		 # 	collision with: 4 1 0 0 0 0 0  and 3 2 0 0 0 0 0 
 # max = 17201
1837991		 # 	collision with: 2 4 1 0 0 0 0  and 0 1 2 0 0 0 0 
 # max = 17201
1837994		 # 	collision with: 0 2 3 0 0 0 0  and 2 2 3 0 0 0 0 
 # max = 17201
1837996		 # 	collision with: 3 2 2 0 0 0 0  and 3 3 2 0 0 0 0 
 # max = 17201
1837998		 # 	collision with: 0 2 0 0 0 0 0  and 2 2 0 0 0 0 0 
 # max = 17201
1838001		 # 	collision with: 3 4 0 0 0 0 0  and 4 4 0 0 0 0 0 
 # max = 17201
1838003		 # 	collision with: 0 2 1 0 0 0 0  and 2 2 1 0 0 0 0 
 # max = 17201
1838009		 # 	collision with: 6 0 1 0 0 0 0  and 1 2 1 0 0 0 0 
 # max = 17201
1838011		 # 	collision with: 2 1 0 0 0 0 0  and 2 2 0 0 0 0 0 
 # max = 17201
1838014		 # 	collision with: 0 0 5 0 0 0 0  and 2 1 5 0 0 0 0 
 # max = 17201
1838016		 # 	collision with: 5 2 1 0 0 0 0  and 5 4 1 0 0 0 0 
 # max = 17201
1838018		 # 	collision with: 0 2 1 0 0 0 0  and 2 2 1 0 0 0 0 
 # max = 17201
1838021		 # 	collision with: 6 3 1 0 0 0 0  and 1 2 2 0 0 0 0 
 # max = 17201
1838023		 # 	collision with: 0 2 0 0 0 0 0  and 2 2 0 0 0 0 0 
 # max = 17201
1838040		 # 	collision with: 4 0 5 0 0 0 0  and 4 2 5 0 0 0 0 
 # max = 17201
1838042		 # 	collision with: 0 2 4 0 0 0 0  and 2 2 4 0 0 0 0 
 # max = 17201
1838056		 # 	collision with: 3 4 0 0 0 0 0  and 4 4 0 0 0 0 0 
 # max = 17201
1838064		 # 	collision with: 3 4 1 0 0 0 0  and 4 4 1 0 0 0 0 
 # max = 17201
1838066		 # 	collision with: 2 1 3 0 0 0 0  and 0 2 3 0 0 0 0 
 # max = 17201
1838072		 # 	collision with: 5 2 1 0 0 0 0  and 5 4 1 0 0 0 0 
 # max = 17201
1838074		 # 	collision with: 0 0 1 0 0 0 0  and 2 2 1 0 0 0 0 
 # max = 17201
1838088		 # 	collision with: 1 3 0 6 3 0 0  and 2 1 2 0 0 1 0 
 # max = 17201
1838090		 # 	collision with: 3 4 3 2 3 0 0  and 1 1 0 0 0 1 0 
 # max = 17201
1838101		 # 	collision with: 5 2 1 0 0 0 0  and 5 4 1 0 0 0 0 
 # max = 17201
1838103		 # 	collision with: 2 1 0 0 0 0 0  and 0 0 2 0 0 0 0 
 # max = 17201
1838105		 # 	collision with: 3 4 0 0 0 0 0  and 4 4 0 0 0 0 0 
 # max = 17201
1838107		 # 	collision with: 6 2 1 0 0 0 0  and 6 3 1 0 0 0 0 
 # max = 17201
1838132		 # 	collision with: 3 4 0 0 0 0 0  and 4 4 0 0 0 0 0 
 # max = 17201
1838140		 # 	collision with: 5 2 5 0 0 0 0  and 2 4 5 0 0 0 0 
 # max = 17201
1838142		 # 	collision with: 0 2 4 0 0 0 0  and 2 2 4 0 0 0 0 
 # max = 17201
1838148		 # 	collision with: 2 0 2 0 0 0 0  and 2 1 2 0 0 0 0 
 # max = 17201
1838150		 # 	collision with: 0 2 0 0 0 0 0  and 2 2 0 0 0 0 0 
 # max = 17201
1838166		 # 	collision with: 0 2 3 0 0 0 0  and 2 2 3 0 0 0 0 
 # max = 17201
1838187		 # 	collision with: 2 1 0 0 0 0 0  and 0 0 2 0 0 0 0 
 # max = 17201
1838188		 # 	collision with: 3 4 0 0 0 0 0  and 4 4 0 0 0 0 0 
 # max = 17201
1838190		 # 	collision with: 2 1 4 0 0 0 0  and 2 2 4 0 0 0 0 
 # max = 17201
1838192		 # 	collision with: 3 4 1 0 0 0 0  and 4 4 1 0 0 0 0 
 # max = 17201
1838194		 # 	collision with: 0 2 2 0 0 0 0  and 2 2 2 0 0 0 0 
 # max = 17201
1838197		 # 	collision with: 6 0 0 0 0 0 0  and 1 2 0 0 0 0 0 
 # max = 17201
1838199		 # 	collision with: 2 6 0 0 0 0 0  and 0 1 2 0 0 0 0 
 # max = 17201
1838208		 # 	collision with: 2 0 1 0 0 0 0  and 2 1 1 0 0 0 0 
 # max = 17201
1838210		 # 	collision with: 3 3 1 0 0 0 0  and 3 4 1 0 0 0 0 
 # max = 17201
1838212		 # 	collision with: 3 4 1 0 0 0 0  and 4 4 1 0 0 0 0 
 # max = 17201
1838214		 # 	collision with: 3 3 3 0 0 0 0  and 3 4 3 0 0 0 0 
 # max = 17201
1838217		 # 	collision with: 3 4 0 0 0 0 0  and 4 4 0 0 0 0 0 
 # max = 17201
1838219		 # 	collision with: 6 2 1 0 0 0 0  and 6 3 1 0 0 0 0 
 # max = 17201
1838236		 # 	collision with: 2 0 1 0 0 0 0  and 2 1 1 0 0 0 0 
 # max = 17201
1838238		 # 	collision with: 0 2 1 0 0 0 0  and 2 2 1 0 0 0 0 
 # max = 17201
1838254		 # 	collision with: 0 2 5 0 0 0 0  and 2 2 5 0 0 0 0 
 # max = 17201
1838260		 # 	collision with: 2 0 2 0 0 0 0  and 2 1 2 0 0 0 0 
 # max = 17201
1838262		 # 	collision with: 0 2 0 0 0 0 0  and 2 2 0 0 0 0 0 
 # max = 17201
1838268		 # 	collision with: 6 0 3 0 0 0 0  and 1 2 3 0 0 0 0 
 # max = 17201
1838270		 # 	collision with: 3 3 3 0 0 0 0  and 3 4 3 0 0 0 0 
 # max = 17201
1838284		 # 	collision with: 2 3 4 0 6 0 0  and 3 4 1 0 0 1 0 
 # max = 17201
1838286		 # 	collision with: 5 3 2 6 6 0 0  and 1 5 2 0 0 1 0 
 # max = 17201
1838297		 # 	collision with: 2 0 0 0 0 0 0  and 2 1 0 0 0 0 0 
 # max = 17201
1838299		 # 	collision with: 0 2 0 0 0 0 0  and 2 2 0 0 0 0 0 
 # max = 17201
1838301		 # 	collision with: 6 1 3 0 0 0 0  and 6 2 3 0 0 0 0 
 # max = 17201
1838303		 # 	collision with: 5 0 0 0 0 0 0  and 5 1 0 0 0 0 0 
 # max = 17201
1838328		 # 	collision with: 5 2 2 0 0 0 0  and 5 4 2 0 0 0 0 
 # max = 17201
1838330		 # 	collision with: 0 2 0 0 0 0 0  and 2 2 0 0 0 0 0 
 # max = 17201
1838338		 # 	collision with: 0 2 3 0 0 0 0  and 2 2 3 0 0 0 0 
 # max = 17201
1838344		 # 	collision with: 6 0 1 0 0 0 0  and 1 2 1 0 0 0 0 
 # max = 17201
1838346		 # 	collision with: 0 0 1 0 0 0 0  and 2 1 1 0 0 0 0 
 # max = 17201
1838360		 # 	collision with: 3 4 1 0 0 0 0  and 4 4 1 0 0 0 0 
 # max = 17201
1838362		 # 	collision with: 2 1 3 0 0 0 0  and 2 2 3 0 0 0 0 
 # max = 17201
1838381		 # 	collision with: 2 0 0 0 0 0 0  and 2 1 0 0 0 0 0 
 # max = 17201
1838384		 # 	collision with: 5 2 2 0 0 0 0  and 2 4 2 0 0 0 0 
 # max = 17201
1838386		 # 	collision with: 0 2 0 0 0 0 0  and 2 2 0 0 0 0 0 
 # max = 17201
1838388		 # 	collision with: 5 2 3 0 0 0 0  and 2 4 3 0 0 0 0 
 # max = 17201
1838390		 # 	collision with: 2 1 3 0 0 0 0  and 2 2 3 0 0 0 0 
 # max = 17201
1838393		 # 	collision with: 3 1 0 0 0 0 0  and 3 1 1 0 0 0 0 
 # max = 17201
1838395		 # 	collision with: 5 1 0 0 0 0 0  and 5 1 1 0 0 0 0 
 # max = 17201
1838401		 # 	collision with: 3 4 1 0 0 0 0  and 4 4 1 0 0 0 0 
 # max = 17201
1838403		 # 	collision with: 2 2 0 0 0 0 0  and 2 1 1 0 0 0 0 
 # max = 17201
1838404		 # 	collision with: 3 4 0 0 0 0 0  and 4 4 0 0 0 0 0 
 # max = 17201
1838408		 # 	collision with: 6 0 5 0 0 0 0  and 1 2 5 0 0 0 0 
 # max = 17201
1838410		 # 	collision with: 0 2 4 0 0 0 0  and 2 2 4 0 0 0 0 
 # max = 17201
1838413		 # 	collision with: 4 1 1 0 0 0 0  and 3 3 1 0 0 0 0 
 # max = 17201
1838415		 # 	collision with: 5 0 0 0 0 0 0  and 5 1 0 0 0 0 0 
 # max = 17201
1838432		 # 	collision with: 3 4 0 0 0 0 0  and 4 4 0 0 0 0 0 
 # max = 17201
1838434		 # 	collision with: 3 2 4 0 0 0 0  and 6 3 4 0 0 0 0 
 # max = 17201
1838448		 # 	collision with: 3 4 1 0 0 0 0  and 4 4 1 0 0 0 0 
 # max = 17201
1838450		 # 	collision with: 0 2 2 0 0 0 0  and 2 2 2 0 0 0 0 
 # max = 17201
1838456		 # 	collision with: 3 2 1 0 0 0 0  and 3 3 1 0 0 0 0 
 # max = 17201
1838458		 # 	collision with: 0 2 1 0 0 0 0  and 2 2 1 0 0 0 0 
 # max = 17201
1838466		 # 	collision with: 2 1 5 0 0 0 0  and 0 2 5 0 0 0 0 
 # max = 17201
1838513		 # 	collision with: 3 2 2 0 0 0 0  and 3 3 2 0 0 0 0 
 # max = 17201
1838517		 # 	collision with: 4 1 2 0 0 0 0  and 3 2 2 0 0 0 0 
 # max = 17201
1838519		 # 	collision with: 6 2 1 0 0 0 0  and 6 3 1 0 0 0 0 
 # max = 17201
1838541		 # 	collision with: 3 2 2 0 0 0 0  and 3 3 2 0 0 0 0 
 # max = 17201
1838543		 # 	collision with: 0 1 2 0 0 0 0  and 2 1 2 0 0 0 0 
 # max = 17201
1838557		 # 	collision with: 6 0 1 0 0 0 0  and 1 2 1 0 0 0 0 
 # max = 17201
1838559		 # 	collision with: 0 1 0 0 0 0 0  and 2 1 0 0 0 0 0 
 # max = 17201
1838629		 # 	collision with: 5 2 4 0 0 0 0  and 2 4 4 0 0 0 0 
 # max = 17201
1838631		 # 	collision with: 6 2 1 0 0 0 0  and 6 3 1 0 0 0 0 
 # max = 17201
1838645		 # 	collision with: 6 6 3 0 0 0 0  and 6 6 4 0 0 0 0 
 # max = 17201
1838647		 # 	collision with: 5 0 1 0 0 0 0  and 4 1 1 0 0 0 0 
 # max = 17201
1838669		 # 	collision with: 6 3 3 0 0 0 0  and 6 3 4 0 0 0 0 
 # max = 17201
1838671		 # 	collision with: 0 1 0 0 0 0 0  and 2 1 0 0 0 0 0 
 # max = 17201
1838673		 # 	collision with: 3 4 3 0 0 0 0  and 4 4 3 0 0 0 0 
 # max = 17201
1838676		 # 	collision with: 3 2 2 0 2 0 0  and 5 5 0 0 0 1 0 
 # max = 17201
1838678		 # 	collision with: 4 6 1 1 2 0 0  and 3 0 0 0 0 1 0 
 # max = 17201
1838709		 # 	collision with: 1 2 1 0 0 0 0  and 6 3 1 0 0 0 0 
 # max = 17201
1838711		 # 	collision with: 0 1 3 0 0 0 0  and 2 1 3 0 0 0 0 
 # max = 17201
1838715		 # 	collision with: 4 1 1 0 0 0 0  and 4 3 1 0 0 0 0 
 # max = 17201
1838737		 # 	collision with: 3 4 1 0 0 0 0  and 4 4 1 0 0 0 0 
 # max = 17201
1838739		 # 	collision with: 4 2 1 0 0 0 0  and 5 3 1 0 0 0 0 
 # max = 17201
1838753		 # 	collision with: 5 2 0 0 0 0 0  and 2 4 0 0 0 0 0 
 # max = 17201
1838825		 # 	collision with: 3 4 1 0 0 0 0  and 4 4 1 0 0 0 0 
 # max = 17201
1838827		 # 	collision with: 4 1 1 0 0 0 0  and 4 3 1 0 0 0 0 
 # max = 17201
1838841		 # 	collision with: 3 4 2 0 0 0 0  and 4 4 2 0 0 0 0 
 # max = 17201
1838843		 # 	collision with: 0 1 1 0 0 0 0  and 2 1 1 0 0 0 0 
 # max = 17201
1838865		 # 	collision with: 5 2 0 0 0 0 0  and 2 4 0 0 0 0 0 
 # max = 17201
1838867		 # 	collision with: 0 1 1 0 0 0 0  and 2 1 1 0 0 0 0 
 # max = 17201
1838871		 # 	collision with: 0 1 2 0 0 0 0  and 2 1 2 0 0 0 0 
 # max = 17201
1838872		 # 	collision with: 5 4 4 4 1 0 0  and 6 3 0 0 0 1 0 
 # max = 17201
1838874		 # 	collision with: 6 5 3 1 1 0 0  and 0 1 0 0 0 1 0 
 # max = 17201
1838905		 # 	collision with: 1 1 1 0 0 0 0  and 1 3 1 0 0 0 0 
 # max = 17201
1838907		 # 	collision with: 5 1 1 0 0 0 0  and 4 3 1 0 0 0 0 
 # max = 17201
1838909		 # 	collision with: 1 2 0 0 0 0 0  and 6 3 0 0 0 0 0 
 # max = 17201
1838911		 # 	collision with: 0 1 1 0 0 0 0  and 2 1 1 0 0 0 0 
 # max = 17201
1838933		 # 	collision with: 1 1 1 0 0 0 0  and 1 3 1 0 0 0 0 
 # max = 17201
1838949		 # 	collision with: 3 0 2 0 0 0 0  and 3 0 3 0 0 0 0 
 # max = 17201
1838951		 # 	collision with: 6 0 2 0 0 0 0  and 6 0 3 0 0 0 0 
 # max = 17201
1839021		 # 	collision with: 1 2 0 0 0 0 0  and 6 3 0 0 0 0 0 
 # max = 17201
1839023		 # 	collision with: 2 1 1 0 0 0 0  and 2 2 1 0 0 0 0 
 # max = 17201
1839037		 # 	collision with: 5 2 1 0 0 0 0  and 5 4 1 0 0 0 0 
 # max = 17201
1839039		 # 	collision with: 3 3 2 0 0 0 0  and 3 4 2 0 0 0 0 
 # max = 17201
1839061		 # 	collision with: 3 4 1 0 0 0 0  and 4 4 1 0 0 0 0 
 # max = 17201
1839065		 # 	collision with: 5 2 1 0 0 0 0  and 5 4 1 0 0 0 0 
 # max = 17201
1839067		 # 	collision with: 3 3 2 0 0 0 0  and 3 4 2 0 0 0 0 
 # max = 17201
1839068		 # 	collision with: 4 0 5 0 3 0 0  and 1 0 0 0 0 1 0 
 # max = 17201
1839070		 # 	collision with: 0 6 2 5 3 0 0  and 1 0 1 0 0 1 0 
 # max = 17201
1839101		 # 	collision with: 3 4 0 0 0 0 0  and 4 4 0 0 0 0 0 
 # max = 17201
1839103		 # 	collision with: 0 1 1 0 0 0 0  and 2 1 1 0 0 0 0 
 # max = 17201
1839105		 # 	collision with: 3 4 3 0 0 0 0  and 4 4 3 0 0 0 0 
 # max = 17201
1839107		 # 	collision with: 0 1 0 0 0 0 0  and 2 1 0 0 0 0 0 
 # max = 17201
1839131		 # 	collision with: 0 1 1 0 0 0 0  and 2 2 1 0 0 0 0 
 # max = 17201
1839145		 # 	collision with: 6 2 1 0 0 0 0  and 6 2 3 0 0 0 0 
 # max = 17201
1839147		 # 	collision with: 0 1 2 0 0 0 0  and 2 1 2 0 0 0 0 
 # max = 17201
1839219		 # 	collision with: 0 1 0 0 0 0 0  and 2 1 0 0 0 0 0 
 # max = 17201
1839233		 # 	collision with: 4 1 0 0 0 0 0  and 3 3 0 0 0 0 0 
 # max = 17201
1839235		 # 	collision with: 4 1 0 0 0 0 0  and 4 3 0 0 0 0 0 
 # max = 17201
1839257		 # 	collision with: 3 4 2 0 0 0 0  and 4 4 2 0 0 0 0 
 # max = 17201
1839259		 # 	collision with: 0 1 3 0 0 0 0  and 2 1 3 0 0 0 0 
 # max = 17201
1839261		 # 	collision with: 4 1 0 0 0 0 0  and 3 3 0 0 0 0 0 
 # max = 17201
1839263		 # 	collision with: 4 1 0 0 0 0 0  and 4 3 0 0 0 0 0 
 # max = 17201
1839264		 # 	collision with: 6 6 6 2 4 0 0  and 4 2 0 0 0 1 0 
 # max = 17201
1839266		 # 	collision with: 0 3 3 4 4 0 0  and 4 0 0 0 0 1 0 
 # max = 17201
1839297		 # 	collision with: 6 1 0 0 0 0 0  and 6 2 0 0 0 0 0 
 # max = 17201
1839299		 # 	collision with: 0 1 0 0 0 0 0  and 2 1 0 0 0 0 0 
 # max = 17201
1839301		 # 	collision with: 6 0 1 0 0 0 0  and 1 2 2 0 0 0 0 
 # max = 17201
1839303		 # 	collision with: 0 1 0 0 0 0 0  and 2 2 0 0 0 0 0 
 # max = 17201
1839325		 # 	collision with: 6 1 0 0 0 0 0  and 6 2 0 0 0 0 0 
 # max = 17201
1839327		 # 	collision with: 0 1 0 0 0 0 0  and 2 1 0 0 0 0 0 
 # max = 17201
1839343		 # 	collision with: 5 1 1 0 0 0 0  and 4 3 2 0 0 0 0 
 # max = 17201
1839413		 # 	collision with: 4 0 1 0 0 0 0  and 4 2 2 0 0 0 0 
 # max = 17201
1839415		 # 	collision with: 0 1 0 0 0 0 0  and 2 2 0 0 0 0 0 
 # max = 17201
1839431		 # 	collision with: 0 1 1 0 0 0 0  and 2 1 2 0 0 0 0 
 # max = 17201
1839453		 # 	collision with: 4 1 0 0 0 0 0  and 3 2 0 0 0 0 0 
 # max = 17201
1839455		 # 	collision with: 4 2 1 0 0 0 0  and 5 3 1 0 0 0 0 
 # max = 17201
1839457		 # 	collision with: 3 4 0 0 0 0 0  and 4 4 0 0 0 0 0 
 # max = 17201
1839459		 # 	collision with: 5 1 1 0 0 0 0  and 4 3 1 0 0 0 0 
 # max = 17201
1839460		 # 	collision with: 1 5 3 4 6 0 0  and 2 0 1 0 0 1 0 
 # max = 17201
1839462		 # 	collision with: 3 2 2 0 6 0 0  and 1 5 1 0 0 1 0 
 # max = 17201
1839493		 # 	collision with: 2 3 0 0 0 0 0  and 5 0 2 0 0 0 0 
 # max = 17201
1839495		 # 	collision with: 5 0 1 0 0 0 0  and 4 1 1 0 0 0 0 
 # max = 17201
1839497		 # 	collision with: 3 4 1 0 0 0 0  and 4 4 1 0 0 0 0 
 # max = 17201
1839521		 # 	collision with: 6 6 0 0 0 0 0  and 1 0 2 0 0 0 0 
 # max = 17201
1839523		 # 	collision with: 5 2 0 0 0 0 0  and 5 2 2 0 0 0 0 
 # max = 17201
1839537		 # 	collision with: 2 3 0 0 0 0 0  and 5 0 2 0 0 0 0 
 # max = 17201
1839539		 # 	collision with: 0 1 1 0 0 0 0  and 2 1 1 0 0 0 0 
 # max = 17201
1839609		 # 	collision with: 4 1 0 0 0 0 0  and 4 1 2 0 0 0 0 
 # max = 17201
1839611		 # 	collision with: 0 1 1 0 0 0 0  and 2 1 1 0 0 0 0 
 # max = 17201
1839625		 # 	collision with: 1 1 2 0 0 0 0  and 1 3 2 0 0 0 0 
 # max = 17201
1839649		 # 	collision with: 4 6 0 0 0 0 0  and 4 6 2 0 0 0 0 
 # max = 17201
1839651		 # 	collision with: 5 6 0 0 0 0 0  and 5 6 2 0 0 0 0 
 # max = 17201
1839653		 # 	collision with: 3 4 1 0 0 0 0  and 4 4 1 0 0 0 0 
 # max = 17201
1839655		 # 	collision with: 1 6 0 0 0 0 0  and 1 0 2 0 0 0 0 
 # max = 17201
1839656		 # 	collision with: 2 3 5 4 5 0 0  and 3 6 0 0 0 1 0 
 # max = 17201
1839658		 # 	collision with: 3 3 1 3 5 0 0  and 4 0 0 0 0 1 0 
 # max = 17201
1839691		 # 	collision with: 5 0 0 0 0 0 0  and 5 1 0 0 0 0 0 
 # max = 17201
1839693		 # 	collision with: 3 4 0 0 0 0 0  and 4 4 0 0 0 0 0 
 # max = 17201
1839695		 # 	collision with: 5 1 0 0 0 0 0  and 4 3 1 0 0 0 0 
 # max = 17201
1839717		 # 	collision with: 4 2 0 0 0 0 0  and 4 0 1 0 0 0 0 
 # max = 17201
1839719		 # 	collision with: 5 0 0 0 0 0 0  and 5 1 0 0 0 0 0 
 # max = 17201
1839733		 # 	collision with: 1 1 0 0 0 0 0  and 1 1 1 0 0 0 0 
 # max = 17201
1839735		 # 	collision with: 5 0 0 0 0 0 0  and 4 1 0 0 0 0 0 
 # max = 17201
1839805		 # 	collision with: 3 4 0 0 0 0 0  and 4 4 0 0 0 0 0 
 # max = 17201
1839821		 # 	collision with: 2 0 0 0 0 0 0  and 2 1 0 0 0 0 0 
 # max = 17201
1839823		 # 	collision with: 0 1 0 0 0 0 0  and 2 1 0 0 0 0 0 
 # max = 17201
1839847		 # 	collision with: 5 0 0 0 0 0 0  and 4 1 0 0 0 0 0 
 # max = 17201
1839849		 # 	collision with: 2 0 0 0 0 0 0  and 2 1 0 0 0 0 0 
 # max = 17201
1839851		 # 	collision with: 0 1 0 0 0 0 0  and 2 1 0 0 0 0 0 
 # max = 17201
1839897		 # 	collision with: 3 2 3 0 0 0 0  and 3 2 4 0 0 0 0 
 # max = 17201
1839899		 # 	collision with: 2 1 1 0 0 0 0  and 2 2 1 0 0 0 0 
 # max = 17201
1839905		 # 	collision with: 4 0 2 0 0 0 0  and 4 2 2 0 0 0 0 
 # max = 17201
1839907		 # 	collision with: 5 0 1 0 0 0 0  and 5 1 1 0 0 0 0 
 # max = 17201
1839909		 # 	collision with: 3 4 0 0 0 0 0  and 4 4 0 0 0 0 0 
 # max = 17201
1839911		 # 	collision with: 2 6 3 0 0 0 0  and 2 4 4 0 0 0 0 
 # max = 17201
1839933		 # 	collision with: 6 0 2 0 0 0 0  and 1 2 2 0 0 0 0 
 # max = 17201
1839993		 # 	collision with: 3 4 0 0 0 0 0  and 4 4 0 0 0 0 0 
 # max = 17201
1839995		 # 	collision with: 0 0 1 0 0 0 0  and 2 0 1 0 0 0 0 
 # max = 17201
1839997		 # 	collision with: 3 4 2 0 0 0 0  and 4 4 2 0 0 0 0 
 # max = 17201
1840025		 # 	collision with: 2 1 3 0 0 0 0  and 2 1 4 0 0 0 0 
 # max = 17201
1840027		 # 	collision with: 0 0 2 0 0 0 0  and 2 0 2 0 0 0 0 
 # max = 17201
1840033		 # 	collision with: 6 0 4 0 0 0 0  and 1 2 4 0 0 0 0 
 # max = 17201
1840035		 # 	collision with: 0 0 2 0 0 0 0  and 2 0 2 0 0 0 0 
 # max = 17201
1840048		 # 	collision with: 4 2 2 5 3 0 0  and 5 6 0 0 0 1 0 
 # max = 17201
1840050		 # 	collision with: 5 1 6 6 3 0 0  and 3 3 0 0 0 1 0 
 # max = 17201
1840093		 # 	collision with: 5 2 0 0 0 0 0  and 2 4 0 0 0 0 0 
 # max = 17201
1840095		 # 	collision with: 4 0 3 0 0 0 0  and 5 1 3 0 0 0 0 
 # max = 17201
1840101		 # 	collision with: 3 4 3 0 0 0 0  and 4 4 3 0 0 0 0 
 # max = 17201
1840103		 # 	collision with: 4 0 2 0 0 0 0  and 5 1 2 0 0 0 0 
 # max = 17201
1840105		 # 	collision with: 3 4 3 0 0 0 0  and 4 4 3 0 0 0 0 
 # max = 17201
1840107		 # 	collision with: 0 0 2 0 0 0 0  and 2 0 2 0 0 0 0 
 # max = 17201
1840129		 # 	collision with: 3 2 2 0 0 0 0  and 3 2 4 0 0 0 0 
 # max = 17201
1840131		 # 	collision with: 0 0 2 0 0 0 0  and 2 0 2 0 0 0 0 
 # max = 17201
1840189		 # 	collision with: 5 2 2 0 0 0 0  and 2 4 2 0 0 0 0 
 # max = 17201
1840191		 # 	collision with: 0 0 5 0 0 0 0  and 2 0 5 0 0 0 0 
 # max = 17201
1840193		 # 	collision with: 5 2 0 0 0 0 0  and 5 4 0 0 0 0 0 
 # max = 17201
1840195		 # 	collision with: 2 3 2 0 0 0 0  and 2 0 4 0 0 0 0 
 # max = 17201
1840221		 # 	collision with: 5 2 0 0 0 0 0  and 5 4 0 0 0 0 0 
 # max = 17201
1840223		 # 	collision with: 3 1 2 0 0 0 0  and 6 3 2 0 0 0 0 
 # max = 17201
1840229		 # 	collision with: 4 4 2 0 0 0 0  and 3 4 4 0 0 0 0 
 # max = 17201
1840231		 # 	collision with: 0 0 3 0 0 0 0  and 2 0 3 0 0 0 0 
 # max = 17201
1840244		 # 	collision with: 2 4 1 3 5 0 0  and 1 1 0 0 0 1 0 
 # max = 17201
1840246		 # 	collision with: 3 6 5 0 5 0 0  and 2 2 3 0 0 1 0 
 # max = 17201
1840289		 # 	collision with: 5 4 2 0 0 0 0  and 2 4 3 0 0 0 0 
 # max = 17201
1840291		 # 	collision with: 4 1 2 0 0 0 0  and 4 3 2 0 0 0 0 
 # max = 17201
1840297		 # 	collision with: 3 4 2 0 0 0 0  and 4 4 2 0 0 0 0 
 # max = 17201
1840303		 # 	collision with: 6 2 1 0 0 0 0  and 6 3 1 0 0 0 0 
 # max = 17201
1840325		 # 	collision with: 3 4 1 0 0 0 0  and 4 4 1 0 0 0 0 
 # max = 17201
1840327		 # 	collision with: 0 2 0 0 0 0 0  and 2 3 0 0 0 0 0 
 # max = 17201
1840385		 # 	collision with: 3 2 1 0 0 0 0  and 3 3 1 0 0 0 0 
 # max = 17201
1840387		 # 	collision with: 6 2 1 0 0 0 0  and 6 3 1 0 0 0 0 
 # max = 17201
1840391		 # 	collision with: 4 1 1 0 0 0 0  and 4 3 1 0 0 0 0 
 # max = 17201
1840417		 # 	collision with: 6 1 2 0 0 0 0  and 6 2 2 0 0 0 0 
 # max = 17201
1840419		 # 	collision with: 4 1 1 0 0 0 0  and 4 3 1 0 0 0 0 
 # max = 17201
1840425		 # 	collision with: 3 2 0 0 0 0 0  and 3 3 0 0 0 0 0 
 # max = 17201
1840427		 # 	collision with: 2 3 2 0 0 0 0  and 2 0 3 0 0 0 0 
 # max = 17201
1840440		 # 	collision with: 6 4 6 0 1 0 0  and 0 1 0 0 0 1 0 
 # max = 17201
1840442		 # 	collision with: 5 2 2 5 1 0 0  and 0 4 1 0 0 1 0 
 # max = 17201
1840493		 # 	collision with: 1 1 0 0 0 0 0  and 1 3 0 0 0 0 0 
 # max = 17201
1840495		 # 	collision with: 0 0 2 0 0 0 0  and 2 0 2 0 0 0 0 
 # max = 17201
1840497		 # 	collision with: 3 4 2 0 0 0 0  and 4 4 2 0 0 0 0 
 # max = 17201
1840521		 # 	collision with: 1 1 0 0 0 0 0  and 1 3 0 0 0 0 0 
 # max = 17201
1840523		 # 	collision with: 0 0 1 0 0 0 0  and 2 0 1 0 0 0 0 
 # max = 17201
1840581		 # 	collision with: 1 1 3 0 0 0 0  and 1 3 3 0 0 0 0 
 # max = 17201
1840583		 # 	collision with: 4 1 3 0 0 0 0  and 4 3 3 0 0 0 0 
 # max = 17201
1840585		 # 	collision with: 3 4 0 0 0 0 0  and 4 4 0 0 0 0 0 
 # max = 17201
1840587		 # 	collision with: 5 0 3 0 0 0 0  and 5 1 3 0 0 0 0 
 # max = 17201
1840615		 # 	collision with: 5 0 3 0 0 0 0  and 5 1 3 0 0 0 0 
 # max = 17201
1840621		 # 	collision with: 4 1 0 0 0 0 0  and 3 3 0 0 0 0 0 
 # max = 17201
1840623		 # 	collision with: 3 2 1 0 0 0 0  and 3 2 3 0 0 0 0 
 # max = 17201
1840636		 # 	collision with: 1 5 3 3 6 0 0  and 4 0 0 0 0 1 0 
 # max = 17201
1840638		 # 	collision with: 0 6 1 5 6 0 0  and 4 3 0 0 0 1 0 
 # max = 17201
1840681		 # 	collision with: 6 1 0 0 0 0 0  and 6 2 0 0 0 0 0 
 # max = 17201
1840683		 # 	collision with: 0 0 1 0 0 0 0  and 2 0 1 0 0 0 0 
 # max = 17201
1840691		 # 	collision with: 0 0 1 0 0 0 0  and 2 0 1 0 0 0 0 
 # max = 17201
1840693		 # 	collision with: 4 1 0 0 0 0 0  and 3 2 0 0 0 0 0 
 # max = 17201
1840695		 # 	collision with: 3 4 1 0 0 0 0  and 3 3 2 0 0 0 0 
 # max = 17201
1840717		 # 	collision with: 3 4 0 0 0 0 0  and 4 4 0 0 0 0 0 
 # max = 17201
1840719		 # 	collision with: 6 4 1 0 0 0 0  and 6 1 2 0 0 0 0 
 # max = 17201
1840777		 # 	collision with: 4 1 0 0 0 0 0  and 3 2 0 0 0 0 0 
 # max = 17201
1840781		 # 	collision with: 4 3 1 0 0 0 0  and 4 3 2 0 0 0 0 
 # max = 17201
1840783		 # 	collision with: 4 0 2 0 0 0 0  and 5 1 2 0 0 0 0 
 # max = 17201
1840809		 # 	collision with: 3 4 1 0 0 0 0  and 4 4 1 0 0 0 0 
 # max = 17201
1840811		 # 	collision with: 2 3 1 0 0 0 0  and 2 3 2 0 0 0 0 
 # max = 17201
1840832		 # 	collision with: 5 5 6 2 2 0 0  and 0 1 3 0 0 1 0 
 # max = 17201
1840834		 # 	collision with: 2 4 5 5 2 0 0  and 3 0 0 0 0 1 0 
 # max = 17201
1840877		 # 	collision with: 3 4 0 0 0 0 0  and 4 4 0 0 0 0 0 
 # max = 17201
1840879		 # 	collision with: 0 0 0 0 0 0 0  and 2 0 0 0 0 0 0 
 # max = 17201
1840885		 # 	collision with: 6 1 1 0 0 0 0  and 6 2 1 0 0 0 0 
 # max = 17201
1840887		 # 	collision with: 0 0 0 0 0 0 0  and 2 0 0 0 0 0 0 
 # max = 17201
1840889		 # 	collision with: 4 0 0 0 0 0 0  and 4 2 0 0 0 0 0 
 # max = 17201
1840891		 # 	collision with: 0 0 0 0 0 0 0  and 2 0 0 0 0 0 0 
 # max = 17201
1840915		 # 	collision with: 0 0 0 0 0 0 0  and 2 0 0 0 0 0 0 
 # max = 17201
1840975		 # 	collision with: 0 0 0 0 0 0 0  and 2 0 0 0 0 0 0 
 # max = 17201
1840977		 # 	collision with: 2 0 1 0 0 0 0  and 2 1 1 0 0 0 0 
 # max = 17201
1840979		 # 	collision with: 0 0 0 0 0 0 0  and 2 0 0 0 0 0 0 
 # max = 17201
1841005		 # 	collision with: 2 0 1 0 0 0 0  and 2 1 1 0 0 0 0 
 # max = 17201
1841013		 # 	collision with: 6 0 0 0 0 0 0  and 6 0 2 0 0 0 0 
 # max = 17201
1841015		 # 	collision with: 0 0 0 0 0 0 0  and 2 0 0 0 0 0 0 
 # max = 17201
1841028		 # 	collision with: 2 5 4 1 4 0 0  and 4 0 1 0 0 1 0 
 # max = 17201
1841030		 # 	collision with: 4 4 4 0 4 0 0  and 1 3 1 0 0 1 0 
 # max = 17201
1841073		 # 	collision with: 2 1 0 0 0 0 0  and 2 1 1 0 0 0 0 
 # max = 17201
1841075		 # 	collision with: 1 1 0 0 0 0 0  and 1 1 1 0 0 0 0 
 # max = 17201
1841081		 # 	collision with: 5 3 0 0 0 0 0  and 5 3 1 0 0 0 0 
 # max = 17201
1841083		 # 	collision with: 2 0 1 0 0 0 0  and 0 2 1 0 0 0 0 
 # max = 17201
1841085		 # 	collision with: 1 2 0 0 0 0 0  and 6 3 1 0 0 0 0 
 # max = 17201
1841087		 # 	collision with: 0 2 0 0 0 0 0  and 2 3 1 0 0 0 0 
 # max = 17201
1841109		 # 	collision with: 6 3 0 0 0 0 0  and 6 3 1 0 0 0 0 
 # max = 17201
1841111		 # 	collision with: 6 2 0 0 0 0 0  and 3 1 1 0 0 0 0 
 # max = 17201
1841169		 # 	collision with: 5 4 0 0 0 0 0  and 5 2 1 0 0 0 0 
 # max = 17201
1841171		 # 	collision with: 5 0 2 0 0 0 0  and 5 1 2 0 0 0 0 
 # max = 17201
1841173		 # 	collision with: 4 0 0 0 0 0 0  and 4 2 1 0 0 0 0 
 # max = 17201
1841175		 # 	collision with: 6 4 0 0 0 0 0  and 6 4 1 0 0 0 0 
 # max = 17201
1841201		 # 	collision with: 5 4 0 0 0 0 0  and 2 4 1 0 0 0 0 
 # max = 17201
1841203		 # 	collision with: 0 0 1 0 0 0 0  and 2 0 1 0 0 0 0 
 # max = 17201
1841209		 # 	collision with: 4 5 0 0 0 0 0  and 3 1 1 0 0 0 0 
 # max = 17201
1841211		 # 	collision with: 0 0 1 0 0 0 0  and 2 0 1 0 0 0 0 
 # max = 17201
1841224		 # 	collision with: 4 1 0 0 0 0 0  and 3 2 0 0 0 0 0 
 # max = 17201
1841225		 # 	collision with: 3 4 0 0 0 0 0  and 4 4 0 0 0 0 0 
 # max = 17201
1841226		 # 	collision with: 2 1 0 0 0 0 0  and 2 2 0 0 0 0 0 
 # max = 17201
1841227		 # 	collision with: 0 3 2 0 0 0 0  and 2 4 2 0 0 0 0 
 # max = 17201
1841272		 # 	collision with: 2 0 0 0 0 0 0  and 2 1 0 0 0 0 0 
 # max = 17201
1841273		 # 	collision with: 3 4 1 0 0 0 0  and 4 4 1 0 0 0 0 
 # max = 17201
1841274		 # 	collision with: 3 3 0 0 0 0 0  and 3 4 0 0 0 0 0 
 # max = 17201
1841275		 # 	collision with: 3 3 0 0 0 0 0  and 3 4 0 0 0 0 0 
 # max = 17201
1841292		 # 	collision with: 4 0 0 0 0 0 0  and 4 2 0 0 0 0 0 
 # max = 17201
1841293		 # 	collision with: 3 4 1 0 0 0 0  and 4 4 1 0 0 0 0 
 # max = 17201
1841294		 # 	collision with: 5 0 0 0 0 0 0  and 4 2 0 0 0 0 0 
 # max = 17201
1841295		 # 	collision with: 5 5 3 0 0 0 0  and 5 5 4 0 0 0 0 
 # max = 17201
1841312		 # 	collision with: 5 2 0 0 0 0 0  and 2 4 0 0 0 0 0 
 # max = 17201
1841313		 # 	collision with: 3 4 1 0 0 0 0  and 4 4 1 0 0 0 0 
 # max = 17201
1841314		 # 	collision with: 0 3 0 0 0 0 0  and 2 4 0 0 0 0 0 
 # max = 17201
1841315		 # 	collision with: 0 6 2 0 0 0 0  and 2 6 2 0 0 0 0 
 # max = 17201
1841360		 # 	collision with: 3 2 0 0 0 0 0  and 3 3 0 0 0 0 0 
 # max = 17201
1841361		 # 	collision with: 3 4 1 0 0 0 0  and 4 4 1 0 0 0 0 
 # max = 17201
1841362		 # 	collision with: 1 2 0 0 0 0 0  and 1 4 0 0 0 0 0 
 # max = 17201
1841363		 # 	collision with: 0 6 1 0 0 0 0  and 2 6 1 0 0 0 0 
 # max = 17201
1841380		 # 	collision with: 5 2 0 0 0 0 0  and 5 4 0 0 0 0 0 
 # max = 17201
1841381		 # 	collision with: 3 4 1 0 0 0 0  and 4 4 1 0 0 0 0 
 # max = 17201
1841382		 # 	collision with: 4 1 0 0 0 0 0  and 4 3 0 0 0 0 0 
 # max = 17201
1841383		 # 	collision with: 0 3 0 0 0 0 0  and 2 4 0 0 0 0 0 
 # max = 17201
1841400		 # 	collision with: 1 1 0 0 0 0 0  and 1 3 0 0 0 0 0 
 # max = 17201
1841401		 # 	collision with: 3 4 1 0 0 0 0  and 4 4 1 0 0 0 0 
 # max = 17201
1841402		 # 	collision with: 5 0 0 0 0 0 0  and 5 1 0 0 0 0 0 
 # max = 17201
1841403		 # 	collision with: 0 6 0 0 0 0 0  and 2 6 0 0 0 0 0 
 # max = 17201
1841420		 # 	collision with: 3 2 6 4 4 0 0  and 2 2 1 0 0 1 0 
 # max = 17201
1841421		 # 	collision with: 5 2 2 0 0 0 0  and 2 4 2 0 0 0 0 
 # max = 17201
1841422		 # 	collision with: 1 4 5 5 4 0 0  and 4 2 0 0 0 1 0 
 # max = 17201
1841423		 # 	collision with: 1 2 3 0 0 0 0  and 1 4 3 0 0 0 0 
 # max = 17201
1841468		 # 	collision with: 3 4 0 0 0 0 0  and 4 4 0 0 0 0 0 
 # max = 17201
1841469		 # 	collision with: 3 4 0 0 0 0 0  and 4 4 0 0 0 0 0 
 # max = 17201
1841470		 # 	collision with: 1 2 4 0 0 0 0  and 1 4 4 0 0 0 0 
 # max = 17201
1841471		 # 	collision with: 2 1 2 0 0 0 0  and 2 2 2 0 0 0 0 
 # max = 17201
1841488		 # 	collision with: 2 0 2 0 0 0 0  and 2 1 2 0 0 0 0 
 # max = 17201
1841489		 # 	collision with: 5 2 0 0 0 0 0  and 2 4 0 0 0 0 0 
 # max = 17201
1841490		 # 	collision with: 0 6 1 0 0 0 0  and 2 6 1 0 0 0 0 
 # max = 17201
1841491		 # 	collision with: 0 6 0 0 0 0 0  and 2 6 0 0 0 0 0 
 # max = 17201
1841508		 # 	collision with: 3 4 3 0 0 0 0  and 4 4 3 0 0 0 0 
 # max = 17201
1841509		 # 	collision with: 3 4 3 0 0 0 0  and 4 4 3 0 0 0 0 
 # max = 17201
1841510		 # 	collision with: 0 6 0 0 0 0 0  and 2 6 0 0 0 0 0 
 # max = 17201
1841511		 # 	collision with: 0 1 2 0 0 0 0  and 2 3 2 0 0 0 0 
 # max = 17201
1841556		 # 	collision with: 4 0 1 0 0 0 0  and 4 2 1 0 0 0 0 
 # max = 17201
1841557		 # 	collision with: 1 2 2 0 0 0 0  and 6 0 4 0 0 0 0 
 # max = 17201
1841558		 # 	collision with: 2 1 1 0 0 0 0  and 2 2 1 0 0 0 0 
 # max = 17201
1841559		 # 	collision with: 1 2 0 0 0 0 0  and 1 4 0 0 0 0 0 
 # max = 17201
1841576		 # 	collision with: 6 0 5 0 0 0 0  and 1 2 5 0 0 0 0 
 # max = 17201
1841577		 # 	collision with: 5 2 0 0 0 0 0  and 5 4 0 0 0 0 0 
 # max = 17201
1841578		 # 	collision with: 0 6 2 0 0 0 0  and 2 6 2 0 0 0 0 
 # max = 17201
1841579		 # 	collision with: 0 6 3 0 0 0 0  and 2 6 3 0 0 0 0 
 # max = 17201
1841596		 # 	collision with: 3 4 2 0 0 0 0  and 4 4 2 0 0 0 0 
 # max = 17201
1841597		 # 	collision with: 6 0 2 0 0 0 0  and 1 2 2 0 0 0 0 
 # max = 17201
1841598		 # 	collision with: 2 0 3 0 0 0 0  and 0 1 3 0 0 0 0 
 # max = 17201
1841599		 # 	collision with: 0 6 1 0 0 0 0  and 2 6 1 0 0 0 0 
 # max = 17201
1841616		 # 	collision with: 0 0 5 3 2 0 0  and 5 1 3 0 0 1 0 
 # max = 17201
1841617		 # 	collision with: 3 2 2 0 0 0 0  and 3 3 2 0 0 0 0 
 # max = 17201
1841618		 # 	collision with: 1 3 5 1 2 0 0  and 3 5 0 1 0 1 0 
 # max = 17201
1841619		 # 	collision with: 6 2 2 0 0 0 0  and 6 3 2 0 0 0 0 
 # max = 17201
1841664		 # 	collision with: 5 2 1 0 0 0 0  and 5 4 1 0 0 0 0 
 # max = 17201
1841665		 # 	collision with: 4 1 3 0 0 0 0  and 3 3 3 0 0 0 0 
 # max = 17201
1841666		 # 	collision with: 2 0 1 0 0 0 0  and 0 1 1 0 0 0 0 
 # max = 17201
1841667		 # 	collision with: 0 6 1 0 0 0 0  and 2 6 1 0 0 0 0 
 # max = 17201
1841684		 # 	collision with: 3 4 0 0 0 0 0  and 4 4 0 0 0 0 0 
 # max = 17201
1841685		 # 	collision with: 3 4 0 0 0 0 0  and 4 4 0 0 0 0 0 
 # max = 17201
1841686		 # 	collision with: 2 1 4 0 0 0 0  and 2 2 4 0 0 0 0 
 # max = 17201
1841687		 # 	collision with: 6 2 0 0 0 0 0  and 6 3 0 0 0 0 0 
 # max = 17201
1841704		 # 	collision with: 3 4 5 0 0 0 0  and 4 4 5 0 0 0 0 
 # max = 17201
1841705		 # 	collision with: 4 1 1 0 0 0 0  and 3 3 1 0 0 0 0 
 # max = 17201
1841706		 # 	collision with: 0 6 2 0 0 0 0  and 2 6 2 0 0 0 0 
 # max = 17201
1841707		 # 	collision with: 6 4 2 0 0 0 0  and 6 4 3 0 0 0 0 
 # max = 17201
1841752		 # 	collision with: 5 2 2 0 0 0 0  and 5 4 2 0 0 0 0 
 # max = 17201
1841753		 # 	collision with: 3 2 0 0 0 0 0  and 3 3 0 0 0 0 0 
 # max = 17201
1841754		 # 	collision with: 0 6 1 0 0 0 0  and 2 6 1 0 0 0 0 
 # max = 17201
1841755		 # 	collision with: 3 3 2 0 0 0 0  and 3 4 2 0 0 0 0 
 # max = 17201
1841772		 # 	collision with: 3 4 2 0 0 0 0  and 4 4 2 0 0 0 0 
 # max = 17201
1841773		 # 	collision with: 1 2 0 0 0 0 0  and 6 3 0 0 0 0 0 
 # max = 17201
1841774		 # 	collision with: 2 1 3 0 0 0 0  and 2 2 3 0 0 0 0 
 # max = 17201
1841775		 # 	collision with: 0 6 0 0 0 0 0  and 2 6 0 0 0 0 0 
 # max = 17201
1841792		 # 	collision with: 3 4 3 0 0 0 0  and 4 4 3 0 0 0 0 
 # max = 17201
1841793		 # 	collision with: 6 1 1 0 0 0 0  and 6 2 1 0 0 0 0 
 # max = 17201
1841794		 # 	collision with: 0 6 0 0 0 0 0  and 2 6 0 0 0 0 0 
 # max = 17201
1841795		 # 	collision with: 0 6 2 0 0 0 0  and 2 6 2 0 0 0 0 
 # max = 17201
1841812		 # 	collision with: 4 2 3 6 6 0 0  and 1 2 2 0 0 1 0 
 # max = 17201
1841813		 # 	collision with: 4 1 0 0 0 0 0  and 3 3 0 0 0 0 0 
 # max = 17201
1841814		 # 	collision with: 5 6 0 4 6 0 0  and 0 0 0 0 0 1 0 
 # max = 17201
1841815		 # 	collision with: 4 1 1 0 0 0 0  and 4 3 1 0 0 0 0 
 # max = 17201
1841860		 # 	collision with: 3 2 5 0 0 0 0  and 3 3 5 0 0 0 0 
 # max = 17201
1841861		 # 	collision with: 5 2 1 0 0 0 0  and 5 4 1 0 0 0 0 
 # max = 17201
1841862		 # 	collision with: 0 6 2 0 0 0 0  and 2 6 2 0 0 0 0 
 # max = 17201
1841863		 # 	collision with: 0 6 0 0 0 0 0  and 2 6 0 0 0 0 0 
 # max = 17201
1841880		 # 	collision with: 3 4 3 0 0 0 0  and 4 4 3 0 0 0 0 
 # max = 17201
1841881		 # 	collision with: 5 3 1 0 0 0 0  and 5 3 3 0 0 0 0 
 # max = 17201
1841882		 # 	collision with: 0 6 0 0 0 0 0  and 2 6 0 0 0 0 0 
 # max = 17201
1841883		 # 	collision with: 5 0 1 0 0 0 0  and 5 1 1 0 0 0 0 
 # max = 17201
1841900		 # 	collision with: 3 4 0 0 0 0 0  and 4 4 0 0 0 0 0 
 # max = 17201
1841901		 # 	collision with: 3 4 0 0 0 0 0  and 4 4 0 0 0 0 0 
 # max = 17201
1841902		 # 	collision with: 0 6 4 0 0 0 0  and 2 6 4 0 0 0 0 
 # max = 17201
1841903		 # 	collision with: 0 6 1 0 0 0 0  and 2 6 1 0 0 0 0 
 # max = 17201
1841948		 # 	collision with: 3 4 2 0 0 0 0  and 4 4 2 0 0 0 0 
 # max = 17201
1841949		 # 	collision with: 5 2 2 0 0 0 0  and 2 4 2 0 0 0 0 
 # max = 17201
1841950		 # 	collision with: 5 0 3 0 0 0 0  and 4 2 3 0 0 0 0 
 # max = 17201
1841951		 # 	collision with: 0 1 0 0 0 0 0  and 2 3 0 0 0 0 0 
 # max = 17201
1841968		 # 	collision with: 2 0 1 0 0 0 0  and 2 1 1 0 0 0 0 
 # max = 17201
1841969		 # 	collision with: 6 1 2 0 0 0 0  and 6 2 2 0 0 0 0 
 # max = 17201
1841970		 # 	collision with: 1 2 1 0 0 0 0  and 1 4 1 0 0 0 0 
 # max = 17201
1841971		 # 	collision with: 4 1 0 0 0 0 0  and 4 3 0 0 0 0 0 
 # max = 17201
1841988		 # 	collision with: 4 1 2 0 0 0 0  and 3 2 2 0 0 0 0 
 # max = 17201
1841989		 # 	collision with: 1 1 0 0 0 0 0  and 1 3 0 0 0 0 0 
 # max = 17201
1841990		 # 	collision with: 0 6 1 0 0 0 0  and 2 6 1 0 0 0 0 
 # max = 17201
1841991		 # 	collision with: 1 1 1 0 0 0 0  and 1 1 3 0 0 0 0 
 # max = 17201
1842008		 # 	collision with: 1 1 0 5 1 0 0  and 4 4 0 0 0 1 0 
 # max = 17201
1842009		 # 	collision with: 6 1 0 0 0 0 0  and 6 2 0 0 0 0 0 
 # max = 17201
1842010		 # 	collision with: 0 0 0 0 1 0 0  and 5 6 1 0 0 1 0 
 # max = 17201
1842011		 # 	collision with: 2 1 0 0 0 0 0  and 2 2 0 0 0 0 0 
 # max = 17201
1842056		 # 	collision with: 1 1 2 0 0 0 0  and 1 3 2 0 0 0 0 
 # max = 17201
1842057		 # 	collision with: 5 0 1 0 0 0 0  and 5 0 2 0 0 0 0 
 # max = 17201
1842058		 # 	collision with: 0 6 1 0 0 0 0  and 2 6 1 0 0 0 0 
 # max = 17201
1842059		 # 	collision with: 6 2 1 0 0 0 0  and 6 3 1 0 0 0 0 
 # max = 17201
1842076		 # 	collision with: 3 2 1 0 0 0 0  and 3 3 1 0 0 0 0 
 # max = 17201
1842077		 # 	collision with: 6 0 1 0 0 0 0  and 6 0 2 0 0 0 0 
 # max = 17201
1842078		 # 	collision with: 5 0 1 0 0 0 0  and 5 1 1 0 0 0 0 
 # max = 17201
1842079		 # 	collision with: 2 0 1 0 0 0 0  and 2 0 2 0 0 0 0 
 # max = 17201
1842096		 # 	collision with: 3 4 2 0 0 0 0  and 4 4 2 0 0 0 0 
 # max = 17201
1842097		 # 	collision with: 4 0 1 0 0 0 0  and 4 0 2 0 0 0 0 
 # max = 17201
1842098		 # 	collision with: 0 6 6 0 0 0 0  and 2 6 6 0 0 0 0 
 # max = 17201
1842099		 # 	collision with: 5 0 1 0 0 0 0  and 4 2 1 0 0 0 0 
 # max = 17201
1842144		 # 	collision with: 3 4 0 0 0 0 0  and 4 4 0 0 0 0 0 
 # max = 17201
1842145		 # 	collision with: 3 4 0 0 0 0 0  and 4 4 0 0 0 0 0 
 # max = 17201
1842146		 # 	collision with: 2 0 4 0 0 0 0  and 0 1 4 0 0 0 0 
 # max = 17201
1842147		 # 	collision with: 0 6 0 0 0 0 0  and 2 6 0 0 0 0 0 
 # max = 17201
1842164		 # 	collision with: 3 4 3 0 0 0 0  and 4 4 3 0 0 0 0 
 # max = 17201
1842165		 # 	collision with: 1 0 1 0 0 0 0  and 1 0 2 0 0 0 0 
 # max = 17201
1842166		 # 	collision with: 0 6 0 0 0 0 0  and 2 6 0 0 0 0 0 
 # max = 17201
1842167		 # 	collision with: 1 2 1 0 0 0 0  and 1 4 1 0 0 0 0 
 # max = 17201
1842184		 # 	collision with: 5 2 5 0 0 0 0  and 2 4 5 0 0 0 0 
 # max = 17201
1842185		 # 	collision with: 4 1 0 0 0 0 0  and 3 2 0 0 0 0 0 
 # max = 17201
1842186		 # 	collision with: 0 6 2 0 0 0 0  and 2 6 2 0 0 0 0 
 # max = 17201
1842187		 # 	collision with: 5 1 0 0 0 0 0  and 4 2 0 0 0 0 0 
 # max = 17201
1842204		 # 	collision with: 1 6 5 6 5 0 0  and 2 4 1 0 0 1 0 
 # max = 17201
1842205		 # 	collision with: 6 0 0 0 0 0 0  and 1 2 0 0 0 0 0 
 # max = 17201
1842206		 # 	collision with: 3 2 3 2 5 0 0  and 1 3 0 0 0 1 0 
 # max = 17201
1842207		 # 	collision with: 0 6 0 0 0 0 0  and 2 6 0 0 0 0 0 
 # max = 17201
1842252		 # 	collision with: 3 4 3 0 0 0 0  and 4 4 3 0 0 0 0 
 # max = 17201
1842253		 # 	collision with: 6 1 0 0 0 0 0  and 6 1 2 0 0 0 0 
 # max = 17201
1842254		 # 	collision with: 0 6 0 0 0 0 0  and 2 6 0 0 0 0 0 
 # max = 17201
1842255		 # 	collision with: 5 1 0 0 0 0 0  and 5 1 2 0 0 0 0 
 # max = 17201
1842272		 # 	collision with: 3 4 2 0 0 0 0  and 4 4 2 0 0 0 0 
 # max = 17201
1842273		 # 	collision with: 4 0 0 0 0 0 0  and 4 2 0 0 0 0 0 
 # max = 17201
1842274		 # 	collision with: 3 3 3 0 0 0 0  and 3 4 3 0 0 0 0 
 # max = 17201
1842275		 # 	collision with: 5 0 0 0 0 0 0  and 4 2 0 0 0 0 0 
 # max = 17201
1842292		 # 	collision with: 3 4 4 0 0 0 0  and 4 4 4 0 0 0 0 
 # max = 17201
1842293		 # 	collision with: 1 1 0 0 0 0 0  and 1 3 2 0 0 0 0 
 # max = 17201
1842294		 # 	collision with: 0 6 1 0 0 0 0  and 2 6 1 0 0 0 0 
 # max = 17201
1842295		 # 	collision with: 2 0 1 0 0 0 0  and 0 1 1 0 0 0 0 
 # max = 17201
1842340		 # 	collision with: 1 1 5 0 0 0 0  and 1 3 5 0 0 0 0 
 # max = 17201
1842341		 # 	collision with: 1 2 0 0 0 0 0  and 1 2 2 0 0 0 0 
 # max = 17201
1842342		 # 	collision with: 0 6 2 0 0 0 0  and 2 6 2 0 0 0 0 
 # max = 17201
1842343		 # 	collision with: 2 1 1 0 0 0 0  and 2 2 1 0 0 0 0 
 # max = 17201
1842360		 # 	collision with: 3 4 0 0 0 0 0  and 4 4 0 0 0 0 0 
 # max = 17201
1842361		 # 	collision with: 3 4 0 0 0 0 0  and 4 4 0 0 0 0 0 
 # max = 17201
1842362		 # 	collision with: 6 2 4 0 0 0 0  and 6 3 4 0 0 0 0 
 # max = 17201
1842363		 # 	collision with: 5 0 2 0 0 0 0  and 5 1 2 0 0 0 0 
 # max = 17201
1842380		 # 	collision with: 6 1 1 0 0 0 0  and 6 2 1 0 0 0 0 
 # max = 17201
1842381		 # 	collision with: 5 2 0 0 0 0 0  and 2 4 2 0 0 0 0 
 # max = 17201
1842382		 # 	collision with: 3 3 1 0 0 0 0  and 3 4 1 0 0 0 0 
 # max = 17201
1842383		 # 	collision with: 3 3 1 0 0 0 0  and 3 4 1 0 0 0 0 
 # max = 17201
1842400		 # 	collision with: 3 3 1 4 3 0 0  and 0 6 0 0 0 1 0 
 # max = 17201
1842401		 # 	collision with: 4 3 0 0 0 0 0  and 4 6 1 0 0 0 0 
 # max = 17201
1842402		 # 	collision with: 4 1 1 3 3 0 0  and 1 0 2 0 0 1 0 
 # max = 17201
1842403		 # 	collision with: 1 2 0 0 0 0 0  and 1 4 1 0 0 0 0 
 # max = 17201
1842448		 # 	collision with: 3 4 2 0 0 0 0  and 4 4 2 0 0 0 0 
 # max = 17201
1842449		 # 	collision with: 2 0 0 0 0 0 0  and 2 1 0 0 0 0 0 
 # max = 17201
1842450		 # 	collision with: 5 0 3 0 0 0 0  and 5 1 3 0 0 0 0 
 # max = 17201
1842451		 # 	collision with: 6 6 0 0 0 0 0  and 3 1 1 0 0 0 0 
 # max = 17201
1842468		 # 	collision with: 4 1 5 0 0 0 0  and 3 2 5 0 0 0 0 
 # max = 17201
1842469		 # 	collision with: 1 1 0 0 0 0 0  and 1 1 1 0 0 0 0 
 # max = 17201
1842470		 # 	collision with: 0 6 2 0 0 0 0  and 2 6 2 0 0 0 0 
 # max = 17201
1842471		 # 	collision with: 4 1 0 0 0 0 0  and 4 1 1 0 0 0 0 
 # max = 17201
1842488		 # 	collision with: 6 0 1 0 0 0 0  and 1 2 1 0 0 0 0 
 # max = 17201
1842489		 # 	collision with: 4 4 0 0 0 0 0  and 3 1 1 0 0 0 0 
 # max = 17201
1842490		 # 	collision with: 5 0 1 0 0 0 0  and 4 2 1 0 0 0 0 
 # max = 17201
1842491		 # 	collision with: 0 6 0 0 0 0 0  and 2 6 0 0 0 0 0 
 # max = 17201
1842536		 # 	collision with: 3 4 3 0 0 0 0  and 4 4 3 0 0 0 0 
 # max = 17201
1842537		 # 	collision with: 4 0 1 0 0 0 0  and 4 2 1 0 0 0 0 
 # max = 17201
1842538		 # 	collision with: 0 6 0 0 0 0 0  and 2 6 0 0 0 0 0 
 # max = 17201
1842539		 # 	collision with: 4 1 0 0 0 0 0  and 4 3 1 0 0 0 0 
 # max = 17201
1842556		 # 	collision with: 6 1 2 0 0 0 0  and 6 2 2 0 0 0 0 
 # max = 17201
1842557		 # 	collision with: 4 0 0 0 0 0 0  and 4 2 1 0 0 0 0 
 # max = 17201
1842558		 # 	collision with: 0 6 1 0 0 0 0  and 2 6 1 0 0 0 0 
 # max = 17201
1842559		 # 	collision with: 5 0 0 0 0 0 0  and 4 2 1 0 0 0 0 
 # max = 17201
1842576		 # 	collision with: 3 4 0 0 0 0 0  and 4 4 0 0 0 0 0 
 # max = 17201
1842577		 # 	collision with: 3 4 0 0 0 0 0  and 4 4 0 0 0 0 0 
 # max = 17201
1842578		 # 	collision with: 0 1 4 0 0 0 0  and 2 3 4 0 0 0 0 
 # max = 17201
1842579		 # 	collision with: 5 0 0 0 0 0 0  and 5 1 0 0 0 0 0 
 # max = 17201
1842605		 # 	collision with: 1 2 1 0 0 0 0  and 6 3 1 0 0 0 0 
 # max = 17201
1842607		 # 	collision with: 5 0 3 0 0 0 0  and 5 1 3 0 0 0 0 
 # max = 17201
1842617		 # 	collision with: 4 4 3 0 0 0 0  and 3 1 4 0 0 0 0 
 # max = 17201
1842619		 # 	collision with: 3 3 0 0 0 0 0  and 3 4 0 0 0 0 0 
 # max = 17201
1842628		 # 	collision with: 2 0 0 0 0 0 0  and 2 1 0 0 0 0 0 
 # max = 17201
1842630		 # 	collision with: 6 0 0 0 0 0 0  and 3 2 0 0 0 0 0 
 # max = 17201
1842632		 # 	collision with: 4 1 0 0 0 0 0  and 3 2 0 0 0 0 0 
 # max = 17201
1842634		 # 	collision with: 2 1 0 0 0 0 0  and 2 2 0 0 0 0 0 
 # max = 17201
1842660		 # 	collision with: 4 1 0 0 0 0 0  and 3 2 0 0 0 0 0 
 # max = 17201
1842662		 # 	collision with: 2 1 0 0 0 0 0  and 2 2 0 0 0 0 0 
 # max = 17201
1842668		 # 	collision with: 5 2 0 0 0 0 0  and 2 4 1 0 0 0 0 
 # max = 17201
1842670		 # 	collision with: 1 4 0 0 0 0 0  and 1 4 1 0 0 0 0 
 # max = 17201
1842681		 # 	collision with: 3 4 0 0 0 0 0  and 4 4 0 0 0 0 0 
 # max = 17201
1842689		 # 	collision with: 3 4 2 0 0 0 0  and 4 4 2 0 0 0 0 
 # max = 17201
1842691		 # 	collision with: 5 0 3 0 0 0 0  and 5 1 3 0 0 0 0 
 # max = 17201
1842692		 # 	collision with: 6 0 0 0 0 0 0  and 1 2 0 0 0 0 0 
 # max = 17201
1842694		 # 	collision with: 4 1 0 0 0 0 0  and 4 3 0 0 0 0 0 
 # max = 17201
1842704		 # 	collision with: 4 0 0 0 0 0 0  and 4 2 0 0 0 0 0 
 # max = 17201
1842706		 # 	collision with: 5 0 0 0 0 0 0  and 5 1 0 0 0 0 0 
 # max = 17201
1842709		 # 	collision with: 3 4 0 0 0 0 0  and 4 4 0 0 0 0 0 
 # max = 17201
1842712		 # 	collision with: 2 0 0 0 0 0 0  and 2 1 0 0 0 0 0 
 # max = 17201
1842714		 # 	collision with: 6 0 0 0 0 0 0  and 3 2 0 0 0 0 0 
 # max = 17201
1842724		 # 	collision with: 6 6 0 0 0 0 0  and 1 4 1 0 0 0 0 
 # max = 17201
1842726		 # 	collision with: 3 3 0 0 0 0 0  and 3 4 1 0 0 0 0 
 # max = 17201
1842729		 # 	collision with: 3 4 2 0 0 0 0  and 4 4 2 0 0 0 0 
 # max = 17201
1842731		 # 	collision with: 3 3 0 0 0 0 0  and 3 4 0 0 0 0 0 
 # max = 17201
1842748		 # 	collision with: 6 0 0 0 0 0 0  and 1 2 0 0 0 0 0 
 # max = 17201
1842750		 # 	collision with: 4 1 0 0 0 0 0  and 4 3 0 0 0 0 0 
 # max = 17201
1842756		 # 	collision with: 1 1 0 0 0 0 0  and 1 3 0 0 0 0 0 
 # max = 17201
1842758		 # 	collision with: 3 0 0 0 0 0 0  and 6 1 0 0 0 0 0 
 # max = 17201
1842784		 # 	collision with: 1 1 0 0 0 0 0  and 1 3 0 0 0 0 0 
 # max = 17201
1842786		 # 	collision with: 3 0 0 0 0 0 0  and 6 1 0 0 0 0 0 
 # max = 17201
1842788		 # 	collision with: 4 0 0 0 0 0 0  and 4 2 0 0 0 0 0 
 # max = 17201
1842790		 # 	collision with: 5 0 0 0 0 0 0  and 5 1 0 0 0 0 0 
 # max = 17201
1842792		 # 	collision with: 0 4 3 5 5 0 0  and 3 6 0 0 0 1 0 
 # max = 17201
1842794		 # 	collision with: 5 5 0 6 5 0 0  and 3 0 0 0 0 1 0 
 # max = 17201
1842801		 # 	collision with: 5 2 0 0 0 0 0  and 2 4 0 0 0 0 0 
 # max = 17201
1842815		 # 	collision with: 0 5 0 0 0 0 0  and 2 5 0 0 0 0 0 
 # max = 17201
1842824		 # 	collision with: 3 4 2 0 0 0 0  and 4 4 2 0 0 0 0 
 # max = 17201
1842826		 # 	collision with: 0 5 1 0 0 0 0  and 2 5 1 0 0 0 0 
 # max = 17201
1842828		 # 	collision with: 6 1 3 0 0 0 0  and 6 2 3 0 0 0 0 
 # max = 17201
1842856		 # 	collision with: 6 1 3 0 0 0 0  and 6 2 3 0 0 0 0 
 # max = 17201
1842864		 # 	collision with: 3 4 2 0 0 0 0  and 4 4 2 0 0 0 0 
 # max = 17201
1842866		 # 	collision with: 0 5 0 0 0 0 0  and 2 5 0 0 0 0 0 
 # max = 17201
1842877		 # 	collision with: 5 2 0 0 0 0 0  and 5 4 0 0 0 0 0 
 # max = 17201
1842879		 # 	collision with: 1 2 0 0 0 0 0  and 1 4 0 0 0 0 0 
 # max = 17201
1842885		 # 	collision with: 5 2 0 0 0 0 0  and 2 4 0 0 0 0 0 
 # max = 17201
1842888		 # 	collision with: 3 2 2 0 0 0 0  and 3 3 2 0 0 0 0 
 # max = 17201
1842890		 # 	collision with: 2 2 2 0 0 0 0  and 0 3 2 0 0 0 0 
 # max = 17201
1842902		 # 	collision with: 4 1 1 0 0 0 0  and 4 3 1 0 0 0 0 
 # max = 17201
1842905		 # 	collision with: 5 2 0 0 0 0 0  and 5 4 0 0 0 0 0 
 # max = 17201
1842907		 # 	collision with: 1 2 0 0 0 0 0  and 1 4 0 0 0 0 0 
 # max = 17201
1842908		 # 	collision with: 3 4 4 0 0 0 0  and 4 4 4 0 0 0 0 
 # max = 17201
1842910		 # 	collision with: 0 5 2 0 0 0 0  and 2 5 2 0 0 0 0 
 # max = 17201
1842922		 # 	collision with: 0 5 0 0 0 0 0  and 2 5 0 0 0 0 0 
 # max = 17201
1842925		 # 	collision with: 3 4 0 0 0 0 0  and 4 4 0 0 0 0 0 
 # max = 17201
1842927		 # 	collision with: 0 5 0 0 0 0 0  and 2 5 0 0 0 0 0 
 # max = 17201
1842944		 # 	collision with: 3 2 2 0 0 0 0  and 3 3 2 0 0 0 0 
 # max = 17201
1842946		 # 	collision with: 0 5 1 0 0 0 0  and 2 5 1 0 0 0 0 
 # max = 17201
1842952		 # 	collision with: 3 4 0 0 0 0 0  and 4 4 0 0 0 0 0 
 # max = 17201
1842954		 # 	collision with: 2 1 4 0 0 0 0  and 2 2 4 0 0 0 0 
 # max = 17201
1842980		 # 	collision with: 3 4 0 0 0 0 0  and 4 4 0 0 0 0 0 
 # max = 17201
1842982		 # 	collision with: 2 1 4 0 0 0 0  and 2 2 4 0 0 0 0 
 # max = 17201
1842984		 # 	collision with: 3 2 1 0 0 0 0  and 3 3 1 0 0 0 0 
 # max = 17201
1842986		 # 	collision with: 2 2 1 0 0 0 0  and 0 3 1 0 0 0 0 
 # max = 17201
1842988		 # 	collision with: 5 6 4 5 6 0 0  and 1 0 3 0 0 1 0 
 # max = 17201
1842990		 # 	collision with: 6 1 4 2 6 0 0  and 0 6 0 0 0 1 0 
 # max = 17201
1842997		 # 	collision with: 3 2 0 0 0 0 0  and 3 3 0 0 0 0 0 
 # max = 17201
1842999		 # 	collision with: 0 5 0 0 0 0 0  and 2 5 0 0 0 0 0 
 # max = 17201
1843009		 # 	collision with: 1 2 0 0 0 0 0  and 6 3 0 0 0 0 0 
 # max = 17201
1843011		 # 	collision with: 6 4 2 0 0 0 0  and 3 0 3 0 0 0 0 
 # max = 17201
1843022		 # 	collision with: 0 5 0 0 0 0 0  and 2 5 0 0 0 0 0 
 # max = 17201
1843024		 # 	collision with: 3 4 4 0 0 0 0  and 4 4 4 0 0 0 0 
 # max = 17201
1843026		 # 	collision with: 0 5 2 0 0 0 0  and 2 5 2 0 0 0 0 
 # max = 17201
1843052		 # 	collision with: 3 4 2 0 0 0 0  and 4 4 2 0 0 0 0 
 # max = 17201
1843054		 # 	collision with: 0 5 1 0 0 0 0  and 2 5 1 0 0 0 0 
 # max = 17201
1843060		 # 	collision with: 4 1 3 0 0 0 0  and 3 3 3 0 0 0 0 
 # max = 17201
1843073		 # 	collision with: 1 2 1 0 0 0 0  and 6 3 1 0 0 0 0 
 # max = 17201
1843075		 # 	collision with: 2 2 0 0 0 0 0  and 0 3 0 0 0 0 0 
 # max = 17201
1843081		 # 	collision with: 3 2 0 0 0 0 0  and 3 3 0 0 0 0 0 
 # max = 17201
1843083		 # 	collision with: 0 5 0 0 0 0 0  and 2 5 0 0 0 0 0 
 # max = 17201
1843084		 # 	collision with: 3 4 0 0 0 0 0  and 4 4 0 0 0 0 0 
 # max = 17201
1843086		 # 	collision with: 5 0 4 0 0 0 0  and 5 1 4 0 0 0 0 
 # max = 17201
1843096		 # 	collision with: 2 0 2 0 0 0 0  and 2 1 2 0 0 0 0 
 # max = 17201
1843098		 # 	collision with: 0 5 1 0 0 0 0  and 2 5 1 0 0 0 0 
 # max = 17201
1843101		 # 	collision with: 3 2 3 0 0 0 0  and 3 3 3 0 0 0 0 
 # max = 17201
1843103		 # 	collision with: 2 2 0 0 0 0 0  and 0 3 0 0 0 0 0 
 # max = 17201
1843104		 # 	collision with: 3 4 2 0 0 0 0  and 4 4 2 0 0 0 0 
 # max = 17201
1843106		 # 	collision with: 0 5 0 0 0 0 0  and 2 5 0 0 0 0 0 
 # max = 17201
1843116		 # 	collision with: 6 0 3 0 0 0 0  and 1 2 3 0 0 0 0 
 # max = 17201
1843121		 # 	collision with: 1 2 0 0 0 0 0  and 6 3 0 0 0 0 0 
 # max = 17201
1843123		 # 	collision with: 4 3 1 0 0 0 0  and 5 4 1 0 0 0 0 
 # max = 17201
1843140		 # 	collision with: 3 4 0 0 0 0 0  and 4 4 0 0 0 0 0 
 # max = 17201
1843142		 # 	collision with: 5 0 4 0 0 0 0  and 5 1 4 0 0 0 0 
 # max = 17201
1843148		 # 	collision with: 6 1 1 0 0 0 0  and 6 2 1 0 0 0 0 
 # max = 17201
1843150		 # 	collision with: 6 0 1 0 0 0 0  and 3 2 1 0 0 0 0 
 # max = 17201
1843178		 # 	collision with: 1 2 1 0 0 0 0  and 1 4 1 0 0 0 0 
 # max = 17201
1843180		 # 	collision with: 2 0 2 0 0 0 0  and 2 1 2 0 0 0 0 
 # max = 17201
1843182		 # 	collision with: 2 1 2 0 0 0 0  and 0 3 2 0 0 0 0 
 # max = 17201
1843184		 # 	collision with: 1 1 2 3 4 0 0  and 0 1 1 0 0 1 0 
 # max = 17201
1843186		 # 	collision with: 5 3 0 1 4 0 0  and 0 6 3 0 0 1 0 
 # max = 17201
1843193		 # 	collision with: 4 0 1 0 0 0 0  and 4 2 1 0 0 0 0 
 # max = 17201
1843195		 # 	collision with: 2 2 1 0 0 0 0  and 2 1 3 0 0 0 0 
 # max = 17201
1843205		 # 	collision with: 1 1 0 0 0 0 0  and 1 3 0 0 0 0 0 
 # max = 17201
1843207		 # 	collision with: 1 2 1 0 0 0 0  and 1 4 1 0 0 0 0 
 # max = 17201
1843216		 # 	collision with: 3 4 0 0 0 0 0  and 4 4 0 0 0 0 0 
 # max = 17201
1843218		 # 	collision with: 4 1 4 0 0 0 0  and 4 3 4 0 0 0 0 
 # max = 17201
1843220		 # 	collision with: 5 2 2 0 0 0 0  and 5 4 2 0 0 0 0 
 # max = 17201
1843222		 # 	collision with: 0 5 1 0 0 0 0  and 2 5 1 0 0 0 0 
 # max = 17201
1843248		 # 	collision with: 5 2 2 0 0 0 0  and 5 4 2 0 0 0 0 
 # max = 17201
1843250		 # 	collision with: 3 0 2 0 0 0 0  and 6 1 2 0 0 0 0 
 # max = 17201
1843258		 # 	collision with: 6 0 1 0 0 0 0  and 3 2 1 0 0 0 0 
 # max = 17201
1843269		 # 	collision with: 1 1 6 0 0 0 0  and 1 3 6 0 0 0 0 
 # max = 17201
1843271		 # 	collision with: 5 1 1 0 0 0 0  and 5 0 3 0 0 0 0 
 # max = 17201
1843279		 # 	collision with: 6 0 1 0 0 0 0  and 3 2 1 0 0 0 0 
 # max = 17201
1843280		 # 	collision with: 3 4 2 0 0 0 0  and 4 4 2 0 0 0 0 
 # max = 17201
1843282		 # 	collision with: 0 5 1 0 0 0 0  and 2 5 1 0 0 0 0 
 # max = 17201
1843292		 # 	collision with: 6 0 3 0 0 0 0  and 1 2 3 0 0 0 0 
 # max = 17201
1843299		 # 	collision with: 2 1 2 0 0 0 0  and 0 3 2 0 0 0 0 
 # max = 17201
1843300		 # 	collision with: 3 4 0 0 0 0 0  and 4 4 0 0 0 0 0 
 # max = 17201
1843302		 # 	collision with: 4 1 4 0 0 0 0  and 4 3 4 0 0 0 0 
 # max = 17201
1843312		 # 	collision with: 4 1 1 0 0 0 0  and 3 3 1 0 0 0 0 
 # max = 17201
1843314		 # 	collision with: 2 1 1 0 0 0 0  and 0 3 1 0 0 0 0 
 # max = 17201
1843317		 # 	collision with: 1 1 0 0 0 0 0  and 1 3 0 0 0 0 0 
 # max = 17201
1843319		 # 	collision with: 1 2 1 0 0 0 0  and 1 4 1 0 0 0 0 
 # max = 17201
1843336		 # 	collision with: 3 4 4 0 0 0 0  and 4 4 4 0 0 0 0 
 # max = 17201
1843338		 # 	collision with: 0 5 2 0 0 0 0  and 2 5 2 0 0 0 0 
 # max = 17201
1843346		 # 	collision with: 0 5 0 0 0 0 0  and 2 5 0 0 0 0 0 
 # max = 17201
1843372		 # 	collision with: 3 4 2 0 0 0 0  and 4 4 2 0 0 0 0 
 # max = 17201
1843374		 # 	collision with: 0 5 0 0 0 0 0  and 2 5 0 0 0 0 0 
 # max = 17201
1843376		 # 	collision with: 4 1 3 0 0 0 0  and 3 2 3 0 0 0 0 
 # max = 17201
1843380		 # 	collision with: 6 5 4 2 3 0 0  and 3 0 0 0 0 1 0 
 # max = 17201
1843382		 # 	collision with: 0 4 2 4 3 0 0  and 4 2 0 0 0 1 0 
 # max = 17201
1843389		 # 	collision with: 4 4 1 0 0 0 0  and 3 1 2 0 0 0 0 
 # max = 17201
1843391		 # 	collision with: 2 1 0 0 0 0 0  and 2 2 0 0 0 0 0 
 # max = 17201
1843401		 # 	collision with: 6 4 1 0 0 0 0  and 1 0 2 0 0 0 0 
 # max = 17201
1843403		 # 	collision with: 4 3 2 0 0 0 0  and 5 4 2 0 0 0 0 
 # max = 17201
1843412		 # 	collision with: 4 0 3 0 0 0 0  and 4 2 3 0 0 0 0 
 # max = 17201
1843416		 # 	collision with: 3 4 2 0 0 0 0  and 4 4 2 0 0 0 0 
 # max = 17201
1843418		 # 	collision with: 0 5 0 0 0 0 0  and 2 5 0 0 0 0 0 
 # max = 17201
1843446		 # 	collision with: 0 5 0 0 0 0 0  and 2 5 0 0 0 0 0 
 # max = 17201
1843452		 # 	collision with: 3 4 4 0 0 0 0  and 4 4 4 0 0 0 0 
 # max = 17201
1843454		 # 	collision with: 0 5 2 0 0 0 0  and 2 5 2 0 0 0 0 
 # max = 17201
1843467		 # 	collision with: 2 1 2 0 0 0 0  and 2 2 2 0 0 0 0 
 # max = 17201
1843473		 # 	collision with: 3 4 1 0 0 0 0  and 3 1 2 0 0 0 0 
 # max = 17201
1843475		 # 	collision with: 2 1 0 0 0 0 0  and 2 2 0 0 0 0 0 
 # max = 17201
1843476		 # 	collision with: 1 1 1 0 0 0 0  and 1 3 1 0 0 0 0 
 # max = 17201
1843478		 # 	collision with: 6 2 1 0 0 0 0  and 6 3 1 0 0 0 0 
 # max = 17201
1843488		 # 	collision with: 3 4 0 0 0 0 0  and 4 4 0 0 0 0 0 
 # max = 17201
1843490		 # 	collision with: 1 2 4 0 0 0 0  and 1 4 4 0 0 0 0 
 # max = 17201
1843493		 # 	collision with: 6 1 2 0 0 0 0  and 6 2 2 0 0 0 0 
 # max = 17201
1843495		 # 	collision with: 3 5 1 0 0 0 0  and 6 0 2 0 0 0 0 
 # max = 17201
1843496		 # 	collision with: 4 0 3 0 0 0 0  and 4 2 3 0 0 0 0 
 # max = 17201
1843508		 # 	collision with: 3 4 2 0 0 0 0  and 4 4 2 0 0 0 0 
 # max = 17201
1843510		 # 	collision with: 0 5 1 0 0 0 0  and 2 5 1 0 0 0 0 
 # max = 17201
1843515		 # 	collision with: 0 5 1 0 0 0 0  and 2 5 1 0 0 0 0 
 # max = 17201
1843534		 # 	collision with: 6 2 1 0 0 0 0  and 6 3 1 0 0 0 0 
 # max = 17201
1843540		 # 	collision with: 4 0 2 0 0 0 0  and 4 2 2 0 0 0 0 
 # max = 17201
1843542		 # 	collision with: 6 2 2 0 0 0 0  and 6 3 2 0 0 0 0 
 # max = 17201
1843568		 # 	collision with: 4 0 2 0 0 0 0  and 4 2 2 0 0 0 0 
 # max = 17201
1843570		 # 	collision with: 0 5 1 0 0 0 0  and 2 5 1 0 0 0 0 
 # max = 17201
1843572		 # 	collision with: 3 4 0 0 0 0 0  and 4 4 0 0 0 0 0 
 # max = 17201
1843574		 # 	collision with: 3 0 4 0 0 0 0  and 6 1 4 0 0 0 0 
 # max = 17201
1843576		 # 	collision with: 6 4 6 1 1 0 0  and 5 6 1 0 0 1 0 
 # max = 17201
1843578		 # 	collision with: 0 0 4 4 1 0 0  and 3 2 1 0 0 1 0 
 # max = 17201
1843585		 # 	collision with: 6 1 3 0 0 0 0  and 6 2 3 0 0 0 0 
 # max = 17201
1843587		 # 	collision with: 3 3 1 0 0 0 0  and 3 4 1 0 0 0 0 
 # max = 17201
1843597		 # 	collision with: 6 0 0 0 0 0 0  and 1 2 0 0 0 0 0 
 # max = 17201
1843599		 # 	collision with: 4 1 0 0 0 0 0  and 4 3 2 0 0 0 0 
 # max = 17201
1843608		 # 	collision with: 1 1 2 0 0 0 0  and 1 3 2 0 0 0 0 
 # max = 17201
1843610		 # 	collision with: 5 0 2 0 0 0 0  and 5 1 2 0 0 0 0 
 # max = 17201
1843614		 # 	collision with: 3 3 1 0 0 0 0  and 3 4 1 0 0 0 0 
 # max = 17201
1843640		 # 	collision with: 4 0 1 0 0 0 0  and 4 2 1 0 0 0 0 
 # max = 17201
1843642		 # 	collision with: 3 3 1 0 0 0 0  and 3 4 1 0 0 0 0 
 # max = 17201
1843648		 # 	collision with: 3 4 0 0 0 0 0  and 4 4 0 0 0 0 0 
 # max = 17201
1843650		 # 	collision with: 2 1 4 0 0 0 0  and 0 3 4 0 0 0 0 
 # max = 17201
1843661		 # 	collision with: 6 0 1 0 0 0 0  and 1 2 1 0 0 0 0 
 # max = 17201
1843663		 # 	collision with: 0 5 0 0 0 0 0  and 2 5 0 0 0 0 0 
 # max = 17201
1843669		 # 	collision with: 6 4 0 0 0 0 0  and 1 0 2 0 0 0 0 
 # max = 17201
1843671		 # 	collision with: 3 3 1 0 0 0 0  and 3 4 1 0 0 0 0 
 # max = 17201
1843672		 # 	collision with: 5 2 3 0 0 0 0  and 5 4 3 0 0 0 0 
 # max = 17201
1843684		 # 	collision with: 3 4 2 0 0 0 0  and 4 4 2 0 0 0 0 
 # max = 17201
1843686		 # 	collision with: 0 5 0 0 0 0 0  and 2 5 0 0 0 0 0 
 # max = 17201
1843689		 # 	collision with: 6 0 2 0 0 0 0  and 1 2 2 0 0 0 0 
 # max = 17201
1843691		 # 	collision with: 0 5 0 0 0 0 0  and 2 5 0 0 0 0 0 
 # max = 17201
1843692		 # 	collision with: 1 1 2 0 0 0 0  and 1 3 2 0 0 0 0 
 # max = 17201
1843694		 # 	collision with: 0 5 1 0 0 0 0  and 2 5 1 0 0 0 0 
 # max = 17201
525.541secs	17201 180997
