# prime 7
# degree 2
# input variables 3
# output variables 4
# reload computed balance functions from file balance-305of320-p7d2m3-debug.log
# p = 7
# n = 4
# smalldomain p^m 343
# domain p^n 2401
#	 p^2 = 49
#	 p^3 = 343
#	 p^4 = 2401
#	 p^5 = 16807
#	 p^6 = 117649
#	 p^7 = 823543
#	 p^8 = 5764801
#	 p^9 = 40353607
opening file : balance-305of320-p7d2m3-debug.log
reloading for step2...
3141509		 # 	collision with: 6 0 0 0  and 1 2 0 0 
 # max = 15
3141511		 # 	collision with: 3 0 0 0  and 5 2 0 0 
 # max = 19
3141524		 # 	collision with: 5 5 0 0  and 2 0 1 0 
 # max = 51
3141526		 # 	collision with: 6 1 1 0  and 6 2 1 0 
 # max = 69
3141544		 # 	collision with: 0 2 1 0  and 2 2 1 0 
 # max = 69
3141546		 # 	collision with: 1 2 1 0  and 2 2 1 0 
 # max = 69
3141551		 # 	collision with: 3 0 0 0  and 3 2 0 0 
 # max = 69
3141557		 # 	collision with: 4 2 1 0  and 4 4 1 0 
 # max = 81
3141559		 # 	collision with: 6 1 1 0  and 6 1 3 0 
 # max = 160
3141560		 # 	collision with: 4 4 0 0  and 2 1 1 0 
 # max = 160
3141562		 # 	collision with: 2 0 0 0  and 0 5 1 0 
 # max = 160
3141572		 # 	collision with: 3 1 0 0  and 0 3 1 0 
 # max = 160
3141574		 # 	collision with: 3 2 0 0  and 1 4 1 0 
 # max = 160
3141596		 # 	collision with: 4 5 0 0  and 0 0 1 0 
 # max = 160
3141598		 # 	collision with: 6 1 0 0  and 4 2 1 0 
 # max = 160
3141600		 # 	collision with: 3 1 0 0  and 0 3 1 0 
 # max = 160
3141602		 # 	collision with: 3 6 1 0  and 1 1 2 0 
 # max = 160
3141604		 # 	collision with: 3 2 0 0  and 4 2 0 0 
 # max = 160
3141606		 # 	collision with: 0 2 0 0  and 1 2 0 0 
 # max = 160
3141628		 # 	collision with: 3 5 0 0  and 5 0 1 0 
 # max = 160
3141630		 # 	collision with: 4 5 1 0  and 3 0 2 0 
 # max = 160
3141640		 # 	collision with: 3 3 0 0  and 5 4 1 0 
 # max = 160
3141647		 # 	collision with: 0 2 0 0  and 1 2 0 0 
 # max = 160
3141653		 # 	collision with: 2 1 1 0  and 2 2 1 0 
 # max = 160
3141655		 # 	collision with: 2 2 1 0  and 4 2 1 0 
 # max = 160
3141656		 # 	collision with: 6 5 0 0  and 4 0 1 0 
 # max = 160
3141658		 # 	collision with: 5 4 0 0  and 2 6 1 0 
 # max = 160
3141678		 # 	collision with: 3 2 0 0  and 2 2 1 0 
 # max = 160
3141684		 # 	collision with: 6 3 0 0  and 0 0 1 0 
 # max = 160
3141686		 # 	collision with: 6 1 0 0  and 0 2 2 0 
 # max = 160
3141693# 3141693 is invertible !!!!!!!! 
3141695# 3141695 is invertible !!!!!!!! 
3141705		 # 	collision with: 4 2 0 0  and 3 2 1 0 
 # max = 160
3141707		 # 	collision with: 1 2 0 0  and 0 2 1 0 
 # max = 160
3141712		 # 	collision with: 6 3 0 0  and 0 0 1 0 
 # max = 160
3141714		 # 	collision with: 0 4 0 0  and 1 1 1 0 
 # max = 160
3141720		 # 	collision with: 1 6 0 0  and 0 4 1 0 
 # max = 160
3141722		 # 	collision with: 6 1 0 0  and 5 2 1 0 
 # max = 160
3141740		 # 	collision with: 6 3 0 0  and 0 0 1 0 
 # max = 160
3141742		 # 	collision with: 6 1 0 0  and 0 2 2 0 
 # max = 160
3141745		 # 	collision with: 3 0 0 0  and 3 1 0 0 
 # max = 160
3141747		 # 	collision with: 5 0 0 0  and 3 1 0 0 
 # max = 160
3141753		 # 	collision with: 4 4 1 0  and 2 1 2 0 
 # max = 160
3141755		 # 	collision with: 2 2 2 0  and 3 2 2 0 
 # max = 160
3141756		 # 	collision with: 3 2 0 0  and 4 2 0 0 
 # max = 160
3141758		 # 	collision with: 0 2 0 0  and 1 2 0 0 
 # max = 160
3141768		 # 	collision with: 6 3 0 0  and 0 0 1 0 
 # max = 160
3141770		 # 	collision with: 6 1 0 0  and 0 2 2 0 
 # max = 160
3141794		 # 	collision with: 1 2 1 0  and 3 2 1 0 
 # max = 160
3141800		 # 	collision with: 6 3 0 0  and 4 1 1 0 
 # max = 160
3141802		 # 	collision with: 5 2 1 0  and 5 3 1 0 
 # max = 160
3141824		 # 	collision with: 6 3 0 0  and 0 0 1 0 
 # max = 160
3141826		 # 	collision with: 6 1 0 0  and 0 2 2 0 
 # max = 160
3141836		 # 	collision with: 3 6 0 0  and 3 2 1 0 
 # max = 160
3141838		 # 	collision with: 0 6 0 0  and 2 2 1 0 
 # max = 160
3141841		 # 	collision with: 3 2 0 0  and 4 2 0 0 
 # max = 160
3141843		 # 	collision with: 3 2 0 0  and 4 5 1 0 
 # max = 160
3141849		 # 	collision with: 2 3 0 0  and 5 5 0 0 
 # max = 160
3141852		 # 	collision with: 6 3 0 0  and 0 0 1 0 
 # max = 160
3141854		 # 	collision with: 6 6 0 0  and 1 3 1 0 
 # max = 160
3141872		 # 	collision with: 1 2 0 0  and 0 2 1 0 
 # max = 160
3141885		 # 	collision with: 1 0 1 0  and 2 0 2 0 
 # max = 160
3141887		 # 	collision with: 0 6 0 0  and 1 6 0 0 
 # max = 160
3141905		 # 	collision with: 3 0 1 0  and 3 1 1 0 
 # max = 160
3141907		 # 	collision with: 4 3 0 0  and 4 4 0 0 
 # max = 160
3141924		 # 	collision with: 5 1 0 0  and 5 3 0 0 
 # max = 160
3141928		 # 	collision with: 1 2 0 0  and 1 3 0 0 
 # max = 160
3141930		 # 	collision with: 3 0 0 0  and 3 2 0 0 
 # max = 160
3141940		 # 	collision with: 6 0 0 0  and 1 2 0 0 
 # max = 160
3141948		 # 	collision with: 3 0 0 0  and 3 1 0 0 
 # max = 160
3141950		 # 	collision with: 2 1 0 0  and 2 3 0 0 
 # max = 160
3141957		 # 	collision with: 0 1 0 0  and 5 3 1 0 
 # max = 160
3141959		 # 	collision with: 3 1 0 0  and 0 3 1 0 
 # max = 160
3141961		 # 	collision with: 3 0 1 0  and 3 1 1 0 
 # max = 160
3141963		 # 	collision with: 4 3 0 0  and 4 4 0 0 
 # max = 160
3141968		 # 	collision with: 6 0 0 0  and 1 2 0 0 
 # max = 160
3141970		 # 	collision with: 5 2 0 0  and 5 3 0 0 
 # max = 160
3141984		 # 	collision with: 1 2 0 0  and 1 3 0 0 
 # max = 160
3142000		 # 	collision with: 2 2 0 0  and 3 1 1 0 
 # max = 160
3142016		 # 	collision with: 6 0 0 0  and 6 2 0 0 
 # max = 160
3142018		 # 	collision with: 3 0 0 0  and 5 1 0 0 
 # max = 160
3142025		 # 	collision with: 2 4 1 0  and 6 6 2 0 
 # max = 160
3142027		 # 	collision with: 0 6 0 0  and 1 6 0 0 
 # max = 160
3142029		 # 	collision with: 3 6 0 0  and 4 4 1 0 
 # max = 160
3142031		 # 	collision with: 4 6 0 0  and 4 1 1 0 
 # max = 160
3142036		 # 	collision with: 5 1 0 0  and 5 3 0 0 
 # max = 160
3142038		 # 	collision with: 0 1 0 0  and 1 3 0 0 
 # max = 160
3142044		 # 	collision with: 6 0 0 0  and 6 2 0 0 
 # max = 160
3142056		 # 	collision with: 2 1 2 0  and 3 1 2 0 
 # max = 160
3142058		 # 	collision with: 4 2 1 0  and 5 1 2 0 
 # max = 160
3142060		 # 	collision with: 3 0 0 0  and 3 1 0 0 
 # max = 160
3142076		 # 	collision with: 0 3 0 0  and 1 5 1 0 
 # max = 160
3142078		 # 	collision with: 3 1 0 0  and 0 3 1 0 
 # max = 160
3142083		 # 	collision with: 0 4 0 0  and 2 2 1 0 
 # max = 160
3142101		 # 	collision with: 2 0 1 0  and 1 0 2 0 
 # max = 160
3142120		 # 	collision with: 1 5 0 0  and 2 0 1 0 
 # max = 160
3142122		 # 	collision with: 1 5 0 0  and 5 0 1 0 
 # max = 160
3142124		 # 	collision with: 1 3 0 0  and 6 2 1 0 
 # max = 160
3142126		 # 	collision with: 2 5 0 0  and 3 0 1 0 
 # max = 160
3142136		 # 	collision with: 6 6 2 0  and 2 4 3 0 
 # max = 177
3142138		 # 	collision with: 0 6 0 0  and 1 6 0 0 
 # max = 177
3142146		 # 	collision with: 3 3 0 0  and 3 3 1 0 
 # max = 177
3142153		 # 	collision with: 3 0 1 0  and 0 0 2 0 
 # max = 177
3142155		 # 	collision with: 6 6 0 0  and 6 6 1 0 
 # max = 177
3142157		 # 	collision with: 3 0 1 0  and 0 0 2 0 
 # max = 177
3142159		 # 	collision with: 4 2 0 0  and 0 1 1 0 
 # max = 177
3142164		 # 	collision with: 2 6 0 0  and 2 4 1 0 
 # max = 177
3142166		 # 	collision with: 0 6 0 0  and 1 6 0 0 
 # max = 177
3142180		 # 	collision with: 5 5 0 0  and 2 0 1 0 
 # max = 177
3142182		 # 	collision with: 4 2 1 0  and 1 3 2 0 
 # max = 177
3142196		 # 	collision with: 3 3 0 0  and 2 4 1 0 
 # max = 177
3142198		 # 	collision with: 2 1 1 0  and 3 1 1 0 
 # max = 177
3142212		 # 	collision with: 3 0 1 0  and 3 1 1 0 
 # max = 177
3142214		 # 	collision with: 5 5 0 0  and 5 0 1 0 
 # max = 177
3142221		 # 	collision with: 4 2 0 0  and 4 4 0 0 
 # max = 177
3142223		 # 	collision with: 1 4 0 0  and 1 2 1 0 
 # max = 177
3142225		 # 	collision with: 2 0 1 0  and 1 0 2 0 
 # max = 177
3142227		 # 	collision with: 0 6 0 0  and 1 6 0 0 
 # max = 177
3142232		 # 	collision with: 3 2 0 0  and 1 5 1 0 
 # max = 177
3142234		 # 	collision with: 4 2 0 0  and 4 5 1 0 
 # max = 177
3142242		 # 	collision with: 3 5 0 0  and 6 1 1 0 
 # max = 177
3142252		 # 	collision with: 6 5 0 0  and 5 0 1 0 
 # max = 177
3142256		 # 	collision with: 3 2 0 0  and 4 2 0 0 
 # max = 177
3142258		 # 	collision with: 1 3 0 0  and 1 3 1 0 
 # max = 177
3142272		 # 	collision with: 3 6 0 0  and 2 0 1 0 
 # max = 177
3142274		 # 	collision with: 0 6 0 0  and 2 0 1 0 
 # max = 177
3142277		 # 	collision with: 6 1 0 0  and 5 5 1 0 
 # max = 177
3142279		 # 	collision with: 5 2 0 0  and 5 3 0 0 
 # max = 177
3142297		 # 	collision with: 3 2 0 0  and 4 2 0 0 
 # max = 177
3142299		 # 	collision with: 3 5 0 0  and 6 1 1 0 
 # max = 177
3142316		 # 	collision with: 2 3 0 0  and 5 6 1 0 
 # max = 177
3142318		 # 	collision with: 3 6 0 0  and 4 0 1 0 
 # max = 177
3142320		 # 	collision with: 6 1 1 0  and 2 3 1 0 
 # max = 177
3142322		 # 	collision with: 6 1 1 0  and 6 2 1 0 
 # max = 177
3142332		 # 	collision with: 6 2 0 0  and 6 2 1 0 
 # max = 177
3142334		 # 	collision with: 4 0 0 0  and 3 3 1 0 
 # max = 177
3142340		 # 	collision with: 2 5 0 0  and 1 1 1 0 
 # max = 177
3142342		 # 	collision with: 3 6 0 0  and 4 0 2 0 
 # max = 177
3142349		 # 	collision with: 1 2 0 0  and 1 3 0 0 
 # max = 177
3142351		 # 	collision with: 1 0 1 0  and 2 0 1 0 
 # max = 177
3142353		 # 	collision with: 3 2 0 0  and 4 2 0 0 
 # max = 177
3142360		 # 	collision with: 4 6 0 0  and 6 0 1 0 
 # max = 177
3142362		 # 	collision with: 6 2 0 0  and 1 2 1 0 
 # max = 177
3142378		 # 	collision with: 6 1 1 0  and 6 2 1 0 
 # max = 177
3142392		 # 	collision with: 1 4 1 0  and 3 4 1 0 
 # max = 177
3142394		 # 	collision with: 0 6 0 0  and 1 6 0 0 
 # max = 177
3142410		 # 	collision with: 4 6 0 0  and 5 0 1 0 
 # max = 177
3142417		 # 	collision with: 0 1 0 0  and 1 6 1 0 
 # max = 177
3142419		 # 	collision with: 5 2 0 0  and 5 3 0 0 
 # max = 177
3142421		 # 	collision with: 2 1 1 0  and 3 1 1 0 
 # max = 177
3142423		 # 	collision with: 2 0 1 0  and 1 0 2 0 
 # max = 177
3142428		 # 	collision with: 1 5 0 0  and 4 2 1 0 
 # max = 177
3142436		 # 	collision with: 3 2 0 0  and 4 2 0 0 
 # max = 177
3142438		 # 	collision with: 1 6 0 0  and 1 0 1 0 
 # max = 177
3142448		 # 	collision with: 5 5 0 0  and 2 3 1 0 
 # max = 177
3142450		 # 	collision with: 0 6 0 0  and 1 6 0 0 
 # max = 177
3142452		 # 	collision with: 2 0 0 0  and 3 2 2 0 
 # max = 177
3142454		 # 	collision with: 5 6 0 0  and 6 0 1 0 
 # max = 177
3142468		 # 	collision with: 6 3 0 0  and 2 6 1 0 
 # max = 177
3142470		 # 	collision with: 3 1 1 0  and 2 1 2 0 
 # max = 177
3142473		 # 	collision with: 2 1 1 0  and 2 2 1 0 
 # max = 177
3142475		 # 	collision with: 1 0 2 0  and 0 2 2 0 
 # max = 177
3142493		 # 	collision with: 4 6 1 0  and 1 2 2 0 
 # max = 177
3142495		 # 	collision with: 3 0 4 0  and 5 1 4 0 
 # max = 208
3142514		 # 	collision with: 1 4 0 0  and 6 1 1 0 
 # max = 208
3142516		 # 	collision with: 5 6 0 0  and 6 1 2 0 
 # max = 208
3142518		 # 	collision with: 4 5 0 0  and 6 4 2 0 
 # max = 208
3142528		 # 	collision with: 5 3 0 0  and 0 1 1 0 
 # max = 208
3142530		 # 	collision with: 2 2 0 0  and 2 2 1 0 
 # max = 208
3142536		 # 	collision with: 0 3 1 0  and 2 3 1 0 
 # max = 208
3142538		 # 	collision with: 0 6 0 0  and 1 6 0 0 
 # max = 208
3142549		 # 	collision with: 2 3 0 0  and 5 6 1 0 
 # max = 208
3142551		 # 	collision with: 5 5 0 0  and 5 5 1 0 
 # max = 208
3142556		 # 	collision with: 4 4 0 0  and 2 0 1 0 
 # max = 208
3142558		 # 	collision with: 6 2 0 0  and 6 2 1 0 
 # max = 208
3142572		 # 	collision with: 4 4 0 0  and 1 0 1 0 
 # max = 208
3142574		 # 	collision with: 6 2 0 0  and 6 1 1 0 
 # max = 208
3142588		 # 	collision with: 3 2 0 0  and 4 2 0 0 
 # max = 208
3142590		 # 	collision with: 4 5 0 0  and 3 2 1 0 
 # max = 208
3142604		 # 	collision with: 0 0 0 0  and 2 1 1 0 
 # max = 208
3142615		 # 	collision with: 1 6 0 0  and 2 0 2 0 
 # max = 208
3142617		 # 	collision with: 3 2 0 0  and 4 2 0 0 
 # max = 208
3142619		 # 	collision with: 3 2 1 0  and 3 0 2 0 
 # max = 208
3142624		 # 	collision with: 6 0 1 0  and 6 2 1 0 
 # max = 208
3142626		 # 	collision with: 5 1 1 0  and 1 3 1 0 
 # max = 208
3142632		 # 	collision with: 2 1 1 0  and 3 1 1 0 
 # max = 208
3142634		 # 	collision with: 6 6 1 0  and 2 5 2 0 
 # max = 208
3142646		 # 	collision with: 5 2 0 0  and 4 3 1 0 
 # max = 208
3142648		 # 	collision with: 5 6 0 0  and 6 1 1 0 
 # max = 208
3142650		 # 	collision with: 0 6 0 0  and 1 6 0 0 
 # max = 208
3142664		 # 	collision with: 0 3 0 0  and 2 0 1 0 
 # max = 208
3142666		 # 	collision with: 4 2 0 0  and 2 6 1 0 
 # max = 208
3142669		 # 	collision with: 1 2 1 0  and 6 0 2 0 
 # max = 208
3142671		 # 	collision with: 6 1 0 0  and 1 2 1 0 
 # max = 208
3142689		 # 	collision with: 2 2 0 0  and 3 0 1 0 
 # max = 208
3142691		 # 	collision with: 0 1 1 0  and 1 3 1 0 
 # max = 208
3142708		 # 	collision with: 2 0 1 0  and 1 0 2 0 
 # max = 208
3142710		 # 	collision with: 0 6 0 0  and 1 6 0 0 
 # max = 208
3142714		 # 	collision with: 5 6 0 0  and 3 6 1 0 
 # max = 208
3142724		 # 	collision with: 3 0 1 0  and 0 0 2 0 
 # max = 208
3142726		 # 	collision with: 5 1 0 0  and 5 1 2 0 
 # max = 208
3142732		 # 	collision with: 0 0 1 0  and 2 1 1 0 
 # max = 208
3142734		 # 	collision with: 4 3 1 0  and 4 4 1 0 
 # max = 208
3142741		 # 	collision with: 3 2 0 0  and 4 2 0 0 
 # max = 208
3142743		 # 	collision with: 0 6 0 0  and 1 6 0 0 
 # max = 208
3142747		 # 	collision with: 6 2 0 0  and 3 4 1 0 
 # max = 208
3142752		 # 	collision with: 1 0 1 0  and 2 0 1 0 
 # max = 208
3142768		 # 	collision with: 3 2 0 0  and 4 2 0 0 
 # max = 208
3142770		 # 	collision with: 1 2 0 0  and 3 5 1 0 
 # max = 208
3142784		 # 	collision with: 0 3 0 0  and 1 0 1 0 
 # max = 208
3142786		 # 	collision with: 5 4 0 0  and 1 3 1 0 
 # max = 208
3142800		 # 	collision with: 0 3 0 0  and 1 0 1 0 
 # max = 208
3142802		 # 	collision with: 6 3 0 0  and 6 0 1 0 
 # max = 208
3142809		 # 	collision with: 1 2 0 0  and 6 0 1 0 
 # max = 208
3142811		 # 	collision with: 3 0 1 0  and 3 2 1 0 
 # max = 208
3142820		 # 	collision with: 2 0 1 0  and 1 0 2 0 
 # max = 208
3142822		 # 	collision with: 0 6 0 0  and 1 6 0 0 
 # max = 208
3142828		 # 	collision with: 2 4 0 0  and 2 6 1 0 
 # max = 208
3142830		 # 	collision with: 2 5 0 0  and 2 5 1 0 
 # max = 208
3142840		 # 	collision with: 4 1 0 0  and 4 1 1 0 
 # max = 208
3142842		 # 	collision with: 3 2 1 0  and 4 2 1 0 
 # max = 208
3142846		 # 	collision with: 3 0 1 0  and 4 2 1 0 
 # max = 208
3142860		 # 	collision with: 3 1 0 0  and 0 0 1 0 
 # max = 208
3142862		 # 	collision with: 6 4 0 0  and 1 3 1 0 
 # max = 208
3142865		 # 	collision with: 3 2 0 0  and 4 2 0 0 
 # max = 208
3142867		 # 	collision with: 3 0 0 0  and 4 2 1 0 
 # max = 208
3142885		 # 	collision with: 6 0 0 0  and 6 2 0 0 
 # max = 208
3142887		 # 	collision with: 0 6 0 0  and 1 6 0 0 
 # max = 208
3142904		 # 	collision with: 2 4 0 0  and 2 4 1 0 
 # max = 208
3142906		 # 	collision with: 2 0 1 0  and 1 0 2 0 
 # max = 208
3142908		 # 	collision with: 2 3 0 0  and 6 1 1 0 
 # max = 208
3142910		 # 	collision with: 0 6 0 0  and 1 6 0 0 
 # max = 208
3142920		 # 	collision with: 3 2 0 0  and 4 2 0 0 
 # max = 208
3142922		 # 	collision with: 1 0 1 0  and 2 0 1 0 
 # max = 208
3142928		 # 	collision with: 1 2 0 0  and 1 3 2 0 
 # max = 208
3142937		 # 	collision with: 1 6 0 0  and 0 6 1 0 
 # max = 208
3142939		 # 	collision with: 3 0 0 0  and 3 2 0 0 
 # max = 208
3142941		 # 	collision with: 6 0 0 0  and 6 2 0 0 
 # max = 208
3142943		 # 	collision with: 0 6 0 0  and 1 6 0 0 
 # max = 208
3142950		 # 	collision with: 1 2 0 0  and 6 2 1 0 
 # max = 208
3142964		 # 	collision with: 4 2 0 0  and 0 4 1 0 
 # max = 208
3142966		 # 	collision with: 0 6 0 0  and 1 6 0 0 
 # max = 208
3142982		 # 	collision with: 4 1 0 0  and 4 1 1 0 
 # max = 208
3142996		 # 	collision with: 3 2 0 0  and 0 3 1 0 
 # max = 208
3142998		 # 	collision with: 4 6 0 0  and 4 1 1 0 
 # max = 208
3143005		 # 	collision with: 3 2 0 0  and 4 2 0 0 
 # max = 208
3143009		 # 	collision with: 4 2 0 0  and 2 3 1 0 
 # max = 208
3143011		 # 	collision with: 0 1 0 0  and 2 6 1 0 
 # max = 208
3143016		 # 	collision with: 2 1 1 0  and 3 1 1 0 
 # max = 208
3143018		 # 	collision with: 1 4 0 0  and 3 4 1 0 
 # max = 208
3143024		 # 	collision with: 3 2 0 0  and 0 3 1 0 
 # max = 208
3143026		 # 	collision with: 2 0 1 0  and 1 0 2 0 
 # max = 208
3143036		 # 	collision with: 1 1 0 0  and 4 1 1 0 
 # max = 208
3143038		 # 	collision with: 5 1 0 0  and 5 1 1 0 
 # max = 208
3143040		 # 	collision with: 4 4 0 0  and 6 1 1 0 
 # max = 208
3143042		 # 	collision with: 3 2 0 0  and 2 5 1 0 
 # max = 208
3143056		 # 	collision with: 5 2 0 0  and 3 0 2 0 
 # max = 208
3143058		 # 	collision with: 0 3 0 0  and 3 1 1 0 
 # max = 208
3143061		 # 	collision with: 1 2 0 0  and 6 2 1 0 
 # max = 208
3143083		 # 	collision with: 3 0 0 0  and 5 1 0 0 
 # max = 208
3143100		 # 	collision with: 3 2 0 0  and 4 2 0 0 
 # max = 208
3143102		 # 	collision with: 6 6 0 0  and 5 1 1 0 
 # max = 208
3143104		 # 	collision with: 1 6 0 0  and 0 6 1 0 
 # max = 208
3143118		 # 	collision with: 3 0 1 0  and 0 1 1 0 
 # max = 208
3143124		 # 	collision with: 5 2 0 0  and 3 0 1 0 
 # max = 208
3143126		 # 	collision with: 4 6 1 0  and 1 1 2 0 
 # max = 208
3143133		 # 	collision with: 4 2 2 0  and 0 3 2 0 
 # max = 208
3143135		 # 	collision with: 6 1 1 0  and 6 2 1 0 
 # max = 208
3143137		 # 	collision with: 0 3 1 0  and 2 3 1 0 
 # max = 208
3143139		 # 	collision with: 3 0 0 0  and 5 1 0 0 
 # max = 208
3143144		 # 	collision with: 2 1 1 0  and 2 2 1 0 
 # max = 208
3143146		 # 	collision with: 3 0 1 0  and 3 2 1 0 
 # max = 208
3143160		 # 	collision with: 6 1 0 0  and 3 2 1 0 
 # max = 208
3143162		 # 	collision with: 4 2 0 0  and 3 0 1 0 
 # max = 208
3143176		 # 	collision with: 1 6 0 0  and 4 3 1 0 
 # max = 208
3143178		 # 	collision with: 6 3 0 0  and 3 6 1 0 
 # max = 208
3143192		 # 	collision with: 6 1 0 0  and 0 3 1 0 
 # max = 208
3143194		 # 	collision with: 0 6 0 0  and 1 6 0 0 
 # max = 208
3143201		 # 	collision with: 6 6 0 0  and 3 5 1 0 
 # max = 208
3143203		 # 	collision with: 1 3 0 0  and 0 1 1 0 
 # max = 208
3143205		 # 	collision with: 1 0 1 0  and 2 0 2 0 
 # max = 208
3143207		 # 	collision with: 2 4 0 0  and 1 0 2 0 
 # max = 208
3143214		 # 	collision with: 3 2 0 0  and 3 0 1 0 
 # max = 208
3143220		 # 	collision with: 4 2 0 0  and 2 0 1 0 
 # max = 208
3143222		 # 	collision with: 0 6 0 0  and 1 6 0 0 
 # max = 208
3143232		 # 	collision with: 1 2 0 0  and 6 0 1 0 
 # max = 208
3143234		 # 	collision with: 2 6 0 0  and 1 3 1 0 
 # max = 208
3143236		 # 	collision with: 0 3 0 0  and 2 3 1 0 
 # max = 208
3143238		 # 	collision with: 4 6 0 0  and 5 5 1 0 
 # max = 208
3143281		 # 	collision with: 3 2 0 0  and 4 2 0 0 
 # max = 208
3143283		 # 	collision with: 5 0 0 0  and 0 1 1 0 
 # max = 208
3143289		 # 	collision with: 6 4 0 0  and 2 1 1 0 
 # max = 208
3143341		 # 	collision with: 5 1 0 0  and 1 1 1 0 
 # max = 208
3143343		 # 	collision with: 3 5 0 0  and 0 3 1 0 
 # max = 208
3143357		 # 	collision with: 5 4 0 0  and 1 6 1 0 
 # max = 208
3143359		 # 	collision with: 3 0 1 0  and 3 2 1 0 
 # max = 208
3143373		 # 	collision with: 1 2 1 0  and 1 3 1 0 
 # max = 208
3143375		 # 	collision with: 0 3 0 0  and 1 3 0 0 
 # max = 208
3143389		 # 	collision with: 4 0 1 0  and 0 1 1 0 
 # max = 208
3143391		 # 	collision with: 4 3 0 0  and 4 4 0 0 
 # max = 208
3143421		 # 	collision with: 3 2 0 0  and 4 2 0 0 
 # max = 208
3143423		 # 	collision with: 5 0 0 0  and 0 1 1 0 
 # max = 208
3143441		 # 	collision with: 5 3 0 0  and 3 3 1 0 
 # max = 208
3143448		 # 	collision with: 0 3 1 0  and 6 0 2 0 
 # max = 208
3143450		 # 	collision with: 3 6 0 0  and 1 0 1 0 
 # max = 208
3143477		 # 	collision with: 4 2 1 0  and 4 4 1 0 
 # max = 208
3143479		 # 	collision with: 4 2 0 0  and 2 0 1 0 
 # max = 208
3143485		 # 	collision with: 5 4 0 0  and 5 0 1 0 
 # max = 208
3143487		 # 	collision with: 5 2 0 0  and 4 0 1 0 
 # max = 208
3143553		 # 	collision with: 1 2 0 0  and 0 4 2 0 
 # max = 208
3143555		 # 	collision with: 1 2 0 0  and 1 4 0 0 
 # max = 208
3143571		 # 	collision with: 2 1 1 0  and 2 3 1 0 
 # max = 208
3143585		 # 	collision with: 3 6 0 0  and 1 6 1 0 
 # max = 208
3143587		 # 	collision with: 3 6 0 0  and 3 6 1 0 
 # max = 208
3143617		 # 	collision with: 4 2 1 0  and 4 4 1 0 
 # max = 208
3143637		 # 	collision with: 0 2 0 0  and 1 1 1 0 
 # max = 208
3143639		 # 	collision with: 1 2 0 0  and 1 4 0 0 
 # max = 208
3143644		 # 	collision with: 4 5 0 0  and 2 2 1 0 
 # max = 208
3143646		 # 	collision with: 1 1 0 0  and 2 5 1 0 
 # max = 208
3143673		 # 	collision with: 1 2 0 0  and 1 3 0 0 
 # max = 208
3143675		 # 	collision with: 5 2 0 0  and 5 3 0 0 
 # max = 208
3143681		 # 	collision with: 6 2 0 0  and 1 3 0 0 
 # max = 208
3143683		 # 	collision with: 0 6 0 0  and 6 0 1 0 
 # max = 208
3143733		 # 	collision with: 3 4 0 0  and 2 1 1 0 
 # max = 208
3143735		 # 	collision with: 5 2 0 0  and 3 3 0 0 
 # max = 208
3143749		 # 	collision with: 1 3 1 0  and 2 4 1 0 
 # max = 208
3143751		 # 	collision with: 2 5 0 0  and 5 1 1 0 
 # max = 208
3143765		 # 	collision with: 6 2 0 0  and 1 3 0 0 
 # max = 208
3143767		 # 	collision with: 0 1 0 0  and 1 4 1 0 
 # max = 208
3143781		 # 	collision with: 3 2 0 0  and 4 2 0 0 
 # max = 208
3143783		 # 	collision with: 0 3 0 0  and 1 3 0 0 
 # max = 208
3143813		 # 	collision with: 1 2 0 0  and 1 3 0 0 
 # max = 208
3143815		 # 	collision with: 5 2 0 0  and 5 3 0 0 
 # max = 208
3143833		 # 	collision with: 5 1 0 0  and 0 5 1 0 
 # max = 208
3143835		 # 	collision with: 1 3 1 0  and 6 4 1 0 
 # max = 208
3143840		 # 	collision with: 6 4 0 0  and 2 2 1 0 
 # max = 208
3143842		 # 	collision with: 2 1 0 0  and 4 6 1 0 
 # max = 208
3143869		 # 	collision with: 0 4 2 0  and 2 4 2 0 
 # max = 208
3143871		 # 	collision with: 5 1 1 0  and 4 3 1 0 
 # max = 208
3143879		 # 	collision with: 2 6 0 0  and 1 1 1 0 
 # max = 208
3143929		 # 	collision with: 1 1 0 0  and 1 1 1 0 
 # max = 208
3143931		 # 	collision with: 0 3 0 0  and 1 3 0 0 
 # max = 208
3143945		 # 	collision with: 6 3 0 0  and 2 3 1 0 
 # max = 208
3143961		 # 	collision with: 3 2 0 0  and 4 2 0 0 
 # max = 208
3143963		 # 	collision with: 3 0 0 0  and 4 5 1 0 
 # max = 208
3143977		 # 	collision with: 5 1 0 0  and 5 3 0 0 
 # max = 208
3143979		 # 	collision with: 5 2 1 0  and 5 3 1 0 
 # max = 208
3144011		 # 	collision with: 2 1 2 0  and 4 1 2 0 
 # max = 208
3144029		 # 	collision with: 0 3 0 0  and 1 2 2 0 
 # max = 208
3144031		 # 	collision with: 3 3 0 0  and 5 2 2 0 
 # max = 208
3144036		 # 	collision with: 0 4 0 0  and 6 0 2 0 
 # max = 208
3144038		 # 	collision with: 4 4 0 0  and 2 6 1 0 
 # max = 208
3144067		 # 	collision with: 0 4 1 0  and 2 4 1 0 
 # max = 208
3144073		 # 	collision with: 2 1 0 0  and 2 2 0 0 
 # max = 208
3144075		 # 	collision with: 2 1 0 0  and 2 3 1 0 
 # max = 208
3144125		 # 	collision with: 0 3 0 0  and 2 4 1 0 
 # max = 208
3144127		 # 	collision with: 6 2 0 0  and 0 1 1 0 
 # max = 208
3144141		 # 	collision with: 3 2 0 0  and 4 2 0 0 
 # max = 208
3144143		 # 	collision with: 6 3 0 0  and 0 2 1 0 
 # max = 208
3144157		 # 	collision with: 2 1 0 0  and 2 2 0 0 
 # max = 208
3144173		 # 	collision with: 2 1 0 0  and 5 2 0 0 
 # max = 208
3144175		 # 	collision with: 4 4 0 0  and 1 5 1 0 
 # max = 208
3144205		 # 	collision with: 6 4 0 0  and 4 1 1 0 
 # max = 208
3144207		 # 	collision with: 5 4 0 0  and 5 1 1 0 
 # max = 208
3144227		 # 	collision with: 6 3 0 0  and 0 2 1 0 
 # max = 208
3144232		 # 	collision with: 5 5 0 0  and 3 1 1 0 
 # max = 208
3144234		 # 	collision with: 1 1 0 0  and 4 4 1 0 
 # max = 208
3144261		 # 	collision with: 0 3 1 0  and 1 3 1 0 
 # max = 208
3144263		 # 	collision with: 4 3 0 0  and 2 5 2 0 
 # max = 208
3144269		 # 	collision with: 3 5 1 0  and 0 2 2 0 
 # max = 208
3144271		 # 	collision with: 3 0 0 0  and 3 2 0 0 
 # max = 208
3144321		 # 	collision with: 6 0 0 0  and 1 2 0 0 
 # max = 208
3144323		 # 	collision with: 3 5 0 0  and 5 6 1 0 
 # max = 208
3144337		 # 	collision with: 1 3 0 0  and 0 3 1 0 
 # max = 208
3144339		 # 	collision with: 0 3 0 0  and 1 3 0 0 
 # max = 208
3144353		 # 	collision with: 1 6 0 0  and 4 2 1 0 
 # max = 208
3144355		 # 	collision with: 3 0 0 0  and 3 2 0 0 
 # max = 208
3144369		 # 	collision with: 1 6 0 0  and 4 4 1 0 
 # max = 208
3144371		 # 	collision with: 2 0 1 0  and 3 0 1 0 
 # max = 208
3144401		 # 	collision with: 6 3 1 0  and 2 0 2 0 
 # max = 208
3144403		 # 	collision with: 6 1 0 0  and 6 2 1 0 
 # max = 208
3144421		 # 	collision with: 1 3 0 0  and 0 3 1 0 
 # max = 208
3144423		 # 	collision with: 0 3 0 0  and 1 3 0 0 
 # max = 208
3144428		 # 	collision with: 6 0 1 0  and 0 3 2 0 
 # max = 208
3144430		 # 	collision with: 1 0 1 0  and 3 3 2 0 
 # max = 208
3144457		 # 	collision with: 3 4 1 0  and 5 2 2 0 
 # max = 208
3144465		 # 	collision with: 0 3 1 0  and 1 3 1 0 
 # max = 208
3144467		 # 	collision with: 6 6 1 0  and 1 3 2 0 
 # max = 208
3144517		 # 	collision with: 2 3 0 0  and 5 5 0 0 
 # max = 208
3144519		 # 	collision with: 5 2 0 0  and 1 0 2 0 
 # max = 208
3144535		 # 	collision with: 1 3 0 0  and 0 3 1 0 
 # max = 208
3144549		 # 	collision with: 5 2 1 0  and 6 4 1 0 
 # max = 208
3144551		 # 	collision with: 0 3 0 0  and 5 6 1 0 
 # max = 208
3144597		 # 	collision with: 0 3 0 0  and 6 0 1 0 
 # max = 208
3144599		 # 	collision with: 0 3 0 0  and 1 3 0 0 
 # max = 208
3144617		 # 	collision with: 3 0 0 0  and 3 1 0 0 
 # max = 208
3144619		 # 	collision with: 1 3 0 0  and 0 3 1 0 
 # max = 208
3144637		 # 	collision with: 0 0 0 0  and 1 0 1 0 
 # max = 208
3144639		 # 	collision with: 5 3 0 0  and 3 4 0 0 
 # max = 208
3144641		 # 	collision with: 0 0 0 0  and 1 0 1 0 
 # max = 208
3144643		 # 	collision with: 0 3 0 0  and 1 4 0 0 
 # max = 208
3144664		 # 	collision with: 6 0 0 0  and 6 2 0 0 
 # max = 208
3144666		 # 	collision with: 3 0 0 0  and 5 0 0 0 
 # max = 208
3144676		 # 	collision with: 6 2 0 0  and 1 3 0 0 
 # max = 208
3144678		 # 	collision with: 3 0 0 0  and 5 0 0 0 
 # max = 208
3144681		 # 	collision with: 3 2 0 0  and 4 2 0 0 
 # max = 208
3144697		 # 	collision with: 3 5 0 0  and 6 4 1 0 
 # max = 208
3144699		 # 	collision with: 0 3 0 0  and 1 4 0 0 
 # max = 208
3144700		 # 	collision with: 4 2 0 0  and 4 4 0 0 
 # max = 208
3144702		 # 	collision with: 3 0 0 0  and 5 0 0 0 
 # max = 208
3144704		 # 	collision with: 6 2 0 0  and 1 3 0 0 
 # max = 208
3144706		 # 	collision with: 3 0 0 0  and 5 0 0 0 
 # max = 208
3144716		 # 	collision with: 1 2 0 0  and 1 3 0 0 
 # max = 208
3144718		 # 	collision with: 3 0 0 0  and 5 0 0 0 
 # max = 208
3144724		 # 	collision with: 6 0 0 0  and 1 2 0 0 
 # max = 208
3144726		 # 	collision with: 3 0 0 0  and 5 0 0 0 
 # max = 208
3144748		 # 	collision with: 6 0 0 0  and 6 2 0 0 
 # max = 208
3144750		 # 	collision with: 3 0 0 0  and 5 0 0 0 
 # max = 208
3144756		 # 	collision with: 4 2 0 0  and 4 4 0 0 
 # max = 208
3144758		 # 	collision with: 3 0 0 0  and 5 0 0 0 
 # max = 208
3144765		 # 	collision with: 3 2 0 0  and 4 2 0 0 
 # max = 208
3144768		 # 	collision with: 2 1 0 0  and 5 2 0 0 
 # max = 208
3144770		 # 	collision with: 3 0 0 0  and 5 0 0 0 
 # max = 208
3144772		 # 	collision with: 1 2 0 0  and 1 3 0 0 
 # max = 208
3144774		 # 	collision with: 3 0 0 0  and 5 0 0 0 
 # max = 208
3144777		 # 	collision with: 4 5 0 0  and 4 1 1 0 
 # max = 208
3144779		 # 	collision with: 5 3 0 0  and 3 4 0 0 
 # max = 208
3144796		 # 	collision with: 2 1 0 0  and 5 2 0 0 
 # max = 208
3144798		 # 	collision with: 3 0 0 0  and 5 0 0 0 
 # max = 208
3144808		 # 	collision with: 6 0 0 0  and 1 2 0 0 
 # max = 208
3144810		 # 	collision with: 3 0 0 0  and 5 0 0 0 
 # max = 208
3144820		 # 	collision with: 0 0 0 0  and 1 0 1 0 
 # max = 208
3144822		 # 	collision with: 0 5 1 0  and 6 1 3 0 
 # max = 208
3144833		 # 	collision with: 3 2 0 0  and 4 2 0 0 
 # max = 208
3144835		 # 	collision with: 4 6 0 0  and 0 0 1 0 
 # max = 208
3144837		 # 	collision with: 5 1 1 0  and 1 0 2 0 
 # max = 208
3144839		 # 	collision with: 2 2 1 0  and 5 2 2 0 
 # max = 208
3144862		 # 	collision with: 3 6 0 0  and 2 5 1 0 
 # max = 208
3144872		 # 	collision with: 2 0 0 0  and 4 5 1 0 
 # max = 208
3144874		 # 	collision with: 6 2 1 0  and 3 3 1 0 
 # max = 208
3144877		 # 	collision with: 6 2 0 0  and 6 2 1 0 
 # max = 208
3144879		 # 	collision with: 2 5 0 0  and 6 1 1 0 
 # max = 208
3144895		 # 	collision with: 5 2 2 0  and 5 3 2 0 
 # max = 208
3144896		 # 	collision with: 0 5 1 0  and 2 5 1 0 
 # max = 208
3144900		 # 	collision with: 3 0 0 0  and 3 1 1 0 
 # max = 208
3144902		 # 	collision with: 5 0 0 0  and 3 2 1 0 
 # max = 208
3144912		 # 	collision with: 2 2 1 0  and 4 0 2 0 
 # max = 208
3144914		 # 	collision with: 5 1 0 0  and 0 5 1 0 
 # max = 208
3144920		 # 	collision with: 2 3 1 0  and 4 1 2 0 
 # max = 208
3144922		 # 	collision with: 2 4 1 0  and 2 0 2 0 
 # max = 208
3144944		 # 	collision with: 3 2 0 0  and 4 2 0 0 
 # max = 208
3144946		 # 	collision with: 5 4 0 0  and 5 1 1 0 
 # max = 208
3144952		 # 	collision with: 6 0 2 0  and 4 1 3 0 
 # max = 208
3144963		 # 	collision with: 0 0 0 0  and 1 0 1 0 
 # max = 208
3144964		 # 	collision with: 3 4 0 0  and 1 2 1 0 
 # max = 208
3144966		 # 	collision with: 2 5 0 0  and 1 2 2 0 
 # max = 208
3144968		 # 	collision with: 4 2 0 0  and 4 2 2 0 
 # max = 208
3144970		 # 	collision with: 3 3 0 0  and 6 1 1 0 
 # max = 208
3144973		 # 	collision with: 3 2 0 0  and 4 2 0 0 
 # max = 208
3144975		 # 	collision with: 4 6 0 0  and 0 0 1 0 
 # max = 208
3144994		 # 	collision with: 0 0 0 0  and 1 0 1 0 
 # max = 208
3145004		 # 	collision with: 5 6 0 0  and 3 4 1 0 
 # max = 208
3145006		 # 	collision with: 0 0 0 0  and 1 0 1 0 
 # max = 208
3145016		 # 	collision with: 2 3 0 0  and 6 0 2 0 
 # max = 208
3145018		 # 	collision with: 0 5 1 0  and 6 2 2 0 
 # max = 208
3145029		 # 	collision with: 1 6 0 0  and 4 0 2 0 
 # max = 208
3145035		 # 	collision with: 2 5 0 0  and 4 0 1 0 
 # max = 208
3145056		 # 	collision with: 3 0 0 0  and 1 1 2 0 
 # max = 208
3145068		 # 	collision with: 3 2 0 0  and 4 2 0 0 
 # max = 208
3145070		 # 	collision with: 3 1 2 0  and 0 2 2 0 
 # max = 208
3145073		 # 	collision with: 5 5 0 0  and 2 0 1 0 
 # max = 208
3145075		 # 	collision with: 2 2 0 0  and 2 2 1 0 
 # max = 208
3145089		 # 	collision with: 2 0 1 0  and 0 1 1 0 
 # max = 208
3145091		 # 	collision with: 5 1 0 0  and 5 1 2 0 
 # max = 208
3145092		 # 	collision with: 2 1 1 0  and 2 2 1 0 
 # max = 208
3145094		 # 	collision with: 4 0 1 0  and 6 2 1 0 
 # max = 208
3145098		 # 	collision with: 3 3 0 0  and 4 0 2 0 
 # max = 208
3145108		 # 	collision with: 1 3 0 0  and 5 5 1 0 
 # max = 208
3145110		 # 	collision with: 1 1 1 0  and 3 1 1 0 
 # max = 208
3145116		 # 	collision with: 4 1 1 0  and 2 0 2 0 
 # max = 208
3145118		 # 	collision with: 1 4 2 0  and 5 1 3 0 
 # max = 208
3145140		 # 	collision with: 3 0 1 0  and 3 1 2 0 
 # max = 208
3145148		 # 	collision with: 2 1 1 0  and 2 2 1 0 
 # max = 208
3145150		 # 	collision with: 5 2 1 0  and 5 3 1 0 
 # max = 208
3145157		 # 	collision with: 0 0 0 0  and 1 0 1 0 
 # max = 208
3145159		 # 	collision with: 5 5 0 0  and 5 0 1 0 
 # max = 208
3145160		 # 	collision with: 1 1 1 0  and 1 1 2 0 
 # max = 208
3145162		 # 	collision with: 0 0 0 0  and 1 0 1 0 
 # max = 208
3145166		 # 	collision with: 0 0 0 0  and 1 0 1 0 
 # max = 208
3145169		 # 	collision with: 0 0 0 0  and 1 0 1 0 
 # max = 208
3145188		 # 	collision with: 0 0 0 0  and 1 0 1 0 
 # max = 208
3145190		 # 	collision with: 1 5 0 0  and 3 1 1 0 
 # max = 208
3145200		 # 	collision with: 0 0 0 0  and 1 0 1 0 
 # max = 208
3145202		 # 	collision with: 3 6 0 0  and 6 2 1 0 
 # max = 208
3145212		 # 	collision with: 5 6 0 0  and 0 6 1 0 
 # max = 208
3145214		 # 	collision with: 3 4 1 0  and 2 2 2 0 
 # max = 208
3145225		 # 	collision with: 3 0 1 0  and 3 1 1 0 
 # max = 208
3145227		 # 	collision with: 4 0 0 0  and 6 1 1 0 
 # max = 208
3145229		 # 	collision with: 0 1 0 0  and 5 5 1 0 
 # max = 208
3145231		 # 	collision with: 1 3 1 0  and 0 4 1 0 
 # max = 208
3145252		 # 	collision with: 1 1 1 0  and 3 0 2 0 
 # max = 208
3145254		 # 	collision with: 0 5 0 0  and 3 6 1 0 
 # max = 208
3145264		 # 	collision with: 2 3 0 0  and 0 1 1 0 
 # max = 208
3145266		 # 	collision with: 5 4 1 0  and 6 2 2 0 
 # max = 208
3145269		 # 	collision with: 5 1 0 0  and 5 1 1 0 
 # max = 208
3145271		 # 	collision with: 2 1 1 0  and 2 3 1 0 
 # max = 208
3145285		 # 	collision with: 2 3 0 0  and 5 5 1 0 
 # max = 208
3145287		 # 	collision with: 0 3 0 0  and 6 2 1 0 
 # max = 208
3145288		 # 	collision with: 5 5 0 0  and 0 1 1 0 
 # max = 208
3145290		 # 	collision with: 1 4 0 0  and 6 1 2 0 
 # max = 208
3145292		 # 	collision with: 2 3 0 0  and 0 1 1 0 
 # max = 208
3145294		 # 	collision with: 0 3 0 0  and 5 1 1 0 
 # max = 208
3145306		 # 	collision with: 6 1 2 0  and 6 2 2 0 
 # max = 208
3145312		 # 	collision with: 1 2 1 0  and 1 3 1 0 
 # max = 208
3145314		 # 	collision with: 6 1 1 0  and 6 2 1 0 
 # max = 208
3145338		 # 	collision with: 0 0 0 0  and 1 0 1 0 
 # max = 208
3145344		 # 	collision with: 5 5 0 0  and 0 1 1 0 
 # max = 208
3145346		 # 	collision with: 0 0 0 0  and 1 0 1 0 
 # max = 208
3145353		 # 	collision with: 2 1 0 0  and 2 1 1 0 
 # max = 208
3145355		 # 	collision with: 6 1 1 0  and 0 3 1 0 
 # max = 208
3145356		 # 	collision with: 0 0 0 0  and 1 0 1 0 
 # max = 208
3145360		 # 	collision with: 3 2 0 0  and 4 2 0 0 
 # max = 208
3145362		 # 	collision with: 2 2 0 0  and 3 4 1 0 
 # max = 208
3145365		 # 	collision with: 3 4 0 0  and 6 0 1 0 
 # max = 208
3145367		 # 	collision with: 4 5 1 0  and 5 0 2 0 
 # max = 208
3145384		 # 	collision with: 2 0 0 0  and 1 3 2 0 
 # max = 208
3145396		 # 	collision with: 6 0 1 0  and 0 1 1 0 
 # max = 208
3145398		 # 	collision with: 4 0 0 0  and 1 2 1 0 
 # max = 208
3145408		 # 	collision with: 0 6 0 0  and 5 6 1 0 
 # max = 208
3145410		 # 	collision with: 5 6 0 0  and 1 1 2 0 
 # max = 208
3145421		 # 	collision with: 2 1 0 0  and 5 2 0 0 
 # max = 208
3145423		 # 	collision with: 0 3 0 0  and 4 0 1 0 
 # max = 208
3145425		 # 	collision with: 2 1 0 0  and 2 2 0 0 
 # max = 208
3145427		 # 	collision with: 0 3 0 0  and 4 0 1 0 
 # max = 208
3145448		 # 	collision with: 3 0 1 0  and 3 1 1 0 
 # max = 208
3145450		 # 	collision with: 5 0 1 0  and 4 2 1 0 
 # max = 208
3145460		 # 	collision with: 2 0 2 0  and 6 2 3 0 
 # max = 208
3145465		 # 	collision with: 4 1 0 0  and 0 1 1 0 
 # max = 208
3145467		 # 	collision with: 0 0 0 0  and 1 0 1 0 
 # max = 208
3145481		 # 	collision with: 2 1 0 0  and 2 2 0 0 
 # max = 208
3145483		 # 	collision with: 0 0 0 0  and 1 0 1 0 
 # max = 208
3145484		 # 	collision with: 3 2 0 0  and 4 2 0 0 
 # max = 208
3145486		 # 	collision with: 1 3 1 0  and 2 3 1 0 
 # max = 208
3145488		 # 	collision with: 5 6 0 0  and 4 1 1 0 
 # max = 208
3145500		 # 	collision with: 1 3 1 0  and 5 5 2 0 
 # max = 208
3145502		 # 	collision with: 0 0 0 0  and 1 0 1 0 
 # max = 208
3145510		 # 	collision with: 0 0 0 0  and 1 0 1 0 
 # max = 208
3145532		 # 	collision with: 0 0 0 0  and 1 0 1 0 
 # max = 208
3145534		 # 	collision with: 4 3 1 0  and 4 4 1 0 
 # max = 208
3145542		 # 	collision with: 6 1 0 0  and 6 2 1 0 
 # max = 208
3145549		 # 	collision with: 4 1 0 0  and 0 1 1 0 
 # max = 208
3145551		 # 	collision with: 0 2 0 0  and 3 1 1 0 
 # max = 208
3145552		 # 	collision with: 2 4 0 0  and 3 6 1 0 
 # max = 208
3145554		 # 	collision with: 2 3 0 0  and 2 1 1 0 
 # max = 208
3145556		 # 	collision with: 2 6 1 0  and 3 6 1 0 
 # max = 208
3145558		 # 	collision with: 0 1 1 0  and 1 0 2 0 
 # max = 208
3145561		 # 	collision with: 2 1 0 0  and 5 2 0 0 
 # max = 208
3145563		 # 	collision with: 6 3 0 0  and 6 0 1 0 
 # max = 208
3145580		 # 	collision with: 4 6 0 0  and 2 2 1 0 
 # max = 208
3145582		 # 	collision with: 0 3 0 0  and 5 1 1 0 
 # max = 208
3145592		 # 	collision with: 1 2 1 0  and 6 2 2 0 
 # max = 208
3145594		 # 	collision with: 4 1 0 0  and 4 1 2 0 
 # max = 208
3145604		 # 	collision with: 4 5 1 0  and 0 1 2 0 
 # max = 208
3145606		 # 	collision with: 2 0 0 0  and 4 3 2 0 
 # max = 208
3145619		 # 	collision with: 4 2 1 0  and 5 0 2 0 
 # max = 208
3145621		 # 	collision with: 4 5 0 0  and 1 2 1 0 
 # max = 208
3145644		 # 	collision with: 0 1 0 0  and 4 5 1 0 
 # max = 208
3145646		 # 	collision with: 0 5 1 0  and 2 5 1 0 
 # max = 208
3145656		 # 	collision with: 4 5 0 0  and 0 1 1 0 
 # max = 208
3145658		 # 	collision with: 6 6 0 0  and 0 4 1 0 
 # max = 208
3145661		 # 	collision with: 0 0 0 0  and 1 0 1 0 
 # max = 208
3145663		 # 	collision with: 4 4 0 0  and 4 4 1 0 
 # max = 208
3145677		 # 	collision with: 0 0 0 0  and 1 0 1 0 
 # max = 208
3145682		 # 	collision with: 0 0 0 0  and 1 0 1 0 
 # max = 208
3145684		 # 	collision with: 4 5 0 0  and 0 1 1 0 
 # max = 208
3145686		 # 	collision with: 0 0 0 0  and 1 0 1 0 
 # max = 208
3145696		 # 	collision with: 0 0 0 0  and 1 0 1 0 
 # max = 208
3145698		 # 	collision with: 3 0 1 0  and 3 2 1 0 
 # max = 208
3145704		 # 	collision with: 0 0 0 0  and 1 0 1 0 
 # max = 208
3145728		 # 	collision with: 3 6 0 0  and 4 2 1 0 
 # max = 208
3145730		 # 	collision with: 0 5 2 0  and 2 5 2 0 
 # max = 208
3145736		 # 	collision with: 1 1 1 0  and 3 1 1 0 
 # max = 208
3145738		 # 	collision with: 6 2 0 0  and 5 1 1 0 
 # max = 208
3145745		 # 	collision with: 3 0 0 0  and 3 0 1 0 
 # max = 208
3145747		 # 	collision with: 3 6 0 0  and 3 3 1 0 
 # max = 208
3145750		 # 	collision with: 2 4 1 0  and 4 4 1 0 
 # max = 208
3145752		 # 	collision with: 4 2 1 0  and 4 4 1 0 
 # max = 208
3145754		 # 	collision with: 5 1 1 0  and 1 2 1 0 
 # max = 208
3145757		 # 	collision with: 6 0 0 0  and 6 2 0 0 
 # max = 208
3145759		 # 	collision with: 2 4 1 0  and 4 4 1 0 
 # max = 208
3145776		 # 	collision with: 3 2 0 0  and 4 2 0 0 
 # max = 208
3145778		 # 	collision with: 3 3 0 0  and 2 6 1 0 
 # max = 208
3145788		 # 	collision with: 3 3 0 0  and 0 4 1 0 
 # max = 208
3145800		 # 	collision with: 3 5 0 0  and 6 5 1 0 
 # max = 208
3145802		 # 	collision with: 0 3 2 0  and 5 1 3 0 
 # max = 208
3145813		 # 	collision with: 6 1 0 0  and 1 0 1 0 
 # max = 208
3145815		 # 	collision with: 3 0 0 0  and 5 0 0 0 
 # max = 208
3145817		 # 	collision with: 3 2 0 0  and 4 2 0 0 
 # max = 208
3145819		 # 	collision with: 3 0 0 0  and 5 0 0 0 
 # max = 208
3145840		 # 	collision with: 0 0 1 0  and 1 0 1 0 
 # max = 208
3145842		 # 	collision with: 0 0 0 0  and 1 0 1 0 
 # max = 208
3145854		 # 	collision with: 0 0 0 0  and 1 0 1 0 
 # max = 208
3145859		 # 	collision with: 3 0 0 0  and 5 0 0 0 
 # max = 208
3145873		 # 	collision with: 3 2 0 0  and 4 2 0 0 
 # max = 208
3145875		 # 	collision with: 3 0 0 0  and 5 0 0 0 
 # max = 208
3145876		 # 	collision with: 0 0 0 0  and 1 0 1 0 
 # max = 208
3145878		 # 	collision with: 6 2 0 0  and 0 3 2 0 
 # max = 208
3145880		 # 	collision with: 0 0 0 0  and 1 0 1 0 
 # max = 208
3145882		 # 	collision with: 3 4 0 0  and 2 2 1 0 
 # max = 208
3145892		 # 	collision with: 5 0 0 0  and 5 0 1 0 
 # max = 208
3145900		 # 	collision with: 3 2 0 0  and 4 2 0 0 
 # max = 208
3145902		 # 	collision with: 5 4 0 0  and 6 1 1 0 
 # max = 208
3145924		 # 	collision with: 2 0 0 0  and 2 0 1 0 
 # max = 208
3145926		 # 	collision with: 6 2 0 0  and 2 6 1 0 
 # max = 208
3145932		 # 	collision with: 2 0 0 0  and 2 0 1 0 
 # max = 208
3145934		 # 	collision with: 0 3 0 0  and 6 1 1 0 
 # max = 208
3145941		 # 	collision with: 3 0 0 0  and 3 1 0 0 
 # max = 208
3145943		 # 	collision with: 3 0 0 0  and 5 0 0 0 
 # max = 208
3145944		 # 	collision with: 3 0 0 0  and 3 0 1 0 
 # max = 208
3145946		 # 	collision with: 1 2 1 0  and 1 4 1 0 
 # max = 208
3145948		 # 	collision with: 3 0 0 0  and 3 0 1 0 
 # max = 208
3145955		 # 	collision with: 3 0 0 0  and 5 0 0 0 
 # max = 208
3145972		 # 	collision with: 6 0 0 0  and 6 0 1 0 
 # max = 208
3145974		 # 	collision with: 3 2 1 0  and 4 2 1 0 
 # max = 208
3145986		 # 	collision with: 6 1 0 0  and 0 3 2 0 
 # max = 208
3146037		 # 	collision with: 0 4 1 0  and 1 4 1 0 
 # max = 208
3146039		 # 	collision with: 3 5 0 0  and 0 2 1 0 
 # max = 208
3146049		 # 	collision with: 5 0 0 0  and 4 5 1 0 
 # max = 208
3146051		 # 	collision with: 4 3 0 0  and 4 4 0 0 
 # max = 208
3146081		 # 	collision with: 3 2 0 0  and 4 2 0 0 
 # max = 208
3146083		 # 	collision with: 1 3 1 0  and 3 3 1 0 
 # max = 208
3146105		 # 	collision with: 5 6 0 0  and 2 0 1 0 
 # max = 208
3146107		 # 	collision with: 4 3 0 0  and 4 4 0 0 
 # max = 208
3146109		 # 	collision with: 3 2 0 0  and 4 2 0 0 
 # max = 208
3146111		 # 	collision with: 3 3 1 0  and 2 4 1 0 
 # max = 208
3146113		 # 	collision with: 5 6 0 0  and 5 6 1 0 
 # max = 208
3146115		 # 	collision with: 4 0 0 0  and 6 4 1 0 
 # max = 208
3146169		 # 	collision with: 1 6 0 0  and 1 6 1 0 
 # max = 208
3146171		 # 	collision with: 1 6 0 0  and 1 0 1 0 
 # max = 208
3146181		 # 	collision with: 6 1 0 0  and 5 0 1 0 
 # max = 208
3146183		 # 	collision with: 3 2 1 0  and 4 2 1 0 
 # max = 208
3146192		 # 	collision with: 6 4 2 0  and 3 1 3 0 
 # max = 208
3146194		 # 	collision with: 1 3 0 0  and 2 0 2 0 
 # max = 208
3146233		 # 	collision with: 3 2 0 0  and 4 2 0 0 
 # max = 208
3146235		 # 	collision with: 0 4 0 0  and 1 4 0 0 
 # max = 208
3146245		 # 	collision with: 5 3 0 0  and 3 2 1 0 
 # max = 208
3146277		 # 	collision with: 4 2 0 0  and 4 4 0 0 
 # max = 208
3146279		 # 	collision with: 1 2 0 0  and 1 4 0 0 
 # max = 208
3146301		 # 	collision with: 4 1 0 0  and 6 1 1 0 
 # max = 208
3146303		 # 	collision with: 1 2 0 0  and 0 4 0 0 
 # max = 208
3146305		 # 	collision with: 4 2 0 0  and 4 4 0 0 
 # max = 208
3146309		 # 	collision with: 1 1 2 0  and 0 3 2 0 
 # max = 208
3146311		 # 	collision with: 3 6 0 0  and 3 6 1 0 
 # max = 208
3146365		 # 	collision with: 5 1 0 0  and 4 2 1 0 
 # max = 208
3146367		 # 	collision with: 5 0 0 0  and 1 6 1 0 
 # max = 208
3146377		 # 	collision with: 5 0 0 0  and 4 1 1 0 
 # max = 208
3146379		 # 	collision with: 5 6 0 0  and 6 1 1 0 
 # max = 208
3146388		 # 	collision with: 3 4 0 0  and 5 0 1 0 
 # max = 208
3146390		 # 	collision with: 1 5 0 0  and 2 1 1 0 
 # max = 208
3146429		 # 	collision with: 3 2 0 0  and 4 2 1 0 
 # max = 208
3146431		 # 	collision with: 0 0 1 0  and 2 2 1 0 
 # max = 208
3146443		 # 	collision with: 4 5 0 0  and 4 2 1 0 
 # max = 208
3146473		 # 	collision with: 6 2 0 0  and 1 3 0 0 
 # max = 208
3146475		 # 	collision with: 1 1 1 0  and 3 2 2 0 
 # max = 208
3146497		 # 	collision with: 3 2 0 0  and 4 2 0 0 
 # max = 208
3146499		 # 	collision with: 5 0 0 0  and 0 5 2 0 
 # max = 208
3146501		 # 	collision with: 6 2 0 0  and 1 3 0 0 
 # max = 208
3146503		 # 	collision with: 4 2 0 0  and 3 0 1 0 
 # max = 208
3146505		 # 	collision with: 2 2 0 0  and 0 4 1 0 
 # max = 208
3146561		 # 	collision with: 2 0 1 0  and 4 0 1 0 
 # max = 208
3146563		 # 	collision with: 0 4 0 0  and 1 4 0 0 
 # max = 208
3146584		 # 	collision with: 6 4 0 0  and 2 6 1 0 
 # max = 208
3146586		 # 	collision with: 0 2 0 0  and 5 1 2 0 
 # max = 208
3146625		 # 	collision with: 5 1 0 0  and 5 3 0 0 
 # max = 208
3146627		 # 	collision with: 3 1 0 0  and 5 3 0 0 
 # max = 208
3146637		 # 	collision with: 3 1 0 0  and 3 1 1 0 
 # max = 208
3146639		 # 	collision with: 0 4 0 0  and 1 4 0 0 
 # max = 208
3146671		 # 	collision with: 1 1 0 0  and 3 2 1 0 
 # max = 208
3146693		 # 	collision with: 1 1 0 0  and 1 1 1 0 
 # max = 208
3146695		 # 	collision with: 0 4 0 0  and 1 4 0 0 
 # max = 208
3146697		 # 	collision with: 0 6 0 0  and 3 1 1 0 
 # max = 208
3146699		 # 	collision with: 3 5 1 0  and 0 2 2 0 
 # max = 208
3146703		 # 	collision with: 0 1 1 0  and 5 2 1 0 
 # max = 208
3146757		 # 	collision with: 1 3 0 0  and 3 5 1 0 
 # max = 208
3146759		 # 	collision with: 6 1 1 0  and 1 2 1 0 
 # max = 208
3146769		 # 	collision with: 6 6 0 0  and 3 2 1 0 
 # max = 208
3146771		 # 	collision with: 2 1 0 0  and 2 3 0 0 
 # max = 208
3146780		 # 	collision with: 0 3 0 0  and 2 1 1 0 
 # max = 208
3146782		 # 	collision with: 2 6 0 0  and 5 4 1 0 
 # max = 208
3146821		 # 	collision with: 3 0 0 0  and 0 1 2 0 
 # max = 208
3146823		 # 	collision with: 4 1 0 0  and 6 2 1 0 
 # max = 208
3146833		 # 	collision with: 2 1 0 0  and 2 2 0 0 
 # max = 208
3146835		 # 	collision with: 2 1 0 0  and 2 1 1 0 
 # max = 208
3146865		 # 	collision with: 2 1 0 0  and 5 2 0 0 
 # max = 208
3146867		 # 	collision with: 6 1 1 0  and 6 2 1 0 
 # max = 208
3146891		 # 	collision with: 3 1 0 0  and 3 1 1 0 
 # max = 208
3146895		 # 	collision with: 6 1 1 0  and 6 2 1 0 
 # max = 208
3146897		 # 	collision with: 4 0 1 0  and 0 2 1 0 
 # max = 208
3146899		 # 	collision with: 6 0 2 0  and 3 1 2 0 
 # max = 208
3146953		 # 	collision with: 3 0 2 0  and 3 1 2 0 
 # max = 208
3146955		 # 	collision with: 1 1 0 0  and 3 2 2 0 
 # max = 208
3146965		 # 	collision with: 4 2 1 0  and 4 4 1 0 
 # max = 208
3146967		 # 	collision with: 0 4 0 0  and 1 4 0 0 
 # max = 208
3146976		 # 	collision with: 2 4 0 0  and 3 1 1 0 
 # max = 208
3146978		 # 	collision with: 1 2 0 0  and 4 6 1 0 
 # max = 208
3147029		 # 	collision with: 0 1 0 0  and 3 1 1 0 
 # max = 208
3147031		 # 	collision with: 6 2 1 0  and 6 2 2 0 
 # max = 208
3147061		 # 	collision with: 6 5 0 0  and 3 0 1 0 
 # max = 208
3147063		 # 	collision with: 6 0 0 0  and 2 2 0 0 
 # max = 208
3147085		 # 	collision with: 1 1 1 0  and 2 2 2 0 
 # max = 208
3147089		 # 	collision with: 4 3 0 0  and 2 2 2 0 
 # max = 208
3147091		 # 	collision with: 6 0 0 0  and 2 2 0 0 
 # max = 208
3147093		 # 	collision with: 3 2 0 0  and 4 2 0 0 
 # max = 208
3147095		 # 	collision with: 3 2 0 0  and 1 5 2 0 
 # max = 208
3147151		 # 	collision with: 5 2 0 0  and 2 2 2 0 
 # max = 208
3147161		 # 	collision with: 6 0 0 0  and 1 2 0 0 
 # max = 208
3147163		 # 	collision with: 5 2 1 0  and 5 3 1 0 
 # max = 208
3147172		 # 	collision with: 3 2 0 0  and 6 3 1 0 
 # max = 208
3147174		 # 	collision with: 0 1 0 0  and 5 2 1 0 
 # max = 208
3147213		 # 	collision with: 2 3 0 0  and 5 5 0 0 
 # max = 208
3147215		 # 	collision with: 1 1 2 0  and 2 1 2 0 
 # max = 208
3147225		 # 	collision with: 6 1 0 0  and 3 4 2 0 
 # max = 208
3147227		 # 	collision with: 3 0 0 0  and 1 1 1 0 
 # max = 208
3147257		 # 	collision with: 0 0 0 0  and 3 3 1 0 
 # max = 208
3147281		 # 	collision with: 2 6 0 0  and 6 4 1 0 
 # max = 208
3147283		 # 	collision with: 3 0 1 0  and 3 2 1 0 
 # max = 208
3147285		 # 	collision with: 1 3 1 0  and 3 3 1 0 
 # max = 208
3147287		 # 	collision with: 0 4 0 0  and 1 4 0 0 
 # max = 208
3147289		 # 	collision with: 5 2 0 0  and 5 2 2 0 
 # max = 208
3147291		 # 	collision with: 3 3 1 0  and 2 4 1 0 
 # max = 208
3147345		 # 	collision with: 1 2 0 0  and 1 2 2 0 
 # max = 208
3147357		 # 	collision with: 3 2 0 0  and 4 2 0 0 
 # max = 208
3147359		 # 	collision with: 0 1 0 0  and 5 2 2 0 
 # max = 208
3147413		 # 	collision with: 5 4 0 0  and 4 0 1 0 
 # max = 208
3147415		 # 	collision with: 3 4 0 0  and 2 0 1 0 
 # max = 208
3147417		 # 	collision with: 0 1 1 0  and 1 1 1 0 
 # max = 208
3147419		 # 	collision with: 2 1 0 0  and 6 1 1 0 
 # max = 208
3147461		 # 	collision with: 2 6 0 0  and 2 6 1 0 
 # max = 208
3147469		 # 	collision with: 3 3 0 0  and 2 1 2 0 
 # max = 208
3147471		 # 	collision with: 2 3 0 0  and 2 3 1 0 
 # max = 208
3147493		 # 	collision with: 4 3 0 0  and 2 0 1 0 
 # max = 208
3147495		 # 	collision with: 4 1 1 0  and 1 3 1 0 
 # max = 208
3147501		 # 	collision with: 5 3 0 0  and 6 0 1 0 
 # max = 208
3147545		 # 	collision with: 1 6 0 0  and 1 6 1 0 
 # max = 208
3147547		 # 	collision with: 3 1 1 0  and 3 1 2 0 
 # max = 208
3147549		 # 	collision with: 2 3 1 0  and 4 3 1 0 
 # max = 208
3147551		 # 	collision with: 2 1 1 0  and 2 3 1 0 
 # max = 208
3147564		 # 	collision with: 1 3 0 0  and 3 1 1 0 
 # max = 208
3147566		 # 	collision with: 3 5 1 0  and 0 0 2 0 
 # max = 208
3147611		 # 	collision with: 4 3 0 0  and 2 3 1 0 
 # max = 208
3147613		 # 	collision with: 3 2 0 0  and 4 4 0 0 
 # max = 208
3147615		 # 	collision with: 0 1 0 0  and 1 1 0 0 
 # max = 208
3147657		 # 	collision with: 4 2 0 0  and 4 4 0 0 
 # max = 208
3147659		 # 	collision with: 2 3 0 0  and 1 2 1 0 
 # max = 208
3147665		 # 	collision with: 3 1 0 0  and 6 2 1 0 
 # max = 208
3147667		 # 	collision with: 2 1 0 0  and 1 2 1 0 
 # max = 208
3147689		 # 	collision with: 3 2 0 0  and 4 2 0 0 
 # max = 208
3147691		 # 	collision with: 6 1 1 0  and 6 2 1 0 
 # max = 208
3147697		 # 	collision with: 3 2 0 0  and 4 4 0 0 
 # max = 208
3147699		 # 	collision with: 0 1 0 0  and 1 1 0 0 
 # max = 208
3147743		 # 	collision with: 0 1 0 0  and 3 4 1 0 
 # max = 208
3147745		 # 	collision with: 3 2 0 0  and 4 2 0 0 
 # max = 208
3147747		 # 	collision with: 6 5 0 0  and 5 0 1 0 
 # max = 208
3147760		 # 	collision with: 0 2 0 0  and 4 1 1 0 
 # max = 208
3147762		 # 	collision with: 1 1 0 0  and 2 0 1 0 
 # max = 208
3147805		 # 	collision with: 3 0 1 0  and 5 1 1 0 
 # max = 208
3147809		 # 	collision with: 3 0 2 0  and 6 2 2 0 
 # max = 208
3147811		 # 	collision with: 0 4 0 0  and 3 1 1 0 
 # max = 208
3147855		 # 	collision with: 0 5 0 0  and 6 0 2 0 
 # max = 208
3147861		 # 	collision with: 5 2 0 0  and 3 3 1 0 
 # max = 208
3147863		 # 	collision with: 0 1 0 0  and 1 1 0 0 
 # max = 208
3147887		 # 	collision with: 3 0 1 0  and 3 2 1 0 
 # max = 208
3147893		 # 	collision with: 1 5 1 0  and 3 5 1 0 
 # max = 208
3147895		 # 	collision with: 0 4 0 0  and 1 6 1 0 
 # max = 208
3147937		 # 	collision with: 2 1 1 0  and 2 2 1 0 
 # max = 208
3147939		 # 	collision with: 4 6 0 0  and 6 4 1 0 
 # max = 208
3147941		 # 	collision with: 0 0 0 0  and 2 0 2 0 
 # max = 208
3147943		 # 	collision with: 5 3 0 0  and 4 1 1 0 
 # max = 208
3147956		 # 	collision with: 1 5 0 0  and 2 2 1 0 
 # max = 208
3147958		 # 	collision with: 3 2 0 0  and 4 2 2 0 
 # max = 208
3148001		 # 	collision with: 4 2 0 0  and 3 6 1 0 
 # max = 208
3148003		 # 	collision with: 2 4 0 0  and 2 0 2 0 
 # max = 208
3148005		 # 	collision with: 5 1 0 0  and 5 3 0 0 
 # max = 208
3148007		 # 	collision with: 5 0 0 0  and 3 3 1 0 
 # max = 208
3148049		 # 	collision with: 3 2 0 0  and 4 2 0 0 
 # max = 208
3148051		 # 	collision with: 2 1 0 0  and 2 3 0 0 
 # max = 208
3148057		 # 	collision with: 0 1 0 0  and 4 4 1 0 
 # max = 208
3148059		 # 	collision with: 0 1 0 0  and 3 4 1 0 
 # max = 208
3148081		 # 	collision with: 0 1 0 0  and 3 6 1 0 
 # max = 208
3148089		 # 	collision with: 5 1 0 0  and 5 3 0 0 
 # max = 208
3148091		 # 	collision with: 2 0 2 0  and 0 1 2 0 
 # max = 208
3148133		 # 	collision with: 3 2 0 0  and 4 2 0 0 
 # max = 208
3148137		 # 	collision with: 2 0 0 0  and 0 0 2 0 
 # max = 208
3148139		 # 	collision with: 0 1 0 0  and 1 1 0 0 
 # max = 208
3148152		 # 	collision with: 0 4 0 0  and 5 0 1 0 
 # max = 208
3148154		 # 	collision with: 2 5 0 0  and 5 1 1 0 
 # max = 208
3148197		 # 	collision with: 2 1 0 0  and 5 2 0 0 
 # max = 208
3148199		 # 	collision with: 0 0 1 0  and 2 0 1 0 
 # max = 208
3148201		 # 	collision with: 3 2 0 0  and 4 2 0 0 
 # max = 208
3148245		 # 	collision with: 1 0 1 0  and 2 1 1 0 
 # max = 208
3148247		 # 	collision with: 0 1 0 0  and 1 1 0 0 
 # max = 208
3148253		 # 	collision with: 2 1 0 0  and 5 2 0 0 
 # max = 208
3148277		 # 	collision with: 4 4 0 0  and 4 4 1 0 
 # max = 208
3148279		 # 	collision with: 4 3 1 0  and 4 4 1 0 
 # max = 208
3148285		 # 	collision with: 3 2 0 0  and 4 2 0 0 
 # max = 208
3148287		 # 	collision with: 6 1 0 0  and 6 2 0 0 
 # max = 208
3148329		 # 	collision with: 1 4 0 0  and 4 2 1 0 
 # max = 208
3148331		 # 	collision with: 0 1 0 0  and 1 1 0 0 
 # max = 208
3148333		 # 	collision with: 3 5 0 0  and 6 1 1 0 
 # max = 208
3148335		 # 	collision with: 4 3 1 0  and 4 4 1 0 
 # max = 208
3148348		 # 	collision with: 2 0 0 0  and 0 0 2 0 
 # max = 208
3148350		 # 	collision with: 2 5 0 0  and 1 6 1 0 
 # max = 208
3148393		 # 	collision with: 6 6 0 0  and 0 3 1 0 
 # max = 208
3148395		 # 	collision with: 6 4 0 0  and 4 6 1 0 
 # max = 208
3148397		 # 	collision with: 1 1 0 0  and 0 1 1 0 
 # max = 208
3148399		 # 	collision with: 6 5 1 0  and 4 0 2 0 
 # max = 208
3148441		 # 	collision with: 6 0 0 0  and 1 2 0 0 
 # max = 208
3148443		 # 	collision with: 6 5 0 0  and 3 3 2 0 
 # max = 208
3148451		 # 	collision with: 2 2 0 0  and 4 1 2 0 
 # max = 208
3148473		 # 	collision with: 1 5 1 0  and 3 5 1 0 
 # max = 208
3148475		 # 	collision with: 1 2 1 0  and 1 4 1 0 
 # max = 208
3148483		 # 	collision with: 2 1 0 0  and 2 3 1 0 
 # max = 208
3148525		 # 	collision with: 6 0 0 0  and 1 2 0 0 
 # max = 208
3148527		 # 	collision with: 6 1 0 0  and 6 2 1 0 
 # max = 208
3148529		 # 	collision with: 2 3 1 0  and 0 0 2 0 
 # max = 208
3148544		 # 	collision with: 6 5 0 0  and 0 0 1 0 
 # max = 208
3148546		 # 	collision with: 2 0 0 0  and 0 0 2 0 
 # max = 208
3148589		 # 	collision with: 3 0 0 0  and 3 1 0 0 
 # max = 208
3148591		 # 	collision with: 1 6 0 0  and 0 4 1 0 
 # max = 208
3148595		 # 	collision with: 0 0 0 0  and 1 1 0 0 
 # max = 208
3148637		 # 	collision with: 4 1 1 0  and 4 1 2 0 
 # max = 208
3148639		 # 	collision with: 5 2 1 0  and 6 4 1 0 
 # max = 208
3148645		 # 	collision with: 3 0 0 0  and 3 1 0 0 
 # max = 208
3148647		 # 	collision with: 1 6 0 0  and 0 4 1 0 
 # max = 208
3148669		 # 	collision with: 5 2 0 0  and 3 5 1 0 
 # max = 208
3148671		 # 	collision with: 5 2 1 0  and 5 3 1 0 
 # max = 208
3148677		 # 	collision with: 1 1 1 0  and 3 2 1 0 
 # max = 208
3148679		 # 	collision with: 0 0 0 0  and 1 1 0 0 
 # max = 208
3148721		 # 	collision with: 3 0 0 0  and 1 3 1 0 
 # max = 208
3148723		 # 	collision with: 2 2 0 0  and 4 6 1 0 
 # max = 208
3148727		 # 	collision with: 5 2 1 0  and 5 3 1 0 
 # max = 208
3148740		 # 	collision with: 3 2 0 0  and 4 2 0 0 
 # max = 208
3148741		 # 	collision with: 3 2 0 0  and 4 2 0 0 
 # max = 208
3148742		 # 	collision with: 1 1 0 0  and 0 3 0 0 
 # max = 208
3148743		 # 	collision with: 4 3 2 0  and 4 4 2 0 
 # max = 208
3148772		 # 	collision with: 1 2 0 0  and 1 3 0 0 
 # max = 208
3148773		 # 	collision with: 1 4 0 0  and 2 4 1 0 
 # max = 208
3148774		 # 	collision with: 6 1 0 0  and 6 2 0 0 
 # max = 208
3148775		 # 	collision with: 2 4 0 0  and 6 2 1 0 
 # max = 208
3148804		 # 	collision with: 6 0 0 0  and 6 2 0 0 
 # max = 208
3148805		 # 	collision with: 1 0 1 0  and 6 1 3 0 
 # max = 208
3148806		 # 	collision with: 2 0 0 0  and 6 2 0 0 
 # max = 208
3148807		 # 	collision with: 5 2 1 0  and 5 3 1 0 
 # max = 208
3148836		 # 	collision with: 2 1 0 0  and 2 2 0 0 
 # max = 208
3148837		 # 	collision with: 2 6 0 0  and 2 6 1 0 
 # max = 208
3148838		 # 	collision with: 2 0 0 0  and 6 1 0 0 
 # max = 208
3148839		 # 	collision with: 1 0 1 0  and 3 0 1 0 
 # max = 208
3148868		 # 	collision with: 4 2 0 0  and 4 4 0 0 
 # max = 208
3148869		 # 	collision with: 2 1 1 0  and 2 2 1 0 
 # max = 208
3148870		 # 	collision with: 3 0 0 0  and 3 2 0 0 
 # max = 208
3148871		 # 	collision with: 0 5 0 0  and 1 5 0 0 
 # max = 208
3148900		 # 	collision with: 6 0 0 0  and 1 2 0 0 
 # max = 208
3148901		 # 	collision with: 1 5 0 0  and 1 0 2 0 
 # max = 208
3148902		 # 	collision with: 0 2 0 0  and 1 3 0 0 
 # max = 208
3148903		 # 	collision with: 3 3 0 0  and 0 1 1 0 
 # max = 208
3148932		 # 	collision with: 3 0 0 0  and 3 1 0 0 
 # max = 208
3148933		 # 	collision with: 2 5 0 0  and 3 2 2 0 
 # max = 208
3148934		 # 	collision with: 6 2 0 0  and 2 4 0 0 
 # max = 208
3148935		 # 	collision with: 4 3 0 0  and 4 4 0 0 
 # max = 208
3148936		 # 	collision with: 0 6 0 0  and 6 3 1 0 
 # max = 208
3148937		 # 	collision with: 3 2 1 0  and 4 4 1 0 
 # max = 208
3148938		 # 	collision with: 5 2 1 0  and 1 1 2 0 
 # max = 208
3148939		 # 	collision with: 1 4 0 0  and 3 1 2 0 
 # max = 208
3148968		 # 	collision with: 0 5 1 0  and 1 5 1 0 
 # max = 208
3148969		 # 	collision with: 3 2 0 0  and 4 4 0 0 
 # max = 208
3148970		 # 	collision with: 5 1 0 0  and 2 6 1 0 
 # max = 208
3148971		 # 	collision with: 0 5 0 0  and 1 5 0 0 
 # max = 208
3149000		 # 	collision with: 4 3 0 0  and 6 0 1 0 
 # max = 208
3149001		 # 	collision with: 0 1 1 0  and 2 1 1 0 
 # max = 208
3149002		 # 	collision with: 2 2 0 0  and 5 2 1 0 
 # max = 208
3149003		 # 	collision with: 1 2 0 0  and 1 4 0 0 
 # max = 208
3149032		 # 	collision with: 3 2 0 0  and 4 2 0 0 
 # max = 208
3149033		 # 	collision with: 3 2 0 0  and 4 2 0 0 
 # max = 208
3149034		 # 	collision with: 4 2 1 0  and 1 0 2 0 
 # max = 208
3149035		 # 	collision with: 6 0 0 0  and 3 4 1 0 
 # max = 208
3149064		 # 	collision with: 2 3 0 0  and 3 3 2 0 
 # max = 208
3149065		 # 	collision with: 4 2 0 0  and 4 4 0 0 
 # max = 208
3149066		 # 	collision with: 0 5 0 0  and 1 5 0 0 
 # max = 208
3149067		 # 	collision with: 6 2 0 0  and 2 4 0 0 
 # max = 208
3149096		 # 	collision with: 0 1 0 0  and 2 2 1 0 
 # max = 208
3149097		 # 	collision with: 5 1 0 0  and 5 1 2 0 
 # max = 208
3149098		 # 	collision with: 4 0 0 0  and 2 3 1 0 
 # max = 208
3149099		 # 	collision with: 1 5 0 0  and 5 3 1 0 
 # max = 208
3149128		 # 	collision with: 5 1 1 0  and 5 3 1 0 
 # max = 208
3149129		 # 	collision with: 2 6 1 0  and 4 6 1 0 
 # max = 208
3149130		 # 	collision with: 6 1 1 0  and 6 2 1 0 
 # max = 208
3149131		 # 	collision with: 3 1 1 0  and 2 0 2 0 
 # max = 208
3149132		 # 	collision with: 2 1 0 0  and 6 6 2 0 
 # max = 208
3149133		 # 	collision with: 6 6 0 0  and 2 1 1 0 
 # max = 208
3149134		 # 	collision with: 0 2 0 0  and 6 4 1 0 
 # max = 208
3149135		 # 	collision with: 0 2 1 0  and 1 3 1 0 
 # max = 208
3149164		 # 	collision with: 5 6 0 0  and 3 3 1 0 
 # max = 208
3149165		 # 	collision with: 1 2 0 0  and 1 3 0 0 
 # max = 208
3149166		 # 	collision with: 0 5 0 0  and 1 5 0 0 
 # max = 208
3149167		 # 	collision with: 2 1 1 0  and 2 3 1 0 
 # max = 208
3149196		 # 	collision with: 6 2 0 0  and 6 2 1 0 
 # max = 208
3149197		 # 	collision with: 1 3 1 0  and 1 3 2 0 
 # max = 208
3149198		 # 	collision with: 4 0 0 0  and 0 1 1 0 
 # max = 208
3149199		 # 	collision with: 2 2 0 0  and 2 2 1 0 
 # max = 208
3149228		 # 	collision with: 5 1 1 0  and 3 4 2 0 
 # max = 208
3149229		 # 	collision with: 6 6 0 0  and 6 3 1 0 
 # max = 208
3149230		 # 	collision with: 4 6 0 0  and 4 6 1 0 
 # max = 208
3149231		 # 	collision with: 5 2 0 0  and 5 3 0 0 
 # max = 208
3149260		 # 	collision with: 4 2 0 0  and 3 6 1 0 
 # max = 208
3149261		 # 	collision with: 6 1 0 0  and 3 0 1 0 
 # max = 208
3149262		 # 	collision with: 0 1 2 0  and 2 1 2 0 
 # max = 208
3149263		 # 	collision with: 0 2 0 0  and 1 3 0 0 
 # max = 208
3149292		 # 	collision with: 0 1 1 0  and 5 2 1 0 
 # max = 208
3149293		 # 	collision with: 6 2 0 0  and 1 3 0 0 
 # max = 208
3149294		 # 	collision with: 1 5 0 0  and 5 2 1 0 
 # max = 208
3149295		 # 	collision with: 0 5 0 0  and 1 5 0 0 
 # max = 208
3149324		 # 	collision with: 3 2 0 0  and 4 2 0 0 
 # max = 208
3149325		 # 	collision with: 3 2 0 0  and 4 2 0 0 
 # max = 208
3149326		 # 	collision with: 0 1 0 0  and 3 6 1 0 
 # max = 208
3149327		 # 	collision with: 5 2 0 0  and 0 5 2 0 
 # max = 208
3149328		 # 	collision with: 6 3 0 0  and 5 2 1 0 
 # max = 208
3149329		 # 	collision with: 5 1 0 0  and 5 3 0 0 
 # max = 208
3149330		 # 	collision with: 1 0 1 0  and 3 0 3 0 
 # max = 208
3149331		 # 	collision with: 2 1 0 0  and 2 3 0 0 
 # max = 208
3149360		 # 	collision with: 1 2 1 0  and 6 0 2 0 
 # max = 208
3149361		 # 	collision with: 2 2 0 0  and 2 1 2 0 
 # max = 208
3149362		 # 	collision with: 1 6 0 0  and 3 2 1 0 
 # max = 208
3149363		 # 	collision with: 3 2 0 0  and 3 0 1 0 
 # max = 208
3149392		 # 	collision with: 3 2 0 0  and 4 2 0 0 
 # max = 208
3149393		 # 	collision with: 3 2 0 0  and 4 2 0 0 
 # max = 208
3149394		 # 	collision with: 2 2 0 0  and 2 2 1 0 
 # max = 208
3149395		 # 	collision with: 0 5 0 0  and 1 5 0 0 
 # max = 208
3149424		 # 	collision with: 1 1 0 0  and 4 0 1 0 
 # max = 208
3149425		 # 	collision with: 1 4 1 0  and 2 4 1 0 
 # max = 208
3149426		 # 	collision with: 6 2 1 0  and 1 2 2 0 
 # max = 208
3149427		 # 	collision with: 1 1 0 0  and 0 3 0 0 
 # max = 208
3149456		 # 	collision with: 1 0 1 0  and 3 0 1 0 
 # max = 208
3149457		 # 	collision with: 6 1 0 0  and 6 1 1 0 
 # max = 208
3149458		 # 	collision with: 1 2 1 0  and 1 4 1 0 
 # max = 208
3149459		 # 	collision with: 2 4 0 0  and 6 2 1 0 
 # max = 208
3149488		 # 	collision with: 5 5 0 0  and 5 5 1 0 
 # max = 208
3149489		 # 	collision with: 2 3 1 0  and 3 3 1 0 
 # max = 208
3149490		 # 	collision with: 0 5 0 0  and 1 5 0 0 
 # max = 208
3149491		 # 	collision with: 4 2 0 0  and 1 0 1 0 
 # max = 208
3149520		 # 	collision with: 5 3 0 0  and 0 3 1 0 
 # max = 208
3149521		 # 	collision with: 3 3 0 0  and 2 3 1 0 
 # max = 208
3149522		 # 	collision with: 3 2 1 0  and 4 2 1 0 
 # max = 208
3149523		 # 	collision with: 3 2 1 0  and 4 2 1 0 
 # max = 208
3149524		 # 	collision with: 1 0 1 0  and 3 0 3 0 
 # max = 208
3149525		 # 	collision with: 2 6 0 0  and 4 0 2 0 
 # max = 208
3149526		 # 	collision with: 4 0 0 0  and 2 1 1 0 
 # max = 208
3149527		 # 	collision with: 3 2 1 0  and 5 6 2 0 
 # max = 208
3149556		 # 	collision with: 6 4 0 0  and 4 4 1 0 
 # max = 208
3149557		 # 	collision with: 2 1 0 0  and 5 2 0 0 
 # max = 208
3149558		 # 	collision with: 3 6 0 0  and 0 1 2 0 
 # max = 208
3149559		 # 	collision with: 6 1 0 0  and 6 2 0 0 
 # max = 208
3149588		 # 	collision with: 6 4 1 0  and 4 2 2 0 
 # max = 208
3149589		 # 	collision with: 3 0 1 0  and 3 1 1 0 
 # max = 208
3149590		 # 	collision with: 0 5 0 0  and 1 5 0 0 
 # max = 208
3149591		 # 	collision with: 1 5 0 0  and 1 1 1 0 
 # max = 208
3149620		 # 	collision with: 3 0 1 0  and 0 2 1 0 
 # max = 208
3149621		 # 	collision with: 2 1 0 0  and 2 2 0 0 
 # max = 208
3149622		 # 	collision with: 1 0 1 0  and 3 0 1 0 
 # max = 208
3149623		 # 	collision with: 2 6 0 0  and 4 1 1 0 
 # max = 208
3149652		 # 	collision with: 6 1 0 0  and 6 1 1 0 
 # max = 208
3149653		 # 	collision with: 5 4 0 0  and 6 0 2 0 
 # max = 208
3149654		 # 	collision with: 3 3 0 0  and 2 3 2 0 
 # max = 208
3149655		 # 	collision with: 4 5 0 0  and 1 0 1 0 
 # max = 208
3149684		 # 	collision with: 3 2 0 0  and 4 2 0 0 
 # max = 208
3149685		 # 	collision with: 3 2 0 0  and 4 2 0 0 
 # max = 208
3149686		 # 	collision with: 6 1 0 0  and 2 4 1 0 
 # max = 208
3149687		 # 	collision with: 2 4 0 0  and 6 2 1 0 
 # max = 208
3149716		 # 	collision with: 3 1 0 0  and 1 0 2 0 
 # max = 208
3149717		 # 	collision with: 1 3 0 0  and 4 3 1 0 
 # max = 208
3149718		 # 	collision with: 4 0 0 0  and 3 6 1 0 
 # max = 208
3149719		 # 	collision with: 0 5 0 0  and 1 5 0 0 
 # max = 208
3149720		 # 	collision with: 1 4 0 0  and 2 6 2 0 
 # max = 208
3149721		 # 	collision with: 6 0 0 0  and 1 2 0 0 
 # max = 208
3149722		 # 	collision with: 5 1 2 0  and 2 6 4 0 
 # max = 240
3149723		 # 	collision with: 2 0 0 0  and 6 2 0 0 
 # max = 240
3149752		 # 	collision with: 3 2 0 0  and 4 2 0 0 
 # max = 240
3149753		 # 	collision with: 3 2 0 0  and 4 2 0 0 
 # max = 240
3149754		 # 	collision with: 4 2 0 0  and 3 0 1 0 
 # max = 240
3149755		 # 	collision with: 1 6 0 0  and 1 0 1 0 
 # max = 240
3149784		 # 	collision with: 3 0 1 0  and 3 1 1 0 
 # max = 240
3149785		 # 	collision with: 6 0 0 0  and 6 2 0 0 
 # max = 240
3149786		 # 	collision with: 0 1 1 0  and 3 3 1 0 
 # max = 240
3149787		 # 	collision with: 2 6 1 0  and 6 5 2 0 
 # max = 240
3149816		 # 	collision with: 3 1 0 0  and 0 2 1 0 
 # max = 240
3149817		 # 	collision with: 4 4 1 0  and 3 2 2 0 
 # max = 240
3149818		 # 	collision with: 6 5 0 0  and 4 1 1 0 
 # max = 240
3149819		 # 	collision with: 0 5 0 0  and 1 5 0 0 
 # max = 240
3149848		 # 	collision with: 2 2 0 0  and 0 1 2 0 
 # max = 240
3149849		 # 	collision with: 5 2 1 0  and 6 3 1 0 
 # max = 240
3149850		 # 	collision with: 4 1 0 0  and 4 1 1 0 
 # max = 240
3149851		 # 	collision with: 3 0 0 0  and 3 2 0 0 
 # max = 240
3149880		 # 	collision with: 6 2 0 0  and 6 0 1 0 
 # max = 240
3149881		 # 	collision with: 3 3 0 0  and 2 0 1 0 
 # max = 240
3149882		 # 	collision with: 1 4 0 0  and 3 1 1 0 
 # max = 240
3149883		 # 	collision with: 0 0 0 0  and 2 1 1 0 
 # max = 240
3149912		 # 	collision with: 0 2 0 0  and 3 0 1 0 
 # max = 240
3149913		 # 	collision with: 0 4 0 0  and 4 1 1 0 
 # max = 240
3149914		 # 	collision with: 0 5 0 0  and 1 5 0 0 
 # max = 240
3149915		 # 	collision with: 2 4 0 0  and 6 1 1 0 
 # max = 240
3149916		 # 	collision with: 1 4 0 0  and 0 0 1 0 
 # max = 240
3149917		 # 	collision with: 4 4 0 0  and 3 2 1 0 
 # max = 240
3149918		 # 	collision with: 3 6 1 0  and 4 0 2 0 
 # max = 240
3149919		 # 	collision with: 0 5 0 0  and 1 5 0 0 
 # max = 240
3149948		 # 	collision with: 1 0 1 0  and 0 2 1 0 
 # max = 240
3149949		 # 	collision with: 1 6 0 0  and 3 3 2 0 
 # max = 240
3149950		 # 	collision with: 2 2 1 0  and 0 3 1 0 
 # max = 240
3149951		 # 	collision with: 1 4 0 0  and 2 4 1 0 
 # max = 240
3149980		 # 	collision with: 0 0 0 0  and 1 4 1 0 
 # max = 240
3149981		 # 	collision with: 1 0 2 0  and 3 0 2 0 
 # max = 240
3149982		 # 	collision with: 4 3 1 0  and 4 3 2 0 
 # max = 240
3149983		 # 	collision with: 2 1 2 0  and 2 3 2 0 
 # max = 240
3150012		 # 	collision with: 1 4 1 0  and 2 4 1 0 
 # max = 240
3150013		 # 	collision with: 1 2 1 0  and 1 3 1 0 
 # max = 240
3150014		 # 	collision with: 0 5 0 0  and 1 5 0 0 
 # max = 240
3150015		 # 	collision with: 2 0 0 0  and 6 1 0 0 
 # max = 240
3150044		 # 	collision with: 3 2 0 0  and 4 2 0 0 
 # max = 240
3150045		 # 	collision with: 3 2 0 0  and 4 2 0 0 
 # max = 240
3150046		 # 	collision with: 2 3 0 0  and 0 1 2 0 
 # max = 240
3150047		 # 	collision with: 0 3 0 0  and 5 2 1 0 
 # max = 240
3150076		 # 	collision with: 1 2 0 0  and 5 4 1 0 
 # max = 240
3150077		 # 	collision with: 2 3 0 0  and 5 5 0 0 
 # max = 240
3150078		 # 	collision with: 3 6 0 0  and 3 3 1 0 
 # max = 240
3150079		 # 	collision with: 1 1 1 0  and 5 2 1 0 
 # max = 240
3150108		 # 	collision with: 1 3 0 0  and 6 0 2 0 
 # max = 240
3150109		 # 	collision with: 3 0 0 0  and 3 1 0 0 
 # max = 240
3150110		 # 	collision with: 4 2 0 0  and 5 6 1 0 
 # max = 240
3150111		 # 	collision with: 6 2 0 0  and 3 1 1 0 
 # max = 240
3150117		 # 	collision with: 1 2 1 0  and 6 4 1 0 
 # max = 240
3150137		 # 	collision with: 0 4 0 0  and 6 4 1 0 
 # max = 240
3150140		 # 	collision with: 3 4 0 0  and 4 4 0 0 
 # max = 240
3150142		 # 	collision with: 0 4 0 0  and 1 4 0 0 
 # max = 240
3150144		 # 	collision with: 4 0 0 0  and 3 2 0 0 
 # max = 240
3150146		 # 	collision with: 3 2 0 0  and 3 3 0 0 
 # max = 240
3150168		 # 	collision with: 3 4 0 0  and 4 4 0 0 
 # max = 240
3150170		 # 	collision with: 0 4 0 0  and 1 4 0 0 
 # max = 240
3150176		 # 	collision with: 5 0 0 0  and 5 2 0 0 
 # max = 240
3150178		 # 	collision with: 5 1 0 0  and 5 2 0 0 
 # max = 240
3150185		 # 	collision with: 3 3 0 0  and 3 1 1 0 
 # max = 240
3150187		 # 	collision with: 5 4 0 0  and 3 1 1 0 
 # max = 240
3150189		 # 	collision with: 5 0 1 0  and 5 2 1 0 
 # max = 240
3150191		 # 	collision with: 0 4 0 0  and 1 4 0 0 
 # max = 240
3150196		 # 	collision with: 3 4 0 0  and 4 4 0 0 
 # max = 240
3150198		 # 	collision with: 0 4 0 0  and 1 4 0 0 
 # max = 240
3150208		 # 	collision with: 1 2 0 0  and 1 4 0 0 
 # max = 240
3150210		 # 	collision with: 0 0 0 0  and 1 2 0 0 
 # max = 240
3150224		 # 	collision with: 3 4 0 0  and 4 4 0 0 
 # max = 240
3150226		 # 	collision with: 0 4 0 0  and 1 4 0 0 
 # max = 240
3150240		 # 	collision with: 6 0 0 0  and 6 1 0 0 
 # max = 240
3150242		 # 	collision with: 6 0 0 0  and 6 2 0 0 
 # max = 240
3150252		 # 	collision with: 3 4 0 0  and 4 4 0 0 
 # max = 240
3150254		 # 	collision with: 0 4 0 0  and 1 4 0 0 
 # max = 240
3150261		 # 	collision with: 4 2 0 0  and 1 0 1 0 
 # max = 240
3150263		 # 	collision with: 0 3 1 0  and 2 6 2 0 
 # max = 240
3150265		 # 	collision with: 3 2 0 0  and 4 0 1 0 
 # max = 240
3150267		 # 	collision with: 1 3 0 0  and 1 4 0 0 
 # max = 240
3150272		 # 	collision with: 2 2 0 0  and 2 3 0 0 
 # max = 240
3150274		 # 	collision with: 0 1 0 0  and 1 2 0 0 
 # max = 240
3150280		 # 	collision with: 3 4 0 0  and 4 4 0 0 
 # max = 240
3150282		 # 	collision with: 0 4 0 0  and 1 4 0 0 
 # max = 240
3150304		 # 	collision with: 4 1 0 0  and 4 2 0 0 
 # max = 240
3150306		 # 	collision with: 4 1 0 0  and 4 3 0 0 
 # max = 240
3150308		 # 	collision with: 1 6 1 0  and 4 2 2 0 
 # max = 240
3150310		 # 	collision with: 5 5 0 0  and 1 1 1 0 
 # max = 240
3150315		 # 	collision with: 3 2 0 0  and 4 6 2 0 
 # max = 240
3150333		 # 	collision with: 3 4 0 0  and 2 4 1 0 
 # max = 240
3150335		 # 	collision with: 0 4 0 0  and 6 4 1 0 
 # max = 240
3150336		 # 	collision with: 6 2 0 0  and 3 1 2 0 
 # max = 240
3150338		 # 	collision with: 0 5 0 0  and 5 1 1 0 
 # max = 240
3150340		 # 	collision with: 2 0 1 0  and 3 1 2 0 
 # max = 240
3150342		 # 	collision with: 6 2 1 0  and 6 0 2 0 
 # max = 240
3150364		 # 	collision with: 4 1 0 0  and 1 0 2 0 
 # max = 240
3150366		 # 	collision with: 3 1 0 0  and 3 4 1 0 
 # max = 240
3150374		 # 	collision with: 2 2 0 0  and 5 4 1 0 
 # max = 240
3150381		 # 	collision with: 1 6 0 0  and 6 3 1 0 
 # max = 240
3150383		 # 	collision with: 4 6 0 0  and 3 3 1 0 
 # max = 240
3150385		 # 	collision with: 3 4 0 0  and 4 4 0 0 
 # max = 240
3150387		 # 	collision with: 2 2 0 0  and 2 4 0 0 
 # max = 240
3150392		 # 	collision with: 5 0 0 0  and 1 3 1 0 
 # max = 240
3150394		 # 	collision with: 3 1 0 0  and 4 4 1 0 
 # max = 240
3150404		 # 	collision with: 4 1 2 0  and 4 2 2 0 
 # max = 240
3150406		 # 	collision with: 3 3 0 0  and 4 5 1 0 
 # max = 240
3150420		 # 	collision with: 2 1 0 0  and 6 4 1 0 
 # max = 240
3150422		 # 	collision with: 4 3 0 0  and 0 2 2 0 
 # max = 240
3150436		 # 	collision with: 2 2 0 0  and 5 1 1 0 
 # max = 240
3150438		 # 	collision with: 6 4 0 0  and 4 0 1 0 
 # max = 240
3150457		 # 	collision with: 4 6 1 0  and 3 4 2 0 
 # max = 240
3150461		 # 	collision with: 1 2 0 0  and 1 4 0 0 
 # max = 240
3150468		 # 	collision with: 3 4 0 0  and 4 4 0 0 
 # max = 240
3150476		 # 	collision with: 2 6 0 0  and 3 2 1 0 
 # max = 240
3150478		 # 	collision with: 3 4 1 0  and 4 4 1 0 
 # max = 240
3150500		 # 	collision with: 3 1 1 0  and 3 3 1 0 
 # max = 240
3150502		 # 	collision with: 4 0 1 0  and 3 1 1 0 
 # max = 240
3150504		 # 	collision with: 3 5 0 0  and 2 3 1 0 
 # max = 240
3150506		 # 	collision with: 5 4 5 0  and 0 0 0 1 
 # max = 343
3150509		 # 	collision with: 1 6 0 0  and 4 1 2 0 
 # max = 343
3150511		 # 	collision with: 6 2 0 0  and 2 3 0 0 
 # max = 343
3150529		 # 	collision with: 3 2 0 0  and 4 3 0 0 
 # max = 343
3150531		 # 	collision with: 5 4 0 0  and 2 2 1 0 
 # max = 343
3150532		 # 	collision with: 2 5 0 0  and 3 3 1 0 
 # max = 343
3150534		 # 	collision with: 5 6 0 0  and 5 4 1 0 
 # max = 343
3150536		 # 	collision with: 5 2 0 0  and 5 0 1 0 
 # max = 343
3150538		 # 	collision with: 0 4 1 0  and 2 4 1 0 
 # max = 343
3150560		 # 	collision with: 6 5 0 0  and 6 3 1 0 
 # max = 343
3150562		 # 	collision with: 4 5 0 0  and 3 3 1 0 
 # max = 343
3150568		 # 	collision with: 1 4 2 0  and 3 4 2 0 
 # max = 343
3150570		 # 	collision with: 4 4 0 0  and 3 1 1 0 
 # max = 343
3150577		 # 	collision with: 3 1 2 0  and 3 3 2 0 
 # max = 343
3150579		 # 	collision with: 4 2 1 0  and 3 6 3 0 
 # max = 343
3150581		 # 	collision with: 2 2 0 0  and 2 3 0 0 
 # max = 343
3150583		 # 	collision with: 1 3 1 0  and 2 4 1 0 
 # max = 343
3150600		 # 	collision with: 3 4 0 0  and 4 4 0 0 
 # max = 343
3150616		 # 	collision with: 4 5 0 0  and 1 3 1 0 
 # max = 343
3150618		 # 	collision with: 4 2 0 0  and 5 0 1 0 
 # max = 343
3150634		 # 	collision with: 6 5 0 0  and 1 3 2 0 
 # max = 343
3150644		 # 	collision with: 1 5 0 0  and 4 3 1 0 
 # max = 343
3150646		 # 	collision with: 2 4 1 0  and 4 4 1 0 
 # max = 343
3150653		 # 	collision with: 6 0 2 0  and 6 1 2 0 
 # max = 343
3150655		 # 	collision with: 2 2 0 0  and 3 4 1 0 
 # max = 343
3150657		 # 	collision with: 3 4 0 0  and 4 4 0 0 
 # max = 343
3150659		 # 	collision with: 6 0 1 0  and 6 2 1 0 
 # max = 343
3150664		 # 	collision with: 0 0 1 0  and 5 1 1 0 
 # max = 343
3150666		 # 	collision with: 5 1 1 0  and 5 2 1 0 
 # max = 343
3150672		 # 	collision with: 0 5 0 0  and 5 3 1 0 
 # max = 343
3150674		 # 	collision with: 5 6 0 0  and 1 4 1 0 
 # max = 343
3150696		 # 	collision with: 2 3 0 0  and 2 2 1 0 
 # max = 343
3150698		 # 	collision with: 3 2 0 0  and 1 0 1 0 
 # max = 343
3150700		 # 	collision with: 1 5 0 0  and 2 6 1 0 
 # max = 343
3150702		 # 	collision with: 3 1 2 0  and 2 2 3 0 
 # max = 343
3150705		 # 	collision with: 5 1 0 0  and 2 3 0 0 
 # max = 343
3150707		 # 	collision with: 6 1 0 0  and 3 3 1 0 
 # max = 343
3150725		 # 	collision with: 0 1 0 0  and 5 0 1 0 
 # max = 343
3150727		 # 	collision with: 4 1 0 0  and 4 3 0 0 
 # max = 343
3150732		 # 	collision with: 3 4 0 0  and 4 4 0 0 
 # max = 343
3150756		 # 	collision with: 0 3 0 0  and 3 4 1 0 
 # max = 343
3150758		 # 	collision with: 2 2 0 0  and 1 3 1 0 
 # max = 343
3150764		 # 	collision with: 5 4 0 0  and 0 3 1 0 
 # max = 343
3150766		 # 	collision with: 2 5 0 0  and 2 1 2 0 
 # max = 343
3150775		 # 	collision with: 1 3 1 0  and 1 4 1 0 
 # max = 343
3150777		 # 	collision with: 5 2 0 0  and 5 2 1 0 
 # max = 343
3150779		 # 	collision with: 5 3 0 0  and 5 0 1 0 
 # max = 343
3150784		 # 	collision with: 2 0 0 0  and 3 1 1 0 
 # max = 343
3150786		 # 	collision with: 6 4 1 0  and 6 5 2 0 
 # max = 343
3150796		 # 	collision with: 0 5 0 0  and 5 3 1 0 
 # max = 343
3150798		 # 	collision with: 2 3 0 0  and 6 2 1 0 
 # max = 343
3150812		 # 	collision with: 1 6 0 0  and 1 0 1 0 
 # max = 343
3150814		 # 	collision with: 2 4 1 0  and 3 4 1 0 
 # max = 343
3150828		 # 	collision with: 5 6 0 0  and 0 2 1 0 
 # max = 343
3150830		 # 	collision with: 3 1 1 0  and 2 2 1 0 
 # max = 343
3150840		 # 	collision with: 0 3 0 0  and 1 4 1 0 
 # max = 343
3150842		 # 	collision with: 3 6 0 0  and 5 0 1 0 
 # max = 343
3150851		 # 	collision with: 4 0 1 0  and 2 2 1 0 
 # max = 343
3150853		 # 	collision with: 6 0 1 0  and 6 1 1 0 
 # max = 343
3150855		 # 	collision with: 6 1 0 0  and 6 1 2 0 
 # max = 343
3150860		 # 	collision with: 2 4 1 0  and 3 4 1 0 
 # max = 343
3150862		 # 	collision with: 6 4 0 0  and 3 1 1 0 
 # max = 343
3150868		 # 	collision with: 5 6 0 0  and 6 0 1 0 
 # max = 343
3150870		 # 	collision with: 3 5 0 0  and 3 0 2 0 
 # max = 343
3150894		 # 	collision with: 3 4 0 0  and 3 4 1 0 
 # max = 343
3150896		 # 	collision with: 2 6 0 0  and 1 5 1 0 
 # max = 343
3150898		 # 	collision with: 2 1 1 0  and 5 0 2 0 
 # max = 343
3150901		 # 	collision with: 4 5 0 0  and 0 1 1 0 
 # max = 343
3150903		 # 	collision with: 1 4 0 0  and 4 0 1 0 
 # max = 343
3150921		 # 	collision with: 5 1 0 0  and 2 2 0 0 
 # max = 343
3150923		 # 	collision with: 0 1 0 0  and 1 2 0 0 
 # max = 343
3150924		 # 	collision with: 3 6 0 0  and 3 5 1 0 
 # max = 343
3150926		 # 	collision with: 6 6 0 0  and 1 5 1 0 
 # max = 343
3150930		 # 	collision with: 5 4 0 0  and 3 1 1 0 
 # max = 343
3150952		 # 	collision with: 5 3 0 0  and 6 1 2 0 
 # max = 343
3150954		 # 	collision with: 1 1 0 0  and 6 0 1 0 
 # max = 343
3150960		 # 	collision with: 4 4 0 0  and 1 2 1 0 
 # max = 343
3150962		 # 	collision with: 0 2 0 0  and 4 3 1 0 
 # max = 343
3150969		 # 	collision with: 1 2 1 0  and 1 4 1 0 
 # max = 343
3150971		 # 	collision with: 0 4 0 0  and 1 4 0 0 
 # max = 343
3150975		 # 	collision with: 3 0 0 0  and 4 1 1 0 
 # max = 343
3150980		 # 	collision with: 1 4 1 0  and 2 4 1 0 
 # max = 343
3150982		 # 	collision with: 0 4 0 0  and 1 3 1 0 
 # max = 343
3150992		 # 	collision with: 6 0 1 0  and 6 1 1 0 
 # max = 343
3150994		 # 	collision with: 3 1 0 0  and 2 2 1 0 
 # max = 343
3151008		 # 	collision with: 6 6 1 0  and 2 5 2 0 
 # max = 343
3151010		 # 	collision with: 1 2 1 0  and 0 1 2 0 
 # max = 343
3151024		 # 	collision with: 6 0 0 0  and 5 3 1 0 
 # max = 343
3151026		 # 	collision with: 3 0 0 0  and 4 3 1 0 
 # max = 343
3151036		 # 	collision with: 2 1 0 0  and 3 0 1 0 
 # max = 343
3151038		 # 	collision with: 4 4 0 0  and 1 3 1 0 
 # max = 343
3151045		 # 	collision with: 3 0 1 0  and 2 1 1 0 
 # max = 343
3151047		 # 	collision with: 5 1 0 0  and 5 2 0 0 
 # max = 343
3151051		 # 	collision with: 3 2 0 0  and 3 3 2 0 
 # max = 343
3151056		 # 	collision with: 2 2 0 0  and 2 2 1 0 
 # max = 343
3151058		 # 	collision with: 2 2 0 0  and 2 2 2 0 
 # max = 343
3151088		 # 	collision with: 3 4 0 0  and 4 4 0 0 
 # max = 343
3151092		 # 	collision with: 2 3 0 0  and 3 5 1 0 
 # max = 343
3151094		 # 	collision with: 5 5 1 0  and 6 2 3 0 
 # max = 343
3151097		 # 	collision with: 4 3 0 0  and 1 5 1 0 
 # max = 343
3151099		 # 	collision with: 1 3 2 0  and 0 4 2 0 
 # max = 343
3151117		 # 	collision with: 1 4 0 0  and 0 4 1 0 
 # max = 343
3151119		 # 	collision with: 0 1 1 0  and 1 2 1 0 
 # max = 343
3151120		 # 	collision with: 1 2 0 0  and 5 4 1 0 
 # max = 343
3151122		 # 	collision with: 1 4 2 0  and 2 4 2 0 
 # max = 343
3151124		 # 	collision with: 5 0 2 0  and 5 2 2 0 
 # max = 343
3151126		 # 	collision with: 0 3 0 0  and 5 1 2 0 
 # max = 343
3151148		 # 	collision with: 4 6 0 0  and 2 1 1 0 
 # max = 343
3151150		 # 	collision with: 1 1 0 0  and 2 3 1 0 
 # max = 343
3151156		 # 	collision with: 0 0 1 0  and 2 2 1 0 
 # max = 343
3151158		 # 	collision with: 6 5 0 0  and 0 4 1 0 
 # max = 343
3151165		 # 	collision with: 3 4 0 0  and 4 4 0 0 
 # max = 343
3151167		 # 	collision with: 6 0 0 0  and 6 2 0 0 
 # max = 343
3151169		 # 	collision with: 1 2 2 0  and 1 4 2 0 
 # max = 343
3151171		 # 	collision with: 6 0 3 0  and 1 1 3 0 
 # max = 343
3151176		 # 	collision with: 0 0 0 0  and 2 2 1 0 
 # max = 343
3151178		 # 	collision with: 0 4 0 0  and 5 6 1 0 
 # max = 343
3151190		 # 	collision with: 3 5 0 0  and 3 0 1 0 
 # max = 343
3151220		 # 	collision with: 3 4 0 0  and 4 4 0 0 
 # max = 343
3151232		 # 	collision with: 3 6 0 0  and 2 3 2 0 
 # max = 343
3151234		 # 	collision with: 4 5 1 0  and 1 0 2 0 
 # max = 343
3151241		 # 	collision with: 5 0 0 0  and 5 2 0 0 
 # max = 343
3151243		 # 	collision with: 0 4 0 0  and 1 4 0 0 
 # max = 343
3151245		 # 	collision with: 4 0 0 0  and 3 2 0 0 
 # max = 343
3151247		 # 	collision with: 3 1 0 0  and 3 1 1 0 
 # max = 343
3151252		 # 	collision with: 4 5 0 0  and 5 0 1 0 
 # max = 343
3151254		 # 	collision with: 6 2 0 0  and 6 2 1 0 
 # max = 343
3151260		 # 	collision with: 2 6 0 0  and 1 1 1 0 
 # max = 343
3151262		 # 	collision with: 3 6 0 0  and 2 1 1 0 
 # max = 343
3151284		 # 	collision with: 3 5 0 0  and 0 0 1 0 
 # max = 343
3151286		 # 	collision with: 6 3 0 0  and 0 1 1 0 
 # max = 343
3151288		 # 	collision with: 3 0 1 0  and 1 4 2 0 
 # max = 343
3151290		 # 	collision with: 1 1 0 0  and 5 5 1 0 
 # max = 343
3151293		 # 	collision with: 5 5 0 0  and 5 4 1 0 
 # max = 343
3151295		 # 	collision with: 1 3 1 0  and 0 4 1 0 
 # max = 343
3151315		 # 	collision with: 1 4 0 0  and 0 4 1 0 
 # max = 343
3151316		 # 	collision with: 6 3 0 0  and 1 0 1 0 
 # max = 343
3151318		 # 	collision with: 0 4 1 0  and 2 4 1 0 
 # max = 343
3151320		 # 	collision with: 4 1 1 0  and 4 2 1 0 
 # max = 343
3151322		 # 	collision with: 5 0 1 0  and 4 2 1 0 
 # max = 343
3151352		 # 	collision with: 3 4 0 0  and 4 4 0 0 
 # max = 343
3151361		 # 	collision with: 6 0 0 0  and 6 1 0 0 
 # max = 343
3151365		 # 	collision with: 6 2 1 0  and 6 2 2 0 
 # max = 343
3151372		 # 	collision with: 5 6 1 0  and 5 3 2 0 
 # max = 343
3151374		 # 	collision with: 4 1 0 0  and 3 5 1 0 
 # max = 343
3151384		 # 	collision with: 1 4 1 0  and 2 4 1 0 
 # max = 343
3151386		 # 	collision with: 5 3 0 0  and 5 0 1 0 
 # max = 343
3151400		 # 	collision with: 6 2 0 0  and 3 3 2 0 
 # max = 343
3151402		 # 	collision with: 0 4 2 0  and 2 4 2 0 
 # max = 343
3151416		 # 	collision with: 0 6 1 0  and 5 0 2 0 
 # max = 343
3151418		 # 	collision with: 6 5 0 0  and 2 4 1 0 
 # max = 343
3151428		 # 	collision with: 3 1 0 0  and 2 5 1 0 
 # max = 343
3151430		 # 	collision with: 3 3 1 0  and 1 0 2 0 
 # max = 343
3151437		 # 	collision with: 3 4 0 0  and 4 4 0 0 
 # max = 343
3151439		 # 	collision with: 2 2 1 0  and 2 4 1 0 
 # max = 343
3151441		 # 	collision with: 2 4 1 0  and 3 4 1 0 
 # max = 343
3151443		 # 	collision with: 4 0 0 0  and 3 1 1 0 
 # max = 343
3151450		 # 	collision with: 6 5 0 0  and 4 4 2 0 
 # max = 343
3151456		 # 	collision with: 6 0 0 0  and 6 1 2 0 
 # max = 343
3151458		 # 	collision with: 6 6 0 0  and 6 3 1 0 
 # max = 343
3151480		 # 	collision with: 1 4 0 0  and 0 4 1 0 
 # max = 343
3151482		 # 	collision with: 2 4 0 0  and 1 4 1 0 
 # max = 343
3151525		 # 	collision with: 6 0 2 0  and 6 1 2 0 
 # max = 343
3151527		 # 	collision with: 1 3 0 0  and 1 4 0 0 
 # max = 343
3151533		 # 	collision with: 5 1 0 0  and 4 3 1 0 
 # max = 343
3151535		 # 	collision with: 6 2 0 0  and 3 1 1 0 
 # max = 343
3151569		 # 	collision with: 3 4 0 0  and 4 4 0 0 
 # max = 343
3151571		 # 	collision with: 1 1 1 0  and 3 1 1 0 
 # max = 343
3151581		 # 	collision with: 5 4 0 0  and 2 1 1 0 
 # max = 343
3151583		 # 	collision with: 1 3 0 0  and 1 4 0 0 
 # max = 343
3151597		 # 	collision with: 3 4 0 0  and 4 4 0 0 
 # max = 343
3151599		 # 	collision with: 6 3 0 0  and 1 2 1 0 
 # max = 343
3151613		 # 	collision with: 0 1 1 0  and 4 2 1 0 
 # max = 343
3151615		 # 	collision with: 0 5 0 0  and 1 5 0 0 
 # max = 343
3151661		 # 	collision with: 2 2 2 0  and 3 2 2 0 
 # max = 343
3151663		 # 	collision with: 3 3 0 0  and 5 4 0 0 
 # max = 343
3151669		 # 	collision with: 1 1 0 0  and 1 5 1 0 
 # max = 343
3151671		 # 	collision with: 0 5 0 0  and 1 5 0 0 
 # max = 343
3151680		 # 	collision with: 1 1 0 0  and 3 3 1 0 
 # max = 343
3151682		 # 	collision with: 4 4 1 0  and 3 4 2 0 
 # max = 343
3151721		 # 	collision with: 1 2 0 0  and 6 4 0 0 
 # max = 343
3151723		 # 	collision with: 4 3 0 0  and 0 0 1 0 
 # max = 343
3151729		 # 	collision with: 3 4 0 0  and 4 4 0 0 
 # max = 343
3151731		 # 	collision with: 5 3 0 0  and 5 0 1 0 
 # max = 343
3151765		 # 	collision with: 1 0 1 0  and 2 0 1 0 
 # max = 343
3151767		 # 	collision with: 1 1 1 0  and 1 1 2 0 
 # max = 343
3151779		 # 	collision with: 4 3 0 0  and 0 0 1 0 
 # max = 343
3151795		 # 	collision with: 1 0 1 0  and 2 0 2 0 
 # max = 343
 we find invertible function - THM 9 is incorrect343 9325
