# prime 7
# degree 2
# input variables 3
# output variables 7
# reload computed balance functions from file balance-256of320-p7d2m3-debug.log
# p = 7
# n = 7
# smalldomain p^m 343
# domain p^n 823543
#	 p^2 = 49
#	 p^3 = 343
#	 p^4 = 2401
#	 p^5 = 16807
#	 p^6 = 117649
#	 p^7 = 823543
#	 p^8 = 5764801
#	 p^9 = 40353607
opening file : balance-256of320-p7d2m3-debug.log
reloading for step2...
2636801		 # 	collision with: 4 3 0 0 0 0 0  and 4 6 1 0 0 0 0 
 # max = 95
2636803		 # 	collision with: 5 0 0 0 0 0 0  and 6 1 0 0 0 0 0 
 # max = 95
2636805		 # 	collision with: 1 1 1 0 0 0 0  and 1 3 1 0 0 0 0 
 # max = 95
2636807		 # 	collision with: 6 1 0 0 0 0 0  and 5 0 1 0 0 0 0 
 # max = 95
2636817		 # 	collision with: 2 0 0 0 0 0 0  and 2 1 0 0 0 0 0 
 # max = 95
2636819		 # 	collision with: 1 3 0 0 0 0 0  and 1 5 0 0 0 0 0 
 # max = 95
2636820		 # 	collision with: 5 2 1 0 0 0 0  and 5 4 1 0 0 0 0 
 # max = 95
2636822		 # 	collision with: 5 0 1 0 0 0 0  and 6 1 1 0 0 0 0 
 # max = 95
2636824		 # 	collision with: 3 3 2 0 0 0 0  and 4 3 2 0 0 0 0 
 # max = 123
2636826		 # 	collision with: 3 2 4 0 0 0 0  and 1 4 4 0 0 0 0 
 # max = 225
2636831		 # 	collision with: 5 0 0 0 0 0 0  and 6 1 0 0 0 0 0 
 # max = 225
2636852		 # 	collision with: 3 3 1 0 0 0 0  and 4 3 1 0 0 0 0 
 # max = 225
2636854		 # 	collision with: 4 0 4 0 0 0 0  and 0 2 4 0 0 0 0 
 # max = 225
2636860		 # 	collision with: 4 0 2 0 0 0 0  and 4 2 2 0 0 0 0 
 # max = 225
2636862		 # 	collision with: 1 5 1 0 0 0 0  and 3 5 1 0 0 0 0 
 # max = 225
2636884		 # 	collision with: 3 3 2 0 0 0 0  and 4 3 2 0 0 0 0 
 # max = 225
2636898		 # 	collision with: 1 5 2 0 0 0 0  and 3 5 2 0 0 0 0 
 # max = 225
2636904		 # 	collision with: 5 2 1 0 0 0 0  and 5 4 1 0 0 0 0 
 # max = 225
2636906		 # 	collision with: 3 0 1 0 0 0 0  and 3 2 1 0 0 0 0 
 # max = 225
2636918		 # 	collision with: 5 1 2 0 0 0 0  and 5 2 2 0 0 0 0 
 # max = 225
2636940		 # 	collision with: 3 3 4 0 0 0 0  and 4 3 4 0 0 0 0 
 # max = 225
2636942		 # 	collision with: 1 5 0 0 0 0 0  and 3 5 0 0 0 0 0 
 # max = 225
2636948		 # 	collision with: 3 3 0 0 0 0 0  and 4 3 0 0 0 0 0 
 # max = 225
2636950		 # 	collision with: 3 0 3 0 0 0 0  and 3 2 3 0 0 0 0 
 # max = 225
2636959		 # 	collision with: 1 3 0 0 0 0 0  and 1 5 0 0 0 0 0 
 # max = 225
2636973		 # 	collision with: 5 0 0 0 0 0 0  and 5 0 1 0 0 0 0 
 # max = 225
2636975		 # 	collision with: 6 0 0 0 0 0 0  and 6 0 1 0 0 0 0 
 # max = 225
2636976		 # 	collision with: 3 3 0 0 0 0 0  and 4 3 0 0 0 0 0 
 # max = 225
2636980		 # 	collision with: 3 3 3 0 0 0 0  and 4 3 3 0 0 0 0 
 # max = 225
2636982		 # 	collision with: 1 5 1 0 0 0 0  and 3 5 1 0 0 0 0 
 # max = 225
2637041		 # 	collision with: 3 3 0 0 0 0 0  and 4 3 0 0 0 0 0 
 # max = 225
2637043		 # 	collision with: 6 3 3 0 0 0 0  and 6 4 3 0 0 0 0 
 # max = 225
2637065		 # 	collision with: 2 0 1 0 0 0 0  and 2 1 1 0 0 0 0 
 # max = 225
2637067		 # 	collision with: 4 3 0 0 0 0 0  and 0 4 0 0 0 0 0 
 # max = 225
2637081		 # 	collision with: 2 1 3 0 0 0 0  and 2 1 4 0 0 0 0 
 # max = 225
2637083		 # 	collision with: 1 1 0 0 0 0 0  and 3 1 0 0 0 0 0 
 # max = 225
2637093		 # 	collision with: 6 0 1 0 0 0 0  and 1 1 1 0 0 0 0 
 # max = 225
2637095		 # 	collision with: 4 3 0 0 0 0 0  and 0 4 0 0 0 0 0 
 # max = 225
2637101		 # 	collision with: 3 3 1 0 0 0 0  and 4 3 1 0 0 0 0 
 # max = 225
2637103		 # 	collision with: 1 2 1 0 0 0 0  and 3 4 1 0 0 0 0 
 # max = 225
2637113		 # 	collision with: 2 0 3 0 0 0 0  and 2 1 4 0 0 0 0 
 # max = 225
2637115		 # 	collision with: 6 3 0 0 0 0 0  and 6 4 0 0 0 0 0 
 # max = 225
2637125		 # 	collision with: 3 3 0 0 0 0 0  and 4 3 0 0 0 0 0 
 # max = 225
2637127		 # 	collision with: 1 1 2 0 0 0 0  and 3 1 2 0 0 0 0 
 # max = 225
2637129		 # 	collision with: 3 2 2 0 0 0 0  and 4 3 2 0 0 0 0 
 # max = 225
2637131		 # 	collision with: 2 2 2 0 0 0 0  and 2 3 2 0 0 0 0 
 # max = 225
2637180		 # 	collision with: 5 1 2 4 1 0 0  and 6 1 0 0 0 1 0 
 # max = 16820
2637182		 # 	collision with: 4 3 2 5 1 0 0  and 3 6 0 0 0 1 0 
 # max = 16852
2637237		 # 	collision with: 5 2 0 0 0 0 0  and 5 4 0 0 0 0 0 
 # max = 16852
2637239		 # 	collision with: 4 2 0 0 0 0 0  and 4 4 0 0 0 0 0 
 # max = 16852
2637261		 # 	collision with: 3 3 1 0 0 0 0  and 4 3 1 0 0 0 0 
 # max = 16852
2637263		 # 	collision with: 1 2 0 0 0 0 0  and 3 4 0 0 0 0 0 
 # max = 16852
2637277		 # 	collision with: 6 1 1 0 0 0 0  and 6 2 1 0 0 0 0 
 # max = 16852
2637279		 # 	collision with: 6 1 1 0 0 0 0  and 5 2 1 0 0 0 0 
 # max = 16852
2637289		 # 	collision with: 3 3 3 0 0 0 0  and 4 3 3 0 0 0 0 
 # max = 16852
2637291		 # 	collision with: 1 2 0 0 0 0 0  and 3 4 0 0 0 0 0 
 # max = 16852
2637297		 # 	collision with: 3 2 1 0 0 0 0  and 3 3 1 0 0 0 0 
 # max = 16852
2637299		 # 	collision with: 1 1 2 0 0 0 0  and 3 1 2 0 0 0 0 
 # max = 16852
2637309		 # 	collision with: 3 3 2 0 0 0 0  and 4 3 2 0 0 0 0 
 # max = 16852
2637311		 # 	collision with: 1 1 3 0 0 0 0  and 3 1 3 0 0 0 0 
 # max = 16852
2637321		 # 	collision with: 5 2 0 0 0 0 0  and 5 4 0 0 0 0 0 
 # max = 16852
2637323		 # 	collision with: 4 2 0 0 0 0 0  and 4 4 0 0 0 0 0 
 # max = 16852
2637325		 # 	collision with: 3 2 1 0 0 0 0  and 3 3 1 0 0 0 0 
 # max = 16852
2637327		 # 	collision with: 1 1 3 0 0 0 0  and 3 1 3 0 0 0 0 
 # max = 16852
2637376		 # 	collision with: 1 6 4 1 4 0 0  and 4 1 1 0 0 1 0 
 # max = 16867
2637378		 # 	collision with: 1 4 0 5 4 0 0  and 6 6 0 0 0 1 0 
 # max = 16867
2637433		 # 	collision with: 5 4 2 0 0 0 0  and 2 0 3 0 0 0 0 
 # max = 16867
2637435		 # 	collision with: 1 1 4 0 0 0 0  and 3 1 4 0 0 0 0 
 # max = 16867
2637457		 # 	collision with: 3 2 0 0 0 0 0  and 3 3 0 0 0 0 0 
 # max = 16867
2637473		 # 	collision with: 3 3 1 0 0 0 0  and 4 3 1 0 0 0 0 
 # max = 16867
2637475		 # 	collision with: 4 2 2 0 0 0 0  and 4 4 2 0 0 0 0 
 # max = 16867
2637487		 # 	collision with: 6 3 2 0 0 0 0  and 6 4 2 0 0 0 0 
 # max = 16867
2637493		 # 	collision with: 2 1 2 0 0 0 0  and 5 2 2 0 0 0 0 
 # max = 16867
2637495		 # 	collision with: 1 1 0 0 0 0 0  and 3 1 0 0 0 0 0 
 # max = 16867
2637517		 # 	collision with: 3 3 1 0 0 0 0  and 4 3 1 0 0 0 0 
 # max = 16867
2637519		 # 	collision with: 1 1 2 0 0 0 0  and 1 0 3 0 0 0 0 
 # max = 16867
2637521		 # 	collision with: 3 5 2 0 0 0 0  and 3 0 3 0 0 0 0 
 # max = 16867
2637523		 # 	collision with: 1 1 0 0 0 0 0  and 3 1 0 0 0 0 0 
 # max = 16867
2637572		 # 	collision with: 5 1 4 6 5 0 0  and 4 6 2 0 0 1 0 
 # max = 16951
2637574		 # 	collision with: 0 0 5 4 5 0 0  and 6 0 0 0 0 1 0 
 # max = 16951
2637631		 # 	collision with: 1 1 0 0 0 0 0  and 3 1 0 0 0 0 0 
 # max = 16951
2637653		 # 	collision with: 3 3 0 0 0 0 0  and 4 3 0 0 0 0 0 
 # max = 16951
2637655		 # 	collision with: 4 5 1 0 0 0 0  and 0 3 3 0 0 0 0 
 # max = 16951
2637669		 # 	collision with: 3 2 2 0 0 0 0  and 3 3 2 0 0 0 0 
 # max = 16951
2637671		 # 	collision with: 4 1 0 0 0 0 0  and 0 3 0 0 0 0 0 
 # max = 16951
2637681		 # 	collision with: 3 3 0 0 0 0 0  and 4 3 0 0 0 0 0 
 # max = 16951
2637683		 # 	collision with: 6 6 1 0 0 0 0  and 5 1 3 0 0 0 0 
 # max = 16951
2637689		 # 	collision with: 1 1 0 0 0 0 0  and 1 3 0 0 0 0 0 
 # max = 16951
2637701		 # 	collision with: 6 1 2 0 0 0 0  and 6 2 2 0 0 0 0 
 # max = 16951
2637703		 # 	collision with: 3 5 1 0 0 0 0  and 1 2 3 0 0 0 0 
 # max = 16951
2637713		 # 	collision with: 1 1 1 0 0 0 0  and 1 3 1 0 0 0 0 
 # max = 16951
2637719		 # 	collision with: 1 1 1 0 0 0 0  and 1 0 3 0 0 0 0 
 # max = 16951
2637768		 # 	collision with: 4 5 1 4 2 0 0  and 5 0 0 0 0 1 0 
 # max = 16951
2637770		 # 	collision with: 6 5 2 6 2 0 0  and 0 1 0 0 0 1 0 
 # max = 16951
2637825		 # 	collision with: 2 1 0 0 0 0 0  and 5 2 0 0 0 0 0 
 # max = 16951
2637851		 # 	collision with: 1 1 0 0 0 0 0  and 3 1 0 0 0 0 0 
 # max = 16951
2637865		 # 	collision with: 3 4 1 0 0 0 0  and 3 4 2 0 0 0 0 
 # max = 16951
2637867		 # 	collision with: 1 1 1 0 0 0 0  and 3 1 1 0 0 0 0 
 # max = 16951
2637877		 # 	collision with: 6 2 1 0 0 0 0  and 6 2 2 0 0 0 0 
 # max = 16951
2637885		 # 	collision with: 3 3 0 0 0 0 0  and 4 3 0 0 0 0 0 
 # max = 16951
2637887		 # 	collision with: 5 1 0 0 0 0 0  and 5 2 0 0 0 0 0 
 # max = 16951
2637897		 # 	collision with: 5 2 1 0 0 0 0  and 5 4 1 0 0 0 0 
 # max = 16951
2637899		 # 	collision with: 1 1 1 0 0 0 0  and 1 0 2 0 0 0 0 
 # max = 16951
2637911		 # 	collision with: 6 1 2 0 0 0 0  and 5 2 2 0 0 0 0 
 # max = 16951
2637913		 # 	collision with: 3 3 0 0 0 0 0  and 4 3 0 0 0 0 0 
 # max = 16951
2637915		 # 	collision with: 5 1 0 0 0 0 0  and 5 2 0 0 0 0 0 
 # max = 16951
2637964		 # 	collision with: 3 4 3 4 3 0 0  and 1 1 1 0 0 1 0 
 # max = 16951
2637966		 # 	collision with: 5 6 3 0 3 0 0  and 3 3 0 0 0 1 0 
 # max = 16951
2638021		 # 	collision with: 3 3 1 0 0 0 0  and 4 3 1 0 0 0 0 
 # max = 16951
2638023		 # 	collision with: 3 0 2 0 0 0 0  and 3 2 2 0 0 0 0 
 # max = 16951
2638045		 # 	collision with: 5 6 0 0 0 0 0  and 5 0 2 0 0 0 0 
 # max = 16951
2638047		 # 	collision with: 6 1 0 0 0 0 0  and 5 2 2 0 0 0 0 
 # max = 16951
2638073		 # 	collision with: 2 1 0 0 0 0 0  and 5 2 2 0 0 0 0 
 # max = 16951
2638075		 # 	collision with: 4 6 0 0 0 0 0  and 4 0 2 0 0 0 0 
 # max = 16951
2638083		 # 	collision with: 1 1 1 0 0 0 0  and 3 1 1 0 0 0 0 
 # max = 16951
2638093		 # 	collision with: 4 0 0 0 0 0 0  and 4 2 0 0 0 0 0 
 # max = 16951
2638095		 # 	collision with: 4 6 0 0 0 0 0  and 4 0 2 0 0 0 0 
 # max = 16951
2638105		 # 	collision with: 2 0 1 0 0 0 0  and 5 2 1 0 0 0 0 
 # max = 16951
2638107		 # 	collision with: 1 1 1 0 0 0 0  and 3 1 1 0 0 0 0 
 # max = 16951
2638109		 # 	collision with: 2 0 0 0 0 0 0  and 5 2 0 0 0 0 0 
 # max = 16951
2638160		 # 	collision with: 2 1 6 2 6 0 0  and 0 4 0 0 0 1 0 
 # max = 16951
2638162		 # 	collision with: 3 6 4 1 6 0 0  and 0 0 0 0 0 1 0 
 # max = 16951
2638217		 # 	collision with: 6 0 0 0 0 0 0  and 1 3 1 0 0 0 0 
 # max = 16951
2638219		 # 	collision with: 0 3 0 0 0 0 0  and 4 5 0 0 0 0 0 
 # max = 16951
2638241		 # 	collision with: 4 1 0 0 0 0 0  and 4 1 1 0 0 0 0 
 # max = 16951
2638243		 # 	collision with: 1 3 0 0 0 0 0  and 1 5 0 0 0 0 0 
 # max = 16951
2638257		 # 	collision with: 2 0 0 0 0 0 0  and 2 1 0 0 0 0 0 
 # max = 16951
2638259		 # 	collision with: 2 2 0 0 0 0 0  and 2 2 1 0 0 0 0 
 # max = 16951
2638269		 # 	collision with: 6 0 0 0 0 0 0  and 1 1 1 0 0 0 0 
 # max = 16951
2638271		 # 	collision with: 1 3 0 0 0 0 0  and 1 5 0 0 0 0 0 
 # max = 16951
2638277		 # 	collision with: 6 0 0 0 0 0 0  and 1 1 0 0 0 0 0 
 # max = 16951
2638279		 # 	collision with: 5 2 0 0 0 0 0  and 6 1 1 0 0 0 0 
 # max = 16951
2638289		 # 	collision with: 1 5 0 0 0 0 0  and 1 5 1 0 0 0 0 
 # max = 16951
2638291		 # 	collision with: 1 1 0 0 0 0 0  and 3 1 0 0 0 0 0 
 # max = 16951
2638301		 # 	collision with: 6 5 0 0 0 0 0  and 1 4 1 0 0 0 0 
 # max = 16951
2638303		 # 	collision with: 0 3 0 0 0 0 0  and 4 5 0 0 0 0 0 
 # max = 16951
2638305		 # 	collision with: 6 0 0 0 0 0 0  and 1 1 0 0 0 0 0 
 # max = 16951
2638307		 # 	collision with: 6 6 0 0 0 0 0  and 6 6 1 0 0 0 0 
 # max = 16951
2638421		 # 	collision with: 2 1 2 0 0 0 0  and 5 2 2 0 0 0 0 
 # max = 16951
2638423		 # 	collision with: 1 4 1 0 0 0 0  and 3 4 1 0 0 0 0 
 # max = 16951
2638429		 # 	collision with: 3 3 1 0 0 0 0  and 4 3 1 0 0 0 0 
 # max = 16951
2638457		 # 	collision with: 5 2 2 0 0 0 0  and 5 4 2 0 0 0 0 
 # max = 16951
2638459		 # 	collision with: 6 3 0 0 0 0 0  and 6 4 0 0 0 0 0 
 # max = 16951
2638461		 # 	collision with: 4 0 1 0 0 0 0  and 4 2 1 0 0 0 0 
 # max = 16951
2638463		 # 	collision with: 0 0 1 0 0 0 0  and 4 2 1 0 0 0 0 
 # max = 16951
2638477		 # 	collision with: 3 3 2 0 0 0 0  and 4 3 2 0 0 0 0 
 # max = 16951
2638479		 # 	collision with: 4 1 2 0 0 0 0  and 0 2 2 0 0 0 0 
 # max = 16951
2638481		 # 	collision with: 1 1 1 0 0 0 0  and 1 3 1 0 0 0 0 
 # max = 16951
2638483		 # 	collision with: 1 0 2 0 0 0 0  and 1 1 2 0 0 0 0 
 # max = 16951
2638509		 # 	collision with: 1 1 1 0 0 0 0  and 1 3 1 0 0 0 0 
 # max = 16951
2638517		 # 	collision with: 4 0 1 0 0 0 0  and 4 2 1 0 0 0 0 
 # max = 16951
2638519		 # 	collision with: 4 2 3 0 0 0 0  and 0 4 3 0 0 0 0 
 # max = 16951
2638552		 # 	collision with: 0 0 1 5 2 0 0  and 5 4 1 0 0 1 0 
 # max = 16951
2638554		 # 	collision with: 2 0 0 6 2 0 0  and 4 4 0 0 0 1 0 
 # max = 16951
2638617		 # 	collision with: 3 3 0 0 0 0 0  and 4 3 0 0 0 0 0 
 # max = 16951
2638619		 # 	collision with: 4 2 0 0 0 0 0  and 4 4 0 0 0 0 0 
 # max = 16951
2638625		 # 	collision with: 5 2 2 0 0 0 0  and 5 2 4 0 0 0 0 
 # max = 16951
2638627		 # 	collision with: 1 4 0 0 0 0 0  and 3 4 0 0 0 0 0 
 # max = 16951
2638655		 # 	collision with: 1 4 0 0 0 0 0  and 3 4 0 0 0 0 0 
 # max = 16951
2638657		 # 	collision with: 3 3 2 0 0 0 0  and 3 3 4 0 0 0 0 
 # max = 16951
2638659		 # 	collision with: 1 4 1 0 0 0 0  and 3 4 1 0 0 0 0 
 # max = 16951
2638675		 # 	collision with: 4 2 0 0 0 0 0  and 4 4 0 0 0 0 0 
 # max = 16951
2638677		 # 	collision with: 5 2 0 0 0 0 0  and 5 4 0 0 0 0 0 
 # max = 16951
2638705		 # 	collision with: 5 2 0 0 0 0 0  and 5 4 0 0 0 0 0 
 # max = 16951
2638707		 # 	collision with: 5 1 1 0 0 0 0  and 5 2 1 0 0 0 0 
 # max = 16951
2638713		 # 	collision with: 3 3 1 0 0 0 0  and 4 3 1 0 0 0 0 
 # max = 16951
2638748		 # 	collision with: 1 4 3 5 1 0 0  and 3 1 0 0 0 1 0 
 # max = 16951
2638750		 # 	collision with: 2 3 4 2 1 0 0  and 1 2 1 0 0 1 0 
 # max = 16951
2638815		 # 	collision with: 1 4 0 0 0 0 0  and 3 4 0 0 0 0 0 
 # max = 16951
2638821		 # 	collision with: 3 3 0 0 0 0 0  and 4 3 0 0 0 0 0 
 # max = 16951
2638823		 # 	collision with: 1 0 1 0 0 0 0  and 1 1 1 0 0 0 0 
 # max = 16951
2638849		 # 	collision with: 3 3 0 0 0 0 0  and 4 3 0 0 0 0 0 
 # max = 16951
2638851		 # 	collision with: 1 0 1 0 0 0 0  and 1 1 1 0 0 0 0 
 # max = 16951
2638853		 # 	collision with: 3 5 2 0 0 0 0  and 3 0 3 0 0 0 0 
 # max = 16951
2638855		 # 	collision with: 6 3 1 0 0 0 0  and 6 4 1 0 0 0 0 
 # max = 16951
2638869		 # 	collision with: 3 2 0 0 0 0 0  and 3 3 0 0 0 0 0 
 # max = 16951
2638871		 # 	collision with: 1 4 0 0 0 0 0  and 3 4 0 0 0 0 0 
 # max = 16951
2638873		 # 	collision with: 3 2 0 0 0 0 0  and 4 3 0 0 0 0 0 
 # max = 16951
2638875		 # 	collision with: 2 2 0 0 0 0 0  and 2 3 0 0 0 0 0 
 # max = 16951
2638903		 # 	collision with: 2 2 0 0 0 0 0  and 2 3 0 0 0 0 0 
 # max = 16951
2638909		 # 	collision with: 1 1 3 0 0 0 0  and 6 3 3 0 0 0 0 
 # max = 16951
2638911		 # 	collision with: 6 3 1 0 0 0 0  and 6 4 1 0 0 0 0 
 # max = 16951
2638944		 # 	collision with: 5 3 2 6 3 0 0  and 3 4 0 0 0 1 0 
 # max = 16951
2638946		 # 	collision with: 0 1 4 4 3 0 0  and 6 1 0 0 0 1 0 
 # max = 16951
2639009		 # 	collision with: 1 1 1 0 0 0 0  and 6 0 3 0 0 0 0 
 # max = 16951
2639011		 # 	collision with: 3 0 1 0 0 0 0  and 3 2 1 0 0 0 0 
 # max = 16951
2639017		 # 	collision with: 1 1 0 0 0 0 0  and 1 3 0 0 0 0 0 
 # max = 16951
2639019		 # 	collision with: 3 6 1 0 0 0 0  and 1 1 3 0 0 0 0 
 # max = 16951
2639045		 # 	collision with: 1 1 0 0 0 0 0  and 1 3 0 0 0 0 0 
 # max = 16951
2639047		 # 	collision with: 3 6 1 0 0 0 0  and 1 1 3 0 0 0 0 
 # max = 16951
2639049		 # 	collision with: 3 3 1 0 0 0 0  and 4 3 1 0 0 0 0 
 # max = 16951
2639065		 # 	collision with: 2 1 1 0 0 0 0  and 2 0 3 0 0 0 0 
 # max = 16951
2639067		 # 	collision with: 3 0 1 0 0 0 0  and 3 2 1 0 0 0 0 
 # max = 16951
2639069		 # 	collision with: 3 2 1 0 0 0 0  and 4 3 3 0 0 0 0 
 # max = 16951
2639071		 # 	collision with: 3 6 1 0 0 0 0  and 3 3 3 0 0 0 0 
 # max = 16951
2639097		 # 	collision with: 6 3 1 0 0 0 0  and 6 0 3 0 0 0 0 
 # max = 16951
2639099		 # 	collision with: 4 5 1 0 0 0 0  and 0 2 3 0 0 0 0 
 # max = 16951
2639105		 # 	collision with: 6 0 2 0 0 0 0  and 1 1 2 0 0 0 0 
 # max = 16951
2639107		 # 	collision with: 5 4 1 0 0 0 0  and 6 3 3 0 0 0 0 
 # max = 16951
2639140		 # 	collision with: 3 1 1 0 4 0 0  and 2 5 0 0 0 1 0 
 # max = 16951
2639142		 # 	collision with: 6 5 5 2 4 0 0  and 4 2 0 0 0 1 0 
 # max = 16951
2639205		 # 	collision with: 2 0 1 0 0 0 0  and 2 1 1 0 0 0 0 
 # max = 16951
2639207		 # 	collision with: 4 1 0 0 0 0 0  and 0 2 0 0 0 0 0 
 # max = 16951
2639213		 # 	collision with: 2 1 0 0 0 0 0  and 5 2 0 0 0 0 0 
 # max = 16951
2639215		 # 	collision with: 3 3 1 0 0 0 0  and 1 0 2 0 0 0 0 
 # max = 16951
2639241		 # 	collision with: 2 1 0 0 0 0 0  and 5 2 0 0 0 0 0 
 # max = 16951
2639243		 # 	collision with: 2 3 1 0 0 0 0  and 2 2 2 0 0 0 0 
 # max = 16951
2639245		 # 	collision with: 6 1 0 0 0 0 0  and 6 2 0 0 0 0 0 
 # max = 16951
2639247		 # 	collision with: 1 4 0 0 0 0 0  and 3 4 0 0 0 0 0 
 # max = 16951
2639261		 # 	collision with: 6 0 1 0 0 0 0  and 1 1 1 0 0 0 0 
 # max = 16951
2639265		 # 	collision with: 2 1 1 0 0 0 0  and 5 2 2 0 0 0 0 
 # max = 16951
2639267		 # 	collision with: 3 3 1 0 0 0 0  and 1 1 2 0 0 0 0 
 # max = 16951
2639293		 # 	collision with: 1 3 1 0 0 0 0  and 1 1 2 0 0 0 0 
 # max = 16951
2639295		 # 	collision with: 1 1 2 0 0 0 0  and 3 3 2 0 0 0 0 
 # max = 16951
2639301		 # 	collision with: 6 1 0 0 0 0 0  and 6 2 0 0 0 0 0 
 # max = 16951
2639303		 # 	collision with: 1 4 0 0 0 0 0  and 3 4 0 0 0 0 0 
 # max = 16951
2639336		 # 	collision with: 1 6 6 5 6 0 0  and 0 5 0 0 0 1 0 
 # max = 16951
2639338		 # 	collision with: 1 6 6 1 6 0 0  and 2 3 0 0 0 1 0 
 # max = 16951
2639401		 # 	collision with: 2 0 0 0 0 0 0  and 5 2 0 0 0 0 0 
 # max = 16951
2639403		 # 	collision with: 5 0 0 0 0 0 0  and 5 0 2 0 0 0 0 
 # max = 16951
2639411		 # 	collision with: 5 0 0 0 0 0 0  and 5 0 2 0 0 0 0 
 # max = 16951
2639437		 # 	collision with: 3 2 1 0 0 0 0  and 3 3 1 0 0 0 0 
 # max = 16951
2639439		 # 	collision with: 1 4 1 0 0 0 0  and 3 4 1 0 0 0 0 
 # max = 16951
2639441		 # 	collision with: 1 1 1 0 0 0 0  and 6 3 1 0 0 0 0 
 # max = 16951
2639443		 # 	collision with: 4 2 2 0 0 0 0  and 0 4 2 0 0 0 0 
 # max = 16951
2639457		 # 	collision with: 2 0 0 0 0 0 0  and 5 2 0 0 0 0 0 
 # max = 16951
2639459		 # 	collision with: 1 4 1 0 0 0 0  and 3 4 1 0 0 0 0 
 # max = 16951
2639461		 # 	collision with: 3 3 0 0 0 0 0  and 4 3 0 0 0 0 0 
 # max = 16951
2639463		 # 	collision with: 1 4 0 0 0 0 0  and 3 4 0 0 0 0 0 
 # max = 16951
2639489		 # 	collision with: 3 3 0 0 0 0 0  and 4 3 0 0 0 0 0 
 # max = 16951
2639491		 # 	collision with: 1 4 0 0 0 0 0  and 3 4 0 0 0 0 0 
 # max = 16951
2639499		 # 	collision with: 2 0 0 0 0 0 0  and 2 0 2 0 0 0 0 
 # max = 16951
2639532		 # 	collision with: 6 2 1 0 5 0 0  and 5 0 2 0 0 1 0 
 # max = 16951
2639534		 # 	collision with: 0 4 0 6 5 0 0  and 2 0 0 0 0 1 0 
 # max = 16951
2639597		 # 	collision with: 3 3 1 0 0 0 0  and 4 3 1 0 0 0 0 
 # max = 16951
2639605		 # 	collision with: 5 2 0 0 0 0 0  and 2 0 1 0 0 0 0 
 # max = 16951
2639607		 # 	collision with: 3 3 0 0 0 0 0  and 1 1 1 0 0 0 0 
 # max = 16951
2639633		 # 	collision with: 2 3 0 0 0 0 0  and 2 3 1 0 0 0 0 
 # max = 16951
2639639		 # 	collision with: 1 3 0 0 0 0 0  and 1 5 0 0 0 0 0 
 # max = 16951
2639653		 # 	collision with: 3 2 0 0 0 0 0  and 4 6 1 0 0 0 0 
 # max = 16951
2639655		 # 	collision with: 1 1 0 0 0 0 0  and 3 3 1 0 0 0 0 
 # max = 16951
2639659		 # 	collision with: 3 2 0 0 0 0 0  and 3 0 1 0 0 0 0 
 # max = 16951
2639685		 # 	collision with: 1 4 0 0 0 0 0  and 1 4 1 0 0 0 0 
 # max = 16951
2639687		 # 	collision with: 5 4 0 0 0 0 0  and 5 4 1 0 0 0 0 
 # max = 16951
2639693		 # 	collision with: 3 3 0 0 0 0 0  and 4 3 0 0 0 0 0 
 # max = 16951
2639695		 # 	collision with: 1 3 0 0 0 0 0  and 1 5 0 0 0 0 0 
 # max = 16951
2639728		 # 	collision with: 1 1 0 0 0 0 0  and 1 3 0 0 0 0 0 
 # max = 16951
2639729		 # 	collision with: 3 3 0 0 0 0 0  and 4 3 0 0 0 0 0 
 # max = 16951
2639730		 # 	collision with: 0 0 0 0 0 0 0  and 4 0 0 0 0 0 0 
 # max = 16951
2639731		 # 	collision with: 6 3 3 0 0 0 0  and 6 4 3 0 0 0 0 
 # max = 16951
2639776		 # 	collision with: 3 2 0 0 0 0 0  and 3 3 0 0 0 0 0 
 # max = 16951
2639777		 # 	collision with: 1 1 2 0 0 0 0  and 1 3 2 0 0 0 0 
 # max = 16951
2639778		 # 	collision with: 0 0 0 0 0 0 0  and 4 0 0 0 0 0 0 
 # max = 16951
2639779		 # 	collision with: 1 0 3 0 0 0 0  and 3 0 3 0 0 0 0 
 # max = 16951
2639796		 # 	collision with: 4 0 0 0 0 0 0  and 4 2 0 0 0 0 0 
 # max = 16951
2639797		 # 	collision with: 1 1 1 0 0 0 0  and 6 3 1 0 0 0 0 
 # max = 16951
2639798		 # 	collision with: 0 0 0 0 0 0 0  and 4 0 0 0 0 0 0 
 # max = 16951
2639799		 # 	collision with: 6 1 3 0 0 0 0  and 6 1 4 0 0 0 0 
 # max = 16951
2639816		 # 	collision with: 2 0 0 0 0 0 0  and 5 2 0 0 0 0 0 
 # max = 16951
2639817		 # 	collision with: 1 1 3 0 0 0 0  and 6 0 4 0 0 0 0 
 # max = 16951
2639818		 # 	collision with: 0 0 0 0 0 0 0  and 4 0 0 0 0 0 0 
 # max = 16951
2639819		 # 	collision with: 1 0 1 0 0 0 0  and 3 0 1 0 0 0 0 
 # max = 16951
2639864		 # 	collision with: 2 1 0 0 0 0 0  and 5 2 0 0 0 0 0 
 # max = 16951
2639865		 # 	collision with: 4 0 2 0 0 0 0  and 4 2 2 0 0 0 0 
 # max = 16951
2639866		 # 	collision with: 0 0 0 0 0 0 0  and 4 0 0 0 0 0 0 
 # max = 16951
2639867		 # 	collision with: 4 6 3 0 0 0 0  and 4 0 4 0 0 0 0 
 # max = 16951
2639884		 # 	collision with: 6 0 0 0 0 0 0  and 1 1 0 0 0 0 0 
 # max = 16951
2639885		 # 	collision with: 2 1 1 0 0 0 0  and 5 2 1 0 0 0 0 
 # max = 16951
2639886		 # 	collision with: 0 0 0 0 0 0 0  and 4 0 0 0 0 0 0 
 # max = 16951
2639887		 # 	collision with: 6 3 0 0 0 0 0  and 6 4 0 0 0 0 0 
 # max = 16951
2639904		 # 	collision with: 2 0 0 0 0 0 0  and 2 1 0 0 0 0 0 
 # max = 16951
2639905		 # 	collision with: 4 6 3 0 0 0 0  and 3 3 4 0 0 0 0 
 # max = 16951
2639906		 # 	collision with: 0 0 0 0 0 0 0  and 4 0 0 0 0 0 0 
 # max = 16951
2639907		 # 	collision with: 1 0 4 0 0 0 0  and 3 0 4 0 0 0 0 
 # max = 16951
2639924		 # 	collision with: 5 6 1 2 3 0 0  and 1 3 0 0 0 1 0 
 # max = 16951
2639925		 # 	collision with: 5 2 2 0 0 0 0  and 5 4 2 0 0 0 0 
 # max = 16951
2639926		 # 	collision with: 2 0 5 3 3 0 0  and 0 5 2 0 0 1 0 
 # max = 16951
2639927		 # 	collision with: 6 2 1 0 0 0 0  and 5 4 1 0 0 0 0 
 # max = 16951
2639972		 # 	collision with: 2 0 4 0 0 0 0  and 5 2 4 0 0 0 0 
 # max = 16951
2639973		 # 	collision with: 2 0 1 0 0 0 0  and 2 1 1 0 0 0 0 
 # max = 16951
2639974		 # 	collision with: 3 0 4 0 0 0 0  and 3 2 4 0 0 0 0 
 # max = 16951
2639975		 # 	collision with: 1 0 2 0 0 0 0  and 3 0 2 0 0 0 0 
 # max = 16951
2639992		 # 	collision with: 2 1 2 0 0 0 0  and 5 2 2 0 0 0 0 
 # max = 16951
2639993		 # 	collision with: 2 1 1 0 0 0 0  and 5 2 1 0 0 0 0 
 # max = 16951
2639994		 # 	collision with: 1 1 2 0 0 0 0  and 3 2 2 0 0 0 0 
 # max = 16951
2639995		 # 	collision with: 1 0 1 0 0 0 0  and 3 0 1 0 0 0 0 
 # max = 16951
2640012		 # 	collision with: 3 3 1 0 0 0 0  and 4 3 1 0 0 0 0 
 # max = 16951
2640013		 # 	collision with: 3 3 1 0 0 0 0  and 4 3 1 0 0 0 0 
 # max = 16951
2640014		 # 	collision with: 1 0 2 0 0 0 0  and 3 0 2 0 0 0 0 
 # max = 16951
2640015		 # 	collision with: 1 0 3 0 0 0 0  and 3 0 3 0 0 0 0 
 # max = 16951
2640060		 # 	collision with: 1 1 1 0 0 0 0  and 1 3 1 0 0 0 0 
 # max = 16951
2640061		 # 	collision with: 5 2 0 0 0 0 0  and 5 4 0 0 0 0 0 
 # max = 16951
2640062		 # 	collision with: 3 0 1 0 0 0 0  and 1 1 1 0 0 0 0 
 # max = 16951
2640063		 # 	collision with: 1 0 4 0 0 0 0  and 3 0 4 0 0 0 0 
 # max = 16951
2640080		 # 	collision with: 3 3 3 0 0 0 0  and 4 3 3 0 0 0 0 
 # max = 16951
2640081		 # 	collision with: 6 0 3 0 0 0 0  and 1 1 3 0 0 0 0 
 # max = 16951
2640082		 # 	collision with: 1 0 4 0 0 0 0  and 3 0 4 0 0 0 0 
 # max = 16951
2640083		 # 	collision with: 4 2 0 0 0 0 0  and 4 4 0 0 0 0 0 
 # max = 16951
2640100		 # 	collision with: 3 3 0 0 0 0 0  and 4 3 0 0 0 0 0 
 # max = 16951
2640101		 # 	collision with: 3 3 0 0 0 0 0  and 4 3 0 0 0 0 0 
 # max = 16951
2640102		 # 	collision with: 1 0 1 0 0 0 0  and 3 0 1 0 0 0 0 
 # max = 16951
2640103		 # 	collision with: 6 2 0 0 0 0 0  and 5 4 0 0 0 0 0 
 # max = 16951
2640120		 # 	collision with: 1 1 1 5 5 0 0  and 4 1 0 0 0 1 0 
 # max = 16951
2640121		 # 	collision with: 3 2 1 0 0 0 0  and 3 3 1 0 0 0 0 
 # max = 16951
2640122		 # 	collision with: 2 5 1 2 5 0 0  and 3 3 3 0 0 1 0 
 # max = 16978
2640123		 # 	collision with: 2 2 1 0 0 0 0  and 2 3 1 0 0 0 0 
 # max = 16978
2640168		 # 	collision with: 2 0 1 0 0 0 0  and 2 1 1 0 0 0 0 
 # max = 16978
2640169		 # 	collision with: 3 2 0 0 0 0 0  and 3 3 0 0 0 0 0 
 # max = 16978
2640170		 # 	collision with: 1 0 1 0 0 0 0  and 3 2 1 0 0 0 0 
 # max = 16978
2640171		 # 	collision with: 1 0 1 0 0 0 0  and 3 0 1 0 0 0 0 
 # max = 16978
2640188		 # 	collision with: 1 1 4 0 0 0 0  and 1 3 4 0 0 0 0 
 # max = 16978
2640189		 # 	collision with: 1 4 2 0 0 0 0  and 1 0 3 0 0 0 0 
 # max = 16978
2640190		 # 	collision with: 4 2 4 0 0 0 0  and 4 4 4 0 0 0 0 
 # max = 16978
2640191		 # 	collision with: 6 2 2 0 0 0 0  and 5 4 2 0 0 0 0 
 # max = 16978
2640208		 # 	collision with: 3 3 3 0 0 0 0  and 4 3 3 0 0 0 0 
 # max = 16978
2640209		 # 	collision with: 3 2 0 0 0 0 0  and 4 3 0 0 0 0 0 
 # max = 16978
2640210		 # 	collision with: 1 0 4 0 0 0 0  and 3 0 4 0 0 0 0 
 # max = 16978
2640211		 # 	collision with: 5 1 2 0 0 0 0  and 5 1 3 0 0 0 0 
 # max = 16978
2640256		 # 	collision with: 4 0 2 0 0 0 0  and 4 2 2 0 0 0 0 
 # max = 16978
2640257		 # 	collision with: 3 3 2 0 0 0 0  and 4 3 2 0 0 0 0 
 # max = 16978
2640258		 # 	collision with: 6 3 2 0 0 0 0  and 6 4 2 0 0 0 0 
 # max = 16978
2640259		 # 	collision with: 1 0 2 0 0 0 0  and 3 0 2 0 0 0 0 
 # max = 16978
2640276		 # 	collision with: 3 3 0 0 0 0 0  and 4 3 0 0 0 0 0 
 # max = 16978
2640277		 # 	collision with: 3 3 0 0 0 0 0  and 4 3 0 0 0 0 0 
 # max = 16978
2640278		 # 	collision with: 1 0 1 0 0 0 0  and 3 0 1 0 0 0 0 
 # max = 16978
2640279		 # 	collision with: 2 2 0 0 0 0 0  and 2 3 0 0 0 0 0 
 # max = 16978
2640296		 # 	collision with: 3 3 1 0 0 0 0  and 4 3 1 0 0 0 0 
 # max = 16978
2640297		 # 	collision with: 2 1 1 0 0 0 0  and 5 2 1 0 0 0 0 
 # max = 16978
2640298		 # 	collision with: 1 0 2 0 0 0 0  and 3 0 2 0 0 0 0 
 # max = 16978
2640299		 # 	collision with: 1 0 2 0 0 0 0  and 1 1 2 0 0 0 0 
 # max = 16978
2640316		 # 	collision with: 4 5 1 3 1 0 0  and 0 1 0 0 0 1 0 
 # max = 16978
2640317		 # 	collision with: 1 1 0 0 0 0 0  and 1 3 0 0 0 0 0 
 # max = 16978
2640318		 # 	collision with: 0 0 0 1 1 0 0  and 6 1 1 0 0 1 0 
 # max = 16978
2640319		 # 	collision with: 0 0 0 0 0 0 0  and 4 0 0 0 0 0 0 
 # max = 16978
2640364		 # 	collision with: 3 3 3 0 0 0 0  and 4 3 3 0 0 0 0 
 # max = 16978
2640365		 # 	collision with: 1 0 1 0 0 0 0  and 1 0 3 0 0 0 0 
 # max = 16978
2640366		 # 	collision with: 1 0 4 0 0 0 0  and 3 0 4 0 0 0 0 
 # max = 16978
2640367		 # 	collision with: 0 0 0 0 0 0 0  and 4 0 0 0 0 0 0 
 # max = 16978
2640384		 # 	collision with: 3 3 1 0 0 0 0  and 4 3 1 0 0 0 0 
 # max = 16978
2640385		 # 	collision with: 3 3 1 0 0 0 0  and 4 3 1 0 0 0 0 
 # max = 16978
2640386		 # 	collision with: 1 0 2 0 0 0 0  and 3 0 2 0 0 0 0 
 # max = 16978
2640387		 # 	collision with: 0 0 0 0 0 0 0  and 4 0 0 0 0 0 0 
 # max = 16978
2640404		 # 	collision with: 5 2 4 0 0 0 0  and 5 4 4 0 0 0 0 
 # max = 16978
2640405		 # 	collision with: 2 1 1 0 0 0 0  and 5 2 1 0 0 0 0 
 # max = 16978
2640406		 # 	collision with: 6 3 4 0 0 0 0  and 6 4 4 0 0 0 0 
 # max = 16978
2640407		 # 	collision with: 0 0 0 0 0 0 0  and 4 0 0 0 0 0 0 
 # max = 16978
2640452		 # 	collision with: 3 3 0 0 0 0 0  and 4 3 0 0 0 0 0 
 # max = 16978
2640453		 # 	collision with: 3 3 0 0 0 0 0  and 4 3 0 0 0 0 0 
 # max = 16978
2640454		 # 	collision with: 1 0 1 0 0 0 0  and 3 0 1 0 0 0 0 
 # max = 16978
2640455		 # 	collision with: 0 0 0 0 0 0 0  and 4 0 0 0 0 0 0 
 # max = 16978
2640472		 # 	collision with: 2 0 1 0 0 0 0  and 5 2 1 0 0 0 0 
 # max = 16978
2640473		 # 	collision with: 3 0 1 0 0 0 0  and 3 0 3 0 0 0 0 
 # max = 16978
2640474		 # 	collision with: 3 1 1 0 0 0 0  and 1 3 1 0 0 0 0 
 # max = 16978
2640475		 # 	collision with: 0 0 0 0 0 0 0  and 4 0 0 0 0 0 0 
 # max = 16978
2640492		 # 	collision with: 3 2 2 0 0 0 0  and 3 3 2 0 0 0 0 
 # max = 16978
2640493		 # 	collision with: 1 1 0 0 0 0 0  and 6 3 0 0 0 0 0 
 # max = 16978
2640494		 # 	collision with: 1 0 2 0 0 0 0  and 1 1 2 0 0 0 0 
 # max = 16978
2640495		 # 	collision with: 0 0 0 0 0 0 0  and 4 0 0 0 0 0 0 
 # max = 16978
2640512		 # 	collision with: 3 4 6 6 6 0 0  and 2 0 1 0 0 1 0 
 # max = 16978
2640513		 # 	collision with: 2 1 1 0 0 0 0  and 5 2 1 0 0 0 0 
 # max = 16978
2640514		 # 	collision with: 5 5 2 1 6 0 0  and 4 1 0 0 0 1 0 
 # max = 16978
2640515		 # 	collision with: 5 6 1 0 0 0 0  and 6 5 2 0 0 0 0 
 # max = 16978
2640560		 # 	collision with: 1 1 2 0 0 0 0  and 1 3 2 0 0 0 0 
 # max = 16978
2640561		 # 	collision with: 3 2 1 0 0 0 0  and 4 3 1 0 0 0 0 
 # max = 16978
2640562		 # 	collision with: 5 1 2 0 0 0 0  and 5 2 2 0 0 0 0 
 # max = 16978
2640563		 # 	collision with: 1 1 0 0 0 0 0  and 3 2 0 0 0 0 0 
 # max = 16978
2640580		 # 	collision with: 5 2 1 0 0 0 0  and 5 4 1 0 0 0 0 
 # max = 16978
2640581		 # 	collision with: 2 2 1 0 0 0 0  and 2 2 2 0 0 0 0 
 # max = 16978
2640582		 # 	collision with: 1 0 1 0 0 0 0  and 1 1 1 0 0 0 0 
 # max = 16978
2640583		 # 	collision with: 1 1 1 0 0 0 0  and 3 0 2 0 0 0 0 
 # max = 16978
2640600		 # 	collision with: 3 3 0 0 0 0 0  and 4 3 0 0 0 0 0 
 # max = 16978
2640601		 # 	collision with: 2 1 0 0 0 0 0  and 5 2 0 0 0 0 0 
 # max = 16978
2640602		 # 	collision with: 1 0 1 0 0 0 0  and 3 0 1 0 0 0 0 
 # max = 16978
2640603		 # 	collision with: 1 0 2 0 0 0 0  and 3 0 2 0 0 0 0 
 # max = 16978
2640648		 # 	collision with: 3 2 4 0 0 0 0  and 3 3 4 0 0 0 0 
 # max = 16978
2640649		 # 	collision with: 1 1 1 0 0 0 0  and 1 3 1 0 0 0 0 
 # max = 16978
2640650		 # 	collision with: 5 1 4 0 0 0 0  and 5 2 4 0 0 0 0 
 # max = 16978
2640651		 # 	collision with: 1 1 1 0 0 0 0  and 1 1 2 0 0 0 0 
 # max = 16978
2640668		 # 	collision with: 3 3 1 0 0 0 0  and 4 3 1 0 0 0 0 
 # max = 16978
2640669		 # 	collision with: 3 3 1 0 0 0 0  and 4 3 1 0 0 0 0 
 # max = 16978
2640670		 # 	collision with: 1 0 2 0 0 0 0  and 3 0 2 0 0 0 0 
 # max = 16978
2640671		 # 	collision with: 5 1 0 0 0 0 0  and 5 2 0 0 0 0 0 
 # max = 16978
2640688		 # 	collision with: 3 3 3 0 0 0 0  and 4 3 3 0 0 0 0 
 # max = 16978
2640689		 # 	collision with: 4 0 1 0 0 0 0  and 4 2 2 0 0 0 0 
 # max = 16978
2640690		 # 	collision with: 1 0 4 0 0 0 0  and 3 0 4 0 0 0 0 
 # max = 16978
2640691		 # 	collision with: 1 0 1 0 0 0 0  and 3 0 1 0 0 0 0 
 # max = 16978
2640708		 # 	collision with: 4 2 4 3 2 0 0  and 1 5 0 0 0 1 0 
 # max = 16978
2640709		 # 	collision with: 2 0 1 0 0 0 0  and 5 2 1 0 0 0 0 
 # max = 16978
2640710		 # 	collision with: 5 2 4 6 2 0 0  and 1 2 0 0 0 1 0 
 # max = 16978
2640711		 # 	collision with: 1 3 0 0 0 0 0  and 3 1 2 0 0 0 0 
 # max = 16978
2640756		 # 	collision with: 3 3 1 0 0 0 0  and 4 3 1 0 0 0 0 
 # max = 16978
2640757		 # 	collision with: 3 3 1 0 0 0 0  and 4 3 1 0 0 0 0 
 # max = 16978
2640758		 # 	collision with: 1 0 2 0 0 0 0  and 3 0 2 0 0 0 0 
 # max = 16978
2640759		 # 	collision with: 2 1 0 0 0 0 0  and 2 1 2 0 0 0 0 
 # max = 16978
2640776		 # 	collision with: 3 3 0 0 0 0 0  and 4 3 0 0 0 0 0 
 # max = 16978
2640777		 # 	collision with: 4 0 0 0 0 0 0  and 4 2 0 0 0 0 0 
 # max = 16978
2640778		 # 	collision with: 1 0 1 0 0 0 0  and 3 0 1 0 0 0 0 
 # max = 16978
2640779		 # 	collision with: 3 4 0 0 0 0 0  and 3 4 2 0 0 0 0 
 # max = 16978
2640796		 # 	collision with: 6 0 2 0 0 0 0  and 1 1 2 0 0 0 0 
 # max = 16978
2640797		 # 	collision with: 6 0 1 0 0 0 0  and 1 1 1 0 0 0 0 
 # max = 16978
2640798		 # 	collision with: 3 0 2 0 0 0 0  and 3 2 2 0 0 0 0 
 # max = 16978
2640799		 # 	collision with: 5 4 0 0 0 0 0  and 6 5 0 0 0 0 0 
 # max = 16978
2640844		 # 	collision with: 3 3 3 0 0 0 0  and 4 3 3 0 0 0 0 
 # max = 16978
2640845		 # 	collision with: 2 1 1 0 0 0 0  and 5 2 1 0 0 0 0 
 # max = 16978
2640846		 # 	collision with: 1 0 4 0 0 0 0  and 3 0 4 0 0 0 0 
 # max = 16978
2640847		 # 	collision with: 2 4 0 0 0 0 0  and 2 1 2 0 0 0 0 
 # max = 16978
2640864		 # 	collision with: 2 1 4 0 0 0 0  and 5 2 4 0 0 0 0 
 # max = 16978
2640865		 # 	collision with: 6 3 0 0 0 0 0  and 1 3 2 0 0 0 0 
 # max = 16978
2640866		 # 	collision with: 3 1 4 0 0 0 0  and 1 3 4 0 0 0 0 
 # max = 16978
2640867		 # 	collision with: 3 0 0 0 0 0 0  and 3 2 0 0 0 0 0 
 # max = 16978
2640884		 # 	collision with: 6 0 1 0 0 0 0  and 1 1 1 0 0 0 0 
 # max = 16978
2640885		 # 	collision with: 6 0 0 0 0 0 0  and 1 1 2 0 0 0 0 
 # max = 16978
2640886		 # 	collision with: 4 2 1 0 0 0 0  and 4 4 1 0 0 0 0 
 # max = 16978
2640887		 # 	collision with: 1 0 2 0 0 0 0  and 3 0 2 0 0 0 0 
 # max = 16978
2640904		 # 	collision with: 1 2 0 0 5 0 0  and 5 4 6 0 1 1 0 
 # max = 19535
2640905		 # 	collision with: 3 2 0 0 0 0 0  and 3 3 1 0 0 0 0 
 # max = 19535
2640906		 # 	collision with: 1 0 0 1 4 0 0  and 4 1 0 0 0 1 0 
 # max = 19535
2640907		 # 	collision with: 5 6 0 0 0 0 0  and 6 5 1 0 0 0 0 
 # max = 19535
2640952		 # 	collision with: 3 3 0 0 0 0 0  and 4 3 0 0 0 0 0 
 # max = 19535
2640953		 # 	collision with: 3 3 0 0 0 0 0  and 4 3 0 0 0 0 0 
 # max = 19535
2640954		 # 	collision with: 1 0 1 0 0 0 0  and 3 0 1 0 0 0 0 
 # max = 19535
2640955		 # 	collision with: 1 1 1 0 0 0 0  and 3 2 1 0 0 0 0 
 # max = 19535
2640972		 # 	collision with: 3 3 3 0 0 0 0  and 4 3 3 0 0 0 0 
 # max = 19535
2640973		 # 	collision with: 3 2 0 0 0 0 0  and 4 6 1 0 0 0 0 
 # max = 19535
2640974		 # 	collision with: 1 0 4 0 0 0 0  and 3 0 4 0 0 0 0 
 # max = 19535
2640975		 # 	collision with: 3 0 0 0 0 0 0  and 1 1 0 0 0 0 0 
 # max = 19535
2640992		 # 	collision with: 4 0 1 0 0 0 0  and 4 2 1 0 0 0 0 
 # max = 19535
2640993		 # 	collision with: 2 1 0 0 0 0 0  and 5 2 1 0 0 0 0 
 # max = 19535
2640994		 # 	collision with: 5 1 1 0 0 0 0  and 5 2 1 0 0 0 0 
 # max = 19535
2640995		 # 	collision with: 6 4 0 0 0 0 0  and 6 4 1 0 0 0 0 
 # max = 19535
2641040		 # 	collision with: 3 3 1 0 0 0 0  and 4 3 1 0 0 0 0 
 # max = 19535
2641041		 # 	collision with: 6 0 0 0 0 0 0  and 1 1 0 0 0 0 0 
 # max = 19535
2641042		 # 	collision with: 1 0 2 0 0 0 0  and 3 0 2 0 0 0 0 
 # max = 19535
2641043		 # 	collision with: 1 0 1 0 0 0 0  and 3 0 1 0 0 0 0 
 # max = 19535
2641060		 # 	collision with: 3 3 2 0 0 0 0  and 4 3 2 0 0 0 0 
 # max = 19535
2641061		 # 	collision with: 3 1 0 0 0 0 0  and 3 1 1 0 0 0 0 
 # max = 19535
2641062		 # 	collision with: 3 1 2 0 0 0 0  and 1 3 2 0 0 0 0 
 # max = 19535
2641063		 # 	collision with: 1 3 0 0 0 0 0  and 1 5 0 0 0 0 0 
 # max = 19535
2641080		 # 	collision with: 4 0 4 0 0 0 0  and 4 2 4 0 0 0 0 
 # max = 19535
2641081		 # 	collision with: 2 0 0 0 0 0 0  and 2 1 0 0 0 0 0 
 # max = 19535
2641082		 # 	collision with: 1 0 4 0 0 0 0  and 3 2 4 0 0 0 0 
 # max = 19535
2641083		 # 	collision with: 1 2 0 0 0 0 0  and 1 2 1 0 0 0 0 
 # max = 19535
2641113		 # 	collision with: 4 0 4 0 0 0 0  and 3 2 4 0 0 0 0 
 # max = 19535
2641115		 # 	collision with: 6 1 1 0 0 0 0  and 5 3 1 0 0 0 0 
 # max = 19535
2641117		 # 	collision with: 3 2 2 0 0 0 0  and 4 4 2 0 0 0 0 
 # max = 19535
2641119		 # 	collision with: 0 3 0 0 0 0 0  and 4 4 0 0 0 0 0 
 # max = 19535
2641128		 # 	collision with: 3 5 0 0 0 0 0  and 4 5 0 0 0 0 0 
 # max = 19535
2641130		 # 	collision with: 1 5 0 0 0 0 0  and 3 5 0 0 0 0 0 
 # max = 19535
2641133		 # 	collision with: 3 5 2 0 0 0 0  and 4 5 2 0 0 0 0 
 # max = 19535
2641135		 # 	collision with: 3 3 0 0 0 0 0  and 3 4 0 0 0 0 0 
 # max = 19535
2641149		 # 	collision with: 4 1 2 0 0 0 0  and 4 3 2 0 0 0 0 
 # max = 19535
2641152		 # 	collision with: 4 1 0 0 0 0 0  and 4 3 0 0 0 0 0 
 # max = 19535
2641154		 # 	collision with: 4 0 0 0 0 0 0  and 4 1 0 0 0 0 0 
 # max = 19535
2641156		 # 	collision with: 3 5 0 0 0 0 0  and 4 5 0 0 0 0 0 
 # max = 19535
2641158		 # 	collision with: 1 5 0 0 0 0 0  and 3 5 0 0 0 0 0 
 # max = 19535
2641176		 # 	collision with: 2 0 0 0 0 0 0  and 2 2 0 0 0 0 0 
 # max = 19535
2641178		 # 	collision with: 2 2 0 0 0 0 0  and 2 4 0 0 0 0 0 
 # max = 19535
2641184		 # 	collision with: 3 5 0 0 0 0 0  and 4 5 0 0 0 0 0 
 # max = 19535
2641186		 # 	collision with: 1 5 0 0 0 0 0  and 3 5 0 0 0 0 0 
 # max = 19535
2641200		 # 	collision with: 6 2 0 0 0 0 0  and 6 4 0 0 0 0 0 
 # max = 19535
2641202		 # 	collision with: 6 1 0 0 0 0 0  and 6 2 0 0 0 0 0 
 # max = 19535
2641212		 # 	collision with: 3 5 0 0 0 0 0  and 4 5 0 0 0 0 0 
 # max = 19535
2641214		 # 	collision with: 1 5 0 0 0 0 0  and 3 5 0 0 0 0 0 
 # max = 19535
2641224		 # 	collision with: 1 3 0 0 0 0 0  and 1 5 0 0 0 0 0 
 # max = 19535
2641226		 # 	collision with: 3 0 0 0 0 0 0  and 1 1 0 0 0 0 0 
 # max = 19535
2641240		 # 	collision with: 3 5 0 0 0 0 0  and 4 5 0 0 0 0 0 
 # max = 19535
2641242		 # 	collision with: 1 5 0 0 0 0 0  and 3 5 0 0 0 0 0 
 # max = 19535
2641248		 # 	collision with: 5 2 0 0 0 0 0  and 5 3 0 0 0 0 0 
 # max = 19535
2641250		 # 	collision with: 5 0 0 0 0 0 0  and 5 2 0 0 0 0 0 
 # max = 19535
2641268		 # 	collision with: 3 5 0 0 0 0 0  and 4 5 0 0 0 0 0 
 # max = 19535
2641270		 # 	collision with: 1 5 0 0 0 0 0  and 3 5 0 0 0 0 0 
 # max = 19535
2641272		 # 	collision with: 4 0 0 0 0 0 0  and 3 1 0 0 0 0 0 
 # max = 19535
2641274		 # 	collision with: 6 2 0 0 0 0 0  and 5 3 0 0 0 0 0 
 # max = 19535
2641277		 # 	collision with: 3 1 2 0 0 0 0  and 3 2 2 0 0 0 0 
 # max = 19535
2641293		 # 	collision with: 3 5 2 0 0 0 0  and 4 5 2 0 0 0 0 
 # max = 19535
2641295		 # 	collision with: 1 0 2 0 0 0 0  and 3 2 2 0 0 0 0 
 # max = 19535
2641296		 # 	collision with: 2 5 3 3 4 0 0  and 1 3 0 0 0 1 0 
 # max = 19535
2641298		 # 	collision with: 0 5 3 4 4 0 0  and 1 5 2 0 0 1 0 
 # max = 19535
2641309		 # 	collision with: 1 1 2 0 0 0 0  and 1 0 4 0 0 0 0 
 # max = 19535
2641311		 # 	collision with: 6 1 3 0 0 0 0  and 5 3 3 0 0 0 0 
 # max = 19535
2641313		 # 	collision with: 3 2 0 0 0 0 0  and 4 4 0 0 0 0 0 
 # max = 19535
2641315		 # 	collision with: 3 3 2 0 0 0 0  and 3 4 4 0 0 0 0 
 # max = 19535
2641324		 # 	collision with: 3 5 6 0 0 0 0  and 4 5 6 0 0 0 0 
 # max = 19535
2641326		 # 	collision with: 1 5 6 0 0 0 0  and 3 5 6 0 0 0 0 
 # max = 19535
2641329		 # 	collision with: 3 5 1 0 0 0 0  and 4 5 1 0 0 0 0 
 # max = 19535
2641331		 # 	collision with: 1 2 1 0 0 0 0  and 1 3 1 0 0 0 0 
 # max = 19535
2641347		 # 	collision with: 2 2 0 0 0 0 0  and 2 4 0 0 0 0 0 
 # max = 19535
2641348		 # 	collision with: 1 2 1 0 0 0 0  and 6 3 1 0 0 0 0 
 # max = 19535
2641352		 # 	collision with: 3 5 3 0 0 0 0  and 4 5 3 0 0 0 0 
 # max = 19535
2641354		 # 	collision with: 1 5 3 0 0 0 0  and 3 5 3 0 0 0 0 
 # max = 19535
2641372		 # 	collision with: 3 5 1 0 0 0 0  and 4 5 1 0 0 0 0 
 # max = 19535
2641374		 # 	collision with: 1 5 1 0 0 0 0  and 3 5 1 0 0 0 0 
 # max = 19535
2641380		 # 	collision with: 3 5 2 0 0 0 0  and 4 5 2 0 0 0 0 
 # max = 19535
2641382		 # 	collision with: 1 5 2 0 0 0 0  and 3 5 2 0 0 0 0 
 # max = 19535
2641398		 # 	collision with: 1 5 0 0 0 0 0  and 3 5 0 0 0 0 0 
 # max = 19535
2641420		 # 	collision with: 2 0 2 0 0 0 0  and 2 2 2 0 0 0 0 
 # max = 19535
2641422		 # 	collision with: 3 0 2 0 0 0 0  and 1 1 2 0 0 0 0 
 # max = 19535
2641436		 # 	collision with: 3 5 4 0 0 0 0  and 4 5 4 0 0 0 0 
 # max = 19535
2641438		 # 	collision with: 1 5 4 0 0 0 0  and 3 5 4 0 0 0 0 
 # max = 19535
2641444		 # 	collision with: 3 5 2 0 0 0 0  and 4 5 2 0 0 0 0 
 # max = 19535
2641446		 # 	collision with: 1 5 2 0 0 0 0  and 3 5 2 0 0 0 0 
 # max = 19535
2641464		 # 	collision with: 3 5 1 0 0 0 0  and 4 5 1 0 0 0 0 
 # max = 19535
2641466		 # 	collision with: 1 5 1 0 0 0 0  and 3 5 1 0 0 0 0 
 # max = 19535
2641468		 # 	collision with: 5 2 6 0 0 0 0  and 5 3 6 0 0 0 0 
 # max = 19535
2641470		 # 	collision with: 1 0 6 0 0 0 0  and 3 2 6 0 0 0 0 
 # max = 19535
2641473		 # 	collision with: 4 1 1 0 0 0 0  and 4 3 1 0 0 0 0 
 # max = 19535
2641475		 # 	collision with: 1 5 1 0 0 0 0  and 3 5 1 0 0 0 0 
 # max = 19535
2641491		 # 	collision with: 1 5 0 0 0 0 0  and 3 5 0 0 0 0 0 
 # max = 19535
2641492		 # 	collision with: 0 1 3 2 2 0 0  and 6 2 0 0 0 1 0 
 # max = 19535
2641494		 # 	collision with: 3 1 0 6 2 0 0  and 6 3 0 0 0 1 0 
 # max = 19535
2641505		 # 	collision with: 4 0 1 0 0 0 0  and 3 2 1 0 0 0 0 
 # max = 19535
2641507		 # 	collision with: 1 2 0 0 0 0 0  and 1 3 0 0 0 0 0 
 # max = 19535
2641511		 # 	collision with: 6 3 2 0 0 0 0  and 6 0 3 0 0 0 0 
 # max = 19535
2641525		 # 	collision with: 3 5 0 0 0 0 0  and 4 5 0 0 0 0 0 
 # max = 19535
2641527		 # 	collision with: 6 1 1 0 0 0 0  and 5 3 1 0 0 0 0 
 # max = 19535
2641541		 # 	collision with: 3 5 1 0 0 0 0  and 4 5 1 0 0 0 0 
 # max = 19535
2641543		 # 	collision with: 3 3 1 0 0 0 0  and 3 4 1 0 0 0 0 
 # max = 19535
2641544		 # 	collision with: 1 0 2 0 0 0 0  and 1 1 2 0 0 0 0 
 # max = 19535
2641546		 # 	collision with: 1 2 2 0 0 0 0  and 1 3 2 0 0 0 0 
 # max = 19535
2641548		 # 	collision with: 3 5 6 0 0 0 0  and 4 5 6 0 0 0 0 
 # max = 19535
2641550		 # 	collision with: 1 5 6 0 0 0 0  and 3 5 6 0 0 0 0 
 # max = 19535
2641568		 # 	collision with: 3 1 1 0 0 0 0  and 3 2 1 0 0 0 0 
 # max = 19535
2641576		 # 	collision with: 3 5 4 0 0 0 0  and 4 5 4 0 0 0 0 
 # max = 19535
2641578		 # 	collision with: 1 5 4 0 0 0 0  and 3 5 4 0 0 0 0 
 # max = 19535
2641592		 # 	collision with: 3 5 2 0 0 0 0  and 4 5 2 0 0 0 0 
 # max = 19535
2641594		 # 	collision with: 1 5 2 0 0 0 0  and 3 5 2 0 0 0 0 
 # max = 19535
2641604		 # 	collision with: 3 5 3 0 0 0 0  and 4 5 3 0 0 0 0 
 # max = 19535
2641606		 # 	collision with: 1 5 3 0 0 0 0  and 3 5 3 0 0 0 0 
 # max = 19535
2641616		 # 	collision with: 3 5 1 0 0 0 0  and 4 5 1 0 0 0 0 
 # max = 19535
2641618		 # 	collision with: 1 5 1 0 0 0 0  and 3 5 1 0 0 0 0 
 # max = 19535
2641632		 # 	collision with: 3 5 1 0 0 0 0  and 4 5 1 0 0 0 0 
 # max = 19535
2641634		 # 	collision with: 1 5 1 0 0 0 0  and 3 5 1 0 0 0 0 
 # max = 19535
2641640		 # 	collision with: 3 2 6 0 0 0 0  and 4 4 6 0 0 0 0 
 # max = 19535
2641642		 # 	collision with: 6 1 6 0 0 0 0  and 6 2 6 0 0 0 0 
 # max = 19535
2641660		 # 	collision with: 3 5 2 0 0 0 0  and 4 5 2 0 0 0 0 
 # max = 19535
2641662		 # 	collision with: 1 5 2 0 0 0 0  and 3 5 2 0 0 0 0 
 # max = 19535
2641666		 # 	collision with: 1 5 0 0 0 0 0  and 3 5 0 0 0 0 0 
 # max = 19535
2641669		 # 	collision with: 5 2 0 0 0 0 0  and 5 3 0 0 0 0 0 
 # max = 19535
2641671		 # 	collision with: 1 5 2 0 0 0 0  and 3 5 2 0 0 0 0 
 # max = 19535
2641685		 # 	collision with: 6 2 1 0 0 0 0  and 6 4 1 0 0 0 0 
 # max = 19535
2641687		 # 	collision with: 1 5 1 0 0 0 0  and 3 5 1 0 0 0 0 
 # max = 19535
2641688		 # 	collision with: 5 2 1 3 6 0 0  and 3 4 0 0 0 1 0 
 # max = 19535
2641690		 # 	collision with: 4 4 5 1 6 0 0  and 5 2 0 0 0 1 0 
 # max = 19535
2641701		 # 	collision with: 4 0 1 0 0 0 0  and 3 1 3 0 0 0 0 
 # max = 19535
2641705		 # 	collision with: 6 6 1 0 0 0 0  and 6 0 3 0 0 0 0 
 # max = 19535
2641707		 # 	collision with: 0 3 1 0 0 0 0  and 4 4 1 0 0 0 0 
 # max = 19535
2641716		 # 	collision with: 3 5 4 0 0 0 0  and 4 5 4 0 0 0 0 
 # max = 19535
2641718		 # 	collision with: 1 5 4 0 0 0 0  and 3 5 4 0 0 0 0 
 # max = 19535
2641721		 # 	collision with: 4 0 3 0 0 0 0  and 3 1 3 0 0 0 0 
 # max = 19535
2641737		 # 	collision with: 3 5 0 0 0 0 0  and 4 5 0 0 0 0 0 
 # max = 19535
2641739		 # 	collision with: 4 0 2 0 0 0 0  and 4 1 2 0 0 0 0 
 # max = 19535
2641740		 # 	collision with: 3 5 2 0 0 0 0  and 4 5 2 0 0 0 0 
 # max = 19535
2641742		 # 	collision with: 1 5 2 0 0 0 0  and 3 5 2 0 0 0 0 
 # max = 19535
2641744		 # 	collision with: 3 5 2 0 0 0 0  and 4 5 2 0 0 0 0 
 # max = 19535
2641746		 # 	collision with: 1 5 2 0 0 0 0  and 3 5 2 0 0 0 0 
 # max = 19535
2641766		 # 	collision with: 1 5 0 0 0 0 0  and 3 5 0 0 0 0 0 
 # max = 19535
2641772		 # 	collision with: 3 5 6 0 0 0 0  and 4 5 6 0 0 0 0 
 # max = 19535
2641774		 # 	collision with: 1 5 6 0 0 0 0  and 3 5 6 0 0 0 0 
 # max = 19535
2641788		 # 	collision with: 2 0 1 0 0 0 0  and 2 2 1 0 0 0 0 
 # max = 19535
2641800		 # 	collision with: 3 5 1 0 0 0 0  and 4 5 1 0 0 0 0 
 # max = 19535
2641802		 # 	collision with: 1 5 1 0 0 0 0  and 3 5 1 0 0 0 0 
 # max = 19535
2641812		 # 	collision with: 6 1 6 0 0 0 0  and 1 3 6 0 0 0 0 
 # max = 19535
2641814		 # 	collision with: 3 0 6 0 0 0 0  and 1 1 6 0 0 0 0 
 # max = 19535
2641836		 # 	collision with: 3 1 2 0 0 0 0  and 3 2 2 0 0 0 0 
 # max = 19535
2641838		 # 	collision with: 6 1 2 0 0 0 0  and 5 3 2 0 0 0 0 
 # max = 19535
2641856		 # 	collision with: 3 5 3 0 0 0 0  and 4 5 3 0 0 0 0 
 # max = 19535
2641858		 # 	collision with: 1 5 3 0 0 0 0  and 3 5 3 0 0 0 0 
 # max = 19535
2641860		 # 	collision with: 3 5 1 0 0 0 0  and 4 5 1 0 0 0 0 
 # max = 19535
2641862		 # 	collision with: 1 5 1 0 0 0 0  and 3 5 1 0 0 0 0 
 # max = 19535
2641865		 # 	collision with: 2 5 1 0 0 0 0  and 5 0 3 0 0 0 0 
 # max = 19535
2641867		 # 	collision with: 3 3 2 0 0 0 0  and 3 4 2 0 0 0 0 
 # max = 19535
2641881		 # 	collision with: 4 1 0 0 0 0 0  and 4 3 0 0 0 0 0 
 # max = 19535
2641883		 # 	collision with: 1 5 2 0 0 0 0  and 3 5 2 0 0 0 0 
 # max = 19535
2641884		 # 	collision with: 3 5 1 2 1 0 0  and 5 5 0 0 0 1 0 
 # max = 19535
2641886		 # 	collision with: 6 6 3 4 1 0 0  and 4 1 0 0 0 1 0 
 # max = 19535
2641897		 # 	collision with: 2 3 1 0 0 0 0  and 2 6 2 0 0 0 0 
 # max = 19535
2641899		 # 	collision with: 6 1 2 0 0 0 0  and 5 3 2 0 0 0 0 
 # max = 19535
2641901		 # 	collision with: 3 2 1 0 0 0 0  and 4 4 1 0 0 0 0 
 # max = 19535
2641912		 # 	collision with: 3 5 3 0 0 0 0  and 4 5 3 0 0 0 0 
 # max = 19535
2641914		 # 	collision with: 1 5 3 0 0 0 0  and 3 5 3 0 0 0 0 
 # max = 19535
2641917		 # 	collision with: 3 1 0 0 0 0 0  and 3 2 0 0 0 0 0 
 # max = 19535
2641919		 # 	collision with: 1 5 1 0 0 0 0  and 3 5 1 0 0 0 0 
 # max = 19535
2641933		 # 	collision with: 6 3 1 0 0 0 0  and 1 2 2 0 0 0 0 
 # max = 19535
2641935		 # 	collision with: 1 2 1 0 0 0 0  and 1 2 2 0 0 0 0 
 # max = 19535
2641936		 # 	collision with: 3 5 1 0 0 0 0  and 4 5 1 0 0 0 0 
 # max = 19535
2641938		 # 	collision with: 1 5 1 0 0 0 0  and 3 5 1 0 0 0 0 
 # max = 19535
2641960		 # 	collision with: 4 1 2 0 0 0 0  and 4 3 2 0 0 0 0 
 # max = 19535
2641962		 # 	collision with: 4 0 2 0 0 0 0  and 4 1 2 0 0 0 0 
 # max = 19535
2641968		 # 	collision with: 3 5 1 0 0 0 0  and 4 5 1 0 0 0 0 
 # max = 19535
2641970		 # 	collision with: 1 5 1 0 0 0 0  and 3 5 1 0 0 0 0 
 # max = 19535
2641984		 # 	collision with: 3 1 6 0 0 0 0  and 3 2 6 0 0 0 0 
 # max = 19535
2641986		 # 	collision with: 3 3 6 0 0 0 0  and 3 4 6 0 0 0 0 
 # max = 19535
2641996		 # 	collision with: 3 5 6 0 0 0 0  and 4 5 6 0 0 0 0 
 # max = 19535
2641998		 # 	collision with: 1 5 6 0 0 0 0  and 3 5 6 0 0 0 0 
 # max = 19535
2642008		 # 	collision with: 4 0 1 0 0 0 0  and 3 1 1 0 0 0 0 
 # max = 19535
2642024		 # 	collision with: 3 5 2 0 0 0 0  and 4 5 2 0 0 0 0 
 # max = 19535
2642026		 # 	collision with: 1 5 2 0 0 0 0  and 3 5 2 0 0 0 0 
 # max = 19535
2642034		 # 	collision with: 1 5 0 0 0 0 0  and 3 5 0 0 0 0 0 
 # max = 19535
2642052		 # 	collision with: 3 5 4 0 0 0 0  and 4 5 4 0 0 0 0 
 # max = 19535
2642054		 # 	collision with: 1 5 4 0 0 0 0  and 3 5 4 0 0 0 0 
 # max = 19535
2642056		 # 	collision with: 3 5 2 0 0 0 0  and 4 5 2 0 0 0 0 
 # max = 19535
2642058		 # 	collision with: 1 5 2 0 0 0 0  and 3 5 2 0 0 0 0 
 # max = 19535
2642061		 # 	collision with: 3 5 0 0 0 0 0  and 4 5 0 0 0 0 0 
 # max = 19535
2642063		 # 	collision with: 4 0 1 0 0 0 0  and 4 1 1 0 0 0 0 
 # max = 19535
2642077		 # 	collision with: 6 1 1 0 0 0 0  and 1 3 1 0 0 0 0 
 # max = 19535
2642080		 # 	collision with: 1 2 3 4 5 0 0  and 0 0 0 0 0 1 0 
 # max = 19535
2642082		 # 	collision with: 3 5 2 0 5 0 0  and 2 1 0 0 0 1 0 
 # max = 19535
2642095		 # 	collision with: 3 4 0 0 0 0 0  and 3 3 2 0 0 0 0 
 # max = 19535
2642097		 # 	collision with: 5 2 0 0 0 0 0  and 5 3 2 0 0 0 0 
 # max = 19535
2642099		 # 	collision with: 5 6 0 0 0 0 0  and 6 2 2 0 0 0 0 
 # max = 19535
2642108		 # 	collision with: 3 5 2 0 0 0 0  and 4 5 2 0 0 0 0 
 # max = 19535
2642110		 # 	collision with: 1 5 2 0 0 0 0  and 3 5 2 0 0 0 0 
 # max = 19535
2642113		 # 	collision with: 1 0 1 0 0 0 0  and 1 1 1 0 0 0 0 
 # max = 19535
2642115		 # 	collision with: 1 5 0 0 0 0 0  and 3 5 0 0 0 0 0 
 # max = 19535
2642129		 # 	collision with: 2 0 0 0 0 0 0  and 2 2 0 0 0 0 0 
 # max = 19535
2642131		 # 	collision with: 5 4 0 0 0 0 0  and 6 5 0 0 0 0 0 
 # max = 19535
2642134		 # 	collision with: 1 5 0 0 0 0 0  and 3 5 0 0 0 0 0 
 # max = 19535
2642136		 # 	collision with: 3 5 1 0 0 0 0  and 4 5 1 0 0 0 0 
 # max = 19535
2642138		 # 	collision with: 1 5 1 0 0 0 0  and 3 5 1 0 0 0 0 
 # max = 19535
2642156		 # 	collision with: 1 0 6 0 0 0 0  and 1 1 6 0 0 0 0 
 # max = 19535
2642158		 # 	collision with: 1 2 6 0 0 0 0  and 1 3 6 0 0 0 0 
 # max = 19535
2642164		 # 	collision with: 3 5 3 0 0 0 0  and 4 5 3 0 0 0 0 
 # max = 19535
2642166		 # 	collision with: 1 5 3 0 0 0 0  and 3 5 3 0 0 0 0 
 # max = 19535
2642180		 # 	collision with: 3 5 1 0 0 0 0  and 4 5 1 0 0 0 0 
 # max = 19535
2642182		 # 	collision with: 1 5 1 0 0 0 0  and 3 5 1 0 0 0 0 
 # max = 19535
2642192		 # 	collision with: 3 5 4 0 0 0 0  and 4 5 4 0 0 0 0 
 # max = 19535
2642194		 # 	collision with: 1 5 4 0 0 0 0  and 3 5 4 0 0 0 0 
 # max = 19535
2642204		 # 	collision with: 3 5 2 0 0 0 0  and 4 5 2 0 0 0 0 
 # max = 19535
2642206		 # 	collision with: 1 5 2 0 0 0 0  and 3 5 2 0 0 0 0 
 # max = 19535
2642220		 # 	collision with: 3 5 6 0 0 0 0  and 4 5 6 0 0 0 0 
 # max = 19535
2642222		 # 	collision with: 1 5 6 0 0 0 0  and 3 5 6 0 0 0 0 
 # max = 19535
2642228		 # 	collision with: 4 0 1 0 0 0 0  and 3 2 1 0 0 0 0 
 # max = 19535
2642252		 # 	collision with: 6 2 2 0 0 0 0  and 6 4 2 0 0 0 0 
 # max = 19535
2642254		 # 	collision with: 1 0 2 0 0 0 0  and 3 2 2 0 0 0 0 
 # max = 19535
2642257		 # 	collision with: 3 5 1 0 0 0 0  and 4 5 1 0 0 0 0 
 # max = 19535
2642259		 # 	collision with: 5 0 0 0 0 0 0  and 5 2 0 0 0 0 0 
 # max = 19535
2642273		 # 	collision with: 3 5 0 0 0 0 0  and 4 5 0 0 0 0 0 
 # max = 19535
2642275		 # 	collision with: 6 1 1 0 0 0 0  and 6 2 1 0 0 0 0 
 # max = 19535
2642276		 # 	collision with: 1 6 3 0 3 0 0  and 5 1 0 0 0 1 0 
 # max = 19535
2642278		 # 	collision with: 0 5 6 6 3 0 0  and 2 1 3 0 0 1 0 
 # max = 19535
2642289		 # 	collision with: 4 0 0 0 0 0 0  and 3 1 0 0 0 0 0 
 # max = 19535
2642291		 # 	collision with: 1 1 0 0 0 0 0  and 1 4 1 0 0 0 0 
 # max = 19535
2642293		 # 	collision with: 4 0 0 0 0 0 0  and 3 2 1 0 0 0 0 
 # max = 19535
2642295		 # 	collision with: 4 2 0 0 0 0 0  and 4 6 1 0 0 0 0 
 # max = 19535
2642304		 # 	collision with: 3 5 1 0 0 0 0  and 4 5 1 0 0 0 0 
 # max = 19535
2642306		 # 	collision with: 1 5 1 0 0 0 0  and 3 5 1 0 0 0 0 
 # max = 19535
2642311		 # 	collision with: 2 3 0 0 0 0 0  and 2 3 1 0 0 0 0 
 # max = 19535
2642325		 # 	collision with: 3 1 1 0 0 0 0  and 3 2 1 0 0 0 0 
 # max = 19535
2642327		 # 	collision with: 1 5 0 0 0 0 0  and 3 5 0 0 0 0 0 
 # max = 19535
2642328		 # 	collision with: 2 0 6 0 0 0 0  and 2 2 6 0 0 0 0 
 # max = 19535
2642330		 # 	collision with: 2 2 6 0 0 0 0  and 2 4 6 0 0 0 0 
 # max = 19535
2642332		 # 	collision with: 3 5 4 0 0 0 0  and 4 5 4 0 0 0 0 
 # max = 19535
2642334		 # 	collision with: 1 5 4 0 0 0 0  and 3 5 4 0 0 0 0 
 # max = 19535
2642352		 # 	collision with: 3 5 2 0 0 0 0  and 4 5 2 0 0 0 0 
 # max = 19535
2642354		 # 	collision with: 1 5 2 0 0 0 0  and 3 5 2 0 0 0 0 
 # max = 19535
2642376		 # 	collision with: 4 0 2 0 0 0 0  and 3 2 2 0 0 0 0 
 # max = 19535
2642378		 # 	collision with: 5 0 2 0 0 0 0  and 5 2 2 0 0 0 0 
 # max = 19535
2642388		 # 	collision with: 3 5 2 0 0 0 0  and 4 5 2 0 0 0 0 
 # max = 19535
2642390		 # 	collision with: 1 5 2 0 0 0 0  and 3 5 2 0 0 0 0 
 # max = 19535
2642402		 # 	collision with: 1 5 0 0 0 0 0  and 3 5 0 0 0 0 0 
 # max = 19535
2642416		 # 	collision with: 3 5 3 0 0 0 0  and 4 5 3 0 0 0 0 
 # max = 19535
2642418		 # 	collision with: 1 5 3 0 0 0 0  and 3 5 3 0 0 0 0 
 # max = 19535
2642424		 # 	collision with: 3 5 1 0 0 0 0  and 4 5 1 0 0 0 0 
 # max = 19535
2642426		 # 	collision with: 1 5 1 0 0 0 0  and 3 5 1 0 0 0 0 
 # max = 19535
2642444		 # 	collision with: 3 5 6 0 0 0 0  and 4 5 6 0 0 0 0 
 # max = 19535
2642446		 # 	collision with: 1 5 6 0 0 0 0  and 3 5 6 0 0 0 0 
 # max = 19535
2642448		 # 	collision with: 1 0 1 0 0 0 0  and 1 1 1 0 0 0 0 
 # max = 19535
2642455		 # 	collision with: 3 0 0 0 0 0 0  and 1 1 0 0 0 0 0 
 # max = 19535
2642469		 # 	collision with: 4 1 0 0 0 0 0  and 4 3 1 0 0 0 0 
 # max = 19535
2642471		 # 	collision with: 4 0 0 0 0 0 0  and 4 1 0 0 0 0 0 
 # max = 19535
2642537		 # 	collision with: 5 2 1 0 0 0 0  and 5 3 1 0 0 0 0 
 # max = 19535
2642539		 # 	collision with: 1 3 2 0 0 0 0  and 3 3 2 0 0 0 0 
 # max = 19535
2642541		 # 	collision with: 4 0 2 0 0 0 0  and 3 1 2 0 0 0 0 
 # max = 19535
2642543		 # 	collision with: 4 0 2 0 0 0 0  and 4 1 2 0 0 0 0 
 # max = 19535
2642557		 # 	collision with: 3 5 0 0 0 0 0  and 4 5 0 0 0 0 0 
 # max = 19535
2642559		 # 	collision with: 1 3 1 0 0 0 0  and 3 3 1 0 0 0 0 
 # max = 19535
2642573		 # 	collision with: 3 1 1 0 0 0 0  and 3 2 1 0 0 0 0 
 # max = 19535
2642575		 # 	collision with: 3 2 2 0 0 0 0  and 1 4 2 0 0 0 0 
 # max = 19535
2642585		 # 	collision with: 3 5 0 0 0 0 0  and 4 5 0 0 0 0 0 
 # max = 19535
2642587		 # 	collision with: 1 3 3 0 0 0 0  and 3 4 3 0 0 0 0 
 # max = 19535
2642597		 # 	collision with: 3 1 3 0 0 0 0  and 3 1 4 0 0 0 0 
 # max = 19535
2642599		 # 	collision with: 1 0 2 0 0 0 0  and 3 1 2 0 0 0 0 
 # max = 19535
2642629		 # 	collision with: 3 1 1 0 0 0 0  and 3 2 1 0 0 0 0 
 # max = 19535
2642631		 # 	collision with: 1 3 1 0 0 0 0  and 3 3 1 0 0 0 0 
 # max = 19535
2642633		 # 	collision with: 3 5 2 0 0 0 0  and 4 5 2 0 0 0 0 
 # max = 19535
2642635		 # 	collision with: 0 1 2 0 0 0 0  and 4 3 2 0 0 0 0 
 # max = 19535
2642668		 # 	collision with: 0 1 4 2 5 0 0  and 5 6 0 0 0 1 0 
 # max = 19535
2642670		 # 	collision with: 2 1 1 3 5 0 0  and 4 4 0 0 0 1 0 
 # max = 19535
2642733		 # 	collision with: 2 0 2 0 0 0 0  and 2 2 2 0 0 0 0 
 # max = 19535
2642735		 # 	collision with: 2 2 0 0 0 0 0  and 2 4 0 0 0 0 0 
 # max = 19535
2642737		 # 	collision with: 6 2 0 0 0 0 0  and 6 4 0 0 0 0 0 
 # max = 19535
2642739		 # 	collision with: 1 3 0 0 0 0 0  and 3 3 0 0 0 0 0 
 # max = 19535
2642753		 # 	collision with: 3 2 0 0 0 0 0  and 4 4 0 0 0 0 0 
 # max = 19535
2642755		 # 	collision with: 4 2 0 0 0 0 0  and 0 4 0 0 0 0 0 
 # max = 19535
2642769		 # 	collision with: 3 5 0 0 0 0 0  and 4 5 0 0 0 0 0 
 # max = 19535
2642771		 # 	collision with: 1 2 0 0 0 0 0  and 3 4 0 0 0 0 0 
 # max = 19535
2642781		 # 	collision with: 3 2 0 0 0 0 0  and 4 4 0 0 0 0 0 
 # max = 19535
2642783		 # 	collision with: 4 2 0 0 0 0 0  and 0 4 0 0 0 0 0 
 # max = 19535
2642793		 # 	collision with: 6 2 0 0 0 0 0  and 6 4 0 0 0 0 0 
 # max = 19535
2642795		 # 	collision with: 1 3 0 0 0 0 0  and 3 3 0 0 0 0 0 
 # max = 19535
2642825		 # 	collision with: 3 5 0 0 0 0 0  and 4 5 0 0 0 0 0 
 # max = 19535
2642827		 # 	collision with: 1 2 0 0 0 0 0  and 3 4 0 0 0 0 0 
 # max = 19535
2642829		 # 	collision with: 1 2 3 0 0 0 0  and 6 3 3 0 0 0 0 
 # max = 19535
2642831		 # 	collision with: 3 2 0 0 0 0 0  and 1 4 0 0 0 0 0 
 # max = 19535
2642864		 # 	collision with: 6 3 3 4 6 0 0  and 4 6 0 0 0 1 0 
 # max = 19535
2642866		 # 	collision with: 3 4 0 1 6 0 0  and 5 0 0 0 0 1 0 
 # max = 19535
2642929		 # 	collision with: 3 5 1 0 0 0 0  and 4 5 1 0 0 0 0 
 # max = 19535
2642931		 # 	collision with: 1 2 0 0 0 0 0  and 3 3 0 0 0 0 0 
 # max = 19535
2642933		 # 	collision with: 2 0 1 0 0 0 0  and 2 2 1 0 0 0 0 
 # max = 19535
2642951		 # 	collision with: 1 2 0 0 0 0 0  and 3 3 0 0 0 0 0 
 # max = 19535
2642965		 # 	collision with: 4 0 1 0 0 0 0  and 3 1 1 0 0 0 0 
 # max = 19535
2642967		 # 	collision with: 1 2 0 0 0 0 0  and 3 3 0 0 0 0 0 
 # max = 19535
2642977		 # 	collision with: 1 2 2 0 0 0 0  and 6 3 2 0 0 0 0 
 # max = 19535
2642991		 # 	collision with: 1 2 0 0 0 0 0  and 3 3 0 0 0 0 0 
 # max = 19535
2643021		 # 	collision with: 4 1 2 0 0 0 0  and 4 3 2 0 0 0 0 
 # max = 19535
2643023		 # 	collision with: 1 2 0 0 0 0 0  and 3 3 0 0 0 0 0 
 # max = 19535
2643025		 # 	collision with: 3 1 2 0 0 0 0  and 3 1 3 0 0 0 0 
 # max = 19535
2643027		 # 	collision with: 1 2 0 0 0 0 0  and 1 3 0 0 0 0 0 
 # max = 19535
2643060		 # 	collision with: 3 0 1 5 4 0 0  and 0 0 0 0 0 1 0 
 # max = 19535
2643062		 # 	collision with: 0 5 3 3 4 0 0  and 6 0 4 0 0 1 0 
 # max = 19535
2643125		 # 	collision with: 1 3 1 0 0 0 0  and 1 3 3 0 0 0 0 
 # max = 19535
2643127		 # 	collision with: 3 3 2 0 0 0 0  and 3 4 2 0 0 0 0 
 # max = 19535
2643131		 # 	collision with: 1 2 2 0 0 0 0  and 3 3 2 0 0 0 0 
 # max = 19535
2643145		 # 	collision with: 6 1 2 0 0 0 0  and 1 3 2 0 0 0 0 
 # max = 19535
2643147		 # 	collision with: 1 3 0 0 0 0 0  and 3 3 0 0 0 0 0 
 # max = 19535
2643161		 # 	collision with: 3 0 1 0 0 0 0  and 3 3 3 0 0 0 0 
 # max = 19535
2643163		 # 	collision with: 6 1 2 0 0 0 0  and 6 2 2 0 0 0 0 
 # max = 19535
2643173		 # 	collision with: 3 5 1 0 0 0 0  and 4 5 1 0 0 0 0 
 # max = 19535
2643175		 # 	collision with: 1 3 0 0 0 0 0  and 3 3 0 0 0 0 0 
 # max = 19535
2643185		 # 	collision with: 5 2 2 0 0 0 0  and 5 3 2 0 0 0 0 
 # max = 19535
2643217		 # 	collision with: 3 5 1 0 0 0 0  and 4 5 1 0 0 0 0 
 # max = 19535
2643219		 # 	collision with: 6 1 2 0 0 0 0  and 6 2 2 0 0 0 0 
 # max = 19535
2643256		 # 	collision with: 4 5 1 3 3 0 0  and 5 2 1 0 0 1 0 
 # max = 19535
2643258		 # 	collision with: 5 3 6 5 3 0 0  and 0 6 0 0 0 1 0 
 # max = 19535
2643325		 # 	collision with: 3 5 1 0 0 0 0  and 4 5 1 0 0 0 0 
 # max = 19535
2643327		 # 	collision with: 6 0 1 0 0 0 0  and 6 0 2 0 0 0 0 
 # max = 19535
2643341		 # 	collision with: 3 1 0 0 0 0 0  and 3 2 0 0 0 0 0 
 # max = 19535
2643343		 # 	collision with: 6 1 0 0 0 0 0  and 6 2 0 0 0 0 0 
 # max = 19535
2643357		 # 	collision with: 2 0 1 0 0 0 0  and 2 0 2 0 0 0 0 
 # max = 19535
2643369		 # 	collision with: 3 1 0 0 0 0 0  and 3 2 0 0 0 0 0 
 # max = 19535
2643371		 # 	collision with: 6 1 0 0 0 0 0  and 6 2 0 0 0 0 0 
 # max = 19535
2643381		 # 	collision with: 5 0 1 0 0 0 0  and 5 0 2 0 0 0 0 
 # max = 19535
2643383		 # 	collision with: 1 3 1 0 0 0 0  and 3 3 1 0 0 0 0 
 # max = 19535
2643415		 # 	collision with: 0 2 1 0 0 0 0  and 4 4 1 0 0 0 0 
 # max = 19535
2643417		 # 	collision with: 4 0 1 0 0 0 0  and 4 0 2 0 0 0 0 
 # max = 19535
2643419		 # 	collision with: 1 3 1 0 0 0 0  and 3 3 1 0 0 0 0 
 # max = 19535
2643452		 # 	collision with: 4 2 6 0 1 0 0  and 1 0 0 0 0 1 0 
 # max = 19535
2643454		 # 	collision with: 6 6 6 3 1 0 0  and 3 4 0 0 0 1 0 
 # max = 19535
2643517		 # 	collision with: 1 5 0 0 0 0 0  and 6 1 2 0 0 0 0 
 # max = 19535
2643519		 # 	collision with: 3 5 0 0 0 0 0  and 1 1 2 0 0 0 0 
 # max = 19535
2643521		 # 	collision with: 4 3 0 0 0 0 0  and 4 1 2 0 0 0 0 
 # max = 19535
2643523		 # 	collision with: 5 0 0 0 0 0 0  and 5 2 0 0 0 0 0 
 # max = 19535
2643537		 # 	collision with: 4 0 0 0 0 0 0  and 3 2 0 0 0 0 0 
 # max = 19535
2643555		 # 	collision with: 1 3 0 0 0 0 0  and 3 3 0 0 0 0 0 
 # max = 19535
2643567		 # 	collision with: 4 5 0 0 0 0 0  and 4 3 2 0 0 0 0 
 # max = 19535
2643577		 # 	collision with: 3 2 1 0 0 0 0  and 4 4 1 0 0 0 0 
 # max = 19535
2643579		 # 	collision with: 5 0 0 0 0 0 0  and 5 2 0 0 0 0 0 
 # max = 19535
2643609		 # 	collision with: 2 0 0 0 0 0 0  and 2 2 0 0 0 0 0 
 # max = 19535
2643613		 # 	collision with: 3 5 1 0 0 0 0  and 4 5 1 0 0 0 0 
 # max = 19535
2643615		 # 	collision with: 3 2 0 0 0 0 0  and 1 1 2 0 0 0 0 
 # max = 19535
2643648		 # 	collision with: 5 0 6 0 2 0 0  and 0 3 0 0 0 1 0 
 # max = 19535
2643650		 # 	collision with: 1 1 1 6 2 0 0  and 0 1 0 0 0 1 0 
 # max = 19535
2643713		 # 	collision with: 1 3 0 0 0 0 0  and 1 5 0 0 0 0 0 
 # max = 19535
2643715		 # 	collision with: 3 1 0 0 0 0 0  and 3 1 1 0 0 0 0 
 # max = 19535
2643717		 # 	collision with: 3 5 0 0 0 0 0  and 4 5 0 0 0 0 0 
 # max = 19535
2643719		 # 	collision with: 6 4 0 0 0 0 0  and 5 0 1 0 0 0 0 
 # max = 19535
2643733		 # 	collision with: 1 0 1 0 0 0 0  and 1 1 1 0 0 0 0 
 # max = 19535
2643735		 # 	collision with: 6 4 0 0 0 0 0  and 5 0 1 0 0 0 0 
 # max = 19535
2643749		 # 	collision with: 5 4 0 0 0 0 0  and 5 4 1 0 0 0 0 
 # max = 19535
2643751		 # 	collision with: 4 0 0 0 0 0 0  and 4 1 0 0 0 0 0 
 # max = 19535
2643761		 # 	collision with: 1 0 1 0 0 0 0  and 1 1 1 0 0 0 0 
 # max = 19535
2643763		 # 	collision with: 1 0 1 0 0 0 0  and 3 1 1 0 0 0 0 
 # max = 19535
2643773		 # 	collision with: 3 5 0 0 0 0 0  and 4 5 0 0 0 0 0 
 # max = 19535
2643775		 # 	collision with: 5 5 0 0 0 0 0  and 6 2 1 0 0 0 0 
 # max = 19535
2643805		 # 	collision with: 2 6 0 0 0 0 0  and 2 3 1 0 0 0 0 
 # max = 19535
2643807		 # 	collision with: 4 0 0 0 0 0 0  and 4 1 0 0 0 0 0 
 # max = 19535
2643809		 # 	collision with: 4 0 0 0 0 0 0  and 3 1 0 0 0 0 0 
 # max = 19535
2643811		 # 	collision with: 1 2 0 0 0 0 0  and 3 4 1 0 0 0 0 
 # max = 19535
2643901		 # 	collision with: 3 5 0 0 0 0 0  and 4 5 0 0 0 0 0 
 # max = 19535
2643903		 # 	collision with: 6 3 0 0 0 0 0  and 5 4 0 0 0 0 0 
 # max = 19535
2643921		 # 	collision with: 4 0 4 0 0 0 0  and 3 1 4 0 0 0 0 
 # max = 19535
2643949		 # 	collision with: 3 5 1 0 0 0 0  and 4 5 1 0 0 0 0 
 # max = 19535
2643951		 # 	collision with: 5 0 1 0 0 0 0  and 5 2 1 0 0 0 0 
 # max = 19535
2643953		 # 	collision with: 1 0 1 0 0 0 0  and 1 1 1 0 0 0 0 
 # max = 19535
2643955		 # 	collision with: 5 0 2 0 0 0 0  and 5 2 2 0 0 0 0 
 # max = 19535
2643961		 # 	collision with: 3 1 4 0 0 0 0  and 3 2 4 0 0 0 0 
 # max = 19535
2643963		 # 	collision with: 3 3 0 0 0 0 0  and 3 4 0 0 0 0 0 
 # max = 19535
2643965		 # 	collision with: 3 5 1 0 0 0 0  and 4 5 1 0 0 0 0 
 # max = 19535
2643967		 # 	collision with: 1 1 2 0 0 0 0  and 3 1 2 0 0 0 0 
 # max = 19535
2643985		 # 	collision with: 3 5 0 0 0 0 0  and 4 5 0 0 0 0 0 
 # max = 19535
2643987		 # 	collision with: 6 3 0 0 0 0 0  and 5 4 0 0 0 0 0 
 # max = 19535
2643993		 # 	collision with: 1 0 3 0 0 0 0  and 1 1 3 0 0 0 0 
 # max = 19535
2644040		 # 	collision with: 0 4 2 0 6 0 0  and 2 6 0 0 0 1 0 
 # max = 19535
2644042		 # 	collision with: 2 0 6 1 6 0 0  and 4 2 0 0 0 1 0 
 # max = 19535
2644097		 # 	collision with: 3 5 3 0 0 0 0  and 4 5 3 0 0 0 0 
 # max = 19535
2644099		 # 	collision with: 1 1 1 0 0 0 0  and 3 1 1 0 0 0 0 
 # max = 19535
2644117		 # 	collision with: 3 5 1 0 0 0 0  and 4 5 1 0 0 0 0 
 # max = 19535
2644119		 # 	collision with: 4 0 1 0 0 0 0  and 4 1 1 0 0 0 0 
 # max = 19535
2644147		 # 	collision with: 4 0 1 0 0 0 0  and 4 1 1 0 0 0 0 
 # max = 19535
2644149		 # 	collision with: 4 0 2 0 0 0 0  and 3 1 2 0 0 0 0 
 # max = 19535
2644151		 # 	collision with: 2 2 0 0 0 0 0  and 2 4 0 0 0 0 0 
 # max = 19535
2644161		 # 	collision with: 6 2 0 0 0 0 0  and 6 4 0 0 0 0 0 
 # max = 19535
2644163		 # 	collision with: 1 1 0 0 0 0 0  and 3 1 0 0 0 0 0 
 # max = 19535
2644181		 # 	collision with: 3 2 1 0 0 0 0  and 4 4 1 0 0 0 0 
 # max = 19535
2644189		 # 	collision with: 6 2 0 0 0 0 0  and 6 4 0 0 0 0 0 
 # max = 19535
2644191		 # 	collision with: 1 1 0 0 0 0 0  and 3 1 0 0 0 0 0 
 # max = 19535
2644236		 # 	collision with: 1 0 1 5 3 0 0  and 4 4 0 0 0 1 0 
 # max = 19535
2644238		 # 	collision with: 3 6 4 2 3 0 0  and 5 0 0 0 0 1 0 
 # max = 19535
2644293		 # 	collision with: 5 2 0 0 0 0 0  and 5 3 0 0 0 0 0 
 # max = 19535
2644295		 # 	collision with: 1 2 0 0 0 0 0  and 1 3 0 0 0 0 0 
 # max = 19535
2644315		 # 	collision with: 0 2 0 0 0 0 0  and 4 3 0 0 0 0 0 
 # max = 19535
2644341		 # 	collision with: 1 0 2 0 0 0 0  and 1 0 3 0 0 0 0 
 # max = 19535
2644343		 # 	collision with: 0 2 0 0 0 0 0  and 4 3 0 0 0 0 0 
 # max = 19535
2644345		 # 	collision with: 3 5 1 0 0 0 0  and 4 5 1 0 0 0 0 
 # max = 19535
2644347		 # 	collision with: 3 0 2 0 0 0 0  and 3 0 3 0 0 0 0 
 # max = 19535
2644353		 # 	collision with: 3 5 0 0 0 0 0  and 4 5 0 0 0 0 0 
 # max = 19535
2644355		 # 	collision with: 1 1 0 0 0 0 0  and 3 1 0 0 0 0 0 
 # max = 19535
2644357		 # 	collision with: 1 2 0 0 0 0 0  and 6 3 0 0 0 0 0 
 # max = 19535
2644359		 # 	collision with: 4 0 2 0 0 0 0  and 4 0 3 0 0 0 0 
 # max = 19535
2644379		 # 	collision with: 1 2 0 0 0 0 0  and 1 3 0 0 0 0 0 
 # max = 19535
2644385		 # 	collision with: 1 2 0 0 0 0 0  and 6 3 0 0 0 0 0 
 # max = 19535
2644387		 # 	collision with: 4 1 2 0 0 0 0  and 4 0 3 0 0 0 0 
 # max = 19535
2644432		 # 	collision with: 2 5 4 1 2 0 0  and 4 2 0 0 0 1 0 
 # max = 19535
2644434		 # 	collision with: 6 6 4 6 2 0 0  and 2 2 0 0 0 1 0 
 # max = 19535
2644489		 # 	collision with: 4 1 1 0 0 0 0  and 4 3 1 0 0 0 0 
 # max = 19535
2644491		 # 	collision with: 1 1 0 0 0 0 0  and 3 1 0 0 0 0 0 
 # max = 19535
2644509		 # 	collision with: 3 5 0 0 0 0 0  and 4 5 0 0 0 0 0 
 # max = 19535
2644511		 # 	collision with: 1 1 1 0 0 0 0  and 3 1 1 0 0 0 0 
 # max = 19535
2644537		 # 	collision with: 3 5 0 0 0 0 0  and 4 5 0 0 0 0 0 
 # max = 19535
2644541		 # 	collision with: 6 2 2 0 0 0 0  and 6 4 2 0 0 0 0 
 # max = 19535
2644543		 # 	collision with: 4 1 0 0 0 0 0  and 0 3 0 0 0 0 0 
 # max = 19535
2644549		 # 	collision with: 2 0 2 0 0 0 0  and 2 2 2 0 0 0 0 
 # max = 19535
2644551		 # 	collision with: 1 5 1 0 0 0 0  and 1 0 3 0 0 0 0 
 # max = 19535
2644553		 # 	collision with: 2 0 1 0 0 0 0  and 2 2 1 0 0 0 0 
 # max = 19535
2644555		 # 	collision with: 3 3 2 0 0 0 0  and 3 4 2 0 0 0 0 
 # max = 19535
2644573		 # 	collision with: 4 1 1 0 0 0 0  and 4 3 1 0 0 0 0 
 # max = 19535
2644575		 # 	collision with: 1 1 0 0 0 0 0  and 3 1 0 0 0 0 0 
 # max = 19535
2644581		 # 	collision with: 2 0 1 0 0 0 0  and 2 2 1 0 0 0 0 
 # max = 19535
2644583		 # 	collision with: 1 1 1 0 0 0 0  and 3 1 1 0 0 0 0 
 # max = 19535
2644628		 # 	collision with: 0 6 1 3 5 0 0  and 4 1 0 0 0 1 0 
 # max = 19535
2644630		 # 	collision with: 2 6 4 5 5 0 0  and 5 1 0 0 0 1 0 
 # max = 19535
2644685		 # 	collision with: 3 1 2 0 0 0 0  and 3 2 2 0 0 0 0 
 # max = 19535
2644687		 # 	collision with: 5 5 1 0 0 0 0  and 6 0 2 0 0 0 0 
 # max = 19535
2644705		 # 	collision with: 1 2 1 0 0 0 0  and 6 3 1 0 0 0 0 
 # max = 19535
2644707		 # 	collision with: 1 2 1 0 0 0 0  and 1 3 1 0 0 0 0 
 # max = 19535
2644733		 # 	collision with: 1 5 1 0 0 0 0  and 1 5 2 0 0 0 0 
 # max = 19535
2644735		 # 	collision with: 1 2 1 0 0 0 0  and 1 3 1 0 0 0 0 
 # max = 19535
2644737		 # 	collision with: 3 1 0 0 0 0 0  and 3 2 0 0 0 0 0 
 # max = 19535
2644739		 # 	collision with: 1 1 0 0 0 0 0  and 3 1 0 0 0 0 0 
 # max = 19535
2644745		 # 	collision with: 6 6 1 0 0 0 0  and 6 0 2 0 0 0 0 
 # max = 19535
2644747		 # 	collision with: 6 3 1 0 0 0 0  and 6 0 2 0 0 0 0 
 # max = 19535
2644749		 # 	collision with: 3 5 0 0 0 0 0  and 4 5 0 0 0 0 0 
 # max = 19535
2644769		 # 	collision with: 3 1 2 0 0 0 0  and 3 2 2 0 0 0 0 
 # max = 19535
2644771		 # 	collision with: 5 5 1 0 0 0 0  and 6 0 2 0 0 0 0 
 # max = 19535
2644777		 # 	collision with: 3 5 0 0 0 0 0  and 4 5 0 0 0 0 0 
 # max = 19535
2644779		 # 	collision with: 3 2 1 0 0 0 0  and 3 2 2 0 0 0 0 
 # max = 19535
2644824		 # 	collision with: 6 4 3 4 4 0 0  and 0 0 0 0 0 1 0 
 # max = 19535
2644826		 # 	collision with: 5 4 4 1 4 0 0  and 3 4 0 1 0 1 0 
 # max = 19535
2644883		 # 	collision with: 1 4 0 0 0 0 0  and 3 1 2 0 0 0 0 
 # max = 19535
2644901		 # 	collision with: 3 0 0 0 0 0 0  and 3 3 2 0 0 0 0 
 # max = 19535
2644903		 # 	collision with: 1 1 0 0 0 0 0  and 3 1 0 0 0 0 0 
 # max = 19535
2644929		 # 	collision with: 6 4 0 0 0 0 0  and 6 2 2 0 0 0 0 
 # max = 19535
2644931		 # 	collision with: 1 1 0 0 0 0 0  and 3 1 0 0 0 0 0 
 # max = 19535
2644933		 # 	collision with: 3 5 0 0 0 0 0  and 4 5 0 0 0 0 0 
 # max = 19535
2644935		 # 	collision with: 1 1 2 0 0 0 0  and 3 1 2 0 0 0 0 
 # max = 19535
2644941		 # 	collision with: 3 5 1 0 0 0 0  and 4 5 1 0 0 0 0 
 # max = 19535
2644943		 # 	collision with: 1 1 1 0 0 0 0  and 3 1 1 0 0 0 0 
 # max = 19535
2644945		 # 	collision with: 6 3 0 0 0 0 0  and 1 2 2 0 0 0 0 
 # max = 19535
2644947		 # 	collision with: 1 3 0 0 0 0 0  and 1 3 2 0 0 0 0 
 # max = 19535
2644965		 # 	collision with: 4 4 0 0 0 0 0  and 3 1 2 0 0 0 0 
 # max = 19535
2644967		 # 	collision with: 1 1 1 0 0 0 0  and 3 1 1 0 0 0 0 
 # max = 19535
2644975		 # 	collision with: 1 1 2 0 0 0 0  and 3 1 2 0 0 0 0 
 # max = 19535
2645020		 # 	collision with: 1 5 6 1 1 0 0  and 5 4 0 0 0 1 0 
 # max = 19535
2645022		 # 	collision with: 0 6 1 0 1 0 0  and 2 2 2 0 0 1 0 
 # max = 19535
2645077		 # 	collision with: 4 0 0 0 0 0 0  and 3 1 0 0 0 0 0 
 # max = 19535
2645097		 # 	collision with: 5 3 0 0 0 0 0  and 5 3 1 0 0 0 0 
 # max = 19535
2645099		 # 	collision with: 6 1 1 0 0 0 0  and 6 2 1 0 0 0 0 
 # max = 19535
2645125		 # 	collision with: 5 5 0 0 0 0 0  and 5 0 1 0 0 0 0 
 # max = 19535
2645127		 # 	collision with: 0 3 0 0 0 0 0  and 4 0 1 0 0 0 0 
 # max = 19535
2645137		 # 	collision with: 1 3 0 0 0 0 0  and 1 5 0 0 0 0 0 
 # max = 19535
2645139		 # 	collision with: 1 1 0 0 0 0 0  and 3 1 1 0 0 0 0 
 # max = 19535
2645143		 # 	collision with: 4 0 0 0 0 0 0  and 4 1 0 0 0 0 0 
 # max = 19535
2645161		 # 	collision with: 4 0 0 0 0 0 0  and 3 1 0 0 0 0 0 
 # max = 19535
2645163		 # 	collision with: 5 4 0 0 0 0 0  and 5 5 1 0 0 0 0 
 # max = 19535
2645169		 # 	collision with: 3 3 0 0 0 0 0  and 3 0 1 0 0 0 0 
 # max = 19535
2645171		 # 	collision with: 4 0 0 0 0 0 0  and 4 1 0 0 0 0 0 
 # max = 19535
2645216		 # 	collision with: 4 0 0 0 0 0 0  and 3 1 0 0 0 0 0 
 # max = 19535
2645217		 # 	collision with: 3 5 0 0 0 0 0  and 4 5 0 0 0 0 0 
 # max = 19535
2645218		 # 	collision with: 4 0 0 0 0 0 0  and 4 1 0 0 0 0 0 
 # max = 19535
2645219		 # 	collision with: 5 3 3 0 0 0 0  and 6 4 3 0 0 0 0 
 # max = 19535
2645256		 # 	collision with: 4 1 0 0 0 0 0  and 4 3 0 0 0 0 0 
 # max = 19535
2645257		 # 	collision with: 1 0 2 0 0 0 0  and 1 1 2 0 0 0 0 
 # max = 19535
2645258		 # 	collision with: 2 2 0 0 0 0 0  and 2 4 0 0 0 0 0 
 # max = 19535
2645259		 # 	collision with: 5 3 0 0 0 0 0  and 6 4 0 0 0 0 0 
 # max = 19535
2645296		 # 	collision with: 4 0 0 0 0 0 0  and 3 2 0 0 0 0 0 
 # max = 19535
2645297		 # 	collision with: 3 4 3 0 0 0 0  and 3 4 4 0 0 0 0 
 # max = 19535
2645298		 # 	collision with: 6 1 0 0 0 0 0  and 6 2 0 0 0 0 0 
 # max = 19535
2645299		 # 	collision with: 1 6 1 0 0 0 0  and 3 6 1 0 0 0 0 
 # max = 19535
2645308		 # 	collision with: 2 0 0 0 0 0 0  and 2 2 0 0 0 0 0 
 # max = 19535
2645309		 # 	collision with: 6 5 3 0 0 0 0  and 6 1 4 0 0 0 0 
 # max = 19535
2645310		 # 	collision with: 1 2 0 0 0 0 0  and 1 3 0 0 0 0 0 
 # max = 19535
2645311		 # 	collision with: 4 0 3 0 0 0 0  and 4 1 3 0 0 0 0 
 # max = 19535
2645348		 # 	collision with: 3 1 0 0 0 0 0  and 3 2 0 0 0 0 0 
 # max = 19535
2645349		 # 	collision with: 4 0 4 0 0 0 0  and 3 1 4 0 0 0 0 
 # max = 19535
2645350		 # 	collision with: 4 1 0 0 0 0 0  and 0 2 0 0 0 0 0 
 # max = 19535
2645351		 # 	collision with: 1 6 2 0 0 0 0  and 3 6 2 0 0 0 0 
 # max = 19535
2645360		 # 	collision with: 1 2 0 0 0 0 0  and 6 3 0 0 0 0 0 
 # max = 19535
2645361		 # 	collision with: 3 2 1 0 0 0 0  and 4 4 1 0 0 0 0 
 # max = 19535
2645362		 # 	collision with: 3 3 0 0 0 0 0  and 3 4 0 0 0 0 0 
 # max = 19535
2645363		 # 	collision with: 3 3 0 0 0 0 0  and 3 4 0 0 0 0 0 
 # max = 19535
2645400		 # 	collision with: 3 2 0 0 0 0 0  and 4 4 0 0 0 0 0 
 # max = 19535
2645401		 # 	collision with: 5 6 3 0 0 0 0  and 5 6 4 0 0 0 0 
 # max = 19535
2645402		 # 	collision with: 5 1 0 0 0 0 0  and 6 3 0 0 0 0 0 
 # max = 19535
2645403		 # 	collision with: 1 6 0 0 0 0 0  and 3 6 0 0 0 0 0 
 # max = 19535
2645412		 # 	collision with: 2 2 6 5 0 0 0  and 6 0 3 0 0 1 0 
 # max = 19535
2645413		 # 	collision with: 3 2 1 0 0 0 0  and 4 4 1 0 0 0 0 
 # max = 19535
2645414		 # 	collision with: 0 2 1 6 0 0 0  and 1 4 0 0 0 1 0 
 # max = 19535
2645415		 # 	collision with: 2 2 3 0 0 0 0  and 2 4 3 0 0 0 0 
 # max = 19535
2645452		 # 	collision with: 1 0 2 0 0 0 0  and 1 1 2 0 0 0 0 
 # max = 19535
2645453		 # 	collision with: 1 2 2 0 0 0 0  and 1 2 4 0 0 0 0 
 # max = 19535
2645454		 # 	collision with: 4 1 2 0 0 0 0  and 0 2 2 0 0 0 0 
 # max = 19535
2645455		 # 	collision with: 2 2 0 0 0 0 0  and 2 4 0 0 0 0 0 
 # max = 19535
2645492		 # 	collision with: 4 1 1 0 0 0 0  and 4 3 1 0 0 0 0 
 # max = 19535
2645493		 # 	collision with: 3 2 0 0 0 0 0  and 4 4 0 0 0 0 0 
 # max = 19535
2645494		 # 	collision with: 4 1 1 0 0 0 0  and 0 2 1 0 0 0 0 
 # max = 19535
2645495		 # 	collision with: 4 0 2 0 0 0 0  and 4 1 2 0 0 0 0 
 # max = 19535
2645504		 # 	collision with: 3 5 1 0 0 0 0  and 4 5 1 0 0 0 0 
 # max = 19535
2645505		 # 	collision with: 3 5 1 0 0 0 0  and 4 5 1 0 0 0 0 
 # max = 19535
2645506		 # 	collision with: 4 0 3 0 0 0 0  and 4 1 3 0 0 0 0 
 # max = 19535
2645507		 # 	collision with: 5 1 1 0 0 0 0  and 6 3 1 0 0 0 0 
 # max = 19535
2645544		 # 	collision with: 2 0 4 0 0 0 0  and 2 2 4 0 0 0 0 
 # max = 19535
2645545		 # 	collision with: 1 0 1 0 0 0 0  and 1 1 1 0 0 0 0 
 # max = 19535
2645546		 # 	collision with: 1 6 1 0 0 0 0  and 3 6 1 0 0 0 0 
 # max = 19535
2645547		 # 	collision with: 1 6 0 0 0 0 0  and 3 6 0 0 0 0 0 
 # max = 19535
2645556		 # 	collision with: 3 5 3 0 0 0 0  and 4 5 3 0 0 0 0 
 # max = 19535
2645557		 # 	collision with: 6 2 0 0 0 0 0  and 6 4 0 0 0 0 0 
 # max = 19535
2645558		 # 	collision with: 1 6 0 0 0 0 0  and 3 6 0 0 0 0 0 
 # max = 19535
2645559		 # 	collision with: 1 6 2 0 0 0 0  and 3 6 2 0 0 0 0 
 # max = 19535
2645596		 # 	collision with: 3 5 0 0 0 0 0  and 4 5 0 0 0 0 0 
 # max = 19535
2645597		 # 	collision with: 3 5 0 0 0 0 0  and 4 5 0 0 0 0 0 
 # max = 19535
2645598		 # 	collision with: 1 6 4 0 0 0 0  and 3 6 4 0 0 0 0 
 # max = 19535
2645599		 # 	collision with: 1 6 1 0 0 0 0  and 3 6 1 0 0 0 0 
 # max = 19535
2645608		 # 	collision with: 1 4 4 6 0 0 0  and 3 3 0 0 0 1 0 
 # max = 19535
2645609		 # 	collision with: 5 2 1 0 0 0 0  and 5 3 1 0 0 0 0 
 # max = 19535
2645610		 # 	collision with: 2 1 0 3 0 0 0  and 3 1 2 0 0 1 0 
 # max = 19535
2645611		 # 	collision with: 1 2 1 0 0 0 0  and 1 3 1 0 0 0 0 
 # max = 19535
2645648		 # 	collision with: 5 2 4 0 0 0 0  and 5 3 4 0 0 0 0 
 # max = 19535
2645649		 # 	collision with: 1 2 0 0 0 0 0  and 6 3 0 0 0 0 0 
 # max = 19535
2645650		 # 	collision with: 1 6 1 0 0 0 0  and 3 6 1 0 0 0 0 
 # max = 19535
2645651		 # 	collision with: 3 3 2 0 0 0 0  and 3 3 3 0 0 0 0 
 # max = 19535
2645688		 # 	collision with: 3 1 2 0 0 0 0  and 3 2 2 0 0 0 0 
 # max = 19535
2645689		 # 	collision with: 5 2 0 0 0 0 0  and 5 3 0 0 0 0 0 
 # max = 19535
2645690		 # 	collision with: 4 0 2 0 0 0 0  and 4 1 2 0 0 0 0 
 # max = 19535
2645691		 # 	collision with: 1 6 0 0 0 0 0  and 3 6 0 0 0 0 0 
 # max = 19535
2645700		 # 	collision with: 3 5 3 0 0 0 0  and 4 5 3 0 0 0 0 
 # max = 19535
2645701		 # 	collision with: 3 1 1 0 0 0 0  and 3 2 1 0 0 0 0 
 # max = 19535
2645702		 # 	collision with: 1 6 0 0 0 0 0  and 3 6 0 0 0 0 0 
 # max = 19535
2645703		 # 	collision with: 1 2 0 0 0 0 0  and 1 3 0 0 0 0 0 
 # max = 19535
2645740		 # 	collision with: 1 0 1 0 0 0 0  and 1 1 1 0 0 0 0 
 # max = 19535
2645741		 # 	collision with: 3 5 2 0 0 0 0  and 4 5 2 0 0 0 0 
 # max = 19535
2645742		 # 	collision with: 6 0 1 0 0 0 0  and 5 1 1 0 0 0 0 
 # max = 19535
2645743		 # 	collision with: 3 3 1 0 0 0 0  and 3 4 1 0 0 0 0 
 # max = 19535
2645752		 # 	collision with: 3 5 0 0 0 0 0  and 4 5 0 0 0 0 0 
 # max = 19535
2645753		 # 	collision with: 3 5 0 0 0 0 0  and 4 5 0 0 0 0 0 
 # max = 19535
2645754		 # 	collision with: 1 6 4 0 0 0 0  and 3 6 4 0 0 0 0 
 # max = 19535
2645755		 # 	collision with: 5 1 2 0 0 0 0  and 6 0 3 0 0 0 0 
 # max = 19535
2645792		 # 	collision with: 3 5 1 0 0 0 0  and 4 5 1 0 0 0 0 
 # max = 19535
2645793		 # 	collision with: 3 5 1 0 0 0 0  and 4 5 1 0 0 0 0 
 # max = 19535
2645794		 # 	collision with: 4 1 3 0 0 0 0  and 0 2 3 0 0 0 0 
 # max = 19535
2645795		 # 	collision with: 1 6 2 0 0 0 0  and 3 6 2 0 0 0 0 
 # max = 19535
2645804		 # 	collision with: 3 4 2 4 0 0 0  and 0 3 0 0 0 1 0 
 # max = 19535
2645805		 # 	collision with: 6 1 1 0 0 0 0  and 1 3 1 0 0 0 0 
 # max = 19535
2645806		 # 	collision with: 5 4 6 2 0 0 0  and 2 5 1 0 0 1 0 
 # max = 19535
2645807		 # 	collision with: 1 6 0 0 0 0 0  and 3 6 0 0 0 0 0 
 # max = 19535
2645844		 # 	collision with: 3 5 3 0 0 0 0  and 4 5 3 0 0 0 0 
 # max = 19535
2645845		 # 	collision with: 4 1 0 0 0 0 0  and 4 3 0 0 0 0 0 
 # max = 19535
2645846		 # 	collision with: 1 6 0 0 0 0 0  and 3 6 0 0 0 0 0 
 # max = 19535
2645847		 # 	collision with: 4 0 1 0 0 0 0  and 4 1 1 0 0 0 0 
 # max = 19535
2645884		 # 	collision with: 3 5 1 0 0 0 0  and 4 5 1 0 0 0 0 
 # max = 19535
2645885		 # 	collision with: 3 5 1 0 0 0 0  and 4 5 1 0 0 0 0 
 # max = 19535
2645886		 # 	collision with: 3 3 3 0 0 0 0  and 3 4 3 0 0 0 0 
 # max = 19535
2645887		 # 	collision with: 5 2 1 0 0 0 0  and 5 2 3 0 0 0 0 
 # max = 19535
2645896		 # 	collision with: 4 1 2 0 0 0 0  and 4 3 2 0 0 0 0 
 # max = 19535
2645897		 # 	collision with: 5 2 3 0 0 0 0  and 5 3 3 0 0 0 0 
 # max = 19535
2645898		 # 	collision with: 3 3 2 0 0 0 0  and 3 4 2 0 0 0 0 
 # max = 19535
2645899		 # 	collision with: 3 3 2 0 0 0 0  and 3 4 2 0 0 0 0 
 # max = 19535
2645936		 # 	collision with: 3 5 0 0 0 0 0  and 4 5 0 0 0 0 0 
 # max = 19535
2645937		 # 	collision with: 3 5 0 0 0 0 0  and 4 5 0 0 0 0 0 
 # max = 19535
2645938		 # 	collision with: 1 6 4 0 0 0 0  and 3 6 4 0 0 0 0 
 # max = 19535
2645939		 # 	collision with: 6 0 2 0 0 0 0  and 5 1 2 0 0 0 0 
 # max = 19535
2645948		 # 	collision with: 6 1 4 0 0 0 0  and 1 3 4 0 0 0 0 
 # max = 19535
2645949		 # 	collision with: 6 1 0 0 0 0 0  and 1 3 0 0 0 0 0 
 # max = 19535
2645950		 # 	collision with: 1 6 1 0 0 0 0  and 3 6 1 0 0 0 0 
 # max = 19535
2645951		 # 	collision with: 6 1 1 0 0 0 0  and 6 2 1 0 0 0 0 
 # max = 19535
2645988		 # 	collision with: 6 1 1 0 0 0 0  and 1 3 1 0 0 0 0 
 # max = 19535
2645989		 # 	collision with: 3 5 2 0 0 0 0  and 4 5 2 0 0 0 0 
 # max = 19535
2645990		 # 	collision with: 1 6 6 0 0 0 0  and 3 6 6 0 0 0 0 
 # max = 19535
2645991		 # 	collision with: 5 1 0 0 0 0 0  and 6 3 0 0 0 0 0 
 # max = 19535
2646000		 # 	collision with: 0 6 6 3 0 0 0  and 4 5 0 0 0 1 0 
 # max = 19535
2646001		 # 	collision with: 3 5 1 0 0 0 0  and 4 6 2 0 0 0 0 
 # max = 19535
2646002		 # 	collision with: 5 3 0 5 0 0 0  and 4 4 1 0 0 1 0 
 # max = 19535
2646003		 # 	collision with: 2 4 1 0 0 0 0  and 2 2 2 0 0 0 0 
 # max = 19535
2646040		 # 	collision with: 6 2 1 0 0 0 0  and 6 4 1 0 0 0 0 
 # max = 19535
2646041		 # 	collision with: 3 5 1 0 0 0 0  and 3 5 2 0 0 0 0 
 # max = 19535
2646042		 # 	collision with: 4 0 1 0 0 0 0  and 4 1 1 0 0 0 0 
 # max = 19535
2646043		 # 	collision with: 5 3 1 0 0 0 0  and 6 4 1 0 0 0 0 
 # max = 19535
2646080		 # 	collision with: 1 0 4 0 0 0 0  and 1 1 4 0 0 0 0 
 # max = 19535
2646081		 # 	collision with: 4 1 1 0 0 0 0  and 4 3 1 0 0 0 0 
 # max = 19535
2646082		 # 	collision with: 1 6 1 0 0 0 0  and 3 6 1 0 0 0 0 
 # max = 19535
2646083		 # 	collision with: 6 1 0 0 0 0 0  and 6 2 0 0 0 0 0 
 # max = 19535
2646092		 # 	collision with: 3 5 0 0 0 0 0  and 4 5 0 0 0 0 0 
 # max = 19535
2646093		 # 	collision with: 3 5 0 0 0 0 0  and 4 5 0 0 0 0 0 
 # max = 19535
2646094		 # 	collision with: 1 6 4 0 0 0 0  and 3 6 4 0 0 0 0 
 # max = 19535
2646095		 # 	collision with: 6 4 1 0 0 0 0  and 6 4 2 0 0 0 0 
 # max = 19535
2646132		 # 	collision with: 4 0 2 0 0 0 0  and 3 1 2 0 0 0 0 
 # max = 19535
2646133		 # 	collision with: 3 1 0 0 0 0 0  and 3 2 0 0 0 0 0 
 # max = 19535
2646134		 # 	collision with: 1 2 2 0 0 0 0  and 1 3 2 0 0 0 0 
 # max = 19535
2646135		 # 	collision with: 1 6 1 0 0 0 0  and 3 6 1 0 0 0 0 
 # max = 19535
2646144		 # 	collision with: 3 5 1 0 0 0 0  and 4 5 1 0 0 0 0 
 # max = 19535
2646145		 # 	collision with: 2 0 1 0 0 0 0  and 2 2 1 0 0 0 0 
 # max = 19535
2646146		 # 	collision with: 5 0 3 0 0 0 0  and 5 2 3 0 0 0 0 
 # max = 19535
2646147		 # 	collision with: 1 6 0 0 0 0 0  and 3 6 0 0 0 0 0 
 # max = 19535
2646184		 # 	collision with: 3 5 3 0 0 0 0  and 4 5 3 0 0 0 0 
 # max = 19535
2646185		 # 	collision with: 3 2 1 0 0 0 0  and 4 4 1 0 0 0 0 
 # max = 19535
2646186		 # 	collision with: 1 6 0 0 0 0 0  and 3 6 0 0 0 0 0 
 # max = 19535
2646187		 # 	collision with: 4 1 0 0 0 0 0  and 0 2 0 0 0 0 0 
 # max = 19535
2646196		 # 	collision with: 3 1 0 1 0 0 0  and 6 2 0 0 0 1 0 
 # max = 19535
2646197		 # 	collision with: 2 0 2 0 0 0 0  and 2 2 2 0 0 0 0 
 # max = 19535
2646198		 # 	collision with: 5 3 5 4 0 0 0  and 1 2 1 0 0 1 0 
 # max = 19535
2646199		 # 	collision with: 4 1 0 0 0 0 0  and 0 2 2 0 0 0 0 
 # max = 19535
2646236		 # 	collision with: 3 5 1 0 0 0 0  and 4 5 1 0 0 0 0 
 # max = 19535
2646237		 # 	collision with: 3 2 1 0 0 0 0  and 4 4 1 0 0 0 0 
 # max = 19535
2646238		 # 	collision with: 4 0 3 0 0 0 0  and 0 2 3 0 0 0 0 
 # max = 19535
2646239		 # 	collision with: 1 6 1 0 0 0 0  and 3 6 1 0 0 0 0 
 # max = 19535
2646276		 # 	collision with: 3 5 0 0 0 0 0  and 4 5 0 0 0 0 0 
 # max = 19535
2646277		 # 	collision with: 3 5 0 0 0 0 0  and 4 5 0 0 0 0 0 
 # max = 19535
2646278		 # 	collision with: 1 6 4 0 0 0 0  and 3 6 4 0 0 0 0 
 # max = 19535
2646279		 # 	collision with: 4 1 0 0 0 0 0  and 4 0 2 0 0 0 0 
 # max = 19535
2646288		 # 	collision with: 4 0 1 0 0 0 0  and 3 1 1 0 0 0 0 
 # max = 19535
2646289		 # 	collision with: 2 0 0 0 0 0 0  and 2 2 0 0 0 0 0 
 # max = 19535
2646290		 # 	collision with: 5 1 1 0 0 0 0  and 6 3 1 0 0 0 0 
 # max = 19535
2646291		 # 	collision with: 1 6 0 0 0 0 0  and 3 6 0 0 0 0 0 
 # max = 19535
2646328		 # 	collision with: 3 5 3 0 0 0 0  and 4 5 3 0 0 0 0 
 # max = 19535
2646329		 # 	collision with: 3 1 0 0 0 0 0  and 4 0 2 0 0 0 0 
 # max = 19535
2646330		 # 	collision with: 1 6 0 0 0 0 0  and 3 6 0 0 0 0 0 
 # max = 19535
2646331		 # 	collision with: 5 0 0 0 0 0 0  and 5 2 0 0 0 0 0 
 # max = 19535
2646340		 # 	collision with: 5 2 2 0 0 0 0  and 5 3 2 0 0 0 0 
 # max = 19535
2646341		 # 	collision with: 4 0 0 0 0 0 0  and 3 2 0 0 0 0 0 
 # max = 19535
2646342		 # 	collision with: 2 2 2 0 0 0 0  and 2 4 2 0 0 0 0 
 # max = 19535
2646343		 # 	collision with: 6 0 1 0 0 0 0  and 5 1 1 0 0 0 0 
 # max = 19535
2646380		 # 	collision with: 3 5 4 0 0 0 0  and 4 5 4 0 0 0 0 
 # max = 19535
2646381		 # 	collision with: 1 2 1 0 0 0 0  and 6 3 1 0 0 0 0 
 # max = 19535
2646382		 # 	collision with: 1 6 1 0 0 0 0  and 3 6 1 0 0 0 0 
 # max = 19535
2646383		 # 	collision with: 6 1 0 0 0 0 0  and 6 1 2 0 0 0 0 
 # max = 19535
2646392		 # 	collision with: 1 0 6 2 0 0 0  and 2 6 0 0 0 1 0 
 # max = 19535
2646393		 # 	collision with: 1 3 0 0 0 0 0  and 1 5 0 0 0 0 0 
 # max = 19535
2646394		 # 	collision with: 1 1 0 1 0 0 0  and 0 2 0 0 0 1 0 
 # max = 19535
2646395		 # 	collision with: 4 0 0 0 0 0 0  and 4 1 0 0 0 0 0 
 # max = 19535
2646432		 # 	collision with: 3 5 0 0 0 0 0  and 4 5 0 0 0 0 0 
 # max = 19535
2646433		 # 	collision with: 3 5 0 0 0 0 0  and 4 5 0 0 0 0 0 
 # max = 19535
2646434		 # 	collision with: 1 6 4 0 0 0 0  and 3 6 4 0 0 0 0 
 # max = 19535
2646435		 # 	collision with: 1 6 0 0 0 0 0  and 3 6 0 0 0 0 0 
 # max = 19535
2646472		 # 	collision with: 3 5 3 0 0 0 0  and 4 5 3 0 0 0 0 
 # max = 19535
2646473		 # 	collision with: 1 3 0 0 0 0 0  and 6 1 1 0 0 0 0 
 # max = 19535
2646474		 # 	collision with: 1 6 0 0 0 0 0  and 3 6 0 0 0 0 0 
 # max = 19535
2646475		 # 	collision with: 4 0 0 0 0 0 0  and 4 0 1 0 0 0 0 
 # max = 19535
2646484		 # 	collision with: 3 2 4 0 0 0 0  and 4 4 4 0 0 0 0 
 # max = 19535
2646485		 # 	collision with: 4 0 0 0 0 0 0  and 3 1 0 0 0 0 0 
 # max = 19535
2646486		 # 	collision with: 1 6 1 0 0 0 0  and 3 6 1 0 0 0 0 
 # max = 19535
2646487		 # 	collision with: 6 0 0 0 0 0 0  and 5 1 0 0 0 0 0 
 # max = 19535
2646524		 # 	collision with: 3 5 1 0 0 0 0  and 4 5 1 0 0 0 0 
 # max = 19535
2646525		 # 	collision with: 4 0 0 0 0 0 0  and 4 0 1 0 0 0 0 
 # max = 19535
2646526		 # 	collision with: 6 1 3 0 0 0 0  and 6 2 3 0 0 0 0 
 # max = 19535
2646527		 # 	collision with: 2 0 0 0 0 0 0  and 2 0 1 0 0 0 0 
 # max = 19535
2646536		 # 	collision with: 2 0 1 0 0 0 0  and 2 2 1 0 0 0 0 
 # max = 19535
2646537		 # 	collision with: 3 1 0 0 0 0 0  and 4 0 1 0 0 0 0 
 # max = 19535
2646538		 # 	collision with: 6 1 1 0 0 0 0  and 6 2 1 0 0 0 0 
 # max = 19535
2646539		 # 	collision with: 3 0 0 0 0 0 0  and 3 0 1 0 0 0 0 
 # max = 19535
2646576		 # 	collision with: 3 5 5 0 0 0 0  and 4 5 5 0 0 0 0 
 # max = 19535
2646577		 # 	collision with: 1 1 0 0 0 0 0  and 1 0 1 0 0 0 0 
 # max = 19535
2646578		 # 	collision with: 1 6 2 0 0 0 0  and 3 6 2 0 0 0 0 
 # max = 19535
2646579		 # 	collision with: 4 1 0 0 0 0 0  and 4 0 1 0 0 0 0 
 # max = 19535
2646597		 # 	collision with: 6 5 3 0 0 0 0  and 6 1 4 0 0 0 0 
 # max = 19535
2646599		 # 	collision with: 3 3 0 0 0 0 0  and 1 4 0 0 0 0 0 
 # max = 19535
2646609		 # 	collision with: 1 0 4 0 0 0 0  and 1 1 4 0 0 0 0 
 # max = 19535
2646611		 # 	collision with: 6 1 5 0 0 0 0  and 6 2 5 0 0 0 0 
 # max = 19535
2646620		 # 	collision with: 2 0 0 0 0 0 0  and 2 2 0 0 0 0 0 
 # max = 19535
2646622		 # 	collision with: 3 3 0 0 0 0 0  and 3 4 0 0 0 0 0 
 # max = 19535
2646625		 # 	collision with: 1 2 1 0 0 0 0  and 6 3 1 0 0 0 0 
 # max = 19535
2646627		 # 	collision with: 3 3 0 0 0 0 0  and 1 4 0 0 0 0 0 
 # max = 19535
2646633		 # 	collision with: 3 5 1 0 0 0 0  and 4 5 1 0 0 0 0 
 # max = 19535
2646635		 # 	collision with: 0 1 1 0 0 0 0  and 4 2 1 0 0 0 0 
 # max = 19535
2646636		 # 	collision with: 5 2 0 0 0 0 0  and 5 3 0 0 0 0 0 
 # max = 19535
2646638		 # 	collision with: 4 0 0 0 0 0 0  and 4 1 0 0 0 0 0 
 # max = 19535
2646652		 # 	collision with: 4 0 0 0 0 0 0  and 3 1 0 0 0 0 0 
 # max = 19535
2646654		 # 	collision with: 3 0 0 0 0 0 0  and 1 2 0 0 0 0 0 
 # max = 19535
2646656		 # 	collision with: 4 0 0 0 0 0 0  and 3 2 0 0 0 0 0 
 # max = 19535
2646658		 # 	collision with: 4 2 0 0 0 0 0  and 0 3 0 0 0 0 0 
 # max = 19535
2646676		 # 	collision with: 2 0 0 0 0 0 0  and 2 2 0 0 0 0 0 
 # max = 19535
2646678		 # 	collision with: 3 3 0 0 0 0 0  and 3 4 0 0 0 0 0 
 # max = 19535
2646684		 # 	collision with: 4 0 0 0 0 0 0  and 3 2 0 0 0 0 0 
 # max = 19535
2646686		 # 	collision with: 4 2 0 0 0 0 0  and 0 3 0 0 0 0 0 
 # max = 19535
2646716		 # 	collision with: 3 1 0 0 0 0 0  and 3 2 0 0 0 0 0 
 # max = 19535
2646718		 # 	collision with: 1 2 0 0 0 0 0  and 1 3 0 0 0 0 0 
 # max = 19535
2646724		 # 	collision with: 1 3 0 0 0 0 0  and 1 5 0 0 0 0 0 
 # max = 19535
2646726		 # 	collision with: 5 0 0 0 0 0 0  and 5 2 0 0 0 0 0 
 # max = 19535
2646744		 # 	collision with: 3 1 0 0 0 0 0  and 3 2 0 0 0 0 0 
 # max = 19535
2646746		 # 	collision with: 1 2 0 0 0 0 0  and 1 3 0 0 0 0 0 
 # max = 19535
2646748		 # 	collision with: 5 2 0 0 0 0 0  and 5 3 0 0 0 0 0 
 # max = 19535
2646750		 # 	collision with: 4 0 0 0 0 0 0  and 4 1 0 0 0 0 0 
 # max = 19535
2646764		 # 	collision with: 4 0 0 0 0 0 0  and 3 1 0 0 0 0 0 
 # max = 19535
2646766		 # 	collision with: 3 0 0 0 0 0 0  and 1 2 0 0 0 0 0 
 # max = 19535
2646769		 # 	collision with: 3 5 1 0 0 0 0  and 4 5 1 0 0 0 0 
 # max = 19535
2646771		 # 	collision with: 1 4 2 0 0 0 0  and 3 4 2 0 0 0 0 
 # max = 19535
2646777		 # 	collision with: 1 0 4 0 0 0 0  and 1 1 4 0 0 0 0 
 # max = 19535
2646779		 # 	collision with: 1 4 3 0 0 0 0  and 3 4 3 0 0 0 0 
 # max = 19535
2646780		 # 	collision with: 1 3 0 0 0 0 0  and 1 5 0 0 0 0 0 
 # max = 19535
2646782		 # 	collision with: 5 0 0 0 0 0 0  and 5 2 0 0 0 0 0 
 # max = 19535
2646784		 # 	collision with: 0 6 5 4 1 0 0  and 2 1 0 0 0 1 0 
 # max = 19535
2646786		 # 	collision with: 2 1 4 5 1 0 0  and 4 6 0 0 0 1 0 
 # max = 19535
2646793		 # 	collision with: 3 2 0 0 0 0 0  and 4 4 0 0 0 0 0 
 # max = 19535
2646805		 # 	collision with: 3 1 2 0 0 0 0  and 3 2 2 0 0 0 0 
 # max = 19535
2646807		 # 	collision with: 1 2 3 0 0 0 0  and 1 3 3 0 0 0 0 
 # max = 19535
2646816		 # 	collision with: 3 5 1 0 0 0 0  and 4 5 1 0 0 0 0 
 # max = 19535
2646818		 # 	collision with: 1 4 2 0 0 0 0  and 3 4 2 0 0 0 0 
 # max = 19535
2646821		 # 	collision with: 3 2 0 0 0 0 0  and 4 4 0 0 0 0 0 
 # max = 19535
2646829		 # 	collision with: 3 5 0 0 0 0 0  and 4 5 0 0 0 0 0 
 # max = 19535
2646831		 # 	collision with: 1 4 0 0 0 0 0  and 3 4 0 0 0 0 0 
 # max = 19535
2646832		 # 	collision with: 3 5 2 0 0 0 0  and 4 5 2 0 0 0 0 
 # max = 19535
2646834		 # 	collision with: 1 4 0 0 0 0 0  and 3 4 0 0 0 0 0 
 # max = 19535
2646848		 # 	collision with: 3 1 3 0 0 0 0  and 3 2 3 0 0 0 0 
 # max = 19535
2646854		 # 	collision with: 3 0 2 0 0 0 0  and 1 2 2 0 0 0 0 
 # max = 19535
2646872		 # 	collision with: 3 5 5 0 0 0 0  and 4 5 5 0 0 0 0 
 # max = 19535
2646874		 # 	collision with: 1 4 3 0 0 0 0  and 3 4 3 0 0 0 0 
 # max = 19535
2646880		 # 	collision with: 4 0 2 0 0 0 0  and 3 1 2 0 0 0 0 
 # max = 19535
2646882		 # 	collision with: 3 3 2 0 0 0 0  and 1 4 2 0 0 0 0 
 # max = 19535
2646912		 # 	collision with: 3 5 0 0 0 0 0  and 4 5 0 0 0 0 0 
 # max = 19535
2646914		 # 	collision with: 1 4 1 0 0 0 0  and 3 4 1 0 0 0 0 
 # max = 19535
2646920		 # 	collision with: 5 2 1 0 0 0 0  and 5 3 1 0 0 0 0 
 # max = 19535
2646922		 # 	collision with: 4 2 1 0 0 0 0  and 0 3 1 0 0 0 0 
 # max = 19535
2646940		 # 	collision with: 3 5 0 0 0 0 0  and 4 5 0 0 0 0 0 
 # max = 19535
2646942		 # 	collision with: 3 0 5 0 0 0 0  and 1 2 5 0 0 0 0 
 # max = 19535
2646946		 # 	collision with: 1 4 0 0 0 0 0  and 3 4 0 0 0 0 0 
 # max = 19535
2646960		 # 	collision with: 3 1 3 0 0 0 0  and 3 2 3 0 0 0 0 
 # max = 19535
2646965		 # 	collision with: 3 5 2 0 0 0 0  and 4 5 2 0 0 0 0 
 # max = 19535
2646967		 # 	collision with: 1 4 3 0 0 0 0  and 3 4 3 0 0 0 0 
 # max = 19535
2646973		 # 	collision with: 3 1 2 0 0 0 0  and 3 2 2 0 0 0 0 
 # max = 19535
2646975		 # 	collision with: 1 2 3 0 0 0 0  and 1 3 3 0 0 0 0 
 # max = 19535
2646976		 # 	collision with: 4 0 1 0 0 0 0  and 3 1 1 0 0 0 0 
 # max = 19535
2646978		 # 	collision with: 2 2 1 0 0 0 0  and 2 4 1 0 0 0 0 
 # max = 19535
2646980		 # 	collision with: 6 1 0 1 4 0 0  and 4 0 6 0 0 1 0 
 # max = 19535
2646982		 # 	collision with: 2 1 4 5 4 0 0  and 3 0 0 0 0 1 0 
 # max = 19535
2646989		 # 	collision with: 1 0 2 0 0 0 0  and 1 1 2 0 0 0 0 
 # max = 19535
2646991		 # 	collision with: 1 4 0 0 0 0 0  and 3 4 0 0 0 0 0 
 # max = 19535
2647001		 # 	collision with: 5 2 0 0 0 0 0  and 5 3 0 0 0 0 0 
 # max = 19535
2647003		 # 	collision with: 3 3 1 0 0 0 0  and 3 4 1 0 0 0 0 
 # max = 19535
2647012		 # 	collision with: 3 5 0 0 0 0 0  and 4 5 0 0 0 0 0 
 # max = 19535
2647014		 # 	collision with: 1 4 1 0 0 0 0  and 3 4 1 0 0 0 0 
 # max = 19535
2647017		 # 	collision with: 1 0 2 0 0 0 0  and 1 1 2 0 0 0 0 
 # max = 19535
2647019		 # 	collision with: 1 4 0 0 0 0 0  and 3 4 0 0 0 0 0 
 # max = 19535
2647028		 # 	collision with: 6 1 1 0 0 0 0  and 1 3 1 0 0 0 0 
 # max = 19535
2647030		 # 	collision with: 0 1 1 0 0 0 0  and 4 2 1 0 0 0 0 
 # max = 19535
2647044		 # 	collision with: 3 5 1 0 0 0 0  and 4 5 1 0 0 0 0 
 # max = 19535
2647046		 # 	collision with: 1 4 2 0 0 0 0  and 3 4 2 0 0 0 0 
 # max = 19535
2647048		 # 	collision with: 3 5 2 0 0 0 0  and 4 5 2 0 0 0 0 
 # max = 19535
2647050		 # 	collision with: 1 4 0 0 0 0 0  and 3 4 0 0 0 0 0 
 # max = 19535
2647068		 # 	collision with: 3 5 0 0 0 0 0  and 4 5 0 0 0 0 0 
 # max = 19535
2647070		 # 	collision with: 4 2 5 0 0 0 0  and 0 3 5 0 0 0 0 
 # max = 19535
2647078		 # 	collision with: 1 4 0 0 0 0 0  and 3 4 0 0 0 0 0 
 # max = 19535
942.771secs	19535 176056
