# prime 11
# degree 2
# input variables 2
# output variables 7
# reload computed balance functions from file balance-84of64-p11d2m2-debug.log
# p = 11
# n = 7
# smalldomain p^m 121
# domain p^n 19487171
#	 p^2 = 121
#	 p^3 = 1331
#	 p^4 = 14641
#	 p^5 = 161051
#	 p^6 = 1771561
#	 p^7 = 19487171
opening file : balance-84of64-p11d2m2-debug.log
reloading for step2...
1.5677e-05secs	0 0
