# prime 11
# degree 2
# input variables 2
# output variables 4
# reload computed balance functions from file balance-58of64-p11d2m2-debug.log
# p = 11
# n = 4
# smalldomain p^m 121
# domain p^n 14641
#	 p^2 = 121
#	 p^3 = 1331
#	 p^4 = 14641
#	 p^5 = 161051
opening file : balance-58of64-p11d2m2-debug.log
reloading for step2...
4898		 # 	collision with: 5 1 0 0  and 6 1 0 0 
 # max = 17
4899		 # 	collision with: 9 4 0 0  and 9 6 0 0 
 # max = 75
4942		 # 	collision with: 5 2 0 0  and 6 2 0 0 
 # max = 75
4943		 # 	collision with: 5 4 0 0  and 2 5 0 0 
 # max = 75
0.0171787secs	75 35
