# prime 11
# degree 2
# input variables 2
# output variables 7
# reload computed balance functions from file balance-31of64-p11d2m2-debug.log
# p = 11
# n = 7
# smalldomain p^m 121
# domain p^n 19487171
#	 p^2 = 121
#	 p^3 = 1331
#	 p^4 = 14641
#	 p^5 = 161051
#	 p^6 = 1771561
#	 p^7 = 19487171
opening file : balance-31of64-p11d2m2-debug.log
reloading for step2...
2634		 # 	collision with: 5 3 0 0 0 0 0  and 5 4 0 0 0 0 0 
 # max = 49
2635		 # 	collision with: 7 3 0 0 0 0 0  and 7 4 0 0 0 0 0 
 # max = 51
2678		 # 	collision with: 6 2 0 0 0 0 0  and 5 4 0 0 0 0 0 
 # max = 51
2679		 # 	collision with: 2 0 0 0 0 0 0  and 4 0 0 0 0 0 0 
 # max = 51
0.0641512secs	51 30
