# prime 11
# degree 2
# input variables 2
# output variables 4
# reload computed balance functions from file balance-14of64-p11d2m2-debug.log
# p = 11
# n = 4
# smalldomain p^m 121
# domain p^n 14641
#	 p^2 = 121
#	 p^3 = 1331
#	 p^4 = 14641
#	 p^5 = 161051
opening file : balance-14of64-p11d2m2-debug.log
reloading for step2...
1194		 # 	collision with: 5 3 0 0  and 6 3 0 0 
 # max = 39
1195		 # 	collision with: 10 2 0 0  and 0 4 0 0 
 # max = 44
1238		 # 	collision with: 3 2 0 0  and 3 3 0 0 
 # max = 44
1239		 # 	collision with: 8 2 0 0  and 2 3 0 0 
 # max = 44
0.02781secs	44 30
