# prime 11
# degree 2
# input variables 2
# output variables 3
# reload computed balance functions from file balance-67of64-p11d2m2-debug.log
# p = 11
# n = 3
# smalldomain p^m 121
# domain p^n 1331
#	 p^2 = 121
#	 p^3 = 1331
#	 p^4 = 14641
#	 p^5 = 161051
opening file : balance-67of64-p11d2m2-debug.log
reloading for step2...
1.8911e-05secs	0 0
