# prime 7
# degree 3
# input variables 2
# output variables 7
# p = 7
# n = 7
# smalldomain p^m 49
# domain p^n 823543
#	 p^2 = 49
#	 p^3 = 343
#	 p^4 = 2401
#	 p^5 = 16807
#	 p^6 = 117649
#	 p^7 = 823543
#	 p^8 = 5764801
#	 p^9 = 40353607
# dimension of the chunk  66
# number of the chunk  968 of 1018 blocks
# functions to test 66
# startcode = 63888  :: endcode = 63954:: fdomain = 66
63910
63929
# 0.132927secs	# 2 balance functions. Density 0.030303
