# prime 7
# degree 3
# input variables 2
# output variables 3
# reload computed balance functions from file balance-658of1024-p7d3m2-debug.log
# p = 7
# n = 3
# smalldomain p^m 49
# domain p^n 343
#	 p^2 = 49
#	 p^3 = 343
#	 p^4 = 2401
#	 p^5 = 16807
#	 p^6 = 117649
#	 p^7 = 823543
#	 p^8 = 5764801
#	 p^9 = 40353607
opening file : balance-658of1024-p7d3m2-debug.log
reloading for step2...
43428		 # 	collision with: 3 6 0  and 2 0 1 
 # max = 51
43429		 # 	collision with: 2 0 0  and 6 2 1 
 # max = 69
43436		 # 	collision with: 0 1 0  and 5 1 0 
 # max = 69
0.0126086secs	69 14
