# prime 7
# degree 3
# input variables 2
# output variables 4
# reload computed balance functions from file balance-157of1024-p7d3m2-debug.log
# p = 7
# n = 4
# smalldomain p^m 49
# domain p^n 2401
#	 p^2 = 49
#	 p^3 = 343
#	 p^4 = 2401
#	 p^5 = 16807
#	 p^6 = 117649
#	 p^7 = 823543
#	 p^8 = 5764801
#	 p^9 = 40353607
opening file : balance-157of1024-p7d3m2-debug.log
reloading for step2...
10372		 # 	collision with: 0 3 0 0  and 2 4 0 0 
 # max = 30
0.00352656secs	30 3
