# prime 7
# degree 3
# input variables 2
# output variables 7
# reload computed balance functions from file balance-404of1024-p7d3m2-debug.log
# p = 7
# n = 7
# smalldomain p^m 49
# domain p^n 823543
#	 p^2 = 49
#	 p^3 = 343
#	 p^4 = 2401
#	 p^5 = 16807
#	 p^6 = 117649
#	 p^7 = 823543
#	 p^8 = 5764801
#	 p^9 = 40353607
opening file : balance-404of1024-p7d3m2-debug.log
reloading for step2...
26674		 # 	collision with: 3 2 0 0 0 0 0  and 0 3 0 0 0 0 0 
 # max = 21
26685		 # 	collision with: 5 2 0 0 0 0 0  and 5 3 0 0 0 0 0 
 # max = 26
26696		 # 	collision with: 1 1 0 0 0 0 0  and 5 1 0 0 0 0 0 
 # max = 26
0.00991821secs	26 6
