# prime 7
# degree 3
# input variables 2
# output variables 7
# reload computed balance functions from file balance-841of1024-p7d3m2-debug.log
# p = 7
# n = 7
# smalldomain p^m 49
# domain p^n 823543
#	 p^2 = 49
#	 p^3 = 343
#	 p^4 = 2401
#	 p^5 = 16807
#	 p^6 = 117649
#	 p^7 = 823543
#	 p^8 = 5764801
#	 p^9 = 40353607
opening file : balance-841of1024-p7d3m2-debug.log
reloading for step2...
55507		 # 	collision with: 3 0 0 0 0 0 0  and 4 0 0 0 0 0 0 
 # max = 4
55517		 # 	collision with: 2 0 0 0 0 0 0  and 3 0 0 0 0 0 0 
 # max = 4
0.00125709secs	4 0
