# prime 7
# degree 3
# input variables 2
# output variables 4
# reload computed balance functions from file balance-820of1024-p7d3m2-debug.log
# p = 7
# n = 4
# smalldomain p^m 49
# domain p^n 2401
#	 p^2 = 49
#	 p^3 = 343
#	 p^4 = 2401
#	 p^5 = 16807
#	 p^6 = 117649
#	 p^7 = 823543
#	 p^8 = 5764801
#	 p^9 = 40353607
opening file : balance-820of1024-p7d3m2-debug.log
reloading for step2...
54152		 # 	collision with: 2 1 0 0  and 2 3 0 0 
 # max = 23
54153		 # 	collision with: 5 0 0 0  and 6 0 0 0 
 # max = 23
54176		 # 	collision with: 0 1 0 0  and 0 3 0 0 
 # max = 23
54180		 # 	collision with: 0 2 6 0  and 2 3 4 1 
 # max = 562
54181		 # 	collision with: 6 1 6 0  and 1 0 1 1 
 # max = 562
0.252038secs	562 111
