# prime 7
# degree 3
# input variables 2
# output variables 3
# reload computed balance functions from file balance-53of1024-p7d3m2-debug.log
# p = 7
# n = 3
# smalldomain p^m 49
# domain p^n 343
#	 p^2 = 49
#	 p^3 = 343
#	 p^4 = 2401
#	 p^5 = 16807
#	 p^6 = 117649
#	 p^7 = 823543
#	 p^8 = 5764801
#	 p^9 = 40353607
opening file : balance-53of1024-p7d3m2-debug.log
reloading for step2...
3542		 # 	collision with: 2 0 0  and 4 0 0 
 # max = 4
3553		 # 	collision with: 3 6 0  and 5 3 1 
 # max = 75
3555		 # 	collision with: 0 2 0  and 4 3 1 
 # max = 75
0.0302524secs	75 17
