# prime 7
# degree 3
# input variables 2
# output variables 5
# reload computed balance functions from file balance-177of1024-p7d3m2-debug.log
# p = 7
# n = 5
# smalldomain p^m 49
# domain p^n 16807
#	 p^2 = 49
#	 p^3 = 343
#	 p^4 = 2401
#	 p^5 = 16807
#	 p^6 = 117649
#	 p^7 = 823543
#	 p^8 = 5764801
#	 p^9 = 40353607
opening file : balance-177of1024-p7d3m2-debug.log
reloading for step2...
11732		 # 	collision with: 2 2 2 1 0  and 1 3 0 0 1 
 # max = 2423
11733		 # 	collision with: 6 5 3 3 0  and 1 2 0 0 1 
 # max = 2423
11739		 # 	collision with: 2 4 0 0 0  and 4 4 0 0 0 
 # max = 2423
11744		 # 	collision with: 4 2 0 0 0  and 6 2 0 0 0 
 # max = 2423
1.58416secs	2423 543
