# prime 7
# degree 3
# input variables 2
# output variables 7
# reload computed balance functions from file balance-65of1024-p7d3m2-debug.log
# p = 7
# n = 7
# smalldomain p^m 49
# domain p^n 823543
#	 p^2 = 49
#	 p^3 = 343
#	 p^4 = 2401
#	 p^5 = 16807
#	 p^6 = 117649
#	 p^7 = 823543
#	 p^8 = 5764801
#	 p^9 = 40353607
opening file : balance-65of1024-p7d3m2-debug.log
reloading for step2...
4296		 # 	collision with: 3 0 0 0 0 0 0  and 6 0 0 0 0 0 0 
 # max = 6
4300		 # 	collision with: 3 0 0 0 0 0 0  and 6 0 0 0 0 0 0 
 # max = 6
4330		 # 	collision with: 2 0 0 0 0 0 0  and 4 0 0 0 0 0 0 
 # max = 6
4337		 # 	collision with: 2 3 3 3 3 3 0  and 3 0 0 0 0 0 1 
 # max = 117652
4339		 # 	collision with: 4 5 4 5 4 3 1  and 1 6 0 6 0 0 2 
 # max = 237399
4341		 # 	collision with: 1 1 0 0 0 0 0  and 3 1 0 0 0 0 0 
 # max = 237399
193.956secs	237399 39453
