# prime 7
# degree 3
# input variables 2
# output variables 3
# reload computed balance functions from file balance-851of1024-p7d3m2-debug.log
# p = 7
# n = 3
# smalldomain p^m 49
# domain p^n 343
#	 p^2 = 49
#	 p^3 = 343
#	 p^4 = 2401
#	 p^5 = 16807
#	 p^6 = 117649
#	 p^7 = 823543
#	 p^8 = 5764801
#	 p^9 = 40353607
opening file : balance-851of1024-p7d3m2-debug.log
reloading for step2...
56196		 # 	collision with: 2 1 0  and 5 2 0 
 # max = 19
56200		 # 	collision with: 4 0 0  and 6 0 0 
 # max = 19
0.00237585secs	19 2
