# prime 7
# degree 3
# input variables 2
# output variables 3
# reload computed balance functions from file balance-188of1024-p7d3m2-debug.log
# p = 7
# n = 3
# smalldomain p^m 49
# domain p^n 343
#	 p^2 = 49
#	 p^3 = 343
#	 p^4 = 2401
#	 p^5 = 16807
#	 p^6 = 117649
#	 p^7 = 823543
#	 p^8 = 5764801
#	 p^9 = 40353607
opening file : balance-188of1024-p7d3m2-debug.log
reloading for step2...
12442		 # 	collision with: 0 1 0  and 3 1 0 
 # max = 10
12454		 # 	collision with: 1 4 0  and 5 4 0 
 # max = 33
12468		 # 	collision with: 2 1 0  and 6 1 0 
 # max = 33
0.00526029secs	33 6
