# prime 7
# degree 3
# input variables 2
# output variables 3
# reload computed balance functions from file balance-995of1024-p7d3m2-debug.log
# p = 7
# n = 3
# smalldomain p^m 49
# domain p^n 343
#	 p^2 = 49
#	 p^3 = 343
#	 p^4 = 2401
#	 p^5 = 16807
#	 p^6 = 117649
#	 p^7 = 823543
#	 p^8 = 5764801
#	 p^9 = 40353607
opening file : balance-995of1024-p7d3m2-debug.log
reloading for step2...
65674		 # 	collision with: 1 1 0  and 3 1 0 
 # max = 10
65716		 # 	collision with: 4 5 0  and 1 2 1 
 # max = 64
65717		 # 	collision with: 4 3 0  and 2 0 1 
 # max = 64
0.0280585secs	64 13
