# prime 7
# degree 3
# input variables 2
# output variables 7
# reload computed balance functions from file balance-614of1024-p7d3m2-debug.log
# p = 7
# n = 7
# smalldomain p^m 49
# domain p^n 823543
#	 p^2 = 49
#	 p^3 = 343
#	 p^4 = 2401
#	 p^5 = 16807
#	 p^6 = 117649
#	 p^7 = 823543
#	 p^8 = 5764801
#	 p^9 = 40353607
opening file : balance-614of1024-p7d3m2-debug.log
reloading for step2...
40544		 # 	collision with: 2 1 1 1 5 4 0  and 3 0 0 0 0 0 1 
 # max = 117652
40545		 # 	collision with: 1 0 2 4 3 6 0  and 6 5 0 0 0 0 1 
 # max = 117690
40572		 # 	collision with: 1 2 0 0 0 0 0  and 1 4 0 0 0 0 0 
 # max = 117690
191.442secs	117690 26152
