# prime 7
# degree 3
# input variables 2
# output variables 5
# reload computed balance functions from file balance-900of1024-p7d3m2-debug.log
# p = 7
# n = 5
# smalldomain p^m 49
# domain p^n 16807
#	 p^2 = 49
#	 p^3 = 343
#	 p^4 = 2401
#	 p^5 = 16807
#	 p^6 = 117649
#	 p^7 = 823543
#	 p^8 = 5764801
#	 p^9 = 40353607
opening file : balance-900of1024-p7d3m2-debug.log
reloading for step2...
59406		 # 	collision with: 0 0 0 0 0  and 2 0 0 0 0 
 # max = 2
59444		 # 	collision with: 5 0 0 0 0  and 5 2 0 0 0 
 # max = 19
59448		 # 	collision with: 4 0 0 0 0  and 4 2 0 0 0 
 # max = 19
0.00504144secs	19 4
