# prime 7
# degree 3
# input variables 2
# output variables 3
# reload computed balance functions from file balance-506of1024-p7d3m2-debug.log
# p = 7
# n = 3
# smalldomain p^m 49
# domain p^n 343
#	 p^2 = 49
#	 p^3 = 343
#	 p^4 = 2401
#	 p^5 = 16807
#	 p^6 = 117649
#	 p^7 = 823543
#	 p^8 = 5764801
#	 p^9 = 40353607
opening file : balance-506of1024-p7d3m2-debug.log
reloading for step2...
33404		 # 	collision with: 5 1 0  and 2 2 0 
 # max = 16
33405		 # 	collision with: 2 1 0  and 6 1 0 
 # max = 16
33414		 # 	collision with: 0 1 0  and 2 1 0 
 # max = 16
33424		 # 	collision with: 0 1 0  and 5 1 0 
 # max = 16
33432		 # 	collision with: 3 4 0  and 0 0 2 
 # max = 98
33433		 # 	collision with: 0 0 0  and 1 1 1 
 # max = 98
33440		 # 	collision with: 4 2 0  and 6 2 0 
 # max = 98
0.0371861secs	98 25
