# prime 7
# degree 3
# input variables 2
# output variables 3
# reload computed balance functions from file balance-607of1024-p7d3m2-debug.log
# p = 7
# n = 3
# smalldomain p^m 49
# domain p^n 343
#	 p^2 = 49
#	 p^3 = 343
#	 p^4 = 2401
#	 p^5 = 16807
#	 p^6 = 117649
#	 p^7 = 823543
#	 p^8 = 5764801
#	 p^9 = 40353607
opening file : balance-607of1024-p7d3m2-debug.log
reloading for step2...
40064		 # 	collision with: 1 4 0  and 1 5 0 
 # max = 36
40067		 # 	collision with: 2 0 0  and 3 0 0 
 # max = 36
40088		 # 	collision with: 4 2 0  and 4 3 0 
 # max = 36
0.00559965secs	36 7
