# prime 13
# degree 3
# input variables 2
# output variables 6
# p = 13
# n = 6
# smalldomain p^m 169
# domain p^n 4826809
#	 p^2 = 169
#	 p^3 = 2197
#	 p^4 = 28561
#	 p^5 = 371293
#	 p^6 = 4826809
#	 p^7 = 62748517
#	 p^8 = 815730721
#	 p^9 = 10604499373
# dimension of the chunk  500
# number of the chunk  2874 of 2970 blocks
# functions to test 47672
# startcode = 1437000  :: endcode = 1437500:: fdomain = 1485172
1437262
1437488
1437489
# 18.2005secs	# 3 balance functions. Density 0.006
