# prime 13
# degree 3
# input variables 2
# output variables 7
# reload computed balance functions from file balance-216of2971-p13d3m2-debug.log
# p = 13
# n = 7
# smalldomain p^m 169
# domain p^n 62748517
#	 p^2 = 169
#	 p^3 = 2197
#	 p^4 = 28561
#	 p^5 = 371293
#	 p^6 = 4826809
#	 p^7 = 62748517
#	 p^8 = 815730721
#	 p^9 = 10604499373
opening file : balance-216of2971-p13d3m2-debug.log
reloading for step2...
108209		 # 	collision with: 2 6 8 9 8 9 0  and 1 0 0 0 0 0 1 
 # max = 4826810
108211		 # 	collision with: 10 11 11 5 4 7 0  and 6 1 0 0 1 0 1 
 # max = 4855389
108212		 # 	collision with: 4 9 9 9 3 6 1  and 12 1 1 1 2 1 2 
 # max = 10084424
108213		 # 	collision with: 2 11 11 11 11 11 0  and 7 0 0 0 0 0 1 
 # max = 10084424
108456		 # 	collision with: 1 2 0 0 0 0 0  and 9 2 0 0 0 0 0 
 # max = 10084424
8352.65secs	10084424 2732608
