# prime 13
# degree 3
# input variables 2
# output variables 4
# reload computed balance functions from file balance-110of2971-p13d3m2-debug.log
# p = 13
# n = 4
# smalldomain p^m 169
# domain p^n 28561
#	 p^2 = 169
#	 p^3 = 2197
#	 p^4 = 28561
#	 p^5 = 371293
#	 p^6 = 4826809
#	 p^7 = 62748517
#	 p^8 = 815730721
#	 p^9 = 10604499373
opening file : balance-110of2971-p13d3m2-debug.log
reloading for step2...
55008		 # 	collision with: 7 0 0 0  and 8 0 0 0 
 # max = 8
55481		 # 	collision with: 7 8 8 0  and 2 2 1 1 
 # max = 2394
55483		 # 	collision with: 3 5 11 0  and 4 0 1 1 
 # max = 2394
1.16352secs	2394 530
