# prime 13
# degree 3
# input variables 2
# output variables 3
# reload computed balance functions from file balance-1192of2971-p13d3m2-debug.log
# p = 13
# n = 3
# smalldomain p^m 169
# domain p^n 2197
#	 p^2 = 169
#	 p^3 = 2197
#	 p^4 = 28561
#	 p^5 = 371293
#	 p^6 = 4826809
#	 p^7 = 62748517
#	 p^8 = 815730721
#	 p^9 = 10604499373
opening file : balance-1192of2971-p13d3m2-debug.log
reloading for step2...
596032		 # 	collision with: 0 0 0  and 4 1 0 
 # max = 17
596053		 # 	collision with: 8 0 0  and 3 1 0 
 # max = 17
596089		 # 	collision with: 3 0 0  and 12 0 0 
 # max = 17
0.00494218secs	17 5
