# prime 13
# degree 3
# input variables 2
# output variables 7
# reload computed balance functions from file balance-641of2971-p13d3m2-debug.log
# p = 13
# n = 7
# smalldomain p^m 169
# domain p^n 62748517
#	 p^2 = 169
#	 p^3 = 2197
#	 p^4 = 28561
#	 p^5 = 371293
#	 p^6 = 4826809
#	 p^7 = 62748517
#	 p^8 = 815730721
#	 p^9 = 10604499373
opening file : balance-641of2971-p13d3m2-debug.log
reloading for step2...
320580		 # 	collision with: 10 9 9 12 5 8 0  and 6 0 0 0 0 0 1 
 # max = 4826815
320581		 # 	collision with: 10 8 1 2 10 3 0  and 8 0 0 0 0 0 1 
 # max = 4826817
3107.88secs	4826817 1072625
