# prime 13
# degree 3
# input variables 2
# output variables 5
# reload computed balance functions from file balance-1751of2971-p13d3m2-debug.log
# p = 13
# n = 5
# smalldomain p^m 169
# domain p^n 371293
#	 p^2 = 169
#	 p^3 = 2197
#	 p^4 = 28561
#	 p^5 = 371293
#	 p^6 = 4826809
#	 p^7 = 62748517
#	 p^8 = 815730721
#	 p^9 = 10604499373
opening file : balance-1751of2971-p13d3m2-debug.log
reloading for step2...
875611		 # 	collision with: 7 1 0 0 0  and 6 3 0 0 0 
 # max = 45
875649		 # 	collision with: 3 0 0 0 0  and 5 0 0 0 0 
 # max = 45
875680		 # 	collision with: 11 7 11 9 0  and 7 1 0 0 1 
 # max = 28581
875681		 # 	collision with: 7 2 10 6 0  and 1 0 0 0 1 
 # max = 28581
875715		 # 	collision with: 5 0 0 0 0  and 7 0 0 0 0 
 # max = 28581
875744		 # 	collision with: 8 0 0 0 0  and 10 0 0 0 0 
 # max = 28581
12.1131secs	28581 6356
