# prime 13
# degree 3
# input variables 2
# output variables 7
# reload computed balance functions from file balance-188of2971-p13d3m2-debug.log
# p = 13
# n = 7
# smalldomain p^m 169
# domain p^n 62748517
#	 p^2 = 169
#	 p^3 = 2197
#	 p^4 = 28561
#	 p^5 = 371293
#	 p^6 = 4826809
#	 p^7 = 62748517
#	 p^8 = 815730721
#	 p^9 = 10604499373
opening file : balance-188of2971-p13d3m2-debug.log
reloading for step2...
94013		 # 	collision with: 3 11 9 4 1 5 0  and 1 4 1 0 0 0 1 
 # max = 4827031
94015		 # 	collision with: 5 1 2 5 7 4 0  and 4 0 0 0 0 1 1 
 # max = 5198106
94274		 # 	collision with: 2 0 0 0 0 0 0  and 6 0 0 0 0 0 0 
 # max = 5198106
3163.92secs	5198106 1113904
