# prime 13
# degree 3
# input variables 2
# output variables 4
# reload computed balance functions from file balance-2564of2971-p13d3m2-debug.log
# p = 13
# n = 4
# smalldomain p^m 169
# domain p^n 28561
#	 p^2 = 169
#	 p^3 = 2197
#	 p^4 = 28561
#	 p^5 = 371293
#	 p^6 = 4826809
#	 p^7 = 62748517
#	 p^8 = 815730721
#	 p^9 = 10604499373
opening file : balance-2564of2971-p13d3m2-debug.log
reloading for step2...
1282229		 # 	collision with: 0 0 0 0  and 2 0 0 0 
 # max = 2
1282267		 # 	collision with: 8 0 0 0  and 12 0 0 0 
 # max = 12
1282268		 # 	collision with: 10 1 12 0  and 2 0 0 1 
 # max = 2199
1282269		 # 	collision with: 8 2 12 0  and 0 0 1 1 
 # max = 2366
1282446		 # 	collision with: 2 1 0 0  and 12 1 0 0 
 # max = 2366
1.30953secs	2366 511
