# prime 13
# degree 3
# input variables 2
# output variables 3
# reload computed balance functions from file balance-1059of2971-p13d3m2-debug.log
# p = 13
# n = 3
# smalldomain p^m 169
# domain p^n 2197
#	 p^2 = 169
#	 p^3 = 2197
#	 p^4 = 28561
#	 p^5 = 371293
#	 p^6 = 4826809
#	 p^7 = 62748517
#	 p^8 = 815730721
#	 p^9 = 10604499373
opening file : balance-1059of2971-p13d3m2-debug.log
reloading for step2...
529524		 # 	collision with: 3 0 0  and 5 0 0 
 # max = 5
529568		 # 	collision with: 9 7 0  and 11 0 1 
 # max = 180
529569		 # 	collision with: 5 4 0  and 1 0 1 
 # max = 180
529714		 # 	collision with: 3 1 0  and 8 1 0 
 # max = 180
529884		 # 	collision with: 6 0 0  and 10 0 0 
 # max = 180
0.0508192secs	180 42
