# prime 13
# degree 3
# input variables 2
# output variables 5
# reload computed balance functions from file balance-225of2971-p13d3m2-debug.log
# p = 13
# n = 5
# smalldomain p^m 169
# domain p^n 371293
#	 p^2 = 169
#	 p^3 = 2197
#	 p^4 = 28561
#	 p^5 = 371293
#	 p^6 = 4826809
#	 p^7 = 62748517
#	 p^8 = 815730721
#	 p^9 = 10604499373
opening file : balance-225of2971-p13d3m2-debug.log
reloading for step2...
112511		 # 	collision with: 0 2 0 0 0  and 6 2 0 0 0 
 # max = 32
112941		 # 	collision with: 7 8 5 3 0  and 2 0 1 0 1 
 # max = 28732
112943		 # 	collision with: 12 7 4 7 0  and 0 0 0 0 1 
 # max = 28732
112944		 # 	collision with: 4 12 3 7 1  and 9 1 1 1 2 
 # max = 59510
112945		 # 	collision with: 9 5 7 11 0  and 4 0 0 0 1 
 # max = 59510
32.5822secs	59510 16155
