# prime 13
# degree 3
# input variables 2
# output variables 4
# reload computed balance functions from file balance-313of2971-p13d3m2-debug.log
# p = 13
# n = 4
# smalldomain p^m 169
# domain p^n 28561
#	 p^2 = 169
#	 p^3 = 2197
#	 p^4 = 28561
#	 p^5 = 371293
#	 p^6 = 4826809
#	 p^7 = 62748517
#	 p^8 = 815730721
#	 p^9 = 10604499373
opening file : balance-313of2971-p13d3m2-debug.log
reloading for step2...
156624		 # 	collision with: 11 4 10 0  and 0 2 0 1 
 # max = 2223
156625		 # 	collision with: 2 12 4 0  and 11 0 0 1 
 # max = 2223
156732		 # 	collision with: 4 0 0 0  and 7 0 0 0 
 # max = 2223
0.866509secs	2223 493
