# prime 13
# degree 3
# input variables 2
# output variables 5
# reload computed balance functions from file balance-2965of2971-p13d3m2-debug.log
# p = 13
# n = 5
# smalldomain p^m 169
# domain p^n 371293
#	 p^2 = 169
#	 p^3 = 2197
#	 p^4 = 28561
#	 p^5 = 371293
#	 p^6 = 4826809
#	 p^7 = 62748517
#	 p^8 = 815730721
#	 p^9 = 10604499373
opening file : balance-2965of2971-p13d3m2-debug.log
reloading for step2...
1482506		 # 	collision with: 3 2 0 0 0  and 0 3 0 0 0 
 # max = 39
1482520		 # 	collision with: 10 1 3 1 0  and 2 0 0 0 1 
 # max = 28563
1482521		 # 	collision with: 1 0 7 12 0  and 12 3 1 0 1 
 # max = 28781
1482787		 # 	collision with: 6 0 0 0 0  and 6 2 0 0 0 
 # max = 28781
1482820		 # 	collision with: 10 0 0 0 0  and 11 0 0 0 0 
 # max = 28781
1482874		 # 	collision with: 0 0 0 0 0  and 4 0 0 0 0 
 # max = 28781
32.3638secs	28781 6381
