# prime 13
# degree 3
# input variables 2
# output variables 5
# reload computed balance functions from file balance-2658of2971-p13d3m2-debug.log
# p = 13
# n = 5
# smalldomain p^m 169
# domain p^n 371293
#	 p^2 = 169
#	 p^3 = 2197
#	 p^4 = 28561
#	 p^5 = 371293
#	 p^6 = 4826809
#	 p^7 = 62748517
#	 p^8 = 815730721
#	 p^9 = 10604499373
opening file : balance-2658of2971-p13d3m2-debug.log
reloading for step2...
1329090		 # 	collision with: 1 2 0 0 0  and 10 2 0 0 0 
 # max = 36
1329276		 # 	collision with: 0 10 7 3 0  and 2 2 0 0 1 
 # max = 28589
1329277		 # 	collision with: 2 10 3 2 0  and 9 1 0 1 1 
 # max = 30780
26.1011secs	30780 6600
