# prime 13
# degree 3
# input variables 2
# output variables 4
# reload computed balance functions from file balance-829of2971-p13d3m2-debug.log
# p = 13
# n = 4
# smalldomain p^m 169
# domain p^n 28561
#	 p^2 = 169
#	 p^3 = 2197
#	 p^4 = 28561
#	 p^5 = 371293
#	 p^6 = 4826809
#	 p^7 = 62748517
#	 p^8 = 815730721
#	 p^9 = 10604499373
opening file : balance-829of2971-p13d3m2-debug.log
reloading for step2...
414535		 # 	collision with: 0 0 0 0  and 10 0 0 0 
 # max = 10
414604		 # 	collision with: 4 1 0 0  and 8 1 0 0 
 # max = 21
414673		 # 	collision with: 1 1 0 0  and 3 1 0 0 
 # max = 21
0.0102072secs	21 5
