# prime 13
# degree 3
# input variables 2
# output variables 3
# reload computed balance functions from file balance-661of2971-p13d3m2-debug.log
# p = 13
# n = 3
# smalldomain p^m 169
# domain p^n 2197
#	 p^2 = 169
#	 p^3 = 2197
#	 p^4 = 28561
#	 p^5 = 371293
#	 p^6 = 4826809
#	 p^7 = 62748517
#	 p^8 = 815730721
#	 p^9 = 10604499373
opening file : balance-661of2971-p13d3m2-debug.log
reloading for step2...
330668		 # 	collision with: 5 8 0  and 11 1 1 
 # max = 193
330669		 # 	collision with: 5 11 0  and 0 0 1 
 # max = 193
330840		 # 	collision with: 7 1 0  and 10 1 0 
 # max = 193
0.0470663secs	193 42
