# prime 13
# degree 3
# input variables 2
# output variables 7
# reload computed balance functions from file balance-1778of2971-p13d3m2-debug.log
# p = 13
# n = 7
# smalldomain p^m 169
# domain p^n 62748517
#	 p^2 = 169
#	 p^3 = 2197
#	 p^4 = 28561
#	 p^5 = 371293
#	 p^6 = 4826809
#	 p^7 = 62748517
#	 p^8 = 815730721
#	 p^9 = 10604499373
reloading for step2...
889131		 # 	collision with: 0 0 0 0 0 0 0  and 9 0 0 0 0 0 0 
 at 9 value 889316		 # 	collision with: 5 0 0 0 0 0 0  and 12 0 0 0 0 0 0 
 at 12 value  no invertible function - THM 9 verified in the case d=3 m=2 p=13 n=7 execution-time : 0.0644091sec	 expected collision for d=3 m=2 p=13 n=7 at iteration : 2
