# prime 13
# degree 3
# input variables 2
# output variables 5
# reload computed balance functions from file balance-2740of2971-p13d3m2-debug.log
# p = 13
# n = 5
# smalldomain p^m 169
# domain p^n 371293
#	 p^2 = 169
#	 p^3 = 2197
#	 p^4 = 28561
#	 p^5 = 371293
#	 p^6 = 4826809
#	 p^7 = 62748517
#	 p^8 = 815730721
#	 p^9 = 10604499373
opening file : balance-2740of2971-p13d3m2-debug.log
reloading for step2...
1370091		 # 	collision with: 11 2 0 0 0  and 12 2 0 0 0 
 # max = 38
1370304		 # 	collision with: 11 8 8 2 0  and 4 0 0 0 1 
 # max = 28565
1370305		 # 	collision with: 9 2 6 11 0  and 2 0 1 0 2 
 # max = 57293
1370360		 # 	collision with: 8 0 0 0 0  and 10 1 0 0 0 
 # max = 57293
36.3391secs	57293 9546
