# prime 13
# degree 3
# input variables 2
# output variables 5
# reload computed balance functions from file balance-2653of2971-p13d3m2-debug.log
# p = 13
# n = 5
# smalldomain p^m 169
# domain p^n 371293
#	 p^2 = 169
#	 p^3 = 2197
#	 p^4 = 28561
#	 p^5 = 371293
#	 p^6 = 4826809
#	 p^7 = 62748517
#	 p^8 = 815730721
#	 p^9 = 10604499373
opening file : balance-2653of2971-p13d3m2-debug.log
reloading for step2...
1326624		 # 	collision with: 9 7 2 9 0  and 0 0 0 0 1 
 # max = 28561
1326625		 # 	collision with: 7 4 10 11 0  and 2 0 0 1 1 
 # max = 30760
1326788		 # 	collision with: 6 0 0 0 0  and 9 0 0 0 0 
 # max = 30760
26.4497secs	30760 6592
