# prime 13
# degree 3
# input variables 2
# output variables 5
# reload computed balance functions from file balance-514of2971-p13d3m2-debug.log
# p = 13
# n = 5
# smalldomain p^m 169
# domain p^n 371293
#	 p^2 = 169
#	 p^3 = 2197
#	 p^4 = 28561
#	 p^5 = 371293
#	 p^6 = 4826809
#	 p^7 = 62748517
#	 p^8 = 815730721
#	 p^9 = 10604499373
opening file : balance-514of2971-p13d3m2-debug.log
reloading for step2...
257400		 # 	collision with: 1 10 10 5 0  and 8 0 0 0 1 
 # max = 28569
257401		 # 	collision with: 0 6 2 10 0  and 7 0 0 0 1 
 # max = 28569
15.7743secs	28569 6348
