# prime 13
# degree 3
# input variables 2
# output variables 5
# reload computed balance functions from file balance-1683of2971-p13d3m2-debug.log
# p = 13
# n = 5
# smalldomain p^m 169
# domain p^n 371293
#	 p^2 = 169
#	 p^3 = 2197
#	 p^4 = 28561
#	 p^5 = 371293
#	 p^6 = 4826809
#	 p^7 = 62748517
#	 p^8 = 815730721
#	 p^9 = 10604499373
opening file : balance-1683of2971-p13d3m2-debug.log
reloading for step2...
841658		 # 	collision with: 6 0 0 0 0  and 8 0 0 0 0 
 # max = 8
841706		 # 	collision with: 9 1 0 0 0  and 10 1 0 0 0 
 # max = 23
841896		 # 	collision with: 5 0 0 0 0  and 9 0 0 0 0 
 # max = 23
0.0105825secs	23 4
