# prime 13
# degree 3
# input variables 2
# output variables 3
# reload computed balance functions from file balance-61of2971-p13d3m2-debug.log
# p = 13
# n = 3
# smalldomain p^m 169
# domain p^n 2197
#	 p^2 = 169
#	 p^3 = 2197
#	 p^4 = 28561
#	 p^5 = 371293
#	 p^6 = 4826809
#	 p^7 = 62748517
#	 p^8 = 815730721
#	 p^9 = 10604499373
opening file : balance-61of2971-p13d3m2-debug.log
reloading for step2...
30506		 # 	collision with: 10 0 0  and 12 0 0 
 # max = 12
30608		 # 	collision with: 8 0 0  and 11 0 0 
 # max = 12
30672		 # 	collision with: 2 0 0  and 5 0 0 
 # max = 12
30940		 # 	collision with: 1 1 1  and 2 2 2 
 # max = 366
30941		 # 	collision with: 6 5 0  and 7 0 1 
 # max = 366
0.0736896secs	366 63
