# prime 13
# degree 3
# input variables 2
# output variables 5
# reload computed balance functions from file balance-680of2971-p13d3m2-debug.log
# p = 13
# n = 5
# smalldomain p^m 169
# domain p^n 371293
#	 p^2 = 169
#	 p^3 = 2197
#	 p^4 = 28561
#	 p^5 = 371293
#	 p^6 = 4826809
#	 p^7 = 62748517
#	 p^8 = 815730721
#	 p^9 = 10604499373
opening file : balance-680of2971-p13d3m2-debug.log
reloading for step2...
340080		 # 	collision with: 8 6 4 11 0  and 9 0 0 0 1 
 # max = 28570
340081		 # 	collision with: 6 9 2 9 0  and 9 1 0 0 1 
 # max = 28583
340204		 # 	collision with: 8 0 0 0 0  and 12 0 0 0 0 
 # max = 28583
340294		 # 	collision with: 1 4 0 0 0  and 8 4 0 0 0 
 # max = 28583
12.5208secs	28583 6358
