# prime 13
# degree 3
# input variables 2
# output variables 3
# reload computed balance functions from file balance-1137of2971-p13d3m2-debug.log
# p = 13
# n = 3
# smalldomain p^m 169
# domain p^n 2197
#	 p^2 = 169
#	 p^3 = 2197
#	 p^4 = 28561
#	 p^5 = 371293
#	 p^6 = 4826809
#	 p^7 = 62748517
#	 p^8 = 815730721
#	 p^9 = 10604499373
opening file : balance-1137of2971-p13d3m2-debug.log
reloading for step2...
568568		 # 	collision with: 0 9 0  and 1 0 1 
 # max = 170
568569		 # 	collision with: 3 11 0  and 8 1 1 
 # max = 190
568685		 # 	collision with: 4 1 0  and 12 1 0 
 # max = 190
568840		 # 	collision with: 2 2 0  and 12 2 0 
 # max = 190
0.0516059secs	190 47
