# prime 13
# degree 3
# input variables 2
# output variables 5
# reload computed balance functions from file balance-2639of2971-p13d3m2-debug.log
# p = 13
# n = 5
# smalldomain p^m 169
# domain p^n 371293
#	 p^2 = 169
#	 p^3 = 2197
#	 p^4 = 28561
#	 p^5 = 371293
#	 p^6 = 4826809
#	 p^7 = 62748517
#	 p^8 = 815730721
#	 p^9 = 10604499373
opening file : balance-2639of2971-p13d3m2-debug.log
reloading for step2...
1319638		 # 	collision with: 0 3 0 0 0  and 10 3 0 0 0 
 # max = 49
1319781		 # 	collision with: 3 0 0 0 0  and 7 0 0 0 0 
 # max = 49
1319864		 # 	collision with: 12 6 8 9 0  and 10 0 0 0 1 
 # max = 28571
1319865		 # 	collision with: 6 6 6 4 0  and 0 0 0 1 1 
 # max = 30758
1319930		 # 	collision with: 6 0 0 0 0  and 8 0 0 0 0 
 # max = 30758
27.5406secs	30758 6599
