# prime 13
# degree 3
# input variables 2
# output variables 3
# reload computed balance functions from file balance-373of2971-p13d3m2-debug.log
# p = 13
# n = 3
# smalldomain p^m 169
# domain p^n 2197
#	 p^2 = 169
#	 p^3 = 2197
#	 p^4 = 28561
#	 p^5 = 371293
#	 p^6 = 4826809
#	 p^7 = 62748517
#	 p^8 = 815730721
#	 p^9 = 10604499373
opening file : balance-373of2971-p13d3m2-debug.log
reloading for step2...
186652		 # 	collision with: 0 0 0  and 2 0 0 
 # max = 2
186836		 # 	collision with: 0 5 0  and 8 0 1 
 # max = 177
186837		 # 	collision with: 3 2 0  and 8 0 1 
 # max = 177
186871		 # 	collision with: 6 1 0  and 7 1 0 
 # max = 177
0.0458664secs	177 41
