# prime 13
# degree 3
# input variables 2
# output variables 5
# reload computed balance functions from file balance-139of2971-p13d3m2-debug.log
# p = 13
# n = 5
# smalldomain p^m 169
# domain p^n 371293
#	 p^2 = 169
#	 p^3 = 2197
#	 p^4 = 28561
#	 p^5 = 371293
#	 p^6 = 4826809
#	 p^7 = 62748517
#	 p^8 = 815730721
#	 p^9 = 10604499373
opening file : balance-139of2971-p13d3m2-debug.log
reloading for step2...
69523		 # 	collision with: 5 4 0 0 0  and 5 5 0 0 0 
 # max = 70
69677		 # 	collision with: 1 1 1 1 0  and 0 0 0 0 1 
 # max = 28561
69679		 # 	collision with: 12 12 7 11 0  and 3 2 1 2 1 
 # max = 33153
69714		 # 	collision with: 7 1 0 0 0  and 8 1 0 0 0 
 # max = 33153
69924		 # 	collision with: 2 0 0 0 0  and 5 0 0 0 0 
 # max = 33153
69940		 # 	collision with: 3 4 2 7 1  and 2 1 1 2 2 
 # max = 61700
69941		 # 	collision with: 8 7 11 4 0  and 9 0 0 0 1 
 # max = 61700
33.4181secs	61700 16897
