# prime 13
# degree 3
# input variables 2
# output variables 5
# reload computed balance functions from file balance-478of2971-p13d3m2-debug.log
# p = 13
# n = 5
# smalldomain p^m 169
# domain p^n 371293
#	 p^2 = 169
#	 p^3 = 2197
#	 p^4 = 28561
#	 p^5 = 371293
#	 p^6 = 4826809
#	 p^7 = 62748517
#	 p^8 = 815730721
#	 p^9 = 10604499373
opening file : balance-478of2971-p13d3m2-debug.log
reloading for step2...
239211		 # 	collision with: 4 0 0 0 0  and 4 4 0 0 0 
 # max = 56
239252		 # 	collision with: 0 6 7 2 0  and 12 3 2 0 1 
 # max = 28950
239253		 # 	collision with: 7 11 5 4 0  and 1 0 0 0 1 
 # max = 28950
239276		 # 	collision with: 0 1 0 0 0  and 4 1 0 0 0 
 # max = 28950
15.9011secs	28950 6398
