# prime 13
# degree 3
# input variables 2
# output variables 3
# reload computed balance functions from file balance-2354of2971-p13d3m2-debug.log
# p = 13
# n = 3
# smalldomain p^m 169
# domain p^n 2197
#	 p^2 = 169
#	 p^3 = 2197
#	 p^4 = 28561
#	 p^5 = 371293
#	 p^6 = 4826809
#	 p^7 = 62748517
#	 p^8 = 815730721
#	 p^9 = 10604499373
opening file : balance-2354of2971-p13d3m2-debug.log
reloading for step2...
1177436		 # 	collision with: 6 12 0  and 1 0 1 
 # max = 170
1177437		 # 	collision with: 6 4 0  and 4 0 1 
 # max = 173
0.042912secs	173 38
