# prime 13
# degree 3
# input variables 2
# output variables 5
# reload computed balance functions from file balance-1960of2971-p13d3m2-debug.log
# p = 13
# n = 5
# smalldomain p^m 169
# domain p^n 371293
#	 p^2 = 169
#	 p^3 = 2197
#	 p^4 = 28561
#	 p^5 = 371293
#	 p^6 = 4826809
#	 p^7 = 62748517
#	 p^8 = 815730721
#	 p^9 = 10604499373
opening file : balance-1960of2971-p13d3m2-debug.log
reloading for step2...
980437		 # 	collision with: 4 0 0 0 0  and 6 0 0 0 0 
 # max = 6
980496		 # 	collision with: 11 3 0 0 0  and 12 4 0 0 0 
 # max = 64
0.0120092secs	64 7
