# prime 13
# degree 3
# input variables 2
# output variables 5
# reload computed balance functions from file balance-2829of2971-p13d3m2-debug.log
# p = 13
# n = 5
# smalldomain p^m 169
# domain p^n 371293
#	 p^2 = 169
#	 p^3 = 2197
#	 p^4 = 28561
#	 p^5 = 371293
#	 p^6 = 4826809
#	 p^7 = 62748517
#	 p^8 = 815730721
#	 p^9 = 10604499373
opening file : balance-2829of2971-p13d3m2-debug.log
reloading for step2...
1414704		 # 	collision with: 0 1 0 0 0  and 6 1 0 0 0 
 # max = 19
1414768		 # 	collision with: 9 2 0 0 0  and 12 2 0 0 0 
 # max = 38
0.00956882secs	38 6
