# prime 13
# degree 3
# input variables 2
# output variables 4
# reload computed balance functions from file balance-793of2971-p13d3m2-debug.log
# p = 13
# n = 4
# smalldomain p^m 169
# domain p^n 28561
#	 p^2 = 169
#	 p^3 = 2197
#	 p^4 = 28561
#	 p^5 = 371293
#	 p^6 = 4826809
#	 p^7 = 62748517
#	 p^8 = 815730721
#	 p^9 = 10604499373
opening file : balance-793of2971-p13d3m2-debug.log
reloading for step2...
396500		 # 	collision with: 6 3 7 0  and 1 1 0 1 
 # max = 2211
396501		 # 	collision with: 7 3 3 0  and 9 0 0 1 
 # max = 2211
396542		 # 	collision with: 6 2 0 0  and 9 2 0 0 
 # max = 2211
396633		 # 	collision with: 3 0 0 0  and 7 0 0 0 
 # max = 2211
0.790665secs	2211 495
